# vtk DataFile Version 4.0
vtk output
ASCII
DATASET POLYDATA
FIELD FieldData 4
domain 1 4 string
domain_min:-5|-5|-5
domain_max:5|5|5
cell_size:0.01|0.01|0.01
boundary:1|1|1

variables 1 8 string
T:0.305
dt:0.0005
A:121.202
V:-0.549826
Z:-0.0311224
write_case:1
substeps:10
all_steps:610

constants 1 11 string
L:0.1
csize:0.01
R:0.004
mass:0.00210445
E:2.06e+06
nu:0.33
M:20
freq:10
gamma:62.8319
S:78956.8
g:0|0|-9.81

equations 1 9 string
time:T=(T+dt)#true
eq:a=(dem_l(v,om,R,mass,E,nu,0.1)/mass)#true
tank_acceleration:A=(((-(transpose((fsum(a)*mass))*e_k))-(S*Z))/M)#true
iv:v=euler(v,((a+g)-(A*e_k)),dt)#true
ia:r=euler(r,v,dt)#true
tank_velocity:V=euler(V,A,dt)#true
tank_position:Z=euler(Z,V,dt)#true
bottom:bottom=(Z-0.05)#true
top:top=(Z+0.05)#true

POINTS 567 float
-0.0451636 -0.0354276 -0.0456145 -0.0392536 -0.0300499 -0.0440458 0.0040706 -0.0355042 -0.0419982 
-0.00850485 -0.0201833 -0.0454502 -0.00781075 -0.0263697 -0.040654 0.0138885 -0.0115599 -0.0459595 
0.0433717 -0.0126912 -0.040183 0.0390044 -0.00550477 -0.0449607 -0.0364402 0.0065828 -0.0408181 
0.00218378 0.00701566 -0.0434907 0.0107151 6.28807e-05 -0.0462505 0.0429874 0.00541423 -0.0411983 
-0.00523386 0.0162985 -0.0420415 -0.000836592 0.0233282 -0.0469113 -0.0332866 0.0387787 -0.0400002 
-0.0097762 0.0333449 -0.0480404 0.00244934 0.0317449 -0.0455197 -0.029525 -0.0462459 -0.0313768 
-0.00186212 -0.0400603 -0.0340377 0.0279718 -0.0418671 -0.0388475 0.0358049 -0.0423435 -0.0393169 
-0.0416512 -0.0307826 -0.0332175 -0.0287055 -0.0348348 -0.0323055 0.0229543 -0.0301391 -0.0308993 
0.0311698 -0.0319791 -0.0356896 0.0323302 -0.0383648 -0.0302358 0.0328498 -0.0205637 -0.0339574 
0.0421961 -0.0226459 -0.0355226 -0.0418416 -0.0172269 -0.0377375 -0.0120683 -0.0195252 -0.0316249 
-0.000875962 -0.000307523 -0.0331998 -0.0153114 0.00301682 -0.0356618 0.0187581 0.00835411 -0.0328581 
0.0330448 0.00299095 -0.0336881 -0.0255305 0.0130957 -0.0349429 -0.0327013 0.0252604 -0.0330896 
-0.0047714 0.0234686 -0.0378005 0.0289611 0.0261782 -0.0360248 -0.000762701 0.0367212 -0.036411 
0.0107733 0.0376427 -0.0364299 0.0322766 0.0304553 -0.0307977 -0.0129516 0.0424511 -0.0337596 
0.041493 0.0404559 -0.0312082 -0.0440343 -0.0458118 -0.0279019 -0.0127528 -0.0409426 -0.0289782 
0.00316437 -0.0430311 -0.0253497 0.0249322 -0.0426913 -0.0259948 0.0337848 -0.0449871 -0.0260693 
-0.0439816 -0.0382199 -0.0226192 -0.011473 -0.032531 -0.0282347 0.0101241 -0.0358561 -0.0230594 
-0.0459659 -0.0284225 -0.0237738 -0.0217036 -0.0252096 -0.022318 -0.00391329 -0.0214985 -0.025281 
-0.0431538 -0.0138011 -0.0242919 -0.0419519 -0.0188862 -0.0297592 2.76076e-06 -0.0110416 -0.0225228 
0.00432994 -0.0159357 -0.0290882 0.0117443 -0.0188893 -0.0281908 0.0396201 -0.013691 -0.0202063 
0.0246585 -0.00953444 -0.0216614 0.0392562 -0.0050565 -0.0284068 -0.00615926 0.000563785 -0.0257412 
0.012665 0.000119379 -0.027033 0.0249905 0.00816286 -0.0206292 0.0300967 0.00217597 -0.0248627 
-0.0455481 0.0115038 -0.0205879 -0.0359635 0.0104514 -0.0292385 -0.0218469 0.0136366 -0.020655 
-0.00452556 0.0107685 -0.0264474 0.00562206 0.017486 -0.0200648 0.0107203 0.0103425 -0.0217585 
-0.0423049 0.0216539 -0.0234989 -0.0426127 0.0280148 -0.0295864 -0.0247204 0.0212359 -0.0260865 
0.0076593 0.0258657 -0.0262476 0.0189667 0.0215632 -0.0202362 0.0301534 0.0296625 -0.0214928 
0.0440736 0.0283016 -0.0209303 0.0404724 0.0227666 -0.0256231 -0.00412144 0.0314243 -0.0220789 
0.00327327 0.0393635 -0.0247864 0.0185614 0.0397093 -0.0257401 -0.0413604 0.0461623 -0.0252045 
0.0125288 0.0462723 -0.0270915 0.0321571 0.0433196 -0.0270818 0.0415038 0.0400177 -0.0233958 
-0.0376579 -0.0423413 -0.013821 -0.0250668 -0.0460586 -0.017319 -0.0100383 -0.045685 -0.0151834 
0.0097371 -0.0407536 -0.0126908 0.0358738 -0.0452111 -0.0152581 0.044315 -0.0440913 -0.0150225 
-0.0443082 -0.0367954 -0.0128745 -0.0153361 -0.0359899 -0.0123698 -0.00652406 -0.0394101 -0.0197083 
0.00291548 -0.0383897 -0.0176822 0.0105187 -0.0320578 -0.0148407 0.018861 -0.0385559 -0.014007 
0.0370342 -0.0343303 -0.0151167 -0.0449908 -0.0235491 -0.017023 -0.0418905 -0.026116 -0.0104544 
-0.030247 -0.0276602 -0.0139855 -0.010582 -0.0289941 -0.013539 0.000162632 -0.0224783 -0.0181231 
0.038181 -0.0259144 -0.014708 -0.0435501 -0.018555 -0.0106892 -0.0354919 -0.019453 -0.0199032 
-0.0235033 -0.0182598 -0.0148052 -0.0151535 -0.0127048 -0.0187235 -0.00537274 -0.0140269 -0.0123514 
-0.040251 -0.00778407 -0.0118618 -0.0292471 -0.00416938 -0.0169147 -0.0104162 -0.00514349 -0.0131604 
0.00759814 -0.00305768 -0.0132102 0.0146288 -0.000929251 -0.0154382 0.0328734 -0.00851308 -0.0147763 
0.042726 -0.00905352 -0.010532 -0.0368613 0.00438532 -0.0112031 -0.00623874 0.00308308 -0.0124587 
0.0370934 0.00117811 -0.0134987 0.0445264 0.00115801 -0.0196082 -0.0462599 0.0114572 -0.0121404 
-0.0358291 0.01624 -0.0129272 -0.0198558 0.0184012 -0.0145646 -0.0105171 0.0243876 -0.0191346 
0.0145499 0.0298718 -0.0138025 0.0248745 0.0236406 -0.0155858 0.0325664 0.0203698 -0.0160397 
0.0306408 0.0283953 -0.0103827 -0.0313853 0.0300938 -0.0171228 -0.0269979 0.036336 -0.0133412 
-0.0133392 0.035873 -0.0193535 -0.0119543 0.0344435 -0.0105489 0.0343138 0.0367014 -0.0153724 
-0.0341004 0.0452214 -0.0167772 -0.0396728 0.0415588 -0.0111657 -0.0118594 0.0446074 -0.0145524 
0.0083178 0.0405238 -0.0146953 -0.0427041 -0.0431907 -0.00707448 -0.0351136 -0.0450494 -0.00634182 
-0.0185283 -0.0457999 -0.001225 0.026682 -0.0423966 -0.0034347 0.0327828 -0.0431535 -0.00821503 
0.0389204 -0.0445047 -0.00294683 -0.0440203 -0.0358941 -0.00118863 -0.0339864 -0.0354399 -0.00419542 
-0.0209635 -0.0381379 -0.00414872 -0.00822721 -0.0398881 -0.0029957 0.0259941 -0.0341012 -0.00126441 
-0.0332997 -0.0235656 -0.00646767 -0.0235421 -0.0265526 -0.00144283 -0.0169721 -0.0274301 -0.00782091 
-0.00151365 -0.027176 -0.003084 0.0179747 -0.0216929 -0.00478839 0.0204025 -0.028603 -0.001121 
0.0402406 -0.0256743 -0.00361835 -0.0339597 -0.0140498 -0.00719206 -0.0100264 -0.0194535 -0.00210237 
-0.0154617 -0.0102942 -0.00307742 0.00423057 -0.0167567 -0.00515454 0.0149589 -0.0102455 -0.00777288 
0.0300971 -0.0180391 -0.00763147 0.0374533 -0.0115558 -0.00135813 0.0457707 -0.0194407 -0.00787564 
-0.0412325 -0.00629004 -0.00366727 -0.0292645 -0.00787102 -0.00132391 -0.0277844 -0.000480854 -0.00338947 
-0.00445936 -0.0042117 -0.00512104 0.00106205 -0.0077945 -0.00988851 0.0214821 -0.00155191 -0.00985728 
0.029321 -0.000200705 -0.00972678 0.0310338 -0.0086662 -0.00590669 -0.0440326 0.00119658 -0.00641244 
-0.0461145 0.00859208 -0.000105686 -0.0376607 0.00412984 -0.00145371 -0.0242277 0.00698423 -0.000626547 
-0.0187617 0.00609904 -0.00946314 0.00350529 0.00763502 -0.00482757 0.0116152 0.00619291 -0.00567917 
0.0240537 0.00759093 -0.00884369 -0.0460734 0.0192379 -0.00449656 -0.0389333 0.016609 -0.00131902 
-0.0324565 0.0111892 -0.00659656 -0.0214013 0.0154945 -0.00396077 -0.00187458 0.0128115 -0.00418982 
0.0386585 0.0154263 -0.00175292 0.0307652 0.0118919 -0.00486674 0.045243 0.0197331 -0.00241713 
-0.0447152 0.027156 -0.00887075 -0.0124624 0.0256158 -0.00753281 -0.00128996 0.0275586 -0.000874274 
0.00242155 0.02167 -0.00948687 0.00475506 0.0221441 -0.000638887 0.0175187 0.0232272 -0.00267943 
0.0279365 0.028934 -0.00201148 0.0217973 0.0260794 -0.00886791 0.0376858 0.0279495 -0.00727909 
-0.045826 0.0377942 -0.00539414 -0.0302848 0.0316532 -0.00650768 -0.0365017 0.0367644 -0.00479079 
-0.022858 0.032076 -0.00412973 -0.0173581 0.0387542 -0.00704641 0.0211287 0.0324025 -0.00356937 
0.0391198 0.038341 -0.00737718 -0.0444907 0.0457435 -0.00331477 -0.0320904 0.0441471 -0.00207019 
-0.0213669 0.0460529 -0.00595986 -0.0100871 0.0444093 -0.00176707 -0.0052661 0.0414798 -0.00760297 
0.00409358 0.0458263 -0.0066291 0.0137451 0.0447174 -0.000493196 0.0232231 0.0449713 -0.00392425 
0.0451229 0.0456256 -0.000235107 -0.0357783 -0.0408348 0.00989667 -0.021123 -0.0401426 0.00679367 
0.00903876 -0.0456751 0.00375449 0.00153034 -0.0442245 0.00426807 -0.0433739 -0.0342926 0.00791973 
-0.0249689 -0.0336579 0.00290003 -0.00301516 -0.0346094 0.00159067 0.0162142 -0.0305923 0.00791932 
0.021177 -0.0359643 0.00790903 0.0458756 -0.0333474 0.00219334 -0.0455301 -0.0233942 0.00711466 
-0.0314597 -0.0291106 0.00496226 -0.0150284 -0.0253638 0.00386241 -0.00630608 -0.0262465 0.00728959 
0.00410329 -0.0291887 0.00953271 0.00703031 -0.0238756 0.000855657 0.0218152 -0.0240549 0.00942126 
0.030626 -0.0218923 0.00188403 0.0456162 -0.0243081 0.00566442 -0.0444872 -0.0148158 0.00604547 
-0.0387195 -0.0193017 0.00329955 -0.0224448 -0.0196811 0.00705239 -0.0295297 -0.0145435 0.00520714 
-0.0163423 -0.0145914 0.00749372 -0.0030858 -0.0180371 0.00251334 0.000597325 -0.0130612 0.0087137 
0.0139761 -0.0178256 0.00846174 0.0435936 -0.0116389 0.00404147 -0.0427568 -0.00504891 0.00800735 
-0.0308369 -0.00610596 0.00743453 -0.0147662 -0.00532876 0.00589017 -0.00623812 -0.000789535 0.00677223 
-0.00519268 -0.00923002 0.00360116 0.00130452 -0.00278955 0.00803137 0.00996586 -0.00997083 0.00329992 
0.0199591 -0.00981686 0.00147349 0.0398246 -0.0015452 0.00262741 -0.0273514 0.00125888 0.00511606 
-0.0146073 0.00283855 0.00588209 -0.00747267 0.00727403 0.000978127 0.000639118 0.00708207 0.00316046 
0.0125825 0.00891926 0.00977903 0.0140714 0.00169187 0.00351129 0.0221195 0.0036826 0.00393918 
0.0301948 0.000965784 0.00488498 0.0438219 0.00510593 0.00748509 -0.0312608 0.012974 0.00798508 
-0.0211897 0.0117356 0.00996664 -0.0138064 0.0144918 0.000402702 -0.00254984 0.0111148 0.00993126 
0.00574517 0.0150769 0.00209098 0.0177175 0.0108555 0.00332653 0.0339366 0.0129919 0.0048091 
0.0326143 0.0197419 0.00189682 -0.0423435 0.0249241 0.00860763 -0.0336174 0.0227465 0.00175003 
-0.0248223 0.0205121 0.00636363 -0.0188315 0.0226731 0.000508791 -0.00847711 0.0207059 0.00515796 
-0.00147894 0.0239999 0.00768925 0.00526702 0.0298825 0.00648358 0.0147064 0.0265459 0.00544619 
0.0256454 0.0242624 0.00682677 0.0375056 0.026314 0.00163204 -0.043195 0.0365001 0.00904762 
-0.0361321 0.0319487 0.00752683 -0.0217912 0.0382095 0.00109083 -0.0282673 0.0345199 0.00471718 
-0.0155844 0.0345368 0.0053717 -0.0075213 0.034619 0.00514563 0.00791518 0.0361455 0.000848558 
0.0147715 0.0370347 0.0066185 0.0260835 0.0329428 0.00487262 0.0378765 0.031307 0.00865449 
0.0324031 0.0397401 0.00627129 0.0359402 0.0344985 0.00163488 0.0453358 0.0384858 0.00790421 
-0.037868 0.0419414 0.0037116 -0.0145411 0.0429565 0.00761437 -0.0446999 -0.0453299 0.0121628 
-0.0387871 -0.0435046 0.0189088 -0.0242511 -0.0420533 0.0176836 -0.0271071 -0.0456931 0.0102374 
-0.0185122 -0.0458402 0.0120455 -0.00908161 -0.0447867 0.0133893 0.00844705 -0.0453064 0.0168291 
0.0153409 -0.040291 0.0125949 0.0263226 -0.0441789 0.0166803 0.0386412 -0.0447407 0.0104497 
0.0302661 -0.0418321 0.010024 -0.0454589 -0.0349179 0.0175593 -0.0362692 -0.03322 0.0193669 
-0.0212881 -0.031121 0.017113 -0.0298914 -0.0360084 0.0119255 -0.0127985 -0.0372267 0.017707 
-0.00416745 -0.0384864 0.0188242 -0.00310382 -0.0307357 0.0138648 0.00442727 -0.0368182 0.0163656 
0.0123926 -0.0328547 0.0198776 0.0292004 -0.0340674 0.0166455 0.0369578 -0.0323943 0.0114292 
-0.0376405 -0.0235876 0.0146647 -0.0126646 -0.0267441 0.0123992 -0.00517643 -0.0203224 0.0161566 
0.0027068 -0.0256439 0.0166536 0.0151036 -0.0243456 0.0146218 0.0314466 -0.0247074 0.0104644 
-0.0443061 -0.0163948 0.0169046 -0.0388168 -0.0118714 0.0111283 -0.0336769 -0.0141854 0.0199295 
-0.0285733 -0.0112753 0.0137956 -0.0230879 -0.0183286 0.0162661 0.00350669 -0.0158542 0.0180532 
0.0134273 -0.0156836 0.0184375 0.0232734 -0.0131334 0.0114688 0.0353113 -0.0177884 0.0116695 
0.0312275 -0.0116161 0.019656 0.0456268 -0.0103099 0.0178172 0.0418313 -0.0187281 0.0168976 
-0.0260921 -0.00376088 0.0140152 -0.0204647 -0.00819116 0.0107219 -0.0110013 -0.00239776 0.015221 
0.0077857 -0.00921824 0.0132771 0.00960239 -0.00174089 0.0186374 0.0168551 -0.0010325 0.011221 
0.0260837 -0.00221658 0.013046 0.0374358 -0.00602153 0.0190009 0.030605 -0.00991619 0.0109259 
-0.0418355 0.00592909 0.0132021 -0.0331283 0.00121348 0.0161274 -0.0267312 0.00482174 0.0131033 
-0.0112586 0.00580051 0.0139861 -0.0190968 0.00617519 0.0152278 -0.00229135 0.00923129 0.0196303 
0.00651166 0.00338478 0.0116099 0.00100862 0.00214176 0.0187627 0.0193545 0.00856125 0.0169539 
0.0256744 0.00668001 0.0124639 0.0207072 0.00109949 0.0189865 0.0327759 0.00456278 0.0148436 
0.0431479 0.000413528 0.0181978 -0.0460638 0.0140526 0.0106539 -0.0392274 0.0133274 0.018409 
-0.0129882 0.0152812 0.0134367 0.00479224 0.0159817 0.0147674 0.012708 0.0197615 0.0141589 
0.0295268 0.0198368 0.0157868 0.0225502 0.0167112 0.0167269 0.0387543 0.0108371 0.0160464 
-0.0427576 0.0202653 0.0190391 -0.0359795 0.020289 0.0119086 -0.0368068 0.026686 0.0191707 
-0.0294392 0.0271867 0.0109473 -0.0287727 0.0201015 0.0169654 -0.00826783 0.0283351 0.010756 
0.00687791 0.0260047 0.0170773 0.0224483 0.0293888 0.0120114 0.0302605 0.0299931 0.0147122 
0.0400888 0.0205954 0.0103932 0.0440425 0.0269597 0.0171493 -0.0379694 0.034143 0.0156041 
-0.0223865 0.0384744 0.0178184 -0.0174592 0.0305389 0.0180847 -0.00179152 0.0336961 0.0156063 
0.00768679 0.0396038 0.0138105 0.0126533 0.0316632 0.0121089 0.0194584 0.0371379 0.0138844 
0.027447 0.0385328 0.0165836 0.0357463 0.0368916 0.0176836 -0.0459451 0.0433848 0.0148536 
-0.03458 0.0451507 0.0160134 -0.025782 0.0444545 0.0138846 -0.0103967 0.0425946 0.0162286 
-0.00204666 0.0427347 0.0123083 0.00465838 0.0463904 0.018394 0.0129992 0.0458451 0.0134971 
0.0232979 0.0459652 0.0123679 0.0310995 0.0457052 0.0139646 0.0390953 0.0416646 0.0114539 
-0.0459902 -0.0446605 0.0273283 -0.0393603 -0.0403563 0.0288068 -0.028866 -0.0455518 0.0270694 
-0.0186726 -0.0453219 0.0243215 -0.00888699 -0.044351 0.0218314 0.0085026 -0.046028 0.0293034 
0.000307204 -0.0460679 0.0289035 0.0143752 -0.0433986 0.0246566 0.0304521 -0.0417498 0.0229089 
0.00834589 -0.0352333 0.0274852 0.0187251 -0.0377033 0.0206632 0.0284795 -0.0312041 0.0297987 
0.0368117 -0.0316596 0.029889 0.0401175 -0.0382837 0.0229481 -0.0445309 -0.0299302 0.0286684 
-0.0442721 -0.0258542 0.0208356 -0.0428994 -0.0221492 0.028334 -0.0338568 -0.0267677 0.0235304 
-0.0263592 -0.0225231 0.0245052 -0.015359 -0.0201657 0.0217986 -0.0126003 -0.028517 0.0217319 
-0.00262441 -0.0224449 0.0275033 0.00731769 -0.0256478 0.0240577 0.0159268 -0.0241299 0.0259507 
0.0242412 -0.0288943 0.0222494 0.0227754 -0.0206822 0.021225 0.0307642 -0.0206887 0.0241163 
0.0387708 -0.0291185 0.020368 0.0459376 -0.0296277 0.0269706 -0.0405174 -0.0123194 0.0224881 
-0.0284695 -0.0101289 0.0290007 -0.0212111 -0.0163267 0.0256508 -0.012303 -0.0117936 0.0210694 
-0.00296716 -0.0153903 0.0223778 0.0010735 -0.0118303 0.0287031 0.0104523 -0.0136365 0.027616 
0.0232703 -0.0104208 0.020629 0.031473 -0.0107511 0.0298923 0.0443316 -0.0163398 0.0242108 
-0.0317437 -0.00673324 0.0210198 -0.0185196 -0.00657284 0.0275137 -0.00599381 -0.00522307 0.0219328 
-0.00441638 -0.0051325 0.0299648 0.00533258 -0.00785749 0.0231109 0.0138999 -0.0072094 0.0226279 
0.0429435 -0.00465845 0.0264137 -0.0406883 0.0036877 0.0218793 -0.0456628 0.00938933 0.0252432 
-0.031532 0.00822741 0.0239745 -0.0281366 0.00167685 0.029076 -0.0125727 0.00756222 0.0246398 
-0.00113939 0.0076506 0.0276267 0.012756 0.00591509 0.0204131 0.0367176 0.00851944 0.0261124 
0.0316553 0.00121721 0.0282408 0.0438781 0.00647167 0.0235151 -0.0333877 0.0178063 0.0288546 
-0.0128229 0.0164395 0.0257155 -0.00647575 0.019935 0.0216993 0.00175717 0.0170419 0.0232866 
0.0140262 0.0140244 0.025492 0.0260389 0.0163247 0.0275107 0.030364 0.0103859 0.0213208 
0.0431937 0.0159015 0.0207629 -0.031173 0.0258416 0.0277981 -0.0242399 0.0276805 0.022099 
-0.0187676 0.0222144 0.0201898 -0.0190922 0.0277521 0.0298131 -0.00193359 0.0259539 0.020628 
0.0125522 0.0284082 0.0228078 0.0202635 0.0232916 0.0216041 0.0346808 0.0256512 0.0217735 
0.0451126 0.0239809 0.0244612 -0.0459063 0.038942 0.0297184 -0.0352047 0.0377087 0.0229625 
-0.0137766 0.0351331 0.0292073 0.00891628 0.0371493 0.0254596 0.000346191 0.0377097 0.0254578 
0.0196472 0.0372768 0.0231366 0.0282522 0.0367114 0.0248787 0.0239897 0.0303937 0.0202242 
0.0403586 0.0325109 0.0273797 -0.0417565 0.0439616 0.0248148 -0.0262224 0.0431173 0.0259317 
0.018892 0.0453583 0.0255237 0.0289336 0.0451021 0.0215451 0.0436045 0.045524 0.0237297 
-0.0202207 -0.0404737 0.0315038 -0.0135322 -0.0417197 0.0367538 0.0192577 -0.0452224 0.0359371 
0.0269418 -0.0454344 0.0308145 0.0360337 -0.0450538 0.0324324 0.0438905 -0.0447876 0.0350701 
-0.0403301 -0.0317092 0.038313 -0.0311558 -0.0309743 0.0311808 -0.0291105 -0.0392478 0.0330956 
-0.0143349 -0.0311173 0.0355507 -0.00546019 -0.0348174 0.0383317 0.00748732 -0.0322626 0.0382055 
0.0023107 -0.0325658 0.032125 0.015055 -0.03369 0.032783 0.0223737 -0.0363215 0.0352346 
0.0442881 -0.035921 0.0339735 -0.0320744 -0.021948 0.0310988 -0.0225229 -0.0247637 0.0322325 
-0.0107603 -0.0241149 0.032378 0.0018269 -0.0259567 0.0367084 0.00829268 -0.0217634 0.0349998 
0.0181466 -0.0257413 0.0353409 0.0256917 -0.0222762 0.0326347 0.0384214 -0.0241413 0.035975 
-0.0451794 -0.0134972 0.0356448 -0.0126114 -0.0119798 0.033101 0.015889 -0.0181665 0.0341866 
0.0235422 -0.0140983 0.0354191 0.0353384 -0.0180591 0.0321085 0.0427117 -0.0135219 0.0374237 
-0.0452093 -0.0003009 0.0322086 -0.0391388 -0.00832666 0.0357058 -0.0320182 -0.00257054 0.0360211 
-0.0241067 -0.00478364 0.0334788 -0.0194099 -0.00135175 0.0392545 0.010225 -0.0046843 0.0302605 
0.0226179 -0.00454288 0.0321926 0.037643 -0.00353903 0.036368 0.0301625 -0.00120594 0.0359614 
-0.0399569 0.00903848 0.0325986 -0.0387114 0.00269679 0.0375716 -0.0297165 0.008921 0.0323652 
-0.0148954 0.00493596 0.0355502 -0.00584192 0.0025005 0.0324075 0.00914775 0.00582701 0.0356035 
0.00148687 0.00238057 0.0373493 0.01563 0.00500652 0.0306864 0.0233435 0.00242639 0.0384202 
0.043702 0.000948696 0.037374 -0.0450865 0.0182866 0.0339401 -0.0268792 0.017188 0.0338944 
-0.0216739 0.0114176 0.0331598 -0.0171736 0.0183725 0.034955 -0.0069807 0.0121787 0.0341864 
0.00211946 0.0127385 0.0397587 0.00328715 0.018495 0.0319525 0.010655 0.0144676 0.0344444 
0.0297444 0.0157598 0.0355759 0.0376957 0.0172328 0.0342099 0.0451266 0.0117194 0.0366467 
-0.0450014 0.0292444 0.0308032 -0.0383413 0.0248783 0.0333973 -0.0261122 0.0253113 0.0342705 
-0.0121403 0.0232459 0.0311825 -0.00586412 0.02026 0.0350251 -0.00201943 0.0273624 0.0332606 
0.00602814 0.0293758 0.0319405 0.0130414 0.0217763 0.0371099 0.0153575 0.0290691 0.030997 
0.0261516 0.0283346 0.034603 0.0201482 0.0233486 0.035624 0.032498 0.024147 0.0387488 
0.046108 0.0222929 0.0337361 -0.0320694 0.030231 0.0362894 -0.0372485 0.0364223 0.031353 
-0.023087 0.0394975 0.035071 -0.00896139 0.0336746 0.0368016 0.0127171 0.0348704 0.0391184 
0.0203054 0.0366958 0.0327323 0.030508 0.0368852 0.036376 0.0427635 0.031057 0.0365387 
-0.0305497 0.0438684 0.0358076 -0.0182053 0.0461959 0.030801 -0.00718537 0.0421735 0.0346151 
0.00797779 0.0433291 0.0304857 0.0308501 0.0461301 0.0337879 0.0390056 0.0416196 0.0387938 

VERTICES 1134 1134
1 0 
1 1 
1 2 
1 3 
1 4 
1 5 
1 6 
1 7 
1 8 
1 9 
1 10 
1 11 
1 12 
1 13 
1 14 
1 15 
1 16 
1 17 
1 18 
1 19 
1 20 
1 21 
1 22 
1 23 
1 24 
1 25 
1 26 
1 27 
1 28 
1 29 
1 30 
1 31 
1 32 
1 33 
1 34 
1 35 
1 36 
1 37 
1 38 
1 39 
1 40 
1 41 
1 42 
1 43 
1 44 
1 45 
1 46 
1 47 
1 48 
1 49 
1 50 
1 51 
1 52 
1 53 
1 54 
1 55 
1 56 
1 57 
1 58 
1 59 
1 60 
1 61 
1 62 
1 63 
1 64 
1 65 
1 66 
1 67 
1 68 
1 69 
1 70 
1 71 
1 72 
1 73 
1 74 
1 75 
1 76 
1 77 
1 78 
1 79 
1 80 
1 81 
1 82 
1 83 
1 84 
1 85 
1 86 
1 87 
1 88 
1 89 
1 90 
1 91 
1 92 
1 93 
1 94 
1 95 
1 96 
1 97 
1 98 
1 99 
1 100 
1 101 
1 102 
1 103 
1 104 
1 105 
1 106 
1 107 
1 108 
1 109 
1 110 
1 111 
1 112 
1 113 
1 114 
1 115 
1 116 
1 117 
1 118 
1 119 
1 120 
1 121 
1 122 
1 123 
1 124 
1 125 
1 126 
1 127 
1 128 
1 129 
1 130 
1 131 
1 132 
1 133 
1 134 
1 135 
1 136 
1 137 
1 138 
1 139 
1 140 
1 141 
1 142 
1 143 
1 144 
1 145 
1 146 
1 147 
1 148 
1 149 
1 150 
1 151 
1 152 
1 153 
1 154 
1 155 
1 156 
1 157 
1 158 
1 159 
1 160 
1 161 
1 162 
1 163 
1 164 
1 165 
1 166 
1 167 
1 168 
1 169 
1 170 
1 171 
1 172 
1 173 
1 174 
1 175 
1 176 
1 177 
1 178 
1 179 
1 180 
1 181 
1 182 
1 183 
1 184 
1 185 
1 186 
1 187 
1 188 
1 189 
1 190 
1 191 
1 192 
1 193 
1 194 
1 195 
1 196 
1 197 
1 198 
1 199 
1 200 
1 201 
1 202 
1 203 
1 204 
1 205 
1 206 
1 207 
1 208 
1 209 
1 210 
1 211 
1 212 
1 213 
1 214 
1 215 
1 216 
1 217 
1 218 
1 219 
1 220 
1 221 
1 222 
1 223 
1 224 
1 225 
1 226 
1 227 
1 228 
1 229 
1 230 
1 231 
1 232 
1 233 
1 234 
1 235 
1 236 
1 237 
1 238 
1 239 
1 240 
1 241 
1 242 
1 243 
1 244 
1 245 
1 246 
1 247 
1 248 
1 249 
1 250 
1 251 
1 252 
1 253 
1 254 
1 255 
1 256 
1 257 
1 258 
1 259 
1 260 
1 261 
1 262 
1 263 
1 264 
1 265 
1 266 
1 267 
1 268 
1 269 
1 270 
1 271 
1 272 
1 273 
1 274 
1 275 
1 276 
1 277 
1 278 
1 279 
1 280 
1 281 
1 282 
1 283 
1 284 
1 285 
1 286 
1 287 
1 288 
1 289 
1 290 
1 291 
1 292 
1 293 
1 294 
1 295 
1 296 
1 297 
1 298 
1 299 
1 300 
1 301 
1 302 
1 303 
1 304 
1 305 
1 306 
1 307 
1 308 
1 309 
1 310 
1 311 
1 312 
1 313 
1 314 
1 315 
1 316 
1 317 
1 318 
1 319 
1 320 
1 321 
1 322 
1 323 
1 324 
1 325 
1 326 
1 327 
1 328 
1 329 
1 330 
1 331 
1 332 
1 333 
1 334 
1 335 
1 336 
1 337 
1 338 
1 339 
1 340 
1 341 
1 342 
1 343 
1 344 
1 345 
1 346 
1 347 
1 348 
1 349 
1 350 
1 351 
1 352 
1 353 
1 354 
1 355 
1 356 
1 357 
1 358 
1 359 
1 360 
1 361 
1 362 
1 363 
1 364 
1 365 
1 366 
1 367 
1 368 
1 369 
1 370 
1 371 
1 372 
1 373 
1 374 
1 375 
1 376 
1 377 
1 378 
1 379 
1 380 
1 381 
1 382 
1 383 
1 384 
1 385 
1 386 
1 387 
1 388 
1 389 
1 390 
1 391 
1 392 
1 393 
1 394 
1 395 
1 396 
1 397 
1 398 
1 399 
1 400 
1 401 
1 402 
1 403 
1 404 
1 405 
1 406 
1 407 
1 408 
1 409 
1 410 
1 411 
1 412 
1 413 
1 414 
1 415 
1 416 
1 417 
1 418 
1 419 
1 420 
1 421 
1 422 
1 423 
1 424 
1 425 
1 426 
1 427 
1 428 
1 429 
1 430 
1 431 
1 432 
1 433 
1 434 
1 435 
1 436 
1 437 
1 438 
1 439 
1 440 
1 441 
1 442 
1 443 
1 444 
1 445 
1 446 
1 447 
1 448 
1 449 
1 450 
1 451 
1 452 
1 453 
1 454 
1 455 
1 456 
1 457 
1 458 
1 459 
1 460 
1 461 
1 462 
1 463 
1 464 
1 465 
1 466 
1 467 
1 468 
1 469 
1 470 
1 471 
1 472 
1 473 
1 474 
1 475 
1 476 
1 477 
1 478 
1 479 
1 480 
1 481 
1 482 
1 483 
1 484 
1 485 
1 486 
1 487 
1 488 
1 489 
1 490 
1 491 
1 492 
1 493 
1 494 
1 495 
1 496 
1 497 
1 498 
1 499 
1 500 
1 501 
1 502 
1 503 
1 504 
1 505 
1 506 
1 507 
1 508 
1 509 
1 510 
1 511 
1 512 
1 513 
1 514 
1 515 
1 516 
1 517 
1 518 
1 519 
1 520 
1 521 
1 522 
1 523 
1 524 
1 525 
1 526 
1 527 
1 528 
1 529 
1 530 
1 531 
1 532 
1 533 
1 534 
1 535 
1 536 
1 537 
1 538 
1 539 
1 540 
1 541 
1 542 
1 543 
1 544 
1 545 
1 546 
1 547 
1 548 
1 549 
1 550 
1 551 
1 552 
1 553 
1 554 
1 555 
1 556 
1 557 
1 558 
1 559 
1 560 
1 561 
1 562 
1 563 
1 564 
1 565 
1 566 

POINT_DATA 567
SCALARS id double
LOOKUP_TABLE default
13 206 135 14 48 274 386 537 73 
340 147 426 183 436 107 314 536 42 
66 526 487 140 189 528 508 193 413 
453 112 196 214 439 428 354 298 37 
309 547 289 474 564 240 566 71 29 
388 51 400 76 256 444 227 157 315 
54 139 273 18 381 472 443 552 277 
276 417 475 235 223 311 407 295 499 
45 299 175 546 553 502 561 333 248 
53 123 44 225 484 372 7 257 129 
383 462 69 20 72 190 253 335 385 
331 126 78 84 201 268 542 108 62 
266 141 329 85 262 94 449 454 539 
551 397 483 533 267 360 164 231 180 
515 541 380 408 234 121 187 373 394 
287 181 249 209 17 24 23 211 259 
469 26 35 19 143 478 416 210 198 
203 260 524 549 162 4 473 442 384 
464 517 510 228 151 207 224 81 401 
430 509 58 95 221 342 296 414 477 
554 28 32 97 371 279 493 79 521 
117 232 351 286 155 237 538 425 421 
50 359 233 300 344 186 246 188 169 
374 247 57 301 434 282 562 74 31 
507 255 82 200 330 252 128 322 61 
77 63 202 205 326 402 458 511 275 
56 336 153 152 161 167 261 513 118 
171 90 424 399 482 325 278 396 392 
527 560 412 238 280 352 409 531 427 
60 281 363 217 312 411 550 165 172 
176 92 21 125 163 463 481 488 168 
184 230 337 59 303 346 358 503 529 
501 387 555 49 47 145 25 70 8 
316 91 195 514 272 327 264 101 41 
191 254 34 447 5 390 197 512 460 
182 382 204 136 379 523 43 156 30 
146 115 448 215 64 500 389 324 535 
415 68 294 263 285 220 134 498 341 
99 103 370 355 185 222 87 40 437 
465 506 366 418 116 11 258 343 353 
496 348 516 120 38 122 46 173 226 
270 364 419 559 485 243 361 109 310 
306 305 365 420 236 114 177 250 229 
345 548 438 375 490 494 0 132 1 
12 130 67 150 269 318 9 504 321 
518 320 93 334 96 27 15 432 3 
293 290 131 446 328 468 89 137 241 
33 102 142 347 2 525 403 563 378 
83 138 338 213 154 192 557 52 10 
212 218 86 208 540 452 479 476 291 
284 170 148 283 410 398 395 166 239 
313 349 431 558 367 435 530 124 377 
110 339 357 308 245 429 445 178 179 
480 404 492 104 6 405 216 505 441 
88 160 461 75 16 466 133 317 455 
532 98 194 36 65 451 459 406 457 
55 265 22 450 393 519 100 39 105 
376 319 219 467 456 391 127 304 356 
251 144 495 199 534 520 522 174 292 
113 149 489 362 422 297 369 544 323 
119 158 307 244 80 486 433 332 543 
556 491 545 350 106 440 111 471 271 
302 368 565 159 242 423 288 470 497 

FIELD FieldData 7
r 3 567 double
-0.0451636 -0.0354276 -0.0456145 -0.0392536 -0.0300499 -0.0440458 0.0040706 -0.0355042 -0.0419982 
-0.00850484 -0.0201833 -0.0454502 -0.00781075 -0.0263697 -0.040654 0.0138885 -0.0115599 -0.0459595 
0.0433717 -0.0126912 -0.040183 0.0390044 -0.00550477 -0.0449607 -0.0364402 0.0065828 -0.0408181 
0.00218378 0.00701566 -0.0434907 0.0107151 6.28807e-05 -0.0462505 0.0429874 0.00541423 -0.0411983 
-0.00523386 0.0162985 -0.0420415 -0.000836592 0.0233282 -0.0469113 -0.0332866 0.0387787 -0.0400002 
-0.0097762 0.0333449 -0.0480404 0.00244934 0.0317449 -0.0455197 -0.029525 -0.0462459 -0.0313768 
-0.00186212 -0.0400603 -0.0340377 0.0279718 -0.0418671 -0.0388475 0.0358049 -0.0423435 -0.0393169 
-0.0416512 -0.0307826 -0.0332175 -0.0287055 -0.0348348 -0.0323055 0.0229543 -0.0301391 -0.0308993 
0.0311698 -0.0319791 -0.0356896 0.0323302 -0.0383648 -0.0302358 0.0328498 -0.0205637 -0.0339574 
0.0421961 -0.0226459 -0.0355226 -0.0418416 -0.0172269 -0.0377375 -0.0120683 -0.0195252 -0.0316249 
-0.000875962 -0.000307523 -0.0331998 -0.0153114 0.00301682 -0.0356618 0.0187581 0.00835411 -0.0328581 
0.0330448 0.00299095 -0.0336881 -0.0255305 0.0130957 -0.0349429 -0.0327013 0.0252604 -0.0330896 
-0.0047714 0.0234686 -0.0378005 0.0289611 0.0261782 -0.0360248 -0.000762701 0.0367212 -0.036411 
0.0107733 0.0376427 -0.0364299 0.0322766 0.0304553 -0.0307977 -0.0129516 0.0424511 -0.0337596 
0.041493 0.0404559 -0.0312082 -0.0440343 -0.0458118 -0.0279019 -0.0127528 -0.0409426 -0.0289782 
0.00316437 -0.0430311 -0.0253497 0.0249322 -0.0426913 -0.0259948 0.0337848 -0.0449871 -0.0260693 
-0.0439816 -0.0382199 -0.0226192 -0.011473 -0.032531 -0.0282347 0.0101241 -0.0358561 -0.0230594 
-0.0459659 -0.0284225 -0.0237738 -0.0217036 -0.0252096 -0.022318 -0.00391329 -0.0214985 -0.025281 
-0.0431538 -0.0138011 -0.0242919 -0.0419519 -0.0188862 -0.0297592 2.76076e-06 -0.0110416 -0.0225228 
0.00432994 -0.0159357 -0.0290882 0.0117443 -0.0188893 -0.0281908 0.0396201 -0.013691 -0.0202063 
0.0246585 -0.00953444 -0.0216614 0.0392562 -0.0050565 -0.0284068 -0.00615926 0.000563785 -0.0257412 
0.012665 0.000119379 -0.027033 0.0249905 0.00816286 -0.0206292 0.0300967 0.00217597 -0.0248627 
-0.0455481 0.0115038 -0.0205879 -0.0359635 0.0104514 -0.0292385 -0.0218469 0.0136366 -0.020655 
-0.00452556 0.0107685 -0.0264474 0.00562206 0.017486 -0.0200648 0.0107203 0.0103425 -0.0217585 
-0.0423049 0.0216539 -0.0234989 -0.0426127 0.0280148 -0.0295864 -0.0247204 0.0212359 -0.0260865 
0.0076593 0.0258657 -0.0262476 0.0189667 0.0215632 -0.0202362 0.0301534 0.0296625 -0.0214928 
0.0440736 0.0283015 -0.0209303 0.0404724 0.0227666 -0.0256231 -0.00412144 0.0314243 -0.0220789 
0.00327327 0.0393635 -0.0247864 0.0185614 0.0397093 -0.0257401 -0.0413604 0.0461623 -0.0252045 
0.0125288 0.0462723 -0.0270915 0.0321571 0.0433196 -0.0270818 0.0415038 0.0400177 -0.0233958 
-0.0376579 -0.0423413 -0.013821 -0.0250668 -0.0460586 -0.017319 -0.0100383 -0.045685 -0.0151833 
0.0097371 -0.0407536 -0.0126908 0.0358738 -0.0452111 -0.0152581 0.044315 -0.0440913 -0.0150225 
-0.0443082 -0.0367954 -0.0128745 -0.0153361 -0.0359899 -0.0123698 -0.00652406 -0.0394101 -0.0197083 
0.00291548 -0.0383897 -0.0176822 0.0105187 -0.0320578 -0.0148407 0.018861 -0.0385559 -0.014007 
0.0370342 -0.0343303 -0.0151167 -0.0449908 -0.0235491 -0.017023 -0.0418905 -0.026116 -0.0104544 
-0.030247 -0.0276602 -0.0139855 -0.010582 -0.0289941 -0.013539 0.000162632 -0.0224783 -0.0181231 
0.038181 -0.0259144 -0.014708 -0.0435501 -0.018555 -0.0106892 -0.0354919 -0.019453 -0.0199032 
-0.0235033 -0.0182598 -0.0148052 -0.0151535 -0.0127048 -0.0187235 -0.00537274 -0.0140269 -0.0123514 
-0.040251 -0.00778407 -0.0118618 -0.0292471 -0.00416938 -0.0169147 -0.0104162 -0.00514349 -0.0131604 
0.00759814 -0.00305768 -0.0132102 0.0146288 -0.000929251 -0.0154382 0.0328734 -0.00851308 -0.0147763 
0.042726 -0.00905352 -0.010532 -0.0368613 0.00438532 -0.0112031 -0.00623874 0.00308308 -0.0124587 
0.0370934 0.00117811 -0.0134987 0.0445264 0.00115801 -0.0196082 -0.0462599 0.0114572 -0.0121404 
-0.0358292 0.01624 -0.0129272 -0.0198558 0.0184012 -0.0145646 -0.0105171 0.0243876 -0.0191346 
0.0145499 0.0298718 -0.0138025 0.0248745 0.0236407 -0.0155858 0.0325664 0.0203698 -0.0160397 
0.0306408 0.0283953 -0.0103827 -0.0313853 0.0300938 -0.0171228 -0.0269979 0.036336 -0.0133412 
-0.0133392 0.035873 -0.0193535 -0.0119543 0.0344435 -0.0105489 0.0343138 0.0367014 -0.0153724 
-0.0341004 0.0452214 -0.0167772 -0.0396728 0.0415588 -0.0111657 -0.0118594 0.0446074 -0.0145524 
0.0083178 0.0405238 -0.0146953 -0.0427041 -0.0431907 -0.00707448 -0.0351136 -0.0450494 -0.00634182 
-0.0185283 -0.0457999 -0.001225 0.026682 -0.0423966 -0.0034347 0.0327828 -0.0431535 -0.00821503 
0.0389204 -0.0445047 -0.00294683 -0.0440203 -0.0358941 -0.00118863 -0.0339864 -0.0354399 -0.00419542 
-0.0209635 -0.0381379 -0.00414872 -0.00822721 -0.0398881 -0.0029957 0.0259941 -0.0341012 -0.00126441 
-0.0332997 -0.0235656 -0.00646767 -0.0235421 -0.0265526 -0.00144283 -0.0169721 -0.0274301 -0.00782091 
-0.00151365 -0.027176 -0.003084 0.0179747 -0.0216929 -0.00478839 0.0204025 -0.028603 -0.001121 
0.0402406 -0.0256743 -0.00361835 -0.0339597 -0.0140498 -0.00719206 -0.0100264 -0.0194535 -0.00210237 
-0.0154617 -0.0102942 -0.00307742 0.00423057 -0.0167567 -0.00515454 0.0149589 -0.0102455 -0.00777288 
0.0300971 -0.0180391 -0.00763147 0.0374533 -0.0115558 -0.00135813 0.0457707 -0.0194407 -0.00787564 
-0.0412325 -0.00629004 -0.00366727 -0.0292645 -0.00787102 -0.00132391 -0.0277844 -0.000480854 -0.00338947 
-0.00445936 -0.0042117 -0.00512104 0.00106205 -0.0077945 -0.00988851 0.0214821 -0.00155191 -0.00985728 
0.029321 -0.000200705 -0.00972678 0.0310338 -0.0086662 -0.00590669 -0.0440326 0.00119658 -0.00641244 
-0.0461145 0.00859208 -0.000105686 -0.0376607 0.00412984 -0.00145371 -0.0242277 0.00698423 -0.000626547 
-0.0187617 0.00609904 -0.00946314 0.00350529 0.00763503 -0.00482757 0.0116152 0.00619291 -0.00567917 
0.0240537 0.00759093 -0.00884369 -0.0460734 0.0192379 -0.00449656 -0.0389333 0.016609 -0.00131902 
-0.0324565 0.0111892 -0.00659656 -0.0214013 0.0154945 -0.00396077 -0.00187458 0.0128115 -0.00418982 
0.0386585 0.0154263 -0.00175292 0.0307652 0.0118919 -0.00486674 0.045243 0.0197331 -0.00241713 
-0.0447152 0.027156 -0.00887075 -0.0124624 0.0256158 -0.00753282 -0.00128996 0.0275586 -0.000874274 
0.00242155 0.02167 -0.00948687 0.00475505 0.0221441 -0.000638887 0.0175187 0.0232272 -0.00267943 
0.0279365 0.028934 -0.00201148 0.0217973 0.0260794 -0.00886791 0.0376858 0.0279495 -0.00727909 
-0.045826 0.0377942 -0.00539414 -0.0302848 0.0316532 -0.00650768 -0.0365017 0.0367644 -0.00479079 
-0.022858 0.032076 -0.00412973 -0.0173581 0.0387542 -0.00704641 0.0211287 0.0324025 -0.00356937 
0.0391198 0.038341 -0.00737718 -0.0444907 0.0457435 -0.00331477 -0.0320904 0.0441471 -0.00207019 
-0.0213669 0.0460529 -0.00595986 -0.0100871 0.0444093 -0.00176707 -0.0052661 0.0414798 -0.00760297 
0.00409358 0.0458263 -0.0066291 0.0137451 0.0447174 -0.000493196 0.0232231 0.0449713 -0.00392425 
0.0451229 0.0456256 -0.000235107 -0.0357783 -0.0408348 0.00989667 -0.021123 -0.0401426 0.00679367 
0.00903876 -0.0456751 0.00375449 0.00153034 -0.0442245 0.00426807 -0.0433739 -0.0342926 0.00791973 
-0.0249689 -0.0336579 0.00290003 -0.00301516 -0.0346094 0.00159067 0.0162142 -0.0305923 0.00791932 
0.021177 -0.0359643 0.00790903 0.0458756 -0.0333474 0.00219334 -0.0455301 -0.0233942 0.00711466 
-0.0314597 -0.0291106 0.00496226 -0.0150284 -0.0253638 0.00386241 -0.00630608 -0.0262465 0.00728959 
0.00410329 -0.0291887 0.00953271 0.00703031 -0.0238756 0.000855657 0.0218152 -0.0240549 0.00942126 
0.030626 -0.0218923 0.00188403 0.0456162 -0.0243081 0.00566442 -0.0444872 -0.0148158 0.00604547 
-0.0387195 -0.0193017 0.00329955 -0.0224448 -0.0196811 0.00705239 -0.0295297 -0.0145435 0.00520714 
-0.0163423 -0.0145914 0.00749372 -0.0030858 -0.0180371 0.00251334 0.000597325 -0.0130612 0.0087137 
0.0139761 -0.0178256 0.00846174 0.0435936 -0.0116389 0.00404147 -0.0427568 -0.00504891 0.00800735 
-0.0308369 -0.00610596 0.00743453 -0.0147662 -0.00532876 0.00589017 -0.00623812 -0.000789535 0.00677223 
-0.00519268 -0.00923002 0.00360116 0.00130452 -0.00278955 0.00803137 0.00996586 -0.00997083 0.00329992 
0.0199591 -0.00981686 0.00147349 0.0398246 -0.0015452 0.00262741 -0.0273514 0.00125888 0.00511606 
-0.0146073 0.00283855 0.00588209 -0.00747267 0.00727403 0.000978127 0.000639118 0.00708207 0.00316046 
0.0125825 0.00891926 0.00977903 0.0140714 0.00169187 0.00351129 0.0221195 0.0036826 0.00393917 
0.0301948 0.000965784 0.00488498 0.0438219 0.00510593 0.00748509 -0.0312608 0.012974 0.00798508 
-0.0211897 0.0117356 0.00996664 -0.0138064 0.0144918 0.000402702 -0.00254984 0.0111148 0.00993126 
0.00574517 0.0150769 0.00209098 0.0177175 0.0108555 0.00332653 0.0339366 0.0129919 0.0048091 
0.0326143 0.0197419 0.00189682 -0.0423435 0.0249241 0.00860763 -0.0336174 0.0227465 0.00175003 
-0.0248223 0.0205121 0.00636363 -0.0188315 0.0226731 0.000508791 -0.00847711 0.0207059 0.00515796 
-0.00147894 0.0239999 0.00768925 0.00526702 0.0298825 0.00648358 0.0147064 0.0265459 0.00544619 
0.0256454 0.0242624 0.00682677 0.0375056 0.026314 0.00163204 -0.043195 0.0365001 0.00904762 
-0.0361321 0.0319487 0.00752683 -0.0217912 0.0382095 0.00109083 -0.0282673 0.0345199 0.00471718 
-0.0155844 0.0345368 0.0053717 -0.0075213 0.034619 0.00514563 0.00791518 0.0361455 0.000848558 
0.0147715 0.0370347 0.0066185 0.0260835 0.0329428 0.00487262 0.0378765 0.031307 0.00865449 
0.0324031 0.0397401 0.00627129 0.0359402 0.0344985 0.00163488 0.0453358 0.0384858 0.00790421 
-0.037868 0.0419414 0.0037116 -0.0145411 0.0429565 0.00761437 -0.0446999 -0.0453299 0.0121628 
-0.0387871 -0.0435046 0.0189088 -0.0242511 -0.0420533 0.0176836 -0.0271071 -0.0456931 0.0102374 
-0.0185122 -0.0458402 0.0120455 -0.00908161 -0.0447867 0.0133893 0.00844705 -0.0453064 0.0168291 
0.0153409 -0.040291 0.0125949 0.0263226 -0.0441789 0.0166803 0.0386412 -0.0447407 0.0104497 
0.0302661 -0.0418321 0.010024 -0.0454589 -0.0349179 0.0175593 -0.0362692 -0.03322 0.0193669 
-0.0212881 -0.031121 0.017113 -0.0298914 -0.0360084 0.0119255 -0.0127985 -0.0372267 0.017707 
-0.00416745 -0.0384864 0.0188242 -0.00310382 -0.0307357 0.0138648 0.00442727 -0.0368182 0.0163656 
0.0123926 -0.0328547 0.0198776 0.0292004 -0.0340674 0.0166455 0.0369578 -0.0323943 0.0114292 
-0.0376405 -0.0235876 0.0146647 -0.0126646 -0.0267441 0.0123992 -0.00517643 -0.0203224 0.0161566 
0.0027068 -0.0256439 0.0166536 0.0151036 -0.0243456 0.0146218 0.0314466 -0.0247074 0.0104644 
-0.0443061 -0.0163948 0.0169046 -0.0388168 -0.0118714 0.0111283 -0.0336769 -0.0141854 0.0199295 
-0.0285733 -0.0112753 0.0137956 -0.0230879 -0.0183286 0.0162661 0.00350669 -0.0158542 0.0180532 
0.0134273 -0.0156836 0.0184375 0.0232734 -0.0131334 0.0114688 0.0353113 -0.0177884 0.0116695 
0.0312275 -0.0116161 0.019656 0.0456268 -0.0103099 0.0178172 0.0418313 -0.0187281 0.0168976 
-0.0260921 -0.00376088 0.0140152 -0.0204647 -0.00819116 0.0107219 -0.0110013 -0.00239776 0.015221 
0.0077857 -0.00921824 0.0132771 0.00960239 -0.00174089 0.0186374 0.0168551 -0.0010325 0.011221 
0.0260837 -0.00221658 0.013046 0.0374358 -0.00602153 0.0190009 0.030605 -0.00991619 0.0109259 
-0.0418355 0.00592909 0.0132021 -0.0331283 0.00121348 0.0161274 -0.0267312 0.00482174 0.0131033 
-0.0112586 0.00580051 0.0139861 -0.0190968 0.00617519 0.0152278 -0.00229135 0.00923129 0.0196303 
0.00651166 0.00338478 0.0116099 0.00100862 0.00214176 0.0187627 0.0193545 0.00856125 0.0169539 
0.0256744 0.00668001 0.0124639 0.0207072 0.00109949 0.0189865 0.0327759 0.00456278 0.0148436 
0.0431478 0.000413528 0.0181978 -0.0460638 0.0140526 0.0106539 -0.0392274 0.0133274 0.018409 
-0.0129882 0.0152812 0.0134367 0.00479224 0.0159817 0.0147674 0.012708 0.0197615 0.0141589 
0.0295268 0.0198368 0.0157868 0.0225502 0.0167113 0.0167269 0.0387543 0.0108371 0.0160464 
-0.0427576 0.0202653 0.0190391 -0.0359795 0.020289 0.0119086 -0.0368068 0.026686 0.0191707 
-0.0294392 0.0271866 0.0109473 -0.0287727 0.0201015 0.0169654 -0.00826783 0.0283351 0.010756 
0.00687791 0.0260047 0.0170773 0.0224483 0.0293888 0.0120114 0.0302605 0.0299931 0.0147122 
0.0400888 0.0205954 0.0103932 0.0440425 0.0269597 0.0171493 -0.0379694 0.034143 0.0156041 
-0.0223865 0.0384744 0.0178184 -0.0174592 0.0305389 0.0180847 -0.00179152 0.0336961 0.0156063 
0.00768679 0.0396038 0.0138105 0.0126533 0.0316632 0.0121089 0.0194584 0.0371379 0.0138844 
0.027447 0.0385328 0.0165836 0.0357463 0.0368916 0.0176836 -0.0459451 0.0433848 0.0148536 
-0.03458 0.0451507 0.0160134 -0.025782 0.0444545 0.0138846 -0.0103967 0.0425946 0.0162286 
-0.00204666 0.0427347 0.0123083 0.00465838 0.0463904 0.018394 0.0129992 0.0458451 0.0134971 
0.0232979 0.0459652 0.0123679 0.0310995 0.0457052 0.0139646 0.0390953 0.0416646 0.0114539 
-0.0459902 -0.0446605 0.0273283 -0.0393603 -0.0403563 0.0288068 -0.028866 -0.0455518 0.0270694 
-0.0186726 -0.0453219 0.0243215 -0.008887 -0.044351 0.0218314 0.0085026 -0.046028 0.0293034 
0.000307204 -0.0460679 0.0289035 0.0143752 -0.0433986 0.0246566 0.0304521 -0.0417498 0.0229089 
0.00834589 -0.0352333 0.0274852 0.0187251 -0.0377033 0.0206632 0.0284795 -0.0312041 0.0297987 
0.0368117 -0.0316596 0.029889 0.0401175 -0.0382837 0.0229481 -0.0445309 -0.0299302 0.0286684 
-0.0442721 -0.0258542 0.0208356 -0.0428994 -0.0221492 0.028334 -0.0338568 -0.0267677 0.0235304 
-0.0263592 -0.0225231 0.0245052 -0.015359 -0.0201657 0.0217986 -0.0126003 -0.028517 0.0217319 
-0.00262441 -0.0224449 0.0275033 0.00731769 -0.0256478 0.0240577 0.0159268 -0.0241299 0.0259507 
0.0242412 -0.0288943 0.0222494 0.0227754 -0.0206822 0.021225 0.0307642 -0.0206887 0.0241163 
0.0387708 -0.0291185 0.020368 0.0459376 -0.0296277 0.0269706 -0.0405174 -0.0123194 0.0224881 
-0.0284695 -0.0101289 0.0290007 -0.0212111 -0.0163267 0.0256508 -0.012303 -0.0117936 0.0210694 
-0.00296716 -0.0153903 0.0223778 0.0010735 -0.0118303 0.0287031 0.0104523 -0.0136365 0.027616 
0.0232704 -0.0104208 0.020629 0.031473 -0.0107511 0.0298923 0.0443316 -0.0163398 0.0242108 
-0.0317437 -0.00673324 0.0210198 -0.0185196 -0.00657284 0.0275137 -0.00599381 -0.00522307 0.0219328 
-0.00441638 -0.0051325 0.0299648 0.00533258 -0.00785749 0.0231109 0.0138999 -0.0072094 0.0226279 
0.0429435 -0.00465845 0.0264137 -0.0406883 0.0036877 0.0218793 -0.0456628 0.00938932 0.0252432 
-0.031532 0.00822741 0.0239745 -0.0281366 0.00167685 0.029076 -0.0125727 0.00756222 0.0246398 
-0.00113939 0.0076506 0.0276267 0.012756 0.00591509 0.0204131 0.0367176 0.00851944 0.0261124 
0.0316553 0.00121721 0.0282408 0.0438781 0.00647167 0.0235151 -0.0333877 0.0178063 0.0288546 
-0.0128229 0.0164395 0.0257155 -0.00647575 0.019935 0.0216993 0.00175717 0.0170419 0.0232866 
0.0140262 0.0140244 0.025492 0.0260389 0.0163247 0.0275107 0.030364 0.0103859 0.0213208 
0.0431937 0.0159015 0.0207629 -0.031173 0.0258416 0.0277981 -0.0242399 0.0276805 0.022099 
-0.0187676 0.0222144 0.0201898 -0.0190922 0.0277521 0.0298131 -0.00193359 0.0259539 0.020628 
0.0125522 0.0284082 0.0228078 0.0202635 0.0232916 0.0216041 0.0346808 0.0256512 0.0217735 
0.0451126 0.0239809 0.0244612 -0.0459063 0.038942 0.0297184 -0.0352047 0.0377087 0.0229625 
-0.0137766 0.0351331 0.0292073 0.00891628 0.0371493 0.0254596 0.000346191 0.0377097 0.0254578 
0.0196472 0.0372768 0.0231366 0.0282522 0.0367114 0.0248787 0.0239897 0.0303937 0.0202242 
0.0403586 0.0325109 0.0273797 -0.0417565 0.0439616 0.0248148 -0.0262224 0.0431173 0.0259317 
0.018892 0.0453583 0.0255237 0.0289336 0.0451021 0.0215451 0.0436045 0.045524 0.0237297 
-0.0202207 -0.0404737 0.0315038 -0.0135322 -0.0417197 0.0367538 0.0192577 -0.0452224 0.0359371 
0.0269418 -0.0454344 0.0308145 0.0360337 -0.0450538 0.0324324 0.0438905 -0.0447876 0.03507 
-0.0403301 -0.0317092 0.038313 -0.0311558 -0.0309743 0.0311808 -0.0291105 -0.0392478 0.0330956 
-0.0143349 -0.0311173 0.0355507 -0.00546019 -0.0348174 0.0383317 0.00748732 -0.0322626 0.0382055 
0.0023107 -0.0325658 0.032125 0.015055 -0.03369 0.032783 0.0223737 -0.0363215 0.0352346 
0.0442881 -0.035921 0.0339735 -0.0320744 -0.021948 0.0310988 -0.0225229 -0.0247637 0.0322325 
-0.0107603 -0.0241149 0.032378 0.0018269 -0.0259567 0.0367084 0.00829268 -0.0217634 0.0349998 
0.0181466 -0.0257413 0.0353409 0.0256917 -0.0222762 0.0326347 0.0384214 -0.0241413 0.035975 
-0.0451794 -0.0134972 0.0356448 -0.0126114 -0.0119798 0.033101 0.015889 -0.0181665 0.0341866 
0.0235422 -0.0140983 0.0354191 0.0353384 -0.0180591 0.0321085 0.0427117 -0.0135219 0.0374237 
-0.0452093 -0.0003009 0.0322086 -0.0391388 -0.00832666 0.0357058 -0.0320182 -0.00257054 0.0360211 
-0.0241067 -0.00478364 0.0334788 -0.0194099 -0.00135175 0.0392545 0.010225 -0.0046843 0.0302605 
0.0226179 -0.00454288 0.0321926 0.037643 -0.00353903 0.036368 0.0301625 -0.00120594 0.0359614 
-0.0399569 0.00903848 0.0325986 -0.0387114 0.00269679 0.0375716 -0.0297165 0.008921 0.0323652 
-0.0148954 0.00493596 0.0355502 -0.00584192 0.0025005 0.0324075 0.00914775 0.00582701 0.0356035 
0.00148687 0.00238057 0.0373493 0.01563 0.00500652 0.0306864 0.0233435 0.00242639 0.0384202 
0.043702 0.000948696 0.0373741 -0.0450865 0.0182866 0.0339401 -0.0268792 0.017188 0.0338944 
-0.0216739 0.0114176 0.0331598 -0.0171736 0.0183725 0.034955 -0.0069807 0.0121787 0.0341864 
0.00211946 0.0127385 0.0397587 0.00328715 0.018495 0.0319525 0.010655 0.0144676 0.0344444 
0.0297444 0.0157598 0.0355759 0.0376957 0.0172328 0.0342099 0.0451266 0.0117194 0.0366467 
-0.0450014 0.0292444 0.0308032 -0.0383413 0.0248783 0.0333973 -0.0261122 0.0253113 0.0342705 
-0.0121403 0.0232459 0.0311825 -0.00586412 0.02026 0.0350251 -0.00201943 0.0273624 0.0332606 
0.00602814 0.0293758 0.0319405 0.0130414 0.0217763 0.0371099 0.0153575 0.0290691 0.030997 
0.0261516 0.0283346 0.034603 0.0201482 0.0233486 0.035624 0.032498 0.024147 0.0387488 
0.046108 0.0222929 0.0337361 -0.0320694 0.030231 0.0362894 -0.0372485 0.0364223 0.031353 
-0.023087 0.0394975 0.035071 -0.00896139 0.0336746 0.0368016 0.0127171 0.0348704 0.0391184 
0.0203054 0.0366958 0.0327323 0.030508 0.0368852 0.036376 0.0427635 0.031057 0.0365387 
-0.0305497 0.0438684 0.0358076 -0.0182053 0.0461959 0.030801 -0.00718537 0.0421735 0.0346151 
0.00797779 0.0433291 0.0304857 0.0308501 0.0461301 0.0337879 0.0390056 0.0416196 0.0387938 

gid 1 567 double
0 0 0 0 0 0 0 0 0 
0 0 0 0 0 0 0 0 0 
0 0 0 0 0 0 0 0 0 
0 0 0 0 0 0 0 0 0 
0 0 0 0 0 0 0 0 0 
0 0 0 0 0 0 0 0 0 
0 0 0 0 0 0 0 0 0 
0 0 0 0 0 0 0 0 0 
0 0 0 0 0 0 0 0 0 
0 0 0 0 0 0 0 0 0 
0 0 0 0 0 0 0 0 0 
0 0 0 0 0 0 0 0 0 
0 0 0 0 0 0 0 0 0 
0 0 0 0 0 0 0 0 0 
0 0 0 0 0 0 0 0 0 
0 0 0 0 0 0 0 0 0 
0 0 0 0 0 0 0 0 0 
0 0 0 0 0 0 0 0 0 
0 0 0 0 0 0 0 0 0 
0 0 0 0 0 0 0 0 0 
0 0 0 0 0 0 0 0 0 
0 0 0 0 0 0 0 0 0 
0 0 0 0 0 0 0 0 0 
0 0 0 0 0 0 0 0 0 
0 0 0 0 0 0 0 0 0 
0 0 0 0 0 0 0 0 0 
0 0 0 0 0 0 0 0 0 
0 0 0 0 0 0 0 0 0 
0 0 0 0 0 0 0 0 0 
0 0 0 0 0 0 0 0 0 
0 0 0 0 0 0 0 0 0 
0 0 0 0 0 0 0 0 0 
0 0 0 0 0 0 0 0 0 
0 0 0 0 0 0 0 0 0 
0 0 0 0 0 0 0 0 0 
0 0 0 0 0 0 0 0 0 
0 0 0 0 0 0 0 0 0 
0 0 0 0 0 0 0 0 0 
0 0 0 0 0 0 0 0 0 
0 0 0 0 0 0 0 0 0 
0 0 0 0 0 0 0 0 0 
0 0 0 0 0 0 0 0 0 
0 0 0 0 0 0 0 0 0 
0 0 0 0 0 0 0 0 0 
0 0 0 0 0 0 0 0 0 
0 0 0 0 0 0 0 0 0 
0 0 0 0 0 0 0 0 0 
0 0 0 0 0 0 0 0 0 
0 0 0 0 0 0 0 0 0 
0 0 0 0 0 0 0 0 0 
0 0 0 0 0 0 0 0 0 
0 0 0 0 0 0 0 0 0 
0 0 0 0 0 0 0 0 0 
0 0 0 0 0 0 0 0 0 
0 0 0 0 0 0 0 0 0 
0 0 0 0 0 0 0 0 0 
0 0 0 0 0 0 0 0 0 
0 0 0 0 0 0 0 0 0 
0 0 0 0 0 0 0 0 0 
0 0 0 0 0 0 0 0 0 
0 0 0 0 0 0 0 0 0 
0 0 0 0 0 0 0 0 0 
0 0 0 0 0 0 0 0 0 

a 3 567 double
0 0 0 0 0 0 0 0 0 
0 0 0 0 0 0 0 0 0 
0 0 0 0 0 0 0 0 0 
0 0 0 0 0 0 0 0 0 
0 0 0 0 0 0 0 0 0 
0 0 5506.87 0 0 0 0 519.466 0 
0 0 0 0 0 0 0 0 0 
0 0 0 0 0 0 0 0 0 
0 0 0 -0.425602 8.15537 -5.93137 0 0 0 
0 0 0 0 0 0 0 0 0 
0 0 0 0 0 0 0 0 0 
0 0 0 0 0 0 0 0 0 
0 0 0 -17.7561 -18.7219 -19.6306 0 0 0 
0 0 0 17.7561 18.7219 19.6306 0 0 0 
-0.113993 -11.0162 -103.346 0 0 0 0 0 0 
0 0 0 0 0 0 0.425602 -8.15537 5.93137 
0 0 0 0 0 0 0 0 0 
0 0 0 0 0 0 0 0 0 
-0.878411 9.47885 7.84051 0.878411 -9.47885 -7.84051 0 0 0 
0 0 0 0 0 0 0 0 0 
0 0 0 0 0 0 0 0 0 
0 0 0 0 0 0 0 0 0 
0 0 0 0 0 0 -21.9935 -31.1731 -40.3121 
0 0 0 0 0 0 0 0 0 
0 0 0 0 0 0 0 0 0 
0 0 0 -10.6615 -2.16359 -7.15075 0 0 0 
-0.941383 -1.56556 -1.03091 0.941383 1.56556 1.03091 0 0 0 
0 0 0 0 0 0 0 -202.994 0 
0 -87.1687 0 0 0 0 0.113993 11.0162 103.346 
0 0 0 0 376.292 0 0 0 0 
0 0 0 24.7868 -8.64548 -50.2252 0 0 0 
0 0 0 0 0 0 0 0 0 
0 0 0 0 0 0 0 0 0 
0 0 0 -60.3262 29.6814 -100.337 157.69 -355.011 149.839 
0 0 0 0 0 0 0 0 0 
0 0 0 -97.3634 325.33 -49.5014 0 0 0 
0 0 0 0 0 0 0 0 0 
0 0 0 0 0 0 0 0 0 
-222.629 -79.0312 47.5164 222.629 79.0312 -47.5164 0 0 0 
0 0 0 0 0 0 0 0 0 
0 0 0 0 0 0 199.325 0 0 
0 0 0 21.9935 31.1731 40.3121 0 0 0 
0 0 0 28.3492 -15.9826 -25.6263 0 0 0 
-31.8009 5.95593 -10.5217 0 0 0 0 0 0 
0 0 0 38.658 -39.1519 -31.3621 0 0 0 
0 0 0 0 0 0 0 0 0 
0 0 0 -87.5594 9.1109 -10.5199 87.5594 -9.1109 10.5199 
0 0 0 -118.399 1.39103 78.4543 93.6122 7.25445 -28.2292 
0 0 0 0 0 0 0 0 0 
0 0 0 0 0 0 82.0943 -63.7862 2.26799 
0 0 0 0 0 0 0 0 0 
0 0 0 0 0 0 -82.0943 63.7862 -2.26799 
0 0 0 0 0 0 0 0 0 
0 0 0 0 0 0 0 0 0 
0 0 0 0 0 0 0 0 0 
0 0 0 -18.879 -61.6434 12.6246 18.879 61.6434 -12.6246 
0 0 0 0 0 0 -58.2159 -17.6197 -0.965774 
58.2159 17.6197 0.965774 0 0 0 0 0 0 
408.532 0 0 0 0 0 0 0 0 
0 0 0 59.1786 -73.5466 -9.3509 0 0 0 
0 0 0 110.196 0 0 0 0 0 
0 0 0 0 0 0 -59.1786 73.5466 9.3509 
-101.913 -53.3937 2.33393 0 0 0 101.913 53.3937 -2.33393 
0 0 0 0 0 0 0 0 0 
0 0 0 -103.883 431.017 -125.299 0.254894 0.20064 -0.298509 
164.171 -108.012 37.3421 -20.0137 26.4676 39.908 31.8009 -5.95593 10.5217 
0 0 0 -64.9389 -5.83152 -13.3011 0 0 0 
64.9389 5.83152 13.3011 -38.658 39.1519 31.3621 -162.1 99.49 -44.1745 
0 0 0 0 0 0 0 0 0 
0 0 0 0 0 0 0 0 0 
0 0 0 0 0 0 0 0 0 
0 0 0 0 0 0 0 0 0 
44.3168 -3.25708 -3.99615 -44.3168 3.25708 3.99615 0 0 0 
0 0 0 0 0 0 -488.555 408.305 24.1448 
488.555 -408.305 -24.1448 0 0 0 0 0 0 
0 0 0 0 0 0 0 0 0 
0 0 0 0 0 0 0 0 0 
0 0 0 0 0 0 -46.7935 47.5767 22.6126 
46.7935 -47.5767 -22.6126 0 0 0 0 0 0 
0 0 0 0 0 0 0 0 0 
0 0 0 0 0 0 0 0 0 
0 0 0 3.50307 2.26002 -3.56848 -66.6508 24.94 -7.55952 
0 0 0 66.6508 -24.94 7.55952 0 0 0 
0 0 0 0 0 0 0 0 0 
0 0 0 0 0 0 0 0 0 
0 0 0 0 0 0 0 0 0 
0 0 0 0 0 0 0 0 0 
-3.48919 7.557 -5.92209 0 0 0 0 0 0 
103.883 -431.017 125.299 0 0 0 101.951 -355.837 131.175 
-101.951 355.837 -131.175 0 0 0 0 0 0 
0 0 0 0 0 0 0 0 0 
0 0 0 0 0 0 0 0 0 
1.32482 -2.02288 -1.63091 0 0 0 0 0 0 
0 0 0 0 0 0 0 0 0 
0 0 0 0 0 0 0 0 0 
0 0 0 0 0 0 0 0 0 
0 0 0 0 0 0 66.7688 -31.2997 -28.0697 
0 0 0 0 0 0 0 0 0 
0 0 0 0 0 0 0 0 0 
0 0 0 0 0 0 0 0 0 
0 0 0 -25.6376 -20.4777 -35.5159 0 0 0 
3.5946 3.3554 -7.48109 0 0 0 0 0 0 
0 0 0 0 0 0 0 0 0 
0 0 0 0 0 0 0 0 0 
-117.012 106.96 -4.30169 0 0 0 0 0 0 
0 0 0 0 0 0 0 0 0 
0 0 0 0 0 0 0 0 0 
-22.6189 -33.7944 -42.7985 0 0 0 209.645 -164.954 -79.3079 
0 0 0 0 0 0 85.2839 -4.94168 -43.8812 
0 0 0 0 0 0 0 0 0 
40.593 -11.2323 -3.67731 0 0 0 0 0 0 
-19.3934 19.5896 13.5311 15.8903 -21.8496 -9.96267 0 0 0 
0 0 0 0 0 0 0 0 0 
0 0 0 0 0 0 0 0 0 
0 0 0 -56.1995 -43.8194 26.4777 56.1995 43.8194 -26.4777 
0 0 0 3.48919 -7.557 5.92209 -36.3719 62.0304 4.52935 
0 0 0 36.3719 -62.0304 -4.52935 -103.461 79.8769 47.8852 
123.453 -43.5938 -69.1477 7.27642 -28.3668 10.538 0 0 0 
0 0 0 0 0 0 49.8028 -126.627 -2.99706 
0 0 0 0 0 0 0 0 0 
107.234 34.9491 -13.5865 -107.234 -34.9491 13.5865 0 0 0 
-49.8028 126.627 2.99706 0 0 0 0 0 0 
0 0 0 0 0 0 0 0 0 
0 0 0 -1.32482 2.02288 1.63091 0 0 0 
0 0 0 -3.76925 5.91795 -14.2008 0 0 0 
7.76128 -9.47113 7.06375 0 0 0 0 0 0 
0 0 0 0 0 0 0 0 0 
0 0 0 0 0 0 0 0 0 
0 0 0 -7.76128 9.47113 -7.06375 0 0 0 
0 0 0 0 -482.845 0 0 0 0 
-2.33855 -54.5279 -0.521533 20.7006 -1.90291 -54.1538 -66.7688 31.2997 28.0697 
2.09548 0 0 0 0 0 0 0 0 
0 0 0 0 0 0 -102.959 -43.8311 64.0269 
0 63.1703 0 102.959 48.1626 -64.0269 22.043 17.1223 42.997 
4.11116 -1.74975 -2.52072 117.012 -106.96 4.30169 0 0 0 
0 0 0 0 0 0 -0.785766 -2.39306 0.163018 
0 0 0 0.785766 2.39306 -0.163018 0 0 0 
0 0 0 15.5787 -12.5 -9.47856 0 0 0 
0 0 0 0 0 0 0 0 0 
0 0 0 0 0 0 0 0 0 
0 0 0 0 0 0 -213.09 126.27 118.198 
-0.107677 -0.14861 -0.0906651 -15.5787 12.5 9.47856 0 0 0 
-85.2839 4.94168 43.8812 0 0 0 0 0 0 
-40.593 11.2323 3.67731 0 0 0 0 0 0 
26.0636 72.4791 3.90886 0 0 0 0 0 0 
0 0 0 0 0 0 0 0 0 
0 0 0 0 0 0 0 0 0 
0 0 0 0 0 0 0 0 0 
0 0 0 -27.2688 -7.91634 10.7245 0 0 0 
0 0 0 0 0 0 0 0 0 
0 0 0 -115.948 -203.465 34.9963 0 0 0 
0 0 0 0 0 0 0 0 0 
0 0 0 0 0 0 -13.3334 10.122 4.76282 
13.3334 -10.122 -4.76282 0 0 0 115.948 203.465 -34.9963 
0 0 0 0 0 0 0 0 0 
3.76925 -5.91795 14.2008 0 0 0 0 0 0 
0 0 0 0 0 0 0 0 0 
0 0 0 0 0 0 0 0 0 
0 0 0 0 0 0 0 0 0 
0 0 0 -18.362 1.53274 54.6753 0 0 0 
0 0 0 0 0 0 0 0 0 
0 0 0 0 0 0 0 0 0 
0 0 0 0 0 0 0 0 0 
0 0 0 0 0 0 0.356667 0.0525824 0.322234 
-4.46782 1.69717 2.19848 0 0 0 0 0 0 
0 0 0 0 0 0 0 0 0 
0 0 0 0 0 0 0 0 0 
0 0 0 0 0 0 42.8601 -87.1719 40.4711 
0 0 0 0 0 0 0 0 0 
0 0 0 -42.8601 87.1719 -40.4711 0 0 0 
0 0 0 0 0 0 0 0 0 
0.107677 0.14861 0.0906651 0 0 0 0 0 0 
0 0 0 -58.8804 -280.588 -19.7001 -212.082 38.9539 -6.98917 
0 0 0 0 0 0 0 0 0 
0 0 0 0 0 0 0 0 0 
0 0 0 0 0 0 0 0 0 
270.962 241.635 26.6892 0 0 0 -7.9659 11.2683 0.739262 
7.9659 -11.2683 -0.739262 0 0 0 0 0 0 
0 0 0 0 0 0 0 0 0 
0 0 0 0 0 0 0 0 0 
0 0 0 0 0 0 17.8262 -11.1408 -4.92333 
0 0 0 0 0 0 0 0 0 
0 0 0 -335.433 -108.381 43.1926 0 0 0 
220.875 219.421 -21.7185 114.558 -111.04 -21.4741 0 0 0 
-464.9 0 0 -17.8262 11.1408 4.92333 0 0 0 
0 0 0 0 0 0 0 0 0 
0 0 0 0 0 0 0 0 0 
0 0 0 0 -199.829 0 0 0 0 
0 0 0 0 -109.512 0 0 0 0 

v 3 567 double
0.67576 -0.252547 -4.52785 -0.16943 0.336523 -4.16194 0.961375 -0.380343 -4.13288 
0.839773 -0.536517 -4.15722 0.145565 0.0468576 -3.89107 -0.312146 -0.190131 -4.16978 
-0.00406976 0.216755 -3.93143 -0.330291 0.128524 -3.98244 -0.0277733 0.843242 -3.90166 
-0.986929 0.397601 -4.89099 0.240984 -0.0776135 -4.53349 -0.0148754 -0.476409 3.50993 
0.341854 0.102412 -4.15561 -0.289597 0.321878 -4.54533 0.422289 0.802734 -3.72735 
-0.0867898 -0.791399 -1.2803 -1.2235 0.19487 -4.04685 0.233043 0.127336 -3.91621 
-0.339742 -0.125365 -4.01137 -0.285901 0.373161 -3.80003 -0.624952 -0.492609 -3.83401 
-0.0475315 -0.237552 -3.58411 0.0442111 -0.727247 -3.9459 -0.821011 -0.481983 -3.70131 
-0.372342 0.437196 -3.80764 -0.620035 0.216974 -3.58635 -0.0408829 -0.913333 -3.75372 
-0.184424 -0.649056 -3.54491 -0.200139 0.0178617 -3.75128 -0.212836 -0.055103 -3.7195 
-1.12234 -0.625458 -2.91425 -0.565839 -0.0474896 -4.39576 0.520238 -1.14355 -3.69212 
-1.27123 -0.53074 -4.11742 -0.345341 0.538724 -3.84668 0.814067 0.4618 -4.05825 
-0.257172 0.415349 -3.53756 0.647339 0.724907 -3.54555 -0.0837226 0.771807 -3.56106 
-0.423277 -0.240422 -4.24287 -0.245796 0.164031 -3.7718 0.849756 -0.830807 -3.76327 
-0.649559 0.324823 -3.47641 0.356223 0.0795999 -3.72055 -0.043229 0.453978 -3.46316 
-0.24133 -0.600115 -2.76633 -0.00845838 0.197557 -3.69054 0.188057 0.113904 -3.9818 
-0.12811 0.169869 -3.35275 -0.090284 -0.00357016 -3.7682 -1.06251 -1.0173 -3.29275 
-0.271086 0.533483 -3.45244 -0.0764846 0.34323 -3.24691 0.0135303 0.327042 -3.55934 
0.355546 -0.584757 -3.45815 0.723001 0.594154 -3.30587 0.256 -0.0816901 -3.0272 
-0.0867961 0.24295 -3.50996 -0.539659 -0.156972 -3.69484 0.0846725 0.445437 -3.23918 
-0.191764 -0.101097 -2.88567 0.0830342 -0.20428 -3.47711 -0.546586 -0.293549 -3.35947 
0.355434 0.601218 -3.45112 -0.119759 -0.38241 -3.54886 -0.575307 0.244833 -3.22863 
-0.0287272 -0.0830243 -3.20698 -0.136234 0.556904 -3.07769 0.391738 -0.423772 -3.37325 
-0.437825 0.157376 -3.46982 -0.0490134 -0.433108 -3.04149 -0.144016 0.500229 -3.61709 
0.203844 -0.0105787 -3.21312 -0.0615561 0.226239 -3.73228 0.427771 0.0474897 -3.70256 
-0.510982 0.0794949 -3.70258 0.0844904 0.241594 -3.03312 -0.301113 0.327075 -3.63617 
-0.0922041 -0.170099 -3.21532 -0.197384 -0.259861 -3.47101 0.270469 -0.324302 -3.10132 
0.37429 -0.876542 -3.27698 -0.476726 0.54852 -3.43566 0.481067 -0.00221686 -3.49785 
0.249667 0.408016 -3.10021 -0.0665193 -0.0357873 -3.81746 -0.647849 -0.653285 -3.42828 
-0.214252 0.284786 -3.0771 -0.206313 0.413744 -3.12613 -0.507837 -0.0635736 -3.12824 
-0.330958 -0.137889 -3.19878 -0.141625 -0.315856 -3.10726 -0.290738 -0.316285 -3.08472 
0.321184 0.0580981 -2.99739 0.0563792 0.159193 -3.17353 -0.366303 -0.173146 -3.20761 
-0.0495263 0.233995 -3.20358 0.205858 0.12842 -3.19435 -0.428106 -0.137691 -3.25446 
0.271315 -0.403321 -2.94806 0.0774713 -0.0627571 -3.18018 -0.236366 -0.286366 -3.30895 
0.0614397 0.443147 -3.04267 0.0312319 -0.134153 -3.15676 -0.812323 0.121345 -2.87055 
0.0657846 -0.0992379 -2.90014 0.0161277 0.260021 -2.76077 0.139484 0.374795 -3.43176 
0.0380295 -0.336296 -3.31497 -0.083082 -0.226506 -2.96209 -0.829694 0.341813 -3.09811 
-0.234163 -0.252137 -2.99162 0.148201 0.244725 -3.45487 0.267648 -0.551665 -3.37982 
0.0841258 0.341258 -3.04346 0.155205 0.316537 -3.15754 -0.130847 0.123432 -3.06998 
-0.0417005 -0.134075 -2.90874 -0.193675 -0.115346 -3.00621 0.376419 -0.432261 -2.82378 
0.0329312 -0.39767 -3.40964 0.142563 0.00694082 -3.29881 -0.221034 0.28748 -3.08528 
0.0978538 -0.216405 -3.20354 -0.379993 -0.0848412 -2.98734 0.16062 -0.399773 -3.22772 
0.269636 0.345835 -3.27042 -0.40487 0.488041 -3.10162 -0.290225 -0.199807 -3.17309 
-0.164488 -0.532976 -3.03537 -0.105441 -0.651464 -3.05487 -0.0937572 -0.304328 -2.89253 
0.399583 0.0247923 -2.9994 -0.0104558 -0.0712529 -2.8945 0.00938574 0.0501688 -3.35018 
-0.0412436 -0.100962 -3.16383 0.100483 -0.228655 -2.98206 -0.0707143 0.0509435 -3.2378 
-0.357824 -0.0248751 -3.00975 -0.337847 0.288717 -3.02326 -0.37576 -0.307708 -3.12852 
-0.268116 -0.129072 -2.65047 -0.0478469 0.203311 -2.69596 -0.0970919 -0.0214761 -2.89564 
-0.10963 -0.142682 -2.75417 0.116287 0.122157 -2.66518 0.288708 0.0326719 -3.01636 
0.219039 0.0405795 -2.79309 -0.0834058 0.202554 -2.7562 -0.245132 -0.0781373 -2.72795 
0.492583 -0.0328489 -2.77105 0.127134 0.0313882 -2.7921 0.0961088 0.252308 -2.78782 
-0.443309 0.191336 -2.8165 -0.0435985 -0.0633203 -2.80374 -0.0890176 0.252649 -2.6069 
-0.336964 0.416697 -2.53313 -0.511216 0.173628 -2.97791 0.342491 0.124962 -2.6714 
-0.268897 -0.494501 -2.63031 -0.424874 0.119456 -2.72863 -0.540738 0.215294 -2.90804 
-0.319538 0.175508 -2.84097 -0.292897 0.497013 -2.56337 -0.257903 0.0441042 -2.8872 
-0.201864 0.108216 -2.87533 -0.274851 0.45272 -2.69072 -0.573749 0.389592 -2.87483 
0.150092 -0.344686 -2.67605 0.459944 0.349539 -3.0483 -0.178292 -0.150018 -2.91867 
0.11975 -0.472733 -2.91355 0.169293 -0.181053 -2.70414 0.152747 0.0252736 -3.08759 
0.31999 -0.214603 -2.83314 -0.435694 -0.0498053 -3.00025 -0.241981 -0.0836999 -2.72713 
-0.226427 -0.287541 -2.68018 -0.124475 0.841321 -2.53225 -0.0920339 -0.37161 -2.53247 
0.0947251 0.222379 -2.65577 0.080833 0.0392798 -2.62976 -0.214047 0.166103 -2.75613 
-0.519489 0.523437 -2.78867 -0.267229 -0.290287 -2.80199 0.0773664 0.0496444 -2.64022 
0.00993478 -0.213085 -2.85582 -0.122091 -0.298004 -2.95311 0.113568 0.103813 -3.01551 
0.106803 0.261602 -2.99356 0.436434 -0.0685135 -2.84653 0.173208 0.266829 -2.73673 
0.474677 -0.537658 -2.97928 0.393662 0.179107 -2.75877 0.0525012 0.216677 -2.44932 
0.266226 0.23568 -2.52157 -0.132853 -0.243642 -2.9775 -0.723135 0.133131 -2.72362 
0.0354503 0.213117 -2.70081 0.00672735 -0.114284 -2.79445 0.329468 0.195677 -2.58071 
-0.12431 -0.180018 -2.63187 -0.0260861 -0.33803 -3.09617 -0.0333218 0.221586 -2.59491 
0.144628 -0.434814 -2.6969 0.116746 -0.313847 -2.88484 -0.0734707 0.183757 -2.81047 
-0.00581318 0.134912 -3.12345 -0.223933 0.123882 -2.98625 -0.161422 0.143618 -3.1197 
-0.373202 -0.0124507 -2.78069 -0.244378 -0.0965374 -2.78449 0.174433 0.411797 -2.53408 
-0.00978468 -0.0644639 -2.43082 -0.286547 0.438409 -2.23774 -0.226984 -0.317653 -2.48358 
-0.40631 -0.13471 -2.38025 0.135814 0.0708428 -2.47377 -0.170036 -0.292747 -2.38037 
-0.00726133 0.0329422 -2.69359 0.0256619 -0.0406821 -2.66443 -0.266083 0.41961 -2.34134 
-0.604238 0.0777285 -2.20478 -0.0891582 0.201426 -2.46768 0.245935 -0.0984045 -2.119 
0.148847 0.336862 -2.68416 -0.243812 0.664987 -2.30459 -0.135129 0.109838 -2.31993 
0.256414 0.133266 -2.487 -0.216256 0.318424 -2.29748 0.050204 0.0727731 -2.36451 
0.24094 -0.123727 -2.6468 -0.00589593 0.163143 -2.51161 0.0759873 -0.307007 -2.29052 
0.271269 0.110695 -2.36643 -0.0398863 -0.125274 -2.19871 -0.0211547 0.237052 -2.5037 
-0.016954 -0.441239 -2.30502 -0.134438 0.431499 -2.53846 -0.407127 -0.279156 -2.33578 
-0.391202 0.441908 -2.42055 0.0605137 0.571398 -2.45622 0.0231148 0.15846 -2.79333 
0.095367 0.023313 -2.42691 0.143945 0.13532 -2.53975 -0.161556 -0.258099 -2.40397 
0.286493 0.500315 -2.41293 0.0162955 -0.130565 -2.28853 -0.118687 -0.0393829 -2.26133 
0.203511 -0.153082 -2.6433 -0.474707 -0.277892 -2.46003 0.233847 0.0359625 -2.20891 
-0.354452 -0.168586 -2.42825 -0.0845665 -0.172254 -2.46574 -0.0713154 0.114686 -2.6244 
-0.0169778 0.0793451 -2.19071 0.0367294 0.45952 -2.60871 0.370226 -0.0819295 -2.38756 
-0.145657 0.238243 -2.47527 0.174032 -0.168645 -2.6595 -0.0388587 0.0433206 -2.63653 
0.297451 -0.131245 -2.43034 -0.0701455 0.0834682 -2.53719 -0.311156 -0.18349 -2.34214 
0.12452 -0.172564 -2.32139 -0.154486 0.00300995 -2.65656 0.0703058 0.273318 -2.52661 
0.0824282 0.218563 -2.50396 -0.0136795 -0.109335 -2.54726 0.139442 0.113733 -2.57512 
0.539827 -0.0166948 -2.24662 -0.24405 -0.411129 -2.88477 0.369858 -0.148297 -2.35975 
0.397104 0.140627 -2.29402 0.560361 -0.0516087 -2.52898 0.336829 0.0610807 -2.60148 
-0.0811242 0.258895 -2.27992 0.133415 0.182959 -2.52572 0.119123 0.180356 -2.42901 
-0.0603668 0.0566346 -2.42213 0.23429 0.19777 -2.96537 -0.0814482 -0.123301 -2.67152 
-0.0548102 -0.0939375 -2.68514 -0.190163 -0.125459 -2.51915 0.293536 0.275114 -2.4769 
0.366015 -0.153472 -2.21144 -0.0195062 -0.620929 -2.68837 -0.032159 0.36181 -2.61796 
0.0212068 0.0124533 -2.69201 -0.141483 0.159922 -2.43901 -0.00276436 -0.0775987 -2.32156 
0.0522779 0.155819 -2.45574 -0.0695513 -0.129501 -2.44635 0.0598915 -0.0677145 -2.5194 
-0.133035 -0.0537655 -1.96789 -0.321975 -0.153076 -2.09077 -0.212374 -0.0846793 -2.13253 
-0.148541 -0.0611209 -2.18387 0.111782 0.121836 -2.32283 -0.0684526 -0.0423418 -2.18021 
0.0833634 -0.042121 -2.26943 -0.447316 -0.00511615 -1.89783 -0.403545 0.146129 -2.28318 
-0.0489425 -0.149963 -2.09205 0.118397 0.179784 -2.00068 0.00584916 0.126102 -2.16378 
0.151132 0.197094 -1.94796 -0.231296 -0.0347769 -2.44148 -0.186961 0.335634 -2.21779 
0.237613 0.189233 -2.07011 0.0285048 0.115034 -2.65224 -0.00628826 0.131913 -2.16862 
-0.404287 0.151629 -2.2751 0.243504 -0.253108 -2.15329 0.197411 0.0298912 -2.25942 
0.2123 -0.100043 -2.08635 -0.215049 0.209447 -2.17482 0.186181 0.08093 -2.11301 
0.0487883 -0.14474 -2.27768 0.612026 0.222541 -2.27455 0.0960664 0.174449 -2.21894 
0.106042 -0.105125 -2.11379 0.242398 -0.258793 -2.43708 0.165133 0.0610112 -2.1908 
-0.00997415 0.304762 -1.93999 0.132934 -0.021131 -2.17385 -0.160201 -0.123117 -2.06278 
-0.134918 -0.109273 -2.26078 0.461714 0.177997 -2.22277 -0.0050107 0.153121 -1.98732 
0.373054 0.267305 -2.11132 -0.110855 0.108845 -1.94993 0.375091 0.0478481 -1.95104 
-0.0655926 -0.0656846 -2.59844 0.0542314 0.126321 -2.52224 0.0412956 0.495448 -2.3595 
-0.201152 0.344236 -2.0435 -0.0215915 0.0448411 -2.09185 -0.240879 0.197763 -2.50341 
-0.321799 0.331048 -2.24693 -0.0951736 0.38246 -1.95244 0.259984 0.518241 -2.04754 
-0.0825997 0.493851 -2.29725 -0.320015 0.163129 -1.98983 0.172071 -0.313573 -2.228 
-0.213285 -0.223063 -2.21021 0.0654739 0.0216329 -2.24272 -0.223766 0.121051 -2.01609 
0.109318 0.129559 -2.17135 -0.270854 0.0237174 -2.06573 -0.172269 0.182309 -2.07364 
0.133686 0.198714 -2.62525 -0.230043 0.265854 -2.23972 -0.440365 0.428658 -2.19322 
-0.270957 0.36462 -2.02456 -0.150494 -0.185831 -2.13005 0.160341 -0.161783 -2.06461 
-0.0471811 0.0114538 -2.33854 -0.459808 -0.215653 -2.28678 -0.163794 -0.0247134 -2.34152 
-0.108445 0.0806455 -2.3007 0.0840239 0.0692844 -2.32019 0.171425 -0.258998 -2.26219 
-0.0475501 -0.124585 -1.95137 -0.194297 -0.132001 -2.33415 -0.0174295 0.0463375 -1.84971 
0.249923 0.141951 -2.37653 -0.0470532 -0.0165936 -2.19621 -0.0111717 0.181017 -2.38149 
0.124661 -0.0966378 -1.86806 0.0701275 0.0994844 -2.10114 -0.0574277 0.246013 -2.33319 
0.0239135 -0.012815 -2.45581 -0.0336325 -0.250909 -2.13647 0.0156558 0.00717729 -2.31207 
-0.37045 -0.124214 -2.2937 0.319234 0.0507105 -2.30303 -0.0887668 -0.357627 -2.1141 
-0.105011 -0.10944 -2.14188 0.522026 0.0117649 -2.33806 0.420559 -0.0464812 -2.08649 
-0.0355963 -0.0557201 -2.01286 -0.299357 0.0864805 -2.17584 0.0157789 -0.23087 -2.24116 
0.217343 -0.339026 -2.26858 0.292779 0.243825 -2.23078 0.131453 0.106925 -2.27204 
-0.101947 0.111538 -2.28691 0.03714 0.22275 -2.40457 -0.325984 -0.0689768 -2.31746 
-0.0133947 -0.238943 -2.21084 -0.0239639 0.110807 -2.2854 0.0292628 -0.04523 -2.16184 
0.0458784 0.437005 -1.97123 -0.137669 0.124752 -1.93701 -0.0847266 0.0696803 -1.96037 
0.0472029 0.130613 -2.19352 0.199597 0.0253658 -2.14899 0.0160877 -0.0320848 -1.64088 
0.259681 0.0173391 -1.88402 0.217662 0.0268168 -2.0496 -0.335386 -0.0462431 -1.98722 
0.158138 0.111321 -1.88178 0.195503 -0.118441 -2.08944 -0.169083 -0.113395 -1.8708 
-0.210075 0.0496321 -1.74736 -0.268057 -0.112526 -1.78572 0.0617481 0.04302 -1.8584 
0.0777904 0.108175 -2.05853 -0.150433 0.0248819 -1.81348 -0.00736274 -0.136931 -2.04769 
-0.140744 0.263932 -1.77838 0.104678 0.397194 -2.0259 0.0201526 0.00838262 -2.2558 
0.0762324 -0.340732 -1.95305 0.115712 0.115435 -1.8732 0.269177 0.187887 -1.95439 
0.358484 0.291373 -1.87393 -0.00290092 0.00334504 -1.9402 0.179356 0.0729835 -1.68954 
-0.123629 0.163346 -1.93289 0.0330751 0.0738955 -1.81686 0.311002 -0.199402 -2.0952 
-0.133973 0.101752 -2.13938 -0.0226739 0.410676 -1.91821 -0.18976 0.356527 -1.89836 
-0.0335563 -0.108471 -1.88199 -0.0840466 0.132334 -1.56805 0.0662369 -0.0118835 -1.89916 
-0.177592 -0.033611 -1.94787 -0.01016 -0.148211 -1.62824 -0.149082 0.407469 -2.08495 
-0.216055 -1.15528e-05 -1.93693 -0.313441 0.0452358 -1.87568 -0.569528 0.124078 -1.71909 
0.0461159 0.399733 -1.81483 -0.0214369 -0.126351 -1.73847 -0.120386 0.365993 -1.94084 
-0.20016 0.336907 -1.91401 -0.0430376 0.527245 -2.10368 -0.0300667 0.0677061 -1.77445 
0.131562 0.0656974 -1.71529 0.030608 -0.167542 -1.88024 0.140073 -0.179448 -1.82678 
-0.102007 0.260707 -2.06837 0.0714642 -0.104856 -1.79996 -0.00138809 0.318387 -1.84066 
-0.131578 0.151865 -1.72337 -0.337448 0.337342 -1.8054 0.308378 -0.0603153 -1.82871 
-0.109007 -0.031574 -1.94824 -0.12547 -0.0669985 -2.00436 0.0894075 0.0843006 -1.83062 
-0.0776186 0.142987 -1.74913 0.425174 0.476373 -1.8786 0.0581204 0.509887 -2.10846 
-0.245456 0.169119 -1.73808 -0.0592491 0.0835125 -1.59773 0.135032 0.139483 -2.04058 
-0.16922 -0.330592 -1.90753 -0.110044 0.0870837 -1.91031 0.185746 -0.355783 -1.97014 
-0.344216 0.089905 -2.0395 -0.317231 0.0629918 -1.87679 -0.339477 0.293508 -2.26906 
-0.121642 -0.27404 -2.06062 0.00813165 0.0214542 -1.83823 -0.169991 -0.162304 -1.99911 
0.0846966 -0.153922 -1.83376 0.179058 0.12862 -2.03821 -0.0993136 0.145081 -2.04167 
-0.145079 0.0320798 -1.76747 -0.472675 0.241822 -1.79098 -0.0935907 -0.0945284 -1.92546 
0.064503 0.188228 -1.83988 -0.0355062 -0.155873 -2.11335 0.0415704 -0.176309 -1.8653 
-0.201383 -0.065392 -2.17449 0.0274322 -0.0828978 -2.16832 -0.139148 0.229819 -2.1403 
0.300092 -0.0545774 -1.72915 0.0421531 -0.0958403 -1.44703 -0.257902 -0.216215 -1.4742 
-0.326951 -0.0285377 -1.74676 -0.17927 0.0701608 -1.62372 -0.11377 0.105901 -1.50577 
-0.188321 0.0154599 -1.28458 -0.123982 -0.145466 -1.67273 0.335908 -0.355054 -1.65058 
0.28874 0.211146 -1.49623 -0.0332093 0.246487 -1.29395 -0.524625 -0.188072 -1.28585 
-0.0163826 0.188816 -1.74353 -0.241418 0.366185 -1.62576 -0.345935 0.123521 -1.53354 
0.0841696 0.234054 -1.58029 -0.241367 -0.0170809 -1.78887 -0.0118596 0.207549 -1.66673 
0.149561 -0.125585 -1.67921 0.580804 0.126585 -1.41694 0.110295 -0.0320166 -1.53769 
-0.399192 0.0653703 -1.51514 -0.328321 -0.00860801 -1.68822 0.0518082 -0.043962 -1.37096 
-0.00162871 0.100112 -1.42503 -0.138517 0.0402142 -1.58448 -0.193681 -0.153634 -1.55245 
-0.151667 0.129486 -1.51577 0.0536868 -0.117575 -1.72322 0.0538596 0.0831139 -1.35538 
-0.0397512 -0.0509741 -1.5752 -0.50017 0.112213 -1.42382 -0.15049 0.0716551 -1.30852 
0.183455 0.211371 -1.48113 -0.150201 -0.309031 -1.04387 -0.131652 -0.0174557 -1.65122 
0.439852 -0.104718 -1.51632 0.200751 0.066456 -1.41964 -0.105327 0.521503 -1.46783 
-0.208692 -0.22166 -1.60685 0.0278048 0.0585259 -1.26228 -0.146479 -0.24207 -1.70721 
-0.341562 -0.0628878 -1.51993 0.137576 0.371467 -1.65539 0.193679 0.199407 -1.48533 
-0.0656544 0.361327 -1.32455 0.0757256 -0.217038 -1.69784 -0.0118922 -0.0207639 -1.288 
0.39626 0.109147 -1.29092 0.334717 -0.143344 -1.57061 0.0304939 -0.194197 -1.56039 
0.0881243 0.314795 -1.65897 0.171828 -0.136994 -1.521 -0.181226 -0.26333 -1.53513 
-0.210584 0.257961 -1.06714 -0.110219 -0.0414678 -1.75068 -0.000893804 0.182987 -1.49722 
-0.0763965 -0.0300752 -1.47584 0.291843 -0.166111 -1.6414 0.104093 0.439861 -1.41723 
0.0988158 -0.196749 -1.78074 0.406865 0.0893545 -1.60991 0.0345326 -0.486092 -1.52788 
-0.103186 -0.248404 -1.78206 -0.375376 -0.0855066 -1.5024 -0.0149211 -0.267964 -1.6604 
-0.256586 0.116604 -1.69223 -0.198609 0.154443 -1.32518 -0.415656 -0.363828 -1.77792 
0.19824 0.1918 -1.65485 -0.369741 -0.179877 -1.47633 -0.0258926 -0.0281421 -1.174 
-0.384414 0.298757 -1.57635 0.246773 -0.0411886 -1.40615 0.110689 -0.15202 -1.72065 
0.170048 -0.326168 -1.44338 -0.314313 0.0998752 -1.29333 -0.417535 -0.511428 -1.21487 
-0.37861 -0.164317 -1.70551 -0.0533279 -0.00372044 -1.4004 -0.397253 -0.278598 -1.4137 
-0.187746 0.100667 -1.42838 -0.105415 0.0769302 -1.89964 -0.087173 0.196674 -1.52458 
-0.0856734 -0.193521 -1.7782 -0.342832 0.0488948 -1.64387 -0.125178 0.424311 -1.25682 

om 3 567 double
0 0 0 0 0 0 0 0 0 
0 0 0 0 0 0 0 0 0 
0 0 0 0 0 0 0 0 0 
0 0 0 0 0 0 0 0 0 
0 0 0 0 0 0 0 0 0 
0 0 0 0 0 0 0 0 0 
0 0 0 0 0 0 0 0 0 
0 0 0 0 0 0 0 0 0 
0 0 0 0 0 0 0 0 0 
0 0 0 0 0 0 0 0 0 
0 0 0 0 0 0 0 0 0 
0 0 0 0 0 0 0 0 0 
0 0 0 0 0 0 0 0 0 
0 0 0 0 0 0 0 0 0 
0 0 0 0 0 0 0 0 0 
0 0 0 0 0 0 0 0 0 
0 0 0 0 0 0 0 0 0 
0 0 0 0 0 0 0 0 0 
0 0 0 0 0 0 0 0 0 
0 0 0 0 0 0 0 0 0 
0 0 0 0 0 0 0 0 0 
0 0 0 0 0 0 0 0 0 
0 0 0 0 0 0 0 0 0 
0 0 0 0 0 0 0 0 0 
0 0 0 0 0 0 0 0 0 
0 0 0 0 0 0 0 0 0 
0 0 0 0 0 0 0 0 0 
0 0 0 0 0 0 0 0 0 
0 0 0 0 0 0 0 0 0 
0 0 0 0 0 0 0 0 0 
0 0 0 0 0 0 0 0 0 
0 0 0 0 0 0 0 0 0 
0 0 0 0 0 0 0 0 0 
0 0 0 0 0 0 0 0 0 
0 0 0 0 0 0 0 0 0 
0 0 0 0 0 0 0 0 0 
0 0 0 0 0 0 0 0 0 
0 0 0 0 0 0 0 0 0 
0 0 0 0 0 0 0 0 0 
0 0 0 0 0 0 0 0 0 
0 0 0 0 0 0 0 0 0 
0 0 0 0 0 0 0 0 0 
0 0 0 0 0 0 0 0 0 
0 0 0 0 0 0 0 0 0 
0 0 0 0 0 0 0 0 0 
0 0 0 0 0 0 0 0 0 
0 0 0 0 0 0 0 0 0 
0 0 0 0 0 0 0 0 0 
0 0 0 0 0 0 0 0 0 
0 0 0 0 0 0 0 0 0 
0 0 0 0 0 0 0 0 0 
0 0 0 0 0 0 0 0 0 
0 0 0 0 0 0 0 0 0 
0 0 0 0 0 0 0 0 0 
0 0 0 0 0 0 0 0 0 
0 0 0 0 0 0 0 0 0 
0 0 0 0 0 0 0 0 0 
0 0 0 0 0 0 0 0 0 
0 0 0 0 0 0 0 0 0 
0 0 0 0 0 0 0 0 0 
0 0 0 0 0 0 0 0 0 
0 0 0 0 0 0 0 0 0 
0 0 0 0 0 0 0 0 0 
0 0 0 0 0 0 0 0 0 
0 0 0 0 0 0 0 0 0 
0 0 0 0 0 0 0 0 0 
0 0 0 0 0 0 0 0 0 
0 0 0 0 0 0 0 0 0 
0 0 0 0 0 0 0 0 0 
0 0 0 0 0 0 0 0 0 
0 0 0 0 0 0 0 0 0 
0 0 0 0 0 0 0 0 0 
0 0 0 0 0 0 0 0 0 
0 0 0 0 0 0 0 0 0 
0 0 0 0 0 0 0 0 0 
0 0 0 0 0 0 0 0 0 
0 0 0 0 0 0 0 0 0 
0 0 0 0 0 0 0 0 0 
0 0 0 0 0 0 0 0 0 
0 0 0 0 0 0 0 0 0 
0 0 0 0 0 0 0 0 0 
0 0 0 0 0 0 0 0 0 
0 0 0 0 0 0 0 0 0 
0 0 0 0 0 0 0 0 0 
0 0 0 0 0 0 0 0 0 
0 0 0 0 0 0 0 0 0 
0 0 0 0 0 0 0 0 0 
0 0 0 0 0 0 0 0 0 
0 0 0 0 0 0 0 0 0 
0 0 0 0 0 0 0 0 0 
0 0 0 0 0 0 0 0 0 
0 0 0 0 0 0 0 0 0 
0 0 0 0 0 0 0 0 0 
0 0 0 0 0 0 0 0 0 
0 0 0 0 0 0 0 0 0 
0 0 0 0 0 0 0 0 0 
0 0 0 0 0 0 0 0 0 
0 0 0 0 0 0 0 0 0 
0 0 0 0 0 0 0 0 0 
0 0 0 0 0 0 0 0 0 
0 0 0 0 0 0 0 0 0 
0 0 0 0 0 0 0 0 0 
0 0 0 0 0 0 0 0 0 
0 0 0 0 0 0 0 0 0 
0 0 0 0 0 0 0 0 0 
0 0 0 0 0 0 0 0 0 
0 0 0 0 0 0 0 0 0 
0 0 0 0 0 0 0 0 0 
0 0 0 0 0 0 0 0 0 
0 0 0 0 0 0 0 0 0 
0 0 0 0 0 0 0 0 0 
0 0 0 0 0 0 0 0 0 
0 0 0 0 0 0 0 0 0 
0 0 0 0 0 0 0 0 0 
0 0 0 0 0 0 0 0 0 
0 0 0 0 0 0 0 0 0 
0 0 0 0 0 0 0 0 0 
0 0 0 0 0 0 0 0 0 
0 0 0 0 0 0 0 0 0 
0 0 0 0 0 0 0 0 0 
0 0 0 0 0 0 0 0 0 
0 0 0 0 0 0 0 0 0 
0 0 0 0 0 0 0 0 0 
0 0 0 0 0 0 0 0 0 
0 0 0 0 0 0 0 0 0 
0 0 0 0 0 0 0 0 0 
0 0 0 0 0 0 0 0 0 
0 0 0 0 0 0 0 0 0 
0 0 0 0 0 0 0 0 0 
0 0 0 0 0 0 0 0 0 
0 0 0 0 0 0 0 0 0 
0 0 0 0 0 0 0 0 0 
0 0 0 0 0 0 0 0 0 
0 0 0 0 0 0 0 0 0 
0 0 0 0 0 0 0 0 0 
0 0 0 0 0 0 0 0 0 
0 0 0 0 0 0 0 0 0 
0 0 0 0 0 0 0 0 0 
0 0 0 0 0 0 0 0 0 
0 0 0 0 0 0 0 0 0 
0 0 0 0 0 0 0 0 0 
0 0 0 0 0 0 0 0 0 
0 0 0 0 0 0 0 0 0 
0 0 0 0 0 0 0 0 0 
0 0 0 0 0 0 0 0 0 
0 0 0 0 0 0 0 0 0 
0 0 0 0 0 0 0 0 0 
0 0 0 0 0 0 0 0 0 
0 0 0 0 0 0 0 0 0 
0 0 0 0 0 0 0 0 0 
0 0 0 0 0 0 0 0 0 
0 0 0 0 0 0 0 0 0 
0 0 0 0 0 0 0 0 0 
0 0 0 0 0 0 0 0 0 
0 0 0 0 0 0 0 0 0 
0 0 0 0 0 0 0 0 0 
0 0 0 0 0 0 0 0 0 
0 0 0 0 0 0 0 0 0 
0 0 0 0 0 0 0 0 0 
0 0 0 0 0 0 0 0 0 
0 0 0 0 0 0 0 0 0 
0 0 0 0 0 0 0 0 0 
0 0 0 0 0 0 0 0 0 
0 0 0 0 0 0 0 0 0 
0 0 0 0 0 0 0 0 0 
0 0 0 0 0 0 0 0 0 
0 0 0 0 0 0 0 0 0 
0 0 0 0 0 0 0 0 0 
0 0 0 0 0 0 0 0 0 
0 0 0 0 0 0 0 0 0 
0 0 0 0 0 0 0 0 0 
0 0 0 0 0 0 0 0 0 
0 0 0 0 0 0 0 0 0 
0 0 0 0 0 0 0 0 0 
0 0 0 0 0 0 0 0 0 
0 0 0 0 0 0 0 0 0 
0 0 0 0 0 0 0 0 0 
0 0 0 0 0 0 0 0 0 
0 0 0 0 0 0 0 0 0 
0 0 0 0 0 0 0 0 0 
0 0 0 0 0 0 0 0 0 
0 0 0 0 0 0 0 0 0 
0 0 0 0 0 0 0 0 0 
0 0 0 0 0 0 0 0 0 
0 0 0 0 0 0 0 0 0 
0 0 0 0 0 0 0 0 0 
0 0 0 0 0 0 0 0 0 
0 0 0 0 0 0 0 0 0 
0 0 0 0 0 0 0 0 0 

bottom 1 567 double
-0.0811224 -0.0811224 -0.0811224 -0.0811224 -0.0811224 -0.0811224 -0.0811224 -0.0811224 -0.0811224 
-0.0811224 -0.0811224 -0.0811224 -0.0811224 -0.0811224 -0.0811224 -0.0811224 -0.0811224 -0.0811224 
-0.0811224 -0.0811224 -0.0811224 -0.0811224 -0.0811224 -0.0811224 -0.0811224 -0.0811224 -0.0811224 
-0.0811224 -0.0811224 -0.0811224 -0.0811224 -0.0811224 -0.0811224 -0.0811224 -0.0811224 -0.0811224 
-0.0811224 -0.0811224 -0.0811224 -0.0811224 -0.0811224 -0.0811224 -0.0811224 -0.0811224 -0.0811224 
-0.0811224 -0.0811224 -0.0811224 -0.0811224 -0.0811224 -0.0811224 -0.0811224 -0.0811224 -0.0811224 
-0.0811224 -0.0811224 -0.0811224 -0.0811224 -0.0811224 -0.0811224 -0.0811224 -0.0811224 -0.0811224 
-0.0811224 -0.0811224 -0.0811224 -0.0811224 -0.0811224 -0.0811224 -0.0811224 -0.0811224 -0.0811224 
-0.0811224 -0.0811224 -0.0811224 -0.0811224 -0.0811224 -0.0811224 -0.0811224 -0.0811224 -0.0811224 
-0.0811224 -0.0811224 -0.0811224 -0.0811224 -0.0811224 -0.0811224 -0.0811224 -0.0811224 -0.0811224 
-0.0811224 -0.0811224 -0.0811224 -0.0811224 -0.0811224 -0.0811224 -0.0811224 -0.0811224 -0.0811224 
-0.0811224 -0.0811224 -0.0811224 -0.0811224 -0.0811224 -0.0811224 -0.0811224 -0.0811224 -0.0811224 
-0.0811224 -0.0811224 -0.0811224 -0.0811224 -0.0811224 -0.0811224 -0.0811224 -0.0811224 -0.0811224 
-0.0811224 -0.0811224 -0.0811224 -0.0811224 -0.0811224 -0.0811224 -0.0811224 -0.0811224 -0.0811224 
-0.0811224 -0.0811224 -0.0811224 -0.0811224 -0.0811224 -0.0811224 -0.0811224 -0.0811224 -0.0811224 
-0.0811224 -0.0811224 -0.0811224 -0.0811224 -0.0811224 -0.0811224 -0.0811224 -0.0811224 -0.0811224 
-0.0811224 -0.0811224 -0.0811224 -0.0811224 -0.0811224 -0.0811224 -0.0811224 -0.0811224 -0.0811224 
-0.0811224 -0.0811224 -0.0811224 -0.0811224 -0.0811224 -0.0811224 -0.0811224 -0.0811224 -0.0811224 
-0.0811224 -0.0811224 -0.0811224 -0.0811224 -0.0811224 -0.0811224 -0.0811224 -0.0811224 -0.0811224 
-0.0811224 -0.0811224 -0.0811224 -0.0811224 -0.0811224 -0.0811224 -0.0811224 -0.0811224 -0.0811224 
-0.0811224 -0.0811224 -0.0811224 -0.0811224 -0.0811224 -0.0811224 -0.0811224 -0.0811224 -0.0811224 
-0.0811224 -0.0811224 -0.0811224 -0.0811224 -0.0811224 -0.0811224 -0.0811224 -0.0811224 -0.0811224 
-0.0811224 -0.0811224 -0.0811224 -0.0811224 -0.0811224 -0.0811224 -0.0811224 -0.0811224 -0.0811224 
-0.0811224 -0.0811224 -0.0811224 -0.0811224 -0.0811224 -0.0811224 -0.0811224 -0.0811224 -0.0811224 
-0.0811224 -0.0811224 -0.0811224 -0.0811224 -0.0811224 -0.0811224 -0.0811224 -0.0811224 -0.0811224 
-0.0811224 -0.0811224 -0.0811224 -0.0811224 -0.0811224 -0.0811224 -0.0811224 -0.0811224 -0.0811224 
-0.0811224 -0.0811224 -0.0811224 -0.0811224 -0.0811224 -0.0811224 -0.0811224 -0.0811224 -0.0811224 
-0.0811224 -0.0811224 -0.0811224 -0.0811224 -0.0811224 -0.0811224 -0.0811224 -0.0811224 -0.0811224 
-0.0811224 -0.0811224 -0.0811224 -0.0811224 -0.0811224 -0.0811224 -0.0811224 -0.0811224 -0.0811224 
-0.0811224 -0.0811224 -0.0811224 -0.0811224 -0.0811224 -0.0811224 -0.0811224 -0.0811224 -0.0811224 
-0.0811224 -0.0811224 -0.0811224 -0.0811224 -0.0811224 -0.0811224 -0.0811224 -0.0811224 -0.0811224 
-0.0811224 -0.0811224 -0.0811224 -0.0811224 -0.0811224 -0.0811224 -0.0811224 -0.0811224 -0.0811224 
-0.0811224 -0.0811224 -0.0811224 -0.0811224 -0.0811224 -0.0811224 -0.0811224 -0.0811224 -0.0811224 
-0.0811224 -0.0811224 -0.0811224 -0.0811224 -0.0811224 -0.0811224 -0.0811224 -0.0811224 -0.0811224 
-0.0811224 -0.0811224 -0.0811224 -0.0811224 -0.0811224 -0.0811224 -0.0811224 -0.0811224 -0.0811224 
-0.0811224 -0.0811224 -0.0811224 -0.0811224 -0.0811224 -0.0811224 -0.0811224 -0.0811224 -0.0811224 
-0.0811224 -0.0811224 -0.0811224 -0.0811224 -0.0811224 -0.0811224 -0.0811224 -0.0811224 -0.0811224 
-0.0811224 -0.0811224 -0.0811224 -0.0811224 -0.0811224 -0.0811224 -0.0811224 -0.0811224 -0.0811224 
-0.0811224 -0.0811224 -0.0811224 -0.0811224 -0.0811224 -0.0811224 -0.0811224 -0.0811224 -0.0811224 
-0.0811224 -0.0811224 -0.0811224 -0.0811224 -0.0811224 -0.0811224 -0.0811224 -0.0811224 -0.0811224 
-0.0811224 -0.0811224 -0.0811224 -0.0811224 -0.0811224 -0.0811224 -0.0811224 -0.0811224 -0.0811224 
-0.0811224 -0.0811224 -0.0811224 -0.0811224 -0.0811224 -0.0811224 -0.0811224 -0.0811224 -0.0811224 
-0.0811224 -0.0811224 -0.0811224 -0.0811224 -0.0811224 -0.0811224 -0.0811224 -0.0811224 -0.0811224 
-0.0811224 -0.0811224 -0.0811224 -0.0811224 -0.0811224 -0.0811224 -0.0811224 -0.0811224 -0.0811224 
-0.0811224 -0.0811224 -0.0811224 -0.0811224 -0.0811224 -0.0811224 -0.0811224 -0.0811224 -0.0811224 
-0.0811224 -0.0811224 -0.0811224 -0.0811224 -0.0811224 -0.0811224 -0.0811224 -0.0811224 -0.0811224 
-0.0811224 -0.0811224 -0.0811224 -0.0811224 -0.0811224 -0.0811224 -0.0811224 -0.0811224 -0.0811224 
-0.0811224 -0.0811224 -0.0811224 -0.0811224 -0.0811224 -0.0811224 -0.0811224 -0.0811224 -0.0811224 
-0.0811224 -0.0811224 -0.0811224 -0.0811224 -0.0811224 -0.0811224 -0.0811224 -0.0811224 -0.0811224 
-0.0811224 -0.0811224 -0.0811224 -0.0811224 -0.0811224 -0.0811224 -0.0811224 -0.0811224 -0.0811224 
-0.0811224 -0.0811224 -0.0811224 -0.0811224 -0.0811224 -0.0811224 -0.0811224 -0.0811224 -0.0811224 
-0.0811224 -0.0811224 -0.0811224 -0.0811224 -0.0811224 -0.0811224 -0.0811224 -0.0811224 -0.0811224 
-0.0811224 -0.0811224 -0.0811224 -0.0811224 -0.0811224 -0.0811224 -0.0811224 -0.0811224 -0.0811224 
-0.0811224 -0.0811224 -0.0811224 -0.0811224 -0.0811224 -0.0811224 -0.0811224 -0.0811224 -0.0811224 
-0.0811224 -0.0811224 -0.0811224 -0.0811224 -0.0811224 -0.0811224 -0.0811224 -0.0811224 -0.0811224 
-0.0811224 -0.0811224 -0.0811224 -0.0811224 -0.0811224 -0.0811224 -0.0811224 -0.0811224 -0.0811224 
-0.0811224 -0.0811224 -0.0811224 -0.0811224 -0.0811224 -0.0811224 -0.0811224 -0.0811224 -0.0811224 
-0.0811224 -0.0811224 -0.0811224 -0.0811224 -0.0811224 -0.0811224 -0.0811224 -0.0811224 -0.0811224 
-0.0811224 -0.0811224 -0.0811224 -0.0811224 -0.0811224 -0.0811224 -0.0811224 -0.0811224 -0.0811224 
-0.0811224 -0.0811224 -0.0811224 -0.0811224 -0.0811224 -0.0811224 -0.0811224 -0.0811224 -0.0811224 
-0.0811224 -0.0811224 -0.0811224 -0.0811224 -0.0811224 -0.0811224 -0.0811224 -0.0811224 -0.0811224 
-0.0811224 -0.0811224 -0.0811224 -0.0811224 -0.0811224 -0.0811224 -0.0811224 -0.0811224 -0.0811224 
-0.0811224 -0.0811224 -0.0811224 -0.0811224 -0.0811224 -0.0811224 -0.0811224 -0.0811224 -0.0811224 

top 1 567 double
0.0188776 0.0188776 0.0188776 0.0188776 0.0188776 0.0188776 0.0188776 0.0188776 0.0188776 
0.0188776 0.0188776 0.0188776 0.0188776 0.0188776 0.0188776 0.0188776 0.0188776 0.0188776 
0.0188776 0.0188776 0.0188776 0.0188776 0.0188776 0.0188776 0.0188776 0.0188776 0.0188776 
0.0188776 0.0188776 0.0188776 0.0188776 0.0188776 0.0188776 0.0188776 0.0188776 0.0188776 
0.0188776 0.0188776 0.0188776 0.0188776 0.0188776 0.0188776 0.0188776 0.0188776 0.0188776 
0.0188776 0.0188776 0.0188776 0.0188776 0.0188776 0.0188776 0.0188776 0.0188776 0.0188776 
0.0188776 0.0188776 0.0188776 0.0188776 0.0188776 0.0188776 0.0188776 0.0188776 0.0188776 
0.0188776 0.0188776 0.0188776 0.0188776 0.0188776 0.0188776 0.0188776 0.0188776 0.0188776 
0.0188776 0.0188776 0.0188776 0.0188776 0.0188776 0.0188776 0.0188776 0.0188776 0.0188776 
0.0188776 0.0188776 0.0188776 0.0188776 0.0188776 0.0188776 0.0188776 0.0188776 0.0188776 
0.0188776 0.0188776 0.0188776 0.0188776 0.0188776 0.0188776 0.0188776 0.0188776 0.0188776 
0.0188776 0.0188776 0.0188776 0.0188776 0.0188776 0.0188776 0.0188776 0.0188776 0.0188776 
0.0188776 0.0188776 0.0188776 0.0188776 0.0188776 0.0188776 0.0188776 0.0188776 0.0188776 
0.0188776 0.0188776 0.0188776 0.0188776 0.0188776 0.0188776 0.0188776 0.0188776 0.0188776 
0.0188776 0.0188776 0.0188776 0.0188776 0.0188776 0.0188776 0.0188776 0.0188776 0.0188776 
0.0188776 0.0188776 0.0188776 0.0188776 0.0188776 0.0188776 0.0188776 0.0188776 0.0188776 
0.0188776 0.0188776 0.0188776 0.0188776 0.0188776 0.0188776 0.0188776 0.0188776 0.0188776 
0.0188776 0.0188776 0.0188776 0.0188776 0.0188776 0.0188776 0.0188776 0.0188776 0.0188776 
0.0188776 0.0188776 0.0188776 0.0188776 0.0188776 0.0188776 0.0188776 0.0188776 0.0188776 
0.0188776 0.0188776 0.0188776 0.0188776 0.0188776 0.0188776 0.0188776 0.0188776 0.0188776 
0.0188776 0.0188776 0.0188776 0.0188776 0.0188776 0.0188776 0.0188776 0.0188776 0.0188776 
0.0188776 0.0188776 0.0188776 0.0188776 0.0188776 0.0188776 0.0188776 0.0188776 0.0188776 
0.0188776 0.0188776 0.0188776 0.0188776 0.0188776 0.0188776 0.0188776 0.0188776 0.0188776 
0.0188776 0.0188776 0.0188776 0.0188776 0.0188776 0.0188776 0.0188776 0.0188776 0.0188776 
0.0188776 0.0188776 0.0188776 0.0188776 0.0188776 0.0188776 0.0188776 0.0188776 0.0188776 
0.0188776 0.0188776 0.0188776 0.0188776 0.0188776 0.0188776 0.0188776 0.0188776 0.0188776 
0.0188776 0.0188776 0.0188776 0.0188776 0.0188776 0.0188776 0.0188776 0.0188776 0.0188776 
0.0188776 0.0188776 0.0188776 0.0188776 0.0188776 0.0188776 0.0188776 0.0188776 0.0188776 
0.0188776 0.0188776 0.0188776 0.0188776 0.0188776 0.0188776 0.0188776 0.0188776 0.0188776 
0.0188776 0.0188776 0.0188776 0.0188776 0.0188776 0.0188776 0.0188776 0.0188776 0.0188776 
0.0188776 0.0188776 0.0188776 0.0188776 0.0188776 0.0188776 0.0188776 0.0188776 0.0188776 
0.0188776 0.0188776 0.0188776 0.0188776 0.0188776 0.0188776 0.0188776 0.0188776 0.0188776 
0.0188776 0.0188776 0.0188776 0.0188776 0.0188776 0.0188776 0.0188776 0.0188776 0.0188776 
0.0188776 0.0188776 0.0188776 0.0188776 0.0188776 0.0188776 0.0188776 0.0188776 0.0188776 
0.0188776 0.0188776 0.0188776 0.0188776 0.0188776 0.0188776 0.0188776 0.0188776 0.0188776 
0.0188776 0.0188776 0.0188776 0.0188776 0.0188776 0.0188776 0.0188776 0.0188776 0.0188776 
0.0188776 0.0188776 0.0188776 0.0188776 0.0188776 0.0188776 0.0188776 0.0188776 0.0188776 
0.0188776 0.0188776 0.0188776 0.0188776 0.0188776 0.0188776 0.0188776 0.0188776 0.0188776 
0.0188776 0.0188776 0.0188776 0.0188776 0.0188776 0.0188776 0.0188776 0.0188776 0.0188776 
0.0188776 0.0188776 0.0188776 0.0188776 0.0188776 0.0188776 0.0188776 0.0188776 0.0188776 
0.0188776 0.0188776 0.0188776 0.0188776 0.0188776 0.0188776 0.0188776 0.0188776 0.0188776 
0.0188776 0.0188776 0.0188776 0.0188776 0.0188776 0.0188776 0.0188776 0.0188776 0.0188776 
0.0188776 0.0188776 0.0188776 0.0188776 0.0188776 0.0188776 0.0188776 0.0188776 0.0188776 
0.0188776 0.0188776 0.0188776 0.0188776 0.0188776 0.0188776 0.0188776 0.0188776 0.0188776 
0.0188776 0.0188776 0.0188776 0.0188776 0.0188776 0.0188776 0.0188776 0.0188776 0.0188776 
0.0188776 0.0188776 0.0188776 0.0188776 0.0188776 0.0188776 0.0188776 0.0188776 0.0188776 
0.0188776 0.0188776 0.0188776 0.0188776 0.0188776 0.0188776 0.0188776 0.0188776 0.0188776 
0.0188776 0.0188776 0.0188776 0.0188776 0.0188776 0.0188776 0.0188776 0.0188776 0.0188776 
0.0188776 0.0188776 0.0188776 0.0188776 0.0188776 0.0188776 0.0188776 0.0188776 0.0188776 
0.0188776 0.0188776 0.0188776 0.0188776 0.0188776 0.0188776 0.0188776 0.0188776 0.0188776 
0.0188776 0.0188776 0.0188776 0.0188776 0.0188776 0.0188776 0.0188776 0.0188776 0.0188776 
0.0188776 0.0188776 0.0188776 0.0188776 0.0188776 0.0188776 0.0188776 0.0188776 0.0188776 
0.0188776 0.0188776 0.0188776 0.0188776 0.0188776 0.0188776 0.0188776 0.0188776 0.0188776 
0.0188776 0.0188776 0.0188776 0.0188776 0.0188776 0.0188776 0.0188776 0.0188776 0.0188776 
0.0188776 0.0188776 0.0188776 0.0188776 0.0188776 0.0188776 0.0188776 0.0188776 0.0188776 
0.0188776 0.0188776 0.0188776 0.0188776 0.0188776 0.0188776 0.0188776 0.0188776 0.0188776 
0.0188776 0.0188776 0.0188776 0.0188776 0.0188776 0.0188776 0.0188776 0.0188776 0.0188776 
0.0188776 0.0188776 0.0188776 0.0188776 0.0188776 0.0188776 0.0188776 0.0188776 0.0188776 
0.0188776 0.0188776 0.0188776 0.0188776 0.0188776 0.0188776 0.0188776 0.0188776 0.0188776 
0.0188776 0.0188776 0.0188776 0.0188776 0.0188776 0.0188776 0.0188776 0.0188776 0.0188776 
0.0188776 0.0188776 0.0188776 0.0188776 0.0188776 0.0188776 0.0188776 0.0188776 0.0188776 
0.0188776 0.0188776 0.0188776 0.0188776 0.0188776 0.0188776 0.0188776 0.0188776 0.0188776 
0.0188776 0.0188776 0.0188776 0.0188776 0.0188776 0.0188776 0.0188776 0.0188776 0.0188776 

