# vtk DataFile Version 4.0
vtk output
ASCII
DATASET POLYDATA
FIELD FieldData 4
domain 1 4 string
domain_min:-5|-5|-5
domain_max:5|5|5
cell_size:0.01|0.01|0.01
boundary:1|1|1

variables 1 8 string
T:0.455
dt:0.0005
A:-75.6949
V:0.79205
Z:0.0195698
write_case:1
substeps:10
all_steps:910

constants 1 11 string
L:0.1
csize:0.01
R:0.004
mass:0.00210445
E:2.06e+06
nu:0.33
M:20
freq:10
gamma:62.8319
S:78956.8
g:0|0|-9.81

equations 1 9 string
time:T=(T+dt)#true
eq:a=(dem_l(v,om,R,mass,E,nu,0.1)/mass)#true
tank_acceleration:A=(((-(transpose((fsum(a)*mass))*e_k))-(S*Z))/M)#true
iv:v=euler(v,((a+g)-(A*e_k)),dt)#true
ia:r=euler(r,v,dt)#true
tank_velocity:V=euler(V,A,dt)#true
tank_position:Z=euler(Z,V,dt)#true
bottom:bottom=(Z-0.05)#true
top:top=(Z+0.05)#true

POINTS 567 float
-0.0402642 -0.0446339 -0.0418518 -0.0275723 -0.0455633 -0.0424946 -0.0154281 -0.0436978 -0.043772 
-0.00362075 -0.0462223 -0.045604 0.00431451 -0.04624 -0.0435382 0.0153109 -0.0447203 -0.043738 
0.0283851 -0.0431873 -0.0406772 0.0382297 -0.0461182 -0.0429481 0.0460328 -0.0461411 -0.0450642 
-0.0328232 -0.0391419 -0.0435784 -0.0392052 -0.0346953 -0.0437047 -0.0220011 -0.0368788 -0.0457071 
-0.0107837 -0.0327342 -0.0432857 -0.00277309 -0.031323 -0.0435053 -0.0068941 -0.0397851 -0.0412061 
0.00858524 -0.0336448 -0.0447153 0.00130821 -0.0392067 -0.0439777 0.019809 -0.0314449 -0.0430132 
0.0210743 -0.0387126 -0.0449363 0.0287754 -0.03362 -0.0439941 0.037084 -0.0384605 -0.0410279 
0.0450604 -0.0365659 -0.0447087 -0.04382 -0.0287579 -0.0412482 -0.0342016 -0.022718 -0.0431145 
-0.0240141 -0.0252604 -0.0441245 -0.00582839 -0.0246004 -0.0459426 0.00355861 -0.0244439 -0.0441964 
0.0136038 -0.0233673 -0.0427554 0.0240393 -0.0242417 -0.0433623 0.0393379 -0.0237422 -0.0436547 
0.0457981 -0.0290141 -0.0405552 -0.0446213 -0.0185563 -0.0415669 -0.0300524 -0.0126588 -0.042321 
-0.0393064 -0.0129423 -0.0420099 -0.0186273 -0.0185386 -0.0432342 -0.0103306 -0.0184807 -0.0405438 
-0.00573793 -0.0102076 -0.0412248 0.000942576 -0.017484 -0.0432694 0.00905428 -0.0168462 -0.0422926 
0.017887 -0.013662 -0.0441889 0.0301907 -0.0118995 -0.0436354 0.0368884 -0.0156705 -0.0417537 
0.0443598 -0.0125348 -0.0431117 -0.0417122 -0.00558614 -0.0439333 -0.0273584 -0.00558779 -0.0420706 
-0.021074 -0.0098433 -0.0422834 -0.0171046 -0.00241312 -0.0434266 -0.0130218 -0.00978128 -0.045316 
-0.00969266 -0.00352692 -0.0408513 0.000910584 -0.00100874 -0.0419857 0.0159541 -0.00024971 -0.0432954 
0.0128377 -0.00742584 -0.0428994 0.0230565 -0.0063123 -0.0401982 0.0389754 -0.00691078 -0.045169 
0.0460362 -0.00424977 -0.0424586 -0.0426194 0.00255927 -0.0452526 -0.0347402 0.00959454 -0.0402614 
-0.0349162 0.0013006 -0.0402972 -0.0250806 0.00325987 -0.0427781 -0.0176467 0.00534472 -0.0439711 
-0.0098775 0.00416967 -0.0410267 -0.00370604 0.00741097 -0.0449236 0.00602773 0.00594611 -0.0446246 
0.018651 0.0074951 -0.0428052 0.0238016 0.000107809 -0.0445064 -0.0460556 0.0184602 -0.0407985 
-0.0394587 0.0163412 -0.0446883 -0.0307903 0.0159303 -0.0447508 -0.0254075 0.0111404 -0.0405339 
-0.0217303 0.0187109 -0.0438241 -0.0164911 0.0129796 -0.042678 -0.0108731 0.0194606 -0.0433301 
-7.02462e-05 0.0154291 -0.0422064 0.0100091 0.0153074 -0.0457458 0.0318896 0.0137057 -0.0433134 
0.0445613 0.0151336 -0.0419274 -0.0459427 0.0268695 -0.0447702 -0.0354978 0.0232329 -0.0447752 
-0.0310956 0.0296584 -0.044195 -0.0176342 0.0250164 -0.0430326 -0.00797881 0.0267907 -0.0431909 
0.00473344 0.0217781 -0.041266 0.00827968 0.0286035 -0.0420105 0.0159422 0.0224305 -0.0400162 
0.0234985 0.0243463 -0.044835 0.0365881 0.0296141 -0.0430816 0.033621 0.0221056 -0.0449137 
0.0424376 0.021974 -0.0444455 -0.0406438 0.0345829 -0.0451686 -0.024096 0.0326963 -0.0414603 
-0.0120487 0.0395897 -0.0403332 -0.0148701 0.0325113 -0.0423793 -0.00473003 0.0372004 -0.0441169 
0.000757637 0.0312576 -0.043506 0.00823787 0.0363016 -0.0412542 0.016742 0.0373568 -0.0459278 
0.0164904 0.0303665 -0.0422359 0.0247746 0.036398 -0.0415876 0.0289677 0.0302414 -0.0456702 
0.0347056 0.0376815 -0.0431307 0.0448202 0.0377163 -0.0421616 -0.0354221 0.0458654 -0.0424356 
-0.0252062 0.0415314 -0.043947 -0.00504377 0.0445531 -0.0446746 0.0038468 0.0425624 -0.0415539 
0.0130269 0.0445932 -0.0451454 0.0216837 0.044219 -0.0440755 0.037742 0.0444446 -0.0438729 
0.0303112 0.0448806 -0.0424121 -0.0374751 -0.0455748 -0.0329855 -0.0265781 -0.0401893 -0.0352077 
-0.0199903 -0.0442403 -0.0325501 -0.00884062 -0.0447406 -0.0354343 0.00143202 -0.0444383 -0.0305072 
0.021252 -0.0452313 -0.0327953 0.0344292 -0.0457706 -0.0308117 0.0442587 -0.04442 -0.0346003 
-0.0450396 -0.0375959 -0.0378418 -0.0415232 -0.0321253 -0.0333771 -0.0340282 -0.0357535 -0.0316214 
-0.0273532 -0.0335439 -0.0394774 -0.0193359 -0.0319306 -0.0334282 -0.0147611 -0.0381634 -0.0363187 
-0.000598854 -0.0376965 -0.0336969 0.00534353 -0.0325416 -0.0337035 0.00730081 -0.0399917 -0.0342409 
0.0148874 -0.0305243 -0.03617 0.014477 -0.0394295 -0.0373598 0.0245322 -0.0372095 -0.0362909 
0.0364135 -0.0307961 -0.0392254 0.0395986 -0.0380155 -0.0306765 0.0324032 -0.0335663 -0.0319495 
0.0456173 -0.0309464 -0.0326535 -0.0457848 -0.0259507 -0.0304717 -0.0384442 -0.0234996 -0.0365574 
-0.0334592 -0.0288026 -0.0359639 -0.0251704 -0.0271652 -0.0335287 -0.0162277 -0.0255399 -0.0389581 
-0.0169437 -0.0239236 -0.0309873 -0.00976905 -0.0297773 -0.0322542 -0.000252701 -0.0254033 -0.0361633 
0.0286337 -0.0263808 -0.0360374 0.0461107 -0.0235415 -0.0348637 -0.04583 -0.0125415 -0.035721 
-0.0383439 -0.016216 -0.0334586 -0.0305556 -0.0199517 -0.0322696 -0.0254242 -0.0192451 -0.0392164 
-0.0180798 -0.013505 -0.0354004 -0.00262491 -0.0147456 -0.035808 0.00335405 -0.0192738 -0.0308015 
0.0101049 -0.014851 -0.0312111 0.0269372 -0.0127603 -0.0358035 0.0307522 -0.0192706 -0.0375723 
0.0365212 -0.0180061 -0.0322646 0.0452916 -0.0154525 -0.0336369 -0.0456918 -0.0053953 -0.0317065 
-0.0388081 -0.00170762 -0.0331511 -0.0353088 -0.00669697 -0.0390639 -0.0313476 -0.00784593 -0.0323883 
-0.0275779 -0.000806204 -0.0344243 -0.0222205 -0.00715838 -0.0331093 -0.0144225 -0.0011208 -0.0340719 
-0.00385098 -0.00329628 -0.0336193 0.00457387 -0.00971089 -0.038219 0.00703408 -0.000975775 -0.0359384 
0.017977 -0.00131755 -0.0351863 0.0119006 -0.00686689 -0.0333231 0.0307195 -0.00206011 -0.0363078 
0.0385996 -0.00123669 -0.0339728 0.0356174 -0.00941895 -0.0302958 0.0421874 -0.00806417 -0.0357034 
-0.0449577 0.00222569 -0.036584 -0.0354802 0.00758229 -0.032377 -0.0229183 0.00850382 -0.0311975 
-0.00799683 0.00344682 -0.0305276 0.000132032 0.00455156 -0.0322071 0.00813175 0.0074137 -0.0326434 
0.0168592 0.00684703 -0.0333114 0.0269353 0.00541419 -0.0393811 0.0346378 0.00625107 -0.0376321 
0.0427659 0.00399825 -0.0383105 -0.044127 0.0102318 -0.037376 -0.0388464 0.0150047 -0.0305778 
-0.0311661 0.0143596 -0.0353604 -0.0113798 0.0149704 -0.032184 -0.0195649 0.0156794 -0.0333138 
-0.00753638 0.013251 -0.0398972 -0.00343687 0.0135842 -0.0327509 0.00328875 0.0181028 -0.0337402 
0.0199756 0.0194428 -0.0305014 0.0147537 0.0145322 -0.0362184 0.0222245 0.0123666 -0.0342954 
0.0278588 0.0173882 -0.030176 0.0258702 0.0175905 -0.0398142 0.0390181 0.0150378 -0.0356234 
0.0462022 0.013427 -0.0327092 -0.0452197 0.0264657 -0.035183 -0.0368414 0.022203 -0.0343836 
-0.028261 0.0248999 -0.0360802 -0.0153505 0.0285161 -0.0328339 -0.00411438 0.0278418 -0.0344001 
-0.00962239 0.0226694 -0.0305103 -0.00259258 0.0214521 -0.0381603 0.00779632 0.0251568 -0.0348814 
0.0146149 0.0299984 -0.0326222 0.0257833 0.0262195 -0.0373342 0.0363881 0.0207146 -0.03109 
0.0335928 0.0278594 -0.0340725 0.0462482 0.0239869 -0.0300119 0.0443482 0.0285622 -0.0398273 
-0.0454496 0.0344304 -0.038045 -0.0352489 0.031008 -0.0322269 -0.0345411 0.0376263 -0.0370516 
-0.0200441 0.0356181 -0.0345718 -0.0272564 0.0341954 -0.0322035 -0.00888511 0.0364763 -0.0329502 
0.000995971 0.0361394 -0.0374561 0.0217512 0.0352188 -0.0331256 0.029466 0.0394021 -0.0345504 
0.0405676 0.0376879 -0.0311005 -0.0460281 0.0453218 -0.0311895 -0.044367 0.0436838 -0.0397386 
-0.0376953 0.0434336 -0.0323734 -0.0241682 0.046023 -0.0350365 -0.0297568 0.0424042 -0.0309426 
-0.0168326 0.0457208 -0.0388515 -0.0156359 0.0415394 -0.0307892 0.000915737 0.0437958 -0.0313473 
0.00864639 0.0455865 -0.0302602 0.0129291 0.0400829 -0.0359745 0.0196481 0.0456754 -0.0355092 
0.0364976 0.0449786 -0.0338402 0.045561 0.0459171 -0.0379817 -0.0441212 -0.042081 -0.0236931 
-0.0345575 -0.0460285 -0.0238164 -0.0268351 -0.044124 -0.0229751 -0.0158069 -0.0421444 -0.0234765 
-0.00797043 -0.0448836 -0.021244 0.0143376 -0.0435036 -0.0255455 0.0266138 -0.0457288 -0.0229357 
0.0213654 -0.0402632 -0.024369 0.0275009 -0.040502 -0.0294091 0.0412536 -0.0442615 -0.0254502 
-0.0313251 -0.0301338 -0.0251538 -0.0324026 -0.0383516 -0.021367 -0.0262885 -0.0361268 -0.0265786 
-0.0182295 -0.0348915 -0.0237922 -0.0103196 -0.0381758 -0.0294418 -0.00500694 -0.0327949 -0.0249144 
0.00703418 -0.0306221 -0.0217363 0.000425919 -0.0379939 -0.0256644 0.010165 -0.0388503 -0.0200639 
0.0116769 -0.035984 -0.027728 0.024075 -0.0330842 -0.0216566 0.0202364 -0.0332722 -0.0290055 
-0.04262 -0.024721 -0.0216702 -0.0348745 -0.0205339 -0.0219787 -0.0372534 -0.0264733 -0.0290249 
-0.0254912 -0.0234509 -0.0256229 -0.00630019 -0.0214723 -0.0287683 -0.000246158 -0.0256456 -0.0226668 
0.00875796 -0.0267885 -0.0286369 0.0107417 -0.0229052 -0.0220477 0.023422 -0.0214217 -0.0261552 
0.0356368 -0.0266781 -0.0292266 0.0343561 -0.0296354 -0.0203855 0.031161 -0.0219476 -0.0216075 
0.0457006 -0.0228826 -0.0221736 -0.0442596 -0.0121101 -0.0254997 -0.028465 -0.0136079 -0.0243098 
-0.012329 -0.0150643 -0.0290943 -0.019464 -0.0184828 -0.0236585 0.0165022 -0.0194027 -0.0280873 
0.0167762 -0.0116255 -0.0277994 0.0152643 -0.0147168 -0.0202505 0.0228592 -0.0136722 -0.023077 
0.029433 -0.0145781 -0.0277491 0.0381416 -0.0144554 -0.02381 0.0457248 -0.0149268 -0.0213232 
-0.0453614 -9.29297e-05 -0.0257116 -0.0321158 -0.000625003 -0.0281774 -0.0375046 -0.00689263 -0.0241615 
-0.0290339 -0.0045406 -0.0210691 -0.0134222 -0.00143315 -0.0259301 -0.0177435 -0.00893572 -0.0261785 
-0.00561477 -0.00861379 -0.0266773 0.00350998 -0.00704483 -0.0281525 0.0170502 -0.00405296 -0.0238552 
0.0101984 -0.00878724 -0.0205943 0.0228518 -0.00600766 -0.0292845 0.0293364 -0.00193511 -0.0272797 
0.037589 -0.00399316 -0.0229573 0.0446537 -0.00252059 -0.0292625 0.0458413 -0.00730747 -0.0217589 
-0.0375859 0.00408119 -0.0223342 -0.0206029 0.00759833 -0.0209873 -0.0107305 0.00974507 -0.020925 
-0.0151295 0.00689889 -0.0299454 -0.00221909 0.00343614 -0.0231897 0.00484601 0.000965789 -0.0217032 
0.0128572 0.00443064 -0.0204701 0.0177034 0.00879008 -0.0256079 0.0275852 0.00980728 -0.0289492 
0.0297329 0.00240463 -0.0207748 0.0387422 0.00318265 -0.0207063 0.0438172 0.00742318 -0.0253422 
-0.0454984 0.0186419 -0.0234892 -0.0329979 0.012855 -0.0255648 -0.0241039 0.0140663 -0.0253824 
-0.0163248 0.0187108 -0.0244502 -0.0101792 0.0179448 -0.0201718 -0.00112646 0.0112258 -0.0246859 
0.00526261 0.0195792 -0.0257508 0.00929708 0.0100666 -0.0252199 0.0133578 0.019928 -0.02629 
0.0234617 0.0125209 -0.0218329 0.0440942 0.0169495 -0.0244253 -0.031052 0.0208866 -0.0271469 
-0.0396947 0.0237356 -0.0202592 -0.0231312 0.0219049 -0.0297003 -0.0195532 0.025965 -0.0233046 
-0.00928856 0.0276668 -0.0225301 -0.00273642 0.0210669 -0.0278416 0.00353805 0.0270546 -0.0275446 
0.00980017 0.0258502 -0.0209905 0.0250772 0.0200571 -0.0224567 0.023461 0.026138 -0.0285959 
0.0398341 0.0260151 -0.0262648 0.0319187 0.0264977 -0.0243973 -0.0436776 0.0382875 -0.0289058 
-0.03822 0.0351317 -0.0210319 -0.0226899 0.0366547 -0.026217 -0.0146469 0.0339581 -0.0249064 
0.00787327 0.0349245 -0.0275842 0.0002144 0.0363972 -0.028117 0.0166963 0.0315917 -0.0245473 
0.0134251 0.0379029 -0.0213392 0.0452298 0.0311114 -0.024494 -0.0405513 0.0462069 -0.023347 
-0.0258371 0.0460081 -0.0229509 -0.0185483 0.0418863 -0.0224035 -0.00484253 0.0431439 -0.0222539 
-0.00756461 0.0459937 -0.0294509 0.0138777 0.0461935 -0.0203369 0.0252149 0.0453919 -0.0296275 
0.0362253 0.0438889 -0.0233184 -0.0331741 -0.0451332 -0.0100159 -0.0239119 -0.044309 -0.0118668 
-0.0133875 -0.0460132 -0.0129078 0.000266781 -0.0435806 -0.0186137 0.0140365 -0.0437101 -0.0148695 
0.0287574 -0.0406434 -0.0154563 0.0351802 -0.0458329 -0.019614 -0.0428162 -0.0384921 -0.0116718 
-0.0348966 -0.0319512 -0.0163747 -0.0246437 -0.0358155 -0.0174152 -0.0122831 -0.0382758 -0.0161811 
-0.0191741 -0.0383544 -0.012105 -0.00437502 -0.0347903 -0.0157101 0.00386582 -0.0342286 -0.0142535 
0.0197464 -0.0374658 -0.0140757 0.0390988 -0.0360698 -0.0194744 -0.0455625 -0.0206488 -0.0146891 
-0.0363967 -0.0251401 -0.0136236 -0.0283792 -0.0282555 -0.0144851 -0.0214047 -0.0206498 -0.0129699 
-0.0211213 -0.0271645 -0.0196185 -0.0134048 -0.0289614 -0.0197719 -0.0120399 -0.0203236 -0.0135419 
-0.0169521 -0.0269405 -0.0112027 0.00315956 -0.0239396 -0.015773 0.0106047 -0.0277246 -0.0127099 
0.0205815 -0.0247702 -0.0143813 0.0318717 -0.0294207 -0.0123326 0.0409762 -0.0276609 -0.015743 
-0.0408644 -0.0118648 -0.0175538 -0.0282793 -0.0160442 -0.0122896 -0.00195531 -0.0157162 -0.0110631 
0.00509317 -0.0144035 -0.0184732 0.029808 -0.0128878 -0.0178365 0.0253858 -0.0188088 -0.0156394 
0.0377024 -0.012829 -0.0145061 0.0447424 -0.0161097 -0.0126822 -0.0355746 -0.0070577 -0.0151177 
-0.0209393 -0.000581229 -0.0177057 -0.0024326 -0.00560548 -0.0199166 -0.00871855 -0.00998569 -0.0182067 
0.0115218 -0.00570984 -0.011604 0.0188783 -0.00994638 -0.0135088 0.0173306 -0.000583549 -0.0145147 
0.0246427 -0.00693141 -0.01789 0.0373395 -0.00387114 -0.0140275 -0.0419352 0.0090547 -0.0183309 
-0.0442789 0.000639686 -0.0175751 -0.0307104 0.00328098 -0.0183242 -0.0258013 0.00235493 -0.0100938 
0.0326875 0.000794967 -0.0101228 0.043874 0.000579004 -0.0153489 -0.041422 0.0172456 -0.0132016 
-0.0348929 0.0122055 -0.0178872 -0.0294248 0.0175257 -0.0126813 -0.0180978 0.0147236 -0.0142805 
-0.00276129 0.0165857 -0.014824 0.0152824 0.0187624 -0.0176633 0.0105059 0.0111395 -0.0140441 
0.010066 0.0198696 -0.0103529 0.0389196 0.0125556 -0.0161437 0.0328256 0.0185635 -0.0178663 
-0.038934 0.0277169 -0.0114225 -0.0284635 0.0270097 -0.0164213 -0.0221127 0.022125 -0.0149723 
-0.0148831 0.0246561 -0.0156317 -0.00463184 0.0246212 -0.0169165 0.00310326 0.0246517 -0.0152646 
0.0286094 0.027535 -0.0144638 0.0214743 0.0285756 -0.0193226 0.0387378 0.0258619 -0.0170039 
0.0461798 0.024944 -0.0196287 -0.0447518 0.0308068 -0.0194004 -0.0426851 0.0344483 -0.0123358 
-0.0439155 0.0394418 -0.0186157 -0.0335035 0.0337977 -0.014914 -0.0265024 0.0393282 -0.0177036 
-0.0110166 0.0330276 -0.0159649 -0.0181613 0.0312404 -0.014904 0.000216463 0.0346418 -0.0198427 
0.0287153 0.0395684 -0.0166874 0.0383897 0.0333646 -0.0198493 0.0464694 0.0363622 -0.0151877 
-0.0341893 0.0434041 -0.0181473 -0.0132685 0.0463484 -0.0169192 0.00430838 0.0417086 -0.0190847 
0.0235959 0.0449283 -0.0167752 0.0349156 0.0442109 -0.0150475 0.0419368 0.0411044 -0.01184 
0.0449048 0.0463028 -0.0178247 -0.045901 -0.0454021 -0.00765591 -0.00703301 -0.0436255 -0.00597087 
0.0150559 -0.0462462 -0.00276514 0.0209365 -0.0449658 -0.00768223 0.0382373 -0.0411487 -0.00410806 
0.0458236 -0.0436544 -0.0023353 -0.0412321 -0.0308668 -0.0060531 -0.0339988 -0.0373674 -0.00952341 
-0.0262973 -0.0384726 -0.00368048 -0.0203729 -0.0317031 -0.00618444 -0.00573365 -0.0332441 -0.00479607 
0.00585258 -0.0366288 -0.00542734 0.0143602 -0.0365735 -0.00251065 0.0220505 -0.0340623 -0.00370879 
0.038534 -0.0302762 -0.00213533 0.0313038 -0.0330391 -0.000196026 0.04422 -0.0354384 -0.00199585 
-0.0381406 -0.0238665 -0.000714931 -0.0318641 -0.0275499 -0.00738052 -0.0261869 -0.0241983 -0.00327184 
-0.00850102 -0.0226584 -0.00745866 0.00955596 -0.0235967 -0.00360908 0.00162889 -0.0251605 -0.00585171 
0.0168623 -0.0259836 -0.00143131 0.0154576 -0.0225415 -0.0087446 -0.0310939 -0.0127813 -0.00206465 
-0.0393007 -0.0171444 -0.00895585 -0.0117327 -0.0162847 -0.00456964 0.00729397 -0.0152629 -0.00562189 
0.0178046 -0.0138157 -0.000903182 0.0316865 -0.0111076 -0.00647472 0.0427204 -0.01249 -0.00156728 
-0.0433762 -0.00960944 -0.00385813 -0.0422614 -0.00187224 -0.00778289 -0.0252003 -0.008871 -0.00896492 
-0.00505311 -0.00574782 -0.00974064 0.00379962 -0.00477469 -0.000600527 0.0172552 -0.00581438 -0.000944843 
0.0281953 -0.00247878 -0.00269923 0.0448812 -0.00540209 -0.00978965 -0.0435947 0.00929583 -0.0072179 
-0.0220629 0.00775576 -0.00195173 -0.0124664 0.00942011 -0.00454588 -0.00403571 0.00147625 -0.00234073 
0.00402457 0.00809848 -0.00840021 0.0211938 0.00812158 -0.00835172 0.0441255 0.00761928 -0.00913198 
-0.0398801 0.0197061 -0.00181914 -0.0371074 0.012199 -0.000395338 -0.0285569 0.0132922 -0.00348117 
-0.0165479 0.0172712 -0.00373319 0.028026 0.0109067 -0.00577345 0.0354628 0.0115959 -0.00829516 
0.0360635 0.0194454 -0.00659451 0.0454633 0.0194295 -0.00911278 0.0438431 0.0133611 -0.000103991 
-0.0287198 0.024059 -0.00563661 -0.0102915 0.0278247 -0.00333591 0.00650561 0.0207141 -0.00168337 
0.00901005 0.0286149 -0.00424984 0.0150576 0.0237655 -0.00320105 0.027407 0.0209732 -0.00933509 
-0.0364989 0.0381484 -0.0021276 -0.033246 0.0330689 -0.00675518 -0.0227006 0.0366589 -0.00211907 
-0.0204856 0.0307403 -0.00723276 -0.0143655 0.0347121 -0.00804653 -0.00370743 0.0335759 -0.0082942 
0.0181149 0.0301554 -0.00900438 0.025266 0.0302729 -0.00458423 0.033631 0.0316803 -0.00285872 
0.046058 0.0366322 -0.00246056 -0.0435394 0.0450909 -0.0062507 -0.0337778 0.0453813 -0.0098997 
-0.0266894 0.043648 -0.00877262 0.0041124 0.0460892 -0.00348806 0.0170065 0.0451158 -0.00504068 
-0.0170273 -0.04375 0.00592262 -0.0435733 -0.0368492 0.00420476 0.00950205 -0.0365834 0.00505054 
0.00109702 -0.0385934 0.00305889 0.0255163 -0.0333992 0.00984849 0.0393726 -0.0329437 0.00752637 
-0.0437908 -0.0262694 0.00395838 0.00452475 -0.0228264 0.00954094 0.00872144 -0.0280944 0.00730724 
-0.0176663 -0.011627 0.000765827 0.0118899 -0.0183576 0.00197992 0.0207689 -0.0196582 0.00483983 
-0.0415325 -0.0019319 0.00328687 -0.0299335 -0.00467494 0.00529935 -0.0170091 -0.00091999 0.00557462 
0.00655981 -0.00631654 0.00848164 0.0451043 -0.00943124 0.00669736 -0.0287244 0.00329906 0.00459917 
0.0053861 0.00841438 0.00116903 -0.0306789 0.0154338 0.00666696 -0.011907 0.013306 0.00974817 
-0.00498774 0.0193424 0.00016091 0.0392696 0.0178544 0.00690366 -0.0303421 0.0284814 0.00419049 
-0.00860952 0.0266361 0.00989301 0.0145528 0.0219583 0.00491669 0.0316874 0.0213155 0.0090055 
0.0374925 0.0231071 0.000735942 -0.042553 0.0320872 0.00800487 -0.0447922 0.0311874 8.35068e-06 
-0.0150478 0.0359196 0.00238126 0.0204972 0.0376652 0.000224245 0.0372882 0.0392109 0.00116071 
-0.0430665 0.0415119 0.00497929 0.0292861 0.046203 0.00149705 0.0168911 -0.0416936 0.0106973 
-0.0411153 -0.0299348 0.0157089 -0.019773 -0.0281029 0.0104777 0.00148784 -0.0290303 0.0130951 
0.0372446 -0.0108233 0.0130756 -0.0377375 0.00579941 0.0134419 0.0026773 0.00797127 0.0105287 
0.0084286 0.0123683 0.0157464 0.0361341 0.0155883 0.0148783 -0.0160065 0.0242746 0.0152024 
0.00257982 0.0230719 0.0197969 0.0443897 0.0239003 0.0124977 -0.00244884 0.0372645 0.0119335 
0.0200823 0.0356923 0.0122996 0.0301255 0.0367005 0.0157237 0.0371212 -0.0458215 0.0294819 
-0.0323812 -0.0385101 0.0239167 0.019869 -0.0356192 0.0274804 0.00977216 -0.0115916 0.0216079 

VERTICES 1134 1134
1 0 
1 1 
1 2 
1 3 
1 4 
1 5 
1 6 
1 7 
1 8 
1 9 
1 10 
1 11 
1 12 
1 13 
1 14 
1 15 
1 16 
1 17 
1 18 
1 19 
1 20 
1 21 
1 22 
1 23 
1 24 
1 25 
1 26 
1 27 
1 28 
1 29 
1 30 
1 31 
1 32 
1 33 
1 34 
1 35 
1 36 
1 37 
1 38 
1 39 
1 40 
1 41 
1 42 
1 43 
1 44 
1 45 
1 46 
1 47 
1 48 
1 49 
1 50 
1 51 
1 52 
1 53 
1 54 
1 55 
1 56 
1 57 
1 58 
1 59 
1 60 
1 61 
1 62 
1 63 
1 64 
1 65 
1 66 
1 67 
1 68 
1 69 
1 70 
1 71 
1 72 
1 73 
1 74 
1 75 
1 76 
1 77 
1 78 
1 79 
1 80 
1 81 
1 82 
1 83 
1 84 
1 85 
1 86 
1 87 
1 88 
1 89 
1 90 
1 91 
1 92 
1 93 
1 94 
1 95 
1 96 
1 97 
1 98 
1 99 
1 100 
1 101 
1 102 
1 103 
1 104 
1 105 
1 106 
1 107 
1 108 
1 109 
1 110 
1 111 
1 112 
1 113 
1 114 
1 115 
1 116 
1 117 
1 118 
1 119 
1 120 
1 121 
1 122 
1 123 
1 124 
1 125 
1 126 
1 127 
1 128 
1 129 
1 130 
1 131 
1 132 
1 133 
1 134 
1 135 
1 136 
1 137 
1 138 
1 139 
1 140 
1 141 
1 142 
1 143 
1 144 
1 145 
1 146 
1 147 
1 148 
1 149 
1 150 
1 151 
1 152 
1 153 
1 154 
1 155 
1 156 
1 157 
1 158 
1 159 
1 160 
1 161 
1 162 
1 163 
1 164 
1 165 
1 166 
1 167 
1 168 
1 169 
1 170 
1 171 
1 172 
1 173 
1 174 
1 175 
1 176 
1 177 
1 178 
1 179 
1 180 
1 181 
1 182 
1 183 
1 184 
1 185 
1 186 
1 187 
1 188 
1 189 
1 190 
1 191 
1 192 
1 193 
1 194 
1 195 
1 196 
1 197 
1 198 
1 199 
1 200 
1 201 
1 202 
1 203 
1 204 
1 205 
1 206 
1 207 
1 208 
1 209 
1 210 
1 211 
1 212 
1 213 
1 214 
1 215 
1 216 
1 217 
1 218 
1 219 
1 220 
1 221 
1 222 
1 223 
1 224 
1 225 
1 226 
1 227 
1 228 
1 229 
1 230 
1 231 
1 232 
1 233 
1 234 
1 235 
1 236 
1 237 
1 238 
1 239 
1 240 
1 241 
1 242 
1 243 
1 244 
1 245 
1 246 
1 247 
1 248 
1 249 
1 250 
1 251 
1 252 
1 253 
1 254 
1 255 
1 256 
1 257 
1 258 
1 259 
1 260 
1 261 
1 262 
1 263 
1 264 
1 265 
1 266 
1 267 
1 268 
1 269 
1 270 
1 271 
1 272 
1 273 
1 274 
1 275 
1 276 
1 277 
1 278 
1 279 
1 280 
1 281 
1 282 
1 283 
1 284 
1 285 
1 286 
1 287 
1 288 
1 289 
1 290 
1 291 
1 292 
1 293 
1 294 
1 295 
1 296 
1 297 
1 298 
1 299 
1 300 
1 301 
1 302 
1 303 
1 304 
1 305 
1 306 
1 307 
1 308 
1 309 
1 310 
1 311 
1 312 
1 313 
1 314 
1 315 
1 316 
1 317 
1 318 
1 319 
1 320 
1 321 
1 322 
1 323 
1 324 
1 325 
1 326 
1 327 
1 328 
1 329 
1 330 
1 331 
1 332 
1 333 
1 334 
1 335 
1 336 
1 337 
1 338 
1 339 
1 340 
1 341 
1 342 
1 343 
1 344 
1 345 
1 346 
1 347 
1 348 
1 349 
1 350 
1 351 
1 352 
1 353 
1 354 
1 355 
1 356 
1 357 
1 358 
1 359 
1 360 
1 361 
1 362 
1 363 
1 364 
1 365 
1 366 
1 367 
1 368 
1 369 
1 370 
1 371 
1 372 
1 373 
1 374 
1 375 
1 376 
1 377 
1 378 
1 379 
1 380 
1 381 
1 382 
1 383 
1 384 
1 385 
1 386 
1 387 
1 388 
1 389 
1 390 
1 391 
1 392 
1 393 
1 394 
1 395 
1 396 
1 397 
1 398 
1 399 
1 400 
1 401 
1 402 
1 403 
1 404 
1 405 
1 406 
1 407 
1 408 
1 409 
1 410 
1 411 
1 412 
1 413 
1 414 
1 415 
1 416 
1 417 
1 418 
1 419 
1 420 
1 421 
1 422 
1 423 
1 424 
1 425 
1 426 
1 427 
1 428 
1 429 
1 430 
1 431 
1 432 
1 433 
1 434 
1 435 
1 436 
1 437 
1 438 
1 439 
1 440 
1 441 
1 442 
1 443 
1 444 
1 445 
1 446 
1 447 
1 448 
1 449 
1 450 
1 451 
1 452 
1 453 
1 454 
1 455 
1 456 
1 457 
1 458 
1 459 
1 460 
1 461 
1 462 
1 463 
1 464 
1 465 
1 466 
1 467 
1 468 
1 469 
1 470 
1 471 
1 472 
1 473 
1 474 
1 475 
1 476 
1 477 
1 478 
1 479 
1 480 
1 481 
1 482 
1 483 
1 484 
1 485 
1 486 
1 487 
1 488 
1 489 
1 490 
1 491 
1 492 
1 493 
1 494 
1 495 
1 496 
1 497 
1 498 
1 499 
1 500 
1 501 
1 502 
1 503 
1 504 
1 505 
1 506 
1 507 
1 508 
1 509 
1 510 
1 511 
1 512 
1 513 
1 514 
1 515 
1 516 
1 517 
1 518 
1 519 
1 520 
1 521 
1 522 
1 523 
1 524 
1 525 
1 526 
1 527 
1 528 
1 529 
1 530 
1 531 
1 532 
1 533 
1 534 
1 535 
1 536 
1 537 
1 538 
1 539 
1 540 
1 541 
1 542 
1 543 
1 544 
1 545 
1 546 
1 547 
1 548 
1 549 
1 550 
1 551 
1 552 
1 553 
1 554 
1 555 
1 556 
1 557 
1 558 
1 559 
1 560 
1 561 
1 562 
1 563 
1 564 
1 565 
1 566 

POINT_DATA 567
SCALARS id double
LOOKUP_TABLE default
140 143 295 416 4 526 406 505 386 
84 101 336 27 326 273 211 460 201 
441 193 500 468 241 13 77 483 537 
442 472 542 402 82 56 93 129 222 
266 139 261 462 396 267 557 210 473 
262 171 62 258 240 498 517 516 418 
64 314 164 218 108 60 80 296 419 
384 14 182 299 97 73 207 489 286 
554 428 426 550 228 112 239 232 553 
276 148 183 282 515 237 394 234 28 
303 287 343 351 484 365 541 564 438 
246 425 199 503 392 546 332 367 387 
502 23 7 329 512 203 327 456 518 
26 17 8 115 41 252 528 6 69 
315 383 322 519 128 354 469 95 461 
55 76 340 407 197 399 385 535 275 
33 103 256 90 397 424 509 409 523 
430 453 34 298 415 132 338 83 371 
142 40 477 333 560 401 163 135 324 
162 427 344 10 449 506 192 366 493 
435 58 227 281 113 92 319 180 185 
217 391 530 485 429 475 529 151 176 
223 37 499 411 53 212 57 323 545 
125 408 421 168 116 373 360 231 309 
289 471 562 490 50 32 214 121 229 
153 233 187 436 155 548 339 306 71 
29 130 66 255 259 331 137 89 457 
200 0 190 204 253 335 136 464 268 
147 478 260 447 376 198 146 161 257 
448 51 274 458 532 293 317 118 11 
94 70 134 487 264 432 381 389 215 
61 88 30 403 110 68 54 141 254 
87 549 278 510 341 320 277 138 47 
235 422 454 208 353 352 513 417 372 
307 99 38 119 284 439 285 363 18 
368 410 178 440 59 300 288 355 312 
536 561 463 434 358 44 46 279 345 
170 480 398 226 538 337 248 359 361 
107 225 348 501 20 145 206 400 551 
378 413 213 1 63 443 194 388 269 
451 476 24 31 133 390 334 202 330 
167 196 272 224 531 393 157 52 191 
220 81 75 552 446 221 126 2 166 
482 379 520 525 539 311 43 356 78 
496 547 158 74 175 106 144 555 491 
534 420 488 370 230 313 357 364 280 
369 565 404 566 184 124 243 49 251 
431 109 305 123 414 445 169 433 179 
177 492 474 350 316 5 67 508 318 
328 96 15 98 195 507 444 216 405 
467 380 511 156 104 504 9 3 382 
72 65 527 19 524 325 412 540 465 
100 86 189 149 270 154 22 522 362 
423 349 265 375 481 395 122 342 105 
111 263 308 470 559 521 120 301 310 
271 437 494 159 172 374 188 181 297 
556 186 558 346 45 249 250 543 486 
91 127 455 42 205 321 35 16 36 
459 150 219 39 85 117 290 479 25 
238 165 244 174 563 347 292 497 495 
544 291 173 377 283 236 242 302 131 
114 466 102 450 160 304 533 79 294 
209 452 247 21 245 48 12 514 152 

FIELD FieldData 7
r 3 567 double
-0.0402642 -0.0446339 -0.0418518 -0.0275723 -0.0455633 -0.0424946 -0.0154281 -0.0436978 -0.043772 
-0.00362075 -0.0462223 -0.045604 0.00431451 -0.04624 -0.0435382 0.0153109 -0.0447203 -0.043738 
0.0283851 -0.0431873 -0.0406772 0.0382297 -0.0461182 -0.0429481 0.0460328 -0.0461411 -0.0450642 
-0.0328232 -0.0391419 -0.0435784 -0.0392052 -0.0346953 -0.0437047 -0.0220011 -0.0368788 -0.045707 
-0.0107837 -0.0327342 -0.0432857 -0.00277309 -0.031323 -0.0435053 -0.0068941 -0.0397851 -0.0412061 
0.00858524 -0.0336448 -0.0447153 0.00130821 -0.0392067 -0.0439777 0.019809 -0.0314449 -0.0430132 
0.0210743 -0.0387126 -0.0449363 0.0287754 -0.03362 -0.0439941 0.037084 -0.0384605 -0.0410279 
0.0450604 -0.0365659 -0.0447087 -0.04382 -0.0287579 -0.0412482 -0.0342016 -0.022718 -0.0431145 
-0.0240141 -0.0252604 -0.0441245 -0.00582839 -0.0246004 -0.0459426 0.00355861 -0.0244439 -0.0441964 
0.0136038 -0.0233673 -0.0427554 0.0240393 -0.0242417 -0.0433623 0.0393379 -0.0237422 -0.0436547 
0.0457981 -0.0290141 -0.0405552 -0.0446213 -0.0185563 -0.0415669 -0.0300524 -0.0126588 -0.042321 
-0.0393064 -0.0129423 -0.0420099 -0.0186273 -0.0185386 -0.0432342 -0.0103306 -0.0184807 -0.0405438 
-0.00573793 -0.0102076 -0.0412248 0.000942576 -0.017484 -0.0432694 0.00905428 -0.0168462 -0.0422926 
0.017887 -0.013662 -0.0441889 0.0301907 -0.0118995 -0.0436354 0.0368884 -0.0156705 -0.0417537 
0.0443598 -0.0125348 -0.0431117 -0.0417122 -0.00558614 -0.0439333 -0.0273584 -0.00558779 -0.0420706 
-0.021074 -0.0098433 -0.0422834 -0.0171046 -0.00241312 -0.0434266 -0.0130218 -0.00978128 -0.045316 
-0.00969266 -0.00352692 -0.0408513 0.000910584 -0.00100874 -0.0419857 0.0159542 -0.00024971 -0.0432954 
0.0128377 -0.00742584 -0.0428994 0.0230565 -0.0063123 -0.0401982 0.0389754 -0.00691078 -0.045169 
0.0460362 -0.00424977 -0.0424586 -0.0426194 0.00255927 -0.0452526 -0.0347402 0.00959454 -0.0402614 
-0.0349162 0.0013006 -0.0402972 -0.0250806 0.00325987 -0.0427781 -0.0176467 0.00534472 -0.0439711 
-0.0098775 0.00416967 -0.0410267 -0.00370604 0.00741097 -0.0449236 0.00602773 0.00594611 -0.0446246 
0.018651 0.0074951 -0.0428052 0.0238016 0.000107809 -0.0445064 -0.0460556 0.0184602 -0.0407985 
-0.0394587 0.0163412 -0.0446883 -0.0307903 0.0159303 -0.0447508 -0.0254075 0.0111404 -0.0405339 
-0.0217303 0.0187109 -0.0438241 -0.0164911 0.0129796 -0.042678 -0.0108731 0.0194606 -0.0433301 
-7.02462e-05 0.0154291 -0.0422064 0.0100091 0.0153074 -0.0457458 0.0318896 0.0137057 -0.0433134 
0.0445613 0.0151336 -0.0419274 -0.0459427 0.0268695 -0.0447702 -0.0354978 0.0232329 -0.0447752 
-0.0310956 0.0296584 -0.044195 -0.0176342 0.0250164 -0.0430326 -0.00797881 0.0267907 -0.0431909 
0.00473344 0.0217781 -0.041266 0.00827968 0.0286035 -0.0420105 0.0159422 0.0224305 -0.0400162 
0.0234985 0.0243463 -0.044835 0.0365881 0.0296141 -0.0430816 0.033621 0.0221056 -0.0449137 
0.0424376 0.021974 -0.0444455 -0.0406438 0.0345829 -0.0451686 -0.024096 0.0326963 -0.0414603 
-0.0120487 0.0395897 -0.0403332 -0.0148701 0.0325113 -0.0423793 -0.00473003 0.0372004 -0.0441169 
0.000757637 0.0312576 -0.043506 0.00823787 0.0363016 -0.0412542 0.016742 0.0373568 -0.0459277 
0.0164904 0.0303665 -0.0422359 0.0247746 0.036398 -0.0415875 0.0289677 0.0302414 -0.0456702 
0.0347056 0.0376815 -0.0431307 0.0448202 0.0377163 -0.0421616 -0.0354221 0.0458654 -0.0424356 
-0.0252062 0.0415314 -0.043947 -0.00504377 0.0445531 -0.0446746 0.0038468 0.0425624 -0.0415539 
0.0130269 0.0445932 -0.0451454 0.0216837 0.044219 -0.0440755 0.037742 0.0444446 -0.0438729 
0.0303112 0.0448806 -0.0424121 -0.0374751 -0.0455748 -0.0329855 -0.0265781 -0.0401893 -0.0352077 
-0.0199903 -0.0442403 -0.0325501 -0.00884062 -0.0447406 -0.0354343 0.00143202 -0.0444383 -0.0305072 
0.021252 -0.0452313 -0.0327953 0.0344292 -0.0457706 -0.0308117 0.0442587 -0.04442 -0.0346003 
-0.0450396 -0.0375959 -0.0378418 -0.0415232 -0.0321253 -0.0333771 -0.0340282 -0.0357535 -0.0316214 
-0.0273532 -0.0335439 -0.0394774 -0.0193359 -0.0319306 -0.0334282 -0.0147611 -0.0381634 -0.0363187 
-0.000598854 -0.0376965 -0.0336969 0.00534353 -0.0325416 -0.0337035 0.00730081 -0.0399917 -0.0342409 
0.0148874 -0.0305243 -0.03617 0.014477 -0.0394295 -0.0373598 0.0245322 -0.0372095 -0.0362909 
0.0364135 -0.0307961 -0.0392254 0.0395986 -0.0380155 -0.0306765 0.0324032 -0.0335663 -0.0319495 
0.0456173 -0.0309464 -0.0326535 -0.0457848 -0.0259507 -0.0304717 -0.0384442 -0.0234996 -0.0365574 
-0.0334592 -0.0288026 -0.0359639 -0.0251704 -0.0271652 -0.0335287 -0.0162277 -0.0255399 -0.0389581 
-0.0169437 -0.0239236 -0.0309873 -0.00976905 -0.0297773 -0.0322542 -0.000252701 -0.0254033 -0.0361633 
0.0286337 -0.0263808 -0.0360374 0.0461107 -0.0235415 -0.0348636 -0.04583 -0.0125415 -0.035721 
-0.0383439 -0.016216 -0.0334586 -0.0305556 -0.0199517 -0.0322696 -0.0254242 -0.0192451 -0.0392164 
-0.0180798 -0.013505 -0.0354004 -0.00262491 -0.0147456 -0.035808 0.00335405 -0.0192738 -0.0308015 
0.0101049 -0.014851 -0.0312111 0.0269372 -0.0127603 -0.0358035 0.0307522 -0.0192706 -0.0375723 
0.0365212 -0.0180061 -0.0322646 0.0452916 -0.0154525 -0.033637 -0.0456918 -0.0053953 -0.0317065 
-0.0388081 -0.00170762 -0.0331511 -0.0353088 -0.00669697 -0.0390639 -0.0313476 -0.00784593 -0.0323883 
-0.0275779 -0.000806204 -0.0344243 -0.0222205 -0.00715838 -0.0331093 -0.0144225 -0.0011208 -0.0340719 
-0.00385098 -0.00329628 -0.0336193 0.00457387 -0.00971089 -0.038219 0.00703408 -0.000975775 -0.0359384 
0.017977 -0.00131755 -0.0351863 0.0119006 -0.00686689 -0.0333231 0.0307195 -0.00206011 -0.0363078 
0.0385996 -0.00123669 -0.0339728 0.0356174 -0.00941895 -0.0302958 0.0421874 -0.00806417 -0.0357034 
-0.0449577 0.00222569 -0.036584 -0.0354802 0.00758229 -0.032377 -0.0229183 0.00850382 -0.0311975 
-0.00799683 0.00344682 -0.0305276 0.000132032 0.00455155 -0.0322071 0.00813175 0.0074137 -0.0326434 
0.0168592 0.00684703 -0.0333114 0.0269353 0.00541419 -0.0393811 0.0346378 0.00625107 -0.0376321 
0.0427659 0.00399825 -0.0383105 -0.044127 0.0102318 -0.037376 -0.0388464 0.0150047 -0.0305778 
-0.0311661 0.0143596 -0.0353604 -0.0113798 0.0149704 -0.032184 -0.0195649 0.0156794 -0.0333138 
-0.00753638 0.013251 -0.0398972 -0.00343687 0.0135842 -0.0327509 0.00328875 0.0181028 -0.0337402 
0.0199756 0.0194428 -0.0305014 0.0147537 0.0145322 -0.0362184 0.0222245 0.0123666 -0.0342954 
0.0278588 0.0173882 -0.030176 0.0258702 0.0175905 -0.0398142 0.0390181 0.0150378 -0.0356234 
0.0462022 0.013427 -0.0327092 -0.0452197 0.0264657 -0.035183 -0.0368414 0.022203 -0.0343836 
-0.028261 0.0248999 -0.0360802 -0.0153505 0.0285161 -0.0328339 -0.00411438 0.0278418 -0.0344001 
-0.00962239 0.0226694 -0.0305103 -0.00259258 0.0214521 -0.0381603 0.00779632 0.0251568 -0.0348814 
0.0146149 0.0299984 -0.0326222 0.0257833 0.0262195 -0.0373342 0.0363881 0.0207146 -0.03109 
0.0335928 0.0278594 -0.0340725 0.0462482 0.0239869 -0.0300119 0.0443482 0.0285622 -0.0398273 
-0.0454496 0.0344304 -0.038045 -0.0352489 0.031008 -0.0322269 -0.0345411 0.0376263 -0.0370516 
-0.0200441 0.0356181 -0.0345718 -0.0272564 0.0341954 -0.0322035 -0.00888511 0.0364763 -0.0329502 
0.000995971 0.0361394 -0.0374561 0.0217512 0.0352188 -0.0331256 0.029466 0.0394021 -0.0345504 
0.0405676 0.0376879 -0.0311005 -0.0460281 0.0453218 -0.0311895 -0.044367 0.0436838 -0.0397386 
-0.0376953 0.0434336 -0.0323734 -0.0241682 0.046023 -0.0350365 -0.0297568 0.0424042 -0.0309426 
-0.0168326 0.0457208 -0.0388515 -0.0156359 0.0415394 -0.0307892 0.000915737 0.0437958 -0.0313473 
0.00864639 0.0455865 -0.0302602 0.0129291 0.0400829 -0.0359745 0.0196481 0.0456754 -0.0355092 
0.0364976 0.0449786 -0.0338402 0.045561 0.0459171 -0.0379817 -0.0441212 -0.042081 -0.0236931 
-0.0345575 -0.0460285 -0.0238164 -0.0268351 -0.044124 -0.0229751 -0.0158069 -0.0421444 -0.0234765 
-0.00797043 -0.0448836 -0.021244 0.0143376 -0.0435036 -0.0255455 0.0266138 -0.0457288 -0.0229357 
0.0213654 -0.0402632 -0.024369 0.0275009 -0.040502 -0.0294091 0.0412536 -0.0442615 -0.0254502 
-0.0313251 -0.0301338 -0.0251538 -0.0324026 -0.0383516 -0.021367 -0.0262885 -0.0361268 -0.0265786 
-0.0182295 -0.0348915 -0.0237922 -0.0103196 -0.0381758 -0.0294418 -0.00500694 -0.0327949 -0.0249144 
0.00703418 -0.0306221 -0.0217363 0.000425919 -0.0379939 -0.0256644 0.010165 -0.0388503 -0.0200639 
0.0116769 -0.035984 -0.027728 0.024075 -0.0330842 -0.0216566 0.0202364 -0.0332722 -0.0290055 
-0.04262 -0.024721 -0.0216702 -0.0348745 -0.0205339 -0.0219787 -0.0372534 -0.0264733 -0.0290249 
-0.0254912 -0.0234509 -0.0256229 -0.00630019 -0.0214723 -0.0287683 -0.000246158 -0.0256456 -0.0226668 
0.00875796 -0.0267885 -0.0286369 0.0107417 -0.0229052 -0.0220477 0.023422 -0.0214217 -0.0261552 
0.0356368 -0.0266781 -0.0292266 0.0343561 -0.0296354 -0.0203855 0.031161 -0.0219476 -0.0216075 
0.0457006 -0.0228826 -0.0221736 -0.0442596 -0.0121101 -0.0254997 -0.028465 -0.0136079 -0.0243098 
-0.012329 -0.0150643 -0.0290943 -0.019464 -0.0184828 -0.0236585 0.0165022 -0.0194027 -0.0280873 
0.0167762 -0.0116255 -0.0277994 0.0152643 -0.0147168 -0.0202505 0.0228592 -0.0136722 -0.023077 
0.029433 -0.0145781 -0.0277491 0.0381416 -0.0144554 -0.02381 0.0457248 -0.0149268 -0.0213232 
-0.0453614 -9.29297e-05 -0.0257116 -0.0321158 -0.000625003 -0.0281774 -0.0375046 -0.00689263 -0.0241615 
-0.0290339 -0.0045406 -0.0210691 -0.0134222 -0.00143315 -0.0259301 -0.0177435 -0.00893572 -0.0261785 
-0.00561477 -0.00861379 -0.0266773 0.00350998 -0.00704483 -0.0281525 0.0170502 -0.00405296 -0.0238552 
0.0101984 -0.00878724 -0.0205943 0.0228518 -0.00600766 -0.0292845 0.0293364 -0.00193511 -0.0272797 
0.037589 -0.00399316 -0.0229573 0.0446537 -0.00252059 -0.0292625 0.0458413 -0.00730747 -0.0217589 
-0.0375859 0.00408119 -0.0223342 -0.0206029 0.00759833 -0.0209873 -0.0107305 0.00974507 -0.020925 
-0.0151295 0.00689889 -0.0299454 -0.00221909 0.00343614 -0.0231897 0.00484601 0.000965789 -0.0217032 
0.0128572 0.00443064 -0.0204701 0.0177034 0.00879008 -0.0256079 0.0275852 0.00980728 -0.0289492 
0.0297329 0.00240463 -0.0207748 0.0387422 0.00318265 -0.0207063 0.0438172 0.00742318 -0.0253422 
-0.0454984 0.0186419 -0.0234892 -0.0329979 0.012855 -0.0255648 -0.0241039 0.0140663 -0.0253824 
-0.0163248 0.0187108 -0.0244502 -0.0101792 0.0179448 -0.0201718 -0.00112646 0.0112258 -0.0246859 
0.00526261 0.0195792 -0.0257508 0.00929708 0.0100666 -0.0252199 0.0133578 0.019928 -0.02629 
0.0234617 0.0125209 -0.0218329 0.0440942 0.0169495 -0.0244253 -0.031052 0.0208866 -0.0271469 
-0.0396947 0.0237356 -0.0202592 -0.0231312 0.0219049 -0.0297003 -0.0195532 0.025965 -0.0233046 
-0.00928856 0.0276668 -0.0225301 -0.00273642 0.0210669 -0.0278416 0.00353805 0.0270546 -0.0275446 
0.00980017 0.0258502 -0.0209905 0.0250772 0.0200571 -0.0224567 0.023461 0.026138 -0.0285959 
0.0398341 0.0260151 -0.0262648 0.0319187 0.0264977 -0.0243973 -0.0436776 0.0382875 -0.0289058 
-0.03822 0.0351317 -0.0210319 -0.0226899 0.0366547 -0.026217 -0.0146469 0.0339581 -0.0249064 
0.00787327 0.0349245 -0.0275842 0.0002144 0.0363972 -0.028117 0.0166963 0.0315917 -0.0245473 
0.0134251 0.0379029 -0.0213392 0.0452298 0.0311114 -0.024494 -0.0405513 0.0462069 -0.023347 
-0.0258371 0.0460081 -0.0229509 -0.0185483 0.0418863 -0.0224035 -0.00484253 0.0431439 -0.0222539 
-0.00756461 0.0459937 -0.0294509 0.0138777 0.0461935 -0.0203369 0.0252149 0.0453919 -0.0296275 
0.0362253 0.0438889 -0.0233184 -0.0331741 -0.0451332 -0.0100159 -0.0239119 -0.044309 -0.0118668 
-0.0133875 -0.0460132 -0.0129078 0.000266781 -0.0435806 -0.0186137 0.0140365 -0.0437101 -0.0148695 
0.0287574 -0.0406434 -0.0154563 0.0351802 -0.0458329 -0.019614 -0.0428162 -0.0384921 -0.0116718 
-0.0348966 -0.0319512 -0.0163747 -0.0246437 -0.0358155 -0.0174152 -0.0122831 -0.0382758 -0.0161811 
-0.0191741 -0.0383544 -0.012105 -0.00437502 -0.0347903 -0.0157101 0.00386582 -0.0342286 -0.0142535 
0.0197464 -0.0374658 -0.0140757 0.0390988 -0.0360698 -0.0194744 -0.0455625 -0.0206488 -0.0146891 
-0.0363967 -0.0251401 -0.0136236 -0.0283792 -0.0282555 -0.0144851 -0.0214047 -0.0206498 -0.0129699 
-0.0211213 -0.0271645 -0.0196185 -0.0134048 -0.0289614 -0.0197719 -0.0120399 -0.0203236 -0.0135419 
-0.0169521 -0.0269405 -0.0112027 0.00315956 -0.0239396 -0.015773 0.0106047 -0.0277246 -0.0127099 
0.0205815 -0.0247702 -0.0143813 0.0318717 -0.0294207 -0.0123326 0.0409762 -0.0276609 -0.015743 
-0.0408644 -0.0118648 -0.0175538 -0.0282793 -0.0160442 -0.0122896 -0.00195531 -0.0157162 -0.0110631 
0.00509317 -0.0144035 -0.0184732 0.029808 -0.0128878 -0.0178365 0.0253858 -0.0188088 -0.0156394 
0.0377024 -0.012829 -0.0145061 0.0447424 -0.0161097 -0.0126822 -0.0355746 -0.0070577 -0.0151177 
-0.0209393 -0.000581229 -0.0177057 -0.0024326 -0.00560548 -0.0199166 -0.00871855 -0.00998569 -0.0182067 
0.0115218 -0.00570984 -0.011604 0.0188783 -0.00994638 -0.0135088 0.0173306 -0.000583549 -0.0145147 
0.0246427 -0.00693141 -0.01789 0.0373395 -0.00387114 -0.0140275 -0.0419352 0.0090547 -0.0183309 
-0.0442789 0.000639686 -0.0175751 -0.0307104 0.00328098 -0.0183242 -0.0258013 0.00235493 -0.0100938 
0.0326875 0.000794967 -0.0101228 0.043874 0.000579004 -0.0153489 -0.041422 0.0172456 -0.0132016 
-0.0348929 0.0122055 -0.0178872 -0.0294248 0.0175257 -0.0126813 -0.0180978 0.0147236 -0.0142805 
-0.00276129 0.0165857 -0.014824 0.0152824 0.0187624 -0.0176633 0.0105059 0.0111395 -0.0140441 
0.010066 0.0198696 -0.0103529 0.0389196 0.0125556 -0.0161437 0.0328256 0.0185635 -0.0178663 
-0.038934 0.0277169 -0.0114225 -0.0284636 0.0270097 -0.0164213 -0.0221127 0.022125 -0.0149723 
-0.0148831 0.0246561 -0.0156317 -0.00463184 0.0246212 -0.0169165 0.00310326 0.0246517 -0.0152646 
0.0286094 0.027535 -0.0144638 0.0214743 0.0285756 -0.0193226 0.0387378 0.0258619 -0.0170039 
0.0461798 0.024944 -0.0196287 -0.0447518 0.0308068 -0.0194004 -0.0426851 0.0344483 -0.0123358 
-0.0439155 0.0394418 -0.0186157 -0.0335035 0.0337977 -0.014914 -0.0265024 0.0393282 -0.0177036 
-0.0110166 0.0330276 -0.0159649 -0.0181613 0.0312404 -0.014904 0.000216463 0.0346418 -0.0198427 
0.0287153 0.0395684 -0.0166874 0.0383897 0.0333646 -0.0198493 0.0464694 0.0363622 -0.0151877 
-0.0341893 0.0434041 -0.0181473 -0.0132685 0.0463484 -0.0169192 0.00430838 0.0417086 -0.0190847 
0.0235959 0.0449283 -0.0167752 0.0349156 0.0442109 -0.0150475 0.0419368 0.0411044 -0.01184 
0.0449048 0.0463028 -0.0178247 -0.045901 -0.0454021 -0.00765591 -0.00703301 -0.0436255 -0.00597087 
0.0150559 -0.0462462 -0.00276514 0.0209365 -0.0449658 -0.00768223 0.0382373 -0.0411487 -0.00410806 
0.0458236 -0.0436544 -0.0023353 -0.0412321 -0.0308668 -0.0060531 -0.0339988 -0.0373674 -0.00952341 
-0.0262973 -0.0384726 -0.00368048 -0.0203729 -0.0317031 -0.00618444 -0.00573365 -0.0332441 -0.00479607 
0.00585258 -0.0366288 -0.00542734 0.0143602 -0.0365735 -0.00251065 0.0220505 -0.0340623 -0.00370879 
0.038534 -0.0302762 -0.00213533 0.0313038 -0.0330391 -0.000196026 0.04422 -0.0354384 -0.00199585 
-0.0381406 -0.0238665 -0.000714931 -0.0318641 -0.0275499 -0.00738052 -0.0261869 -0.0241983 -0.00327184 
-0.00850102 -0.0226584 -0.00745866 0.00955596 -0.0235967 -0.00360908 0.00162889 -0.0251605 -0.00585171 
0.0168623 -0.0259836 -0.00143131 0.0154576 -0.0225415 -0.0087446 -0.0310939 -0.0127813 -0.00206465 
-0.0393007 -0.0171444 -0.00895585 -0.0117327 -0.0162847 -0.00456964 0.00729397 -0.0152629 -0.00562189 
0.0178046 -0.0138157 -0.000903182 0.0316865 -0.0111076 -0.00647472 0.0427204 -0.01249 -0.00156728 
-0.0433762 -0.00960944 -0.00385813 -0.0422614 -0.00187224 -0.00778289 -0.0252003 -0.008871 -0.00896492 
-0.00505311 -0.00574782 -0.00974064 0.00379962 -0.00477469 -0.000600527 0.0172552 -0.00581438 -0.000944843 
0.0281953 -0.00247878 -0.00269923 0.0448812 -0.00540209 -0.00978965 -0.0435947 0.00929583 -0.0072179 
-0.0220629 0.00775576 -0.00195173 -0.0124664 0.00942011 -0.00454588 -0.00403571 0.00147625 -0.00234073 
0.00402457 0.00809848 -0.00840021 0.0211938 0.00812158 -0.00835172 0.0441255 0.00761928 -0.00913198 
-0.0398801 0.0197061 -0.00181914 -0.0371074 0.012199 -0.000395338 -0.0285569 0.0132922 -0.00348117 
-0.0165479 0.0172712 -0.00373319 0.028026 0.0109067 -0.00577345 0.0354628 0.0115959 -0.00829516 
0.0360635 0.0194454 -0.00659451 0.0454633 0.0194295 -0.00911278 0.0438431 0.0133611 -0.000103991 
-0.0287198 0.024059 -0.00563661 -0.0102915 0.0278247 -0.00333591 0.00650561 0.0207141 -0.00168337 
0.00901005 0.0286149 -0.00424984 0.0150576 0.0237655 -0.00320105 0.027407 0.0209732 -0.00933509 
-0.0364989 0.0381484 -0.0021276 -0.033246 0.0330689 -0.00675518 -0.0227006 0.0366589 -0.00211907 
-0.0204856 0.0307403 -0.00723276 -0.0143655 0.0347121 -0.00804653 -0.00370743 0.0335759 -0.0082942 
0.0181149 0.0301554 -0.00900438 0.025266 0.0302729 -0.00458423 0.033631 0.0316803 -0.00285872 
0.046058 0.0366321 -0.00246056 -0.0435394 0.0450909 -0.0062507 -0.0337778 0.0453813 -0.0098997 
-0.0266894 0.043648 -0.00877262 0.0041124 0.0460892 -0.00348806 0.0170065 0.0451158 -0.00504068 
-0.0170273 -0.04375 0.00592262 -0.0435733 -0.0368492 0.00420476 0.00950205 -0.0365834 0.00505054 
0.00109702 -0.0385934 0.00305889 0.0255163 -0.0333992 0.00984849 0.0393726 -0.0329437 0.00752637 
-0.0437908 -0.0262694 0.00395838 0.00452475 -0.0228264 0.00954094 0.00872144 -0.0280944 0.00730724 
-0.0176663 -0.011627 0.000765827 0.0118899 -0.0183576 0.00197992 0.0207689 -0.0196582 0.00483983 
-0.0415325 -0.0019319 0.00328687 -0.0299335 -0.00467494 0.00529935 -0.0170091 -0.00091999 0.00557462 
0.00655981 -0.00631654 0.00848164 0.0451043 -0.00943124 0.00669736 -0.0287244 0.00329906 0.00459917 
0.0053861 0.00841438 0.00116903 -0.0306789 0.0154338 0.00666696 -0.011907 0.013306 0.00974817 
-0.00498774 0.0193424 0.00016091 0.0392696 0.0178544 0.00690366 -0.0303421 0.0284814 0.00419049 
-0.00860952 0.0266361 0.00989301 0.0145528 0.0219583 0.00491669 0.0316874 0.0213155 0.0090055 
0.0374925 0.0231071 0.000735942 -0.042553 0.0320872 0.00800487 -0.0447922 0.0311874 8.35068e-06 
-0.0150478 0.0359196 0.00238126 0.0204972 0.0376652 0.000224245 0.0372882 0.0392109 0.00116071 
-0.0430665 0.0415119 0.00497929 0.0292861 0.046203 0.00149705 0.0168911 -0.0416936 0.0106973 
-0.0411153 -0.0299348 0.0157089 -0.019773 -0.0281029 0.0104777 0.00148784 -0.0290303 0.0130951 
0.0372446 -0.0108233 0.0130756 -0.0377375 0.00579941 0.0134419 0.0026773 0.00797127 0.0105287 
0.0084286 0.0123683 0.0157464 0.0361341 0.0155883 0.0148783 -0.0160065 0.0242746 0.0152024 
0.00257982 0.0230719 0.0197969 0.0443897 0.0239003 0.0124977 -0.00244884 0.0372645 0.0119335 
0.0200823 0.0356923 0.0122996 0.0301255 0.0367005 0.0157237 0.0371212 -0.0458215 0.0294819 
-0.0323812 -0.0385101 0.0239167 0.019869 -0.0356192 0.0274804 0.00977216 -0.0115916 0.0216079 

gid 1 567 double
0 0 0 0 0 0 0 0 0 
0 0 0 0 0 0 0 0 0 
0 0 0 0 0 0 0 0 0 
0 0 0 0 0 0 0 0 0 
0 0 0 0 0 0 0 0 0 
0 0 0 0 0 0 0 0 0 
0 0 0 0 0 0 0 0 0 
0 0 0 0 0 0 0 0 0 
0 0 0 0 0 0 0 0 0 
0 0 0 0 0 0 0 0 0 
0 0 0 0 0 0 0 0 0 
0 0 0 0 0 0 0 0 0 
0 0 0 0 0 0 0 0 0 
0 0 0 0 0 0 0 0 0 
0 0 0 0 0 0 0 0 0 
0 0 0 0 0 0 0 0 0 
0 0 0 0 0 0 0 0 0 
0 0 0 0 0 0 0 0 0 
0 0 0 0 0 0 0 0 0 
0 0 0 0 0 0 0 0 0 
0 0 0 0 0 0 0 0 0 
0 0 0 0 0 0 0 0 0 
0 0 0 0 0 0 0 0 0 
0 0 0 0 0 0 0 0 0 
0 0 0 0 0 0 0 0 0 
0 0 0 0 0 0 0 0 0 
0 0 0 0 0 0 0 0 0 
0 0 0 0 0 0 0 0 0 
0 0 0 0 0 0 0 0 0 
0 0 0 0 0 0 0 0 0 
0 0 0 0 0 0 0 0 0 
0 0 0 0 0 0 0 0 0 
0 0 0 0 0 0 0 0 0 
0 0 0 0 0 0 0 0 0 
0 0 0 0 0 0 0 0 0 
0 0 0 0 0 0 0 0 0 
0 0 0 0 0 0 0 0 0 
0 0 0 0 0 0 0 0 0 
0 0 0 0 0 0 0 0 0 
0 0 0 0 0 0 0 0 0 
0 0 0 0 0 0 0 0 0 
0 0 0 0 0 0 0 0 0 
0 0 0 0 0 0 0 0 0 
0 0 0 0 0 0 0 0 0 
0 0 0 0 0 0 0 0 0 
0 0 0 0 0 0 0 0 0 
0 0 0 0 0 0 0 0 0 
0 0 0 0 0 0 0 0 0 
0 0 0 0 0 0 0 0 0 
0 0 0 0 0 0 0 0 0 
0 0 0 0 0 0 0 0 0 
0 0 0 0 0 0 0 0 0 
0 0 0 0 0 0 0 0 0 
0 0 0 0 0 0 0 0 0 
0 0 0 0 0 0 0 0 0 
0 0 0 0 0 0 0 0 0 
0 0 0 0 0 0 0 0 0 
0 0 0 0 0 0 0 0 0 
0 0 0 0 0 0 0 0 0 
0 0 0 0 0 0 0 0 0 
0 0 0 0 0 0 0 0 0 
0 0 0 0 0 0 0 0 0 
0 0 0 0 0 0 0 0 0 

a 3 567 double
0 0 0 0 0 0 0 0 0 
0 942.319 0 42.8839 370.186 2.74382 0 0 0 
0 0 0 0.226685 185.21 -0.87072 0 243.512 0 
123.714 -72.5881 -6.6636 -98.1414 45.6174 -3.65222 0 0 0 
0 0 0 76.8279 -167.683 34.8768 4.12965 17.4888 -16.7443 
0 0 0 -42.8839 76.2411 -2.74382 -55.9893 179.11 41.4236 
55.9893 -179.11 -41.4236 0 0 0 2.06775 -23.2238 -2.59682 
0 0 0 -25.5724 26.9707 10.3158 27.6233 7.88028 -34.4532 
32.1434 -116.954 -73.4365 -76.8279 167.683 -34.8768 147.694 -340.985 -10.8612 
7.8414 -11.1921 0.660007 0 0 0 0 0 0 
-2.5962 -40.1738 -50.9527 -26.3548 -35.8822 1.63904 -50.1573 -168.846 5.80795 
33.9445 -46.9248 -2.94245 9.71145 1.60262 -4.44509 0 0 0 
149.831 -210.195 13.3896 -147.694 340.985 10.8612 -7.8414 11.1921 -0.660007 
0 0 0 -16.4295 10.8605 -3.29785 16.4295 -10.8605 3.29785 
0 0 0 -20.3675 66.4 -9.0902 -77.8272 263.243 -17.214 
127.985 -94.3973 11.4061 -208.185 -105.835 -47.5346 0 0 0 
91.6812 126.005 38.0327 0 0 0 -47.5082 56.2979 1.33358 
-17.6636 -55.989 1.43049 -8.19507 -164.557 82.7261 0 0 0 
-116.969 0 0 0 0 0 -48.5838 -85.0653 -72.1915 
0 0 0 -137.105 -52.857 11.2951 92.0016 161.339 -24.885 
-1.02771 33.7512 3.00366 0 0 0 0 0 0 
0 0 0 67.4412 155.634 -91.9756 370.245 0 0 
-7.68936 -18.5691 0.239997 0 0 0 0 0 0 
-86.9912 -56.0083 -10.7638 49.1271 15.6736 15.9421 -40.2493 1.46228 -15.8024 
14.7164 -102.084 -40.3361 0 0 0 5.1295 -3.02732 -2.18578 
43.0772 -179.983 46.4568 0 0 0 -75.4811 -84.0297 -0.568363 
83.1705 102.599 0.328366 38.3015 62.969 -1.3515 17.4475 31.2848 0.419555 
-59.5794 -84.5289 -71.3524 35.3131 -184.061 -79.741 0 0 0 
-4.85163 -5.56612 -0.0253285 0 0 0 0 0 0 
-43.0772 179.983 -46.4568 0 0 0 0 0 0 
75.2291 167.716 28.0656 -62.8624 -142.558 -25.1938 -24.9067 -313.063 24.6057 
2.75125 -132.975 -124.422 89.4507 103.72 75.8267 9.77125 112.492 -42.9659 
-9.77125 -112.492 42.9659 0 0 0 4.85163 5.56612 0.0253285 
-238.013 -426.954 11.7586 0 0 0 0 0 0 
0 0 0 24.9067 313.063 -24.6057 -96.7867 175.15 -18.4342 
0 0 0 0 0 0 587.677 419.114 -39.5491 
-349.664 7.83938 27.7905 0 0 0 0 0 0 
0 0 0 -4.12965 -17.4888 16.7443 112.904 -237.001 128.148 
0 0 0 0 0 0 0 0 0 
0 0 0 0 0 0 0 0 0 
0 0 0 93.8956 -60.4868 0.94419 0 0 0 
-184.447 161.799 -127.596 5.14472 232.577 15.7826 -7.90863 -151.656 24.5038 
0 0 0 73.4165 -1.85347 -37.1811 0 0 0 
-2.29443 28.2788 3.46754 0 0 0 -0.180439 -0.45467 -0.128424 
-16.5863 -125.241 16.3177 0 0 0 -465.701 505.253 64.1114 
438.078 -513.133 -29.6582 -93.8956 60.4868 -0.94419 0 0 0 
0 0 0 0 0 0 0 0 0 
-113.318 -333.224 119.291 -328.081 165.415 34.635 0 0 0 
0 0 0 0 0 0 -41.8548 115.351 77.8816 
2.79613 -3.43558 -1.13101 0 0 0 0 0 0 
0 0 0 -31.1803 39.8835 11.8957 82.2541 268.361 -195.11 
62.2439 24.9795 63.9235 0 0 0 -11.9521 -42.5641 -31.7422 
10.8068 5.30678 -1.01235 -92.4929 48.2911 -117.782 105.271 -31.8841 128.176 
198.711 -32.7996 -220.165 -2.79613 3.43558 1.13101 0 0 0 
0 0 0 0 0 0 0 0 0 
0 0 0 0 0 0 0 0 0 
-29.0211 2.06045 -21.2259 0 0 0 0 0 0 
-3.3245 -16.085 0.0242919 0 0 0 0 0 0 
140.648 -49.5903 -7.86827 0 0 0 -1.52215 -1.6936 -5.9917 
-84.2937 -113.391 5.42679 5.92573 8.61482 6.48541 0 0 0 
0 0 0 3.3245 16.085 -0.0242919 0 0 0 
48.5838 85.0653 72.1915 0 0 0 0.0325789 -0.0800978 -0.0366464 
22.8019 -32.7471 15.3829 -5.0362 -2.6521 0.39798 5.0362 2.6521 -0.39798 
64.2256 -92.2458 -88.7805 0 0 0 51.7854 129.871 -56.8086 
0.246231 20.632 -1.11488 -5.1295 3.02732 2.18578 69.821 -154.519 -119.865 
-229.145 -7.31638 10.3058 0 0 0 0 0 0 
0 0 0 0 0 0 -32.9703 313.784 178.856 
-145.767 20.4599 -66.8136 -5.63615 -252.258 -141.617 53.3585 31.5101 97.1286 
0 0 0 0 0 0 -91.506 161.835 109.559 
0 0 0 -588.046 -30.0037 -33.1621 0 0 0 
0 0 0 0 0 0 0 0 0 
220.381 58.6097 -53.2032 -220.381 -58.6097 53.2032 0 0 0 
-0.0330088 132.362 124.775 0 0 0 0 0 0 
0 0 0 -126.39 269.429 -82.5041 0 0 0 
0 0 0 64.215 -189.786 -45.8994 -64.215 -57.0175 45.8994 
0 0 0 0 0 0 0 0 0 
0 0 0 -0.584254 -0.618698 -0.68345 0 0 0 
0 0 0 0 0 0 0 0 0 
0 0 0 0 0 0 88.6786 -301.273 -29.0605 
0 0 0 -99.0004 -64.3064 -20.835 67.7698 -55.4259 18.5299 
31.2306 119.732 2.30509 0 0 0 0 0 0 
-71.5736 93.5488 10.4708 0 0 0 71.7683 -93.6444 -10.3695 
-88.6786 301.273 29.0605 0 0 0 -229.338 170.974 31.2697 
0 0 0 230.228 -174.84 -34.9269 0 0 0 
0 0 0 0 0 0 0 0 0 
0 0 0 0 0 0 -0.19471 0.0956173 -0.101287 
0 0 0 0 0 0 -40.1181 -29.7777 -64.1849 
0 0 0 0 0 0 330.599 -128.417 60.2043 
0.180439 0.45467 0.128424 -44.7454 59.8781 -0.279196 0 0 0 
-4.05331 -122.929 -1.20764 0 0 0 0 0 0 
0 0 0 0 0 0 -351.739 -46.1533 -82.0018 
2.81963 182.846 9.7151 112.234 -107.147 -0.481101 18.3202 -8.27573 12.0825 
0 0 0 -4.07047 0.887793 -1.16488 0.733643 16.2427 -1.49118 
1.14536 37.2574 32.7546 -198.711 32.7996 220.165 0 0 0 
0 0 0 0 0 0 0 0 0 
0 0 0 0 0 0 0 0 0 
-107.71 112.955 -0.900518 0 0 0 4.20925 -58.652 -73.1676 
-1.11334 -86.3732 -24.0349 29.0211 -2.06045 21.2259 7.39014 105.799 3.8637 
203.281 -178.005 -146.514 0 0 0 0 0 0 
-140.648 49.5903 7.86827 -230.839 18.5964 -11.9091 230.024 -84.1098 22.3191 
-2.44632 3.50502 -2.2719 0.13299 6.41677 19.4364 32.1291 -43.5297 33.0603 
-4.20925 58.652 73.1676 -25.1117 97.7807 2.84491 0 0 0 
0 0 0 0 0 0 0 0 0 
-328.139 -5.35889 -201.031 328.139 5.35889 201.031 0.815367 65.5134 -10.41 
4.79298 -29.9513 10.6092 3.96846 -1.81142 8.26359 -103.295 -5.70613 54.4521 
-15.2194 -176.6 26.7222 0 0 0 0 0 0 
0 0 0 -0.0325789 0.0800978 0.0366464 0 0 0 
0 0 0 145.767 -20.4599 66.8136 -4.79298 29.9513 -10.6092 
0 0 0 15.2194 176.6 -26.7222 39.069 97.9519 34.3284 
-226.574 -130.159 7.30385 0 0 0 126.39 -269.429 82.5041 
188.568 -140.705 -172.895 -186.086 -180.842 -168.368 0 0 0 
118.889 -13.0031 0.441143 -118.889 13.0031 -0.441143 -20.1392 -37.0405 -113.242 
-61.8784 93.6252 41.51 160.232 183.752 9.87371 0 0 0 
0 -10.2159 0 186.086 180.842 168.368 -3.46417 3.01476 -6.69469 
3.46417 -3.01476 6.69469 0 -139.184 0 0 0 0 
0 0 0 1.05035 -91.2795 -15.0019 -76.736 -78.164 8.19699 
0 69.1013 0 0 0 0 0 0 0 
0 0 0 0 0 0 0 0 0 
11.4346 -247.625 -76.368 -60.5253 28.1922 -44.6233 16.6167 -1.50613 -8.34961 
120.645 51.4779 44.7759 0 0 0 0 0 0 
0 0 0 44.7454 -59.8781 0.279196 0 0 0 
-30.2404 239.587 69.6784 44.7055 -3.79087 -38.1455 -9.26029 17.3286 -4.46299 
-53.6088 8.29383 -3.35293 53.6088 -8.29383 3.35293 -192.009 153.397 -279.014 
85.8186 112.122 -150.769 40.1181 29.7777 64.1849 -37.7209 -34.1816 -22.0919 
0 0 0 0 0 0 0 0 0 
0 0 0 0 0 0 0 0 0 
-4.5242 -5.8075 1.38162 328.094 353.43 -103.073 -328.094 -353.43 103.073 
0 0 0 0 0 0 0 0 0 
0 0 0 133.505 117.746 -34.0329 -133.505 -117.746 34.0329 
0 0 0 -64.1099 -39.5729 37.4965 0 0 0 
64.1099 39.5729 -37.4965 147.456 -200.809 -144.475 -278.934 151.126 131.605 
0 0 0 1.72382 -0.0694224 0.74008 0 0 0 
-147.456 200.809 144.475 26.225 -11.4076 21.19 0 0 0 
73.9294 26.9486 14.1691 0 0 0 0 0 0 
0 0 0 0 0 0 0 0 0 
0 0 0 0 0 0 0 0 0 
0 0 0 0 0 0 -159.69 -40.426 20.216 
375.366 -396.173 -118.624 -158.036 11.425 -45.2764 158.036 -11.425 45.2764 
0 0 0 82.0177 -56.5846 71.7315 0 0 0 
-288.476 -23.5901 15.9845 0 0 0 0 0 0 
-255.766 143.302 88.7764 67.198 -2.59723 84.1181 0 0 0 
434.327 66.9294 -87.7458 -647.562 370.081 180.904 0 0 0 
306.529 -397.283 -11.1358 0 0 0 -595.723 -314.292 -161.529 
0 0 0 0 -15.761 0 0 0 0 
-306.529 397.283 11.1358 0 0 0 -304.658 314.292 161.529 
0 -501.192 0 180.209 0 0 0 0 0 
0 358.589 0 0 0 0 7.13137 5.6896 1.33749 
7.70187 -20.9244 -0.252136 0 0 0 -1.05035 91.2795 15.0019 
0 0 0 -76.5583 -129.45 155.232 0 0 0 
0 0 0 -21.7832 -5.63412 5.64946 21.7832 5.63412 -5.64946 
-74.4101 100.666 -0.553482 -3.80716 -1.05236 1.42247 63.384 -84.3792 -1.95434 
313.788 99.4276 -192.988 -111.865 -22.1998 -17.0187 85.9655 34.0286 61.8538 
388.673 -597.449 136.543 -31.4661 9.93971 -3.65472 0 0 0 
24.3776 -11.3969 7.61127 44.3607 34.3819 16.5557 0 0 0 
0 0 0 -196.665 444.052 142.471 0 0 0 
0 0 0 0 0 0 0 0 0 
0 0 0 0 0 0 0 0 0 
0 0 0 0 0 0 0 0 0 
0 0 0 0 0 0 0 0 0 
0 0 0 0 0 0 0 0 0 
0 0 0 -65.9455 -32.0789 -17.9488 0 0 0 
0 0 0 0 0 0 0 0 0 
0 0 0 65.9455 32.0789 17.9488 -0.00654939 -0.0332155 -0.00587326 
0.00654939 0.0332155 0.00587326 0 0 0 0 0 0 
0 0 0 0 0 0 0 0 0 
-577.779 404.012 -163.756 577.633 -403.914 162.879 0 0 0 
-47.7484 113.553 97.1241 47.7484 -113.553 -97.1241 0 0 0 
-260.356 -128.427 17.1163 257.916 128.016 -11.8666 0 0 0 
16.3736 0.946575 7.65714 -16.3736 -0.946575 -7.65714 0 0 0 
0 0 0 0 0 0 -181.438 32.3824 -7.05294 
181.438 -32.3824 7.05294 0 0 0 0 0 0 
0 0 0 0 0 0 0 0 0 
0 0 0 0 0 0 0 0 0 
-313.788 -99.4276 192.988 -30.5401 683.389 -113.684 177.629 -172.136 -105.018 
0 0 0 0.448603 1.25689 1.57967 0 0 0 
0 0 0 -1.07093 -16.3074 0.36438 0 0 0 
0 0 0 0 0 0 1.07093 16.3074 -0.36438 
0 0 0 0 0 0 0 0 0 
0 0 0 0 0 0 0 0 0 
0 0 0 0.146227 -0.097534 0.877411 0 0 0 
0 0 0 0 0 0 0 0 0 
0 0 0 0 0 0 0 0 0 
0 0 0 0 -62.541 0 0 0 0 
0 0 0 0 0 0 -147.088 -511.252 218.702 
0 0 0 0 0 0 0 0 0 
0 0 0 0 0 0 0 0 0 
0 0 0 0 0 0 0 0 0 
0 0 0 0 0 0 0 0 0 
0 0 0 0 0 0 0 0 0 

v 3 567 double
-0.358406 0.0910865 0.718241 -1.09294 0.129098 0.670877 0.621087 0.399046 0.478414 
-0.43203 0.496544 0.103414 -0.405806 0.0808444 0.388394 -0.49397 0.286465 0.529909 
-0.387012 -0.132538 0.736358 0.0798478 0.086044 0.349065 0.190626 0.0960962 0.254038 
-0.251029 -0.0226016 0.4787 -0.323919 0.0276485 0.469221 -0.100711 0.333279 0.241663 
-0.00906075 0.327641 0.494163 -0.143227 0.322625 0.457556 -0.288903 -0.116433 0.840218 
-0.586103 -0.201917 0.433531 -0.121058 -0.146032 0.337615 0.03114 0.161352 0.383817 
-0.475419 0.238743 0.285605 0.169055 -0.0290818 0.451425 -0.237174 0.0248 0.589547 
-0.264439 -0.0907643 0.15662 -0.301494 0.0993149 0.518514 -0.120937 -0.475468 0.46181 
-0.0848656 0.197327 0.20351 -0.146486 0.357122 -0.0752391 -0.37477 0.123543 0.434692 
0.0598343 -0.189613 0.416947 -0.0600362 0.25615 0.504522 -0.00659568 -0.0277911 0.323244 
-0.158219 -0.394653 0.443658 -0.00870931 0.116996 0.604151 0.176137 0.159757 0.559679 
0.0759938 -0.393184 0.557828 -0.141243 0.00365987 0.579555 -0.246424 -0.0421234 0.737094 
0.0957221 -0.388168 0.556544 -0.308051 0.0855899 0.52245 0.038405 -0.155403 0.526662 
0.0696644 0.0590673 0.37501 -0.229988 0.173102 0.488525 -0.256716 0.21593 0.503754 
-0.282543 0.0553238 0.403947 -0.0455299 -0.170809 0.255368 0.0466036 -0.113694 0.58829 
-0.212366 0.0374702 0.456895 -0.375572 -0.102454 0.394472 -0.132968 0.0162835 0.14027 
0.206952 0.0788299 0.915019 0.0765787 0.198264 0.6492 0.023325 0.00952629 0.507657 
-0.0608869 0.103473 0.539835 -0.0334568 0.332775 0.672106 0.209551 -0.000951158 0.303619 
-0.174882 -0.0422289 0.53176 -0.418519 -0.393869 0.16963 -0.437079 0.261966 0.703493 
-0.200181 0.137619 0.653851 -0.0198084 0.303231 0.570579 0.176025 0.11135 0.311536 
0.184186 -0.378333 0.732155 -0.306092 0.0266407 0.384807 0.100788 0.0913359 0.371888 
-0.0182517 0.09 0.538275 0.204713 0.179685 0.175423 0.41481 0.0692785 0.691238 
0.0609136 0.246778 0.285342 0.105011 -0.370667 0.27766 -0.316348 -0.0760039 0.381391 
0.10313 0.154862 0.483312 -0.0559771 0.0555021 0.38459 0.593315 -0.278474 0.470921 
-0.670326 0.092145 0.438925 0.046995 -0.225101 0.101598 0.129164 -0.0656786 0.554656 
-0.110747 0.0596515 0.423381 0.0600003 -0.233621 0.407839 0.496316 0.0709696 0.288 
0.486881 0.223253 0.383145 -0.136345 -0.32329 0.48917 0.0978714 -0.110809 0.499804 
-0.17677 0.117954 0.647209 0.109252 -0.223527 0.613277 -0.0645488 -0.166 0.73915 
-0.101098 -0.244785 0.383107 -0.390215 -0.182902 0.526569 0.0272938 0.00673394 0.318968 
-0.138341 -0.212133 0.350235 0.0607188 0.270794 0.279886 0.0694704 0.306622 0.743785 
-0.0832011 0.330878 0.867586 -0.122856 -0.0429083 0.493681 0.209568 0.442586 0.337387 
0.0356009 0.262832 0.342375 0.162428 0.113414 0.566904 -0.219799 0.277106 0.120026 
-0.0490625 0.192013 0.664466 -0.0689493 0.111092 0.686006 0.125273 -0.0766525 0.175853 
0.274163 -0.126342 0.503973 0.155638 -0.113514 0.577306 -0.528988 -0.224877 0.64278 
0.233725 0.476749 0.554096 -0.106994 0.0241588 0.376628 -0.0553465 -0.0798512 0.650812 
-0.705085 -0.11876 0.374746 -0.0240203 -0.150814 0.461643 0.188832 -0.0403078 0.280466 
0.145316 -0.0981068 0.643916 -0.790264 0.0257772 0.719833 0.382589 0.0887263 0.535563 
0.0716818 0.411279 1.03336 -0.506222 0.263239 0.882893 -0.543003 -0.260525 0.954398 
-0.883585 0.0920925 1.02296 -0.445499 -0.165292 0.641618 -0.00214304 0.05895 0.36934 
-0.275229 0.339411 0.74373 -0.349572 -0.0250669 0.618045 0.192373 -0.0243161 1.30361 
0.0208016 -0.0630704 0.929466 -0.429897 0.00304193 0.805079 0.342059 -0.0146935 0.75509 
-0.110376 0.220891 0.88038 0.345978 -0.0203016 0.827287 -0.337763 -0.235208 0.869254 
-0.071423 -0.271178 0.714187 -0.271887 -0.0563114 0.902858 -0.23297 -0.000734189 0.481422 
-0.240904 -0.028077 0.723745 -0.382086 0.182367 1.10787 -0.337768 -0.0910321 0.996256 
0.220114 0.247546 0.964673 -0.152843 0.155621 0.542685 0.0615185 0.00448865 0.539789 
0.213715 0.122419 1.00618 0.131595 -0.192917 0.803828 -0.321791 0.0386678 0.803361 
-0.489546 0.063473 0.905622 0.0391805 -0.225723 0.965013 -0.220869 0.105659 0.856161 
-0.357591 0.193918 0.523784 -0.271923 0.0438985 0.213538 -0.0502544 -0.254076 0.757885 
0.00510289 -0.427443 0.801414 -0.270768 -0.0739738 0.68561 0.0329453 0.200727 0.77786 
-0.427128 0.0596177 0.83132 -0.286184 0.399125 0.47227 -0.11295 0.135501 1.07883 
-0.0032139 -0.185728 0.935403 0.124662 0.464275 0.908931 -0.42227 0.446704 0.892874 
-0.103465 0.0876864 1.10432 -0.164106 0.0684429 0.792991 0.0652807 -0.271323 0.945596 
0.0131022 -0.245353 0.876848 -0.00377 -0.0871814 0.406189 -0.535432 0.105253 1.138 
0.0240374 0.0714925 0.348307 -0.213138 0.0159834 0.852096 0.0874022 0.137975 0.980966 
0.227527 -0.035556 0.570544 -0.309767 -0.167945 0.746359 0.0812803 -0.198743 0.457862 
-0.24861 0.0549242 0.581332 0.103793 0.0808682 0.820877 0.0930072 0.339521 0.960175 
0.245883 -0.0248169 0.949104 0.0808626 0.133027 0.962371 -0.338466 0.047346 0.505165 
0.290102 -0.230239 1.11195 -0.113958 0.382206 0.669272 0.505976 0.0178297 0.878492 
0.238426 -0.261867 1.01295 0.473877 -0.0552463 0.906311 0.0145561 -0.0451812 0.789968 
-0.533773 0.0445331 0.644341 -0.206608 0.0396719 0.860677 -0.340738 -0.606014 0.80555 
-0.188911 -0.0805836 0.896318 -0.126188 0.137563 0.645389 -0.0994448 0.362646 0.98453 
-0.390059 0.0422261 0.690451 -0.144093 -0.0579402 0.659664 0.054663 0.286092 0.954512 
0.0901424 -0.281029 0.749175 -0.299727 -0.247976 0.934164 -0.0670412 0.228549 0.74985 
-0.269451 -0.149523 0.949363 -0.328386 0.0202686 0.782726 -0.338425 -0.0809835 0.76386 
-0.0381687 -0.160651 1.08388 0.197153 -0.0486143 0.686489 -0.0118092 -0.113517 0.795529 
0.0309358 0.0396208 0.849624 0.168273 -0.0281966 0.670201 0.259743 -0.286267 0.612312 
0.00139386 -0.10512 0.669691 0.030071 0.142398 1.04481 0.12957 0.0452545 0.747541 
-0.0722973 -0.0893834 1.20876 0.334953 -0.000845334 0.692411 -0.433571 0.292577 0.839109 
-0.331064 0.563063 1.09818 -0.216657 0.362378 0.358904 0.125636 -0.0479158 1.0453 
0.129329 -0.447997 0.746325 -0.233568 0.14726 1.05853 -0.305819 -0.37378 0.877097 
0.102416 0.205446 0.795544 -0.160038 0.566641 0.960856 -0.0515657 0.342276 0.958809 
0.194524 0.306781 0.859016 0.032533 0.312572 0.96 -0.20992 0.0514617 0.692115 
0.174751 -0.0837088 0.8618 0.120465 -0.482207 0.690074 0.0273701 -0.0676003 0.718839 
0.148837 -0.425598 0.998376 -0.0757757 0.292174 1.00014 -0.267631 0.594777 0.734161 
0.239605 -0.562628 1.41075 0.0708873 -0.366519 1.04187 -0.207633 0.224861 1.29637 
-0.294898 -0.050053 0.875324 -0.271691 -0.052334 0.844479 0.116277 -0.272801 1.03264 
0.00237428 -0.106195 0.956107 0.255136 -0.0525019 0.642576 0.314195 0.251918 0.590901 
0.359114 -0.1873 0.683603 -0.0887903 0.0933046 0.845722 0.178585 0.207775 1.32847 
0.198796 -0.351087 0.988261 -0.340256 0.00758071 1.31104 -0.00964162 0.126714 1.55997 
-0.147689 0.00173737 1.21436 -0.169312 0.398341 1.17519 -0.102492 -0.213367 0.9704 
0.263209 -0.148022 1.06812 -0.49433 0.381623 0.744873 -0.160538 0.112775 0.849997 
-0.430706 0.238918 1.16313 -0.170506 0.0830744 1.28359 -0.155042 -0.058614 1.0483 
-0.2122 0.252694 0.98815 -0.233696 0.246875 1.21586 -0.0161283 0.193058 1.11371 
-0.0206747 0.613373 1.11289 -0.303644 -0.00985189 1.14812 -0.203519 -0.03728 1.46807 
-0.285808 -0.638244 0.968833 -0.269386 0.0773191 1.32274 -0.345432 -0.354532 1.138 
-0.153499 0.37107 1.52819 0.105627 -0.298635 0.889682 -0.267765 0.284251 1.06717 
-0.431961 -0.138947 1.35095 -0.2676 -0.023918 0.996416 -0.0209406 0.586576 0.965183 
-0.107189 0.232448 1.12048 -0.369402 -0.0296505 0.950716 -0.134191 -0.0232309 1.24086 
-0.212185 0.0705131 1.13746 -0.267824 0.540964 1.17283 -0.173693 -0.102383 1.07446 
-0.121327 0.136831 1.22614 0.555238 -0.490757 0.744907 -0.421762 0.0857998 0.939644 
-0.259166 0.23195 1.14313 -0.167397 -0.519329 1.40585 -0.0315772 -0.370382 1.01934 
-0.205163 -0.153556 0.739198 0.276401 -0.296661 1.35174 -0.218722 0.109289 1.05895 
-0.219947 0.190711 1.29218 -0.172235 -0.140075 1.0747 -0.126699 0.670179 1.30535 
0.142834 -0.372311 1.46461 0.176534 -0.277198 0.873935 0.195216 -0.000666809 1.20354 
-0.648132 0.217628 1.12811 0.0178698 0.443158 0.931356 -0.196766 0.0228065 1.15821 
-0.0432416 0.289677 1.17379 0.147348 -0.273235 1.35958 0.00396647 0.046882 1.14673 
0.293802 -0.0514455 1.26504 0.0506551 0.162474 0.791549 -0.427039 0.151751 0.852047 
-0.199752 0.28657 1.29015 -0.028199 -0.17296 0.804062 -0.199501 0.321034 1.21011 
-0.00783508 -0.0361619 1.06544 -0.152499 -0.0896524 1.17769 0.101224 -0.22479 1.28826 
-0.0965707 0.132379 1.08567 0.0528766 -0.076077 1.07014 0.051417 -0.0308787 1.16258 
-0.29538 -0.0430371 1.49359 -0.19381 -0.0909824 0.793289 -0.0319245 0.431342 1.1398 
-0.0817261 -0.0839 1.06419 0.394328 -0.2775 1.2709 0.109594 0.103048 1.06264 
-0.0264778 -0.474001 1.00127 -0.193167 0.291228 1.00935 -0.0796877 0.0086897 1.07237 
-0.100078 0.413244 1.13168 -0.201936 0.00671984 1.3092 0.546606 0.220096 0.923446 
-0.120426 -0.0448369 0.796952 -0.173594 0.0921268 0.776755 -0.231835 0.337492 1.33178 
-0.785214 -0.308534 1.0701 -0.205074 -0.186896 0.979251 0.499249 -0.0684226 0.871857 
-0.341184 -0.31426 1.53297 -0.407511 -0.00913995 1.25026 -0.139149 -0.343173 1.02423 
0.0077092 0.228556 1.42495 -0.403298 -0.0782162 1.02999 -0.328164 -0.0666933 1.14624 
-0.138892 0.0814819 0.993659 -0.204975 -0.320087 1.38261 -0.0433565 -0.209561 0.793757 
0.00409712 -0.37994 1.24767 0.0423358 -0.00460859 1.12787 -0.165998 -0.14797 1.17547 
-0.398331 -0.0821318 1.46846 -0.223922 -0.246259 0.96346 0.0612622 -0.134066 1.32131 
-0.13536 0.209895 1.08354 -0.227829 0.275496 1.03913 -0.344816 -0.164393 1.07548 
-0.115753 -0.0652931 1.28602 -0.0167127 -0.528157 1.58043 0.405787 0.507114 1.29468 
-0.456951 -0.0351724 1.09575 -0.285672 0.20551 0.93569 -0.0889051 -0.0936863 1.36446 
-0.0753268 0.0170454 0.897193 0.0797365 0.149603 1.28034 -0.174718 -0.0990798 1.08366 
-0.294988 -0.0636036 1.08185 -0.0129608 -0.414659 1.7236 0.0385722 0.0128414 1.63012 
0.376775 0.153419 1.27533 -0.146123 0.252988 1.51278 -0.373893 -0.104161 1.62882 
0.0785267 0.285661 1.29909 -0.0786203 0.29997 1.34044 0.10508 0.117662 1.85929 
0.0658275 0.334235 1.76537 -0.375562 -0.202268 1.03768 -0.264133 -0.0274894 1.50772 
-0.335932 -0.176788 1.74927 0.0466016 0.214291 1.591 -0.139665 0.280531 1.46446 
0.366373 -0.136802 1.81571 0.00194488 0.158796 1.3874 -0.214419 -0.0204604 1.64797 
-0.139223 -0.0989476 1.96294 -0.485992 0.47985 1.44613 -0.384165 -0.106698 1.72655 
-0.370505 0.081577 1.46695 -0.26246 -0.0638347 1.338 0.169781 -0.11381 1.55616 
-0.109161 0.120726 1.66153 -0.434915 -0.473327 1.62606 -0.0696516 -0.230081 1.34408 
-0.259239 0.571615 1.7211 0.108151 -0.0316835 1.69885 -0.0640716 -0.689513 1.30168 
0.522098 1.10347 1.39643 -0.473375 0.377091 1.77624 -0.0788872 0.0364739 1.89308 
0.37728 0.210326 1.41158 -0.0351931 0.203428 1.04559 -0.0797882 -0.454174 1.48509 
0.23071 -0.286807 1.37164 -0.258728 0.167544 1.27153 -0.389682 -0.0113716 1.42503 
0.154859 -0.463599 1.60586 0.196836 0.0824658 1.17899 -0.20466 0.0969733 1.31538 
-0.0819224 -0.30996 1.65517 0.0282583 -0.000896163 1.73788 -0.364864 -0.435809 1.69195 
-0.0882135 -0.411469 1.17645 0.213611 -0.0423281 1.32193 0.173265 0.400417 1.39033 
-0.0548063 0.347001 1.37537 -0.262931 -0.234363 1.59122 -0.372685 0.374498 1.30726 
-0.204939 -0.276693 1.4172 0.0888207 -0.308575 1.4319 -0.0636993 -0.137787 1.8408 
-0.0856917 0.533325 0.778069 0.112751 -0.372794 1.83942 0.42282 -0.178244 1.05686 
-0.150459 -0.205957 1.78308 0.0775119 0.353749 1.21658 -0.284009 0.0539393 1.27158 
-0.0228682 0.0149305 1.4167 0.360983 -0.110441 1.64901 -0.461461 0.0888417 1.25641 
-0.296571 0.460112 1.10051 0.135791 0.223718 1.53664 0.113695 0.250453 1.45678 
0.0795143 0.157697 1.4792 -0.32722 -0.00562696 1.30446 0.0992512 0.0035457 1.38838 
-0.117427 0.399278 1.16602 -0.606015 0.137958 1.2643 0.136356 -0.381275 1.37303 
-0.0597149 -0.466442 1.66555 0.186116 -0.108262 1.41485 0.00691911 -0.226864 1.47937 
-0.00695265 0.257948 1.58764 -0.527288 -0.832429 1.58895 -0.567068 -0.203363 1.40606 
-0.169235 0.0262148 1.5533 -0.14852 -0.0101292 1.43924 -0.252875 0.583179 0.905577 
0.303873 0.265932 1.51989 0.174731 -0.469398 1.50554 0.0577296 0.115312 1.59251 
-0.120459 -0.495136 1.75028 -0.631207 0.695786 0.976153 0.138707 0.554986 1.28263 
0.18518 0.166125 1.46973 0.264844 -0.0730404 1.22704 0.442217 0.14911 1.79634 
-0.0985923 0.0136871 1.45981 0.561258 0.105736 1.71662 0.278276 0.272524 1.92449 
0.406201 -0.0186608 1.87579 -0.875482 0.253747 2.30726 0.0356097 -0.524317 1.48421 
-0.114666 -0.738628 2.0288 0.0338949 -0.114534 1.40834 -0.414889 -0.378623 1.30155 
-0.690043 -0.0187376 1.43131 -0.33151 0.0194925 1.6135 0.0791385 0.695207 2.15702 
0.340236 0.486342 1.89471 -0.418003 0.152309 1.85118 0.139753 0.479222 1.9851 
0.0139702 -0.376638 2.08902 0.0459979 -0.798244 1.70369 0.627151 0.523191 2.24633 
0.169958 -0.190548 1.95573 -0.318244 -0.246495 1.82518 -0.522093 0.244191 1.66758 
-0.0835098 0.271072 1.57945 0.184605 0.0316546 1.79712 -0.122976 -0.145227 2.03514 
0.436927 0.236681 1.84102 0.0354495 0.220849 1.91382 0.862156 0.67304 1.98563 
0.0748537 0.189732 2.04667 -0.489724 0.713056 1.92099 -0.0771057 0.0633564 1.75468 
0.173016 0.139258 2.05501 0.417101 -0.478372 1.65865 -0.496721 -0.430565 1.97458 
-0.283893 0.600977 1.66272 -0.127521 0.693342 2.1025 -0.16274 0.186118 1.69927 
0.783157 -0.0949626 1.67018 -0.135733 -0.538077 1.87926 0.436265 0.14167 1.95008 
-0.0246591 -0.331623 2.37103 -0.073237 -0.0873604 1.87844 -0.440812 0.611128 1.61 
0.337613 -0.0448356 2.18339 0.143257 -0.465398 2.00193 0.488359 0.129306 1.7677 
0.130297 -0.190677 1.28397 0.565175 -0.295905 1.83345 0.0794834 -0.686771 2.03748 
-0.02122 -0.0430893 2.40489 -0.20996 0.0970922 2.28104 -0.383577 0.509143 1.94823 
0.448791 0.215317 1.61528 0.525501 -0.455382 2.0098 0.00966089 -0.155278 1.59799 
-0.333752 0.00243922 1.74952 0.277928 -0.108528 1.5939 0.0136544 0.523669 1.81523 
0.180404 -0.0397862 1.86257 -0.0745986 -0.106653 2.03818 0.614256 0.297727 2.12753 
-0.592554 0.635856 1.45255 0.329864 -0.250449 1.45502 -0.201011 0.440706 1.4837 
-0.226789 -0.231936 1.69808 0.154182 0.204079 1.92807 0.606112 -0.0402478 2.02259 
0.44533 -0.174598 1.814 -0.279479 -0.108957 1.60283 0.352133 -0.210312 1.55058 
-0.303941 -0.437795 1.02264 0.272663 -0.538872 1.78102 0.0053707 0.124855 1.98629 
0.422147 -0.604354 1.8819 0.768687 -0.0521984 1.87458 0.255022 -0.344037 1.66205 
-0.526923 -0.394137 1.97665 -0.341966 0.531998 1.63706 -0.964247 -0.206285 1.53474 
0.246238 -0.261775 1.82256 0.540454 -0.305267 2.46707 1.03873 0.231267 2.68891 
-0.26018 -0.214749 1.89006 0.607305 0.727548 2.28373 0.21007 1.04466 2.03338 
0.270906 -0.559234 2.67748 1.60486 -0.337804 1.72138 0.566054 0.0547177 2.46081 
0.0853438 0.275807 2.16363 0.319905 0.126627 1.74037 -0.463992 -0.265303 1.86004 
0.527621 0.468907 2.43175 -0.164439 0.593002 2.12037 0.0637216 0.00672514 2.20753 
-0.096098 -0.0828594 2.11835 0.298209 -0.342046 1.97136 -0.0253623 0.944023 2.02416 
-0.465762 -0.0736068 2.09428 0.143016 -0.781761 2.11123 0.745371 0.225303 2.44377 
0.743899 -0.118435 1.7873 0.686755 0.732172 2.47795 0.335798 -0.457462 2.04417 
1.12097 0.707909 1.45674 -1.90854 -1.33985 2.1247 0.0948198 0.432659 2.34977 
-0.840921 0.296413 1.72259 0.0531323 0.215844 2.54927 0.576999 0.0136281 2.30986 
0.588374 -1.16859 2.01719 -0.568614 -0.0724265 1.85874 0.0625632 -0.22895 2.33976 
0.489332 -0.324655 2.20202 -0.307968 0.294368 2.32584 -1.31743 -0.200917 2.37276 
0.279435 -2.28539 2.82617 1.35731 -1.34632 2.00919 0.383451 -0.422924 2.61458 
0.308632 -0.481402 2.70668 0.43921 0.423443 2.04875 -0.678356 -0.539712 2.22902 
-0.610816 0.362565 2.74932 0.0317716 0.810405 2.48616 -0.517142 0.233577 2.8349 
-0.219116 -0.599026 2.70046 0.614846 0.515835 2.31998 0.434996 -0.797016 2.51641 
0.956899 0.989674 2.58222 0.169425 -0.943171 2.72808 1.26747 -0.319196 3.33704 
-0.0197384 0.296935 3.30478 1.30668 0.207521 3.17657 0.379614 0.0702273 2.7773 

om 3 567 double
0 0 0 0 0 0 0 0 0 
0 0 0 0 0 0 0 0 0 
0 0 0 0 0 0 0 0 0 
0 0 0 0 0 0 0 0 0 
0 0 0 0 0 0 0 0 0 
0 0 0 0 0 0 0 0 0 
0 0 0 0 0 0 0 0 0 
0 0 0 0 0 0 0 0 0 
0 0 0 0 0 0 0 0 0 
0 0 0 0 0 0 0 0 0 
0 0 0 0 0 0 0 0 0 
0 0 0 0 0 0 0 0 0 
0 0 0 0 0 0 0 0 0 
0 0 0 0 0 0 0 0 0 
0 0 0 0 0 0 0 0 0 
0 0 0 0 0 0 0 0 0 
0 0 0 0 0 0 0 0 0 
0 0 0 0 0 0 0 0 0 
0 0 0 0 0 0 0 0 0 
0 0 0 0 0 0 0 0 0 
0 0 0 0 0 0 0 0 0 
0 0 0 0 0 0 0 0 0 
0 0 0 0 0 0 0 0 0 
0 0 0 0 0 0 0 0 0 
0 0 0 0 0 0 0 0 0 
0 0 0 0 0 0 0 0 0 
0 0 0 0 0 0 0 0 0 
0 0 0 0 0 0 0 0 0 
0 0 0 0 0 0 0 0 0 
0 0 0 0 0 0 0 0 0 
0 0 0 0 0 0 0 0 0 
0 0 0 0 0 0 0 0 0 
0 0 0 0 0 0 0 0 0 
0 0 0 0 0 0 0 0 0 
0 0 0 0 0 0 0 0 0 
0 0 0 0 0 0 0 0 0 
0 0 0 0 0 0 0 0 0 
0 0 0 0 0 0 0 0 0 
0 0 0 0 0 0 0 0 0 
0 0 0 0 0 0 0 0 0 
0 0 0 0 0 0 0 0 0 
0 0 0 0 0 0 0 0 0 
0 0 0 0 0 0 0 0 0 
0 0 0 0 0 0 0 0 0 
0 0 0 0 0 0 0 0 0 
0 0 0 0 0 0 0 0 0 
0 0 0 0 0 0 0 0 0 
0 0 0 0 0 0 0 0 0 
0 0 0 0 0 0 0 0 0 
0 0 0 0 0 0 0 0 0 
0 0 0 0 0 0 0 0 0 
0 0 0 0 0 0 0 0 0 
0 0 0 0 0 0 0 0 0 
0 0 0 0 0 0 0 0 0 
0 0 0 0 0 0 0 0 0 
0 0 0 0 0 0 0 0 0 
0 0 0 0 0 0 0 0 0 
0 0 0 0 0 0 0 0 0 
0 0 0 0 0 0 0 0 0 
0 0 0 0 0 0 0 0 0 
0 0 0 0 0 0 0 0 0 
0 0 0 0 0 0 0 0 0 
0 0 0 0 0 0 0 0 0 
0 0 0 0 0 0 0 0 0 
0 0 0 0 0 0 0 0 0 
0 0 0 0 0 0 0 0 0 
0 0 0 0 0 0 0 0 0 
0 0 0 0 0 0 0 0 0 
0 0 0 0 0 0 0 0 0 
0 0 0 0 0 0 0 0 0 
0 0 0 0 0 0 0 0 0 
0 0 0 0 0 0 0 0 0 
0 0 0 0 0 0 0 0 0 
0 0 0 0 0 0 0 0 0 
0 0 0 0 0 0 0 0 0 
0 0 0 0 0 0 0 0 0 
0 0 0 0 0 0 0 0 0 
0 0 0 0 0 0 0 0 0 
0 0 0 0 0 0 0 0 0 
0 0 0 0 0 0 0 0 0 
0 0 0 0 0 0 0 0 0 
0 0 0 0 0 0 0 0 0 
0 0 0 0 0 0 0 0 0 
0 0 0 0 0 0 0 0 0 
0 0 0 0 0 0 0 0 0 
0 0 0 0 0 0 0 0 0 
0 0 0 0 0 0 0 0 0 
0 0 0 0 0 0 0 0 0 
0 0 0 0 0 0 0 0 0 
0 0 0 0 0 0 0 0 0 
0 0 0 0 0 0 0 0 0 
0 0 0 0 0 0 0 0 0 
0 0 0 0 0 0 0 0 0 
0 0 0 0 0 0 0 0 0 
0 0 0 0 0 0 0 0 0 
0 0 0 0 0 0 0 0 0 
0 0 0 0 0 0 0 0 0 
0 0 0 0 0 0 0 0 0 
0 0 0 0 0 0 0 0 0 
0 0 0 0 0 0 0 0 0 
0 0 0 0 0 0 0 0 0 
0 0 0 0 0 0 0 0 0 
0 0 0 0 0 0 0 0 0 
0 0 0 0 0 0 0 0 0 
0 0 0 0 0 0 0 0 0 
0 0 0 0 0 0 0 0 0 
0 0 0 0 0 0 0 0 0 
0 0 0 0 0 0 0 0 0 
0 0 0 0 0 0 0 0 0 
0 0 0 0 0 0 0 0 0 
0 0 0 0 0 0 0 0 0 
0 0 0 0 0 0 0 0 0 
0 0 0 0 0 0 0 0 0 
0 0 0 0 0 0 0 0 0 
0 0 0 0 0 0 0 0 0 
0 0 0 0 0 0 0 0 0 
0 0 0 0 0 0 0 0 0 
0 0 0 0 0 0 0 0 0 
0 0 0 0 0 0 0 0 0 
0 0 0 0 0 0 0 0 0 
0 0 0 0 0 0 0 0 0 
0 0 0 0 0 0 0 0 0 
0 0 0 0 0 0 0 0 0 
0 0 0 0 0 0 0 0 0 
0 0 0 0 0 0 0 0 0 
0 0 0 0 0 0 0 0 0 
0 0 0 0 0 0 0 0 0 
0 0 0 0 0 0 0 0 0 
0 0 0 0 0 0 0 0 0 
0 0 0 0 0 0 0 0 0 
0 0 0 0 0 0 0 0 0 
0 0 0 0 0 0 0 0 0 
0 0 0 0 0 0 0 0 0 
0 0 0 0 0 0 0 0 0 
0 0 0 0 0 0 0 0 0 
0 0 0 0 0 0 0 0 0 
0 0 0 0 0 0 0 0 0 
0 0 0 0 0 0 0 0 0 
0 0 0 0 0 0 0 0 0 
0 0 0 0 0 0 0 0 0 
0 0 0 0 0 0 0 0 0 
0 0 0 0 0 0 0 0 0 
0 0 0 0 0 0 0 0 0 
0 0 0 0 0 0 0 0 0 
0 0 0 0 0 0 0 0 0 
0 0 0 0 0 0 0 0 0 
0 0 0 0 0 0 0 0 0 
0 0 0 0 0 0 0 0 0 
0 0 0 0 0 0 0 0 0 
0 0 0 0 0 0 0 0 0 
0 0 0 0 0 0 0 0 0 
0 0 0 0 0 0 0 0 0 
0 0 0 0 0 0 0 0 0 
0 0 0 0 0 0 0 0 0 
0 0 0 0 0 0 0 0 0 
0 0 0 0 0 0 0 0 0 
0 0 0 0 0 0 0 0 0 
0 0 0 0 0 0 0 0 0 
0 0 0 0 0 0 0 0 0 
0 0 0 0 0 0 0 0 0 
0 0 0 0 0 0 0 0 0 
0 0 0 0 0 0 0 0 0 
0 0 0 0 0 0 0 0 0 
0 0 0 0 0 0 0 0 0 
0 0 0 0 0 0 0 0 0 
0 0 0 0 0 0 0 0 0 
0 0 0 0 0 0 0 0 0 
0 0 0 0 0 0 0 0 0 
0 0 0 0 0 0 0 0 0 
0 0 0 0 0 0 0 0 0 
0 0 0 0 0 0 0 0 0 
0 0 0 0 0 0 0 0 0 
0 0 0 0 0 0 0 0 0 
0 0 0 0 0 0 0 0 0 
0 0 0 0 0 0 0 0 0 
0 0 0 0 0 0 0 0 0 
0 0 0 0 0 0 0 0 0 
0 0 0 0 0 0 0 0 0 
0 0 0 0 0 0 0 0 0 
0 0 0 0 0 0 0 0 0 
0 0 0 0 0 0 0 0 0 
0 0 0 0 0 0 0 0 0 
0 0 0 0 0 0 0 0 0 
0 0 0 0 0 0 0 0 0 
0 0 0 0 0 0 0 0 0 
0 0 0 0 0 0 0 0 0 
0 0 0 0 0 0 0 0 0 
0 0 0 0 0 0 0 0 0 
0 0 0 0 0 0 0 0 0 

bottom 1 567 double
-0.0304302 -0.0304302 -0.0304302 -0.0304302 -0.0304302 -0.0304302 -0.0304302 -0.0304302 -0.0304302 
-0.0304302 -0.0304302 -0.0304302 -0.0304302 -0.0304302 -0.0304302 -0.0304302 -0.0304302 -0.0304302 
-0.0304302 -0.0304302 -0.0304302 -0.0304302 -0.0304302 -0.0304302 -0.0304302 -0.0304302 -0.0304302 
-0.0304302 -0.0304302 -0.0304302 -0.0304302 -0.0304302 -0.0304302 -0.0304302 -0.0304302 -0.0304302 
-0.0304302 -0.0304302 -0.0304302 -0.0304302 -0.0304302 -0.0304302 -0.0304302 -0.0304302 -0.0304302 
-0.0304302 -0.0304302 -0.0304302 -0.0304302 -0.0304302 -0.0304302 -0.0304302 -0.0304302 -0.0304302 
-0.0304302 -0.0304302 -0.0304302 -0.0304302 -0.0304302 -0.0304302 -0.0304302 -0.0304302 -0.0304302 
-0.0304302 -0.0304302 -0.0304302 -0.0304302 -0.0304302 -0.0304302 -0.0304302 -0.0304302 -0.0304302 
-0.0304302 -0.0304302 -0.0304302 -0.0304302 -0.0304302 -0.0304302 -0.0304302 -0.0304302 -0.0304302 
-0.0304302 -0.0304302 -0.0304302 -0.0304302 -0.0304302 -0.0304302 -0.0304302 -0.0304302 -0.0304302 
-0.0304302 -0.0304302 -0.0304302 -0.0304302 -0.0304302 -0.0304302 -0.0304302 -0.0304302 -0.0304302 
-0.0304302 -0.0304302 -0.0304302 -0.0304302 -0.0304302 -0.0304302 -0.0304302 -0.0304302 -0.0304302 
-0.0304302 -0.0304302 -0.0304302 -0.0304302 -0.0304302 -0.0304302 -0.0304302 -0.0304302 -0.0304302 
-0.0304302 -0.0304302 -0.0304302 -0.0304302 -0.0304302 -0.0304302 -0.0304302 -0.0304302 -0.0304302 
-0.0304302 -0.0304302 -0.0304302 -0.0304302 -0.0304302 -0.0304302 -0.0304302 -0.0304302 -0.0304302 
-0.0304302 -0.0304302 -0.0304302 -0.0304302 -0.0304302 -0.0304302 -0.0304302 -0.0304302 -0.0304302 
-0.0304302 -0.0304302 -0.0304302 -0.0304302 -0.0304302 -0.0304302 -0.0304302 -0.0304302 -0.0304302 
-0.0304302 -0.0304302 -0.0304302 -0.0304302 -0.0304302 -0.0304302 -0.0304302 -0.0304302 -0.0304302 
-0.0304302 -0.0304302 -0.0304302 -0.0304302 -0.0304302 -0.0304302 -0.0304302 -0.0304302 -0.0304302 
-0.0304302 -0.0304302 -0.0304302 -0.0304302 -0.0304302 -0.0304302 -0.0304302 -0.0304302 -0.0304302 
-0.0304302 -0.0304302 -0.0304302 -0.0304302 -0.0304302 -0.0304302 -0.0304302 -0.0304302 -0.0304302 
-0.0304302 -0.0304302 -0.0304302 -0.0304302 -0.0304302 -0.0304302 -0.0304302 -0.0304302 -0.0304302 
-0.0304302 -0.0304302 -0.0304302 -0.0304302 -0.0304302 -0.0304302 -0.0304302 -0.0304302 -0.0304302 
-0.0304302 -0.0304302 -0.0304302 -0.0304302 -0.0304302 -0.0304302 -0.0304302 -0.0304302 -0.0304302 
-0.0304302 -0.0304302 -0.0304302 -0.0304302 -0.0304302 -0.0304302 -0.0304302 -0.0304302 -0.0304302 
-0.0304302 -0.0304302 -0.0304302 -0.0304302 -0.0304302 -0.0304302 -0.0304302 -0.0304302 -0.0304302 
-0.0304302 -0.0304302 -0.0304302 -0.0304302 -0.0304302 -0.0304302 -0.0304302 -0.0304302 -0.0304302 
-0.0304302 -0.0304302 -0.0304302 -0.0304302 -0.0304302 -0.0304302 -0.0304302 -0.0304302 -0.0304302 
-0.0304302 -0.0304302 -0.0304302 -0.0304302 -0.0304302 -0.0304302 -0.0304302 -0.0304302 -0.0304302 
-0.0304302 -0.0304302 -0.0304302 -0.0304302 -0.0304302 -0.0304302 -0.0304302 -0.0304302 -0.0304302 
-0.0304302 -0.0304302 -0.0304302 -0.0304302 -0.0304302 -0.0304302 -0.0304302 -0.0304302 -0.0304302 
-0.0304302 -0.0304302 -0.0304302 -0.0304302 -0.0304302 -0.0304302 -0.0304302 -0.0304302 -0.0304302 
-0.0304302 -0.0304302 -0.0304302 -0.0304302 -0.0304302 -0.0304302 -0.0304302 -0.0304302 -0.0304302 
-0.0304302 -0.0304302 -0.0304302 -0.0304302 -0.0304302 -0.0304302 -0.0304302 -0.0304302 -0.0304302 
-0.0304302 -0.0304302 -0.0304302 -0.0304302 -0.0304302 -0.0304302 -0.0304302 -0.0304302 -0.0304302 
-0.0304302 -0.0304302 -0.0304302 -0.0304302 -0.0304302 -0.0304302 -0.0304302 -0.0304302 -0.0304302 
-0.0304302 -0.0304302 -0.0304302 -0.0304302 -0.0304302 -0.0304302 -0.0304302 -0.0304302 -0.0304302 
-0.0304302 -0.0304302 -0.0304302 -0.0304302 -0.0304302 -0.0304302 -0.0304302 -0.0304302 -0.0304302 
-0.0304302 -0.0304302 -0.0304302 -0.0304302 -0.0304302 -0.0304302 -0.0304302 -0.0304302 -0.0304302 
-0.0304302 -0.0304302 -0.0304302 -0.0304302 -0.0304302 -0.0304302 -0.0304302 -0.0304302 -0.0304302 
-0.0304302 -0.0304302 -0.0304302 -0.0304302 -0.0304302 -0.0304302 -0.0304302 -0.0304302 -0.0304302 
-0.0304302 -0.0304302 -0.0304302 -0.0304302 -0.0304302 -0.0304302 -0.0304302 -0.0304302 -0.0304302 
-0.0304302 -0.0304302 -0.0304302 -0.0304302 -0.0304302 -0.0304302 -0.0304302 -0.0304302 -0.0304302 
-0.0304302 -0.0304302 -0.0304302 -0.0304302 -0.0304302 -0.0304302 -0.0304302 -0.0304302 -0.0304302 
-0.0304302 -0.0304302 -0.0304302 -0.0304302 -0.0304302 -0.0304302 -0.0304302 -0.0304302 -0.0304302 
-0.0304302 -0.0304302 -0.0304302 -0.0304302 -0.0304302 -0.0304302 -0.0304302 -0.0304302 -0.0304302 
-0.0304302 -0.0304302 -0.0304302 -0.0304302 -0.0304302 -0.0304302 -0.0304302 -0.0304302 -0.0304302 
-0.0304302 -0.0304302 -0.0304302 -0.0304302 -0.0304302 -0.0304302 -0.0304302 -0.0304302 -0.0304302 
-0.0304302 -0.0304302 -0.0304302 -0.0304302 -0.0304302 -0.0304302 -0.0304302 -0.0304302 -0.0304302 
-0.0304302 -0.0304302 -0.0304302 -0.0304302 -0.0304302 -0.0304302 -0.0304302 -0.0304302 -0.0304302 
-0.0304302 -0.0304302 -0.0304302 -0.0304302 -0.0304302 -0.0304302 -0.0304302 -0.0304302 -0.0304302 
-0.0304302 -0.0304302 -0.0304302 -0.0304302 -0.0304302 -0.0304302 -0.0304302 -0.0304302 -0.0304302 
-0.0304302 -0.0304302 -0.0304302 -0.0304302 -0.0304302 -0.0304302 -0.0304302 -0.0304302 -0.0304302 
-0.0304302 -0.0304302 -0.0304302 -0.0304302 -0.0304302 -0.0304302 -0.0304302 -0.0304302 -0.0304302 
-0.0304302 -0.0304302 -0.0304302 -0.0304302 -0.0304302 -0.0304302 -0.0304302 -0.0304302 -0.0304302 
-0.0304302 -0.0304302 -0.0304302 -0.0304302 -0.0304302 -0.0304302 -0.0304302 -0.0304302 -0.0304302 
-0.0304302 -0.0304302 -0.0304302 -0.0304302 -0.0304302 -0.0304302 -0.0304302 -0.0304302 -0.0304302 
-0.0304302 -0.0304302 -0.0304302 -0.0304302 -0.0304302 -0.0304302 -0.0304302 -0.0304302 -0.0304302 
-0.0304302 -0.0304302 -0.0304302 -0.0304302 -0.0304302 -0.0304302 -0.0304302 -0.0304302 -0.0304302 
-0.0304302 -0.0304302 -0.0304302 -0.0304302 -0.0304302 -0.0304302 -0.0304302 -0.0304302 -0.0304302 
-0.0304302 -0.0304302 -0.0304302 -0.0304302 -0.0304302 -0.0304302 -0.0304302 -0.0304302 -0.0304302 
-0.0304302 -0.0304302 -0.0304302 -0.0304302 -0.0304302 -0.0304302 -0.0304302 -0.0304302 -0.0304302 
-0.0304302 -0.0304302 -0.0304302 -0.0304302 -0.0304302 -0.0304302 -0.0304302 -0.0304302 -0.0304302 

top 1 567 double
0.0695698 0.0695698 0.0695698 0.0695698 0.0695698 0.0695698 0.0695698 0.0695698 0.0695698 
0.0695698 0.0695698 0.0695698 0.0695698 0.0695698 0.0695698 0.0695698 0.0695698 0.0695698 
0.0695698 0.0695698 0.0695698 0.0695698 0.0695698 0.0695698 0.0695698 0.0695698 0.0695698 
0.0695698 0.0695698 0.0695698 0.0695698 0.0695698 0.0695698 0.0695698 0.0695698 0.0695698 
0.0695698 0.0695698 0.0695698 0.0695698 0.0695698 0.0695698 0.0695698 0.0695698 0.0695698 
0.0695698 0.0695698 0.0695698 0.0695698 0.0695698 0.0695698 0.0695698 0.0695698 0.0695698 
0.0695698 0.0695698 0.0695698 0.0695698 0.0695698 0.0695698 0.0695698 0.0695698 0.0695698 
0.0695698 0.0695698 0.0695698 0.0695698 0.0695698 0.0695698 0.0695698 0.0695698 0.0695698 
0.0695698 0.0695698 0.0695698 0.0695698 0.0695698 0.0695698 0.0695698 0.0695698 0.0695698 
0.0695698 0.0695698 0.0695698 0.0695698 0.0695698 0.0695698 0.0695698 0.0695698 0.0695698 
0.0695698 0.0695698 0.0695698 0.0695698 0.0695698 0.0695698 0.0695698 0.0695698 0.0695698 
0.0695698 0.0695698 0.0695698 0.0695698 0.0695698 0.0695698 0.0695698 0.0695698 0.0695698 
0.0695698 0.0695698 0.0695698 0.0695698 0.0695698 0.0695698 0.0695698 0.0695698 0.0695698 
0.0695698 0.0695698 0.0695698 0.0695698 0.0695698 0.0695698 0.0695698 0.0695698 0.0695698 
0.0695698 0.0695698 0.0695698 0.0695698 0.0695698 0.0695698 0.0695698 0.0695698 0.0695698 
0.0695698 0.0695698 0.0695698 0.0695698 0.0695698 0.0695698 0.0695698 0.0695698 0.0695698 
0.0695698 0.0695698 0.0695698 0.0695698 0.0695698 0.0695698 0.0695698 0.0695698 0.0695698 
0.0695698 0.0695698 0.0695698 0.0695698 0.0695698 0.0695698 0.0695698 0.0695698 0.0695698 
0.0695698 0.0695698 0.0695698 0.0695698 0.0695698 0.0695698 0.0695698 0.0695698 0.0695698 
0.0695698 0.0695698 0.0695698 0.0695698 0.0695698 0.0695698 0.0695698 0.0695698 0.0695698 
0.0695698 0.0695698 0.0695698 0.0695698 0.0695698 0.0695698 0.0695698 0.0695698 0.0695698 
0.0695698 0.0695698 0.0695698 0.0695698 0.0695698 0.0695698 0.0695698 0.0695698 0.0695698 
0.0695698 0.0695698 0.0695698 0.0695698 0.0695698 0.0695698 0.0695698 0.0695698 0.0695698 
0.0695698 0.0695698 0.0695698 0.0695698 0.0695698 0.0695698 0.0695698 0.0695698 0.0695698 
0.0695698 0.0695698 0.0695698 0.0695698 0.0695698 0.0695698 0.0695698 0.0695698 0.0695698 
0.0695698 0.0695698 0.0695698 0.0695698 0.0695698 0.0695698 0.0695698 0.0695698 0.0695698 
0.0695698 0.0695698 0.0695698 0.0695698 0.0695698 0.0695698 0.0695698 0.0695698 0.0695698 
0.0695698 0.0695698 0.0695698 0.0695698 0.0695698 0.0695698 0.0695698 0.0695698 0.0695698 
0.0695698 0.0695698 0.0695698 0.0695698 0.0695698 0.0695698 0.0695698 0.0695698 0.0695698 
0.0695698 0.0695698 0.0695698 0.0695698 0.0695698 0.0695698 0.0695698 0.0695698 0.0695698 
0.0695698 0.0695698 0.0695698 0.0695698 0.0695698 0.0695698 0.0695698 0.0695698 0.0695698 
0.0695698 0.0695698 0.0695698 0.0695698 0.0695698 0.0695698 0.0695698 0.0695698 0.0695698 
0.0695698 0.0695698 0.0695698 0.0695698 0.0695698 0.0695698 0.0695698 0.0695698 0.0695698 
0.0695698 0.0695698 0.0695698 0.0695698 0.0695698 0.0695698 0.0695698 0.0695698 0.0695698 
0.0695698 0.0695698 0.0695698 0.0695698 0.0695698 0.0695698 0.0695698 0.0695698 0.0695698 
0.0695698 0.0695698 0.0695698 0.0695698 0.0695698 0.0695698 0.0695698 0.0695698 0.0695698 
0.0695698 0.0695698 0.0695698 0.0695698 0.0695698 0.0695698 0.0695698 0.0695698 0.0695698 
0.0695698 0.0695698 0.0695698 0.0695698 0.0695698 0.0695698 0.0695698 0.0695698 0.0695698 
0.0695698 0.0695698 0.0695698 0.0695698 0.0695698 0.0695698 0.0695698 0.0695698 0.0695698 
0.0695698 0.0695698 0.0695698 0.0695698 0.0695698 0.0695698 0.0695698 0.0695698 0.0695698 
0.0695698 0.0695698 0.0695698 0.0695698 0.0695698 0.0695698 0.0695698 0.0695698 0.0695698 
0.0695698 0.0695698 0.0695698 0.0695698 0.0695698 0.0695698 0.0695698 0.0695698 0.0695698 
0.0695698 0.0695698 0.0695698 0.0695698 0.0695698 0.0695698 0.0695698 0.0695698 0.0695698 
0.0695698 0.0695698 0.0695698 0.0695698 0.0695698 0.0695698 0.0695698 0.0695698 0.0695698 
0.0695698 0.0695698 0.0695698 0.0695698 0.0695698 0.0695698 0.0695698 0.0695698 0.0695698 
0.0695698 0.0695698 0.0695698 0.0695698 0.0695698 0.0695698 0.0695698 0.0695698 0.0695698 
0.0695698 0.0695698 0.0695698 0.0695698 0.0695698 0.0695698 0.0695698 0.0695698 0.0695698 
0.0695698 0.0695698 0.0695698 0.0695698 0.0695698 0.0695698 0.0695698 0.0695698 0.0695698 
0.0695698 0.0695698 0.0695698 0.0695698 0.0695698 0.0695698 0.0695698 0.0695698 0.0695698 
0.0695698 0.0695698 0.0695698 0.0695698 0.0695698 0.0695698 0.0695698 0.0695698 0.0695698 
0.0695698 0.0695698 0.0695698 0.0695698 0.0695698 0.0695698 0.0695698 0.0695698 0.0695698 
0.0695698 0.0695698 0.0695698 0.0695698 0.0695698 0.0695698 0.0695698 0.0695698 0.0695698 
0.0695698 0.0695698 0.0695698 0.0695698 0.0695698 0.0695698 0.0695698 0.0695698 0.0695698 
0.0695698 0.0695698 0.0695698 0.0695698 0.0695698 0.0695698 0.0695698 0.0695698 0.0695698 
0.0695698 0.0695698 0.0695698 0.0695698 0.0695698 0.0695698 0.0695698 0.0695698 0.0695698 
0.0695698 0.0695698 0.0695698 0.0695698 0.0695698 0.0695698 0.0695698 0.0695698 0.0695698 
0.0695698 0.0695698 0.0695698 0.0695698 0.0695698 0.0695698 0.0695698 0.0695698 0.0695698 
0.0695698 0.0695698 0.0695698 0.0695698 0.0695698 0.0695698 0.0695698 0.0695698 0.0695698 
0.0695698 0.0695698 0.0695698 0.0695698 0.0695698 0.0695698 0.0695698 0.0695698 0.0695698 
0.0695698 0.0695698 0.0695698 0.0695698 0.0695698 0.0695698 0.0695698 0.0695698 0.0695698 
0.0695698 0.0695698 0.0695698 0.0695698 0.0695698 0.0695698 0.0695698 0.0695698 0.0695698 
0.0695698 0.0695698 0.0695698 0.0695698 0.0695698 0.0695698 0.0695698 0.0695698 0.0695698 
0.0695698 0.0695698 0.0695698 0.0695698 0.0695698 0.0695698 0.0695698 0.0695698 0.0695698 

