# vtk DataFile Version 4.0
vtk output
ASCII
DATASET POLYDATA
FIELD FieldData 4
domain 1 4 string
domain_min:-5|-5|-5
domain_max:5|5|5
cell_size:0.01|0.01|0.01
boundary:1|1|1

variables 1 8 string
T:0.105
dt:0.0005
A:158.413
V:0.377542
Z:-0.0436828
write_case:1
substeps:10
all_steps:210

constants 1 11 string
L:0.1
csize:0.01
R:0.004
mass:0.00210445
E:2.06e+06
nu:0.33
M:20
freq:10
gamma:62.8319
S:78956.8
g:0|0|-9.81

equations 1 9 string
time:T=(T+dt)#true
eq:a=(dem_l(v,om,R,mass,E,nu,0.1)/mass)#true
tank_acceleration:A=(((-(transpose((fsum(a)*mass))*e_k))-(S*Z))/M)#true
iv:v=euler(v,((a+g)-(A*e_k)),dt)#true
ia:r=euler(r,v,dt)#true
tank_velocity:V=euler(V,A,dt)#true
tank_position:Z=euler(Z,V,dt)#true
bottom:bottom=(Z-0.05)#true
top:top=(Z+0.05)#true

POINTS 567 float
-0.0451493 -0.0450694 -0.0424246 -0.0328814 -0.0420109 -0.0467135 -0.0335979 -0.0414766 -0.0408445 
-0.0383214 -0.0463597 -0.0443684 -0.0233413 -0.0400394 -0.0429675 -0.0137194 -0.0408251 -0.0432878 
-0.0146852 -0.0447839 -0.0468413 -0.00712362 -0.042256 -0.0414101 -0.00101566 -0.0436646 -0.0454598 
0.00558425 -0.0445795 -0.0433219 0.0315652 -0.0437681 -0.0416794 -0.0430093 -0.0394247 -0.0428518 
-0.0446459 -0.0325578 -0.0411093 -0.039794 -0.0345611 -0.043407 -0.0263747 -0.030618 -0.0435993 
-0.0118073 -0.03265 -0.0484482 -0.000345387 -0.0328565 -0.0438896 0.00674278 -0.0336378 -0.0453912 
0.0230969 -0.0389955 -0.0422318 0.0280699 -0.0358219 -0.0458314 0.0215318 -0.0328583 -0.041923 
0.0353907 -0.0367585 -0.0455093 0.0459038 -0.0399226 -0.0421881 0.0412704 -0.030825 -0.0427775 
0.0467506 -0.034925 -0.0437168 -0.0351136 -0.02806 -0.0452917 -0.0392498 -0.0227662 -0.0402138 
-0.0295634 -0.0244034 -0.0430031 -0.0198647 -0.0224047 -0.0469173 -0.0151689 -0.0297881 -0.0424358 
-0.0105863 -0.0242598 -0.0461071 -0.00488459 -0.0279775 -0.0445385 0.00601117 -0.0226975 -0.0451113 
0.0135903 -0.0252556 -0.0475869 0.0248468 -0.0207001 -0.0408049 0.0252561 -0.0272447 -0.045566 
0.029724 -0.0231997 -0.0463202 0.0315154 -0.0295368 -0.0432639 0.0422142 -0.0254697 -0.0464147 
-0.041887 -0.0113785 -0.0444589 -0.0467158 -0.0104656 -0.0474524 -0.0290201 -0.0149045 -0.0448013 
-0.0178641 -0.0108743 -0.0437855 -0.0114525 -0.0186275 -0.0425068 -0.00529335 -0.0129444 -0.0409073 
-0.00811694 -0.0152258 -0.0467969 -0.000304802 -0.0180932 -0.0459841 0.000740918 -0.012118 -0.0463115 
0.00600148 -0.0159246 -0.04312 0.0184875 -0.014565 -0.0422446 0.0181297 -0.0178213 -0.0458157 
0.0135073 -0.0144322 -0.045441 0.0252172 -0.0127241 -0.0465413 0.0349304 -0.012102 -0.0448238 
0.044316 -0.0199192 -0.0423282 -0.046708 -0.00389485 -0.040411 -0.0408407 -0.00284317 -0.041686 
-0.0362326 -0.00794207 -0.043386 -0.0365678 -0.00896553 -0.0479672 -0.0365604 -0.00171347 -0.0467841 
-0.02436 -0.00950035 -0.0411002 -0.0185024 -0.00319964 -0.0415406 -0.0109501 -0.0057354 -0.0406397 
-0.015709 -0.00196239 -0.0478278 0.00153866 -0.00697156 -0.0449364 0.00820481 -0.00677889 -0.0457287 
0.0184233 -0.00304347 -0.0420478 0.0256355 -0.0053673 -0.041902 0.0329182 -0.00619671 -0.0475854 
0.0317048 -0.000667934 -0.0474138 0.044981 -0.00309359 -0.0464815 0.0421377 -0.00851711 -0.0427255 
-0.0365119 0.00393146 -0.0413893 -0.0207447 0.00895165 -0.0470016 -0.0110457 2.13062e-05 -0.0421231 
-0.0184868 0.00733524 -0.0405983 -0.0185896 0.00183733 -0.0449706 -0.0116453 0.00928438 -0.0475117 
-0.00435413 0.00540766 -0.0434459 0.00755389 0.00191244 -0.0415295 0.00190125 0.00364112 -0.0465753 
0.0104386 0.00832958 -0.0425337 0.013525 5.39309e-05 -0.041408 0.0150039 0.00346574 -0.0472404 
0.0194413 0.0038425 -0.0412339 0.0209076 0.00621371 -0.0467258 0.0265427 0.00334172 -0.0466539 
0.0245258 0.000324079 -0.0400216 0.0342407 0.00701059 -0.0424226 0.0383062 4.06516e-05 -0.0419487 
0.0420749 0.00776294 -0.045795 -0.0375294 0.0146481 -0.0442133 -0.0281921 0.0166851 -0.0439078 
-0.0142354 0.0171204 -0.0440118 -0.00462014 0.0150389 -0.0462264 -0.00434265 0.0106752 -0.041408 
-0.00718482 0.0181272 -0.0421169 0.00447398 0.0166266 -0.0462971 0.00160854 0.0172494 -0.0424664 
0.0146671 0.0134303 -0.0475766 0.0259681 0.0145016 -0.0458697 0.0275949 0.0114728 -0.0423735 
0.0379839 0.0197046 -0.0438713 0.0323878 0.0191213 -0.0473725 0.0344163 0.0140731 -0.0471936 
-0.0457289 0.0241216 -0.0405445 -0.043726 0.029972 -0.0457773 -0.0361393 0.0270281 -0.0476678 
-0.0254286 0.024148 -0.0419751 -0.0106061 0.0299258 -0.0463711 -0.00790275 0.0279587 -0.0419801 
-0.000377311 0.0254019 -0.0468712 0.00984235 0.021659 -0.0472164 0.0171245 0.0228098 -0.0458214 
0.0296155 0.0247843 -0.0447109 0.0242283 0.0281403 -0.0480909 0.0363443 0.0280906 -0.0420507 
0.045129 0.0235049 -0.0446836 0.0447057 0.029891 -0.0437781 -0.0473408 0.0379443 -0.0435423 
-0.0369718 0.0363546 -0.0445438 -0.0256362 0.0377468 -0.0413766 -0.0165553 0.0395018 -0.0440587 
-0.0080987 0.0399708 -0.0405865 -0.00374083 0.0382868 -0.0468336 -0.00312045 0.0333756 -0.042994 
-0.00924238 0.0385109 -0.0467351 0.00572468 0.0389726 -0.0471981 0.00282696 0.0307129 -0.0462745 
0.00985308 0.0313749 -0.0424707 0.0192253 0.0311173 -0.0401487 0.0150606 0.0393312 -0.0443613 
0.0248265 0.0357839 -0.0455559 0.0402764 0.0327039 -0.0425708 -0.0452652 0.0435652 -0.0419735 
-0.0302075 0.0428936 -0.0478265 -0.0341983 0.0451817 -0.0401947 -0.0388583 0.0428316 -0.0440116 
-0.0387569 0.0455326 -0.0466887 -0.0256541 0.0462919 -0.0459152 -0.0104707 0.0454293 -0.0456377 
-0.0166003 0.0447877 -0.04633 -0.00455438 0.0455378 -0.0437722 0.00457154 0.0440826 -0.0427378 
0.0171783 0.0455848 -0.0443166 0.0223757 0.0433129 -0.0474304 0.0318886 0.0457913 -0.0459668 
0.045818 0.0450619 -0.0419197 0.0417429 0.0453384 -0.0467579 0.0404041 0.0403666 -0.0418059 
-0.0407215 -0.0401699 -0.0300853 -0.0373406 -0.0455353 -0.0366296 -0.0211244 -0.0417723 -0.0362161 
-0.00226193 -0.0454389 -0.0332289 0.00742648 -0.0437891 -0.0335021 0.00185601 -0.0467188 -0.0376188 
0.0117149 -0.0401459 -0.0391408 0.0163963 -0.0412013 -0.0334281 0.0257126 -0.0421835 -0.034421 
0.0381755 -0.0410866 -0.0382158 -0.0463759 -0.0325695 -0.0327177 -0.0358763 -0.0302921 -0.0355493 
-0.0230336 -0.0317924 -0.0348787 -0.0286158 -0.037354 -0.0378503 -0.0125862 -0.0359794 -0.0377331 
-0.0101296 -0.0308381 -0.0353387 -0.0160963 -0.0338335 -0.0331641 -0.0017662 -0.0385237 -0.0392471 
-0.00510897 -0.0328073 -0.0392711 0.00925526 -0.0342611 -0.0376504 0.0107562 -0.0321706 -0.031507 
0.028412 -0.0352132 -0.0385555 0.0202608 -0.030569 -0.0324806 0.0398857 -0.0328045 -0.0379615 
-0.0457239 -0.0250798 -0.0379393 -0.0306156 -0.0233869 -0.0338574 -0.0361852 -0.0221624 -0.032693 
-0.0397177 -0.029176 -0.0308411 -0.023825 -0.0226561 -0.0377427 -0.0217645 -0.0212246 -0.0317659 
-0.0174468 -0.0223607 -0.0399897 -0.00906126 -0.0245166 -0.0349089 0.00889628 -0.0240129 -0.0307917 
0.00481613 -0.0273877 -0.0339539 0.0173731 -0.0276621 -0.0399103 0.0108396 -0.0251184 -0.0398442 
0.0287007 -0.0261722 -0.0380912 -0.0333122 -0.0156447 -0.0349026 -0.0177844 -0.0103596 -0.0364949 
-0.00656729 -0.0183219 -0.0356835 -0.00385012 -0.0129582 -0.0302865 0.000992124 -0.0180949 -0.0374616 
0.00948632 -0.014083 -0.0378838 0.0212466 -0.0194672 -0.0326896 0.0378479 -0.0136906 -0.0345955 
0.0323606 -0.0185684 -0.0371792 0.0428836 -0.0196488 -0.0350615 -0.045317 -0.00998734 -0.037195 
-0.0318497 -0.00302799 -0.0329164 -0.0351996 -0.000484324 -0.038081 -0.0383349 -0.00819697 -0.0313614 
-0.0303363 -0.00870701 -0.0369428 -0.0213731 -0.00318372 -0.0338256 -0.0109584 -0.00991299 -0.0334322 
-0.00636777 -0.00174082 -0.033924 -0.00419585 -0.00550903 -0.0372751 0.00353565 -0.00910047 -0.0312224 
0.00287372 -0.000996595 -0.0377292 0.00134099 -0.00982512 -0.0393419 0.0113708 -0.00580403 -0.0354182 
0.0168905 -0.00832097 -0.0340134 0.0274211 -0.00588143 -0.0344611 0.0338542 -0.00883796 -0.0324705 
0.0394057 -0.00321965 -0.0356146 -0.0419023 0.000723558 -0.033465 -0.0476424 0.00694106 -0.0391675 
-0.0307318 0.00277873 -0.0347274 -0.0268635 0.00800829 -0.0377562 -0.0125767 0.00419029 -0.0381199 
-0.000120239 0.00233178 -0.0341934 0.00396326 0.00833069 -0.0328809 0.0203972 0.00706095 -0.0375129 
0.029862 0.00367041 -0.0366605 0.0318191 0.000259058 -0.0317985 0.038198 0.00439026 -0.0357936 
0.044941 0.0024633 -0.0342748 -0.0409016 0.0127067 -0.0347086 -0.042122 0.0189112 -0.0381408 
-0.0351544 0.0144682 -0.0386371 -0.0296405 0.0166908 -0.0338941 -0.0211029 0.0177367 -0.0389667 
-0.0269359 0.0139338 -0.0390073 -0.0154103 0.0102423 -0.033783 -0.0116014 0.0163117 -0.0323915 
-0.00545225 0.0161508 -0.0363864 0.0150075 0.011214 -0.0395565 0.0169902 0.0194097 -0.03924 
0.0172339 0.014099 -0.0343602 0.0256443 0.0132997 -0.0301556 0.0294421 0.0180264 -0.0391271 
0.0311352 0.0188699 -0.0335829 0.03844 0.0135531 -0.0394943 0.043718 0.0100802 -0.0356426 
0.0462179 0.0141687 -0.0301901 0.0445636 0.0197856 -0.0366503 -0.0325937 0.023997 -0.0393417 
-0.0339355 0.0274192 -0.0355075 -0.0226115 0.022197 -0.0337959 -0.0179505 0.0204595 -0.0370783 
-0.0106528 0.023126 -0.0374556 -0.012371 0.0276144 -0.0328727 -0.00381145 0.0289308 -0.034944 
0.00651104 0.0225991 -0.0317037 0.0135356 0.0208369 -0.0331972 0.0171322 0.0288819 -0.036901 
0.0360816 0.021651 -0.0367495 -0.040669 0.0328585 -0.0376225 -0.0290277 0.0353134 -0.0301702 
-0.0280683 0.0314514 -0.0373607 -0.0150353 0.0320929 -0.0384354 -0.0196636 0.0358126 -0.0386256 
-0.0178202 0.037886 -0.0331006 -0.00478424 0.0358171 -0.0355946 0.0190423 0.037167 -0.0316456 
0.0102287 0.0304949 -0.0360026 0.0391999 0.0341891 -0.0349514 0.0319311 0.0319139 -0.035753 
0.0461934 0.0358782 -0.0392287 -0.0449493 0.0462995 -0.0367263 -0.0211301 0.0440421 -0.0389101 
0.00213512 0.042392 -0.0306873 0.0020487 0.0402084 -0.0383433 0.0193551 0.043057 -0.0380012 
0.0125634 0.0447877 -0.0383952 0.0276464 0.0403873 -0.0387069 0.0448842 0.0418812 -0.0301215 
-0.0310939 -0.0415142 -0.0299486 -0.0126334 -0.0410556 -0.0212397 -0.00738747 -0.0464014 -0.0283378 
0.0135582 -0.0461151 -0.0264238 0.0159223 -0.0420681 -0.0231421 0.037898 -0.0412951 -0.0293223 
0.0367213 -0.0457847 -0.0234943 -0.021759 -0.0342878 -0.0267821 -0.0247455 -0.0397049 -0.0236495 
-0.00442627 -0.0391153 -0.0208384 -0.00858729 -0.0347089 -0.0297505 0.00312122 -0.0370046 -0.0250252 
0.00967339 -0.0375452 -0.0276141 0.0223509 -0.0370152 -0.0241762 -0.031612 -0.0245182 -0.0250129 
-0.0202526 -0.0255527 -0.0232289 -0.026202 -0.0257348 -0.0276506 -0.0117313 -0.0218724 -0.0210002 
-0.0182907 -0.0200157 -0.0271566 -0.00961897 -0.0235834 -0.0298791 0.0261649 -0.0236412 -0.0200614 
0.0376352 -0.0286066 -0.0209901 -0.0465634 -0.0172716 -0.0298192 -0.0431168 -0.0120219 -0.0208332 
-0.0397825 -0.0189863 -0.020221 -0.0214837 -0.0107742 -0.0265648 0.0166704 -0.0148841 -0.0293626 
0.0422543 -0.0161136 -0.0213863 0.0452323 -0.0102116 -0.0223007 -0.0285429 -0.00966503 -0.0265546 
-0.0150929 -0.00407009 -0.0208714 -0.000341371 -0.000653726 -0.0240409 0.0061629 -0.00714511 -0.0241943 
0.00940428 -0.00225257 -0.0292265 0.0134042 -0.0069461 -0.0219339 0.0236374 -0.000688207 -0.0285445 
0.0204606 -0.00753829 -0.0269257 0.0398738 -0.000444456 -0.0283001 0.0354494 -0.00698912 -0.0232009 
0.0468818 -0.00652189 -0.0296845 -0.0429701 0.00173553 -0.0254134 -0.0462007 0.00607951 -0.0219346 
-0.0235868 0.00912407 -0.0293446 -0.0268678 0.000711954 -0.0287486 -0.0125215 0.00250305 -0.0275439 
0.0394661 0.00957812 -0.0282276 -0.0326083 0.0122265 -0.0254746 -0.039783 0.0117815 -0.0205874 
-0.020133 0.0175263 -0.0260203 -0.0103292 0.0142244 -0.0251915 -0.0192154 0.011781 -0.022684 
-0.00317094 0.0107275 -0.0269746 0.00296832 0.0193866 -0.0207425 0.0188027 0.015102 -0.0207597 
0.039356 0.0193524 -0.0205936 -0.0409242 0.0203709 -0.0240961 -0.0459023 0.0246609 -0.0220437 
-0.0335157 0.0215951 -0.0246035 -0.0280908 0.0286136 -0.0245894 -0.014519 0.0236595 -0.0259077 
2.1271e-05 0.0294461 -0.0288296 0.0163552 0.0222792 -0.0238534 0.027036 0.0224097 -0.0258519 
0.0462517 0.020778 -0.0295729 0.0432419 0.0273416 -0.0239528 -0.0425323 0.0352153 -0.0227223 
-0.0322565 0.038951 -0.0239173 0.00346241 0.0346602 -0.0243944 0.0125093 0.0358358 -0.022097 
0.0248232 0.0339481 -0.0222552 0.0401267 0.0345282 -0.0272503 0.045863 0.0364418 -0.0210636 
-0.0383101 0.0442143 -0.0224371 -0.0239506 0.0406879 -0.0230786 -0.0295331 0.0436504 -0.0263979 
-0.0153396 0.0425379 -0.0243617 0.0325826 0.0449326 -0.0267503 0.0118598 -0.0451473 -0.0146634 
-0.043589 -0.0353216 -0.0198332 -0.0168823 -0.036407 -0.0180555 0.0298897 -0.0366341 -0.0161896 
0.0222018 -0.0345558 -0.012384 -0.0342345 -0.0241802 -0.0172804 -0.0235243 -0.0218675 -0.0149675 
-0.0139084 -0.028179 -0.0144878 0.00300063 -0.0278919 -0.016374 0.0140436 -0.0292971 -0.0177555 
0.015024 -0.021024 -0.0137755 0.0399063 -0.0237395 -0.0112307 -0.0169629 -0.0156892 -0.0194786 
-0.0055228 -0.0174932 -0.0144499 0.00170398 -0.0159781 -0.0190664 0.0100956 -0.0141806 -0.0163896 
0.0243454 -0.0139869 -0.019304 0.0381807 -0.0152077 -0.0103412 -0.0360968 -0.00861317 -0.0197409 
-0.0378687 -0.000780009 -0.019708 -0.00562501 -0.00208233 -0.0193392 0.00498162 -0.00119948 -0.0153076 
0.0224542 -0.00974519 -0.0104012 0.0338779 -0.00248535 -0.0139428 0.0422944 -0.00103005 -0.010044 
0.0452662 -0.00210083 -0.0181732 -0.0297409 0.0014267 -0.0144409 -0.0287532 0.00909973 -0.0147787 
-0.0180003 0.00200003 -0.0130403 0.00837328 0.00560838 -0.0195007 0.00271848 0.00608175 -0.0127767 
0.0185699 6.95925e-05 -0.0189649 0.0379737 0.0095724 -0.0172 -0.0316731 0.016631 -0.01603 
-0.0234897 0.0177356 -0.0136953 -0.00709193 0.0144832 -0.0150646 0.00902992 0.0134348 -0.0154188 
0.000482002 0.0118618 -0.0190081 0.0154489 0.0182362 -0.0134673 0.025859 0.0122045 -0.0161256 
0.0299936 0.0184701 -0.019363 0.0425543 0.0112413 -0.0101103 -0.0401945 0.0238616 -0.018556 
-0.0132326 0.0264247 -0.0192269 -0.00705059 0.0299743 -0.0138378 0.00598466 0.0231189 -0.014714 
0.0248633 0.0222707 -0.0103447 0.0303021 0.0290707 -0.0190173 0.0448664 0.028129 -0.0115331 
-0.0409742 0.0327978 -0.017022 -0.0291459 0.0317419 -0.0142529 -0.00126492 0.035433 -0.0144417 
0.00742257 0.037383 -0.0176184 0.0197352 0.0383723 -0.0132181 0.0110142 0.0306301 -0.0137843 
-0.0433829 0.0409025 -0.0105045 -0.0229002 0.041309 -0.010766 -0.0195021 0.0456295 -0.019311 
-0.00501034 0.0461553 -0.0120756 0.00369386 0.0421952 -0.0162577 0.0199247 0.0454079 -0.0150283 
0.0375339 0.0418377 -0.0157886 -0.0182921 -0.045554 -0.00496148 0.00993794 -0.0441063 -0.00732952 
0.0241695 -0.0432473 -0.0095956 0.0366644 -0.0400143 -0.00587774 -0.0446133 -0.0358268 -0.00544789 
-0.0369785 -0.0379362 -0.00455501 -0.035547 -0.031516 -0.00916778 -0.0249451 -0.0387692 -0.00404543 
0.00100189 -0.0382748 -0.000400736 0.0313538 -0.0361981 -0.00143758 -0.0448194 -0.0255458 -0.00786517 
-0.0329845 -0.0271375 -0.00027204 -0.0276478 -0.0264688 -0.00883919 -0.0187735 -0.0263479 -0.00163648 
-0.0107523 -0.0210294 -0.00998978 -0.00640398 -0.0203273 -0.00102795 0.000772949 -0.0232956 -0.00993888 
0.00459559 -0.0291639 -0.00516316 0.0200197 -0.0270177 -0.00765277 0.0348809 -0.0205912 -0.00246903 
0.0434938 -0.0271021 -0.00473876 -0.0422724 -0.0167311 -0.00310161 -0.0333215 -0.0156977 -0.00844042 
0.0456167 -0.0142617 -0.00700163 -0.0454669 -0.00294054 -0.00888988 -0.00283013 -0.000814779 -0.00720061 
-0.00707792 -0.00321767 -0.000115633 0.00450526 -0.00380114 -0.00275773 0.00254013 -0.00972896 -0.00913238 
0.0162589 -0.0036793 -0.00495432 0.0290612 -0.00595069 -0.00257487 0.0420397 -0.00663945 -0.00451891 
-0.0359857 0.000438774 -0.00838518 -0.0340009 0.0045488 -0.00597411 -0.0138303 0.00207802 -0.00265954 
-0.00532784 0.00607565 -0.00364632 0.0224936 0.00946154 -0.00272619 0.0328274 0.00557606 -0.000757315 
0.0330525 0.0044682 -0.00868826 -0.0375058 0.0132044 -0.00631981 -0.0282677 0.0143037 -0.00552441 
-0.0196444 0.0139383 -0.0016518 -0.0119349 0.0177926 -0.00488934 0.00399729 0.019285 -0.00815619 
0.0107857 0.0112058 -0.00680079 0.0377676 0.0198345 -0.004941 0.0360333 0.0118892 -0.00506375 
-0.0340102 0.0283701 -0.00152422 -0.0289345 0.0234596 -0.00989069 0.00135606 0.0280119 -0.00335181 
0.0185436 0.0256341 -0.00686698 -0.0451812 0.0321203 -0.00129575 -0.041489 0.0307404 -0.00912661 
-0.0148664 0.0317148 -0.00236018 -0.011949 0.0367933 -0.00844394 0.0227759 0.0331006 -0.00645602 
0.0353109 0.0331747 -0.00935066 0.0449989 0.0393476 -0.000754115 0.0443597 0.0308688 -0.00413034 
-0.0401676 0.0425862 -0.00335573 -0.0015137 0.0413367 -0.00365005 0.0192788 0.04106 -0.00236129 
0.0104497 0.0424986 -0.00567588 0.0261373 0.0424819 -0.00895364 0.0344803 0.0415154 -0.00517861 
-0.0407751 -0.0458366 0.00411993 -0.0159571 -0.0431832 0.00861865 0.00299991 -0.0451808 0.00561419 
0.0121625 -0.0444731 0.00614324 0.0241918 -0.0429925 0.00210762 -0.041242 -0.0326595 0.00761291 
-0.0334006 -0.0352279 0.00855749 -0.0249236 -0.0336709 0.00877349 -0.0162546 -0.033106 0.00843998 
0.00898662 -0.037461 0.000235067 0.0318894 -0.0331659 0.00954697 -0.0421519 -0.0230271 0.00621481 
-0.0162767 -0.0224094 0.00559233 -0.00384514 -0.0293431 2.16375e-05 0.0120925 -0.0261561 0.00236146 
0.0431515 -0.0245236 0.00899975 -0.0357406 -0.0170836 0.00995031 -0.022952 -0.0134626 0.00977568 
-0.00940044 -0.0144251 0.00400367 0.00756514 -0.0177656 0.004824 0.00168526 -0.0108721 0.00702243 
0.0162642 -0.0100538 0.00390185 0.0397023 -0.0100142 0.0063867 0.0453294 -0.0183064 0.00135951 
-0.0448252 -0.0077251 0.00189476 -0.0287638 -0.00780464 0.00778527 -0.0124688 -0.00703999 0.00524245 
0.017871 -0.000565355 0.00906084 0.0105 -0.00234076 0.00298103 -0.0301687 0.001745 0.00236333 
-0.00382071 8.62553e-05 0.00925316 0.00534783 0.00526027 0.00952812 0.0413722 0.0030607 7.40932e-05 
-0.0368569 0.0129875 0.00753479 -0.0250519 0.0133139 0.00461233 -0.0130581 0.0157375 0.00995514 
0.0206314 0.0157637 0.00618346 -0.0349598 0.0234842 0.00812211 -0.0290452 0.0220376 0.000939707 
-0.026529 0.0286322 0.00921596 -0.0183114 0.0211955 0.00766798 -0.0111184 0.0245175 0.00946123 
0.00411625 0.0225077 0.00596711 0.0139894 0.0206683 0.00969831 0.0235195 0.0236103 0.00173791 
0.0360625 0.0235507 0.00400332 -0.0233383 0.0383251 0.00638208 -0.00360423 0.039558 0.00741598 
0.0069185 0.0304091 0.00738717 0.0177799 0.0341394 0.00676648 0.0350039 0.0367202 0.00325827 
-0.0437852 0.0430929 0.00887536 -0.0159784 0.0436561 0.00035019 -0.00712912 0.0447536 0.00149587 
0.034039 0.0433553 0.00914317 -0.0296344 -0.0428822 0.0111446 -0.00359945 -0.0458837 0.010973 
-0.0196443 -0.0386832 0.0143958 0.019189 -0.0314648 0.0167966 0.0141596 -0.0366997 0.0102034 
-0.030528 -0.0269861 0.0112428 0.00739526 -0.0278423 0.0105903 0.0241227 -0.0105503 0.0149839 
0.0227548 -0.017565 0.0118687 0.0347477 -0.0187663 0.0118947 0.0452809 -0.0136136 0.0161859 
-0.0384142 -0.00555359 0.0113509 0.00148423 -0.00519957 0.013224 0.0262779 -0.000137887 0.0103053 
0.0360334 -0.00265199 0.010312 0.0457164 -0.00306385 0.0128521 -0.0360149 0.00573271 0.0161781 
-0.0184202 0.00340681 0.012238 -0.00833353 0.00443504 0.0177336 0.0170267 0.00798111 0.012213 
0.037528 0.00615257 0.012307 -0.0174378 0.0127134 0.0157762 0.00959623 0.0137025 0.0126432 
0.0281561 0.0158631 0.0195559 0.0441081 0.0271852 0.0115308 -0.00113256 0.0344432 0.01854 
0.028806 0.0343414 0.0124559 -0.0287127 0.0457875 0.0163616 0.00244366 0.0427778 0.01291 
0.0255252 0.0422533 0.0141785 0.0419982 0.0424412 0.0144711 -0.000895208 -0.00948047 0.0224087 

VERTICES 1134 1134
1 0 
1 1 
1 2 
1 3 
1 4 
1 5 
1 6 
1 7 
1 8 
1 9 
1 10 
1 11 
1 12 
1 13 
1 14 
1 15 
1 16 
1 17 
1 18 
1 19 
1 20 
1 21 
1 22 
1 23 
1 24 
1 25 
1 26 
1 27 
1 28 
1 29 
1 30 
1 31 
1 32 
1 33 
1 34 
1 35 
1 36 
1 37 
1 38 
1 39 
1 40 
1 41 
1 42 
1 43 
1 44 
1 45 
1 46 
1 47 
1 48 
1 49 
1 50 
1 51 
1 52 
1 53 
1 54 
1 55 
1 56 
1 57 
1 58 
1 59 
1 60 
1 61 
1 62 
1 63 
1 64 
1 65 
1 66 
1 67 
1 68 
1 69 
1 70 
1 71 
1 72 
1 73 
1 74 
1 75 
1 76 
1 77 
1 78 
1 79 
1 80 
1 81 
1 82 
1 83 
1 84 
1 85 
1 86 
1 87 
1 88 
1 89 
1 90 
1 91 
1 92 
1 93 
1 94 
1 95 
1 96 
1 97 
1 98 
1 99 
1 100 
1 101 
1 102 
1 103 
1 104 
1 105 
1 106 
1 107 
1 108 
1 109 
1 110 
1 111 
1 112 
1 113 
1 114 
1 115 
1 116 
1 117 
1 118 
1 119 
1 120 
1 121 
1 122 
1 123 
1 124 
1 125 
1 126 
1 127 
1 128 
1 129 
1 130 
1 131 
1 132 
1 133 
1 134 
1 135 
1 136 
1 137 
1 138 
1 139 
1 140 
1 141 
1 142 
1 143 
1 144 
1 145 
1 146 
1 147 
1 148 
1 149 
1 150 
1 151 
1 152 
1 153 
1 154 
1 155 
1 156 
1 157 
1 158 
1 159 
1 160 
1 161 
1 162 
1 163 
1 164 
1 165 
1 166 
1 167 
1 168 
1 169 
1 170 
1 171 
1 172 
1 173 
1 174 
1 175 
1 176 
1 177 
1 178 
1 179 
1 180 
1 181 
1 182 
1 183 
1 184 
1 185 
1 186 
1 187 
1 188 
1 189 
1 190 
1 191 
1 192 
1 193 
1 194 
1 195 
1 196 
1 197 
1 198 
1 199 
1 200 
1 201 
1 202 
1 203 
1 204 
1 205 
1 206 
1 207 
1 208 
1 209 
1 210 
1 211 
1 212 
1 213 
1 214 
1 215 
1 216 
1 217 
1 218 
1 219 
1 220 
1 221 
1 222 
1 223 
1 224 
1 225 
1 226 
1 227 
1 228 
1 229 
1 230 
1 231 
1 232 
1 233 
1 234 
1 235 
1 236 
1 237 
1 238 
1 239 
1 240 
1 241 
1 242 
1 243 
1 244 
1 245 
1 246 
1 247 
1 248 
1 249 
1 250 
1 251 
1 252 
1 253 
1 254 
1 255 
1 256 
1 257 
1 258 
1 259 
1 260 
1 261 
1 262 
1 263 
1 264 
1 265 
1 266 
1 267 
1 268 
1 269 
1 270 
1 271 
1 272 
1 273 
1 274 
1 275 
1 276 
1 277 
1 278 
1 279 
1 280 
1 281 
1 282 
1 283 
1 284 
1 285 
1 286 
1 287 
1 288 
1 289 
1 290 
1 291 
1 292 
1 293 
1 294 
1 295 
1 296 
1 297 
1 298 
1 299 
1 300 
1 301 
1 302 
1 303 
1 304 
1 305 
1 306 
1 307 
1 308 
1 309 
1 310 
1 311 
1 312 
1 313 
1 314 
1 315 
1 316 
1 317 
1 318 
1 319 
1 320 
1 321 
1 322 
1 323 
1 324 
1 325 
1 326 
1 327 
1 328 
1 329 
1 330 
1 331 
1 332 
1 333 
1 334 
1 335 
1 336 
1 337 
1 338 
1 339 
1 340 
1 341 
1 342 
1 343 
1 344 
1 345 
1 346 
1 347 
1 348 
1 349 
1 350 
1 351 
1 352 
1 353 
1 354 
1 355 
1 356 
1 357 
1 358 
1 359 
1 360 
1 361 
1 362 
1 363 
1 364 
1 365 
1 366 
1 367 
1 368 
1 369 
1 370 
1 371 
1 372 
1 373 
1 374 
1 375 
1 376 
1 377 
1 378 
1 379 
1 380 
1 381 
1 382 
1 383 
1 384 
1 385 
1 386 
1 387 
1 388 
1 389 
1 390 
1 391 
1 392 
1 393 
1 394 
1 395 
1 396 
1 397 
1 398 
1 399 
1 400 
1 401 
1 402 
1 403 
1 404 
1 405 
1 406 
1 407 
1 408 
1 409 
1 410 
1 411 
1 412 
1 413 
1 414 
1 415 
1 416 
1 417 
1 418 
1 419 
1 420 
1 421 
1 422 
1 423 
1 424 
1 425 
1 426 
1 427 
1 428 
1 429 
1 430 
1 431 
1 432 
1 433 
1 434 
1 435 
1 436 
1 437 
1 438 
1 439 
1 440 
1 441 
1 442 
1 443 
1 444 
1 445 
1 446 
1 447 
1 448 
1 449 
1 450 
1 451 
1 452 
1 453 
1 454 
1 455 
1 456 
1 457 
1 458 
1 459 
1 460 
1 461 
1 462 
1 463 
1 464 
1 465 
1 466 
1 467 
1 468 
1 469 
1 470 
1 471 
1 472 
1 473 
1 474 
1 475 
1 476 
1 477 
1 478 
1 479 
1 480 
1 481 
1 482 
1 483 
1 484 
1 485 
1 486 
1 487 
1 488 
1 489 
1 490 
1 491 
1 492 
1 493 
1 494 
1 495 
1 496 
1 497 
1 498 
1 499 
1 500 
1 501 
1 502 
1 503 
1 504 
1 505 
1 506 
1 507 
1 508 
1 509 
1 510 
1 511 
1 512 
1 513 
1 514 
1 515 
1 516 
1 517 
1 518 
1 519 
1 520 
1 521 
1 522 
1 523 
1 524 
1 525 
1 526 
1 527 
1 528 
1 529 
1 530 
1 531 
1 532 
1 533 
1 534 
1 535 
1 536 
1 537 
1 538 
1 539 
1 540 
1 541 
1 542 
1 543 
1 544 
1 545 
1 546 
1 547 
1 548 
1 549 
1 550 
1 551 
1 552 
1 553 
1 554 
1 555 
1 556 
1 557 
1 558 
1 559 
1 560 
1 561 
1 562 
1 563 
1 564 
1 565 
1 566 

POINT_DATA 567
SCALARS id double
LOOKUP_TABLE default
9 129 203 72 316 199 18 135 211 
526 505 254 16 8 190 253 261 402 
385 381 252 512 442 532 520 133 150 
63 206 269 315 256 329 335 318 331 
406 322 448 23 112 7 91 65 161 
210 79 336 280 386 469 259 508 400 
378 43 42 31 71 275 273 162 81 
266 217 274 539 393 535 476 464 542 
95 105 21 183 140 148 224 147 240 
346 407 337 471 414 401 343 541 472 
350 32 56 113 352 267 311 281 218 
351 434 470 556 533 413 52 37 50 
241 58 164 364 282 499 553 421 487 
478 492 49 186 248 168 308 309 345 
314 302 246 123 288 310 555 420 44 
184 440 245 38 124 428 371 373 560 
427 554 430 547 561 490 76 12 191 
255 384 317 326 327 383 525 0 189 
66 198 134 200 143 69 268 260 380 
320 462 511 20 196 78 19 73 84 
204 197 398 205 325 330 324 77 213 
339 285 338 332 387 455 443 449 29 
40 98 15 35 86 214 152 154 290 
399 416 392 409 465 519 323 126 61 
51 93 87 155 289 473 404 474 540 
557 45 182 28 99 227 118 92 233 
231 411 408 417 354 546 549 550 477 
529 498 175 169 165 234 294 239 225 
365 238 358 536 119 117 185 247 249 
176 287 415 429 497 357 562 120 250 
305 359 431 437 483 484 130 194 127 
379 451 506 446 4 6 262 2 319 
444 333 1 138 70 144 207 271 518 
507 33 24 82 141 340 441 528 142 
80 219 276 283 349 341 463 534 396 
513 14 39 94 109 149 537 108 53 
230 296 159 212 226 353 551 30 36 
106 116 304 170 367 423 491 552 46 
188 303 301 372 485 566 122 179 344 
187 500 128 26 64 395 388 25 160 
192 257 390 459 514 153 222 270 263 
458 517 85 22 156 277 394 531 545 
522 101 102 157 293 220 403 479 107 
103 297 237 163 299 418 419 548 115 
174 242 362 486 435 564 110 251 295 
370 366 433 114 121 177 374 232 438 
565 68 391 510 445 75 3 74 136 
195 389 27 139 202 201 146 216 215 
131 450 460 504 34 89 509 47 279 
284 461 278 412 467 521 17 48 221 
228 410 489 425 54 166 291 229 348 
356 422 544 178 235 307 495 57 172 
300 180 496 503 563 559 60 377 368 
312 375 493 67 265 321 264 447 10 
11 5 137 328 382 13 145 208 524 
515 41 90 88 454 209 468 456 516 
96 104 167 475 363 97 347 292 530 
62 111 298 424 171 158 313 173 243 
360 361 426 480 125 306 432 494 558 
181 244 376 439 132 193 258 342 272 
83 405 538 457 452 453 55 397 527 
523 466 100 223 151 482 543 286 355 
481 488 236 502 59 369 501 436 334 

FIELD FieldData 7
r 3 567 double
-0.0451493 -0.0450694 -0.0424246 -0.0328814 -0.0420109 -0.0467135 -0.0335979 -0.0414766 -0.0408445 
-0.0383214 -0.0463597 -0.0443684 -0.0233413 -0.0400394 -0.0429675 -0.0137194 -0.0408251 -0.0432878 
-0.0146852 -0.0447839 -0.0468413 -0.00712362 -0.042256 -0.0414101 -0.00101566 -0.0436646 -0.0454598 
0.00558425 -0.0445795 -0.0433219 0.0315652 -0.0437681 -0.0416794 -0.0430093 -0.0394247 -0.0428518 
-0.0446459 -0.0325578 -0.0411093 -0.039794 -0.0345611 -0.043407 -0.0263747 -0.030618 -0.0435993 
-0.0118073 -0.03265 -0.0484482 -0.000345387 -0.0328565 -0.0438896 0.00674278 -0.0336378 -0.0453912 
0.0230969 -0.0389955 -0.0422318 0.0280699 -0.0358219 -0.0458314 0.0215318 -0.0328583 -0.041923 
0.0353907 -0.0367585 -0.0455093 0.0459038 -0.0399226 -0.0421881 0.0412704 -0.030825 -0.0427775 
0.0467506 -0.034925 -0.0437168 -0.0351136 -0.0280599 -0.0452917 -0.0392498 -0.0227662 -0.0402138 
-0.0295634 -0.0244034 -0.0430031 -0.0198647 -0.0224047 -0.0469173 -0.0151689 -0.0297881 -0.0424358 
-0.0105863 -0.0242598 -0.0461071 -0.00488459 -0.0279775 -0.0445385 0.00601117 -0.0226975 -0.0451113 
0.0135903 -0.0252556 -0.0475869 0.0248468 -0.0207001 -0.0408049 0.0252561 -0.0272447 -0.045566 
0.029724 -0.0231997 -0.0463202 0.0315154 -0.0295368 -0.043264 0.0422142 -0.0254697 -0.0464147 
-0.041887 -0.0113785 -0.0444589 -0.0467158 -0.0104656 -0.0474524 -0.0290201 -0.0149045 -0.0448013 
-0.0178641 -0.0108743 -0.0437855 -0.0114525 -0.0186275 -0.0425068 -0.00529335 -0.0129444 -0.0409073 
-0.00811694 -0.0152258 -0.0467969 -0.000304802 -0.0180932 -0.0459841 0.000740918 -0.012118 -0.0463115 
0.00600148 -0.0159246 -0.04312 0.0184875 -0.014565 -0.0422446 0.0181297 -0.0178213 -0.0458157 
0.0135073 -0.0144322 -0.045441 0.0252172 -0.0127241 -0.0465413 0.0349304 -0.012102 -0.0448238 
0.044316 -0.0199192 -0.0423282 -0.046708 -0.00389485 -0.040411 -0.0408407 -0.00284317 -0.041686 
-0.0362326 -0.00794207 -0.043386 -0.0365678 -0.00896553 -0.0479672 -0.0365604 -0.00171347 -0.0467841 
-0.02436 -0.00950035 -0.0411002 -0.0185024 -0.00319964 -0.0415406 -0.0109501 -0.0057354 -0.0406397 
-0.015709 -0.00196239 -0.0478278 0.00153866 -0.00697156 -0.0449364 0.00820481 -0.00677889 -0.0457287 
0.0184233 -0.00304347 -0.0420478 0.0256355 -0.0053673 -0.041902 0.0329182 -0.00619671 -0.0475854 
0.0317048 -0.000667934 -0.0474138 0.044981 -0.00309359 -0.0464815 0.0421377 -0.00851711 -0.0427255 
-0.0365119 0.00393146 -0.0413893 -0.0207447 0.00895164 -0.0470016 -0.0110457 2.13062e-05 -0.0421231 
-0.0184868 0.00733524 -0.0405983 -0.0185896 0.00183733 -0.0449706 -0.0116453 0.00928438 -0.0475117 
-0.00435413 0.00540766 -0.0434459 0.00755389 0.00191244 -0.0415295 0.00190125 0.00364112 -0.0465753 
0.0104386 0.00832958 -0.0425337 0.013525 5.39309e-05 -0.041408 0.0150039 0.00346574 -0.0472404 
0.0194413 0.0038425 -0.0412339 0.0209076 0.00621371 -0.0467258 0.0265427 0.00334172 -0.0466539 
0.0245258 0.000324079 -0.0400216 0.0342407 0.00701059 -0.0424226 0.0383062 4.06516e-05 -0.0419487 
0.0420749 0.00776294 -0.045795 -0.0375294 0.0146481 -0.0442133 -0.0281921 0.0166851 -0.0439078 
-0.0142354 0.0171204 -0.0440118 -0.00462014 0.0150389 -0.0462264 -0.00434265 0.0106752 -0.041408 
-0.00718482 0.0181272 -0.0421169 0.00447398 0.0166266 -0.0462971 0.00160854 0.0172494 -0.0424664 
0.0146671 0.0134303 -0.0475766 0.0259681 0.0145016 -0.0458697 0.0275949 0.0114728 -0.0423735 
0.0379839 0.0197046 -0.0438713 0.0323878 0.0191213 -0.0473725 0.0344163 0.0140731 -0.0471936 
-0.0457289 0.0241216 -0.0405445 -0.043726 0.029972 -0.0457773 -0.0361393 0.0270281 -0.0476678 
-0.0254286 0.024148 -0.0419751 -0.0106061 0.0299258 -0.0463711 -0.00790275 0.0279587 -0.0419801 
-0.000377311 0.0254019 -0.0468712 0.00984235 0.021659 -0.0472164 0.0171245 0.0228098 -0.0458214 
0.0296155 0.0247843 -0.0447109 0.0242283 0.0281403 -0.0480909 0.0363443 0.0280906 -0.0420507 
0.045129 0.0235049 -0.0446836 0.0447057 0.029891 -0.0437781 -0.0473408 0.0379443 -0.0435423 
-0.0369718 0.0363546 -0.0445438 -0.0256362 0.0377468 -0.0413766 -0.0165553 0.0395018 -0.0440587 
-0.0080987 0.0399708 -0.0405865 -0.00374083 0.0382868 -0.0468336 -0.00312045 0.0333756 -0.042994 
-0.00924238 0.0385109 -0.0467351 0.00572468 0.0389726 -0.0471981 0.00282696 0.0307129 -0.0462745 
0.00985308 0.0313749 -0.0424707 0.0192253 0.0311173 -0.0401487 0.0150606 0.0393312 -0.0443613 
0.0248265 0.0357839 -0.0455559 0.0402764 0.0327039 -0.0425708 -0.0452652 0.0435652 -0.0419735 
-0.0302075 0.0428936 -0.0478265 -0.0341983 0.0451817 -0.0401947 -0.0388583 0.0428316 -0.0440116 
-0.0387569 0.0455326 -0.0466887 -0.0256541 0.0462919 -0.0459152 -0.0104707 0.0454293 -0.0456377 
-0.0166003 0.0447877 -0.04633 -0.00455438 0.0455378 -0.0437722 0.00457154 0.0440826 -0.0427378 
0.0171783 0.0455848 -0.0443166 0.0223757 0.0433129 -0.0474304 0.0318886 0.0457913 -0.0459668 
0.045818 0.0450619 -0.0419197 0.0417429 0.0453384 -0.0467579 0.0404041 0.0403666 -0.0418059 
-0.0407215 -0.0401699 -0.0300853 -0.0373406 -0.0455353 -0.0366296 -0.0211244 -0.0417723 -0.0362161 
-0.00226193 -0.0454389 -0.0332289 0.00742648 -0.0437891 -0.0335021 0.00185601 -0.0467188 -0.0376188 
0.0117149 -0.0401459 -0.0391408 0.0163963 -0.0412013 -0.0334281 0.0257126 -0.0421835 -0.034421 
0.0381755 -0.0410866 -0.0382158 -0.0463759 -0.0325695 -0.0327177 -0.0358763 -0.0302921 -0.0355493 
-0.0230336 -0.0317924 -0.0348787 -0.0286158 -0.037354 -0.0378503 -0.0125862 -0.0359794 -0.0377331 
-0.0101296 -0.0308381 -0.0353386 -0.0160963 -0.0338335 -0.0331641 -0.0017662 -0.0385237 -0.0392471 
-0.00510897 -0.0328073 -0.0392711 0.00925526 -0.0342611 -0.0376504 0.0107562 -0.0321706 -0.031507 
0.028412 -0.0352132 -0.0385555 0.0202608 -0.030569 -0.0324806 0.0398857 -0.0328045 -0.0379615 
-0.0457239 -0.0250798 -0.0379393 -0.0306156 -0.0233869 -0.0338574 -0.0361852 -0.0221624 -0.032693 
-0.0397177 -0.029176 -0.0308411 -0.023825 -0.0226561 -0.0377427 -0.0217645 -0.0212246 -0.0317659 
-0.0174468 -0.0223607 -0.0399897 -0.00906126 -0.0245166 -0.0349089 0.00889628 -0.0240129 -0.0307917 
0.00481613 -0.0273877 -0.0339539 0.0173731 -0.0276621 -0.0399103 0.0108396 -0.0251184 -0.0398442 
0.0287007 -0.0261722 -0.0380912 -0.0333122 -0.0156447 -0.0349026 -0.0177844 -0.0103596 -0.0364949 
-0.00656729 -0.0183219 -0.0356835 -0.00385012 -0.0129582 -0.0302865 0.000992124 -0.0180949 -0.0374616 
0.00948632 -0.014083 -0.0378838 0.0212466 -0.0194672 -0.0326896 0.0378479 -0.0136906 -0.0345955 
0.0323606 -0.0185684 -0.0371792 0.0428836 -0.0196488 -0.0350615 -0.045317 -0.00998734 -0.037195 
-0.0318497 -0.00302799 -0.0329164 -0.0351996 -0.000484324 -0.038081 -0.0383349 -0.00819697 -0.0313614 
-0.0303363 -0.00870702 -0.0369428 -0.0213731 -0.00318372 -0.0338256 -0.0109584 -0.00991299 -0.0334322 
-0.00636777 -0.00174082 -0.033924 -0.00419585 -0.00550903 -0.0372751 0.00353565 -0.00910046 -0.0312224 
0.00287372 -0.000996595 -0.0377292 0.00134099 -0.00982512 -0.0393419 0.0113708 -0.00580403 -0.0354182 
0.0168905 -0.00832097 -0.0340134 0.0274211 -0.00588143 -0.0344611 0.0338542 -0.00883796 -0.0324705 
0.0394057 -0.00321965 -0.0356146 -0.0419023 0.000723558 -0.033465 -0.0476424 0.00694106 -0.0391675 
-0.0307318 0.00277873 -0.0347274 -0.0268635 0.00800829 -0.0377562 -0.0125767 0.00419029 -0.0381199 
-0.000120239 0.00233178 -0.0341934 0.00396326 0.00833069 -0.0328809 0.0203972 0.00706095 -0.0375129 
0.029862 0.00367041 -0.0366605 0.0318191 0.000259058 -0.0317985 0.038198 0.00439026 -0.0357936 
0.044941 0.0024633 -0.0342748 -0.0409016 0.0127067 -0.0347086 -0.042122 0.0189112 -0.0381408 
-0.0351544 0.0144682 -0.0386371 -0.0296405 0.0166908 -0.0338941 -0.0211029 0.0177367 -0.0389667 
-0.0269359 0.0139338 -0.0390073 -0.0154103 0.0102423 -0.033783 -0.0116014 0.0163117 -0.0323915 
-0.00545225 0.0161508 -0.0363864 0.0150075 0.011214 -0.0395565 0.0169902 0.0194097 -0.03924 
0.0172339 0.014099 -0.0343602 0.0256443 0.0132997 -0.0301556 0.0294421 0.0180264 -0.0391271 
0.0311352 0.0188699 -0.0335829 0.03844 0.0135531 -0.0394943 0.043718 0.0100802 -0.0356426 
0.0462179 0.0141687 -0.0301901 0.0445636 0.0197856 -0.0366503 -0.0325937 0.023997 -0.0393417 
-0.0339355 0.0274192 -0.0355075 -0.0226115 0.022197 -0.0337959 -0.0179505 0.0204595 -0.0370783 
-0.0106528 0.023126 -0.0374556 -0.012371 0.0276144 -0.0328727 -0.00381145 0.0289308 -0.034944 
0.00651104 0.0225991 -0.0317037 0.0135356 0.0208369 -0.0331972 0.0171322 0.0288819 -0.0369011 
0.0360816 0.021651 -0.0367495 -0.040669 0.0328585 -0.0376225 -0.0290277 0.0353134 -0.0301702 
-0.0280683 0.0314514 -0.0373607 -0.0150353 0.0320929 -0.0384354 -0.0196636 0.0358126 -0.0386256 
-0.0178202 0.037886 -0.0331006 -0.00478424 0.0358171 -0.0355946 0.0190423 0.037167 -0.0316456 
0.0102287 0.0304949 -0.0360026 0.0391999 0.0341891 -0.0349514 0.0319311 0.0319139 -0.035753 
0.0461934 0.0358782 -0.0392287 -0.0449493 0.0462995 -0.0367263 -0.0211301 0.0440421 -0.0389101 
0.00213512 0.042392 -0.0306873 0.0020487 0.0402084 -0.0383433 0.0193551 0.043057 -0.0380012 
0.0125634 0.0447877 -0.0383952 0.0276464 0.0403873 -0.0387069 0.0448842 0.0418812 -0.0301215 
-0.0310939 -0.0415142 -0.0299486 -0.0126334 -0.0410556 -0.0212397 -0.00738747 -0.0464014 -0.0283378 
0.0135582 -0.0461151 -0.0264238 0.0159223 -0.0420681 -0.0231421 0.037898 -0.0412951 -0.0293223 
0.0367213 -0.0457847 -0.0234943 -0.021759 -0.0342878 -0.0267821 -0.0247455 -0.0397049 -0.0236495 
-0.00442627 -0.0391153 -0.0208384 -0.00858729 -0.0347089 -0.0297505 0.00312122 -0.0370046 -0.0250252 
0.00967339 -0.0375452 -0.0276141 0.0223509 -0.0370152 -0.0241762 -0.031612 -0.0245182 -0.0250129 
-0.0202526 -0.0255527 -0.0232289 -0.026202 -0.0257348 -0.0276506 -0.0117313 -0.0218724 -0.0210002 
-0.0182907 -0.0200157 -0.0271566 -0.00961897 -0.0235834 -0.0298791 0.0261649 -0.0236412 -0.0200614 
0.0376352 -0.0286066 -0.0209901 -0.0465634 -0.0172716 -0.0298192 -0.0431168 -0.0120219 -0.0208332 
-0.0397825 -0.0189863 -0.020221 -0.0214837 -0.0107742 -0.0265648 0.0166704 -0.0148841 -0.0293626 
0.0422543 -0.0161136 -0.0213863 0.0452323 -0.0102116 -0.0223007 -0.0285429 -0.00966503 -0.0265546 
-0.0150929 -0.00407009 -0.0208714 -0.000341371 -0.000653726 -0.0240409 0.0061629 -0.00714511 -0.0241943 
0.00940428 -0.00225257 -0.0292265 0.0134042 -0.0069461 -0.0219339 0.0236374 -0.000688207 -0.0285445 
0.0204606 -0.00753829 -0.0269257 0.0398738 -0.000444456 -0.0283001 0.0354494 -0.00698912 -0.0232009 
0.0468818 -0.00652189 -0.0296845 -0.0429701 0.00173553 -0.0254134 -0.0462007 0.00607951 -0.0219346 
-0.0235868 0.00912407 -0.0293446 -0.0268678 0.000711954 -0.0287486 -0.0125215 0.00250305 -0.0275439 
0.0394661 0.00957812 -0.0282276 -0.0326083 0.0122265 -0.0254746 -0.039783 0.0117815 -0.0205874 
-0.020133 0.0175263 -0.0260203 -0.0103292 0.0142244 -0.0251915 -0.0192154 0.011781 -0.022684 
-0.00317094 0.0107275 -0.0269746 0.00296832 0.0193866 -0.0207425 0.0188027 0.015102 -0.0207597 
0.039356 0.0193524 -0.0205936 -0.0409242 0.0203709 -0.0240961 -0.0459023 0.0246609 -0.0220437 
-0.0335157 0.0215951 -0.0246035 -0.0280908 0.0286136 -0.0245894 -0.014519 0.0236595 -0.0259077 
2.1271e-05 0.0294461 -0.0288296 0.0163552 0.0222792 -0.0238534 0.027036 0.0224097 -0.0258519 
0.0462517 0.020778 -0.0295729 0.0432419 0.0273416 -0.0239528 -0.0425323 0.0352153 -0.0227223 
-0.0322565 0.038951 -0.0239173 0.00346241 0.0346602 -0.0243944 0.0125093 0.0358358 -0.022097 
0.0248232 0.0339481 -0.0222552 0.0401267 0.0345282 -0.0272503 0.045863 0.0364418 -0.0210636 
-0.0383101 0.0442143 -0.0224371 -0.0239506 0.0406879 -0.0230786 -0.0295331 0.0436504 -0.0263979 
-0.0153396 0.0425379 -0.0243617 0.0325826 0.0449326 -0.0267503 0.0118598 -0.0451473 -0.0146634 
-0.043589 -0.0353216 -0.0198332 -0.0168823 -0.036407 -0.0180555 0.0298897 -0.0366341 -0.0161896 
0.0222018 -0.0345558 -0.012384 -0.0342345 -0.0241802 -0.0172804 -0.0235243 -0.0218675 -0.0149675 
-0.0139084 -0.028179 -0.0144878 0.00300063 -0.0278919 -0.016374 0.0140436 -0.0292971 -0.0177555 
0.015024 -0.021024 -0.0137755 0.0399063 -0.0237395 -0.0112307 -0.0169629 -0.0156892 -0.0194786 
-0.0055228 -0.0174932 -0.0144499 0.00170398 -0.0159781 -0.0190664 0.0100956 -0.0141806 -0.0163896 
0.0243454 -0.0139869 -0.019304 0.0381807 -0.0152077 -0.0103412 -0.0360968 -0.00861317 -0.0197409 
-0.0378687 -0.000780009 -0.019708 -0.00562501 -0.00208233 -0.0193392 0.00498162 -0.00119948 -0.0153076 
0.0224542 -0.00974519 -0.0104012 0.0338779 -0.00248535 -0.0139428 0.0422944 -0.00103005 -0.010044 
0.0452662 -0.00210083 -0.0181732 -0.0297409 0.0014267 -0.0144409 -0.0287532 0.00909973 -0.0147787 
-0.0180003 0.00200003 -0.0130403 0.00837328 0.00560838 -0.0195007 0.00271848 0.00608176 -0.0127767 
0.0185699 6.95925e-05 -0.0189649 0.0379737 0.0095724 -0.0172 -0.0316731 0.016631 -0.01603 
-0.0234897 0.0177356 -0.0136953 -0.00709193 0.0144832 -0.0150646 0.00902992 0.0134348 -0.0154188 
0.000482002 0.0118618 -0.0190081 0.0154489 0.0182362 -0.0134673 0.025859 0.0122045 -0.0161256 
0.0299936 0.0184701 -0.019363 0.0425543 0.0112413 -0.0101103 -0.0401945 0.0238616 -0.018556 
-0.0132326 0.0264247 -0.0192269 -0.00705059 0.0299743 -0.0138378 0.00598466 0.0231189 -0.014714 
0.0248633 0.0222707 -0.0103447 0.0303021 0.0290707 -0.0190173 0.0448664 0.028129 -0.0115331 
-0.0409742 0.0327978 -0.017022 -0.0291459 0.0317419 -0.0142529 -0.00126492 0.035433 -0.0144417 
0.00742257 0.037383 -0.0176184 0.0197352 0.0383723 -0.0132181 0.0110142 0.0306301 -0.0137843 
-0.0433829 0.0409025 -0.0105045 -0.0229002 0.041309 -0.010766 -0.0195021 0.0456295 -0.019311 
-0.00501034 0.0461553 -0.0120756 0.00369386 0.0421953 -0.0162577 0.0199247 0.0454079 -0.0150283 
0.0375339 0.0418377 -0.0157886 -0.0182921 -0.045554 -0.00496148 0.00993794 -0.0441063 -0.00732952 
0.0241695 -0.0432473 -0.0095956 0.0366644 -0.0400143 -0.00587775 -0.0446133 -0.0358268 -0.00544789 
-0.0369785 -0.0379362 -0.00455501 -0.035547 -0.031516 -0.00916778 -0.024945 -0.0387692 -0.00404543 
0.00100189 -0.0382748 -0.000400736 0.0313538 -0.0361981 -0.00143758 -0.0448194 -0.0255458 -0.00786517 
-0.0329845 -0.0271375 -0.00027204 -0.0276478 -0.0264688 -0.00883919 -0.0187735 -0.0263479 -0.00163648 
-0.0107523 -0.0210294 -0.00998978 -0.00640398 -0.0203273 -0.00102795 0.000772949 -0.0232956 -0.00993887 
0.00459559 -0.0291639 -0.00516316 0.0200197 -0.0270177 -0.00765277 0.0348809 -0.0205912 -0.00246903 
0.0434938 -0.0271021 -0.00473876 -0.0422724 -0.0167311 -0.00310161 -0.0333215 -0.0156977 -0.00844042 
0.0456167 -0.0142617 -0.00700163 -0.0454669 -0.00294054 -0.00888988 -0.00283013 -0.000814779 -0.00720061 
-0.00707792 -0.00321767 -0.000115633 0.00450526 -0.00380114 -0.00275773 0.00254013 -0.00972896 -0.00913238 
0.0162589 -0.0036793 -0.00495432 0.0290612 -0.00595069 -0.00257487 0.0420397 -0.00663945 -0.00451891 
-0.0359857 0.000438774 -0.00838518 -0.0340009 0.0045488 -0.00597411 -0.0138303 0.00207802 -0.00265954 
-0.00532784 0.00607565 -0.00364632 0.0224936 0.00946154 -0.00272619 0.0328274 0.00557606 -0.000757315 
0.0330525 0.0044682 -0.00868826 -0.0375058 0.0132044 -0.00631981 -0.0282677 0.0143037 -0.00552441 
-0.0196444 0.0139383 -0.0016518 -0.0119349 0.0177926 -0.00488934 0.00399729 0.019285 -0.00815619 
0.0107857 0.0112058 -0.00680078 0.0377676 0.0198345 -0.004941 0.0360333 0.0118892 -0.00506375 
-0.0340102 0.0283701 -0.00152422 -0.0289345 0.0234596 -0.00989069 0.00135606 0.0280119 -0.00335181 
0.0185436 0.0256341 -0.00686698 -0.0451812 0.0321203 -0.00129575 -0.0414891 0.0307404 -0.00912662 
-0.0148664 0.0317148 -0.00236018 -0.011949 0.0367933 -0.00844394 0.0227759 0.0331006 -0.00645602 
0.0353109 0.0331747 -0.00935066 0.0449989 0.0393476 -0.000754115 0.0443597 0.0308688 -0.00413034 
-0.0401676 0.0425862 -0.00335573 -0.0015137 0.0413367 -0.00365005 0.0192788 0.04106 -0.00236129 
0.0104497 0.0424986 -0.00567588 0.0261373 0.0424819 -0.00895364 0.0344803 0.0415154 -0.00517861 
-0.0407751 -0.0458366 0.00411993 -0.0159571 -0.0431832 0.00861865 0.00299991 -0.0451808 0.00561419 
0.0121625 -0.0444731 0.00614324 0.0241918 -0.0429925 0.00210762 -0.041242 -0.0326595 0.00761291 
-0.0334006 -0.0352279 0.00855749 -0.0249236 -0.0336709 0.00877349 -0.0162546 -0.033106 0.00843998 
0.00898662 -0.037461 0.000235067 0.0318894 -0.0331659 0.00954697 -0.0421519 -0.0230271 0.00621481 
-0.0162767 -0.0224094 0.00559233 -0.00384514 -0.0293431 2.16375e-05 0.0120925 -0.0261561 0.00236146 
0.0431515 -0.0245236 0.00899975 -0.0357406 -0.0170836 0.00995031 -0.022952 -0.0134626 0.00977568 
-0.00940044 -0.0144251 0.00400367 0.00756514 -0.0177656 0.004824 0.00168526 -0.0108721 0.00702243 
0.0162642 -0.0100538 0.00390185 0.0397023 -0.0100142 0.0063867 0.0453294 -0.0183064 0.00135951 
-0.0448252 -0.0077251 0.00189476 -0.0287638 -0.00780464 0.00778527 -0.0124688 -0.00703999 0.00524245 
0.017871 -0.000565355 0.00906084 0.0105 -0.00234076 0.00298103 -0.0301687 0.001745 0.00236333 
-0.00382071 8.62553e-05 0.00925316 0.00534783 0.00526027 0.00952812 0.0413722 0.0030607 7.40932e-05 
-0.0368569 0.0129875 0.00753479 -0.0250519 0.0133139 0.00461233 -0.0130581 0.0157375 0.00995514 
0.0206314 0.0157637 0.00618346 -0.0349598 0.0234842 0.00812211 -0.0290452 0.0220376 0.000939707 
-0.026529 0.0286322 0.00921596 -0.0183114 0.0211955 0.00766798 -0.0111184 0.0245175 0.00946123 
0.00411625 0.0225077 0.00596711 0.0139894 0.0206683 0.00969831 0.0235195 0.0236103 0.00173791 
0.0360625 0.0235507 0.00400332 -0.0233383 0.0383251 0.00638208 -0.00360423 0.039558 0.00741598 
0.0069185 0.0304091 0.00738717 0.0177799 0.0341394 0.00676648 0.0350039 0.0367202 0.00325827 
-0.0437852 0.0430929 0.00887536 -0.0159784 0.0436561 0.00035019 -0.00712912 0.0447536 0.00149587 
0.034039 0.0433553 0.00914317 -0.0296344 -0.0428822 0.0111446 -0.00359945 -0.0458837 0.010973 
-0.0196443 -0.0386832 0.0143958 0.019189 -0.0314648 0.0167966 0.0141596 -0.0366997 0.0102034 
-0.030528 -0.0269861 0.0112428 0.00739526 -0.0278423 0.0105903 0.0241227 -0.0105503 0.0149839 
0.0227548 -0.017565 0.0118687 0.0347477 -0.0187663 0.0118947 0.0452809 -0.0136136 0.0161859 
-0.0384142 -0.00555359 0.0113509 0.00148423 -0.00519957 0.013224 0.0262779 -0.000137887 0.0103053 
0.0360334 -0.00265199 0.010312 0.0457164 -0.00306385 0.0128521 -0.0360149 0.00573271 0.0161781 
-0.0184202 0.00340681 0.012238 -0.00833353 0.00443504 0.0177336 0.0170267 0.00798111 0.012213 
0.037528 0.00615257 0.012307 -0.0174378 0.0127134 0.0157762 0.00959623 0.0137025 0.0126432 
0.0281561 0.0158631 0.0195559 0.0441081 0.0271852 0.0115308 -0.00113256 0.0344432 0.01854 
0.028806 0.0343414 0.0124559 -0.0287127 0.0457875 0.0163616 0.00244366 0.0427778 0.01291 
0.0255252 0.0422533 0.0141785 0.0419982 0.0424412 0.0144711 -0.000895208 -0.00948047 0.0224087 

gid 1 567 double
0 0 0 0 0 0 0 0 0 
0 0 0 0 0 0 0 0 0 
0 0 0 0 0 0 0 0 0 
0 0 0 0 0 0 0 0 0 
0 0 0 0 0 0 0 0 0 
0 0 0 0 0 0 0 0 0 
0 0 0 0 0 0 0 0 0 
0 0 0 0 0 0 0 0 0 
0 0 0 0 0 0 0 0 0 
0 0 0 0 0 0 0 0 0 
0 0 0 0 0 0 0 0 0 
0 0 0 0 0 0 0 0 0 
0 0 0 0 0 0 0 0 0 
0 0 0 0 0 0 0 0 0 
0 0 0 0 0 0 0 0 0 
0 0 0 0 0 0 0 0 0 
0 0 0 0 0 0 0 0 0 
0 0 0 0 0 0 0 0 0 
0 0 0 0 0 0 0 0 0 
0 0 0 0 0 0 0 0 0 
0 0 0 0 0 0 0 0 0 
0 0 0 0 0 0 0 0 0 
0 0 0 0 0 0 0 0 0 
0 0 0 0 0 0 0 0 0 
0 0 0 0 0 0 0 0 0 
0 0 0 0 0 0 0 0 0 
0 0 0 0 0 0 0 0 0 
0 0 0 0 0 0 0 0 0 
0 0 0 0 0 0 0 0 0 
0 0 0 0 0 0 0 0 0 
0 0 0 0 0 0 0 0 0 
0 0 0 0 0 0 0 0 0 
0 0 0 0 0 0 0 0 0 
0 0 0 0 0 0 0 0 0 
0 0 0 0 0 0 0 0 0 
0 0 0 0 0 0 0 0 0 
0 0 0 0 0 0 0 0 0 
0 0 0 0 0 0 0 0 0 
0 0 0 0 0 0 0 0 0 
0 0 0 0 0 0 0 0 0 
0 0 0 0 0 0 0 0 0 
0 0 0 0 0 0 0 0 0 
0 0 0 0 0 0 0 0 0 
0 0 0 0 0 0 0 0 0 
0 0 0 0 0 0 0 0 0 
0 0 0 0 0 0 0 0 0 
0 0 0 0 0 0 0 0 0 
0 0 0 0 0 0 0 0 0 
0 0 0 0 0 0 0 0 0 
0 0 0 0 0 0 0 0 0 
0 0 0 0 0 0 0 0 0 
0 0 0 0 0 0 0 0 0 
0 0 0 0 0 0 0 0 0 
0 0 0 0 0 0 0 0 0 
0 0 0 0 0 0 0 0 0 
0 0 0 0 0 0 0 0 0 
0 0 0 0 0 0 0 0 0 
0 0 0 0 0 0 0 0 0 
0 0 0 0 0 0 0 0 0 
0 0 0 0 0 0 0 0 0 
0 0 0 0 0 0 0 0 0 
0 0 0 0 0 0 0 0 0 
0 0 0 0 0 0 0 0 0 

a 3 567 double
-1141.56 -1749.97 505.922 3338.97 429.192 -7363.3 804.342 3986.98 5311.23 
-4157.49 -4423.27 2039.01 -513.087 633.849 -1198.18 -751.951 388.377 -1500.33 
-61.1346 -76.0914 9242.15 497.395 -1114.72 353.461 -1594.18 1095.28 -1022.23 
2952.6 -903.919 -357.8 -194.678 -162.398 -132.397 -1247.87 -2882.52 1230.8 
-1561.63 460.968 423.136 4007.09 3472.27 -2821 0 0 0 
1155.45 -3622.43 -1571.2 2644.03 -597.499 -3077.21 -538.037 91.2032 -1837.05 
-90.7726 -1133.17 -555.064 -1193.77 -119.384 3207.73 -204.309 -1040.92 -1084.96 
1193.77 119.384 340.202 453.86 -147.832 -183.019 -4272.73 1135.38 -1072.97 
3146.4 -1621.11 216.901 -2776.29 -1745.85 -691.953 241.346 446.349 -396.138 
3065.38 1565.73 553.983 -210.837 -30.7163 226.123 -2283.3 955.082 2917.92 
-554.742 3079.3 -2112.15 625.236 914.899 296.524 150.569 -839.135 -108.096 
0 0 1402.11 -765.219 937.671 584.069 -6067 -853.286 -1299.3 
2408.17 2688.1 -1884.59 5838.15 -4129.8 -1931 299.066 704.67 1146.97 
1913.86 -111.478 2005.71 -994.134 -345.908 -646.838 -41.601 -28.5446 -24.2493 
1451.23 -2506.45 -2375.16 1307.8 549.728 -693.814 263.247 640.73 1299.02 
287.101 26.1416 709.844 -543.334 -3535.42 4653.6 -1797.43 681.203 219.465 
1840.2 1004.52 306.951 276.981 254.344 936.526 2848.25 -1427.52 1304.24 
-3125.24 1173.17 170.916 0 0 4087.75 -25.0035 -1130.15 923.708 
8.62892 141.798 60.9184 2360.86 50.6835 4.5822 -3198.9 308.206 978.658 
3256.93 -695.19 8386.46 69.6664 -2232.11 -3737.2 1806.1 2157.15 -1767.73 
-824.846 -369.067 481.2 -1618.29 2544.63 2762.33 -94.9217 -591.586 27.1207 
1014.26 -628.43 827.39 -4.65609 2954.65 1530.42 885.968 208.959 4644.15 
-483.363 -1952.38 -537.313 1420.13 -1571.1 278.426 719.299 -1636.46 4780.11 
246.217 2217.55 2114.35 0 0 0 152.543 60.5307 78.8091 
-28.7596 2380.09 -1365.19 0 0 3748.33 1645.89 -1312.65 -2715.8 
-1305.48 2950.85 2053.08 -556.887 -1531.93 -2872.71 0 0 2746.6 
-158.539 -1085.2 -687.497 -3387.82 -1663.51 -184.735 99.7843 -40.7859 3813.71 
-1536.92 214.216 -1009.36 -1184.54 -2114.55 4704.64 -3343.35 -291.526 -5253.04 
-237.469 139.99 4038.57 1532.85 4426.17 -4884.76 104.373 231.571 -488.671 
2325.13 -808.764 1457.23 -126.849 106.607 -709.415 76.5451 -545.06 -582.337 
18.6085 2.36569 -3.71857 0 0 0 -465.574 685.775 -1247.27 
-804.444 -167.622 -267.552 1373.87 -1288.72 -8693.73 1633.27 -2894.22 2657.32 
-2407.22 5686.44 3464.93 -21.1683 -415.845 5029.22 -105.244 137.843 195.966 
0 0 3380.62 -1082.36 1019.41 -1582.94 747.52 -983.413 1592.3 
2828.56 783.117 2561.58 -2534.66 1291.22 71.6498 163.962 -2208.52 2288.61 
5319.5 0 0 -22.5955 65.4087 1241.66 0 0 4986.38 
111.569 244.512 159.737 -170.49 216.566 1901.9 575.246 -558.622 -39.2864 
-807.079 -3180.65 2073.33 -255.042 227.677 4747.88 381.454 50.3247 271.838 
-459.607 713.208 944.854 -304.005 107.346 130.729 -1323.03 -2384.35 496.902 
-24.3939 -218.285 -53.7793 2845.5 -516.133 -658.362 1411.58 -873.975 -236.145 
145.298 -346.062 -177.476 -795.302 420.81 -686.122 299.929 -389.893 -393.569 
-1642.43 588.451 -88.8572 3762.35 1731.88 -1226.2 1201.19 -3303.67 3234.19 
-4419.82 843.166 5617.39 28.8527 -1231.23 4889.04 1184.17 3009.39 4167.73 
25.7522 102.24 -1052.03 58.0742 255.443 -398.519 -292.33 -365.454 118.066 
35.3043 156.72 243.087 -1542.06 2577.41 -1123.92 -2470.75 102.412 -5338.74 
-1609.06 -874.578 2766.23 544.371 296.938 288.137 -18.1862 -1023.48 1524.43 
246.492 890.176 8343.2 1609.06 115.103 240.388 227.17 385.535 -91.4909 
-1658.46 559.169 1496.21 1344.96 -201.078 879.195 -28.8527 1231.23 784.211 
-3323.63 2478.66 4941.69 3614.31 -2054.26 1364.27 0 0 0 
615.482 465.16 656.13 -407.898 736.245 -354.496 -717.355 -1021.91 1214.05 
0 0 0 0 0 0 513.087 -633.849 1198.18 
-753.437 -256.376 3883.31 -785.509 -398.773 936.852 -567.052 -35.1345 -2510.34 
627.213 439.675 -1184.19 56.7222 -30.6221 279.311 101.573 -10.28 -31.9728 
-259.182 310.23 315.416 405.268 -6.18125 -3.65465 1160.69 -244.067 -939.3 
0 0 0 14.1811 7.09883 13.0636 353.072 -95.6684 -396.997 
-35.397 -3041.63 1400.92 -613.245 206.494 1088.41 1510.86 -2707.6 571.95 
-2918.95 2053.13 3740.65 821.272 -61.3106 925.233 0.180956 744.721 -104.858 
427.383 373.607 630.641 458.793 -981.753 1127.75 -229.622 -360.741 1542.26 
-585.215 433.586 1196.73 2877.67 -502.955 -2123.94 -3086.97 515.399 2248.24 
-1153.15 250.249 942.955 -204.862 -272.104 -697.782 -528.64 240.592 -1405.34 
-1549.28 -692.071 1456.07 27.4338 3435.4 -2321.51 977.45 623.093 1310.99 
-1200.82 -744.023 -1124.38 -1091.73 2392.92 -52.069 223.37 120.93 -186.614 
-913.469 1746.63 4464.52 -671.15 -1661.99 -148.814 -152.115 -356.127 -339.753 
213.334 230.464 3.95215 0 0 0 -530.26 -485.938 1281.63 
0 0 0 0 0 0 -567.085 1478.87 995.178 
-292.536 -214.447 -287.587 1059.06 -1596.65 -865.862 0 0 0 
-82.5976 629.004 853.052 1062.21 -2192.83 1282.97 -441.368 -299.604 43.4613 
873.962 1060.48 -369.816 -347.961 361.73 21.6351 500.076 -5.60235 318.118 
-1149.61 4233.31 5816.98 1285.73 -4201.79 -5719.65 -328.718 -168.863 -1107.19 
2114.87 -3683.69 -4924.63 179.992 -85.2009 -1.83797 -4201.89 699.989 -2847.22 
4201.89 -699.989 2847.22 -713.589 256.148 -252.076 514.148 76.0838 410.346 
-801.073 -1598.25 -3461.1 -21.7257 5.90497 15.8781 3560.41 0 0 
725.427 1043.23 758.294 663.88 -3191.45 783.63 50.5199 1415.48 3928.34 
-2110.52 3682.84 4944.21 -72.7936 28.0671 34.8058 1226.88 400.306 1347.73 
690.334 230.141 999.869 -1403.75 214.505 31.8872 111.702 395.253 1127.24 
386.653 -447.075 -32.5753 -1951.55 -963.811 1324.35 -244.419 939.116 -403.408 
2195.96 24.6958 -920.946 -161.686 80.1603 390.14 2892.4 1208.27 -2809.2 
-4043.15 211.123 1149.51 -447.74 -438.739 -182.071 -190.916 431.06 -101.932 
1708.87 -1326.95 2383.17 1569.16 2409.06 645.246 628.76 700.319 -2207.38 
355.507 -400.095 2266.55 0 0 0 71.6097 88.4683 -1114.01 
3.91345 15.8595 1201.24 294.93 -790.535 688.953 -1068.7 -928.19 -3086.63 
1056.43 910.337 2942.11 3013.62 465.271 -191.122 848.304 -1512.65 -2241.41 
-2241.38 1077.3 2781.17 -3362.34 1663.17 1224.27 4463.43 -893.813 328.209 
-924.624 1183.18 131.232 0 0 0 93.4722 32.9752 124.662 
-217.234 74.3233 143.47 -655.357 342.891 767.144 294.107 -325.004 484.514 
-2992.68 -426.617 299.192 0 0 0 435.997 -692.625 -1422.95 
1401.92 409.881 -562.966 330.423 0.890451 -220.403 -363.1 -591.373 -109.813 
181.51 416.794 1692.53 647.947 -160.348 946.826 28.7884 -313.571 161.986 
-436.475 20.8478 1017.3 158.528 385.492 1245.43 -168.741 -56.4969 51.5368 
-3801.99 32.8721 33.0109 1564.23 888.584 5515.36 -59.9269 137.381 102.36 
0 0 0 93.962 29.5911 -41.914 514.057 105.503 219.237 
-541.195 149.121 37.8736 0 0 0 0 0 0 
0 0 0 297.342 -208.926 -231.169 0 0 0 
0 3907.05 0 -22.1564 -15.6532 6.74935 0 0 0 
0 0 0 -205.413 38.0625 173.144 0 0 0 
0 0 0 139.955 -540.49 481.583 -694.381 164.693 468.298 
738.565 -911.423 447.418 22.1564 15.6532 -6.74935 -539.307 181.607 494.224 
-458.567 -912.154 763.111 539.307 -181.607 -494.224 0 0 0 
1330.11 919.334 1227.65 -21.62 112.893 558.202 0 0 0 
0 0 0 1551.68 0 0 -180.798 304.921 -190.025 
180.798 -304.921 190.025 1027.76 -263.983 -211.803 0 0 0 
-15.23 -37.7089 16.3858 -241.568 -835.179 1386.63 -1027.76 263.983 211.803 
0 0 0 0 0 0 281.308 67.9084 1225.91 
47.4102 100.954 -118.723 0 0 0 179.472 919.1 -461.519 
-179.472 -919.1 461.519 2207.34 1334.38 3447.57 0 0 0 
-2872.91 872.888 -1403.02 -113.643 -1793.42 -3429.83 -1238.57 2242.91 1807.07 
0 0 0 0 0 0 0 0 0 
-75.9384 -75.7243 30.3252 0 0 0 0 0 0 
-208.35 430.002 -460.812 -19.9133 -200.013 1264.17 208.35 -430.002 460.812 
143.761 -66.7636 -69.7181 -70.1586 -79.2346 -105.963 0 0 0 
0 0 0 767.637 -3964.36 -4918.57 -2391.06 1637.44 -875.285 
356.813 80.7916 37.495 0 0 0 0 0 0 
0 0 0 0 0 0 0 0 0 
-157.597 491.354 180.488 0 0 0 -1658.52 1251.36 -5007.37 
-1179.43 12.0908 2085.89 63.3705 2.73834 -3.53891 -63.3705 -2.73834 3.53891 
0 0 0 0 0 0 0 0 0 
0 0 0 600.386 -532.409 1162.6 103.426 1182.87 -1856.53 
413.922 -196.256 -475.022 0 0 0 0 0 0 
0 0 0 -297.342 208.926 231.169 0 0 0 
0 0 0 0 0 0 0 0 0 
0 0 0 0 0 0 0 0 0 
0 0 0 0 0 0 0 0 0 
101.748 78.652 -69.8563 0 0 0 0 0 0 
0 0 0 0 0 0 0 0 0 
1352.21 -449.492 1622.76 0 0 0 7.05973 -33.0038 -8.16208 
0 0 0 0 0 0 2.65419 159.985 -125.595 
0 0 0 237.037 -51.4375 -88.7762 21.7601 100.217 5.57755 
0 0 0 0 0 0 -7.05973 33.0038 8.16208 
0 0 0 0 0 0 0 0 0 
0 0 0 0 0 0 0 0 0 
0 0 0 0 0 0 0 0 0 
0 0 0 0 0 0 1266.61 2246.12 5756.36 
0 0 0 -27.17 -19.9085 2.71731 117.57 139.315 -14.1254 
0 0 0 0 0 0 0.765287 -5.17866 -10.4249 
1658.52 -1251.36 5007.37 0 0 0 27.17 19.9085 -2.71731 
960.986 -908.107 77.3315 67.8876 -691.931 -41.4061 0 0 0 
0 0 0 0 0 0 -374.303 226.33 506.008 
0 -1162.58 0 -960.986 908.107 -77.3315 -67.8876 691.931 41.4061 
0 0 0 0 0 0 0 0 0 
0 0 0 0 0 0 -140.894 22.4339 -22.1922 
137.554 -30.9969 28.6376 3.33999 8.56308 -6.44539 0 0 0 
1.48011 0.0589424 0.241482 0 0 0 0 0 0 
0 0 0 0 0 0 0 0 0 
-101.748 -78.652 69.8563 0 0 0 0 0 0 
0 0 0 0 0 0 0 0 0 
0 0 0 0 0 0 0 0 0 
0 0 0 0 0 0 0 0 0 
0 0 0 0 0 0 0 0 0 
0 0 0 0 0 0 -2.65419 -159.985 125.595 
-535.419 -485.406 -563.943 276.622 436.627 647.141 0 0 0 
0 0 0 0 0 0 -0.0270951 0.147917 0.589463 
0.0270951 -0.147917 -0.589463 0 0 0 0 0 0 
0 0 0 0 0 0 -47.4112 -60.0805 120.089 
0 0 0 0 0 0 0 0 0 
0 0 0 0 0 0 0 0 0 
0 0 0 0 0 0 0 0 0 
0 0 0 0 0 0 0 0 0 
0 0 0 0 0 0 -0.765287 5.17866 10.4249 
0 0 0 0 0 0 0 0 0 
0 0 0 0 0 0 0 0 0 
0 0 0 0 0 0 0 0 0 
0 0 0 0 0 0 0 0 0 
0 0 0 0 0 0 0 0 0 
-1.48011 -0.0589424 -0.241482 0 0 0 0 0 0 
0 0 0 0 0 0 0 0 0 
0 0 0 0 0 0 0 0 0 
0 0 0 0 0 0 0 0 0 
0 0 0 0 0 0 0 0 0 
0 0 0 0 0 0 0 0 0 
0 0 0 0 0 0 0 0 0 
0 0 0 0 0 0 0 0 0 
0 0 0 0 0 0 37.5871 -13.5466 -12.289 
0 0 0 0 0 0 0 0 0 
0 0 0 -24.3943 27.9452 -6.9148 0 0 0 
0 0 0 0 0 0 0 0 0 
0 0 0 0 0 0 0 0 0 
0 0 0 0 0 0 0 0 0 
0 0 0 0 0 0 0 0 0 
0 0 0 0 0 0 0 0 0 
0 0 0 0 0 0 0 0 0 
0 0 0 0 0 0 62.0925 355.612 108.152 
-62.0925 -355.612 -108.152 0 0 0 0 0 0 
0 0 0 0 0 0 0 0 0 
0 0 0 0 0 0 0 0 0 
0 0 0 0 0 0 0 0 0 
0 0 0 -13.1928 -14.3986 19.2038 0 0 0 
0 0 0 0 0 0 0 0 0 
0 0 0 0 0 0 0 0 0 
0 0 0 0 0 0 0 0 0 

v 3 567 double
0.327654 -0.342171 -2.35596 0.441074 1.46475 -2.36315 -1.02201 -1.52995 -0.142071 
-3.4905 -1.02957 -1.86226 -0.103398 0.0953322 1.15486 -2.56636 -1.86865 0.134373 
2.89209 0.448423 2.52416 -0.012923 1.82369 -1.84404 -2.25468 -3.2431 0.584103 
0.812411 0.356768 -0.93478 -1.31951 0.756229 1.23925 -1.31437 -0.125335 -0.854857 
0.225525 -2.30082 -0.188543 0.489245 0.884055 0.268597 -3.35478 -0.377827 2.46781 
-0.168869 -1.13782 -4.60903 0.101378 1.01205 -2.24435 -0.12128 -0.365481 -1.34673 
-0.0692826 -0.635783 -1.10245 -0.917033 1.18947 2.68766 1.67328 -1.94692 -0.160332 
0.333141 -0.783031 0.167343 2.92862 3.86874 -1.02967 -0.851506 0.372429 -0.579839 
0.397021 -3.17297 -2.31067 -0.763896 -1.46846 -1.75131 1.69656 1.40587 1.67028 
0.593598 0.232849 0.00448123 2.41727 -0.5649 -1.36121 -1.04807 -0.41007 -1.72747 
-0.31734 3.32159 -0.83025 0.767984 0.885235 -3.15918 1.04018 -0.687719 -0.719395 
1.22222 0.771053 -2.16637 -0.69156 -0.165303 -0.445877 -1.66667 0.1692 -4.64984 
-1.11921 -0.374534 -2.64935 0.534978 -0.771977 -2.64883 -1.40011 0.360167 0.680178 
1.30044 -3.40826 -0.448282 0.905646 -1.85926 -1.73855 0.996942 0.428645 -1.17894 
0.488558 -2.66045 0.180853 0.77367 1.03089 0.573313 2.46558 -1.42234 -0.400871 
-0.322062 -1.07714 0.154483 -0.512628 -0.837458 3.2253 0.589243 -0.553669 0.84211 
2.27211 -1.02209 -0.314966 0.532504 0.225953 -4.28056 -0.617105 0.608842 2.24459 
0.490022 1.54244 0.688818 -0.754015 3.06239 1.3769 -0.0622409 -1.03206 -2.96193 
0.839261 -2.24936 1.78055 0.766159 -1.02014 1.43945 -1.38521 0.830202 -0.0195343 
-0.307347 0.756843 -0.646624 -1.02769 0.827881 -1.32112 -1.63136 0.839845 -1.08684 
-0.328094 2.05097 -0.630963 0.056238 2.29129 -0.45146 1.39144 1.91726 -1.25601 
-2.09311 1.66233 -2.08981 0.181315 -1.32121 0.359787 0.438487 -3.38768 3.50253 
-1.46017 0.0363738 -1.06048 1.61159 1.77691 -2.02648 -1.93855 0.553764 -0.11265 
-1.30964 -0.155906 -1.53657 -1.25461 -0.232812 -1.85495 1.22134 0.440814 -4.02852 
-1.65318 -1.4877 1.67011 3.36514 -1.11391 0.252377 0.318312 -1.47736 -1.32047 
-0.100743 1.14814 -0.832866 0.20579 -1.99957 -1.37761 1.35313 0.829525 -1.28674 
0.731917 0.131813 2.06827 -0.57447 -0.57702 -0.0397639 -0.415016 1.87142 1.20506 
-0.925086 1.47251 -1.34219 -1.31447 -1.56265 0.184161 0.655343 -0.0657798 -2.1396 
-0.49516 -0.918636 1.17347 1.57735 -0.239256 -0.680256 0.524269 1.19231 -0.0725797 
-0.14725 -1.78617 1.07381 0.580324 -0.251585 -1.79661 0.0425357 -0.490823 -0.640403 
1.37746 -0.469126 -3.99599 0.808837 2.39274 2.43069 -1.06018 -3.59691 0.327638 
-0.910833 0.878349 0.0834804 1.58479 -0.724027 -0.374847 0.579574 -1.66229 -0.142005 
-0.431399 1.25263 0.247713 -3.17718 5.0134 2.34924 -2.17988 -0.636167 -2.36515 
-0.713381 -1.03701 -1.13717 1.91755 -0.81774 0.11887 -0.467873 0.229668 -2.38338 
2.38687 1.28353 -0.313794 -0.886199 0.242295 -0.0468519 0.774961 3.02606 -0.906663 
3.57612 -1.70596 1.50511 -0.120745 -0.0472839 1.64266 0.106958 0.318734 -0.67889 
-1.53217 -1.11431 -1.85229 2.20952 -1.9442 0.964479 0.900751 1.09034 -2.06505 
-1.13434 -0.95712 -0.661821 -0.00133256 1.82432 0.193182 -0.0948426 2.01907 0.829612 
0.167653 2.16069 -1.54002 0.23205 -0.479662 -4.1346 0.642797 0.642596 -2.31507 
0.372638 0.520697 0.645642 -0.662658 -1.88754 -0.850322 -1.6414 2.23965 0.649497 
-1.12628 -0.222324 3.55899 -1.93956 -0.942657 -0.107977 0.263364 0.573612 -1.06399 
-0.450811 3.95064 -1.20736 0.904159 0.589436 -0.0581623 -0.119741 -1.65294 0.385687 
0.448432 -1.58402 1.68008 0.903718 -0.279734 0.602828 1.41826 -1.37318 2.41955 
0.872746 -0.777672 -1.49831 -0.682237 -2.17204 2.38598 1.02295 1.15068 4.12048 
-1.48241 -0.380718 1.43266 1.62448 -0.19882 -1.61736 1.02064 -0.277404 -0.333253 
0.607324 -0.341918 -1.83254 -2.15691 -0.255146 -3.22446 -0.228737 0.799755 -3.42347 
-0.721638 -0.135391 3.04954 -1.366 -0.256549 -0.892056 0.0689805 -1.36625 -1.379 
0.597454 -2.30847 1.08716 -0.0514543 -1.41144 -3.8715 -0.584281 -0.687142 1.3092 
-3.43141 1.9531 0.168658 1.2392 0.181503 0.555378 -1.34376 1.9762 -3.30941 
-1.15649 0.7485 -1.38971 0.287372 1.7135 -0.229647 -0.339873 0.123752 -0.675931 
0.149919 -0.384036 -4.426 1.09533 0.622532 -2.67563 -0.192214 1.399 2.81642 
-3.54259 0.920527 -1.44337 -2.53501 0.061222 0.295257 1.52393 -1.90754 0.694948 
-1.75965 1.88336 -1.24293 -1.75294 1.79498 -1.63247 2.12645 1.35942 -0.551897 
0.660915 -1.30132 1.28424 -0.253839 1.73182 -1.05804 -1.39403 0.0839057 -2.06721 
-0.934226 -1.73105 1.0052 -1.60057 -0.143458 -3.58207 0.884818 1.08281 -0.981584 
-0.194114 -0.754361 -4.04411 0.510557 1.05988 -3.0704 -0.0758274 0.570315 -2.09536 
-1.51849 1.03518 -2.02477 0.313897 -0.84148 2.18198 1.70468 2.20763 0.210882 
2.31811 0.376273 -3.43798 0.566101 0.00614816 1.67235 -0.409638 -0.130137 -3.73623 
-0.728157 1.68009 -2.39267 0.668336 -1.1255 0.420181 -0.683064 -0.448317 -2.9984 
0.477983 -0.0261605 -2.11969 1.23263 -0.365398 0.0534126 -0.683197 -1.64227 -0.572305 
-1.13533 -1.56139 -0.100428 1.11741 1.48583 0.512149 0.116275 0.219319 -3.88701 
-0.0524085 -0.883457 -1.04435 -1.17634 -1.43667 -2.86069 1.77764 -0.97417 -3.05421 
-0.586451 0.965287 -1.53325 -1.24482 -1.10124 3.05669 0.141989 -0.559454 -3.82934 
-0.7608 0.715209 1.11568 0.0551994 -0.162015 -4.42238 -1.66776 -1.32393 -0.270227 
-0.0603352 -0.0483195 -4.44829 1.32238 2.06501 0.140882 -0.166342 1.6474 -3.09577 
-1.14992 -0.572073 -0.218355 2.87588 -0.429902 0.115907 -0.114428 0.76953 -1.63194 
1.62785 2.14829 -1.34971 -0.223394 0.0139716 1.37386 0.162966 0.336596 -0.728919 
-0.218021 0.658005 -0.803777 2.29179 2.59263 -0.139988 0.770694 -0.042804 -4.37366 
-0.457164 2.19105 -1.17027 1.82231 0.273969 -1.14429 -0.321626 -0.631417 -3.75763 
0.890616 0.452723 -1.47662 -0.106687 -0.569991 -3.77178 -2.8773 0.664145 1.61106 
-0.71706 -2.25547 -0.667412 -0.07049 0.136531 -4.11377 0.242267 0.0344203 -3.9461 
1.36541 -0.915918 -3.4397 -1.16123 0.579782 1.16621 -1.20601 -2.86101 -0.977387 
0.797917 -0.690774 -0.661543 -2.90512 -1.60005 -1.01243 0.982606 -0.0814157 -1.54861 
-1.17759 1.66994 -1.11572 1.91018 -0.62597 -3.84258 -1.22759 -2.03066 -2.03414 
0.655986 0.110835 -0.361054 -2.26582 0.25697 -3.70516 0.752932 -0.863309 0.577586 
-0.351447 -1.65834 0.775739 0.41974 -0.190456 -2.08581 -1.64808 -0.453392 -1.76962 
1.26117 0.606089 -3.36338 -1.0644 0.529218 -3.32076 0.497832 1.24552 1.69422 
-2.09839 -1.09435 -0.563709 0.012142 -0.878512 -1.49538 -1.46923 0.436461 -2.28027 
1.09373 -0.393983 -0.0284934 0.600657 0.570826 -0.449482 -0.396767 1.50574 -2.09334 
-1.27436 0.378106 -1.48061 -0.0607726 0.346813 -4.20819 -1.90012 -0.335774 -0.941975 
0.170185 0.569107 -3.87433 0.843537 -0.668794 -0.403674 -0.669261 -1.11128 -2.93828 
0.843839 1.82753 -1.63663 2.35113 -3.25332 -0.281584 -0.597138 0.428661 -0.829631 
-0.193018 -0.286065 -2.54073 -0.491446 -0.256363 -1.90958 -0.55193 0.775214 -3.89399 
-1.35896 2.88847 -2.71386 -1.24018 -0.860203 -2.89804 0.84373 0.964695 -0.724916 
-0.201789 -0.112504 -4.1739 0.821913 0.456971 -0.374241 -0.0221375 -0.0084446 -4.14732 
-2.87234 1.12867 -0.980937 -0.0723212 1.16893 -3.86962 1.22903 -0.746409 -3.25406 
-0.27176 2.79391 -2.09638 -2.92911 -0.0383008 2.37275 -0.748239 -0.112235 -2.17383 
0.37854 0.347352 -3.67289 -2.21044 -1.47778 -2.01362 -1.75253 0.50244 2.98521 
0.678413 -0.609569 -2.54747 0.901807 -0.752391 0.636429 0.827144 -0.604533 -3.77513 
-2.00354 -1.16979 -1.88431 -0.481029 2.84007 0.704264 -2.65382 -1.04998 0.195982 
0.686117 0.785894 -2.34643 -1.75362 1.65409 -2.04088 -0.324698 -0.183509 -1.68473 
0.377679 -0.514355 -2.00166 -0.352844 1.8036 -0.308628 0.237033 -0.0174357 -4.45609 
0.341013 0.236869 -1.17271 -0.752809 -0.294841 -2.79162 2.59138 -2.46383 0.0818207 
1.14315 2.20989 0.920045 -0.825253 -0.238348 -3.88883 -1.47455 0.078066 0.99808 
0.218011 -0.272374 -4.17129 -0.0517615 -0.798231 -0.615241 0.481949 0.230308 -4.11408 
-0.0395276 -0.0450071 -3.90505 0.0757535 1.01459 -3.25034 -0.717617 0.179239 -3.96687 
0.00824484 1.00407 -2.16682 -0.284545 0.407953 -3.57569 0.00900823 0.455938 -3.98869 
-0.05377 -0.881901 -3.23475 -0.631249 1.36896 -0.72813 0.307506 0.0196466 -4.08045 
0.207541 -0.114589 -2.76786 1.16561 -0.999425 -3.92985 -0.349931 0.00897264 -3.89307 
-0.378228 0.456273 -4.0429 0.133381 0.453638 1.4266 0.0267893 1.84864 0.581367 
-0.0910129 -0.00256872 -3.96421 -0.0525176 0.582004 -2.34908 0.0958282 -0.110976 -4.57753 
-0.171814 0.128559 -3.86505 -0.477787 -2.04541 -1.12702 -0.528598 -0.0664828 -3.83262 
-0.110204 0.0833813 -4.05433 -1.01847 -0.53016 -0.156954 0.427343 0.133235 -2.36107 
1.14973 0.0518598 -1.99613 0.0727072 -0.0347225 -4.04381 2.45724 0.957776 -1.79339 
-0.448046 -0.24498 -3.83332 0.539788 0.392806 0.921806 0.0486837 0.394314 -4.4928 
-0.245488 -0.754632 -4.7431 0.043087 1.1132 -3.65536 -0.677392 1.37357 -2.98015 
-0.935626 0.622813 -2.21488 0.46569 0.49133 -4.36923 2.1078 -1.21709 -2.57812 
-1.26555 1.95561 -2.36635 -0.0419472 -0.197885 -4.58082 -0.167069 -0.462744 -4.00759 
2.10202 0.83659 -1.33954 -0.63216 -0.447481 -1.04403 0.0402114 -0.0793033 -4.14517 
0.551407 -0.574857 0.126867 0.116357 0.329804 -4.11315 -0.0195736 0.037004 -4.26671 
-0.0952577 0.0049477 -4.26726 -0.164143 -0.126855 -2.84994 0.0525306 -0.440853 -0.467612 
-0.142819 -0.256748 -4.104 0.284577 -0.104666 -4.19243 -0.0503661 1.76974 -0.619316 
1.25956 -0.290804 -3.12507 -0.107998 -0.0649215 -4.3596 0.00954451 -0.382807 -4.2601 
0.226745 0.689862 -4.10508 -0.0681489 0.0717357 -4.04235 0.67382 0.547527 -2.87159 
-0.705476 0.394842 -1.57193 -0.247356 -0.208527 -3.75604 1.9745 1.02918 0.198025 
0.34182 -0.700362 -3.2778 -0.125233 -0.756032 -4.12213 -0.0316022 -0.0474849 -4.15933 
-0.0706354 -0.321771 -4.33339 0.440706 -0.216317 -3.45983 -3.55787 0.734007 0.438395 
-0.746752 -0.17982 -3.79844 -0.0799826 -0.156536 -4.30995 2.67616 0.62213 -0.684809 
0.19632 -0.268801 -4.26828 0.557121 0.4454 -3.92894 1.5216 0.283988 -1.63487 
0.272401 0.124517 -4.15877 0.105975 0.14362 -4.07938 0.0401391 -0.0675663 -4.09042 
-0.271873 0.0532895 -4.01436 0.193758 -0.211813 -3.97632 0.387083 0.111241 -4.02028 
-0.339002 0.183247 -3.92783 -0.0674248 0.12864 -3.95088 0.334624 -0.0152754 -4.09731 
0.294888 -0.206585 -4.01781 0.10308 0.230472 -4.19124 0.344995 0.257282 -3.94448 
-0.312675 0.323999 -4.24416 -0.0179751 0.388418 -3.92322 0.100177 -0.13731 -4.08881 
2.05034 -0.22011 -1.13495 0.33338 0.173691 -3.9954 0.321399 0.184678 -4.1326 
0.157063 0.113112 -3.90416 -0.384036 -0.127127 -4.00956 -0.0696422 -0.0795482 -4.10147 
-0.109562 0.114827 -3.8654 0.429278 0.0336167 -3.87139 0.031168 -0.0274366 -4.16452 
0.232903 -0.0507399 -3.88626 -1.251 1.31174 -0.575145 0.0237617 0.335045 -3.8207 
-0.100971 0.372188 -3.90626 0.203068 -0.376075 -3.95573 -0.0206237 -0.101795 -4.1545 
0.129818 -0.318857 -4.03736 -0.0828049 -0.310488 -3.92728 -0.0874433 0.0121427 -4.05239 
0.347823 0.325773 -4.00931 0.166117 0.079929 -3.93591 0.302451 0.161933 -4.04895 
0.0381212 0.47493 -4.27121 -0.0887081 -0.0608883 -3.69107 0.416636 1.49993 -0.309756 
0.177236 -0.288674 -4.17418 0.0529945 -0.11 -3.96043 -0.0939572 0.206187 -4.0076 
-0.444447 -0.226793 -3.91471 0.169387 -0.604198 -4.26457 -0.216253 0.0029066 -3.80099 
1.05507 -1.01425 -0.698633 0.101631 -0.11439 -4.17 -0.0731789 0.291082 -3.95804 
0.533287 -0.148513 -3.81249 -1.24106 0.511456 -0.656465 -0.272693 -0.269151 -4.0261 
0.187675 0.0585846 -3.80028 -0.017547 0.245079 -3.68985 -0.424131 0.317404 -3.98634 
-0.994762 -0.785981 -1.70544 2.69911 -0.531373 -1.49408 0.0299793 0.0493402 -3.79238 
-0.151921 -0.137149 -3.8699 0.201687 0.039535 -3.8601 0.216562 -0.016597 -3.7086 
-0.0691848 0.101161 -3.97543 -0.0585017 0.235349 -3.88095 -0.124796 0.263907 -3.67579 
0.315225 -0.138207 -3.71741 -0.0381579 0.113072 -3.82882 0.0814269 -0.136582 -3.51137 
0.120209 0.0615053 -3.77432 0.328225 -0.122411 -3.71092 0.0321879 -0.0397581 -3.68081 
-0.136999 0.337908 -3.61668 0.233976 0.209404 -3.678 0.22373 0.312418 -3.77989 
0.389902 0.0965358 -3.6884 0.197339 0.12813 -3.83422 0.430731 0.076265 -4.00632 
0.414621 -0.241373 -3.67541 -0.293501 0.141071 -3.66119 0.31162 -0.223884 -3.79366 
-0.102588 0.644017 -3.7144 0.232866 -0.0441467 -3.88916 0.11315 -0.146002 -3.68282 
-0.0599482 0.318045 -3.65393 0.0433063 -0.597081 -3.94747 -0.244942 0.579387 -4.00106 
0.107177 -0.0695293 -3.9605 -0.39386 0.190231 -3.78498 -0.193873 0.395955 -3.60307 
-0.0808435 0.327312 -3.70351 -0.104717 -0.134802 -3.49969 -0.12096 -0.253916 -3.62865 
1.56407 0.529206 2.29639 0.374842 -0.151399 -3.48735 -0.251221 0.0667267 -3.80739 
0.282315 -0.0281549 -3.7786 -0.403238 -0.0696087 -3.6 -0.0776238 -0.152334 -3.74596 
-0.097292 -0.025147 -3.81497 -0.042201 -0.220971 -3.7539 -0.300419 -0.116254 -3.89446 
-0.114717 -0.215318 -3.5038 -0.334077 -0.000123769 -3.98243 -0.140698 -0.00194807 -3.84499 
-0.136245 0.441822 -3.65199 0.0917467 0.107577 -3.60478 -0.144395 0.100381 -3.74548 
-0.186847 -0.137549 -3.69669 -0.274786 0.0631971 -3.75771 -0.295232 0.474447 -3.68165 
0.190828 0.224625 -3.52117 0.00184522 -0.0683566 -3.7982 -0.230453 0.258565 -3.90472 
-0.54179 0.305541 -3.64259 0.126331 -0.2525 -3.46859 -0.47107 0.116646 -3.89537 
0.0306289 -0.312093 -3.71541 -0.00999849 -0.258212 -3.66922 -0.207971 -0.131429 -3.85684 
0.307495 -0.334543 -3.83519 0.0841095 -0.187592 -3.62102 0.257548 -0.118126 -3.73428 
0.356183 -0.108258 -3.80122 0.263384 -0.225203 -4.11465 -0.15135 -0.134502 -3.80055 
-0.0547391 0.151089 -3.52802 -0.315155 -0.131056 -3.39281 0.0702649 -0.0190058 -3.4611 
0.176918 0.0633675 -3.41207 0.342526 0.143534 -3.59543 0.273378 0.228221 -3.36767 
0.165931 -0.19656 -3.37029 0.339806 0.302899 -3.30232 -0.111503 0.0472378 -3.37596 
0.228781 0.102705 -3.8062 -0.0673117 0.279521 -3.35445 0.233011 -0.0108837 -3.37526 
0.258657 -0.107414 -3.45889 0.154445 -0.0524968 -3.68075 -0.295846 -0.190765 -3.6048 
-0.0871792 0.49615 -3.37486 0.100468 0.141324 -3.28217 0.347458 0.176369 -3.30855 
0.515669 0.257318 -3.51695 -0.1278 -0.0263184 -3.54223 0.391948 0.472503 -3.43491 
-0.221685 -0.296246 -3.67364 0.19377 0.0828223 -3.49383 -0.0937843 0.328289 -3.54597 
-0.172431 0.0939286 -3.55219 0.123864 -0.114407 -3.41033 0.218543 -0.176936 -3.25484 
-0.219041 0.29113 -3.19622 0.0799823 -0.257369 -3.38865 0.435981 0.0887952 -3.59131 
-0.401114 0.104095 -3.13171 -0.0101411 -0.406777 -3.37301 0.120918 0.0186732 -3.60565 
0.375631 -0.591836 -3.42237 0.176282 0.39421 -3.53721 0.022631 -0.424367 -3.14013 
-0.215091 -0.0585557 -3.46203 -0.174162 -0.0723964 -3.39241 -0.486504 -0.006328 -3.61469 
-0.163202 -0.354477 -3.30495 -0.0503735 -0.537276 -3.41376 0.0273378 -0.44018 -3.24035 
-0.234725 0.149651 -3.47128 -0.00690548 0.191639 -3.41515 -0.0863164 0.0653428 -3.39452 
-0.110033 0.278647 -3.59744 0.103633 -0.170465 -3.44863 -0.0247298 -0.106284 -3.32443 
-0.27563 -0.225831 -3.45994 -0.0128624 0.13486 -3.46757 -0.156681 0.427854 -3.56928 
-0.267346 0.325663 -3.3395 0.15698 -0.209277 -3.70634 0.131571 -0.0188458 -3.69393 
0.239018 -0.203378 -3.31073 0.169088 0.254206 -3.25473 0.155984 -0.0691626 -3.24816 
0.073478 0.0432002 -3.10313 0.0537845 -0.0684973 -2.98485 0.170865 -0.172823 -3.27992 
0.00546038 -0.219266 -3.21732 -0.0330853 -0.184176 -3.30156 -0.141828 0.403274 -2.9062 
-0.278719 -0.0338364 -3.45463 -0.0967699 0.452016 -3.25781 -0.0664592 0.245653 -3.02928 
0.402298 -0.387389 -3.2156 -0.464141 0.154493 -3.19472 -0.416971 0.051282 -3.27166 
-0.275481 -0.145217 -3.32129 -0.093292 -0.29046 -3.15788 -0.176706 -0.557684 -3.0351 
0.117916 0.0234218 -3.27278 0.0717735 0.888827 -2.96995 -0.102191 -0.0719836 -3.20453 
-0.420347 0.254617 -3.19244 -0.376878 0.512612 -2.99968 -0.238391 -0.1756 -3.04766 
-0.33215 0.167584 -2.72807 -0.200121 0.142413 -3.22818 0.0817628 0.0612923 -2.89969 
-0.0183762 0.141586 -3.16222 0.264969 0.0999772 -3.04128 -0.183509 0.418697 -3.10795 
-0.0826597 0.503612 -3.06899 0.050587 0.156886 -3.14283 -0.155932 0.284171 -2.72959 

om 3 567 double
0 0 0 0 0 0 0 0 0 
0 0 0 0 0 0 0 0 0 
0 0 0 0 0 0 0 0 0 
0 0 0 0 0 0 0 0 0 
0 0 0 0 0 0 0 0 0 
0 0 0 0 0 0 0 0 0 
0 0 0 0 0 0 0 0 0 
0 0 0 0 0 0 0 0 0 
0 0 0 0 0 0 0 0 0 
0 0 0 0 0 0 0 0 0 
0 0 0 0 0 0 0 0 0 
0 0 0 0 0 0 0 0 0 
0 0 0 0 0 0 0 0 0 
0 0 0 0 0 0 0 0 0 
0 0 0 0 0 0 0 0 0 
0 0 0 0 0 0 0 0 0 
0 0 0 0 0 0 0 0 0 
0 0 0 0 0 0 0 0 0 
0 0 0 0 0 0 0 0 0 
0 0 0 0 0 0 0 0 0 
0 0 0 0 0 0 0 0 0 
0 0 0 0 0 0 0 0 0 
0 0 0 0 0 0 0 0 0 
0 0 0 0 0 0 0 0 0 
0 0 0 0 0 0 0 0 0 
0 0 0 0 0 0 0 0 0 
0 0 0 0 0 0 0 0 0 
0 0 0 0 0 0 0 0 0 
0 0 0 0 0 0 0 0 0 
0 0 0 0 0 0 0 0 0 
0 0 0 0 0 0 0 0 0 
0 0 0 0 0 0 0 0 0 
0 0 0 0 0 0 0 0 0 
0 0 0 0 0 0 0 0 0 
0 0 0 0 0 0 0 0 0 
0 0 0 0 0 0 0 0 0 
0 0 0 0 0 0 0 0 0 
0 0 0 0 0 0 0 0 0 
0 0 0 0 0 0 0 0 0 
0 0 0 0 0 0 0 0 0 
0 0 0 0 0 0 0 0 0 
0 0 0 0 0 0 0 0 0 
0 0 0 0 0 0 0 0 0 
0 0 0 0 0 0 0 0 0 
0 0 0 0 0 0 0 0 0 
0 0 0 0 0 0 0 0 0 
0 0 0 0 0 0 0 0 0 
0 0 0 0 0 0 0 0 0 
0 0 0 0 0 0 0 0 0 
0 0 0 0 0 0 0 0 0 
0 0 0 0 0 0 0 0 0 
0 0 0 0 0 0 0 0 0 
0 0 0 0 0 0 0 0 0 
0 0 0 0 0 0 0 0 0 
0 0 0 0 0 0 0 0 0 
0 0 0 0 0 0 0 0 0 
0 0 0 0 0 0 0 0 0 
0 0 0 0 0 0 0 0 0 
0 0 0 0 0 0 0 0 0 
0 0 0 0 0 0 0 0 0 
0 0 0 0 0 0 0 0 0 
0 0 0 0 0 0 0 0 0 
0 0 0 0 0 0 0 0 0 
0 0 0 0 0 0 0 0 0 
0 0 0 0 0 0 0 0 0 
0 0 0 0 0 0 0 0 0 
0 0 0 0 0 0 0 0 0 
0 0 0 0 0 0 0 0 0 
0 0 0 0 0 0 0 0 0 
0 0 0 0 0 0 0 0 0 
0 0 0 0 0 0 0 0 0 
0 0 0 0 0 0 0 0 0 
0 0 0 0 0 0 0 0 0 
0 0 0 0 0 0 0 0 0 
0 0 0 0 0 0 0 0 0 
0 0 0 0 0 0 0 0 0 
0 0 0 0 0 0 0 0 0 
0 0 0 0 0 0 0 0 0 
0 0 0 0 0 0 0 0 0 
0 0 0 0 0 0 0 0 0 
0 0 0 0 0 0 0 0 0 
0 0 0 0 0 0 0 0 0 
0 0 0 0 0 0 0 0 0 
0 0 0 0 0 0 0 0 0 
0 0 0 0 0 0 0 0 0 
0 0 0 0 0 0 0 0 0 
0 0 0 0 0 0 0 0 0 
0 0 0 0 0 0 0 0 0 
0 0 0 0 0 0 0 0 0 
0 0 0 0 0 0 0 0 0 
0 0 0 0 0 0 0 0 0 
0 0 0 0 0 0 0 0 0 
0 0 0 0 0 0 0 0 0 
0 0 0 0 0 0 0 0 0 
0 0 0 0 0 0 0 0 0 
0 0 0 0 0 0 0 0 0 
0 0 0 0 0 0 0 0 0 
0 0 0 0 0 0 0 0 0 
0 0 0 0 0 0 0 0 0 
0 0 0 0 0 0 0 0 0 
0 0 0 0 0 0 0 0 0 
0 0 0 0 0 0 0 0 0 
0 0 0 0 0 0 0 0 0 
0 0 0 0 0 0 0 0 0 
0 0 0 0 0 0 0 0 0 
0 0 0 0 0 0 0 0 0 
0 0 0 0 0 0 0 0 0 
0 0 0 0 0 0 0 0 0 
0 0 0 0 0 0 0 0 0 
0 0 0 0 0 0 0 0 0 
0 0 0 0 0 0 0 0 0 
0 0 0 0 0 0 0 0 0 
0 0 0 0 0 0 0 0 0 
0 0 0 0 0 0 0 0 0 
0 0 0 0 0 0 0 0 0 
0 0 0 0 0 0 0 0 0 
0 0 0 0 0 0 0 0 0 
0 0 0 0 0 0 0 0 0 
0 0 0 0 0 0 0 0 0 
0 0 0 0 0 0 0 0 0 
0 0 0 0 0 0 0 0 0 
0 0 0 0 0 0 0 0 0 
0 0 0 0 0 0 0 0 0 
0 0 0 0 0 0 0 0 0 
0 0 0 0 0 0 0 0 0 
0 0 0 0 0 0 0 0 0 
0 0 0 0 0 0 0 0 0 
0 0 0 0 0 0 0 0 0 
0 0 0 0 0 0 0 0 0 
0 0 0 0 0 0 0 0 0 
0 0 0 0 0 0 0 0 0 
0 0 0 0 0 0 0 0 0 
0 0 0 0 0 0 0 0 0 
0 0 0 0 0 0 0 0 0 
0 0 0 0 0 0 0 0 0 
0 0 0 0 0 0 0 0 0 
0 0 0 0 0 0 0 0 0 
0 0 0 0 0 0 0 0 0 
0 0 0 0 0 0 0 0 0 
0 0 0 0 0 0 0 0 0 
0 0 0 0 0 0 0 0 0 
0 0 0 0 0 0 0 0 0 
0 0 0 0 0 0 0 0 0 
0 0 0 0 0 0 0 0 0 
0 0 0 0 0 0 0 0 0 
0 0 0 0 0 0 0 0 0 
0 0 0 0 0 0 0 0 0 
0 0 0 0 0 0 0 0 0 
0 0 0 0 0 0 0 0 0 
0 0 0 0 0 0 0 0 0 
0 0 0 0 0 0 0 0 0 
0 0 0 0 0 0 0 0 0 
0 0 0 0 0 0 0 0 0 
0 0 0 0 0 0 0 0 0 
0 0 0 0 0 0 0 0 0 
0 0 0 0 0 0 0 0 0 
0 0 0 0 0 0 0 0 0 
0 0 0 0 0 0 0 0 0 
0 0 0 0 0 0 0 0 0 
0 0 0 0 0 0 0 0 0 
0 0 0 0 0 0 0 0 0 
0 0 0 0 0 0 0 0 0 
0 0 0 0 0 0 0 0 0 
0 0 0 0 0 0 0 0 0 
0 0 0 0 0 0 0 0 0 
0 0 0 0 0 0 0 0 0 
0 0 0 0 0 0 0 0 0 
0 0 0 0 0 0 0 0 0 
0 0 0 0 0 0 0 0 0 
0 0 0 0 0 0 0 0 0 
0 0 0 0 0 0 0 0 0 
0 0 0 0 0 0 0 0 0 
0 0 0 0 0 0 0 0 0 
0 0 0 0 0 0 0 0 0 
0 0 0 0 0 0 0 0 0 
0 0 0 0 0 0 0 0 0 
0 0 0 0 0 0 0 0 0 
0 0 0 0 0 0 0 0 0 
0 0 0 0 0 0 0 0 0 
0 0 0 0 0 0 0 0 0 
0 0 0 0 0 0 0 0 0 
0 0 0 0 0 0 0 0 0 
0 0 0 0 0 0 0 0 0 
0 0 0 0 0 0 0 0 0 
0 0 0 0 0 0 0 0 0 
0 0 0 0 0 0 0 0 0 
0 0 0 0 0 0 0 0 0 
0 0 0 0 0 0 0 0 0 
0 0 0 0 0 0 0 0 0 

bottom 1 567 double
-0.0936828 -0.0936828 -0.0936828 -0.0936828 -0.0936828 -0.0936828 -0.0936828 -0.0936828 -0.0936828 
-0.0936828 -0.0936828 -0.0936828 -0.0936828 -0.0936828 -0.0936828 -0.0936828 -0.0936828 -0.0936828 
-0.0936828 -0.0936828 -0.0936828 -0.0936828 -0.0936828 -0.0936828 -0.0936828 -0.0936828 -0.0936828 
-0.0936828 -0.0936828 -0.0936828 -0.0936828 -0.0936828 -0.0936828 -0.0936828 -0.0936828 -0.0936828 
-0.0936828 -0.0936828 -0.0936828 -0.0936828 -0.0936828 -0.0936828 -0.0936828 -0.0936828 -0.0936828 
-0.0936828 -0.0936828 -0.0936828 -0.0936828 -0.0936828 -0.0936828 -0.0936828 -0.0936828 -0.0936828 
-0.0936828 -0.0936828 -0.0936828 -0.0936828 -0.0936828 -0.0936828 -0.0936828 -0.0936828 -0.0936828 
-0.0936828 -0.0936828 -0.0936828 -0.0936828 -0.0936828 -0.0936828 -0.0936828 -0.0936828 -0.0936828 
-0.0936828 -0.0936828 -0.0936828 -0.0936828 -0.0936828 -0.0936828 -0.0936828 -0.0936828 -0.0936828 
-0.0936828 -0.0936828 -0.0936828 -0.0936828 -0.0936828 -0.0936828 -0.0936828 -0.0936828 -0.0936828 
-0.0936828 -0.0936828 -0.0936828 -0.0936828 -0.0936828 -0.0936828 -0.0936828 -0.0936828 -0.0936828 
-0.0936828 -0.0936828 -0.0936828 -0.0936828 -0.0936828 -0.0936828 -0.0936828 -0.0936828 -0.0936828 
-0.0936828 -0.0936828 -0.0936828 -0.0936828 -0.0936828 -0.0936828 -0.0936828 -0.0936828 -0.0936828 
-0.0936828 -0.0936828 -0.0936828 -0.0936828 -0.0936828 -0.0936828 -0.0936828 -0.0936828 -0.0936828 
-0.0936828 -0.0936828 -0.0936828 -0.0936828 -0.0936828 -0.0936828 -0.0936828 -0.0936828 -0.0936828 
-0.0936828 -0.0936828 -0.0936828 -0.0936828 -0.0936828 -0.0936828 -0.0936828 -0.0936828 -0.0936828 
-0.0936828 -0.0936828 -0.0936828 -0.0936828 -0.0936828 -0.0936828 -0.0936828 -0.0936828 -0.0936828 
-0.0936828 -0.0936828 -0.0936828 -0.0936828 -0.0936828 -0.0936828 -0.0936828 -0.0936828 -0.0936828 
-0.0936828 -0.0936828 -0.0936828 -0.0936828 -0.0936828 -0.0936828 -0.0936828 -0.0936828 -0.0936828 
-0.0936828 -0.0936828 -0.0936828 -0.0936828 -0.0936828 -0.0936828 -0.0936828 -0.0936828 -0.0936828 
-0.0936828 -0.0936828 -0.0936828 -0.0936828 -0.0936828 -0.0936828 -0.0936828 -0.0936828 -0.0936828 
-0.0936828 -0.0936828 -0.0936828 -0.0936828 -0.0936828 -0.0936828 -0.0936828 -0.0936828 -0.0936828 
-0.0936828 -0.0936828 -0.0936828 -0.0936828 -0.0936828 -0.0936828 -0.0936828 -0.0936828 -0.0936828 
-0.0936828 -0.0936828 -0.0936828 -0.0936828 -0.0936828 -0.0936828 -0.0936828 -0.0936828 -0.0936828 
-0.0936828 -0.0936828 -0.0936828 -0.0936828 -0.0936828 -0.0936828 -0.0936828 -0.0936828 -0.0936828 
-0.0936828 -0.0936828 -0.0936828 -0.0936828 -0.0936828 -0.0936828 -0.0936828 -0.0936828 -0.0936828 
-0.0936828 -0.0936828 -0.0936828 -0.0936828 -0.0936828 -0.0936828 -0.0936828 -0.0936828 -0.0936828 
-0.0936828 -0.0936828 -0.0936828 -0.0936828 -0.0936828 -0.0936828 -0.0936828 -0.0936828 -0.0936828 
-0.0936828 -0.0936828 -0.0936828 -0.0936828 -0.0936828 -0.0936828 -0.0936828 -0.0936828 -0.0936828 
-0.0936828 -0.0936828 -0.0936828 -0.0936828 -0.0936828 -0.0936828 -0.0936828 -0.0936828 -0.0936828 
-0.0936828 -0.0936828 -0.0936828 -0.0936828 -0.0936828 -0.0936828 -0.0936828 -0.0936828 -0.0936828 
-0.0936828 -0.0936828 -0.0936828 -0.0936828 -0.0936828 -0.0936828 -0.0936828 -0.0936828 -0.0936828 
-0.0936828 -0.0936828 -0.0936828 -0.0936828 -0.0936828 -0.0936828 -0.0936828 -0.0936828 -0.0936828 
-0.0936828 -0.0936828 -0.0936828 -0.0936828 -0.0936828 -0.0936828 -0.0936828 -0.0936828 -0.0936828 
-0.0936828 -0.0936828 -0.0936828 -0.0936828 -0.0936828 -0.0936828 -0.0936828 -0.0936828 -0.0936828 
-0.0936828 -0.0936828 -0.0936828 -0.0936828 -0.0936828 -0.0936828 -0.0936828 -0.0936828 -0.0936828 
-0.0936828 -0.0936828 -0.0936828 -0.0936828 -0.0936828 -0.0936828 -0.0936828 -0.0936828 -0.0936828 
-0.0936828 -0.0936828 -0.0936828 -0.0936828 -0.0936828 -0.0936828 -0.0936828 -0.0936828 -0.0936828 
-0.0936828 -0.0936828 -0.0936828 -0.0936828 -0.0936828 -0.0936828 -0.0936828 -0.0936828 -0.0936828 
-0.0936828 -0.0936828 -0.0936828 -0.0936828 -0.0936828 -0.0936828 -0.0936828 -0.0936828 -0.0936828 
-0.0936828 -0.0936828 -0.0936828 -0.0936828 -0.0936828 -0.0936828 -0.0936828 -0.0936828 -0.0936828 
-0.0936828 -0.0936828 -0.0936828 -0.0936828 -0.0936828 -0.0936828 -0.0936828 -0.0936828 -0.0936828 
-0.0936828 -0.0936828 -0.0936828 -0.0936828 -0.0936828 -0.0936828 -0.0936828 -0.0936828 -0.0936828 
-0.0936828 -0.0936828 -0.0936828 -0.0936828 -0.0936828 -0.0936828 -0.0936828 -0.0936828 -0.0936828 
-0.0936828 -0.0936828 -0.0936828 -0.0936828 -0.0936828 -0.0936828 -0.0936828 -0.0936828 -0.0936828 
-0.0936828 -0.0936828 -0.0936828 -0.0936828 -0.0936828 -0.0936828 -0.0936828 -0.0936828 -0.0936828 
-0.0936828 -0.0936828 -0.0936828 -0.0936828 -0.0936828 -0.0936828 -0.0936828 -0.0936828 -0.0936828 
-0.0936828 -0.0936828 -0.0936828 -0.0936828 -0.0936828 -0.0936828 -0.0936828 -0.0936828 -0.0936828 
-0.0936828 -0.0936828 -0.0936828 -0.0936828 -0.0936828 -0.0936828 -0.0936828 -0.0936828 -0.0936828 
-0.0936828 -0.0936828 -0.0936828 -0.0936828 -0.0936828 -0.0936828 -0.0936828 -0.0936828 -0.0936828 
-0.0936828 -0.0936828 -0.0936828 -0.0936828 -0.0936828 -0.0936828 -0.0936828 -0.0936828 -0.0936828 
-0.0936828 -0.0936828 -0.0936828 -0.0936828 -0.0936828 -0.0936828 -0.0936828 -0.0936828 -0.0936828 
-0.0936828 -0.0936828 -0.0936828 -0.0936828 -0.0936828 -0.0936828 -0.0936828 -0.0936828 -0.0936828 
-0.0936828 -0.0936828 -0.0936828 -0.0936828 -0.0936828 -0.0936828 -0.0936828 -0.0936828 -0.0936828 
-0.0936828 -0.0936828 -0.0936828 -0.0936828 -0.0936828 -0.0936828 -0.0936828 -0.0936828 -0.0936828 
-0.0936828 -0.0936828 -0.0936828 -0.0936828 -0.0936828 -0.0936828 -0.0936828 -0.0936828 -0.0936828 
-0.0936828 -0.0936828 -0.0936828 -0.0936828 -0.0936828 -0.0936828 -0.0936828 -0.0936828 -0.0936828 
-0.0936828 -0.0936828 -0.0936828 -0.0936828 -0.0936828 -0.0936828 -0.0936828 -0.0936828 -0.0936828 
-0.0936828 -0.0936828 -0.0936828 -0.0936828 -0.0936828 -0.0936828 -0.0936828 -0.0936828 -0.0936828 
-0.0936828 -0.0936828 -0.0936828 -0.0936828 -0.0936828 -0.0936828 -0.0936828 -0.0936828 -0.0936828 
-0.0936828 -0.0936828 -0.0936828 -0.0936828 -0.0936828 -0.0936828 -0.0936828 -0.0936828 -0.0936828 
-0.0936828 -0.0936828 -0.0936828 -0.0936828 -0.0936828 -0.0936828 -0.0936828 -0.0936828 -0.0936828 
-0.0936828 -0.0936828 -0.0936828 -0.0936828 -0.0936828 -0.0936828 -0.0936828 -0.0936828 -0.0936828 

top 1 567 double
0.00631716 0.00631716 0.00631716 0.00631716 0.00631716 0.00631716 0.00631716 0.00631716 0.00631716 
0.00631716 0.00631716 0.00631716 0.00631716 0.00631716 0.00631716 0.00631716 0.00631716 0.00631716 
0.00631716 0.00631716 0.00631716 0.00631716 0.00631716 0.00631716 0.00631716 0.00631716 0.00631716 
0.00631716 0.00631716 0.00631716 0.00631716 0.00631716 0.00631716 0.00631716 0.00631716 0.00631716 
0.00631716 0.00631716 0.00631716 0.00631716 0.00631716 0.00631716 0.00631716 0.00631716 0.00631716 
0.00631716 0.00631716 0.00631716 0.00631716 0.00631716 0.00631716 0.00631716 0.00631716 0.00631716 
0.00631716 0.00631716 0.00631716 0.00631716 0.00631716 0.00631716 0.00631716 0.00631716 0.00631716 
0.00631716 0.00631716 0.00631716 0.00631716 0.00631716 0.00631716 0.00631716 0.00631716 0.00631716 
0.00631716 0.00631716 0.00631716 0.00631716 0.00631716 0.00631716 0.00631716 0.00631716 0.00631716 
0.00631716 0.00631716 0.00631716 0.00631716 0.00631716 0.00631716 0.00631716 0.00631716 0.00631716 
0.00631716 0.00631716 0.00631716 0.00631716 0.00631716 0.00631716 0.00631716 0.00631716 0.00631716 
0.00631716 0.00631716 0.00631716 0.00631716 0.00631716 0.00631716 0.00631716 0.00631716 0.00631716 
0.00631716 0.00631716 0.00631716 0.00631716 0.00631716 0.00631716 0.00631716 0.00631716 0.00631716 
0.00631716 0.00631716 0.00631716 0.00631716 0.00631716 0.00631716 0.00631716 0.00631716 0.00631716 
0.00631716 0.00631716 0.00631716 0.00631716 0.00631716 0.00631716 0.00631716 0.00631716 0.00631716 
0.00631716 0.00631716 0.00631716 0.00631716 0.00631716 0.00631716 0.00631716 0.00631716 0.00631716 
0.00631716 0.00631716 0.00631716 0.00631716 0.00631716 0.00631716 0.00631716 0.00631716 0.00631716 
0.00631716 0.00631716 0.00631716 0.00631716 0.00631716 0.00631716 0.00631716 0.00631716 0.00631716 
0.00631716 0.00631716 0.00631716 0.00631716 0.00631716 0.00631716 0.00631716 0.00631716 0.00631716 
0.00631716 0.00631716 0.00631716 0.00631716 0.00631716 0.00631716 0.00631716 0.00631716 0.00631716 
0.00631716 0.00631716 0.00631716 0.00631716 0.00631716 0.00631716 0.00631716 0.00631716 0.00631716 
0.00631716 0.00631716 0.00631716 0.00631716 0.00631716 0.00631716 0.00631716 0.00631716 0.00631716 
0.00631716 0.00631716 0.00631716 0.00631716 0.00631716 0.00631716 0.00631716 0.00631716 0.00631716 
0.00631716 0.00631716 0.00631716 0.00631716 0.00631716 0.00631716 0.00631716 0.00631716 0.00631716 
0.00631716 0.00631716 0.00631716 0.00631716 0.00631716 0.00631716 0.00631716 0.00631716 0.00631716 
0.00631716 0.00631716 0.00631716 0.00631716 0.00631716 0.00631716 0.00631716 0.00631716 0.00631716 
0.00631716 0.00631716 0.00631716 0.00631716 0.00631716 0.00631716 0.00631716 0.00631716 0.00631716 
0.00631716 0.00631716 0.00631716 0.00631716 0.00631716 0.00631716 0.00631716 0.00631716 0.00631716 
0.00631716 0.00631716 0.00631716 0.00631716 0.00631716 0.00631716 0.00631716 0.00631716 0.00631716 
0.00631716 0.00631716 0.00631716 0.00631716 0.00631716 0.00631716 0.00631716 0.00631716 0.00631716 
0.00631716 0.00631716 0.00631716 0.00631716 0.00631716 0.00631716 0.00631716 0.00631716 0.00631716 
0.00631716 0.00631716 0.00631716 0.00631716 0.00631716 0.00631716 0.00631716 0.00631716 0.00631716 
0.00631716 0.00631716 0.00631716 0.00631716 0.00631716 0.00631716 0.00631716 0.00631716 0.00631716 
0.00631716 0.00631716 0.00631716 0.00631716 0.00631716 0.00631716 0.00631716 0.00631716 0.00631716 
0.00631716 0.00631716 0.00631716 0.00631716 0.00631716 0.00631716 0.00631716 0.00631716 0.00631716 
0.00631716 0.00631716 0.00631716 0.00631716 0.00631716 0.00631716 0.00631716 0.00631716 0.00631716 
0.00631716 0.00631716 0.00631716 0.00631716 0.00631716 0.00631716 0.00631716 0.00631716 0.00631716 
0.00631716 0.00631716 0.00631716 0.00631716 0.00631716 0.00631716 0.00631716 0.00631716 0.00631716 
0.00631716 0.00631716 0.00631716 0.00631716 0.00631716 0.00631716 0.00631716 0.00631716 0.00631716 
0.00631716 0.00631716 0.00631716 0.00631716 0.00631716 0.00631716 0.00631716 0.00631716 0.00631716 
0.00631716 0.00631716 0.00631716 0.00631716 0.00631716 0.00631716 0.00631716 0.00631716 0.00631716 
0.00631716 0.00631716 0.00631716 0.00631716 0.00631716 0.00631716 0.00631716 0.00631716 0.00631716 
0.00631716 0.00631716 0.00631716 0.00631716 0.00631716 0.00631716 0.00631716 0.00631716 0.00631716 
0.00631716 0.00631716 0.00631716 0.00631716 0.00631716 0.00631716 0.00631716 0.00631716 0.00631716 
0.00631716 0.00631716 0.00631716 0.00631716 0.00631716 0.00631716 0.00631716 0.00631716 0.00631716 
0.00631716 0.00631716 0.00631716 0.00631716 0.00631716 0.00631716 0.00631716 0.00631716 0.00631716 
0.00631716 0.00631716 0.00631716 0.00631716 0.00631716 0.00631716 0.00631716 0.00631716 0.00631716 
0.00631716 0.00631716 0.00631716 0.00631716 0.00631716 0.00631716 0.00631716 0.00631716 0.00631716 
0.00631716 0.00631716 0.00631716 0.00631716 0.00631716 0.00631716 0.00631716 0.00631716 0.00631716 
0.00631716 0.00631716 0.00631716 0.00631716 0.00631716 0.00631716 0.00631716 0.00631716 0.00631716 
0.00631716 0.00631716 0.00631716 0.00631716 0.00631716 0.00631716 0.00631716 0.00631716 0.00631716 
0.00631716 0.00631716 0.00631716 0.00631716 0.00631716 0.00631716 0.00631716 0.00631716 0.00631716 
0.00631716 0.00631716 0.00631716 0.00631716 0.00631716 0.00631716 0.00631716 0.00631716 0.00631716 
0.00631716 0.00631716 0.00631716 0.00631716 0.00631716 0.00631716 0.00631716 0.00631716 0.00631716 
0.00631716 0.00631716 0.00631716 0.00631716 0.00631716 0.00631716 0.00631716 0.00631716 0.00631716 
0.00631716 0.00631716 0.00631716 0.00631716 0.00631716 0.00631716 0.00631716 0.00631716 0.00631716 
0.00631716 0.00631716 0.00631716 0.00631716 0.00631716 0.00631716 0.00631716 0.00631716 0.00631716 
0.00631716 0.00631716 0.00631716 0.00631716 0.00631716 0.00631716 0.00631716 0.00631716 0.00631716 
0.00631716 0.00631716 0.00631716 0.00631716 0.00631716 0.00631716 0.00631716 0.00631716 0.00631716 
0.00631716 0.00631716 0.00631716 0.00631716 0.00631716 0.00631716 0.00631716 0.00631716 0.00631716 
0.00631716 0.00631716 0.00631716 0.00631716 0.00631716 0.00631716 0.00631716 0.00631716 0.00631716 
0.00631716 0.00631716 0.00631716 0.00631716 0.00631716 0.00631716 0.00631716 0.00631716 0.00631716 
0.00631716 0.00631716 0.00631716 0.00631716 0.00631716 0.00631716 0.00631716 0.00631716 0.00631716 

