# vtk DataFile Version 4.0
vtk output
ASCII
DATASET POLYDATA
FIELD FieldData 4
domain 1 4 string
domain_min:-5|-5|-5
domain_max:5|5|5
cell_size:0.01|0.01|0.01
boundary:1|1|1

variables 1 8 string
T:0.99
dt:0.0005
A:0.632194
V:-0.77559
Z:-0.000547932
write_case:1
substeps:10
all_steps:1980

constants 1 11 string
L:0.1
csize:0.01
R:0.004
mass:0.00210445
E:2.06e+06
nu:0.33
M:20
freq:10
gamma:62.8319
S:78956.8
g:0|0|-9.81

equations 1 9 string
time:T=(T+dt)#true
eq:a=(dem_l(v,om,R,mass,E,nu,0.1)/mass)#true
tank_acceleration:A=(((-(transpose((fsum(a)*mass))*e_k))-(S*Z))/M)#true
iv:v=euler(v,((a+g)-(A*e_k)),dt)#true
ia:r=euler(r,v,dt)#true
tank_velocity:V=euler(V,A,dt)#true
tank_position:Z=euler(Z,V,dt)#true
bottom:bottom=(Z-0.05)#true
top:top=(Z+0.05)#true

POINTS 567 float
-0.0240327 -0.041446 -0.0405062 -0.0141864 -0.0405991 -0.0405107 0.0242178 -0.0423201 -0.0414338 
0.0315898 -0.0447605 -0.0409072 0.00642277 -0.0393765 -0.04331 0.0109005 -0.0220689 -0.0437732 
0.024741 -0.0217753 -0.0402071 0.0313661 -0.0299925 -0.0424111 0.0460524 -0.0256125 -0.0400753 
-0.0217921 -0.00414915 -0.0407043 0.0381421 0.00592651 -0.0419814 -0.0259053 0.0183119 -0.0405555 
-0.00732745 0.0111918 -0.04107 0.00913116 0.0378317 -0.0400465 -0.00320666 0.0454944 -0.0410365 
0.042082 0.0432751 -0.0400713 -0.0460078 -0.0442048 -0.034972 -0.0265288 -0.0448452 -0.0323477 
0.0285056 -0.0421838 -0.0329285 0.0447725 -0.0404964 -0.0321395 -0.04112 -0.0378151 -0.0325571 
-0.0376848 -0.0317102 -0.0371819 -0.0224396 -0.0326338 -0.0367814 -0.00748424 -0.0350603 -0.0368882 
-0.000571678 -0.0388771 -0.0327114 0.00801981 -0.0328221 -0.0388032 0.0131271 -0.0385668 -0.0346897 
0.0183433 -0.0313404 -0.0371079 0.0366519 -0.0380559 -0.0392242 0.0452165 -0.0333754 -0.035309 
-0.0346325 -0.0204048 -0.0365495 -0.0247857 -0.0240487 -0.0310128 -0.0158202 -0.0203951 -0.0365875 
-0.00890766 -0.0245883 -0.0329816 0.00697344 -0.0219949 -0.0320701 0.0262284 -0.0276134 -0.0332399 
-0.0453979 -0.0177504 -0.0360665 -0.0224077 -0.0154558 -0.0375318 -0.0296983 -0.0155823 -0.0314778 
-0.00842548 -0.0102633 -0.0344467 0.000904256 -0.0151982 -0.0315632 0.023971 -0.0144951 -0.0370383 
0.0312603 -0.0180125 -0.0342815 0.0451888 -0.0165715 -0.0340109 -0.0459767 -0.00427072 -0.0360891 
-0.0384744 -0.00206854 -0.0378849 -0.0349614 -0.00990586 -0.0350807 -0.0214693 -0.00734944 -0.0331396 
-0.0106009 -0.00203561 -0.0362232 0.00202223 -0.000558036 -0.0313589 0.0153578 -0.0083519 -0.0377906 
0.0151761 -0.00013542 -0.035565 0.0240797 -0.0034325 -0.0356183 0.0296476 -0.00995669 -0.0330741 
0.0397233 -0.0044334 -0.0369055 -0.0456244 0.00416415 -0.0304094 -0.0283983 0.000245771 -0.0307297 
-0.0173039 0.00618157 -0.0323505 -0.0049953 0.00449926 -0.0317246 0.00398476 0.009178 -0.0348295 
-0.041556 0.0186854 -0.0357069 -0.030104 0.0108218 -0.0381552 -0.0344655 0.0162222 -0.0311409 
-0.0263034 0.0158189 -0.030906 -0.0172664 0.0157909 -0.0319494 0.000768803 0.0157678 -0.0394484 
0.0301118 0.0119568 -0.0379793 -0.0402344 0.0261367 -0.0319727 -0.0187699 0.0251751 -0.032156 
-0.0103885 0.0274124 -0.0340227 -0.00752994 0.0200528 -0.0348885 0.0155559 0.0297641 -0.039975 
0.0109613 0.0235431 -0.0370057 0.0382534 0.0213151 -0.0370472 0.0421855 0.0283117 -0.0331773 
-0.0458378 0.0327222 -0.0360635 -0.03918 0.038772 -0.0344835 -0.0292822 0.0310694 -0.0300396 
-0.0231541 0.0381435 -0.0326172 -0.0114955 0.035238 -0.0300272 -0.00390732 0.0323128 -0.0326913 
0.0303015 0.0358442 -0.0339022 0.0403634 0.0369882 -0.0316698 -0.0275819 0.0455176 -0.0328106 
-0.0201013 0.0452002 -0.0350585 -0.00950595 0.0428263 -0.0303019 0.00913705 0.0446826 -0.0338589 
0.0174711 0.0416015 -0.0381211 0.0237176 0.0453196 -0.0345361 0.0462053 0.0450864 -0.0324671 
-0.0393648 -0.0450383 -0.0237937 -0.0164713 -0.0453677 -0.0247973 -0.00464574 -0.0457994 -0.021115 
0.0227168 -0.0430959 -0.0201559 0.0223884 -0.0451207 -0.0282826 0.0379382 -0.0460573 -0.0283586 
0.033383 -0.0421215 -0.0233893 0.0455371 -0.0438662 -0.0225888 -0.0460218 -0.0311817 -0.0226301 
-0.0370727 -0.0335359 -0.0208161 -0.0256404 -0.0343668 -0.0202031 -0.0245438 -0.0358266 -0.0279058 
-0.0170921 -0.0346733 -0.0249939 -0.000659332 -0.0300685 -0.0293508 -0.00244791 -0.0352165 -0.0215865 
0.00783506 -0.0358542 -0.0263486 0.0246988 -0.0365155 -0.0264487 0.0336697 -0.0305866 -0.0247296 
0.0399967 -0.0376907 -0.0254781 0.0460267 -0.0366732 -0.0200295 -0.0449525 -0.0211697 -0.022599 
-0.0312513 -0.0271531 -0.0206778 -0.0338616 -0.0297804 -0.0281873 -0.00340118 -0.0206768 -0.0277903 
0.00296838 -0.0267868 -0.0224099 0.00939678 -0.0222287 -0.0209602 0.0118083 -0.0282952 -0.0298504 
0.020998 -0.021962 -0.0296158 0.036141 -0.0234933 -0.0261094 0.0440352 -0.0218467 -0.0258726 
-0.0462341 -0.0107554 -0.029358 -0.0384347 -0.010778 -0.0234032 -0.0351418 -0.0182103 -0.0261398 
-0.0283645 -0.0168948 -0.0217932 -0.0209082 -0.0186446 -0.0250265 -0.0129065 -0.0179914 -0.0210316 
-0.0115851 -0.0171503 -0.029481 -0.000629197 -0.0165997 -0.0206653 -0.00581645 -0.0111731 -0.0244051 
0.00727269 -0.0138252 -0.0242289 0.0156538 -0.0183418 -0.0242191 0.0259212 -0.0199423 -0.0236825 
0.0243211 -0.012458 -0.027583 0.0338186 -0.0175098 -0.0207747 0.042076 -0.0137299 -0.023341 
-0.0456137 -0.0031722 -0.0219936 -0.0397005 -0.00356774 -0.0279176 -0.0138487 -0.00893898 -0.0229382 
-0.00249665 -0.00289986 -0.0236519 0.00773574 -0.00310736 -0.0253256 0.0278805 -0.00907945 -0.0206233 
0.0205262 -0.00552691 -0.0286516 0.0365584 -0.000675643 -0.0273094 -0.0430242 0.00934551 -0.0224657 
-0.0372544 0.00523853 -0.0278675 -0.0226143 0.000412657 -0.0219272 -0.0273464 0.00822238 -0.0296841 
-0.0182954 0.00823227 -0.022402 -0.00920041 0.00106124 -0.0230401 0.00507471 0.00495941 -0.0201574 
0.0193297 0.00695672 -0.0297454 0.016253 0.000133916 -0.0208574 0.0249907 0.00380423 -0.0252714 
0.0357197 0.007521 -0.0244256 0.0447158 0.00891346 -0.028422 0.0445569 0.00116899 -0.0262605 
-0.0458707 0.0138494 -0.0296103 -0.00175031 0.0163123 -0.0255211 0.0112762 0.0114299 -0.0238664 
0.0234687 0.0196882 -0.0295672 0.0296101 0.0101697 -0.0285559 0.0313808 0.017583 -0.0235664 
0.0417166 0.017122 -0.026574 -0.0446837 0.0225493 -0.0234883 -0.0272993 0.0280026 -0.021194 
-0.00106412 0.0246056 -0.0268301 0.00592278 0.0205669 -0.0283166 0.00415726 0.0228696 -0.0203536 
0.0176813 0.0234791 -0.0201851 0.0151055 0.0221591 -0.0292801 0.0250001 0.0267509 -0.0226574 
0.0281229 0.0286343 -0.0296011 0.0377848 0.0244151 -0.0275684 0.0436523 0.0239613 -0.0217805 
-0.0456206 0.0393295 -0.0266011 -0.0386243 0.0359658 -0.0239432 -0.0297705 0.0373464 -0.0247017 
-0.00989549 0.0343548 -0.0200575 0.00205415 0.0383641 -0.0241618 0.0151962 0.0311495 -0.0209478 
0.0156592 0.0381601 -0.0276531 0.0204549 0.0307062 -0.0297904 0.0351053 0.032183 -0.0271104 
0.0449279 0.0341173 -0.0248612 -0.0440286 0.0451761 -0.0206032 -0.0385401 0.0438117 -0.0267229 
-0.0221134 0.0459218 -0.0222696 -0.0150069 0.0408518 -0.0232816 -0.0051854 0.0410189 -0.0213569 
-0.000586555 0.0455942 -0.0281053 0.0102214 0.043486 -0.0242412 0.0311567 0.0427437 -0.0237913 
-0.0439107 -0.0460599 -0.0170996 -0.0336246 -0.0407886 -0.0173316 -0.0270548 -0.0455543 -0.0174704 
-0.0022256 -0.0432394 -0.0123764 0.00561208 -0.0460104 -0.0197827 0.0107018 -0.0434186 -0.0123771 
0.017916 -0.0401944 -0.0143375 0.0294997 -0.045628 -0.0131759 0.0371916 -0.0417599 -0.0120416 
-0.0444352 -0.0383433 -0.0196659 -0.0405373 -0.0352899 -0.011187 -0.0277875 -0.0391598 -0.0112239 
-0.0185102 -0.039368 -0.011703 -0.0109369 -0.0351233 -0.0168989 0.00894527 -0.031634 -0.0184067 
0.00506041 -0.0380462 -0.0152159 0.0167915 -0.0326063 -0.0168518 0.0294992 -0.0374669 -0.0136774 
0.0365794 -0.0329126 -0.0156227 0.0447719 -0.035377 -0.0100076 -0.0429135 -0.0230968 -0.0133801 
-0.0328586 -0.0235704 -0.0127364 -0.0375882 -0.0208122 -0.0190123 -0.0236883 -0.0221837 -0.0154737 
-0.0272943 -0.0294608 -0.0116472 -0.0168576 -0.0253945 -0.0189817 -0.00907236 -0.0243406 -0.0169372 
-0.00460492 -0.0274937 -0.0104258 0.00438419 -0.0248831 -0.014895 0.0193249 -0.0223112 -0.0174752 
0.0231378 -0.0288793 -0.0140319 0.0346187 -0.0256965 -0.0167964 0.0436843 -0.026495 -0.014131 
-0.0460415 -0.0111267 -0.0195344 -0.038232 -0.0166168 -0.0102548 -0.034888 -0.0122151 -0.0164621 
-0.0285199 -0.0164153 -0.0124478 -0.0193233 -0.0128987 -0.0177817 -0.00957791 -0.01188 -0.0155588 
-0.00085465 -0.0189798 -0.011572 0.00731779 -0.0133324 -0.0157713 0.0140388 -0.0120701 -0.0105461 
0.0124407 -0.0196955 -0.0102671 0.024005 -0.0123417 -0.013465 0.0316907 -0.0162814 -0.0128054 
0.0390123 -0.018392 -0.0102446 0.0378737 -0.0109833 -0.0171455 -0.0323183 -0.00363176 -0.0187005 
-0.0270001 -0.00900663 -0.0148619 -0.00103058 -0.00914867 -0.0163973 0.016811 -0.00822117 -0.0192658 
0.0235222 -0.0025496 -0.0135028 0.03578 -0.00151094 -0.0187074 0.0447625 -0.00909441 -0.0117265 
-0.045923 0.00909705 -0.0109757 -0.0389782 0.00389141 -0.0185752 -0.0255992 0.00337223 -0.0127695 
-0.0152431 0.000138635 -0.0118723 -0.000752731 0.000621608 -0.0136662 -0.00559968 0.00703937 -0.011715 
0.0300227 0.00419527 -0.0170352 0.0381684 0.00594748 -0.0149743 0.0435582 0.00937636 -0.0196132 
-0.0408575 0.0161753 -0.0148875 -0.0342401 0.0161018 -0.0192995 -0.0271161 0.010833 -0.0152833 
-0.0197394 0.0152393 -0.0169779 -0.0103301 0.0134043 -0.0161759 0.00777258 0.0144524 -0.0163357 
0.000874202 0.0106186 -0.0161994 0.0233728 0.0124569 -0.0195328 0.0337516 0.0131915 -0.0151463 
0.0451341 0.0115903 -0.0114345 -0.0385637 0.0257588 -0.019057 -0.029492 0.0221274 -0.0135533 
-0.0152174 0.0271817 -0.0161394 -0.00743444 0.0242256 -0.0137369 -0.001802 0.0277785 -0.0197039 
0.00255775 0.0208355 -0.0117895 0.0130637 0.0263049 -0.0134476 0.0300684 0.0297218 -0.0150084 
0.0339509 0.0232609 -0.0125389 -0.0451261 0.0311961 -0.0199692 -0.0308493 0.030263 -0.0135423 
-0.0319701 0.038703 -0.013795 -0.0233349 0.0342575 -0.0153509 -0.014229 0.0347539 -0.0129491 
0.00938436 0.0349407 -0.0113668 0.0155487 0.0396898 -0.0116139 0.025385 0.0374171 -0.0115872 
0.0263167 0.0350229 -0.0196716 0.0365542 0.0396445 -0.0168751 0.0384041 0.0322841 -0.0191263 
0.0449251 0.0366828 -0.0132847 -0.0256679 0.0437395 -0.0104751 -0.000110175 0.0459254 -0.0101814 
-0.00786459 0.0449794 -0.0149177 0.00852645 0.0431755 -0.0130433 0.0240931 0.0458533 -0.0185652 
0.0307996 0.0454541 -0.0125534 0.0439207 0.0430572 -0.0199833 -0.0452266 -0.0443746 -0.00954727 
-0.0355596 -0.0418695 -0.00478583 -0.0221475 -0.0452317 -0.0042861 -0.0149343 -0.0417591 -0.001438 
-0.0119972 -0.0460393 -0.00924976 0.00289891 -0.0459363 -0.00464185 0.0109539 -0.0437612 -0.00163608 
0.0241445 -0.0429557 -0.0079448 0.0449811 -0.0442715 -0.00812184 -0.0462678 -0.0301102 -0.00984566 
-0.0455359 -0.0352882 -0.00250053 -0.0323418 -0.0324227 -0.00434259 -0.0199736 -0.0313061 -0.00768385 
-0.0103275 -0.0367365 -0.00728343 -0.00279942 -0.0349098 -0.00970718 -0.0069009 -0.0392753 -0.000498421 
0.00490953 -0.0314152 -0.00847772 0.0116936 -0.0360132 -0.00600844 0.0195042 -0.0390748 -0.000163701 
0.0200713 -0.0312277 -0.00376992 0.0297834 -0.0361269 -0.00442772 0.0406806 -0.0344351 -0.00234277 
-0.0449208 -0.0233138 -0.00502808 -0.0107087 -0.0227361 -0.00329552 -0.0125811 -0.0272012 -0.00978939 
0.00225651 -0.0255867 -0.00340745 0.0158242 -0.0284483 -0.00995019 0.0292074 -0.0218888 -0.0014157 
0.030645 -0.0236287 -0.00929162 0.0440384 -0.0262862 -0.00532386 -0.0431801 -0.0149152 -0.00397047 
-0.0336552 -0.0195078 -0.00471996 -0.0238282 -0.0134529 -0.00665851 -0.0189966 -0.0192789 -0.00933042 
0.0120942 -0.0139744 -0.00303661 0.0258301 -0.0121837 -0.00599264 0.0217161 -0.0199231 -0.00521117 
0.0329278 -0.0146763 -0.0046676 0.0459808 -0.0188674 -0.00502582 -0.0452632 -0.00166671 -0.00933273 
-0.0319773 -0.00182116 -0.00751142 -0.0339577 -0.00991534 -0.0088767 -0.0217933 -0.00264346 -0.00591553 
-0.014182 -0.00397353 -0.00292154 -0.0143086 -0.00747107 -0.00994736 -0.00538119 -0.00911246 -0.0088752 
0.00529871 -0.00347363 -0.000251861 0.00314718 -0.00700845 -0.00798047 0.0167712 -0.00292508 -0.00925905 
0.0201941 -0.00120223 -0.000542924 0.0308031 -0.00772421 -0.00994853 0.0377562 -0.00137048 -0.00702896 
-0.0315992 0.00889197 -0.00689851 -0.0347677 0.00621209 -0.000316056 -0.0267058 0.00160813 -0.000944514 
-0.0164025 0.00882088 -0.0086583 -0.00394711 0.000586049 -0.00589322 0.00895308 0.00266081 -0.00801824 
0.00224333 0.00667948 -0.00889258 0.0184637 0.00736326 -0.00275141 0.0257676 0.00791333 -0.00872477 
0.0338895 0.0036986 -0.000468705 0.0308963 0.00196458 -0.00750659 0.0347234 0.0094136 -0.0075991 
0.0459743 0.00557051 -0.00622504 -0.040109 0.0148502 -0.00563357 -0.0318556 0.0164614 -0.00302833 
-0.0230604 0.0133824 -0.000806121 -0.0166157 0.0169483 -0.00665721 -0.00193352 0.0134881 -0.00267414 
-0.00766688 0.0196411 -0.00738702 -0.0089449 0.0105657 -0.00472797 0.018882 0.01814 -0.00762826 
0.0111101 0.0101047 -0.00605552 0.036706 0.0177137 -0.00419684 0.0455385 0.017476 -0.00291077 
-0.0454288 0.0225182 -0.00836492 -0.035924 0.0235071 -0.00208333 -0.0263488 0.0268852 -0.00716176 
-0.0137981 0.0251583 -0.00424691 -0.0190746 0.029929 -0.00870974 -0.00638367 0.0285654 -0.00732719 
0.00466943 0.0248568 -0.00363748 0.0117362 0.0210244 -0.00519325 0.0304371 0.0281671 -0.00569331 
0.0360115 0.0255846 -0.000995087 0.044688 0.0291042 -0.00590721 -0.0457378 0.0399428 -0.00904538 
-0.0359048 0.0351895 -0.00755671 -0.0268088 0.0342444 -0.00815933 -0.0188852 0.0369267 -0.00308051 
-0.0112303 0.0337142 -0.00199643 0.00207187 0.0316145 -0.00673291 0.0142436 0.0338373 -0.00265373 
0.0339788 0.0360024 -0.00518591 0.0375616 0.0301536 -0.00956498 -0.0406135 0.0459003 -0.00658193 
-0.0262864 0.0406495 -0.00125282 -0.0152195 0.0424466 -0.00772596 -0.00783649 0.0453008 -0.00532051 
0.0140361 0.0438139 -0.00341521 0.0238143 0.0441217 -0.00019093 0.0215212 0.0438029 -0.00855138 
0.0352503 0.045421 -0.00230328 0.0395618 0.0412232 -0.00947988 0.0462728 0.0416354 -0.00540693 
-0.0429369 -0.0417274 0.00822814 -0.0355546 -0.0401105 0.00832437 -0.0391249 -0.0459692 0.00100168 
-0.0298981 -0.0431426 0.00113695 -0.0100204 -0.042994 0.00732629 0.00495047 -0.041238 0.0062376 
0.0179269 -0.0461531 0.00233641 0.0258146 -0.043838 0.00535179 0.03602 -0.0421844 0.00224959 
0.0433184 -0.0443552 0.00782515 0.0447516 -0.0401893 0.00114328 -0.0375749 -0.0352496 0.00253216 
-0.0134035 -0.0361715 0.00431028 0.00608499 -0.031495 0.0010029 0.000836782 -0.0373517 0.000461837 
0.0123595 -0.0392627 0.00508365 0.0226814 -0.034541 0.00673964 0.0321265 -0.0360838 0.00733648 
-0.0457017 -0.025804 0.00728714 -0.0386745 -0.0216261 0.0041286 -0.0313748 -0.0227813 0.00877679 
-0.0266542 -0.0268926 0.00428668 -0.0139268 -0.0281589 0.00922484 -0.00582926 -0.0231625 0.00305108 
0.00787485 -0.027107 0.00713422 0.0141249 -0.0257688 0.00160874 0.0227294 -0.024362 0.00295279 
0.0284849 -0.0294862 0.00115126 0.0450963 -0.0279763 0.00795903 0.0450075 -0.0210887 0.00310943 
-0.0266451 -0.0117175 0.00931373 -0.016084 -0.0199151 0.0085294 -0.00220702 -0.0142458 0.00043358 
0.00518978 -0.012423 0.00748189 0.00751936 -0.0180427 0.00255587 0.0176447 -0.0173754 0.00310067 
0.0383107 -0.0188412 0.00778866 0.0395943 -0.0119049 0.00314814 -0.0279051 -0.00974146 0.000410439 
-0.029802 -0.00315433 0.00559887 -0.0176625 -0.0059951 0.00395981 -0.000531484 -0.000452447 0.00423368 
0.0101722 -0.00139558 0.00856056 0.0151681 -0.00883049 0.00284981 0.0310919 -0.00952242 0.00329821 
0.0361949 -0.00411482 0.00132091 0.0425582 -0.0042833 0.00610461 -0.0247976 0.00251625 0.00809976 
-0.0132765 0.00479297 0.00302294 0.00687581 0.00870571 0.000130097 0.0127817 0.0069461 0.00542088 
0.0202445 0.00588096 0.00881367 0.0330485 0.00688995 0.00759921 0.0462079 0.00367835 0.00336385 
0.0401903 0.00311038 0.00796319 -0.029052 0.0112568 0.00486673 -0.0186457 0.0159962 0.00689782 
-0.0116404 0.0159856 0.00198721 -0.00521874 0.0106715 0.00414056 0.0162477 0.0148913 0.00103318 
0.0283329 0.0119333 0.00246882 0.0242221 0.0162304 0.00823135 0.0325658 0.0182853 0.00399153 
0.0410312 0.0151171 0.00756882 -0.0406862 0.0294026 0.00610771 -0.0445334 0.0201893 0.00779215 
-0.0290062 0.0211684 0.00609327 -0.0196711 0.0211333 0.00026993 -0.0188725 0.0278232 0.0041873 
-0.00191924 0.0216776 0.00544354 0.00534298 0.0229203 0.0078021 0.0159327 0.0254175 0.0037323 
0.026434 0.0244514 0.00148022 0.0370758 0.0261298 0.00822218 -0.0458458 0.0341049 0.00291694 
-0.0337527 0.0303613 0.00247441 -0.0132657 0.0340627 0.00565218 -0.000375295 0.0352809 0.00142132 
0.0108108 0.032434 0.00633522 0.0161211 0.0387875 0.00471715 0.0356667 0.0375569 0.00395697 
0.0448213 0.0300955 0.00752238 -0.0447867 0.0436256 0.00516301 -0.035881 0.0445987 0.0042522 
-0.0133537 0.0455891 0.00211432 0.00839172 0.0461737 0.00901351 0.0331418 0.045401 0.00740131 
0.045045 0.0423127 0.00633902 -0.0317699 -0.0452249 0.0132612 -0.00487251 -0.0419209 0.0181638 
0.00918496 -0.0410492 0.0137917 0.0161691 -0.0438068 0.0188086 0.0218959 -0.0458778 0.0135216 
0.0346674 -0.0428283 0.0112072 -0.0413584 -0.0396194 0.0191626 -0.030634 -0.030556 0.0121646 
-0.0269142 -0.0309419 0.0195138 -0.0246812 -0.0364703 0.0110882 -0.0047379 -0.0316548 0.0162995 
0.0436231 -0.0378945 0.0126123 -0.0271579 -0.0203043 0.0166396 -0.019272 -0.0245014 0.014903 
0.00337357 -0.0263064 0.0139619 0.0167792 -0.0239019 0.0115047 0.0319729 -0.0293344 0.0147244 
-0.0462339 -0.0123588 0.0101495 -0.0421744 -0.0185785 0.0163839 -0.00913316 -0.0124873 0.0181579 
-0.00133625 -0.0119214 0.0191732 0.00893235 -0.0102231 0.0192461 -0.0419471 -0.00737061 0.0158604 
-0.0308082 -0.00244846 0.0160625 -0.0153583 -0.00183274 0.0152565 -0.0190795 -0.00963753 0.0166244 
0.0225448 -0.0046923 0.0105799 0.0374353 -0.00602884 0.014868 0.0448511 -2.27282e-05 0.0137002 
-0.0121051 0.00853193 0.0105131 0.0130743 0.00274197 0.0158174 0.0157431 0.00944648 0.0189931 
-0.01943 0.0103759 0.015073 -0.00564219 0.0125202 0.0130415 0.000638955 0.0176016 0.0121171 
0.0317306 0.0136902 0.019422 -0.0233151 0.0268556 0.0183521 -0.0201703 0.0223045 0.0119639 
-0.0286504 0.0205881 0.0185866 -0.0141259 0.0257729 0.0160902 0.0138511 0.0200451 0.0121194 
0.0288955 0.0262599 0.0125208 0.0445052 0.0217492 0.0105832 -0.00801826 0.0337149 0.0119013 
0.00284894 0.0339997 0.0142698 0.0167247 0.0365125 0.0168815 0.0245606 0.0380854 0.0116309 
-0.0430124 0.0403385 0.0150531 -0.0210559 0.0411794 0.0167056 -0.00698991 0.040332 0.0145917 
0.00047708 0.044521 0.0159048 0.0196814 0.0447629 0.0145284 -0.0235444 -0.0456322 0.02264 
-0.0459911 -0.0378272 0.0290264 0.00681582 -0.0344441 0.0299213 0.00466783 -0.0340138 0.0207536 
0.0373538 -0.0335478 0.0203784 0.0439108 -0.0300481 0.0282109 -0.0449427 -0.0187149 0.0244024 
-0.0456477 -0.0122019 0.0287515 -0.0177957 -0.0113272 0.0245017 0.0104674 -0.0176331 0.0265552 
0.0251071 -0.0156292 0.0282454 -0.0389221 -0.00859771 0.0230278 -0.0351495 0.00478333 0.0237787 
-0.0286218 0.00334934 0.0209896 0.0436782 0.00204931 0.0233523 0.0192949 0.0224013 0.0224346 
-0.0103237 0.0330291 0.0207194 0.00203954 0.030602 0.0293685 0.0146738 0.0379512 0.0256842 
-0.0162975 0.0432271 0.0214994 0.0377611 -0.0446494 0.0307971 -0.0238211 -0.0266566 0.0335272 
0.0114551 -0.0226954 0.0384916 -0.00533034 -0.00920514 0.0306107 0.028767 -0.00437017 0.0390202 
0.024662 0.0210847 0.0308856 0.0194825 -0.00525644 0.0460489 -0.00105344 0.0450608 0.0401021 

VERTICES 1134 1134
1 0 
1 1 
1 2 
1 3 
1 4 
1 5 
1 6 
1 7 
1 8 
1 9 
1 10 
1 11 
1 12 
1 13 
1 14 
1 15 
1 16 
1 17 
1 18 
1 19 
1 20 
1 21 
1 22 
1 23 
1 24 
1 25 
1 26 
1 27 
1 28 
1 29 
1 30 
1 31 
1 32 
1 33 
1 34 
1 35 
1 36 
1 37 
1 38 
1 39 
1 40 
1 41 
1 42 
1 43 
1 44 
1 45 
1 46 
1 47 
1 48 
1 49 
1 50 
1 51 
1 52 
1 53 
1 54 
1 55 
1 56 
1 57 
1 58 
1 59 
1 60 
1 61 
1 62 
1 63 
1 64 
1 65 
1 66 
1 67 
1 68 
1 69 
1 70 
1 71 
1 72 
1 73 
1 74 
1 75 
1 76 
1 77 
1 78 
1 79 
1 80 
1 81 
1 82 
1 83 
1 84 
1 85 
1 86 
1 87 
1 88 
1 89 
1 90 
1 91 
1 92 
1 93 
1 94 
1 95 
1 96 
1 97 
1 98 
1 99 
1 100 
1 101 
1 102 
1 103 
1 104 
1 105 
1 106 
1 107 
1 108 
1 109 
1 110 
1 111 
1 112 
1 113 
1 114 
1 115 
1 116 
1 117 
1 118 
1 119 
1 120 
1 121 
1 122 
1 123 
1 124 
1 125 
1 126 
1 127 
1 128 
1 129 
1 130 
1 131 
1 132 
1 133 
1 134 
1 135 
1 136 
1 137 
1 138 
1 139 
1 140 
1 141 
1 142 
1 143 
1 144 
1 145 
1 146 
1 147 
1 148 
1 149 
1 150 
1 151 
1 152 
1 153 
1 154 
1 155 
1 156 
1 157 
1 158 
1 159 
1 160 
1 161 
1 162 
1 163 
1 164 
1 165 
1 166 
1 167 
1 168 
1 169 
1 170 
1 171 
1 172 
1 173 
1 174 
1 175 
1 176 
1 177 
1 178 
1 179 
1 180 
1 181 
1 182 
1 183 
1 184 
1 185 
1 186 
1 187 
1 188 
1 189 
1 190 
1 191 
1 192 
1 193 
1 194 
1 195 
1 196 
1 197 
1 198 
1 199 
1 200 
1 201 
1 202 
1 203 
1 204 
1 205 
1 206 
1 207 
1 208 
1 209 
1 210 
1 211 
1 212 
1 213 
1 214 
1 215 
1 216 
1 217 
1 218 
1 219 
1 220 
1 221 
1 222 
1 223 
1 224 
1 225 
1 226 
1 227 
1 228 
1 229 
1 230 
1 231 
1 232 
1 233 
1 234 
1 235 
1 236 
1 237 
1 238 
1 239 
1 240 
1 241 
1 242 
1 243 
1 244 
1 245 
1 246 
1 247 
1 248 
1 249 
1 250 
1 251 
1 252 
1 253 
1 254 
1 255 
1 256 
1 257 
1 258 
1 259 
1 260 
1 261 
1 262 
1 263 
1 264 
1 265 
1 266 
1 267 
1 268 
1 269 
1 270 
1 271 
1 272 
1 273 
1 274 
1 275 
1 276 
1 277 
1 278 
1 279 
1 280 
1 281 
1 282 
1 283 
1 284 
1 285 
1 286 
1 287 
1 288 
1 289 
1 290 
1 291 
1 292 
1 293 
1 294 
1 295 
1 296 
1 297 
1 298 
1 299 
1 300 
1 301 
1 302 
1 303 
1 304 
1 305 
1 306 
1 307 
1 308 
1 309 
1 310 
1 311 
1 312 
1 313 
1 314 
1 315 
1 316 
1 317 
1 318 
1 319 
1 320 
1 321 
1 322 
1 323 
1 324 
1 325 
1 326 
1 327 
1 328 
1 329 
1 330 
1 331 
1 332 
1 333 
1 334 
1 335 
1 336 
1 337 
1 338 
1 339 
1 340 
1 341 
1 342 
1 343 
1 344 
1 345 
1 346 
1 347 
1 348 
1 349 
1 350 
1 351 
1 352 
1 353 
1 354 
1 355 
1 356 
1 357 
1 358 
1 359 
1 360 
1 361 
1 362 
1 363 
1 364 
1 365 
1 366 
1 367 
1 368 
1 369 
1 370 
1 371 
1 372 
1 373 
1 374 
1 375 
1 376 
1 377 
1 378 
1 379 
1 380 
1 381 
1 382 
1 383 
1 384 
1 385 
1 386 
1 387 
1 388 
1 389 
1 390 
1 391 
1 392 
1 393 
1 394 
1 395 
1 396 
1 397 
1 398 
1 399 
1 400 
1 401 
1 402 
1 403 
1 404 
1 405 
1 406 
1 407 
1 408 
1 409 
1 410 
1 411 
1 412 
1 413 
1 414 
1 415 
1 416 
1 417 
1 418 
1 419 
1 420 
1 421 
1 422 
1 423 
1 424 
1 425 
1 426 
1 427 
1 428 
1 429 
1 430 
1 431 
1 432 
1 433 
1 434 
1 435 
1 436 
1 437 
1 438 
1 439 
1 440 
1 441 
1 442 
1 443 
1 444 
1 445 
1 446 
1 447 
1 448 
1 449 
1 450 
1 451 
1 452 
1 453 
1 454 
1 455 
1 456 
1 457 
1 458 
1 459 
1 460 
1 461 
1 462 
1 463 
1 464 
1 465 
1 466 
1 467 
1 468 
1 469 
1 470 
1 471 
1 472 
1 473 
1 474 
1 475 
1 476 
1 477 
1 478 
1 479 
1 480 
1 481 
1 482 
1 483 
1 484 
1 485 
1 486 
1 487 
1 488 
1 489 
1 490 
1 491 
1 492 
1 493 
1 494 
1 495 
1 496 
1 497 
1 498 
1 499 
1 500 
1 501 
1 502 
1 503 
1 504 
1 505 
1 506 
1 507 
1 508 
1 509 
1 510 
1 511 
1 512 
1 513 
1 514 
1 515 
1 516 
1 517 
1 518 
1 519 
1 520 
1 521 
1 522 
1 523 
1 524 
1 525 
1 526 
1 527 
1 528 
1 529 
1 530 
1 531 
1 532 
1 533 
1 534 
1 535 
1 536 
1 537 
1 538 
1 539 
1 540 
1 541 
1 542 
1 543 
1 544 
1 545 
1 546 
1 547 
1 548 
1 549 
1 550 
1 551 
1 552 
1 553 
1 554 
1 555 
1 556 
1 557 
1 558 
1 559 
1 560 
1 561 
1 562 
1 563 
1 564 
1 565 
1 566 

POINT_DATA 567
SCALARS id double
LOOKUP_TABLE default
211 329 402 36 259 476 508 541 193 
202 425 396 564 421 530 313 129 156 
469 451 397 71 448 33 136 496 318 
406 141 472 524 304 162 252 216 55 
415 333 210 549 135 384 266 346 20 
334 110 426 459 385 367 314 348 222 
475 111 146 457 441 497 96 306 381 
297 531 56 237 19 290 439 373 351 
391 521 502 289 207 49 537 286 44 
494 371 319 108 365 556 562 506 555 
256 335 41 15 327 263 201 478 509 
12 115 13 456 260 203 552 449 532 
414 328 150 221 132 519 293 40 137 
499 501 325 27 416 133 504 140 76 
23 424 224 262 435 405 389 197 510 
527 357 307 311 86 219 276 186 356 
138 171 413 235 83 343 295 483 94 
429 434 559 30 375 432 226 438 274 
107 121 326 515 347 247 398 62 563 
544 54 57 58 299 37 97 170 163 
561 350 181 358 88 92 11 294 538 
363 369 14 26 466 354 383 2 147 
255 551 268 376 190 25 512 540 67 
368 545 10 395 315 131 158 117 296 
403 330 430 254 560 192 322 6 65 
139 167 104 80 288 505 523 68 377 
3 89 380 283 488 31 336 81 53 
513 418 250 174 103 261 161 428 189 
401 495 344 113 229 228 175 100 387 
388 445 554 292 77 433 194 239 533 
73 173 233 452 218 124 185 480 473 
345 109 339 490 492 209 394 151 300 
231 50 481 470 548 407 84 269 99 
95 468 331 514 455 17 382 379 447 
4 204 316 321 208 265 500 22 220 
437 245 85 511 518 152 9 79 52 
213 362 60 516 450 528 64 205 112 
153 370 157 565 474 337 258 340 246 
553 477 75 282 130 238 489 1 280 
461 392 543 366 21 498 155 249 45 
118 230 301 284 232 536 486 267 453 
349 275 223 234 355 278 217 361 272 
566 341 169 159 312 120 484 309 178 
125 253 168 443 411 420 291 119 323 
485 364 529 195 66 191 200 114 539 
236 386 264 240 446 47 144 277 90 
305 465 378 338 241 0 244 70 467 
7 517 526 145 320 308 491 273 427 
487 360 102 557 5 91 374 39 126 
479 520 454 128 409 176 43 196 160 
206 352 534 550 18 34 105 16 42 
302 188 251 24 199 442 116 182 148 
353 464 179 471 462 101 503 558 281 
332 106 225 271 28 342 59 390 78 
525 285 324 400 410 35 419 507 431 
460 423 142 408 61 8 198 183 215 
422 522 440 69 127 82 149 248 48 
180 458 72 242 122 404 393 184 493 
51 482 463 310 164 399 359 372 417 
279 74 134 187 38 547 172 303 270 
46 143 98 412 535 29 32 257 287 
154 227 298 243 214 212 165 93 546 
87 317 63 166 444 436 177 542 123 

FIELD FieldData 7
r 3 567 double
-0.0240327 -0.041446 -0.0405062 -0.0141864 -0.0405991 -0.0405107 0.0242178 -0.0423201 -0.0414338 
0.0315898 -0.0447605 -0.0409072 0.00642277 -0.0393765 -0.04331 0.0109005 -0.0220689 -0.0437732 
0.024741 -0.0217753 -0.0402071 0.0313661 -0.0299925 -0.0424111 0.0460524 -0.0256125 -0.0400753 
-0.0217921 -0.00414915 -0.0407043 0.0381421 0.00592651 -0.0419814 -0.0259053 0.0183119 -0.0405555 
-0.00732745 0.0111918 -0.04107 0.00913116 0.0378317 -0.0400465 -0.00320666 0.0454944 -0.0410365 
0.042082 0.0432751 -0.0400713 -0.0460078 -0.0442048 -0.034972 -0.0265288 -0.0448452 -0.0323477 
0.0285056 -0.0421838 -0.0329285 0.0447725 -0.0404964 -0.0321395 -0.04112 -0.0378151 -0.0325571 
-0.0376848 -0.0317102 -0.0371819 -0.0224396 -0.0326338 -0.0367814 -0.00748424 -0.0350603 -0.0368882 
-0.000571678 -0.0388771 -0.0327114 0.00801981 -0.0328221 -0.0388032 0.0131271 -0.0385668 -0.0346897 
0.0183433 -0.0313404 -0.0371079 0.0366519 -0.0380559 -0.0392242 0.0452165 -0.0333754 -0.035309 
-0.0346325 -0.0204048 -0.0365495 -0.0247857 -0.0240487 -0.0310128 -0.0158202 -0.0203951 -0.0365875 
-0.00890766 -0.0245883 -0.0329816 0.00697344 -0.0219949 -0.0320701 0.0262284 -0.0276134 -0.0332399 
-0.0453979 -0.0177504 -0.0360665 -0.0224077 -0.0154558 -0.0375318 -0.0296983 -0.0155823 -0.0314778 
-0.00842548 -0.0102633 -0.0344467 0.000904256 -0.0151982 -0.0315632 0.023971 -0.0144951 -0.0370383 
0.0312603 -0.0180125 -0.0342815 0.0451888 -0.0165715 -0.0340109 -0.0459767 -0.00427072 -0.0360891 
-0.0384744 -0.00206854 -0.0378849 -0.0349614 -0.00990586 -0.0350807 -0.0214693 -0.00734944 -0.0331396 
-0.0106009 -0.00203561 -0.0362232 0.00202223 -0.000558036 -0.0313589 0.0153578 -0.0083519 -0.0377906 
0.0151761 -0.00013542 -0.035565 0.0240797 -0.0034325 -0.0356183 0.0296476 -0.00995669 -0.0330741 
0.0397233 -0.0044334 -0.0369055 -0.0456244 0.00416415 -0.0304094 -0.0283983 0.000245771 -0.0307297 
-0.0173039 0.00618157 -0.0323505 -0.0049953 0.00449926 -0.0317246 0.00398476 0.009178 -0.0348295 
-0.041556 0.0186854 -0.0357069 -0.030104 0.0108218 -0.0381552 -0.0344655 0.0162222 -0.0311409 
-0.0263034 0.0158189 -0.030906 -0.0172664 0.0157909 -0.0319494 0.000768803 0.0157678 -0.0394484 
0.0301118 0.0119568 -0.0379793 -0.0402344 0.0261367 -0.0319727 -0.0187699 0.0251751 -0.032156 
-0.0103885 0.0274124 -0.0340227 -0.00752994 0.0200528 -0.0348885 0.0155559 0.0297641 -0.039975 
0.0109613 0.0235431 -0.0370057 0.0382534 0.0213151 -0.0370472 0.0421855 0.0283117 -0.0331773 
-0.0458378 0.0327222 -0.0360635 -0.03918 0.038772 -0.0344835 -0.0292822 0.0310694 -0.0300396 
-0.023154 0.0381435 -0.0326172 -0.0114955 0.035238 -0.0300272 -0.00390732 0.0323128 -0.0326913 
0.0303015 0.0358442 -0.0339022 0.0403634 0.0369882 -0.0316698 -0.0275819 0.0455176 -0.0328106 
-0.0201013 0.0452002 -0.0350585 -0.00950595 0.0428263 -0.0303019 0.00913705 0.0446826 -0.0338589 
0.0174711 0.0416015 -0.0381211 0.0237176 0.0453196 -0.0345361 0.0462053 0.0450863 -0.0324671 
-0.0393648 -0.0450383 -0.0237937 -0.0164713 -0.0453677 -0.0247973 -0.00464574 -0.0457994 -0.021115 
0.0227168 -0.0430959 -0.0201559 0.0223884 -0.0451207 -0.0282826 0.0379382 -0.0460573 -0.0283587 
0.033383 -0.0421215 -0.0233892 0.0455371 -0.0438662 -0.0225888 -0.0460218 -0.0311817 -0.0226301 
-0.0370727 -0.0335359 -0.0208161 -0.0256404 -0.0343668 -0.0202031 -0.0245438 -0.0358266 -0.0279058 
-0.0170921 -0.0346733 -0.0249939 -0.000659332 -0.0300685 -0.0293508 -0.00244791 -0.0352165 -0.0215865 
0.00783506 -0.0358542 -0.0263486 0.0246988 -0.0365155 -0.0264487 0.0336697 -0.0305866 -0.0247296 
0.0399967 -0.0376907 -0.0254781 0.0460267 -0.0366732 -0.0200295 -0.0449525 -0.0211697 -0.022599 
-0.0312513 -0.0271531 -0.0206778 -0.0338616 -0.0297804 -0.0281873 -0.00340118 -0.0206768 -0.0277903 
0.00296838 -0.0267868 -0.0224099 0.00939678 -0.0222287 -0.0209602 0.0118083 -0.0282952 -0.0298504 
0.020998 -0.021962 -0.0296157 0.0361411 -0.0234933 -0.0261094 0.0440352 -0.0218467 -0.0258726 
-0.0462341 -0.0107554 -0.029358 -0.0384347 -0.010778 -0.0234032 -0.0351418 -0.0182103 -0.0261398 
-0.0283645 -0.0168948 -0.0217932 -0.0209082 -0.0186446 -0.0250265 -0.0129065 -0.0179914 -0.0210316 
-0.0115851 -0.0171503 -0.029481 -0.000629197 -0.0165997 -0.0206653 -0.00581645 -0.0111731 -0.0244051 
0.00727269 -0.0138252 -0.0242289 0.0156538 -0.0183418 -0.0242191 0.0259212 -0.0199423 -0.0236825 
0.0243211 -0.012458 -0.027583 0.0338186 -0.0175098 -0.0207747 0.042076 -0.0137299 -0.023341 
-0.0456137 -0.0031722 -0.0219936 -0.0397005 -0.00356774 -0.0279176 -0.0138487 -0.00893898 -0.0229382 
-0.00249665 -0.00289986 -0.0236519 0.00773574 -0.00310736 -0.0253256 0.0278805 -0.00907945 -0.0206233 
0.0205262 -0.00552691 -0.0286516 0.0365584 -0.000675643 -0.0273094 -0.0430242 0.00934551 -0.0224657 
-0.0372544 0.00523853 -0.0278675 -0.0226143 0.000412657 -0.0219272 -0.0273464 0.00822238 -0.0296841 
-0.0182954 0.00823227 -0.022402 -0.00920041 0.00106124 -0.0230401 0.00507471 0.00495941 -0.0201574 
0.0193297 0.00695672 -0.0297454 0.016253 0.000133916 -0.0208574 0.0249907 0.00380423 -0.0252714 
0.0357197 0.007521 -0.0244256 0.0447158 0.00891346 -0.028422 0.0445569 0.00116899 -0.0262605 
-0.0458707 0.0138494 -0.0296103 -0.00175031 0.0163123 -0.0255211 0.0112762 0.0114299 -0.0238664 
0.0234687 0.0196882 -0.0295672 0.0296101 0.0101697 -0.0285559 0.0313808 0.017583 -0.0235664 
0.0417166 0.017122 -0.026574 -0.0446837 0.0225493 -0.0234883 -0.0272993 0.0280026 -0.021194 
-0.00106412 0.0246056 -0.0268301 0.00592278 0.0205669 -0.0283166 0.00415726 0.0228696 -0.0203536 
0.0176813 0.0234791 -0.0201851 0.0151055 0.0221591 -0.0292801 0.0250001 0.0267509 -0.0226574 
0.0281229 0.0286343 -0.0296011 0.0377848 0.0244151 -0.0275684 0.0436523 0.0239613 -0.0217805 
-0.0456206 0.0393295 -0.0266011 -0.0386243 0.0359658 -0.0239432 -0.0297705 0.0373464 -0.0247017 
-0.00989549 0.0343548 -0.0200575 0.00205415 0.0383641 -0.0241618 0.0151962 0.0311495 -0.0209478 
0.0156592 0.0381601 -0.0276531 0.0204549 0.0307062 -0.0297904 0.0351053 0.032183 -0.0271104 
0.0449279 0.0341173 -0.0248612 -0.0440286 0.0451761 -0.0206032 -0.0385401 0.0438118 -0.0267229 
-0.0221134 0.0459218 -0.0222696 -0.0150069 0.0408518 -0.0232816 -0.0051854 0.0410189 -0.0213569 
-0.000586555 0.0455942 -0.0281053 0.0102214 0.043486 -0.0242412 0.0311567 0.0427437 -0.0237913 
-0.0439107 -0.0460599 -0.0170996 -0.0336246 -0.0407886 -0.0173316 -0.0270548 -0.0455543 -0.0174704 
-0.0022256 -0.0432394 -0.0123764 0.00561208 -0.0460104 -0.0197827 0.0107018 -0.0434186 -0.0123771 
0.017916 -0.0401944 -0.0143375 0.0294997 -0.045628 -0.0131759 0.0371916 -0.0417599 -0.0120416 
-0.0444352 -0.0383433 -0.0196659 -0.0405373 -0.0352899 -0.011187 -0.0277875 -0.0391598 -0.0112239 
-0.0185102 -0.039368 -0.011703 -0.0109369 -0.0351233 -0.0168989 0.00894527 -0.031634 -0.0184067 
0.00506041 -0.0380462 -0.0152159 0.0167915 -0.0326063 -0.0168518 0.0294992 -0.0374669 -0.0136774 
0.0365794 -0.0329126 -0.0156227 0.0447719 -0.035377 -0.0100076 -0.0429135 -0.0230968 -0.0133801 
-0.0328586 -0.0235704 -0.0127364 -0.0375882 -0.0208122 -0.0190123 -0.0236883 -0.0221837 -0.0154737 
-0.0272943 -0.0294608 -0.0116472 -0.0168576 -0.0253945 -0.0189817 -0.00907236 -0.0243406 -0.0169372 
-0.00460492 -0.0274937 -0.0104258 0.00438419 -0.0248831 -0.014895 0.0193249 -0.0223112 -0.0174752 
0.0231378 -0.0288793 -0.0140319 0.0346187 -0.0256965 -0.0167964 0.0436843 -0.026495 -0.014131 
-0.0460415 -0.0111267 -0.0195344 -0.038232 -0.0166168 -0.0102548 -0.034888 -0.0122151 -0.0164621 
-0.0285199 -0.0164153 -0.0124478 -0.0193233 -0.0128987 -0.0177817 -0.00957791 -0.01188 -0.0155588 
-0.00085465 -0.0189798 -0.011572 0.00731779 -0.0133324 -0.0157713 0.0140388 -0.0120701 -0.0105461 
0.0124407 -0.0196955 -0.0102671 0.024005 -0.0123417 -0.013465 0.0316907 -0.0162814 -0.0128054 
0.0390123 -0.018392 -0.0102446 0.0378737 -0.0109833 -0.0171455 -0.0323183 -0.00363176 -0.0187005 
-0.0270001 -0.00900663 -0.0148619 -0.00103058 -0.00914867 -0.0163973 0.016811 -0.00822117 -0.0192658 
0.0235222 -0.0025496 -0.0135028 0.03578 -0.00151094 -0.0187074 0.0447625 -0.00909441 -0.0117265 
-0.045923 0.00909705 -0.0109757 -0.0389782 0.00389141 -0.0185752 -0.0255992 0.00337223 -0.0127695 
-0.0152431 0.000138635 -0.0118723 -0.000752731 0.000621608 -0.0136662 -0.00559968 0.00703937 -0.011715 
0.0300227 0.00419527 -0.0170352 0.0381684 0.00594748 -0.0149743 0.0435582 0.00937637 -0.0196132 
-0.0408575 0.0161753 -0.0148875 -0.0342401 0.0161018 -0.0192995 -0.0271161 0.010833 -0.0152833 
-0.0197394 0.0152393 -0.0169779 -0.0103301 0.0134043 -0.0161759 0.00777258 0.0144524 -0.0163357 
0.000874202 0.0106186 -0.0161994 0.0233728 0.0124569 -0.0195328 0.0337516 0.0131915 -0.0151463 
0.0451341 0.0115903 -0.0114345 -0.0385637 0.0257588 -0.019057 -0.029492 0.0221274 -0.0135533 
-0.0152174 0.0271817 -0.0161394 -0.00743444 0.0242256 -0.0137369 -0.001802 0.0277785 -0.0197039 
0.00255775 0.0208355 -0.0117895 0.0130637 0.0263049 -0.0134476 0.0300684 0.0297218 -0.0150084 
0.0339509 0.0232609 -0.0125389 -0.0451261 0.0311961 -0.0199692 -0.0308493 0.030263 -0.0135423 
-0.03197 0.038703 -0.013795 -0.0233349 0.0342575 -0.0153509 -0.014229 0.0347539 -0.0129491 
0.00938436 0.0349407 -0.0113668 0.0155487 0.0396898 -0.0116139 0.025385 0.0374171 -0.0115872 
0.0263167 0.0350229 -0.0196716 0.0365542 0.0396445 -0.0168751 0.0384041 0.0322841 -0.0191263 
0.0449251 0.0366828 -0.0132847 -0.0256679 0.0437395 -0.0104751 -0.000110175 0.0459254 -0.0101814 
-0.00786459 0.0449794 -0.0149177 0.00852645 0.0431755 -0.0130433 0.0240931 0.0458533 -0.0185652 
0.0307996 0.0454541 -0.0125534 0.0439207 0.0430572 -0.0199833 -0.0452266 -0.0443746 -0.00954727 
-0.0355596 -0.0418695 -0.00478583 -0.0221475 -0.0452317 -0.0042861 -0.0149343 -0.0417591 -0.001438 
-0.0119972 -0.0460393 -0.00924976 0.00289891 -0.0459363 -0.00464185 0.0109539 -0.0437612 -0.00163608 
0.0241445 -0.0429557 -0.0079448 0.0449811 -0.0442715 -0.00812184 -0.0462678 -0.0301102 -0.00984566 
-0.0455359 -0.0352882 -0.00250053 -0.0323418 -0.0324227 -0.00434259 -0.0199736 -0.0313061 -0.00768385 
-0.0103275 -0.0367365 -0.00728343 -0.00279942 -0.0349098 -0.00970718 -0.0069009 -0.0392753 -0.000498421 
0.00490953 -0.0314152 -0.00847772 0.0116936 -0.0360132 -0.00600844 0.0195042 -0.0390748 -0.000163701 
0.0200713 -0.0312277 -0.00376992 0.0297834 -0.0361269 -0.00442772 0.0406806 -0.0344351 -0.00234277 
-0.0449208 -0.0233138 -0.00502808 -0.0107087 -0.0227361 -0.00329552 -0.0125811 -0.0272012 -0.00978939 
0.00225651 -0.0255867 -0.00340745 0.0158242 -0.0284483 -0.00995019 0.0292074 -0.0218888 -0.0014157 
0.030645 -0.0236287 -0.00929162 0.0440384 -0.0262862 -0.00532386 -0.0431801 -0.0149152 -0.00397047 
-0.0336552 -0.0195078 -0.00471996 -0.0238282 -0.0134529 -0.00665851 -0.0189966 -0.0192789 -0.00933042 
0.0120942 -0.0139744 -0.00303661 0.0258301 -0.0121837 -0.00599264 0.0217161 -0.0199231 -0.00521117 
0.0329278 -0.0146763 -0.0046676 0.0459808 -0.0188674 -0.00502582 -0.0452632 -0.00166671 -0.00933273 
-0.0319773 -0.00182116 -0.00751141 -0.0339577 -0.00991534 -0.0088767 -0.0217933 -0.00264346 -0.00591553 
-0.014182 -0.00397353 -0.00292154 -0.0143086 -0.00747107 -0.00994736 -0.00538119 -0.00911246 -0.0088752 
0.00529871 -0.00347363 -0.000251861 0.00314718 -0.00700845 -0.00798047 0.0167712 -0.00292508 -0.00925905 
0.0201941 -0.00120223 -0.000542924 0.0308031 -0.00772421 -0.00994853 0.0377562 -0.00137048 -0.00702896 
-0.0315992 0.00889197 -0.00689851 -0.0347677 0.00621209 -0.000316056 -0.0267058 0.00160813 -0.000944514 
-0.0164025 0.00882088 -0.0086583 -0.00394711 0.000586049 -0.00589322 0.00895308 0.00266081 -0.00801824 
0.00224333 0.00667948 -0.00889258 0.0184637 0.00736326 -0.00275141 0.0257676 0.00791333 -0.00872477 
0.0338895 0.0036986 -0.000468705 0.0308963 0.00196458 -0.00750659 0.0347234 0.0094136 -0.0075991 
0.0459743 0.00557051 -0.00622504 -0.040109 0.0148502 -0.00563357 -0.0318556 0.0164614 -0.00302833 
-0.0230604 0.0133824 -0.000806121 -0.0166157 0.0169483 -0.00665721 -0.00193352 0.0134881 -0.00267414 
-0.00766688 0.0196411 -0.00738702 -0.0089449 0.0105657 -0.00472797 0.018882 0.01814 -0.00762826 
0.0111101 0.0101047 -0.00605552 0.036706 0.0177137 -0.00419684 0.0455385 0.017476 -0.00291077 
-0.0454288 0.0225182 -0.00836492 -0.035924 0.0235071 -0.00208333 -0.0263488 0.0268852 -0.00716176 
-0.0137981 0.0251583 -0.00424691 -0.0190746 0.029929 -0.00870974 -0.00638367 0.0285654 -0.00732719 
0.00466943 0.0248568 -0.00363748 0.0117362 0.0210244 -0.00519325 0.0304371 0.0281671 -0.00569331 
0.0360115 0.0255846 -0.000995087 0.044688 0.0291042 -0.00590721 -0.0457378 0.0399428 -0.00904538 
-0.0359048 0.0351895 -0.00755671 -0.0268088 0.0342444 -0.00815933 -0.0188852 0.0369267 -0.00308051 
-0.0112303 0.0337142 -0.00199643 0.00207187 0.0316145 -0.00673291 0.0142436 0.0338373 -0.00265373 
0.0339788 0.0360024 -0.00518591 0.0375616 0.0301536 -0.00956498 -0.0406135 0.0459003 -0.00658193 
-0.0262864 0.0406495 -0.00125282 -0.0152195 0.0424466 -0.00772596 -0.00783649 0.0453008 -0.00532051 
0.0140361 0.0438139 -0.00341521 0.0238143 0.0441217 -0.00019093 0.0215212 0.0438029 -0.00855138 
0.0352503 0.045421 -0.00230328 0.0395618 0.0412232 -0.00947988 0.0462728 0.0416354 -0.00540693 
-0.0429369 -0.0417274 0.00822814 -0.0355546 -0.0401105 0.00832437 -0.0391249 -0.0459692 0.00100168 
-0.0298981 -0.0431426 0.00113695 -0.0100204 -0.042994 0.00732629 0.00495047 -0.041238 0.0062376 
0.0179269 -0.0461531 0.00233641 0.0258146 -0.043838 0.00535179 0.03602 -0.0421844 0.00224959 
0.0433184 -0.0443552 0.00782515 0.0447516 -0.0401893 0.00114328 -0.0375749 -0.0352496 0.00253216 
-0.0134035 -0.0361715 0.00431028 0.00608499 -0.031495 0.0010029 0.000836782 -0.0373517 0.000461837 
0.0123595 -0.0392627 0.00508365 0.0226814 -0.034541 0.00673964 0.0321265 -0.0360838 0.00733648 
-0.0457017 -0.025804 0.00728714 -0.0386745 -0.0216261 0.0041286 -0.0313748 -0.0227813 0.00877679 
-0.0266542 -0.0268926 0.00428668 -0.0139268 -0.0281589 0.00922484 -0.00582926 -0.0231625 0.00305108 
0.00787485 -0.027107 0.00713422 0.0141249 -0.0257688 0.00160874 0.0227294 -0.024362 0.00295279 
0.0284849 -0.0294862 0.00115126 0.0450963 -0.0279763 0.00795903 0.0450075 -0.0210887 0.00310943 
-0.0266451 -0.0117175 0.00931373 -0.016084 -0.0199151 0.0085294 -0.00220702 -0.0142458 0.00043358 
0.00518978 -0.012423 0.00748189 0.00751936 -0.0180427 0.00255587 0.0176447 -0.0173754 0.00310067 
0.0383107 -0.0188412 0.00778866 0.0395943 -0.0119049 0.00314814 -0.0279051 -0.00974146 0.000410439 
-0.029802 -0.00315433 0.00559887 -0.0176625 -0.0059951 0.00395981 -0.000531484 -0.000452447 0.00423368 
0.0101722 -0.00139558 0.00856056 0.0151681 -0.00883049 0.00284981 0.0310919 -0.00952242 0.00329821 
0.0361949 -0.00411482 0.00132091 0.0425582 -0.0042833 0.00610461 -0.0247976 0.00251625 0.00809976 
-0.0132765 0.00479297 0.00302294 0.00687581 0.00870571 0.000130097 0.0127817 0.0069461 0.00542088 
0.0202445 0.00588096 0.00881367 0.0330485 0.00688995 0.00759921 0.0462079 0.00367835 0.00336385 
0.0401903 0.00311038 0.00796319 -0.029052 0.0112568 0.00486673 -0.0186457 0.0159962 0.00689782 
-0.0116404 0.0159856 0.00198721 -0.00521874 0.0106715 0.00414056 0.0162477 0.0148913 0.00103318 
0.0283329 0.0119333 0.00246882 0.0242221 0.0162304 0.00823135 0.0325658 0.0182853 0.00399153 
0.0410312 0.0151171 0.00756882 -0.0406862 0.0294026 0.00610771 -0.0445334 0.0201893 0.00779215 
-0.0290062 0.0211684 0.00609327 -0.0196711 0.0211333 0.00026993 -0.0188725 0.0278232 0.0041873 
-0.00191924 0.0216776 0.00544354 0.00534298 0.0229203 0.0078021 0.0159327 0.0254175 0.0037323 
0.026434 0.0244514 0.00148022 0.0370758 0.0261298 0.00822218 -0.0458458 0.0341049 0.00291694 
-0.0337527 0.0303613 0.00247441 -0.0132657 0.0340627 0.00565218 -0.000375295 0.0352809 0.00142132 
0.0108108 0.032434 0.00633522 0.0161211 0.0387875 0.00471715 0.0356667 0.0375569 0.00395697 
0.0448213 0.0300955 0.00752238 -0.0447867 0.0436256 0.005163 -0.035881 0.0445987 0.0042522 
-0.0133537 0.0455891 0.00211432 0.00839172 0.0461737 0.00901351 0.0331418 0.045401 0.00740131 
0.045045 0.0423127 0.00633902 -0.0317699 -0.0452249 0.0132612 -0.00487251 -0.0419209 0.0181638 
0.00918496 -0.0410492 0.0137917 0.0161691 -0.0438068 0.0188086 0.0218959 -0.0458778 0.0135216 
0.0346674 -0.0428283 0.0112072 -0.0413584 -0.0396194 0.0191626 -0.030634 -0.030556 0.0121646 
-0.0269142 -0.0309419 0.0195138 -0.0246812 -0.0364703 0.0110882 -0.0047379 -0.0316548 0.0162995 
0.0436231 -0.0378945 0.0126123 -0.0271579 -0.0203043 0.0166396 -0.019272 -0.0245014 0.014903 
0.00337357 -0.0263064 0.0139619 0.0167792 -0.0239019 0.0115047 0.0319729 -0.0293344 0.0147244 
-0.0462339 -0.0123588 0.0101495 -0.0421744 -0.0185785 0.0163839 -0.00913316 -0.0124873 0.0181579 
-0.00133625 -0.0119214 0.0191732 0.00893235 -0.0102231 0.0192461 -0.0419471 -0.00737061 0.0158604 
-0.0308082 -0.00244846 0.0160625 -0.0153583 -0.00183274 0.0152565 -0.0190795 -0.00963753 0.0166244 
0.0225448 -0.0046923 0.0105799 0.0374353 -0.00602884 0.014868 0.0448511 -2.27282e-05 0.0137002 
-0.0121051 0.00853193 0.0105131 0.0130743 0.00274197 0.0158174 0.0157431 0.00944648 0.0189931 
-0.01943 0.0103759 0.015073 -0.00564219 0.0125202 0.0130415 0.000638955 0.0176016 0.0121171 
0.0317306 0.0136902 0.019422 -0.0233151 0.0268556 0.0183521 -0.0201703 0.0223045 0.0119639 
-0.0286504 0.0205881 0.0185866 -0.0141259 0.0257729 0.0160902 0.0138511 0.0200451 0.0121194 
0.0288955 0.0262599 0.0125208 0.0445052 0.0217492 0.0105832 -0.00801826 0.0337149 0.0119013 
0.00284894 0.0339997 0.0142698 0.0167247 0.0365125 0.0168815 0.0245606 0.0380854 0.0116309 
-0.0430124 0.0403385 0.0150531 -0.0210559 0.0411794 0.0167056 -0.00698991 0.040332 0.0145917 
0.00047708 0.044521 0.0159048 0.0196814 0.0447629 0.0145284 -0.0235444 -0.0456322 0.02264 
-0.0459911 -0.0378272 0.0290264 0.00681582 -0.0344441 0.0299213 0.00466783 -0.0340138 0.0207536 
0.0373538 -0.0335478 0.0203784 0.0439108 -0.0300481 0.0282109 -0.0449427 -0.0187149 0.0244024 
-0.0456477 -0.0122019 0.0287515 -0.0177957 -0.0113272 0.0245017 0.0104674 -0.0176331 0.0265552 
0.0251071 -0.0156292 0.0282454 -0.0389221 -0.00859771 0.0230278 -0.0351495 0.00478333 0.0237787 
-0.0286218 0.00334934 0.0209896 0.0436782 0.00204931 0.0233523 0.0192949 0.0224013 0.0224346 
-0.0103237 0.0330291 0.0207194 0.00203954 0.030602 0.0293685 0.0146738 0.0379512 0.0256842 
-0.0162975 0.0432271 0.0214994 0.0377611 -0.0446494 0.0307971 -0.0238211 -0.0266566 0.0335272 
0.0114551 -0.0226954 0.0384916 -0.00533034 -0.00920514 0.0306107 0.028767 -0.00437017 0.0390202 
0.024662 0.0210847 0.0308856 0.0194825 -0.00525644 0.0460489 -0.00105344 0.0450608 0.0401021 

gid 1 567 double
0 0 0 0 0 0 0 0 0 
0 0 0 0 0 0 0 0 0 
0 0 0 0 0 0 0 0 0 
0 0 0 0 0 0 0 0 0 
0 0 0 0 0 0 0 0 0 
0 0 0 0 0 0 0 0 0 
0 0 0 0 0 0 0 0 0 
0 0 0 0 0 0 0 0 0 
0 0 0 0 0 0 0 0 0 
0 0 0 0 0 0 0 0 0 
0 0 0 0 0 0 0 0 0 
0 0 0 0 0 0 0 0 0 
0 0 0 0 0 0 0 0 0 
0 0 0 0 0 0 0 0 0 
0 0 0 0 0 0 0 0 0 
0 0 0 0 0 0 0 0 0 
0 0 0 0 0 0 0 0 0 
0 0 0 0 0 0 0 0 0 
0 0 0 0 0 0 0 0 0 
0 0 0 0 0 0 0 0 0 
0 0 0 0 0 0 0 0 0 
0 0 0 0 0 0 0 0 0 
0 0 0 0 0 0 0 0 0 
0 0 0 0 0 0 0 0 0 
0 0 0 0 0 0 0 0 0 
0 0 0 0 0 0 0 0 0 
0 0 0 0 0 0 0 0 0 
0 0 0 0 0 0 0 0 0 
0 0 0 0 0 0 0 0 0 
0 0 0 0 0 0 0 0 0 
0 0 0 0 0 0 0 0 0 
0 0 0 0 0 0 0 0 0 
0 0 0 0 0 0 0 0 0 
0 0 0 0 0 0 0 0 0 
0 0 0 0 0 0 0 0 0 
0 0 0 0 0 0 0 0 0 
0 0 0 0 0 0 0 0 0 
0 0 0 0 0 0 0 0 0 
0 0 0 0 0 0 0 0 0 
0 0 0 0 0 0 0 0 0 
0 0 0 0 0 0 0 0 0 
0 0 0 0 0 0 0 0 0 
0 0 0 0 0 0 0 0 0 
0 0 0 0 0 0 0 0 0 
0 0 0 0 0 0 0 0 0 
0 0 0 0 0 0 0 0 0 
0 0 0 0 0 0 0 0 0 
0 0 0 0 0 0 0 0 0 
0 0 0 0 0 0 0 0 0 
0 0 0 0 0 0 0 0 0 
0 0 0 0 0 0 0 0 0 
0 0 0 0 0 0 0 0 0 
0 0 0 0 0 0 0 0 0 
0 0 0 0 0 0 0 0 0 
0 0 0 0 0 0 0 0 0 
0 0 0 0 0 0 0 0 0 
0 0 0 0 0 0 0 0 0 
0 0 0 0 0 0 0 0 0 
0 0 0 0 0 0 0 0 0 
0 0 0 0 0 0 0 0 0 
0 0 0 0 0 0 0 0 0 
0 0 0 0 0 0 0 0 0 
0 0 0 0 0 0 0 0 0 

a 3 567 double
0 0 0 0 0 0 -152.372 32.04 -11.5402 
152.372 -32.04 11.5402 0 0 0 0 0 0 
2.26775 -11.9271 -4.18801 0 0 0 -247.687 0 0 
0 0 0 0 0 0 0 0 0 
0 0 0 0 0 0 0 0 0 
0 0 0 12.228 0 0 0 0 0 
1.40135 0.923448 -1.03347 -15.6512 -168.07 52.0646 0 0 0 
0 0 0 0 0 0 0 0 0 
0 0 0 0 0 0 0 0 0 
0 0 0 0 0 0 15.6512 168.07 -52.0646 
0 0 0 0 0 0 0 0 0 
0 0 0 0 0 0 0 0 0 
0 0 0 0 0 0 0 0 0 
0 0 0 22.91 29.62 -14.7709 -2.26775 11.9271 4.18801 
0 0 0 0 0 0 -1.00582 -0.170743 0.175124 
1.00582 0.170743 -0.175124 0 0 0 0 0 0 
0 0 0 0 0 0 0 0 0 
0 0 0 0 0 0 -0.376425 -0.150595 0.312646 
0 0 0 0 0 0 0 0 0 
0 0 0 0 0 0 0 0 0 
0 0 0 0 0 0 0 0 0 
47.2955 304.474 -16.1171 0 0 0 0 0 0 
0 0 0 0 0 0 0 0 0 
0 0 0 0 0 0 0 0 0 
0 0 0 0 0 0 0 0 0 
0 0 0 0 0 0 0 0 0 
0 0 0 -13.4303 -90.1139 -0.764241 0 0 0 
0 0 0 0 0 0 -40.2853 4.19623 8.02221 
40.2853 -4.19623 -8.02221 13.4303 90.1139 0.764241 0 0 0 
-2.62394 -1.35664 -1.11881 2.62394 1.35664 1.11881 -417.464 0 0 
0 0 0 0 0 0 0 0 0 
0 0 0 -1.40135 -0.923448 1.03347 41.7031 -29.1291 -48.2981 
-41.7031 29.1291 48.2981 -28.6275 -179.871 -45.0487 -3.64678 36.1201 -12.207 
0 0 0 -1.4696 3.32102 28.8501 1.4696 -3.32102 -28.8501 
0 0 0 0 0 0 0 0 0 
0 0 0 0 0 0 -105.063 -239.004 68.3301 
0 0 0 -30.6649 179.871 45.0487 0 0 0 
0 0 0 0 0 0 -22.91 -29.62 14.7709 
-22.694 -16.008 -25.8012 16.9231 11.8505 6.08112 0 0 0 
0 0 0 105.063 239.004 -68.3301 0 0 0 
352.348 0 0 -3.13303 1.49849 -4.92401 1.86596 2.73313 -8.12077 
0 0 0 0 0 0 0 0 0 
0 0 0 0 0 0 0 0 0 
0 0 0 0 0 0 0 0 0 
3.39415 -4.17689 0.174188 0 0 0 0 0 0 
0 0 0 0 0 0 0 0 0 
10.1372 -4.41807 -1.1916 0 0 0 0 0 0 
-3.01773 4.32749 -0.486835 0 0 0 -55.272 67.5068 -36.1555 
0 0 0 0 0 0 -47.2955 -304.474 16.1171 
0 0 0 -10.1372 4.41807 1.1916 0 0 0 
-12.4858 6.21388 -11.855 0 0 0 12.4858 -6.21388 11.855 
39.4364 -16.5971 20.0576 0.5835 4.8828 -1.07108 -0.5835 -4.8828 1.07108 
0 0 0 0 0 0 0 0 0 
0 0 0 -39.4364 16.5971 -20.0576 0 0 0 
0 0 0 0 0 0 0 0 0 
3.44386 -10.2594 -32.3814 0 0 0 115.944 -119.456 -12.9482 
0 0 0 0 0 0 -65.243 -21.5468 115.266 
81.7974 14.8314 -114.94 0 0 0 0 0 0 
0 0 0 0 0 0 0 0 0 
0 0 0 0 0 0 0 0 0 
0 0 0 -16.5544 6.71544 -0.32533 0 0 0 
0 0 0 0 0 0 0 0 0 
0 0 0 0 0 0 0 0 0 
0 0 0 0 0 0 0 0 0 
3.22681 140.253 -46.4744 0 0 0 0 0 0 
0 0 0 0 0 0 0 0 0 
1.43155 -8.29167 4.09852 0 0 0 0 0 0 
3.64678 -36.1201 12.207 30.7174 -26.5429 -11.4311 0 0 0 
0 0 0 0 0 0 0 0 0 
0 0 0 -1.43155 8.29167 -4.09852 0 0 0 
130.359 -339.405 51.7639 0 0 0 0 0 0 
0 0 0 -1.86596 -2.73313 8.12077 0 0 0 
0 0 0 0 0 0 0 0 0 
-21.1794 109.03 -23.2351 5.77094 4.15755 19.7201 0 0 0 
0 0 0 -130.359 339.405 -51.7639 0 0 0 
13.8268 0 0 -8.77718 3.76036 -9.87757 3.13303 -1.49849 4.92401 
-0.323979 -0.280097 -0.430518 0 0 0 0 0 0 
0 0 0 0 0 0 4.2137 5.07699 -12.1433 
-0.291749 -3.21338 0.13298 -37.0856 17.4564 -158.763 0 0 0 
0 0 0 0 0 0 0 0 0 
0 0 0 0 0 0 0 0 0 
0 0 0 0 0 0 0 0 0 
0 0 0 55.272 -67.5068 36.1555 0 0 0 
-0.950992 27.963 -4.82391 0 0 0 0 0 0 
0 0 0 -27.212 -15.4972 18.146 27.212 15.4972 -18.146 
-88.6875 7.4212 73.9847 88.6875 -7.4212 -73.9847 0 0 0 
0 0 0 0 0 0 41.1306 24.8131 -5.56787 
-41.1306 -24.8131 5.56787 0 0 0 0 0 0 
0 0 0 0 0 0 0 0 0 
0 0 0 -13.7773 12.98 -164.581 -119.387 129.715 45.3296 
0 0 0 0 0 0 -9.21249 23.0101 -7.25801 
10.8134 -24.8134 8.74902 0 0 0 -8.55458 -12.4374 -13.1556 
0 0 0 9.55182 -3.11457 -21.7242 20.9895 17.2054 -19.5518 
-53.4386 -52.2362 4.9438 115.826 9.87339 13.2542 0 0 0 
-1.60089 1.80332 -1.49101 0 0 0 0 0 0 
0 0 0 0 0 0 0 0 0 
0 0 0 -70.4746 37.8767 -23.1968 0 0 0 
0 0 0 0 0 0 -3.22681 14.0969 46.4744 
17.7154 14.542 -21.8577 0 0 0 0 0 0 
0 0 0 0 0 0 0 0 0 
0 0 0 0 0 0 291.854 26.5429 11.4311 
0 0 0 0 0 0 0 0 0 
0.0536219 -0.030501 0.0788573 21.5126 -109.018 23.1788 -6.42389 -2.25009 -0.793093 
0 0 0 0 0 0 47.2648 228.536 -52.187 
8.87293 -5.16663 10.0072 0 0 0 -12.591 16.1035 -7.53401 
0 0 0 -0.645616 -2.17505 -2.49802 0.312405 2.16276 2.55431 
0 0 0 -8.87293 5.16663 -10.0072 0 0 0 
0 0 0 -45.8342 -127.068 9.27497 0 0 0 
8.77718 -3.76036 9.87757 0.323979 0.280097 0.430518 0 0 0 
-3.92195 -1.86362 12.0103 -270.988 -100.569 236.738 0 0 0 
199.304 -46.7943 25.083 45.5929 127.068 -9.27497 0 0 0 
0 0 0 0 0 0 0 0 0 
3.39719 5.94927 8.92786 -0.565658 -32.8067 -6.81521 0 0 0 
11.3404 -4.6866 -10.3471 0 0 0 0 0 0 
0 0 0 108.77 129.907 -103.058 215.703 -113.62 42.0112 
38.3005 23.9373 -58.1705 -38.3005 -23.9373 58.1705 0 0 0 
0 0 0 0 0 0 25.7786 -190.125 -40.9659 
-92.436 40.3208 -9.55045 0 0 0 -39.4268 38.9936 -13.2798 
34.3573 29.7771 127.312 -210.633 44.849 -156.043 0 0 0 
-28.5912 0 0 0 0 0 0 0 0 
0 0 0 0 0 0 0 0 0 
8.1675 -57.2242 84.1683 0 0 0 0 0 0 
291.034 172.444 -238.934 0 0 0 0 0 0 
0 0 0 0 0 0 -1.75159 -185.055 7.12067 
0 0 0 -20.9895 -17.2054 19.5518 5.60975 44.2442 80.4129 
17.6656 -33.2029 16.865 0 0 0 -144.558 48.622 -99.943 
144.558 -48.622 99.943 0 0 0 0 0 0 
0 0 0 0.754361 200.607 27.7592 0.276895 0.418221 -0.273792 
0 0 0 -17.6656 33.2029 -16.865 0 0 0 
0 0 0 0 0 0 0 0 0 
0 0 0 -0.276895 -0.418221 0.273792 0 0 0 
0 0 0 0 0 0 8.08698 4.48612 4.99879 
0 0 0 -20.6043 1.81724 -14.1156 -365.284 -1.81724 14.1156 
-271.935 -75.4313 23.0653 333.593 -71.8293 192.288 -17.7154 -16.7715 21.8577 
0 0 0 0 0 0 -57.7512 -7.34825 6.84346 
-47.2648 -22.8683 52.187 0 0 0 0 0 0 
1.31863 -14.4867 -10.2021 12.591 -16.1035 7.53401 -61.6583 147.261 -215.353 
0 0 0 14.9274 -32.9659 -72.0548 -21.6158 -23.3026 0.0148063 
57.7512 7.34825 -6.84346 0 0 0 0 0 0 
0 0 0 0 0 0 -135.079 93.0559 129.083 
135.079 -93.0559 -129.083 0 0 0 0 0 0 
13.0587 58.5491 72.7542 0 0 0 -15.6796 11.2511 3.31727 
15.6796 -11.2511 -3.31727 0 0 0 0 0 0 
0 0 0 0 0 0 0 0 0 
0 0 0 0 0 0 0 0 0 
0 0 0 0 0 0 0 0 0 
-1.62939 -2.1032 -0.618641 -1.88054 -1.10563 2.71126 -11.3404 4.6866 10.3471 
0 0 0 0 0 0 0 0 0 
0 0 0 13.3464 -28.4437 -7.16515 1.62939 2.1032 0.618641 
0 0 0 -224.377 -22.6392 289.451 0 0 0 
0 0 0 0 0 0 -279.054 17.034 -97.5937 
-118.175 11.2196 105.033 0 0 0 0 0 0 
0 0 0 0 0 0 0 0 0 
-63.5995 -128.176 -11.6158 0 0 0 63.5995 128.176 11.6158 
-24.8664 -39.4486 -25.2617 197.525 -174.331 168.219 0 0 0 
0 0 0 -21.8686 -81.3736 -47.7314 21.8686 81.3736 47.7314 
-71.7719 -16.1175 -15.841 71.7719 16.1175 15.841 0 0 0 
0 0 0 0 0 0 -204.682 172.771 -163.437 
7.15758 1.55985 -4.78215 -10.0184 2.22087 -10.8378 0 0 0 
0 0 0 0 0 0 0 0 0 
0 0 0 0 0 0 0 0 0 
0 0 0 0 -482.246 0 0 0 0 
0 0 0 0 0 0 0 0 0 
0 0 0 -9.45958 3.07756 6.68255 9.45958 34.7452 -6.68255 
0 0 0 0 0 0 0 0 0 
0 0 0 0 0 0 0 0 0 
-1.31863 14.4867 10.2021 0 0 0 0 0 0 
0 0 0 0 0 0 0 0 0 
66.47 0 0 0 0 0 -132.315 -28.2611 -26.005 
132.315 28.2611 26.005 0 0 0 0 0 0 
-33.5296 -79.4795 -47.8038 0 0 0 0 0 0 
0 0 0 0 0 0 -0.276507 0.19 -0.274467 
-25.0584 -12.0191 -7.09248 -46.7533 -94.5907 -31.3168 46.7533 94.5907 31.3168 
0 0 0 25.0584 12.0191 7.09248 0 0 0 
0 0 0 0 0 0 0 0 0 
0 0 0 0 0 0 0 0 0 
0 0 0 24.8664 39.4486 25.2617 -7.33512 -447.491 -183.407 
0 0 0 0 0 0 0 0 0 
0 0 0 -375.87 -165.961 -283.695 17.3535 445.27 194.245 
0 0 0 0 0 0 0 0 0 
34.2473 0 0 0 0 0 0 0 0 
0 0 0 0 0 0 8.42541 -136.682 -70.6325 
-8.42541 136.682 70.6325 0 0 0 0 0 0 
0 0 0 0 0 0 -556.214 78.6481 333.443 
589.744 0.831364 -285.639 0 0 0 0 0 0 
0 0 0 0 0 0 0 0 0 
375.87 165.961 283.695 0 0 0 0 0 0 
0 0 0 0 0 0 0 0 0 
0 0 0 0 0 0 0 0 0 

v 3 567 double
-0.244161 0.011695 0.327836 -0.00867269 0.171169 0.320353 0.0961562 -0.0335864 0.217986 
0.158063 -0.259548 0.215077 0.0949887 0.267812 0.0851259 0.0989415 -0.268701 0.112868 
-0.00757416 -0.189001 0.352969 -0.2349 -0.0744055 0.193926 -0.298748 -0.329666 0.35465 
0.226599 0.0711447 0.3003 -0.351452 -0.413788 0.118505 -0.222815 0.00781765 0.322818 
-0.184378 0.219295 0.232042 0.137655 0.00617256 0.210187 -0.308169 0.291391 0.252215 
0.288964 -0.0181381 0.280318 0.0424665 0.193969 0.572037 0.136237 -0.0621938 0.523521 
0.32255 -0.175327 0.326067 0.0718124 -0.130563 0.708946 -0.00120802 0.0905809 0.584367 
0.211323 -0.452351 0.448586 -0.0787045 -0.0693998 0.473543 0.226936 -0.104442 0.491441 
0.0576553 0.135373 0.636219 0.239891 -0.0798914 0.391692 0.0475064 0.307348 0.411108 
0.118297 0.270542 0.383151 0.10417 0.317995 0.283391 -0.00631155 -0.045779 0.304417 
-0.0407091 0.0516687 0.484228 0.191403 -0.0627782 0.546932 0.143686 0.040816 0.387485 
-0.0549472 0.102529 0.624562 0.124706 -0.0469857 0.493584 0.0599198 -0.0994564 0.215309 
0.0575018 0.0129491 0.496976 -0.147671 -0.0879221 0.448844 -0.148637 0.231908 0.536131 
-0.133015 0.32311 0.389066 -0.231208 -0.0543408 0.34812 0.0883293 -0.15086 0.469224 
-0.0455975 -0.237422 0.447445 -0.0493463 -0.320229 0.640829 -0.000714991 -0.166189 0.492861 
-0.071868 0.237201 0.286209 -0.0396643 -0.101028 0.474187 0.295846 -0.119954 0.298342 
-0.133189 0.317316 0.441779 -0.295929 -0.0450553 0.731242 0.206214 0.160673 0.429769 
-0.0811146 0.0117078 0.507371 0.0531365 -0.0255415 0.510982 0.0290837 -0.184151 0.480425 
0.115084 -0.153506 0.357353 0.17147 -0.136983 0.296814 0.00264234 -0.0542814 0.380772 
0.0741005 0.0368725 0.56309 0.0148738 0.346948 0.621578 0.154782 0.0747663 0.283161 
-0.0656994 -0.103372 0.347448 0.271979 0.256536 0.431691 -0.18366 -0.115087 0.614878 
-0.076789 0.108109 0.376165 -0.200963 -0.0780583 0.643158 -0.0292844 0.208392 0.335442 
0.158083 0.171671 0.460341 -0.176985 -0.202086 0.578173 -0.161567 0.185464 0.645415 
-0.0635301 -0.0242094 0.524663 -0.228965 0.214994 0.588834 0.108552 -0.180242 0.313303 
0.131749 -0.0893752 0.443269 0.294417 0.23782 0.488562 -0.298912 0.12579 0.540869 
0.199422 -0.134625 0.215138 -0.154316 -0.00991132 0.463048 0.0735166 0.0313925 0.600969 
0.0559452 0.141274 0.403325 -0.158499 -0.117139 0.656991 -0.117673 -0.132545 0.564214 
0.189025 0.0740611 0.551316 -0.208892 -0.46519 0.452057 0.115946 0.0867154 0.558519 
-0.0832876 0.208222 0.432796 0.105209 -0.0907574 0.554646 0.0681686 0.0926179 0.665845 
0.061433 -0.0924786 0.307844 0.204392 0.0949345 0.582932 -0.127294 0.230513 0.398138 
-0.0696233 -0.0243488 0.798165 0.128551 0.0319587 0.805849 0.0020979 -0.0962976 0.76938 
-0.112308 -0.400626 0.581683 -0.209346 -0.0460238 0.777356 0.0649009 -0.332447 0.770955 
0.117163 -0.31864 0.690003 0.238396 0.0542197 0.475883 -0.184634 -0.141983 0.526398 
0.0301684 -0.143974 0.682963 0.20717 0.186525 0.700806 0.385424 0.0441493 0.737223 
-0.151566 -0.207456 0.553839 0.229101 0.245911 0.57261 0.184264 0.084815 0.689092 
0.0557899 -0.0365257 0.564165 0.162868 -0.129744 0.647657 0.292888 -0.0820855 0.625702 
0.238902 -0.26939 0.472741 -0.107262 -0.118075 0.774257 -0.034371 -0.0609014 0.713516 
0.162147 -0.205809 0.803809 -0.0153976 -0.0171858 0.630342 -0.195466 0.0231555 0.680334 
-0.0433463 -0.133222 0.681167 0.128659 -0.00561363 0.643131 -0.121966 -0.0777834 0.53668 
0.172735 -0.236727 0.688941 0.243953 0.0199463 0.690505 0.286606 -0.078308 0.615003 
0.00216322 -0.223286 0.605411 -0.0175241 -0.00772644 0.578102 0.0356797 -0.0586499 0.626257 
0.102471 -0.000127523 0.696179 0.120698 -0.110764 0.512212 0.19127 0.0644038 0.629632 
0.104997 0.0637971 0.607178 -0.0725189 0.0544767 0.749021 0.0336767 -0.100599 0.710129 
-0.208186 -0.165824 0.5828 -0.0428732 -0.395683 0.636393 -0.0928912 -0.117045 0.786372 
-0.00958152 -0.237891 0.616636 0.0265789 0.00366122 0.653813 -0.188986 -0.00711508 0.681978 
-0.022013 -0.31757 0.814251 -0.15132 -0.3993 0.472897 0.103869 0.084499 0.512953 
-0.229985 -0.0401209 0.797953 -0.136526 -0.285937 0.489326 0.0154338 -0.180042 0.454089 
0.196952 -0.128639 0.525775 0.179862 -0.365601 0.604709 0.248781 0.0631284 0.0513766 
0.211688 -0.19726 0.651103 -0.0862739 0.180517 0.785277 -0.113708 -0.298669 0.554847 
0.135546 -0.0386783 0.761128 0.255967 0.138609 0.674595 -0.0814576 -0.0355487 0.667879 
0.0529538 -0.159472 0.730857 0.120973 -0.277884 0.747504 -0.0146368 -0.16431 0.563238 
-0.0384808 -0.0552583 0.709056 -0.0379578 0.0275225 0.495797 0.122244 -0.119073 0.635214 
0.0379234 -0.0205433 0.635491 0.126326 0.196461 0.652778 0.0883419 -0.191849 0.534593 
0.0983734 0.0248796 0.411163 0.174598 -0.122627 0.522808 -0.120698 0.0607006 0.743478 
-0.0417085 0.266438 0.401039 0.0134795 -0.257088 0.910104 -0.236605 0.0861628 0.570805 
0.0169095 0.0267477 0.783 0.0539749 0.20525 0.686663 0.159295 0.227864 0.528886 
-0.0727342 0.00980622 0.647498 0.00312713 -0.0865514 0.632693 0.152857 0.0802105 0.745893 
-0.0185985 0.34927 0.507264 0.141592 0.115562 0.762496 0.0707947 0.110536 0.506257 
0.113786 -0.0544456 0.590357 -0.0175096 -0.0435433 0.715028 -0.0830747 0.0921559 0.736256 
0.17357 0.327854 0.758858 -0.0582296 0.0026424 0.76112 0.0179019 0.0498704 0.598853 
-0.138337 -0.0466986 0.66873 -0.132717 0.01711 0.539901 -0.115032 0.0443324 0.587836 
-0.0839168 -0.185337 0.70479 0.0449178 -0.123971 0.678469 0.145808 0.215046 0.661444 
0.119262 0.360614 0.942776 0.0277593 -0.327247 0.633241 -0.0998136 0.00617862 0.763946 
0.120837 -0.10456 0.632821 -0.18093 -0.183536 0.756107 -0.279254 0.127834 0.724386 
0.0915074 0.172823 0.792752 -0.127322 -0.15743 0.664666 -0.0802924 0.012149 0.933556 
0.029774 -0.128901 0.916733 0.0303608 -0.0916241 0.721075 0.0307433 0.0343896 0.849542 
-0.123676 -0.184011 0.304157 0.0268711 0.0426967 1.12335 -0.345517 -0.126507 0.905235 
0.160142 -0.0419009 0.716081 -0.234755 -0.0641087 0.792648 0.151303 -0.145264 0.898651 
0.0656793 0.217375 0.999161 -0.0771851 -0.410015 0.676792 -0.0479357 -0.110274 0.858379 
0.37237 0.130569 0.788347 -0.0973045 0.288076 0.78953 -0.0803589 -0.212947 0.74113 
-0.262926 -0.0367693 0.785774 -0.199154 0.225973 0.943867 0.133548 -0.0637972 0.726781 
-0.010461 -0.0581852 0.820121 0.0138463 -0.0705898 0.649413 0.00490144 -0.00604535 0.85715 
0.170613 0.00396392 1.0316 -0.15608 -0.207076 0.82862 0.0883767 0.00271823 0.628558 
-0.053623 -0.0743278 0.938483 -0.149991 -0.115625 0.578778 -0.124045 -0.330558 0.73588 
-0.164092 -0.0841147 0.742576 -0.268774 0.0764689 0.765112 0.167819 -0.0300071 0.896984 
-0.0335052 -0.277404 0.654854 0.350879 -0.214586 0.969163 -0.224861 0.157524 0.600535 
-0.137299 0.0689416 0.811522 -0.0238543 0.00121377 0.568764 -0.0326258 0.098639 0.687445 
0.000408985 -0.124943 0.770246 -0.0167765 0.0473254 0.687217 -0.00557755 -0.0516469 0.711981 
-0.179607 0.398322 0.690009 0.229029 -0.223223 0.645111 0.0735992 -0.5164 0.563298 
0.0162692 0.117021 0.983151 -0.0820834 -0.0918004 0.647391 0.05359 -0.103706 0.846 
0.0826742 -0.12473 0.901252 -0.0646737 0.113964 0.765613 0.18128 -0.187168 0.546223 
0.0478576 -0.0608947 0.460664 0.00678686 0.190957 0.708789 -0.0385449 0.0751614 0.756832 
0.00141072 0.0467501 0.69611 -0.0154493 0.119468 0.524997 0.196746 -0.107174 0.595986 
-0.186524 0.0787305 0.752284 0.119731 -0.141902 0.711206 0.0141797 0.0847689 0.829401 
-0.0269854 0.0578704 0.811141 0.0905945 -0.0287055 0.74623 -0.027123 -0.0241379 0.61655 
-0.141083 -0.0817863 0.43031 0.356854 0.0614073 0.441543 0.355927 -0.186515 0.962753 
-0.0699904 0.132664 0.762153 0.43499 0.0366455 0.804636 0.152649 -0.0530376 0.796421 
0.100373 -0.0534862 0.727866 0.124702 0.0644078 0.732019 -0.022692 -0.232966 0.631697 
0.20546 -0.177777 0.842439 0.0217829 0.171992 0.763159 -0.0687199 -0.289648 0.714502 
-0.0283255 0.0566407 0.945035 0.0628247 0.00566695 1.0724 -0.00954519 0.140207 0.558631 
0.238526 0.338611 0.648645 0.268654 -0.185221 0.742253 -0.247464 -0.116296 0.877696 
0.104499 0.0387648 0.897998 0.0140293 0.0129461 0.871034 -0.185908 0.173154 0.867346 
-0.123906 0.0146147 0.651141 0.342046 0.00960749 0.729872 0.351099 0.06587 0.758846 
0.202297 0.216432 0.807234 0.330765 -0.115261 0.910179 0.276475 0.265912 0.686532 
-0.0626974 -0.0444494 0.738803 0.0957459 -0.125623 0.826943 -0.0482756 0.130993 0.891362 
-0.236263 -0.221118 1.02055 -0.203249 -0.0446407 0.957562 0.0516584 0.168317 0.848985 
-0.0538048 -0.0901857 0.882873 -0.0102308 -0.00924451 0.943741 0.209889 -0.0450626 0.741581 
-0.1605 0.093374 0.712766 0.188856 -0.09138 0.887507 -0.20633 -0.130042 0.757757 
-0.17642 0.310072 0.811284 0.0722352 -0.240479 0.55141 -0.112422 -0.48497 0.837937 
0.198931 -0.164211 0.646786 0.0147553 0.099483 0.993756 -0.181677 0.264644 0.808428 
0.0614629 -0.0992295 0.51209 -0.230214 -0.0329006 0.936668 -0.100605 -0.0242588 0.717686 
-0.372775 -0.0200935 0.920653 0.0626975 -0.254832 0.758083 -0.189409 0.0105938 1.11914 
0.361585 -0.0225047 0.748439 0.00395696 0.168787 0.621685 0.0344207 -0.0687148 0.951499 
-0.289578 0.0590805 0.492968 0.259722 0.00125365 0.725638 -0.189952 0.047538 0.511629 
0.0619423 -0.0184744 1.0453 0.310412 0.14541 0.713367 0.0452463 0.0257391 0.848001 
-0.186554 -0.0402107 0.821062 0.0454924 -0.0764274 1.06521 -0.103066 0.0529852 0.747352 
-0.272167 0.0905198 0.97976 0.198475 -0.00719656 0.787421 -0.000340566 -0.264878 1.00227 
-0.0160346 -0.113975 0.872548 0.369663 0.0366187 0.748082 -0.0635527 0.0595436 0.716458 
-0.0151991 -0.189943 0.611799 -0.0483631 0.00336818 0.871725 -0.292497 0.0235209 0.677148 
0.0871443 -0.238226 0.79126 0.134447 0.219419 0.60953 0.193376 0.39283 0.988783 
-0.035393 -0.0235295 0.66291 -0.0665885 -0.0352323 1.22283 -0.275885 0.224518 0.971208 
0.0703546 -0.0259518 0.887944 -0.101773 0.373091 0.381805 0.201645 -0.115242 1.1529 
-0.331449 0.241664 0.592436 -0.0136131 0.150753 0.89397 -0.168952 -0.153175 0.84972 
-0.0978467 -0.0305513 0.953439 0.00721757 -0.0231323 0.87966 0.309805 0.0503721 0.60282 
0.376346 -0.357712 0.894357 0.495531 0.0620155 0.528998 -0.160642 0.0760898 0.550096 
-0.223082 0.0344024 0.981226 0.223366 0.0168197 1.05365 0.236713 0.161811 0.994837 
-0.0352681 -0.00866417 0.840371 0.0656552 -0.18756 0.893 0.00927082 -0.497651 0.78291 
0.0942111 -0.0204973 0.735614 -0.362831 -0.0453989 0.781762 -0.294486 0.288144 0.836659 
0.347086 0.0184262 0.709719 -0.241217 0.0111508 0.728775 0.18137 0.107318 0.913211 
-0.165224 -0.0355765 0.992427 0.173101 0.0792051 0.621105 -0.0585735 -0.117668 0.534154 
-0.0430124 0.0944595 1.13806 0.0062888 -0.0592327 1.23075 -0.320437 0.00568078 0.639854 
-0.154614 -0.061778 1.13182 0.0984415 0.0136637 1.01975 -0.0258313 0.295335 0.822876 
-0.317485 0.345129 0.608726 0.249458 0.0759095 0.705343 -0.278543 -0.129352 1.18117 
0.0601935 -0.106606 0.283789 0.0172746 -0.0785365 0.807117 0.278406 0.0488658 0.968542 
0.450589 0.0925536 1.0501 0.174893 -0.214378 0.879305 0.258455 0.166052 0.943482 
0.090329 0.0423416 0.951706 0.0169172 0.0470791 0.940535 -0.0465634 0.173296 1.03642 
-0.143796 0.0102592 1.20275 -0.0309067 -0.0866101 1.16286 -0.170468 0.114348 1.06606 
0.361891 0.341825 0.974863 0.121706 -0.555239 0.804012 -0.109041 -0.0867795 1.11477 
0.117303 -0.116589 1.25178 0.289004 0.106071 0.997899 -0.21515 0.14754 0.976749 
0.0939752 -0.0828029 1.01558 -0.0129679 -0.180278 0.859465 -0.0600227 -0.0760521 0.848928 
-0.0719898 0.0202173 0.82743 -0.0544799 -0.00844177 0.811973 0.133807 0.234154 0.737884 
-0.0905653 -0.250057 1.09018 -0.29057 -0.212974 1.11286 0.114835 0.137532 0.523088 
-0.0750299 0.119986 0.836593 0.0679329 -0.251432 0.826266 0.0502848 0.307745 0.611159 
-0.0704424 0.212766 0.892386 -0.134584 0.112599 1.00845 0.210126 0.0692388 0.994034 
0.140671 -0.0516822 0.816554 -0.2617 -0.0176246 1.01664 -0.0580548 -0.28292 0.951485 
-0.23538 0.0395587 0.727997 0.061993 -0.19006 0.922519 0.0313239 0.091989 1.00238 
-0.390369 0.235108 0.651378 -0.164472 0.158174 0.982947 -0.389107 0.368487 0.65509 
0.141118 0.0127424 0.705715 0.050319 0.058342 1.03585 0.19584 -0.0431472 0.973521 
-0.440692 0.202171 0.854161 -0.472423 -0.222093 0.72476 0.141129 0.0662195 1.08986 
-0.177468 0.238206 1.28787 0.222227 -0.21731 1.06344 -0.0506009 0.407697 0.9246 
-0.0090835 0.350082 0.885633 -0.32018 0.0103089 1.24502 -0.155764 0.275453 0.95221 
0.140582 -0.0994741 0.967506 -0.0056895 0.0225301 1.09458 0.224144 -0.0527737 0.947325 
-0.0051727 -0.203642 0.810631 -0.0412459 0.0551266 1.37696 -0.153079 0.167756 1.09819 
0.32448 -0.237823 1.20284 0.247379 0.107778 1.37822 0.124256 -0.152475 0.716096 
0.0948426 -0.186811 0.144242 0.320465 -0.12323 0.769065 0.0555101 -0.0220676 0.792106 
0.267896 -0.192216 1.11686 -0.0901774 -0.100833 0.647278 -0.0316826 -0.283232 1.08074 
0.106172 -0.0356108 1.02345 0.239694 0.592318 0.984069 -0.185131 0.232845 0.72318 
0.256219 -0.0140026 1.22764 0.0870002 -0.153504 0.85998 0.120295 0.482447 0.693293 
-0.0427427 -0.438558 1.0032 -0.228372 -0.0271565 0.640613 0.122755 -0.155152 1.13707 
-0.0453951 0.267013 1.08402 -0.241828 -0.206144 0.837251 -0.066116 -0.016664 0.666018 
0.0361504 0.11442 1.27334 0.0877511 -0.248887 0.897438 -0.0962401 0.158109 0.973783 
0.111607 0.255943 0.749212 -0.309816 0.441191 1.0152 -0.207837 0.504331 0.923744 
0.380667 -0.076891 0.808973 -0.0721397 0.203009 0.872011 0.066451 0.401472 0.543902 
-0.603841 0.254678 0.460766 -0.27483 -0.836778 0.922589 0.069533 -0.214641 1.2121 
-0.14282 -0.163623 1.2485 0.20161 -0.0743396 0.848311 -0.187598 -0.112345 1.09259 
0.295645 -0.0638634 0.906379 0.238535 -0.0761001 1.16808 -0.158076 -0.049876 1.18075 
0.297119 0.360581 1.24477 0.0636857 0.248021 1.31032 -0.0383302 0.220412 1.03789 
0.185149 -0.197757 1.19659 0.313393 -0.222281 1.09715 -0.00606722 0.248221 1.06439 
0.203397 -0.234117 1.17307 -0.473862 0.142662 0.754883 0.217601 -0.272642 0.920325 
0.131149 0.150547 1.30989 0.0415485 0.192643 1.22812 -0.0363952 -0.469707 0.872324 
-0.00476569 -0.250672 1.06971 -0.198185 -0.0442267 1.2254 -0.237982 0.0955189 1.37684 
0.191677 0.0207543 1.08209 0.0933159 -0.254524 1.35495 -0.0486701 -0.140013 1.10028 
-0.119668 -0.225286 1.18978 0.124099 0.185177 0.865609 -0.273978 0.217375 1.34009 
-0.0574193 -0.239157 1.20778 0.141186 0.461602 1.14617 0.0615396 0.409792 0.650386 
0.03315 0.103348 1.25214 0.0553813 -0.175696 1.41268 0.088506 0.204874 1.24538 
-0.284036 -0.256085 1.39093 0.169239 -0.123583 1.05859 -0.131493 -0.0648572 1.01235 
-0.147414 0.413124 0.845606 0.187743 -0.0926579 0.632244 -0.322861 0.180261 1.08671 
-0.0749636 0.72233 0.530549 0.178778 0.0394762 1.20039 0.481675 0.499004 0.990621 
-0.357837 0.428313 0.965659 -0.360996 -0.164028 1.29678 -0.103077 0.243926 1.40085 
0.305885 -0.423065 1.12643 -0.292724 0.962036 0.569818 0.288484 -0.155834 1.58082 
0.136662 0.134106 0.250129 -0.526931 -0.209115 0.794907 0.271979 -0.398222 1.28528 
0.211534 0.0476598 1.11826 0.332581 0.638911 1.13193 0.0780817 0.328341 0.926594 
0.152369 -0.0813186 0.887646 0.0963168 -0.332898 0.730838 -0.271098 -0.216002 1.39963 
-0.166127 -0.22047 1.214 0.107421 0.264552 1.16409 0.284977 0.106711 1.24139 
-0.667184 -0.211408 1.0836 0.193337 -0.023217 1.4746 0.186131 -0.343048 1.03821 
0.0619633 -0.474715 1.45329 0.147094 -0.148356 1.31895 0.0275071 0.122482 1.51714 
-0.257151 -0.0770206 0.980665 -0.108785 0.519925 0.993973 -0.216465 0.354718 1.27363 
0.0377938 0.169292 1.63184 0.0816527 0.477157 1.47691 0.378311 -0.162757 1.21534 
0.316105 0.113069 1.55461 0.238966 0.269099 0.497997 -0.131155 -0.060769 1.05982 
-0.315767 0.318682 0.295627 -0.310584 -0.140223 1.20255 -0.157283 0.409644 1.27292 
0.13828 -0.0917131 0.468807 0.0741891 0.139611 1.19593 -0.124613 0.0874345 0.792938 
-0.0561191 -0.112715 1.78093 -0.0168623 -0.445435 1.54151 0.140018 0.535532 1.2068 
0.0344709 0.64159 1.58236 0.117299 0.10051 1.62999 -0.11947 -0.137074 0.707126 
-0.316802 0.228038 0.470812 0.218461 -0.297471 0.311938 -0.234182 0.112929 0.553876 
-0.104194 -0.23803 1.28963 0.51742 -0.268832 0.446758 -0.302115 -0.364836 1.37861 
0.0363852 -0.228382 1.52682 0.477219 0.577261 0.398608 -0.411289 -0.510663 1.2551 
-0.660053 -0.155686 0.447213 0.0313566 0.105853 1.81023 -0.149644 0.38336 0.520515 
0.00506604 -0.0461644 0.769455 0.0945416 0.481843 1.88675 0.190917 -0.0273534 0.576124 
-0.367405 0.0400815 1.72222 -0.117479 0.213718 0.60997 -0.198754 0.0971043 0.700777 

om 3 567 double
0 0 0 0 0 0 0 0 0 
0 0 0 0 0 0 0 0 0 
0 0 0 0 0 0 0 0 0 
0 0 0 0 0 0 0 0 0 
0 0 0 0 0 0 0 0 0 
0 0 0 0 0 0 0 0 0 
0 0 0 0 0 0 0 0 0 
0 0 0 0 0 0 0 0 0 
0 0 0 0 0 0 0 0 0 
0 0 0 0 0 0 0 0 0 
0 0 0 0 0 0 0 0 0 
0 0 0 0 0 0 0 0 0 
0 0 0 0 0 0 0 0 0 
0 0 0 0 0 0 0 0 0 
0 0 0 0 0 0 0 0 0 
0 0 0 0 0 0 0 0 0 
0 0 0 0 0 0 0 0 0 
0 0 0 0 0 0 0 0 0 
0 0 0 0 0 0 0 0 0 
0 0 0 0 0 0 0 0 0 
0 0 0 0 0 0 0 0 0 
0 0 0 0 0 0 0 0 0 
0 0 0 0 0 0 0 0 0 
0 0 0 0 0 0 0 0 0 
0 0 0 0 0 0 0 0 0 
0 0 0 0 0 0 0 0 0 
0 0 0 0 0 0 0 0 0 
0 0 0 0 0 0 0 0 0 
0 0 0 0 0 0 0 0 0 
0 0 0 0 0 0 0 0 0 
0 0 0 0 0 0 0 0 0 
0 0 0 0 0 0 0 0 0 
0 0 0 0 0 0 0 0 0 
0 0 0 0 0 0 0 0 0 
0 0 0 0 0 0 0 0 0 
0 0 0 0 0 0 0 0 0 
0 0 0 0 0 0 0 0 0 
0 0 0 0 0 0 0 0 0 
0 0 0 0 0 0 0 0 0 
0 0 0 0 0 0 0 0 0 
0 0 0 0 0 0 0 0 0 
0 0 0 0 0 0 0 0 0 
0 0 0 0 0 0 0 0 0 
0 0 0 0 0 0 0 0 0 
0 0 0 0 0 0 0 0 0 
0 0 0 0 0 0 0 0 0 
0 0 0 0 0 0 0 0 0 
0 0 0 0 0 0 0 0 0 
0 0 0 0 0 0 0 0 0 
0 0 0 0 0 0 0 0 0 
0 0 0 0 0 0 0 0 0 
0 0 0 0 0 0 0 0 0 
0 0 0 0 0 0 0 0 0 
0 0 0 0 0 0 0 0 0 
0 0 0 0 0 0 0 0 0 
0 0 0 0 0 0 0 0 0 
0 0 0 0 0 0 0 0 0 
0 0 0 0 0 0 0 0 0 
0 0 0 0 0 0 0 0 0 
0 0 0 0 0 0 0 0 0 
0 0 0 0 0 0 0 0 0 
0 0 0 0 0 0 0 0 0 
0 0 0 0 0 0 0 0 0 
0 0 0 0 0 0 0 0 0 
0 0 0 0 0 0 0 0 0 
0 0 0 0 0 0 0 0 0 
0 0 0 0 0 0 0 0 0 
0 0 0 0 0 0 0 0 0 
0 0 0 0 0 0 0 0 0 
0 0 0 0 0 0 0 0 0 
0 0 0 0 0 0 0 0 0 
0 0 0 0 0 0 0 0 0 
0 0 0 0 0 0 0 0 0 
0 0 0 0 0 0 0 0 0 
0 0 0 0 0 0 0 0 0 
0 0 0 0 0 0 0 0 0 
0 0 0 0 0 0 0 0 0 
0 0 0 0 0 0 0 0 0 
0 0 0 0 0 0 0 0 0 
0 0 0 0 0 0 0 0 0 
0 0 0 0 0 0 0 0 0 
0 0 0 0 0 0 0 0 0 
0 0 0 0 0 0 0 0 0 
0 0 0 0 0 0 0 0 0 
0 0 0 0 0 0 0 0 0 
0 0 0 0 0 0 0 0 0 
0 0 0 0 0 0 0 0 0 
0 0 0 0 0 0 0 0 0 
0 0 0 0 0 0 0 0 0 
0 0 0 0 0 0 0 0 0 
0 0 0 0 0 0 0 0 0 
0 0 0 0 0 0 0 0 0 
0 0 0 0 0 0 0 0 0 
0 0 0 0 0 0 0 0 0 
0 0 0 0 0 0 0 0 0 
0 0 0 0 0 0 0 0 0 
0 0 0 0 0 0 0 0 0 
0 0 0 0 0 0 0 0 0 
0 0 0 0 0 0 0 0 0 
0 0 0 0 0 0 0 0 0 
0 0 0 0 0 0 0 0 0 
0 0 0 0 0 0 0 0 0 
0 0 0 0 0 0 0 0 0 
0 0 0 0 0 0 0 0 0 
0 0 0 0 0 0 0 0 0 
0 0 0 0 0 0 0 0 0 
0 0 0 0 0 0 0 0 0 
0 0 0 0 0 0 0 0 0 
0 0 0 0 0 0 0 0 0 
0 0 0 0 0 0 0 0 0 
0 0 0 0 0 0 0 0 0 
0 0 0 0 0 0 0 0 0 
0 0 0 0 0 0 0 0 0 
0 0 0 0 0 0 0 0 0 
0 0 0 0 0 0 0 0 0 
0 0 0 0 0 0 0 0 0 
0 0 0 0 0 0 0 0 0 
0 0 0 0 0 0 0 0 0 
0 0 0 0 0 0 0 0 0 
0 0 0 0 0 0 0 0 0 
0 0 0 0 0 0 0 0 0 
0 0 0 0 0 0 0 0 0 
0 0 0 0 0 0 0 0 0 
0 0 0 0 0 0 0 0 0 
0 0 0 0 0 0 0 0 0 
0 0 0 0 0 0 0 0 0 
0 0 0 0 0 0 0 0 0 
0 0 0 0 0 0 0 0 0 
0 0 0 0 0 0 0 0 0 
0 0 0 0 0 0 0 0 0 
0 0 0 0 0 0 0 0 0 
0 0 0 0 0 0 0 0 0 
0 0 0 0 0 0 0 0 0 
0 0 0 0 0 0 0 0 0 
0 0 0 0 0 0 0 0 0 
0 0 0 0 0 0 0 0 0 
0 0 0 0 0 0 0 0 0 
0 0 0 0 0 0 0 0 0 
0 0 0 0 0 0 0 0 0 
0 0 0 0 0 0 0 0 0 
0 0 0 0 0 0 0 0 0 
0 0 0 0 0 0 0 0 0 
0 0 0 0 0 0 0 0 0 
0 0 0 0 0 0 0 0 0 
0 0 0 0 0 0 0 0 0 
0 0 0 0 0 0 0 0 0 
0 0 0 0 0 0 0 0 0 
0 0 0 0 0 0 0 0 0 
0 0 0 0 0 0 0 0 0 
0 0 0 0 0 0 0 0 0 
0 0 0 0 0 0 0 0 0 
0 0 0 0 0 0 0 0 0 
0 0 0 0 0 0 0 0 0 
0 0 0 0 0 0 0 0 0 
0 0 0 0 0 0 0 0 0 
0 0 0 0 0 0 0 0 0 
0 0 0 0 0 0 0 0 0 
0 0 0 0 0 0 0 0 0 
0 0 0 0 0 0 0 0 0 
0 0 0 0 0 0 0 0 0 
0 0 0 0 0 0 0 0 0 
0 0 0 0 0 0 0 0 0 
0 0 0 0 0 0 0 0 0 
0 0 0 0 0 0 0 0 0 
0 0 0 0 0 0 0 0 0 
0 0 0 0 0 0 0 0 0 
0 0 0 0 0 0 0 0 0 
0 0 0 0 0 0 0 0 0 
0 0 0 0 0 0 0 0 0 
0 0 0 0 0 0 0 0 0 
0 0 0 0 0 0 0 0 0 
0 0 0 0 0 0 0 0 0 
0 0 0 0 0 0 0 0 0 
0 0 0 0 0 0 0 0 0 
0 0 0 0 0 0 0 0 0 
0 0 0 0 0 0 0 0 0 
0 0 0 0 0 0 0 0 0 
0 0 0 0 0 0 0 0 0 
0 0 0 0 0 0 0 0 0 
0 0 0 0 0 0 0 0 0 
0 0 0 0 0 0 0 0 0 
0 0 0 0 0 0 0 0 0 
0 0 0 0 0 0 0 0 0 
0 0 0 0 0 0 0 0 0 
0 0 0 0 0 0 0 0 0 
0 0 0 0 0 0 0 0 0 
0 0 0 0 0 0 0 0 0 
0 0 0 0 0 0 0 0 0 
0 0 0 0 0 0 0 0 0 

bottom 1 567 double
-0.0505479 -0.0505479 -0.0505479 -0.0505479 -0.0505479 -0.0505479 -0.0505479 -0.0505479 -0.0505479 
-0.0505479 -0.0505479 -0.0505479 -0.0505479 -0.0505479 -0.0505479 -0.0505479 -0.0505479 -0.0505479 
-0.0505479 -0.0505479 -0.0505479 -0.0505479 -0.0505479 -0.0505479 -0.0505479 -0.0505479 -0.0505479 
-0.0505479 -0.0505479 -0.0505479 -0.0505479 -0.0505479 -0.0505479 -0.0505479 -0.0505479 -0.0505479 
-0.0505479 -0.0505479 -0.0505479 -0.0505479 -0.0505479 -0.0505479 -0.0505479 -0.0505479 -0.0505479 
-0.0505479 -0.0505479 -0.0505479 -0.0505479 -0.0505479 -0.0505479 -0.0505479 -0.0505479 -0.0505479 
-0.0505479 -0.0505479 -0.0505479 -0.0505479 -0.0505479 -0.0505479 -0.0505479 -0.0505479 -0.0505479 
-0.0505479 -0.0505479 -0.0505479 -0.0505479 -0.0505479 -0.0505479 -0.0505479 -0.0505479 -0.0505479 
-0.0505479 -0.0505479 -0.0505479 -0.0505479 -0.0505479 -0.0505479 -0.0505479 -0.0505479 -0.0505479 
-0.0505479 -0.0505479 -0.0505479 -0.0505479 -0.0505479 -0.0505479 -0.0505479 -0.0505479 -0.0505479 
-0.0505479 -0.0505479 -0.0505479 -0.0505479 -0.0505479 -0.0505479 -0.0505479 -0.0505479 -0.0505479 
-0.0505479 -0.0505479 -0.0505479 -0.0505479 -0.0505479 -0.0505479 -0.0505479 -0.0505479 -0.0505479 
-0.0505479 -0.0505479 -0.0505479 -0.0505479 -0.0505479 -0.0505479 -0.0505479 -0.0505479 -0.0505479 
-0.0505479 -0.0505479 -0.0505479 -0.0505479 -0.0505479 -0.0505479 -0.0505479 -0.0505479 -0.0505479 
-0.0505479 -0.0505479 -0.0505479 -0.0505479 -0.0505479 -0.0505479 -0.0505479 -0.0505479 -0.0505479 
-0.0505479 -0.0505479 -0.0505479 -0.0505479 -0.0505479 -0.0505479 -0.0505479 -0.0505479 -0.0505479 
-0.0505479 -0.0505479 -0.0505479 -0.0505479 -0.0505479 -0.0505479 -0.0505479 -0.0505479 -0.0505479 
-0.0505479 -0.0505479 -0.0505479 -0.0505479 -0.0505479 -0.0505479 -0.0505479 -0.0505479 -0.0505479 
-0.0505479 -0.0505479 -0.0505479 -0.0505479 -0.0505479 -0.0505479 -0.0505479 -0.0505479 -0.0505479 
-0.0505479 -0.0505479 -0.0505479 -0.0505479 -0.0505479 -0.0505479 -0.0505479 -0.0505479 -0.0505479 
-0.0505479 -0.0505479 -0.0505479 -0.0505479 -0.0505479 -0.0505479 -0.0505479 -0.0505479 -0.0505479 
-0.0505479 -0.0505479 -0.0505479 -0.0505479 -0.0505479 -0.0505479 -0.0505479 -0.0505479 -0.0505479 
-0.0505479 -0.0505479 -0.0505479 -0.0505479 -0.0505479 -0.0505479 -0.0505479 -0.0505479 -0.0505479 
-0.0505479 -0.0505479 -0.0505479 -0.0505479 -0.0505479 -0.0505479 -0.0505479 -0.0505479 -0.0505479 
-0.0505479 -0.0505479 -0.0505479 -0.0505479 -0.0505479 -0.0505479 -0.0505479 -0.0505479 -0.0505479 
-0.0505479 -0.0505479 -0.0505479 -0.0505479 -0.0505479 -0.0505479 -0.0505479 -0.0505479 -0.0505479 
-0.0505479 -0.0505479 -0.0505479 -0.0505479 -0.0505479 -0.0505479 -0.0505479 -0.0505479 -0.0505479 
-0.0505479 -0.0505479 -0.0505479 -0.0505479 -0.0505479 -0.0505479 -0.0505479 -0.0505479 -0.0505479 
-0.0505479 -0.0505479 -0.0505479 -0.0505479 -0.0505479 -0.0505479 -0.0505479 -0.0505479 -0.0505479 
-0.0505479 -0.0505479 -0.0505479 -0.0505479 -0.0505479 -0.0505479 -0.0505479 -0.0505479 -0.0505479 
-0.0505479 -0.0505479 -0.0505479 -0.0505479 -0.0505479 -0.0505479 -0.0505479 -0.0505479 -0.0505479 
-0.0505479 -0.0505479 -0.0505479 -0.0505479 -0.0505479 -0.0505479 -0.0505479 -0.0505479 -0.0505479 
-0.0505479 -0.0505479 -0.0505479 -0.0505479 -0.0505479 -0.0505479 -0.0505479 -0.0505479 -0.0505479 
-0.0505479 -0.0505479 -0.0505479 -0.0505479 -0.0505479 -0.0505479 -0.0505479 -0.0505479 -0.0505479 
-0.0505479 -0.0505479 -0.0505479 -0.0505479 -0.0505479 -0.0505479 -0.0505479 -0.0505479 -0.0505479 
-0.0505479 -0.0505479 -0.0505479 -0.0505479 -0.0505479 -0.0505479 -0.0505479 -0.0505479 -0.0505479 
-0.0505479 -0.0505479 -0.0505479 -0.0505479 -0.0505479 -0.0505479 -0.0505479 -0.0505479 -0.0505479 
-0.0505479 -0.0505479 -0.0505479 -0.0505479 -0.0505479 -0.0505479 -0.0505479 -0.0505479 -0.0505479 
-0.0505479 -0.0505479 -0.0505479 -0.0505479 -0.0505479 -0.0505479 -0.0505479 -0.0505479 -0.0505479 
-0.0505479 -0.0505479 -0.0505479 -0.0505479 -0.0505479 -0.0505479 -0.0505479 -0.0505479 -0.0505479 
-0.0505479 -0.0505479 -0.0505479 -0.0505479 -0.0505479 -0.0505479 -0.0505479 -0.0505479 -0.0505479 
-0.0505479 -0.0505479 -0.0505479 -0.0505479 -0.0505479 -0.0505479 -0.0505479 -0.0505479 -0.0505479 
-0.0505479 -0.0505479 -0.0505479 -0.0505479 -0.0505479 -0.0505479 -0.0505479 -0.0505479 -0.0505479 
-0.0505479 -0.0505479 -0.0505479 -0.0505479 -0.0505479 -0.0505479 -0.0505479 -0.0505479 -0.0505479 
-0.0505479 -0.0505479 -0.0505479 -0.0505479 -0.0505479 -0.0505479 -0.0505479 -0.0505479 -0.0505479 
-0.0505479 -0.0505479 -0.0505479 -0.0505479 -0.0505479 -0.0505479 -0.0505479 -0.0505479 -0.0505479 
-0.0505479 -0.0505479 -0.0505479 -0.0505479 -0.0505479 -0.0505479 -0.0505479 -0.0505479 -0.0505479 
-0.0505479 -0.0505479 -0.0505479 -0.0505479 -0.0505479 -0.0505479 -0.0505479 -0.0505479 -0.0505479 
-0.0505479 -0.0505479 -0.0505479 -0.0505479 -0.0505479 -0.0505479 -0.0505479 -0.0505479 -0.0505479 
-0.0505479 -0.0505479 -0.0505479 -0.0505479 -0.0505479 -0.0505479 -0.0505479 -0.0505479 -0.0505479 
-0.0505479 -0.0505479 -0.0505479 -0.0505479 -0.0505479 -0.0505479 -0.0505479 -0.0505479 -0.0505479 
-0.0505479 -0.0505479 -0.0505479 -0.0505479 -0.0505479 -0.0505479 -0.0505479 -0.0505479 -0.0505479 
-0.0505479 -0.0505479 -0.0505479 -0.0505479 -0.0505479 -0.0505479 -0.0505479 -0.0505479 -0.0505479 
-0.0505479 -0.0505479 -0.0505479 -0.0505479 -0.0505479 -0.0505479 -0.0505479 -0.0505479 -0.0505479 
-0.0505479 -0.0505479 -0.0505479 -0.0505479 -0.0505479 -0.0505479 -0.0505479 -0.0505479 -0.0505479 
-0.0505479 -0.0505479 -0.0505479 -0.0505479 -0.0505479 -0.0505479 -0.0505479 -0.0505479 -0.0505479 
-0.0505479 -0.0505479 -0.0505479 -0.0505479 -0.0505479 -0.0505479 -0.0505479 -0.0505479 -0.0505479 
-0.0505479 -0.0505479 -0.0505479 -0.0505479 -0.0505479 -0.0505479 -0.0505479 -0.0505479 -0.0505479 
-0.0505479 -0.0505479 -0.0505479 -0.0505479 -0.0505479 -0.0505479 -0.0505479 -0.0505479 -0.0505479 
-0.0505479 -0.0505479 -0.0505479 -0.0505479 -0.0505479 -0.0505479 -0.0505479 -0.0505479 -0.0505479 
-0.0505479 -0.0505479 -0.0505479 -0.0505479 -0.0505479 -0.0505479 -0.0505479 -0.0505479 -0.0505479 
-0.0505479 -0.0505479 -0.0505479 -0.0505479 -0.0505479 -0.0505479 -0.0505479 -0.0505479 -0.0505479 
-0.0505479 -0.0505479 -0.0505479 -0.0505479 -0.0505479 -0.0505479 -0.0505479 -0.0505479 -0.0505479 

top 1 567 double
0.0494521 0.0494521 0.0494521 0.0494521 0.0494521 0.0494521 0.0494521 0.0494521 0.0494521 
0.0494521 0.0494521 0.0494521 0.0494521 0.0494521 0.0494521 0.0494521 0.0494521 0.0494521 
0.0494521 0.0494521 0.0494521 0.0494521 0.0494521 0.0494521 0.0494521 0.0494521 0.0494521 
0.0494521 0.0494521 0.0494521 0.0494521 0.0494521 0.0494521 0.0494521 0.0494521 0.0494521 
0.0494521 0.0494521 0.0494521 0.0494521 0.0494521 0.0494521 0.0494521 0.0494521 0.0494521 
0.0494521 0.0494521 0.0494521 0.0494521 0.0494521 0.0494521 0.0494521 0.0494521 0.0494521 
0.0494521 0.0494521 0.0494521 0.0494521 0.0494521 0.0494521 0.0494521 0.0494521 0.0494521 
0.0494521 0.0494521 0.0494521 0.0494521 0.0494521 0.0494521 0.0494521 0.0494521 0.0494521 
0.0494521 0.0494521 0.0494521 0.0494521 0.0494521 0.0494521 0.0494521 0.0494521 0.0494521 
0.0494521 0.0494521 0.0494521 0.0494521 0.0494521 0.0494521 0.0494521 0.0494521 0.0494521 
0.0494521 0.0494521 0.0494521 0.0494521 0.0494521 0.0494521 0.0494521 0.0494521 0.0494521 
0.0494521 0.0494521 0.0494521 0.0494521 0.0494521 0.0494521 0.0494521 0.0494521 0.0494521 
0.0494521 0.0494521 0.0494521 0.0494521 0.0494521 0.0494521 0.0494521 0.0494521 0.0494521 
0.0494521 0.0494521 0.0494521 0.0494521 0.0494521 0.0494521 0.0494521 0.0494521 0.0494521 
0.0494521 0.0494521 0.0494521 0.0494521 0.0494521 0.0494521 0.0494521 0.0494521 0.0494521 
0.0494521 0.0494521 0.0494521 0.0494521 0.0494521 0.0494521 0.0494521 0.0494521 0.0494521 
0.0494521 0.0494521 0.0494521 0.0494521 0.0494521 0.0494521 0.0494521 0.0494521 0.0494521 
0.0494521 0.0494521 0.0494521 0.0494521 0.0494521 0.0494521 0.0494521 0.0494521 0.0494521 
0.0494521 0.0494521 0.0494521 0.0494521 0.0494521 0.0494521 0.0494521 0.0494521 0.0494521 
0.0494521 0.0494521 0.0494521 0.0494521 0.0494521 0.0494521 0.0494521 0.0494521 0.0494521 
0.0494521 0.0494521 0.0494521 0.0494521 0.0494521 0.0494521 0.0494521 0.0494521 0.0494521 
0.0494521 0.0494521 0.0494521 0.0494521 0.0494521 0.0494521 0.0494521 0.0494521 0.0494521 
0.0494521 0.0494521 0.0494521 0.0494521 0.0494521 0.0494521 0.0494521 0.0494521 0.0494521 
0.0494521 0.0494521 0.0494521 0.0494521 0.0494521 0.0494521 0.0494521 0.0494521 0.0494521 
0.0494521 0.0494521 0.0494521 0.0494521 0.0494521 0.0494521 0.0494521 0.0494521 0.0494521 
0.0494521 0.0494521 0.0494521 0.0494521 0.0494521 0.0494521 0.0494521 0.0494521 0.0494521 
0.0494521 0.0494521 0.0494521 0.0494521 0.0494521 0.0494521 0.0494521 0.0494521 0.0494521 
0.0494521 0.0494521 0.0494521 0.0494521 0.0494521 0.0494521 0.0494521 0.0494521 0.0494521 
0.0494521 0.0494521 0.0494521 0.0494521 0.0494521 0.0494521 0.0494521 0.0494521 0.0494521 
0.0494521 0.0494521 0.0494521 0.0494521 0.0494521 0.0494521 0.0494521 0.0494521 0.0494521 
0.0494521 0.0494521 0.0494521 0.0494521 0.0494521 0.0494521 0.0494521 0.0494521 0.0494521 
0.0494521 0.0494521 0.0494521 0.0494521 0.0494521 0.0494521 0.0494521 0.0494521 0.0494521 
0.0494521 0.0494521 0.0494521 0.0494521 0.0494521 0.0494521 0.0494521 0.0494521 0.0494521 
0.0494521 0.0494521 0.0494521 0.0494521 0.0494521 0.0494521 0.0494521 0.0494521 0.0494521 
0.0494521 0.0494521 0.0494521 0.0494521 0.0494521 0.0494521 0.0494521 0.0494521 0.0494521 
0.0494521 0.0494521 0.0494521 0.0494521 0.0494521 0.0494521 0.0494521 0.0494521 0.0494521 
0.0494521 0.0494521 0.0494521 0.0494521 0.0494521 0.0494521 0.0494521 0.0494521 0.0494521 
0.0494521 0.0494521 0.0494521 0.0494521 0.0494521 0.0494521 0.0494521 0.0494521 0.0494521 
0.0494521 0.0494521 0.0494521 0.0494521 0.0494521 0.0494521 0.0494521 0.0494521 0.0494521 
0.0494521 0.0494521 0.0494521 0.0494521 0.0494521 0.0494521 0.0494521 0.0494521 0.0494521 
0.0494521 0.0494521 0.0494521 0.0494521 0.0494521 0.0494521 0.0494521 0.0494521 0.0494521 
0.0494521 0.0494521 0.0494521 0.0494521 0.0494521 0.0494521 0.0494521 0.0494521 0.0494521 
0.0494521 0.0494521 0.0494521 0.0494521 0.0494521 0.0494521 0.0494521 0.0494521 0.0494521 
0.0494521 0.0494521 0.0494521 0.0494521 0.0494521 0.0494521 0.0494521 0.0494521 0.0494521 
0.0494521 0.0494521 0.0494521 0.0494521 0.0494521 0.0494521 0.0494521 0.0494521 0.0494521 
0.0494521 0.0494521 0.0494521 0.0494521 0.0494521 0.0494521 0.0494521 0.0494521 0.0494521 
0.0494521 0.0494521 0.0494521 0.0494521 0.0494521 0.0494521 0.0494521 0.0494521 0.0494521 
0.0494521 0.0494521 0.0494521 0.0494521 0.0494521 0.0494521 0.0494521 0.0494521 0.0494521 
0.0494521 0.0494521 0.0494521 0.0494521 0.0494521 0.0494521 0.0494521 0.0494521 0.0494521 
0.0494521 0.0494521 0.0494521 0.0494521 0.0494521 0.0494521 0.0494521 0.0494521 0.0494521 
0.0494521 0.0494521 0.0494521 0.0494521 0.0494521 0.0494521 0.0494521 0.0494521 0.0494521 
0.0494521 0.0494521 0.0494521 0.0494521 0.0494521 0.0494521 0.0494521 0.0494521 0.0494521 
0.0494521 0.0494521 0.0494521 0.0494521 0.0494521 0.0494521 0.0494521 0.0494521 0.0494521 
0.0494521 0.0494521 0.0494521 0.0494521 0.0494521 0.0494521 0.0494521 0.0494521 0.0494521 
0.0494521 0.0494521 0.0494521 0.0494521 0.0494521 0.0494521 0.0494521 0.0494521 0.0494521 
0.0494521 0.0494521 0.0494521 0.0494521 0.0494521 0.0494521 0.0494521 0.0494521 0.0494521 
0.0494521 0.0494521 0.0494521 0.0494521 0.0494521 0.0494521 0.0494521 0.0494521 0.0494521 
0.0494521 0.0494521 0.0494521 0.0494521 0.0494521 0.0494521 0.0494521 0.0494521 0.0494521 
0.0494521 0.0494521 0.0494521 0.0494521 0.0494521 0.0494521 0.0494521 0.0494521 0.0494521 
0.0494521 0.0494521 0.0494521 0.0494521 0.0494521 0.0494521 0.0494521 0.0494521 0.0494521 
0.0494521 0.0494521 0.0494521 0.0494521 0.0494521 0.0494521 0.0494521 0.0494521 0.0494521 
0.0494521 0.0494521 0.0494521 0.0494521 0.0494521 0.0494521 0.0494521 0.0494521 0.0494521 
0.0494521 0.0494521 0.0494521 0.0494521 0.0494521 0.0494521 0.0494521 0.0494521 0.0494521 

