# vtk DataFile Version 4.0
vtk output
ASCII
DATASET POLYDATA
FIELD FieldData 4
domain 1 4 string
domain_min:-5|-5|-5
domain_max:5|5|5
cell_size:0.01|0.01|0.01
boundary:1|1|1

variables 1 8 string
T:0.465
dt:0.0005
A:-90.728
V:-0.0711167
Z:0.0230721
write_case:1
substeps:10
all_steps:930

constants 1 11 string
L:0.1
csize:0.01
R:0.004
mass:0.00210445
E:2.06e+06
nu:0.33
M:20
freq:10
gamma:62.8319
S:78956.8
g:0|0|-9.81

equations 1 9 string
time:T=(T+dt)#true
eq:a=(dem_l(v,om,R,mass,E,nu,0.1)/mass)#true
tank_acceleration:A=(((-(transpose((fsum(a)*mass))*e_k))-(S*Z))/M)#true
iv:v=euler(v,((a+g)-(A*e_k)),dt)#true
ia:r=euler(r,v,dt)#true
tank_velocity:V=euler(V,A,dt)#true
tank_position:Z=euler(Z,V,dt)#true
bottom:bottom=(Z-0.05)#true
top:top=(Z+0.05)#true

POINTS 567 float
-0.00774276 -0.0415104 -0.0419289 -0.00751694 -0.02054 -0.042913 -0.0145642 -0.00958982 -0.0401437 
0.0104791 0.0130564 -0.0408266 0.0279365 0.0296599 -0.0407761 0.01455 0.0402065 -0.040857 
-0.0438218 -0.043817 -0.0308049 -0.0357746 -0.0450281 -0.0311975 -0.0147273 -0.0413296 -0.0362812 
0.00245288 -0.0452871 -0.0357835 0.0103712 -0.0418556 -0.0345357 0.0378792 -0.044776 -0.0353245 
0.0459773 -0.0444052 -0.0388933 -0.0437388 -0.0336981 -0.0356168 -0.0359751 -0.0373504 -0.0355469 
-0.0230082 -0.033546 -0.0393872 -0.00287532 -0.0372219 -0.0359421 0.00503746 -0.0338732 -0.036687 
0.016888 -0.0385174 -0.0387124 0.0303749 -0.0338356 -0.0356395 0.0348137 -0.0385183 -0.0311814 
0.0423938 -0.0374069 -0.0392408 0.0442073 -0.0330447 -0.0323218 -0.0461488 -0.0272743 -0.0321437 
-0.0351367 -0.0273851 -0.0349941 -0.0248356 -0.0233894 -0.0382547 -0.0124727 -0.0298241 -0.0344282 
-0.00425579 -0.0292999 -0.03467 0.00257395 -0.0240508 -0.0362061 0.013418 -0.0245398 -0.0346842 
0.0204011 -0.0293704 -0.0347271 0.0237302 -0.0211602 -0.0344673 0.039272 -0.0240201 -0.0365191 
-0.0460769 -0.0194632 -0.0314937 -0.0374399 -0.0152879 -0.0329109 -0.0210099 -0.0110206 -0.0334828 
-0.0296478 -0.0137015 -0.0330455 -0.019395 -0.0191967 -0.0338508 -0.000586609 -0.0168541 -0.0347666 
0.00908257 -0.0179125 -0.0330776 0.0185836 -0.0130714 -0.0365356 0.0347089 -0.0137656 -0.0327336 
0.0430664 -0.0135018 -0.0346647 -0.0461386 -0.000929861 -0.0397384 -0.0420709 -0.00776216 -0.0373883 
-0.0351396 -0.00697234 -0.0310392 -0.0283867 -0.00422638 -0.034014 -0.020485 -0.00327429 -0.0356642 
-0.00845156 -0.00979851 -0.0351838 0.011956 -0.00721409 -0.033578 0.0275032 -0.00991409 -0.0349263 
0.0380772 -0.00595386 -0.0392239 0.0457059 -0.00411824 -0.032748 -0.025371 0.00379468 -0.0341945 
-0.0159424 0.00532726 -0.0372426 -0.00611557 0.00797031 -0.0376936 0.00167637 0.0009739 -0.0315905 
0.00703561 0.00685947 -0.0370025 0.0184684 0.0083951 -0.0335193 0.0164353 0.000668578 -0.0343339 
0.025909 0.00245074 -0.0391517 -0.0317379 0.0140746 -0.0397601 -0.0389059 0.0109105 -0.0307411 
-0.0381692 0.0185157 -0.0383283 -0.0263659 0.0116944 -0.0304739 -0.0245603 0.0172266 -0.035728 
-0.0153159 0.0137499 -0.0343526 -0.00898573 0.0183364 -0.0354253 0.000169241 0.01318 -0.0361093 
0.0332054 0.0130345 -0.0338743 0.044141 0.0129893 -0.0330346 -0.0453427 0.0245332 -0.0367886 
-0.0308154 0.0236178 -0.0379967 -0.0172834 0.0245378 -0.0341301 -0.00674551 0.0262188 -0.0342826 
0.0095246 0.0277532 -0.0324182 0.00498702 0.0206718 -0.032042 0.0239446 0.0292449 -0.0305489 
0.0224875 0.0218984 -0.0371007 0.0359459 0.027223 -0.0327383 0.0328021 0.0204502 -0.03829 
0.0408821 0.0225922 -0.0377733 -0.0400366 0.0372908 -0.0384665 -0.0271157 0.0317462 -0.0369551 
-0.0229656 0.0358342 -0.0308745 -0.0153405 0.0338405 -0.0333919 -0.00432838 0.0366798 -0.0366143 
0.00268245 0.0315048 -0.0362959 0.010583 0.0366649 -0.0313959 0.0171231 0.0323058 -0.0317109 
0.0242163 0.0372024 -0.030674 0.0358518 0.0360665 -0.0341154 0.0460802 0.0365812 -0.0324854 
-0.0397117 0.0434238 -0.0325361 -0.022869 0.046279 -0.0345029 -0.00599367 0.0453244 -0.0375067 
0.00178681 0.0434242 -0.0308582 0.00647636 0.0434787 -0.037901 0.0213123 0.0430174 -0.0357062 
0.0301319 0.0440317 -0.0319013 0.0424589 0.0461579 -0.0373659 -0.0453777 -0.045317 -0.021884 
-0.0243129 -0.0404742 -0.0253437 -0.0117199 -0.0461708 -0.0212085 0.00384972 -0.0433355 -0.0215242 
0.0117881 -0.0402162 -0.0252271 0.0299742 -0.0451716 -0.0204923 0.0245764 -0.0446296 -0.0294757 
0.0442373 -0.0438305 -0.0270037 -0.0444512 -0.036549 -0.0280809 -0.042744 -0.0313658 -0.0222308 
-0.0344252 -0.0305233 -0.0226291 -0.0262113 -0.0329515 -0.0284911 -0.0202907 -0.0339121 -0.0207446 
-0.0127926 -0.0361167 -0.0260018 -0.00206083 -0.0351102 -0.0212563 -0.00533061 -0.0383366 -0.0280828 
0.00763323 -0.0313034 -0.0215563 0.0150354 -0.0324784 -0.0253907 0.0221411 -0.0370999 -0.0275083 
0.0339698 -0.0306548 -0.0280253 -0.0400679 -0.0243304 -0.0281382 -0.0455421 -0.0230051 -0.0205259 
-0.0323862 -0.0210001 -0.0213436 -0.0269152 -0.026604 -0.021397 -0.0194456 -0.0251532 -0.0270213 
-0.00246139 -0.0243467 -0.0236985 0.0245104 -0.0261006 -0.026367 0.0430884 -0.0220279 -0.0289429 
-0.0458961 -0.0150765 -0.0242476 -0.0385589 -0.0163853 -0.0219201 -0.0208144 -0.0131695 -0.0229954 
-0.0261214 -0.0181687 -0.0274955 -0.0127948 -0.018902 -0.0292696 -0.00399214 -0.0149997 -0.0229012 
0.00241158 -0.0107885 -0.0271744 0.0287768 -0.0157268 -0.0259616 0.0436506 -0.0147681 -0.0218039 
-0.0250439 -0.00609458 -0.0203789 -0.00157571 -0.00365184 -0.0240107 -0.00876111 -0.00539212 -0.0277247 
0.00782437 -0.00293686 -0.0274697 0.0161426 -0.00152218 -0.0259117 0.0123584 -0.00668624 -0.0209527 
0.025337 -0.00987423 -0.0225482 0.0229269 -0.00366738 -0.0294287 0.0300954 -0.00064197 -0.0222565 
0.0380644 -0.00138902 -0.0206047 0.0394416 -0.00874506 -0.0270049 -0.0448224 0.0015575 -0.0230312 
-0.036918 0.00267679 -0.0298555 -0.0378525 0.00943229 -0.0208846 -0.0269851 0.000992779 -0.0257834 
-0.0136206 0.000243032 -0.0203981 -0.00950084 0.00231803 -0.0293294 0.00743114 0.00896674 -0.0211334 
0.0156644 0.00660575 -0.0231295 0.02366 0.00565575 -0.0271469 0.0345057 0.00625112 -0.0262546 
0.0425884 0.00448925 -0.02649 -0.0462933 0.0116743 -0.0266867 -0.042593 0.0193885 -0.0295836 
-0.0308479 0.0144109 -0.0246088 -0.020141 0.0170649 -0.0213674 -0.0120621 0.0146348 -0.0215462 
-0.00778472 0.0113239 -0.0271148 0.00357555 0.019763 -0.0216346 0.0114731 0.0147389 -0.0244899 
0.0208115 0.0130992 -0.0232778 0.0278176 0.0171187 -0.0290355 0.0377471 0.0136421 -0.0247795 
-0.0435967 0.0262155 -0.0245815 -0.0364893 0.0234772 -0.0241701 -0.028247 0.0238487 -0.0254802 
-0.00435622 0.0224359 -0.0263652 0.00388684 0.0280924 -0.0222867 0.0152967 0.0207705 -0.0287216 
0.0343577 0.0246573 -0.0232663 0.04129 0.0248244 -0.0271531 -0.0444254 0.0364849 -0.0261864 
-0.0292512 0.036192 -0.0205597 -0.0187874 0.0364211 -0.022844 -0.0109123 0.0368708 -0.0219187 
-0.00337264 0.0304165 -0.0218144 0.00274867 0.0356856 -0.0245421 0.0154805 0.0395578 -0.0256455 
0.0226401 0.0312695 -0.0218414 0.0297397 0.0387261 -0.0234588 -0.0461871 0.0441978 -0.0280624 
-0.0340588 0.0403214 -0.0256505 -0.0242707 0.0430658 -0.0206061 -0.0119657 0.041827 -0.0282487 
-0.0186844 0.0458742 -0.0270242 0.0227901 0.0446855 -0.025697 0.0385986 0.042825 -0.0224064 
0.0461561 0.045807 -0.0263159 -0.0363884 -0.0440623 -0.0103836 -0.0174961 -0.0411862 -0.0174352 
-0.00377543 -0.0453379 -0.0167957 0.012744 -0.0448221 -0.0181186 0.039689 -0.0432296 -0.0129909 
-0.0340222 -0.0360486 -0.0160133 -0.0261546 -0.0367832 -0.0109235 -0.0128376 -0.0367111 -0.0128887 
-0.00919622 -0.0310306 -0.0191922 -0.000665437 -0.0396398 -0.0105451 0.00692767 -0.0371032 -0.0154166 
0.0164747 -0.0358277 -0.0144369 0.0299271 -0.0321392 -0.0188989 0.0225673 -0.0387441 -0.0187131 
0.0364471 -0.0364372 -0.0156108 -0.040149 -0.0235293 -0.0145812 -0.0185022 -0.0219569 -0.0169517 
-0.00897619 -0.0217115 -0.014901 0.00652866 -0.02589 -0.0159547 0.0136864 -0.0223426 -0.0145925 
0.0219435 -0.0226 -0.0110289 0.0335149 -0.025973 -0.0139488 0.0450256 -0.0294615 -0.0188795 
-0.0396569 -0.0162844 -0.012345 -0.0325324 -0.0129664 -0.0105198 -0.0338529 -0.0114412 -0.0183028 
-0.0144655 -0.0132742 -0.014 0.00949699 -0.0166058 -0.0188153 0.00144374 -0.0182965 -0.0163695 
0.0160244 -0.0120603 -0.0157388 0.0290398 -0.0129136 -0.0123209 0.0355046 -0.0171227 -0.0173012 
-0.0452347 -0.00820237 -0.0183253 -0.0308559 -0.000825898 -0.0135763 -0.0384689 -0.00338272 -0.0195831 
-0.0201662 -0.00817829 -0.0104532 -0.00604719 -0.00571702 -0.0110362 0.00498346 -0.00977718 -0.0106536 
0.0199808 -0.0055378 -0.017569 0.0364255 -0.00809234 -0.0167669 0.0461585 -0.00444409 -0.0159131 
-0.0223258 0.00959507 -0.0189916 -0.0131138 0.000628739 -0.0113905 -0.012136 0.00932558 -0.0155988 
-0.00696294 0.000618243 -0.0163422 0.00110117 0.00240382 -0.0192374 0.0156623 0.00535969 -0.0152082 
0.0271169 0.00902881 -0.0132999 0.0279115 0.000833192 -0.014532 0.0449946 0.00794695 -0.010844 
-0.0406722 0.0184039 -0.0171194 -0.0350088 0.0126365 -0.0123359 -0.0249008 0.0141532 -0.0107555 
-0.017062 0.0171325 -0.0110519 -0.00361128 0.01983 -0.0120635 -0.00464784 0.0107331 -0.0195564 
0.000118218 0.0126082 -0.0109683 0.00507272 0.0198885 -0.0138796 0.0085693 0.0113367 -0.0132974 
0.0170252 0.0175238 -0.0172323 0.0284675 0.0194343 -0.0159521 0.0368079 0.0181212 -0.0170213 
0.041962 0.0155873 -0.0106983 0.0456615 0.0134123 -0.0197636 -0.0319794 0.0229283 -0.0128345 
-0.0215796 0.0237896 -0.0151425 -0.013901 0.0222045 -0.01614 0.000146481 0.0269704 -0.0123585 
0.0122091 0.0214879 -0.0107418 0.022528 0.0259713 -0.0161016 0.0445918 0.0245015 -0.0169277 
-0.0460909 0.0356673 -0.0126457 -0.0367129 0.0347769 -0.0183969 -0.0240177 0.0350387 -0.0113212 
-0.0151296 0.0300731 -0.0185304 -0.00283418 0.0362894 -0.0143322 0.00663611 0.0371808 -0.0124899 
0.0114625 0.0354033 -0.0189665 0.0126773 0.0304734 -0.0107671 0.042056 0.0334319 -0.0172136 
-0.0454166 0.0443704 -0.0174272 -0.030347 0.0426911 -0.0146899 -0.0391143 0.0414932 -0.0137634 
-0.0229554 0.042879 -0.0111749 -0.0161096 0.0439534 -0.0166173 -0.00831787 0.0459269 -0.0165758 
0.00123648 0.0439043 -0.0185902 0.00978533 0.0448399 -0.0166802 0.0234677 0.0444011 -0.0148877 
-0.0424923 -0.0400547 -0.00655007 -0.0265639 -0.0438821 -0.00614913 -0.0165427 -0.0416483 -0.00425608 
-0.00846083 -0.0452262 -0.00497383 0.0143369 -0.0453295 -0.00826028 0.020539 -0.0400161 -0.00832329 
0.0280913 -0.0448111 -0.00867407 0.0335305 -0.0444556 -0.00224201 -0.0355266 -0.0304442 -0.00997303 
-0.0354785 -0.0379172 -0.00532784 -0.020474 -0.0310997 -0.00988492 -0.0267264 -0.036508 -0.00184976 
0.00812976 -0.0392231 -0.00148007 0.0213811 -0.032311 -0.00452601 0.038934 -0.0374678 -0.00385109 
-0.044155 -0.0210103 -0.00248513 -0.0363761 -0.0211506 -0.00781625 -0.0274525 -0.0250538 -0.00908076 
-0.0201901 -0.0222933 -0.00632809 -0.0253458 -0.0274827 -0.000289258 -0.0159462 -0.0296133 -0.00248415 
-0.00711331 -0.0293169 -0.00960903 0.00488479 -0.0283939 -0.00615905 0.0308561 -0.0201368 -0.00608369 
0.033313 -0.0284676 -0.00423006 0.0444873 -0.0215143 -0.00600897 -0.000665018 -0.0199795 -0.00894178 
0.00778935 -0.0135509 -0.000116246 0.00963938 -0.0182175 -0.00682021 0.0164814 -0.0183489 -0.00199094 
0.0205877 -0.0126343 -0.00857685 0.0309406 -0.011898 -0.0037806 0.0365242 -0.0157906 -0.00919897 
0.0442316 -0.0117911 -0.00445172 -0.0445628 -0.00302525 -0.00740309 -0.043631 -0.00890266 -0.00254751 
-0.0313303 -0.00264617 -0.00516696 -0.0390218 -0.00879829 -0.00994956 -0.0109398 -0.00916509 -0.00110473 
-0.000512864 -0.004811 -0.00421265 0.0056607 -0.000609068 -0.00644966 0.0131358 -0.00833923 -0.00393511 
0.017853 -0.00298885 -0.00892967 0.0220461 -0.00745975 -0.00190024 0.0352 -0.00510965 -0.0073492 
0.0447138 -0.00174795 -0.00595418 -0.0372577 0.00334688 -0.00807893 -0.0221278 0.00670181 -0.00530726 
-0.00971827 0.00749716 -0.00413916 -0.0033397 0.00332773 -0.00877514 0.0114755 0.00479329 -0.0012214 
0.028908 0.00187615 -0.00582108 0.0419339 0.00581817 -0.00306485 -0.0457632 0.0139019 -0.00957325 
-0.0425329 0.0126168 -0.000466433 -0.0344465 0.0180619 -0.0037068 -0.00950533 0.0185263 -0.00252397 
0.0181553 0.0101568 -0.00549699 0.0294071 0.019314 -0.000674722 0.0219659 0.0179867 -0.00557561 
0.0453216 0.0198659 -0.000260069 -0.0431061 0.0205921 -0.00102639 -0.0454696 0.0281916 -0.000868173 
-0.0228008 0.0281698 -0.00775544 -0.00869052 0.0286647 -0.00488612 0.00714085 0.0283678 -0.00515729 
0.0158427 0.0216657 -0.00155215 0.0170161 0.0296827 -0.00156056 0.0297532 0.026662 -0.0085612 
0.0388809 0.0288204 -0.00183152 0.0395933 0.0231811 -0.00809165 0.0460134 0.0272305 -0.00471808 
-0.03789 0.0345547 -0.00418901 -0.0155911 0.0345086 -0.00848241 -0.0004793 0.0373445 -0.00447841 
0.0118482 0.0370879 -0.00440634 -0.0364813 0.0423344 -0.00643594 -0.029551 0.0458561 -0.00578836 
-0.0174704 0.0424043 -0.000714669 -0.00755453 0.0451021 -0.00524822 0.00569545 0.0460169 -0.00235524 
0.0147447 0.0450808 -0.00354428 0.0332754 0.0432529 -0.00859671 -0.025556 -0.0457581 0.00849315 
-0.00119445 -0.0410507 0.00041724 -0.009624 -0.0456334 0.00418955 0.0102976 -0.0447517 0.00532187 
-0.0456483 -0.03826 0.0092319 -0.0363573 -0.0322497 0.00230701 -0.0358425 -0.0385113 0.00790981 
-0.0199152 -0.0372543 0.00901328 -0.0148769 -0.0374135 0.00233197 -0.00504876 -0.0327078 0.00385865 
0.00372762 -0.0346564 0.00481353 0.0236245 -0.0378491 0.0068239 0.0295427 -0.0377868 0.0014378 
-0.0450028 -0.0208534 0.00569384 -0.0318637 -0.0231086 0.00415956 -0.0242968 -0.0202408 0.00853866 
-0.0173662 -0.0256643 0.00877735 -0.00171206 -0.0256073 0.00419094 0.0165492 -0.0242834 0.00538683 
0.0104029 -0.0297393 0.00472089 0.0329532 -0.0297375 0.00855903 0.0413833 -0.0299476 0.00326656 
-0.0330131 -0.0122733 0.00937603 -0.0123944 -0.0199137 0.00281631 0.0092136 -0.0100308 0.00948762 
0.018891 -0.0102221 0.00799242 0.0276063 -0.0194301 0.0023789 0.0366635 -0.0137342 0.00267182 
0.0460147 -0.0169408 0.0050584 -0.0324239 -0.00247002 0.00779839 -0.0193907 -0.00521722 0.00225604 
0.015178 -0.0036458 0.00564287 0.0299702 -0.00113715 0.0085775 0.0385514 -0.00584952 0.0029791 
0.0459607 -0.00152536 0.00285772 -0.044827 0.00410969 8.178e-05 -0.0329985 0.00549034 0.000146585 
-0.0290253 0.006314 0.00757506 0.00532754 0.00619171 0.00834271 -0.0407953 0.0153073 0.00755868 
-0.0282973 0.0137977 0.00961616 -0.01466 0.0123847 0.000748697 -0.00426588 0.0145261 0.00691 
0.00766579 0.0116789 0.00257491 0.0425422 0.0114546 0.0042244 -0.0432926 0.0238199 0.00746585 
-0.0282316 0.0282054 0.00189379 -0.0212778 0.0229317 0.00393601 -0.0137044 0.0237851 0.00278448 
-0.00440112 0.0239712 0.000962793 0.00415841 0.0246827 0.00254029 0.00983728 0.0200189 0.00771729 
0.0150599 0.0257624 0.00518117 0.025406 0.0245797 0.00843259 0.037049 0.0215338 0.00222248 
-0.0454311 0.0369162 0.00616318 -0.038633 0.0396927 0.00178201 -0.0354561 0.0314328 0.00285022 
-0.0224388 0.0343944 0.00470413 -0.0290092 0.0356594 0.000409091 -0.00987328 0.0339935 0.00282876 
0.0274352 0.0315277 0.00109956 0.0318528 0.0383514 0.00170979 0.0435427 0.0347431 0.00308801 
-0.0462208 0.0441965 0.000892122 -0.0344039 0.0437283 0.00903561 0.0234669 0.0442063 0.0018838 
0.0370093 0.0445773 0.00240674 0.0463109 0.0433008 4.24111e-05 -0.0404014 -0.0448685 0.0136861 
-0.0331592 -0.0458425 0.0114576 -0.00425025 -0.0409003 0.0171772 0.0200412 -0.0418787 0.0141837 
0.0385934 -0.0463457 0.0146372 -0.0422651 -0.031311 0.0126074 -0.032578 -0.0386679 0.0153679 
-0.0336681 -0.0300286 0.0149441 -0.0240438 -0.032097 0.014541 0.00488178 -0.0318917 0.0157523 
0.0243549 -0.030838 0.0195753 -0.0306391 -0.0213949 0.0178652 -0.0387973 -0.0224387 0.0104009 
-0.00705071 -0.0220799 0.0151298 0.00196292 -0.0251724 0.0179758 0.00935225 -0.0238738 0.0195821 
-0.0385522 -0.015247 0.015414 -0.00274418 -0.0153514 0.0117709 0.00652292 -0.0146293 0.015828 
0.0157689 -0.0192881 0.0148159 0.0358575 -0.0158913 0.014015 -0.0461951 -0.00359967 0.0166722 
-0.0268277 -0.00700982 0.0119309 -0.0161126 -0.00914486 0.017675 0.00273538 -0.00668298 0.0108722 
0.0441465 -0.00634266 0.0128845 -0.0435366 0.00506117 0.0171453 -0.0110339 0.00476613 0.0193766 
0.000482214 0.00198004 0.0183699 0.0255248 0.00458047 0.0134779 0.0318857 0.00670527 0.0195126 
0.0449227 0.000818536 0.0151594 -0.0453077 0.013977 0.0144276 -0.0126036 0.0180693 0.0160638 
0.032726 0.0194698 0.0148038 0.0382627 0.0102694 0.0107362 0.0446905 0.0183442 0.0107294 
-0.0204795 0.0266682 0.0150247 -0.0277065 0.0232977 0.0169685 -0.00900557 0.0254605 0.0180205 
0.0184578 0.0211888 0.0152797 0.0254862 0.0267606 0.0160969 -0.0306067 0.0329375 0.0145319 
-0.0252319 0.0383441 0.0154856 -0.0117164 0.0366514 0.0114503 -0.00225417 0.0314363 0.0101013 
0.00505105 0.0350822 0.0151649 -0.0395539 0.0454419 0.018386 0.000515787 0.0423734 0.0168333 
0.00754094 0.0430517 0.0141623 0.0426882 0.0460365 0.0123217 -0.0145649 -0.0462324 0.0280514 
-0.00150478 -0.0407409 0.0258627 0.011044 -0.0450911 0.0261664 0.0317379 -0.0410298 0.0207523 
0.0446769 -0.0429412 0.0218559 0.0146757 -0.0351488 0.0215295 0.0353083 -0.0321528 0.0223927 
0.0445395 -0.0320881 0.0246277 -0.035903 -0.025585 0.0223823 -0.00677125 -0.0275535 0.0211217 
0.0185395 -0.0217534 0.0288825 0.0201712 -0.0227544 0.0203935 0.00244228 -0.0101555 0.0220952 
0.0119496 -0.0169222 0.0234535 0.020791 -0.0121568 0.0228946 0.0377532 -0.0167957 0.0220817 
-0.0224748 -0.00605021 0.0216927 -0.0175609 -0.00829466 0.0273916 0.0285513 -0.00580495 0.0249947 
0.0209592 -0.00376967 0.0223754 -0.0265754 0.00562461 0.025679 -0.0186867 0.0073074 0.0237854 
0.00079533 0.00670378 0.0252914 -0.0386049 0.0117623 0.0266436 -0.0325988 0.0180443 0.0200484 
0.00245125 0.018158 0.0219371 0.0439796 0.0185977 0.0219514 -0.0406944 0.0206829 0.0258076 
-0.0269841 0.0239068 0.0285354 -0.0106524 0.0268865 0.0296439 0.011571 0.0242962 0.0213342 
0.0315722 0.0248665 0.0239072 -0.0396383 0.0372281 0.0210619 -0.0390222 0.0313237 0.0270101 
-0.0166395 0.0362564 0.02201 0.00260022 0.0337152 0.0283636 0.014811 0.0369409 0.0227148 
0.0336931 0.0330579 0.0208699 0.0379138 0.0369214 0.0284615 0.0431157 0.0305886 0.0202616 
0.0262064 0.0436552 0.0286587 -0.00619993 -0.0415661 0.0344728 0.0204924 -0.0402828 0.0318817 
0.0447071 -0.0440676 0.0345257 -0.0416198 -0.0320487 0.0349996 -0.0381687 -0.0399019 0.0327786 
-0.0325786 -0.0355407 0.0387873 0.0329411 -0.0335856 0.0363953 0.0204194 -0.0277967 0.0343182 
0.0315841 -0.0260821 0.0365674 0.0414733 -0.0224971 0.0317633 0.013627 -0.0180362 0.0344708 
0.0448341 -0.0128517 0.0303142 -0.0301476 -0.0010407 0.0310692 -0.0163719 -0.000852739 0.0315531 
0.00559883 -0.00714513 0.0335683 -0.0383595 0.0032286 0.031378 -0.00410626 0.00257415 0.036722 
-0.00303846 0.00958081 0.0336793 -0.0333477 0.0100296 0.0378356 -0.0309761 0.0165595 0.034211 
-0.00457148 0.0156971 0.0382307 0.0326356 0.0256421 0.0364064 0.0448762 0.0233441 0.0338167 
-0.0420217 0.0342457 0.0374008 -0.0381732 0.0382653 0.0309027 -0.038321 -0.0433226 0.0477868 
0.00405428 -0.0457785 0.0401579 0.00520501 -0.0335745 0.0432982 0.0135683 -0.0108893 0.0442965 
0.0403309 -0.0156373 0.0440456 -0.00118439 0.01954 0.0456234 0.00389349 0.0135355 0.0456714 
-0.021178 0.0266103 0.0474545 0.00190112 0.0292944 0.0410008 0.0366049 0.0235087 0.0435486 
0.0316667 0.0274524 0.0470022 0.0444337 0.0308906 0.0413704 0.0296513 0.045589 0.042025 

VERTICES 1134 1134
1 0 
1 1 
1 2 
1 3 
1 4 
1 5 
1 6 
1 7 
1 8 
1 9 
1 10 
1 11 
1 12 
1 13 
1 14 
1 15 
1 16 
1 17 
1 18 
1 19 
1 20 
1 21 
1 22 
1 23 
1 24 
1 25 
1 26 
1 27 
1 28 
1 29 
1 30 
1 31 
1 32 
1 33 
1 34 
1 35 
1 36 
1 37 
1 38 
1 39 
1 40 
1 41 
1 42 
1 43 
1 44 
1 45 
1 46 
1 47 
1 48 
1 49 
1 50 
1 51 
1 52 
1 53 
1 54 
1 55 
1 56 
1 57 
1 58 
1 59 
1 60 
1 61 
1 62 
1 63 
1 64 
1 65 
1 66 
1 67 
1 68 
1 69 
1 70 
1 71 
1 72 
1 73 
1 74 
1 75 
1 76 
1 77 
1 78 
1 79 
1 80 
1 81 
1 82 
1 83 
1 84 
1 85 
1 86 
1 87 
1 88 
1 89 
1 90 
1 91 
1 92 
1 93 
1 94 
1 95 
1 96 
1 97 
1 98 
1 99 
1 100 
1 101 
1 102 
1 103 
1 104 
1 105 
1 106 
1 107 
1 108 
1 109 
1 110 
1 111 
1 112 
1 113 
1 114 
1 115 
1 116 
1 117 
1 118 
1 119 
1 120 
1 121 
1 122 
1 123 
1 124 
1 125 
1 126 
1 127 
1 128 
1 129 
1 130 
1 131 
1 132 
1 133 
1 134 
1 135 
1 136 
1 137 
1 138 
1 139 
1 140 
1 141 
1 142 
1 143 
1 144 
1 145 
1 146 
1 147 
1 148 
1 149 
1 150 
1 151 
1 152 
1 153 
1 154 
1 155 
1 156 
1 157 
1 158 
1 159 
1 160 
1 161 
1 162 
1 163 
1 164 
1 165 
1 166 
1 167 
1 168 
1 169 
1 170 
1 171 
1 172 
1 173 
1 174 
1 175 
1 176 
1 177 
1 178 
1 179 
1 180 
1 181 
1 182 
1 183 
1 184 
1 185 
1 186 
1 187 
1 188 
1 189 
1 190 
1 191 
1 192 
1 193 
1 194 
1 195 
1 196 
1 197 
1 198 
1 199 
1 200 
1 201 
1 202 
1 203 
1 204 
1 205 
1 206 
1 207 
1 208 
1 209 
1 210 
1 211 
1 212 
1 213 
1 214 
1 215 
1 216 
1 217 
1 218 
1 219 
1 220 
1 221 
1 222 
1 223 
1 224 
1 225 
1 226 
1 227 
1 228 
1 229 
1 230 
1 231 
1 232 
1 233 
1 234 
1 235 
1 236 
1 237 
1 238 
1 239 
1 240 
1 241 
1 242 
1 243 
1 244 
1 245 
1 246 
1 247 
1 248 
1 249 
1 250 
1 251 
1 252 
1 253 
1 254 
1 255 
1 256 
1 257 
1 258 
1 259 
1 260 
1 261 
1 262 
1 263 
1 264 
1 265 
1 266 
1 267 
1 268 
1 269 
1 270 
1 271 
1 272 
1 273 
1 274 
1 275 
1 276 
1 277 
1 278 
1 279 
1 280 
1 281 
1 282 
1 283 
1 284 
1 285 
1 286 
1 287 
1 288 
1 289 
1 290 
1 291 
1 292 
1 293 
1 294 
1 295 
1 296 
1 297 
1 298 
1 299 
1 300 
1 301 
1 302 
1 303 
1 304 
1 305 
1 306 
1 307 
1 308 
1 309 
1 310 
1 311 
1 312 
1 313 
1 314 
1 315 
1 316 
1 317 
1 318 
1 319 
1 320 
1 321 
1 322 
1 323 
1 324 
1 325 
1 326 
1 327 
1 328 
1 329 
1 330 
1 331 
1 332 
1 333 
1 334 
1 335 
1 336 
1 337 
1 338 
1 339 
1 340 
1 341 
1 342 
1 343 
1 344 
1 345 
1 346 
1 347 
1 348 
1 349 
1 350 
1 351 
1 352 
1 353 
1 354 
1 355 
1 356 
1 357 
1 358 
1 359 
1 360 
1 361 
1 362 
1 363 
1 364 
1 365 
1 366 
1 367 
1 368 
1 369 
1 370 
1 371 
1 372 
1 373 
1 374 
1 375 
1 376 
1 377 
1 378 
1 379 
1 380 
1 381 
1 382 
1 383 
1 384 
1 385 
1 386 
1 387 
1 388 
1 389 
1 390 
1 391 
1 392 
1 393 
1 394 
1 395 
1 396 
1 397 
1 398 
1 399 
1 400 
1 401 
1 402 
1 403 
1 404 
1 405 
1 406 
1 407 
1 408 
1 409 
1 410 
1 411 
1 412 
1 413 
1 414 
1 415 
1 416 
1 417 
1 418 
1 419 
1 420 
1 421 
1 422 
1 423 
1 424 
1 425 
1 426 
1 427 
1 428 
1 429 
1 430 
1 431 
1 432 
1 433 
1 434 
1 435 
1 436 
1 437 
1 438 
1 439 
1 440 
1 441 
1 442 
1 443 
1 444 
1 445 
1 446 
1 447 
1 448 
1 449 
1 450 
1 451 
1 452 
1 453 
1 454 
1 455 
1 456 
1 457 
1 458 
1 459 
1 460 
1 461 
1 462 
1 463 
1 464 
1 465 
1 466 
1 467 
1 468 
1 469 
1 470 
1 471 
1 472 
1 473 
1 474 
1 475 
1 476 
1 477 
1 478 
1 479 
1 480 
1 481 
1 482 
1 483 
1 484 
1 485 
1 486 
1 487 
1 488 
1 489 
1 490 
1 491 
1 492 
1 493 
1 494 
1 495 
1 496 
1 497 
1 498 
1 499 
1 500 
1 501 
1 502 
1 503 
1 504 
1 505 
1 506 
1 507 
1 508 
1 509 
1 510 
1 511 
1 512 
1 513 
1 514 
1 515 
1 516 
1 517 
1 518 
1 519 
1 520 
1 521 
1 522 
1 523 
1 524 
1 525 
1 526 
1 527 
1 528 
1 529 
1 530 
1 531 
1 532 
1 533 
1 534 
1 535 
1 536 
1 537 
1 538 
1 539 
1 540 
1 541 
1 542 
1 543 
1 544 
1 545 
1 546 
1 547 
1 548 
1 549 
1 550 
1 551 
1 552 
1 553 
1 554 
1 555 
1 556 
1 557 
1 558 
1 559 
1 560 
1 561 
1 562 
1 563 
1 564 
1 565 
1 566 

POINT_DATA 567
SCALARS id double
LOOKUP_TABLE default
416 483 62 428 438 365 140 143 295 
4 526 505 386 101 84 336 460 211 
441 193 500 468 402 241 13 77 27 
326 537 442 201 472 542 82 93 262 
56 129 139 261 462 267 557 314 210 
415 473 171 266 517 396 418 64 108 
60 296 240 419 384 498 14 97 164 
299 73 207 489 286 554 426 550 228 
112 232 553 148 276 323 282 515 237 
394 234 239 28 287 343 351 484 541 
564 246 425 199 503 392 546 332 367 
502 387 23 7 512 69 383 456 406 
518 26 17 55 115 41 252 528 273 
6 315 322 519 461 95 103 76 340 
399 385 535 275 33 90 256 222 397 
40 523 453 83 142 258 477 333 560 
409 516 401 163 324 162 218 427 338 
371 80 506 192 366 493 435 58 182 
281 92 113 319 185 391 530 429 475 
151 176 223 53 212 183 125 421 168 
231 360 309 499 289 155 471 562 32 
373 121 303 153 548 339 306 29 329 
203 327 457 8 190 253 197 464 147 
260 354 89 128 198 407 161 448 134 
274 458 469 118 11 132 94 509 424 
487 381 430 34 88 298 68 54 141 
549 135 341 344 110 235 10 449 353 
352 278 372 227 99 38 119 355 180 
439 285 363 217 485 545 410 529 178 
59 411 312 18 463 408 44 116 279 
37 480 170 57 398 490 50 229 214 
359 233 107 187 436 348 71 130 66 
255 259 137 331 413 200 0 204 63 
268 478 476 447 376 146 70 334 202 
335 136 293 532 317 257 220 51 264 
432 81 389 215 61 157 403 30 166 
2 454 87 254 525 510 320 277 138 
47 422 208 513 417 307 311 74 284 
368 488 561 566 440 184 300 288 536 
555 565 358 414 434 538 46 345 305 
226 337 248 433 361 179 225 501 145 
400 206 551 213 1 15 194 443 388 
269 451 378 24 133 390 167 196 224 
272 531 393 52 330 482 379 75 552 
446 221 126 520 496 539 547 43 356 
78 375 158 175 106 144 491 420 370 
230 313 357 364 280 534 556 494 404 
124 169 49 109 251 431 369 123 445 
243 249 177 492 350 316 20 5 508 
318 96 98 104 195 444 405 504 31 
9 382 3 19 191 325 65 540 100 
189 524 149 522 86 349 265 481 263 
395 362 111 470 308 559 188 120 301 
437 186 172 250 181 297 271 45 543 
486 474 91 42 67 380 328 216 467 
511 156 507 219 72 270 150 412 465 
527 459 22 154 25 423 238 342 105 
174 521 122 347 377 310 544 159 173 
374 292 283 558 236 346 302 466 455 
48 35 127 12 514 36 205 321 16 
479 85 117 290 39 304 497 160 165 
244 495 563 291 242 114 131 102 152 
450 209 533 294 247 79 245 452 21 

FIELD FieldData 7
r 3 567 double
-0.00774276 -0.0415104 -0.0419289 -0.00751694 -0.02054 -0.042913 -0.0145642 -0.00958982 -0.0401437 
0.0104791 0.0130564 -0.0408266 0.0279365 0.0296599 -0.0407761 0.01455 0.0402065 -0.040857 
-0.0438218 -0.043817 -0.0308049 -0.0357746 -0.0450281 -0.0311975 -0.0147273 -0.0413296 -0.0362812 
0.00245288 -0.0452871 -0.0357835 0.0103712 -0.0418556 -0.0345357 0.0378792 -0.044776 -0.0353245 
0.0459773 -0.0444052 -0.0388933 -0.0437388 -0.0336981 -0.0356168 -0.0359751 -0.0373504 -0.0355469 
-0.0230082 -0.033546 -0.0393872 -0.00287532 -0.0372219 -0.0359421 0.00503746 -0.0338732 -0.036687 
0.016888 -0.0385174 -0.0387124 0.0303749 -0.0338356 -0.0356395 0.0348137 -0.0385183 -0.0311814 
0.0423938 -0.0374069 -0.0392408 0.0442073 -0.0330447 -0.0323218 -0.0461488 -0.0272743 -0.0321437 
-0.0351367 -0.0273851 -0.0349941 -0.0248356 -0.0233894 -0.0382547 -0.0124727 -0.0298241 -0.0344282 
-0.00425579 -0.0292999 -0.03467 0.00257395 -0.0240508 -0.0362061 0.013418 -0.0245398 -0.0346842 
0.0204011 -0.0293704 -0.0347271 0.0237302 -0.0211602 -0.0344673 0.039272 -0.0240201 -0.0365191 
-0.0460769 -0.0194632 -0.0314937 -0.0374399 -0.0152879 -0.0329109 -0.0210099 -0.0110206 -0.0334828 
-0.0296478 -0.0137015 -0.0330455 -0.019395 -0.0191967 -0.0338508 -0.000586609 -0.0168541 -0.0347666 
0.00908257 -0.0179125 -0.0330776 0.0185836 -0.0130714 -0.0365356 0.0347089 -0.0137656 -0.0327336 
0.0430664 -0.0135018 -0.0346647 -0.0461386 -0.000929861 -0.0397384 -0.0420709 -0.00776216 -0.0373883 
-0.0351396 -0.00697234 -0.0310392 -0.0283867 -0.00422638 -0.034014 -0.020485 -0.00327429 -0.0356642 
-0.00845156 -0.00979851 -0.0351838 0.011956 -0.00721409 -0.033578 0.0275032 -0.00991409 -0.0349263 
0.0380772 -0.00595386 -0.0392239 0.0457059 -0.00411824 -0.032748 -0.025371 0.00379468 -0.0341945 
-0.0159424 0.00532726 -0.0372426 -0.00611557 0.00797031 -0.0376936 0.00167637 0.0009739 -0.0315905 
0.00703561 0.00685947 -0.0370025 0.0184684 0.0083951 -0.0335193 0.0164353 0.000668578 -0.0343339 
0.025909 0.00245074 -0.0391517 -0.0317379 0.0140746 -0.0397601 -0.0389059 0.0109105 -0.0307411 
-0.0381692 0.0185157 -0.0383283 -0.0263659 0.0116944 -0.0304739 -0.0245603 0.0172266 -0.035728 
-0.0153159 0.0137499 -0.0343526 -0.00898573 0.0183364 -0.0354253 0.000169241 0.01318 -0.0361093 
0.0332054 0.0130345 -0.0338743 0.044141 0.0129893 -0.0330346 -0.0453427 0.0245332 -0.0367886 
-0.0308154 0.0236178 -0.0379967 -0.0172834 0.0245378 -0.0341301 -0.00674551 0.0262188 -0.0342826 
0.0095246 0.0277532 -0.0324182 0.00498702 0.0206718 -0.032042 0.0239446 0.0292449 -0.0305489 
0.0224875 0.0218984 -0.0371007 0.0359459 0.027223 -0.0327383 0.0328021 0.0204502 -0.03829 
0.0408821 0.0225922 -0.0377733 -0.0400366 0.0372908 -0.0384665 -0.0271157 0.0317462 -0.0369551 
-0.0229656 0.0358342 -0.0308745 -0.0153405 0.0338405 -0.0333919 -0.00432838 0.0366798 -0.0366142 
0.00268245 0.0315048 -0.0362959 0.010583 0.0366649 -0.0313959 0.0171231 0.0323058 -0.0317109 
0.0242163 0.0372024 -0.030674 0.0358518 0.0360665 -0.0341154 0.0460802 0.0365812 -0.0324854 
-0.0397117 0.0434238 -0.0325361 -0.022869 0.046279 -0.0345029 -0.00599367 0.0453244 -0.0375067 
0.00178681 0.0434242 -0.0308582 0.00647636 0.0434787 -0.037901 0.0213123 0.0430174 -0.0357062 
0.0301319 0.0440317 -0.0319013 0.0424589 0.0461579 -0.0373659 -0.0453777 -0.045317 -0.021884 
-0.0243129 -0.0404742 -0.0253437 -0.0117199 -0.0461708 -0.0212085 0.00384972 -0.0433355 -0.0215242 
0.0117881 -0.0402162 -0.0252271 0.0299742 -0.0451716 -0.0204923 0.0245764 -0.0446296 -0.0294757 
0.0442373 -0.0438305 -0.0270037 -0.0444512 -0.036549 -0.0280809 -0.042744 -0.0313658 -0.0222308 
-0.0344252 -0.0305233 -0.0226291 -0.0262113 -0.0329515 -0.0284911 -0.0202907 -0.0339121 -0.0207446 
-0.0127926 -0.0361167 -0.0260018 -0.00206083 -0.0351102 -0.0212563 -0.00533061 -0.0383366 -0.0280828 
0.00763323 -0.0313034 -0.0215563 0.0150354 -0.0324784 -0.0253907 0.0221411 -0.0370999 -0.0275083 
0.0339698 -0.0306548 -0.0280253 -0.0400679 -0.0243304 -0.0281382 -0.0455421 -0.0230051 -0.0205259 
-0.0323862 -0.0210001 -0.0213436 -0.0269152 -0.026604 -0.021397 -0.0194456 -0.0251532 -0.0270213 
-0.00246139 -0.0243467 -0.0236985 0.0245104 -0.0261006 -0.026367 0.0430884 -0.0220279 -0.0289429 
-0.0458961 -0.0150765 -0.0242476 -0.0385589 -0.0163853 -0.0219201 -0.0208144 -0.0131695 -0.0229954 
-0.0261214 -0.0181687 -0.0274955 -0.0127948 -0.018902 -0.0292696 -0.00399214 -0.0149997 -0.0229012 
0.00241158 -0.0107885 -0.0271744 0.0287768 -0.0157268 -0.0259616 0.0436506 -0.0147681 -0.0218039 
-0.0250439 -0.00609458 -0.0203789 -0.00157571 -0.00365184 -0.0240107 -0.00876111 -0.00539212 -0.0277247 
0.00782437 -0.00293686 -0.0274697 0.0161426 -0.00152218 -0.0259117 0.0123584 -0.00668624 -0.0209527 
0.025337 -0.00987423 -0.0225482 0.0229269 -0.00366738 -0.0294287 0.0300954 -0.00064197 -0.0222565 
0.0380644 -0.00138902 -0.0206047 0.0394416 -0.00874506 -0.0270049 -0.0448224 0.0015575 -0.0230312 
-0.036918 0.00267679 -0.0298555 -0.0378525 0.00943229 -0.0208846 -0.0269851 0.000992779 -0.0257834 
-0.0136206 0.000243032 -0.0203981 -0.00950084 0.00231803 -0.0293294 0.00743114 0.00896675 -0.0211334 
0.0156644 0.00660575 -0.0231295 0.02366 0.00565575 -0.0271469 0.0345057 0.00625112 -0.0262546 
0.0425884 0.00448925 -0.02649 -0.0462933 0.0116743 -0.0266867 -0.042593 0.0193885 -0.0295836 
-0.0308479 0.0144109 -0.0246088 -0.020141 0.0170649 -0.0213674 -0.0120621 0.0146348 -0.0215462 
-0.00778472 0.0113239 -0.0271148 0.00357555 0.019763 -0.0216346 0.0114731 0.0147389 -0.0244899 
0.0208115 0.0130992 -0.0232778 0.0278176 0.0171187 -0.0290355 0.0377471 0.0136421 -0.0247795 
-0.0435967 0.0262155 -0.0245815 -0.0364893 0.0234772 -0.0241701 -0.028247 0.0238487 -0.0254802 
-0.00435622 0.0224359 -0.0263652 0.00388684 0.0280924 -0.0222867 0.0152967 0.0207705 -0.0287216 
0.0343577 0.0246573 -0.0232663 0.04129 0.0248244 -0.0271531 -0.0444254 0.0364849 -0.0261864 
-0.0292512 0.036192 -0.0205597 -0.0187874 0.0364211 -0.022844 -0.0109123 0.0368708 -0.0219187 
-0.00337264 0.0304165 -0.0218144 0.00274867 0.0356856 -0.0245421 0.0154805 0.0395578 -0.0256455 
0.0226401 0.0312695 -0.0218414 0.0297397 0.0387261 -0.0234588 -0.0461871 0.0441978 -0.0280624 
-0.0340588 0.0403214 -0.0256505 -0.0242707 0.0430658 -0.0206061 -0.0119657 0.041827 -0.0282487 
-0.0186844 0.0458742 -0.0270242 0.0227901 0.0446855 -0.025697 0.0385986 0.042825 -0.0224064 
0.0461561 0.045807 -0.0263159 -0.0363884 -0.0440623 -0.0103836 -0.0174961 -0.0411862 -0.0174352 
-0.00377543 -0.0453379 -0.0167957 0.012744 -0.0448221 -0.0181186 0.039689 -0.0432296 -0.0129909 
-0.0340222 -0.0360486 -0.0160133 -0.0261546 -0.0367832 -0.0109235 -0.0128376 -0.0367111 -0.0128887 
-0.00919622 -0.0310306 -0.0191922 -0.000665437 -0.0396398 -0.0105451 0.00692767 -0.0371032 -0.0154166 
0.0164747 -0.0358277 -0.0144369 0.0299271 -0.0321392 -0.0188989 0.0225673 -0.0387441 -0.0187131 
0.0364471 -0.0364372 -0.0156108 -0.040149 -0.0235293 -0.0145812 -0.0185022 -0.0219569 -0.0169517 
-0.00897619 -0.0217115 -0.014901 0.00652866 -0.02589 -0.0159547 0.0136864 -0.0223426 -0.0145925 
0.0219435 -0.0226 -0.0110289 0.0335149 -0.025973 -0.0139488 0.0450256 -0.0294615 -0.0188795 
-0.0396569 -0.0162844 -0.012345 -0.0325324 -0.0129664 -0.0105198 -0.0338529 -0.0114412 -0.0183028 
-0.0144655 -0.0132742 -0.014 0.00949699 -0.0166058 -0.0188153 0.00144374 -0.0182965 -0.0163695 
0.0160244 -0.0120603 -0.0157388 0.0290398 -0.0129136 -0.0123209 0.0355046 -0.0171227 -0.0173012 
-0.0452347 -0.00820237 -0.0183253 -0.0308559 -0.000825898 -0.0135763 -0.0384689 -0.00338272 -0.0195831 
-0.0201662 -0.00817829 -0.0104532 -0.00604719 -0.00571702 -0.0110362 0.00498346 -0.00977718 -0.0106536 
0.0199808 -0.0055378 -0.017569 0.0364255 -0.00809234 -0.0167669 0.0461585 -0.00444409 -0.0159131 
-0.0223258 0.00959507 -0.0189916 -0.0131138 0.000628739 -0.0113905 -0.012136 0.00932558 -0.0155988 
-0.00696294 0.000618243 -0.0163422 0.00110117 0.00240382 -0.0192374 0.0156623 0.00535969 -0.0152082 
0.0271169 0.00902881 -0.0132999 0.0279115 0.000833192 -0.014532 0.0449946 0.00794695 -0.010844 
-0.0406722 0.0184039 -0.0171194 -0.0350088 0.0126365 -0.0123359 -0.0249008 0.0141532 -0.0107555 
-0.017062 0.0171325 -0.0110519 -0.00361128 0.01983 -0.0120635 -0.00464784 0.0107331 -0.0195564 
0.000118218 0.0126082 -0.0109683 0.00507272 0.0198885 -0.0138796 0.0085693 0.0113367 -0.0132974 
0.0170252 0.0175238 -0.0172323 0.0284675 0.0194343 -0.0159521 0.0368079 0.0181212 -0.0170213 
0.041962 0.0155873 -0.0106983 0.0456615 0.0134123 -0.0197636 -0.0319794 0.0229283 -0.0128345 
-0.0215796 0.0237896 -0.0151425 -0.013901 0.0222045 -0.01614 0.000146481 0.0269704 -0.0123585 
0.0122091 0.0214879 -0.0107418 0.022528 0.0259713 -0.0161016 0.0445918 0.0245015 -0.0169277 
-0.0460909 0.0356673 -0.0126457 -0.0367129 0.0347769 -0.0183969 -0.0240177 0.0350387 -0.0113212 
-0.0151296 0.0300731 -0.0185304 -0.00283418 0.0362894 -0.0143322 0.00663611 0.0371808 -0.0124899 
0.0114625 0.0354033 -0.0189665 0.0126773 0.0304734 -0.0107671 0.042056 0.0334319 -0.0172136 
-0.0454166 0.0443704 -0.0174272 -0.030347 0.0426911 -0.0146899 -0.0391143 0.0414932 -0.0137634 
-0.0229554 0.042879 -0.0111749 -0.0161096 0.0439534 -0.0166173 -0.00831787 0.0459269 -0.0165758 
0.00123648 0.0439043 -0.0185902 0.00978533 0.0448399 -0.0166802 0.0234677 0.0444011 -0.0148877 
-0.0424923 -0.0400547 -0.00655007 -0.0265639 -0.0438821 -0.00614913 -0.0165427 -0.0416483 -0.00425608 
-0.00846083 -0.0452262 -0.00497383 0.0143369 -0.0453295 -0.00826028 0.020539 -0.0400161 -0.00832329 
0.0280913 -0.0448111 -0.00867407 0.0335305 -0.0444556 -0.00224201 -0.0355266 -0.0304442 -0.00997303 
-0.0354785 -0.0379172 -0.00532784 -0.020474 -0.0310997 -0.00988492 -0.0267264 -0.036508 -0.00184976 
0.00812976 -0.0392231 -0.00148007 0.0213811 -0.032311 -0.00452601 0.038934 -0.0374678 -0.00385109 
-0.044155 -0.0210103 -0.00248513 -0.0363761 -0.0211506 -0.00781625 -0.0274525 -0.0250538 -0.00908076 
-0.0201901 -0.0222933 -0.00632809 -0.0253458 -0.0274827 -0.000289258 -0.0159462 -0.0296133 -0.00248415 
-0.00711331 -0.0293169 -0.00960903 0.00488479 -0.0283939 -0.00615905 0.0308561 -0.0201368 -0.00608369 
0.033313 -0.0284676 -0.00423006 0.0444873 -0.0215143 -0.00600897 -0.000665018 -0.0199795 -0.00894178 
0.00778935 -0.0135509 -0.000116246 0.00963938 -0.0182175 -0.00682021 0.0164814 -0.0183489 -0.00199094 
0.0205877 -0.0126343 -0.00857685 0.0309406 -0.011898 -0.0037806 0.0365242 -0.0157906 -0.00919897 
0.0442316 -0.0117911 -0.00445172 -0.0445628 -0.00302525 -0.00740309 -0.043631 -0.00890266 -0.00254751 
-0.0313303 -0.00264617 -0.00516696 -0.0390218 -0.00879829 -0.00994956 -0.0109398 -0.00916509 -0.00110473 
-0.000512864 -0.004811 -0.00421265 0.0056607 -0.000609068 -0.00644966 0.0131358 -0.00833923 -0.00393511 
0.017853 -0.00298885 -0.00892967 0.0220461 -0.00745975 -0.00190024 0.0352 -0.00510965 -0.0073492 
0.0447138 -0.00174795 -0.00595418 -0.0372577 0.00334688 -0.00807893 -0.0221278 0.00670181 -0.00530726 
-0.00971827 0.00749716 -0.00413916 -0.0033397 0.00332773 -0.00877514 0.0114755 0.00479329 -0.0012214 
0.028908 0.00187615 -0.00582108 0.0419339 0.00581817 -0.00306485 -0.0457632 0.0139019 -0.00957325 
-0.0425329 0.0126168 -0.000466433 -0.0344465 0.0180619 -0.0037068 -0.00950533 0.0185263 -0.00252397 
0.0181553 0.0101568 -0.00549699 0.0294071 0.019314 -0.000674723 0.0219659 0.0179867 -0.00557561 
0.0453216 0.0198659 -0.000260069 -0.0431061 0.0205921 -0.00102639 -0.0454696 0.0281916 -0.000868173 
-0.0228008 0.0281698 -0.00775544 -0.00869052 0.0286647 -0.00488612 0.00714085 0.0283678 -0.00515729 
0.0158427 0.0216657 -0.00155215 0.0170161 0.0296827 -0.00156056 0.0297532 0.026662 -0.0085612 
0.0388809 0.0288204 -0.00183152 0.0395933 0.0231811 -0.00809165 0.0460134 0.0272305 -0.00471808 
-0.03789 0.0345547 -0.00418901 -0.0155911 0.0345086 -0.00848241 -0.0004793 0.0373445 -0.00447841 
0.0118482 0.0370879 -0.00440634 -0.0364813 0.0423344 -0.00643594 -0.029551 0.0458561 -0.00578836 
-0.0174704 0.0424043 -0.000714669 -0.00755453 0.0451021 -0.00524822 0.00569545 0.0460169 -0.00235524 
0.0147447 0.0450808 -0.00354428 0.0332754 0.0432529 -0.00859671 -0.025556 -0.0457581 0.00849315 
-0.00119445 -0.0410507 0.00041724 -0.009624 -0.0456334 0.00418955 0.0102976 -0.0447517 0.00532187 
-0.0456483 -0.03826 0.0092319 -0.0363573 -0.0322497 0.00230701 -0.0358425 -0.0385113 0.00790981 
-0.0199152 -0.0372543 0.00901328 -0.0148769 -0.0374135 0.00233197 -0.00504876 -0.0327078 0.00385865 
0.00372762 -0.0346564 0.00481353 0.0236245 -0.0378491 0.0068239 0.0295427 -0.0377868 0.0014378 
-0.0450028 -0.0208534 0.00569384 -0.0318637 -0.0231086 0.00415956 -0.0242968 -0.0202408 0.00853866 
-0.0173662 -0.0256643 0.00877735 -0.00171206 -0.0256073 0.00419094 0.0165492 -0.0242834 0.00538683 
0.0104029 -0.0297393 0.00472089 0.0329532 -0.0297375 0.00855903 0.0413833 -0.0299476 0.00326656 
-0.0330131 -0.0122733 0.00937603 -0.0123944 -0.0199137 0.00281631 0.0092136 -0.0100308 0.00948762 
0.018891 -0.0102221 0.00799242 0.0276063 -0.0194301 0.0023789 0.0366635 -0.0137342 0.00267182 
0.0460147 -0.0169408 0.0050584 -0.0324239 -0.00247002 0.00779839 -0.0193907 -0.00521722 0.00225604 
0.015178 -0.0036458 0.00564287 0.0299702 -0.00113715 0.0085775 0.0385514 -0.00584952 0.0029791 
0.0459607 -0.00152536 0.00285772 -0.044827 0.00410969 8.178e-05 -0.0329985 0.00549034 0.000146585 
-0.0290253 0.006314 0.00757505 0.00532754 0.00619171 0.00834271 -0.0407953 0.0153073 0.00755868 
-0.0282973 0.0137977 0.00961616 -0.01466 0.0123847 0.000748697 -0.00426588 0.0145261 0.00691 
0.00766579 0.0116789 0.00257491 0.0425422 0.0114546 0.0042244 -0.0432926 0.0238199 0.00746585 
-0.0282316 0.0282054 0.00189379 -0.0212778 0.0229317 0.00393601 -0.0137044 0.0237851 0.00278448 
-0.00440112 0.0239712 0.000962793 0.00415841 0.0246827 0.00254029 0.00983728 0.0200189 0.00771729 
0.0150599 0.0257624 0.00518117 0.025406 0.0245797 0.00843259 0.037049 0.0215338 0.00222248 
-0.0454311 0.0369162 0.00616318 -0.038633 0.0396927 0.00178201 -0.0354561 0.0314328 0.00285022 
-0.0224388 0.0343944 0.00470413 -0.0290092 0.0356594 0.000409091 -0.00987328 0.0339935 0.00282876 
0.0274352 0.0315277 0.00109956 0.0318528 0.0383514 0.00170979 0.0435427 0.0347431 0.00308801 
-0.0462208 0.0441965 0.000892122 -0.0344039 0.0437283 0.00903561 0.0234669 0.0442063 0.0018838 
0.0370093 0.0445773 0.00240674 0.0463109 0.0433008 4.24112e-05 -0.0404014 -0.0448685 0.0136861 
-0.0331592 -0.0458425 0.0114576 -0.00425025 -0.0409003 0.0171772 0.0200412 -0.0418787 0.0141837 
0.0385934 -0.0463457 0.0146372 -0.0422651 -0.031311 0.0126074 -0.032578 -0.0386679 0.0153679 
-0.0336681 -0.0300286 0.0149441 -0.0240437 -0.032097 0.014541 0.00488178 -0.0318917 0.0157523 
0.0243549 -0.030838 0.0195753 -0.0306391 -0.0213949 0.0178652 -0.0387973 -0.0224387 0.0104009 
-0.00705071 -0.0220799 0.0151298 0.00196292 -0.0251724 0.0179758 0.00935225 -0.0238738 0.0195821 
-0.0385522 -0.015247 0.015414 -0.00274418 -0.0153514 0.0117709 0.00652292 -0.0146293 0.015828 
0.0157689 -0.0192881 0.0148159 0.0358575 -0.0158913 0.014015 -0.0461951 -0.00359967 0.0166722 
-0.0268277 -0.00700982 0.0119309 -0.0161126 -0.00914486 0.017675 0.00273538 -0.00668298 0.0108722 
0.0441465 -0.00634266 0.0128845 -0.0435366 0.00506117 0.0171453 -0.0110339 0.00476613 0.0193766 
0.000482214 0.00198004 0.0183699 0.0255248 0.00458047 0.0134779 0.0318857 0.00670527 0.0195126 
0.0449227 0.000818536 0.0151594 -0.0453077 0.013977 0.0144276 -0.0126036 0.0180693 0.0160638 
0.032726 0.0194698 0.0148038 0.0382627 0.0102694 0.0107362 0.0446905 0.0183442 0.0107294 
-0.0204794 0.0266682 0.0150247 -0.0277065 0.0232977 0.0169685 -0.00900557 0.0254605 0.0180205 
0.0184578 0.0211888 0.0152797 0.0254862 0.0267606 0.0160969 -0.0306067 0.0329375 0.0145319 
-0.0252319 0.0383441 0.0154856 -0.0117164 0.0366514 0.0114503 -0.00225417 0.0314363 0.0101013 
0.00505105 0.0350822 0.0151649 -0.0395539 0.0454419 0.018386 0.000515787 0.0423734 0.0168333 
0.00754094 0.0430517 0.0141623 0.0426882 0.0460365 0.0123217 -0.0145649 -0.0462324 0.0280514 
-0.00150478 -0.0407409 0.0258627 0.011044 -0.0450911 0.0261664 0.0317379 -0.0410298 0.0207523 
0.0446769 -0.0429412 0.0218559 0.0146757 -0.0351488 0.0215295 0.0353083 -0.0321528 0.0223927 
0.0445395 -0.0320881 0.0246277 -0.035903 -0.025585 0.0223823 -0.00677125 -0.0275535 0.0211217 
0.0185395 -0.0217534 0.0288825 0.0201712 -0.0227544 0.0203935 0.00244228 -0.0101555 0.0220952 
0.0119496 -0.0169222 0.0234535 0.020791 -0.0121568 0.0228946 0.0377532 -0.0167957 0.0220817 
-0.0224748 -0.00605021 0.0216927 -0.0175609 -0.00829466 0.0273916 0.0285513 -0.00580495 0.0249947 
0.0209592 -0.00376967 0.0223754 -0.0265754 0.00562461 0.025679 -0.0186867 0.0073074 0.0237854 
0.00079533 0.00670378 0.0252914 -0.0386049 0.0117623 0.0266436 -0.0325988 0.0180443 0.0200484 
0.00245125 0.018158 0.0219371 0.0439796 0.0185977 0.0219514 -0.0406944 0.0206829 0.0258076 
-0.0269841 0.0239068 0.0285354 -0.0106524 0.0268865 0.0296439 0.011571 0.0242962 0.0213342 
0.0315722 0.0248665 0.0239072 -0.0396383 0.0372281 0.0210619 -0.0390222 0.0313237 0.0270101 
-0.0166395 0.0362564 0.02201 0.00260022 0.0337152 0.0283636 0.014811 0.0369409 0.0227148 
0.0336931 0.0330579 0.0208699 0.0379138 0.0369214 0.0284615 0.0431157 0.0305886 0.0202616 
0.0262064 0.0436552 0.0286587 -0.00619993 -0.0415661 0.0344728 0.0204924 -0.0402828 0.0318817 
0.0447071 -0.0440676 0.0345257 -0.0416198 -0.0320487 0.0349996 -0.0381687 -0.0399019 0.0327786 
-0.0325786 -0.0355407 0.0387873 0.0329411 -0.0335856 0.0363953 0.0204194 -0.0277967 0.0343182 
0.0315841 -0.0260821 0.0365674 0.0414733 -0.0224971 0.0317633 0.013627 -0.0180362 0.0344708 
0.0448341 -0.0128517 0.0303142 -0.0301476 -0.0010407 0.0310692 -0.0163719 -0.000852739 0.0315531 
0.00559883 -0.00714513 0.0335683 -0.0383595 0.0032286 0.031378 -0.00410626 0.00257415 0.036722 
-0.00303846 0.00958081 0.0336793 -0.0333477 0.0100296 0.0378356 -0.0309761 0.0165595 0.034211 
-0.00457148 0.0156971 0.0382307 0.0326356 0.0256421 0.0364064 0.0448762 0.0233441 0.0338167 
-0.0420217 0.0342457 0.0374008 -0.0381732 0.0382653 0.0309027 -0.038321 -0.0433226 0.0477868 
0.00405428 -0.0457785 0.0401579 0.00520501 -0.0335745 0.0432982 0.0135683 -0.0108893 0.0442965 
0.0403309 -0.0156373 0.0440456 -0.00118439 0.01954 0.0456234 0.00389349 0.0135355 0.0456714 
-0.021178 0.0266103 0.0474545 0.00190112 0.0292944 0.0410008 0.0366049 0.0235087 0.0435486 
0.0316667 0.0274524 0.0470022 0.0444337 0.0308906 0.0413704 0.0296513 0.045589 0.042025 

gid 1 567 double
0 0 0 0 0 0 0 0 0 
0 0 0 0 0 0 0 0 0 
0 0 0 0 0 0 0 0 0 
0 0 0 0 0 0 0 0 0 
0 0 0 0 0 0 0 0 0 
0 0 0 0 0 0 0 0 0 
0 0 0 0 0 0 0 0 0 
0 0 0 0 0 0 0 0 0 
0 0 0 0 0 0 0 0 0 
0 0 0 0 0 0 0 0 0 
0 0 0 0 0 0 0 0 0 
0 0 0 0 0 0 0 0 0 
0 0 0 0 0 0 0 0 0 
0 0 0 0 0 0 0 0 0 
0 0 0 0 0 0 0 0 0 
0 0 0 0 0 0 0 0 0 
0 0 0 0 0 0 0 0 0 
0 0 0 0 0 0 0 0 0 
0 0 0 0 0 0 0 0 0 
0 0 0 0 0 0 0 0 0 
0 0 0 0 0 0 0 0 0 
0 0 0 0 0 0 0 0 0 
0 0 0 0 0 0 0 0 0 
0 0 0 0 0 0 0 0 0 
0 0 0 0 0 0 0 0 0 
0 0 0 0 0 0 0 0 0 
0 0 0 0 0 0 0 0 0 
0 0 0 0 0 0 0 0 0 
0 0 0 0 0 0 0 0 0 
0 0 0 0 0 0 0 0 0 
0 0 0 0 0 0 0 0 0 
0 0 0 0 0 0 0 0 0 
0 0 0 0 0 0 0 0 0 
0 0 0 0 0 0 0 0 0 
0 0 0 0 0 0 0 0 0 
0 0 0 0 0 0 0 0 0 
0 0 0 0 0 0 0 0 0 
0 0 0 0 0 0 0 0 0 
0 0 0 0 0 0 0 0 0 
0 0 0 0 0 0 0 0 0 
0 0 0 0 0 0 0 0 0 
0 0 0 0 0 0 0 0 0 
0 0 0 0 0 0 0 0 0 
0 0 0 0 0 0 0 0 0 
0 0 0 0 0 0 0 0 0 
0 0 0 0 0 0 0 0 0 
0 0 0 0 0 0 0 0 0 
0 0 0 0 0 0 0 0 0 
0 0 0 0 0 0 0 0 0 
0 0 0 0 0 0 0 0 0 
0 0 0 0 0 0 0 0 0 
0 0 0 0 0 0 0 0 0 
0 0 0 0 0 0 0 0 0 
0 0 0 0 0 0 0 0 0 
0 0 0 0 0 0 0 0 0 
0 0 0 0 0 0 0 0 0 
0 0 0 0 0 0 0 0 0 
0 0 0 0 0 0 0 0 0 
0 0 0 0 0 0 0 0 0 
0 0 0 0 0 0 0 0 0 
0 0 0 0 0 0 0 0 0 
0 0 0 0 0 0 0 0 0 
0 0 0 0 0 0 0 0 0 

a 3 567 double
0 0 0 0 0 0 -85.6029 9.75534 -56.9888 
0 0 0 0 0 0 0 0 0 
27.152 -113.974 -45.8627 0 0 0 0 0 0 
0 0 0 0 0 0 0 0 0 
20.8059 -56.6592 1.53287 56.0531 -109.761 -53.1856 0 0 0 
0 0 0 -0.676043 2.33567 0.333711 0 0 0 
0 0 0 -62.8752 54.5853 -47.0115 62.8752 -54.5853 47.0115 
-20.8059 56.6592 -1.53287 0 0 0 -203.263 -91.9417 -63.3899 
0 0 0 0 0 0 0 0 0 
0.676043 -2.33567 -0.333711 0 0 0 4.91182 -6.85642 -0.868417 
0 0 0 0 0 0 0 0 0 
164.443 79.824 -2.40298 -49.3718 -4.49349 0.481272 0 0 0 
42.7255 11.1793 -8.08209 0 0 0 0 0 0 
-4.91182 6.85642 0.868417 0 0 0 0 0 0 
0 0 0 477.37 0 0 0 0 0 
-19.3884 -8.08419 5.98204 19.3884 8.08419 -5.98204 0 0 0 
85.6029 -9.75534 56.9888 0 0 0 0 0 0 
0 0 0 0 0 0 0 0 0 
0 0 0 0 0 0 0 0 0 
0 0 0 0 0 0 0 0 0 
0 0 0 14.2845 -7.5017 -2.09973 0 0 0 
-14.2845 7.5017 2.09973 72.8758 -90.325 -65.274 16.7281 35.1509 -29.7476 
0 0 0 0 0 0 0 0 0 
0 0 0 0 0 0 0 0 0 
0 0 0 0 0 0 0 0 0 
0 0 0 0 0 0 142.23 -60.4151 43.8148 
0 0 0 0 0 0 0 0 0 
0 0 0 0 0 0 0 0 0 
0 0 0 0 0 0 0 0 0 
0 0 0 -66.2185 52.9644 7.99259 -76.0117 7.4507 -51.8074 
0 0 0 0 0 0 -141.596 0 0 
124.925 -18.0996 -63.9113 0 -79.3707 0 0 0 0 
0 0 0 0 0 0 0 0 0 
0 0 0 0 -237.195 0 0 0 0 
0 0 0 0 60.5857 0 0 0 0 
0 0 0 0 0 0 0 0 0 
0 0 0 -26.4045 115.252 44.0618 -0.189605 -0.38307 -0.400972 
0 0 0 0 0 0 0 0 0 
1.51329 -0.477152 -0.645899 0 0 0 -1.51329 0.477152 0.645899 
0.643687 -26.9396 -25.4889 0 0 0 0 0 0 
0 0 0 231.554 120.984 121.18 0.979704 -0.0543084 0.827995 
-26.7673 39.8057 7.70631 99.2986 -86.4776 -9.32899 0 0 0 
0 0 0 0 0 0 0 0 0 
-45.8726 12.7563 -19.0866 -74.6446 -22.3272 -7.92682 0 0 0 
6.64627 -6.68576 7.60082 0 0 0 0 0 0 
0 0 0 87.1548 -197.973 -88.2781 0 0 0 
0 0 0 0 0 0 3.56367 -85.4009 9.03789 
0 0 0 -60.5837 28.8745 36.3975 0 0 0 
-87.1548 197.973 88.2781 60.5837 -28.8745 -36.3975 0 0 0 
1.77476 14.6629 -7.91526 0 0 0 0 0 0 
0 0 0 0 0 0 0 0 0 
-92.7705 -18.3732 -52.3217 -3.56367 85.4009 -9.03789 -12.8531 -15.7176 7.70364 
0.0261549 0.0180773 -0.68601 0 0 0 0 0 0 
0 0 0 170.824 0 0 0 0 0 
-89.6039 55.1741 95.0217 0 0 0 -61.5655 76.7856 77.0969 
65.4267 -46.9239 -104.411 -4.30798 2.17798 -27.5707 12.8531 15.7176 -7.70364 
0 0 0 0 0 0 0 0 0 
-152.148 79.8553 -9.3545 152.148 -79.8553 9.3545 0 0 0 
0 0 0 319.874 -68.3314 -11.3675 0 0 0 
0 0 0 0 0 0 0 0 0 
42.1165 5.0265 -7.91429 0 0 0 0 0 0 
-319.874 68.3314 11.3675 0 0 0 0 0 0 
-11.3162 152.159 -134.077 0 0 0 193.154 18.0996 63.9113 
0 0 0 0 0 0 11.4232 -8.9572 -2.22358 
-11.4232 8.9572 2.22358 0 0 0 0 0 0 
-28.3792 0 0 -0.347299 -1.98599 -1.28354 0 0 0 
0 0 0 0 0 0 6.2971 -14.2844 7.50435 
0 0 0 0 0 0 0 0 0 
0 0 0 0 0 0 0 0 0 
0 0 0 0 0 0 0 0 0 
-6.2971 14.2844 -7.50435 9.90287 -189.057 -49.8386 0 0 0 
0 0 0 -0.936408 26.7524 25.4467 0.292722 0.187185 0.0422755 
0 0 0 0 0 0 0 0 0 
-259.138 493.25 -191.839 40.2072 -36.6139 37.2706 37.543 70.531 -15.1604 
0 0 0 0 0 0 35.6959 38.8414 -106.848 
-41.478 -52.1094 16.2852 0 0 0 0 0 0 
0 0 0 0 0 0 0 0 0 
0 0 0 0 0 0 0 0 0 
41.478 52.1094 -16.2852 -1.77476 -14.6629 7.91526 -128.271 0 0 
0 0 0 -76.3851 -10.0464 55.0639 -3.86118 -29.8617 27.3137 
169.156 28.4196 -2.74218 0 0 0 -0.0261549 -0.0180773 0.68601 
0 0 0 0 0 0 0 0 0 
0 0 0 0 0 0 0 0 0 
-26.7539 -30.3182 34.8727 0 0 0 0 0 0 
0 0 0 -19.1319 -8.0632 20.4213 0 0 0 
0 0 0 0 0 0 0 0 0 
0 0 0 0 0 0 0 0 0 
0 0 0 26.7539 30.3182 -34.8727 0 0 0 
23.4399 5.88522 7.14945 11.3162 -152.159 134.077 0 0 0 
0 0 0 -42.1165 -5.0265 7.91429 -48.12 213.991 -83.7976 
0 0 0 0 0 0 0 0 0 
0 0 0 0 0 0 0 0 0 
-22.9244 12.2726 -9.63733 0 0 0 3.45246 -30.7806 -73.1991 
0 0 0 0 0 0 0 0 0 
0 0 0 0 0 0 0 0 0 
-360.588 -118.268 -102.432 0 0 0 0 0 0 
0 0 0 0 0 0 0 0 0 
0 0 0 0 0 0 0 0 0 
360.935 120.254 103.716 0 0 0 0 0 0 
0 0 0 0 0 0 0 0 0 
0 0 0 248.256 -304.139 240.85 0 0 0 
0 0 0 0 0 0 0 0 0 
0 0 0 0 0 0 -98.2741 -63.5156 40.5972 
0 0 0 0 0 0 -35.6959 -38.8414 106.848 
0 0 0 0 0 0 0 0 0 
0 0 0 0 0 0 98.2741 63.5156 -40.5972 
0 0 0 -84.1348 291.123 -269.467 84.1348 -291.123 269.467 
0 0 0 -29.7643 22.3257 6.52591 0 0 0 
-138.242 -108.772 36.634 138.242 108.772 -36.634 0 0 0 
0 0 0 0 0 0 0 0 0 
0 0 0 0 0 0 0 0 0 
0 0 0 0 0 0 0 0 0 
0 0 0 0 0 0 0 0 0 
0 0 0 0 0 0 0 0 0 
0 0 0 0 0 0 0 0 0 
0 0 0 1.6151 -3.69453 -0.200279 -1.6151 3.69453 0.200279 
48.12 -213.991 83.7976 0 0 0 0 0 0 
-5.57055 -20.7026 0.733645 7.36762 23.1816 -7.21374 0 0 0 
-30.2432 8.78554 16.2453 0 0 0 -13.5756 -8.78554 -16.2453 
-1.71459 -42.5715 -42.4587 0 0 0 0 0 0 
0 0 0 19.472 18.5081 82.8364 0 0 0 
0 0 0 0 0 0 0 -355.95 0 
0 0 0 0 0 0 0 0 0 
0 0 0 0 0 0 0 0 0 
0 0 0 0 0 0 0 0 0 
0 0 0 0 0 0 -3.16206 -5.05957 -0.175083 
0 0 0 0 0 0 0 0 0 
0 0 0 0 0 0 0 0 0 
0 0 0 3.16206 5.05957 0.175083 0 0 0 
0 0 0 0 0 0 0 0 0 
0 0 0 0 0 0 172.307 -57.8898 -31.4968 
17.8538 -40.6303 10.4894 0 0 0 0 0 0 
-115.801 0 0 0 0 0 0 0 0 
-17.8538 40.6303 -10.4894 0 0 0 0 0 0 
-82.9442 0 0 0 0 0 0 0 0 
0 0 0 0 0 0 0 0 0 
0 0 0 0 0 0 0 0 0 
0 0 0 17.5937 4.70574 -34.0347 0 0 0 
30.4725 -132.805 28.8952 -220.074 -38.6892 14.8536 220.074 38.6892 -14.8536 
0 0 0 0 0 0 0 0 0 
-1.79707 -2.479 6.4801 -0.364937 -1.35705 -3.49203 0 0 0 
0 0 0 1.71459 42.5715 42.4587 -2.90027 1.26266 0.058881 
5.63129 -2.10601 3.40367 -33.2035 133.648 -32.3577 0 0 0 
0 0 0 0 0 0 0 0 0 
191.127 0 0 0 0 0 0 0 0 
0 0 0 -178.867 0 0 -15.8856 2.76558 3.16659 
15.8856 -2.76558 -3.16659 0 0 0 0 0 0 
0 184.372 0 0 0 0 0 0 0 
0 0 0 0 0 0 135.109 -262.192 -57.6929 
0 0 0 0 0 0 0 0 0 
0 0 0 -352.723 194.46 10.8631 217.614 67.7325 46.8297 
0 0 0 0 0 0 0 0 0 
-5.47325 5.77834 -8.92439 0 0 0 80.3606 0 0 
0 0 0 0 0 0 -172.307 57.8898 31.4968 
-7.63543 -197.845 -40.6802 0 0 0 0 0 0 
2.12902 7.76431 9.89794 0 0 0 0 0 0 
7.63543 197.845 40.6802 0 0 0 0 0 0 
0 0 0 -17.5937 -4.70574 34.0347 0 0 0 
0 0 0 123.644 177.855 -83.2728 0 0 0 
0 0 0 0.364937 1.35705 3.49203 -52.1603 -61.858 -2.01951 
52.1603 61.858 2.01951 0 0 0 0 0 0 
0 0 0 0 0 0 -322.196 -1.26248 90.5425 
322.196 1.26248 -90.5425 0 0 0 0 294.141 0 
0 0 0 0 0 0 0 0 0 
0 0 0 0 0 0 0 0 0 
0 0 0 0 0 0 0 0 0 
0 0 0 5.47325 -5.77834 8.92439 0 0 0 
0 0 0 0 0 0 0 0 0 
-9.55533 2.87617 -8.13957 9.55533 -2.87617 8.13957 0 0 0 
0 0 0 0 0 0 0 0 0 
-2.12902 -7.76431 -9.89794 0 0 0 -123.644 -177.855 83.2728 
0 0 0 0 0 0 0 0 0 
0 0 0 0 0 0 0 0 0 
0 0 0 0 0 0 0 0 0 
0 0 0 0 0 0 0 0 0 
0 0 0 0 0 0 0 0 0 
0 0 0 0 0 0 0 0 0 
0 0 0 0 0 0 0 0 0 
0 0 0 21.1897 -166.392 86.175 0 0 0 
-21.1897 166.392 -86.175 0 0 0 0 0 0 
0 0 0 0 0 0 0 0 0 
0 0 0 0 0 0 0 0 0 
160.304 -246.398 -229.306 -9.05586 -16.9627 12.016 9.05586 16.9627 -12.016 
-160.304 246.398 229.306 0 0 0 0 0 0 
0 0 0 0 0 0 0 0 -348.135 
0 0 0 0 0 0 0 0 0 
0 0 0 0 0 -4377.19 0 0 0 
0 0 0 0 0 0 418.02 -475.891 -263.109 
-418.02 475.891 263.109 0 0 0 0 0 0 

v 3 567 double
-0.241439 0.281527 0.529018 -0.168947 0.406246 0.677652 -0.31306 0.0395897 0.790522 
0.046995 -0.225101 0.866665 -0.142695 -0.0547719 0.850221 -0.219206 0.284978 0.881824 
-0.327706 -0.0238369 1.43632 -0.764612 0.275082 1.5192 -0.43825 0.186857 1.1777 
-0.169695 0.111735 1.14952 -0.49397 0.286465 1.29498 -0.106757 0.132559 1.15341 
0.0466677 0.109139 0.976261 -0.411058 0.0233541 1.05748 -0.288217 0.19058 1.16707 
-0.100711 0.333279 1.00673 -0.32986 -0.00580813 1.22269 -0.214654 0.0846293 1.16504 
-0.417046 0.0127366 0.995447 0.0785003 0.0468063 1.15253 -0.145845 -0.0733717 1.41749 
-0.288811 -0.0199738 0.920024 -0.159082 -0.403059 1.19809 -0.115161 -0.0393686 1.09796 
-0.0929958 -0.466562 1.18599 -0.082157 0.187099 0.961728 -0.330482 0.256538 1.26504 
-0.231023 0.367386 1.3078 0.0534415 0.194386 1.15936 -0.0332658 -0.149268 1.1668 
0.195536 -0.0054013 1.20347 -0.00451383 0.354394 1.25956 -0.00659568 -0.0277911 1.08831 
0.150516 -0.0299983 1.38164 0.012673 -0.253637 1.27615 -0.0531516 0.00459139 1.28469 
0.164277 -0.0527737 1.25895 -0.0230353 -0.240394 1.28966 0.0418369 -0.140605 1.17251 
-0.146786 0.0987674 1.31761 0.0696644 0.0590673 1.14008 -0.215093 0.188615 1.27734 
-0.103826 -0.122569 1.22801 0.327816 -0.322634 0.921093 -0.0302837 -0.243882 1.03432 
0.0210094 -0.0102043 1.18959 -0.138368 -0.0891055 1.07974 -0.318308 -0.0395989 1.14266 
-0.293233 0.185364 1.07392 -0.0894731 0.0173033 1.30699 -0.271611 0.200417 1.24507 
-0.137542 0.112952 0.952986 -0.0108383 0.0217601 1.35352 0.0172965 0.13315 1.18487 
0.167156 -0.0193704 1.04536 -0.240345 0.0374078 1.07856 0.0765787 0.198264 1.41427 
0.100788 0.0913359 1.13695 -0.0182517 0.09 1.30334 0.0494212 0.0957002 1.2708 
0.210775 0.234651 0.910009 -0.140244 -0.136886 0.819181 -0.222998 0.112787 1.25279 
0.121963 0.222303 1.00791 0.133288 -0.0554955 1.28618 -0.303069 -0.128911 1.15767 
0.138647 0.0740442 1.2136 -0.158243 0.0353484 1.13312 0.426347 -0.34621 0.997927 
0.131618 -0.0671411 1.31864 -0.0396045 -0.223921 1.2667 0.0600003 -0.233621 1.17291 
0.46798 0.038208 1.05259 0.0229922 -0.0831162 1.26146 0.124739 -0.0539782 1.26562 
0.0695049 -0.0865541 1.33251 0.0582402 -0.124936 1.28364 -0.0684585 0.186547 0.968135 
-0.101098 -0.244785 1.14817 0.0129773 -0.253944 1.44042 -0.170472 -0.236332 1.01504 
-0.0923319 0.0715802 1.04216 0.0607188 0.270794 1.04495 0.37131 0.196925 1.08703 
0.0515656 0.27318 1.29939 -0.020625 0.19465 1.27899 0.0295254 -0.435344 1.14261 
0.233212 -0.0269944 1.10259 0.0837054 0.156456 1.38081 0.206968 0.118967 1.38398 
-0.0322631 0.0256292 1.49355 0.0986197 -0.0825641 1.27811 -0.109416 -0.113514 1.34237 
0.113905 -0.342329 1.12221 0.233725 0.437064 1.31916 -0.125086 0.0961288 1.06694 
-0.317662 0.0759884 1.53384 -0.54658 -0.0959475 1.00933 -0.0607065 -0.065351 1.18423 
-0.0194072 -0.0847297 1.42604 0.474488 -0.0514363 1.0252 -0.790264 0.0257772 1.4849 
0.180783 -0.0365459 1.35979 -0.212101 -0.224357 1.82325 -0.345561 -0.335821 1.64672 
-0.34801 -0.0940057 1.46367 -0.445499 0.146843 1.40668 -0.372387 -0.160644 1.48594 
-0.00214304 0.05895 1.13441 0.261026 0.118449 1.37945 -0.0305926 0.0789054 1.52111 
-0.280233 -0.173428 1.68993 0.148425 0.0623402 1.42332 -0.18014 -0.119159 1.70617 
0.162425 0.233957 1.36031 -0.14608 0.258577 1.61887 0.410914 0.213241 1.73294 
0.0260038 0.159607 1.57516 0.204749 -0.0663811 1.38833 -0.247595 0.0273719 1.26198 
-0.244568 0.0165281 1.49512 0.324926 0.141978 1.45723 0.0708082 0.364798 1.38093 
-0.253143 -0.00773015 1.49235 -0.159483 -0.166979 1.51936 -0.321791 0.0386678 1.56843 
-0.220869 0.105659 1.62123 -0.412931 0.0261447 1.34236 -0.302066 0.1531 0.966367 
0.0122928 -0.245084 1.50955 -0.0100035 -0.0178886 1.27293 -0.0852701 0.159545 1.71786 
-0.209433 -0.0798483 1.48347 -0.246424 -0.0421234 1.50216 -0.215482 -0.118475 1.73364 
-0.1175 -0.0442097 1.44464 -0.127925 0.205696 1.47294 -0.164106 0.0684429 1.55806 
-0.290581 0.117332 1.65152 0.227527 -0.035556 1.33561 0.0641464 -0.352563 1.72861 
0.0783181 -0.195281 1.2212 -0.261077 -0.142985 1.33118 0.0114568 -0.0181017 1.62689 
-0.370368 -0.180014 1.68477 0.145441 0.17775 1.35114 -0.147305 0.48257 1.72416 
0.153227 0.0130939 1.76916 -0.268554 -0.079534 1.24186 -0.152859 0.0364184 1.6546 
-0.200181 0.137619 1.41892 -0.297053 0.0846481 1.56799 0.054408 0.261054 1.36396 
-0.00296184 0.118686 1.69645 -0.0470302 -0.185727 1.51432 -0.0923472 0.226871 1.4987 
-0.0579788 0.0720003 1.40741 -0.341774 0.0226994 1.59494 -0.0305407 0.197057 1.49565 
0.116736 0.0627618 1.53073 -0.332019 0.158264 1.51339 0.337839 0.0955427 1.50116 
0.0554418 0.00495909 1.57097 -0.136766 0.0569388 1.48259 -0.0591757 0.143407 1.4365 
0.0602464 -0.0228017 1.59875 0.0400116 0.15783 1.573 -0.321959 0.0281273 1.54394 
0.0158401 0.161021 1.42696 0.1947 -0.0471519 1.45264 -0.150421 -0.134194 1.45001 
0.0705361 0.0235557 1.42925 -0.00897688 0.314642 1.41791 0.00139386 -0.10512 1.43476 
-0.237578 0.11444 1.565 -0.0784936 0.227975 1.62348 -0.0645488 -0.166 1.50422 
0.0608458 -0.28266 1.43849 -0.305819 -0.37378 1.64216 0.102416 0.205446 1.56061 
-0.166372 0.194831 1.50494 0.166735 0.0698098 1.65312 -0.186227 0.011007 1.52632 
-0.239232 0.328897 1.64764 0.175273 -0.0452205 1.66632 0.255136 -0.0525019 1.40764 
0.0240365 -0.0677985 1.40808 0.0273701 -0.0676003 1.48391 0.079321 -0.402693 1.78486 
0.065141 0.279823 1.46887 -3.21393e-05 -0.268459 1.78809 0.0192886 0.221816 1.52707 
-0.151993 -0.0781681 1.53078 0.314195 -0.219388 1.35597 -0.00564953 -0.256685 1.61886 
0.261783 -0.012739 1.44059 -0.248243 0.263745 1.71079 0.300021 0.275657 1.91221 
-0.520792 0.274194 1.74583 -0.78374 -0.0667001 1.95801 -0.134754 0.0525785 1.64957 
-0.139554 -0.0329957 1.83845 0.0661713 -0.115953 2.0131 -0.265332 0.0742158 2.0661 
0.0708165 -0.0530644 1.64491 -0.104863 -0.168105 1.8861 -0.484715 -0.0754541 1.64724 
-0.396369 -0.194158 1.7865 -0.239639 0.283007 1.62981 -0.559534 0.0719911 1.4632 
-0.260514 0.171582 1.86799 -0.258016 0.195093 1.81095 0.13318 0.312442 1.87219 
-0.2676 -0.023918 1.76148 -0.431219 -0.0468458 1.60717 -0.0671134 -0.167618 1.75824 
-0.313069 -0.11125 1.78953 -0.212185 0.0705131 1.90253 -0.182267 0.14675 1.75261 
0.176495 -0.0463374 1.83188 -0.315747 -0.0586824 2.02472 -0.134441 -0.426274 1.51968 
-0.159859 0.116696 1.85571 -0.0751952 -0.148966 1.57648 -0.155427 0.168037 1.5854 
-0.0729516 -0.0723707 1.6178 0.0303846 0.15755 1.86407 -0.101668 0.0883412 1.87109 
0.0446165 -0.281249 1.713 0.125001 0.0454649 1.87284 0.0341083 -0.127929 1.77291 
-0.296072 0.13806 1.97575 -0.0432416 0.289677 1.93886 0.147348 -0.273235 2.12465 
-0.384148 0.13564 1.63314 0.0799752 0.125696 1.7314 0.0859195 -0.193796 1.71933 
-0.00878765 0.123047 1.58747 -0.0833942 -0.00147883 2.01971 0.308105 0.275325 1.83866 
0.0116308 -0.30088 1.80073 0.185846 -0.236967 1.62284 0.100749 -0.47581 1.4002 
-0.0478344 -0.116014 1.94256 -0.106986 0.296142 1.65818 0.140835 -0.0837583 1.81637 
-0.209716 0.330133 1.71396 -0.234304 -0.17123 1.72396 -0.0796877 0.0086897 1.83744 
-0.0659341 -0.258663 1.73027 -0.114826 -0.118205 1.95353 -0.00532619 -0.312241 1.69465 
-0.309627 0.0358159 1.80958 0.0297422 0.170569 1.54424 -0.0478347 0.191206 1.60243 
-0.312396 -0.146377 1.73463 0.187822 0.0317036 1.77241 0.0438672 -0.316249 1.78079 
-0.236315 -8.96874e-05 1.75565 -0.0368735 -0.00757168 1.67791 -0.160859 0.341526 1.81251 
0.184058 0.267174 1.80307 -0.413597 -0.0392033 1.78492 -0.339794 -0.00526107 1.89245 
0.0107339 0.0979011 1.87348 -0.195385 -0.0459255 1.84973 -0.151214 0.0461393 1.67441 
-0.335226 -0.329355 2.04561 -0.120785 0.0632954 1.69499 -0.205456 0.240737 1.74516 
0.0118161 0.173209 1.79883 -0.311437 -0.0556746 1.68907 -0.214528 0.277337 1.97223 
-0.234195 0.488596 1.60943 -0.324605 -0.06188 1.73278 0.148837 -0.425598 1.76344 
0.0730195 -0.293554 1.7464 -0.146145 -0.0862832 1.87267 -0.205469 0.152576 2.23053 
-0.526492 0.0340159 1.39323 0.000654699 0.304914 1.83185 -0.0753268 -0.0149339 1.66226 
0.0034395 0.0555985 1.62302 0.148046 -0.0641772 1.73603 -0.174718 -0.0990798 1.84872 
-0.0685239 0.126672 2.02308 0.0654745 -0.122001 1.96265 -0.142674 0.0741629 2.28152 
0.0203267 -0.0596871 2.01702 0.0351035 -0.276724 2.13296 -0.162199 0.0556575 2.02155 
0.229677 0.14787 1.81944 -0.381289 -0.264145 2.1298 -0.420715 -0.262706 1.84457 
-0.197099 0.0853045 1.98652 -0.137356 0.433842 1.78977 -0.0605524 0.131327 2.09134 
-0.203519 -0.03728 2.23313 -0.269386 0.0773191 2.0878 0.15692 0.075044 1.8335 
-0.153499 0.37107 2.29326 -0.234137 -0.0188935 2.0608 -0.0577774 -0.220839 1.9342 
0.0893086 -0.201382 2.05017 -0.472273 -0.160187 2.3939 -0.25414 -0.0651856 2.10352 
-0.21491 0.351311 1.90587 -0.261356 0.127877 1.94367 -0.0223691 -0.148743 1.89882 
-0.0652484 0.0164495 2.00309 -0.121327 0.136831 1.99121 -0.124975 0.469595 1.98392 
0.258353 0.0723336 2.21411 -0.0664457 0.570104 1.90865 0.0832196 -0.369199 2.22816 
-0.268931 0.0494642 1.79208 0.0369747 0.429512 1.86325 -0.0579894 -0.0663558 1.79409 
-0.150461 0.294507 2.06153 -0.233813 0.234941 1.91995 -0.229892 -0.11846 2.17218 
-0.0439519 0.170847 1.99192 -0.136746 -0.417775 1.68886 -0.222123 0.0820594 2.08494 
-0.00181934 -0.0752053 1.9945 0.192251 -0.0481118 1.82793 0.215882 -0.0120503 2.08953 
0.169271 0.176315 1.81478 -0.264523 0.0517496 2.03744 -0.241667 -0.133033 1.92897 
0.103993 0.164154 1.85797 0.0326917 -0.0732982 1.80038 -0.152499 -0.0896524 1.94276 
0.101224 -0.22479 2.05333 -0.115286 -0.00957066 1.81582 -0.051933 0.0802747 2.32282 
-0.0824895 -0.0522888 1.87087 0.104085 0.696759 2.24093 -0.0264778 -0.474001 1.76634 
-0.0695763 0.351738 2.16015 0.0459597 0.586359 1.82546 0.225355 0.169379 2.03157 
-0.504777 -0.22123 2.02522 -0.226123 0.0623103 2.16409 -0.426575 -0.192553 1.99248 
-0.12863 -0.511991 2.29329 -0.340376 -0.316108 2.29794 -0.111757 -0.283401 2.23542 
-0.244037 -0.0537155 2.14064 0.112846 0.02672 2.14748 -0.381437 0.283035 2.09061 
-0.0484121 -0.0283581 2.00558 -0.325233 0.436322 2.09931 -0.282301 0.0223891 1.97482 
-0.132056 -0.517344 2.09273 0.0368217 -0.266656 2.20194 -0.108866 -0.397756 2.32846 
0.0460146 -0.0880105 1.94422 -0.16645 0.142073 1.985 0.0618115 0.0526362 2.03745 
-0.164896 -0.144344 2.06109 0.42222 -0.437006 2.13801 -0.29754 -0.125146 2.2932 
-0.334115 -0.399563 2.09984 -0.40208 0.403178 2.03735 0.138707 -0.486993 2.04769 
0.0931607 -0.0626151 2.06154 -0.294988 -0.0636036 1.84691 0.0581315 0.246317 2.35561 
-0.146123 0.252988 2.27784 0.37677 -0.00876466 2.10245 -0.373893 -0.104161 2.39389 
-0.476588 -0.118568 2.32346 -0.182403 0.260598 1.95422 -0.258803 -0.123297 2.14874 
-0.0620121 0.125504 2.48631 -0.257731 0.132958 2.20682 -0.129063 0.202191 2.31875 
0.00312287 -0.345994 2.30775 0.420368 0.103827 2.29561 0.0785267 0.285661 2.06416 
0.193389 -0.0204604 2.41304 -0.520998 0.383318 2.17045 -0.103578 0.18485 2.59778 
-0.0382531 0.124191 2.37312 -0.538856 0.0864156 2.34128 -0.395857 -0.00568272 2.31418 
0.0762616 -0.145378 2.13426 0.108151 -0.0316835 2.46391 0.0836218 -0.041646 2.36142 
-0.473375 0.377091 2.54131 -0.0404324 0.0446615 2.0029 -0.196798 -0.497412 2.4892 
0.028838 -0.095094 2.54122 0.253738 -0.0239376 2.16807 -0.0576533 -0.227559 2.13754 
-0.222132 -0.115906 2.1637 0.261291 0.182114 2.86875 0.154859 -0.463599 2.37092 
-0.195385 -0.201098 2.35417 -0.272439 -0.192375 2.24542 0.110412 -0.0567084 2.09712 
-0.296095 -0.190743 2.18966 -0.0548063 0.347001 2.14044 -0.223842 0.597219 1.95157 
-0.221474 0.439184 2.28158 0.130297 -0.190677 2.04904 0.35053 -0.509345 2.12644 
0.112751 -0.372794 2.60449 0.188186 -0.345204 1.98717 -0.150459 -0.205957 2.54815 
-0.284009 0.0539393 2.03665 0.377215 -0.106107 2.38233 -0.494918 0.0373466 2.30883 
-0.217488 -0.117422 2.12028 -0.0494981 -0.0282289 2.29703 0.068387 -0.0521962 2.22921 
0.319139 -0.0769819 2.15858 0.105515 0.00309608 2.15524 -0.0228682 0.0149305 2.18177 
-0.315924 -0.450001 1.83092 -0.199963 0.275234 2.04478 -0.212455 -0.445797 2.32215 
-0.28851 0.2451 2.27334 -0.558583 -0.309975 2.25378 -0.160089 -0.0796656 2.15089 
-0.176982 0.481686 2.40106 -0.158494 -0.35201 2.17335 0.118017 0.0978585 2.25347 
-0.117427 0.399278 1.93109 0.29206 -0.142282 2.20638 -0.161561 -0.0816763 2.29568 
-0.143281 0.529316 2.26792 0.134018 -0.100502 2.28877 -0.0154838 -0.363801 2.24072 
-0.0717273 0.0209696 2.20763 0.361023 -0.271958 2.08202 0.535286 0.0179996 2.52942 
-0.157085 0.162388 2.60218 0.278276 0.272524 2.68956 -0.0474819 0.181951 2.67122 
0.0356097 -0.432131 2.24927 -0.304697 0.0412153 2.32658 -0.450207 -0.0258298 2.5269 
0.0777173 -0.168193 2.63397 -0.367517 -0.0401034 2.44812 -0.118122 0.22829 2.38413 
0.366604 0.0864208 2.63324 -0.443188 0.281387 2.48993 -0.251781 0.286429 2.7671 
0.150012 0.0541723 2.64126 -0.0465684 0.348622 2.71706 0.0877755 -0.0278756 2.71348 
0.0748537 0.189732 2.81174 -0.0788872 0.0364739 2.65814 -0.0771057 0.0633564 2.51974 
0.028791 0.349749 2.73797 0.417101 -0.478372 2.42372 -0.243713 0.600977 2.42778 
-0.16274 0.186118 2.46433 -0.386684 0.674718 2.52359 0.697004 -0.0660177 2.45099 
-0.0775035 -0.203787 2.61993 -0.127521 0.693342 2.86757 0.143257 -0.465398 2.767 
0.286014 -0.323085 2.02773 0.418367 -0.360173 2.55279 0.370437 -0.417107 2.91884 
0.0837499 -0.570345 2.82613 0.265777 0.200668 2.89152 0.160079 -0.49107 2.24077 
-0.333752 0.00243922 2.51458 0.295302 -0.133619 2.29654 -0.242233 -0.108528 2.35896 
0.240647 -0.237015 2.54461 0.0223211 0.0276655 2.56842 0.464061 0.153846 2.40293 
0.340018 -0.257676 2.22283 -0.504431 -0.0406627 2.12186 0.243706 -0.050703 2.49522 
0.199124 -0.507153 2.80453 0.284024 0.20505 2.32263 -0.298976 -0.226759 1.99449 
0.0484005 0.659531 2.53603 0.141213 0.184678 2.91406 -0.596163 -0.461855 2.47156 
-0.71005 -0.207156 2.23037 0.0628425 0.505422 2.79944 0.246238 -0.0528899 2.58763 
-0.26018 -0.214749 2.65513 -0.475794 0.106807 3.32713 0.0433135 -0.7991 2.4696 
-0.114666 0.656733 2.79387 0.18613 0.138132 2.83527 -0.670138 -0.092703 2.78748 
-0.100951 0.240112 3.07715 0.223757 -0.171847 2.68447 -0.333941 0.412913 3.02308 
-0.0491678 0.0254587 2.74902 0.187474 0.504217 2.56049 -0.135733 -0.538077 2.64432 
-0.116095 0.217681 2.52887 0.322188 0.150743 2.74353 -0.496721 -0.430565 2.73965 
0.857378 0.674478 2.74662 -0.0362265 0.371135 3.11682 0.251725 -0.338613 3.17504 
0.151601 0.241128 2.67567 0.450519 0.0700771 2.22601 0.337613 -0.0448356 2.94846 
-0.345819 -0.134312 2.89455 -0.133685 -0.0816126 3.0873 -0.584315 0.190102 2.85224 
0.743899 -0.118435 2.55236 0.0136544 0.523669 2.58029 -0.0974954 0.135615 3.12877 
0.335798 -0.457462 2.80923 0.338427 -0.722697 3.32215 0.477978 0.375704 2.61678 
-0.0671164 -0.0692635 3.12541 -0.275165 -0.225752 2.77666 0.576999 0.0136281 3.07493 
0.606112 -0.0402478 2.78766 1.12097 0.707909 2.22181 -0.568614 -0.0724265 2.62381 
0.00761252 0.157793 2.7418 0.0625632 -0.22895 3.10482 -0.37483 -0.604354 2.64696 
-0.307968 -0.289729 3.09091 1.35731 -1.34632 2.77426 1.11129 -0.498148 2.9211 
-1.18643 0.281673 -2.90584 0.217107 -0.577935 3.47887 0.540454 -0.305267 3.23214 
-0.0197384 0.296935 -3.13532 1.31728 0.124325 -3.03793 1.13768 -0.00417816 3.27383 
0.596711 0.810743 3.00571 0.21007 1.04466 2.79844 0.88363 0.510162 2.88235 
-0.265886 -0.342046 2.73643 0.285764 -0.0898045 3.08265 0.0637216 0.00672514 2.9726 
-0.096098 -0.0828594 2.88341 -0.124648 0.615095 3.16027 -0.678356 -0.539712 2.99409 
-1.53163 -1.10436 3.43641 0.434682 0.414962 2.81983 -0.126271 0.637284 3.27284 
0.587138 0.424936 3.40784 0.0948198 0.432659 3.11484 0.401592 0.311961 2.83692 
0.0531323 0.215844 3.31434 0.489332 -0.324655 2.96709 0.279435 2.07159 3.41717 
-1.27084 -0.499348 3.40114 0.371718 -0.454424 3.39506 0.379614 0.0702273 -3.08584 
0.308632 -0.481402 3.47174 -0.628309 0.0384696 -3.45108 -0.201623 -0.274931 3.12981 
-0.517142 0.233577 3.59996 0.434996 -0.797016 3.28148 0.289362 0.507778 3.09102 
-0.0881654 -0.640544 3.65335 -0.2657 0.936046 3.49115 0.956899 0.989674 3.34729 

om 3 567 double
0 0 0 0 0 0 0 0 0 
0 0 0 0 0 0 0 0 0 
0 0 0 0 0 0 0 0 0 
0 0 0 0 0 0 0 0 0 
0 0 0 0 0 0 0 0 0 
0 0 0 0 0 0 0 0 0 
0 0 0 0 0 0 0 0 0 
0 0 0 0 0 0 0 0 0 
0 0 0 0 0 0 0 0 0 
0 0 0 0 0 0 0 0 0 
0 0 0 0 0 0 0 0 0 
0 0 0 0 0 0 0 0 0 
0 0 0 0 0 0 0 0 0 
0 0 0 0 0 0 0 0 0 
0 0 0 0 0 0 0 0 0 
0 0 0 0 0 0 0 0 0 
0 0 0 0 0 0 0 0 0 
0 0 0 0 0 0 0 0 0 
0 0 0 0 0 0 0 0 0 
0 0 0 0 0 0 0 0 0 
0 0 0 0 0 0 0 0 0 
0 0 0 0 0 0 0 0 0 
0 0 0 0 0 0 0 0 0 
0 0 0 0 0 0 0 0 0 
0 0 0 0 0 0 0 0 0 
0 0 0 0 0 0 0 0 0 
0 0 0 0 0 0 0 0 0 
0 0 0 0 0 0 0 0 0 
0 0 0 0 0 0 0 0 0 
0 0 0 0 0 0 0 0 0 
0 0 0 0 0 0 0 0 0 
0 0 0 0 0 0 0 0 0 
0 0 0 0 0 0 0 0 0 
0 0 0 0 0 0 0 0 0 
0 0 0 0 0 0 0 0 0 
0 0 0 0 0 0 0 0 0 
0 0 0 0 0 0 0 0 0 
0 0 0 0 0 0 0 0 0 
0 0 0 0 0 0 0 0 0 
0 0 0 0 0 0 0 0 0 
0 0 0 0 0 0 0 0 0 
0 0 0 0 0 0 0 0 0 
0 0 0 0 0 0 0 0 0 
0 0 0 0 0 0 0 0 0 
0 0 0 0 0 0 0 0 0 
0 0 0 0 0 0 0 0 0 
0 0 0 0 0 0 0 0 0 
0 0 0 0 0 0 0 0 0 
0 0 0 0 0 0 0 0 0 
0 0 0 0 0 0 0 0 0 
0 0 0 0 0 0 0 0 0 
0 0 0 0 0 0 0 0 0 
0 0 0 0 0 0 0 0 0 
0 0 0 0 0 0 0 0 0 
0 0 0 0 0 0 0 0 0 
0 0 0 0 0 0 0 0 0 
0 0 0 0 0 0 0 0 0 
0 0 0 0 0 0 0 0 0 
0 0 0 0 0 0 0 0 0 
0 0 0 0 0 0 0 0 0 
0 0 0 0 0 0 0 0 0 
0 0 0 0 0 0 0 0 0 
0 0 0 0 0 0 0 0 0 
0 0 0 0 0 0 0 0 0 
0 0 0 0 0 0 0 0 0 
0 0 0 0 0 0 0 0 0 
0 0 0 0 0 0 0 0 0 
0 0 0 0 0 0 0 0 0 
0 0 0 0 0 0 0 0 0 
0 0 0 0 0 0 0 0 0 
0 0 0 0 0 0 0 0 0 
0 0 0 0 0 0 0 0 0 
0 0 0 0 0 0 0 0 0 
0 0 0 0 0 0 0 0 0 
0 0 0 0 0 0 0 0 0 
0 0 0 0 0 0 0 0 0 
0 0 0 0 0 0 0 0 0 
0 0 0 0 0 0 0 0 0 
0 0 0 0 0 0 0 0 0 
0 0 0 0 0 0 0 0 0 
0 0 0 0 0 0 0 0 0 
0 0 0 0 0 0 0 0 0 
0 0 0 0 0 0 0 0 0 
0 0 0 0 0 0 0 0 0 
0 0 0 0 0 0 0 0 0 
0 0 0 0 0 0 0 0 0 
0 0 0 0 0 0 0 0 0 
0 0 0 0 0 0 0 0 0 
0 0 0 0 0 0 0 0 0 
0 0 0 0 0 0 0 0 0 
0 0 0 0 0 0 0 0 0 
0 0 0 0 0 0 0 0 0 
0 0 0 0 0 0 0 0 0 
0 0 0 0 0 0 0 0 0 
0 0 0 0 0 0 0 0 0 
0 0 0 0 0 0 0 0 0 
0 0 0 0 0 0 0 0 0 
0 0 0 0 0 0 0 0 0 
0 0 0 0 0 0 0 0 0 
0 0 0 0 0 0 0 0 0 
0 0 0 0 0 0 0 0 0 
0 0 0 0 0 0 0 0 0 
0 0 0 0 0 0 0 0 0 
0 0 0 0 0 0 0 0 0 
0 0 0 0 0 0 0 0 0 
0 0 0 0 0 0 0 0 0 
0 0 0 0 0 0 0 0 0 
0 0 0 0 0 0 0 0 0 
0 0 0 0 0 0 0 0 0 
0 0 0 0 0 0 0 0 0 
0 0 0 0 0 0 0 0 0 
0 0 0 0 0 0 0 0 0 
0 0 0 0 0 0 0 0 0 
0 0 0 0 0 0 0 0 0 
0 0 0 0 0 0 0 0 0 
0 0 0 0 0 0 0 0 0 
0 0 0 0 0 0 0 0 0 
0 0 0 0 0 0 0 0 0 
0 0 0 0 0 0 0 0 0 
0 0 0 0 0 0 0 0 0 
0 0 0 0 0 0 0 0 0 
0 0 0 0 0 0 0 0 0 
0 0 0 0 0 0 0 0 0 
0 0 0 0 0 0 0 0 0 
0 0 0 0 0 0 0 0 0 
0 0 0 0 0 0 0 0 0 
0 0 0 0 0 0 0 0 0 
0 0 0 0 0 0 0 0 0 
0 0 0 0 0 0 0 0 0 
0 0 0 0 0 0 0 0 0 
0 0 0 0 0 0 0 0 0 
0 0 0 0 0 0 0 0 0 
0 0 0 0 0 0 0 0 0 
0 0 0 0 0 0 0 0 0 
0 0 0 0 0 0 0 0 0 
0 0 0 0 0 0 0 0 0 
0 0 0 0 0 0 0 0 0 
0 0 0 0 0 0 0 0 0 
0 0 0 0 0 0 0 0 0 
0 0 0 0 0 0 0 0 0 
0 0 0 0 0 0 0 0 0 
0 0 0 0 0 0 0 0 0 
0 0 0 0 0 0 0 0 0 
0 0 0 0 0 0 0 0 0 
0 0 0 0 0 0 0 0 0 
0 0 0 0 0 0 0 0 0 
0 0 0 0 0 0 0 0 0 
0 0 0 0 0 0 0 0 0 
0 0 0 0 0 0 0 0 0 
0 0 0 0 0 0 0 0 0 
0 0 0 0 0 0 0 0 0 
0 0 0 0 0 0 0 0 0 
0 0 0 0 0 0 0 0 0 
0 0 0 0 0 0 0 0 0 
0 0 0 0 0 0 0 0 0 
0 0 0 0 0 0 0 0 0 
0 0 0 0 0 0 0 0 0 
0 0 0 0 0 0 0 0 0 
0 0 0 0 0 0 0 0 0 
0 0 0 0 0 0 0 0 0 
0 0 0 0 0 0 0 0 0 
0 0 0 0 0 0 0 0 0 
0 0 0 0 0 0 0 0 0 
0 0 0 0 0 0 0 0 0 
0 0 0 0 0 0 0 0 0 
0 0 0 0 0 0 0 0 0 
0 0 0 0 0 0 0 0 0 
0 0 0 0 0 0 0 0 0 
0 0 0 0 0 0 0 0 0 
0 0 0 0 0 0 0 0 0 
0 0 0 0 0 0 0 0 0 
0 0 0 0 0 0 0 0 0 
0 0 0 0 0 0 0 0 0 
0 0 0 0 0 0 0 0 0 
0 0 0 0 0 0 0 0 0 
0 0 0 0 0 0 0 0 0 
0 0 0 0 0 0 0 0 0 
0 0 0 0 0 0 0 0 0 
0 0 0 0 0 0 0 0 0 
0 0 0 0 0 0 0 0 0 
0 0 0 0 0 0 0 0 0 
0 0 0 0 0 0 0 0 0 
0 0 0 0 0 0 0 0 0 
0 0 0 0 0 0 0 0 0 
0 0 0 0 0 0 0 0 0 
0 0 0 0 0 0 0 0 0 
0 0 0 0 0 0 0 0 0 
0 0 0 0 0 0 0 0 0 
0 0 0 0 0 0 0 0 0 

bottom 1 567 double
-0.0269279 -0.0269279 -0.0269279 -0.0269279 -0.0269279 -0.0269279 -0.0269279 -0.0269279 -0.0269279 
-0.0269279 -0.0269279 -0.0269279 -0.0269279 -0.0269279 -0.0269279 -0.0269279 -0.0269279 -0.0269279 
-0.0269279 -0.0269279 -0.0269279 -0.0269279 -0.0269279 -0.0269279 -0.0269279 -0.0269279 -0.0269279 
-0.0269279 -0.0269279 -0.0269279 -0.0269279 -0.0269279 -0.0269279 -0.0269279 -0.0269279 -0.0269279 
-0.0269279 -0.0269279 -0.0269279 -0.0269279 -0.0269279 -0.0269279 -0.0269279 -0.0269279 -0.0269279 
-0.0269279 -0.0269279 -0.0269279 -0.0269279 -0.0269279 -0.0269279 -0.0269279 -0.0269279 -0.0269279 
-0.0269279 -0.0269279 -0.0269279 -0.0269279 -0.0269279 -0.0269279 -0.0269279 -0.0269279 -0.0269279 
-0.0269279 -0.0269279 -0.0269279 -0.0269279 -0.0269279 -0.0269279 -0.0269279 -0.0269279 -0.0269279 
-0.0269279 -0.0269279 -0.0269279 -0.0269279 -0.0269279 -0.0269279 -0.0269279 -0.0269279 -0.0269279 
-0.0269279 -0.0269279 -0.0269279 -0.0269279 -0.0269279 -0.0269279 -0.0269279 -0.0269279 -0.0269279 
-0.0269279 -0.0269279 -0.0269279 -0.0269279 -0.0269279 -0.0269279 -0.0269279 -0.0269279 -0.0269279 
-0.0269279 -0.0269279 -0.0269279 -0.0269279 -0.0269279 -0.0269279 -0.0269279 -0.0269279 -0.0269279 
-0.0269279 -0.0269279 -0.0269279 -0.0269279 -0.0269279 -0.0269279 -0.0269279 -0.0269279 -0.0269279 
-0.0269279 -0.0269279 -0.0269279 -0.0269279 -0.0269279 -0.0269279 -0.0269279 -0.0269279 -0.0269279 
-0.0269279 -0.0269279 -0.0269279 -0.0269279 -0.0269279 -0.0269279 -0.0269279 -0.0269279 -0.0269279 
-0.0269279 -0.0269279 -0.0269279 -0.0269279 -0.0269279 -0.0269279 -0.0269279 -0.0269279 -0.0269279 
-0.0269279 -0.0269279 -0.0269279 -0.0269279 -0.0269279 -0.0269279 -0.0269279 -0.0269279 -0.0269279 
-0.0269279 -0.0269279 -0.0269279 -0.0269279 -0.0269279 -0.0269279 -0.0269279 -0.0269279 -0.0269279 
-0.0269279 -0.0269279 -0.0269279 -0.0269279 -0.0269279 -0.0269279 -0.0269279 -0.0269279 -0.0269279 
-0.0269279 -0.0269279 -0.0269279 -0.0269279 -0.0269279 -0.0269279 -0.0269279 -0.0269279 -0.0269279 
-0.0269279 -0.0269279 -0.0269279 -0.0269279 -0.0269279 -0.0269279 -0.0269279 -0.0269279 -0.0269279 
-0.0269279 -0.0269279 -0.0269279 -0.0269279 -0.0269279 -0.0269279 -0.0269279 -0.0269279 -0.0269279 
-0.0269279 -0.0269279 -0.0269279 -0.0269279 -0.0269279 -0.0269279 -0.0269279 -0.0269279 -0.0269279 
-0.0269279 -0.0269279 -0.0269279 -0.0269279 -0.0269279 -0.0269279 -0.0269279 -0.0269279 -0.0269279 
-0.0269279 -0.0269279 -0.0269279 -0.0269279 -0.0269279 -0.0269279 -0.0269279 -0.0269279 -0.0269279 
-0.0269279 -0.0269279 -0.0269279 -0.0269279 -0.0269279 -0.0269279 -0.0269279 -0.0269279 -0.0269279 
-0.0269279 -0.0269279 -0.0269279 -0.0269279 -0.0269279 -0.0269279 -0.0269279 -0.0269279 -0.0269279 
-0.0269279 -0.0269279 -0.0269279 -0.0269279 -0.0269279 -0.0269279 -0.0269279 -0.0269279 -0.0269279 
-0.0269279 -0.0269279 -0.0269279 -0.0269279 -0.0269279 -0.0269279 -0.0269279 -0.0269279 -0.0269279 
-0.0269279 -0.0269279 -0.0269279 -0.0269279 -0.0269279 -0.0269279 -0.0269279 -0.0269279 -0.0269279 
-0.0269279 -0.0269279 -0.0269279 -0.0269279 -0.0269279 -0.0269279 -0.0269279 -0.0269279 -0.0269279 
-0.0269279 -0.0269279 -0.0269279 -0.0269279 -0.0269279 -0.0269279 -0.0269279 -0.0269279 -0.0269279 
-0.0269279 -0.0269279 -0.0269279 -0.0269279 -0.0269279 -0.0269279 -0.0269279 -0.0269279 -0.0269279 
-0.0269279 -0.0269279 -0.0269279 -0.0269279 -0.0269279 -0.0269279 -0.0269279 -0.0269279 -0.0269279 
-0.0269279 -0.0269279 -0.0269279 -0.0269279 -0.0269279 -0.0269279 -0.0269279 -0.0269279 -0.0269279 
-0.0269279 -0.0269279 -0.0269279 -0.0269279 -0.0269279 -0.0269279 -0.0269279 -0.0269279 -0.0269279 
-0.0269279 -0.0269279 -0.0269279 -0.0269279 -0.0269279 -0.0269279 -0.0269279 -0.0269279 -0.0269279 
-0.0269279 -0.0269279 -0.0269279 -0.0269279 -0.0269279 -0.0269279 -0.0269279 -0.0269279 -0.0269279 
-0.0269279 -0.0269279 -0.0269279 -0.0269279 -0.0269279 -0.0269279 -0.0269279 -0.0269279 -0.0269279 
-0.0269279 -0.0269279 -0.0269279 -0.0269279 -0.0269279 -0.0269279 -0.0269279 -0.0269279 -0.0269279 
-0.0269279 -0.0269279 -0.0269279 -0.0269279 -0.0269279 -0.0269279 -0.0269279 -0.0269279 -0.0269279 
-0.0269279 -0.0269279 -0.0269279 -0.0269279 -0.0269279 -0.0269279 -0.0269279 -0.0269279 -0.0269279 
-0.0269279 -0.0269279 -0.0269279 -0.0269279 -0.0269279 -0.0269279 -0.0269279 -0.0269279 -0.0269279 
-0.0269279 -0.0269279 -0.0269279 -0.0269279 -0.0269279 -0.0269279 -0.0269279 -0.0269279 -0.0269279 
-0.0269279 -0.0269279 -0.0269279 -0.0269279 -0.0269279 -0.0269279 -0.0269279 -0.0269279 -0.0269279 
-0.0269279 -0.0269279 -0.0269279 -0.0269279 -0.0269279 -0.0269279 -0.0269279 -0.0269279 -0.0269279 
-0.0269279 -0.0269279 -0.0269279 -0.0269279 -0.0269279 -0.0269279 -0.0269279 -0.0269279 -0.0269279 
-0.0269279 -0.0269279 -0.0269279 -0.0269279 -0.0269279 -0.0269279 -0.0269279 -0.0269279 -0.0269279 
-0.0269279 -0.0269279 -0.0269279 -0.0269279 -0.0269279 -0.0269279 -0.0269279 -0.0269279 -0.0269279 
-0.0269279 -0.0269279 -0.0269279 -0.0269279 -0.0269279 -0.0269279 -0.0269279 -0.0269279 -0.0269279 
-0.0269279 -0.0269279 -0.0269279 -0.0269279 -0.0269279 -0.0269279 -0.0269279 -0.0269279 -0.0269279 
-0.0269279 -0.0269279 -0.0269279 -0.0269279 -0.0269279 -0.0269279 -0.0269279 -0.0269279 -0.0269279 
-0.0269279 -0.0269279 -0.0269279 -0.0269279 -0.0269279 -0.0269279 -0.0269279 -0.0269279 -0.0269279 
-0.0269279 -0.0269279 -0.0269279 -0.0269279 -0.0269279 -0.0269279 -0.0269279 -0.0269279 -0.0269279 
-0.0269279 -0.0269279 -0.0269279 -0.0269279 -0.0269279 -0.0269279 -0.0269279 -0.0269279 -0.0269279 
-0.0269279 -0.0269279 -0.0269279 -0.0269279 -0.0269279 -0.0269279 -0.0269279 -0.0269279 -0.0269279 
-0.0269279 -0.0269279 -0.0269279 -0.0269279 -0.0269279 -0.0269279 -0.0269279 -0.0269279 -0.0269279 
-0.0269279 -0.0269279 -0.0269279 -0.0269279 -0.0269279 -0.0269279 -0.0269279 -0.0269279 -0.0269279 
-0.0269279 -0.0269279 -0.0269279 -0.0269279 -0.0269279 -0.0269279 -0.0269279 -0.0269279 -0.0269279 
-0.0269279 -0.0269279 -0.0269279 -0.0269279 -0.0269279 -0.0269279 -0.0269279 -0.0269279 -0.0269279 
-0.0269279 -0.0269279 -0.0269279 -0.0269279 -0.0269279 -0.0269279 -0.0269279 -0.0269279 -0.0269279 
-0.0269279 -0.0269279 -0.0269279 -0.0269279 -0.0269279 -0.0269279 -0.0269279 -0.0269279 -0.0269279 
-0.0269279 -0.0269279 -0.0269279 -0.0269279 -0.0269279 -0.0269279 -0.0269279 -0.0269279 -0.0269279 

top 1 567 double
0.0730721 0.0730721 0.0730721 0.0730721 0.0730721 0.0730721 0.0730721 0.0730721 0.0730721 
0.0730721 0.0730721 0.0730721 0.0730721 0.0730721 0.0730721 0.0730721 0.0730721 0.0730721 
0.0730721 0.0730721 0.0730721 0.0730721 0.0730721 0.0730721 0.0730721 0.0730721 0.0730721 
0.0730721 0.0730721 0.0730721 0.0730721 0.0730721 0.0730721 0.0730721 0.0730721 0.0730721 
0.0730721 0.0730721 0.0730721 0.0730721 0.0730721 0.0730721 0.0730721 0.0730721 0.0730721 
0.0730721 0.0730721 0.0730721 0.0730721 0.0730721 0.0730721 0.0730721 0.0730721 0.0730721 
0.0730721 0.0730721 0.0730721 0.0730721 0.0730721 0.0730721 0.0730721 0.0730721 0.0730721 
0.0730721 0.0730721 0.0730721 0.0730721 0.0730721 0.0730721 0.0730721 0.0730721 0.0730721 
0.0730721 0.0730721 0.0730721 0.0730721 0.0730721 0.0730721 0.0730721 0.0730721 0.0730721 
0.0730721 0.0730721 0.0730721 0.0730721 0.0730721 0.0730721 0.0730721 0.0730721 0.0730721 
0.0730721 0.0730721 0.0730721 0.0730721 0.0730721 0.0730721 0.0730721 0.0730721 0.0730721 
0.0730721 0.0730721 0.0730721 0.0730721 0.0730721 0.0730721 0.0730721 0.0730721 0.0730721 
0.0730721 0.0730721 0.0730721 0.0730721 0.0730721 0.0730721 0.0730721 0.0730721 0.0730721 
0.0730721 0.0730721 0.0730721 0.0730721 0.0730721 0.0730721 0.0730721 0.0730721 0.0730721 
0.0730721 0.0730721 0.0730721 0.0730721 0.0730721 0.0730721 0.0730721 0.0730721 0.0730721 
0.0730721 0.0730721 0.0730721 0.0730721 0.0730721 0.0730721 0.0730721 0.0730721 0.0730721 
0.0730721 0.0730721 0.0730721 0.0730721 0.0730721 0.0730721 0.0730721 0.0730721 0.0730721 
0.0730721 0.0730721 0.0730721 0.0730721 0.0730721 0.0730721 0.0730721 0.0730721 0.0730721 
0.0730721 0.0730721 0.0730721 0.0730721 0.0730721 0.0730721 0.0730721 0.0730721 0.0730721 
0.0730721 0.0730721 0.0730721 0.0730721 0.0730721 0.0730721 0.0730721 0.0730721 0.0730721 
0.0730721 0.0730721 0.0730721 0.0730721 0.0730721 0.0730721 0.0730721 0.0730721 0.0730721 
0.0730721 0.0730721 0.0730721 0.0730721 0.0730721 0.0730721 0.0730721 0.0730721 0.0730721 
0.0730721 0.0730721 0.0730721 0.0730721 0.0730721 0.0730721 0.0730721 0.0730721 0.0730721 
0.0730721 0.0730721 0.0730721 0.0730721 0.0730721 0.0730721 0.0730721 0.0730721 0.0730721 
0.0730721 0.0730721 0.0730721 0.0730721 0.0730721 0.0730721 0.0730721 0.0730721 0.0730721 
0.0730721 0.0730721 0.0730721 0.0730721 0.0730721 0.0730721 0.0730721 0.0730721 0.0730721 
0.0730721 0.0730721 0.0730721 0.0730721 0.0730721 0.0730721 0.0730721 0.0730721 0.0730721 
0.0730721 0.0730721 0.0730721 0.0730721 0.0730721 0.0730721 0.0730721 0.0730721 0.0730721 
0.0730721 0.0730721 0.0730721 0.0730721 0.0730721 0.0730721 0.0730721 0.0730721 0.0730721 
0.0730721 0.0730721 0.0730721 0.0730721 0.0730721 0.0730721 0.0730721 0.0730721 0.0730721 
0.0730721 0.0730721 0.0730721 0.0730721 0.0730721 0.0730721 0.0730721 0.0730721 0.0730721 
0.0730721 0.0730721 0.0730721 0.0730721 0.0730721 0.0730721 0.0730721 0.0730721 0.0730721 
0.0730721 0.0730721 0.0730721 0.0730721 0.0730721 0.0730721 0.0730721 0.0730721 0.0730721 
0.0730721 0.0730721 0.0730721 0.0730721 0.0730721 0.0730721 0.0730721 0.0730721 0.0730721 
0.0730721 0.0730721 0.0730721 0.0730721 0.0730721 0.0730721 0.0730721 0.0730721 0.0730721 
0.0730721 0.0730721 0.0730721 0.0730721 0.0730721 0.0730721 0.0730721 0.0730721 0.0730721 
0.0730721 0.0730721 0.0730721 0.0730721 0.0730721 0.0730721 0.0730721 0.0730721 0.0730721 
0.0730721 0.0730721 0.0730721 0.0730721 0.0730721 0.0730721 0.0730721 0.0730721 0.0730721 
0.0730721 0.0730721 0.0730721 0.0730721 0.0730721 0.0730721 0.0730721 0.0730721 0.0730721 
0.0730721 0.0730721 0.0730721 0.0730721 0.0730721 0.0730721 0.0730721 0.0730721 0.0730721 
0.0730721 0.0730721 0.0730721 0.0730721 0.0730721 0.0730721 0.0730721 0.0730721 0.0730721 
0.0730721 0.0730721 0.0730721 0.0730721 0.0730721 0.0730721 0.0730721 0.0730721 0.0730721 
0.0730721 0.0730721 0.0730721 0.0730721 0.0730721 0.0730721 0.0730721 0.0730721 0.0730721 
0.0730721 0.0730721 0.0730721 0.0730721 0.0730721 0.0730721 0.0730721 0.0730721 0.0730721 
0.0730721 0.0730721 0.0730721 0.0730721 0.0730721 0.0730721 0.0730721 0.0730721 0.0730721 
0.0730721 0.0730721 0.0730721 0.0730721 0.0730721 0.0730721 0.0730721 0.0730721 0.0730721 
0.0730721 0.0730721 0.0730721 0.0730721 0.0730721 0.0730721 0.0730721 0.0730721 0.0730721 
0.0730721 0.0730721 0.0730721 0.0730721 0.0730721 0.0730721 0.0730721 0.0730721 0.0730721 
0.0730721 0.0730721 0.0730721 0.0730721 0.0730721 0.0730721 0.0730721 0.0730721 0.0730721 
0.0730721 0.0730721 0.0730721 0.0730721 0.0730721 0.0730721 0.0730721 0.0730721 0.0730721 
0.0730721 0.0730721 0.0730721 0.0730721 0.0730721 0.0730721 0.0730721 0.0730721 0.0730721 
0.0730721 0.0730721 0.0730721 0.0730721 0.0730721 0.0730721 0.0730721 0.0730721 0.0730721 
0.0730721 0.0730721 0.0730721 0.0730721 0.0730721 0.0730721 0.0730721 0.0730721 0.0730721 
0.0730721 0.0730721 0.0730721 0.0730721 0.0730721 0.0730721 0.0730721 0.0730721 0.0730721 
0.0730721 0.0730721 0.0730721 0.0730721 0.0730721 0.0730721 0.0730721 0.0730721 0.0730721 
0.0730721 0.0730721 0.0730721 0.0730721 0.0730721 0.0730721 0.0730721 0.0730721 0.0730721 
0.0730721 0.0730721 0.0730721 0.0730721 0.0730721 0.0730721 0.0730721 0.0730721 0.0730721 
0.0730721 0.0730721 0.0730721 0.0730721 0.0730721 0.0730721 0.0730721 0.0730721 0.0730721 
0.0730721 0.0730721 0.0730721 0.0730721 0.0730721 0.0730721 0.0730721 0.0730721 0.0730721 
0.0730721 0.0730721 0.0730721 0.0730721 0.0730721 0.0730721 0.0730721 0.0730721 0.0730721 
0.0730721 0.0730721 0.0730721 0.0730721 0.0730721 0.0730721 0.0730721 0.0730721 0.0730721 
0.0730721 0.0730721 0.0730721 0.0730721 0.0730721 0.0730721 0.0730721 0.0730721 0.0730721 
0.0730721 0.0730721 0.0730721 0.0730721 0.0730721 0.0730721 0.0730721 0.0730721 0.0730721 

