# vtk DataFile Version 4.0
vtk output
ASCII
DATASET POLYDATA
FIELD FieldData 4
domain 1 4 string
domain_min:-5|-5|-5
domain_max:5|5|5
cell_size:0.01|0.01|0.01
boundary:1|1|1

variables 1 8 string
T:0.565
dt:0.0005
A:-72.1177
V:0.0420253
Z:0.0182886
write_case:1
substeps:10
all_steps:1130

constants 1 11 string
L:0.1
csize:0.01
R:0.004
mass:0.00210445
E:2.06e+06
nu:0.33
M:20
freq:10
gamma:62.8319
S:78956.8
g:0|0|-9.81

equations 1 9 string
time:T=(T+dt)#true
eq:a=(dem_l(v,om,R,mass,E,nu,0.1)/mass)#true
tank_acceleration:A=(((-(transpose((fsum(a)*mass))*e_k))-(S*Z))/M)#true
iv:v=euler(v,((a+g)-(A*e_k)),dt)#true
ia:r=euler(r,v,dt)#true
tank_velocity:V=euler(V,A,dt)#true
tank_position:Z=euler(Z,V,dt)#true
bottom:bottom=(Z-0.05)#true
top:top=(Z+0.05)#true

POINTS 567 float
-0.0399157 -0.0440765 -0.0431192 -0.0310099 -0.0448848 -0.0429538 -0.0101411 -0.0453927 -0.0439059 
-0.0171684 -0.0460159 -0.0407564 0.00131407 -0.0459841 -0.0424132 0.024982 -0.0449949 -0.0419346 
0.0333858 -0.0458359 -0.04066 0.0410972 -0.0443082 -0.0415316 -0.0388834 -0.035611 -0.0409309 
-0.0328335 -0.0376902 -0.045313 -0.0241996 -0.0398951 -0.0430676 -0.0244173 -0.0316404 -0.0419431 
-0.0122321 -0.0374691 -0.0440922 -0.00354322 -0.0382999 -0.0428719 0.00594468 -0.0383388 -0.0427311 
0.0223252 -0.0360386 -0.040814 0.0364951 -0.0392112 -0.0448715 0.0363252 -0.0321927 -0.0405538 
0.0433401 -0.0355605 -0.0420667 -0.0409791 -0.0272139 -0.0417891 -0.0287114 -0.0241593 -0.041859 
-0.0125879 -0.026398 -0.0401856 -0.00387936 -0.0274959 -0.0414252 0.00805894 -0.0296285 -0.0417263 
0.0166816 -0.0280255 -0.0431647 0.0265435 -0.0296978 -0.0436495 0.0332306 -0.0250895 -0.043128 
0.0407609 -0.0256108 -0.0436628 -0.0457972 -0.0143039 -0.0431858 -0.0232679 -0.0173135 -0.0418882 
-0.00854727 -0.0196351 -0.0424181 0.000712715 -0.0113638 -0.0424767 0.00229787 -0.0190206 -0.0434308 
0.0158471 -0.0159286 -0.0434003 0.0230854 -0.0125746 -0.0449191 0.0325165 -0.0115909 -0.0416323 
0.0456726 -0.0131132 -0.0435184 -0.0365933 -0.0014093 -0.0424983 -0.0253446 -0.00875629 -0.0424321 
-0.0152155 -0.00892068 -0.0408692 -0.0179484 -0.00215053 -0.0446139 -0.00820586 -0.00288057 -0.0426649 
0.00997746 -0.00809132 -0.0401103 0.000998843 -0.00222251 -0.0415847 0.0189137 -0.00299318 -0.0451556 
0.0114228 -0.000714908 -0.0449452 0.0271899 -0.00601343 -0.0415893 0.0337209 -0.00218499 -0.0431614 
0.0453763 -0.00445619 -0.0420561 -0.036968 0.0065228 -0.0417445 -0.0267627 0.00472555 -0.0429752 
-0.017566 0.00611107 -0.0452704 -0.009226 0.00888325 -0.0425378 0.00554587 0.00556752 -0.0403387 
0.0152896 0.00609176 -0.0410667 0.0229099 0.00533964 -0.0430142 0.0308914 0.00565603 -0.041597 
0.0405798 0.00509694 -0.0448392 -0.0386717 0.0174782 -0.042527 -0.031121 0.0138531 -0.0429952 
-0.0210757 0.0194331 -0.0421726 -0.014023 0.0152799 -0.0424297 -0.00178095 0.0116391 -0.0441012 
0.00479674 0.0165501 -0.0419584 0.0183276 0.0160194 -0.0428993 0.0285142 0.0126763 -0.0438441 
0.0357121 0.0188286 -0.0413973 -0.0445421 0.0235872 -0.0437239 -0.0347514 0.0287107 -0.0408491 
-0.0206942 0.0290118 -0.0417599 -0.0275927 0.0242303 -0.0421943 0.00170545 0.0255916 -0.0446406 
0.00921799 0.0222926 -0.040145 0.0125148 0.0290775 -0.0413561 0.0214368 0.0242454 -0.042958 
0.0296719 0.0249935 -0.0418506 0.0374005 0.0299508 -0.0415598 0.0439138 0.0223983 -0.0430957 
-0.0442462 0.0324324 -0.0411605 -0.0269482 0.0361338 -0.0414631 -0.0169026 0.0374284 -0.0420106 
-0.00582829 0.0302998 -0.0439108 0.00497309 0.0352494 -0.0453927 0.0129328 0.038368 -0.0406811 
0.0243812 0.0319497 -0.0454345 0.0246799 0.0386311 -0.0414341 0.0333119 0.0376566 -0.042967 
0.0414726 0.0359147 -0.042773 -0.0365073 0.0446096 -0.0400146 -0.023849 0.0457863 -0.0426978 
-0.0122211 0.0453635 -0.0421112 0.00678986 0.0438448 -0.0422403 0.0226709 0.0459678 -0.0447365 
0.0332133 0.0451015 -0.0412518 0.0405344 0.0450396 -0.0444754 -0.046069 -0.0414785 -0.0378051 
-0.0379969 -0.0454395 -0.0329912 -0.0240723 -0.0456703 -0.0320499 -0.00848333 -0.0450323 -0.0342798 
0.00778483 -0.0459512 -0.0364087 0.000808938 -0.0459405 -0.0308706 0.0158186 -0.0452769 -0.0341463 
0.0359988 -0.0413359 -0.0310391 -0.0442886 -0.0346982 -0.0348784 -0.033342 -0.0354742 -0.0304538 
-0.0327319 -0.0305257 -0.0368885 -0.0252645 -0.0300356 -0.0320488 -0.0275752 -0.0375806 -0.0364033 
-0.019818 -0.0396565 -0.035437 -0.0171171 -0.031866 -0.0391523 -0.0105955 -0.0363244 -0.0338442 
0.0157286 -0.0326001 -0.0331977 0.012571 -0.0386633 -0.0381879 0.022304 -0.0388111 -0.0324261 
0.0296848 -0.0345151 -0.0355225 0.0359053 -0.033591 -0.0305697 0.0436768 -0.0305734 -0.0342102 
0.0452536 -0.039251 -0.0313165 -0.0447361 -0.0245047 -0.0354773 -0.0384236 -0.0281564 -0.0325841 
-0.0366808 -0.0202707 -0.0305243 -0.0209626 -0.0245825 -0.0394024 -0.0164196 -0.0278934 -0.0317516 
-0.00936018 -0.0206236 -0.0313927 0.00264387 -0.026485 -0.0366442 0.00883177 -0.0220217 -0.0312512 
0.000241391 -0.021125 -0.03174 0.0200305 -0.0258565 -0.0322293 0.0307283 -0.0259596 -0.0340483 
0.0396817 -0.0230957 -0.0319369 -0.0406108 -0.0125656 -0.0361134 -0.0317186 -0.0161791 -0.0395493 
-0.0394715 -0.0198725 -0.0389336 -0.0167178 -0.0186666 -0.0341044 -0.0104703 -0.0138574 -0.0347855 
-0.00179221 -0.0147926 -0.0356995 0.0087238 -0.0169001 -0.0375726 0.0126248 -0.0124991 -0.0320426 
0.0260718 -0.018754 -0.0390117 0.027122 -0.0116472 -0.0349946 0.0325525 -0.0182644 -0.0324533 
0.0397677 -0.0173699 -0.0371581 0.0461191 -0.0189738 -0.03199 -0.0445707 -0.00630923 -0.0397956 
-0.0392959 -0.00319613 -0.0345649 -0.0328883 -0.00741245 -0.0394378 -0.0342376 -0.00886273 -0.0317247 
-0.0265117 -0.00700435 -0.0337995 -0.019297 -0.00355434 -0.0346681 -0.00559149 -0.00182981 -0.030214 
0.00558095 -0.00766725 -0.0340761 0.0146491 -0.000130225 -0.0347211 0.0235857 -0.0022031 -0.0304664 
0.0203007 -0.00764366 -0.0349194 0.0319212 -0.00421531 -0.0318222 0.0405305 -0.00919335 -0.0358252 
-0.0451487 0.00145598 -0.038462 -0.0376127 0.00460673 -0.0322856 -0.0302847 0.00835817 -0.0315598 
-0.0304414 0.00052244 -0.0361944 -0.021499 0.00789782 -0.0375703 -0.0134136 0.00238923 -0.0335363 
-0.0153957 0.00964292 -0.03118 -0.003569 0.00566047 -0.0388445 0.000108722 0.00371022 -0.0303735 
0.0103038 0.00614833 -0.0336828 0.0297209 0.00510266 -0.0335448 0.0356211 0.00969517 -0.0366296 
0.0452558 0.00756076 -0.0378939 0.0400186 0.000904496 -0.0369864 -0.0422132 0.0120384 -0.0315269 
-0.0435463 0.0120878 -0.0395782 -0.0456211 0.0185924 -0.0356711 -0.0265655 0.0152121 -0.0340078 
-0.00685831 0.015772 -0.0398133 -0.00725776 0.0101987 -0.0335465 0.00837849 0.0159093 -0.0348097 
0.000611397 0.0122156 -0.033873 0.0156613 0.0118829 -0.0352559 0.0245501 0.0127354 -0.0350136 
0.04602 0.0129847 -0.0308766 0.0415171 0.0198419 -0.0338174 -0.0340468 0.0223358 -0.036691 
-0.02266 0.0255437 -0.0302386 -0.0161571 0.0220666 -0.0347724 -0.00406629 0.0228692 -0.0384508 
0.0064474 0.0286691 -0.0348714 0.00195447 0.0216132 -0.0329244 0.0168324 0.02848 -0.0341778 
0.0121437 0.0221845 -0.0303626 0.0269053 0.0293208 -0.0327691 0.0224923 0.0206373 -0.0359791 
0.0340036 0.0244058 -0.0332974 -0.0341307 0.0378441 -0.0370664 -0.0394679 0.0388666 -0.0310081 
-0.0283076 0.0347923 -0.0315348 -0.014987 0.0384967 -0.0332995 -0.012648 0.0300692 -0.0348359 
-0.00726104 0.036422 -0.0388689 -0.000895501 0.0312378 -0.037672 0.00301404 0.0386275 -0.0331338 
0.011753 0.0360186 -0.0329373 0.0197037 0.0399944 -0.0354614 0.0206819 0.0341115 -0.030384 
0.0311554 0.0386472 -0.0342199 0.0452082 0.030056 -0.0395611 0.0411103 0.0390967 -0.0315286 
0.0457319 0.0312369 -0.0306512 -0.043763 0.0419592 -0.0393197 -0.0308569 0.0452972 -0.0328493 
-0.0227899 0.0411887 -0.0340568 -0.0138697 0.0460368 -0.0331821 -0.00517209 0.0444918 -0.0386323 
0.00164447 0.0461293 -0.0335784 0.0156269 0.0456416 -0.0397869 0.0271463 0.0459655 -0.0334993 
0.0458615 0.0456399 -0.0317439 -0.0431519 -0.0454078 -0.0241273 -0.0314847 -0.044058 -0.0270488 
-0.0107094 -0.0405388 -0.0230595 -0.0165164 -0.0460833 -0.0229734 0.00824748 -0.0421929 -0.0294025 
0.021356 -0.0443274 -0.0257688 0.0284781 -0.0419131 -0.0285947 0.0421075 -0.0460705 -0.0289794 
0.0451445 -0.0446669 -0.0221518 -0.0409215 -0.0377169 -0.0254865 -0.0458182 -0.0316377 -0.0216315 
-0.037784 -0.0304499 -0.0240519 -0.0243102 -0.0362689 -0.0266771 -0.0163472 -0.0336636 -0.0258769 
-0.0100094 -0.0328226 -0.0211335 -0.004691 -0.0382945 -0.028758 0.000701587 -0.0356363 -0.0218771 
6.57112e-05 -0.0306088 -0.0299263 0.00906821 -0.0300867 -0.0297067 0.0154623 -0.0374453 -0.0263096 
0.0227432 -0.0358187 -0.021157 0.0273584 -0.032075 -0.0274894 0.0408634 -0.0368226 -0.0244246 
-0.045624 -0.0299001 -0.0290173 -0.0425531 -0.0233748 -0.0220824 -0.0301457 -0.0247718 -0.028826 
-0.0236783 -0.0207654 -0.0293917 -0.0282294 -0.021846 -0.0213543 -0.0202661 -0.0217805 -0.0221959 
-0.00849215 -0.028633 -0.0292867 0.00224724 -0.0228299 -0.023025 0.0170813 -0.0297979 -0.0248559 
0.0120681 -0.0235631 -0.022419 0.0245482 -0.0267019 -0.0229353 0.0337894 -0.0261329 -0.0253176 
0.0460042 -0.0264832 -0.0275799 -0.0440991 -0.0187482 -0.029628 -0.0313497 -0.0135858 -0.0256654 
-0.0229506 -0.0120254 -0.0282592 -0.0147333 -0.0171674 -0.0258287 -0.00676272 -0.0116635 -0.024608 
-0.00587735 -0.0187914 -0.0209523 0.00171349 -0.0150192 -0.0244079 0.00814281 -0.0108873 -0.0239489 
0.0153997 -0.0116206 -0.0203611 0.0160288 -0.0183725 -0.0273487 0.0227184 -0.0107631 -0.0251763 
0.0236583 -0.0187774 -0.0278861 0.0310193 -0.0102297 -0.0277979 0.0311556 -0.0192019 -0.0206093 
0.0392248 -0.0198808 -0.0234974 0.0418536 -0.0126515 -0.0284952 -0.0437995 -0.00712732 -0.0268933 
-0.0335519 -0.000335769 -0.027526 -0.0281744 -0.00766996 -0.0203501 -0.0141949 -0.00894076 -0.0288552 
-0.0182427 -0.00606565 -0.0220757 -0.000122619 -0.00560851 -0.0244483 0.0121097 -0.0048702 -0.0285293 
0.023051 -0.00218591 -0.0225116 0.0395586 -0.00297647 -0.0294138 0.0335223 -0.00363675 -0.0234975 
0.0462026 -0.00979777 -0.0226799 -0.0421052 0.00855 -0.0241609 -0.0462615 0.000294012 -0.0285314 
-0.0261766 0.000190772 -0.0206924 -0.0218237 0.00203782 -0.0280196 -0.0181156 0.00537849 -0.0205908 
-0.00945232 0.00531456 -0.0222996 0.00891586 0.00339964 -0.0242672 0.016802 0.00306487 -0.0249871 
0.0275788 0.00412282 -0.0255698 0.0215844 0.00914431 -0.0273464 0.0363574 0.00437361 -0.0215427 
0.0459407 0.00527055 -0.0288494 -0.0311706 0.0176393 -0.0225263 -0.0360664 0.0126716 -0.0261956 
-0.0255135 0.0129075 -0.0244391 -0.0160417 0.016787 -0.0275018 -0.0136395 0.0126204 -0.0213781 
-0.00105127 0.0113513 -0.0255284 0.00773123 0.0185215 -0.0245047 0.00723665 0.0109377 -0.0248527 
0.0146382 0.0150787 -0.0277275 0.0193685 0.0156404 -0.0216134 0.0209054 0.0195455 -0.028219 
0.0372582 0.0118904 -0.0231377 0.0323328 0.0161382 -0.028985 0.0457246 0.0169717 -0.024081 
-0.0452034 0.0244722 -0.0282965 -0.0390463 0.0200465 -0.0296731 -0.0379357 0.0291034 -0.0290241 
-0.0239153 0.0210605 -0.0223418 -0.0295071 0.0267187 -0.0235885 -0.0182103 0.0292135 -0.0223245 
-0.00961539 0.0278946 -0.0210408 -0.00117285 0.0217473 -0.0206922 -0.00698386 0.020751 -0.0277854 
0.00315921 0.0279973 -0.0227659 0.021573 0.0281897 -0.0255579 0.0293805 0.0257298 -0.0262998 
0.0401445 0.0239601 -0.0251056 -0.0459154 0.0336432 -0.0259671 -0.0203454 0.0339738 -0.0295372 
-0.0155998 0.0371047 -0.0246404 -0.00329727 0.0303492 -0.0283565 0.0052724 0.035513 -0.0238346 
0.0132386 0.0309361 -0.0235004 0.0111472 0.0398867 -0.0209568 0.0193617 0.0377424 -0.0220018 
0.0285263 0.0312184 -0.0204027 0.0343563 0.0316443 -0.0290213 0.0398972 0.0333298 -0.0229823 
0.0458656 0.0399196 -0.0249561 -0.0429298 0.0434047 -0.020041 -0.0453616 0.0459981 -0.0285928 
-0.0372922 0.0452246 -0.02592 -0.0290859 0.0448724 -0.0224329 -0.0185614 0.0454982 -0.0257516 
0.00470583 0.0451225 -0.0229055 0.0121507 0.0446329 -0.0299888 0.0198883 0.0459721 -0.0290556 
0.0263322 0.0401644 -0.0271171 0.0363286 0.0463352 -0.0297481 0.0416466 0.0458964 -0.0236517 
-0.044002 -0.0457401 -0.0148942 -0.0256804 -0.0439323 -0.0113587 -0.0142322 -0.0435291 -0.011447 
-0.00260079 -0.0445105 -0.0192446 0.01275 -0.040445 -0.0128276 0.0151047 -0.0446297 -0.0193548 
0.026084 -0.0432636 -0.0194289 0.0339514 -0.0451251 -0.0143479 0.0410851 -0.0462088 -0.0132516 
-0.0407841 -0.0358513 -0.0168494 -0.0316918 -0.0392732 -0.0195454 -0.0182855 -0.0359328 -0.0103432 
-0.0066061 -0.0388609 -0.0125527 0.00276914 -0.0329495 -0.0108299 0.0110015 -0.0330521 -0.016963 
0.0276005 -0.0303189 -0.0145552 0.0243593 -0.0381716 -0.0136946 0.0309998 -0.0376596 -0.0178518 
0.0378448 -0.0315937 -0.0170541 -0.032365 -0.029366 -0.0153282 -0.0227959 -0.0289367 -0.0168786 
-0.0136455 -0.0251898 -0.0194441 -0.00583743 -0.0261814 -0.0162687 0.0197034 -0.0255741 -0.013918 
0.0337713 -0.0252058 -0.0132599 0.0446435 -0.0281682 -0.0140988 -0.0346796 -0.0154463 -0.0150905 
-0.02465 -0.015344 -0.0177855 -0.0132777 -0.0199429 -0.0109901 -0.00990212 -0.0134378 -0.0128676 
-0.0015764 -0.0129807 -0.0102358 0.00807352 -0.0167097 -0.0168091 0.0229299 -0.0198007 -0.0174605 
0.0308129 -0.0113335 -0.0183875 0.0412933 -0.0161324 -0.0119434 0.0457004 -0.0174258 -0.0197942 
-0.0371472 -0.00764116 -0.0197615 -0.0391426 -0.00338094 -0.0130951 -0.0252394 -0.00789296 -0.0109961 
-0.0142027 -0.00480424 -0.0138713 -0.00415442 -0.00207555 -0.0143578 0.00613667 -0.00534302 -0.0182466 
0.0151915 -0.00371202 -0.0189906 0.0111571 -0.00571855 -0.0113893 0.0272662 -0.00261019 -0.013639 
0.0216234 -0.00926754 -0.0146006 0.0379872 -0.00850728 -0.0173956 0.041556 -0.000317632 -0.0164771 
0.0460056 -0.00707548 -0.0106105 -0.0458976 0.0092233 -0.0164061 -0.0346111 0.00508922 -0.0172463 
-0.0107609 0.00417744 -0.0118493 -0.0197926 0.00173949 -0.0135929 0.00256593 0.0017506 -0.0173239 
0.00411577 0.00983993 -0.0153047 0.0137939 0.00159222 -0.0116014 0.011506 0.00988754 -0.0132698 
0.0200047 0.00862016 -0.0109801 0.0299376 0.00501978 -0.0129933 0.0217441 0.0029308 -0.0168069 
0.0460277 0.00898549 -0.0199327 -0.021934 0.018173 -0.0120284 -0.0290711 0.0103893 -0.0162431 
-0.00667252 0.0114601 -0.0123679 0.000973586 0.0162573 -0.0111572 0.0243074 0.0134544 -0.0146783 
0.0317456 0.0148493 -0.016623 0.0411723 0.0118416 -0.0101376 -0.045132 0.0209514 -0.0120343 
-0.0454772 0.0279318 -0.0188225 -0.0368664 0.0219943 -0.0186375 -0.0240248 0.0285865 -0.0164922 
-0.0293831 0.0224223 -0.0167592 -0.0157457 0.0210836 -0.0172729 -0.00670397 0.0203641 -0.0147801 
0.00425973 0.0254041 -0.0149655 0.0102329 0.0204502 -0.0180098 0.0178262 0.0223391 -0.0169103 
0.0116101 0.0283938 -0.0150559 0.0236378 0.0239447 -0.011355 0.0315068 0.0236614 -0.011385 
0.0439177 0.0201114 -0.0167208 -0.038102 0.0326477 -0.0193965 -0.0321405 0.0366106 -0.0170394 
-0.0236955 0.0367243 -0.0190787 -0.0164315 0.0362766 -0.0163461 -0.00438813 0.0325606 -0.017924 
0.0192099 0.0327009 -0.0148095 0.0269613 0.0359094 -0.013386 0.0352187 0.0315398 -0.0155345 
0.0450991 0.0302334 -0.0175604 0.0439985 0.0376496 -0.0145052 -0.037495 0.0434509 -0.0145818 
-0.0224115 0.0449149 -0.0152997 -0.0143393 0.0460011 -0.0178273 -0.0165182 0.0460715 -0.0101267 
-0.00773922 0.0462368 -0.0138037 -4.33959e-05 0.0420783 -0.0136202 -0.00870087 0.0407324 -0.0195103 
0.0103237 0.0463228 -0.0120678 0.0225759 0.0444695 -0.0189167 0.03058 0.042484 -0.0188478 
0.0319446 0.0462373 -0.0118103 -0.0449694 -0.0418027 -0.00573904 -0.0378594 -0.0445354 -0.00719649 
-0.00670419 -0.046156 -0.0021914 0.00643011 -0.0458572 -0.00213276 0.000581662 -0.0419665 -0.00911421 
0.0180398 -0.0446668 -0.00764395 0.0270892 -0.0434373 -0.0025885 0.0356551 -0.0454085 -0.00181909 
-0.0455006 -0.0323874 -0.00865779 -0.0413946 -0.033858 -0.00157657 -0.030074 -0.0385602 -0.00544327 
-0.00586214 -0.0353513 -0.00355254 0.00326125 -0.0369068 -0.00351615 0.0281671 -0.0365513 -0.00556161 
0.0376553 -0.0352878 -0.00434711 0.0455424 -0.039057 -0.00907692 -0.0354821 -0.0251765 -0.00639121 
-0.0233036 -0.0274005 -0.00416645 -0.0151216 -0.0288566 -0.00461227 0.0118144 -0.0217036 -0.00559304 
-0.0450651 -0.0107587 -0.00867794 -0.0239731 -0.0146052 -0.00601246 -0.0067786 -0.0157985 -0.00350704 
4.23023e-05 -0.0190897 -0.00526407 0.00632044 -0.0134896 -0.00816704 0.0243182 -0.012981 -0.00184108 
0.0305459 -0.0167385 -0.00803166 -0.0464382 -0.000858315 -0.00312733 -0.0303061 -0.0013835 -0.00605871 
-0.0140174 -0.00373671 -0.00611818 0.019569 -0.00691175 -0.000131813 0.0131288 -0.00338986 -0.00199552 
0.0262293 -0.00128167 -0.00324715 0.0328755 -0.00184771 -0.00602957 0.0350781 -0.00885695 -0.00904724 
0.0424183 -0.000627189 -0.000148376 -0.010056 0.00675937 -0.00202664 -0.00214857 0.00543142 -0.00775686 
0.00632187 0.0060927 -0.00628682 0.0350599 0.00532809 -0.00617262 0.0449775 0.00120927 -0.00775765 
-0.0449669 0.0108021 -0.00653141 -0.0360826 0.0101751 -0.00517399 -0.031413 0.0166237 -0.00568366 
-0.00501746 0.013381 -0.00445508 0.0107189 0.0170206 -0.00683198 0.0213287 0.0105697 -0.00190608 
-0.042528 0.0277719 -0.00982168 -0.0345027 0.0266738 -0.00921939 -0.0294491 0.025068 -0.00184674 
0.0170941 0.0243833 -0.00690922 0.0106684 0.0296803 -2.58621e-05 0.0382012 0.0253808 -0.00445715 
-0.0395306 0.0361705 -0.0086104 -0.0356893 0.0373947 -0.000753057 -0.0118352 0.0351622 -0.00568216 
0.00596279 0.0346155 -0.00954758 0.000516515 0.033167 -0.00268541 0.0289484 0.0360313 -0.00294106 
0.0351327 0.0383866 -0.00960183 0.0450827 0.035061 -0.00588425 -0.0439468 0.0460159 -0.00660888 
-0.0271146 0.0412863 -0.0097811 -0.00796971 0.0433856 -0.00346982 0.0146912 0.0405722 -0.00449543 
0.0219258 0.0414328 -0.000813713 0.0426751 0.0456125 -0.00596264 -0.0363378 -0.0466604 0.00451224 
-0.0195213 -0.0433922 0.00364927 0.00386671 -0.0420196 0.00459722 0.0105545 -0.0403593 0.00158177 
-0.0258981 -0.0361367 0.00235772 0.0309905 -0.0326034 0.00429397 0.043676 -0.0390843 0.00452082 
-0.0378006 -0.0233487 0.00215997 -0.0267061 -0.0208878 0.00477301 -0.0192967 -0.0211137 7.82632e-05 
0.0122604 -0.0263463 0.00228456 0.0232786 -0.0279062 0.00720682 -0.0451524 -0.0193626 0.00297525 
-0.00688733 -0.0186028 0.00784307 0.00918971 -0.016313 0.00143891 0.000569286 -0.0184344 0.00314978 
0.0168564 -0.0156587 0.00413084 0.032138 -0.0140299 0.00402826 -0.0384634 -0.00187339 0.00844492 
-0.00711066 -0.00386932 0.000666715 0.0356512 -0.00146693 0.00580785 0.0418967 -0.00940043 0.000592774 
-0.0232478 0.00160674 0.000822777 -0.000884408 0.00888722 0.00988256 0.00699626 0.00419233 0.00355556 
0.0282877 0.00578214 0.00429507 0.0257513 0.0151148 0.00762179 0.0443711 0.0131557 0.000262369 
-0.0383209 0.0290211 0.00755941 -0.0169634 0.0212238 0.00142225 0.0235659 0.0219597 0.00413988 
-0.0459013 0.0353386 0.00213668 -0.0160755 0.0370933 0.00360791 0.0186098 0.0343568 0.0013591 
0.0186115 0.0385296 0.00851946 0.0338215 0.0393633 0.00867904 0.0411629 0.0361362 0.00480937 
0.0294262 0.0441271 0.000385677 -0.00390451 -0.0408602 0.0105073 -0.0317021 -0.0335098 0.0114507 
-0.00179757 -0.0224061 0.0177474 0.0430191 -0.0286474 0.0173614 -0.0175355 -0.0101023 0.0100846 
0.021708 -0.0118471 0.0110443 -0.021063 -0.00401429 0.017408 -0.034477 0.0126649 0.0170237 
0.0305323 0.017017 0.0172892 -0.0249818 0.0226554 0.0193873 -0.0417726 0.0457679 0.0105077 
-0.0354597 0.0419841 0.0125279 0.0064799 0.0433789 0.0140026 -0.037703 -0.0365484 0.0201997 
-0.00112116 0.00313495 0.023948 0.00161157 0.0201724 0.0384752 -0.0327457 0.0308014 0.0425323 

VERTICES 1134 1134
1 0 
1 1 
1 2 
1 3 
1 4 
1 5 
1 6 
1 7 
1 8 
1 9 
1 10 
1 11 
1 12 
1 13 
1 14 
1 15 
1 16 
1 17 
1 18 
1 19 
1 20 
1 21 
1 22 
1 23 
1 24 
1 25 
1 26 
1 27 
1 28 
1 29 
1 30 
1 31 
1 32 
1 33 
1 34 
1 35 
1 36 
1 37 
1 38 
1 39 
1 40 
1 41 
1 42 
1 43 
1 44 
1 45 
1 46 
1 47 
1 48 
1 49 
1 50 
1 51 
1 52 
1 53 
1 54 
1 55 
1 56 
1 57 
1 58 
1 59 
1 60 
1 61 
1 62 
1 63 
1 64 
1 65 
1 66 
1 67 
1 68 
1 69 
1 70 
1 71 
1 72 
1 73 
1 74 
1 75 
1 76 
1 77 
1 78 
1 79 
1 80 
1 81 
1 82 
1 83 
1 84 
1 85 
1 86 
1 87 
1 88 
1 89 
1 90 
1 91 
1 92 
1 93 
1 94 
1 95 
1 96 
1 97 
1 98 
1 99 
1 100 
1 101 
1 102 
1 103 
1 104 
1 105 
1 106 
1 107 
1 108 
1 109 
1 110 
1 111 
1 112 
1 113 
1 114 
1 115 
1 116 
1 117 
1 118 
1 119 
1 120 
1 121 
1 122 
1 123 
1 124 
1 125 
1 126 
1 127 
1 128 
1 129 
1 130 
1 131 
1 132 
1 133 
1 134 
1 135 
1 136 
1 137 
1 138 
1 139 
1 140 
1 141 
1 142 
1 143 
1 144 
1 145 
1 146 
1 147 
1 148 
1 149 
1 150 
1 151 
1 152 
1 153 
1 154 
1 155 
1 156 
1 157 
1 158 
1 159 
1 160 
1 161 
1 162 
1 163 
1 164 
1 165 
1 166 
1 167 
1 168 
1 169 
1 170 
1 171 
1 172 
1 173 
1 174 
1 175 
1 176 
1 177 
1 178 
1 179 
1 180 
1 181 
1 182 
1 183 
1 184 
1 185 
1 186 
1 187 
1 188 
1 189 
1 190 
1 191 
1 192 
1 193 
1 194 
1 195 
1 196 
1 197 
1 198 
1 199 
1 200 
1 201 
1 202 
1 203 
1 204 
1 205 
1 206 
1 207 
1 208 
1 209 
1 210 
1 211 
1 212 
1 213 
1 214 
1 215 
1 216 
1 217 
1 218 
1 219 
1 220 
1 221 
1 222 
1 223 
1 224 
1 225 
1 226 
1 227 
1 228 
1 229 
1 230 
1 231 
1 232 
1 233 
1 234 
1 235 
1 236 
1 237 
1 238 
1 239 
1 240 
1 241 
1 242 
1 243 
1 244 
1 245 
1 246 
1 247 
1 248 
1 249 
1 250 
1 251 
1 252 
1 253 
1 254 
1 255 
1 256 
1 257 
1 258 
1 259 
1 260 
1 261 
1 262 
1 263 
1 264 
1 265 
1 266 
1 267 
1 268 
1 269 
1 270 
1 271 
1 272 
1 273 
1 274 
1 275 
1 276 
1 277 
1 278 
1 279 
1 280 
1 281 
1 282 
1 283 
1 284 
1 285 
1 286 
1 287 
1 288 
1 289 
1 290 
1 291 
1 292 
1 293 
1 294 
1 295 
1 296 
1 297 
1 298 
1 299 
1 300 
1 301 
1 302 
1 303 
1 304 
1 305 
1 306 
1 307 
1 308 
1 309 
1 310 
1 311 
1 312 
1 313 
1 314 
1 315 
1 316 
1 317 
1 318 
1 319 
1 320 
1 321 
1 322 
1 323 
1 324 
1 325 
1 326 
1 327 
1 328 
1 329 
1 330 
1 331 
1 332 
1 333 
1 334 
1 335 
1 336 
1 337 
1 338 
1 339 
1 340 
1 341 
1 342 
1 343 
1 344 
1 345 
1 346 
1 347 
1 348 
1 349 
1 350 
1 351 
1 352 
1 353 
1 354 
1 355 
1 356 
1 357 
1 358 
1 359 
1 360 
1 361 
1 362 
1 363 
1 364 
1 365 
1 366 
1 367 
1 368 
1 369 
1 370 
1 371 
1 372 
1 373 
1 374 
1 375 
1 376 
1 377 
1 378 
1 379 
1 380 
1 381 
1 382 
1 383 
1 384 
1 385 
1 386 
1 387 
1 388 
1 389 
1 390 
1 391 
1 392 
1 393 
1 394 
1 395 
1 396 
1 397 
1 398 
1 399 
1 400 
1 401 
1 402 
1 403 
1 404 
1 405 
1 406 
1 407 
1 408 
1 409 
1 410 
1 411 
1 412 
1 413 
1 414 
1 415 
1 416 
1 417 
1 418 
1 419 
1 420 
1 421 
1 422 
1 423 
1 424 
1 425 
1 426 
1 427 
1 428 
1 429 
1 430 
1 431 
1 432 
1 433 
1 434 
1 435 
1 436 
1 437 
1 438 
1 439 
1 440 
1 441 
1 442 
1 443 
1 444 
1 445 
1 446 
1 447 
1 448 
1 449 
1 450 
1 451 
1 452 
1 453 
1 454 
1 455 
1 456 
1 457 
1 458 
1 459 
1 460 
1 461 
1 462 
1 463 
1 464 
1 465 
1 466 
1 467 
1 468 
1 469 
1 470 
1 471 
1 472 
1 473 
1 474 
1 475 
1 476 
1 477 
1 478 
1 479 
1 480 
1 481 
1 482 
1 483 
1 484 
1 485 
1 486 
1 487 
1 488 
1 489 
1 490 
1 491 
1 492 
1 493 
1 494 
1 495 
1 496 
1 497 
1 498 
1 499 
1 500 
1 501 
1 502 
1 503 
1 504 
1 505 
1 506 
1 507 
1 508 
1 509 
1 510 
1 511 
1 512 
1 513 
1 514 
1 515 
1 516 
1 517 
1 518 
1 519 
1 520 
1 521 
1 522 
1 523 
1 524 
1 525 
1 526 
1 527 
1 528 
1 529 
1 530 
1 531 
1 532 
1 533 
1 534 
1 535 
1 536 
1 537 
1 538 
1 539 
1 540 
1 541 
1 542 
1 543 
1 544 
1 545 
1 546 
1 547 
1 548 
1 549 
1 550 
1 551 
1 552 
1 553 
1 554 
1 555 
1 556 
1 557 
1 558 
1 559 
1 560 
1 561 
1 562 
1 563 
1 564 
1 565 
1 566 

POINT_DATA 567
SCALARS id double
LOOKUP_TABLE default
460 416 397 23 441 456 406 328 84 
8 27 115 139 211 526 102 457 532 
402 461 256 354 448 505 81 327 419 
386 101 336 142 266 224 549 560 531 
378 415 537 132 56 262 333 60 193 
237 259 449 435 111 296 88 439 483 
381 493 163 396 218 207 44 235 40 
285 276 438 14 228 38 232 279 319 
217 108 306 418 125 421 169 168 480 
113 365 351 148 348 502 490 503 223 
37 289 350 226 425 17 26 399 273 
383 66 4 518 29 146 210 93 76 
41 468 340 6 128 467 519 476 137 
318 82 143 103 129 253 222 197 487 
7 134 315 451 33 295 140 85 407 
258 424 432 523 141 535 540 205 30 
34 171 25 19 68 90 10 428 282 
384 135 542 241 11 138 77 162 133 
553 326 454 554 426 429 462 475 314 
299 58 49 97 387 391 73 325 530 
510 538 281 74 164 355 332 506 363 
564 536 471 515 199 112 176 92 343 
231 239 287 369 562 463 394 323 246 
408 32 151 28 234 373 392 546 563 
452 213 127 136 20 260 322 508 331 
500 95 204 191 190 466 91 252 2 
509 89 528 458 201 478 104 504 13 
70 1 202 444 42 380 274 496 405 
450 96 194 459 94 261 149 47 497 
477 272 442 389 409 22 65 453 157 
473 307 110 99 371 385 366 469 545 
341 298 118 403 344 80 106 240 183 
539 401 278 550 342 356 83 297 288 
280 499 18 209 541 155 123 501 529 
182 362 311 357 374 59 294 313 185 
484 368 445 485 122 312 300 53 187 
212 556 107 358 495 521 339 214 229 
116 153 309 233 57 62 558 367 492 
98 0 316 335 464 551 75 321 48 
71 195 130 145 3 216 552 522 264 
511 150 507 54 131 465 498 215 167 
31 382 161 270 265 430 516 557 64 
275 86 52 527 375 353 520 244 254 
308 267 79 393 165 43 208 277 377 
189 174 154 533 152 517 317 180 100 
238 301 544 410 417 46 227 440 119 
105 175 347 181 305 555 144 547 414 
395 230 489 121 251 534 21 486 346 
420 566 243 433 359 345 360 303 364 
292 436 271 177 198 55 203 255 69 
72 514 455 447 114 156 147 269 67 
293 446 388 330 12 400 221 304 196 
87 379 263 220 24 338 257 525 437 
192 513 324 372 422 286 16 434 559 
184 370 39 78 398 404 178 291 249 
565 188 474 45 120 250 543 170 352 
494 236 50 248 361 179 548 225 35 
512 5 206 15 479 219 376 63 117 
268 36 427 524 290 413 51 412 423 
390 470 320 160 349 491 481 247 302 
159 242 245 124 173 561 431 310 488 
186 329 200 443 482 126 472 61 158 
283 411 337 109 172 334 9 166 284 

FIELD FieldData 7
r 3 567 double
-0.0399157 -0.0440765 -0.0431192 -0.0310099 -0.0448848 -0.0429538 -0.0101411 -0.0453927 -0.0439059 
-0.0171684 -0.0460159 -0.0407564 0.00131407 -0.0459841 -0.0424132 0.024982 -0.0449949 -0.0419346 
0.0333858 -0.0458359 -0.04066 0.0410972 -0.0443082 -0.0415316 -0.0388834 -0.035611 -0.0409309 
-0.0328335 -0.0376902 -0.045313 -0.0241996 -0.0398951 -0.0430676 -0.0244173 -0.0316404 -0.0419431 
-0.0122321 -0.0374691 -0.0440922 -0.00354322 -0.0382999 -0.0428719 0.00594468 -0.0383388 -0.0427311 
0.0223252 -0.0360386 -0.040814 0.0364951 -0.0392112 -0.0448715 0.0363252 -0.0321927 -0.0405538 
0.0433401 -0.0355605 -0.0420667 -0.0409791 -0.0272139 -0.0417891 -0.0287114 -0.0241593 -0.041859 
-0.0125879 -0.026398 -0.0401856 -0.00387936 -0.0274959 -0.0414252 0.00805894 -0.0296285 -0.0417263 
0.0166816 -0.0280255 -0.0431647 0.0265435 -0.0296978 -0.0436495 0.0332306 -0.0250895 -0.043128 
0.0407609 -0.0256108 -0.0436628 -0.0457972 -0.0143039 -0.0431858 -0.0232679 -0.0173135 -0.0418882 
-0.00854727 -0.0196351 -0.0424181 0.000712715 -0.0113638 -0.0424767 0.00229787 -0.0190206 -0.0434308 
0.0158471 -0.0159286 -0.0434003 0.0230854 -0.0125746 -0.0449191 0.0325165 -0.0115909 -0.0416323 
0.0456726 -0.0131132 -0.0435184 -0.0365933 -0.0014093 -0.0424983 -0.0253446 -0.00875629 -0.0424321 
-0.0152155 -0.00892068 -0.0408692 -0.0179484 -0.00215053 -0.0446139 -0.00820586 -0.00288057 -0.0426649 
0.00997746 -0.00809132 -0.0401103 0.000998843 -0.00222251 -0.0415847 0.0189137 -0.00299318 -0.0451556 
0.0114228 -0.000714908 -0.0449452 0.0271899 -0.00601343 -0.0415893 0.0337209 -0.00218499 -0.0431614 
0.0453763 -0.00445619 -0.0420561 -0.036968 0.0065228 -0.0417445 -0.0267627 0.00472555 -0.0429752 
-0.017566 0.00611107 -0.0452704 -0.009226 0.00888325 -0.0425378 0.00554587 0.00556752 -0.0403387 
0.0152896 0.00609176 -0.0410667 0.0229099 0.00533964 -0.0430142 0.0308914 0.00565603 -0.041597 
0.0405798 0.00509694 -0.0448392 -0.0386717 0.0174782 -0.042527 -0.031121 0.0138531 -0.0429952 
-0.0210757 0.0194331 -0.0421726 -0.014023 0.0152799 -0.0424297 -0.00178095 0.0116391 -0.0441012 
0.00479674 0.0165501 -0.0419584 0.0183276 0.0160194 -0.0428993 0.0285142 0.0126763 -0.0438441 
0.0357121 0.0188286 -0.0413973 -0.0445421 0.0235872 -0.0437239 -0.0347514 0.0287107 -0.0408491 
-0.0206942 0.0290118 -0.0417599 -0.0275927 0.0242303 -0.0421943 0.00170545 0.0255916 -0.0446406 
0.00921799 0.0222926 -0.040145 0.0125148 0.0290775 -0.0413561 0.0214368 0.0242454 -0.042958 
0.0296719 0.0249935 -0.0418506 0.0374005 0.0299508 -0.0415598 0.0439138 0.0223983 -0.0430957 
-0.0442462 0.0324324 -0.0411605 -0.0269482 0.0361338 -0.0414631 -0.0169026 0.0374284 -0.0420106 
-0.00582829 0.0302998 -0.0439108 0.00497309 0.0352494 -0.0453927 0.0129328 0.038368 -0.0406811 
0.0243812 0.0319497 -0.0454345 0.0246799 0.0386311 -0.0414341 0.0333119 0.0376566 -0.042967 
0.0414726 0.0359147 -0.042773 -0.0365073 0.0446096 -0.0400146 -0.023849 0.0457863 -0.0426978 
-0.0122211 0.0453635 -0.0421112 0.00678986 0.0438448 -0.0422403 0.0226709 0.0459678 -0.0447365 
0.0332133 0.0451015 -0.0412518 0.0405344 0.0450396 -0.0444754 -0.046069 -0.0414784 -0.0378051 
-0.0379969 -0.0454395 -0.0329912 -0.0240723 -0.0456703 -0.0320499 -0.00848333 -0.0450323 -0.0342798 
0.00778483 -0.0459512 -0.0364087 0.000808938 -0.0459405 -0.0308706 0.0158186 -0.0452769 -0.0341463 
0.0359988 -0.0413359 -0.0310391 -0.0442886 -0.0346982 -0.0348784 -0.033342 -0.0354741 -0.0304538 
-0.0327319 -0.0305257 -0.0368885 -0.0252645 -0.0300356 -0.0320488 -0.0275752 -0.0375806 -0.0364033 
-0.019818 -0.0396565 -0.035437 -0.0171171 -0.031866 -0.0391523 -0.0105955 -0.0363244 -0.0338442 
0.0157286 -0.0326001 -0.0331977 0.012571 -0.0386633 -0.0381879 0.022304 -0.0388111 -0.0324261 
0.0296848 -0.0345151 -0.0355225 0.0359053 -0.033591 -0.0305697 0.0436768 -0.0305734 -0.0342102 
0.0452536 -0.039251 -0.0313165 -0.0447361 -0.0245047 -0.0354773 -0.0384236 -0.0281564 -0.0325841 
-0.0366808 -0.0202707 -0.0305243 -0.0209626 -0.0245825 -0.0394024 -0.0164196 -0.0278934 -0.0317516 
-0.00936018 -0.0206236 -0.0313927 0.00264387 -0.026485 -0.0366442 0.00883177 -0.0220217 -0.0312512 
0.000241391 -0.021125 -0.03174 0.0200305 -0.0258565 -0.0322293 0.0307283 -0.0259596 -0.0340483 
0.0396817 -0.0230957 -0.0319369 -0.0406108 -0.0125656 -0.0361134 -0.0317186 -0.0161791 -0.0395493 
-0.0394715 -0.0198725 -0.0389336 -0.0167178 -0.0186666 -0.0341044 -0.0104703 -0.0138574 -0.0347855 
-0.00179221 -0.0147926 -0.0356995 0.0087238 -0.0169001 -0.0375726 0.0126248 -0.0124991 -0.0320426 
0.0260718 -0.018754 -0.0390117 0.027122 -0.0116472 -0.0349946 0.0325525 -0.0182644 -0.0324533 
0.0397677 -0.0173699 -0.0371581 0.0461191 -0.0189738 -0.03199 -0.0445707 -0.00630923 -0.0397956 
-0.0392959 -0.00319613 -0.0345649 -0.0328883 -0.00741245 -0.0394378 -0.0342376 -0.00886273 -0.0317247 
-0.0265117 -0.00700435 -0.0337995 -0.019297 -0.00355434 -0.0346681 -0.00559149 -0.00182981 -0.030214 
0.00558095 -0.00766725 -0.0340761 0.0146491 -0.000130225 -0.0347211 0.0235857 -0.0022031 -0.0304664 
0.0203007 -0.00764366 -0.0349194 0.0319212 -0.00421531 -0.0318222 0.0405305 -0.00919335 -0.0358252 
-0.0451487 0.00145598 -0.038462 -0.0376127 0.00460673 -0.0322856 -0.0302847 0.00835817 -0.0315598 
-0.0304414 0.00052244 -0.0361944 -0.021499 0.00789782 -0.0375703 -0.0134136 0.00238923 -0.0335363 
-0.0153957 0.00964292 -0.03118 -0.003569 0.00566047 -0.0388445 0.000108722 0.00371022 -0.0303735 
0.0103038 0.00614833 -0.0336828 0.0297209 0.00510266 -0.0335448 0.0356211 0.00969517 -0.0366296 
0.0452558 0.00756076 -0.0378939 0.0400186 0.000904496 -0.0369864 -0.0422132 0.0120384 -0.0315269 
-0.0435463 0.0120878 -0.0395782 -0.0456211 0.0185924 -0.0356711 -0.0265655 0.0152121 -0.0340078 
-0.00685831 0.015772 -0.0398133 -0.00725776 0.0101987 -0.0335465 0.00837849 0.0159093 -0.0348097 
0.000611398 0.0122156 -0.033873 0.0156613 0.0118829 -0.0352559 0.0245501 0.0127354 -0.0350136 
0.04602 0.0129847 -0.0308766 0.0415171 0.0198419 -0.0338174 -0.0340468 0.0223358 -0.036691 
-0.02266 0.0255437 -0.0302386 -0.0161571 0.0220666 -0.0347724 -0.00406629 0.0228692 -0.0384508 
0.0064474 0.0286691 -0.0348714 0.00195447 0.0216132 -0.0329244 0.0168324 0.02848 -0.0341777 
0.0121437 0.0221845 -0.0303626 0.0269053 0.0293208 -0.0327691 0.0224923 0.0206373 -0.0359791 
0.0340036 0.0244058 -0.0332974 -0.0341307 0.0378441 -0.0370664 -0.0394679 0.0388666 -0.0310081 
-0.0283076 0.0347923 -0.0315348 -0.014987 0.0384967 -0.0332995 -0.012648 0.0300692 -0.0348359 
-0.00726104 0.036422 -0.0388689 -0.000895501 0.0312378 -0.037672 0.00301404 0.0386275 -0.0331338 
0.011753 0.0360186 -0.0329373 0.0197037 0.0399944 -0.0354614 0.0206819 0.0341115 -0.030384 
0.0311554 0.0386472 -0.0342199 0.0452082 0.030056 -0.0395611 0.0411103 0.0390967 -0.0315286 
0.0457319 0.0312369 -0.0306512 -0.043763 0.0419592 -0.0393197 -0.0308569 0.0452972 -0.0328493 
-0.0227899 0.0411887 -0.0340568 -0.0138697 0.0460368 -0.0331821 -0.00517209 0.0444918 -0.0386323 
0.00164447 0.0461293 -0.0335784 0.0156269 0.0456416 -0.0397869 0.0271463 0.0459655 -0.0334993 
0.0458615 0.0456399 -0.0317439 -0.0431519 -0.0454078 -0.0241273 -0.0314847 -0.044058 -0.0270488 
-0.0107094 -0.0405388 -0.0230595 -0.0165164 -0.0460833 -0.0229734 0.00824748 -0.0421929 -0.0294025 
0.021356 -0.0443274 -0.0257688 0.0284781 -0.0419131 -0.0285947 0.0421075 -0.0460705 -0.0289794 
0.0451445 -0.0446669 -0.0221518 -0.0409215 -0.0377169 -0.0254865 -0.0458182 -0.0316377 -0.0216315 
-0.037784 -0.0304499 -0.0240519 -0.0243102 -0.0362689 -0.0266771 -0.0163472 -0.0336636 -0.0258769 
-0.0100094 -0.0328226 -0.0211335 -0.004691 -0.0382945 -0.028758 0.000701587 -0.0356363 -0.0218771 
6.57112e-05 -0.0306088 -0.0299263 0.0090682 -0.0300867 -0.0297067 0.0154623 -0.0374453 -0.0263096 
0.0227432 -0.0358187 -0.021157 0.0273584 -0.032075 -0.0274894 0.0408634 -0.0368226 -0.0244247 
-0.045624 -0.0299001 -0.0290173 -0.0425531 -0.0233748 -0.0220824 -0.0301457 -0.0247718 -0.028826 
-0.0236783 -0.0207654 -0.0293917 -0.0282294 -0.021846 -0.0213543 -0.0202661 -0.0217805 -0.0221959 
-0.00849215 -0.028633 -0.0292867 0.00224724 -0.0228299 -0.023025 0.0170813 -0.0297979 -0.0248559 
0.0120681 -0.0235631 -0.022419 0.0245482 -0.0267019 -0.0229353 0.0337894 -0.0261329 -0.0253176 
0.0460042 -0.0264832 -0.0275799 -0.0440991 -0.0187482 -0.029628 -0.0313497 -0.0135858 -0.0256654 
-0.0229506 -0.0120254 -0.0282592 -0.0147333 -0.0171674 -0.0258287 -0.00676272 -0.0116635 -0.024608 
-0.00587735 -0.0187914 -0.0209523 0.00171349 -0.0150192 -0.0244079 0.00814281 -0.0108873 -0.0239489 
0.0153997 -0.0116206 -0.0203611 0.0160288 -0.0183725 -0.0273487 0.0227184 -0.0107631 -0.0251763 
0.0236583 -0.0187774 -0.0278861 0.0310193 -0.0102297 -0.0277979 0.0311556 -0.0192019 -0.0206093 
0.0392248 -0.0198808 -0.0234974 0.0418536 -0.0126515 -0.0284952 -0.0437995 -0.00712732 -0.0268933 
-0.0335519 -0.000335769 -0.027526 -0.0281744 -0.00766996 -0.0203501 -0.0141949 -0.00894076 -0.0288552 
-0.0182427 -0.00606565 -0.0220757 -0.000122619 -0.00560851 -0.0244483 0.0121097 -0.0048702 -0.0285293 
0.023051 -0.00218591 -0.0225116 0.0395586 -0.00297647 -0.0294138 0.0335223 -0.00363675 -0.0234975 
0.0462026 -0.00979777 -0.0226799 -0.0421052 0.00855 -0.0241609 -0.0462615 0.000294012 -0.0285314 
-0.0261766 0.000190772 -0.0206924 -0.0218237 0.00203782 -0.0280196 -0.0181156 0.00537849 -0.0205908 
-0.00945232 0.00531456 -0.0222996 0.00891586 0.00339964 -0.0242672 0.016802 0.00306487 -0.0249871 
0.0275788 0.00412282 -0.0255698 0.0215844 0.00914431 -0.0273464 0.0363574 0.00437361 -0.0215427 
0.0459407 0.00527055 -0.0288494 -0.0311706 0.0176393 -0.0225263 -0.0360664 0.0126716 -0.0261956 
-0.0255135 0.0129075 -0.0244391 -0.0160417 0.016787 -0.0275018 -0.0136395 0.0126204 -0.0213781 
-0.00105127 0.0113513 -0.0255284 0.00773123 0.0185215 -0.0245047 0.00723665 0.0109377 -0.0248527 
0.0146382 0.0150787 -0.0277275 0.0193685 0.0156404 -0.0216134 0.0209054 0.0195456 -0.028219 
0.0372582 0.0118904 -0.0231377 0.0323328 0.0161382 -0.028985 0.0457246 0.0169717 -0.024081 
-0.0452034 0.0244722 -0.0282965 -0.0390463 0.0200465 -0.0296731 -0.0379358 0.0291034 -0.0290241 
-0.0239153 0.0210605 -0.0223418 -0.0295071 0.0267187 -0.0235885 -0.0182103 0.0292135 -0.0223245 
-0.00961539 0.0278946 -0.0210408 -0.00117285 0.0217473 -0.0206922 -0.00698386 0.020751 -0.0277854 
0.00315921 0.0279973 -0.0227659 0.021573 0.0281897 -0.0255579 0.0293805 0.0257298 -0.0262998 
0.0401445 0.0239601 -0.0251056 -0.0459154 0.0336432 -0.0259671 -0.0203454 0.0339738 -0.0295372 
-0.0155998 0.0371047 -0.0246404 -0.00329727 0.0303492 -0.0283565 0.0052724 0.035513 -0.0238346 
0.0132386 0.0309361 -0.0235004 0.0111472 0.0398867 -0.0209568 0.0193617 0.0377424 -0.0220018 
0.0285263 0.0312184 -0.0204027 0.0343563 0.0316443 -0.0290213 0.0398972 0.0333298 -0.0229823 
0.0458656 0.0399196 -0.0249561 -0.0429298 0.0434047 -0.020041 -0.0453616 0.0459981 -0.0285928 
-0.0372922 0.0452246 -0.02592 -0.0290859 0.0448724 -0.0224329 -0.0185614 0.0454982 -0.0257516 
0.00470583 0.0451225 -0.0229055 0.0121507 0.0446329 -0.0299888 0.0198883 0.0459721 -0.0290556 
0.0263322 0.0401644 -0.0271171 0.0363286 0.0463352 -0.0297481 0.0416466 0.0458964 -0.0236517 
-0.044002 -0.0457402 -0.0148942 -0.0256804 -0.0439323 -0.0113587 -0.0142322 -0.0435291 -0.011447 
-0.00260079 -0.0445105 -0.0192446 0.01275 -0.040445 -0.0128276 0.0151047 -0.0446297 -0.0193548 
0.026084 -0.0432636 -0.0194289 0.0339514 -0.0451251 -0.0143479 0.0410851 -0.0462088 -0.0132516 
-0.0407841 -0.0358513 -0.0168494 -0.0316918 -0.0392732 -0.0195454 -0.0182855 -0.0359328 -0.0103432 
-0.0066061 -0.0388609 -0.0125527 0.00276914 -0.0329495 -0.0108299 0.0110015 -0.0330521 -0.016963 
0.0276005 -0.0303189 -0.0145552 0.0243593 -0.0381716 -0.0136946 0.0309998 -0.0376596 -0.0178518 
0.0378448 -0.0315937 -0.0170541 -0.032365 -0.029366 -0.0153282 -0.0227959 -0.0289367 -0.0168786 
-0.0136455 -0.0251898 -0.0194441 -0.00583743 -0.0261814 -0.0162687 0.0197034 -0.0255741 -0.013918 
0.0337713 -0.0252058 -0.0132599 0.0446435 -0.0281682 -0.0140988 -0.0346796 -0.0154463 -0.0150905 
-0.02465 -0.015344 -0.0177855 -0.0132777 -0.0199429 -0.0109901 -0.00990212 -0.0134378 -0.0128676 
-0.0015764 -0.0129807 -0.0102358 0.00807352 -0.0167097 -0.0168091 0.0229299 -0.0198007 -0.0174605 
0.0308129 -0.0113335 -0.0183875 0.0412933 -0.0161324 -0.0119434 0.0457004 -0.0174258 -0.0197942 
-0.0371472 -0.00764116 -0.0197615 -0.0391426 -0.00338094 -0.0130951 -0.0252394 -0.00789296 -0.0109961 
-0.0142027 -0.00480424 -0.0138713 -0.00415442 -0.00207555 -0.0143578 0.00613667 -0.00534302 -0.0182466 
0.0151915 -0.00371202 -0.0189906 0.0111571 -0.00571855 -0.0113893 0.0272662 -0.00261019 -0.013639 
0.0216234 -0.00926753 -0.0146006 0.0379872 -0.00850728 -0.0173956 0.041556 -0.000317632 -0.0164771 
0.0460056 -0.00707548 -0.0106105 -0.0458976 0.0092233 -0.0164061 -0.0346111 0.00508922 -0.0172463 
-0.0107609 0.00417744 -0.0118493 -0.0197926 0.00173949 -0.0135929 0.00256593 0.0017506 -0.0173239 
0.00411577 0.00983993 -0.0153047 0.0137939 0.00159222 -0.0116014 0.011506 0.00988754 -0.0132698 
0.0200047 0.00862016 -0.0109801 0.0299376 0.00501978 -0.0129933 0.0217441 0.0029308 -0.0168069 
0.0460277 0.00898549 -0.0199327 -0.021934 0.018173 -0.0120284 -0.0290711 0.0103893 -0.0162431 
-0.00667252 0.0114601 -0.0123679 0.000973586 0.0162573 -0.0111572 0.0243074 0.0134544 -0.0146783 
0.0317456 0.0148493 -0.016623 0.0411723 0.0118416 -0.0101376 -0.045132 0.0209514 -0.0120343 
-0.0454772 0.0279318 -0.0188225 -0.0368664 0.0219943 -0.0186375 -0.0240248 0.0285865 -0.0164922 
-0.0293831 0.0224223 -0.0167592 -0.0157457 0.0210836 -0.0172729 -0.00670397 0.0203641 -0.0147801 
0.00425973 0.0254041 -0.0149655 0.0102329 0.0204502 -0.0180098 0.0178262 0.0223391 -0.0169103 
0.0116101 0.0283938 -0.0150559 0.0236378 0.0239447 -0.011355 0.0315068 0.0236614 -0.011385 
0.0439177 0.0201114 -0.0167208 -0.038102 0.0326477 -0.0193965 -0.0321405 0.0366106 -0.0170394 
-0.0236955 0.0367243 -0.0190787 -0.0164315 0.0362766 -0.0163461 -0.00438813 0.0325606 -0.017924 
0.0192099 0.0327009 -0.0148095 0.0269613 0.0359094 -0.013386 0.0352187 0.0315398 -0.0155345 
0.0450991 0.0302334 -0.0175604 0.0439985 0.0376496 -0.0145052 -0.037495 0.0434509 -0.0145818 
-0.0224115 0.0449149 -0.0152997 -0.0143393 0.0460011 -0.0178273 -0.0165182 0.0460715 -0.0101267 
-0.00773922 0.0462368 -0.0138037 -4.33959e-05 0.0420783 -0.0136202 -0.00870087 0.0407324 -0.0195103 
0.0103237 0.0463229 -0.0120678 0.0225759 0.0444695 -0.0189167 0.03058 0.042484 -0.0188478 
0.0319446 0.0462373 -0.0118103 -0.0449694 -0.0418027 -0.00573904 -0.0378594 -0.0445354 -0.00719649 
-0.00670419 -0.046156 -0.0021914 0.00643011 -0.0458572 -0.00213276 0.000581662 -0.0419665 -0.00911421 
0.0180398 -0.0446668 -0.00764395 0.0270892 -0.0434373 -0.0025885 0.0356551 -0.0454085 -0.00181909 
-0.0455006 -0.0323874 -0.00865779 -0.0413946 -0.033858 -0.00157657 -0.030074 -0.0385602 -0.00544327 
-0.00586214 -0.0353513 -0.00355254 0.00326125 -0.0369068 -0.00351615 0.0281671 -0.0365513 -0.00556161 
0.0376553 -0.0352878 -0.00434711 0.0455424 -0.039057 -0.00907692 -0.0354821 -0.0251765 -0.00639121 
-0.0233036 -0.0274005 -0.00416645 -0.0151216 -0.0288566 -0.00461227 0.0118144 -0.0217036 -0.00559304 
-0.0450651 -0.0107587 -0.00867794 -0.0239731 -0.0146052 -0.00601246 -0.0067786 -0.0157985 -0.00350704 
4.23023e-05 -0.0190897 -0.00526407 0.00632044 -0.0134896 -0.00816704 0.0243182 -0.012981 -0.00184108 
0.0305459 -0.0167385 -0.00803166 -0.0464382 -0.000858315 -0.00312733 -0.0303061 -0.0013835 -0.00605871 
-0.0140174 -0.00373671 -0.00611818 0.019569 -0.00691175 -0.000131813 0.0131288 -0.00338986 -0.00199552 
0.0262293 -0.00128167 -0.00324715 0.0328755 -0.00184771 -0.00602957 0.0350781 -0.00885695 -0.00904724 
0.0424183 -0.000627189 -0.000148376 -0.010056 0.00675937 -0.00202664 -0.00214857 0.00543142 -0.00775686 
0.00632187 0.0060927 -0.00628682 0.0350599 0.00532809 -0.00617262 0.0449775 0.00120927 -0.00775765 
-0.0449669 0.0108021 -0.00653141 -0.0360826 0.0101751 -0.00517399 -0.031413 0.0166237 -0.00568366 
-0.00501746 0.013381 -0.00445508 0.0107189 0.0170206 -0.00683199 0.0213287 0.0105697 -0.00190608 
-0.042528 0.0277719 -0.00982168 -0.0345027 0.0266738 -0.00921939 -0.0294491 0.025068 -0.00184674 
0.0170941 0.0243833 -0.00690922 0.0106684 0.0296803 -2.58621e-05 0.0382012 0.0253808 -0.00445715 
-0.0395306 0.0361705 -0.0086104 -0.0356893 0.0373947 -0.000753057 -0.0118352 0.0351622 -0.00568216 
0.00596279 0.0346155 -0.00954758 0.000516515 0.033167 -0.00268541 0.0289484 0.0360313 -0.00294106 
0.0351327 0.0383866 -0.00960183 0.0450827 0.035061 -0.00588425 -0.0439468 0.0460159 -0.00660888 
-0.0271146 0.0412863 -0.00978109 -0.00796971 0.0433856 -0.00346982 0.0146912 0.0405722 -0.00449543 
0.0219259 0.0414328 -0.000813713 0.0426751 0.0456125 -0.00596264 -0.0363378 -0.0466604 0.00451224 
-0.0195213 -0.0433922 0.00364927 0.00386671 -0.0420196 0.00459722 0.0105545 -0.0403593 0.00158177 
-0.0258981 -0.0361367 0.00235772 0.0309905 -0.0326034 0.00429397 0.043676 -0.0390843 0.00452082 
-0.0378006 -0.0233487 0.00215997 -0.0267061 -0.0208878 0.00477301 -0.0192967 -0.0211137 7.82632e-05 
0.0122604 -0.0263463 0.00228456 0.0232786 -0.0279062 0.00720682 -0.0451524 -0.0193626 0.00297525 
-0.00688733 -0.0186028 0.00784307 0.00918971 -0.016313 0.00143891 0.000569286 -0.0184344 0.00314978 
0.0168564 -0.0156587 0.00413084 0.032138 -0.0140299 0.00402826 -0.0384634 -0.00187339 0.00844492 
-0.00711066 -0.00386932 0.000666715 0.0356512 -0.00146693 0.00580785 0.0418967 -0.00940043 0.000592774 
-0.0232478 0.00160674 0.000822777 -0.000884408 0.00888722 0.00988256 0.00699626 0.00419233 0.00355556 
0.0282877 0.00578214 0.00429507 0.0257513 0.0151148 0.00762179 0.0443711 0.0131557 0.000262369 
-0.0383209 0.0290211 0.00755941 -0.0169634 0.0212238 0.00142225 0.0235659 0.0219597 0.00413988 
-0.0459013 0.0353386 0.00213668 -0.0160755 0.0370933 0.00360791 0.0186098 0.0343568 0.0013591 
0.0186115 0.0385296 0.00851946 0.0338215 0.0393633 0.00867904 0.0411629 0.0361362 0.00480937 
0.0294262 0.0441271 0.000385677 -0.00390451 -0.0408602 0.0105073 -0.0317021 -0.0335098 0.0114507 
-0.00179757 -0.0224061 0.0177474 0.0430191 -0.0286474 0.0173614 -0.0175355 -0.0101023 0.0100846 
0.021708 -0.0118471 0.0110443 -0.021063 -0.00401429 0.017408 -0.034477 0.0126649 0.0170237 
0.0305323 0.017017 0.0172892 -0.0249818 0.0226554 0.0193873 -0.0417726 0.0457679 0.0105077 
-0.0354597 0.0419841 0.0125279 0.0064799 0.0433789 0.0140026 -0.037703 -0.0365484 0.0201997 
-0.00112116 0.00313495 0.023948 0.00161157 0.0201724 0.0384752 -0.0327457 0.0308014 0.0425323 

gid 1 567 double
0 0 0 0 0 0 0 0 0 
0 0 0 0 0 0 0 0 0 
0 0 0 0 0 0 0 0 0 
0 0 0 0 0 0 0 0 0 
0 0 0 0 0 0 0 0 0 
0 0 0 0 0 0 0 0 0 
0 0 0 0 0 0 0 0 0 
0 0 0 0 0 0 0 0 0 
0 0 0 0 0 0 0 0 0 
0 0 0 0 0 0 0 0 0 
0 0 0 0 0 0 0 0 0 
0 0 0 0 0 0 0 0 0 
0 0 0 0 0 0 0 0 0 
0 0 0 0 0 0 0 0 0 
0 0 0 0 0 0 0 0 0 
0 0 0 0 0 0 0 0 0 
0 0 0 0 0 0 0 0 0 
0 0 0 0 0 0 0 0 0 
0 0 0 0 0 0 0 0 0 
0 0 0 0 0 0 0 0 0 
0 0 0 0 0 0 0 0 0 
0 0 0 0 0 0 0 0 0 
0 0 0 0 0 0 0 0 0 
0 0 0 0 0 0 0 0 0 
0 0 0 0 0 0 0 0 0 
0 0 0 0 0 0 0 0 0 
0 0 0 0 0 0 0 0 0 
0 0 0 0 0 0 0 0 0 
0 0 0 0 0 0 0 0 0 
0 0 0 0 0 0 0 0 0 
0 0 0 0 0 0 0 0 0 
0 0 0 0 0 0 0 0 0 
0 0 0 0 0 0 0 0 0 
0 0 0 0 0 0 0 0 0 
0 0 0 0 0 0 0 0 0 
0 0 0 0 0 0 0 0 0 
0 0 0 0 0 0 0 0 0 
0 0 0 0 0 0 0 0 0 
0 0 0 0 0 0 0 0 0 
0 0 0 0 0 0 0 0 0 
0 0 0 0 0 0 0 0 0 
0 0 0 0 0 0 0 0 0 
0 0 0 0 0 0 0 0 0 
0 0 0 0 0 0 0 0 0 
0 0 0 0 0 0 0 0 0 
0 0 0 0 0 0 0 0 0 
0 0 0 0 0 0 0 0 0 
0 0 0 0 0 0 0 0 0 
0 0 0 0 0 0 0 0 0 
0 0 0 0 0 0 0 0 0 
0 0 0 0 0 0 0 0 0 
0 0 0 0 0 0 0 0 0 
0 0 0 0 0 0 0 0 0 
0 0 0 0 0 0 0 0 0 
0 0 0 0 0 0 0 0 0 
0 0 0 0 0 0 0 0 0 
0 0 0 0 0 0 0 0 0 
0 0 0 0 0 0 0 0 0 
0 0 0 0 0 0 0 0 0 
0 0 0 0 0 0 0 0 0 
0 0 0 0 0 0 0 0 0 
0 0 0 0 0 0 0 0 0 
0 0 0 0 0 0 0 0 0 

a 3 567 double
0 0 0 33.0188 -295.165 83.0794 168.613 -2.74196 -58.7978 
-168.613 26.3328 58.7978 0 77.1422 0 0 0 0 
0 0 0 105.563 -120.746 48.4431 12.1321 -0.102177 -11.9774 
-33.0188 295.165 -83.0794 7.19481 -6.65499 -12.8118 -93.6217 3.99194 -24.6159 
0 0 0 0 0 0 0 0 0 
0 0 0 -105.563 120.746 -48.4431 -38.163 13.2723 9.31371 
38.163 -13.2723 -9.31371 45.5854 -24.2251 -61.8107 0 0 0 
205.956 331.69 -70.5151 0 0 0 0 0 0 
0 0 0 0 0 0 -140.845 -0.269214 21.9691 
140.845 0.269214 -21.9691 0 0 0 0 0 0 
-5.19319 -8.46994 1.73434 -13.8146 152.962 20.1126 19.8387 -147.417 -31.1029 
0 0 0 0 0 0 28.4128 -26.4565 -3.43397 
0 0 0 -133.731 229.98 -81.2346 0 0 0 
0 0 0 0 0 0 0 0 0 
327.644 28.7239 -425.638 0 0 0 79.7611 -33.7584 -2.93592 
-79.7611 33.7584 2.93592 -175.629 -42.4023 50.3743 147.216 68.8588 -46.9403 
0 0 0 0 0 0 3.61455 2.7256 3.30024 
0 0 0 -373.139 101.327 -224.031 0 0 0 
-43.5068 1.69397 15.7859 43.5068 -1.69397 -15.7859 40.7575 -197.672 41.7038 
0 0 0 28.937 30.8805 -10.5732 0 0 0 
45.796 -25.4246 -0.65034 -190.636 -25.6412 -50.0966 75.2201 -68.5283 -48.2802 
-182.395 -191.766 -69.769 0 0 0 -42.1012 196.347 -42.8968 
0 0 0 0 0 0 -24.118 91.7155 -53.8887 
0 0 0 -45.796 25.4246 0.65034 0 0 0 
109.207 49.7409 51.5487 51.1978 141.152 -16.2285 -6.23175 12.7971 -20.7118 
0 0 0 -342.119 -530.682 27.71 0 0 0 
0 0 0 0 0 0 0 0 0 
-19.1516 -73.1872 -67.8198 0 0 0 -10.5286 -40.45 -7.54407 
7.0781 -122.76 -57.7488 25.9835 112.813 25.7472 -19.1028 -243.004 -33.2686 
176.038 811.244 -142.975 267.8 239.05 -76.0921 0 0 0 
-92.005 7.42242 -32.2698 0 0 0 0 0 0 
-51.2395 239.783 54.3768 70.3423 3.22097 -21.1082 59.5742 -403.387 -151.142 
0 0 0 -13.2694 -16.6213 7.21654 0 0 0 
0 18.3476 0 0 0 0 0 0 0 
-43.453 -125.794 -48.4301 147.407 397.492 156.911 0 0 0 
105.445 -26.9513 -74.7889 0 0 0 -7.19481 6.65499 12.8118 
13.2694 16.6213 -7.21654 -107.142 -327.212 93.3967 0 0 0 
0 0 0 0 0 0 -35.9701 19.2468 -16.6784 
0 0 0 -3.48667 154.431 34.0417 0 0 0 
81.6766 162.027 -33.5835 -135.568 56.7549 37.3832 -36.5436 -24.1015 116.853 
210.596 -23.4889 -8.09321 0 0 0 0 0 0 
7.86648 -83.8437 31.5288 18.628 -63.2352 -49.9454 0 0 0 
39.1031 -58.7438 122.506 0 0 0 0.564108 1.60915 0.306767 
-375.983 -404.323 123.596 -4.62266 53.7144 15.2615 0 0 0 
25.7036 -35.1914 -32.8983 -3.68641 -2.9372 -0.0816745 -4.18006 86.7809 -31.4471 
-63.7552 116.433 -61.5704 0 0 0 0 0 0 
0 0 0 42.8138 -20.5895 -6.08446 -0.564108 -1.60915 -0.306767 
14.7277 106.967 -90.59 361.256 297.356 -33.0058 -4.05547 -85.5294 -9.85978 
7.52103 4.24908 5.91227 133.731 -229.98 81.2346 0 0 0 
0.646163 0.404242 -0.0767362 -0.646163 -0.404242 0.0767362 0 0 0 
-327.644 -28.7239 425.638 150.471 -198.812 0.144887 14.8535 23.7816 9.41411 
-57.3031 -2.71768 -7.24002 20.8868 313.935 -143.779 0 0 0 
-3.46555 81.2803 3.94751 0 0 0 0 0 0 
0 0 0 -3.61455 -2.7256 -3.30024 6.06861 -31.9566 -6.86302 
-6.06861 31.9566 6.86302 330.243 -247.591 188.589 0 0 0 
-150.299 198.989 -0.167673 0 0 0 1.34369 1.32485 1.19305 
0 0 0 0 0 0 0 0 0 
-7.02743 -128.313 -58.6257 -21.9096 97.4323 69.1989 0 0 0 
99.5398 72.0114 84.2282 -38.6192 -10.7995 5.56246 21.9901 0.873266 34.4488 
38.6192 10.7995 -5.56246 -0.172094 -0.177298 0.0227857 0 0 0 
-28.9728 259.37 -84.4819 0 0 0 24.118 -91.7155 53.8887 
0 0 0 0 0 0 58.7726 168.422 49.5904 
0 0 0 0 0 0 -35.0144 -49.5067 -23.4645 
0.986726 1.2861 -1.63994 -53.9475 78.8416 -142.463 14.3254 -11.9916 -4.22334 
0 0 0 75.2859 -152.969 54.9101 0 0 0 
0 0 0 -13.8567 -158.618 -24.5469 0 0 0 
-6.22465 69.3646 44.0243 25.3763 3.8226 23.7955 101.447 -340.755 5.73619 
0 0 0 -68.6369 131.295 -54.7015 25.455 64.7291 33.5757 
0 0 0 166.082 -280.562 115.265 0 0 0 
0 0 0 -343.086 -86.0811 21.1821 0 0 0 
0 0 0 22.636 137.752 19.8435 92.005 -7.42242 32.2698 
-101.447 313.012 -5.73619 10.5286 40.45 7.54407 0 -17.5191 0 
-49.9704 0 0 0 0 0 0 0 0 
0 0 0 0 108.732 0 0 0 0 
-14.691 -4.77901 -16.3556 35.9701 -19.2468 16.6784 -53.3462 -177.821 5.47924 
18.6093 2.08929 42.4927 0 0 0 -7.81772 -236.421 624.97 
0 0 0 0 0 0 -37.3982 -8.03132 -22.7582 
37.3982 8.03132 22.7582 0 0 0 0 0 0 
0 0 0 0 0 0 -4.2372 -42.1605 -10.2305 
-0.203929 0.327555 -0.730798 232.513 -573.243 -398.931 0 0 0 
6.73397 241.931 -618.2 0 0 0 -88.583 -65.4961 3.37949 
102.835 52.9602 -6.53007 -4.88829 -0.61735 0.91604 -5.35136 0.737972 5.33872 
0 0 0 -1.01333 -199.496 19.32 4.2372 42.1605 10.2305 
0 0 0 -232.513 573.243 398.931 0 0 0 
0 0 0 -226.983 36.3446 5.70668 0 0 0 
0 0 0 5.70658 3.81687 -2.94144 0 0 0 
0 0 0 -115.068 97.5329 -32.6731 116.081 101.963 13.3531 
0 0 0 -49.791 8.41288 2.23385 0 0 0 
49.791 -8.41288 -2.23385 -20.8868 -313.935 143.779 0 0 0 
-275.203 -168.117 -141.777 0 0 0 0 0 0 
0 0 0 0 0 0 0 0 0 
0 0 0 0 0 0 0 0 0 
9.48036 -53.3886 -38.5567 0 0 0 0 0 0 
-216.032 0 0 -187.719 -146.1 42.6906 474.789 0 0 
0 0 0 0 0 0 0.266943 1.16986 -1.83684 
0 0 0 -161.014 -193.821 10.9785 227.108 16.405 -1.40987 
126.664 -119.63 23.7761 -126.664 119.63 -23.7761 0.0012539 -10.8417 2.71075 
13.891 -287.584 50.2882 -203.896 36.362 -108.013 183.932 142.358 -44.7358 
142.69 -144.478 -40.4076 -28.9376 34.5041 -54.4567 28.9376 -34.5041 54.4567 
0 0 0 -195.219 -201.514 -708.77 -84.8624 79.8509 -10.3694 
-135.765 -80.942 -106.404 74.1769 20.8987 129.62 53.4941 59.2378 1.71925 
-0.0012539 10.8417 -2.71075 0 0 0 -0.25283 28.2141 34.1937 
-136.074 97.912 7.00788 136.074 -97.912 -7.00788 0 0 0 
28.165 -11.1643 -30.2712 0.559155 0.0975237 -1.11897 0 0 0 
-210.21 -127.284 -118.587 -29.6732 -60.2037 16.7824 0 0 0 
-26.1973 -115.4 -10.3651 23.0122 -120.451 80.9831 76.07 -94.9603 138.071 
0 0 0 0 0 0 -407.149 -284.966 -328.63 
398.369 279.244 333.333 0 0 0 37.8612 164.7 -16.8756 
0 0 0 18.0094 10.9036 10.4583 0 0 0 
0 0 0 0 0 0 0 0 0 
172.953 -324.879 -75.6167 -284.434 -17.5934 -234.955 0 -42.4882 0 
0 0 0 0 0 0 0 0 0 
0 0 0 0 0 0 0 -2.52395 0 
0 0 0 0 -561.241 0 -172.953 247.737 75.6167 
0 69.9324 0 0 0 0 0 0 0 
0 0 0 0 0 0 0 0 0 
-89.2039 -146.87 -71.1818 -536.917 50.0382 -119.564 536.917 1276.18 119.564 
-0.733026 0.486543 -0.562327 0 0 0 0 0 0 
0 0 0 0 0 0 0 0 0 
0 0 0 -72.2161 34.4989 101.945 176.315 116.823 -13.6768 
-85.9559 -54.5331 -30.0175 0 0 0 0 0 0 
6.6675 -4.25735 2.22379 0 0 0 -144.855 -268.334 126.101 
0 0 0 85.9559 54.5331 30.0175 0 0 0 
0 0 0 -40.0227 -111.909 42.6235 40.0227 111.909 -42.6235 
-256.365 64.5764 -83.6037 0 0 0 144.855 268.334 -126.101 
-212.739 -54.6279 -31.8484 0 0 0 275.203 168.117 141.777 
0 0 0 0 0 0 0 0 0 
-15.7459 -2.96167 -143.71 0 0 0 30.8399 -71.8995 -16.2094 
0 0 0 -37.07 -171.706 8.56045 0 0 0 
0 0 0 212.739 54.6279 31.8484 0 0 0 
-36.782 0 0 0 0 0 -73.5715 -57.7744 -17.5449 
0 0 0 -0.266943 -1.16986 1.83684 -30.8399 71.8995 16.2094 
-228.751 -28.398 -55.6945 37.07 171.706 -8.56045 228.751 28.398 55.6945 
-223.053 -207.758 142.642 0 0 0 -9.84457 52.9142 42.4671 
0 0 0 0 0 0 73.5715 57.7744 17.5449 
0 0 0 0 0 0 126.183 200.808 -114.246 
96.8703 6.9502 -28.396 0 0 0 -43.3699 -194.646 -59.8992 
0 0 0 -102.833 -17.46 -27.3133 0 0 0 
139.102 140.385 209.17 0 0 0 0 0 0 
-178.946 -55.4325 12.1848 127.229 287.131 692.702 87.8911 11.17 20.0895 
178.946 55.4325 -12.1848 236.449 -51.8271 -161.954 0 0 0 
0 0 0 -89.4243 -53.5261 -49.0674 89.4243 53.5261 49.0674 
-122.254 -9.11702 -49.2339 122.254 9.11702 49.2339 210.21 127.284 118.587 
0 0 0 0 0 0 0 0 0 
0.0084163 -0.191623 -0.0590981 -0.0084163 0.191623 0.0590981 284.434 17.5934 234.955 
-222.962 3.87111 -187.134 31.2218 -89.7118 -86.4404 205.516 -2.83037 258.118 
0 -726.667 0 0 0 0 0 0 0 
0 -634.258 0 0 0 0 0 0 0 
0 -63.5538 0 0 0 0 0 0 0 
0 271.998 0 -14.4687 -14.2516 -11.0649 -39.1415 -65.8601 -91.7296 
0 0 0 -29.3536 -214.658 56.3787 0 0 0 
0 0 0 0 0 0 0 0 0 
0 0 0 39.1415 65.8601 91.7296 29.3536 214.658 -56.3787 
0 0 0 0 0 0 0 0 0 
0 0 0 0 0 0 0 0 0 
0 0 0 0 0 0 -268.665 131.041 107.975 
269.934 -141.144 -101.676 255.096 -54.4729 77.305 8.05301 -12.6302 -2.41688 
0 0 0 527.345 0 0 0 0 0 
15.7459 2.96167 143.71 416.674 -198.921 60.8455 -424.727 211.551 -58.4286 
-429.782 94.8325 131.177 350.37 -7.37825 -74.9244 49.0531 -216.495 -68.3057 
0 0 0 0 0 0 0 0 0 
0 0 0 30.3592 129.041 12.0531 0 0 0 
0 0 0 0 0 0 0 0 0 
0 0 0 0 0 0 0 0 0 
43.3699 194.646 59.8992 0 0 0 0 0 0 
-238.568 51.3182 160.373 0 0 0 0 0 0 
0 0 0 0 0 0 0 0 0 
0 0 0 0 0 0 0 0 0 
0 0 0 0 0 0 0 -139.374 0 
-13.7759 -13.6908 15.4567 0 0 0 0 0 0 
0 0 0 0 0 0 0 2731.99 0 
0 0 0 -187.479 -24.063 67.888 201.948 38.3146 -56.8231 
0 0 0 0 0 0 0 0 0 
0 0 0 0 0 0 0 0 0 
0 0 0 0 0 0 0 0 0 
0 0 0 -17.9961 -1.90105 -4.06985 0 0 0 
17.9961 1.90105 4.06985 0 0 0 0 0 0 
0 0 0 0 0 0 0 0 0 
0 0 0 0 0 0 0 0 0 
0 0 0 0 0 0 0 0 0 
0 0 0 0 0 0 0 0 0 
886.897 0 0 0 0 0 0 0 0 
0 0 0 0 0 0 0 0 0 
0 0 0 0 0 0 0 0 0 
0 0 0 0 0 0 0 0 0 
0 0 0 0 0 0 0 0 0 
0 0 0 0 0 0 0 0 0 
0 0 0 0 0 0 0 0 0 
0 0 0 0 0 0 0 0 0 

v 3 567 double
0.14205 0.0797302 0.239854 0.0628298 -0.180124 0.443555 -0.117229 0.388771 0.363697 
-0.0252344 0.055024 0.655105 -0.0228385 0.233466 0.474129 0.320429 0.340455 0.526941 
-0.284308 0.110661 0.534195 -0.556443 0.358885 0.874766 0.186268 -0.185315 0.429184 
-0.554358 0.106057 0.17107 -0.169971 0.177528 0.654586 -0.182121 0.180325 0.288633 
0.159595 0.0764019 0.445957 0.0781168 -0.349437 0.365996 0.384846 -0.0462234 0.614746 
-0.139983 0.143012 0.530038 -0.261434 -0.101608 0.105445 -0.117753 0.135964 0.47622 
-0.122573 -0.128279 0.534439 0.0347624 -0.0239052 0.677857 0.0642283 -0.18924 0.59221 
-0.194085 -0.848889 0.708762 0.287002 0.0835424 0.682786 -0.00480182 0.30692 0.684932 
0.29156 -0.22148 0.460758 0.054672 -0.0309808 0.350211 -0.0937454 -0.0241617 0.334553 
-0.484908 -0.0971624 0.481865 0.0711813 0.0714363 0.210227 -0.0599635 0.0691897 0.639823 
0.0174009 -0.478328 0.517975 -9.30255e-05 0.0629479 0.398401 0.158558 -0.253115 0.479193 
-0.00898962 0.264065 0.397839 -0.108123 0.238044 0.309651 -0.369394 0.396366 0.487013 
-0.13177 -0.0882335 0.362031 -0.197508 0.212143 0.531944 -0.0300901 0.224013 0.474781 
0.00955661 -0.368256 0.581125 0.371111 -0.0230771 0.324126 0.332209 -0.251896 0.2675 
0.0385575 -0.238789 0.534245 0.237382 -0.0338465 0.514494 0.257646 0.0701814 0.276108 
0.19268 -0.00211322 0.271191 -0.0975111 0.0768999 0.4354 -0.128423 0.299083 0.614671 
-0.245142 0.208077 0.436327 -0.192522 -0.00347906 0.467023 -0.0732859 0.161895 0.295047 
-0.111754 0.162616 0.281606 -0.0646692 -0.0621345 0.526818 0.277874 0.200703 0.730928 
-0.133972 -0.0509397 0.458794 -0.0429413 -0.170882 0.634679 0.0937175 0.152231 0.816449 
0.46168 0.2646 0.306495 -0.143138 0.0477898 0.154904 0.0376293 0.0277485 0.480688 
0.518679 -0.0776198 0.401654 0.22819 0.327319 0.625013 -0.0277971 0.180081 0.315324 
-0.0676646 0.274181 0.407653 0.151451 -0.218112 0.399715 -0.394817 0.0521635 0.4211 
-0.050741 0.260181 0.735735 -0.255385 0.243014 0.529804 0.782736 0.00726081 0.72011 
-0.439528 0.294581 0.403278 0.362578 0.596588 0.34693 -0.309403 0.197716 0.366161 
-0.324912 0.000442761 0.518152 -0.23444 -0.279057 0.406407 0.148802 -0.134995 0.530085 
0.149538 -0.190257 0.661864 -0.32413 -0.0548809 0.741319 -0.181798 0.262088 0.567981 
0.234318 0.0647378 0.682265 -0.26094 -0.0737506 0.333101 -0.238647 0.246839 0.508147 
0.561491 0.0710074 0.340628 -0.215188 -0.30333 0.199949 0.124459 0.0619169 0.536933 
-0.163159 0.140167 0.0606517 0.21556 0.0177502 0.44394 0.276845 0.274671 0.433534 
-0.299067 -0.151485 0.345074 0.475938 0.178784 0.602791 -0.155854 0.483484 0.50469 
0.10171 -0.305748 0.548536 -0.268553 -0.51387 0.23482 0.166481 -0.0467401 0.399605 
-0.0389541 0.231736 0.725892 0.129331 -0.0492475 0.149533 0.237137 -0.146109 0.668092 
0.191017 0.346001 0.67748 -0.0961245 -0.169567 0.877283 0.344443 -0.217021 0.638813 
-0.0256572 0.195086 1.00104 -0.221858 0.0824441 0.94734 0.146688 0.0350403 0.919586 
-0.224389 0.211069 1.36122 -0.0140167 0.196617 0.929097 -0.319556 -0.0567042 0.753048 
-0.0802841 0.155021 0.737832 -0.0575543 0.114319 0.795972 0.0185434 -0.360321 0.612911 
-0.0305134 0.146017 0.475795 -0.194767 0.0380615 0.461226 0.254883 -0.147699 0.813923 
-0.232024 0.187944 1.04286 -0.0209342 -0.00559561 0.827093 0.214689 0.0651499 0.819002 
-0.0663384 0.498903 0.98843 -0.153433 0.368893 0.491575 0.350648 0.343501 0.795171 
-0.0519962 0.211269 1.02357 0.0915625 0.0361749 0.698997 0.45579 0.253187 0.469864 
0.0275557 0.159805 0.665904 -0.318017 0.199393 0.718392 0.315033 -0.18018 0.749888 
-0.11325 0.546508 0.744191 0.226194 0.278191 0.932397 0.168813 0.276723 0.928286 
0.190903 -0.160213 0.8035 -0.111633 -0.00263989 0.975792 0.116413 0.188211 0.580083 
-0.0979067 0.249622 0.859047 -0.075884 -0.0724999 1.00217 0.0281666 0.184835 0.856929 
0.0334848 -0.127607 0.838594 -0.0664273 0.164659 0.745572 -0.206631 0.0849311 0.671276 
0.511205 -0.105871 0.667792 -0.209608 0.133389 0.580123 -0.399214 -0.272696 0.777519 
-0.201309 0.00451764 0.555049 0.233459 -0.124921 1.04654 0.0703637 0.335863 0.622564 
-0.115146 0.252686 0.86888 0.549579 0.109138 1.08997 0.0655678 0.22361 0.605336 
0.128623 0.321069 0.853195 -0.104127 0.16123 0.829738 0.0422791 0.278187 0.798959 
0.0993269 0.321856 0.796572 0.29365 0.185641 0.770628 0.553038 -0.000225991 0.90714 
-0.0441495 -0.0318118 0.727109 0.0619773 -0.115414 0.429473 -0.120463 -0.403085 1.06494 
0.343748 0.259192 0.472074 -0.0543303 -0.625526 0.823631 0.0936744 -0.0550343 1.10567 
-0.0402212 0.330465 1.01665 0.0876774 0.118255 1.01062 -0.121281 0.039898 0.709457 
-0.113861 0.374162 0.596645 0.150605 0.00988025 0.740603 0.247017 0.123991 0.827999 
0.0605576 -0.0602465 1.0809 0.112094 0.430774 0.886575 -0.00182721 0.184817 0.948072 
0.163092 0.0796251 1.06708 -0.324828 0.288609 0.47586 -0.0172243 -0.14881 1.06462 
-0.464451 0.205433 0.885306 -0.0675506 0.0528126 0.589663 0.123614 0.250755 0.838133 
0.155862 0.210914 0.729586 -0.0474875 0.44199 0.68537 0.156339 0.097653 0.788325 
0.0534949 -0.144129 0.953641 -0.0190981 -0.266989 0.761559 -0.409928 -0.233882 0.889816 
0.526365 -0.128479 0.744623 0.220235 0.0143012 0.918584 0.292241 0.0449891 0.785111 
-0.0213624 0.485773 0.726697 0.0406771 -0.178668 0.642461 0.183846 0.329937 0.748681 
-0.128793 0.375856 1.26495 0.103158 0.293769 0.835306 0.0816278 0.000422536 0.932958 
0.0192307 -0.039737 0.815284 -0.319866 0.0305631 0.384609 0.137502 0.253181 0.63495 
0.756558 -0.404717 0.972582 0.348029 -0.305951 0.603029 -0.368462 0.111629 0.772512 
-0.131251 -0.218431 0.903691 -0.00289944 -0.0104027 0.896958 0.335728 0.344926 0.946537 
0.00873824 0.0967399 0.956863 -0.230174 0.170961 0.7436 0.232554 -0.137837 0.901349 
-0.121585 -0.0419724 1.19285 0.129903 0.157909 1.01435 0.195542 -0.108937 0.796832 
-0.166081 0.0201327 0.695034 0.315297 -0.0548388 0.604438 -0.132908 -0.0144858 1.13072 
-0.392011 -0.160851 0.685562 -0.0610511 -0.0341965 0.83934 0.513183 0.14922 1.10212 
-0.150674 -0.0610698 0.544606 0.0514319 -0.108084 0.686628 0.113254 -0.229749 1.47488 
-0.131709 0.0959353 0.832038 -0.25448 -0.028073 0.671291 0.146724 -0.440965 1.00136 
0.384876 0.171379 0.690109 0.294243 -0.167939 0.361506 -0.152123 -0.159018 0.785407 
-0.469311 -0.109498 0.940748 0.263803 0.0693573 1.52388 -0.0501065 0.0976234 0.982149 
-0.101016 -0.109809 1.24811 0.574604 0.056253 0.686688 -0.0220593 0.056386 0.9623 
0.202839 -0.102573 1.00702 0.14179 0.174439 1.12278 -0.0595379 -0.0803655 1.4684 
-0.317215 0.443535 0.781868 0.514484 0.0846835 1.07501 -0.094494 0.236694 1.12622 
-0.831501 0.222784 0.64745 -0.702318 -0.0821608 0.480581 -0.239602 0.125521 0.388168 
-0.229429 -0.0667905 0.725914 -0.201619 0.19236 1.15779 -0.199894 -0.0734421 1.10856 
-0.192687 0.346413 1.13067 0.124837 -0.0136059 0.93762 -0.0109289 0.223503 1.10184 
-0.0292495 -0.547482 1.09773 0.308415 -0.501788 0.577922 0.308847 0.391109 0.940532 
-0.0343774 -0.0470035 0.368157 -0.0201633 0.17162 1.3568 0.395121 -0.024324 1.00277 
0.0345394 -0.0749648 0.923218 -0.0336215 0.34683 0.688388 0.109771 -0.182957 1.04254 
-0.0358107 0.0370058 0.903844 0.0282492 -0.126603 1.22004 0.286022 0.348357 0.997693 
0.236694 0.247817 1.35467 -0.0214483 -0.0353638 1.08421 0.162895 -0.131895 0.902076 
0.0727922 0.265371 1.06298 0.0798124 0.164431 0.704063 -0.198683 0.251717 1.01123 
0.256484 0.122595 0.557407 0.119809 0.0775811 0.817453 0.0984542 -0.128694 1.3671 
0.0512788 -0.190936 1.24528 -0.110245 0.463467 1.05588 0.210083 -0.270923 0.923935 
-0.00675162 0.254711 1.35285 0.0545122 0.0970665 1.24725 0.185213 0.540631 1.36414 
-0.419591 0.391401 1.22124 -0.383475 0.397919 1.36014 0.425372 -0.228071 1.21925 
-0.435955 0.25368 0.923391 0.176687 0.0970049 1.04656 0.0175933 0.557352 0.811126 
-0.0653198 0.0858097 0.972518 -0.300477 -0.000286513 1.3596 0.170731 -0.0413452 0.873833 
0.308071 0.178818 1.19643 0.335471 -0.363234 1.17772 0.279637 -0.0764432 0.775659 
-0.0349855 -0.007619 1.07225 -0.208582 0.240341 0.375883 -0.548183 0.0677768 0.708843 
0.0727013 -0.659237 0.688823 0.376288 0.329778 1.07614 0.0544059 0.137931 1.05099 
0.0510559 0.096259 1.4242 0.319338 -0.0984686 1.14047 0.301626 0.00110256 1.27799 
0.104976 -0.0147417 1.72457 -0.263884 -0.012591 1.44805 0.309697 -0.538686 0.976095 
0.10676 -0.742874 0.911842 -0.442153 -0.348511 0.682522 -0.294631 0.288645 0.967323 
-0.0335561 -0.347168 0.980814 0.0360837 0.0415269 1.12537 0.319187 0.167179 0.953111 
0.0612125 0.238764 1.15029 -0.259886 -0.125074 0.987267 -0.480652 -0.140214 0.914487 
0.211342 0.126091 1.01866 -0.282187 -0.092236 1.22023 0.294492 0.251557 1.33768 
0.173583 0.0352627 0.842948 0.41105 -0.512901 0.738489 0.23627 -0.483689 1.03126 
-0.0117362 -0.21862 1.18337 0.148 -0.491573 0.480981 -0.189462 -0.335521 1.25153 
0.544398 -0.105375 1.40954 0.456403 -0.0395057 0.831614 0.0785396 -0.0374477 1.02996 
-0.102971 0.191198 0.983109 0.0620579 0.589868 1.16638 0.263784 0.0512202 1.39626 
0.317987 -0.914219 1.32196 -0.237796 -0.0388649 1.26684 0.0990782 -0.266975 1.01228 
0.390349 -0.362734 1.13662 -0.290971 0.147206 1.21243 0.193477 -0.248965 0.98338 
0.122662 0.0745562 0.860532 0.0741036 0.0446018 1.30308 0.144723 -0.153463 0.893651 
0.291664 -0.104402 1.26584 0.369452 -0.0758216 0.691675 0.456674 0.0383021 0.981246 
0.50512 0.123787 0.339237 0.308222 0.236732 0.68541 0.348209 -0.0653822 1.05745 
-0.329608 -0.379784 1.08365 0.214155 -0.214387 1.1653 -0.252669 -0.310766 0.89112 
-0.0222209 -0.108916 1.04077 -0.00462575 0.466893 1.49003 0.260598 -0.139222 1.31739 
-0.0077781 0.370871 1.46601 -0.294547 0.256178 1.58718 0.193086 -0.0808686 1.22525 
-0.228837 0.0469502 1.47426 0.161274 0.219847 0.974387 -0.26932 -0.0940314 0.954876 
-0.158979 -0.120383 0.684143 -0.304078 0.0341699 1.26494 -0.251042 -0.457144 0.93373 
0.718218 0.780136 1.52208 0.721214 0.055227 1.1281 -0.323837 0.0643913 1.34794 
0.0604962 0.228662 1.54081 0.360079 -0.0187309 1.26021 0.583343 0.46095 0.858511 
0.133677 -0.32525 1.28361 0.00493031 0.377221 1.51894 -0.0486592 0.772244 1.32787 
0.01974 -0.112841 1.35436 -0.115624 -0.0959145 1.36297 0.022011 0.735928 1.55076 
0.00288781 0.447673 1.28326 -0.303488 -0.170881 1.28276 0.0244386 -0.031023 0.70671 
-0.522199 -0.170067 1.05674 -0.187679 -0.250224 1.21206 -0.0964846 -0.448371 1.2398 
-0.420393 -0.459968 1.16646 -0.804527 -0.0696929 1.14441 -0.413568 -0.0156057 1.11042 
0.111626 0.0781936 1.21378 -0.387902 0.604212 1.03007 0.0349432 -0.157448 1.2099 
-0.420759 -0.259222 1.5227 0.349575 -0.406982 1.72035 -0.139946 0.101487 1.02474 
-0.00346475 0.378952 1.31504 0.0421107 0.811572 0.732333 0.578893 0.230206 1.37976 
-0.439896 -0.335452 1.48256 -0.159054 0.0431328 1.25382 -0.0127533 -0.246201 1.24999 
-0.0125403 -0.175012 1.30634 0.280454 -0.0709812 1.83021 0.394584 -0.681532 1.70418 
-0.0173452 -0.10998 1.30842 0.258954 -0.286202 1.50764 -0.0155353 0.303155 1.53436 
0.139717 0.102597 1.43212 -0.390561 0.0893767 1.58117 -0.0177588 -0.56524 1.46891 
-0.467437 -0.154704 1.10798 -0.492277 -0.441217 1.50058 0.315631 0.380729 1.29002 
0.0473797 -0.111102 1.17797 0.110225 0.266103 1.29055 -0.192097 -0.29047 1.10205 
-0.110016 0.532296 1.40211 -0.054102 -0.298716 1.26883 0.335204 -0.0728314 1.15658 
0.0428338 -0.0143799 1.43793 0.00218146 0.164895 1.5317 -0.256239 -0.238118 1.41689 
0.152619 0.0115233 1.31831 0.0719079 -0.464435 1.58366 0.194037 -0.253977 1.40169 
0.487213 -0.142708 1.59674 0.035095 -0.460649 1.54502 -0.150503 -0.843147 1.62127 
0.408322 0.275174 1.3327 0.154259 0.221771 1.50482 0.122724 -0.0629875 1.04674 
-0.194986 0.300845 1.24542 0.0283751 -0.257149 1.52174 0.174597 -0.199961 1.556 
0.226649 0.0195713 1.65355 -0.0957578 0.12053 1.8678 -0.100393 0.395198 1.59064 
0.297762 -0.131998 1.46882 0.0271323 0.313636 1.12228 0.0399251 0.164241 0.859953 
-0.111499 0.166055 1.13967 -0.211442 0.0866479 0.79354 0.00700369 -0.158031 0.869525 
-0.151399 -0.222288 0.983826 -0.0141025 -0.48426 1.31226 0.19653 -0.0234006 0.815646 
0.350034 0.00286084 0.98985 0.336674 0.0731117 1.39201 -0.580234 0.210285 1.10129 
-0.0871854 -0.503753 1.0622 0.672515 0.349279 1.25613 0.276581 0.271854 0.669202 
0.0922903 0.571076 1.09557 0.141797 0.125272 1.02793 -0.183768 0.0341251 1.17897 
0.373386 -0.321589 1.46 0.290211 -0.450439 1.57014 -0.221441 0.138824 1.41933 
0.0438904 0.542921 0.92564 -0.350497 0.614822 1.33553 0.228387 0.433517 1.84232 
0.275982 -0.00987256 1.17006 0.147527 -0.234394 1.40378 0.481498 0.614087 1.97808 
-0.606074 -0.311415 1.47487 -0.307503 0.314283 1.26439 -0.281208 0.176608 1.21411 
-0.313891 -0.0518848 1.61144 0.0424856 -0.195256 1.28984 -0.420676 0.320131 1.66559 
0.0911743 0.371016 1.54943 0.196502 -0.292247 1.37642 -0.338216 -0.337088 1.45371 
0.357743 0.0936947 1.81853 0.287516 0.0424195 2.14907 -0.25874 0.0828562 1.41229 
-0.640858 0.0812945 1.1699 0.106183 0.323944 2.04946 -0.475385 -0.109162 1.82403 
0.211174 -0.355052 1.25874 -0.343181 -0.246937 2.20189 0.488124 0.293817 1.67675 
-0.707771 0.266632 2.19938 -0.0741706 0.495313 1.71876 0.133693 -0.123511 1.40886 
-0.646786 -0.65202 2.08704 0.027283 -0.360536 1.53409 -0.276192 -0.153964 1.48902 
0.109585 -0.242967 1.53768 0.173222 -0.439527 1.49555 0.080872 0.0233538 1.86682 
0.0517715 -0.385548 1.81842 -0.119596 0.0605761 1.45658 -0.20567 0.231414 1.85489 
0.2711 0.00812613 2.02784 0.890698 0.233519 1.65178 0.178252 -0.35769 2.19405 
0.0206146 -0.0780914 1.73591 -0.289314 -0.49132 1.64995 -0.363006 -0.834899 1.7876 
-0.263368 0.678259 1.57752 0.162758 -0.510641 2.356 0.0443414 -0.293003 1.83456 
0.330234 -0.635541 2.26057 -0.234004 0.164917 1.89569 0.0499488 -0.302824 1.37048 
-0.569006 0.821976 1.99529 0.182558 0.824762 1.96185 0.617277 0.186825 1.78645 
0.145583 0.195702 1.60837 -0.267273 -0.406553 1.48471 -0.496804 -0.489573 1.17864 
-0.480501 0.322067 1.42509 -0.216037 0.660708 1.6505 0.0930148 0.172265 1.62277 
0.145007 -0.0932833 1.32511 -0.134082 -0.261311 1.83257 -0.561682 -0.559551 0.957121 
0.44056 0.107384 1.56551 -0.297479 0.352411 1.55643 -1.19635 -0.627693 1.74192 
-0.292511 -0.212096 1.83651 0.651694 0.750952 1.57369 -0.66008 0.193537 1.6233 
-0.21219 -0.125172 1.30484 -0.564724 0.490758 1.58376 -0.24429 0.891217 1.75569 
-0.256919 0.448049 1.60683 -0.0107933 0.0931554 1.73645 0.0893956 0.301412 1.76657 
0.268725 -0.140473 1.31112 -0.281097 -0.521895 1.58 0.0992436 -0.251499 1.85774 
0.0458019 0.0836177 1.69924 0.0603546 0.195812 1.88871 -0.427768 -0.0653105 2.01647 
-0.35209 -0.544802 2.15168 0.415472 -0.316598 1.77057 0.88929 0.530044 2.02688 
-0.889985 0.0760841 2.35562 0.247503 -0.069965 2.00867 -0.227081 0.188228 1.95452 
0.204703 0.536742 2.10805 -0.359675 -0.471251 1.79822 -0.798886 0.479948 2.4113 
0.291742 -0.05495 1.96384 -0.722367 -0.123111 2.25271 -0.304501 0.198228 2.07256 
-0.114773 0.0563809 2.11282 -0.0523068 -0.450069 1.96759 -0.375464 -0.358015 2.24564 
-0.594048 -0.789863 1.69405 0.116585 0.661309 1.89928 -0.519381 1.27672 1.22766 
0.522591 0.649994 2.32494 0.505034 0.13658 2.00309 -0.070697 0.321162 2.17169 
-0.220368 0.0227561 2.28332 -0.0496828 0.248266 2.73868 0.0130707 0.00107445 2.01144 
-0.578542 -0.162707 1.86282 0.192882 0.268711 2.43864 0.0654667 -0.739771 1.82724 
0.350607 0.343892 2.073 0.198062 -0.158884 2.35598 -0.00932567 0.36077 1.39675 
0.1892 0.449716 2.20776 0.0799552 -0.915095 1.82956 0.0427116 -1.11558 1.88987 
1.1594 0.278166 1.90366 0.895571 -0.881975 2.33968 -0.697931 -0.182071 2.47086 
0.262959 -0.441208 2.5953 -0.385694 -0.320945 2.30479 0.0499417 -0.0438393 2.14634 
-0.506355 -0.224915 2.01079 0.214847 -0.00698101 2.44406 0.562244 0.446085 2.13864 
1.15492 0.491478 2.53564 -0.728865 0.999279 2.7142 -0.0852892 -0.0139819 2.11916 
0.357264 -0.18937 2.51112 0.0209084 -0.426273 2.58741 -0.574382 -0.334595 2.31977 
0.231489 -0.661494 3.03463 -0.302101 0.0174008 2.30344 0.141311 0.718853 2.42631 
-1.20534 -0.156919 1.7141 1.23173 1.39753 2.59051 0.569717 0.715086 3.12806 
0.401219 0.567081 3.14449 0.435381 0.682518 3.62208 1.65987 0.645447 2.68859 

om 3 567 double
0 0 0 0 0 0 0 0 0 
0 0 0 0 0 0 0 0 0 
0 0 0 0 0 0 0 0 0 
0 0 0 0 0 0 0 0 0 
0 0 0 0 0 0 0 0 0 
0 0 0 0 0 0 0 0 0 
0 0 0 0 0 0 0 0 0 
0 0 0 0 0 0 0 0 0 
0 0 0 0 0 0 0 0 0 
0 0 0 0 0 0 0 0 0 
0 0 0 0 0 0 0 0 0 
0 0 0 0 0 0 0 0 0 
0 0 0 0 0 0 0 0 0 
0 0 0 0 0 0 0 0 0 
0 0 0 0 0 0 0 0 0 
0 0 0 0 0 0 0 0 0 
0 0 0 0 0 0 0 0 0 
0 0 0 0 0 0 0 0 0 
0 0 0 0 0 0 0 0 0 
0 0 0 0 0 0 0 0 0 
0 0 0 0 0 0 0 0 0 
0 0 0 0 0 0 0 0 0 
0 0 0 0 0 0 0 0 0 
0 0 0 0 0 0 0 0 0 
0 0 0 0 0 0 0 0 0 
0 0 0 0 0 0 0 0 0 
0 0 0 0 0 0 0 0 0 
0 0 0 0 0 0 0 0 0 
0 0 0 0 0 0 0 0 0 
0 0 0 0 0 0 0 0 0 
0 0 0 0 0 0 0 0 0 
0 0 0 0 0 0 0 0 0 
0 0 0 0 0 0 0 0 0 
0 0 0 0 0 0 0 0 0 
0 0 0 0 0 0 0 0 0 
0 0 0 0 0 0 0 0 0 
0 0 0 0 0 0 0 0 0 
0 0 0 0 0 0 0 0 0 
0 0 0 0 0 0 0 0 0 
0 0 0 0 0 0 0 0 0 
0 0 0 0 0 0 0 0 0 
0 0 0 0 0 0 0 0 0 
0 0 0 0 0 0 0 0 0 
0 0 0 0 0 0 0 0 0 
0 0 0 0 0 0 0 0 0 
0 0 0 0 0 0 0 0 0 
0 0 0 0 0 0 0 0 0 
0 0 0 0 0 0 0 0 0 
0 0 0 0 0 0 0 0 0 
0 0 0 0 0 0 0 0 0 
0 0 0 0 0 0 0 0 0 
0 0 0 0 0 0 0 0 0 
0 0 0 0 0 0 0 0 0 
0 0 0 0 0 0 0 0 0 
0 0 0 0 0 0 0 0 0 
0 0 0 0 0 0 0 0 0 
0 0 0 0 0 0 0 0 0 
0 0 0 0 0 0 0 0 0 
0 0 0 0 0 0 0 0 0 
0 0 0 0 0 0 0 0 0 
0 0 0 0 0 0 0 0 0 
0 0 0 0 0 0 0 0 0 
0 0 0 0 0 0 0 0 0 
0 0 0 0 0 0 0 0 0 
0 0 0 0 0 0 0 0 0 
0 0 0 0 0 0 0 0 0 
0 0 0 0 0 0 0 0 0 
0 0 0 0 0 0 0 0 0 
0 0 0 0 0 0 0 0 0 
0 0 0 0 0 0 0 0 0 
0 0 0 0 0 0 0 0 0 
0 0 0 0 0 0 0 0 0 
0 0 0 0 0 0 0 0 0 
0 0 0 0 0 0 0 0 0 
0 0 0 0 0 0 0 0 0 
0 0 0 0 0 0 0 0 0 
0 0 0 0 0 0 0 0 0 
0 0 0 0 0 0 0 0 0 
0 0 0 0 0 0 0 0 0 
0 0 0 0 0 0 0 0 0 
0 0 0 0 0 0 0 0 0 
0 0 0 0 0 0 0 0 0 
0 0 0 0 0 0 0 0 0 
0 0 0 0 0 0 0 0 0 
0 0 0 0 0 0 0 0 0 
0 0 0 0 0 0 0 0 0 
0 0 0 0 0 0 0 0 0 
0 0 0 0 0 0 0 0 0 
0 0 0 0 0 0 0 0 0 
0 0 0 0 0 0 0 0 0 
0 0 0 0 0 0 0 0 0 
0 0 0 0 0 0 0 0 0 
0 0 0 0 0 0 0 0 0 
0 0 0 0 0 0 0 0 0 
0 0 0 0 0 0 0 0 0 
0 0 0 0 0 0 0 0 0 
0 0 0 0 0 0 0 0 0 
0 0 0 0 0 0 0 0 0 
0 0 0 0 0 0 0 0 0 
0 0 0 0 0 0 0 0 0 
0 0 0 0 0 0 0 0 0 
0 0 0 0 0 0 0 0 0 
0 0 0 0 0 0 0 0 0 
0 0 0 0 0 0 0 0 0 
0 0 0 0 0 0 0 0 0 
0 0 0 0 0 0 0 0 0 
0 0 0 0 0 0 0 0 0 
0 0 0 0 0 0 0 0 0 
0 0 0 0 0 0 0 0 0 
0 0 0 0 0 0 0 0 0 
0 0 0 0 0 0 0 0 0 
0 0 0 0 0 0 0 0 0 
0 0 0 0 0 0 0 0 0 
0 0 0 0 0 0 0 0 0 
0 0 0 0 0 0 0 0 0 
0 0 0 0 0 0 0 0 0 
0 0 0 0 0 0 0 0 0 
0 0 0 0 0 0 0 0 0 
0 0 0 0 0 0 0 0 0 
0 0 0 0 0 0 0 0 0 
0 0 0 0 0 0 0 0 0 
0 0 0 0 0 0 0 0 0 
0 0 0 0 0 0 0 0 0 
0 0 0 0 0 0 0 0 0 
0 0 0 0 0 0 0 0 0 
0 0 0 0 0 0 0 0 0 
0 0 0 0 0 0 0 0 0 
0 0 0 0 0 0 0 0 0 
0 0 0 0 0 0 0 0 0 
0 0 0 0 0 0 0 0 0 
0 0 0 0 0 0 0 0 0 
0 0 0 0 0 0 0 0 0 
0 0 0 0 0 0 0 0 0 
0 0 0 0 0 0 0 0 0 
0 0 0 0 0 0 0 0 0 
0 0 0 0 0 0 0 0 0 
0 0 0 0 0 0 0 0 0 
0 0 0 0 0 0 0 0 0 
0 0 0 0 0 0 0 0 0 
0 0 0 0 0 0 0 0 0 
0 0 0 0 0 0 0 0 0 
0 0 0 0 0 0 0 0 0 
0 0 0 0 0 0 0 0 0 
0 0 0 0 0 0 0 0 0 
0 0 0 0 0 0 0 0 0 
0 0 0 0 0 0 0 0 0 
0 0 0 0 0 0 0 0 0 
0 0 0 0 0 0 0 0 0 
0 0 0 0 0 0 0 0 0 
0 0 0 0 0 0 0 0 0 
0 0 0 0 0 0 0 0 0 
0 0 0 0 0 0 0 0 0 
0 0 0 0 0 0 0 0 0 
0 0 0 0 0 0 0 0 0 
0 0 0 0 0 0 0 0 0 
0 0 0 0 0 0 0 0 0 
0 0 0 0 0 0 0 0 0 
0 0 0 0 0 0 0 0 0 
0 0 0 0 0 0 0 0 0 
0 0 0 0 0 0 0 0 0 
0 0 0 0 0 0 0 0 0 
0 0 0 0 0 0 0 0 0 
0 0 0 0 0 0 0 0 0 
0 0 0 0 0 0 0 0 0 
0 0 0 0 0 0 0 0 0 
0 0 0 0 0 0 0 0 0 
0 0 0 0 0 0 0 0 0 
0 0 0 0 0 0 0 0 0 
0 0 0 0 0 0 0 0 0 
0 0 0 0 0 0 0 0 0 
0 0 0 0 0 0 0 0 0 
0 0 0 0 0 0 0 0 0 
0 0 0 0 0 0 0 0 0 
0 0 0 0 0 0 0 0 0 
0 0 0 0 0 0 0 0 0 
0 0 0 0 0 0 0 0 0 
0 0 0 0 0 0 0 0 0 
0 0 0 0 0 0 0 0 0 
0 0 0 0 0 0 0 0 0 
0 0 0 0 0 0 0 0 0 
0 0 0 0 0 0 0 0 0 
0 0 0 0 0 0 0 0 0 
0 0 0 0 0 0 0 0 0 
0 0 0 0 0 0 0 0 0 
0 0 0 0 0 0 0 0 0 
0 0 0 0 0 0 0 0 0 
0 0 0 0 0 0 0 0 0 
0 0 0 0 0 0 0 0 0 
0 0 0 0 0 0 0 0 0 

bottom 1 567 double
-0.0317114 -0.0317114 -0.0317114 -0.0317114 -0.0317114 -0.0317114 -0.0317114 -0.0317114 -0.0317114 
-0.0317114 -0.0317114 -0.0317114 -0.0317114 -0.0317114 -0.0317114 -0.0317114 -0.0317114 -0.0317114 
-0.0317114 -0.0317114 -0.0317114 -0.0317114 -0.0317114 -0.0317114 -0.0317114 -0.0317114 -0.0317114 
-0.0317114 -0.0317114 -0.0317114 -0.0317114 -0.0317114 -0.0317114 -0.0317114 -0.0317114 -0.0317114 
-0.0317114 -0.0317114 -0.0317114 -0.0317114 -0.0317114 -0.0317114 -0.0317114 -0.0317114 -0.0317114 
-0.0317114 -0.0317114 -0.0317114 -0.0317114 -0.0317114 -0.0317114 -0.0317114 -0.0317114 -0.0317114 
-0.0317114 -0.0317114 -0.0317114 -0.0317114 -0.0317114 -0.0317114 -0.0317114 -0.0317114 -0.0317114 
-0.0317114 -0.0317114 -0.0317114 -0.0317114 -0.0317114 -0.0317114 -0.0317114 -0.0317114 -0.0317114 
-0.0317114 -0.0317114 -0.0317114 -0.0317114 -0.0317114 -0.0317114 -0.0317114 -0.0317114 -0.0317114 
-0.0317114 -0.0317114 -0.0317114 -0.0317114 -0.0317114 -0.0317114 -0.0317114 -0.0317114 -0.0317114 
-0.0317114 -0.0317114 -0.0317114 -0.0317114 -0.0317114 -0.0317114 -0.0317114 -0.0317114 -0.0317114 
-0.0317114 -0.0317114 -0.0317114 -0.0317114 -0.0317114 -0.0317114 -0.0317114 -0.0317114 -0.0317114 
-0.0317114 -0.0317114 -0.0317114 -0.0317114 -0.0317114 -0.0317114 -0.0317114 -0.0317114 -0.0317114 
-0.0317114 -0.0317114 -0.0317114 -0.0317114 -0.0317114 -0.0317114 -0.0317114 -0.0317114 -0.0317114 
-0.0317114 -0.0317114 -0.0317114 -0.0317114 -0.0317114 -0.0317114 -0.0317114 -0.0317114 -0.0317114 
-0.0317114 -0.0317114 -0.0317114 -0.0317114 -0.0317114 -0.0317114 -0.0317114 -0.0317114 -0.0317114 
-0.0317114 -0.0317114 -0.0317114 -0.0317114 -0.0317114 -0.0317114 -0.0317114 -0.0317114 -0.0317114 
-0.0317114 -0.0317114 -0.0317114 -0.0317114 -0.0317114 -0.0317114 -0.0317114 -0.0317114 -0.0317114 
-0.0317114 -0.0317114 -0.0317114 -0.0317114 -0.0317114 -0.0317114 -0.0317114 -0.0317114 -0.0317114 
-0.0317114 -0.0317114 -0.0317114 -0.0317114 -0.0317114 -0.0317114 -0.0317114 -0.0317114 -0.0317114 
-0.0317114 -0.0317114 -0.0317114 -0.0317114 -0.0317114 -0.0317114 -0.0317114 -0.0317114 -0.0317114 
-0.0317114 -0.0317114 -0.0317114 -0.0317114 -0.0317114 -0.0317114 -0.0317114 -0.0317114 -0.0317114 
-0.0317114 -0.0317114 -0.0317114 -0.0317114 -0.0317114 -0.0317114 -0.0317114 -0.0317114 -0.0317114 
-0.0317114 -0.0317114 -0.0317114 -0.0317114 -0.0317114 -0.0317114 -0.0317114 -0.0317114 -0.0317114 
-0.0317114 -0.0317114 -0.0317114 -0.0317114 -0.0317114 -0.0317114 -0.0317114 -0.0317114 -0.0317114 
-0.0317114 -0.0317114 -0.0317114 -0.0317114 -0.0317114 -0.0317114 -0.0317114 -0.0317114 -0.0317114 
-0.0317114 -0.0317114 -0.0317114 -0.0317114 -0.0317114 -0.0317114 -0.0317114 -0.0317114 -0.0317114 
-0.0317114 -0.0317114 -0.0317114 -0.0317114 -0.0317114 -0.0317114 -0.0317114 -0.0317114 -0.0317114 
-0.0317114 -0.0317114 -0.0317114 -0.0317114 -0.0317114 -0.0317114 -0.0317114 -0.0317114 -0.0317114 
-0.0317114 -0.0317114 -0.0317114 -0.0317114 -0.0317114 -0.0317114 -0.0317114 -0.0317114 -0.0317114 
-0.0317114 -0.0317114 -0.0317114 -0.0317114 -0.0317114 -0.0317114 -0.0317114 -0.0317114 -0.0317114 
-0.0317114 -0.0317114 -0.0317114 -0.0317114 -0.0317114 -0.0317114 -0.0317114 -0.0317114 -0.0317114 
-0.0317114 -0.0317114 -0.0317114 -0.0317114 -0.0317114 -0.0317114 -0.0317114 -0.0317114 -0.0317114 
-0.0317114 -0.0317114 -0.0317114 -0.0317114 -0.0317114 -0.0317114 -0.0317114 -0.0317114 -0.0317114 
-0.0317114 -0.0317114 -0.0317114 -0.0317114 -0.0317114 -0.0317114 -0.0317114 -0.0317114 -0.0317114 
-0.0317114 -0.0317114 -0.0317114 -0.0317114 -0.0317114 -0.0317114 -0.0317114 -0.0317114 -0.0317114 
-0.0317114 -0.0317114 -0.0317114 -0.0317114 -0.0317114 -0.0317114 -0.0317114 -0.0317114 -0.0317114 
-0.0317114 -0.0317114 -0.0317114 -0.0317114 -0.0317114 -0.0317114 -0.0317114 -0.0317114 -0.0317114 
-0.0317114 -0.0317114 -0.0317114 -0.0317114 -0.0317114 -0.0317114 -0.0317114 -0.0317114 -0.0317114 
-0.0317114 -0.0317114 -0.0317114 -0.0317114 -0.0317114 -0.0317114 -0.0317114 -0.0317114 -0.0317114 
-0.0317114 -0.0317114 -0.0317114 -0.0317114 -0.0317114 -0.0317114 -0.0317114 -0.0317114 -0.0317114 
-0.0317114 -0.0317114 -0.0317114 -0.0317114 -0.0317114 -0.0317114 -0.0317114 -0.0317114 -0.0317114 
-0.0317114 -0.0317114 -0.0317114 -0.0317114 -0.0317114 -0.0317114 -0.0317114 -0.0317114 -0.0317114 
-0.0317114 -0.0317114 -0.0317114 -0.0317114 -0.0317114 -0.0317114 -0.0317114 -0.0317114 -0.0317114 
-0.0317114 -0.0317114 -0.0317114 -0.0317114 -0.0317114 -0.0317114 -0.0317114 -0.0317114 -0.0317114 
-0.0317114 -0.0317114 -0.0317114 -0.0317114 -0.0317114 -0.0317114 -0.0317114 -0.0317114 -0.0317114 
-0.0317114 -0.0317114 -0.0317114 -0.0317114 -0.0317114 -0.0317114 -0.0317114 -0.0317114 -0.0317114 
-0.0317114 -0.0317114 -0.0317114 -0.0317114 -0.0317114 -0.0317114 -0.0317114 -0.0317114 -0.0317114 
-0.0317114 -0.0317114 -0.0317114 -0.0317114 -0.0317114 -0.0317114 -0.0317114 -0.0317114 -0.0317114 
-0.0317114 -0.0317114 -0.0317114 -0.0317114 -0.0317114 -0.0317114 -0.0317114 -0.0317114 -0.0317114 
-0.0317114 -0.0317114 -0.0317114 -0.0317114 -0.0317114 -0.0317114 -0.0317114 -0.0317114 -0.0317114 
-0.0317114 -0.0317114 -0.0317114 -0.0317114 -0.0317114 -0.0317114 -0.0317114 -0.0317114 -0.0317114 
-0.0317114 -0.0317114 -0.0317114 -0.0317114 -0.0317114 -0.0317114 -0.0317114 -0.0317114 -0.0317114 
-0.0317114 -0.0317114 -0.0317114 -0.0317114 -0.0317114 -0.0317114 -0.0317114 -0.0317114 -0.0317114 
-0.0317114 -0.0317114 -0.0317114 -0.0317114 -0.0317114 -0.0317114 -0.0317114 -0.0317114 -0.0317114 
-0.0317114 -0.0317114 -0.0317114 -0.0317114 -0.0317114 -0.0317114 -0.0317114 -0.0317114 -0.0317114 
-0.0317114 -0.0317114 -0.0317114 -0.0317114 -0.0317114 -0.0317114 -0.0317114 -0.0317114 -0.0317114 
-0.0317114 -0.0317114 -0.0317114 -0.0317114 -0.0317114 -0.0317114 -0.0317114 -0.0317114 -0.0317114 
-0.0317114 -0.0317114 -0.0317114 -0.0317114 -0.0317114 -0.0317114 -0.0317114 -0.0317114 -0.0317114 
-0.0317114 -0.0317114 -0.0317114 -0.0317114 -0.0317114 -0.0317114 -0.0317114 -0.0317114 -0.0317114 
-0.0317114 -0.0317114 -0.0317114 -0.0317114 -0.0317114 -0.0317114 -0.0317114 -0.0317114 -0.0317114 
-0.0317114 -0.0317114 -0.0317114 -0.0317114 -0.0317114 -0.0317114 -0.0317114 -0.0317114 -0.0317114 
-0.0317114 -0.0317114 -0.0317114 -0.0317114 -0.0317114 -0.0317114 -0.0317114 -0.0317114 -0.0317114 

top 1 567 double
0.0682886 0.0682886 0.0682886 0.0682886 0.0682886 0.0682886 0.0682886 0.0682886 0.0682886 
0.0682886 0.0682886 0.0682886 0.0682886 0.0682886 0.0682886 0.0682886 0.0682886 0.0682886 
0.0682886 0.0682886 0.0682886 0.0682886 0.0682886 0.0682886 0.0682886 0.0682886 0.0682886 
0.0682886 0.0682886 0.0682886 0.0682886 0.0682886 0.0682886 0.0682886 0.0682886 0.0682886 
0.0682886 0.0682886 0.0682886 0.0682886 0.0682886 0.0682886 0.0682886 0.0682886 0.0682886 
0.0682886 0.0682886 0.0682886 0.0682886 0.0682886 0.0682886 0.0682886 0.0682886 0.0682886 
0.0682886 0.0682886 0.0682886 0.0682886 0.0682886 0.0682886 0.0682886 0.0682886 0.0682886 
0.0682886 0.0682886 0.0682886 0.0682886 0.0682886 0.0682886 0.0682886 0.0682886 0.0682886 
0.0682886 0.0682886 0.0682886 0.0682886 0.0682886 0.0682886 0.0682886 0.0682886 0.0682886 
0.0682886 0.0682886 0.0682886 0.0682886 0.0682886 0.0682886 0.0682886 0.0682886 0.0682886 
0.0682886 0.0682886 0.0682886 0.0682886 0.0682886 0.0682886 0.0682886 0.0682886 0.0682886 
0.0682886 0.0682886 0.0682886 0.0682886 0.0682886 0.0682886 0.0682886 0.0682886 0.0682886 
0.0682886 0.0682886 0.0682886 0.0682886 0.0682886 0.0682886 0.0682886 0.0682886 0.0682886 
0.0682886 0.0682886 0.0682886 0.0682886 0.0682886 0.0682886 0.0682886 0.0682886 0.0682886 
0.0682886 0.0682886 0.0682886 0.0682886 0.0682886 0.0682886 0.0682886 0.0682886 0.0682886 
0.0682886 0.0682886 0.0682886 0.0682886 0.0682886 0.0682886 0.0682886 0.0682886 0.0682886 
0.0682886 0.0682886 0.0682886 0.0682886 0.0682886 0.0682886 0.0682886 0.0682886 0.0682886 
0.0682886 0.0682886 0.0682886 0.0682886 0.0682886 0.0682886 0.0682886 0.0682886 0.0682886 
0.0682886 0.0682886 0.0682886 0.0682886 0.0682886 0.0682886 0.0682886 0.0682886 0.0682886 
0.0682886 0.0682886 0.0682886 0.0682886 0.0682886 0.0682886 0.0682886 0.0682886 0.0682886 
0.0682886 0.0682886 0.0682886 0.0682886 0.0682886 0.0682886 0.0682886 0.0682886 0.0682886 
0.0682886 0.0682886 0.0682886 0.0682886 0.0682886 0.0682886 0.0682886 0.0682886 0.0682886 
0.0682886 0.0682886 0.0682886 0.0682886 0.0682886 0.0682886 0.0682886 0.0682886 0.0682886 
0.0682886 0.0682886 0.0682886 0.0682886 0.0682886 0.0682886 0.0682886 0.0682886 0.0682886 
0.0682886 0.0682886 0.0682886 0.0682886 0.0682886 0.0682886 0.0682886 0.0682886 0.0682886 
0.0682886 0.0682886 0.0682886 0.0682886 0.0682886 0.0682886 0.0682886 0.0682886 0.0682886 
0.0682886 0.0682886 0.0682886 0.0682886 0.0682886 0.0682886 0.0682886 0.0682886 0.0682886 
0.0682886 0.0682886 0.0682886 0.0682886 0.0682886 0.0682886 0.0682886 0.0682886 0.0682886 
0.0682886 0.0682886 0.0682886 0.0682886 0.0682886 0.0682886 0.0682886 0.0682886 0.0682886 
0.0682886 0.0682886 0.0682886 0.0682886 0.0682886 0.0682886 0.0682886 0.0682886 0.0682886 
0.0682886 0.0682886 0.0682886 0.0682886 0.0682886 0.0682886 0.0682886 0.0682886 0.0682886 
0.0682886 0.0682886 0.0682886 0.0682886 0.0682886 0.0682886 0.0682886 0.0682886 0.0682886 
0.0682886 0.0682886 0.0682886 0.0682886 0.0682886 0.0682886 0.0682886 0.0682886 0.0682886 
0.0682886 0.0682886 0.0682886 0.0682886 0.0682886 0.0682886 0.0682886 0.0682886 0.0682886 
0.0682886 0.0682886 0.0682886 0.0682886 0.0682886 0.0682886 0.0682886 0.0682886 0.0682886 
0.0682886 0.0682886 0.0682886 0.0682886 0.0682886 0.0682886 0.0682886 0.0682886 0.0682886 
0.0682886 0.0682886 0.0682886 0.0682886 0.0682886 0.0682886 0.0682886 0.0682886 0.0682886 
0.0682886 0.0682886 0.0682886 0.0682886 0.0682886 0.0682886 0.0682886 0.0682886 0.0682886 
0.0682886 0.0682886 0.0682886 0.0682886 0.0682886 0.0682886 0.0682886 0.0682886 0.0682886 
0.0682886 0.0682886 0.0682886 0.0682886 0.0682886 0.0682886 0.0682886 0.0682886 0.0682886 
0.0682886 0.0682886 0.0682886 0.0682886 0.0682886 0.0682886 0.0682886 0.0682886 0.0682886 
0.0682886 0.0682886 0.0682886 0.0682886 0.0682886 0.0682886 0.0682886 0.0682886 0.0682886 
0.0682886 0.0682886 0.0682886 0.0682886 0.0682886 0.0682886 0.0682886 0.0682886 0.0682886 
0.0682886 0.0682886 0.0682886 0.0682886 0.0682886 0.0682886 0.0682886 0.0682886 0.0682886 
0.0682886 0.0682886 0.0682886 0.0682886 0.0682886 0.0682886 0.0682886 0.0682886 0.0682886 
0.0682886 0.0682886 0.0682886 0.0682886 0.0682886 0.0682886 0.0682886 0.0682886 0.0682886 
0.0682886 0.0682886 0.0682886 0.0682886 0.0682886 0.0682886 0.0682886 0.0682886 0.0682886 
0.0682886 0.0682886 0.0682886 0.0682886 0.0682886 0.0682886 0.0682886 0.0682886 0.0682886 
0.0682886 0.0682886 0.0682886 0.0682886 0.0682886 0.0682886 0.0682886 0.0682886 0.0682886 
0.0682886 0.0682886 0.0682886 0.0682886 0.0682886 0.0682886 0.0682886 0.0682886 0.0682886 
0.0682886 0.0682886 0.0682886 0.0682886 0.0682886 0.0682886 0.0682886 0.0682886 0.0682886 
0.0682886 0.0682886 0.0682886 0.0682886 0.0682886 0.0682886 0.0682886 0.0682886 0.0682886 
0.0682886 0.0682886 0.0682886 0.0682886 0.0682886 0.0682886 0.0682886 0.0682886 0.0682886 
0.0682886 0.0682886 0.0682886 0.0682886 0.0682886 0.0682886 0.0682886 0.0682886 0.0682886 
0.0682886 0.0682886 0.0682886 0.0682886 0.0682886 0.0682886 0.0682886 0.0682886 0.0682886 
0.0682886 0.0682886 0.0682886 0.0682886 0.0682886 0.0682886 0.0682886 0.0682886 0.0682886 
0.0682886 0.0682886 0.0682886 0.0682886 0.0682886 0.0682886 0.0682886 0.0682886 0.0682886 
0.0682886 0.0682886 0.0682886 0.0682886 0.0682886 0.0682886 0.0682886 0.0682886 0.0682886 
0.0682886 0.0682886 0.0682886 0.0682886 0.0682886 0.0682886 0.0682886 0.0682886 0.0682886 
0.0682886 0.0682886 0.0682886 0.0682886 0.0682886 0.0682886 0.0682886 0.0682886 0.0682886 
0.0682886 0.0682886 0.0682886 0.0682886 0.0682886 0.0682886 0.0682886 0.0682886 0.0682886 
0.0682886 0.0682886 0.0682886 0.0682886 0.0682886 0.0682886 0.0682886 0.0682886 0.0682886 
0.0682886 0.0682886 0.0682886 0.0682886 0.0682886 0.0682886 0.0682886 0.0682886 0.0682886 

