# vtk DataFile Version 4.0
vtk output
ASCII
DATASET POLYDATA
FIELD FieldData 4
domain 1 4 string
domain_min:-5|-5|-5
domain_max:5|5|5
cell_size:0.01|0.01|0.01
boundary:1|1|1

variables 1 8 string
T:0.795
dt:0.0005
A:17.2848
V:-0.834784
Z:-0.00478994
write_case:1
substeps:10
all_steps:1590

constants 1 11 string
L:0.1
csize:0.01
R:0.004
mass:0.00210445
E:2.06e+06
nu:0.33
M:20
freq:10
gamma:62.8319
S:78956.8
g:0|0|-9.81

equations 1 9 string
time:T=(T+dt)#true
eq:a=(dem_l(v,om,R,mass,E,nu,0.1)/mass)#true
tank_acceleration:A=(((-(transpose((fsum(a)*mass))*e_k))-(S*Z))/M)#true
iv:v=euler(v,((a+g)-(A*e_k)),dt)#true
ia:r=euler(r,v,dt)#true
tank_velocity:V=euler(V,A,dt)#true
tank_position:Z=euler(Z,V,dt)#true
bottom:bottom=(Z-0.05)#true
top:top=(Z+0.05)#true

POINTS 567 float
0.0341269 0.0228545 -0.0406865 -0.0114747 0.044737 -0.0410222 -0.0134749 -0.0418183 -0.0335935 
-0.00118637 -0.0438693 -0.0357441 0.0266341 -0.0455789 -0.0385572 0.0457361 -0.0443454 -0.0310406 
-0.0436592 -0.0352298 -0.0325182 0.0224475 -0.0376226 -0.0381537 0.0271465 -0.0352953 -0.0301235 
0.0329408 -0.0304902 -0.0389311 0.045336 -0.031519 -0.0305149 -0.0339818 -0.0253199 -0.0355926 
-0.0194277 -0.0233911 -0.0319901 -0.0139443 -0.0289643 -0.0354743 -0.00774445 -0.0208328 -0.0342673 
-0.00346058 -0.0289974 -0.0313547 0.018776 -0.0286579 -0.035142 0.0294354 -0.023696 -0.0379759 
-0.0408295 -0.0160677 -0.0321184 -0.00107454 -0.0157611 -0.0304316 -0.00815024 -0.0111947 -0.0310025 
0.0042815 -0.0111943 -0.0354746 0.0171249 -0.0135049 -0.0301722 -0.0332055 -0.00426672 -0.0311223 
-0.0278037 -0.00669585 -0.0385756 -0.0151795 -0.00837709 -0.0324238 -0.00118249 -0.000411741 -0.0342356 
0.00927588 -0.0048784 -0.0321421 0.0224443 -0.00733509 -0.0319972 0.0377775 -0.00601866 -0.0337634 
0.0454836 -0.00139547 -0.0358056 -0.045057 2.63755e-05 -0.0355314 0.0155896 0.00879422 -0.0345903 
0.0272813 0.00996834 -0.0309343 0.0347837 0.000896281 -0.0329898 0.045462 0.00886245 -0.0349624 
-0.04326 0.0171749 -0.0378154 -0.0246563 0.0176188 -0.0378485 0.0381545 0.0148889 -0.0301968 
-0.0299188 0.021423 -0.0301012 -0.0137346 0.0288727 -0.0350314 -0.00397377 0.0200935 -0.0344297 
0.013968 0.0255626 -0.0355306 0.0449076 0.0235546 -0.0354992 -0.00326157 0.0392595 -0.0304901 
0.0174337 0.0390757 -0.0359878 0.0440303 0.0379182 -0.0367134 -0.0344352 0.0455451 -0.0322802 
0.0340319 0.0408383 -0.0334479 0.0438274 0.0454595 -0.0335951 -0.0414972 -0.0459606 -0.0262742 
-0.0270008 -0.040842 -0.0235057 -0.0196416 -0.045627 -0.027053 -0.00377632 -0.0460726 -0.0214636 
0.00910872 -0.04559 -0.0269308 0.0300106 -0.0418218 -0.0246428 -0.0383934 -0.0383364 -0.0226909 
-0.0330223 -0.0310243 -0.0225783 -0.0261129 -0.0321773 -0.0296248 -0.00603716 -0.0380761 -0.0246302 
0.00929516 -0.0374868 -0.0282465 0.0397573 -0.0375527 -0.025539 -0.0446417 -0.0274367 -0.0288619 
-0.0188288 -0.0252889 -0.021856 0.00889765 -0.0262885 -0.028471 0.029185 -0.0259969 -0.0205498 
-0.0330885 -0.0168483 -0.0213467 -0.0258644 -0.0170526 -0.0269762 -0.0260702 -0.0120115 -0.0208516 
-0.00452768 -0.0158344 -0.0226488 0.0093288 -0.0112327 -0.0214624 0.0104329 -0.0174117 -0.0282353 
0.032755 -0.013155 -0.0265328 -0.0408248 -0.00902908 -0.0268643 -0.0232168 -0.00381421 -0.0297183 
-0.0164621 -0.00698716 -0.0236487 -0.000233744 -0.00223038 -0.0240563 -0.00947499 -0.00159152 -0.0207764 
0.00719575 -0.00217937 -0.0204377 0.00103734 -0.00940353 -0.0215579 0.0270444 -0.00038571 -0.0204877 
0.0351643 -0.00400376 -0.0246007 -0.0174245 0.00816209 -0.024463 -0.00870722 0.00497901 -0.0267492 
0.000167953 0.00578611 -0.0280473 0.0205761 0.00520669 -0.0240122 0.0375595 0.00793074 -0.0200988 
0.0454205 0.00474244 -0.0210836 -0.0276023 0.0177988 -0.0212162 -0.0187906 0.0186445 -0.0228587 
-0.00613703 0.013706 -0.0271427 0.00649223 0.010197 -0.0255378 0.0258031 0.0188419 -0.0295939 
0.0303653 0.0119167 -0.0232044 0.0441249 0.0143587 -0.021136 -0.045333 0.0269059 -0.0273391 
-0.0294024 0.0266429 -0.0237295 -0.0126312 0.0223051 -0.0268105 0.00115741 0.0264102 -0.0255656 
0.0120626 0.0205051 -0.0253397 0.027439 0.0273469 -0.0278475 0.039114 0.028109 -0.0290573 
0.0424424 0.0240785 -0.0207882 -0.0456364 0.0367523 -0.0239027 -0.0394231 0.0312715 -0.0209456 
-0.0381447 0.0347316 -0.0279965 -0.0268962 0.0333235 -0.0281364 -0.0105056 0.0309603 -0.0215762 
-0.0175109 0.0354004 -0.0227498 0.0147482 0.0302314 -0.0263131 0.0229419 0.0325986 -0.0209587 
0.0318535 0.0335864 -0.0243068 0.0434694 0.0375935 -0.0247056 -0.0434518 0.0448555 -0.0238867 
-0.0254736 0.0419125 -0.0238089 -0.00960625 0.0439642 -0.021746 0.0128394 0.0456966 -0.0294253 
0.0132562 0.0417982 -0.0213383 0.0212623 0.0432977 -0.0205932 0.0227426 0.0410836 -0.0283861 
-0.0450809 -0.0407727 -0.0187005 -0.0318644 -0.0456031 -0.0141851 -0.0122132 -0.0453056 -0.0166993 
-0.00414718 -0.0454829 -0.0118409 0.0122725 -0.0413752 -0.0148258 0.0215433 -0.04476 -0.0153766 
0.0412876 -0.0445882 -0.019 -0.0459858 -0.0335123 -0.0141081 -0.038339 -0.0348391 -0.0128621 
-0.025589 -0.038493 -0.01482 -0.00804216 -0.0376344 -0.0115097 -0.00477866 -0.0333406 -0.0169576 
0.00569305 -0.0354895 -0.0191263 0.0150012 -0.0345048 -0.018158 0.0281252 -0.0381659 -0.014622 
0.0225736 -0.0304366 -0.0175507 0.0374915 -0.0391941 -0.0137281 0.0349513 -0.0311418 -0.0190532 
-0.0428669 -0.0214113 -0.0169984 -0.0332133 -0.0290045 -0.0142592 -0.0256999 -0.0246375 -0.0163822 
-0.00809711 -0.0248719 -0.0176339 -0.000826747 -0.0249246 -0.0137979 0.00896843 -0.0289934 -0.0147557 
0.016356 -0.0241954 -0.0176468 0.0206099 -0.022121 -0.0103096 0.0338713 -0.0275658 -0.0101879 
0.0437055 -0.0227451 -0.0167281 -0.0461866 -0.0122142 -0.0134881 -0.0212908 -0.0185209 -0.0180963 
-0.0263892 -0.0158359 -0.0129955 -0.010308 -0.0142467 -0.0148987 -0.0172798 -0.0100963 -0.015569 
0.00161086 -0.0173407 -0.0126098 0.0170365 -0.0116049 -0.01747 0.0271468 -0.0131921 -0.0132695 
0.0322913 -0.0174441 -0.0168742 0.0401092 -0.0112302 -0.0196057 -0.0452983 -0.00315334 -0.016647 
-0.0244066 -0.00459424 -0.0159433 -0.0156002 -0.0021626 -0.0113344 0.00767475 -0.00882777 -0.0139661 
0.00136665 -0.000139214 -0.0121499 0.0165371 -0.000503592 -0.0194922 0.0229057 -0.00587875 -0.0163365 
0.0355033 -0.00680598 -0.0132555 -0.0415098 0.00618709 -0.0131326 -0.0311331 0.00157513 -0.0144607 
-0.0271481 0.00766703 -0.0188815 -0.0127401 0.00679452 -0.0170833 0.00850409 0.00783018 -0.0146953 
0.0254652 0.00575354 -0.0149683 -0.0419754 0.0144741 -0.0118684 -0.0352453 0.0117765 -0.018655 
-0.0285674 0.0112865 -0.0115946 -0.00223466 0.0179655 -0.0182576 0.00528534 0.0161076 -0.0135555 
0.0128103 0.0175816 -0.0162116 0.0193238 0.0119968 -0.013664 0.0224609 0.0189696 -0.0163075 
-0.0457503 0.0220913 -0.0124616 -0.0353968 0.0209322 -0.0191014 -0.0253963 0.029327 -0.0123354 
-0.0202728 0.0277982 -0.0184229 -0.0150547 0.0228903 -0.0121293 -0.00545913 0.0276223 -0.0119852 
0.00945796 0.0262793 -0.0133516 0.001414 0.0247821 -0.0158361 0.0170368 0.0265761 -0.0181109 
0.0290978 0.0245071 -0.017564 0.032814 0.0283833 -0.0103364 0.0418466 0.0214943 -0.011014 
0.0452408 0.0294415 -0.0148854 -0.0442583 0.0328363 -0.013772 -0.0314491 0.0380917 -0.0153073 
-0.0338633 0.030826 -0.0102185 -0.0247377 0.0347115 -0.0177907 -0.0126632 0.0358395 -0.0124476 
-0.0032398 0.0378958 -0.0191209 0.00731054 0.033502 -0.0179911 0.00150415 0.0315966 -0.010506 
0.0126256 0.0384063 -0.0133099 0.0364944 0.0302565 -0.0176645 0.0323545 0.039013 -0.0108963 
-0.0444744 0.0432254 -0.0110086 -0.0341993 0.0453299 -0.0127541 -0.0253673 0.0454711 -0.0149772 
-0.0178955 0.0439963 -0.0114254 -0.00744484 0.0425685 -0.0130378 0.00231879 0.0423912 -0.0131169 
0.0156312 0.0459211 -0.0121487 0.0329936 0.0455102 -0.0154704 0.040718 0.0451321 -0.0197839 
-0.0458963 -0.0449483 -0.00382116 -0.029904 -0.0442794 -0.0051746 -0.0182951 -0.0401961 -0.00645642 
-0.00140312 -0.0442435 -0.00336446 0.0159229 -0.0441466 -0.0004136 0.0266918 -0.0421945 -0.00602442 
0.0377508 -0.0434517 -0.00413889 -0.0459898 -0.0368399 -0.00626232 -0.0354595 -0.0374612 -0.00100843 
-0.0241573 -0.0340057 -0.00384625 -0.00951455 -0.0349408 -0.00239087 -0.000971214 -0.0331643 -0.00835245 
0.00651951 -0.0390833 -0.00810852 0.015545 -0.0379187 -0.00578772 0.0450114 -0.0379095 -0.00978765 
-0.0431866 -0.0275266 -0.00913347 -0.0327808 -0.0240755 -0.00159751 -0.0244066 -0.0245024 -0.00243851 
-0.0148023 -0.0236224 -0.00012495 -0.00680374 -0.0215317 -0.00287133 0.00934831 -0.0218258 -0.00834774 
0.00271005 -0.0245847 -0.00503644 0.0154212 -0.0247864 -0.00428552 0.0282935 -0.0282848 -0.00351127 
0.0436328 -0.0265865 -0.00264221 -0.0448828 -0.0195986 -0.00939579 -0.0361725 -0.0153842 -0.00976061 
-0.0290502 -0.011474 -0.00605826 -0.0123078 -0.017067 -0.0066922 -0.00357986 -0.0144819 -0.00352146 
0.0294318 -0.0120172 -0.00467589 0.0228843 -0.0194235 -0.0025698 0.0296921 -0.0196474 -0.00910732 
0.0365649 -0.0149469 -0.00707194 0.0448035 -0.0143493 -0.00743012 -0.0452829 -0.00231894 -0.00154561 
-0.0454974 -0.00501251 -0.00879815 -0.0372656 -0.00527778 -0.006842 -0.0207403 -0.00968839 -0.00720167 
-0.0259059 -0.00249886 -0.00218049 -0.000558264 -0.0085275 -0.00880906 -0.00666458 -0.00626888 -0.00333821 
0.0136203 -0.0088356 -0.0068148 0.0385267 -0.00612517 -0.000319731 0.0435755 -0.00111363 -0.00984121 
-0.0260277 0.00674899 -0.00450187 -0.00730188 0.00501284 -0.00509594 0.00937219 0.000916734 -0.00578899 
0.0210566 0.005429 -0.00438503 0.0299229 0.00973312 -0.00717387 0.0304993 0.000670709 -0.00851166 
0.0402731 0.0074998 -0.00220676 -0.0457412 0.0170898 -0.000556933 -0.0318547 0.0184753 -0.00835829 
-0.037961 0.013881 -0.0021706 -0.0273084 0.0149965 -0.00174401 -0.0209225 0.0145453 -0.00774762 
-0.0112545 0.0102604 -0.009689 -0.00815452 0.0158244 -0.00419035 0.000896818 0.0111185 -0.00392333 
0.006027 0.0192876 -0.00526534 0.0239979 0.0156444 -0.0073126 0.0364172 0.0144243 -0.00700347 
0.0461612 0.0109523 -0.00633636 -0.0417567 0.0238245 -0.00525901 -0.0242983 0.0223889 -0.00899871 
-0.0262206 0.0280484 -0.0023731 -0.0149478 0.0293221 -0.00477067 -0.000234966 0.0238537 -0.00495774 
0.0109556 0.0261203 -0.00503243 0.0237157 0.0245342 -0.00624118 0.0294229 0.021101 -0.00118848 
0.0448403 0.0226683 -0.00322862 -0.0441215 0.0357879 -0.00252054 -0.0361475 0.0385705 -0.00736994 
-0.0208621 0.03635 -0.00843072 -0.00525879 0.0355154 -0.00956144 0.00329275 0.0342371 -0.00230575 
0.0117633 0.0381824 -0.0042084 0.0239868 0.0320892 -0.00372807 0.0324458 0.0358315 -0.0022479 
0.0447125 0.0374926 -0.00100271 0.0426432 0.0398368 -0.00811269 -0.0382215 0.045404 -0.000677535 
-0.028758 0.0450728 -0.000785281 -0.0269184 0.0412779 -0.00818364 -0.0200903 0.0437223 -0.00345225 
0.00104941 0.0420143 -0.000647976 0.00779284 0.0454903 -0.00707835 0.0242572 0.0403973 -0.00755893 
0.0459158 0.0459185 -0.00192591 -0.0361302 -0.0441528 0.00340404 -0.0240985 -0.0439876 0.00567901 
-0.0121227 -0.041478 0.00277985 0.00634489 -0.0433111 0.000827103 0.0128316 -0.0460349 0.00731934 
0.0373192 -0.0445475 0.0064182 0.0452412 -0.0439683 0.00814515 0.0458298 -0.041326 0.000374246 
-0.0411609 -0.0362174 0.00533566 -0.0036375 -0.0359337 0.00596275 0.00145198 -0.0322929 0.000174105 
0.0124069 -0.0309052 0.00126712 0.0180472 -0.038672 0.00836814 0.0103677 -0.0368469 0.00735318 
0.040115 -0.0367033 0.00339975 -0.0414707 -0.0223087 0.00301502 -0.022615 -0.0205445 0.00414564 
-0.0156799 -0.0207361 0.00809334 -0.0035076 -0.0259079 0.0062104 0.00667692 -0.021228 0.00968148 
0.0190948 -0.0210721 0.00599735 0.0252548 -0.0279031 0.0044513 0.035501 -0.0249911 3.62012e-05 
0.0339347 -0.024741 0.0093624 0.0425635 -0.0264063 0.0055523 -0.0440259 -0.0103213 0.0021857 
-0.0457979 -0.0176008 0.00826611 -0.0328084 -0.0167716 0.00127611 -0.0157773 -0.0112263 0.00264315 
0.00876684 -0.015949 0.00111938 0.0289932 -0.0154611 0.00612048 0.0225916 -0.0107786 0.000162415 
0.0385343 -0.0185086 0.00700883 0.0449798 -0.0113212 0.00392038 -0.0407635 -0.000683198 0.00602908 
-0.0301982 -0.00716717 0.00267011 -0.0320486 -0.00128928 0.00798644 -0.0223849 -0.00778932 0.00554712 
-0.00849814 -0.00950267 0.00506719 -0.00234103 -0.00246453 0.00389216 0.00355084 -0.00839036 0.00603415 
0.0101296 -0.00173708 0.00775977 0.046072 -0.00115618 1.51885e-05 -0.0440962 0.00868292 0.00130682 
-0.0353541 0.00616739 0.000627819 -0.0339137 0.00911013 0.00816005 -0.0184602 0.000801084 0.000184166 
-0.0106749 2.5471e-05 0.00446633 -0.0193095 0.00344761 0.00797771 -0.00203568 0.00806402 0.00323512 
0.00314913 0.00289883 0.00614063 0.0174039 0.0050286 0.00791963 0.0332027 0.00810815 0.00969116 
0.0325081 0.000773292 0.00603024 -0.0437338 0.0117423 0.00846412 -0.0336162 0.0169559 0.00922876 
-0.0245023 0.0117469 0.00816768 -0.0110375 0.0199993 0.007416 -0.0195862 0.0162245 0.00373648 
-0.00501677 0.0149077 0.00638281 0.00939544 0.0167986 0.0024163 0.0213246 0.0181818 0.00422817 
0.0371739 0.0151054 0.00349457 0.0460302 0.0164183 0.00544295 -0.0344685 0.0278154 0.000150292 
-0.038155 0.0232421 0.00603966 -0.0292623 0.0234562 0.00431946 -0.0171076 0.0264669 0.00235089 
-0.00328584 0.0299474 0.00530477 -0.00220094 0.0218055 0.00412838 0.00700404 0.0240535 0.00204586 
0.0149422 0.0224809 0.00349666 0.0235555 0.0269198 0.00711224 0.0305415 0.0294715 0.00273037 
0.0348637 0.0249376 0.00764643 -0.0368458 0.0382999 0.00618911 -0.0312319 0.0352498 0.00106028 
-0.0218766 0.0319823 0.00706016 -0.0251337 0.0394196 0.00447092 -0.0170486 0.0358148 0.000336578 
-0.00909613 0.0368183 0.00520835 0.00424026 0.0310115 0.00665824 0.0131939 0.0321222 0.00072634 
0.0256008 0.0395631 0.000915292 0.0214776 0.0353744 0.00647013 0.0367137 0.0361679 0.00824081 
-0.0460652 0.0434947 0.00258604 -0.0398643 0.0453644 0.00819233 -0.017082 0.0430281 0.00477959 
0.00622919 0.0427056 0.00686551 0.01673 0.0413882 0.00799549 0.0359216 0.0431802 0.00286331 
-0.0450322 -0.0437695 0.0151457 -0.0302661 -0.0420757 0.0155542 -0.0209054 -0.0431321 0.0178356 
-0.0134263 -0.0440534 0.0134965 0.00591608 -0.0445172 0.0129149 0.0299092 -0.0432031 0.0125962 
0.0215527 -0.0461416 0.0149928 0.0412143 -0.0409619 0.0185339 -0.0323437 -0.0338007 0.0116662 
-0.0250058 -0.0360647 0.0158781 -0.0101269 -0.0345466 0.0157036 0.0161914 -0.0373096 0.0159537 
0.0341414 -0.0346129 0.0119604 -0.0287171 -0.020016 0.0191419 -0.0258808 -0.0280345 0.0166537 
-0.00425251 -0.0296934 0.0154421 -0.00484571 -0.0218689 0.014833 0.00993128 -0.0244634 0.0181528 
0.00339238 -0.0293664 0.011 0.0162833 -0.0297562 0.0176869 0.0216696 -0.0226253 0.0132133 
0.0262926 -0.0287268 0.0145317 0.0394615 -0.0298777 0.0151962 0.0420545 -0.0220507 0.0194935 
-0.0378906 -0.013418 0.0106837 -0.0257743 -0.0110167 0.0156471 -0.0189131 -0.0168225 0.014992 
-0.00340208 -0.0115338 0.011102 -0.00849566 -0.0107549 0.0178264 0.0127547 -0.0133864 0.018633 
-0.0444504 -0.00892865 0.0123957 -0.0460723 -0.000262717 0.0195137 -0.0381501 -0.00374241 0.0163065 
-0.0298277 -0.00217215 0.0170786 -0.0145209 -0.00234853 0.0113147 0.0023859 -0.0093787 0.0187228 
0.0290653 -0.00803779 0.0150191 0.0413565 -0.00764568 0.0172034 -0.0247145 0.00578315 0.0188048 
-0.0117405 0.00739538 0.0125579 -0.0170405 0.00247109 0.0187847 -0.00140341 0.00111034 0.0140681 
0.010406 0.00427721 0.0166619 0.0176634 0.000626572 0.0179141 0.0180033 0.00902303 0.0149484 
0.024218 0.00617376 0.0116904 0.0365256 0.00532836 0.0159641 0.0444254 0.000273848 0.0138296 
-0.0449893 0.0188693 0.0143258 -0.0195776 0.0183596 0.0188165 -0.0118414 0.015221 0.0156637 
0.0217539 0.0137474 0.0197252 0.0315531 0.0147714 0.014919 0.0460095 0.0103811 0.0146906 
-0.0459762 0.0279472 0.0132736 -0.0267132 0.0222164 0.015817 -0.0192104 0.0229638 0.0104874 
-0.0011793 0.0212562 0.0131801 0.00323333 0.0240855 0.0188524 0.0126011 0.0299323 0.0106184 
0.0279857 0.0249506 0.0179944 0.0458306 0.0234514 0.011153 -0.0367407 0.0386386 0.0160548 
-0.027918 0.038643 0.0131099 -0.00784422 0.0369187 0.016386 -0.00179589 0.036603 0.0111443 
0.0170419 0.0342357 0.0176495 0.042126 0.030491 0.0114926 -0.0446528 0.0460363 0.0170425 
-0.0318043 0.0461 0.014091 -0.0163004 0.0437078 0.0126732 -0.0106321 0.0458619 0.0194912 
0.0229455 0.0422238 0.0168662 0.0300615 0.0454611 0.0127913 0.0420532 0.044518 0.01295 
-0.0357098 -0.0455387 0.0206357 -0.0298718 -0.0458808 0.0299288 -0.00393035 -0.0403261 0.0258819 
0.0374097 -0.043326 0.0255264 -0.0438601 -0.035606 0.020433 -0.0352025 -0.0307595 0.0209767 
-0.0292422 -0.0363746 0.0293377 -0.0170285 -0.0391151 0.0234674 -0.0197951 -0.0312767 0.023542 
0.00600765 -0.0389973 0.026118 0.025332 -0.0395248 0.0204085 0.0372739 -0.0332465 0.0238703 
-0.0392307 -0.0230196 0.0227654 -0.0146927 -0.025723 0.0237389 0.000574992 -0.0269738 0.0214878 
0.0336428 -0.0251185 0.0268576 -0.0320824 -0.0145495 0.0298798 0.00127909 -0.016733 0.0218999 
-0.0260564 -0.00495511 0.0288483 0.00698591 -0.00594827 0.0248407 0.0314406 -0.004047 0.0251419 
0.0457608 -0.00579522 0.0254325 -0.0328936 0.00707192 0.0285694 -0.0121274 0.00314903 0.0294445 
-0.00357566 0.00422177 0.0224306 0.0075969 0.00452518 0.0264051 0.0279522 0.00860828 0.0202035 
0.0240456 0.00313583 0.0258715 -0.0325559 0.0191165 0.0200786 -0.0374008 0.0130609 0.0214294 
-0.00340614 0.018859 0.0294786 -0.00106953 0.016981 0.0208688 0.011618 0.0108611 0.022099 
0.0349513 0.0189445 0.0291903 -0.0460868 0.0284768 0.022769 -0.032379 0.0267877 0.0223569 
-0.0275007 0.0211161 0.0259865 -0.0145045 0.0282195 0.0206529 0.0405067 0.0258568 0.0206993 
-0.0263397 0.0364255 0.0256941 -0.0224847 0.0308347 0.0200527 -0.0019563 0.0343122 0.0224744 
0.00391086 0.0387462 0.0277285 0.0107395 0.0387064 0.0229685 0.0192552 0.0341915 0.0279686 
0.029023 0.0377912 0.0203403 0.0452277 0.0319921 0.0248725 -0.0419675 0.0426791 0.0241935 
-0.0325322 0.0433993 0.0254033 -0.0173546 0.0404129 0.0241361 0.0262204 0.0439057 0.024916 
0.0191397 -0.0458909 0.0344296 0.0450295 -0.0439583 0.0312549 -0.0231226 -0.0308649 0.0323774 
-0.0038195 -0.03102 0.0343974 -0.0073112 -0.0391683 0.036356 0.0125251 -0.0370679 0.0334069 
-0.0444883 -0.0219446 0.0346858 -0.00156328 -0.0276916 0.0391305 -0.0203334 -0.0186305 0.0332416 
-0.00777522 -0.0145552 0.0329544 0.0326331 -0.0127208 0.0313632 -0.022682 -6.0864e-05 0.0385022 
-0.0160921 -0.0087739 0.0375978 0.0100401 -0.008627 0.0329248 0.0432569 -0.00915193 0.0330203 
-0.0240867 0.00940696 0.0348042 0.00258656 0.000175701 0.0362736 0.0171628 0.00166154 0.0309308 
0.0386926 0.0084379 0.034438 -0.0167631 0.0142129 0.030113 -0.0428741 0.0243389 0.0301094 
-0.0336587 0.0251057 0.0386616 -0.0199728 0.0205834 0.0327421 0.0125772 0.0273329 0.0334411 
-0.0406783 0.0363941 0.038448 -0.0104842 0.0307643 0.0315339 -0.0409376 0.0449714 0.0341113 
0.0122192 0.0446802 0.0328454 -0.0200097 -0.0455776 0.0403411 -0.0289274 -0.0443423 0.0458454 
-0.0163618 -0.0225814 0.0402107 -0.0343647 -0.0175929 0.043481 0.0239685 -0.0026856 0.0407875 
-0.0411404 0.00528956 0.0463564 0.0183509 0.00467039 0.0448144 -0.0445218 0.0150471 0.0421204 
-0.0303657 0.0142724 0.0422476 0.00573836 0.014209 0.0458097 0.00126597 0.0261011 0.0439428 
0.0402553 0.0259731 0.0444598 -0.0389526 0.0327693 0.0433097 0.0188792 0.0386137 0.0431186 
0.0284623 0.0353429 0.0407016 -0.0192562 0.0411411 0.0418187 0.0386284 0.0424795 0.040428 

VERTICES 1134 1134
1 0 
1 1 
1 2 
1 3 
1 4 
1 5 
1 6 
1 7 
1 8 
1 9 
1 10 
1 11 
1 12 
1 13 
1 14 
1 15 
1 16 
1 17 
1 18 
1 19 
1 20 
1 21 
1 22 
1 23 
1 24 
1 25 
1 26 
1 27 
1 28 
1 29 
1 30 
1 31 
1 32 
1 33 
1 34 
1 35 
1 36 
1 37 
1 38 
1 39 
1 40 
1 41 
1 42 
1 43 
1 44 
1 45 
1 46 
1 47 
1 48 
1 49 
1 50 
1 51 
1 52 
1 53 
1 54 
1 55 
1 56 
1 57 
1 58 
1 59 
1 60 
1 61 
1 62 
1 63 
1 64 
1 65 
1 66 
1 67 
1 68 
1 69 
1 70 
1 71 
1 72 
1 73 
1 74 
1 75 
1 76 
1 77 
1 78 
1 79 
1 80 
1 81 
1 82 
1 83 
1 84 
1 85 
1 86 
1 87 
1 88 
1 89 
1 90 
1 91 
1 92 
1 93 
1 94 
1 95 
1 96 
1 97 
1 98 
1 99 
1 100 
1 101 
1 102 
1 103 
1 104 
1 105 
1 106 
1 107 
1 108 
1 109 
1 110 
1 111 
1 112 
1 113 
1 114 
1 115 
1 116 
1 117 
1 118 
1 119 
1 120 
1 121 
1 122 
1 123 
1 124 
1 125 
1 126 
1 127 
1 128 
1 129 
1 130 
1 131 
1 132 
1 133 
1 134 
1 135 
1 136 
1 137 
1 138 
1 139 
1 140 
1 141 
1 142 
1 143 
1 144 
1 145 
1 146 
1 147 
1 148 
1 149 
1 150 
1 151 
1 152 
1 153 
1 154 
1 155 
1 156 
1 157 
1 158 
1 159 
1 160 
1 161 
1 162 
1 163 
1 164 
1 165 
1 166 
1 167 
1 168 
1 169 
1 170 
1 171 
1 172 
1 173 
1 174 
1 175 
1 176 
1 177 
1 178 
1 179 
1 180 
1 181 
1 182 
1 183 
1 184 
1 185 
1 186 
1 187 
1 188 
1 189 
1 190 
1 191 
1 192 
1 193 
1 194 
1 195 
1 196 
1 197 
1 198 
1 199 
1 200 
1 201 
1 202 
1 203 
1 204 
1 205 
1 206 
1 207 
1 208 
1 209 
1 210 
1 211 
1 212 
1 213 
1 214 
1 215 
1 216 
1 217 
1 218 
1 219 
1 220 
1 221 
1 222 
1 223 
1 224 
1 225 
1 226 
1 227 
1 228 
1 229 
1 230 
1 231 
1 232 
1 233 
1 234 
1 235 
1 236 
1 237 
1 238 
1 239 
1 240 
1 241 
1 242 
1 243 
1 244 
1 245 
1 246 
1 247 
1 248 
1 249 
1 250 
1 251 
1 252 
1 253 
1 254 
1 255 
1 256 
1 257 
1 258 
1 259 
1 260 
1 261 
1 262 
1 263 
1 264 
1 265 
1 266 
1 267 
1 268 
1 269 
1 270 
1 271 
1 272 
1 273 
1 274 
1 275 
1 276 
1 277 
1 278 
1 279 
1 280 
1 281 
1 282 
1 283 
1 284 
1 285 
1 286 
1 287 
1 288 
1 289 
1 290 
1 291 
1 292 
1 293 
1 294 
1 295 
1 296 
1 297 
1 298 
1 299 
1 300 
1 301 
1 302 
1 303 
1 304 
1 305 
1 306 
1 307 
1 308 
1 309 
1 310 
1 311 
1 312 
1 313 
1 314 
1 315 
1 316 
1 317 
1 318 
1 319 
1 320 
1 321 
1 322 
1 323 
1 324 
1 325 
1 326 
1 327 
1 328 
1 329 
1 330 
1 331 
1 332 
1 333 
1 334 
1 335 
1 336 
1 337 
1 338 
1 339 
1 340 
1 341 
1 342 
1 343 
1 344 
1 345 
1 346 
1 347 
1 348 
1 349 
1 350 
1 351 
1 352 
1 353 
1 354 
1 355 
1 356 
1 357 
1 358 
1 359 
1 360 
1 361 
1 362 
1 363 
1 364 
1 365 
1 366 
1 367 
1 368 
1 369 
1 370 
1 371 
1 372 
1 373 
1 374 
1 375 
1 376 
1 377 
1 378 
1 379 
1 380 
1 381 
1 382 
1 383 
1 384 
1 385 
1 386 
1 387 
1 388 
1 389 
1 390 
1 391 
1 392 
1 393 
1 394 
1 395 
1 396 
1 397 
1 398 
1 399 
1 400 
1 401 
1 402 
1 403 
1 404 
1 405 
1 406 
1 407 
1 408 
1 409 
1 410 
1 411 
1 412 
1 413 
1 414 
1 415 
1 416 
1 417 
1 418 
1 419 
1 420 
1 421 
1 422 
1 423 
1 424 
1 425 
1 426 
1 427 
1 428 
1 429 
1 430 
1 431 
1 432 
1 433 
1 434 
1 435 
1 436 
1 437 
1 438 
1 439 
1 440 
1 441 
1 442 
1 443 
1 444 
1 445 
1 446 
1 447 
1 448 
1 449 
1 450 
1 451 
1 452 
1 453 
1 454 
1 455 
1 456 
1 457 
1 458 
1 459 
1 460 
1 461 
1 462 
1 463 
1 464 
1 465 
1 466 
1 467 
1 468 
1 469 
1 470 
1 471 
1 472 
1 473 
1 474 
1 475 
1 476 
1 477 
1 478 
1 479 
1 480 
1 481 
1 482 
1 483 
1 484 
1 485 
1 486 
1 487 
1 488 
1 489 
1 490 
1 491 
1 492 
1 493 
1 494 
1 495 
1 496 
1 497 
1 498 
1 499 
1 500 
1 501 
1 502 
1 503 
1 504 
1 505 
1 506 
1 507 
1 508 
1 509 
1 510 
1 511 
1 512 
1 513 
1 514 
1 515 
1 516 
1 517 
1 518 
1 519 
1 520 
1 521 
1 522 
1 523 
1 524 
1 525 
1 526 
1 527 
1 528 
1 529 
1 530 
1 531 
1 532 
1 533 
1 534 
1 535 
1 536 
1 537 
1 538 
1 539 
1 540 
1 541 
1 542 
1 543 
1 544 
1 545 
1 546 
1 547 
1 548 
1 549 
1 550 
1 551 
1 552 
1 553 
1 554 
1 555 
1 556 
1 557 
1 558 
1 559 
1 560 
1 561 
1 562 
1 563 
1 564 
1 565 
1 566 

POINT_DATA 567
SCALARS id double
LOOKUP_TABLE default
536 319 156 136 331 455 397 406 496 
328 283 132 524 133 426 252 540 449 
71 333 161 531 469 415 20 457 40 
564 384 541 346 96 367 435 499 544 
30 326 475 19 365 381 226 125 530 
351 425 121 14 394 256 466 448 259 
552 402 447 210 330 76 430 451 17 
47 23 315 139 416 504 459 262 424 
395 111 171 307 235 189 135 441 418 
193 306 396 311 237 453 414 138 286 
314 295 163 325 521 101 37 44 438 
53 421 494 358 58 218 207 480 217 
538 373 452 350 555 169 92 363 561 
209 313 62 129 407 41 456 265 318 
478 115 460 13 211 260 203 327 378 
545 500 141 221 304 70 467 81 293 
476 216 220 205 527 110 202 60 33 
162 137 428 560 501 275 461 100 224 
280 385 6 488 43 157 261 439 68 
222 537 185 194 86 73 391 401 348 
299 228 309 97 297 49 483 173 515 
57 434 107 364 229 289 77 11 108 
533 398 239 506 267 233 88 355 151 
411 332 369 490 485 323 26 190 512 
383 147 532 264 509 25 200 354 85 
36 322 419 338 131 382 296 468 549 
273 519 22 65 80 379 336 140 340 
9 508 201 64 472 104 52 146 126 
31 465 276 516 152 510 489 56 554 
206 266 197 21 356 105 1 83 247 
413 343 290 432 429 495 566 182 294 
118 347 493 18 181 344 186 238 168 
279 170 547 562 445 372 470 502 223 
342 312 231 300 556 212 339 84 204 
2 263 255 518 514 446 376 128 528 
526 268 15 386 12 150 4 142 377 
10 72 320 412 308 334 507 27 258 
523 498 389 450 408 167 403 362 39 
90 94 505 3 79 82 153 103 288 
497 370 387 89 520 559 535 440 34 
337 353 375 388 54 180 513 292 473 
433 230 301 74 481 371 274 272 341 
302 349 45 214 164 291 119 106 471 
359 563 546 124 503 50 492 558 548 
29 95 98 444 551 321 458 236 66 
93 254 145 67 130 195 553 102 208 
517 127 380 368 409 215 117 491 270 
277 399 155 249 176 16 443 99 240 
405 219 474 454 196 42 479 87 486 
183 250 5 158 284 282 166 253 462 
199 227 422 442 109 188 225 529 113 
116 165 59 352 271 374 232 148 484 
123 463 179 191 213 143 305 114 269 
149 400 0 35 317 542 427 329 51 
550 69 366 437 154 192 511 242 360 
245 172 482 522 241 298 160 246 361 
543 357 234 174 278 404 38 120 565 
303 187 534 417 392 175 281 243 310 
316 324 423 464 55 144 91 198 61 
487 477 24 244 539 410 122 390 134 
557 63 257 285 345 178 112 436 159 
420 8 431 7 335 75 46 393 32 
184 48 251 177 28 78 287 248 525 

FIELD FieldData 7
r 3 567 double
0.0341269 0.0228545 -0.0406865 -0.0114747 0.044737 -0.0410222 -0.0134749 -0.0418183 -0.0335935 
-0.00118637 -0.0438693 -0.0357441 0.0266341 -0.0455789 -0.0385572 0.0457361 -0.0443454 -0.0310406 
-0.0436592 -0.0352298 -0.0325182 0.0224475 -0.0376226 -0.0381537 0.0271465 -0.0352953 -0.0301235 
0.0329409 -0.0304902 -0.0389311 0.045336 -0.031519 -0.0305149 -0.0339818 -0.0253199 -0.0355926 
-0.0194277 -0.0233911 -0.0319901 -0.0139443 -0.0289643 -0.0354743 -0.00774445 -0.0208328 -0.0342673 
-0.00346058 -0.0289974 -0.0313547 0.018776 -0.0286579 -0.035142 0.0294354 -0.023696 -0.0379759 
-0.0408295 -0.0160677 -0.0321184 -0.00107454 -0.0157611 -0.0304316 -0.00815024 -0.0111947 -0.0310025 
0.0042815 -0.0111943 -0.0354746 0.0171249 -0.0135049 -0.0301722 -0.0332055 -0.00426672 -0.0311223 
-0.0278037 -0.00669585 -0.0385756 -0.0151795 -0.00837709 -0.0324238 -0.00118249 -0.000411741 -0.0342356 
0.00927588 -0.0048784 -0.0321421 0.0224443 -0.00733509 -0.0319972 0.0377775 -0.00601866 -0.0337634 
0.0454836 -0.00139547 -0.0358056 -0.045057 2.63755e-05 -0.0355314 0.0155896 0.00879422 -0.0345903 
0.0272813 0.00996834 -0.0309343 0.0347837 0.000896281 -0.0329898 0.045462 0.00886245 -0.0349624 
-0.04326 0.0171749 -0.0378154 -0.0246563 0.0176188 -0.0378485 0.0381545 0.0148889 -0.0301968 
-0.0299188 0.021423 -0.0301012 -0.0137346 0.0288727 -0.0350314 -0.00397377 0.0200935 -0.0344297 
0.013968 0.0255626 -0.0355306 0.0449076 0.0235546 -0.0354992 -0.00326157 0.0392595 -0.0304901 
0.0174337 0.0390757 -0.0359878 0.0440303 0.0379182 -0.0367134 -0.0344352 0.0455451 -0.0322802 
0.0340319 0.0408383 -0.0334479 0.0438274 0.0454595 -0.0335951 -0.0414972 -0.0459606 -0.0262742 
-0.0270008 -0.040842 -0.0235057 -0.0196416 -0.045627 -0.027053 -0.00377632 -0.0460726 -0.0214636 
0.00910872 -0.04559 -0.0269308 0.0300106 -0.0418218 -0.0246428 -0.0383934 -0.0383364 -0.0226909 
-0.0330223 -0.0310243 -0.0225783 -0.0261129 -0.0321773 -0.0296248 -0.00603716 -0.0380761 -0.0246302 
0.00929516 -0.0374868 -0.0282466 0.0397573 -0.0375527 -0.025539 -0.0446417 -0.0274367 -0.0288619 
-0.0188288 -0.0252889 -0.021856 0.00889765 -0.0262885 -0.028471 0.029185 -0.0259969 -0.0205498 
-0.0330885 -0.0168483 -0.0213467 -0.0258644 -0.0170526 -0.0269762 -0.0260702 -0.0120115 -0.0208516 
-0.00452768 -0.0158344 -0.0226488 0.0093288 -0.0112327 -0.0214624 0.0104329 -0.0174117 -0.0282353 
0.0327549 -0.013155 -0.0265328 -0.0408248 -0.00902908 -0.0268643 -0.0232168 -0.00381421 -0.0297183 
-0.0164621 -0.00698716 -0.0236487 -0.000233744 -0.00223038 -0.0240563 -0.00947499 -0.00159152 -0.0207764 
0.00719575 -0.00217937 -0.0204377 0.00103734 -0.00940353 -0.0215579 0.0270444 -0.00038571 -0.0204877 
0.0351643 -0.00400376 -0.0246007 -0.0174245 0.00816209 -0.024463 -0.00870722 0.00497901 -0.0267492 
0.000167953 0.00578611 -0.0280473 0.0205761 0.00520669 -0.0240122 0.0375595 0.00793074 -0.0200988 
0.0454205 0.00474244 -0.0210836 -0.0276023 0.0177988 -0.0212162 -0.0187906 0.0186445 -0.0228587 
-0.00613703 0.013706 -0.0271427 0.00649223 0.010197 -0.0255378 0.0258031 0.0188419 -0.0295939 
0.0303653 0.0119167 -0.0232044 0.0441249 0.0143587 -0.021136 -0.045333 0.0269059 -0.0273391 
-0.0294024 0.0266429 -0.0237295 -0.0126312 0.0223051 -0.0268105 0.00115741 0.0264102 -0.0255656 
0.0120626 0.0205051 -0.0253397 0.027439 0.0273469 -0.0278475 0.039114 0.028109 -0.0290573 
0.0424424 0.0240785 -0.0207882 -0.0456364 0.0367523 -0.0239027 -0.0394231 0.0312715 -0.0209456 
-0.0381447 0.0347316 -0.0279965 -0.0268962 0.0333235 -0.0281364 -0.0105056 0.0309603 -0.0215762 
-0.0175109 0.0354004 -0.0227498 0.0147482 0.0302314 -0.0263131 0.0229419 0.0325986 -0.0209587 
0.0318535 0.0335864 -0.0243068 0.0434694 0.0375935 -0.0247056 -0.0434518 0.0448555 -0.0238867 
-0.0254736 0.0419125 -0.0238089 -0.00960625 0.0439642 -0.021746 0.0128394 0.0456966 -0.0294253 
0.0132562 0.0417982 -0.0213383 0.0212623 0.0432977 -0.0205932 0.0227426 0.0410836 -0.0283861 
-0.0450809 -0.0407727 -0.0187005 -0.0318644 -0.0456031 -0.0141851 -0.0122132 -0.0453056 -0.0166993 
-0.00414718 -0.0454829 -0.0118409 0.0122725 -0.0413752 -0.0148258 0.0215433 -0.04476 -0.0153766 
0.0412876 -0.0445882 -0.019 -0.0459858 -0.0335123 -0.0141081 -0.038339 -0.0348391 -0.0128621 
-0.025589 -0.038493 -0.01482 -0.00804216 -0.0376344 -0.0115097 -0.00477866 -0.0333406 -0.0169576 
0.00569305 -0.0354895 -0.0191263 0.0150012 -0.0345048 -0.018158 0.0281252 -0.038166 -0.014622 
0.0225736 -0.0304366 -0.0175507 0.0374915 -0.0391941 -0.0137281 0.0349513 -0.0311418 -0.0190532 
-0.0428669 -0.0214113 -0.0169984 -0.0332133 -0.0290045 -0.0142592 -0.0256999 -0.0246375 -0.0163822 
-0.00809712 -0.0248719 -0.0176339 -0.000826747 -0.0249246 -0.0137979 0.00896843 -0.0289934 -0.0147557 
0.016356 -0.0241954 -0.0176468 0.0206099 -0.022121 -0.0103096 0.0338713 -0.0275658 -0.0101879 
0.0437055 -0.0227451 -0.0167281 -0.0461866 -0.0122142 -0.0134881 -0.0212908 -0.0185209 -0.0180963 
-0.0263892 -0.0158359 -0.0129955 -0.010308 -0.0142467 -0.0148987 -0.0172798 -0.0100963 -0.015569 
0.00161086 -0.0173407 -0.0126098 0.0170365 -0.0116049 -0.01747 0.0271468 -0.0131921 -0.0132695 
0.0322913 -0.0174441 -0.0168742 0.0401092 -0.0112302 -0.0196057 -0.0452983 -0.00315334 -0.016647 
-0.0244066 -0.00459424 -0.0159433 -0.0156002 -0.0021626 -0.0113344 0.00767475 -0.00882777 -0.0139661 
0.00136665 -0.000139214 -0.0121499 0.0165371 -0.000503592 -0.0194922 0.0229057 -0.00587875 -0.0163365 
0.0355033 -0.00680598 -0.0132555 -0.0415098 0.00618709 -0.0131326 -0.0311331 0.00157513 -0.0144607 
-0.0271481 0.00766703 -0.0188815 -0.0127401 0.00679452 -0.0170833 0.00850409 0.00783018 -0.0146953 
0.0254652 0.00575354 -0.0149683 -0.0419754 0.0144741 -0.0118684 -0.0352453 0.0117765 -0.018655 
-0.0285674 0.0112865 -0.0115946 -0.00223466 0.0179655 -0.0182576 0.00528534 0.0161076 -0.0135555 
0.0128103 0.0175816 -0.0162116 0.0193238 0.0119968 -0.013664 0.0224609 0.0189696 -0.0163075 
-0.0457503 0.0220913 -0.0124616 -0.0353968 0.0209322 -0.0191014 -0.0253963 0.029327 -0.0123354 
-0.0202728 0.0277982 -0.0184229 -0.0150547 0.0228903 -0.0121293 -0.00545913 0.0276223 -0.0119852 
0.00945796 0.0262793 -0.0133516 0.001414 0.0247821 -0.0158361 0.0170368 0.0265761 -0.0181109 
0.0290978 0.0245071 -0.017564 0.032814 0.0283833 -0.0103364 0.0418466 0.0214943 -0.011014 
0.0452408 0.0294415 -0.0148854 -0.0442583 0.0328363 -0.013772 -0.0314491 0.0380918 -0.0153073 
-0.0338633 0.030826 -0.0102185 -0.0247377 0.0347115 -0.0177907 -0.0126632 0.0358395 -0.0124476 
-0.0032398 0.0378958 -0.0191209 0.00731054 0.033502 -0.0179911 0.00150415 0.0315966 -0.010506 
0.0126256 0.0384063 -0.0133099 0.0364944 0.0302565 -0.0176645 0.0323545 0.039013 -0.0108963 
-0.0444744 0.0432254 -0.0110086 -0.0341993 0.0453299 -0.012754 -0.0253673 0.0454711 -0.0149772 
-0.0178955 0.0439963 -0.0114254 -0.00744484 0.0425685 -0.0130378 0.00231879 0.0423912 -0.0131169 
0.0156312 0.0459211 -0.0121487 0.0329936 0.0455102 -0.0154704 0.040718 0.0451321 -0.0197839 
-0.0458963 -0.0449483 -0.00382116 -0.029904 -0.0442794 -0.0051746 -0.0182951 -0.0401961 -0.00645642 
-0.00140312 -0.0442435 -0.00336446 0.0159229 -0.0441466 -0.0004136 0.0266918 -0.0421945 -0.00602442 
0.0377507 -0.0434517 -0.00413889 -0.0459898 -0.0368399 -0.00626232 -0.0354595 -0.0374612 -0.00100843 
-0.0241573 -0.0340057 -0.00384625 -0.00951455 -0.0349408 -0.00239087 -0.000971214 -0.0331643 -0.00835245 
0.00651951 -0.0390833 -0.00810851 0.015545 -0.0379187 -0.00578772 0.0450115 -0.0379095 -0.00978765 
-0.0431866 -0.0275266 -0.00913347 -0.0327808 -0.0240755 -0.00159751 -0.0244066 -0.0245023 -0.00243851 
-0.0148023 -0.0236224 -0.00012495 -0.00680374 -0.0215317 -0.00287133 0.00934831 -0.0218258 -0.00834774 
0.00271005 -0.0245847 -0.00503644 0.0154212 -0.0247864 -0.00428552 0.0282935 -0.0282848 -0.00351127 
0.0436328 -0.0265865 -0.00264221 -0.0448828 -0.0195986 -0.00939579 -0.0361725 -0.0153842 -0.00976061 
-0.0290502 -0.011474 -0.00605826 -0.0123078 -0.017067 -0.0066922 -0.00357986 -0.0144819 -0.00352146 
0.0294318 -0.0120172 -0.00467589 0.0228843 -0.0194235 -0.0025698 0.0296921 -0.0196474 -0.00910732 
0.0365649 -0.0149469 -0.00707194 0.0448035 -0.0143493 -0.00743012 -0.0452829 -0.00231894 -0.00154561 
-0.0454974 -0.00501251 -0.00879815 -0.0372656 -0.00527778 -0.006842 -0.0207403 -0.00968839 -0.00720168 
-0.0259059 -0.00249886 -0.00218049 -0.000558264 -0.0085275 -0.00880906 -0.00666458 -0.00626888 -0.00333821 
0.0136203 -0.0088356 -0.0068148 0.0385267 -0.00612517 -0.000319731 0.0435755 -0.00111363 -0.00984121 
-0.0260277 0.00674899 -0.00450187 -0.00730188 0.00501284 -0.00509594 0.00937219 0.000916734 -0.00578899 
0.0210566 0.005429 -0.00438503 0.0299229 0.00973312 -0.00717387 0.0304993 0.000670709 -0.00851166 
0.0402731 0.0074998 -0.00220676 -0.0457412 0.0170898 -0.000556933 -0.0318547 0.0184753 -0.00835829 
-0.037961 0.013881 -0.0021706 -0.0273084 0.0149965 -0.00174401 -0.0209225 0.0145453 -0.00774762 
-0.0112545 0.0102604 -0.009689 -0.00815452 0.0158244 -0.00419035 0.000896818 0.0111185 -0.00392333 
0.006027 0.0192876 -0.00526534 0.0239979 0.0156444 -0.0073126 0.0364172 0.0144243 -0.00700347 
0.0461612 0.0109523 -0.00633635 -0.0417567 0.0238245 -0.00525901 -0.0242983 0.0223889 -0.00899871 
-0.0262206 0.0280484 -0.0023731 -0.0149478 0.0293221 -0.00477067 -0.000234966 0.0238537 -0.00495774 
0.0109556 0.0261203 -0.00503243 0.0237157 0.0245342 -0.00624118 0.0294229 0.021101 -0.00118848 
0.0448403 0.0226683 -0.00322862 -0.0441215 0.0357879 -0.00252054 -0.0361475 0.0385705 -0.00736994 
-0.0208621 0.03635 -0.00843072 -0.00525879 0.0355155 -0.00956144 0.00329275 0.0342371 -0.00230575 
0.0117633 0.0381824 -0.0042084 0.0239868 0.0320892 -0.00372807 0.0324458 0.0358315 -0.0022479 
0.0447125 0.0374926 -0.00100271 0.0426432 0.0398368 -0.00811269 -0.0382215 0.045404 -0.000677535 
-0.028758 0.0450728 -0.000785281 -0.0269184 0.0412779 -0.00818364 -0.0200903 0.0437223 -0.00345225 
0.00104941 0.0420143 -0.000647976 0.00779284 0.0454903 -0.00707835 0.0242572 0.0403973 -0.00755893 
0.0459158 0.0459185 -0.00192591 -0.0361302 -0.0441528 0.00340404 -0.0240985 -0.0439876 0.00567901 
-0.0121227 -0.041478 0.00277985 0.00634489 -0.0433111 0.000827103 0.0128316 -0.0460349 0.00731934 
0.0373192 -0.0445475 0.0064182 0.0452412 -0.0439683 0.00814515 0.0458298 -0.041326 0.000374246 
-0.0411609 -0.0362174 0.00533566 -0.0036375 -0.0359337 0.00596275 0.00145198 -0.0322929 0.000174105 
0.012407 -0.0309052 0.00126712 0.0180472 -0.038672 0.00836814 0.0103677 -0.0368469 0.00735318 
0.040115 -0.0367033 0.00339975 -0.0414707 -0.0223087 0.00301502 -0.022615 -0.0205445 0.00414564 
-0.0156799 -0.0207361 0.00809334 -0.0035076 -0.0259079 0.0062104 0.00667692 -0.021228 0.00968148 
0.0190948 -0.0210721 0.00599735 0.0252548 -0.0279031 0.0044513 0.035501 -0.0249911 3.62012e-05 
0.0339347 -0.024741 0.0093624 0.0425635 -0.0264063 0.0055523 -0.0440259 -0.0103213 0.0021857 
-0.0457979 -0.0176008 0.00826611 -0.0328084 -0.0167716 0.00127611 -0.0157773 -0.0112263 0.00264315 
0.00876684 -0.015949 0.00111938 0.0289932 -0.0154611 0.00612048 0.0225916 -0.0107786 0.000162415 
0.0385343 -0.0185086 0.00700883 0.0449798 -0.0113212 0.00392038 -0.0407635 -0.000683198 0.00602908 
-0.0301982 -0.00716717 0.00267011 -0.0320486 -0.00128928 0.00798644 -0.0223849 -0.00778932 0.00554712 
-0.00849814 -0.00950267 0.00506719 -0.00234103 -0.00246453 0.00389216 0.00355084 -0.00839036 0.00603415 
0.0101296 -0.00173708 0.00775977 0.046072 -0.00115618 1.51885e-05 -0.0440962 0.00868292 0.00130682 
-0.0353541 0.00616739 0.000627819 -0.0339137 0.00911013 0.00816005 -0.0184602 0.000801084 0.000184166 
-0.0106749 2.5471e-05 0.00446633 -0.0193095 0.00344761 0.00797771 -0.00203568 0.00806402 0.00323512 
0.00314913 0.00289883 0.00614063 0.0174039 0.0050286 0.00791963 0.0332027 0.00810815 0.00969116 
0.0325081 0.000773292 0.00603024 -0.0437338 0.0117423 0.00846412 -0.0336162 0.0169559 0.00922876 
-0.0245023 0.0117469 0.00816768 -0.0110375 0.0199993 0.007416 -0.0195862 0.0162245 0.00373648 
-0.00501676 0.0149077 0.00638281 0.00939544 0.0167986 0.0024163 0.0213246 0.0181818 0.00422817 
0.0371739 0.0151054 0.00349457 0.0460302 0.0164183 0.00544295 -0.0344685 0.0278154 0.000150292 
-0.038155 0.0232421 0.00603966 -0.0292623 0.0234562 0.00431946 -0.0171076 0.0264669 0.00235089 
-0.00328584 0.0299474 0.00530477 -0.00220094 0.0218055 0.00412838 0.00700404 0.0240535 0.00204586 
0.0149422 0.0224809 0.00349666 0.0235555 0.0269198 0.00711224 0.0305415 0.0294715 0.00273037 
0.0348637 0.0249376 0.00764643 -0.0368458 0.0382999 0.00618911 -0.0312319 0.0352498 0.00106028 
-0.0218766 0.0319823 0.00706016 -0.0251337 0.0394196 0.00447092 -0.0170486 0.0358148 0.000336578 
-0.00909613 0.0368183 0.00520835 0.00424026 0.0310115 0.00665824 0.0131939 0.0321222 0.00072634 
0.0256008 0.0395631 0.000915293 0.0214776 0.0353744 0.00647013 0.0367137 0.0361679 0.00824081 
-0.0460652 0.0434947 0.00258604 -0.0398643 0.0453644 0.00819233 -0.017082 0.0430281 0.00477959 
0.00622919 0.0427056 0.00686551 0.01673 0.0413882 0.00799549 0.0359216 0.0431802 0.00286331 
-0.0450322 -0.0437695 0.0151457 -0.0302661 -0.0420757 0.0155542 -0.0209054 -0.0431321 0.0178356 
-0.0134263 -0.0440534 0.0134965 0.00591608 -0.0445172 0.0129149 0.0299092 -0.0432031 0.0125962 
0.0215527 -0.0461416 0.0149928 0.0412142 -0.0409619 0.0185339 -0.0323437 -0.0338007 0.0116662 
-0.0250058 -0.0360647 0.0158781 -0.0101269 -0.0345466 0.0157036 0.0161914 -0.0373096 0.0159537 
0.0341414 -0.0346129 0.0119604 -0.0287171 -0.020016 0.0191419 -0.0258808 -0.0280345 0.0166537 
-0.00425251 -0.0296934 0.0154421 -0.00484571 -0.0218689 0.014833 0.00993128 -0.0244634 0.0181529 
0.00339238 -0.0293664 0.011 0.0162833 -0.0297562 0.0176869 0.0216696 -0.0226253 0.0132133 
0.0262926 -0.0287268 0.0145317 0.0394615 -0.0298777 0.0151962 0.0420545 -0.0220507 0.0194935 
-0.0378906 -0.013418 0.0106837 -0.0257743 -0.0110168 0.0156471 -0.0189131 -0.0168225 0.014992 
-0.00340208 -0.0115338 0.011102 -0.00849566 -0.0107549 0.0178264 0.0127547 -0.0133864 0.018633 
-0.0444504 -0.00892865 0.0123957 -0.0460723 -0.000262717 0.0195137 -0.0381501 -0.00374241 0.0163065 
-0.0298277 -0.00217215 0.0170786 -0.0145209 -0.00234853 0.0113146 0.0023859 -0.0093787 0.0187228 
0.0290653 -0.00803779 0.0150191 0.0413565 -0.00764568 0.0172034 -0.0247145 0.00578315 0.0188048 
-0.0117405 0.00739538 0.0125579 -0.0170405 0.00247109 0.0187847 -0.00140341 0.00111034 0.0140681 
0.010406 0.00427721 0.0166619 0.0176634 0.000626572 0.0179141 0.0180033 0.00902303 0.0149484 
0.024218 0.00617376 0.0116904 0.0365256 0.00532836 0.0159641 0.0444254 0.000273848 0.0138296 
-0.0449893 0.0188693 0.0143258 -0.0195776 0.0183596 0.0188165 -0.0118414 0.015221 0.0156637 
0.0217539 0.0137474 0.0197252 0.0315531 0.0147714 0.014919 0.0460095 0.0103811 0.0146906 
-0.0459762 0.0279472 0.0132736 -0.0267132 0.0222164 0.015817 -0.0192104 0.0229638 0.0104874 
-0.0011793 0.0212562 0.0131801 0.00323333 0.0240855 0.0188524 0.0126011 0.0299323 0.0106184 
0.0279857 0.0249506 0.0179944 0.0458306 0.0234514 0.011153 -0.0367407 0.0386386 0.0160548 
-0.027918 0.038643 0.0131099 -0.00784422 0.0369187 0.016386 -0.00179589 0.036603 0.0111443 
0.0170419 0.0342357 0.0176495 0.042126 0.030491 0.0114926 -0.0446528 0.0460363 0.0170425 
-0.0318043 0.0461 0.014091 -0.0163004 0.0437078 0.0126732 -0.0106321 0.0458619 0.0194912 
0.0229455 0.0422238 0.0168662 0.0300615 0.0454611 0.0127913 0.0420532 0.044518 0.01295 
-0.0357098 -0.0455387 0.0206357 -0.0298718 -0.0458808 0.0299288 -0.00393035 -0.0403261 0.0258819 
0.0374097 -0.043326 0.0255264 -0.0438601 -0.035606 0.020433 -0.0352025 -0.0307595 0.0209767 
-0.0292422 -0.0363746 0.0293377 -0.0170285 -0.0391151 0.0234674 -0.0197951 -0.0312767 0.023542 
0.00600765 -0.0389973 0.026118 0.025332 -0.0395248 0.0204085 0.0372739 -0.0332465 0.0238703 
-0.0392307 -0.0230196 0.0227654 -0.0146927 -0.025723 0.0237389 0.000574992 -0.0269738 0.0214878 
0.0336428 -0.0251185 0.0268576 -0.0320824 -0.0145495 0.0298798 0.00127909 -0.016733 0.0218999 
-0.0260564 -0.00495511 0.0288483 0.00698591 -0.00594827 0.0248407 0.0314406 -0.004047 0.0251419 
0.0457608 -0.00579522 0.0254325 -0.0328936 0.00707192 0.0285694 -0.0121274 0.00314903 0.0294445 
-0.00357566 0.00422177 0.0224306 0.0075969 0.00452518 0.0264051 0.0279522 0.00860828 0.0202035 
0.0240456 0.00313583 0.0258715 -0.0325559 0.0191165 0.0200786 -0.0374008 0.0130609 0.0214294 
-0.00340614 0.018859 0.0294786 -0.00106953 0.016981 0.0208688 0.011618 0.0108611 0.022099 
0.0349513 0.0189445 0.0291903 -0.0460868 0.0284768 0.022769 -0.032379 0.0267877 0.0223569 
-0.0275007 0.0211161 0.0259865 -0.0145045 0.0282195 0.0206529 0.0405067 0.0258568 0.0206993 
-0.0263397 0.0364255 0.0256941 -0.0224847 0.0308347 0.0200527 -0.0019563 0.0343122 0.0224744 
0.00391086 0.0387462 0.0277285 0.0107395 0.0387064 0.0229685 0.0192552 0.0341915 0.0279686 
0.029023 0.0377912 0.0203403 0.0452277 0.0319921 0.0248725 -0.0419675 0.0426791 0.0241935 
-0.0325322 0.0433993 0.0254033 -0.0173546 0.0404129 0.0241361 0.0262204 0.0439057 0.024916 
0.0191397 -0.0458909 0.0344296 0.0450295 -0.0439583 0.0312549 -0.0231226 -0.0308649 0.0323774 
-0.0038195 -0.03102 0.0343974 -0.0073112 -0.0391683 0.036356 0.0125251 -0.0370679 0.0334069 
-0.0444883 -0.0219447 0.0346858 -0.00156328 -0.0276916 0.0391305 -0.0203334 -0.0186305 0.0332416 
-0.00777522 -0.0145552 0.0329544 0.0326331 -0.0127208 0.0313632 -0.022682 -6.0864e-05 0.0385022 
-0.0160921 -0.0087739 0.0375978 0.0100401 -0.008627 0.0329248 0.0432569 -0.00915193 0.0330203 
-0.0240867 0.00940696 0.0348042 0.00258656 0.000175701 0.0362736 0.0171628 0.00166154 0.0309308 
0.0386926 0.0084379 0.034438 -0.0167631 0.0142129 0.030113 -0.0428741 0.0243389 0.0301094 
-0.0336587 0.0251057 0.0386616 -0.0199728 0.0205834 0.0327421 0.0125772 0.0273329 0.0334411 
-0.0406783 0.0363941 0.038448 -0.0104842 0.0307643 0.0315339 -0.0409376 0.0449714 0.0341113 
0.0122192 0.0446802 0.0328454 -0.0200097 -0.0455776 0.0403411 -0.0289274 -0.0443423 0.0458454 
-0.0163618 -0.0225814 0.0402107 -0.0343647 -0.0175929 0.043481 0.0239685 -0.0026856 0.0407875 
-0.0411404 0.00528956 0.0463564 0.0183509 0.00467039 0.0448144 -0.0445218 0.0150471 0.0421204 
-0.0303657 0.0142724 0.0422476 0.00573836 0.014209 0.0458097 0.00126597 0.0261011 0.0439428 
0.0402553 0.0259731 0.0444598 -0.0389526 0.0327693 0.0433097 0.0188792 0.0386137 0.0431186 
0.0284623 0.0353429 0.0407016 -0.0192562 0.0411411 0.0418187 0.0386284 0.0424795 0.040428 

gid 1 567 double
0 0 0 0 0 0 0 0 0 
0 0 0 0 0 0 0 0 0 
0 0 0 0 0 0 0 0 0 
0 0 0 0 0 0 0 0 0 
0 0 0 0 0 0 0 0 0 
0 0 0 0 0 0 0 0 0 
0 0 0 0 0 0 0 0 0 
0 0 0 0 0 0 0 0 0 
0 0 0 0 0 0 0 0 0 
0 0 0 0 0 0 0 0 0 
0 0 0 0 0 0 0 0 0 
0 0 0 0 0 0 0 0 0 
0 0 0 0 0 0 0 0 0 
0 0 0 0 0 0 0 0 0 
0 0 0 0 0 0 0 0 0 
0 0 0 0 0 0 0 0 0 
0 0 0 0 0 0 0 0 0 
0 0 0 0 0 0 0 0 0 
0 0 0 0 0 0 0 0 0 
0 0 0 0 0 0 0 0 0 
0 0 0 0 0 0 0 0 0 
0 0 0 0 0 0 0 0 0 
0 0 0 0 0 0 0 0 0 
0 0 0 0 0 0 0 0 0 
0 0 0 0 0 0 0 0 0 
0 0 0 0 0 0 0 0 0 
0 0 0 0 0 0 0 0 0 
0 0 0 0 0 0 0 0 0 
0 0 0 0 0 0 0 0 0 
0 0 0 0 0 0 0 0 0 
0 0 0 0 0 0 0 0 0 
0 0 0 0 0 0 0 0 0 
0 0 0 0 0 0 0 0 0 
0 0 0 0 0 0 0 0 0 
0 0 0 0 0 0 0 0 0 
0 0 0 0 0 0 0 0 0 
0 0 0 0 0 0 0 0 0 
0 0 0 0 0 0 0 0 0 
0 0 0 0 0 0 0 0 0 
0 0 0 0 0 0 0 0 0 
0 0 0 0 0 0 0 0 0 
0 0 0 0 0 0 0 0 0 
0 0 0 0 0 0 0 0 0 
0 0 0 0 0 0 0 0 0 
0 0 0 0 0 0 0 0 0 
0 0 0 0 0 0 0 0 0 
0 0 0 0 0 0 0 0 0 
0 0 0 0 0 0 0 0 0 
0 0 0 0 0 0 0 0 0 
0 0 0 0 0 0 0 0 0 
0 0 0 0 0 0 0 0 0 
0 0 0 0 0 0 0 0 0 
0 0 0 0 0 0 0 0 0 
0 0 0 0 0 0 0 0 0 
0 0 0 0 0 0 0 0 0 
0 0 0 0 0 0 0 0 0 
0 0 0 0 0 0 0 0 0 
0 0 0 0 0 0 0 0 0 
0 0 0 0 0 0 0 0 0 
0 0 0 0 0 0 0 0 0 
0 0 0 0 0 0 0 0 0 
0 0 0 0 0 0 0 0 0 
0 0 0 0 0 0 0 0 0 

a 3 567 double
0 0 0 0 0 0 0 0 0 
0 0 0 0 0 0 0 0 0 
0 0 0 0 0 0 0 0 0 
69.2853 -197.312 -27.521 0 0 0 0 0 0 
0 0 0 0 0 0 0 0 0 
0 0 0 0 0 0 -69.2853 197.312 27.521 
0 0 0 0 0 0 294.86 -84.7518 55.8707 
0 0 0 25.4348 15.1757 -10.6966 0 0 0 
0 0 0 -294.86 84.7518 -55.8707 0 0 0 
0 0 0 0 0 0 49.603 -155.961 -8.33071 
0 0 0 0 0 0 0 0 0 
0 0 0 -49.603 155.961 8.33071 0 0 0 
0 0 0 0 0 0 0 0 0 
0 0 0 0 0 0 0 0 0 
0 0 0 0 0 0 0 0 0 
0 0 0 0 0 0 0 0 0 
0 0 0 0 0 0 0 0 0 
0 0 0 0 0 0 0 219.182 0 
0 0 0 0 0 0 0 0 0 
0 0 0 0 0 0 0 0 0 
0 0 0 0 0 0 0 0 0 
0 0 0 0 0 0 -60.3208 67.165 -19.9366 
0 0 0 7.13003 -42.0401 -43.5495 -7.13003 42.0401 43.5495 
0 0 0 -0.331598 0.512388 1.19034 -25.4348 -15.1757 10.6966 
0 0 0 0 0 0 0 0 0 
0 0 0 -41.0924 155.443 -41.0885 0 0 0 
0 0 0 41.0924 -155.443 41.0885 0 0 0 
0 0 0 0 0 0 0 0 0 
0 0 0 0 0 0 0 0 0 
0 0 0 0 0 0 0 0 0 
0 0 0 0 0 0 0 0 0 
0 0 0 0 0 0 0 0 0 
0 0 0 0 0 0 0 0 0 
0 0 0 0 0 0 0 0 0 
0 0 0 0 0 0 -4.96795 -21.8307 34.3087 
4.96795 21.8307 -34.3087 0 0 0 0 0 0 
0 0 0 0 0 0 0 0 0 
0 0 0 0 0 0 0 0 0 
0 0 0 0 0 0 0 0 0 
0 0 0 0 0 0 0 0 0 
0 0 0 0 0 0 0 0 0 
0 0 0 0 0 0 0 0 0 
0 0 0 -155.543 33.8843 -8.71168 143.701 -44.7272 11.1067 
0 0 0 -90.5927 -153.005 159.727 90.5927 153.005 -159.727 
0 0 0 0 0 0 0 0 0 
0 0 0 0 0 0 60.3208 -67.165 19.9366 
7.94977 -10.5746 -29.2308 11.8421 10.843 -2.39502 -85.2267 -93.6563 28.4925 
0 0 0 0 0 0 0 0 0 
0 0 0 0 0 0 0 0 0 
0 0 0 213.038 0 0 117.976 80.4524 -55.5058 
-32.7496 13.2038 27.0133 0 0 0 0 0 0 
0 0 0 0 0 0 -98.318 93.9841 56.5214 
98.318 -93.9841 -56.5214 0 0 0 0 0 0 
0 0 0 0 0 0 0.331598 -0.512388 -1.19034 
0 0 0 0 0 0 0 0 0 
0 0 0 0 0 0 0 0 0 
0 0 0 0 0 0 0 0 0 
0 0 0 0 0 0 0 0 0 
0 0 0 0 0 0 0 0 0 
0 0 0 0 0 0 0 0 0 
0 0 0 0 0 0 -52.2058 -92.2812 105.572 
0 0 0 0 0 0 0 0 0 
0 0 0 0 0 0 0 0 0 
0 0 0 0 0 0 0 0 0 
0 0 0 0 0 0 -77.4906 42.1007 18.5138 
0 0 0 102.526 146.073 -171.644 0 0 0 
0 0 0 0 0 0 27.581 -19.9415 -6.57992 
0 0 0 0 0 0 -0.0302143 -0.570565 0.316841 
0 0 0 0 0 0 0 0 0 
0 0 0 0 0 0 0 0 0 
0 0 0 0.0302143 0.570565 -0.316841 0 0 0 
0 0 0 0 0 0 0 0 0 
0 0 0 0 0 0 0 0 0 
0 0 0 0 0 0 0 0 0 
0 0 0 0 0 0 0 0 0 
0 0 0 0 0 0 0 0 0 
0 0 0 9.37952 -103.985 -32.1058 0 0 0 
0 0 0 -76.0294 -200.139 39.7221 9.58891 5.02075 -6.23204 
-9.58891 -5.02075 6.23204 0 0 0 0 0 0 
0 0 0 -7.94977 10.5746 29.2308 0 0 0 
0 0 0 0 0 0 76.0294 200.139 -39.7221 
0 0 0 0 0 0 0 0 0 
0 0 0 0 0 0 -11.5774 49.1651 120.119 
11.5774 -49.1651 -120.119 0 0 0 0 0 0 
23.8469 33.6689 -34.2785 0 0 0 0 0 0 
0 0 0 0 0 0 0 0 0 
0 0 0 0 0 0 0 0 0 
0 0 0 0 0 0 0 0 0 
0 0 0 0 0 0 0 0 0 
0 0 0 0 0 0 0 0 0 
0 0 0 0 0 0 0 0 0 
31.5921 -19.7863 -4.4083 0 0 0 0 0 0 
-293.284 0 0 0 0 0 27.17 -95.8926 47.5582 
0 0 0 0.414957 0.327049 -0.937705 -31.5921 19.7863 4.4083 
0 0 0 -0.749579 -7.98453 -1.76466 0 0 0 
0 0 0 0 0 0 0 0 0 
91.2357 -60.2232 1.38394 -27.581 19.9415 6.57992 0 0 0 
-4.04378 33.1077 -22.3443 0.749579 7.98453 1.76466 0 0 0 
9.95743 -19.3659 63.2183 -9.95743 19.3659 -63.2183 0 0 0 
0 0 0 -91.2357 60.2232 -1.38394 0 0 0 
0 0 0 0 0 0 0 0 0 
0 -88.7217 0 0 0 0 0 0 0 
0 0 0 0 0 0 0 0 0 
0 0 0 0 0 0 5.7816 -5.92851 -3.47544 
0 0 0 0 0 0 0 0 0 
0 0 0 36.3026 -7.68215 -33.8426 -31.5722 3.37842 -4.28196 
-5.7816 5.92851 3.47544 0 0 0 -81.8866 4.72437 -34.9886 
81.8866 -4.72437 34.9886 0 0 0 0 0 0 
-33.6524 34.6864 -128.414 0 0 0 0 0 0 
-9.60716 -11.3097 6.08891 0 0 0 0 0 0 
0 0 0 -9.37952 103.985 32.1058 -177.208 -41.3837 -81.4644 
0 0 0 0 0 0 0 0 0 
9.60716 11.3097 -6.08891 0 0 0 0 0 0 
-23.8469 -33.6689 34.2785 0 0 0 0 0 0 
177.208 41.3837 81.4644 0 0 0 0 0 0 
0 0 0 -194.35 0 0 -1.10888 -19.3121 -31.9442 
0 0 0 0.148311 -7.39357 -0.253125 0 0 0 
0 0 0 0 0 0 -0.805966 -5.81562 -12.0302 
10.3782 -10.6178 4.06914 -119.665 -23.3068 -49.4365 -54.5726 27.0149 -86.002 
0 0 0 1.10888 19.3121 31.9442 -0.148311 7.39357 0.253125 
-14.7591 -14.9897 10.7264 0 0 0 14.7591 14.9897 -10.7264 
-25.9557 -40.8106 22.0849 22.1704 -97.2183 13.2157 169.706 -90.4533 36.2476 
0 0 0 -265.125 0 0 2.08943 3.70229 0.664434 
0 0 0 0 0 0 -0.414957 -0.327049 0.937705 
-126.879 -30.3339 -14.1811 16.3835 57.244 -14.1238 -22.1704 97.2183 -13.2157 
-169.706 90.4533 -36.2476 0 0 0 -20.2311 20.8314 -17.8239 
20.2311 -20.8314 17.8239 5.22836 -12.98 -2.0901 -2.08943 -3.70229 -0.664434 
0 0 0 0 0 0 0 0 0 
0 0 0 126.879 30.3339 14.1811 4.04378 -33.1077 22.3443 
0 0 0 12.3955 -21.2632 -7.02198 0 0 0 
0 0 0 -5.22836 12.98 2.0901 -31.3237 -23.2993 -134.561 
0 0 0 -12.3955 21.2632 7.02198 0 0 0 
0 0 0 0 0 0 -28.7569 -20.0782 -33.6256 
0 0 0 0 0 0 0 0 0 
0 347.782 0 0 0 0 0 0 0 
0 0 0 -197.675 -160.809 -24.0715 9.83116 -122.695 18.8447 
0 0 0 0 0 0 0 0 0 
194.995 8.73282 50.8295 2.68025 152.076 -26.758 0 0 0 
0 0 0 -14.5616 126.999 19.2798 13.8952 -2.85972 123.948 
19.7572 -31.8266 4.46554 0 0 0 0 0 0 
0 0 0 0 0 0 0 0 0 
0 0 0 0 0 0 0 0 0 
0 0 0 254.396 0 0 0 0 0 
0 0 0 0 0 0 0.19666 10.5139 -3.60384 
0 0 0 0 0 0 0 0 0 
0 0 0 0 0 0 0 0 0 
0 0 0 0 0 0 -154.329 -34.5109 -2.07696 
221.126 -8.09587 -1.1422 54.5726 -27.0149 86.002 0 0 0 
0 0 0 0 0 0 0 0 0 
5.06138 106.228 56.3888 0 0 0 -4.07956 0 0 
3.98071 0 0 148.67 60.2926 -84.7024 0 0 0 
-73.3108 -45.9351 -74.5526 73.3108 45.9351 74.5526 0 0 0 
0 0 0 32.9137 -54.7832 3.13576 0 0 0 
0 0 0 0 0 0 0 0 0 
0 0 0 -32.9137 54.7832 -3.13576 0 -70.4121 0 
0 -222.37 0 31.3237 23.2993 134.561 0 0 0 
0 0 0 0 0 0 0 0 0 
0 0 0 0 104.926 0 0 0 0 
0 0 0 0 0 0 0 0 0 
0 0 0 28.7569 20.0782 33.6256 -80.1289 -92.7645 -20.605 
0 0 0 0 0 0 0 0 0 
0 0 0 80.1289 92.7645 20.605 0 0 0 
0 0 0 0 0 0 -0.19666 -10.5139 3.60384 
0 0 0 0 0 0 0 0 0 
0 0 0 0 0 0 0 0 0 
0 0 0 0 0 0 47.8066 -40.3143 -3.73311 
0 0 0 -145.856 -168.213 61.5988 -5.10533 -7.73227 1.07938 
0 0 0 0 0 0 0 0 0 
0 0 0 0 0 0 2.29148 115.653 22.0242 
0 0 0 0 0 0 0 0 0 
0 0 0 0 0 0 0 0 0 
0 0 0 0 0 0 0 0 0 
34.2819 -79.2626 -43.9442 0 0 0 0 0 0 
0 0 0 0 0 0 -34.2819 79.2626 43.9442 
0 0 0 0 0 0 0 0 0 
-165.386 -315.845 -735.599 0 0 0 0 0 0 
0 0 0 165.386 315.845 735.599 0 0 0 
0 0 0 0 0 0 0 0 0 
0 0 0 0 0 0 0 0 0 
0 0 0 0 0 0 0 0 0 
0 0 0 28.1959 -56.6505 -13.3416 0 0 0 
0 0 0 -28.1959 56.6505 13.3416 0 0 0 
-420.426 810.57 -2138.29 0 0 0 0 0 0 
0 0 0 0 0 0 0 0 -180.885 
0 0 0 0 0 0 0 0 0 
0 0 -35.2049 0 0 0 0 0 0 
0 0 0 0 0 0 0 0 0 
0 0 0 420.426 -810.57 2138.29 0 0 0 
0 0 0 0 0 0 0 0 0 

v 3 567 double
-0.172826 0.0593268 0.0776428 -0.280855 0.323909 0.188118 0.0376025 0.182465 0.422574 
0.172705 0.130485 0.400235 -0.457384 -0.0570455 0.287439 -0.0171731 0.31345 0.397729 
0.0382726 0.109928 0.386916 0.149252 0.0974031 0.304302 0.115786 0.0537679 0.395877 
0.0205486 0.0471647 0.234416 0.263418 -0.159126 0.541652 -0.203592 0.0629942 0.287838 
0.213626 -0.124035 0.403554 0.0562172 0.108699 0.381026 -0.0528156 -0.224287 0.388191 
0.146303 0.0810847 0.524169 0.0204695 0.0484519 0.248967 -0.541212 -0.131333 0.213731 
0.262766 0.0902915 0.380643 0.132512 -0.102198 0.639458 0.23469 0.0388939 0.451982 
-0.0922132 0.0964449 0.279238 -0.0121088 0.229527 0.509969 0.224827 -0.255997 0.508581 
-0.0905357 0.0014856 0.0899223 -0.04307 0.152354 0.395584 0.249178 -0.029657 0.196872 
0.0126079 -0.445716 0.432829 0.0211986 0.179386 0.390345 -0.166924 -0.0206982 0.326338 
-0.0469703 0.163084 0.276661 0.0659524 0.454957 0.300605 0.0967116 -0.227432 0.330859 
0.119164 0.116073 0.52641 -0.202504 -0.393219 0.384818 -0.0627401 0.241657 0.389781 
0.0624558 0.305885 0.162109 -0.0932339 0.196669 0.147833 0.0362512 -0.0158955 0.57798 
-0.150076 0.0345356 0.524427 0.230345 0.060617 0.388296 -0.0697766 -0.137099 0.418188 
-0.199899 0.118491 0.292888 0.0667502 0.193656 0.369866 -0.0661194 -0.0804999 0.368834 
0.000867919 0.0423902 0.337482 -0.0893728 0.285369 0.350969 0.0749671 -0.315011 0.409861 
-0.0438811 0.0591078 0.346608 -0.037327 -0.217255 0.324632 0.254872 0.0629363 0.616218 
-0.0707261 -0.121324 0.676263 -0.023365 0.308896 0.515707 -0.172776 0.221917 0.664996 
-0.0963908 0.221201 0.509824 0.119171 0.0678669 0.673364 -0.0713828 -0.153778 0.670168 
0.106538 -0.00527901 0.445818 -0.077084 -0.0366884 0.57813 0.197359 0.00675135 0.675666 
-0.128387 0.231543 0.36959 -0.0184082 -0.0512354 0.702919 0.0503897 -0.0460704 0.525112 
-0.180133 -0.037341 0.68079 -0.170771 0.1572 0.46615 -0.11701 -0.107338 0.800643 
0.024483 0.193856 0.725996 -0.0784003 -0.160731 0.420271 0.16624 -0.200736 0.709468 
-0.0455765 -0.116437 0.673402 -0.0181626 0.156659 0.541464 -0.182853 0.133683 0.520273 
-0.00445486 -0.211981 0.637306 -0.270243 0.189974 0.395028 -0.0800213 -0.155869 0.525204 
-0.00812567 -0.103394 0.588556 0.0307604 -0.217736 0.479694 -0.330432 -0.154505 0.674984 
0.123641 0.0150576 0.662504 -0.126371 -0.169667 0.606139 0.172214 0.0911638 0.547092 
-0.0135449 -0.0744826 0.472507 0.0258426 0.0603702 0.58336 0.0754423 -0.13114 0.474341 
0.0733602 -0.397468 0.57692 0.140272 0.0580953 0.58487 0.0533299 -0.0428992 0.488108 
0.100373 -0.399201 0.688815 -0.149919 -0.0844026 0.622826 0.199339 0.183756 0.573735 
0.121332 0.0195636 0.503098 -0.0253082 -0.136728 0.638398 0.0510037 0.243792 0.398269 
0.0156592 -0.0086972 0.695823 0.432851 0.101486 0.55719 0.122844 -0.0120614 0.625467 
0.0415686 -0.120536 0.71312 0.167537 0.0609322 0.475435 0.182866 -0.151417 0.571916 
0.0110298 -0.11031 0.614629 -0.0558227 0.118243 0.472208 -0.562987 0.0209563 0.34189 
0.414989 0.18904 0.612304 0.081577 0.058957 0.513482 -0.170616 0.109698 0.777746 
-0.0571803 -0.0472121 0.534351 -0.194446 0.0228566 0.528145 0.173618 -0.182217 0.561543 
0.103484 -0.0481728 0.469375 -0.154067 -0.171032 0.30509 -0.221301 0.0114598 0.63638 
-0.0364044 0.105054 0.424898 0.305242 0.267385 0.435559 0.0461168 -0.0220007 0.756526 
-0.0785928 -0.00722702 0.68139 -0.226479 0.0418374 0.785605 -0.277462 0.111353 0.489978 
0.080858 0.174224 0.622781 -0.163743 -0.142469 0.496014 0.0971883 -0.22116 0.58127 
-0.00443167 -0.157555 0.629074 -0.0941981 0.0371061 0.77712 0.30428 0.075929 0.658044 
-0.0971098 -0.175084 0.745158 0.0191144 0.0422221 0.725142 -0.253884 -0.236818 0.677348 
-0.310219 0.0877923 0.588599 0.0168139 -0.0811839 0.468403 0.30325 -0.0584993 0.705065 
0.10964 0.0764002 0.550708 -0.241026 -0.0284252 0.663559 -0.198825 -0.0210594 0.605216 
0.0490688 0.100758 0.698601 -0.142898 -0.102855 0.563267 0.101461 0.0268148 0.720885 
0.000459625 -0.0280943 0.570576 0.170757 0.137605 0.887872 0.115388 -0.078936 0.785336 
-0.0230912 0.152571 0.469441 0.0943965 -0.0240951 0.683312 0.18068 -0.0237401 0.859204 
0.136025 -0.130938 0.523916 0.0373797 -0.160719 0.998213 -0.090256 0.0558602 0.654722 
0.0117919 -0.0879033 0.534377 -0.187943 0.159961 0.757323 0.114773 0.117506 0.82367 
0.108953 -0.0878228 0.750509 -0.0404214 0.16341 0.786801 0.00433593 0.0308427 0.859921 
0.371206 -0.10264 0.643834 -0.203782 -0.468182 0.925813 -0.154289 -0.0969123 0.764066 
-0.263032 -0.222341 0.733665 0.040437 0.00847521 0.545609 -0.132958 -0.310851 0.792776 
-0.346887 0.0978069 0.717305 -0.209747 -0.0934083 0.732395 0.257078 0.046334 0.723361 
0.0312589 -0.294371 0.632004 0.0471544 0.0214691 0.642507 -0.0155454 0.140766 0.654452 
0.0685883 -0.169953 0.847879 0.178306 0.030856 0.597313 0.107886 0.0257903 0.504479 
-0.0829469 0.176306 0.683619 0.303039 0.0544555 0.837314 0.291982 0.00049367 0.789228 
-0.19714 0.00146186 0.765613 0.0218133 0.093529 0.718316 -0.0555072 -0.0534757 0.761519 
0.186058 0.104688 0.723255 0.0269357 0.221241 0.893105 -0.147121 -0.0398916 0.894685 
0.12718 0.137151 0.736951 -0.140748 0.267484 0.414703 0.100547 0.0810018 0.663374 
0.0395306 -0.110236 0.699045 0.075752 0.0422662 0.915291 0.0637317 -0.0154551 0.78853 
0.0725137 0.12955 0.971545 -0.0511034 0.142483 0.700618 0.0761781 0.0729858 0.760815 
-0.0777822 0.079602 0.71191 -0.208033 0.0543668 0.845337 0.187991 -0.101499 0.791103 
0.260148 -0.0464448 0.729779 0.165225 0.00491093 0.621456 0.168187 -0.0322929 0.462978 
0.32465 0.0268017 0.691136 0.0152354 0.091696 0.797214 0.116337 -0.115378 0.689876 
0.308353 0.097325 0.642947 0.0977168 0.0647242 0.975239 -0.0748576 0.0154932 0.846577 
-0.153383 0.0828389 0.631871 0.119926 0.0561079 0.548328 -0.127489 0.0543433 0.718199 
-0.0839201 -0.0831895 0.391552 0.0809927 -0.00272218 0.818732 -0.0758285 0.133483 0.781243 
0.133236 0.349492 0.605757 -0.067607 0.00949153 0.132027 -0.134164 -0.0193041 0.744363 
0.0132428 0.105394 0.733887 0.229793 0.00367143 0.931979 -0.184698 -0.0207763 0.591787 
-0.134992 -0.0512411 0.814871 -0.0833566 -0.00772134 0.598152 -0.0284034 -0.186492 0.706199 
-0.151503 -0.128949 0.835615 -0.0812869 -0.171837 0.629456 -0.43077 -0.0457786 0.485573 
-0.0642237 0.0856283 1.0399 -0.185759 0.136531 0.932461 -0.0640546 -0.14894 0.903594 
0.0624017 0.205628 0.746743 0.193207 -0.0339421 0.949365 0.0370408 0.198478 0.909986 
-0.124725 -0.0133604 1.0696 -0.036387 0.157504 0.808175 0.0326764 -0.316308 0.895702 
-0.238685 -0.0344862 1.28199 0.0927904 0.0802154 1.00943 -0.186916 0.330747 0.820059 
-0.126192 -0.195391 0.791867 0.181242 -0.0495846 0.801601 0.166038 -0.0772892 0.75193 
-0.0470679 0.0835481 0.745315 -0.199156 0.210357 0.906169 -0.011054 -0.117873 1.15061 
0.101763 -0.174659 1.25254 -0.104489 -0.0303105 0.823504 0.113116 0.0262892 0.988572 
0.00390537 0.205064 0.729374 -0.163102 -0.108927 0.758304 0.0828262 0.00190592 0.696822 
0.044112 0.160288 0.851293 -0.121886 0.0898155 0.875288 0.10143 0.235849 0.749829 
0.20023 0.0264096 0.974342 -0.130862 0.135432 1.20003 0.164584 0.167095 1.05071 
0.253889 -0.0239771 0.792996 0.0450156 -0.234761 0.819377 -0.0403039 0.0638157 0.641899 
-0.0784233 -0.056656 0.932789 -0.0221376 -0.111258 0.703275 -0.0302923 0.137764 0.732444 
-0.351148 0.238652 0.743837 0.127078 0.132414 0.299244 0.385706 -0.0819819 0.799517 
0.282518 0.199236 0.818479 -0.217524 -0.0578265 0.886488 0.0879291 -0.0216342 1.11751 
-0.0931279 -0.125093 0.784456 -0.0328849 -0.155324 1.08345 0.259629 0.156362 1.07869 
0.142833 -0.0738156 0.739375 -0.309343 -0.0456772 0.887724 0.0551963 0.117897 0.958568 
0.30661 -0.337129 0.849942 0.124478 0.130117 0.927263 0.208795 -0.0488947 0.709622 
0.168995 -0.307565 0.90308 0.213594 0.134868 1.00639 -0.0208542 0.00393541 0.927366 
0.0165464 -0.0480557 0.990545 0.0794084 -0.0759078 0.953522 0.169137 0.0306317 0.857665 
-0.0769099 -0.120057 0.794943 -0.0400795 -0.197297 0.844598 0.0126382 0.0608245 0.796778 
-0.152733 0.178817 0.860038 0.0415723 -0.0520395 0.798486 0.170197 -0.074052 0.954468 
-0.104551 -0.208963 0.824013 0.0643543 0.0918767 0.655061 -0.0416715 0.0371447 0.731868 
0.12585 0.0471022 0.90028 -0.01924 0.0130758 0.870684 0.137032 0.0374726 0.784331 
-0.0641016 0.120178 0.608714 0.163034 0.0205789 0.781395 0.361243 0.312974 0.554444 
-0.533856 -0.272395 0.843597 0.165378 -0.0648616 0.992524 -0.228278 0.0173569 0.938385 
9.30349e-06 -0.0416205 0.946507 -0.192853 -0.131676 0.568216 -0.0767167 -0.246382 0.924441 
-0.193277 0.0899265 0.70366 0.0193881 -0.0414531 1.03295 0.246377 0.0786833 0.751259 
0.379423 0.0901844 0.744465 0.0928484 0.0665732 1.00902 0.0731339 0.0761822 1.00382 
-0.0549587 -0.0546643 0.984287 0.0354529 0.100338 1.0073 -0.366665 0.0539716 0.730142 
-0.106388 -0.173196 1.02753 -0.0682379 -0.122375 0.872327 0.208864 0.0118794 0.97589 
0.218794 -0.401198 0.800703 0.0493803 0.0121944 1.17617 0.237302 -0.130431 1.1814 
-0.0425197 -0.25505 1.2732 -0.134814 0.123687 0.730949 0.160266 -0.229944 0.922246 
-0.00119592 -0.178557 1.13643 -0.157869 -0.599718 1.03743 0.0439235 -0.1055 1.0028 
0.0658012 -0.255091 1.03722 0.291329 0.136219 1.25183 0.0772923 0.189577 0.975719 
0.233547 -0.132815 1.06485 -0.171061 -0.121297 0.837353 -0.207869 0.309804 0.85891 
-0.0356017 -0.23114 0.981978 -0.0350789 -0.217646 0.889019 -0.29052 -0.164894 0.90729 
-0.0793124 -0.106129 1.33255 0.0375439 0.161374 1.0789 -0.112277 -0.146771 0.875354 
0.0397754 -0.127264 0.891393 0.23499 -0.00763076 1.06819 -0.00898504 -0.0522343 1.08109 
-0.474724 -0.271709 1.22193 0.0782458 -0.126965 1.00733 0.263396 0.120796 0.43585 
-0.513937 -0.243675 0.981263 -0.0619994 0.30315 1.0774 -0.288953 0.00525761 0.90652 
-0.118878 0.135424 0.843333 -0.0160124 0.443293 0.84689 0.111846 0.132637 0.865678 
-0.331722 0.137605 1.29681 0.169533 -0.0635183 1.10106 0.0743505 0.136647 0.8522 
0.0343722 0.089949 0.946677 0.0328841 -0.0375712 0.886102 0.184721 -0.176766 0.911232 
0.130833 0.107922 0.919343 -0.171552 0.308313 0.943512 -0.0164957 -0.0905779 1.05919 
0.0413271 0.227617 1.04701 -0.194238 0.0144955 0.987458 -0.0169985 0.338248 1.0519 
0.114618 -0.0630634 0.799221 -0.177498 -0.0999918 1.06799 0.044577 0.0728021 1.00144 
-0.146998 -0.15222 0.87091 0.207697 0.0477027 0.996896 0.0134014 -0.0120556 0.903785 
-0.121822 0.154513 1.01395 -0.256207 0.137057 0.977567 0.289824 0.0525675 0.974557 
-0.012031 -0.115877 1.05313 0.0482305 -0.345086 1.09468 -0.0494325 -0.231627 1.28408 
0.0449777 -0.112415 1.22172 -0.0378701 0.0549999 1.16086 0.100469 -0.274861 0.81692 
-0.0222838 0.38148 1.08157 0.289634 0.403492 0.563965 -0.0134846 -0.197068 0.396964 
0.173384 0.0367423 1.11478 -0.366742 -0.00677599 1.2112 -0.0256961 -0.270151 1.04136 
0.197214 -0.033509 1.0994 0.019749 -0.268892 0.705226 0.41722 -0.157135 0.88381 
0.190563 0.296258 1.12331 0.17948 0.0867927 0.965351 0.103955 0.00777026 0.84833 
0.0974524 0.240364 0.770283 0.348597 0.316039 1.06079 0.295984 0.0625276 0.843764 
0.260178 0.0756775 1.12695 0.0640612 -0.0792505 1.08543 -0.0220746 0.155168 1.01312 
0.148019 0.233253 0.768217 -0.29367 0.0666076 0.901814 -0.0579003 -0.276678 1.13865 
-0.173031 -0.349887 1.23952 0.116761 0.0859516 1.24932 0.0364547 0.165158 0.945219 
0.034559 -0.0520515 1.04281 0.211842 0.343486 1.01991 -0.150809 0.524173 0.962744 
-0.239774 -0.198053 1.17597 0.0572402 -0.133129 1.21958 -0.00939885 0.166425 0.555929 
0.196206 0.333178 1.13098 -0.339384 -0.249302 0.491469 -0.126497 -0.272676 0.784343 
0.0796566 -0.0956548 1.2394 0.411498 0.416038 1.02982 0.316718 -0.262485 1.28672 
-0.211751 0.137379 1.46001 0.410577 0.443302 1.18986 -0.159498 0.356513 1.2401 
-0.183057 0.202839 1.15296 0.212759 0.472062 1.28483 0.192142 -0.449489 0.841705 
0.0727712 -0.35244 1.00171 0.0910818 0.150478 1.49362 -0.624479 0.0777148 0.787822 
0.543867 -0.131544 1.0392 -0.275091 0.178737 1.37944 -0.250885 -0.184205 1.02386 
0.105717 0.139784 1.0485 -0.331085 0.470609 1.35908 -0.387493 -0.397218 0.562182 
0.305247 0.167378 0.980488 -0.00934649 -0.0124923 1.13069 0.0988389 -0.134602 1.03784 
0.0113365 0.15374 0.993 -0.174853 0.079238 1.02203 -0.060165 -0.0382224 1.40632 
-0.246016 0.27868 0.604019 -0.177309 -0.131823 1.15844 -0.283287 -0.13647 1.42198 
0.0482018 -0.264861 1.10348 0.367649 -0.426607 1.0414 0.185677 0.121599 1.20657 
-0.0182871 0.10601 0.741908 0.261428 -0.104191 1.20342 -0.209454 0.470042 1.10925 
0.0351837 0.39757 1.17565 -0.0174569 -0.145619 1.13287 0.364087 -0.0981737 0.915381 
0.0436846 0.162144 1.15812 -0.167188 -0.0567898 0.66426 0.4069 0.0552819 1.42861 
0.0794038 0.0486478 1.35506 -0.171519 -0.0629767 1.41505 0.235021 -0.129897 0.688223 
0.681026 0.106482 0.990091 0.368104 0.338215 1.01932 0.322726 0.163448 1.06545 
-0.136893 0.0754049 1.32368 -0.231013 -0.253506 0.668754 0.291103 -0.108193 1.50817 
0.153513 -0.216751 1.14574 -0.610447 0.00865574 0.759772 0.0833892 0.282843 1.10039 
0.137404 -0.0819025 1.07979 -0.00900028 -0.158098 1.29977 -0.00707571 0.0922978 1.29101 
0.0901291 0.0392935 1.07874 0.216237 0.140877 1.07474 -0.0239983 -0.200651 0.908583 
-0.315324 0.0767052 1.06459 -0.528581 -0.0418809 1.12436 -0.0562449 0.192789 1.34724 
0.28276 0.398836 0.974463 0.172538 0.0877603 1.08526 -0.000718678 -0.0191343 1.21332 
0.240314 0.0080479 1.30122 -0.0556075 0.0976374 0.930398 0.0471127 0.182149 1.08576 
0.343018 0.0385625 1.45032 0.111446 0.346309 1.20384 0.164658 -0.102657 1.45604 
0.0905821 -0.164122 1.05107 -0.639377 -0.230312 1.16316 -0.716632 -0.117997 1.07225 
-0.443338 0.259969 0.980457 -0.178956 -0.276983 1.23867 -0.0526043 -0.339571 1.24812 
0.200388 0.209147 1.18589 -0.172279 0.510554 0.458824 0.17346 0.124149 1.592 
0.543977 -0.0618881 1.14902 0.111241 0.219792 1.46413 0.175517 -0.00662576 1.21897 
-0.250816 -0.221918 1.41532 -0.106282 0.212543 1.43805 0.144014 0.191961 1.3251 
0.217265 -0.539327 1.48425 0.0342674 0.0449238 1.06739 -0.133064 -0.326863 0.300933 
0.223661 -0.0135988 1.42519 -0.0661545 -0.250648 0.641949 0.336972 -0.0721802 1.43886 
-0.579755 -0.391407 1.09668 0.261779 0.17065 1.27595 -0.244085 -0.187078 1.35655 
0.383349 0.268223 1.49842 0.303553 0.0530776 1.05339 -0.558222 0.170014 1.62237 
0.440848 -0.521346 1.51521 -0.511726 0.111959 1.44552 0.844232 -0.12778 1.04287 
-0.354958 0.0113971 0.982925 0.418373 -0.178417 0.928025 0.499441 -0.395938 1.41665 
-0.425786 0.455334 1.58412 0.177233 -0.21772 1.47078 0.220203 -0.010385 1.48981 
0.0918151 -0.293665 1.00615 0.70622 0.186166 0.409646 -0.327176 0.261752 1.1705 
-0.152745 0.17994 0.466993 -0.195466 -0.208346 1.05798 0.256876 0.277951 1.63173 
-0.355909 0.623348 1.43279 -0.685448 -0.337954 0.427359 0.442615 -0.0708572 1.24712 
0.0599093 -0.349474 0.531445 0.150505 -0.0812137 1.16307 -0.227489 0.35981 1.5344 
0.14076 -0.400721 1.28137 0.0153384 0.466609 1.10983 -0.409545 0.0509342 1.71396 
-0.520661 -0.19705 0.874855 -0.602482 0.149929 1.43937 -0.226987 -0.222913 1.55934 
-0.198084 -0.48293 1.42756 0.370946 -0.412992 1.46274 -0.743287 0.129818 1.66554 
-0.355822 0.0530727 1.89246 -0.118058 -0.0891234 1.87554 0.0255048 -0.207489 1.88479 
0.0394835 0.0570228 1.48933 0.443692 0.358392 1.5768 -0.0180965 -0.376867 1.37178 
0.0555349 0.704004 1.47196 0.674831 0.199097 -1.47816 -0.618356 0.214611 1.26993 
0.0180402 0.0493576 1.0229 -0.354425 -0.250274 1.27407 0.323789 -0.258307 1.58421 
-0.0443627 0.187096 1.781 -0.413508 -0.251288 1.5552 0.528027 -0.0585625 1.51917 
0.245897 -0.104945 1.51328 0.609511 0.248573 1.47733 -0.0118526 0.155133 1.50913 
-0.150115 -0.563195 1.43575 -0.33656 0.384471 1.17855 -0.118152 -0.244167 1.67279 
0.0267008 -0.537665 1.75238 -0.0142838 -0.3081 1.66499 0.54533 -0.247846 1.38879 
-0.0764202 1.01372 0.508879 -0.248252 -0.152411 1.07895 0.169149 -0.0780475 0.592722 
0.10322 -0.300873 1.57585 0.105103 0.175365 1.79145 0.988024 0.26357 -0.685203 
-0.123355 -0.0900897 -1.75785 0.58771 -0.0975296 1.71588 -0.0172747 -0.100379 2.15025 
0.225091 -0.116336 0.69659 -0.783449 0.585016 1.61077 0.0705045 -0.393902 -1.84312 
-0.054411 0.871885 1.36504 -1.03497 0.874797 1.79158 0.429815 0.0743293 1.8334 
-0.353747 -0.389649 -2.09372 0.626256 -0.7245 -0.960967 -0.755938 0.232833 1.20136 
0.547262 -0.530721 1.45412 -0.300909 -0.0224361 1.88695 0.452964 -0.417477 1.92603 

om 3 567 double
0 0 0 0 0 0 0 0 0 
0 0 0 0 0 0 0 0 0 
0 0 0 0 0 0 0 0 0 
0 0 0 0 0 0 0 0 0 
0 0 0 0 0 0 0 0 0 
0 0 0 0 0 0 0 0 0 
0 0 0 0 0 0 0 0 0 
0 0 0 0 0 0 0 0 0 
0 0 0 0 0 0 0 0 0 
0 0 0 0 0 0 0 0 0 
0 0 0 0 0 0 0 0 0 
0 0 0 0 0 0 0 0 0 
0 0 0 0 0 0 0 0 0 
0 0 0 0 0 0 0 0 0 
0 0 0 0 0 0 0 0 0 
0 0 0 0 0 0 0 0 0 
0 0 0 0 0 0 0 0 0 
0 0 0 0 0 0 0 0 0 
0 0 0 0 0 0 0 0 0 
0 0 0 0 0 0 0 0 0 
0 0 0 0 0 0 0 0 0 
0 0 0 0 0 0 0 0 0 
0 0 0 0 0 0 0 0 0 
0 0 0 0 0 0 0 0 0 
0 0 0 0 0 0 0 0 0 
0 0 0 0 0 0 0 0 0 
0 0 0 0 0 0 0 0 0 
0 0 0 0 0 0 0 0 0 
0 0 0 0 0 0 0 0 0 
0 0 0 0 0 0 0 0 0 
0 0 0 0 0 0 0 0 0 
0 0 0 0 0 0 0 0 0 
0 0 0 0 0 0 0 0 0 
0 0 0 0 0 0 0 0 0 
0 0 0 0 0 0 0 0 0 
0 0 0 0 0 0 0 0 0 
0 0 0 0 0 0 0 0 0 
0 0 0 0 0 0 0 0 0 
0 0 0 0 0 0 0 0 0 
0 0 0 0 0 0 0 0 0 
0 0 0 0 0 0 0 0 0 
0 0 0 0 0 0 0 0 0 
0 0 0 0 0 0 0 0 0 
0 0 0 0 0 0 0 0 0 
0 0 0 0 0 0 0 0 0 
0 0 0 0 0 0 0 0 0 
0 0 0 0 0 0 0 0 0 
0 0 0 0 0 0 0 0 0 
0 0 0 0 0 0 0 0 0 
0 0 0 0 0 0 0 0 0 
0 0 0 0 0 0 0 0 0 
0 0 0 0 0 0 0 0 0 
0 0 0 0 0 0 0 0 0 
0 0 0 0 0 0 0 0 0 
0 0 0 0 0 0 0 0 0 
0 0 0 0 0 0 0 0 0 
0 0 0 0 0 0 0 0 0 
0 0 0 0 0 0 0 0 0 
0 0 0 0 0 0 0 0 0 
0 0 0 0 0 0 0 0 0 
0 0 0 0 0 0 0 0 0 
0 0 0 0 0 0 0 0 0 
0 0 0 0 0 0 0 0 0 
0 0 0 0 0 0 0 0 0 
0 0 0 0 0 0 0 0 0 
0 0 0 0 0 0 0 0 0 
0 0 0 0 0 0 0 0 0 
0 0 0 0 0 0 0 0 0 
0 0 0 0 0 0 0 0 0 
0 0 0 0 0 0 0 0 0 
0 0 0 0 0 0 0 0 0 
0 0 0 0 0 0 0 0 0 
0 0 0 0 0 0 0 0 0 
0 0 0 0 0 0 0 0 0 
0 0 0 0 0 0 0 0 0 
0 0 0 0 0 0 0 0 0 
0 0 0 0 0 0 0 0 0 
0 0 0 0 0 0 0 0 0 
0 0 0 0 0 0 0 0 0 
0 0 0 0 0 0 0 0 0 
0 0 0 0 0 0 0 0 0 
0 0 0 0 0 0 0 0 0 
0 0 0 0 0 0 0 0 0 
0 0 0 0 0 0 0 0 0 
0 0 0 0 0 0 0 0 0 
0 0 0 0 0 0 0 0 0 
0 0 0 0 0 0 0 0 0 
0 0 0 0 0 0 0 0 0 
0 0 0 0 0 0 0 0 0 
0 0 0 0 0 0 0 0 0 
0 0 0 0 0 0 0 0 0 
0 0 0 0 0 0 0 0 0 
0 0 0 0 0 0 0 0 0 
0 0 0 0 0 0 0 0 0 
0 0 0 0 0 0 0 0 0 
0 0 0 0 0 0 0 0 0 
0 0 0 0 0 0 0 0 0 
0 0 0 0 0 0 0 0 0 
0 0 0 0 0 0 0 0 0 
0 0 0 0 0 0 0 0 0 
0 0 0 0 0 0 0 0 0 
0 0 0 0 0 0 0 0 0 
0 0 0 0 0 0 0 0 0 
0 0 0 0 0 0 0 0 0 
0 0 0 0 0 0 0 0 0 
0 0 0 0 0 0 0 0 0 
0 0 0 0 0 0 0 0 0 
0 0 0 0 0 0 0 0 0 
0 0 0 0 0 0 0 0 0 
0 0 0 0 0 0 0 0 0 
0 0 0 0 0 0 0 0 0 
0 0 0 0 0 0 0 0 0 
0 0 0 0 0 0 0 0 0 
0 0 0 0 0 0 0 0 0 
0 0 0 0 0 0 0 0 0 
0 0 0 0 0 0 0 0 0 
0 0 0 0 0 0 0 0 0 
0 0 0 0 0 0 0 0 0 
0 0 0 0 0 0 0 0 0 
0 0 0 0 0 0 0 0 0 
0 0 0 0 0 0 0 0 0 
0 0 0 0 0 0 0 0 0 
0 0 0 0 0 0 0 0 0 
0 0 0 0 0 0 0 0 0 
0 0 0 0 0 0 0 0 0 
0 0 0 0 0 0 0 0 0 
0 0 0 0 0 0 0 0 0 
0 0 0 0 0 0 0 0 0 
0 0 0 0 0 0 0 0 0 
0 0 0 0 0 0 0 0 0 
0 0 0 0 0 0 0 0 0 
0 0 0 0 0 0 0 0 0 
0 0 0 0 0 0 0 0 0 
0 0 0 0 0 0 0 0 0 
0 0 0 0 0 0 0 0 0 
0 0 0 0 0 0 0 0 0 
0 0 0 0 0 0 0 0 0 
0 0 0 0 0 0 0 0 0 
0 0 0 0 0 0 0 0 0 
0 0 0 0 0 0 0 0 0 
0 0 0 0 0 0 0 0 0 
0 0 0 0 0 0 0 0 0 
0 0 0 0 0 0 0 0 0 
0 0 0 0 0 0 0 0 0 
0 0 0 0 0 0 0 0 0 
0 0 0 0 0 0 0 0 0 
0 0 0 0 0 0 0 0 0 
0 0 0 0 0 0 0 0 0 
0 0 0 0 0 0 0 0 0 
0 0 0 0 0 0 0 0 0 
0 0 0 0 0 0 0 0 0 
0 0 0 0 0 0 0 0 0 
0 0 0 0 0 0 0 0 0 
0 0 0 0 0 0 0 0 0 
0 0 0 0 0 0 0 0 0 
0 0 0 0 0 0 0 0 0 
0 0 0 0 0 0 0 0 0 
0 0 0 0 0 0 0 0 0 
0 0 0 0 0 0 0 0 0 
0 0 0 0 0 0 0 0 0 
0 0 0 0 0 0 0 0 0 
0 0 0 0 0 0 0 0 0 
0 0 0 0 0 0 0 0 0 
0 0 0 0 0 0 0 0 0 
0 0 0 0 0 0 0 0 0 
0 0 0 0 0 0 0 0 0 
0 0 0 0 0 0 0 0 0 
0 0 0 0 0 0 0 0 0 
0 0 0 0 0 0 0 0 0 
0 0 0 0 0 0 0 0 0 
0 0 0 0 0 0 0 0 0 
0 0 0 0 0 0 0 0 0 
0 0 0 0 0 0 0 0 0 
0 0 0 0 0 0 0 0 0 
0 0 0 0 0 0 0 0 0 
0 0 0 0 0 0 0 0 0 
0 0 0 0 0 0 0 0 0 
0 0 0 0 0 0 0 0 0 
0 0 0 0 0 0 0 0 0 
0 0 0 0 0 0 0 0 0 
0 0 0 0 0 0 0 0 0 
0 0 0 0 0 0 0 0 0 
0 0 0 0 0 0 0 0 0 
0 0 0 0 0 0 0 0 0 
0 0 0 0 0 0 0 0 0 
0 0 0 0 0 0 0 0 0 
0 0 0 0 0 0 0 0 0 
0 0 0 0 0 0 0 0 0 
0 0 0 0 0 0 0 0 0 

bottom 1 567 double
-0.0547899 -0.0547899 -0.0547899 -0.0547899 -0.0547899 -0.0547899 -0.0547899 -0.0547899 -0.0547899 
-0.0547899 -0.0547899 -0.0547899 -0.0547899 -0.0547899 -0.0547899 -0.0547899 -0.0547899 -0.0547899 
-0.0547899 -0.0547899 -0.0547899 -0.0547899 -0.0547899 -0.0547899 -0.0547899 -0.0547899 -0.0547899 
-0.0547899 -0.0547899 -0.0547899 -0.0547899 -0.0547899 -0.0547899 -0.0547899 -0.0547899 -0.0547899 
-0.0547899 -0.0547899 -0.0547899 -0.0547899 -0.0547899 -0.0547899 -0.0547899 -0.0547899 -0.0547899 
-0.0547899 -0.0547899 -0.0547899 -0.0547899 -0.0547899 -0.0547899 -0.0547899 -0.0547899 -0.0547899 
-0.0547899 -0.0547899 -0.0547899 -0.0547899 -0.0547899 -0.0547899 -0.0547899 -0.0547899 -0.0547899 
-0.0547899 -0.0547899 -0.0547899 -0.0547899 -0.0547899 -0.0547899 -0.0547899 -0.0547899 -0.0547899 
-0.0547899 -0.0547899 -0.0547899 -0.0547899 -0.0547899 -0.0547899 -0.0547899 -0.0547899 -0.0547899 
-0.0547899 -0.0547899 -0.0547899 -0.0547899 -0.0547899 -0.0547899 -0.0547899 -0.0547899 -0.0547899 
-0.0547899 -0.0547899 -0.0547899 -0.0547899 -0.0547899 -0.0547899 -0.0547899 -0.0547899 -0.0547899 
-0.0547899 -0.0547899 -0.0547899 -0.0547899 -0.0547899 -0.0547899 -0.0547899 -0.0547899 -0.0547899 
-0.0547899 -0.0547899 -0.0547899 -0.0547899 -0.0547899 -0.0547899 -0.0547899 -0.0547899 -0.0547899 
-0.0547899 -0.0547899 -0.0547899 -0.0547899 -0.0547899 -0.0547899 -0.0547899 -0.0547899 -0.0547899 
-0.0547899 -0.0547899 -0.0547899 -0.0547899 -0.0547899 -0.0547899 -0.0547899 -0.0547899 -0.0547899 
-0.0547899 -0.0547899 -0.0547899 -0.0547899 -0.0547899 -0.0547899 -0.0547899 -0.0547899 -0.0547899 
-0.0547899 -0.0547899 -0.0547899 -0.0547899 -0.0547899 -0.0547899 -0.0547899 -0.0547899 -0.0547899 
-0.0547899 -0.0547899 -0.0547899 -0.0547899 -0.0547899 -0.0547899 -0.0547899 -0.0547899 -0.0547899 
-0.0547899 -0.0547899 -0.0547899 -0.0547899 -0.0547899 -0.0547899 -0.0547899 -0.0547899 -0.0547899 
-0.0547899 -0.0547899 -0.0547899 -0.0547899 -0.0547899 -0.0547899 -0.0547899 -0.0547899 -0.0547899 
-0.0547899 -0.0547899 -0.0547899 -0.0547899 -0.0547899 -0.0547899 -0.0547899 -0.0547899 -0.0547899 
-0.0547899 -0.0547899 -0.0547899 -0.0547899 -0.0547899 -0.0547899 -0.0547899 -0.0547899 -0.0547899 
-0.0547899 -0.0547899 -0.0547899 -0.0547899 -0.0547899 -0.0547899 -0.0547899 -0.0547899 -0.0547899 
-0.0547899 -0.0547899 -0.0547899 -0.0547899 -0.0547899 -0.0547899 -0.0547899 -0.0547899 -0.0547899 
-0.0547899 -0.0547899 -0.0547899 -0.0547899 -0.0547899 -0.0547899 -0.0547899 -0.0547899 -0.0547899 
-0.0547899 -0.0547899 -0.0547899 -0.0547899 -0.0547899 -0.0547899 -0.0547899 -0.0547899 -0.0547899 
-0.0547899 -0.0547899 -0.0547899 -0.0547899 -0.0547899 -0.0547899 -0.0547899 -0.0547899 -0.0547899 
-0.0547899 -0.0547899 -0.0547899 -0.0547899 -0.0547899 -0.0547899 -0.0547899 -0.0547899 -0.0547899 
-0.0547899 -0.0547899 -0.0547899 -0.0547899 -0.0547899 -0.0547899 -0.0547899 -0.0547899 -0.0547899 
-0.0547899 -0.0547899 -0.0547899 -0.0547899 -0.0547899 -0.0547899 -0.0547899 -0.0547899 -0.0547899 
-0.0547899 -0.0547899 -0.0547899 -0.0547899 -0.0547899 -0.0547899 -0.0547899 -0.0547899 -0.0547899 
-0.0547899 -0.0547899 -0.0547899 -0.0547899 -0.0547899 -0.0547899 -0.0547899 -0.0547899 -0.0547899 
-0.0547899 -0.0547899 -0.0547899 -0.0547899 -0.0547899 -0.0547899 -0.0547899 -0.0547899 -0.0547899 
-0.0547899 -0.0547899 -0.0547899 -0.0547899 -0.0547899 -0.0547899 -0.0547899 -0.0547899 -0.0547899 
-0.0547899 -0.0547899 -0.0547899 -0.0547899 -0.0547899 -0.0547899 -0.0547899 -0.0547899 -0.0547899 
-0.0547899 -0.0547899 -0.0547899 -0.0547899 -0.0547899 -0.0547899 -0.0547899 -0.0547899 -0.0547899 
-0.0547899 -0.0547899 -0.0547899 -0.0547899 -0.0547899 -0.0547899 -0.0547899 -0.0547899 -0.0547899 
-0.0547899 -0.0547899 -0.0547899 -0.0547899 -0.0547899 -0.0547899 -0.0547899 -0.0547899 -0.0547899 
-0.0547899 -0.0547899 -0.0547899 -0.0547899 -0.0547899 -0.0547899 -0.0547899 -0.0547899 -0.0547899 
-0.0547899 -0.0547899 -0.0547899 -0.0547899 -0.0547899 -0.0547899 -0.0547899 -0.0547899 -0.0547899 
-0.0547899 -0.0547899 -0.0547899 -0.0547899 -0.0547899 -0.0547899 -0.0547899 -0.0547899 -0.0547899 
-0.0547899 -0.0547899 -0.0547899 -0.0547899 -0.0547899 -0.0547899 -0.0547899 -0.0547899 -0.0547899 
-0.0547899 -0.0547899 -0.0547899 -0.0547899 -0.0547899 -0.0547899 -0.0547899 -0.0547899 -0.0547899 
-0.0547899 -0.0547899 -0.0547899 -0.0547899 -0.0547899 -0.0547899 -0.0547899 -0.0547899 -0.0547899 
-0.0547899 -0.0547899 -0.0547899 -0.0547899 -0.0547899 -0.0547899 -0.0547899 -0.0547899 -0.0547899 
-0.0547899 -0.0547899 -0.0547899 -0.0547899 -0.0547899 -0.0547899 -0.0547899 -0.0547899 -0.0547899 
-0.0547899 -0.0547899 -0.0547899 -0.0547899 -0.0547899 -0.0547899 -0.0547899 -0.0547899 -0.0547899 
-0.0547899 -0.0547899 -0.0547899 -0.0547899 -0.0547899 -0.0547899 -0.0547899 -0.0547899 -0.0547899 
-0.0547899 -0.0547899 -0.0547899 -0.0547899 -0.0547899 -0.0547899 -0.0547899 -0.0547899 -0.0547899 
-0.0547899 -0.0547899 -0.0547899 -0.0547899 -0.0547899 -0.0547899 -0.0547899 -0.0547899 -0.0547899 
-0.0547899 -0.0547899 -0.0547899 -0.0547899 -0.0547899 -0.0547899 -0.0547899 -0.0547899 -0.0547899 
-0.0547899 -0.0547899 -0.0547899 -0.0547899 -0.0547899 -0.0547899 -0.0547899 -0.0547899 -0.0547899 
-0.0547899 -0.0547899 -0.0547899 -0.0547899 -0.0547899 -0.0547899 -0.0547899 -0.0547899 -0.0547899 
-0.0547899 -0.0547899 -0.0547899 -0.0547899 -0.0547899 -0.0547899 -0.0547899 -0.0547899 -0.0547899 
-0.0547899 -0.0547899 -0.0547899 -0.0547899 -0.0547899 -0.0547899 -0.0547899 -0.0547899 -0.0547899 
-0.0547899 -0.0547899 -0.0547899 -0.0547899 -0.0547899 -0.0547899 -0.0547899 -0.0547899 -0.0547899 
-0.0547899 -0.0547899 -0.0547899 -0.0547899 -0.0547899 -0.0547899 -0.0547899 -0.0547899 -0.0547899 
-0.0547899 -0.0547899 -0.0547899 -0.0547899 -0.0547899 -0.0547899 -0.0547899 -0.0547899 -0.0547899 
-0.0547899 -0.0547899 -0.0547899 -0.0547899 -0.0547899 -0.0547899 -0.0547899 -0.0547899 -0.0547899 
-0.0547899 -0.0547899 -0.0547899 -0.0547899 -0.0547899 -0.0547899 -0.0547899 -0.0547899 -0.0547899 
-0.0547899 -0.0547899 -0.0547899 -0.0547899 -0.0547899 -0.0547899 -0.0547899 -0.0547899 -0.0547899 
-0.0547899 -0.0547899 -0.0547899 -0.0547899 -0.0547899 -0.0547899 -0.0547899 -0.0547899 -0.0547899 
-0.0547899 -0.0547899 -0.0547899 -0.0547899 -0.0547899 -0.0547899 -0.0547899 -0.0547899 -0.0547899 

top 1 567 double
0.0452101 0.0452101 0.0452101 0.0452101 0.0452101 0.0452101 0.0452101 0.0452101 0.0452101 
0.0452101 0.0452101 0.0452101 0.0452101 0.0452101 0.0452101 0.0452101 0.0452101 0.0452101 
0.0452101 0.0452101 0.0452101 0.0452101 0.0452101 0.0452101 0.0452101 0.0452101 0.0452101 
0.0452101 0.0452101 0.0452101 0.0452101 0.0452101 0.0452101 0.0452101 0.0452101 0.0452101 
0.0452101 0.0452101 0.0452101 0.0452101 0.0452101 0.0452101 0.0452101 0.0452101 0.0452101 
0.0452101 0.0452101 0.0452101 0.0452101 0.0452101 0.0452101 0.0452101 0.0452101 0.0452101 
0.0452101 0.0452101 0.0452101 0.0452101 0.0452101 0.0452101 0.0452101 0.0452101 0.0452101 
0.0452101 0.0452101 0.0452101 0.0452101 0.0452101 0.0452101 0.0452101 0.0452101 0.0452101 
0.0452101 0.0452101 0.0452101 0.0452101 0.0452101 0.0452101 0.0452101 0.0452101 0.0452101 
0.0452101 0.0452101 0.0452101 0.0452101 0.0452101 0.0452101 0.0452101 0.0452101 0.0452101 
0.0452101 0.0452101 0.0452101 0.0452101 0.0452101 0.0452101 0.0452101 0.0452101 0.0452101 
0.0452101 0.0452101 0.0452101 0.0452101 0.0452101 0.0452101 0.0452101 0.0452101 0.0452101 
0.0452101 0.0452101 0.0452101 0.0452101 0.0452101 0.0452101 0.0452101 0.0452101 0.0452101 
0.0452101 0.0452101 0.0452101 0.0452101 0.0452101 0.0452101 0.0452101 0.0452101 0.0452101 
0.0452101 0.0452101 0.0452101 0.0452101 0.0452101 0.0452101 0.0452101 0.0452101 0.0452101 
0.0452101 0.0452101 0.0452101 0.0452101 0.0452101 0.0452101 0.0452101 0.0452101 0.0452101 
0.0452101 0.0452101 0.0452101 0.0452101 0.0452101 0.0452101 0.0452101 0.0452101 0.0452101 
0.0452101 0.0452101 0.0452101 0.0452101 0.0452101 0.0452101 0.0452101 0.0452101 0.0452101 
0.0452101 0.0452101 0.0452101 0.0452101 0.0452101 0.0452101 0.0452101 0.0452101 0.0452101 
0.0452101 0.0452101 0.0452101 0.0452101 0.0452101 0.0452101 0.0452101 0.0452101 0.0452101 
0.0452101 0.0452101 0.0452101 0.0452101 0.0452101 0.0452101 0.0452101 0.0452101 0.0452101 
0.0452101 0.0452101 0.0452101 0.0452101 0.0452101 0.0452101 0.0452101 0.0452101 0.0452101 
0.0452101 0.0452101 0.0452101 0.0452101 0.0452101 0.0452101 0.0452101 0.0452101 0.0452101 
0.0452101 0.0452101 0.0452101 0.0452101 0.0452101 0.0452101 0.0452101 0.0452101 0.0452101 
0.0452101 0.0452101 0.0452101 0.0452101 0.0452101 0.0452101 0.0452101 0.0452101 0.0452101 
0.0452101 0.0452101 0.0452101 0.0452101 0.0452101 0.0452101 0.0452101 0.0452101 0.0452101 
0.0452101 0.0452101 0.0452101 0.0452101 0.0452101 0.0452101 0.0452101 0.0452101 0.0452101 
0.0452101 0.0452101 0.0452101 0.0452101 0.0452101 0.0452101 0.0452101 0.0452101 0.0452101 
0.0452101 0.0452101 0.0452101 0.0452101 0.0452101 0.0452101 0.0452101 0.0452101 0.0452101 
0.0452101 0.0452101 0.0452101 0.0452101 0.0452101 0.0452101 0.0452101 0.0452101 0.0452101 
0.0452101 0.0452101 0.0452101 0.0452101 0.0452101 0.0452101 0.0452101 0.0452101 0.0452101 
0.0452101 0.0452101 0.0452101 0.0452101 0.0452101 0.0452101 0.0452101 0.0452101 0.0452101 
0.0452101 0.0452101 0.0452101 0.0452101 0.0452101 0.0452101 0.0452101 0.0452101 0.0452101 
0.0452101 0.0452101 0.0452101 0.0452101 0.0452101 0.0452101 0.0452101 0.0452101 0.0452101 
0.0452101 0.0452101 0.0452101 0.0452101 0.0452101 0.0452101 0.0452101 0.0452101 0.0452101 
0.0452101 0.0452101 0.0452101 0.0452101 0.0452101 0.0452101 0.0452101 0.0452101 0.0452101 
0.0452101 0.0452101 0.0452101 0.0452101 0.0452101 0.0452101 0.0452101 0.0452101 0.0452101 
0.0452101 0.0452101 0.0452101 0.0452101 0.0452101 0.0452101 0.0452101 0.0452101 0.0452101 
0.0452101 0.0452101 0.0452101 0.0452101 0.0452101 0.0452101 0.0452101 0.0452101 0.0452101 
0.0452101 0.0452101 0.0452101 0.0452101 0.0452101 0.0452101 0.0452101 0.0452101 0.0452101 
0.0452101 0.0452101 0.0452101 0.0452101 0.0452101 0.0452101 0.0452101 0.0452101 0.0452101 
0.0452101 0.0452101 0.0452101 0.0452101 0.0452101 0.0452101 0.0452101 0.0452101 0.0452101 
0.0452101 0.0452101 0.0452101 0.0452101 0.0452101 0.0452101 0.0452101 0.0452101 0.0452101 
0.0452101 0.0452101 0.0452101 0.0452101 0.0452101 0.0452101 0.0452101 0.0452101 0.0452101 
0.0452101 0.0452101 0.0452101 0.0452101 0.0452101 0.0452101 0.0452101 0.0452101 0.0452101 
0.0452101 0.0452101 0.0452101 0.0452101 0.0452101 0.0452101 0.0452101 0.0452101 0.0452101 
0.0452101 0.0452101 0.0452101 0.0452101 0.0452101 0.0452101 0.0452101 0.0452101 0.0452101 
0.0452101 0.0452101 0.0452101 0.0452101 0.0452101 0.0452101 0.0452101 0.0452101 0.0452101 
0.0452101 0.0452101 0.0452101 0.0452101 0.0452101 0.0452101 0.0452101 0.0452101 0.0452101 
0.0452101 0.0452101 0.0452101 0.0452101 0.0452101 0.0452101 0.0452101 0.0452101 0.0452101 
0.0452101 0.0452101 0.0452101 0.0452101 0.0452101 0.0452101 0.0452101 0.0452101 0.0452101 
0.0452101 0.0452101 0.0452101 0.0452101 0.0452101 0.0452101 0.0452101 0.0452101 0.0452101 
0.0452101 0.0452101 0.0452101 0.0452101 0.0452101 0.0452101 0.0452101 0.0452101 0.0452101 
0.0452101 0.0452101 0.0452101 0.0452101 0.0452101 0.0452101 0.0452101 0.0452101 0.0452101 
0.0452101 0.0452101 0.0452101 0.0452101 0.0452101 0.0452101 0.0452101 0.0452101 0.0452101 
0.0452101 0.0452101 0.0452101 0.0452101 0.0452101 0.0452101 0.0452101 0.0452101 0.0452101 
0.0452101 0.0452101 0.0452101 0.0452101 0.0452101 0.0452101 0.0452101 0.0452101 0.0452101 
0.0452101 0.0452101 0.0452101 0.0452101 0.0452101 0.0452101 0.0452101 0.0452101 0.0452101 
0.0452101 0.0452101 0.0452101 0.0452101 0.0452101 0.0452101 0.0452101 0.0452101 0.0452101 
0.0452101 0.0452101 0.0452101 0.0452101 0.0452101 0.0452101 0.0452101 0.0452101 0.0452101 
0.0452101 0.0452101 0.0452101 0.0452101 0.0452101 0.0452101 0.0452101 0.0452101 0.0452101 
0.0452101 0.0452101 0.0452101 0.0452101 0.0452101 0.0452101 0.0452101 0.0452101 0.0452101 
0.0452101 0.0452101 0.0452101 0.0452101 0.0452101 0.0452101 0.0452101 0.0452101 0.0452101 

