# vtk DataFile Version 4.0
vtk output
ASCII
DATASET POLYDATA
FIELD FieldData 4
domain 1 4 string
domain_min:-5|-5|-5
domain_max:5|5|5
cell_size:0.01|0.01|0.01
boundary:1|1|1

variables 1 8 string
T:0.03
dt:0.0005
A:-50.0994
V:2.91187
Z:0.01366
write_case:1
substeps:10
all_steps:60

constants 1 11 string
L:0.1
csize:0.01
R:0.004
mass:0.00210445
E:2.06e+06
nu:0.33
M:20
freq:10
gamma:62.8319
S:78956.8
g:0|0|-9.81

equations 1 9 string
time:T=(T+dt)#true
eq:a=(dem_l(v,om,R,mass,E,nu,0.1)/mass)#true
tank_acceleration:A=(((-(transpose((fsum(a)*mass))*e_k))-(S*Z))/M)#true
iv:v=euler(v,((a+g)-(A*e_k)),dt)#true
ia:r=euler(r,v,dt)#true
tank_velocity:V=euler(V,A,dt)#true
tank_position:Z=euler(Z,V,dt)#true
bottom:bottom=(Z-0.05)#true
top:top=(Z+0.05)#true

POINTS 567 float
-0.0463226 -0.0421345 -0.0432843 -0.0393718 -0.0464063 -0.0456314 -0.0317806 -0.0466342 -0.042538 
-0.0351839 -0.0400465 -0.045891 -0.0256916 -0.0437091 -0.0461372 -0.0170464 -0.0458337 -0.0463213 
-0.00958587 -0.0458973 -0.0444872 -0.00215167 -0.0461427 -0.0458122 0.00506818 -0.0466244 -0.0440457 
0.019115 -0.0461235 -0.0459766 0.0113733 -0.0417644 -0.0461905 0.0128042 -0.0461511 -0.04022 
0.0340678 -0.0462527 -0.0442054 0.0409219 -0.0462978 -0.0463257 0.0467591 -0.0456279 -0.0419003 
-0.045614 -0.0331264 -0.0462214 -0.0391909 -0.0357391 -0.041124 -0.0333225 -0.0333207 -0.0464126 
-0.0278752 -0.0316889 -0.0410218 -0.0166731 -0.0388669 -0.0448344 -0.011565 -0.0329831 -0.0456643 
-0.0193326 -0.0311201 -0.0455313 -0.00928175 -0.0395442 -0.0406376 -0.00371092 -0.0361536 -0.0458674 
0.00624213 -0.0303168 -0.0413342 0.00298498 -0.0380394 -0.0461813 0.0126089 -0.0333476 -0.0461649 
0.0293178 -0.0341752 -0.0461665 0.0231809 -0.0389566 -0.0428793 0.0206769 -0.031673 -0.0447622 
0.0387622 -0.0336793 -0.0400941 0.0348168 -0.0396106 -0.0461316 0.0448279 -0.0368085 -0.0461021 
-0.0462904 -0.0204444 -0.0454022 -0.037808 -0.0274932 -0.0435036 -0.0308084 -0.0238505 -0.0458894 
-0.0211647 -0.0211825 -0.0451524 -0.0145997 -0.024275 -0.0420923 -0.00760533 -0.0251821 -0.0463692 
0.00965166 -0.0242116 -0.0458495 0.000416355 -0.0290549 -0.0461467 0.00171307 -0.0209914 -0.045742 
0.0207976 -0.0245951 -0.0421613 0.0275972 -0.0247462 -0.045762 0.0390299 -0.0231738 -0.0454404 
0.0331767 -0.0290884 -0.0435783 0.0463394 -0.0248967 -0.0461803 -0.0461997 -0.0118324 -0.046155 
-0.0384375 -0.0102282 -0.0460567 -0.0381642 -0.0176952 -0.0458182 -0.0313917 -0.0106037 -0.0458228 
-0.024735 -0.0145051 -0.0462001 -0.0133686 -0.0177316 -0.0460809 -0.0176307 -0.0102268 -0.0462826 
-0.000368967 -0.0106008 -0.0456863 -0.00575459 -0.0172813 -0.0460832 0.00825884 -0.0169781 -0.0462652 
0.0160826 -0.0197206 -0.0454892 0.0183893 -0.0102179 -0.0460116 0.0123164 -0.0134252 -0.0408557 
0.0256033 -0.0172157 -0.0461442 0.0382366 -0.0143415 -0.0453446 0.0325429 -0.0193654 -0.0446362 
0.0451784 -0.0168637 -0.0460235 -0.0456855 -0.00376602 -0.0463327 -0.0371265 -0.00293814 -0.0443889 
-0.0246618 -0.00669302 -0.045873 -0.0109872 -0.00231878 -0.0460933 -0.0166506 -0.00529856 -0.0403821 
-0.0187019 -0.00072509 -0.0461005 -0.00933535 -0.00998115 -0.0452141 -0.00440005 -0.00381913 -0.042957 
0.00590081 -0.00869596 -0.0406394 0.00959331 -0.000616667 -0.0403087 0.0116925 -0.00610195 -0.0459074 
0.0254195 -0.00978877 -0.0434257 0.0271062 -0.00264086 -0.0462 0.0322165 -0.00937632 -0.0452785 
0.038845 -0.00718024 -0.0420511 0.0354256 -0.00152226 -0.0461776 0.0452358 -0.00736883 -0.0458383 
-0.0419906 0.00423333 -0.0456872 -0.034814 0.00636116 -0.0454644 -0.0234791 0.0059989 -0.0461155 
-0.0291532 0.00865842 -0.0411703 -0.0294443 0.00048173 -0.045833 -0.014356 0.00384738 -0.0416058 
-0.0165764 0.0097903 -0.0461282 -0.00644995 0.00393156 -0.0457137 0.00238769 0.00947032 -0.0463411 
0.00130965 0.000845013 -0.0452753 0.0104413 0.00545605 -0.0460597 0.015784 0.00536805 -0.0404655 
0.0190675 0.00154759 -0.0458701 0.0255254 0.00754672 -0.0454547 0.0294667 0.0031072 -0.0400549 
0.0338927 0.00880426 -0.0465224 0.0408875 0.00511176 -0.0460589 0.0462695 0.000794238 -0.0416523 
-0.0462294 0.0121569 -0.0459521 -0.0316896 0.0153464 -0.0450376 -0.0390158 0.0141735 -0.0461755 
-0.0235507 0.014073 -0.0443938 -0.0153061 0.01755 -0.0464006 -0.0118897 0.0142759 -0.040309 
-0.00561913 0.0121618 -0.0451006 0.00201612 0.0149399 -0.0407658 0.00832587 0.0153682 -0.0461904 
0.01609 0.0110595 -0.0456596 0.026561 0.0187091 -0.045828 0.0221909 0.0136064 -0.0413263 
0.035081 0.0183965 -0.0453872 0.0319596 0.0136755 -0.0400958 0.0403102 0.0152568 -0.0403461 
0.044784 0.0116308 -0.046065 0.0448374 0.0194286 -0.0458651 -0.0454077 0.0215439 -0.0429995 
-0.0368113 0.0209269 -0.0451832 -0.0293453 0.0224456 -0.0461732 -0.0199249 0.02393 -0.0453921 
-0.0113788 0.0227639 -0.0421153 -0.00121103 0.0279513 -0.0462875 -0.00194999 0.0200619 -0.0456824 
0.00759595 0.0234186 -0.0460609 0.00717093 0.0296503 -0.0422154 0.00259227 0.0234038 -0.0402458 
0.0137613 0.0230317 -0.0400567 0.0141453 0.0280783 -0.0458142 0.0181805 0.0203223 -0.0458045 
0.0273636 0.0243239 -0.0407935 0.0223356 0.0279198 -0.0461434 0.0347886 0.0272438 -0.0453796 
0.042702 0.0268179 -0.0453237 -0.0424275 0.0384992 -0.0449508 -0.0464329 0.0335713 -0.0460955 
-0.031198 0.0302659 -0.045995 -0.0385723 0.0327614 -0.0459132 -0.0350912 0.0383394 -0.040495 
-0.0246594 0.0338492 -0.0461815 -0.0211562 0.0397093 -0.0433177 -0.0180488 0.0312799 -0.0435236 
-0.0126712 0.0390526 -0.0452731 -0.0107907 0.0300387 -0.0448709 -0.00488296 0.0397504 -0.0461716 
-0.00419145 0.0327649 -0.0404894 0.00300921 0.0360994 -0.0461694 0.012088 0.0354144 -0.0456908 
0.0194418 0.0352037 -0.0447138 0.0295023 0.0318078 -0.041893 0.0343773 0.0384744 -0.042161 
0.0394218 0.0333026 -0.0465729 0.0422949 0.039414 -0.0460689 -0.0466938 0.046287 -0.0417256 
-0.0404328 0.0459011 -0.0458925 -0.0335293 0.0431386 -0.0460289 -0.0291768 0.0464069 -0.0400411 
-0.0249997 0.0453608 -0.0461774 -0.0153518 0.0460566 -0.0465713 -0.0074843 0.0459354 -0.0424608 
-5.41046e-05 0.045633 -0.0456443 0.00909506 0.0407687 -0.0408724 0.0174346 0.0415817 -0.0415229 
0.0120934 0.044729 -0.0466432 0.0236657 0.0453346 -0.0463283 0.0308841 0.044108 -0.0463615 
0.0423721 0.046414 -0.0443722 -0.0461484 -0.0464927 -0.0348254 -0.033244 -0.041166 -0.0357281 
-0.0226823 -0.0465427 -0.0391103 -0.0206283 -0.0456086 -0.0313208 -0.0153577 -0.0454726 -0.0393736 
-0.0147164 -0.0406897 -0.0302626 -0.00555489 -0.0461244 -0.0383907 -0.00350365 -0.0441166 -0.0307829 
0.00396811 -0.0461539 -0.0344331 0.0166561 -0.0438643 -0.0327255 0.0210111 -0.0459589 -0.0385976 
0.0294968 -0.0452056 -0.0384232 0.0304128 -0.0448643 -0.030917 0.0416279 -0.0456039 -0.0317236 
-0.0459076 -0.0365647 -0.0383315 -0.0320685 -0.0331188 -0.0333289 -0.0236141 -0.0339057 -0.0346726 
-0.0195021 -0.0398705 -0.0369534 -0.0122424 -0.0313524 -0.0304138 -0.016555 -0.0323176 -0.0378179 
-0.0004607 -0.0309022 -0.0321115 -0.00166982 -0.0325304 -0.0395855 -0.0057528 -0.0366722 -0.0331416 
0.0088011 -0.039577 -0.03959 0.00701695 -0.0387657 -0.0318847 0.00988383 -0.0323813 -0.034941 
0.000660252 -0.039448 -0.0357493 0.0164624 -0.0364351 -0.0383319 0.0182671 -0.0332872 -0.0304545 
0.0249696 -0.0320621 -0.0383064 0.0240641 -0.0386695 -0.0354823 0.0388831 -0.0358494 -0.0321965 
0.0309582 -0.0373311 -0.0390297 0.0327903 -0.0309826 -0.0345434 0.0455212 -0.0388224 -0.0386384 
0.0463817 -0.0365503 -0.0315503 -0.0443191 -0.0268456 -0.0353972 -0.0313049 -0.0255876 -0.0379502 
-0.0364497 -0.0266875 -0.0320975 -0.0273976 -0.0205844 -0.0326684 -0.0218415 -0.0266191 -0.0394666 
-0.0171667 -0.0240496 -0.034348 -0.00658725 -0.0255999 -0.0316575 -0.00147404 -0.0249641 -0.0387305 
-0.00876669 -0.0293506 -0.0385194 -0.00863268 -0.0204431 -0.0388772 0.00594107 -0.0259313 -0.0340672 
0.0141789 -0.0289116 -0.0394561 0.0126651 -0.0250975 -0.0302877 0.0280126 -0.0213871 -0.0328999 
0.0204351 -0.0257057 -0.0347202 0.0326125 -0.0241015 -0.038439 0.0428702 -0.0250353 -0.0305442 
0.0423101 -0.0267924 -0.0371765 0.0464764 -0.0209785 -0.0397418 -0.0421175 -0.0190744 -0.0364187 
-0.0465741 -0.0125173 -0.0361769 -0.0338645 -0.017171 -0.0380607 -0.0378048 -0.0184307 -0.0308491 
-0.021399 -0.014432 -0.0337284 -0.0257188 -0.018122 -0.0395772 -0.0289317 -0.012792 -0.0329787 
-0.0151671 -0.0142359 -0.0390836 -0.00548703 -0.0132277 -0.0393107 -0.000545481 -0.0182978 -0.0351018 
-0.00876728 -0.0167167 -0.0322374 0.00433204 -0.0120811 -0.0336661 0.00695686 -0.0186499 -0.0381627 
0.0146959 -0.0194703 -0.0357631 0.0181456 -0.0117748 -0.0347121 0.0117218 -0.0141811 -0.0305245 
0.0218671 -0.0171839 -0.0394679 0.0294534 -0.0152943 -0.0390136 0.03773 -0.0175496 -0.0308844 
0.038388 -0.0192237 -0.0386322 0.036692 -0.0116714 -0.0361017 0.0450771 -0.0126082 -0.036672 
-0.0408143 -0.0038924 -0.0358381 -0.0374679 -0.00939151 -0.031191 -0.0358323 -0.00972068 -0.0385063 
-0.0311217 -0.00359559 -0.0395213 -0.0247281 -0.00836932 -0.0382156 -0.0294123 -0.00378799 -0.0315003 
-0.0108484 -0.00855983 -0.0355367 -0.0191382 -0.004513 -0.033509 -0.00175321 -0.00672332 -0.0363456 
0.00389495 -0.00466156 -0.0309985 0.0168757 -0.00284122 -0.0356089 0.0263986 -0.00870336 -0.0355599 
0.0234425 -0.00216397 -0.0393974 0.023649 -0.00148178 -0.0311284 0.0413853 -0.00674539 -0.0339377 
-0.0450201 0.00120968 -0.0392722 -0.0462466 0.00956758 -0.0384273 -0.0308214 0.00353492 -0.0351364 
-0.0392696 0.00461319 -0.0346091 -0.0256573 0.00963693 -0.0300727 -0.0238086 0.00117449 -0.039693 
-0.0113292 0.00707122 -0.0349276 -0.0184585 0.00354961 -0.0337021 -0.00750005 0.000928895 -0.0376996 
-0.00324969 0.00895127 -0.0369302 0.00427634 0.00636302 -0.0395354 0.000325365 0.000976881 -0.0352672 
0.00833306 0.00279644 -0.033637 0.0154548 0.00297802 -0.0302363 0.0297632 0.00830285 -0.0346912 
0.022409 0.00566294 -0.0339663 0.037964 0.00832964 -0.0321641 0.0363466 0.000632954 -0.0349475 
0.0370011 0.00753071 -0.0397577 0.0448607 0.00417642 -0.0344066 -0.0407327 0.0172069 -0.0387168 
-0.0441833 0.0147932 -0.0322181 -0.037415 0.0105174 -0.0390582 -0.0314641 0.0131198 -0.035402 
-0.0265205 0.0197702 -0.0396032 -0.0216944 0.0191541 -0.0310202 -0.0231735 0.0123463 -0.0368154 
-0.0177315 0.0105216 -0.0304806 -0.018699 0.0179296 -0.0398563 -0.0112494 0.0153956 -0.0324739 
-0.00394135 0.019322 -0.038218 -0.00301936 0.0133893 -0.0308286 0.00802907 0.0192521 -0.0356663 
0.00430609 0.011862 -0.0339459 0.0122159 0.0137514 -0.0395805 0.0191075 0.0133069 -0.0340234 
0.0118005 0.0104288 -0.0311098 0.0280623 0.0177915 -0.0347962 0.035702 0.0157557 -0.0327291 
0.0454738 0.0160864 -0.0335594 -0.0410381 0.0242581 -0.0322178 -0.0461978 0.0253832 -0.0376008 
-0.0350868 0.0204159 -0.0348963 -0.0358414 0.0284784 -0.0390204 -0.0272599 0.028813 -0.0399123 
-0.0215773 0.0282042 -0.0344416 -0.0296705 0.0261682 -0.0328517 -0.0143222 0.0238816 -0.0335669 
-0.00707011 0.0216148 -0.0310887 -0.00556442 0.0268862 -0.0366525 0.00392421 0.0296149 -0.035754 
0.00176801 0.0217541 -0.0315666 0.0186708 0.0272111 -0.0312519 0.0108302 0.0257574 -0.033059 
0.0191969 0.0283284 -0.0389998 0.0213445 0.0211537 -0.0361319 0.0334155 0.0239003 -0.0366288 
0.0395793 0.0275218 -0.0326999 0.0459833 0.0241403 -0.0390811 0.0402487 0.0211112 -0.0356783 
-0.0460651 0.0356093 -0.0383949 -0.0456044 0.0318561 -0.0314589 -0.0352137 0.0349006 -0.0335605 
-0.0273182 0.0329244 -0.0306874 -0.024115 0.0383928 -0.0363292 -0.0122099 0.0319798 -0.0365941 
-0.00476703 0.0353585 -0.0310203 -0.00732763 0.0395343 -0.0377071 0.00101007 0.0389134 -0.0393229 
0.00496077 0.0379899 -0.0302209 0.0104349 0.0344047 -0.0371855 0.0180341 0.0360368 -0.0355373 
0.012584 0.0379862 -0.0301881 0.0245305 0.0373206 -0.0391426 0.0255015 0.0301086 -0.0343656 
0.0300668 0.0363068 -0.0331224 0.0382824 0.0350365 -0.0327825 0.0394739 0.0312118 -0.03954 
0.0463362 0.0349996 -0.0382493 -0.0460455 0.0418434 -0.0323498 -0.0319058 0.0435741 -0.0329743 
-0.0398187 0.0448223 -0.0377928 -0.0224859 0.0458911 -0.0361089 -0.0146496 0.0422919 -0.0382855 
-0.00883404 0.0462138 -0.0338783 -0.000646619 0.0452922 -0.0329741 0.00344499 0.0461846 -0.0394213 
0.0130163 0.0461219 -0.0360039 0.023829 0.0403928 -0.0303225 0.0266102 0.0448421 -0.0369699 
0.0340506 0.0461844 -0.0399268 0.0397753 0.0409591 -0.0369649 0.0455562 0.0459021 -0.0337331 
-0.0406298 -0.0455181 -0.023671 -0.029356 -0.0427978 -0.0226133 -0.016707 -0.0436837 -0.0229982 
-0.00920412 -0.0449528 -0.0218957 0.00276277 -0.044656 -0.0201937 0.00796584 -0.04006 -0.0218347 
0.0262082 -0.041476 -0.0242289 0.036215 -0.0432646 -0.0207407 -0.0352373 -0.0374448 -0.0229287 
-0.0225224 -0.0391395 -0.0291863 -0.0289681 -0.0332195 -0.0207138 -0.00775551 -0.0373616 -0.0267227 
0.00989367 -0.0328691 -0.0272932 0.00185264 -0.0357339 -0.0269893 0.014073 -0.0393956 -0.0264618 
0.0240733 -0.0343337 -0.0257692 0.0304416 -0.0369619 -0.0298871 0.0357841 -0.035341 -0.0250399 
-0.043801 -0.025936 -0.0271409 -0.030297 -0.0286388 -0.0262708 -0.024192 -0.0230382 -0.0230636 
-0.0198363 -0.029747 -0.0285614 -0.0118211 -0.0297624 -0.0229634 -0.0129349 -0.0231619 -0.0278097 
-0.00443135 -0.0268513 -0.0221855 -0.0013554 -0.02093 -0.0275579 0.00411774 -0.0274732 -0.0261508 
0.016653 -0.0264386 -0.0201269 0.0211306 -0.0266989 -0.0264691 0.0283707 -0.0275921 -0.0283897 
0.0283771 -0.024577 -0.0200519 0.0361617 -0.0237668 -0.0251422 -0.0350424 -0.0168014 -0.0221886 
-0.0275531 -0.0156424 -0.0251393 -0.0175186 -0.01951 -0.0211188 -0.0152358 -0.0154678 -0.0279312 
-0.00429732 -0.0106012 -0.0298345 -0.00884918 -0.0198892 -0.0211731 -0.00781928 -0.0118259 -0.0227463 
0.00495794 -0.0165184 -0.0256035 0.0174071 -0.0106713 -0.02445 0.0128987 -0.0187628 -0.0231868 
0.0292748 -0.0194275 -0.025795 0.024069 -0.0154257 -0.0213694 0.0228447 -0.0162354 -0.0292608 
0.0314828 -0.0100097 -0.0282441 0.0435204 -0.0134377 -0.0262541 0.0441141 -0.0183083 -0.0208597 
-0.0449035 -0.00952307 -0.0244309 -0.0354912 -0.00287034 -0.0263509 -0.0321478 -0.00992929 -0.0257485 
-0.0222273 -0.00675232 -0.0270161 -0.0284834 -0.00229677 -0.0233335 -0.0115283 -0.00724855 -0.0277783 
-0.0162546 -0.00615504 -0.0211884 -0.00543919 -0.00115551 -0.0293323 0.00170847 -0.00816173 -0.0227138 
0.00956196 -0.000103721 -0.0261448 0.00911607 -0.00662457 -0.0206138 0.0179629 -0.00255258 -0.0249045 
0.0245671 -0.00812653 -0.0260369 0.0363662 -0.00383327 -0.0278048 0.0461128 -0.00229934 -0.0267754 
-0.0412293 0.00924451 -0.024734 -0.0463759 0.000135469 -0.0282101 -0.0340598 0.0081546 -0.0299187 
-0.0328461 0.00413795 -0.0236516 -0.0242642 0.000673838 -0.029495 -0.021006 0.00565492 -0.0236931 
-0.0159559 0.000432863 -0.0267639 -0.00701213 0.00637772 -0.0254318 -0.000577722 6.41087e-05 -0.0222564 
0.00772852 0.0083387 -0.0246516 0.000422895 0.00498678 -0.028418 0.018571 0.00536401 -0.0218355 
0.0247765 0.00133282 -0.0238476 0.0307965 0.00290528 -0.0295607 0.0386816 0.00397826 -0.0258899 
0.0449931 0.00631434 -0.020149 -0.0307256 0.0167487 -0.0273199 -0.0399465 0.018237 -0.0256581 
-0.0325785 0.0197664 -0.020361 -0.0241377 0.0183014 -0.0231596 -0.0277901 0.011002 -0.0224092 
-0.0181255 0.0133833 -0.0226565 -0.0021932 0.0188304 -0.0255053 0.00583063 0.0156143 -0.0271908 
0.01499 0.0185123 -0.0295478 0.0197682 0.0117734 -0.0261737 0.0186449 0.0166491 -0.0201925 
0.0282323 0.0101649 -0.0264269 0.0258105 0.0189901 -0.02726 0.0370887 0.0147383 -0.0237937 
0.0311229 0.0196885 -0.0212101 0.0456834 0.0123942 -0.0255871 -0.0466921 0.0240283 -0.0241497 
-0.0401891 0.0299152 -0.0266432 -0.0349117 0.0239752 -0.0271323 -0.0297019 0.0285457 -0.0230477 
-0.0229601 0.0263055 -0.0253882 -0.0152056 0.0292394 -0.0237001 -0.0129207 0.0204068 -0.0246352 
-0.00147509 0.0254721 -0.0210284 -0.0069745 0.0284954 -0.0273066 0.00814049 0.0292156 -0.0267655 
0.0165168 0.0264447 -0.0240878 0.0113506 0.0200765 -0.0224758 0.0273192 0.0268282 -0.0273683 
0.038319 0.0222229 -0.0272198 0.043306 0.0267494 -0.022396 -0.0258022 0.0369325 -0.0222486 
-0.0149999 0.0358163 -0.0292272 -0.0108694 0.0384156 -0.0209422 -0.00412901 0.0348976 -0.0237694 
0.000822581 0.0303403 -0.0292042 0.0156554 0.0357895 -0.023462 0.0293884 0.0384546 -0.0246831 
0.0339809 0.0337787 -0.0211412 0.0339704 0.030914 -0.0280049 -0.0396739 0.0402473 -0.028711 
-0.0296698 0.0457236 -0.0237268 -0.0209471 0.0409911 -0.0282806 -0.00346478 0.0449453 -0.0256326 
0.00830328 0.0458759 -0.0244775 0.0322374 0.0458024 -0.0280287 0.0396108 0.0442176 -0.0285782 
0.0158888 -0.0434331 -0.0171562 -0.0232585 -0.0381788 -0.0196798 -0.00195094 -0.038914 -0.019613 
0.00428667 -0.032767 -0.0166454 0.0124791 -0.0330031 -0.0132226 0.0225217 -0.0365969 -0.0156825 
-0.0348564 -0.0243021 -0.014474 -0.0212555 -0.0299475 -0.0191549 -0.0272493 -0.0255103 -0.0164751 
-0.0193655 -0.0235621 -0.0147109 -0.0124697 -0.0272757 -0.0155818 -0.00113679 -0.0204256 -0.01991 
-0.0011122 -0.0223668 -0.0109128 0.00661127 -0.0240896 -0.0193812 0.0253631 -0.0281176 -0.0105303 
0.0225595 -0.0202794 -0.0156931 0.03532 -0.0270607 -0.0150261 0.0377788 -0.0205694 -0.011077 
-0.0267847 -0.0176118 -0.0151788 -0.0193402 -0.0126898 -0.0154852 -0.0104881 -0.0126134 -0.0131614 
-0.00216421 -0.0130657 -0.0155443 0.00520194 -0.0132886 -0.0107772 0.0144474 -0.0199923 -0.0140397 
0.0126436 -0.0125618 -0.0172569 0.0371265 -0.0122189 -0.0184413 -0.0302686 -0.00177496 -0.0118827 
-0.0345542 -0.00905924 -0.0181321 -0.0396874 -0.00295941 -0.0187356 -0.0219479 -0.00432342 -0.0115102 
-0.0250752 -0.00958507 -0.0197049 -0.00962929 -0.00107244 -0.0197733 -0.0027183 -0.00502741 -0.0148228 
0.00480829 -0.00297677 -0.0103172 0.0139277 -0.000237942 -0.0182757 0.027651 -0.00475032 -0.0176219 
0.0205073 -0.00914556 -0.0165288 0.0352302 -0.00754718 -0.011538 -0.0353775 0.00798706 -0.0135814 
-0.0269281 0.00391458 -0.0182723 -0.0169123 0.00110748 -0.0177311 -0.013367 0.00787298 -0.0198239 
-0.0013013 0.00548103 -0.0148245 0.00837111 0.00500159 -0.010391 0.00684733 0.00346708 -0.0187336 
0.0264411 0.00793449 -0.0111257 0.0219303 0.00126522 -0.0161935 0.0331362 0.00224722 -0.0169561 
-0.0337338 0.0175456 -0.0123339 -0.025926 0.0134539 -0.0112132 -0.0181924 0.0126392 -0.0147726 
-0.00594562 0.0119057 -0.0176631 0.00433302 0.0172544 -0.0112073 0.00463897 0.0154324 -0.0196211 
0.0176164 0.010927 -0.0117035 0.0119622 0.0130667 -0.0180956 0.0251713 0.0116679 -0.0189563 
0.0236211 0.0169203 -0.01305 0.0314728 0.0184394 -0.0126085 0.0400786 0.0160065 -0.0143458 
-0.0207689 0.0214823 -0.0174665 -0.0228208 0.0277968 -0.0119173 -0.011175 0.0200288 -0.0163661 
-0.0100524 0.028009 -0.0154318 0.0193051 0.0281299 -0.0110427 0.0109716 0.0213822 -0.0145012 
0.0258641 0.0249422 -0.0161919 -0.0305969 0.0311359 -0.0110612 0.00864995 0.0340514 -0.0198562 
0.0223654 0.0370747 -0.0185321 0.00628397 0.0414343 -0.0174514 0.0173478 0.0460806 -0.019823 
0.0269329 0.0438111 -0.0184527 -0.011246 -0.0107419 -0.00544278 -0.00277913 -0.0113712 -0.00689452 
-0.00857281 -0.0187459 -0.00629154 -0.0106161 -0.00247367 -0.00105283 -0.00250678 -0.00288238 -0.00487329 
-0.00885567 -0.00347002 -0.00965054 -0.0182654 0.00114684 -0.00374758 -0.00868239 0.00498258 -0.00633577 
-0.000494914 0.00505099 -0.00650727 -0.0115547 0.0187911 -0.0052342 -0.00297278 0.0140031 -0.0086719 
0.0109551 0.0130931 -0.00767959 0.0208106 0.0180351 -0.00542861 0.0295534 0.0150586 -0.00530783 
0.00754799 0.0232563 -0.00694833 0.0273021 0.0234813 -0.0062026 -0.0088834 0.0056903 0.00400439 

VERTICES 1134 1134
1 0 
1 1 
1 2 
1 3 
1 4 
1 5 
1 6 
1 7 
1 8 
1 9 
1 10 
1 11 
1 12 
1 13 
1 14 
1 15 
1 16 
1 17 
1 18 
1 19 
1 20 
1 21 
1 22 
1 23 
1 24 
1 25 
1 26 
1 27 
1 28 
1 29 
1 30 
1 31 
1 32 
1 33 
1 34 
1 35 
1 36 
1 37 
1 38 
1 39 
1 40 
1 41 
1 42 
1 43 
1 44 
1 45 
1 46 
1 47 
1 48 
1 49 
1 50 
1 51 
1 52 
1 53 
1 54 
1 55 
1 56 
1 57 
1 58 
1 59 
1 60 
1 61 
1 62 
1 63 
1 64 
1 65 
1 66 
1 67 
1 68 
1 69 
1 70 
1 71 
1 72 
1 73 
1 74 
1 75 
1 76 
1 77 
1 78 
1 79 
1 80 
1 81 
1 82 
1 83 
1 84 
1 85 
1 86 
1 87 
1 88 
1 89 
1 90 
1 91 
1 92 
1 93 
1 94 
1 95 
1 96 
1 97 
1 98 
1 99 
1 100 
1 101 
1 102 
1 103 
1 104 
1 105 
1 106 
1 107 
1 108 
1 109 
1 110 
1 111 
1 112 
1 113 
1 114 
1 115 
1 116 
1 117 
1 118 
1 119 
1 120 
1 121 
1 122 
1 123 
1 124 
1 125 
1 126 
1 127 
1 128 
1 129 
1 130 
1 131 
1 132 
1 133 
1 134 
1 135 
1 136 
1 137 
1 138 
1 139 
1 140 
1 141 
1 142 
1 143 
1 144 
1 145 
1 146 
1 147 
1 148 
1 149 
1 150 
1 151 
1 152 
1 153 
1 154 
1 155 
1 156 
1 157 
1 158 
1 159 
1 160 
1 161 
1 162 
1 163 
1 164 
1 165 
1 166 
1 167 
1 168 
1 169 
1 170 
1 171 
1 172 
1 173 
1 174 
1 175 
1 176 
1 177 
1 178 
1 179 
1 180 
1 181 
1 182 
1 183 
1 184 
1 185 
1 186 
1 187 
1 188 
1 189 
1 190 
1 191 
1 192 
1 193 
1 194 
1 195 
1 196 
1 197 
1 198 
1 199 
1 200 
1 201 
1 202 
1 203 
1 204 
1 205 
1 206 
1 207 
1 208 
1 209 
1 210 
1 211 
1 212 
1 213 
1 214 
1 215 
1 216 
1 217 
1 218 
1 219 
1 220 
1 221 
1 222 
1 223 
1 224 
1 225 
1 226 
1 227 
1 228 
1 229 
1 230 
1 231 
1 232 
1 233 
1 234 
1 235 
1 236 
1 237 
1 238 
1 239 
1 240 
1 241 
1 242 
1 243 
1 244 
1 245 
1 246 
1 247 
1 248 
1 249 
1 250 
1 251 
1 252 
1 253 
1 254 
1 255 
1 256 
1 257 
1 258 
1 259 
1 260 
1 261 
1 262 
1 263 
1 264 
1 265 
1 266 
1 267 
1 268 
1 269 
1 270 
1 271 
1 272 
1 273 
1 274 
1 275 
1 276 
1 277 
1 278 
1 279 
1 280 
1 281 
1 282 
1 283 
1 284 
1 285 
1 286 
1 287 
1 288 
1 289 
1 290 
1 291 
1 292 
1 293 
1 294 
1 295 
1 296 
1 297 
1 298 
1 299 
1 300 
1 301 
1 302 
1 303 
1 304 
1 305 
1 306 
1 307 
1 308 
1 309 
1 310 
1 311 
1 312 
1 313 
1 314 
1 315 
1 316 
1 317 
1 318 
1 319 
1 320 
1 321 
1 322 
1 323 
1 324 
1 325 
1 326 
1 327 
1 328 
1 329 
1 330 
1 331 
1 332 
1 333 
1 334 
1 335 
1 336 
1 337 
1 338 
1 339 
1 340 
1 341 
1 342 
1 343 
1 344 
1 345 
1 346 
1 347 
1 348 
1 349 
1 350 
1 351 
1 352 
1 353 
1 354 
1 355 
1 356 
1 357 
1 358 
1 359 
1 360 
1 361 
1 362 
1 363 
1 364 
1 365 
1 366 
1 367 
1 368 
1 369 
1 370 
1 371 
1 372 
1 373 
1 374 
1 375 
1 376 
1 377 
1 378 
1 379 
1 380 
1 381 
1 382 
1 383 
1 384 
1 385 
1 386 
1 387 
1 388 
1 389 
1 390 
1 391 
1 392 
1 393 
1 394 
1 395 
1 396 
1 397 
1 398 
1 399 
1 400 
1 401 
1 402 
1 403 
1 404 
1 405 
1 406 
1 407 
1 408 
1 409 
1 410 
1 411 
1 412 
1 413 
1 414 
1 415 
1 416 
1 417 
1 418 
1 419 
1 420 
1 421 
1 422 
1 423 
1 424 
1 425 
1 426 
1 427 
1 428 
1 429 
1 430 
1 431 
1 432 
1 433 
1 434 
1 435 
1 436 
1 437 
1 438 
1 439 
1 440 
1 441 
1 442 
1 443 
1 444 
1 445 
1 446 
1 447 
1 448 
1 449 
1 450 
1 451 
1 452 
1 453 
1 454 
1 455 
1 456 
1 457 
1 458 
1 459 
1 460 
1 461 
1 462 
1 463 
1 464 
1 465 
1 466 
1 467 
1 468 
1 469 
1 470 
1 471 
1 472 
1 473 
1 474 
1 475 
1 476 
1 477 
1 478 
1 479 
1 480 
1 481 
1 482 
1 483 
1 484 
1 485 
1 486 
1 487 
1 488 
1 489 
1 490 
1 491 
1 492 
1 493 
1 494 
1 495 
1 496 
1 497 
1 498 
1 499 
1 500 
1 501 
1 502 
1 503 
1 504 
1 505 
1 506 
1 507 
1 508 
1 509 
1 510 
1 511 
1 512 
1 513 
1 514 
1 515 
1 516 
1 517 
1 518 
1 519 
1 520 
1 521 
1 522 
1 523 
1 524 
1 525 
1 526 
1 527 
1 528 
1 529 
1 530 
1 531 
1 532 
1 533 
1 534 
1 535 
1 536 
1 537 
1 538 
1 539 
1 540 
1 541 
1 542 
1 543 
1 544 
1 545 
1 546 
1 547 
1 548 
1 549 
1 550 
1 551 
1 552 
1 553 
1 554 
1 555 
1 556 
1 557 
1 558 
1 559 
1 560 
1 561 
1 562 
1 563 
1 564 
1 565 
1 566 

POINT_DATA 567
SCALARS id double
LOOKUP_TABLE default
7 0 2 1 63 129 127 316 317 
378 315 379 505 508 504 9 66 70 
72 189 196 126 190 254 260 252 323 
385 380 322 443 441 506 14 8 71 
133 134 197 329 259 267 386 392 518 
448 511 22 21 77 84 140 203 147 
273 266 336 330 399 337 393 526 455 
525 29 85 148 217 149 154 210 211 
274 345 343 400 406 462 534 469 532 
28 35 98 99 91 155 161 218 287 
280 344 408 407 413 470 476 539 542 
42 105 36 168 231 225 224 288 351 
350 420 414 483 477 540 533 546 51 
43 106 175 232 301 294 364 302 295 
358 365 357 421 427 491 547 49 52 
112 50 120 182 185 176 247 238 308 
239 371 434 428 492 498 553 560 58 
56 119 184 245 183 246 309 374 437 
373 372 490 561 4 65 64 130 191 
131 253 193 256 319 381 442 444 445 
3 74 136 128 200 198 262 261 192 
318 320 326 255 324 388 387 382 514 
449 450 507 509 10 73 18 143 135 
142 269 268 199 205 325 331 333 457 
395 456 516 512 513 15 23 16 19 
150 79 81 141 204 276 206 339 338 
332 402 340 394 463 528 520 527 519 
24 25 78 86 87 80 212 156 275 
283 401 464 471 409 535 31 37 101 
95 102 92 163 93 219 226 281 282 
346 410 478 416 479 472 541 536 45 
38 30 108 107 171 162 164 169 234 
233 297 296 289 352 415 353 422 549 
550 46 53 100 44 113 177 115 170 
242 240 303 304 431 367 429 359 484 
557 555 548 123 60 114 116 121 241 
249 248 311 305 366 430 375 499 485 
493 564 556 554 61 59 57 122 186 
250 312 310 438 500 435 497 562 563 
5 67 132 194 257 321 446 510 11 
68 6 195 327 264 383 452 451 515 
12 75 138 137 201 207 265 270 263 
390 389 458 453 521 20 82 145 144 
213 208 214 334 404 397 459 460 396 
465 522 523 26 33 89 88 96 151 
152 220 277 347 341 411 403 530 529 
32 17 39 40 94 158 157 227 284 
354 290 418 474 473 537 545 109 47 
110 172 103 165 298 360 423 417 424 
480 486 544 487 543 55 62 54 117 
178 180 235 307 243 368 432 361 494 
551 559 188 179 251 314 306 439 501 
566 558 124 125 187 313 376 436 565 
384 69 258 328 391 447 13 139 76 
146 202 271 272 335 454 461 517 524 
83 153 215 278 342 398 405 466 97 
27 34 160 90 221 285 349 412 467 
468 531 41 104 159 228 292 356 348 
482 475 538 48 111 166 291 300 299 
419 355 481 425 488 552 173 181 236 
244 433 362 495 118 369 502 377 440 
503 216 279 209 223 286 222 167 229 
293 174 237 363 426 489 370 496 230 

FIELD FieldData 7
r 3 567 double
-0.0463226 -0.0421345 -0.0432843 -0.0393718 -0.0464063 -0.0456314 -0.0317806 -0.0466342 -0.042538 
-0.0351839 -0.0400465 -0.045891 -0.0256916 -0.0437091 -0.0461372 -0.0170464 -0.0458337 -0.0463213 
-0.00958587 -0.0458973 -0.0444872 -0.00215167 -0.0461427 -0.0458122 0.00506818 -0.0466244 -0.0440457 
0.019115 -0.0461235 -0.0459766 0.0113733 -0.0417644 -0.0461905 0.0128042 -0.0461511 -0.04022 
0.0340678 -0.0462527 -0.0442054 0.0409219 -0.0462978 -0.0463257 0.0467591 -0.0456279 -0.0419003 
-0.045614 -0.0331264 -0.0462214 -0.0391909 -0.0357391 -0.041124 -0.0333225 -0.0333207 -0.0464126 
-0.0278752 -0.0316889 -0.0410218 -0.0166731 -0.0388669 -0.0448344 -0.011565 -0.0329831 -0.0456643 
-0.0193326 -0.0311201 -0.0455313 -0.00928175 -0.0395442 -0.0406376 -0.00371092 -0.0361536 -0.0458674 
0.00624213 -0.0303168 -0.0413342 0.00298498 -0.0380394 -0.0461813 0.0126089 -0.0333476 -0.0461649 
0.0293178 -0.0341752 -0.0461665 0.0231809 -0.0389566 -0.0428793 0.0206769 -0.031673 -0.0447622 
0.0387622 -0.0336793 -0.0400941 0.0348168 -0.0396106 -0.0461316 0.0448279 -0.0368085 -0.0461021 
-0.0462904 -0.0204444 -0.0454022 -0.037808 -0.0274932 -0.0435036 -0.0308084 -0.0238505 -0.0458894 
-0.0211647 -0.0211825 -0.0451524 -0.0145997 -0.024275 -0.0420923 -0.00760533 -0.0251821 -0.0463692 
0.00965166 -0.0242116 -0.0458495 0.000416355 -0.0290549 -0.0461467 0.00171307 -0.0209914 -0.045742 
0.0207976 -0.0245951 -0.0421613 0.0275972 -0.0247462 -0.045762 0.0390299 -0.0231738 -0.0454404 
0.0331767 -0.0290884 -0.0435783 0.0463394 -0.0248967 -0.0461803 -0.0461997 -0.0118324 -0.046155 
-0.0384375 -0.0102282 -0.0460567 -0.0381642 -0.0176952 -0.0458182 -0.0313917 -0.0106037 -0.0458228 
-0.024735 -0.0145051 -0.0462001 -0.0133686 -0.0177316 -0.0460809 -0.0176307 -0.0102268 -0.0462826 
-0.000368967 -0.0106008 -0.0456863 -0.00575459 -0.0172813 -0.0460832 0.00825884 -0.0169781 -0.0462652 
0.0160826 -0.0197206 -0.0454892 0.0183893 -0.0102179 -0.0460116 0.0123164 -0.0134252 -0.0408557 
0.0256033 -0.0172157 -0.0461442 0.0382366 -0.0143415 -0.0453446 0.0325429 -0.0193654 -0.0446363 
0.0451784 -0.0168637 -0.0460235 -0.0456855 -0.00376602 -0.0463327 -0.0371265 -0.00293814 -0.0443889 
-0.0246618 -0.00669302 -0.045873 -0.0109872 -0.00231878 -0.0460933 -0.0166506 -0.00529856 -0.0403821 
-0.0187019 -0.00072509 -0.0461005 -0.00933535 -0.00998115 -0.0452141 -0.00440005 -0.00381913 -0.042957 
0.00590081 -0.00869596 -0.0406394 0.00959331 -0.000616667 -0.0403087 0.0116925 -0.00610195 -0.0459074 
0.0254195 -0.00978877 -0.0434257 0.0271062 -0.00264086 -0.0462 0.0322165 -0.00937632 -0.0452785 
0.038845 -0.00718024 -0.0420511 0.0354256 -0.00152226 -0.0461776 0.0452358 -0.00736883 -0.0458383 
-0.0419906 0.00423333 -0.0456872 -0.034814 0.00636116 -0.0454644 -0.0234791 0.0059989 -0.0461155 
-0.0291532 0.00865842 -0.0411703 -0.0294443 0.00048173 -0.045833 -0.014356 0.00384738 -0.0416058 
-0.0165764 0.0097903 -0.0461281 -0.00644995 0.00393156 -0.0457137 0.00238769 0.00947032 -0.0463411 
0.00130965 0.000845013 -0.0452753 0.0104413 0.00545605 -0.0460597 0.015784 0.00536805 -0.0404655 
0.0190675 0.00154759 -0.0458701 0.0255254 0.00754672 -0.0454547 0.0294667 0.0031072 -0.0400549 
0.0338927 0.00880426 -0.0465224 0.0408875 0.00511176 -0.0460589 0.0462695 0.000794238 -0.0416523 
-0.0462294 0.0121569 -0.0459521 -0.0316896 0.0153464 -0.0450376 -0.0390158 0.0141735 -0.0461755 
-0.0235507 0.014073 -0.0443938 -0.0153061 0.01755 -0.0464006 -0.0118897 0.0142759 -0.040309 
-0.00561913 0.0121618 -0.0451006 0.00201612 0.0149399 -0.0407658 0.00832587 0.0153682 -0.0461904 
0.01609 0.0110595 -0.0456596 0.026561 0.0187091 -0.045828 0.0221909 0.0136064 -0.0413263 
0.035081 0.0183965 -0.0453872 0.0319596 0.0136755 -0.0400958 0.0403102 0.0152568 -0.0403461 
0.044784 0.0116308 -0.046065 0.0448374 0.0194286 -0.0458651 -0.0454077 0.0215439 -0.0429995 
-0.0368113 0.0209269 -0.0451832 -0.0293453 0.0224456 -0.0461732 -0.0199249 0.02393 -0.0453921 
-0.0113788 0.0227639 -0.0421153 -0.00121103 0.0279513 -0.0462875 -0.00194999 0.0200619 -0.0456824 
0.00759595 0.0234186 -0.0460609 0.00717093 0.0296503 -0.0422154 0.00259227 0.0234038 -0.0402458 
0.0137613 0.0230317 -0.0400567 0.0141453 0.0280783 -0.0458142 0.0181805 0.0203223 -0.0458045 
0.0273636 0.0243239 -0.0407935 0.0223356 0.0279198 -0.0461434 0.0347886 0.0272438 -0.0453796 
0.042702 0.0268179 -0.0453237 -0.0424275 0.0384992 -0.0449508 -0.0464329 0.0335713 -0.0460955 
-0.031198 0.0302659 -0.045995 -0.0385723 0.0327614 -0.0459132 -0.0350912 0.0383394 -0.040495 
-0.0246594 0.0338492 -0.0461815 -0.0211562 0.0397093 -0.0433177 -0.0180488 0.0312799 -0.0435236 
-0.0126712 0.0390526 -0.0452731 -0.0107907 0.0300387 -0.0448709 -0.00488296 0.0397504 -0.0461716 
-0.00419145 0.0327649 -0.0404894 0.00300921 0.0360994 -0.0461694 0.012088 0.0354144 -0.0456908 
0.0194418 0.0352037 -0.0447138 0.0295023 0.0318078 -0.041893 0.0343773 0.0384744 -0.042161 
0.0394218 0.0333026 -0.0465729 0.0422949 0.039414 -0.0460689 -0.0466938 0.046287 -0.0417256 
-0.0404328 0.0459011 -0.0458925 -0.0335293 0.0431387 -0.0460289 -0.0291768 0.0464069 -0.0400411 
-0.0249997 0.0453608 -0.0461774 -0.0153518 0.0460566 -0.0465713 -0.0074843 0.0459354 -0.0424608 
-5.41046e-05 0.045633 -0.0456443 0.00909506 0.0407687 -0.0408724 0.0174346 0.0415817 -0.0415229 
0.0120934 0.044729 -0.0466432 0.0236657 0.0453346 -0.0463283 0.0308841 0.044108 -0.0463615 
0.0423721 0.046414 -0.0443722 -0.0461484 -0.0464927 -0.0348254 -0.033244 -0.041166 -0.0357281 
-0.0226823 -0.0465427 -0.0391103 -0.0206283 -0.0456086 -0.0313208 -0.0153577 -0.0454726 -0.0393736 
-0.0147164 -0.0406897 -0.0302626 -0.00555489 -0.0461244 -0.0383907 -0.00350365 -0.0441166 -0.0307829 
0.00396811 -0.0461539 -0.0344331 0.0166561 -0.0438643 -0.0327255 0.0210111 -0.0459589 -0.0385976 
0.0294968 -0.0452056 -0.0384232 0.0304128 -0.0448643 -0.030917 0.0416279 -0.0456039 -0.0317236 
-0.0459076 -0.0365647 -0.0383315 -0.0320685 -0.0331187 -0.0333289 -0.0236141 -0.0339057 -0.0346726 
-0.0195021 -0.0398705 -0.0369534 -0.0122424 -0.0313524 -0.0304138 -0.016555 -0.0323176 -0.0378179 
-0.0004607 -0.0309022 -0.0321115 -0.00166982 -0.0325304 -0.0395855 -0.0057528 -0.0366722 -0.0331416 
0.0088011 -0.039577 -0.03959 0.00701695 -0.0387657 -0.0318847 0.00988383 -0.0323813 -0.034941 
0.000660252 -0.039448 -0.0357493 0.0164624 -0.0364351 -0.0383319 0.0182671 -0.0332872 -0.0304545 
0.0249696 -0.0320621 -0.0383064 0.0240641 -0.0386695 -0.0354823 0.0388831 -0.0358494 -0.0321965 
0.0309582 -0.0373311 -0.0390297 0.0327903 -0.0309826 -0.0345434 0.0455212 -0.0388224 -0.0386384 
0.0463817 -0.0365503 -0.0315503 -0.0443191 -0.0268456 -0.0353972 -0.0313049 -0.0255876 -0.0379502 
-0.0364497 -0.0266875 -0.0320975 -0.0273976 -0.0205844 -0.0326684 -0.0218415 -0.0266191 -0.0394666 
-0.0171667 -0.0240496 -0.034348 -0.00658725 -0.0255999 -0.0316575 -0.00147404 -0.0249641 -0.0387305 
-0.00876669 -0.0293506 -0.0385194 -0.00863268 -0.0204431 -0.0388772 0.00594107 -0.0259313 -0.0340672 
0.0141789 -0.0289116 -0.0394561 0.0126651 -0.0250975 -0.0302877 0.0280126 -0.0213871 -0.0328999 
0.0204351 -0.0257057 -0.0347202 0.0326125 -0.0241015 -0.038439 0.0428702 -0.0250353 -0.0305442 
0.0423101 -0.0267924 -0.0371765 0.0464764 -0.0209785 -0.0397418 -0.0421175 -0.0190744 -0.0364187 
-0.0465741 -0.0125173 -0.0361769 -0.0338645 -0.017171 -0.0380607 -0.0378048 -0.0184307 -0.0308491 
-0.021399 -0.014432 -0.0337284 -0.0257188 -0.018122 -0.0395772 -0.0289317 -0.012792 -0.0329787 
-0.0151671 -0.0142359 -0.0390836 -0.00548703 -0.0132277 -0.0393107 -0.000545481 -0.0182978 -0.0351018 
-0.00876728 -0.0167167 -0.0322374 0.00433204 -0.0120811 -0.0336661 0.00695686 -0.0186499 -0.0381627 
0.0146959 -0.0194703 -0.0357631 0.0181456 -0.0117748 -0.0347121 0.0117218 -0.0141811 -0.0305245 
0.0218671 -0.0171839 -0.0394679 0.0294534 -0.0152943 -0.0390136 0.03773 -0.0175496 -0.0308844 
0.038388 -0.0192237 -0.0386322 0.036692 -0.0116714 -0.0361017 0.0450771 -0.0126082 -0.036672 
-0.0408143 -0.0038924 -0.0358381 -0.0374679 -0.00939151 -0.031191 -0.0358323 -0.00972068 -0.0385063 
-0.0311217 -0.00359559 -0.0395213 -0.0247281 -0.00836932 -0.0382156 -0.0294123 -0.00378799 -0.0315002 
-0.0108484 -0.00855983 -0.0355367 -0.0191382 -0.004513 -0.033509 -0.00175321 -0.00672332 -0.0363456 
0.00389495 -0.00466156 -0.0309985 0.0168757 -0.00284122 -0.0356089 0.0263986 -0.00870336 -0.0355599 
0.0234425 -0.00216397 -0.0393974 0.023649 -0.00148178 -0.0311284 0.0413853 -0.00674539 -0.0339377 
-0.0450201 0.00120968 -0.0392722 -0.0462466 0.00956758 -0.0384273 -0.0308214 0.00353492 -0.0351364 
-0.0392696 0.00461319 -0.0346091 -0.0256573 0.00963693 -0.0300727 -0.0238086 0.00117449 -0.039693 
-0.0113292 0.00707122 -0.0349276 -0.0184585 0.00354961 -0.0337021 -0.00750005 0.000928895 -0.0376996 
-0.00324969 0.00895127 -0.0369302 0.00427634 0.00636302 -0.0395354 0.000325365 0.000976881 -0.0352672 
0.00833306 0.00279644 -0.033637 0.0154548 0.00297802 -0.0302363 0.0297632 0.00830285 -0.0346912 
0.022409 0.00566294 -0.0339663 0.037964 0.00832964 -0.0321641 0.0363466 0.000632954 -0.0349475 
0.037001 0.00753071 -0.0397577 0.0448607 0.00417642 -0.0344066 -0.0407327 0.0172069 -0.0387168 
-0.0441833 0.0147932 -0.0322181 -0.037415 0.0105174 -0.0390582 -0.0314641 0.0131198 -0.035402 
-0.0265205 0.0197702 -0.0396032 -0.0216944 0.0191541 -0.0310202 -0.0231735 0.0123463 -0.0368154 
-0.0177315 0.0105216 -0.0304806 -0.018699 0.0179296 -0.0398563 -0.0112494 0.0153956 -0.0324739 
-0.00394135 0.019322 -0.038218 -0.00301936 0.0133893 -0.0308286 0.00802907 0.0192521 -0.0356663 
0.00430609 0.011862 -0.0339459 0.0122159 0.0137514 -0.0395805 0.0191075 0.0133069 -0.0340234 
0.0118005 0.0104288 -0.0311098 0.0280623 0.0177915 -0.0347962 0.035702 0.0157557 -0.0327291 
0.0454738 0.0160864 -0.0335594 -0.0410381 0.0242581 -0.0322178 -0.0461978 0.0253832 -0.0376008 
-0.0350868 0.0204159 -0.0348963 -0.0358414 0.0284784 -0.0390204 -0.0272599 0.028813 -0.0399123 
-0.0215773 0.0282042 -0.0344416 -0.0296705 0.0261682 -0.0328517 -0.0143222 0.0238816 -0.0335669 
-0.00707011 0.0216148 -0.0310887 -0.00556442 0.0268862 -0.0366525 0.00392421 0.0296149 -0.035754 
0.00176801 0.0217541 -0.0315666 0.0186708 0.0272111 -0.0312519 0.0108302 0.0257574 -0.033059 
0.0191969 0.0283284 -0.0389998 0.0213445 0.0211537 -0.0361319 0.0334155 0.0239003 -0.0366288 
0.0395793 0.0275218 -0.0326999 0.0459833 0.0241403 -0.0390811 0.0402487 0.0211112 -0.0356783 
-0.0460651 0.0356093 -0.0383949 -0.0456044 0.0318561 -0.0314589 -0.0352137 0.0349006 -0.0335605 
-0.0273182 0.0329244 -0.0306874 -0.024115 0.0383928 -0.0363292 -0.0122099 0.0319798 -0.0365941 
-0.00476703 0.0353585 -0.0310203 -0.00732763 0.0395343 -0.0377071 0.00101007 0.0389134 -0.0393229 
0.00496077 0.0379899 -0.0302209 0.0104349 0.0344047 -0.0371855 0.0180341 0.0360368 -0.0355373 
0.012584 0.0379862 -0.0301881 0.0245305 0.0373206 -0.0391426 0.0255015 0.0301086 -0.0343656 
0.0300668 0.0363068 -0.0331224 0.0382824 0.0350365 -0.0327825 0.0394739 0.0312118 -0.03954 
0.0463362 0.0349996 -0.0382493 -0.0460455 0.0418434 -0.0323498 -0.0319058 0.043574 -0.0329743 
-0.0398187 0.0448223 -0.0377928 -0.0224859 0.0458911 -0.0361089 -0.0146496 0.0422919 -0.0382855 
-0.00883404 0.0462138 -0.0338783 -0.000646619 0.0452922 -0.0329741 0.00344499 0.0461846 -0.0394213 
0.0130163 0.0461219 -0.0360039 0.023829 0.0403928 -0.0303225 0.0266102 0.0448421 -0.0369699 
0.0340506 0.0461844 -0.0399268 0.0397753 0.0409591 -0.0369649 0.0455562 0.0459021 -0.0337331 
-0.0406298 -0.0455181 -0.023671 -0.029356 -0.0427978 -0.0226133 -0.016707 -0.0436837 -0.0229982 
-0.00920412 -0.0449528 -0.0218957 0.00276277 -0.044656 -0.0201937 0.00796584 -0.04006 -0.0218347 
0.0262082 -0.041476 -0.0242289 0.036215 -0.0432646 -0.0207407 -0.0352373 -0.0374448 -0.0229287 
-0.0225224 -0.0391395 -0.0291863 -0.0289681 -0.0332195 -0.0207138 -0.00775551 -0.0373616 -0.0267227 
0.00989367 -0.0328691 -0.0272932 0.00185264 -0.0357339 -0.0269893 0.014073 -0.0393956 -0.0264618 
0.0240733 -0.0343337 -0.0257692 0.0304416 -0.0369619 -0.0298871 0.0357841 -0.035341 -0.0250399 
-0.043801 -0.025936 -0.0271409 -0.030297 -0.0286388 -0.0262708 -0.024192 -0.0230382 -0.0230636 
-0.0198363 -0.029747 -0.0285614 -0.0118211 -0.0297624 -0.0229634 -0.0129349 -0.0231619 -0.0278097 
-0.00443135 -0.0268513 -0.0221855 -0.0013554 -0.02093 -0.0275579 0.00411774 -0.0274732 -0.0261508 
0.016653 -0.0264386 -0.0201269 0.0211306 -0.0266989 -0.0264691 0.0283707 -0.0275921 -0.0283897 
0.0283771 -0.024577 -0.0200519 0.0361617 -0.0237668 -0.0251422 -0.0350424 -0.0168014 -0.0221886 
-0.0275531 -0.0156424 -0.0251393 -0.0175186 -0.01951 -0.0211188 -0.0152358 -0.0154678 -0.0279312 
-0.00429732 -0.0106012 -0.0298345 -0.00884918 -0.0198892 -0.0211731 -0.00781928 -0.0118259 -0.0227463 
0.00495794 -0.0165184 -0.0256035 0.0174071 -0.0106713 -0.02445 0.0128987 -0.0187628 -0.0231868 
0.0292748 -0.0194275 -0.025795 0.024069 -0.0154257 -0.0213694 0.0228447 -0.0162354 -0.0292608 
0.0314828 -0.0100097 -0.0282441 0.0435204 -0.0134377 -0.0262541 0.0441141 -0.0183083 -0.0208597 
-0.0449035 -0.00952307 -0.0244309 -0.0354912 -0.00287034 -0.0263509 -0.0321478 -0.00992929 -0.0257485 
-0.0222273 -0.00675232 -0.0270161 -0.0284834 -0.00229677 -0.0233335 -0.0115283 -0.00724855 -0.0277783 
-0.0162546 -0.00615504 -0.0211884 -0.00543919 -0.00115551 -0.0293323 0.00170847 -0.00816173 -0.0227138 
0.00956196 -0.000103721 -0.0261448 0.00911607 -0.00662457 -0.0206138 0.0179629 -0.00255258 -0.0249045 
0.0245671 -0.00812653 -0.0260369 0.0363662 -0.00383327 -0.0278048 0.0461128 -0.00229934 -0.0267754 
-0.0412293 0.00924451 -0.024734 -0.0463759 0.000135469 -0.0282101 -0.0340598 0.0081546 -0.0299187 
-0.0328461 0.00413795 -0.0236516 -0.0242642 0.000673838 -0.029495 -0.021006 0.00565492 -0.0236931 
-0.0159559 0.000432863 -0.0267639 -0.00701213 0.00637772 -0.0254318 -0.000577722 6.41087e-05 -0.0222564 
0.00772852 0.0083387 -0.0246516 0.000422895 0.00498678 -0.028418 0.018571 0.00536401 -0.0218355 
0.0247765 0.00133282 -0.0238476 0.0307965 0.00290528 -0.0295607 0.0386816 0.00397826 -0.0258899 
0.0449931 0.00631434 -0.020149 -0.0307256 0.0167487 -0.0273199 -0.0399465 0.018237 -0.0256581 
-0.0325785 0.0197664 -0.020361 -0.0241377 0.0183014 -0.0231596 -0.0277901 0.011002 -0.0224092 
-0.0181255 0.0133833 -0.0226565 -0.0021932 0.0188304 -0.0255053 0.00583063 0.0156143 -0.0271908 
0.01499 0.0185123 -0.0295478 0.0197682 0.0117734 -0.0261737 0.0186449 0.0166491 -0.0201925 
0.0282323 0.0101649 -0.0264269 0.0258105 0.0189901 -0.02726 0.0370887 0.0147383 -0.0237937 
0.0311229 0.0196885 -0.0212101 0.0456834 0.0123942 -0.0255871 -0.0466921 0.0240283 -0.0241497 
-0.0401891 0.0299152 -0.0266432 -0.0349116 0.0239752 -0.0271323 -0.0297019 0.0285457 -0.0230477 
-0.0229601 0.0263055 -0.0253882 -0.0152056 0.0292394 -0.0237002 -0.0129207 0.0204068 -0.0246352 
-0.00147509 0.0254721 -0.0210284 -0.0069745 0.0284954 -0.0273066 0.00814049 0.0292156 -0.0267655 
0.0165168 0.0264447 -0.0240878 0.0113506 0.0200765 -0.0224758 0.0273192 0.0268282 -0.0273683 
0.038319 0.0222229 -0.0272198 0.043306 0.0267494 -0.022396 -0.0258022 0.0369325 -0.0222486 
-0.0149999 0.0358163 -0.0292272 -0.0108694 0.0384156 -0.0209422 -0.00412901 0.0348976 -0.0237694 
0.000822581 0.0303403 -0.0292042 0.0156554 0.0357895 -0.023462 0.0293884 0.0384546 -0.0246831 
0.0339809 0.0337787 -0.0211412 0.0339704 0.030914 -0.0280049 -0.0396739 0.0402473 -0.028711 
-0.0296698 0.0457236 -0.0237268 -0.0209471 0.0409911 -0.0282806 -0.00346478 0.0449453 -0.0256326 
0.00830328 0.0458759 -0.0244775 0.0322374 0.0458024 -0.0280287 0.0396108 0.0442176 -0.0285782 
0.0158888 -0.0434331 -0.0171562 -0.0232585 -0.0381788 -0.0196798 -0.00195094 -0.038914 -0.019613 
0.00428667 -0.032767 -0.0166454 0.0124791 -0.0330031 -0.0132226 0.0225217 -0.0365969 -0.0156825 
-0.0348564 -0.0243021 -0.014474 -0.0212555 -0.0299475 -0.0191549 -0.0272493 -0.0255103 -0.0164751 
-0.0193655 -0.0235621 -0.0147109 -0.0124697 -0.0272757 -0.0155818 -0.00113679 -0.0204256 -0.01991 
-0.0011122 -0.0223668 -0.0109128 0.00661127 -0.0240896 -0.0193812 0.0253631 -0.0281176 -0.0105303 
0.0225595 -0.0202794 -0.0156931 0.03532 -0.0270607 -0.0150261 0.0377788 -0.0205694 -0.011077 
-0.0267847 -0.0176118 -0.0151788 -0.0193402 -0.0126898 -0.0154852 -0.0104881 -0.0126134 -0.0131614 
-0.00216421 -0.0130657 -0.0155443 0.00520194 -0.0132886 -0.0107772 0.0144474 -0.0199923 -0.0140397 
0.0126436 -0.0125618 -0.0172569 0.0371265 -0.0122189 -0.0184413 -0.0302686 -0.00177496 -0.0118827 
-0.0345542 -0.00905924 -0.0181321 -0.0396874 -0.00295941 -0.0187356 -0.0219479 -0.00432342 -0.0115102 
-0.0250752 -0.00958507 -0.0197049 -0.00962929 -0.00107244 -0.0197733 -0.0027183 -0.00502741 -0.0148228 
0.00480829 -0.00297677 -0.0103172 0.0139277 -0.000237942 -0.0182757 0.027651 -0.00475032 -0.0176219 
0.0205073 -0.00914556 -0.0165288 0.0352302 -0.00754718 -0.011538 -0.0353775 0.00798706 -0.0135814 
-0.0269281 0.00391458 -0.0182723 -0.0169123 0.00110748 -0.0177311 -0.013367 0.00787298 -0.0198239 
-0.0013013 0.00548103 -0.0148245 0.00837111 0.00500159 -0.010391 0.00684733 0.00346708 -0.0187336 
0.0264411 0.00793449 -0.0111257 0.0219303 0.00126522 -0.0161935 0.0331362 0.00224722 -0.0169561 
-0.0337338 0.0175456 -0.0123339 -0.025926 0.0134539 -0.0112132 -0.0181924 0.0126392 -0.0147726 
-0.00594562 0.0119057 -0.0176631 0.00433302 0.0172544 -0.0112073 0.00463897 0.0154324 -0.0196211 
0.0176164 0.010927 -0.0117035 0.0119622 0.0130667 -0.0180956 0.0251713 0.0116679 -0.0189563 
0.0236211 0.0169203 -0.01305 0.0314728 0.0184394 -0.0126085 0.0400786 0.0160065 -0.0143458 
-0.0207689 0.0214823 -0.0174665 -0.0228208 0.0277968 -0.0119173 -0.011175 0.0200288 -0.0163661 
-0.0100524 0.028009 -0.0154318 0.0193051 0.0281299 -0.0110427 0.0109716 0.0213822 -0.0145012 
0.0258641 0.0249422 -0.0161919 -0.0305969 0.0311359 -0.0110612 0.00864995 0.0340514 -0.0198562 
0.0223654 0.0370747 -0.018532 0.00628397 0.0414343 -0.0174514 0.0173478 0.0460806 -0.019823 
0.0269329 0.0438111 -0.0184527 -0.011246 -0.0107419 -0.00544278 -0.00277913 -0.0113712 -0.00689452 
-0.00857281 -0.0187459 -0.00629154 -0.0106161 -0.00247367 -0.00105283 -0.00250678 -0.00288238 -0.00487329 
-0.00885567 -0.00347002 -0.00965054 -0.0182654 0.00114684 -0.00374758 -0.00868239 0.00498258 -0.00633577 
-0.000494914 0.00505099 -0.00650727 -0.0115547 0.0187911 -0.0052342 -0.00297278 0.0140031 -0.00867191 
0.0109551 0.0130931 -0.00767959 0.0208106 0.0180351 -0.00542861 0.0295534 0.0150586 -0.00530783 
0.00754799 0.0232563 -0.00694833 0.0273021 0.0234813 -0.0062026 -0.0088834 0.0056903 0.00400439 

gid 1 567 double
0 0 0 0 0 0 0 0 0 
0 0 0 0 0 0 0 0 0 
0 0 0 0 0 0 0 0 0 
0 0 0 0 0 0 0 0 0 
0 0 0 0 0 0 0 0 0 
0 0 0 0 0 0 0 0 0 
0 0 0 0 0 0 0 0 0 
0 0 0 0 0 0 0 0 0 
0 0 0 0 0 0 0 0 0 
0 0 0 0 0 0 0 0 0 
0 0 0 0 0 0 0 0 0 
0 0 0 0 0 0 0 0 0 
0 0 0 0 0 0 0 0 0 
0 0 0 0 0 0 0 0 0 
0 0 0 0 0 0 0 0 0 
0 0 0 0 0 0 0 0 0 
0 0 0 0 0 0 0 0 0 
0 0 0 0 0 0 0 0 0 
0 0 0 0 0 0 0 0 0 
0 0 0 0 0 0 0 0 0 
0 0 0 0 0 0 0 0 0 
0 0 0 0 0 0 0 0 0 
0 0 0 0 0 0 0 0 0 
0 0 0 0 0 0 0 0 0 
0 0 0 0 0 0 0 0 0 
0 0 0 0 0 0 0 0 0 
0 0 0 0 0 0 0 0 0 
0 0 0 0 0 0 0 0 0 
0 0 0 0 0 0 0 0 0 
0 0 0 0 0 0 0 0 0 
0 0 0 0 0 0 0 0 0 
0 0 0 0 0 0 0 0 0 
0 0 0 0 0 0 0 0 0 
0 0 0 0 0 0 0 0 0 
0 0 0 0 0 0 0 0 0 
0 0 0 0 0 0 0 0 0 
0 0 0 0 0 0 0 0 0 
0 0 0 0 0 0 0 0 0 
0 0 0 0 0 0 0 0 0 
0 0 0 0 0 0 0 0 0 
0 0 0 0 0 0 0 0 0 
0 0 0 0 0 0 0 0 0 
0 0 0 0 0 0 0 0 0 
0 0 0 0 0 0 0 0 0 
0 0 0 0 0 0 0 0 0 
0 0 0 0 0 0 0 0 0 
0 0 0 0 0 0 0 0 0 
0 0 0 0 0 0 0 0 0 
0 0 0 0 0 0 0 0 0 
0 0 0 0 0 0 0 0 0 
0 0 0 0 0 0 0 0 0 
0 0 0 0 0 0 0 0 0 
0 0 0 0 0 0 0 0 0 
0 0 0 0 0 0 0 0 0 
0 0 0 0 0 0 0 0 0 
0 0 0 0 0 0 0 0 0 
0 0 0 0 0 0 0 0 0 
0 0 0 0 0 0 0 0 0 
0 0 0 0 0 0 0 0 0 
0 0 0 0 0 0 0 0 0 
0 0 0 0 0 0 0 0 0 
0 0 0 0 0 0 0 0 0 
0 0 0 0 0 0 0 0 0 

a 3 567 double
365.754 -597.999 -489.902 -34.0305 2068.29 10.8494 -305.266 1420.66 160.246 
-178.085 -636.22 337.605 295.501 100.495 820.223 -200.188 -332.697 309.181 
-1303.26 -481.189 -775.604 878.783 917.637 -119.94 107.658 1437.93 31.5203 
-39.3409 10.5024 -343.844 206.126 16.7754 -427.794 38.8676 505.254 170.699 
-588.188 -1962.67 387.089 -921.635 60.7971 -1509.5 1410.49 -80.1655 873.356 
0 0 426.552 494.178 180.061 -256.914 21.7087 543.256 571.201 
224.907 -133.676 67.5783 -74.9984 260.817 43.855 133.796 124.644 -5.78039 
5.90446 -8.30545 -14.5066 4.47064 523.9 284.227 -765.59 35.9532 -171.404 
68.7624 60.2205 -6.96068 630.845 -215.319 586.086 0 0 0 
-850.842 -881.501 -188.079 24.6088 -32.0374 -467.458 -25.4577 -228.785 -245.104 
-0.00423103 -0.129084 0.875032 -6.58386 1859.11 -254.299 -70.8401 189.55 -400.504 
159.119 0 0 0.209515 -0.256728 -0.0691235 0 0 0 
-97.3296 69.7163 -123.71 -62.9068 -222.028 5.79655 0 0 1064.07 
29.0004 -265.399 -15.851 -92.4017 88.2028 -63.5612 -40.8358 -30.6665 -2.43571 
123.545 -127.582 -270.878 -746.904 337.078 -182.822 -309.376 -92.4985 -25.0334 
1557.06 276.074 251.743 261.832 -480.747 -401.083 173.835 2.24139 41.5364 
-1365.61 208.707 142.583 31.57 -319.551 -15.2822 1067.69 35.3403 -62.9508 
184.953 -118.811 692.472 -455.423 26.019 35.7182 -41.588 -121.559 254.094 
0 0 0 452.786 15.9957 75.0253 -169.27 128.788 97.0492 
-172.215 245.407 -200.509 -114.969 -58.8131 -97.1319 210.667 160.765 169.988 
82.9291 -65.4768 -357.397 238.697 343.737 -122.088 -72.8049 -266.5 -171.655 
187.533 210.396 -539.073 0 0 530.325 61.8176 215.708 44.392 
2.76636 18.0081 1.77054 -106.208 144.323 47.0507 270.174 -83.2041 43.9827 
-330.127 72.9054 -232.586 20.7408 -98.1334 -11.999 46.3977 -157.229 -159.53 
-23.5117 21.8909 -15.1448 60.583 -109.959 -302.782 -128.446 61.2808 7.38608 
-629.205 35.8451 563.578 43.7306 93.3171 388.865 704.573 145.394 -296.142 
-403.675 20.6221 354.383 -28.6485 31.4309 420.478 438.434 -41.1239 -336.952 
-371.591 -65.8791 -1.53659 75.5543 158.825 -153.302 -293.794 -199.116 127.783 
240.328 7.88646 31.8032 145.856 -141.233 -83.4845 114.457 76.5535 108.008 
277.138 175.361 156.86 0 0 0 -26.7156 36.7742 309.545 
119.641 107.493 -69.9794 -164.095 -34.7709 -176.676 -67.8437 90.2571 765.636 
204.277 -214.705 -436.365 -6.80706 10.6655 -10.2305 23.9531 -188.235 -192.314 
-145.987 85.435 681.615 -46.3528 -259.857 63.2319 -561.888 0 0 
720.33 -46.0931 -39.1293 695.396 -186.864 8.88906 -623.612 -404.29 48.8767 
-101.612 -92.9 -133.264 204.708 75.9022 -66.6791 181.391 -106.036 140.95 
0 0 0 50.9009 3.91068 -1.48331 -4.53889 3.15819 385.605 
75.6932 85.5433 -361.71 -23.6807 -190.7 -135.258 82.4664 27.9428 -22.8039 
13.0974 31.7384 -30.6367 160.127 -214.615 -334.027 -112.893 -213.917 -160.9 
209.343 29.5432 -23.6717 0.870922 118.091 379.213 -119.232 -775.826 -956.032 
-207.965 486.634 16.4023 190.674 179.758 -264.88 -42.7017 -121.321 -46.4465 
1.79651 -156.147 105.896 10.2417 -20.1953 548.487 26.5305 -30.0817 -247.394 
119.322 -449.068 -245.934 28.4595 377.124 -511.607 5.52725 -20.8811 116.671 
-78.7211 -96.6664 -44.0173 121.629 -791.697 -11.6213 13.7015 -10.5688 -22.8493 
-465.378 67.7059 -87.5529 84.341 -23.7293 108.58 -785.136 -695.7 12.364 
637.428 -857.64 -262.375 960.269 1741.85 -58.0701 203.972 -1225.93 -262.921 
-676.991 -315.812 -153.449 -138.361 -102.59 -13.7614 -93.624 237.06 -445.541 
280.385 335.711 -52.9476 454.304 -329.415 305.415 210.654 74.5739 281.037 
-374.76 -53.2862 -2.5349 210.647 131.79 -156.652 391.856 -233.092 -5.97001 
101.315 450.414 -361.347 48.1589 -90.434 -236.256 -717.677 873.954 -96.7235 
622.945 -406.44 -151.145 18.1061 219.938 -31.623 2.33913 -302.367 -37.2235 
-421.168 676.097 -497.597 144.158 -145.637 -195.607 -1908.06 -429.636 893.21 
1521.86 166.291 -1493.17 16.1368 106.411 -211.437 -289.132 -517.29 -197.292 
-267.828 382.921 -18.5814 0 -628.607 1298.2 -60.9959 303.29 111.135 
-444.739 53.1651 -700.004 -111.043 274.821 -101.035 -121.644 272.242 158.988 
74.5835 114.953 631.861 -174.923 67.5344 127.638 -83.2945 9.84057 111.136 
213.834 1333.3 261.207 0 483.677 0 0 0 0 
-94.4078 621.169 -25.467 48.9278 -1499.82 -504.187 377.549 -332.764 183.804 
309.155 92.4587 122.618 363.53 157.125 576.755 0 0 0 
236.603 -421.627 166.755 -268.323 165.616 488.558 294.701 -178.529 -155.137 
-132.326 30.1059 -787.387 -98.5727 -321.698 973.112 0 0 0 
-570.351 417.447 758.845 271.665 -385.298 -133.972 -34.0434 121.291 -1.99067 
-187.387 354.777 -44.4765 4.43896 -26.8403 -90.2132 25.1066 -25.728 2.68619 
-8.9153 518.319 -189.047 81.2842 -270.57 179.036 -106.159 -7.51512 -1092.2 
-220.329 131.798 398.882 546.191 -351.797 437.984 -141.116 -589.533 574.412 
-760.675 147.271 -651.824 35.1682 -187.578 22.4817 -234.707 12.9989 -232.934 
239.748 655.367 -86.0789 -223.187 -612.165 699.97 -264.837 78.1041 -9.71806 
34.8238 5.07113 29.1078 17.4124 -102.218 60.9067 145.554 243.831 -131.166 
58.2425 173.424 967.085 0 0 0 -64.0714 198.309 84.5436 
-284.23 382.282 153.161 -12.9534 -260.831 450.237 -307.958 -113.673 -190.718 
263.167 106.456 249.964 150.71 -42.6849 -85.4894 6.26653 202.542 28.9342 
-29.7678 17.799 5.17555 154.875 -38.3022 -143.021 -329.329 387.711 -100.286 
653.713 779.982 -925.739 125.144 24.4585 95.1706 -160.303 8.29558 -384.474 
-9.35374 -13.5187 535.206 -139.676 56.6648 100.782 216.665 247.682 1932.52 
-435.26 -639.682 -1706.5 -248.033 481.536 804.976 -100.215 -12.6569 -188.57 
1349.6 0 0 0 0 0 100.215 12.6569 188.57 
69.3629 -9.61115 -15.9 40.0644 144.445 -391.905 -97.1126 100.43 18.6408 
-44.1363 -43.5573 -34.342 51.4201 33.5524 75.0215 -6.05545 94.7413 30.2388 
96.8384 95.155 218.722 18.2199 12.8362 16.0811 -27.1728 -27.8134 9.17426 
-0.0864535 -0.265374 0.318115 0 0 0 0 0 0 
-223.363 71.3596 444.028 -177.307 207.799 263.61 0 0 0 
161.682 55.107 -34.4926 -23.0811 36.6586 24.9826 0 0 0 
-7.35427 57.4256 99.6338 -476.914 66.0566 -76.9073 27.9297 -210.168 -332.157 
89.6591 54.2614 43.2061 -0.274173 -0.377461 0.471339 -263.756 -208.337 -99.7332 
36.1365 41.5568 -5.58364 3.64203 165.364 -95.1073 75.7724 -73.8331 231.641 
9.8988 -14.9561 14.5286 -139.694 -21.5285 49.5778 -1.17825 4.0463 -2.14745 
121.178 12.7781 1.6909 0.105985 -34.0083 5.83871 0 0 0 
-82.3568 63.8847 -34.3878 678.755 -5.34847 26.6462 1.00947 9.65918 4.63471 
-46.6188 -107.643 48.4986 -118.56 -84.2262 256.1 -5.88067 -20.5705 27.9249 
46.351 134.053 34.6115 -2.95541 -237.28 -181.517 18.5758 -2.98247 27.7057 
-93.5843 -419.882 -649.322 45.1013 -158.989 123.937 -11.6314 3.44859 -29.4223 
-65.4036 109.656 301.012 101.336 48.7688 -44.2011 16.4212 372.982 -25.661 
-91.6414 2.74316 9.63357 34.6858 16.2244 -8.24907 0 0 0 
42.2111 -99.2828 1.78966 0 0 0 -169.386 219.645 -270.904 
-94.7525 -106.682 266.994 -3.95823 -326.234 -233.758 149.194 269.127 236.329 
101.435 -61.256 258.501 0 0 0 68.4229 19.037 -231.834 
6.70586 234.804 82.8636 -234.417 219.789 572.687 -46.8545 -70.4561 -5.52809 
-191.227 -16.2922 208.468 89.7206 338.356 580.546 -48.581 -200.024 -57.1903 
-0.840793 -37.9196 -16.8524 -90.1613 45.6376 166.915 -15.2453 -26.0994 41.7743 
40.5778 31.708 -73.516 49.0122 106.596 325.081 -140.932 191.458 23.2761 
390.352 -291.227 188.493 422.424 -241.292 668.169 -481.363 1116.96 250.104 
262.393 59.967 33.7405 0 0 0 108.099 -2.22035 160.347 
77.4193 -15.0137 93.7971 -205.946 -417.315 -149.782 -2.44392 0.565061 -1.13097 
-9.83404 8.14675 -55.6374 -110.924 -338.4 348.056 23.0236 -92.724 -12.2829 
18.9533 71.1227 -66.4785 70.2342 -4.2504 -278.742 92.0937 182.901 -4.78602 
6.37215 80.4076 260.875 -203.216 135.49 -27.8178 39.2936 17.8095 185.663 
4.34011 -287.567 485.869 205.686 -160.299 180.153 -6.25301 -197.522 43.9856 
-296.69 -390.877 600.613 -293.551 19.0429 -256.388 32.0847 -377.148 574.28 
196.231 409.07 168.632 0 0 0 0 0 0 
-468.145 559.746 -1804.76 95.1259 -105.69 56.6477 -139.413 -127.015 284.086 
-289.076 -41.0184 10.3054 172.2 -343.25 368.963 79.3122 -45.9145 1.6164 
167.079 132.633 -85.6245 123.294 44.4414 61.7958 -227.898 -402.231 -103.106 
452.512 232.718 -51.1177 -148.365 916.757 -39.0012 102.405 60.5773 775.388 
-1856.29 -2.23248 -0.350122 -107.73 9.42982 -60.0832 -118.348 -84.0444 203.69 
447.643 -17.0846 594.072 332.543 -459.441 220.042 -103.297 50.5386 -16.2894 
-340.011 -715.356 -53.8739 335.137 -65.0185 -51.9217 557.657 273.241 669.517 
0 -596.867 0 -396.26 221.102 -79.2736 -207.696 16.0628 59.9777 
-101.074 420.802 -57.8471 554.119 -188.154 336.573 297.272 87.0147 -398.832 
0 0 0 30.9551 -39.6062 3.57493 -413.769 109.129 -16.4064 
413.769 -109.129 16.4064 -658.376 -1047.45 19.5898 460.856 799.52 241.151 
115.933 -375.94 25.2702 0 0 0 -140.909 -41.7844 -76.8914 
-288.416 1305.65 593.165 -69.1383 4.71859 336.592 -194.347 -58.6741 1099.19 
114.714 -59.4437 312.198 9.61511 -263.32 666.272 361.006 -3.76149 -313.191 
109.186 349.384 226.166 31.8811 345.361 26.36 17.7178 9.16305 21.3393 
0 0 0 -22.9026 208.7 -274.99 130.03 50.8754 -334.082 
0 0 0 -118.602 -218.764 -531.18 -150.434 39.5669 89.4464 
147.507 -69.2678 28.6356 -158.272 -98.2411 -209.633 -103.978 85.7195 13.2129 
-66.5888 -0.763848 123.532 -149.045 61.3957 -51.4302 215.633 -60.6318 -72.1015 
-4.64922 -38.253 53.8756 0 0 0 0 0 0 
353.618 -409.459 138.764 42.0926 29.7617 9.88029 -88.6893 23.7008 49.3193 
5.99976 3.13534 -10.4613 -25.551 -0.088485 -6.19397 29.019 -42.3441 68.6803 
156.679 104.415 74.9126 -59.6572 -14.0088 11.739 0 0 0 
114.245 77.8323 443.442 15.273 100.779 -73.8554 -33.0644 7.99068 -50.9356 
303.469 -174.363 -190.6 4.4489 133.004 -172.225 -4.4489 -133.004 172.225 
0 0 0 -46.3195 7.96383 50.017 81.4499 321.942 215.596 
-132.127 -110.326 376.912 254.893 -480.238 -4.46598 -43.9187 53.8121 -3.99416 
0.2826 -3.60944 -2.2835 0 0 0 -76.7076 -19.0202 -31.7348 
-97.8047 -36.16 55.5708 -0.993563 119.755 -34.5378 0.41623 -1.13601 1.31625 
-326.092 106.695 171.565 82.2796 81.677 7.29597 -231.803 0 0 
0 0 0 0 0 0 -106.212 255.474 -288.001 
-194.298 199.666 291.072 193.789 145.687 183.389 -4.72409 3.86121 3.04818 
4.72409 -3.86121 -3.04818 0 0 0 -4.66222 -12.2399 14.9527 
-27.7471 -18.3055 26.3385 6.21911 22.6741 -0.244534 -213.349 206.215 -209.748 
80.7168 -36.994 -19.9359 39.2114 -226.685 276.703 83.697 -195.424 221.705 
0 0 0 -18.0658 -69.2784 -128.32 -71.353 -87.7659 2.55871 
-32.2944 49.2519 90.6523 -333.204 -40.2958 -437.08 0 0 0 
108.224 -78.8538 -71.8809 6.85674 -13.5714 213.447 33.602 93.6931 3.18285 
-20.2419 22.6143 25.2118 3.31032 -91.867 -124.142 5.02374 96.0654 118.675 
6.43064 -5.38801 -15.4629 -0.59852 -2.06491 0.173846 0 0 0 
0 0 0 -61.8503 0 0 99.0479 0 0 
170.209 176.631 258.481 193.065 -105.301 -7.88003 -300.724 117.347 152.576 
300.724 -117.347 -152.576 0 0 0 0 0 0 
0 0 0 -100.089 -139.056 -19.9513 -38.4897 35.4126 108.388 
-60.4375 4.59896 281.864 0.0817337 0.545414 2.38446 -182.81 -96.7888 1.26129 
0 0 0 0 0 0 0 0 0 
0 0 0 0 0 0 310.554 -109.824 1757.45 
36.2747 -137.048 703.308 509.773 92.8981 -202.6 92.5669 9.96687 169.929 
123.09 201.26 557.182 32.1822 -299.814 -316.447 107.73 -9.42982 60.0832 
0 0 0 0 0 0 -41.8865 -32.639 161.752 
-2.39734 -5.65017 12.1628 0 0 0 -266.8 -67.5904 412.845 
0 0 0 201.995 -132.028 11.7153 -163.486 251.696 52.4505 
0 0 0 0 0 0 0 0 0 
-217.499 17.6975 84.0008 7.39458 -5.76583 -2.27834 35.9758 -139.179 228.163 
-3.9306 2.34803 1.23432 -112.98 165.112 564.937 113.176 139.8 179.941 
0 0 0 0 0 0 0 0 0 
-12.2867 -88.2293 117.156 -1.30728 -4.9333 -2.47777 1.30728 4.9333 2.47777 
2.0056 46.6102 14.3166 69.7516 -32.8343 64.2305 0 0 0 
0 0 0 0 0 0 0 0 0 
77.7012 -100.734 66.2726 0 0 0 0 0 0 
0 0 0 0 0 0 0 0 0 
-69.7516 32.8343 -64.2305 98.675 -22.063 -40.8919 0 0 0 
0 0 0 -3.98184 -37.5657 21.8051 0 0 0 
0 0 0 0 0 0 0 0 0 
59.8733 6.60504 76.87 -101.356 19.4173 44.7158 29.8834 -18.6933 14.6539 
0 0 0 0 0 0 -22.79 -27.6052 58.7494 
0 0 0 156.316 -138.584 211.646 0 0 0 
0 0 0 0 0 0 8.61136 -14.8005 91.0602 
0 0 0 -0.47418 -0.711068 -0.455432 -79.156 21.065 79.8712 
0 0 0 46.284 -20.7007 22.3901 -6.43064 5.38801 15.4629 
0 0 0 0 0 0 0 0 0 
240.873 176.318 442.603 0 0 0 0 0 0 
0 0 0 0 0 0 -0.0817337 -0.545414 -2.38446 
0 0 0 0 0 0 -454.461 -152.129 330.865 
0 0 0 2.39734 5.65017 -12.1628 0 0 0 
0 0 0 0 0 0 0 0 0 
0 0 0 0 0 0 2.5727 -0.081287 1.84304 
-2.5727 0.081287 -1.84304 0 0 0 0 0 0 
0 0 0 0 0 0 0 0 0 
0 0 0 0 0 0 0 0 0 
0.47418 0.711068 0.455432 0 0 0 0 0 0 

v 3 567 double
-0.274521 0.362232 0.1278 1.26301 0.7362 -0.27762 0.0623805 -0.0435826 0.649888 
-0.159456 0.45737 0.806667 0.406464 0.213066 0.720918 0.10802 0.591082 0.0431866 
-0.305958 0.243081 0.290337 0.675861 0.689539 -0.242546 0.0222777 -0.0709062 -0.600552 
0.104813 -0.597419 0.0661322 -0.170548 -0.206379 -0.062577 -0.0543929 0.455974 0.156098 
-0.340784 -0.719631 0.249639 -0.512454 0.140639 -0.655896 1.1611 -0.734258 0.772724 
-0.679886 -0.919546 0.0979493 0.427588 -0.383865 0.986353 -0.850329 -0.0979817 -0.0437341 
-0.0440986 -0.0702225 0.071174 -0.466791 -0.246194 0.383686 -0.520535 0.203329 0.0358951 
-0.0413029 -0.449377 0.126522 0.00447855 0.392917 0.28116 0.114062 -0.00128097 -0.169675 
0.402436 -0.442374 -0.291381 -0.482787 0.300181 0.418081 0.201806 -0.353902 -0.364707 
0.878383 0.0794979 -0.0714085 0.275403 0.315812 0.187102 -0.676489 -0.0762789 0.315534 
0.488933 0.0769078 0.0603195 0.137577 0.041119 0.0601727 -0.168875 -0.501134 -0.796916 
-0.340954 -0.403886 0.149378 -0.429909 -0.454233 1.00336 -0.649594 -0.49251 -0.481752 
-0.310264 0.174631 0.182923 -0.0385022 -0.405248 -0.140018 -0.235204 -0.521989 0.255616 
-0.0363284 0.356662 0.167866 0.199161 0.324938 0.154858 0.178978 0.423795 0.436438 
0.353045 -0.0531163 -0.122775 0.0561816 0.252958 0.0946108 0.154745 0.35797 0.305962 
0.232957 0.0707565 0.88897 0.297715 -0.223864 -0.164153 -0.126403 0.687413 -0.229836 
-0.039984 0.158837 0.0846171 0.20307 0.352437 0.349767 0.297356 0.166633 0.102364 
0.50593 -0.0684443 0.429143 -0.0506054 -0.359545 0.102756 -0.303892 0.10715 -0.0601029 
0.227897 -0.166386 0.187825 0.378183 -0.401272 0.0537635 0.0690784 -0.193375 -0.161366 
-0.0286821 0.0833846 0.403688 0.407051 -0.278476 0.0676846 0.177737 -0.282553 -0.0291107 
0.617906 -0.498619 -0.0463686 0.264837 -0.262356 0.512773 -0.243191 -0.479447 0.116603 
0.0321491 0.280764 0.050323 0.00775308 -0.28652 -0.0567006 -0.086795 0.0408091 0.133585 
-0.221915 -0.295703 -0.0908912 0.351278 0.104096 0.0499318 -0.23434 0.251786 0.0273132 
0.129724 0.273898 -0.0532591 0.141895 -0.168132 0.270563 -0.111599 0.139078 -0.0735754 
0.191166 -0.0307062 0.329292 0.0799991 -0.134155 0.0274045 0.275595 0.0482996 0.0558709 
0.173446 -0.0685357 0.117335 0.523029 0.0690267 0.216268 0.0459029 0.00925896 0.131682 
-0.647746 -0.77731 0.0246832 0.249976 -0.266201 0.215444 -0.312061 -0.602731 0.296071 
-0.186564 0.0520839 0.0645161 -0.279739 0.291228 0.0752991 -0.448586 0.0462483 0.0518959 
-0.2673 -0.227003 -0.272757 0.342354 -0.140851 -0.0155709 0.115911 0.350309 0.0192287 
0.483123 0.029462 0.023954 -0.269588 -0.246836 -0.254878 -0.1094 0.00487234 -0.0288178 
-0.00344423 0.223798 0.143881 -0.100305 0.508542 -0.0652777 0.212711 0.186026 -0.0720954 
0.326958 -0.176072 0.291979 -0.533086 -0.00213605 0.147793 -0.106782 0.294209 0.400897 
0.212187 0.403713 -0.189741 0.288968 0.0523247 0.102532 -0.1108 -0.375083 0.397228 
0.442457 0.320821 -0.0535637 0.477271 0.252834 0.332114 0.0847328 0.106899 -0.279147 
-0.0202385 0.159556 0.261473 0.00255466 0.153386 -0.148822 -0.140339 0.0207465 -0.0253154 
-0.172887 -0.252505 0.24964 0.527814 0.140467 0.0302306 0.23645 -0.0641525 0.136333 
0.168913 0.360871 -0.0133876 0.406016 0.263701 0.0382083 0.512112 0.193994 -0.136226 
0.636155 0.234436 0.148432 0.693144 0.400914 -0.0946667 0.210158 0.260108 0.364483 
0.390916 -0.0517041 -0.470891 0.476412 0.0988631 0.867562 0.433898 0.621802 0.374931 
-0.0523496 -0.695337 0.144758 -0.144392 -0.0183343 -0.384662 0.232349 -0.124464 0.0413903 
-0.368888 0.0356158 -0.0780828 0.369463 -0.247306 0.0750468 -0.015579 0.099683 -0.0841306 
0.260221 -0.0887553 0.0609279 0.449336 -0.33291 0.221717 0.224557 0.17441 -0.265522 
0.388661 0.201655 -0.187421 0.111957 -0.662395 0.282931 0.291565 0.403042 0.176433 
0.211287 0.043146 0.1514 0.169227 0.236732 0.234424 -0.520932 -0.895466 0.511137 
-0.200312 -0.390435 -0.265205 0.33931 0.0214476 -1.14721 0.0803911 0.714036 0.212335 
-0.46516 0.322439 0.444817 -0.567926 1.25131 -0.162466 -0.392168 0.225968 0.0338837 
-0.0985205 0.875631 -0.248473 -0.683146 0.0939163 0.0394601 -0.0351165 0.196215 -0.33911 
-0.235807 0.335188 0.390619 -0.276333 0.439078 0.228246 0.544353 0.125666 -0.103587 
0.0726386 -0.110378 0.503744 -0.042187 0.0439223 -0.220215 -0.433018 0.14504 0.247117 
-0.181212 0.288047 -0.0481368 0.668913 0.409368 0.200947 -0.254337 0.352988 0.179515 
-0.27396 0.612087 -0.326558 0.37763 0.0807043 0.0391287 -1.29045 0.185372 0.446173 
0.460312 -0.314349 -0.652571 -0.975941 -0.371515 -0.153027 -0.183424 0.12445 -0.021925 
-0.415421 0.669009 0.190387 -0.386426 -0.631844 -0.0356044 -0.341884 0.031011 -0.189246 
0.019198 -0.0649062 -0.183721 0.119023 0.141911 -0.299281 -0.0033863 0.135732 -0.357821 
0.125131 -0.451961 -0.553589 0.815756 -0.444175 -0.485293 0.352872 1.23156 -0.196313 
-0.283392 0.843022 0.469632 -1.27688 -0.447571 0.553547 -0.699329 -0.804757 -0.404985 
0.556902 -0.404886 0.339822 0.510541 -0.37981 0.264147 -0.597994 0.561237 -0.777867 
0.433683 -0.0871374 0.414998 -0.0915773 0.0560643 0.049407 0.0108828 0.805508 -0.256018 
0.163256 -0.230448 -0.522996 0.105999 -0.281343 0.275562 0.808705 -0.438625 0.0966039 
-0.452327 -0.85584 -0.0200843 0.808284 -0.742177 1.03538 0.343507 -1.68168 -0.174182 
0.146224 0.576916 0.624721 -0.345593 -1.03738 -0.505202 0.0884738 -0.234103 0.347043 
-0.655849 0.0149193 -0.205838 -0.603142 -0.023608 -0.155391 -0.167123 -0.210707 0.613827 
0.219773 0.304409 0.220819 0.044731 -0.214644 0.0361595 0.16412 -0.364899 0.0505801 
0.0620217 -0.210595 0.0697929 0.612337 -0.773256 0.439155 0.37288 -0.142982 -0.355519 
-0.0997143 0.296565 0.119682 0.857023 -0.119515 -0.158097 -0.330552 0.146256 -0.0063258 
0.434551 -0.0987417 -0.272082 1.3307 -0.0386251 0.150502 0.462333 -0.431427 0.447784 
0.249778 -0.666094 -0.0218251 0.125419 -0.777691 0.149667 -0.543459 0.507088 0.31527 
0.530647 0.995586 1.07608 0.393272 -0.862343 0.075454 -0.497539 -0.203679 -0.134778 
-0.909585 -0.1444 -0.653828 -0.720005 -0.308456 -0.177011 -0.166886 -0.226821 0.00102234 
-0.280938 -0.317693 -0.200762 -0.363807 -0.488408 -0.520432 -0.0503822 -0.0381406 -0.250884 
0.0312782 -0.500454 -0.101308 0.299237 -0.0539823 -0.350325 -0.217212 -0.130936 0.310446 
0.583839 0.308327 -0.633439 0.205888 -0.474923 -0.186729 0.286424 -0.702305 -0.00895812 
0.187164 -0.472072 0.159709 0.496592 -0.424481 0.0908447 -0.172006 -0.401127 -0.137577 
-0.251152 -1.04532 -0.728804 0.388664 -0.293231 0.415443 -0.376121 -0.441387 0.962657 
-0.00876719 -0.579051 -0.0783401 -0.241827 0.0603052 0.226543 -0.288438 -0.357524 -0.743391 
-0.703389 -0.312718 0.0798921 -0.0607716 -0.320558 -0.285295 -0.486821 0.050994 -0.566636 
-0.176065 -0.214049 0.143927 -0.0954832 0.0519263 0.0374914 -0.046653 -0.40335 -0.130344 
0.23509 0.0280641 -0.307333 -0.274063 0.0799853 0.191484 0.082376 -0.256188 0.250553 
0.324265 -0.145843 -0.243379 -0.197212 0.102244 -0.173901 0.0950625 -0.484528 -0.461494 
0.312702 0.376788 0.291115 0.276713 -0.163966 0.496407 -0.0543572 -0.168035 0.12731 
0.139106 -0.459665 0.335877 0.316563 0.172174 0.6511 -0.49776 0.90119 0.335707 
-0.666178 -0.00851028 0.215715 -0.380146 -0.0962122 -0.426873 -0.0420133 -0.558642 -0.141436 
-0.350799 -0.200319 -0.493012 -0.0682979 -0.00129131 -0.447389 1.1687 -0.0424846 -0.0314584 
-0.285851 0.345646 0.065132 -0.0291076 0.147024 -0.356324 0.00878791 -0.0109947 0.00496412 
0.132071 -0.0174603 -0.317497 0.378441 -0.095612 -0.158191 0.501535 -0.115683 -0.0610144 
0.0065356 -0.0561076 -0.272456 0.454614 0.400944 -0.208231 -1.0793 -0.941389 0.241973 
0.854408 0.013829 -0.11454 0.252923 -0.27101 -0.137545 -0.490201 0.547382 0.257907 
-0.749798 0.396531 -0.619547 0.185862 0.0737652 0.0265671 -0.0267806 -0.171414 0.358709 
0.516839 0.323515 -0.129419 0.0318161 -0.0613848 0.197074 -0.016204 0.0391413 -0.0868908 
0.0242816 -0.211618 -0.309111 0.00849527 -0.0751092 0.0919849 0.0953879 0.0913683 -0.140785 
0.120793 0.241923 -0.0363554 -0.0386778 0.151106 -0.137137 0.136394 0.268365 0.00416542 
0.0805806 0.0272598 -0.276032 0.56788 -0.123527 -0.349686 -0.238324 0.460837 0.565481 
0.534528 0.408782 -0.513546 0.546236 0.0586659 0.376901 0.158733 0.423542 0.227259 
-0.626891 0.49356 0.301302 -0.304521 0.374343 0.10484 -0.104371 -0.232743 -0.378762 
-0.262022 -0.520828 -0.408655 -0.355538 0.257606 0.175067 0.18966 0.171007 -0.17941 
0.167002 0.0167954 0.461394 0.177865 0.15615 0.00567984 0.127364 0.423973 -0.339318 
0.226026 -0.0764068 0.137324 -0.0262855 0.255829 0.277667 0.0174518 0.118576 -0.357265 
-0.0193267 0.0788181 0.0210456 0.188288 0.4315 -0.0178274 0.458355 0.163882 0.0937992 
0.10905 0.00545069 -0.0846757 -0.0381784 0.45634 0.257374 0.465167 0.222556 -0.385912 
-0.000832899 -0.438704 -0.0394644 0.549483 0.587356 0.734503 -0.681173 -0.498771 0.390072 
-0.361032 -0.110437 0.91201 -0.699725 0.307086 0.457232 -0.524089 0.0893386 -0.0101443 
-0.0335266 0.186641 -0.000573627 0.0999838 0.136279 0.219524 -0.219055 0.29651 0.23142 
-0.137684 0.0168357 -0.142241 0.111903 0.0882891 0.06188 0.197353 0.0364906 -0.149868 
0.083654 -0.21477 -0.015652 0.265846 0.595904 -0.0823684 -0.271229 -0.363808 0.408879 
-0.227676 0.331997 0.588551 -0.218319 0.0080978 -0.0815719 0.0674809 0.440258 0.355241 
0.935381 -0.223904 0.774093 -0.513205 0.705597 0.845212 -0.00108666 0.287329 0.259604 
-1.06199 0.184876 0.37255 -0.781067 1.26 0.0920178 -0.624262 0.190695 1.18154 
-0.121507 0.390972 0.073844 0.139844 0.878855 -0.485941 0.310344 0.0838695 -0.408383 
-0.230926 -0.0319523 -0.595834 -0.103468 0.0113156 0.301631 -0.54476 0.330246 -0.235278 
0.446385 0.734891 0.250802 0.13414 0.165624 0.146884 0.404134 0.558476 -0.204651 
0.549732 0.0422745 0.429459 0.220203 -0.70512 0.379038 -0.140777 0.203707 0.189767 
0.688615 0.632331 0.142261 1.01757 0.693967 0.451544 -0.415605 -0.00661175 0.208146 
-0.789888 0.751496 0.570444 -0.996942 0.605037 0.967121 0.156287 -0.137064 1.22785 
-0.280491 -0.965517 0.858024 0.500953 -0.891801 0.00718893 -0.333901 -0.116945 0.433532 
-1.11264 -0.42904 0.267634 0.695598 0.172233 0.227082 -0.282497 0.307398 -0.0432074 
0.264985 -0.463636 -0.157542 -0.383881 0.881048 -0.0151083 -0.761489 0.00162473 1.05266 
-0.14057 0.566194 -0.17343 0.952236 -1.04674 0.656667 1.24438 -0.0134913 0.880026 
-1.65252 -0.583328 -0.246065 0.0706475 0.485685 0.577744 -0.449316 -0.8309 -0.116038 
0.0397586 -0.529841 0.391166 -0.351382 -0.100766 1.14674 -0.140351 -0.139284 0.0394941 
-0.416647 -0.391262 0.896224 0.281754 -0.732375 -0.912772 -0.860806 -0.175184 0.751693 
-0.0974274 0.0397037 0.307962 0.0569819 0.0409424 -0.740966 -0.1339 -0.513938 -0.588121 
0.406658 -0.583331 -0.109252 0.195709 -0.142997 0.0879555 0.431592 0.0900657 -0.206738 
-0.0638303 -0.257792 -0.453652 0.594566 0.309561 0.607676 0.435095 -0.643905 -0.638595 
-0.929389 -0.286627 -0.672392 -0.207617 -0.251423 -0.305633 -0.263296 0.111671 -0.355285 
-0.210613 -0.256365 -0.145936 -0.288635 -0.415973 -0.442537 -0.518508 -0.318381 -0.367065 
0.405431 0.13259 -0.824305 -0.176488 -0.481996 0.0519961 0.727217 0.423827 0.833733 
-0.103123 -0.269492 -0.265089 0.25725 -0.395234 -0.0888676 0.254446 0.38574 0.289702 
0.286936 -0.142401 -0.380542 -0.255655 -0.692861 0.816441 0.00397122 -0.238174 -0.553245 
-0.342159 0.0527696 -0.684545 -0.224459 -0.472166 -0.0126744 0.0572581 -0.0730304 -0.192359 
-0.165964 -0.319447 -0.517299 0.134349 -0.168035 -0.0457425 -0.10329 -0.1257 -0.290699 
0.361022 -0.00664743 -0.267473 0.269754 -0.279156 -0.263147 0.0451378 -0.180578 -0.381505 
0.398948 -0.0135576 -0.0401119 0.325711 -0.254097 -0.0507097 0.303136 -0.231318 -0.387213 
0.265788 -0.392482 0.29786 0.213473 -0.367269 0.752182 0.489283 0.00396756 -0.0461515 
-0.772055 -0.20197 -0.33683 0.64383 0.0812376 -0.011268 -0.203533 0.320015 0.334833 
-0.157686 0.0175224 -0.310046 -0.0414485 -0.903706 -0.199945 -0.134761 0.117508 0.216474 
-0.270079 -0.0997037 -0.0717931 0.109921 -0.00576496 -0.249567 -0.102725 -0.196742 -0.163439 
0.159911 -0.172256 0.0677067 0.0568463 -0.196779 -0.403396 0.211095 -0.154884 -0.202682 
0.0599297 -0.172545 -0.184261 0.173128 0.0136772 0.38806 -0.146298 -0.700676 0.460199 
0.781421 0.675378 1.4563 -0.832284 0.598914 0.0998658 -0.432313 -0.253117 -0.507457 
-0.624641 -0.214107 -0.12267 -0.0655668 -0.0831359 0.132733 0.0577041 0.195896 -0.486312 
-0.24108 0.0390588 -0.224746 0.0487157 -0.00642449 0.129413 0.123872 -0.0941873 0.0214596 
-0.0989053 0.058919 0.10075 -0.0506331 -0.058988 -0.0408879 0.165651 0.205493 -0.449796 
-0.188456 0.16516 -0.226967 0.180491 -0.00422841 -0.299516 -0.881431 0.357399 0.542397 
0.801036 0.114985 -0.347285 -0.480845 0.197752 0.197029 0.036739 0.0702538 0.554544 
-0.0724518 -0.276939 0.580392 -0.0885463 0.157645 0.125861 -0.309579 -0.0582163 -0.206958 
0.161115 0.0848699 -0.210887 -0.0220504 0.0515394 0.130557 0.0841798 0.218182 0.266522 
0.323866 0.46174 0.112726 0.409594 0.141562 0.151976 -0.00655857 0.303741 0.148888 
0.251233 0.625091 -0.170446 0.207943 0.174367 -0.0170358 0.45714 0.0318188 0.423435 
0.654178 0.219169 -0.265414 -0.897817 0.632547 0.959114 -1.32807 0.21736 -0.472204 
-1.09789 -0.403147 -0.0662221 0.152005 -0.264714 -0.520176 -0.335912 0.359555 -0.577886 
-0.234208 0.506887 -0.112307 0.140271 0.395284 -0.573118 -0.0349172 0.490673 -0.361678 
-0.102172 0.320953 -0.130159 -0.0533244 0.354953 -0.565696 -0.202505 0.417578 -0.222563 
-0.0371087 0.0723774 -0.378608 0.234916 0.318664 -0.393244 0.00799887 0.232066 0.0810348 
0.45559 0.278807 0.0643287 0.504437 0.205006 -0.978096 -0.918966 -0.0816095 0.472592 
-0.201274 0.425475 -0.326919 -0.14434 0.476094 -0.382449 -0.100596 0.232154 0.781372 
0.111502 -0.19052 -0.187838 0.742677 0.239708 0.380964 0.910516 0.259779 0.336833 
0.126162 0.343663 -0.0616206 0.299138 0.441616 -0.295418 -1.61352 0.139684 0.665828 
0.0155449 1.28945 0.0991579 0.113328 0.110937 0.486559 -0.253202 1.19049 0.355426 
0.336793 1.36545 -0.218501 1.55781 -0.014071 1.13657 -1.6161 -0.981973 -0.191072 
-0.00640596 -0.699899 -0.212993 -0.51174 -0.575578 -0.302113 -0.514967 -0.508345 0.479747 
-0.074795 -0.532326 -0.47192 -0.3476 -0.428339 -0.370487 -0.0902355 -0.515894 -0.136275 
-0.953082 0.114698 -0.293744 -0.254846 -0.176668 -0.151282 -0.188817 -0.287155 -0.0392533 
-0.163833 -0.239535 -0.365725 -0.117068 0.00320487 0.560439 -0.0606792 -0.204074 -0.130045 
-0.0526081 -0.255004 -0.351679 -0.166131 -0.683512 -0.441387 0.0649681 -0.269315 -0.304917 
-0.0387316 -0.218662 -0.461302 0.228776 -0.0469046 -0.348363 0.375388 -0.122354 -0.230904 
-0.127047 0.138089 -0.550414 -0.204908 -0.244032 -0.511239 -0.0991731 -0.215154 0.125742 
-0.0497994 -0.214908 0.0539522 -0.0821303 -0.352269 -0.133386 0.0117575 -0.103397 -0.334501 
-0.147547 -0.198817 -0.507973 0.68542 -0.109477 0.129357 -0.344608 -0.077827 -0.325404 
-0.0522686 0.23738 -0.597686 -0.459478 -0.113217 0.267889 -0.46287 -0.207514 -0.179198 
-0.29207 -0.0242904 -0.123281 -0.126464 -0.12966 0.202506 -0.139556 -0.30451 -0.0525921 
-0.214013 -0.199739 -0.135647 -0.107088 -0.238948 -0.371841 0.152406 -0.0245677 -0.216835 
-0.103087 -0.00727303 -0.741932 0.439004 0.0634977 -0.0979357 -0.239409 0.049742 0.204296 
0.00827095 -0.323817 -0.155455 -0.371081 0.246186 -0.265525 -0.154292 -0.0192041 -0.331751 
-0.0898747 -0.00998884 0.0120333 0.0221786 -0.151167 0.0833066 -0.255101 -0.139627 -0.441146 
0.222523 0.000290647 -0.0609838 0.160226 -0.106524 -0.189192 0.139526 0.0412544 -0.0580947 
-0.320783 0.00896628 -0.111736 -0.423668 -0.00522997 -0.228661 -0.123828 0.251665 0.066372 
-0.163877 0.257747 0.286413 0.0299931 0.0429194 -0.136022 0.183351 0.114412 -0.0098742 
0.135382 0.122383 -0.170712 0.213902 0.0736909 -0.305749 -0.0100307 0.318091 0.512508 
0.490823 0.0316023 0.049423 0.370683 0.274648 0.219993 0.574104 -0.02911 -0.57184 
-0.0767797 0.31878 -0.0905764 -0.276134 0.276964 -0.335739 -0.0126364 0.20407 -0.28142 
0.32606 0.155741 -0.122844 0.133766 0.445783 0.0447336 0.198425 0.333433 -0.17604 
0.251984 0.253518 -0.189199 -0.298899 0.336687 -0.19896 -1.06446 0.1533 0.426623 
0.130629 0.540113 -0.387497 -0.240561 0.222348 0.504967 0.138121 0.782513 -0.781522 
0.147969 0.503373 -0.858984 -0.294698 -0.110294 -0.0764783 -0.11631 -0.137928 -0.0777463 
-0.028017 -0.13487 -0.0479814 -0.118841 -0.0895824 0.150427 -0.108155 -0.0915096 0.0842224 
-0.0755241 -0.12879 0.0970666 -0.118473 -0.326459 -0.0337658 -0.0339151 0.0105187 0.309168 
0.0324413 -0.226048 0.0100671 0.0394697 0.360053 0.0266466 0.206392 0.00993008 -0.249371 
0.0697707 -0.024592 0.0153802 0.102422 -0.00746578 -0.143543 0.234166 -0.0353926 -0.116155 
-0.0454374 0.135313 -0.00463279 0.23013 0.0794899 -0.166874 -0.0356288 -0.0614126 0.480397 

om 3 567 double
0 0 0 0 0 0 0 0 0 
0 0 0 0 0 0 0 0 0 
0 0 0 0 0 0 0 0 0 
0 0 0 0 0 0 0 0 0 
0 0 0 0 0 0 0 0 0 
0 0 0 0 0 0 0 0 0 
0 0 0 0 0 0 0 0 0 
0 0 0 0 0 0 0 0 0 
0 0 0 0 0 0 0 0 0 
0 0 0 0 0 0 0 0 0 
0 0 0 0 0 0 0 0 0 
0 0 0 0 0 0 0 0 0 
0 0 0 0 0 0 0 0 0 
0 0 0 0 0 0 0 0 0 
0 0 0 0 0 0 0 0 0 
0 0 0 0 0 0 0 0 0 
0 0 0 0 0 0 0 0 0 
0 0 0 0 0 0 0 0 0 
0 0 0 0 0 0 0 0 0 
0 0 0 0 0 0 0 0 0 
0 0 0 0 0 0 0 0 0 
0 0 0 0 0 0 0 0 0 
0 0 0 0 0 0 0 0 0 
0 0 0 0 0 0 0 0 0 
0 0 0 0 0 0 0 0 0 
0 0 0 0 0 0 0 0 0 
0 0 0 0 0 0 0 0 0 
0 0 0 0 0 0 0 0 0 
0 0 0 0 0 0 0 0 0 
0 0 0 0 0 0 0 0 0 
0 0 0 0 0 0 0 0 0 
0 0 0 0 0 0 0 0 0 
0 0 0 0 0 0 0 0 0 
0 0 0 0 0 0 0 0 0 
0 0 0 0 0 0 0 0 0 
0 0 0 0 0 0 0 0 0 
0 0 0 0 0 0 0 0 0 
0 0 0 0 0 0 0 0 0 
0 0 0 0 0 0 0 0 0 
0 0 0 0 0 0 0 0 0 
0 0 0 0 0 0 0 0 0 
0 0 0 0 0 0 0 0 0 
0 0 0 0 0 0 0 0 0 
0 0 0 0 0 0 0 0 0 
0 0 0 0 0 0 0 0 0 
0 0 0 0 0 0 0 0 0 
0 0 0 0 0 0 0 0 0 
0 0 0 0 0 0 0 0 0 
0 0 0 0 0 0 0 0 0 
0 0 0 0 0 0 0 0 0 
0 0 0 0 0 0 0 0 0 
0 0 0 0 0 0 0 0 0 
0 0 0 0 0 0 0 0 0 
0 0 0 0 0 0 0 0 0 
0 0 0 0 0 0 0 0 0 
0 0 0 0 0 0 0 0 0 
0 0 0 0 0 0 0 0 0 
0 0 0 0 0 0 0 0 0 
0 0 0 0 0 0 0 0 0 
0 0 0 0 0 0 0 0 0 
0 0 0 0 0 0 0 0 0 
0 0 0 0 0 0 0 0 0 
0 0 0 0 0 0 0 0 0 
0 0 0 0 0 0 0 0 0 
0 0 0 0 0 0 0 0 0 
0 0 0 0 0 0 0 0 0 
0 0 0 0 0 0 0 0 0 
0 0 0 0 0 0 0 0 0 
0 0 0 0 0 0 0 0 0 
0 0 0 0 0 0 0 0 0 
0 0 0 0 0 0 0 0 0 
0 0 0 0 0 0 0 0 0 
0 0 0 0 0 0 0 0 0 
0 0 0 0 0 0 0 0 0 
0 0 0 0 0 0 0 0 0 
0 0 0 0 0 0 0 0 0 
0 0 0 0 0 0 0 0 0 
0 0 0 0 0 0 0 0 0 
0 0 0 0 0 0 0 0 0 
0 0 0 0 0 0 0 0 0 
0 0 0 0 0 0 0 0 0 
0 0 0 0 0 0 0 0 0 
0 0 0 0 0 0 0 0 0 
0 0 0 0 0 0 0 0 0 
0 0 0 0 0 0 0 0 0 
0 0 0 0 0 0 0 0 0 
0 0 0 0 0 0 0 0 0 
0 0 0 0 0 0 0 0 0 
0 0 0 0 0 0 0 0 0 
0 0 0 0 0 0 0 0 0 
0 0 0 0 0 0 0 0 0 
0 0 0 0 0 0 0 0 0 
0 0 0 0 0 0 0 0 0 
0 0 0 0 0 0 0 0 0 
0 0 0 0 0 0 0 0 0 
0 0 0 0 0 0 0 0 0 
0 0 0 0 0 0 0 0 0 
0 0 0 0 0 0 0 0 0 
0 0 0 0 0 0 0 0 0 
0 0 0 0 0 0 0 0 0 
0 0 0 0 0 0 0 0 0 
0 0 0 0 0 0 0 0 0 
0 0 0 0 0 0 0 0 0 
0 0 0 0 0 0 0 0 0 
0 0 0 0 0 0 0 0 0 
0 0 0 0 0 0 0 0 0 
0 0 0 0 0 0 0 0 0 
0 0 0 0 0 0 0 0 0 
0 0 0 0 0 0 0 0 0 
0 0 0 0 0 0 0 0 0 
0 0 0 0 0 0 0 0 0 
0 0 0 0 0 0 0 0 0 
0 0 0 0 0 0 0 0 0 
0 0 0 0 0 0 0 0 0 
0 0 0 0 0 0 0 0 0 
0 0 0 0 0 0 0 0 0 
0 0 0 0 0 0 0 0 0 
0 0 0 0 0 0 0 0 0 
0 0 0 0 0 0 0 0 0 
0 0 0 0 0 0 0 0 0 
0 0 0 0 0 0 0 0 0 
0 0 0 0 0 0 0 0 0 
0 0 0 0 0 0 0 0 0 
0 0 0 0 0 0 0 0 0 
0 0 0 0 0 0 0 0 0 
0 0 0 0 0 0 0 0 0 
0 0 0 0 0 0 0 0 0 
0 0 0 0 0 0 0 0 0 
0 0 0 0 0 0 0 0 0 
0 0 0 0 0 0 0 0 0 
0 0 0 0 0 0 0 0 0 
0 0 0 0 0 0 0 0 0 
0 0 0 0 0 0 0 0 0 
0 0 0 0 0 0 0 0 0 
0 0 0 0 0 0 0 0 0 
0 0 0 0 0 0 0 0 0 
0 0 0 0 0 0 0 0 0 
0 0 0 0 0 0 0 0 0 
0 0 0 0 0 0 0 0 0 
0 0 0 0 0 0 0 0 0 
0 0 0 0 0 0 0 0 0 
0 0 0 0 0 0 0 0 0 
0 0 0 0 0 0 0 0 0 
0 0 0 0 0 0 0 0 0 
0 0 0 0 0 0 0 0 0 
0 0 0 0 0 0 0 0 0 
0 0 0 0 0 0 0 0 0 
0 0 0 0 0 0 0 0 0 
0 0 0 0 0 0 0 0 0 
0 0 0 0 0 0 0 0 0 
0 0 0 0 0 0 0 0 0 
0 0 0 0 0 0 0 0 0 
0 0 0 0 0 0 0 0 0 
0 0 0 0 0 0 0 0 0 
0 0 0 0 0 0 0 0 0 
0 0 0 0 0 0 0 0 0 
0 0 0 0 0 0 0 0 0 
0 0 0 0 0 0 0 0 0 
0 0 0 0 0 0 0 0 0 
0 0 0 0 0 0 0 0 0 
0 0 0 0 0 0 0 0 0 
0 0 0 0 0 0 0 0 0 
0 0 0 0 0 0 0 0 0 
0 0 0 0 0 0 0 0 0 
0 0 0 0 0 0 0 0 0 
0 0 0 0 0 0 0 0 0 
0 0 0 0 0 0 0 0 0 
0 0 0 0 0 0 0 0 0 
0 0 0 0 0 0 0 0 0 
0 0 0 0 0 0 0 0 0 
0 0 0 0 0 0 0 0 0 
0 0 0 0 0 0 0 0 0 
0 0 0 0 0 0 0 0 0 
0 0 0 0 0 0 0 0 0 
0 0 0 0 0 0 0 0 0 
0 0 0 0 0 0 0 0 0 
0 0 0 0 0 0 0 0 0 
0 0 0 0 0 0 0 0 0 
0 0 0 0 0 0 0 0 0 
0 0 0 0 0 0 0 0 0 
0 0 0 0 0 0 0 0 0 
0 0 0 0 0 0 0 0 0 
0 0 0 0 0 0 0 0 0 
0 0 0 0 0 0 0 0 0 
0 0 0 0 0 0 0 0 0 
0 0 0 0 0 0 0 0 0 
0 0 0 0 0 0 0 0 0 
0 0 0 0 0 0 0 0 0 
0 0 0 0 0 0 0 0 0 

bottom 1 567 double
-0.03634 -0.03634 -0.03634 -0.03634 -0.03634 -0.03634 -0.03634 -0.03634 -0.03634 
-0.03634 -0.03634 -0.03634 -0.03634 -0.03634 -0.03634 -0.03634 -0.03634 -0.03634 
-0.03634 -0.03634 -0.03634 -0.03634 -0.03634 -0.03634 -0.03634 -0.03634 -0.03634 
-0.03634 -0.03634 -0.03634 -0.03634 -0.03634 -0.03634 -0.03634 -0.03634 -0.03634 
-0.03634 -0.03634 -0.03634 -0.03634 -0.03634 -0.03634 -0.03634 -0.03634 -0.03634 
-0.03634 -0.03634 -0.03634 -0.03634 -0.03634 -0.03634 -0.03634 -0.03634 -0.03634 
-0.03634 -0.03634 -0.03634 -0.03634 -0.03634 -0.03634 -0.03634 -0.03634 -0.03634 
-0.03634 -0.03634 -0.03634 -0.03634 -0.03634 -0.03634 -0.03634 -0.03634 -0.03634 
-0.03634 -0.03634 -0.03634 -0.03634 -0.03634 -0.03634 -0.03634 -0.03634 -0.03634 
-0.03634 -0.03634 -0.03634 -0.03634 -0.03634 -0.03634 -0.03634 -0.03634 -0.03634 
-0.03634 -0.03634 -0.03634 -0.03634 -0.03634 -0.03634 -0.03634 -0.03634 -0.03634 
-0.03634 -0.03634 -0.03634 -0.03634 -0.03634 -0.03634 -0.03634 -0.03634 -0.03634 
-0.03634 -0.03634 -0.03634 -0.03634 -0.03634 -0.03634 -0.03634 -0.03634 -0.03634 
-0.03634 -0.03634 -0.03634 -0.03634 -0.03634 -0.03634 -0.03634 -0.03634 -0.03634 
-0.03634 -0.03634 -0.03634 -0.03634 -0.03634 -0.03634 -0.03634 -0.03634 -0.03634 
-0.03634 -0.03634 -0.03634 -0.03634 -0.03634 -0.03634 -0.03634 -0.03634 -0.03634 
-0.03634 -0.03634 -0.03634 -0.03634 -0.03634 -0.03634 -0.03634 -0.03634 -0.03634 
-0.03634 -0.03634 -0.03634 -0.03634 -0.03634 -0.03634 -0.03634 -0.03634 -0.03634 
-0.03634 -0.03634 -0.03634 -0.03634 -0.03634 -0.03634 -0.03634 -0.03634 -0.03634 
-0.03634 -0.03634 -0.03634 -0.03634 -0.03634 -0.03634 -0.03634 -0.03634 -0.03634 
-0.03634 -0.03634 -0.03634 -0.03634 -0.03634 -0.03634 -0.03634 -0.03634 -0.03634 
-0.03634 -0.03634 -0.03634 -0.03634 -0.03634 -0.03634 -0.03634 -0.03634 -0.03634 
-0.03634 -0.03634 -0.03634 -0.03634 -0.03634 -0.03634 -0.03634 -0.03634 -0.03634 
-0.03634 -0.03634 -0.03634 -0.03634 -0.03634 -0.03634 -0.03634 -0.03634 -0.03634 
-0.03634 -0.03634 -0.03634 -0.03634 -0.03634 -0.03634 -0.03634 -0.03634 -0.03634 
-0.03634 -0.03634 -0.03634 -0.03634 -0.03634 -0.03634 -0.03634 -0.03634 -0.03634 
-0.03634 -0.03634 -0.03634 -0.03634 -0.03634 -0.03634 -0.03634 -0.03634 -0.03634 
-0.03634 -0.03634 -0.03634 -0.03634 -0.03634 -0.03634 -0.03634 -0.03634 -0.03634 
-0.03634 -0.03634 -0.03634 -0.03634 -0.03634 -0.03634 -0.03634 -0.03634 -0.03634 
-0.03634 -0.03634 -0.03634 -0.03634 -0.03634 -0.03634 -0.03634 -0.03634 -0.03634 
-0.03634 -0.03634 -0.03634 -0.03634 -0.03634 -0.03634 -0.03634 -0.03634 -0.03634 
-0.03634 -0.03634 -0.03634 -0.03634 -0.03634 -0.03634 -0.03634 -0.03634 -0.03634 
-0.03634 -0.03634 -0.03634 -0.03634 -0.03634 -0.03634 -0.03634 -0.03634 -0.03634 
-0.03634 -0.03634 -0.03634 -0.03634 -0.03634 -0.03634 -0.03634 -0.03634 -0.03634 
-0.03634 -0.03634 -0.03634 -0.03634 -0.03634 -0.03634 -0.03634 -0.03634 -0.03634 
-0.03634 -0.03634 -0.03634 -0.03634 -0.03634 -0.03634 -0.03634 -0.03634 -0.03634 
-0.03634 -0.03634 -0.03634 -0.03634 -0.03634 -0.03634 -0.03634 -0.03634 -0.03634 
-0.03634 -0.03634 -0.03634 -0.03634 -0.03634 -0.03634 -0.03634 -0.03634 -0.03634 
-0.03634 -0.03634 -0.03634 -0.03634 -0.03634 -0.03634 -0.03634 -0.03634 -0.03634 
-0.03634 -0.03634 -0.03634 -0.03634 -0.03634 -0.03634 -0.03634 -0.03634 -0.03634 
-0.03634 -0.03634 -0.03634 -0.03634 -0.03634 -0.03634 -0.03634 -0.03634 -0.03634 
-0.03634 -0.03634 -0.03634 -0.03634 -0.03634 -0.03634 -0.03634 -0.03634 -0.03634 
-0.03634 -0.03634 -0.03634 -0.03634 -0.03634 -0.03634 -0.03634 -0.03634 -0.03634 
-0.03634 -0.03634 -0.03634 -0.03634 -0.03634 -0.03634 -0.03634 -0.03634 -0.03634 
-0.03634 -0.03634 -0.03634 -0.03634 -0.03634 -0.03634 -0.03634 -0.03634 -0.03634 
-0.03634 -0.03634 -0.03634 -0.03634 -0.03634 -0.03634 -0.03634 -0.03634 -0.03634 
-0.03634 -0.03634 -0.03634 -0.03634 -0.03634 -0.03634 -0.03634 -0.03634 -0.03634 
-0.03634 -0.03634 -0.03634 -0.03634 -0.03634 -0.03634 -0.03634 -0.03634 -0.03634 
-0.03634 -0.03634 -0.03634 -0.03634 -0.03634 -0.03634 -0.03634 -0.03634 -0.03634 
-0.03634 -0.03634 -0.03634 -0.03634 -0.03634 -0.03634 -0.03634 -0.03634 -0.03634 
-0.03634 -0.03634 -0.03634 -0.03634 -0.03634 -0.03634 -0.03634 -0.03634 -0.03634 
-0.03634 -0.03634 -0.03634 -0.03634 -0.03634 -0.03634 -0.03634 -0.03634 -0.03634 
-0.03634 -0.03634 -0.03634 -0.03634 -0.03634 -0.03634 -0.03634 -0.03634 -0.03634 
-0.03634 -0.03634 -0.03634 -0.03634 -0.03634 -0.03634 -0.03634 -0.03634 -0.03634 
-0.03634 -0.03634 -0.03634 -0.03634 -0.03634 -0.03634 -0.03634 -0.03634 -0.03634 
-0.03634 -0.03634 -0.03634 -0.03634 -0.03634 -0.03634 -0.03634 -0.03634 -0.03634 
-0.03634 -0.03634 -0.03634 -0.03634 -0.03634 -0.03634 -0.03634 -0.03634 -0.03634 
-0.03634 -0.03634 -0.03634 -0.03634 -0.03634 -0.03634 -0.03634 -0.03634 -0.03634 
-0.03634 -0.03634 -0.03634 -0.03634 -0.03634 -0.03634 -0.03634 -0.03634 -0.03634 
-0.03634 -0.03634 -0.03634 -0.03634 -0.03634 -0.03634 -0.03634 -0.03634 -0.03634 
-0.03634 -0.03634 -0.03634 -0.03634 -0.03634 -0.03634 -0.03634 -0.03634 -0.03634 
-0.03634 -0.03634 -0.03634 -0.03634 -0.03634 -0.03634 -0.03634 -0.03634 -0.03634 
-0.03634 -0.03634 -0.03634 -0.03634 -0.03634 -0.03634 -0.03634 -0.03634 -0.03634 

top 1 567 double
0.06366 0.06366 0.06366 0.06366 0.06366 0.06366 0.06366 0.06366 0.06366 
0.06366 0.06366 0.06366 0.06366 0.06366 0.06366 0.06366 0.06366 0.06366 
0.06366 0.06366 0.06366 0.06366 0.06366 0.06366 0.06366 0.06366 0.06366 
0.06366 0.06366 0.06366 0.06366 0.06366 0.06366 0.06366 0.06366 0.06366 
0.06366 0.06366 0.06366 0.06366 0.06366 0.06366 0.06366 0.06366 0.06366 
0.06366 0.06366 0.06366 0.06366 0.06366 0.06366 0.06366 0.06366 0.06366 
0.06366 0.06366 0.06366 0.06366 0.06366 0.06366 0.06366 0.06366 0.06366 
0.06366 0.06366 0.06366 0.06366 0.06366 0.06366 0.06366 0.06366 0.06366 
0.06366 0.06366 0.06366 0.06366 0.06366 0.06366 0.06366 0.06366 0.06366 
0.06366 0.06366 0.06366 0.06366 0.06366 0.06366 0.06366 0.06366 0.06366 
0.06366 0.06366 0.06366 0.06366 0.06366 0.06366 0.06366 0.06366 0.06366 
0.06366 0.06366 0.06366 0.06366 0.06366 0.06366 0.06366 0.06366 0.06366 
0.06366 0.06366 0.06366 0.06366 0.06366 0.06366 0.06366 0.06366 0.06366 
0.06366 0.06366 0.06366 0.06366 0.06366 0.06366 0.06366 0.06366 0.06366 
0.06366 0.06366 0.06366 0.06366 0.06366 0.06366 0.06366 0.06366 0.06366 
0.06366 0.06366 0.06366 0.06366 0.06366 0.06366 0.06366 0.06366 0.06366 
0.06366 0.06366 0.06366 0.06366 0.06366 0.06366 0.06366 0.06366 0.06366 
0.06366 0.06366 0.06366 0.06366 0.06366 0.06366 0.06366 0.06366 0.06366 
0.06366 0.06366 0.06366 0.06366 0.06366 0.06366 0.06366 0.06366 0.06366 
0.06366 0.06366 0.06366 0.06366 0.06366 0.06366 0.06366 0.06366 0.06366 
0.06366 0.06366 0.06366 0.06366 0.06366 0.06366 0.06366 0.06366 0.06366 
0.06366 0.06366 0.06366 0.06366 0.06366 0.06366 0.06366 0.06366 0.06366 
0.06366 0.06366 0.06366 0.06366 0.06366 0.06366 0.06366 0.06366 0.06366 
0.06366 0.06366 0.06366 0.06366 0.06366 0.06366 0.06366 0.06366 0.06366 
0.06366 0.06366 0.06366 0.06366 0.06366 0.06366 0.06366 0.06366 0.06366 
0.06366 0.06366 0.06366 0.06366 0.06366 0.06366 0.06366 0.06366 0.06366 
0.06366 0.06366 0.06366 0.06366 0.06366 0.06366 0.06366 0.06366 0.06366 
0.06366 0.06366 0.06366 0.06366 0.06366 0.06366 0.06366 0.06366 0.06366 
0.06366 0.06366 0.06366 0.06366 0.06366 0.06366 0.06366 0.06366 0.06366 
0.06366 0.06366 0.06366 0.06366 0.06366 0.06366 0.06366 0.06366 0.06366 
0.06366 0.06366 0.06366 0.06366 0.06366 0.06366 0.06366 0.06366 0.06366 
0.06366 0.06366 0.06366 0.06366 0.06366 0.06366 0.06366 0.06366 0.06366 
0.06366 0.06366 0.06366 0.06366 0.06366 0.06366 0.06366 0.06366 0.06366 
0.06366 0.06366 0.06366 0.06366 0.06366 0.06366 0.06366 0.06366 0.06366 
0.06366 0.06366 0.06366 0.06366 0.06366 0.06366 0.06366 0.06366 0.06366 
0.06366 0.06366 0.06366 0.06366 0.06366 0.06366 0.06366 0.06366 0.06366 
0.06366 0.06366 0.06366 0.06366 0.06366 0.06366 0.06366 0.06366 0.06366 
0.06366 0.06366 0.06366 0.06366 0.06366 0.06366 0.06366 0.06366 0.06366 
0.06366 0.06366 0.06366 0.06366 0.06366 0.06366 0.06366 0.06366 0.06366 
0.06366 0.06366 0.06366 0.06366 0.06366 0.06366 0.06366 0.06366 0.06366 
0.06366 0.06366 0.06366 0.06366 0.06366 0.06366 0.06366 0.06366 0.06366 
0.06366 0.06366 0.06366 0.06366 0.06366 0.06366 0.06366 0.06366 0.06366 
0.06366 0.06366 0.06366 0.06366 0.06366 0.06366 0.06366 0.06366 0.06366 
0.06366 0.06366 0.06366 0.06366 0.06366 0.06366 0.06366 0.06366 0.06366 
0.06366 0.06366 0.06366 0.06366 0.06366 0.06366 0.06366 0.06366 0.06366 
0.06366 0.06366 0.06366 0.06366 0.06366 0.06366 0.06366 0.06366 0.06366 
0.06366 0.06366 0.06366 0.06366 0.06366 0.06366 0.06366 0.06366 0.06366 
0.06366 0.06366 0.06366 0.06366 0.06366 0.06366 0.06366 0.06366 0.06366 
0.06366 0.06366 0.06366 0.06366 0.06366 0.06366 0.06366 0.06366 0.06366 
0.06366 0.06366 0.06366 0.06366 0.06366 0.06366 0.06366 0.06366 0.06366 
0.06366 0.06366 0.06366 0.06366 0.06366 0.06366 0.06366 0.06366 0.06366 
0.06366 0.06366 0.06366 0.06366 0.06366 0.06366 0.06366 0.06366 0.06366 
0.06366 0.06366 0.06366 0.06366 0.06366 0.06366 0.06366 0.06366 0.06366 
0.06366 0.06366 0.06366 0.06366 0.06366 0.06366 0.06366 0.06366 0.06366 
0.06366 0.06366 0.06366 0.06366 0.06366 0.06366 0.06366 0.06366 0.06366 
0.06366 0.06366 0.06366 0.06366 0.06366 0.06366 0.06366 0.06366 0.06366 
0.06366 0.06366 0.06366 0.06366 0.06366 0.06366 0.06366 0.06366 0.06366 
0.06366 0.06366 0.06366 0.06366 0.06366 0.06366 0.06366 0.06366 0.06366 
0.06366 0.06366 0.06366 0.06366 0.06366 0.06366 0.06366 0.06366 0.06366 
0.06366 0.06366 0.06366 0.06366 0.06366 0.06366 0.06366 0.06366 0.06366 
0.06366 0.06366 0.06366 0.06366 0.06366 0.06366 0.06366 0.06366 0.06366 
0.06366 0.06366 0.06366 0.06366 0.06366 0.06366 0.06366 0.06366 0.06366 
0.06366 0.06366 0.06366 0.06366 0.06366 0.06366 0.06366 0.06366 0.06366 

