# vtk DataFile Version 4.0
vtk output
ASCII
DATASET POLYDATA
FIELD FieldData 4
domain 1 4 string
domain_min:-5|-5|-5
domain_max:5|5|5
cell_size:0.01|0.01|0.01
boundary:1|1|1

variables 1 8 string
T:0.23
dt:0.0005
A:26.1176
V:2.18482
Z:-0.00607042
write_case:1
substeps:10
all_steps:460

constants 1 11 string
L:0.1
csize:0.01
R:0.004
mass:0.00210445
E:2.06e+06
nu:0.33
M:20
freq:10
gamma:62.8319
S:78956.8
g:0|0|-9.81

equations 1 9 string
time:T=(T+dt)#true
eq:a=(dem_l(v,om,R,mass,E,nu,0.1)/mass)#true
tank_acceleration:A=(((-(transpose((fsum(a)*mass))*e_k))-(S*Z))/M)#true
iv:v=euler(v,((a+g)-(A*e_k)),dt)#true
ia:r=euler(r,v,dt)#true
tank_velocity:V=euler(V,A,dt)#true
tank_position:Z=euler(Z,V,dt)#true
bottom:bottom=(Z-0.05)#true
top:top=(Z+0.05)#true

POINTS 567 float
-0.0466726 -0.0465787 -0.0457302 -0.0391671 -0.0446613 -0.0459996 -0.0258497 -0.0404455 -0.0458878 
-0.02952 -0.046355 -0.0426756 -0.0219128 -0.0463572 -0.0461615 -0.0182332 -0.0422003 -0.0410221 
-0.01216 -0.04537 -0.0457755 -0.00385981 -0.0452563 -0.045138 0.00737851 -0.0461122 -0.0461136 
0.00180457 -0.0439251 -0.0402623 0.0158331 -0.0460773 -0.0462693 0.0236597 -0.0459822 -0.0457903 
0.0387881 -0.0465563 -0.0459338 0.0311425 -0.0465073 -0.045877 0.0459491 -0.0451756 -0.0457034 
-0.0462287 -0.0317236 -0.0461718 -0.0459966 -0.0395032 -0.045789 -0.0330783 -0.039911 -0.0458294 
-0.0391894 -0.0356118 -0.0462151 -0.0214359 -0.0340688 -0.0464601 -0.0287857 -0.0333677 -0.0462564 
-0.0149088 -0.0370032 -0.0448186 -0.000740414 -0.0380693 -0.0453599 -0.00793254 -0.0389662 -0.045538 
-0.0090021 -0.0308364 -0.0445514 -0.00215036 -0.0307836 -0.0462802 0.0053142 -0.0306301 -0.046095 
0.00721963 -0.0383981 -0.0460329 0.0158046 -0.0386691 -0.0461332 0.0152357 -0.030877 -0.046153 
0.021965 -0.0396941 -0.0405153 0.0222243 -0.0348925 -0.0461645 0.0274614 -0.0399287 -0.0461937 
0.0325806 -0.0336387 -0.0461291 0.0392878 -0.0315058 -0.0432696 0.0370204 -0.0393115 -0.0465165 
0.044398 -0.0369307 -0.0447084 -0.0462419 -0.0243529 -0.0458719 -0.0399048 -0.0202389 -0.0458985 
-0.0396725 -0.0280618 -0.0457992 -0.0328913 -0.0286572 -0.0427734 -0.0323774 -0.0214006 -0.0443829 
-0.0243681 -0.0277596 -0.045371 -0.0167216 -0.0286138 -0.0455492 -0.0108416 -0.023322 -0.0462816 
-0.0189484 -0.0217943 -0.0454718 -0.00388409 -0.0236944 -0.0424722 0.0029046 -0.0239021 -0.0460512 
0.010673 -0.0254318 -0.0446778 0.0173239 -0.0253167 -0.0414517 0.0240742 -0.0274852 -0.046105 
0.0275018 -0.0203962 -0.0463427 0.0379512 -0.0237852 -0.0460417 0.0312503 -0.0261211 -0.0432838 
0.0454423 -0.0213906 -0.045824 0.0459005 -0.0296581 -0.0461163 -0.041552 -0.01344 -0.040209 
-0.0461097 -0.0155778 -0.0461401 -0.0359286 -0.0142878 -0.0455497 -0.0256514 -0.0199732 -0.0461655 
-0.0206135 -0.0147409 -0.0442682 -0.0279842 -0.0128051 -0.0459813 -0.0104143 -0.018162 -0.0400838 
-0.0131803 -0.0152981 -0.046382 -0.00262604 -0.0172893 -0.0456837 -0.00683872 -0.0107275 -0.0447973 
0.0045442 -0.0163986 -0.0458266 0.0189252 -0.0194824 -0.0462083 0.0117324 -0.0172672 -0.045903 
0.023035 -0.0123719 -0.0453248 0.0312747 -0.0135659 -0.0444132 0.038231 -0.0175282 -0.0412595 
0.0458536 -0.0129965 -0.0458992 -0.044698 -0.00782493 -0.0448726 -0.037475 -0.00629779 -0.0459662 
-0.0242952 -7.40661e-05 -0.0455733 -0.0222548 -0.00755203 -0.0455175 -0.0294676 -0.005279 -0.0456612 
-0.0137943 -0.00711456 -0.0461295 -0.00770958 -0.00207128 -0.0458198 0.000424435 -0.00966772 -0.0451263 
0.00225423 -0.00190962 -0.0462482 0.00768727 -0.00963149 -0.0440059 0.0096853 -0.00262062 -0.0460546 
0.0149678 -0.00997932 -0.0454225 0.0156148 -0.00397494 -0.0409336 0.029698 -0.00622799 -0.0462934 
0.0222257 -0.00424103 -0.0459156 0.0304668 -0.000955794 -0.0405048 0.0360125 -0.00176778 -0.0458378 
0.0391788 -0.00882864 -0.0436787 0.0445806 -0.00311682 -0.0458877 -0.0462654 0.00984462 -0.0452828 
-0.0422085 0.00266762 -0.0461141 -0.0333174 0.00142967 -0.0462475 -0.0302799 0.00898742 -0.0459586 
-0.0378494 0.00916179 -0.0457398 -0.0226287 0.00740544 -0.0458504 -0.01111 0.00614377 -0.0460814 
-0.0165462 0.00874342 -0.0407824 -0.0160121 0.00105918 -0.0460934 -0.00350851 0.00397754 -0.0461663 
0.00402414 0.00516339 -0.04399 0.0113475 0.0047186 -0.0460848 0.0184485 0.00229978 -0.0455746 
0.0267639 0.00498131 -0.0443296 0.0209568 0.00919247 -0.0458677 0.0338266 0.00580037 -0.0461427 
0.0406317 0.00369606 -0.044688 0.0460833 0.00940514 -0.0459924 -0.0410925 0.0160766 -0.0461495 
-0.0329605 0.0161203 -0.0457896 -0.0255487 0.0169442 -0.0458292 -0.0190443 0.0137119 -0.0460935 
-0.0118922 0.0134868 -0.0460731 -0.00767803 0.0193013 -0.0453206 -0.00458493 0.011825 -0.0461679 
-0.000254408 0.018718 -0.0461299 0.00860117 0.0193958 -0.046497 0.0038444 0.0125962 -0.0441645 
0.0153428 0.0109195 -0.0400738 0.0112438 0.0122369 -0.0461714 0.0178193 0.0157234 -0.0460082 
0.0280885 0.012341 -0.0459345 0.0259907 0.0198202 -0.045416 0.0336388 0.0178443 -0.0450986 
0.0397862 0.013273 -0.0454913 0.0460209 0.0181456 -0.0458707 -0.0465593 0.020748 -0.0456017 
-0.0411108 0.0262463 -0.0459562 -0.0359023 0.0227808 -0.0421542 -0.0287033 0.0239321 -0.0458147 
-0.0118998 0.0254524 -0.04362 -0.0186245 0.0288154 -0.0455062 -0.0184647 0.0214191 -0.0461301 
-0.004383 0.0263328 -0.0445934 0.00366766 0.025625 -0.0458139 0.0155279 0.0222629 -0.044912 
0.0105314 0.0281607 -0.0456082 0.0236187 0.0265693 -0.0462067 0.0334001 0.0252182 -0.0462633 
0.0417036 0.0239735 -0.0459896 -0.0458603 0.0319967 -0.0455479 -0.0464949 0.0399255 -0.0447526 
-0.0307916 0.0366785 -0.046013 -0.0393257 0.0396834 -0.0431219 -0.0378981 0.0328383 -0.046307 
-0.0328137 0.0314827 -0.0401016 -0.0255444 0.0310411 -0.046059 -0.019784 0.0378606 -0.045084 
-0.0123714 0.0331905 -0.0457438 -0.00714979 0.0389851 -0.0454524 -0.00167071 0.0334195 -0.045404 
0.00568428 0.0338611 -0.045754 0.00180931 0.0396345 -0.0424434 0.0116774 0.0388623 -0.0422886 
0.0186987 0.0394981 -0.0463233 0.0165366 0.0326541 -0.0459881 0.0244848 0.0342505 -0.0462537 
0.0301632 0.0304491 -0.0418287 0.0306554 0.0395398 -0.0461739 0.0362241 0.0348667 -0.0437762 
0.0456479 0.0370528 -0.0448442 0.0417598 0.0306474 -0.0418986 -0.0433877 0.0462748 -0.046278 
-0.0347869 0.0462075 -0.0437507 -0.0277879 0.0435533 -0.0455803 -0.0193267 0.0455053 -0.0420993 
-0.0124354 0.0448324 -0.0456759 -0.00549559 0.0461564 -0.0435618 0.00210552 0.0463059 -0.0457964 
0.012097 0.0460511 -0.0459811 0.0276029 0.0463971 -0.0462567 0.0202516 0.0463205 -0.0442385 
0.0396703 0.0409331 -0.0461565 0.0350361 0.0463466 -0.045995 0.0462893 0.045363 -0.0451258 
-0.0463033 -0.0451017 -0.034638 -0.0412568 -0.0416423 -0.039093 -0.0336663 -0.0422659 -0.0386932 
-0.0305158 -0.0460485 -0.0333577 -0.0387391 -0.0458637 -0.0323665 -0.0214098 -0.0465715 -0.0349663 
-0.0259883 -0.0405541 -0.0354451 -0.0177697 -0.0410647 -0.0307457 -0.0120367 -0.0455624 -0.0336743 
-0.0034188 -0.040038 -0.0317716 -0.00482851 -0.045872 -0.0370568 0.00133971 -0.0459686 -0.0308121 
0.00787839 -0.046643 -0.035742 0.0141139 -0.0424522 -0.0373007 0.0197905 -0.0456022 -0.0327698 
0.0261059 -0.0451869 -0.0377991 0.0347042 -0.0427321 -0.0399516 0.0357969 -0.0458635 -0.0326461 
0.040965 -0.0456081 -0.0386729 -0.0460365 -0.0360802 -0.0372625 -0.0352172 -0.0349102 -0.0395061 
-0.0367511 -0.038512 -0.0324518 -0.0289792 -0.033733 -0.0351516 -0.0224402 -0.0350432 -0.0387332 
-0.0229561 -0.0356574 -0.0300014 -0.0150009 -0.0339852 -0.0374463 -0.00954868 -0.0389808 -0.0371586 
-0.0034478 -0.034186 -0.0373139 0.00620293 -0.0384173 -0.0357148 0.00261806 -0.0306136 -0.031019 
0.00991457 -0.032257 -0.0316546 0.0166676 -0.0349578 -0.0344997 0.0108819 -0.0326198 -0.0396691 
0.0214377 -0.0316922 -0.0392118 0.0249039 -0.0391142 -0.0339529 0.0287983 -0.0362381 -0.0396429 
0.0350814 -0.0337494 -0.0373571 0.0386901 -0.0383381 -0.0333193 0.0464402 -0.0316363 -0.0373299 
0.0459361 -0.0394706 -0.0367549 -0.0451439 -0.028851 -0.0385996 -0.0385974 -0.0261942 -0.035945 
-0.030949 -0.0248075 -0.0361858 -0.0239483 -0.0211756 -0.0386356 -0.0274624 -0.027457 -0.0301551 
-0.0108128 -0.0272218 -0.038373 -0.0189507 -0.0269035 -0.0374086 -0.00361683 -0.0265533 -0.0347151 
0.00397387 -0.0207211 -0.0311555 0.00502801 -0.0287916 -0.038565 0.00192996 -0.020205 -0.03858 
0.0133136 -0.0226615 -0.0351466 0.0199766 -0.0290081 -0.0306669 0.0242657 -0.023165 -0.0387998 
0.0283507 -0.0285292 -0.0361551 0.0378525 -0.0215385 -0.0309358 0.0325725 -0.0216897 -0.0368006 
0.0458795 -0.021272 -0.0379243 0.0402981 -0.0282983 -0.0339443 -0.0423392 -0.0193317 -0.0313878 
-0.0450484 -0.0192743 -0.0387352 -0.045899 -0.011029 -0.0340723 -0.035301 -0.0187764 -0.0369109 
-0.0326975 -0.0102134 -0.0399329 -0.0284167 -0.015635 -0.0385095 -0.0174581 -0.0193606 -0.0354046 
-0.0129982 -0.0115049 -0.0309807 -0.015565 -0.0117406 -0.0388198 -0.00593429 -0.0174201 -0.0329483 
-0.00371512 -0.0127427 -0.0385037 0.00347894 -0.0135099 -0.0313642 0.00891933 -0.0152533 -0.0375321 
0.0189061 -0.0100941 -0.0359525 0.0183105 -0.0183647 -0.0388527 0.0273546 -0.0145227 -0.0380285 
0.0362748 -0.0143215 -0.0343428 0.0449782 -0.0131006 -0.0356177 -0.0413166 -0.000108022 -0.0339863 
-0.035577 -0.00399983 -0.0371115 -0.0236036 -0.00925913 -0.0331181 -0.0272075 -0.00351901 -0.0368675 
-0.0205067 -0.00481671 -0.0385937 -0.0101979 -6.46791e-05 -0.0381126 -0.00261716 -0.0022865 -0.0302249 
-0.00912578 -0.00739553 -0.0380618 -0.00206621 -0.000247854 -0.039584 0.00560939 -0.00079543 -0.0386026 
0.00338559 -0.00970642 -0.037801 0.0111474 -0.00825335 -0.0352224 0.0202335 -0.00191529 -0.0328065 
0.0253649 -0.00600058 -0.0366894 0.0334129 -0.00802847 -0.0390546 0.0323871 -0.00327984 -0.0326331 
0.0389861 -0.00332001 -0.0366345 0.0460516 -0.00458123 -0.0332862 -0.0448298 0.0078812 -0.0373658 
-0.0460568 0.00055119 -0.0396329 -0.0333198 0.00419065 -0.0317307 -0.0363338 0.00474156 -0.0396009 
-0.0239343 0.00334352 -0.0312957 -0.0218528 0.0029857 -0.0388263 -0.0289826 0.00459291 -0.0395899 
-0.0256907 0.0097586 -0.0361341 -0.014979 0.00462504 -0.0338942 -0.00802173 0.00668748 -0.0360065 
-0.000404366 0.00850505 -0.0391199 0.00894178 0.0064438 -0.0386767 0.00252488 0.00467546 -0.0311651 
0.015995 0.003957 -0.0371332 0.0105204 0.000452032 -0.0328102 0.0279584 0.00770593 -0.0351687 
0.0233878 0.0017424 -0.0383464 0.0359465 0.00840698 -0.0310226 0.0357637 0.00412032 -0.0385886 
0.0460888 0.00393819 -0.0395564 0.0460457 0.00324819 -0.030485 0.0409296 0.00955766 -0.0370367 
-0.046179 0.0178219 -0.030021 -0.0410869 0.0119736 -0.0309334 -0.046108 0.0156234 -0.038675 
-0.038556 0.0170207 -0.0388651 -0.0345497 0.0114445 -0.0361446 -0.0295084 0.0177516 -0.0389405 
-0.0217108 0.0176491 -0.0392779 -0.0181574 0.0118944 -0.0335243 -0.0142863 0.0175031 -0.0392316 
-0.00831581 0.0149268 -0.0356373 -0.00146305 0.0155816 -0.0389692 0.00901422 0.0138388 -0.0360587 
0.0027153 0.0123275 -0.0326964 0.0148433 0.0183935 -0.0380026 0.0187911 0.0168068 -0.0312929 
0.0134754 0.0104788 -0.0309778 0.0258291 0.0197715 -0.032549 0.0294327 0.0157884 -0.0379472 
0.0224161 0.0141089 -0.03911 0.0341902 0.0104665 -0.039928 0.0396 0.0171871 -0.0376883 
0.0463041 0.0145445 -0.0393323 0.0462029 0.0110941 -0.0320406 -0.0460334 0.0226887 -0.0380658 
-0.0394693 0.0257869 -0.0357498 -0.0324554 0.0253322 -0.034974 -0.0262776 0.026023 -0.0386548 
-0.0161703 0.0276945 -0.0303236 -0.0176812 0.0253799 -0.0385774 -0.00707068 0.0294223 -0.0310695 
-0.00833379 0.0232266 -0.0356047 -0.00101881 0.0236454 -0.0378797 0.00603642 0.02153 -0.0390313 
0.00405454 0.0275396 -0.0330343 0.0126704 0.0231501 -0.0325149 0.0160733 0.0274501 -0.0388647 
0.0176223 0.0297327 -0.0316687 0.0292648 0.0274658 -0.0318504 0.0217622 0.021394 -0.0391073 
0.0307353 0.0233436 -0.0390297 0.0336429 0.0202525 -0.0329122 0.0381739 0.0243018 -0.0394651 
0.0454084 0.0289406 -0.0306716 0.0466623 0.0208127 -0.0307877 0.0461178 0.0255711 -0.0384073 
-0.0450793 0.0395259 -0.0366212 -0.0460991 0.0306073 -0.0361936 -0.0391402 0.0340319 -0.036878 
-0.0276085 0.0345054 -0.0317622 -0.0258547 0.0386791 -0.0389195 -0.0207278 0.0324212 -0.0385663 
-0.0126571 0.0391919 -0.0300296 -0.0128364 0.0387406 -0.0378156 -0.0133528 0.0314007 -0.0371312 
-0.00325436 0.0358672 -0.0343518 -0.00628135 0.0314335 -0.0396553 0.00991231 0.0310472 -0.0381893 
0.00444662 0.0365724 -0.031167 0.00279773 0.0329958 -0.0386212 0.0160558 0.0375835 -0.036566 
0.0239772 0.0398922 -0.036908 0.0235051 0.0317895 -0.0377806 0.0350406 0.0313967 -0.0353552 
0.0314255 0.0377401 -0.0372308 0.0441273 0.0369858 -0.0367083 -0.0452984 0.0460681 -0.0313183 
-0.0335475 0.040305 -0.0385748 -0.0397698 0.0453977 -0.0366335 -0.0262771 0.0462567 -0.0367156 
-0.00726236 0.0449097 -0.034186 -0.000315898 0.0437623 -0.0364655 0.00613713 0.0454688 -0.0390427 
0.00850794 0.0462254 -0.0315627 0.0159379 0.045001 -0.0376756 0.0201728 0.0454487 -0.0306101 
0.0355859 0.0434062 -0.0315267 0.0302185 0.0462788 -0.0386998 0.0394213 0.0459654 -0.0390781 
0.0457789 0.0452071 -0.0338322 -0.0430041 -0.0423803 -0.0238892 -0.0268893 -0.0432969 -0.0202865 
-0.014363 -0.0410444 -0.0218124 -0.00928001 -0.0460891 -0.0246039 0.00630833 -0.0460303 -0.0241841 
0.0170679 -0.0462713 -0.0252493 0.0103263 -0.0425792 -0.0298818 0.02337 -0.0415278 -0.0221107 
0.0316731 -0.0414144 -0.0274692 0.0373268 -0.0435898 -0.0225203 0.0464554 -0.0440297 -0.0298123 
0.0445238 -0.0400097 -0.020932 -0.0459037 -0.037567 -0.0299579 -0.041121 -0.0310751 -0.0287296 
-0.0335708 -0.031728 -0.0292492 -0.0309227 -0.0380525 -0.0273186 -0.0364946 -0.037358 -0.0222204 
-0.0198388 -0.0359159 -0.0227669 -0.0108594 -0.0337795 -0.0285209 -0.00603358 -0.0355858 -0.0212504 
0.00267012 -0.0374352 -0.0273132 0.0150253 -0.0386532 -0.0221219 0.0257923 -0.0327657 -0.0298893 
0.0216573 -0.0319569 -0.0232853 0.0381842 -0.0333212 -0.0238556 0.0444681 -0.0324991 -0.0290247 
-0.0460905 -0.0237336 -0.0251728 -0.0346934 -0.0243441 -0.0272045 -0.0203477 -0.0269003 -0.026523 
-0.0266331 -0.0237769 -0.0225369 -0.0177624 -0.0214031 -0.0211566 -0.00129146 -0.0254577 -0.0270024 
0.00846955 -0.0255174 -0.0272642 0.0155927 -0.022422 -0.0250205 0.0334624 -0.0288816 -0.0298634 
0.0308834 -0.0266099 -0.0218506 0.0434749 -0.0248317 -0.0263923 -0.0463749 -0.0145482 -0.0228794 
-0.0386414 -0.0115337 -0.027956 -0.0333054 -0.0134416 -0.0211959 -0.0215853 -0.0185033 -0.0292543 
-0.0144846 -0.0197671 -0.0273603 -0.00196655 -0.0168698 -0.025595 0.0139476 -0.0130568 -0.0283285 
0.0283409 -0.0115473 -0.0282371 0.0222774 -0.0195634 -0.022536 0.0236171 -0.0162015 -0.029665 
0.0368656 -0.0163188 -0.0249677 0.0303766 -0.0199509 -0.0295414 0.0432133 -0.0125569 -0.0278776 
-0.033258 -0.00579921 -0.027375 -0.0289923 -0.000535522 -0.0224991 -0.0239207 -0.00923619 -0.0227725 
-0.0109591 -0.00339232 -0.029985 -0.0180141 -0.00484689 -0.0276984 -0.00574868 -0.00866947 -0.02774 
-0.00106622 -0.00823663 -0.0201773 -0.00950156 -0.00406671 -0.0212775 0.0059488 -0.00521898 -0.0281681 
0.0142937 -0.00492415 -0.0278342 0.0218247 -0.00842966 -0.0282928 0.0293933 -0.00753575 -0.0209248 
0.0232971 -0.00228713 -0.0203525 0.0368753 -0.007264 -0.0278198 0.0398095 -0.000396697 -0.0260434 
-0.0466315 0.000582628 -0.0284645 -0.0434602 0.0073364 -0.0209562 -0.0393282 0.00383369 -0.0268878 
-0.0210092 0.00864314 -0.0254992 -0.0293702 0.00775677 -0.0245322 -0.0140513 0.00208961 -0.0239989 
-0.00709512 0.00369394 -0.0279871 0.000208209 0.00165355 -0.022861 0.00854916 0.00420554 -0.0264865 
0.0194974 0.00795925 -0.0284828 0.0271193 0.00155842 -0.0281466 0.0265963 0.00883681 -0.0250015 
0.0382732 0.00715096 -0.022288 -0.0343309 0.0172799 -0.0207322 -0.0270571 0.017091 -0.0238124 
-0.0179771 0.0195261 -0.0254831 -0.00812689 0.0155691 -0.0265272 -0.00369969 0.0102353 -0.0281309 
0.00675015 0.0189912 -0.0296128 0.00449118 0.0104084 -0.0243972 0.0121054 0.016471 -0.0238767 
0.0271484 0.0185613 -0.0247067 0.0308944 0.0133083 -0.0295665 0.0461769 0.0117249 -0.0205603 
-0.0464787 0.0210447 -0.0232208 -0.0435855 0.0279946 -0.0294368 -0.0394357 0.0219486 -0.0255835 
-0.0311337 0.0213494 -0.0291223 -0.0230273 0.0231867 -0.0294772 -0.00271858 0.0201764 -0.0297103 
0.00339397 0.025956 -0.0235866 0.0172765 0.0299855 -0.020263 0.0101333 0.0289778 -0.0273519 
0.0182274 0.023758 -0.0276939 0.0329699 0.0299038 -0.0249989 0.0428129 0.020048 -0.021771 
0.0412661 0.0261738 -0.0250558 -0.0417689 0.0373006 -0.0295165 -0.0355094 0.0337605 -0.025969 
-0.0261043 0.0311253 -0.0241244 -0.0110582 0.0329889 -0.0221006 -0.00372443 0.0337789 -0.0234991 
0.0130313 0.038183 -0.0281288 0.0211712 0.0355111 -0.0286961 0.0388849 0.0385026 -0.0264793 
0.0416348 0.0336715 -0.020891 0.0462185 0.0364382 -0.028274 -0.0405727 0.0457913 -0.0257866 
-0.0315523 0.0461377 -0.0208713 -0.0289534 0.0456405 -0.0286652 -0.024132 0.0461353 -0.0204243 
-0.0131773 0.0439147 -0.0228984 -0.0177275 0.0465948 -0.0299736 -0.00110722 0.0430059 -0.0256311 
0.00706114 0.0424825 -0.0237871 0.0164502 0.0452813 -0.0241658 0.0289491 0.0419676 -0.0277014 
0.0250469 0.045454 -0.0219379 0.0414374 0.0461576 -0.0275558 -0.026059 -0.0434401 -0.0115441 
-0.0131743 -0.0402672 -0.0134121 -5.6885e-05 -0.042494 -0.0178784 0.0182416 -0.0412457 -0.0152745 
0.0321849 -0.0458266 -0.0132408 0.0405081 -0.0404011 -0.0130269 -0.0414419 -0.0306456 -0.019525 
-0.0454709 -0.0379966 -0.0176986 -0.027088 -0.0318113 -0.0189059 0.00711577 -0.0371719 -0.0174918 
0.040664 -0.0311573 -0.0149341 -0.0349658 -0.0286573 -0.0150835 -0.0139758 -0.0257398 -0.0165394 
0.00131817 -0.0276088 -0.0186971 0.00666394 -0.0233841 -0.0179029 0.0219334 -0.0284586 -0.0141982 
0.0387887 -0.0207316 -0.0161348 -0.0363421 -0.0125762 -0.0123222 0.0282979 -0.0163103 -0.017007 
0.0448355 -0.0164789 -0.0195416 0.0458987 -0.0115161 -0.0127527 -0.0436788 -0.00739987 -0.0193062 
-0.0335835 -0.00415188 -0.0156177 -0.021359 -0.00309129 -0.013103 -0.0144563 -0.00466172 -0.0123582 
0.0101946 -0.00154207 -0.0181947 0.0240744 -0.00433709 -0.012943 0.0442287 -0.000483331 -0.0198377 
-0.0192091 0.00909643 -0.0153324 -0.0131418 0.00271585 -0.0153852 0.0165422 0.00194959 -0.0198256 
-0.0430673 0.0162853 -0.0189133 -0.0163634 0.0182843 -0.0168637 -0.00991465 0.0101093 -0.0188239 
0.00794007 0.0139075 -0.0149886 0.0205779 0.0119289 -0.0162235 -0.0421417 0.0204268 -0.0116771 
-0.0383137 0.0243666 -0.0156096 -0.0210564 0.0265025 -0.0150396 -0.0108373 0.0253831 -0.0185899 
-0.00334323 0.0212238 -0.017059 0.0359671 0.028653 -0.0115806 0.0336229 0.0269373 -0.0183092 
-0.0453282 0.0381938 -0.0155468 -0.0319569 0.0339095 -0.0189848 -0.0201283 0.0344207 -0.0194411 
0.0078954 0.0302613 -0.016233 -0.0405117 0.045768 -0.0101546 -0.0372453 0.0416416 -0.0193425 
-0.029686 0.0416414 -0.0147526 0.00235822 0.0400481 -0.0168844 0.0107611 0.0403146 -0.017454 
0.0183547 0.0419955 -0.0175703 0.0110816 0.0466919 -0.0127646 0.0376055 0.0415303 -0.0194778 
0.0443158 0.0440385 -0.010159 0.0173202 -0.0330536 -0.00740928 0.0235553 -0.0384346 -0.00768156 
0.0381472 -0.0380435 -0.0015567 -0.0440776 -0.0222191 -0.00459571 -0.000506083 -0.0266581 -0.00642325 
0.0436723 -0.0218603 -0.00311187 -0.00218416 -2.69297e-05 -0.00850668 -0.0151309 0.00798594 -0.000282183 
0.0170924 0.0168721 -0.00594467 -0.0323563 0.0208581 -0.00879182 -0.0112327 0.0330625 -0.00320697 
0.0321661 0.0459366 -0.00535512 -0.0213468 0.0253038 0.00856652 0.0342873 0.00508464 0.0210687 

VERTICES 1134 1134
1 0 
1 1 
1 2 
1 3 
1 4 
1 5 
1 6 
1 7 
1 8 
1 9 
1 10 
1 11 
1 12 
1 13 
1 14 
1 15 
1 16 
1 17 
1 18 
1 19 
1 20 
1 21 
1 22 
1 23 
1 24 
1 25 
1 26 
1 27 
1 28 
1 29 
1 30 
1 31 
1 32 
1 33 
1 34 
1 35 
1 36 
1 37 
1 38 
1 39 
1 40 
1 41 
1 42 
1 43 
1 44 
1 45 
1 46 
1 47 
1 48 
1 49 
1 50 
1 51 
1 52 
1 53 
1 54 
1 55 
1 56 
1 57 
1 58 
1 59 
1 60 
1 61 
1 62 
1 63 
1 64 
1 65 
1 66 
1 67 
1 68 
1 69 
1 70 
1 71 
1 72 
1 73 
1 74 
1 75 
1 76 
1 77 
1 78 
1 79 
1 80 
1 81 
1 82 
1 83 
1 84 
1 85 
1 86 
1 87 
1 88 
1 89 
1 90 
1 91 
1 92 
1 93 
1 94 
1 95 
1 96 
1 97 
1 98 
1 99 
1 100 
1 101 
1 102 
1 103 
1 104 
1 105 
1 106 
1 107 
1 108 
1 109 
1 110 
1 111 
1 112 
1 113 
1 114 
1 115 
1 116 
1 117 
1 118 
1 119 
1 120 
1 121 
1 122 
1 123 
1 124 
1 125 
1 126 
1 127 
1 128 
1 129 
1 130 
1 131 
1 132 
1 133 
1 134 
1 135 
1 136 
1 137 
1 138 
1 139 
1 140 
1 141 
1 142 
1 143 
1 144 
1 145 
1 146 
1 147 
1 148 
1 149 
1 150 
1 151 
1 152 
1 153 
1 154 
1 155 
1 156 
1 157 
1 158 
1 159 
1 160 
1 161 
1 162 
1 163 
1 164 
1 165 
1 166 
1 167 
1 168 
1 169 
1 170 
1 171 
1 172 
1 173 
1 174 
1 175 
1 176 
1 177 
1 178 
1 179 
1 180 
1 181 
1 182 
1 183 
1 184 
1 185 
1 186 
1 187 
1 188 
1 189 
1 190 
1 191 
1 192 
1 193 
1 194 
1 195 
1 196 
1 197 
1 198 
1 199 
1 200 
1 201 
1 202 
1 203 
1 204 
1 205 
1 206 
1 207 
1 208 
1 209 
1 210 
1 211 
1 212 
1 213 
1 214 
1 215 
1 216 
1 217 
1 218 
1 219 
1 220 
1 221 
1 222 
1 223 
1 224 
1 225 
1 226 
1 227 
1 228 
1 229 
1 230 
1 231 
1 232 
1 233 
1 234 
1 235 
1 236 
1 237 
1 238 
1 239 
1 240 
1 241 
1 242 
1 243 
1 244 
1 245 
1 246 
1 247 
1 248 
1 249 
1 250 
1 251 
1 252 
1 253 
1 254 
1 255 
1 256 
1 257 
1 258 
1 259 
1 260 
1 261 
1 262 
1 263 
1 264 
1 265 
1 266 
1 267 
1 268 
1 269 
1 270 
1 271 
1 272 
1 273 
1 274 
1 275 
1 276 
1 277 
1 278 
1 279 
1 280 
1 281 
1 282 
1 283 
1 284 
1 285 
1 286 
1 287 
1 288 
1 289 
1 290 
1 291 
1 292 
1 293 
1 294 
1 295 
1 296 
1 297 
1 298 
1 299 
1 300 
1 301 
1 302 
1 303 
1 304 
1 305 
1 306 
1 307 
1 308 
1 309 
1 310 
1 311 
1 312 
1 313 
1 314 
1 315 
1 316 
1 317 
1 318 
1 319 
1 320 
1 321 
1 322 
1 323 
1 324 
1 325 
1 326 
1 327 
1 328 
1 329 
1 330 
1 331 
1 332 
1 333 
1 334 
1 335 
1 336 
1 337 
1 338 
1 339 
1 340 
1 341 
1 342 
1 343 
1 344 
1 345 
1 346 
1 347 
1 348 
1 349 
1 350 
1 351 
1 352 
1 353 
1 354 
1 355 
1 356 
1 357 
1 358 
1 359 
1 360 
1 361 
1 362 
1 363 
1 364 
1 365 
1 366 
1 367 
1 368 
1 369 
1 370 
1 371 
1 372 
1 373 
1 374 
1 375 
1 376 
1 377 
1 378 
1 379 
1 380 
1 381 
1 382 
1 383 
1 384 
1 385 
1 386 
1 387 
1 388 
1 389 
1 390 
1 391 
1 392 
1 393 
1 394 
1 395 
1 396 
1 397 
1 398 
1 399 
1 400 
1 401 
1 402 
1 403 
1 404 
1 405 
1 406 
1 407 
1 408 
1 409 
1 410 
1 411 
1 412 
1 413 
1 414 
1 415 
1 416 
1 417 
1 418 
1 419 
1 420 
1 421 
1 422 
1 423 
1 424 
1 425 
1 426 
1 427 
1 428 
1 429 
1 430 
1 431 
1 432 
1 433 
1 434 
1 435 
1 436 
1 437 
1 438 
1 439 
1 440 
1 441 
1 442 
1 443 
1 444 
1 445 
1 446 
1 447 
1 448 
1 449 
1 450 
1 451 
1 452 
1 453 
1 454 
1 455 
1 456 
1 457 
1 458 
1 459 
1 460 
1 461 
1 462 
1 463 
1 464 
1 465 
1 466 
1 467 
1 468 
1 469 
1 470 
1 471 
1 472 
1 473 
1 474 
1 475 
1 476 
1 477 
1 478 
1 479 
1 480 
1 481 
1 482 
1 483 
1 484 
1 485 
1 486 
1 487 
1 488 
1 489 
1 490 
1 491 
1 492 
1 493 
1 494 
1 495 
1 496 
1 497 
1 498 
1 499 
1 500 
1 501 
1 502 
1 503 
1 504 
1 505 
1 506 
1 507 
1 508 
1 509 
1 510 
1 511 
1 512 
1 513 
1 514 
1 515 
1 516 
1 517 
1 518 
1 519 
1 520 
1 521 
1 522 
1 523 
1 524 
1 525 
1 526 
1 527 
1 528 
1 529 
1 530 
1 531 
1 532 
1 533 
1 534 
1 535 
1 536 
1 537 
1 538 
1 539 
1 540 
1 541 
1 542 
1 543 
1 544 
1 545 
1 546 
1 547 
1 548 
1 549 
1 550 
1 551 
1 552 
1 553 
1 554 
1 555 
1 556 
1 557 
1 558 
1 559 
1 560 
1 561 
1 562 
1 563 
1 564 
1 565 
1 566 

POINT_DATA 567
SCALARS id double
LOOKUP_TABLE default
26 76 42 72 29 31 23 129 253 
255 51 211 526 264 193 139 78 7 
227 198 140 256 330 66 63 18 335 
383 469 326 400 268 462 388 259 69 
322 61 126 112 27 416 77 196 206 
201 190 329 261 260 385 331 508 318 
478 549 54 37 73 189 336 210 315 
257 214 449 274 276 381 444 487 386 
464 108 48 97 141 62 266 399 161 
147 325 454 340 280 539 443 403 409 
472 552 28 235 223 94 311 183 224 
281 273 439 414 352 401 430 554 267 
418 396 107 164 342 180 279 125 277 
289 407 217 283 499 436 417 536 553 
541 564 175 233 240 176 231 232 53 
483 295 237 546 123 547 413 299 44 
234 122 184 371 359 351 373 314 309 
358 286 365 434 209 408 538 372 419 
566 421 188 50 248 169 249 345 428 
282 484 375 555 246 561 20 71 24 
254 19 8 70 25 150 6 34 390 
195 447 317 272 505 320 327 17 82 
132 35 84 194 91 316 143 133 204 
379 514 203 524 216 512 518 460 453 
542 13 101 153 200 65 205 191 135 
2 197 215 402 128 523 468 456 89 
528 324 15 43 241 96 14 162 138 
171 157 142 263 22 278 467 458 341 
535 323 100 275 262 228 151 81 222 
213 154 219 338 40 531 465 509 498 
517 563 118 95 212 99 127 90 85 
173 397 152 560 412 220 87 285 79 
411 479 393 476 533 366 52 105 45 
32 221 360 296 258 21 148 355 155 
482 343 540 363 433 348 354 475 426 
551 394 165 58 109 427 239 370 489 
251 226 163 170 463 312 357 503 353 
481 491 550 558 493 559 114 117 287 
116 121 59 230 300 313 244 303 364 
431 346 502 420 474 367 488 485 168 
250 177 187 361 374 225 305 301 438 
490 501 562 497 74 75 202 3 269 
131 252 442 504 405 532 511 93 33 
160 16 130 98 136 68 384 391 466 
321 455 378 55 36 4 41 12 199 
451 525 137 448 519 182 56 102 115 
104 208 290 459 398 328 395 406 557 
103 334 347 207 167 146 156 144 270 
520 192 516 521 522 545 39 30 304 
218 294 392 293 424 534 477 450 445 
530 158 291 292 86 238 297 356 473 
369 410 537 120 49 185 149 113 362 
349 437 471 486 308 422 556 106 119 
159 243 377 429 544 368 435 529 124 
111 46 47 110 60 344 307 306 548 
236 492 67 9 64 507 506 441 0 
1 83 265 510 145 5 134 271 382 
457 10 380 513 350 432 298 284 88 
515 387 452 38 415 332 174 80 376 
480 495 166 92 229 186 543 425 404 
181 172 179 423 440 178 57 310 242 
288 302 496 565 319 389 446 11 461 
333 339 527 470 247 337 494 245 500 

FIELD FieldData 7
r 3 567 double
-0.0466726 -0.0465787 -0.0457302 -0.0391671 -0.0446613 -0.0459996 -0.0258497 -0.0404455 -0.0458878 
-0.02952 -0.046355 -0.0426755 -0.0219128 -0.0463572 -0.0461615 -0.0182332 -0.0422003 -0.0410221 
-0.01216 -0.04537 -0.0457755 -0.00385981 -0.0452563 -0.045138 0.00737851 -0.0461122 -0.0461136 
0.00180457 -0.0439251 -0.0402623 0.0158331 -0.0460773 -0.0462693 0.0236597 -0.0459822 -0.0457903 
0.0387881 -0.0465563 -0.0459338 0.0311425 -0.0465073 -0.045877 0.0459491 -0.0451756 -0.0457034 
-0.0462287 -0.0317236 -0.0461718 -0.0459966 -0.0395032 -0.045789 -0.0330783 -0.039911 -0.0458294 
-0.0391894 -0.0356118 -0.0462151 -0.0214359 -0.0340688 -0.0464601 -0.0287857 -0.0333677 -0.0462564 
-0.0149088 -0.0370032 -0.0448186 -0.000740414 -0.0380693 -0.0453599 -0.00793254 -0.0389662 -0.045538 
-0.0090021 -0.0308364 -0.0445514 -0.00215036 -0.0307836 -0.0462802 0.0053142 -0.0306301 -0.046095 
0.00721963 -0.0383981 -0.0460329 0.0158046 -0.0386691 -0.0461332 0.0152357 -0.030877 -0.046153 
0.021965 -0.0396941 -0.0405153 0.0222243 -0.0348925 -0.0461645 0.0274614 -0.0399287 -0.0461937 
0.0325806 -0.0336387 -0.0461291 0.0392878 -0.0315058 -0.0432696 0.0370204 -0.0393115 -0.0465165 
0.044398 -0.0369307 -0.0447084 -0.0462419 -0.0243529 -0.0458719 -0.0399048 -0.0202389 -0.0458985 
-0.0396725 -0.0280618 -0.0457992 -0.0328913 -0.0286572 -0.0427734 -0.0323774 -0.0214006 -0.0443829 
-0.0243681 -0.0277596 -0.045371 -0.0167216 -0.0286138 -0.0455492 -0.0108416 -0.023322 -0.0462816 
-0.0189484 -0.0217943 -0.0454718 -0.00388409 -0.0236944 -0.0424722 0.0029046 -0.0239021 -0.0460512 
0.010673 -0.0254318 -0.0446778 0.0173239 -0.0253167 -0.0414517 0.0240742 -0.0274852 -0.046105 
0.0275018 -0.0203962 -0.0463427 0.0379512 -0.0237852 -0.0460417 0.0312503 -0.0261211 -0.0432838 
0.0454423 -0.0213906 -0.045824 0.0459005 -0.0296581 -0.0461163 -0.041552 -0.01344 -0.040209 
-0.0461097 -0.0155778 -0.0461401 -0.0359286 -0.0142878 -0.0455497 -0.0256514 -0.0199732 -0.0461655 
-0.0206135 -0.0147409 -0.0442682 -0.0279842 -0.0128051 -0.0459813 -0.0104143 -0.018162 -0.0400838 
-0.0131803 -0.0152981 -0.0463819 -0.00262604 -0.0172893 -0.0456837 -0.00683872 -0.0107275 -0.0447973 
0.0045442 -0.0163986 -0.0458266 0.0189252 -0.0194824 -0.0462083 0.0117324 -0.0172672 -0.045903 
0.023035 -0.0123719 -0.0453248 0.0312747 -0.0135659 -0.0444132 0.038231 -0.0175282 -0.0412595 
0.0458536 -0.0129965 -0.0458992 -0.044698 -0.00782493 -0.0448726 -0.037475 -0.00629779 -0.0459662 
-0.0242952 -7.40661e-05 -0.0455733 -0.0222548 -0.00755203 -0.0455175 -0.0294676 -0.005279 -0.0456612 
-0.0137943 -0.00711456 -0.0461295 -0.00770958 -0.00207128 -0.0458198 0.000424435 -0.00966772 -0.0451263 
0.00225423 -0.00190962 -0.0462483 0.00768727 -0.00963149 -0.0440059 0.0096853 -0.00262062 -0.0460546 
0.0149678 -0.00997932 -0.0454225 0.0156148 -0.00397494 -0.0409336 0.029698 -0.00622799 -0.0462934 
0.0222257 -0.00424103 -0.0459156 0.0304668 -0.000955794 -0.0405048 0.0360125 -0.00176778 -0.0458378 
0.0391788 -0.00882864 -0.0436787 0.0445806 -0.00311682 -0.0458877 -0.0462654 0.00984462 -0.0452828 
-0.0422085 0.00266762 -0.0461141 -0.0333174 0.00142967 -0.0462475 -0.0302799 0.00898742 -0.0459586 
-0.0378494 0.00916179 -0.0457398 -0.0226287 0.00740544 -0.0458504 -0.01111 0.00614377 -0.0460814 
-0.0165462 0.00874342 -0.0407824 -0.0160121 0.00105918 -0.0460934 -0.00350851 0.00397754 -0.0461663 
0.00402414 0.00516339 -0.04399 0.0113475 0.0047186 -0.0460848 0.0184485 0.00229978 -0.0455746 
0.0267639 0.00498131 -0.0443295 0.0209568 0.00919247 -0.0458677 0.0338266 0.00580037 -0.0461427 
0.0406317 0.00369606 -0.0446881 0.0460833 0.00940514 -0.0459924 -0.0410925 0.0160766 -0.0461495 
-0.0329605 0.0161203 -0.0457896 -0.0255487 0.0169442 -0.0458292 -0.0190443 0.0137119 -0.0460935 
-0.0118922 0.0134868 -0.0460731 -0.00767803 0.0193013 -0.0453206 -0.00458493 0.011825 -0.0461679 
-0.000254408 0.018718 -0.0461299 0.00860117 0.0193958 -0.046497 0.0038444 0.0125962 -0.0441645 
0.0153428 0.0109195 -0.0400738 0.0112438 0.0122369 -0.0461714 0.0178193 0.0157234 -0.0460082 
0.0280885 0.012341 -0.0459345 0.0259907 0.0198202 -0.045416 0.0336388 0.0178443 -0.0450986 
0.0397862 0.013273 -0.0454913 0.0460209 0.0181456 -0.0458707 -0.0465593 0.020748 -0.0456017 
-0.0411108 0.0262463 -0.0459562 -0.0359023 0.0227808 -0.0421542 -0.0287033 0.0239321 -0.0458147 
-0.0118998 0.0254524 -0.04362 -0.0186245 0.0288154 -0.0455062 -0.0184647 0.0214191 -0.0461301 
-0.004383 0.0263328 -0.0445934 0.00366766 0.025625 -0.0458139 0.0155279 0.0222629 -0.044912 
0.0105314 0.0281607 -0.0456082 0.0236187 0.0265693 -0.0462067 0.0334001 0.0252182 -0.0462633 
0.0417036 0.0239735 -0.0459896 -0.0458603 0.0319967 -0.0455479 -0.0464949 0.0399255 -0.0447526 
-0.0307916 0.0366785 -0.046013 -0.0393257 0.0396834 -0.0431219 -0.0378981 0.0328383 -0.046307 
-0.0328137 0.0314827 -0.0401016 -0.0255444 0.0310411 -0.046059 -0.019784 0.0378606 -0.045084 
-0.0123714 0.0331905 -0.0457438 -0.00714979 0.0389851 -0.0454524 -0.00167071 0.0334195 -0.045404 
0.00568428 0.0338611 -0.045754 0.00180931 0.0396345 -0.0424434 0.0116774 0.0388623 -0.0422886 
0.0186987 0.0394981 -0.0463233 0.0165366 0.0326541 -0.0459881 0.0244848 0.0342505 -0.0462537 
0.0301632 0.0304491 -0.0418287 0.0306554 0.0395398 -0.0461739 0.0362241 0.0348667 -0.0437762 
0.0456479 0.0370528 -0.0448442 0.0417598 0.0306474 -0.0418986 -0.0433877 0.0462748 -0.046278 
-0.0347869 0.0462075 -0.0437507 -0.0277879 0.0435533 -0.0455803 -0.0193267 0.0455053 -0.0420993 
-0.0124354 0.0448324 -0.0456759 -0.00549559 0.0461564 -0.0435618 0.00210552 0.0463059 -0.0457964 
0.012097 0.0460511 -0.0459811 0.0276029 0.0463971 -0.0462567 0.0202516 0.0463205 -0.0442385 
0.0396703 0.0409331 -0.0461565 0.0350361 0.0463466 -0.045995 0.0462893 0.045363 -0.0451258 
-0.0463033 -0.0451017 -0.034638 -0.0412568 -0.0416423 -0.039093 -0.0336663 -0.0422659 -0.0386932 
-0.0305158 -0.0460485 -0.0333577 -0.0387391 -0.0458637 -0.0323665 -0.0214098 -0.0465715 -0.0349663 
-0.0259883 -0.0405541 -0.0354452 -0.0177697 -0.0410647 -0.0307457 -0.0120367 -0.0455624 -0.0336743 
-0.0034188 -0.040038 -0.0317716 -0.00482851 -0.045872 -0.0370568 0.00133971 -0.0459686 -0.0308121 
0.00787839 -0.046643 -0.035742 0.0141139 -0.0424522 -0.0373007 0.0197905 -0.0456022 -0.0327698 
0.0261059 -0.0451869 -0.0377991 0.0347042 -0.0427321 -0.0399516 0.0357969 -0.0458635 -0.0326461 
0.040965 -0.0456081 -0.0386729 -0.0460365 -0.0360802 -0.0372625 -0.0352172 -0.0349102 -0.0395061 
-0.0367511 -0.038512 -0.0324518 -0.0289792 -0.033733 -0.0351516 -0.0224402 -0.0350432 -0.0387332 
-0.0229561 -0.0356574 -0.0300014 -0.0150009 -0.0339852 -0.0374463 -0.00954869 -0.0389809 -0.0371586 
-0.0034478 -0.034186 -0.0373139 0.00620293 -0.0384173 -0.0357148 0.00261806 -0.0306136 -0.031019 
0.00991457 -0.032257 -0.0316546 0.0166676 -0.0349578 -0.0344997 0.0108819 -0.0326198 -0.0396691 
0.0214377 -0.0316922 -0.0392118 0.0249039 -0.0391142 -0.0339529 0.0287983 -0.0362381 -0.0396429 
0.0350815 -0.0337494 -0.0373571 0.0386901 -0.0383381 -0.0333193 0.0464402 -0.0316363 -0.0373299 
0.0459361 -0.0394706 -0.0367549 -0.0451439 -0.028851 -0.0385995 -0.0385974 -0.0261942 -0.035945 
-0.030949 -0.0248075 -0.0361858 -0.0239483 -0.0211756 -0.0386356 -0.0274624 -0.027457 -0.0301551 
-0.0108128 -0.0272218 -0.038373 -0.0189507 -0.0269035 -0.0374087 -0.00361683 -0.0265533 -0.0347151 
0.00397387 -0.0207211 -0.0311555 0.00502801 -0.0287916 -0.038565 0.00192996 -0.020205 -0.03858 
0.0133136 -0.0226615 -0.0351466 0.0199766 -0.0290081 -0.0306669 0.0242657 -0.023165 -0.0387998 
0.0283507 -0.0285292 -0.0361551 0.0378525 -0.0215385 -0.0309358 0.0325725 -0.0216897 -0.0368006 
0.0458795 -0.021272 -0.0379243 0.0402981 -0.0282983 -0.0339443 -0.0423392 -0.0193317 -0.0313878 
-0.0450484 -0.0192743 -0.0387352 -0.045899 -0.011029 -0.0340723 -0.035301 -0.0187764 -0.0369109 
-0.0326975 -0.0102134 -0.0399329 -0.0284167 -0.015635 -0.0385095 -0.0174581 -0.0193606 -0.0354046 
-0.0129982 -0.0115049 -0.0309807 -0.015565 -0.0117406 -0.0388198 -0.00593429 -0.0174201 -0.0329483 
-0.00371512 -0.0127427 -0.0385037 0.00347894 -0.0135099 -0.0313642 0.00891933 -0.0152533 -0.0375321 
0.0189061 -0.0100941 -0.0359525 0.0183105 -0.0183647 -0.0388527 0.0273546 -0.0145227 -0.0380285 
0.0362748 -0.0143215 -0.0343428 0.0449782 -0.0131006 -0.0356177 -0.0413166 -0.000108022 -0.0339863 
-0.035577 -0.00399983 -0.0371115 -0.0236036 -0.00925913 -0.0331181 -0.0272075 -0.00351901 -0.0368675 
-0.0205067 -0.00481671 -0.0385937 -0.0101979 -6.46791e-05 -0.0381126 -0.00261716 -0.0022865 -0.0302249 
-0.00912578 -0.00739553 -0.0380618 -0.00206621 -0.000247854 -0.039584 0.00560939 -0.00079543 -0.0386026 
0.00338559 -0.00970642 -0.037801 0.0111474 -0.00825335 -0.0352224 0.0202335 -0.00191529 -0.0328065 
0.0253649 -0.00600058 -0.0366894 0.0334129 -0.00802847 -0.0390546 0.0323871 -0.00327984 -0.0326331 
0.0389861 -0.00332001 -0.0366345 0.0460516 -0.00458123 -0.0332862 -0.0448298 0.0078812 -0.0373658 
-0.0460568 0.00055119 -0.0396329 -0.0333198 0.00419065 -0.0317307 -0.0363338 0.00474156 -0.0396009 
-0.0239343 0.00334352 -0.0312957 -0.0218528 0.0029857 -0.0388263 -0.0289826 0.00459291 -0.0395899 
-0.0256907 0.0097586 -0.0361341 -0.014979 0.00462504 -0.0338942 -0.00802173 0.00668748 -0.0360065 
-0.000404366 0.00850505 -0.0391199 0.00894178 0.0064438 -0.0386767 0.00252488 0.00467546 -0.0311651 
0.015995 0.003957 -0.0371332 0.0105204 0.000452032 -0.0328102 0.0279584 0.00770593 -0.0351687 
0.0233878 0.0017424 -0.0383464 0.0359465 0.00840698 -0.0310226 0.0357637 0.00412032 -0.0385886 
0.0460888 0.00393819 -0.0395564 0.0460457 0.00324819 -0.030485 0.0409296 0.00955766 -0.0370367 
-0.046179 0.0178219 -0.030021 -0.0410869 0.0119736 -0.0309334 -0.046108 0.0156234 -0.038675 
-0.038556 0.0170207 -0.0388651 -0.0345497 0.0114445 -0.0361446 -0.0295084 0.0177516 -0.0389405 
-0.0217108 0.0176491 -0.0392779 -0.0181574 0.0118944 -0.0335243 -0.0142863 0.0175031 -0.0392316 
-0.00831581 0.0149268 -0.0356373 -0.00146305 0.0155816 -0.0389692 0.00901422 0.0138388 -0.0360587 
0.0027153 0.0123275 -0.0326964 0.0148433 0.0183935 -0.0380026 0.0187911 0.0168068 -0.0312929 
0.0134754 0.0104788 -0.0309778 0.0258291 0.0197715 -0.032549 0.0294327 0.0157884 -0.0379472 
0.0224161 0.0141089 -0.03911 0.0341902 0.0104665 -0.039928 0.0396 0.0171871 -0.0376883 
0.0463041 0.0145445 -0.0393323 0.0462029 0.0110941 -0.0320406 -0.0460334 0.0226887 -0.0380658 
-0.0394693 0.0257869 -0.0357498 -0.0324554 0.0253322 -0.034974 -0.0262776 0.026023 -0.0386548 
-0.0161703 0.0276945 -0.0303236 -0.0176812 0.0253799 -0.0385774 -0.00707068 0.0294223 -0.0310695 
-0.00833379 0.0232266 -0.0356047 -0.00101881 0.0236454 -0.0378797 0.00603642 0.02153 -0.0390313 
0.00405454 0.0275396 -0.0330343 0.0126704 0.0231501 -0.0325149 0.0160733 0.0274501 -0.0388647 
0.0176223 0.0297326 -0.0316687 0.0292648 0.0274658 -0.0318504 0.0217622 0.021394 -0.0391073 
0.0307353 0.0233436 -0.0390297 0.0336429 0.0202525 -0.0329122 0.0381739 0.0243018 -0.0394651 
0.0454084 0.0289406 -0.0306716 0.0466623 0.0208127 -0.0307877 0.0461178 0.0255711 -0.0384073 
-0.0450793 0.0395259 -0.0366212 -0.0460991 0.0306073 -0.0361936 -0.0391402 0.0340319 -0.0368781 
-0.0276085 0.0345054 -0.0317622 -0.0258547 0.0386791 -0.0389195 -0.0207278 0.0324212 -0.0385663 
-0.0126571 0.0391919 -0.0300296 -0.0128364 0.0387406 -0.0378156 -0.0133528 0.0314007 -0.0371312 
-0.00325436 0.0358672 -0.0343518 -0.00628135 0.0314335 -0.0396553 0.00991231 0.0310472 -0.0381893 
0.00444662 0.0365724 -0.031167 0.00279773 0.0329958 -0.0386212 0.0160558 0.0375835 -0.036566 
0.0239772 0.0398922 -0.036908 0.0235051 0.0317895 -0.0377806 0.0350406 0.0313967 -0.0353552 
0.0314255 0.0377401 -0.0372308 0.0441273 0.0369858 -0.0367083 -0.0452984 0.0460681 -0.0313183 
-0.0335475 0.040305 -0.0385748 -0.0397698 0.0453977 -0.0366335 -0.0262771 0.0462567 -0.0367156 
-0.00726236 0.0449097 -0.034186 -0.000315898 0.0437623 -0.0364655 0.00613713 0.0454688 -0.0390427 
0.00850794 0.0462254 -0.0315627 0.0159379 0.045001 -0.0376756 0.0201728 0.0454487 -0.0306101 
0.0355859 0.0434062 -0.0315267 0.0302185 0.0462788 -0.0386998 0.0394213 0.0459654 -0.0390781 
0.0457789 0.0452071 -0.0338322 -0.0430041 -0.0423803 -0.0238892 -0.0268893 -0.0432969 -0.0202865 
-0.014363 -0.0410444 -0.0218124 -0.00928001 -0.0460891 -0.0246039 0.00630833 -0.0460303 -0.0241841 
0.0170679 -0.0462713 -0.0252493 0.0103263 -0.0425792 -0.0298818 0.02337 -0.0415278 -0.0221107 
0.0316731 -0.0414144 -0.0274692 0.0373268 -0.0435898 -0.0225203 0.0464554 -0.0440297 -0.0298123 
0.0445238 -0.0400097 -0.020932 -0.0459037 -0.037567 -0.0299579 -0.041121 -0.0310751 -0.0287296 
-0.0335708 -0.031728 -0.0292492 -0.0309227 -0.0380525 -0.0273186 -0.0364946 -0.037358 -0.0222204 
-0.0198388 -0.0359159 -0.0227669 -0.0108594 -0.0337795 -0.0285209 -0.00603358 -0.0355858 -0.0212504 
0.00267012 -0.0374352 -0.0273132 0.0150253 -0.0386532 -0.0221219 0.0257923 -0.0327657 -0.0298893 
0.0216573 -0.0319569 -0.0232853 0.0381842 -0.0333212 -0.0238556 0.0444681 -0.0324991 -0.0290247 
-0.0460905 -0.0237336 -0.0251728 -0.0346934 -0.0243441 -0.0272045 -0.0203477 -0.0269003 -0.026523 
-0.0266331 -0.0237769 -0.0225369 -0.0177624 -0.0214031 -0.0211566 -0.00129146 -0.0254577 -0.0270024 
0.00846955 -0.0255174 -0.0272642 0.0155927 -0.022422 -0.0250205 0.0334624 -0.0288816 -0.0298634 
0.0308834 -0.0266099 -0.0218506 0.0434749 -0.0248317 -0.0263923 -0.0463749 -0.0145482 -0.0228794 
-0.0386414 -0.0115337 -0.027956 -0.0333054 -0.0134416 -0.0211959 -0.0215853 -0.0185033 -0.0292543 
-0.0144846 -0.0197671 -0.0273603 -0.00196655 -0.0168698 -0.025595 0.0139476 -0.0130568 -0.0283285 
0.0283409 -0.0115473 -0.0282371 0.0222774 -0.0195634 -0.022536 0.0236171 -0.0162015 -0.029665 
0.0368656 -0.0163188 -0.0249677 0.0303766 -0.0199509 -0.0295414 0.0432133 -0.0125569 -0.0278776 
-0.033258 -0.00579921 -0.027375 -0.0289923 -0.000535522 -0.0224991 -0.0239207 -0.00923619 -0.0227725 
-0.0109591 -0.00339232 -0.029985 -0.0180141 -0.00484689 -0.0276984 -0.00574868 -0.00866947 -0.02774 
-0.00106622 -0.00823663 -0.0201773 -0.00950156 -0.00406671 -0.0212775 0.0059488 -0.00521898 -0.0281681 
0.0142937 -0.00492415 -0.0278342 0.0218247 -0.00842966 -0.0282928 0.0293933 -0.00753575 -0.0209248 
0.0232971 -0.00228713 -0.0203525 0.0368753 -0.007264 -0.0278198 0.0398095 -0.000396697 -0.0260434 
-0.0466315 0.000582628 -0.0284645 -0.0434602 0.0073364 -0.0209562 -0.0393282 0.00383369 -0.0268878 
-0.0210092 0.00864314 -0.0254992 -0.0293702 0.00775677 -0.0245322 -0.0140513 0.00208961 -0.0239989 
-0.00709512 0.00369394 -0.0279871 0.000208209 0.00165355 -0.022861 0.00854916 0.00420554 -0.0264865 
0.0194974 0.00795925 -0.0284828 0.0271193 0.00155842 -0.0281466 0.0265963 0.00883681 -0.0250015 
0.0382732 0.00715096 -0.022288 -0.0343309 0.0172799 -0.0207322 -0.0270571 0.017091 -0.0238124 
-0.0179771 0.0195261 -0.0254831 -0.00812689 0.0155691 -0.0265272 -0.00369969 0.0102353 -0.0281309 
0.00675015 0.0189912 -0.0296128 0.00449118 0.0104084 -0.0243972 0.0121054 0.016471 -0.0238767 
0.0271484 0.0185613 -0.0247067 0.0308944 0.0133083 -0.0295665 0.0461769 0.0117249 -0.0205603 
-0.0464787 0.0210447 -0.0232208 -0.0435855 0.0279946 -0.0294368 -0.0394357 0.0219486 -0.0255835 
-0.0311337 0.0213494 -0.0291223 -0.0230273 0.0231867 -0.0294772 -0.00271858 0.0201764 -0.0297103 
0.00339397 0.025956 -0.0235866 0.0172765 0.0299855 -0.020263 0.0101333 0.0289778 -0.0273519 
0.0182274 0.023758 -0.0276939 0.0329699 0.0299038 -0.0249989 0.0428129 0.020048 -0.021771 
0.0412661 0.0261738 -0.0250558 -0.0417689 0.0373006 -0.0295165 -0.0355094 0.0337605 -0.0259689 
-0.0261043 0.0311253 -0.0241244 -0.0110582 0.0329889 -0.0221006 -0.00372443 0.0337789 -0.0234991 
0.0130313 0.038183 -0.0281288 0.0211712 0.0355111 -0.0286961 0.0388849 0.0385026 -0.0264793 
0.0416348 0.0336715 -0.020891 0.0462185 0.0364382 -0.028274 -0.0405727 0.0457913 -0.0257866 
-0.0315523 0.0461377 -0.0208713 -0.0289534 0.0456405 -0.0286652 -0.024132 0.0461353 -0.0204243 
-0.0131773 0.0439147 -0.0228984 -0.0177275 0.0465948 -0.0299736 -0.00110722 0.0430059 -0.0256311 
0.00706114 0.0424825 -0.0237871 0.0164502 0.0452813 -0.0241658 0.0289491 0.0419676 -0.0277014 
0.0250469 0.045454 -0.0219379 0.0414374 0.0461576 -0.0275558 -0.026059 -0.0434401 -0.0115441 
-0.0131743 -0.0402672 -0.0134121 -5.6885e-05 -0.042494 -0.0178784 0.0182416 -0.0412457 -0.0152745 
0.0321849 -0.0458266 -0.0132408 0.0405081 -0.0404011 -0.0130269 -0.0414419 -0.0306456 -0.0195251 
-0.0454709 -0.0379966 -0.0176986 -0.027088 -0.0318113 -0.0189059 0.00711577 -0.0371719 -0.0174918 
0.040664 -0.0311573 -0.0149341 -0.0349658 -0.0286573 -0.0150835 -0.0139758 -0.0257398 -0.0165394 
0.00131817 -0.0276088 -0.0186971 0.00666394 -0.0233841 -0.0179029 0.0219334 -0.0284586 -0.0141982 
0.0387887 -0.0207316 -0.0161348 -0.0363421 -0.0125762 -0.0123222 0.0282979 -0.0163103 -0.017007 
0.0448355 -0.0164789 -0.0195416 0.0458987 -0.0115161 -0.0127527 -0.0436788 -0.00739987 -0.0193062 
-0.0335835 -0.00415188 -0.0156177 -0.021359 -0.00309129 -0.013103 -0.0144563 -0.00466172 -0.0123582 
0.0101946 -0.00154207 -0.0181947 0.0240744 -0.00433709 -0.012943 0.0442287 -0.000483331 -0.0198377 
-0.0192091 0.00909643 -0.0153324 -0.0131418 0.00271585 -0.0153852 0.0165422 0.00194959 -0.0198256 
-0.0430673 0.0162853 -0.0189133 -0.0163634 0.0182843 -0.0168637 -0.00991465 0.0101093 -0.0188239 
0.00794007 0.0139075 -0.0149886 0.0205779 0.0119289 -0.0162235 -0.0421417 0.0204268 -0.0116771 
-0.0383137 0.0243666 -0.0156096 -0.0210564 0.0265025 -0.0150396 -0.0108373 0.0253831 -0.0185899 
-0.00334323 0.0212238 -0.017059 0.0359671 0.028653 -0.0115806 0.0336229 0.0269373 -0.0183092 
-0.0453282 0.0381938 -0.0155468 -0.0319569 0.0339095 -0.0189848 -0.0201283 0.0344207 -0.0194411 
0.0078954 0.0302613 -0.016233 -0.0405117 0.045768 -0.0101546 -0.0372453 0.0416416 -0.0193425 
-0.029686 0.0416414 -0.0147526 0.00235822 0.0400481 -0.0168844 0.0107611 0.0403146 -0.017454 
0.0183547 0.0419955 -0.0175703 0.0110816 0.0466919 -0.0127646 0.0376055 0.0415304 -0.0194778 
0.0443158 0.0440385 -0.010159 0.0173202 -0.0330536 -0.00740928 0.0235553 -0.0384346 -0.00768156 
0.0381472 -0.0380435 -0.0015567 -0.0440776 -0.0222191 -0.00459571 -0.000506083 -0.0266581 -0.00642325 
0.0436723 -0.0218603 -0.00311187 -0.00218416 -2.69297e-05 -0.00850668 -0.0151309 0.00798594 -0.000282183 
0.0170924 0.0168721 -0.00594467 -0.0323563 0.0208581 -0.00879182 -0.0112327 0.0330625 -0.00320697 
0.0321661 0.0459366 -0.00535512 -0.0213468 0.0253038 0.00856652 0.0342873 0.00508464 0.0210688 

gid 1 567 double
0 0 0 0 0 0 0 0 0 
0 0 0 0 0 0 0 0 0 
0 0 0 0 0 0 0 0 0 
0 0 0 0 0 0 0 0 0 
0 0 0 0 0 0 0 0 0 
0 0 0 0 0 0 0 0 0 
0 0 0 0 0 0 0 0 0 
0 0 0 0 0 0 0 0 0 
0 0 0 0 0 0 0 0 0 
0 0 0 0 0 0 0 0 0 
0 0 0 0 0 0 0 0 0 
0 0 0 0 0 0 0 0 0 
0 0 0 0 0 0 0 0 0 
0 0 0 0 0 0 0 0 0 
0 0 0 0 0 0 0 0 0 
0 0 0 0 0 0 0 0 0 
0 0 0 0 0 0 0 0 0 
0 0 0 0 0 0 0 0 0 
0 0 0 0 0 0 0 0 0 
0 0 0 0 0 0 0 0 0 
0 0 0 0 0 0 0 0 0 
0 0 0 0 0 0 0 0 0 
0 0 0 0 0 0 0 0 0 
0 0 0 0 0 0 0 0 0 
0 0 0 0 0 0 0 0 0 
0 0 0 0 0 0 0 0 0 
0 0 0 0 0 0 0 0 0 
0 0 0 0 0 0 0 0 0 
0 0 0 0 0 0 0 0 0 
0 0 0 0 0 0 0 0 0 
0 0 0 0 0 0 0 0 0 
0 0 0 0 0 0 0 0 0 
0 0 0 0 0 0 0 0 0 
0 0 0 0 0 0 0 0 0 
0 0 0 0 0 0 0 0 0 
0 0 0 0 0 0 0 0 0 
0 0 0 0 0 0 0 0 0 
0 0 0 0 0 0 0 0 0 
0 0 0 0 0 0 0 0 0 
0 0 0 0 0 0 0 0 0 
0 0 0 0 0 0 0 0 0 
0 0 0 0 0 0 0 0 0 
0 0 0 0 0 0 0 0 0 
0 0 0 0 0 0 0 0 0 
0 0 0 0 0 0 0 0 0 
0 0 0 0 0 0 0 0 0 
0 0 0 0 0 0 0 0 0 
0 0 0 0 0 0 0 0 0 
0 0 0 0 0 0 0 0 0 
0 0 0 0 0 0 0 0 0 
0 0 0 0 0 0 0 0 0 
0 0 0 0 0 0 0 0 0 
0 0 0 0 0 0 0 0 0 
0 0 0 0 0 0 0 0 0 
0 0 0 0 0 0 0 0 0 
0 0 0 0 0 0 0 0 0 
0 0 0 0 0 0 0 0 0 
0 0 0 0 0 0 0 0 0 
0 0 0 0 0 0 0 0 0 
0 0 0 0 0 0 0 0 0 
0 0 0 0 0 0 0 0 0 
0 0 0 0 0 0 0 0 0 
0 0 0 0 0 0 0 0 0 

a 3 567 double
1720.6 968.18 15.459 -87.0425 -308.878 -225.176 -13.7755 115.68 -30.1733 
551.341 -118.703 -641.069 10.5412 -656.842 -364.744 198.557 181.513 633.634 
22.3781 -58.8696 -21.9292 -251.981 -933.107 -190.906 34.418 -24.5013 211.143 
117.044 73.6821 49.9791 -195.291 -158.861 424.068 -51.4541 182.489 60.3807 
78.2832 -109.122 -138.273 -430.287 1480.35 35.8189 444.158 116.408 -26.3853 
-81.1227 -32.3587 136.766 16.3613 24.9718 -47.2799 462.69 -304.859 -290.072 
-1233.72 471.819 -201.543 298.765 160.126 536.715 -9.1187 -360.14 15.4048 
-446.968 300.24 -109.202 1002.5 498.133 173.621 218.638 -32.5112 -199.459 
-723.453 -102.441 23.0334 510.834 246.562 738.655 -14.6685 -1153.2 -377.988 
-31.5989 197.722 87.462 -386.089 -277.805 283.829 -18.7834 -110.369 324.934 
-1031.94 -466.549 -217.41 30.3858 616.851 -808.12 623.588 -237.489 79.9314 
-857.517 435.471 -117.633 603.864 260.428 -80.8063 434.394 74.8116 857.6 
0.0785543 -29.2865 1.37763 -569.571 349.571 -126.628 -352.427 -208.48 -3.63713 
693.762 -240.729 31.0818 -81.1073 566.463 134.32 -466.323 312.801 64.2205 
-120.664 368.401 45.7497 575.379 -1183.33 41.5727 -90.4807 37.2188 854.208 
525.034 868.876 -29.4615 -203.452 -581.378 151.126 -394.069 550.084 -53.55 
392.997 596.295 114.597 108.171 -95.0187 345.429 -124.395 -31.7606 409.98 
-87.8168 408.751 813.259 -194.169 -118.537 93.7026 199.237 -296.879 60.3329 
231.794 72.7782 5.28017 -237.896 40.748 66.6218 949.294 1110.36 19.6127 
71.9213 -62.4414 -12.2206 483.493 558.077 -82.3503 -289.775 -18.3201 -215.071 
285.545 -224.538 143.273 -126.661 -2.33647 -16.7822 235.786 -140.51 444.65 
-206.668 87.3964 97.5292 -661.028 296.795 -50.4553 -674.465 101.891 -401.565 
4.83186 184.348 -117.263 375.72 130.33 -592.04 508.547 -166.244 1.0043 
0 0 0 32.9706 -424.67 -226.816 22.8986 72.9886 36.163 
-4.58849 3.10416 2.24529 -356.915 51.1501 -17.6123 297.729 131.871 -58.0934 
406.572 277.015 -67.7471 -113.034 598.442 -303.944 -348.258 -362.732 55.8697 
-71.0032 -7.24065 192.266 -215.777 -273.18 -11.7436 160.501 90.7086 -77.5385 
-204.862 -146.01 451.502 167.297 -305.498 -129.5 105.593 168.762 -46.3452 
339.91 -360.253 -302.355 80.4695 300.349 295.15 -24.495 59.4587 363.015 
-14.449 -165.851 12.2083 47.5198 72.0942 -77.2921 -61.1356 -137.82 -161.448 
361.459 -4.07576 -208.325 60.0514 -93.5178 -6.48485 427.824 3.39206 0.0842478 
-31.2519 -60.3125 130.443 -49.2956 109.547 207.917 928.175 -379.458 -106.798 
-600.039 -18.7131 -173.883 -232.789 -128.761 38.122 797.521 69.8293 119.81 
110.322 -90.2932 166.544 -656.712 -569.694 281.194 308.144 34.0706 297.241 
-366.952 -414.436 -83.3203 292.07 -20.3697 105.327 -249.869 -382.819 -21.2845 
-355.62 -330.668 -36.3114 572.843 -96.0146 -74.6248 526.734 262.254 -22.1683 
-305.06 113.724 -501.866 -43.0602 -118.89 -44.7134 53.3182 -101.943 -372.07 
-547.907 287.366 -87.5183 34.3304 -267.427 -394.473 -660.902 270.672 -169.508 
642.419 111.842 246.516 -90.9063 174.049 57.5226 28.9789 240.386 320.639 
158.64 70.782 -47.378 -415.419 152.672 2109.82 133.771 290.619 -141.018 
428.836 230.259 302.284 -884.076 -100.59 -248.994 657.139 194.346 -11.7248 
10.0432 -134.082 -24.109 144.621 -215.127 -188.127 -33.1712 -332.376 107.34 
-43.5563 -58.2354 60.8988 363.107 -216.042 -579.031 304.388 59.5084 -109.038 
-440.31 -310.131 -289.545 752.546 -93.8338 98.7123 -253.682 499.136 34.6523 
40.6191 -45.5093 -32.2523 342.569 -225.732 182.001 48.2262 -131.05 449.492 
139.001 -145.812 -181.836 -565.73 -118.604 32.3964 -67.3446 1112.34 -45.5944 
807.358 -90.7055 -57.7852 -218.025 61.9953 336.307 177.794 487.242 48.2191 
-343.807 321.539 -280.272 -276.37 385.443 18.8278 -394.302 -649.197 85.4031 
-340.533 167.984 64.0954 124.115 110.188 -152.856 343.267 422.078 736.902 
32.698 48.7108 -103.13 -518.755 103.589 46.0532 0 0 0 
406.658 265.883 -48.5499 -228.264 25.9128 -97.6389 -308.539 -236.558 -109.801 
137.452 215.213 -111.538 349.958 -219.533 -206.56 -271.774 90.9958 -359.368 
50.2825 265.28 226.79 66.1664 -768.257 22.2732 -7.75394 257.754 348.976 
154.626 354.92 -119.636 51.3473 -382.049 260.701 -627.079 -233.445 134.798 
1033.46 -513.033 164.474 250.967 193.655 -30.0291 411.035 420.522 858.257 
5.3017 -950.194 -0.989965 41.201 75.7429 12.0302 -63.7384 0.45382 37.584 
-795.934 -62.4285 -311.34 846.009 -37.0144 356.167 -54.0035 107.754 -293.172 
6.14351 21.5283 199.033 -121.605 -375.16 59.4905 -255.655 -158.747 118.404 
-206.175 511.576 -178.859 -177.344 -169.913 165.488 -546.698 10.8511 2.87024 
240.648 0 0 -903.126 99.5301 72.5419 6.45755 690.087 627.541 
-97.8044 -749.212 473.006 -210.841 -785.056 -90.6278 389.577 -4.73378 -3.39191 
42.6055 618.02 2.99882 149.591 -67.5626 70.695 -121.678 -863.608 152.582 
-352.759 106.832 -207.547 10.8568 -19.679 15.0024 126.451 -195.955 -23.0599 
-344.493 18.0403 -294.839 123.65 155.909 -95.2907 86.8937 -60.1162 17.8113 
517.455 -848.931 -190.594 -184.351 -7.87536 128.189 -14.9139 -118.077 4.73341 
207.683 -75.3938 244.622 405.883 -9.16083 -440.943 -317.24 -183.104 435.58 
-399.737 790.4 -59.011 -18.5843 225.636 42.7945 -299.232 98.0244 -254.692 
-284.962 279.633 28.3988 502.508 348.171 12.8674 445.2 536.997 -202.861 
0 0 0 37.6572 41.488 32.5324 9.86145 -123.251 -302.652 
-135.581 39.1209 189.273 270.867 -441.41 11.4294 89.7488 -178.441 -243.316 
177.06 301.622 452.48 -240.111 82.6883 992.859 -302.498 205.707 -359.011 
268.66 771.395 273.692 361.955 -403.996 333.276 -807.969 -196.882 -181.239 
-15.6618 -56.7011 1.94414 -277.38 17.1241 -157.659 341.88 216.642 133.457 
-324.665 84.9469 -361.688 35.545 -432.003 -24.8239 703.101 -70.0107 378.53 
-16.4639 63.8403 87.3006 365.462 -494.657 -6.28882 0.164211 -0.00453216 0.510157 
-397.804 -33.1715 -312.26 -315.425 356.663 293.542 66.3051 113.375 -4.15001 
-138.736 -120.543 70.9587 -566.041 503.612 68.6163 82.6244 148.918 -133.955 
201.09 -242.433 99.8656 -4.76817 172.245 -53.1211 13.6046 48.6871 -9.47353 
4.84009 -4.75337 34.5189 -295.352 202.232 -21.2853 84.1365 49.4399 65.8673 
-836.227 -1184.09 1.53861 305.07 17.719 28.7172 -388.832 47.5072 43.6867 
-361.601 449.012 -145.137 412.229 -123.752 48.7803 442.095 192.036 2.37998 
0 0 0 -9.35829 -7.84674 0.150528 -64.6124 -112.991 111.626 
342.738 -31.685 299.971 -8.38763 149.262 234.582 74.9106 -198.303 -8.78059 
177.727 -62.5611 -2.51106 -169.846 472.765 525.466 -60.6761 -35.1442 112.587 
-8.37085 6.81597 20.8548 39.1809 -5.41898 -100.027 734.292 123.68 702.039 
4.40028 378.624 77.0005 -23.5328 -28.3374 25.3773 -267.208 44.6366 27.4641 
403.087 97.3837 219.49 -79.777 -171.506 -167.407 350.658 -155.179 -161.183 
53.3692 -619.603 -66.4657 -56.0874 -10.3428 20.8545 -10.3527 -12.9443 -54.0542 
-277.347 369.152 154.391 -151.271 119.81 17.4744 -460.656 -109.047 491.133 
11.4179 -409.104 78.45 -209.657 48.596 366.942 -47.7484 32.8735 -35.4083 
-47.0131 14.6532 -18.8363 -2.75248 -14.6532 18.8363 47.9681 97.9189 60.5378 
-703.077 -161.835 -810.22 112.736 4.22258 -64.0612 -1213.1 -11.0813 366.779 
-68.9932 -56.5723 297.518 12.907 -25.0076 -242.534 1067.63 -309.029 1.28539 
73.5163 133.968 60.8392 -616.937 -284.108 304.506 686.466 967.655 -71.6232 
-304.313 -610.201 286.059 -355.639 -92.4717 166.94 -84.1986 -4.93204 -44.8382 
259.543 -428.829 186.486 346.929 -322.839 -549.219 5.30949 3.03892 -3.13767 
64.5078 185.534 -173.887 -0.935818 -102.225 33.8405 437.546 -867.261 148.651 
507.86 136.122 572.165 -112.448 -237.551 17.6503 -662.472 -736.593 -638.489 
14.6809 -74.2855 -111.669 3.9897 -0.1245 -2.41568 -213.01 -179.967 -68.8926 
-48.3734 254.708 386.076 313.846 -331.137 198.372 -55.8022 43.8352 168.762 
-61.3421 -38.7616 327.156 -45.2164 134.349 -2.80905 -40.1288 224.073 -332.709 
193.196 -265.721 345.749 164.127 654.819 -37.8778 419.702 350.231 -378.812 
-641.046 -136.386 341.881 -57.9462 -120.762 20.9738 -41.2606 -27.8005 10.7533 
-101.897 -51.6346 151.122 29.9471 183.959 399.757 190.666 574.608 7.93926 
-617.878 -861.001 -132.159 254.158 435.758 -181.08 -437.119 46.4279 293.43 
467.029 -293.74 74.5719 601.321 493.711 787.229 264.596 123.805 77.1538 
-275.827 184.786 43.5242 -628.811 -182.341 293.097 1123.94 313.484 -547.685 
0 0 0 -65.3473 -88.5973 58.6354 6.27601 33.4547 18.6592 
-461.601 -71.6657 63.484 362.34 93.9415 -27.2317 104.399 -47.5843 -16.6966 
28.957 -67.2446 60.1392 -376.215 146.081 -155.371 331.584 -237.802 -86.6959 
-366.597 305.831 -583.59 -496.196 -429.273 273.639 -123.133 868.044 36.2852 
-534.515 -106.256 -82.8805 151.036 -120.364 289.736 -1.51521 233.097 233.026 
578.1 607.166 -932.59 -2194.97 0 0 140.05 -167.253 158.107 
-183.27 44.8945 38.7547 17.874 6.09015 -230.397 204.492 -12.3972 -33.7178 
0 0 0 29.1617 -117.501 -52.2665 -209.03 93.1447 -46.8742 
-1.27954 -6.3252 60.2205 -0.669825 106.599 -77.7354 -505.808 -77.94 398.484 
-15.2965 429.086 386.705 396.04 -207.667 -388.406 67.7598 123.243 -7.94665 
0 0 0 -252.371 -205.047 6.47052 263.068 -572.585 493.438 
-129.289 36.3195 -12.7688 -216.083 17.7967 125.745 585.051 279.389 -248.034 
40.4342 113.565 -12.8357 0 0 0 -574.134 16.4182 -388.183 
466.795 14.872 303.809 161.708 58.8291 -86.6006 -22.3431 -49.8102 71.4605 
-440.961 98.1328 207.738 -466.112 79.3221 397.185 673.659 168.272 -441.402 
48.9856 -499.441 307.415 -37.1035 446.351 -60.0398 348.831 14.509 -436.341 
-315.359 -70.806 -346.98 33.2454 -11.0245 73.4225 0 1.33391 0 
68.3076 -2.32658 -101.035 36.2223 -97.5995 -123.414 0 0 0 
-209.594 151.534 120.719 209.594 108.749 -120.719 -59.591 -76.9451 221.812 
-26.6573 3.7648 55.2917 384.93 412.562 321.248 0 0 0 
-19.8058 14.2333 19.7738 0 0 0 -1671.09 0 0 
0 0 0 34.9456 -181.311 490.545 -118.09 -11.0334 6.62014 
-741.039 10.7527 20.8717 897.919 -414.635 388.412 -113.257 42.4568 113.795 
26.4473 6.47609 70.633 0 0 0 0 0 0 
152.301 17.428 175.652 -142.682 180.991 -278.583 746.649 89.4015 320.7 
0 0 0 -43.7166 -7.63581 25.9002 113.197 -111.904 97.7495 
-30.9102 -38.4684 66.2912 -97.05 417.58 168.112 637.033 -396.97 -471.873 
-679.021 246.218 351.494 -190.265 146.054 360.682 -188.63 258.247 256.655 
359.1 -344.164 409.349 47.1998 16.099 7.50886 50.9537 3.89126 51.3459 
0 0 0 111.577 -43.2903 78.2062 640.502 0 0 
-194.046 -221.7 12.5501 0 0 0 -119.868 17.7621 134.666 
206.968 36.491 -259.971 0 0 0 0 0 0 
1465.96 252.562 154.663 11.5993 -82.4087 207.958 -632.154 -474.146 -451.934 
-16.1635 -8.85809 9.94591 -197.43 55.4153 128.831 -23.0174 14.2771 90.0812 
194.046 221.7 -12.5501 0 0 0 0 0 0 
-7.51931 119.223 -44.9505 -86.7925 -5.6519 20.7265 46.5219 -281.146 66.5807 
0 0 0 76.1606 -91.7876 25.9906 0 0 0 
0 0 0 -845.404 303.992 89.3124 8.37836 -5.57768 0.397573 
-149.538 177.365 -561.778 -45.5125 -271.164 4.75531 -59.2172 292.312 -176.391 
727.545 18.6538 142.416 -98.5759 81.8525 103.063 -22.6547 -91.3016 -40.8528 
0 0 0 0 0 0 -73.0029 99.0468 1.26566 
-538.753 -107.039 183.731 0 0 0 -207.853 323.861 650.568 
-35.6783 -160.999 -60.6475 -2.33936 -48.3687 -22.701 213.116 41.1384 194.017 
0 0 0 -68.8566 9.58023 17.9256 93.4516 -35.09 4.62586 
493.883 -245.043 267.69 -149.163 56.5173 49.762 312.064 322.871 -82.3051 
0 0 0 0 0 0 0 0 0 
0.315409 -0.762827 -0.57825 -10.0435 159.512 -31.6993 -556.114 0 0 
490.126 602.843 -92.8859 134.694 -71.4744 273.599 373.189 -7.61342 -105.994 
-16.2297 -258.051 373.928 -493.883 245.043 -267.69 72.9832 50.4042 -32.3617 
0 0 0 0 0 0 0.23723 -0.948478 -0.984755 
305.007 -903.465 747.14 -57.7635 211.757 -279.036 102.45 -250.563 130.135 
-680.551 -356.603 802.455 0 0 0 -125.175 25.4166 -188.159 
0 0 0 -280.712 -57.1831 99.732 280.712 57.1831 -99.732 
0 0 0 399.552 636.364 210.634 -631.651 28.1736 102.806 
47.9765 -69.3657 69.7647 645.612 -88.7132 -119.23 474.281 -85.02 461.87 
-910.725 -818.127 -112.921 6.55527 4.66067 -21.0136 910.725 -211.664 112.921 
0 0 0 0 -134.761 0 0 0 0 
-44.0665 45.6491 -83.7899 -400.152 41.9708 334.295 144.127 -163.163 -185.778 
-144.127 163.163 185.778 196.804 -496.436 339.539 0 0 0 
0 0 0 0 0 0 142.682 -180.991 278.583 
0 1826.76 0 0 0 0 0 0 0 
-39.6349 104.315 112.686 0 0 0 0 0 0 
0 0 0 0 0 0 25.2854 -31.7924 19.6671 
-139.108 -115.15 2.036 139.108 115.15 -2.036 0 0 0 
0 0 0 0 0 0 0 0 0 
0 0 0 0 0 0 0 0 0 
0 0 0 -592.791 50.7526 -102.79 592.791 -50.7526 102.79 
-491.398 -391.768 175.408 143.101 -173.346 561.058 152.478 -54.0221 207.044 
0 0 0 -3.15767 -7.25927 -27.2563 489.457 393.327 -175.086 
257.192 -520.945 310.549 0 0 0 0 0 0 
0 0 0 0 0 0 -215.006 -265.92 164.767 
215.006 265.92 -164.767 0 0 0 0 0 0 
0 0 0 238.736 519.051 996.565 -180.972 -730.808 -717.529 
0 0 0 125.175 -25.4166 188.159 0 0 0 
0 0 0 0 0 0 0 0 0 
0 0 0 0 0 0 -123.198 -107.807 101.397 
219.42 -0.799853 80.7073 -0.833776 -1763.89 3.73098 -14.8338 36.7209 55.1357 
0 0 0 0 0 0 0 0 0 
0 0 0 0 0 0 0 0 0 
0 0 0 0 0 0 0 0 0 
0 0 0 0 0 0 0 0 0 
0 4.18036 0 0 0 0 0 0 0 

v 3 567 double
-0.0131082 0.0618811 0.159333 -0.7713 -0.278646 -0.0781972 0.128472 -0.0566937 0.119744 
0.911341 0.0787573 -0.12164 0.611163 0.0471898 -0.149682 0.331994 0.575373 0.69491 
0.760776 0.119787 -0.396663 -0.472686 -0.634897 -0.0147419 -0.231326 0.12744 0.121006 
-0.519192 -0.294059 0.183243 -0.0395334 0.0838274 -0.0121698 0.417563 0.729816 0.0427014 
0.237913 -0.530213 -0.055555 -0.398736 0.271938 0.538557 -0.0483971 -0.617405 0.118895 
-0.129339 0.252586 -0.148822 0.151133 -0.543699 0.289129 -0.0158758 -0.799285 -0.119289 
-0.605101 0.499276 -0.257569 -0.00912738 1.0959 -0.181881 -0.150051 0.112162 0.0690115 
-0.437593 0.20731 0.693086 0.494416 0.211738 -0.0210852 0.324103 -0.167133 0.487328 
0.234231 -0.322236 0.291226 -0.12547 -0.301387 0.331958 -0.513343 0.47533 -0.0941184 
0.246958 0.311895 0.144008 0.234229 -0.262658 0.102199 -0.0957997 0.355583 0.406464 
-0.156528 0.129678 0.601124 0.195325 -0.330081 0.0465511 0.180884 0.0572703 0.302444 
-0.128896 -0.47347 -0.0882629 0.281247 -0.627736 0.0162806 -0.0445679 -0.299386 -0.11721 
-0.184923 0.0124421 0.265121 0.0518216 -0.35353 0.196956 0.17284 -0.230941 -0.0540039 
0.51945 -0.666014 -0.0532254 -0.0293872 0.130927 0.581928 0.52945 0.363954 0.202203 
-0.255909 -0.686625 0.226986 -0.082035 -0.342028 0.0386902 -0.288457 -0.42079 0.344328 
-0.399472 0.134864 0.158077 0.0886939 0.207443 0.518207 -0.381131 -0.0917393 -0.112709 
0.831593 0.0484781 0.269755 -0.0980348 0.230763 0.931152 0.0498008 -0.365345 0.382142 
0.653697 -0.126303 0.205629 -0.0496984 -0.73752 0.295265 0.238654 -0.126637 0.17431 
0.446608 -0.443819 -0.223066 -0.69787 -0.785975 -0.0523083 0.138592 0.040111 -0.0920198 
0.209081 -0.191639 -0.080366 -0.235801 0.0222149 0.130029 0.274679 -0.132969 0.0278035 
0.259834 -0.207532 0.561812 0.278754 -0.263108 0.0616166 -0.262788 -0.605476 -0.0769091 
-0.0211758 -0.0193328 -0.113029 -0.0029097 -0.449366 -0.133393 0.374685 -0.060501 0.257923 
0.125953 -0.488187 -0.0534329 -0.204286 -0.140792 -0.165611 0.27004 0.317112 -0.0112618 
-0.026229 -0.165415 0.291062 0.328679 -0.299551 0.0535867 -0.298937 -0.595399 0.445456 
-0.122276 -0.649928 0.135309 -0.526779 0.415053 -0.0281084 -0.411696 -0.520505 0.0601735 
0.185906 0.000894366 0.242473 -0.604797 0.0974121 -0.25492 0.0307314 -0.010543 0.134105 
0.101147 -0.198855 0.0655517 0.175855 -0.13081 0.178266 0.2319 -0.691376 0.167153 
0.389794 -0.250895 0.108617 -0.491344 -0.265908 0.459371 -0.237309 -0.0595542 0.143829 
-0.725323 -0.113812 0.525844 -0.12021 -0.196822 0.638617 0.343051 0.0374945 -0.0450805 
-0.00223479 -0.53467 0.288705 0.287481 0.281893 -0.163339 0.516278 -0.0186382 0.173725 
-0.46946 -0.419001 -0.0264567 -0.42514 -0.11279 -0.0845494 0.00081249 -0.0204219 0.363536 
-0.390139 0.097263 0.025802 0.24451 0.457211 -0.0083964 0.612788 -0.203908 0.292139 
-0.210249 -0.00647109 -0.126531 0.469657 0.0510398 0.0085857 -0.36717 -0.268473 0.223388 
-0.10103 0.578744 0.909501 -0.287008 -0.100656 0.211245 -0.128184 -0.238883 0.100859 
-0.0706232 -0.132387 0.219362 0.567326 -0.322463 0.28093 0.233013 -0.406629 0.43451 
-0.288254 0.268244 0.160396 0.0403718 -0.268071 0.150188 0.0750441 -0.41474 0.0875165 
-0.589857 0.257184 0.0197897 -0.293943 -0.212965 -0.0233821 -0.112401 0.504227 -0.337025 
0.310433 0.0229533 -0.0828236 0.0847263 -0.650945 0.260932 -0.0748873 -0.0937167 -0.00535982 
0.368177 -0.143118 0.152744 -0.688024 0.170169 0.20863 -0.388641 0.413211 0.12778 
-0.748116 -0.917435 -0.128033 -0.0890861 0.236995 0.605005 0.28534 -0.20805 0.243203 
0.038201 -0.0048159 0.322681 -0.28257 -0.180093 0.096432 0.0777194 0.205264 0.0844323 
-0.396847 -0.0617728 -0.194532 -0.372634 0.132835 -0.236985 -0.0264985 -0.0573969 -0.0917211 
0.278724 0.0516143 -0.438336 -0.33547 -0.399284 0.282056 -0.270775 -0.25695 0.223366 
0.547667 -0.243693 -0.138605 0.224556 -0.379151 0.580509 -0.248106 0.025866 0.275817 
0.241733 -0.0969522 0.583054 0.440841 -0.408422 0.215967 0.249465 -0.077766 0.344228 
-0.336104 0.0861336 0.462465 -0.8161 0.0227897 0.0550275 0.315479 0.218408 0.292024 
-0.418071 -0.296132 0.161211 0.186919 -0.399883 0.0948441 -0.145921 0.258425 -0.0987934 
-0.210697 -0.176336 0.140876 0.321168 -0.293732 0.0161905 -0.276325 -0.113827 -0.0736744 
0.17095 0.475711 0.143398 -0.159579 -0.192047 0.00438312 0.235845 0.000511807 0.216125 
0.19775 0.438017 0.619497 0.0621103 -0.30794 0.261361 -0.474263 -0.42568 0.223595 
0.620933 0.18228 0.22952 -0.346694 0.161306 0.390217 -0.109853 -0.311568 0.198054 
-0.309077 0.123331 0.182721 -0.246819 0.0665757 0.344203 0.0260433 -0.415633 0.590073 
0.0420889 -0.280888 -0.187758 -0.512306 -0.346964 -0.0647984 -0.374563 -0.0626718 -0.00866985 
0.569375 0.0774777 0.252039 0.767462 -0.424866 0.170675 0.698484 -0.582553 0.373686 
0.0927151 -0.443331 0.0717951 0.714316 0.0998174 0.854488 -0.519281 0.214391 0.458378 
0.65415 -0.541867 0.0328507 -0.205951 -0.0739108 -0.188939 -0.0236433 -0.252631 0.0201867 
-0.181397 -0.38375 -0.166757 0.288467 -0.0995445 0.00894138 0.570118 0.190903 0.410113 
-0.569307 0.0782128 0.422861 0.31256 -0.139046 -0.367071 0.0966408 -0.247986 0.230355 
-0.322741 0.0550664 -0.104704 0.0165545 -0.0129497 0.440185 -0.0855737 0.326293 0.210354 
-0.269219 0.626594 0.170312 -0.788682 -0.286389 0.442604 0.302835 -0.401867 0.212801 
-0.335489 0.378055 1.07661 -0.72973 -0.532463 0.478536 0.966107 -0.39367 0.104871 
0.195273 0.13081 -0.063184 0.0702161 -0.292917 0.606121 0.452034 -0.781104 0.789767 
-0.197364 0.539183 0.860375 0.657079 0.281959 0.841615 -0.278823 0.184801 0.438334 
0.137907 -0.759095 0.525824 -0.252642 -0.0340606 0.392114 -0.241399 0.0111886 1.01548 
-0.397489 -0.187558 0.120091 0.734942 -0.66052 0.207336 0.0346865 -0.297746 0.594586 
-0.558528 0.657443 0.136571 0.61984 0.128648 0.689018 -0.0700178 -0.502531 0.205039 
-0.698908 0.449604 0.12355 0.18935 0.168479 0.0507419 0.174029 -0.386344 0.00876731 
0.276573 -0.00840882 0.386123 0.964748 -0.350993 0.338606 0.929698 0.140862 -0.454617 
-0.749249 0.25996 0.397412 0.193139 0.226302 1.22425 0.0998667 0.184965 0.845067 
-0.214022 0.488623 0.538699 0.360516 -0.295865 0.732874 -0.626024 0.305097 0.2628 
-0.580122 0.0737087 0.69225 -0.194351 -0.173207 0.208245 0.563458 -0.0971891 0.750871 
0.724762 -0.0141247 0.824955 0.557518 0.294847 0.741482 -0.158784 -0.22824 0.130349 
-0.229821 -0.258116 0.348585 -0.266024 -0.256708 0.645856 0.175651 -1.03633 0.886891 
-0.741064 -0.716812 0.73451 0.273581 0.21757 0.367882 -0.324222 0.0341761 1.13222 
0.138796 -1.27252 -0.23321 0.436814 -0.57198 0.970844 -0.0938891 -0.125215 0.33211 
0.365927 0.720924 0.479422 -0.0290757 -0.608967 0.589277 1.04987 -0.601327 0.295559 
0.672931 -0.182304 0.635246 0.439294 0.250487 0.753964 0.311099 -0.446836 0.607893 
-0.232973 -0.262365 0.334974 -0.308391 -0.109465 0.946703 0.0743809 -0.190764 0.703564 
-0.166125 0.526661 -0.1294 -1.05219 -0.671924 0.723636 0.375435 -0.100762 0.456569 
0.134168 -0.199043 0.333302 0.729213 -0.95453 0.853374 0.231834 -0.605382 0.573335 
-0.193186 -0.022212 -0.228732 0.181359 0.179991 0.436004 -0.093226 0.00155137 0.792259 
-0.827408 0.205206 0.284378 0.0337579 -0.0750562 -0.243812 0.152719 0.143844 0.314542 
-0.149629 -0.187394 0.237553 0.0372269 0.0387207 0.766854 0.378903 0.0386472 0.644958 
0.455313 0.051076 0.420991 0.18252 -0.44982 0.15009 0.32762 0.537996 -0.338401 
0.390807 0.0360499 0.244579 -0.203694 0.182478 0.522489 0.211512 0.00561345 1.36067 
-0.140535 0.00896179 0.370429 0.117709 0.689999 0.936251 0.332 -0.250534 0.576449 
-1.05027 -0.075668 0.153768 -0.0105757 -0.555177 0.00723104 0.280011 -0.289102 0.520516 
0.129894 -0.829254 0.218807 0.639348 0.0941682 0.291914 0.327625 0.0319693 0.589148 
-0.507638 -0.409707 0.700957 -0.301822 -0.156317 0.784187 0.569547 -0.131974 0.558262 
-0.136485 -0.874606 0.437157 0.296516 0.274525 0.724666 0.779748 -0.0671863 0.34149 
-0.117642 -0.290167 -0.0316422 -0.0332086 0.187231 0.28957 0.518488 0.441161 0.495708 
0.309792 0.438689 0.0363079 -0.549619 -0.144496 0.133372 0.012742 0.436007 0.819313 
-1.01054 1.5882 0.495448 -0.519855 -0.41249 0.0170873 0.898602 0.875715 0.458039 
-0.0200265 -0.574241 0.469301 -0.0790305 -0.101462 0.363735 0.65569 -0.496882 0.549829 
0.14561 -0.603661 0.143706 -0.739733 0.0247961 -0.102669 0.961704 0.280695 1.00691 
-0.604938 -0.192634 0.786354 -0.00721449 -0.0145306 0.52786 -0.0942145 0.00700376 0.840688 
-0.0283731 0.22992 0.58329 -0.304212 0.432193 0.886435 0.10101 0.412306 0.318714 
-0.230296 -0.173698 0.948254 -0.15497 -0.793823 0.653621 -0.747873 -0.32007 0.0501093 
-0.531238 -0.29899 1.16062 -0.286184 0.614907 0.939663 -0.0263732 0.713485 0.586027 
0.312173 0.491202 0.217164 0.118681 0.279867 -0.00331116 0.269011 0.111453 0.344343 
0.46515 0.240754 0.0956539 -0.342164 0.276877 0.529134 0.269568 -0.0870879 0.823885 
0.323659 -0.101465 0.944103 0.00946055 -0.950123 0.0689905 -0.166594 0.0464376 0.475936 
-0.196437 0.00482463 0.81601 -0.00427608 -0.0287033 0.884505 -0.518277 1.09177 0.448239 
0.582353 0.461059 -0.00707135 -0.0894529 -0.305129 1.00325 -0.0944372 -0.00973888 0.509829 
-0.210285 0.139978 0.454994 0.178578 -0.436831 -0.242203 -0.288686 -0.0395712 -0.0113746 
0.156854 -0.134601 0.836736 0.304801 -0.0737354 0.158224 0.61058 -0.626542 0.309165 
0.344183 -0.280065 0.749747 -0.366649 -0.0830602 0.872411 0.187797 -0.692092 0.210864 
-0.0500267 0.0474529 1.05987 0.367542 0.345242 0.186177 0.104161 -0.820594 0.815853 
-0.0335073 -0.382539 0.694549 0.356895 -0.410853 0.169511 -0.143735 0.31664 0.225834 
-0.450785 -0.336236 0.63372 -0.00979986 -0.478475 0.991943 -0.464714 -0.266998 0.350343 
-0.682739 -0.62365 0.355104 -0.876759 -0.0518199 0.801425 -0.141533 0.140802 0.399056 
0.442193 -0.199291 0.28967 -0.686658 0.266633 0.883861 0.275856 0.00785975 -0.113777 
1.09972 -0.665961 0.628586 -0.265196 0.0502437 0.327261 0.0762757 -0.645687 0.564472 
-0.233605 -0.173847 0.220947 0.255386 -0.672405 0.059203 0.478618 -0.691876 0.541461 
-0.265727 0.176505 0.846672 -0.479435 -0.285515 0.514593 -0.14127 -0.402579 0.429675 
0.405867 -0.0898023 0.342646 0.11768 -1.12322 0.500482 -0.270236 -0.183205 0.404675 
-0.100161 -0.442977 0.864929 0.359061 -0.183754 0.0662644 0.197928 -0.524196 0.427158 
-0.412263 -0.511015 0.7014 0.397473 -0.369196 0.00942246 -0.0899529 -0.432938 0.343843 
0.172251 -0.194432 0.605123 0.0607414 0.199032 0.612366 0.167378 0.241632 0.0964985 
0.18721 -0.185233 0.0296944 -0.632162 -0.72991 0.195709 0.446264 -0.0503916 1.03783 
-0.30331 -0.0940544 0.298934 0.0146161 -0.0481048 0.804788 -0.112138 0.258001 -0.0495572 
-0.241304 -0.182126 0.832722 -0.0622481 -0.0751613 1.21003 -0.27911 -0.2483 1.05621 
0.699614 -0.174113 1.504 -0.222166 -0.291562 0.382616 -0.116276 -0.166182 0.894752 
-0.843128 -0.0719802 1.23818 0.0751965 0.575063 0.179043 -0.128592 -0.0896234 0.472452 
-0.574565 -0.507976 1.21532 0.871561 0.125492 1.04575 0.355797 0.385286 1.18894 
-0.245312 1.04879 0.573525 -0.534433 0.239007 0.849012 0.419098 -0.646236 1.36892 
0.284308 -1.01512 1.58725 0.177608 -0.498408 0.954799 -0.802401 -0.0241564 1.48535 
0.618596 0.37356 0.763505 0.0046667 0.280905 0.840054 -0.434571 0.490333 0.323407 
-0.728457 -0.0237558 1.43905 0.237832 0.838964 0.991278 0.415191 0.337152 1.19629 
0.00706609 -0.868707 1.12898 -0.044768 -0.260022 1.12409 -0.301891 -1.32713 0.586264 
0.52812 -0.400126 0.396812 -0.776686 -0.441401 1.31908 0.234523 0.38682 0.849897 
0.54604 0.50817 1.22467 -0.30213 -0.792116 0.456712 -0.430309 0.00534873 0.774515 
0.316846 -0.447971 0.599111 0.156359 0.350591 1.59135 0.192829 0.0905106 0.421762 
-0.409651 -0.970707 1.4614 0.350431 -0.0610793 1.08029 0.397409 -1.52319 -0.309289 
-0.9334 -0.60203 0.759377 1.05826 -1.43416 0.721256 -0.192825 0.618023 0.601616 
0.692667 -0.613877 0.0912927 0.769914 0.0707605 0.854997 -0.203293 -0.663991 1.1521 
-1.06499 0.452272 1.0914 -0.298503 -0.752433 1.28431 -0.0573184 0.0778467 1.8155 
0.599013 0.236512 0.839657 0.719694 -0.481507 1.69049 0.682034 -0.0534353 0.668659 
-0.720312 -0.688087 0.751875 0.023698 0.366425 1.16631 0.955366 -0.233245 1.56146 
0.397009 0.0129235 0.694117 -1.35003 0.176079 1.21217 0.681877 0.836926 0.920034 
0.380813 0.147941 0.757344 -0.679242 -0.135401 0.319416 0.463166 0.30261 1.08418 
1.11474 0.648074 1.20304 -1.55067 -0.0684612 0.0562741 0.850369 -0.430434 1.24008 
-0.865724 0.346416 0.345501 -0.0891561 -0.240399 0.536495 -0.682445 0.771129 1.09356 
0.0381551 0.603177 1.1929 0.245352 -0.28522 1.05625 0.393536 0.877457 1.11378 
0.239933 -0.117515 1.01209 0.345546 0.381931 0.0356195 0.187116 0.227301 1.23951 
0.581999 1.03583 1.8631 -0.199285 -0.131171 0.69243 -0.15862 -0.0803986 1.00442 
-0.481528 0.0381738 0.747356 0.218337 -0.269279 1.9556 0.0888758 -0.250105 0.855927 
-0.100268 -0.172619 1.09626 0.761005 -0.822378 1.11619 0.0887332 0.33279 0.272931 
-0.0486864 0.367428 0.901716 -0.200299 -0.140635 1.18048 0.298212 0.569573 1.30013 
-0.932022 0.898446 0.224375 0.0174864 0.169508 0.826827 -0.220369 0.333672 0.872114 
0.54552 0.223013 0.876363 0.40556 0.00747495 2.37222 0.200063 0.786185 1.34359 
0.135897 -0.268821 1.56585 0.695474 -1.08553 0.994733 0.0485017 0.232579 1.17123 
0.97619 -0.0435439 0.417797 -0.666833 -0.855755 1.63691 -0.530164 0.0273503 1.06063 
-0.924539 -1.559 0.685915 0.25434 -0.836312 0.377175 -0.309604 0.546406 1.83608 
0.0933569 -1.17899 1.08096 -0.401138 -1.22768 0.364906 -0.051911 -0.511798 0.81557 
0.564851 0.33887 0.445555 0.910942 0.433356 0.803309 0.472189 -1.00502 0.829841 
-0.0918626 -0.242636 0.513724 0.287955 -0.325407 0.778398 -1.00531 0.00837134 0.786736 
-0.189233 -0.611476 0.9058 -0.10658 -0.818826 0.714551 -0.677732 0.0706616 1.0892 
-0.00251976 -0.618819 1.57755 -0.168679 -0.557288 0.0796553 -0.216501 0.207114 0.857043 
-0.544084 -0.020726 1.67921 -0.679082 0.790132 0.669438 -0.5532 0.229641 1.6297 
-0.223903 0.576694 0.758268 -0.448242 -0.547048 1.10009 -0.355477 -0.120699 1.03825 
-0.439776 -0.128502 1.38568 0.55204 -1.00288 0.551657 0.254849 0.27779 1.2101 
-0.191383 -0.694056 1.40503 -0.53203 0.776699 0.965479 0.546645 0.122247 1.23288 
-0.529631 -0.972971 1.1063 -0.644871 1.05943 0.889107 -1.09102 -0.685569 -0.153733 
-1.1112 -0.526309 1.10267 0.433594 -0.133617 1.43821 0.0187247 0.271573 0.493376 
-0.163108 -0.200183 1.26156 -0.328051 -0.444688 1.17165 0.88156 -0.848216 1.9754 
0.502023 -0.351436 1.70438 0.109564 -0.5177 1.46952 0.143656 0.200398 1.92181 
0.320564 1.8785 1.93423 0.016986 -0.172273 1.15599 -0.10924 0.301027 1.17333 
0.44519 -0.0596052 1.75462 0.138336 0.572444 2.0808 -0.730593 0.378445 2.17243 
-0.374349 0.0205932 1.47412 -0.367311 -0.0366366 1.43054 0.00596274 0.379522 1.63969 
1.46441 1.91234 1.54642 0.0115135 0.660596 1.78127 -1.03329 -0.307611 2.13422 
0.915227 -0.259938 1.93858 -0.510726 0.381216 2.29585 -0.624295 0.845258 1.81704 
0.38408 -0.717797 1.06373 -0.0489675 -0.23241 1.1968 -0.468069 -0.365549 1.91559 
0.618989 0.159725 2.19989 0.0178464 0.954812 1.76858 -0.537169 0.372087 1.3814 
-0.569472 1.38787 1.39913 0.0789577 0.905419 2.79889 -0.215578 1.38291 1.15985 
1.24311 0.154261 1.41523 0.210634 -0.928103 1.93748 0.253303 0.689761 1.65366 
0.529881 -0.115959 1.96887 -0.124569 0.0253662 1.15645 -1.7258 -0.497014 1.01716 
0.23384 0.839711 0.885957 -0.342014 -0.336494 1.74919 0.527311 1.25891 1.70592 
-0.456286 -0.602171 1.64942 0.136691 0.867916 1.82159 0.808864 0.134829 0.805922 
-1.27937 1.15759 0.672315 0.284459 -0.601826 2.38695 -0.889099 1.07307 1.372 
0.520508 0.38976 1.66801 -0.695919 1.07759 1.59685 0.268667 -1.4242 1.26381 
-0.35703 0.363133 2.13969 -0.232505 0.192851 2.64631 0.275826 0.743149 0.586216 
0.877232 0.622029 1.57997 -0.76382 0.187738 1.22502 -0.915359 0.544529 1.00834 
-0.618116 0.104616 1.52311 0.115935 0.0219011 1.8309 0.233598 -1.26989 1.44822 
-0.451056 -0.266164 2.03853 0.443265 0.897933 2.06648 0.072778 1.10001 1.45093 
-0.496081 0.149133 1.79149 0.773014 2.16596 2.37268 -1.19676 -0.713 1.82454 
0.443122 0.755816 2.08183 1.24166 1.27483 1.91889 0.243608 0.51978 2.58706 
-0.0111799 0.869929 2.25456 1.78216 1.04468 2.2358 -0.954818 0.524546 2.36678 
0.759684 -0.1471 1.09697 1.07745 0.763028 2.73145 -0.0208693 -2.77889 3.14066 

om 3 567 double
0 0 0 0 0 0 0 0 0 
0 0 0 0 0 0 0 0 0 
0 0 0 0 0 0 0 0 0 
0 0 0 0 0 0 0 0 0 
0 0 0 0 0 0 0 0 0 
0 0 0 0 0 0 0 0 0 
0 0 0 0 0 0 0 0 0 
0 0 0 0 0 0 0 0 0 
0 0 0 0 0 0 0 0 0 
0 0 0 0 0 0 0 0 0 
0 0 0 0 0 0 0 0 0 
0 0 0 0 0 0 0 0 0 
0 0 0 0 0 0 0 0 0 
0 0 0 0 0 0 0 0 0 
0 0 0 0 0 0 0 0 0 
0 0 0 0 0 0 0 0 0 
0 0 0 0 0 0 0 0 0 
0 0 0 0 0 0 0 0 0 
0 0 0 0 0 0 0 0 0 
0 0 0 0 0 0 0 0 0 
0 0 0 0 0 0 0 0 0 
0 0 0 0 0 0 0 0 0 
0 0 0 0 0 0 0 0 0 
0 0 0 0 0 0 0 0 0 
0 0 0 0 0 0 0 0 0 
0 0 0 0 0 0 0 0 0 
0 0 0 0 0 0 0 0 0 
0 0 0 0 0 0 0 0 0 
0 0 0 0 0 0 0 0 0 
0 0 0 0 0 0 0 0 0 
0 0 0 0 0 0 0 0 0 
0 0 0 0 0 0 0 0 0 
0 0 0 0 0 0 0 0 0 
0 0 0 0 0 0 0 0 0 
0 0 0 0 0 0 0 0 0 
0 0 0 0 0 0 0 0 0 
0 0 0 0 0 0 0 0 0 
0 0 0 0 0 0 0 0 0 
0 0 0 0 0 0 0 0 0 
0 0 0 0 0 0 0 0 0 
0 0 0 0 0 0 0 0 0 
0 0 0 0 0 0 0 0 0 
0 0 0 0 0 0 0 0 0 
0 0 0 0 0 0 0 0 0 
0 0 0 0 0 0 0 0 0 
0 0 0 0 0 0 0 0 0 
0 0 0 0 0 0 0 0 0 
0 0 0 0 0 0 0 0 0 
0 0 0 0 0 0 0 0 0 
0 0 0 0 0 0 0 0 0 
0 0 0 0 0 0 0 0 0 
0 0 0 0 0 0 0 0 0 
0 0 0 0 0 0 0 0 0 
0 0 0 0 0 0 0 0 0 
0 0 0 0 0 0 0 0 0 
0 0 0 0 0 0 0 0 0 
0 0 0 0 0 0 0 0 0 
0 0 0 0 0 0 0 0 0 
0 0 0 0 0 0 0 0 0 
0 0 0 0 0 0 0 0 0 
0 0 0 0 0 0 0 0 0 
0 0 0 0 0 0 0 0 0 
0 0 0 0 0 0 0 0 0 
0 0 0 0 0 0 0 0 0 
0 0 0 0 0 0 0 0 0 
0 0 0 0 0 0 0 0 0 
0 0 0 0 0 0 0 0 0 
0 0 0 0 0 0 0 0 0 
0 0 0 0 0 0 0 0 0 
0 0 0 0 0 0 0 0 0 
0 0 0 0 0 0 0 0 0 
0 0 0 0 0 0 0 0 0 
0 0 0 0 0 0 0 0 0 
0 0 0 0 0 0 0 0 0 
0 0 0 0 0 0 0 0 0 
0 0 0 0 0 0 0 0 0 
0 0 0 0 0 0 0 0 0 
0 0 0 0 0 0 0 0 0 
0 0 0 0 0 0 0 0 0 
0 0 0 0 0 0 0 0 0 
0 0 0 0 0 0 0 0 0 
0 0 0 0 0 0 0 0 0 
0 0 0 0 0 0 0 0 0 
0 0 0 0 0 0 0 0 0 
0 0 0 0 0 0 0 0 0 
0 0 0 0 0 0 0 0 0 
0 0 0 0 0 0 0 0 0 
0 0 0 0 0 0 0 0 0 
0 0 0 0 0 0 0 0 0 
0 0 0 0 0 0 0 0 0 
0 0 0 0 0 0 0 0 0 
0 0 0 0 0 0 0 0 0 
0 0 0 0 0 0 0 0 0 
0 0 0 0 0 0 0 0 0 
0 0 0 0 0 0 0 0 0 
0 0 0 0 0 0 0 0 0 
0 0 0 0 0 0 0 0 0 
0 0 0 0 0 0 0 0 0 
0 0 0 0 0 0 0 0 0 
0 0 0 0 0 0 0 0 0 
0 0 0 0 0 0 0 0 0 
0 0 0 0 0 0 0 0 0 
0 0 0 0 0 0 0 0 0 
0 0 0 0 0 0 0 0 0 
0 0 0 0 0 0 0 0 0 
0 0 0 0 0 0 0 0 0 
0 0 0 0 0 0 0 0 0 
0 0 0 0 0 0 0 0 0 
0 0 0 0 0 0 0 0 0 
0 0 0 0 0 0 0 0 0 
0 0 0 0 0 0 0 0 0 
0 0 0 0 0 0 0 0 0 
0 0 0 0 0 0 0 0 0 
0 0 0 0 0 0 0 0 0 
0 0 0 0 0 0 0 0 0 
0 0 0 0 0 0 0 0 0 
0 0 0 0 0 0 0 0 0 
0 0 0 0 0 0 0 0 0 
0 0 0 0 0 0 0 0 0 
0 0 0 0 0 0 0 0 0 
0 0 0 0 0 0 0 0 0 
0 0 0 0 0 0 0 0 0 
0 0 0 0 0 0 0 0 0 
0 0 0 0 0 0 0 0 0 
0 0 0 0 0 0 0 0 0 
0 0 0 0 0 0 0 0 0 
0 0 0 0 0 0 0 0 0 
0 0 0 0 0 0 0 0 0 
0 0 0 0 0 0 0 0 0 
0 0 0 0 0 0 0 0 0 
0 0 0 0 0 0 0 0 0 
0 0 0 0 0 0 0 0 0 
0 0 0 0 0 0 0 0 0 
0 0 0 0 0 0 0 0 0 
0 0 0 0 0 0 0 0 0 
0 0 0 0 0 0 0 0 0 
0 0 0 0 0 0 0 0 0 
0 0 0 0 0 0 0 0 0 
0 0 0 0 0 0 0 0 0 
0 0 0 0 0 0 0 0 0 
0 0 0 0 0 0 0 0 0 
0 0 0 0 0 0 0 0 0 
0 0 0 0 0 0 0 0 0 
0 0 0 0 0 0 0 0 0 
0 0 0 0 0 0 0 0 0 
0 0 0 0 0 0 0 0 0 
0 0 0 0 0 0 0 0 0 
0 0 0 0 0 0 0 0 0 
0 0 0 0 0 0 0 0 0 
0 0 0 0 0 0 0 0 0 
0 0 0 0 0 0 0 0 0 
0 0 0 0 0 0 0 0 0 
0 0 0 0 0 0 0 0 0 
0 0 0 0 0 0 0 0 0 
0 0 0 0 0 0 0 0 0 
0 0 0 0 0 0 0 0 0 
0 0 0 0 0 0 0 0 0 
0 0 0 0 0 0 0 0 0 
0 0 0 0 0 0 0 0 0 
0 0 0 0 0 0 0 0 0 
0 0 0 0 0 0 0 0 0 
0 0 0 0 0 0 0 0 0 
0 0 0 0 0 0 0 0 0 
0 0 0 0 0 0 0 0 0 
0 0 0 0 0 0 0 0 0 
0 0 0 0 0 0 0 0 0 
0 0 0 0 0 0 0 0 0 
0 0 0 0 0 0 0 0 0 
0 0 0 0 0 0 0 0 0 
0 0 0 0 0 0 0 0 0 
0 0 0 0 0 0 0 0 0 
0 0 0 0 0 0 0 0 0 
0 0 0 0 0 0 0 0 0 
0 0 0 0 0 0 0 0 0 
0 0 0 0 0 0 0 0 0 
0 0 0 0 0 0 0 0 0 
0 0 0 0 0 0 0 0 0 
0 0 0 0 0 0 0 0 0 
0 0 0 0 0 0 0 0 0 
0 0 0 0 0 0 0 0 0 
0 0 0 0 0 0 0 0 0 
0 0 0 0 0 0 0 0 0 
0 0 0 0 0 0 0 0 0 
0 0 0 0 0 0 0 0 0 
0 0 0 0 0 0 0 0 0 
0 0 0 0 0 0 0 0 0 
0 0 0 0 0 0 0 0 0 
0 0 0 0 0 0 0 0 0 
0 0 0 0 0 0 0 0 0 

bottom 1 567 double
-0.0560704 -0.0560704 -0.0560704 -0.0560704 -0.0560704 -0.0560704 -0.0560704 -0.0560704 -0.0560704 
-0.0560704 -0.0560704 -0.0560704 -0.0560704 -0.0560704 -0.0560704 -0.0560704 -0.0560704 -0.0560704 
-0.0560704 -0.0560704 -0.0560704 -0.0560704 -0.0560704 -0.0560704 -0.0560704 -0.0560704 -0.0560704 
-0.0560704 -0.0560704 -0.0560704 -0.0560704 -0.0560704 -0.0560704 -0.0560704 -0.0560704 -0.0560704 
-0.0560704 -0.0560704 -0.0560704 -0.0560704 -0.0560704 -0.0560704 -0.0560704 -0.0560704 -0.0560704 
-0.0560704 -0.0560704 -0.0560704 -0.0560704 -0.0560704 -0.0560704 -0.0560704 -0.0560704 -0.0560704 
-0.0560704 -0.0560704 -0.0560704 -0.0560704 -0.0560704 -0.0560704 -0.0560704 -0.0560704 -0.0560704 
-0.0560704 -0.0560704 -0.0560704 -0.0560704 -0.0560704 -0.0560704 -0.0560704 -0.0560704 -0.0560704 
-0.0560704 -0.0560704 -0.0560704 -0.0560704 -0.0560704 -0.0560704 -0.0560704 -0.0560704 -0.0560704 
-0.0560704 -0.0560704 -0.0560704 -0.0560704 -0.0560704 -0.0560704 -0.0560704 -0.0560704 -0.0560704 
-0.0560704 -0.0560704 -0.0560704 -0.0560704 -0.0560704 -0.0560704 -0.0560704 -0.0560704 -0.0560704 
-0.0560704 -0.0560704 -0.0560704 -0.0560704 -0.0560704 -0.0560704 -0.0560704 -0.0560704 -0.0560704 
-0.0560704 -0.0560704 -0.0560704 -0.0560704 -0.0560704 -0.0560704 -0.0560704 -0.0560704 -0.0560704 
-0.0560704 -0.0560704 -0.0560704 -0.0560704 -0.0560704 -0.0560704 -0.0560704 -0.0560704 -0.0560704 
-0.0560704 -0.0560704 -0.0560704 -0.0560704 -0.0560704 -0.0560704 -0.0560704 -0.0560704 -0.0560704 
-0.0560704 -0.0560704 -0.0560704 -0.0560704 -0.0560704 -0.0560704 -0.0560704 -0.0560704 -0.0560704 
-0.0560704 -0.0560704 -0.0560704 -0.0560704 -0.0560704 -0.0560704 -0.0560704 -0.0560704 -0.0560704 
-0.0560704 -0.0560704 -0.0560704 -0.0560704 -0.0560704 -0.0560704 -0.0560704 -0.0560704 -0.0560704 
-0.0560704 -0.0560704 -0.0560704 -0.0560704 -0.0560704 -0.0560704 -0.0560704 -0.0560704 -0.0560704 
-0.0560704 -0.0560704 -0.0560704 -0.0560704 -0.0560704 -0.0560704 -0.0560704 -0.0560704 -0.0560704 
-0.0560704 -0.0560704 -0.0560704 -0.0560704 -0.0560704 -0.0560704 -0.0560704 -0.0560704 -0.0560704 
-0.0560704 -0.0560704 -0.0560704 -0.0560704 -0.0560704 -0.0560704 -0.0560704 -0.0560704 -0.0560704 
-0.0560704 -0.0560704 -0.0560704 -0.0560704 -0.0560704 -0.0560704 -0.0560704 -0.0560704 -0.0560704 
-0.0560704 -0.0560704 -0.0560704 -0.0560704 -0.0560704 -0.0560704 -0.0560704 -0.0560704 -0.0560704 
-0.0560704 -0.0560704 -0.0560704 -0.0560704 -0.0560704 -0.0560704 -0.0560704 -0.0560704 -0.0560704 
-0.0560704 -0.0560704 -0.0560704 -0.0560704 -0.0560704 -0.0560704 -0.0560704 -0.0560704 -0.0560704 
-0.0560704 -0.0560704 -0.0560704 -0.0560704 -0.0560704 -0.0560704 -0.0560704 -0.0560704 -0.0560704 
-0.0560704 -0.0560704 -0.0560704 -0.0560704 -0.0560704 -0.0560704 -0.0560704 -0.0560704 -0.0560704 
-0.0560704 -0.0560704 -0.0560704 -0.0560704 -0.0560704 -0.0560704 -0.0560704 -0.0560704 -0.0560704 
-0.0560704 -0.0560704 -0.0560704 -0.0560704 -0.0560704 -0.0560704 -0.0560704 -0.0560704 -0.0560704 
-0.0560704 -0.0560704 -0.0560704 -0.0560704 -0.0560704 -0.0560704 -0.0560704 -0.0560704 -0.0560704 
-0.0560704 -0.0560704 -0.0560704 -0.0560704 -0.0560704 -0.0560704 -0.0560704 -0.0560704 -0.0560704 
-0.0560704 -0.0560704 -0.0560704 -0.0560704 -0.0560704 -0.0560704 -0.0560704 -0.0560704 -0.0560704 
-0.0560704 -0.0560704 -0.0560704 -0.0560704 -0.0560704 -0.0560704 -0.0560704 -0.0560704 -0.0560704 
-0.0560704 -0.0560704 -0.0560704 -0.0560704 -0.0560704 -0.0560704 -0.0560704 -0.0560704 -0.0560704 
-0.0560704 -0.0560704 -0.0560704 -0.0560704 -0.0560704 -0.0560704 -0.0560704 -0.0560704 -0.0560704 
-0.0560704 -0.0560704 -0.0560704 -0.0560704 -0.0560704 -0.0560704 -0.0560704 -0.0560704 -0.0560704 
-0.0560704 -0.0560704 -0.0560704 -0.0560704 -0.0560704 -0.0560704 -0.0560704 -0.0560704 -0.0560704 
-0.0560704 -0.0560704 -0.0560704 -0.0560704 -0.0560704 -0.0560704 -0.0560704 -0.0560704 -0.0560704 
-0.0560704 -0.0560704 -0.0560704 -0.0560704 -0.0560704 -0.0560704 -0.0560704 -0.0560704 -0.0560704 
-0.0560704 -0.0560704 -0.0560704 -0.0560704 -0.0560704 -0.0560704 -0.0560704 -0.0560704 -0.0560704 
-0.0560704 -0.0560704 -0.0560704 -0.0560704 -0.0560704 -0.0560704 -0.0560704 -0.0560704 -0.0560704 
-0.0560704 -0.0560704 -0.0560704 -0.0560704 -0.0560704 -0.0560704 -0.0560704 -0.0560704 -0.0560704 
-0.0560704 -0.0560704 -0.0560704 -0.0560704 -0.0560704 -0.0560704 -0.0560704 -0.0560704 -0.0560704 
-0.0560704 -0.0560704 -0.0560704 -0.0560704 -0.0560704 -0.0560704 -0.0560704 -0.0560704 -0.0560704 
-0.0560704 -0.0560704 -0.0560704 -0.0560704 -0.0560704 -0.0560704 -0.0560704 -0.0560704 -0.0560704 
-0.0560704 -0.0560704 -0.0560704 -0.0560704 -0.0560704 -0.0560704 -0.0560704 -0.0560704 -0.0560704 
-0.0560704 -0.0560704 -0.0560704 -0.0560704 -0.0560704 -0.0560704 -0.0560704 -0.0560704 -0.0560704 
-0.0560704 -0.0560704 -0.0560704 -0.0560704 -0.0560704 -0.0560704 -0.0560704 -0.0560704 -0.0560704 
-0.0560704 -0.0560704 -0.0560704 -0.0560704 -0.0560704 -0.0560704 -0.0560704 -0.0560704 -0.0560704 
-0.0560704 -0.0560704 -0.0560704 -0.0560704 -0.0560704 -0.0560704 -0.0560704 -0.0560704 -0.0560704 
-0.0560704 -0.0560704 -0.0560704 -0.0560704 -0.0560704 -0.0560704 -0.0560704 -0.0560704 -0.0560704 
-0.0560704 -0.0560704 -0.0560704 -0.0560704 -0.0560704 -0.0560704 -0.0560704 -0.0560704 -0.0560704 
-0.0560704 -0.0560704 -0.0560704 -0.0560704 -0.0560704 -0.0560704 -0.0560704 -0.0560704 -0.0560704 
-0.0560704 -0.0560704 -0.0560704 -0.0560704 -0.0560704 -0.0560704 -0.0560704 -0.0560704 -0.0560704 
-0.0560704 -0.0560704 -0.0560704 -0.0560704 -0.0560704 -0.0560704 -0.0560704 -0.0560704 -0.0560704 
-0.0560704 -0.0560704 -0.0560704 -0.0560704 -0.0560704 -0.0560704 -0.0560704 -0.0560704 -0.0560704 
-0.0560704 -0.0560704 -0.0560704 -0.0560704 -0.0560704 -0.0560704 -0.0560704 -0.0560704 -0.0560704 
-0.0560704 -0.0560704 -0.0560704 -0.0560704 -0.0560704 -0.0560704 -0.0560704 -0.0560704 -0.0560704 
-0.0560704 -0.0560704 -0.0560704 -0.0560704 -0.0560704 -0.0560704 -0.0560704 -0.0560704 -0.0560704 
-0.0560704 -0.0560704 -0.0560704 -0.0560704 -0.0560704 -0.0560704 -0.0560704 -0.0560704 -0.0560704 
-0.0560704 -0.0560704 -0.0560704 -0.0560704 -0.0560704 -0.0560704 -0.0560704 -0.0560704 -0.0560704 
-0.0560704 -0.0560704 -0.0560704 -0.0560704 -0.0560704 -0.0560704 -0.0560704 -0.0560704 -0.0560704 

top 1 567 double
0.0439296 0.0439296 0.0439296 0.0439296 0.0439296 0.0439296 0.0439296 0.0439296 0.0439296 
0.0439296 0.0439296 0.0439296 0.0439296 0.0439296 0.0439296 0.0439296 0.0439296 0.0439296 
0.0439296 0.0439296 0.0439296 0.0439296 0.0439296 0.0439296 0.0439296 0.0439296 0.0439296 
0.0439296 0.0439296 0.0439296 0.0439296 0.0439296 0.0439296 0.0439296 0.0439296 0.0439296 
0.0439296 0.0439296 0.0439296 0.0439296 0.0439296 0.0439296 0.0439296 0.0439296 0.0439296 
0.0439296 0.0439296 0.0439296 0.0439296 0.0439296 0.0439296 0.0439296 0.0439296 0.0439296 
0.0439296 0.0439296 0.0439296 0.0439296 0.0439296 0.0439296 0.0439296 0.0439296 0.0439296 
0.0439296 0.0439296 0.0439296 0.0439296 0.0439296 0.0439296 0.0439296 0.0439296 0.0439296 
0.0439296 0.0439296 0.0439296 0.0439296 0.0439296 0.0439296 0.0439296 0.0439296 0.0439296 
0.0439296 0.0439296 0.0439296 0.0439296 0.0439296 0.0439296 0.0439296 0.0439296 0.0439296 
0.0439296 0.0439296 0.0439296 0.0439296 0.0439296 0.0439296 0.0439296 0.0439296 0.0439296 
0.0439296 0.0439296 0.0439296 0.0439296 0.0439296 0.0439296 0.0439296 0.0439296 0.0439296 
0.0439296 0.0439296 0.0439296 0.0439296 0.0439296 0.0439296 0.0439296 0.0439296 0.0439296 
0.0439296 0.0439296 0.0439296 0.0439296 0.0439296 0.0439296 0.0439296 0.0439296 0.0439296 
0.0439296 0.0439296 0.0439296 0.0439296 0.0439296 0.0439296 0.0439296 0.0439296 0.0439296 
0.0439296 0.0439296 0.0439296 0.0439296 0.0439296 0.0439296 0.0439296 0.0439296 0.0439296 
0.0439296 0.0439296 0.0439296 0.0439296 0.0439296 0.0439296 0.0439296 0.0439296 0.0439296 
0.0439296 0.0439296 0.0439296 0.0439296 0.0439296 0.0439296 0.0439296 0.0439296 0.0439296 
0.0439296 0.0439296 0.0439296 0.0439296 0.0439296 0.0439296 0.0439296 0.0439296 0.0439296 
0.0439296 0.0439296 0.0439296 0.0439296 0.0439296 0.0439296 0.0439296 0.0439296 0.0439296 
0.0439296 0.0439296 0.0439296 0.0439296 0.0439296 0.0439296 0.0439296 0.0439296 0.0439296 
0.0439296 0.0439296 0.0439296 0.0439296 0.0439296 0.0439296 0.0439296 0.0439296 0.0439296 
0.0439296 0.0439296 0.0439296 0.0439296 0.0439296 0.0439296 0.0439296 0.0439296 0.0439296 
0.0439296 0.0439296 0.0439296 0.0439296 0.0439296 0.0439296 0.0439296 0.0439296 0.0439296 
0.0439296 0.0439296 0.0439296 0.0439296 0.0439296 0.0439296 0.0439296 0.0439296 0.0439296 
0.0439296 0.0439296 0.0439296 0.0439296 0.0439296 0.0439296 0.0439296 0.0439296 0.0439296 
0.0439296 0.0439296 0.0439296 0.0439296 0.0439296 0.0439296 0.0439296 0.0439296 0.0439296 
0.0439296 0.0439296 0.0439296 0.0439296 0.0439296 0.0439296 0.0439296 0.0439296 0.0439296 
0.0439296 0.0439296 0.0439296 0.0439296 0.0439296 0.0439296 0.0439296 0.0439296 0.0439296 
0.0439296 0.0439296 0.0439296 0.0439296 0.0439296 0.0439296 0.0439296 0.0439296 0.0439296 
0.0439296 0.0439296 0.0439296 0.0439296 0.0439296 0.0439296 0.0439296 0.0439296 0.0439296 
0.0439296 0.0439296 0.0439296 0.0439296 0.0439296 0.0439296 0.0439296 0.0439296 0.0439296 
0.0439296 0.0439296 0.0439296 0.0439296 0.0439296 0.0439296 0.0439296 0.0439296 0.0439296 
0.0439296 0.0439296 0.0439296 0.0439296 0.0439296 0.0439296 0.0439296 0.0439296 0.0439296 
0.0439296 0.0439296 0.0439296 0.0439296 0.0439296 0.0439296 0.0439296 0.0439296 0.0439296 
0.0439296 0.0439296 0.0439296 0.0439296 0.0439296 0.0439296 0.0439296 0.0439296 0.0439296 
0.0439296 0.0439296 0.0439296 0.0439296 0.0439296 0.0439296 0.0439296 0.0439296 0.0439296 
0.0439296 0.0439296 0.0439296 0.0439296 0.0439296 0.0439296 0.0439296 0.0439296 0.0439296 
0.0439296 0.0439296 0.0439296 0.0439296 0.0439296 0.0439296 0.0439296 0.0439296 0.0439296 
0.0439296 0.0439296 0.0439296 0.0439296 0.0439296 0.0439296 0.0439296 0.0439296 0.0439296 
0.0439296 0.0439296 0.0439296 0.0439296 0.0439296 0.0439296 0.0439296 0.0439296 0.0439296 
0.0439296 0.0439296 0.0439296 0.0439296 0.0439296 0.0439296 0.0439296 0.0439296 0.0439296 
0.0439296 0.0439296 0.0439296 0.0439296 0.0439296 0.0439296 0.0439296 0.0439296 0.0439296 
0.0439296 0.0439296 0.0439296 0.0439296 0.0439296 0.0439296 0.0439296 0.0439296 0.0439296 
0.0439296 0.0439296 0.0439296 0.0439296 0.0439296 0.0439296 0.0439296 0.0439296 0.0439296 
0.0439296 0.0439296 0.0439296 0.0439296 0.0439296 0.0439296 0.0439296 0.0439296 0.0439296 
0.0439296 0.0439296 0.0439296 0.0439296 0.0439296 0.0439296 0.0439296 0.0439296 0.0439296 
0.0439296 0.0439296 0.0439296 0.0439296 0.0439296 0.0439296 0.0439296 0.0439296 0.0439296 
0.0439296 0.0439296 0.0439296 0.0439296 0.0439296 0.0439296 0.0439296 0.0439296 0.0439296 
0.0439296 0.0439296 0.0439296 0.0439296 0.0439296 0.0439296 0.0439296 0.0439296 0.0439296 
0.0439296 0.0439296 0.0439296 0.0439296 0.0439296 0.0439296 0.0439296 0.0439296 0.0439296 
0.0439296 0.0439296 0.0439296 0.0439296 0.0439296 0.0439296 0.0439296 0.0439296 0.0439296 
0.0439296 0.0439296 0.0439296 0.0439296 0.0439296 0.0439296 0.0439296 0.0439296 0.0439296 
0.0439296 0.0439296 0.0439296 0.0439296 0.0439296 0.0439296 0.0439296 0.0439296 0.0439296 
0.0439296 0.0439296 0.0439296 0.0439296 0.0439296 0.0439296 0.0439296 0.0439296 0.0439296 
0.0439296 0.0439296 0.0439296 0.0439296 0.0439296 0.0439296 0.0439296 0.0439296 0.0439296 
0.0439296 0.0439296 0.0439296 0.0439296 0.0439296 0.0439296 0.0439296 0.0439296 0.0439296 
0.0439296 0.0439296 0.0439296 0.0439296 0.0439296 0.0439296 0.0439296 0.0439296 0.0439296 
0.0439296 0.0439296 0.0439296 0.0439296 0.0439296 0.0439296 0.0439296 0.0439296 0.0439296 
0.0439296 0.0439296 0.0439296 0.0439296 0.0439296 0.0439296 0.0439296 0.0439296 0.0439296 
0.0439296 0.0439296 0.0439296 0.0439296 0.0439296 0.0439296 0.0439296 0.0439296 0.0439296 
0.0439296 0.0439296 0.0439296 0.0439296 0.0439296 0.0439296 0.0439296 0.0439296 0.0439296 
0.0439296 0.0439296 0.0439296 0.0439296 0.0439296 0.0439296 0.0439296 0.0439296 0.0439296 

