# vtk DataFile Version 4.0
vtk output
ASCII
DATASET POLYDATA
FIELD FieldData 4
domain 1 4 string
domain_min:-5|-5|-5
domain_max:5|5|5
cell_size:0.01|0.01|0.01
boundary:1|1|1

variables 1 8 string
T:0.155
dt:0.0005
A:-159.184
V:-0.0950568
Z:0.0414646
write_case:1
substeps:10
all_steps:310

constants 1 11 string
L:0.1
csize:0.01
R:0.004
mass:0.00210445
E:2.06e+06
nu:0.33
M:20
freq:10
gamma:62.8319
S:78956.8
g:0|0|-9.81

equations 1 9 string
time:T=(T+dt)#true
eq:a=(dem_l(v,om,R,mass,E,nu,0.1)/mass)#true
tank_acceleration:A=(((-(transpose((fsum(a)*mass))*e_k))-(S*Z))/M)#true
iv:v=euler(v,((a+g)-(A*e_k)),dt)#true
ia:r=euler(r,v,dt)#true
tank_velocity:V=euler(V,A,dt)#true
tank_position:Z=euler(Z,V,dt)#true
bottom:bottom=(Z-0.05)#true
top:top=(Z+0.05)#true

POINTS 567 float
-0.0381726 0.0365557 -0.0306013 -0.0449804 -0.0462616 -0.0256593 -0.0305293 -0.0434163 -0.0207555 
-0.01238 -0.0432631 -0.0275032 -0.00307831 -0.043164 -0.0221661 0.00741041 -0.0454111 -0.0231429 
0.0185823 -0.0451705 -0.0240063 0.0276869 -0.0457245 -0.0206938 0.0394817 -0.0444041 -0.0245391 
-0.0405097 -0.0381688 -0.0269887 -0.0358988 -0.0316788 -0.0215714 -0.0273723 -0.0391138 -0.0274035 
-0.0164672 -0.0377996 -0.0207336 -0.0185362 -0.031187 -0.0268502 0.00364971 -0.0382508 -0.0205733 
0.0120937 -0.037954 -0.0228916 0.0175906 -0.0327316 -0.0260175 0.0247044 -0.0366561 -0.0262155 
0.0299916 -0.0301839 -0.0241526 0.0328873 -0.0386274 -0.0215421 0.0454666 -0.0381925 -0.0271769 
-0.046036 -0.0281382 -0.0224772 -0.0304069 -0.0268296 -0.0268766 -0.0230378 -0.0235099 -0.0257182 
-0.0141818 -0.0236293 -0.0274352 -0.00451068 -0.0253083 -0.0261169 0.00275226 -0.0258227 -0.0207661 
0.0107076 -0.0250446 -0.0215956 0.023039 -0.0218026 -0.0229394 0.0398838 -0.0257257 -0.0243381 
0.0456614 -0.0209875 -0.0205013 -0.0387943 -0.0109748 -0.0245249 -0.0374717 -0.0191499 -0.0231426 
-0.0287231 -0.0120061 -0.0201816 -0.0281988 -0.0175079 -0.0259815 -0.0204128 -0.0170444 -0.0200074 
-0.00210015 -0.0182306 -0.0294631 0.020952 -0.0137743 -0.0220978 0.0285821 -0.0165314 -0.0207723 
0.0437203 -0.0128487 -0.0227007 -0.0297346 -0.00103185 -0.0231089 -0.0203923 -0.00744593 -0.0225764 
-0.00563746 -0.00619345 -0.0241164 0.0152128 -0.00697094 -0.0225963 0.0367827 -0.00648714 -0.0265711 
-0.0425129 0.00890442 -0.027627 -0.0456129 0.00198139 -0.0202414 -0.029642 0.00684044 -0.0204442 
-0.022488 0.00245939 -0.021848 -0.0133651 0.00202968 -0.0234347 -0.00574787 0.0034449 -0.0203067 
0.00221932 0.00167992 -0.0251289 0.0186748 0.00270102 -0.0203935 0.0189324 0.00971618 -0.0246584 
0.0107674 0.00619326 -0.0207083 0.0285464 0.0075713 -0.0200848 0.0277048 0.000112416 -0.0242915 
0.0357387 0.00364715 -0.0226677 0.040417 0.00994805 -0.0204417 0.0442026 0.00201799 -0.0265056 
-0.0235116 0.018048 -0.0212056 -0.0190533 0.0114311 -0.0253738 -0.00533932 0.0199846 -0.0239205 
-0.00723515 0.0118946 -0.0262165 0.0132897 0.0162219 -0.0250478 0.0234575 0.0153859 -0.0213944 
0.0319856 0.0130613 -0.0260454 0.0367428 0.0195477 -0.0234958 0.0446633 0.0150683 -0.0249748 
-0.0459755 0.0214141 -0.0234882 -0.0326792 0.0207822 -0.0255437 -0.038047 0.0266272 -0.0259665 
-0.0208272 0.0237531 -0.0258982 -0.0149154 0.0222247 -0.0202734 -0.00491803 0.0289264 -0.0218893 
0.00473169 0.0288049 -0.0227007 0.013801 0.0241526 -0.0207252 0.0289117 0.0211206 -0.0240541 
0.0228003 0.0293149 -0.0243238 0.0319602 0.0297612 -0.0237161 0.0459236 0.0260888 -0.0240063 
-0.0454902 0.0340661 -0.0269599 -0.0324915 0.0390029 -0.0243849 -0.0250538 0.0341756 -0.0209713 
-0.0155656 0.0317695 -0.0227252 -0.00546362 0.0367544 -0.0229133 0.0086544 0.0377431 -0.021105 
0.0127092 0.031561 -0.0246886 0.0260014 0.0374665 -0.0223662 0.0400052 0.0318377 -0.023886 
0.0458468 0.0372774 -0.0238985 -0.022187 0.0401043 -0.0271003 -0.0130836 0.0412971 -0.0239794 
-0.00550136 0.0457273 -0.0238322 0.00268173 0.0440139 -0.0202211 0.0122674 0.0451443 -0.0205596 
0.0347628 0.0415913 -0.0240543 0.045996 0.0456325 -0.0216612 -0.0399664 -0.0447817 -0.0156501 
-0.0224872 -0.0435976 -0.0164982 -0.0140168 -0.0446248 -0.0176957 0.00290853 -0.0411273 -0.0112195 
0.0156873 -0.0437512 -0.0124789 0.0248363 -0.0454151 -0.0129021 0.034314 -0.0441493 -0.0144396 
0.0449396 -0.0432889 -0.0152796 -0.0440347 -0.0353909 -0.0196759 -0.0376374 -0.0361955 -0.0137061 
-0.0295836 -0.0330222 -0.0165323 -0.00699322 -0.0398137 -0.0119754 -0.0091799 -0.0308511 -0.0127708 
-0.00325162 -0.0339728 -0.0190797 0.00972142 -0.034925 -0.0136073 0.0174439 -0.0353326 -0.0123021 
0.0204331 -0.0399623 -0.0182873 0.023466 -0.0301709 -0.0172978 0.0389708 -0.0331242 -0.0118596 
-0.042351 -0.0247709 -0.0135643 -0.0340671 -0.0254981 -0.0152768 -0.0212589 -0.0298786 -0.0170728 
-0.0148898 -0.0256214 -0.0131628 -0.00746742 -0.0210208 -0.0100409 0.00783271 -0.0204163 -0.0148431 
0.0130768 -0.0258524 -0.0116872 0.0339177 -0.0223277 -0.0128992 0.0441422 -0.0257067 -0.0123324 
-0.0441912 -0.017649 -0.01934 -0.0356019 -0.013784 -0.0136922 -0.0279127 -0.0168013 -0.0124628 
-0.0113822 -0.0127725 -0.0130847 -0.00867091 -0.0186103 -0.0179996 0.00623281 -0.0131213 -0.0194253 
0.0146261 -0.0181866 -0.0188236 0.0211103 -0.0179322 -0.0141764 0.0364615 -0.0182593 -0.0194425 
-0.0448597 -0.00950136 -0.0184627 -0.0350389 -0.00562828 -0.0184683 -0.0205566 -0.00137342 -0.013647 
-0.0125957 -0.0051426 -0.0193586 -0.00246385 -0.00763668 -0.0120679 -0.00929555 -0.00185496 -0.0121003 
0.00315725 -0.000329276 -0.014484 0.00562321 -0.00847485 -0.0128569 0.0101954 -0.00177006 -0.0192705 
0.0122986 -0.00106309 -0.0113121 0.0230077 -0.00387454 -0.0185133 0.0334764 -0.00722403 -0.0182734 
0.0322013 -0.00344386 -0.0105933 -0.0426259 0.00875592 -0.0115006 -0.0360245 0.00327997 -0.0152122 
-0.0143024 0.00716765 -0.0162814 0.0042067 0.00865625 -0.0112684 0.0248654 0.00281011 -0.0150623 
0.0458623 0.00658591 -0.0137488 -0.0455248 0.0135929 -0.0177337 -0.0325027 0.0150455 -0.0198494 
-0.0188336 0.0135455 -0.0117439 -0.00976352 0.0158268 -0.0131118 0.00393934 0.0127894 -0.0196292 
0.0137558 0.010533 -0.0119452 0.0292293 0.0148109 -0.0131129 0.0384336 0.0187755 -0.0156396 
-0.045915 0.0233658 -0.0103341 -0.0386311 0.0227821 -0.015997 -0.0275765 0.0284445 -0.0158987 
-0.0164749 0.0218791 -0.0103115 -0.00884226 0.0251472 -0.012569 0.00525245 0.0219423 -0.0177111 
0.0247973 0.0234559 -0.0119841 0.0461565 0.0201868 -0.013526 0.0436126 0.028702 -0.0148931 
-0.0421473 0.0381306 -0.016878 -0.0386717 0.0308368 -0.01179 -0.0344494 0.0310661 -0.0197458 
-0.0276695 0.0363157 -0.0102539 0.00155073 0.0344344 -0.0155128 0.0181773 0.0367118 -0.0180927 
0.0255765 0.036533 -0.013952 0.0323517 0.0300711 -0.0124647 -0.0409752 0.0438523 -0.0108515 
-0.0419654 0.0457999 -0.0192017 -0.0303342 0.0432449 -0.0157933 -0.0213984 0.0459629 -0.0154007 
-0.0130129 0.0455998 -0.0159084 -0.00652626 0.042417 -0.0127314 0.000536894 0.045253 -0.0107979 
0.0221395 0.0448569 -0.0158788 0.0314249 0.0435764 -0.0146178 0.0421975 0.0435944 -0.0138873 
-0.0451414 -0.0461489 -0.0074023 -0.0308372 -0.0424719 -0.00974204 -0.0262026 -0.0411036 -0.00251633 
-0.0153206 -0.0446261 -0.00195733 -0.00745257 -0.0461278 -0.00465071 0.00800623 -0.0462398 -0.00518899 
0.0280768 -0.0455693 -0.00579379 -0.0455607 -0.0372354 -0.00745922 -0.045888 -0.0312799 -5.39069e-05 
-0.0331693 -0.0360781 -0.0024792 -0.0256852 -0.0356084 -0.00957496 -0.0145137 -0.0322856 -0.00390721 
-0.0141567 -0.038617 -0.00874869 -0.003349 -0.0388419 -0.00520595 0.00644617 -0.0389122 -0.00146171 
0.0125226 -0.0347325 -0.00434755 0.0268801 -0.0308375 -0.000436115 0.0217107 -0.0388622 -0.00337189 
0.0412492 -0.030332 -0.00208796 -0.0379473 -0.0206275 -0.00499337 -0.0305001 -0.0284106 -0.00334601 
-0.0265735 -0.0205238 -0.00433877 -0.0217276 -0.0265769 -0.00986613 -0.00676177 -0.0296728 -0.00504584 
-0.00158937 -0.0228718 -0.00471194 0.00446416 -0.0299982 -0.0048499 0.0133621 -0.0261404 -0.00115394 
0.0227727 -0.024997 -0.00974713 0.0320739 -0.0214944 -0.00357214 0.0314417 -0.0284809 -0.00801676 
0.0449653 -0.0207463 -0.000984018 -0.0456554 -0.0115248 -0.00911606 -0.0256184 -0.0105124 -0.00749218 
-0.0133468 -0.0145135 -0.00213376 -0.0177217 -0.0183406 -0.00892365 -0.000226224 -0.0135116 -0.00591702 
0.0137036 -0.0110738 -0.00353688 0.0320365 -0.0131478 -0.00701326 0.040472 -0.0187082 -0.00797396 
-0.0454272 -0.00104954 -0.00902622 -0.0335962 -0.00246224 -0.00936408 -0.0178867 -0.00878456 -0.00893759 
-0.0196775 -0.0015758 -0.00255304 -0.00161251 -0.00705597 -0.00146426 0.0187419 -0.00687544 -0.00925807 
0.0462443 -0.00921359 -0.000460064 0.0441465 -0.00602596 -0.00982068 -0.0269161 0.00093094 -0.00722245 
-0.0149948 0.0043447 -0.00918566 -0.00550911 0.0039638 -0.00466638 0.0262887 0.0072883 -0.00569037 
0.0327637 0.00681276 -0.000342997 0.0387845 0.0031624 -0.00996791 0.0460431 0.00397789 -0.00543241 
-0.0430114 0.017049 -0.00701995 -0.034995 0.0179942 -0.00960504 -0.026396 0.0128093 -0.00209406 
-0.00548605 0.019603 -0.00370767 -0.0065108 0.0117679 -0.00168035 0.00161203 0.014914 -0.00574139 
0.0203788 0.0159563 -0.00819419 0.0371927 0.0116561 -0.0082106 -0.0336738 0.0256537 -0.00856518 
-0.0254995 0.0240762 -0.00425537 -0.0132991 0.0235042 -0.000275749 0.00509396 0.0265966 -0.00433588 
0.00851662 0.0200573 -0.00915771 0.0156818 0.0228096 -0.000239822 0.0381321 0.0283964 -0.00593395 
0.040769 0.0207469 -0.00503705 -0.0432515 0.0387939 -0.0029902 -0.0353855 0.0323399 -0.00362862 
-0.0172574 0.0351214 -0.00507402 -0.00290584 0.0386179 -0.00144666 0.0114596 0.0358388 -0.00376506 
0.0204997 0.0331087 -0.000427197 0.0214984 0.0312548 -0.00807946 0.0317307 0.039237 -0.00180154 
0.0407538 0.0381885 -0.00564889 0.0448976 0.0304906 -0.000919126 -0.028017 0.0447593 -0.00580381 
0.00767829 0.0425557 -0.00532022 0.0229655 0.0425364 -0.00577462 -0.0396784 -0.0406254 0.00273535 
-0.00126129 -0.0406083 0.00558243 0.0199311 -0.0456092 0.00271377 0.0368574 -0.0423895 0.00342962 
0.0449693 -0.0462562 0.00116714 -0.0226085 -0.030097 0.00725754 -0.0192392 -0.0377673 0.00609551 
-0.00910294 -0.0396483 0.00207229 0.0101831 -0.0310417 0.00718057 0.0351883 -0.033227 0.00304853 
0.0445799 -0.03851 0.00923356 -0.0192153 -0.0226424 0.00381544 0.00332679 -0.0243727 0.00824333 
0.0177599 -0.0258808 0.00607306 0.029264 -0.0293336 0.00826075 0.0364153 -0.0248355 0.00265849 
-0.0391653 -0.0114026 0.00680133 -0.0377004 -0.0189565 0.00526009 -0.0210695 -0.0139871 0.0010415 
-0.00481184 -0.013534 0.0088149 -0.00878593 -0.0183007 0.00293584 0.0135211 -0.01526 0.00511537 
0.0270518 -0.0186976 0.00379936 0.0266196 -0.0109913 0.000476905 0.0387827 -0.011849 0.00288104 
0.0431704 -0.017961 0.00640498 -0.0426453 -0.00776477 0.000461805 -0.00920882 -0.000941587 0.00903912 
-0.00898696 -0.00731531 0.00448875 0.00361744 -0.0081329 0.00553477 0.0126722 -0.000136405 0.000403168 
0.0201363 -0.00754875 0.00378927 0.0344268 -0.000470561 0.00398901 -0.0412072 0.00294155 0.00327101 
-0.0212813 0.00844023 0.00263801 -0.0293437 0.00275066 0.0012619 -4.41324e-05 0.00243971 0.0018775 
0.00723772 0.00888199 0.00780603 0.0191625 0.00294951 0.00763429 0.0233185 0.000853372 0.000854452 
-0.0364681 0.0177002 0.00831826 -0.0385913 0.01423 0.000709355 -0.0234718 0.0192189 0.00601714 
-0.00991803 0.0166848 0.00419582 -0.00149425 0.011046 0.00699718 0.0125944 0.0146595 0.00995441 
0.0129913 0.0151144 0.000330288 0.0200476 0.0114851 0.000633245 0.0205971 0.0164352 0.00856169 
0.0289554 0.0167243 0.0096743 0.027867 0.0136011 0.00154642 0.0329072 0.0102429 0.00795023 
-0.0441419 0.0261168 0.0038179 -0.0345356 0.0235097 0.00197097 -0.00550567 0.02711 0.00323532 
0.00918073 0.0287391 0.0061692 0.0248654 0.0255949 0.00911883 -0.022891 0.0363579 0.000487356 
-0.00283309 0.0392396 0.00825006 0.00150388 0.0323698 0.0096494 0.028431 0.0326423 0.00246197 
0.0373858 0.0315676 0.0032603 -0.0382767 0.0451687 0.00804339 -0.0332736 0.0407755 0.00233714 
-0.0186919 0.0431737 0.00688028 -0.0103494 0.043614 0.000377239 0.0335519 0.0455896 0.00341202 
0.0426128 0.0458524 0.00333501 -0.0438135 -0.0446177 0.0108906 -0.029117 -0.0436821 0.011492 
-0.0185055 -0.0456405 0.0157363 -0.00974268 -0.0409883 0.0124029 0.00354207 -0.0448812 0.0145175 
0.0154455 -0.0429475 0.0188959 -0.0442236 -0.0322771 0.0122959 -0.00133018 -0.0370697 0.0136945 
0.0284792 -0.0367033 0.0154961 0.0355613 -0.0322999 0.0151158 0.0461729 -0.0323477 0.0186353 
-0.038122 -0.0216018 0.0192076 -0.02535 -0.0203147 0.0197906 -0.00361951 -0.028252 0.0101743 
-0.00785401 -0.0246001 0.0159706 0.00481387 -0.0288229 0.0185891 0.0267607 -0.0281216 0.0157742 
0.0371097 -0.0201825 0.0142477 -0.0429312 -0.0168669 0.0119818 -0.0282767 -0.0166006 0.0118138 
0.00645578 -0.0128332 0.0118204 -0.0332293 -0.00718886 0.0159031 -0.0366278 -0.0011037 0.0102417 
-0.0250969 -0.00394973 0.0147856 0.0104405 -0.00602194 0.0101058 0.0263238 -0.00735858 0.0107322 
0.0343279 -0.00895987 0.0133049 0.0445889 -0.00819526 0.0103726 0.0448039 -0.00146626 0.0196981 
-0.0168211 0.00548139 0.0134577 -0.00169622 0.00237815 0.0103438 -0.00791604 0.00933909 0.0190104 
0.0424272 0.00740347 0.0134013 -0.0329955 0.0188862 0.015168 -0.0374479 0.0116554 0.0164241 
-0.0241215 0.0112006 0.0163156 -0.0104998 0.0125909 0.011687 0.00512431 0.0142887 0.0189003 
0.038024 0.0192055 0.0164372 -0.043681 0.0217046 0.0149797 -0.0165135 0.0202777 0.0128966 
-0.00284952 0.0225339 0.0119625 0.0203165 0.0212927 0.0184851 0.0353442 0.026774 0.0173445 
-0.0433877 0.0303153 0.0130584 -0.0313221 0.0341852 0.0176705 -0.0367193 0.0386503 0.0126631 
-0.0259238 0.0382955 0.0103375 -0.0187151 0.0350077 0.0182317 -0.0127869 0.0369544 0.0118354 
-0.00792973 0.0308696 0.0144138 0.0150839 0.0386086 0.0113695 0.0114617 0.0312482 0.0150271 
0.032197 0.0358591 0.0113478 0.0383862 0.0353721 0.0195679 0.0445143 0.0301827 0.0111723 
-0.0453433 0.0445552 0.0118562 -0.035713 0.0455774 0.016651 -0.0299371 0.0454091 0.0114361 
-0.0121282 0.0452697 0.0167778 -0.00382517 0.0436574 0.0169168 0.0294354 0.0443543 0.0119963 
-0.0429728 -0.0430084 0.0243618 -0.0217824 -0.0447961 0.0263878 -0.00433067 -0.0432465 0.0262244 
0.0058853 -0.0430903 0.029072 0.0401513 -0.0433035 0.0253542 -0.0368036 -0.0360284 0.0226541 
-0.0289514 -0.0351763 0.0220307 -0.0223786 -0.0303911 0.0274485 -0.0105629 -0.0351831 0.0247254 
0.0137329 -0.0341003 0.0208617 0.0332861 -0.0363731 0.0229829 -0.0451613 -0.0297172 0.0201831 
0.00410613 -0.020583 0.0245152 0.0246691 -0.0219991 0.0221709 0.0323194 -0.0265162 0.0225873 
0.0378247 -0.0236457 0.0295949 0.0432098 -0.0231386 0.0205775 0.0459979 -0.0285748 0.0253825 
-0.0147129 -0.0109965 0.0274847 -0.00862718 -0.0147985 0.0225405 0.0171072 -0.0137025 0.0261568 
0.0280101 -0.0138523 0.0235539 0.0423112 -0.0111969 0.0243597 -0.00315398 -0.0073929 0.0210562 
0.00132798 -0.000373108 0.0234618 0.0163542 -0.00530287 0.0208761 0.0218587 -0.00164665 0.0240751 
0.0325009 -0.00935115 0.0295519 -0.0414993 0.00714088 0.0225285 -0.0154587 0.00482448 0.028069 
0.00477654 0.00844458 0.0242901 0.00741571 0.00527184 0.0291801 -0.0298161 0.012438 0.0217264 
-0.0179336 0.0155506 0.0254491 0.00872597 0.0183478 0.0254503 0.0227185 0.0198929 0.0274372 
-0.0281269 0.026579 0.0201673 0.029915 0.0207353 0.02222 0.0415453 0.0271608 0.0230621 
-0.0153757 0.0309326 0.0237383 0.0121872 0.0386417 0.0245293 -0.0424374 0.0410889 0.0270167 
0.0039783 0.0402694 0.0238458 0.0232988 0.0452433 0.0256949 0.0350871 0.0446213 0.0295445 
0.0426343 0.041769 0.0243398 -0.0437775 -0.0431558 0.0399582 -0.0346127 -0.0434103 0.0300984 
-0.0155122 -0.0443337 0.0325944 -0.0150481 -0.0468964 0.0390491 -0.00249886 -0.0433622 0.0348565 
0.0240604 -0.0434553 0.036075 0.0339166 -0.0405193 0.0368312 -0.0462352 -0.034331 0.0371362 
-0.0349145 -0.0362489 0.0348598 -0.0268659 -0.0372184 0.0304146 -0.0298655 -0.0315672 0.033785 
-0.0120241 -0.033425 0.0342695 0.00988421 -0.0346191 0.0389154 0.0435294 -0.0300418 0.0325601 
0.047417 -0.0347266 0.0353979 -0.0394378 -0.022164 0.0310953 -0.0347804 -0.0267301 0.0393495 
-0.0292656 -0.0211556 0.0395293 -0.0104786 -0.0221838 0.0363873 -0.00577481 -0.0289751 0.0391929 
0.00555544 -0.029862 0.0379598 0.0432115 -0.0227437 0.0387526 -0.0351072 -0.0171823 0.0360966 
-0.0108523 -0.0146491 0.0315274 0.00785033 -0.0117902 0.0396195 0.0164091 -0.0137268 0.0377895 
0.0225931 -0.0160581 0.0384618 0.043741 -0.0178412 0.0311761 -0.0395238 -0.00125947 0.0351659 
-0.0253412 -0.00520219 0.0348051 -0.00212551 -0.00266872 0.0360958 -0.00967979 -0.00125112 0.0327235 
0.0261577 -9.61798e-05 0.0394186 0.0340395 -0.00895114 0.0388277 0.0378069 -0.00258894 0.0399746 
-0.0239415 0.00778453 0.0367835 -0.00455055 0.00150128 0.0395289 0.0204115 0.00377255 0.0319678 
0.0247962 0.00588339 0.0399039 -0.0257198 0.0119578 0.0329136 0.000454301 0.0148694 0.0372016 
0.0256478 0.0186625 0.0339451 -0.0464761 0.0279315 0.0327101 -0.0389831 0.022158 0.0352561 
-0.0229804 0.0207032 0.0302611 -0.00779688 0.0232245 0.0315101 0.00726244 0.0294201 0.0379177 
0.0169926 0.0290742 0.0375063 0.0123948 0.0209427 0.0355681 0.015188 0.0274166 0.0333912 
0.0353629 0.0227054 0.0365498 0.0312957 0.0256051 0.0304195 -0.045104 0.0346938 0.0301015 
-0.0202821 0.0365189 0.0342533 -0.00449537 0.0322872 0.0308828 -0.00816789 0.0372773 0.0356387 
0.00640669 0.0396476 0.0358941 0.00157773 0.035126 0.0368139 0.0186019 0.0380972 0.0373522 
-0.0426127 0.0478451 0.0358295 -0.0391036 0.0419387 0.0387454 -0.0264287 0.040691 0.030302 
-0.0086156 0.0453933 0.0304781 0.0237418 0.0428072 0.0337893 -0.0317075 -0.0428566 0.0424064 
-0.0141429 -0.0418956 0.0468388 -0.00754748 -0.045957 0.0478726 -0.025537 -0.0364216 0.0440626 
-0.0146421 -0.030138 0.0405913 -0.00583401 -0.0333143 0.0454863 0.0381248 -0.0398935 0.0422245 
0.0306804 -0.0311584 0.0416332 0.044759 -0.0376616 0.0475657 -0.0410316 -0.0285882 0.0416762 
-0.033998 -0.0232001 0.048148 -0.0275684 -0.0267786 0.045485 0.000987131 -0.0226595 0.0468596 
0.013777 -0.0294018 0.0422446 0.024845 -0.020748 0.0433843 0.0419324 -0.0273437 0.0471878 
-0.0416611 -0.0173181 0.0415619 -0.0208002 -0.0129424 0.0410358 -0.0110374 -0.0165924 0.0469612 
4.1381e-05 -0.0122975 0.0420479 0.00186869 -0.0194684 0.0429886 0.0360753 -0.0150021 0.047025 
-0.0403591 -0.00225842 0.0435679 -0.0153111 -0.00399791 0.0421244 0.0192119 -0.00958189 0.0448678 
0.0283561 -0.00363905 0.0415434 -0.0230774 0.00306596 0.041622 -0.011515 0.00556476 0.0405398 
0.00421974 0.00290217 0.0418096 0.0396747 0.00269155 0.0424605 -0.0458343 0.0149669 0.0411876 
-0.0358327 0.0135613 0.0473376 -0.0293932 0.0164882 0.043479 -0.0191838 0.0124016 0.0472043 
0.016349 0.014088 0.0423563 0.0273557 0.0147377 0.0461403 0.04261 0.0123089 0.0448393 
-0.046274 0.0213333 0.0460789 -0.0234534 0.0259309 0.0481264 -0.0133311 0.0239071 0.0459109 
0.0171396 0.0292972 0.0458623 0.0273274 0.0251463 0.0447343 0.0335271 0.0282561 0.0437933 
0.044991 0.0263019 0.0428724 -0.0456525 0.0382134 0.0450961 -0.032461 0.0372753 0.0458472 
-0.0247839 0.0388717 0.0475277 0.0385093 0.0317383 0.0419975 0.0408891 0.0342744 0.0453331 
-0.0283018 0.0438669 0.0423305 -0.0201253 0.0421065 0.0407556 -0.0134242 0.0415633 0.0411359 
0.00152821 0.0450656 0.0409766 0.0275037 0.0426823 0.0416283 0.0282316 0.045778 0.0467638 

VERTICES 1134 1134
1 0 
1 1 
1 2 
1 3 
1 4 
1 5 
1 6 
1 7 
1 8 
1 9 
1 10 
1 11 
1 12 
1 13 
1 14 
1 15 
1 16 
1 17 
1 18 
1 19 
1 20 
1 21 
1 22 
1 23 
1 24 
1 25 
1 26 
1 27 
1 28 
1 29 
1 30 
1 31 
1 32 
1 33 
1 34 
1 35 
1 36 
1 37 
1 38 
1 39 
1 40 
1 41 
1 42 
1 43 
1 44 
1 45 
1 46 
1 47 
1 48 
1 49 
1 50 
1 51 
1 52 
1 53 
1 54 
1 55 
1 56 
1 57 
1 58 
1 59 
1 60 
1 61 
1 62 
1 63 
1 64 
1 65 
1 66 
1 67 
1 68 
1 69 
1 70 
1 71 
1 72 
1 73 
1 74 
1 75 
1 76 
1 77 
1 78 
1 79 
1 80 
1 81 
1 82 
1 83 
1 84 
1 85 
1 86 
1 87 
1 88 
1 89 
1 90 
1 91 
1 92 
1 93 
1 94 
1 95 
1 96 
1 97 
1 98 
1 99 
1 100 
1 101 
1 102 
1 103 
1 104 
1 105 
1 106 
1 107 
1 108 
1 109 
1 110 
1 111 
1 112 
1 113 
1 114 
1 115 
1 116 
1 117 
1 118 
1 119 
1 120 
1 121 
1 122 
1 123 
1 124 
1 125 
1 126 
1 127 
1 128 
1 129 
1 130 
1 131 
1 132 
1 133 
1 134 
1 135 
1 136 
1 137 
1 138 
1 139 
1 140 
1 141 
1 142 
1 143 
1 144 
1 145 
1 146 
1 147 
1 148 
1 149 
1 150 
1 151 
1 152 
1 153 
1 154 
1 155 
1 156 
1 157 
1 158 
1 159 
1 160 
1 161 
1 162 
1 163 
1 164 
1 165 
1 166 
1 167 
1 168 
1 169 
1 170 
1 171 
1 172 
1 173 
1 174 
1 175 
1 176 
1 177 
1 178 
1 179 
1 180 
1 181 
1 182 
1 183 
1 184 
1 185 
1 186 
1 187 
1 188 
1 189 
1 190 
1 191 
1 192 
1 193 
1 194 
1 195 
1 196 
1 197 
1 198 
1 199 
1 200 
1 201 
1 202 
1 203 
1 204 
1 205 
1 206 
1 207 
1 208 
1 209 
1 210 
1 211 
1 212 
1 213 
1 214 
1 215 
1 216 
1 217 
1 218 
1 219 
1 220 
1 221 
1 222 
1 223 
1 224 
1 225 
1 226 
1 227 
1 228 
1 229 
1 230 
1 231 
1 232 
1 233 
1 234 
1 235 
1 236 
1 237 
1 238 
1 239 
1 240 
1 241 
1 242 
1 243 
1 244 
1 245 
1 246 
1 247 
1 248 
1 249 
1 250 
1 251 
1 252 
1 253 
1 254 
1 255 
1 256 
1 257 
1 258 
1 259 
1 260 
1 261 
1 262 
1 263 
1 264 
1 265 
1 266 
1 267 
1 268 
1 269 
1 270 
1 271 
1 272 
1 273 
1 274 
1 275 
1 276 
1 277 
1 278 
1 279 
1 280 
1 281 
1 282 
1 283 
1 284 
1 285 
1 286 
1 287 
1 288 
1 289 
1 290 
1 291 
1 292 
1 293 
1 294 
1 295 
1 296 
1 297 
1 298 
1 299 
1 300 
1 301 
1 302 
1 303 
1 304 
1 305 
1 306 
1 307 
1 308 
1 309 
1 310 
1 311 
1 312 
1 313 
1 314 
1 315 
1 316 
1 317 
1 318 
1 319 
1 320 
1 321 
1 322 
1 323 
1 324 
1 325 
1 326 
1 327 
1 328 
1 329 
1 330 
1 331 
1 332 
1 333 
1 334 
1 335 
1 336 
1 337 
1 338 
1 339 
1 340 
1 341 
1 342 
1 343 
1 344 
1 345 
1 346 
1 347 
1 348 
1 349 
1 350 
1 351 
1 352 
1 353 
1 354 
1 355 
1 356 
1 357 
1 358 
1 359 
1 360 
1 361 
1 362 
1 363 
1 364 
1 365 
1 366 
1 367 
1 368 
1 369 
1 370 
1 371 
1 372 
1 373 
1 374 
1 375 
1 376 
1 377 
1 378 
1 379 
1 380 
1 381 
1 382 
1 383 
1 384 
1 385 
1 386 
1 387 
1 388 
1 389 
1 390 
1 391 
1 392 
1 393 
1 394 
1 395 
1 396 
1 397 
1 398 
1 399 
1 400 
1 401 
1 402 
1 403 
1 404 
1 405 
1 406 
1 407 
1 408 
1 409 
1 410 
1 411 
1 412 
1 413 
1 414 
1 415 
1 416 
1 417 
1 418 
1 419 
1 420 
1 421 
1 422 
1 423 
1 424 
1 425 
1 426 
1 427 
1 428 
1 429 
1 430 
1 431 
1 432 
1 433 
1 434 
1 435 
1 436 
1 437 
1 438 
1 439 
1 440 
1 441 
1 442 
1 443 
1 444 
1 445 
1 446 
1 447 
1 448 
1 449 
1 450 
1 451 
1 452 
1 453 
1 454 
1 455 
1 456 
1 457 
1 458 
1 459 
1 460 
1 461 
1 462 
1 463 
1 464 
1 465 
1 466 
1 467 
1 468 
1 469 
1 470 
1 471 
1 472 
1 473 
1 474 
1 475 
1 476 
1 477 
1 478 
1 479 
1 480 
1 481 
1 482 
1 483 
1 484 
1 485 
1 486 
1 487 
1 488 
1 489 
1 490 
1 491 
1 492 
1 493 
1 494 
1 495 
1 496 
1 497 
1 498 
1 499 
1 500 
1 501 
1 502 
1 503 
1 504 
1 505 
1 506 
1 507 
1 508 
1 509 
1 510 
1 511 
1 512 
1 513 
1 514 
1 515 
1 516 
1 517 
1 518 
1 519 
1 520 
1 521 
1 522 
1 523 
1 524 
1 525 
1 526 
1 527 
1 528 
1 529 
1 530 
1 531 
1 532 
1 533 
1 534 
1 535 
1 536 
1 537 
1 538 
1 539 
1 540 
1 541 
1 542 
1 543 
1 544 
1 545 
1 546 
1 547 
1 548 
1 549 
1 550 
1 551 
1 552 
1 553 
1 554 
1 555 
1 556 
1 557 
1 558 
1 559 
1 560 
1 561 
1 562 
1 563 
1 564 
1 565 
1 566 

POINT_DATA 567
SCALARS id double
LOOKUP_TABLE default
249 26 129 253 211 69 379 526 320 
8 23 190 269 206 261 402 325 385 
400 512 441 78 63 73 91 256 205 
329 469 455 396 42 71 35 7 266 
336 409 318 464 227 213 154 274 472 
99 182 103 140 87 217 147 337 401 
414 470 393 476 413 478 113 183 352 
240 408 434 549 536 533 37 234 185 
311 105 281 365 546 421 499 553 492 
50 248 176 58 295 427 282 555 497 
562 287 314 232 303 554 484 547 72 
203 18 257 444 327 505 532 20 198 
189 135 200 268 390 331 326 381 322 
82 77 133 65 315 79 335 406 323 
112 29 84 214 210 416 280 259 519 
61 56 273 81 270 224 399 290 407 
471 539 508 474 28 108 21 267 411 
487 32 241 159 148 289 283 417 419 
245 175 180 364 370 351 372 552 563 
49 117 168 121 309 123 358 420 46 
38 184 179 428 373 305 430 561 490 
76 66 70 316 255 260 510 254 1 
150 143 134 4 2 131 330 518 252 
542 17 25 31 196 204 161 192 524 
387 517 460 557 43 162 207 141 263 
458 386 535 15 275 157 149 397 463 
498 350 94 80 279 354 404 541 537 
45 107 53 346 152 238 237 418 116 
233 86 225 170 423 485 491 181 186 
345 377 483 301 246 493 566 564 371 
288 357 19 319 264 506 507 201 136 
199 451 514 448 142 338 398 380 528 
93 55 85 339 197 332 340 443 465 
513 54 221 167 285 219 341 540 95 
109 97 284 293 475 343 235 118 239 
92 163 482 299 473 481 425 353 479 
52 247 226 362 486 300 312 307 367 
435 122 124 187 242 368 500 130 83 
6 64 195 383 16 271 333 462 453 
13 160 208 138 215 324 456 96 153 
276 102 51 228 461 531 403 521 545 
296 277 212 522 165 158 291 173 356 
530 304 218 231 433 556 119 106 169 
60 125 359 243 437 302 558 496 488 
44 440 250 244 431 375 75 3 391 
447 442 139 34 145 68 328 389 0 
137 459 405 515 378 388 90 222 468 
523 509 334 392 363 394 466 30 298 
155 209 166 286 543 348 294 495 551 
230 502 114 236 438 501 559 67 9 
262 317 321 193 272 74 11 5 24 
191 216 446 504 41 27 171 12 156 
146 452 100 144 342 128 454 516 48 
101 412 347 40 467 477 223 424 349 
534 111 355 426 39 313 251 297 376 
538 220 360 366 544 174 344 415 374 
560 494 429 188 172 110 306 310 132 
194 265 202 127 384 525 395 511 33 
98 104 89 449 520 457 10 62 88 
22 278 382 126 258 410 445 115 292 
527 450 14 432 36 151 439 489 422 
120 229 164 480 548 529 550 178 57 
59 503 565 47 177 361 308 369 436 

FIELD FieldData 7
r 3 567 double
-0.0381726 0.0365557 -0.0306013 -0.0449804 -0.0462616 -0.0256593 -0.0305293 -0.0434163 -0.0207555 
-0.01238 -0.0432631 -0.0275032 -0.00307831 -0.043164 -0.0221661 0.00741041 -0.0454111 -0.0231429 
0.0185823 -0.0451705 -0.0240063 0.0276869 -0.0457245 -0.0206938 0.0394817 -0.0444041 -0.0245391 
-0.0405097 -0.0381688 -0.0269887 -0.0358988 -0.0316788 -0.0215714 -0.0273723 -0.0391138 -0.0274035 
-0.0164672 -0.0377996 -0.0207336 -0.0185362 -0.031187 -0.0268502 0.00364971 -0.0382508 -0.0205733 
0.0120937 -0.037954 -0.0228916 0.0175906 -0.0327316 -0.0260175 0.0247044 -0.0366561 -0.0262155 
0.0299916 -0.0301839 -0.0241526 0.0328873 -0.0386274 -0.0215421 0.0454666 -0.0381925 -0.0271769 
-0.046036 -0.0281382 -0.0224772 -0.0304069 -0.0268296 -0.0268766 -0.0230378 -0.0235099 -0.0257182 
-0.0141818 -0.0236293 -0.0274352 -0.00451068 -0.0253083 -0.0261169 0.00275226 -0.0258227 -0.0207661 
0.0107076 -0.0250446 -0.0215956 0.023039 -0.0218026 -0.0229394 0.0398838 -0.0257257 -0.0243381 
0.0456614 -0.0209875 -0.0205013 -0.0387943 -0.0109748 -0.0245249 -0.0374717 -0.0191499 -0.0231426 
-0.0287231 -0.0120061 -0.0201816 -0.0281988 -0.0175079 -0.0259815 -0.0204128 -0.0170444 -0.0200074 
-0.00210015 -0.0182306 -0.0294631 0.020952 -0.0137743 -0.0220978 0.0285821 -0.0165314 -0.0207723 
0.0437203 -0.0128487 -0.0227007 -0.0297346 -0.00103185 -0.0231089 -0.0203923 -0.00744593 -0.0225764 
-0.00563746 -0.00619345 -0.0241164 0.0152128 -0.00697094 -0.0225963 0.0367827 -0.00648714 -0.0265711 
-0.0425129 0.00890442 -0.027627 -0.0456129 0.00198139 -0.0202414 -0.029642 0.00684044 -0.0204442 
-0.022488 0.00245939 -0.021848 -0.0133651 0.00202967 -0.0234347 -0.00574787 0.0034449 -0.0203067 
0.00221932 0.00167992 -0.0251289 0.0186748 0.00270102 -0.0203935 0.0189324 0.00971618 -0.0246584 
0.0107674 0.00619326 -0.0207083 0.0285464 0.0075713 -0.0200848 0.0277048 0.000112416 -0.0242915 
0.0357387 0.00364715 -0.0226677 0.040417 0.00994805 -0.0204417 0.0442026 0.00201799 -0.0265056 
-0.0235116 0.018048 -0.0212056 -0.0190533 0.0114311 -0.0253738 -0.00533932 0.0199846 -0.0239205 
-0.00723515 0.0118946 -0.0262165 0.0132897 0.0162219 -0.0250478 0.0234575 0.0153859 -0.0213944 
0.0319856 0.0130613 -0.0260454 0.0367428 0.0195477 -0.0234958 0.0446633 0.0150683 -0.0249748 
-0.0459755 0.0214141 -0.0234882 -0.0326792 0.0207822 -0.0255437 -0.038047 0.0266272 -0.0259665 
-0.0208272 0.0237531 -0.0258982 -0.0149154 0.0222247 -0.0202734 -0.00491803 0.0289264 -0.0218893 
0.00473169 0.0288049 -0.0227007 0.013801 0.0241526 -0.0207252 0.0289117 0.0211206 -0.0240541 
0.0228003 0.0293149 -0.0243238 0.0319602 0.0297612 -0.0237161 0.0459236 0.0260888 -0.0240063 
-0.0454902 0.0340661 -0.0269599 -0.0324915 0.0390029 -0.0243849 -0.0250538 0.0341756 -0.0209713 
-0.0155656 0.0317695 -0.0227252 -0.00546362 0.0367544 -0.0229134 0.0086544 0.0377431 -0.021105 
0.0127092 0.031561 -0.0246886 0.0260014 0.0374665 -0.0223662 0.0400052 0.0318377 -0.023886 
0.0458468 0.0372774 -0.0238985 -0.022187 0.0401043 -0.0271003 -0.0130836 0.0412971 -0.0239794 
-0.00550136 0.0457273 -0.0238322 0.00268173 0.0440139 -0.0202211 0.0122674 0.0451443 -0.0205596 
0.0347628 0.0415913 -0.0240543 0.045996 0.0456325 -0.0216612 -0.0399664 -0.0447817 -0.0156501 
-0.0224872 -0.0435976 -0.0164982 -0.0140168 -0.0446248 -0.0176957 0.00290853 -0.0411273 -0.0112195 
0.0156873 -0.0437512 -0.0124789 0.0248363 -0.0454151 -0.0129021 0.034314 -0.0441493 -0.0144396 
0.0449396 -0.0432889 -0.0152796 -0.0440347 -0.0353909 -0.0196759 -0.0376374 -0.0361955 -0.0137061 
-0.0295836 -0.0330222 -0.0165323 -0.00699322 -0.0398137 -0.0119754 -0.0091799 -0.0308511 -0.0127708 
-0.00325162 -0.0339728 -0.0190797 0.00972142 -0.034925 -0.0136073 0.0174439 -0.0353326 -0.0123021 
0.0204331 -0.0399623 -0.0182873 0.023466 -0.0301709 -0.0172978 0.0389708 -0.0331242 -0.0118596 
-0.042351 -0.0247709 -0.0135643 -0.0340671 -0.0254981 -0.0152768 -0.0212589 -0.0298786 -0.0170728 
-0.0148898 -0.0256214 -0.0131628 -0.00746742 -0.0210208 -0.0100409 0.00783271 -0.0204163 -0.0148431 
0.0130768 -0.0258524 -0.0116872 0.0339177 -0.0223277 -0.0128992 0.0441422 -0.0257067 -0.0123324 
-0.0441912 -0.017649 -0.01934 -0.0356019 -0.013784 -0.0136922 -0.0279127 -0.0168013 -0.0124628 
-0.0113822 -0.0127725 -0.0130847 -0.00867091 -0.0186103 -0.0179996 0.00623281 -0.0131213 -0.0194253 
0.0146261 -0.0181866 -0.0188236 0.0211103 -0.0179322 -0.0141764 0.0364615 -0.0182593 -0.0194425 
-0.0448597 -0.00950136 -0.0184627 -0.0350389 -0.00562828 -0.0184683 -0.0205566 -0.00137342 -0.013647 
-0.0125957 -0.0051426 -0.0193586 -0.00246385 -0.00763668 -0.0120679 -0.00929555 -0.00185496 -0.0121003 
0.00315725 -0.000329276 -0.014484 0.00562321 -0.00847485 -0.0128569 0.0101954 -0.00177006 -0.0192705 
0.0122986 -0.00106309 -0.0113121 0.0230077 -0.00387454 -0.0185133 0.0334764 -0.00722403 -0.0182734 
0.0322013 -0.00344386 -0.0105933 -0.0426259 0.00875592 -0.0115006 -0.0360245 0.00327997 -0.0152122 
-0.0143024 0.00716765 -0.0162814 0.0042067 0.00865625 -0.0112684 0.0248654 0.00281011 -0.0150623 
0.0458623 0.00658591 -0.0137488 -0.0455248 0.0135929 -0.0177337 -0.0325027 0.0150455 -0.0198494 
-0.0188336 0.0135455 -0.0117439 -0.00976353 0.0158268 -0.0131118 0.00393934 0.0127894 -0.0196292 
0.0137558 0.010533 -0.0119452 0.0292293 0.0148109 -0.0131129 0.0384336 0.0187755 -0.0156396 
-0.045915 0.0233658 -0.0103341 -0.0386311 0.0227821 -0.015997 -0.0275765 0.0284445 -0.0158987 
-0.0164749 0.0218791 -0.0103115 -0.00884226 0.0251472 -0.012569 0.00525245 0.0219423 -0.0177111 
0.0247973 0.0234559 -0.0119841 0.0461565 0.0201868 -0.013526 0.0436126 0.028702 -0.0148931 
-0.0421473 0.0381306 -0.016878 -0.0386717 0.0308368 -0.01179 -0.0344494 0.0310661 -0.0197457 
-0.0276695 0.0363157 -0.0102539 0.00155073 0.0344344 -0.0155128 0.0181773 0.0367118 -0.0180927 
0.0255765 0.036533 -0.013952 0.0323517 0.0300711 -0.0124647 -0.0409752 0.0438523 -0.0108515 
-0.0419654 0.0457999 -0.0192017 -0.0303342 0.0432449 -0.0157933 -0.0213984 0.0459629 -0.0154007 
-0.0130129 0.0455998 -0.0159084 -0.00652626 0.042417 -0.0127314 0.000536894 0.045253 -0.0107979 
0.0221395 0.0448569 -0.0158788 0.0314249 0.0435764 -0.0146178 0.0421975 0.0435944 -0.0138873 
-0.0451414 -0.0461489 -0.0074023 -0.0308372 -0.0424719 -0.00974204 -0.0262026 -0.0411036 -0.00251633 
-0.0153206 -0.0446261 -0.00195733 -0.00745257 -0.0461278 -0.00465071 0.00800623 -0.0462398 -0.00518899 
0.0280768 -0.0455693 -0.00579379 -0.0455607 -0.0372354 -0.00745922 -0.045888 -0.0312799 -5.39069e-05 
-0.0331693 -0.0360781 -0.0024792 -0.0256852 -0.0356084 -0.00957496 -0.0145137 -0.0322856 -0.00390721 
-0.0141567 -0.038617 -0.00874869 -0.003349 -0.0388419 -0.00520595 0.00644617 -0.0389122 -0.00146171 
0.0125226 -0.0347325 -0.00434755 0.0268801 -0.0308375 -0.000436115 0.0217107 -0.0388622 -0.00337189 
0.0412492 -0.030332 -0.00208796 -0.0379473 -0.0206275 -0.00499337 -0.0305001 -0.0284106 -0.00334601 
-0.0265735 -0.0205238 -0.00433877 -0.0217276 -0.0265769 -0.00986613 -0.00676177 -0.0296728 -0.00504584 
-0.00158937 -0.0228718 -0.00471194 0.00446416 -0.0299982 -0.0048499 0.0133621 -0.0261404 -0.00115394 
0.0227727 -0.024997 -0.00974713 0.0320739 -0.0214944 -0.00357214 0.0314417 -0.0284809 -0.00801676 
0.0449653 -0.0207463 -0.000984018 -0.0456554 -0.0115248 -0.00911606 -0.0256184 -0.0105124 -0.00749218 
-0.0133468 -0.0145135 -0.00213376 -0.0177217 -0.0183406 -0.00892365 -0.000226224 -0.0135116 -0.00591702 
0.0137036 -0.0110738 -0.00353688 0.0320365 -0.0131478 -0.00701326 0.040472 -0.0187082 -0.00797396 
-0.0454272 -0.00104954 -0.00902622 -0.0335962 -0.00246224 -0.00936408 -0.0178867 -0.00878456 -0.00893759 
-0.0196775 -0.0015758 -0.00255304 -0.00161251 -0.00705597 -0.00146426 0.0187419 -0.00687544 -0.00925807 
0.0462443 -0.00921359 -0.000460064 0.0441465 -0.00602596 -0.00982068 -0.0269161 0.00093094 -0.00722245 
-0.0149948 0.0043447 -0.00918565 -0.0055091 0.0039638 -0.00466638 0.0262887 0.0072883 -0.00569037 
0.0327637 0.00681276 -0.000342997 0.0387845 0.0031624 -0.00996791 0.0460431 0.00397789 -0.00543241 
-0.0430114 0.017049 -0.00701995 -0.034995 0.0179942 -0.00960504 -0.026396 0.0128093 -0.00209406 
-0.00548605 0.019603 -0.00370767 -0.0065108 0.0117679 -0.00168035 0.00161203 0.014914 -0.00574139 
0.0203788 0.0159563 -0.00819419 0.0371927 0.0116561 -0.0082106 -0.0336738 0.0256537 -0.00856518 
-0.0254995 0.0240762 -0.00425537 -0.0132991 0.0235042 -0.000275749 0.00509396 0.0265966 -0.00433588 
0.00851662 0.0200573 -0.00915771 0.0156818 0.0228096 -0.000239822 0.0381321 0.0283965 -0.00593395 
0.040769 0.0207469 -0.00503706 -0.0432515 0.0387939 -0.0029902 -0.0353855 0.0323399 -0.00362862 
-0.0172574 0.0351214 -0.00507402 -0.00290584 0.0386179 -0.00144666 0.0114596 0.0358388 -0.00376506 
0.0204997 0.0331087 -0.000427197 0.0214984 0.0312548 -0.00807946 0.0317307 0.039237 -0.00180154 
0.0407538 0.0381885 -0.00564889 0.0448976 0.0304906 -0.000919126 -0.028017 0.0447593 -0.00580381 
0.00767829 0.0425557 -0.00532022 0.0229655 0.0425364 -0.00577462 -0.0396784 -0.0406254 0.00273535 
-0.00126129 -0.0406083 0.00558243 0.0199311 -0.0456092 0.00271377 0.0368574 -0.0423895 0.00342962 
0.0449693 -0.0462562 0.00116714 -0.0226085 -0.030097 0.00725754 -0.0192392 -0.0377673 0.00609551 
-0.00910294 -0.0396483 0.00207229 0.0101831 -0.0310417 0.00718057 0.0351883 -0.033227 0.00304853 
0.0445799 -0.03851 0.00923356 -0.0192153 -0.0226424 0.00381544 0.00332679 -0.0243727 0.00824333 
0.0177599 -0.0258808 0.00607306 0.029264 -0.0293336 0.00826075 0.0364153 -0.0248355 0.0026585 
-0.0391653 -0.0114026 0.00680133 -0.0377004 -0.0189565 0.00526009 -0.0210695 -0.0139871 0.0010415 
-0.00481184 -0.013534 0.0088149 -0.00878593 -0.0183007 0.00293584 0.0135211 -0.01526 0.00511537 
0.0270518 -0.0186976 0.00379936 0.0266196 -0.0109913 0.000476905 0.0387827 -0.011849 0.00288104 
0.0431704 -0.017961 0.00640498 -0.0426453 -0.00776477 0.000461805 -0.00920882 -0.000941587 0.00903912 
-0.00898696 -0.00731531 0.00448875 0.00361744 -0.0081329 0.00553477 0.0126722 -0.000136405 0.000403168 
0.0201363 -0.00754875 0.00378927 0.0344268 -0.000470561 0.00398901 -0.0412072 0.00294155 0.00327101 
-0.0212813 0.00844023 0.00263801 -0.0293437 0.00275066 0.0012619 -4.41324e-05 0.00243971 0.0018775 
0.00723772 0.00888199 0.00780603 0.0191625 0.00294951 0.00763429 0.0233185 0.000853372 0.000854452 
-0.0364681 0.0177002 0.00831826 -0.0385913 0.01423 0.000709355 -0.0234718 0.0192189 0.00601714 
-0.00991803 0.0166848 0.00419582 -0.00149425 0.011046 0.00699718 0.0125944 0.0146595 0.00995441 
0.0129913 0.0151144 0.000330288 0.0200476 0.0114851 0.000633245 0.0205971 0.0164352 0.00856169 
0.0289554 0.0167243 0.0096743 0.027867 0.0136011 0.00154642 0.0329072 0.0102429 0.00795023 
-0.0441419 0.0261168 0.0038179 -0.0345356 0.0235097 0.00197097 -0.00550567 0.02711 0.00323532 
0.00918073 0.0287391 0.0061692 0.0248654 0.0255949 0.00911883 -0.022891 0.0363579 0.000487356 
-0.00283309 0.0392396 0.00825006 0.00150388 0.0323698 0.0096494 0.028431 0.0326423 0.00246197 
0.0373858 0.0315676 0.0032603 -0.0382767 0.0451687 0.00804339 -0.0332736 0.0407755 0.00233714 
-0.0186919 0.0431737 0.00688028 -0.0103494 0.043614 0.000377239 0.0335519 0.0455896 0.00341202 
0.0426128 0.0458524 0.00333501 -0.0438135 -0.0446177 0.0108906 -0.029117 -0.0436821 0.011492 
-0.0185055 -0.0456405 0.0157363 -0.00974268 -0.0409883 0.0124029 0.00354207 -0.0448812 0.0145175 
0.0154455 -0.0429475 0.0188959 -0.0442236 -0.0322771 0.0122959 -0.00133018 -0.0370697 0.0136945 
0.0284792 -0.0367033 0.0154961 0.0355613 -0.0322999 0.0151158 0.0461729 -0.0323477 0.0186353 
-0.038122 -0.0216018 0.0192076 -0.02535 -0.0203147 0.0197906 -0.00361951 -0.028252 0.0101743 
-0.00785401 -0.0246001 0.0159706 0.00481387 -0.0288229 0.0185891 0.0267607 -0.0281216 0.0157742 
0.0371097 -0.0201825 0.0142477 -0.0429312 -0.0168669 0.0119818 -0.0282767 -0.0166006 0.0118138 
0.00645578 -0.0128332 0.0118204 -0.0332293 -0.00718886 0.0159031 -0.0366278 -0.0011037 0.0102417 
-0.0250969 -0.00394973 0.0147856 0.0104405 -0.00602194 0.0101058 0.0263238 -0.00735858 0.0107322 
0.0343279 -0.00895987 0.0133049 0.0445889 -0.00819526 0.0103726 0.0448039 -0.00146626 0.0196981 
-0.0168211 0.00548139 0.0134577 -0.00169622 0.00237815 0.0103438 -0.00791604 0.00933909 0.0190104 
0.0424272 0.00740347 0.0134013 -0.0329955 0.0188862 0.015168 -0.0374479 0.0116554 0.0164241 
-0.0241215 0.0112006 0.0163156 -0.0104998 0.0125909 0.011687 0.00512431 0.0142887 0.0189003 
0.038024 0.0192055 0.0164372 -0.043681 0.0217046 0.0149797 -0.0165135 0.0202777 0.0128966 
-0.00284952 0.0225339 0.0119625 0.0203165 0.0212927 0.0184851 0.0353442 0.026774 0.0173445 
-0.0433877 0.0303153 0.0130584 -0.0313221 0.0341852 0.0176705 -0.0367193 0.0386503 0.0126631 
-0.0259238 0.0382955 0.0103375 -0.0187151 0.0350077 0.0182317 -0.0127869 0.0369544 0.0118354 
-0.00792973 0.0308696 0.0144138 0.0150839 0.0386086 0.0113695 0.0114617 0.0312482 0.0150271 
0.032197 0.0358591 0.0113478 0.0383862 0.0353721 0.0195679 0.0445143 0.0301827 0.0111723 
-0.0453433 0.0445552 0.0118562 -0.035713 0.0455774 0.016651 -0.0299371 0.0454091 0.0114361 
-0.0121282 0.0452697 0.0167778 -0.00382517 0.0436574 0.0169168 0.0294354 0.0443543 0.0119963 
-0.0429728 -0.0430084 0.0243618 -0.0217824 -0.0447961 0.0263878 -0.00433067 -0.0432465 0.0262244 
0.0058853 -0.0430903 0.029072 0.0401513 -0.0433035 0.0253542 -0.0368036 -0.0360284 0.0226541 
-0.0289514 -0.0351763 0.0220307 -0.0223786 -0.0303911 0.0274485 -0.0105629 -0.0351831 0.0247254 
0.0137329 -0.0341003 0.0208617 0.0332861 -0.0363731 0.0229829 -0.0451613 -0.0297172 0.0201831 
0.00410613 -0.020583 0.0245152 0.0246691 -0.0219991 0.0221709 0.0323194 -0.0265162 0.0225873 
0.0378247 -0.0236457 0.0295949 0.0432098 -0.0231386 0.0205775 0.0459979 -0.0285748 0.0253825 
-0.0147129 -0.0109965 0.0274847 -0.00862718 -0.0147985 0.0225405 0.0171072 -0.0137025 0.0261568 
0.0280101 -0.0138523 0.0235539 0.0423112 -0.0111969 0.0243597 -0.00315398 -0.0073929 0.0210562 
0.00132798 -0.000373108 0.0234618 0.0163542 -0.00530287 0.0208761 0.0218587 -0.00164665 0.0240751 
0.0325009 -0.00935115 0.0295519 -0.0414993 0.00714088 0.0225285 -0.0154587 0.00482448 0.028069 
0.00477654 0.00844458 0.0242901 0.00741571 0.00527184 0.0291801 -0.0298161 0.012438 0.0217264 
-0.0179336 0.0155506 0.0254491 0.00872597 0.0183478 0.0254503 0.0227185 0.0198929 0.0274372 
-0.0281269 0.026579 0.0201673 0.029915 0.0207353 0.02222 0.0415453 0.0271608 0.0230621 
-0.0153757 0.0309326 0.0237383 0.0121872 0.0386417 0.0245293 -0.0424374 0.0410889 0.0270167 
0.0039783 0.0402694 0.0238458 0.0232988 0.0452433 0.0256949 0.0350871 0.0446213 0.0295445 
0.0426343 0.041769 0.0243398 -0.0437775 -0.0431558 0.0399582 -0.0346127 -0.0434103 0.0300984 
-0.0155122 -0.0443337 0.0325944 -0.0150481 -0.0468964 0.0390491 -0.00249886 -0.0433622 0.0348565 
0.0240604 -0.0434553 0.036075 0.0339166 -0.0405193 0.0368312 -0.0462352 -0.034331 0.0371362 
-0.0349145 -0.0362489 0.0348598 -0.0268659 -0.0372184 0.0304146 -0.0298655 -0.0315672 0.033785 
-0.0120241 -0.033425 0.0342695 0.00988421 -0.0346191 0.0389154 0.0435294 -0.0300418 0.0325601 
0.047417 -0.0347266 0.0353979 -0.0394378 -0.022164 0.0310953 -0.0347804 -0.0267301 0.0393495 
-0.0292656 -0.0211556 0.0395293 -0.0104786 -0.0221838 0.0363873 -0.00577481 -0.0289751 0.0391929 
0.00555544 -0.029862 0.0379598 0.0432115 -0.0227437 0.0387526 -0.0351072 -0.0171823 0.0360966 
-0.0108523 -0.0146491 0.0315274 0.00785033 -0.0117902 0.0396195 0.0164091 -0.0137268 0.0377895 
0.0225931 -0.0160581 0.0384618 0.043741 -0.0178412 0.0311761 -0.0395238 -0.00125947 0.0351659 
-0.0253412 -0.00520219 0.0348051 -0.00212551 -0.00266872 0.0360958 -0.00967979 -0.00125112 0.0327235 
0.0261578 -9.61798e-05 0.0394186 0.0340395 -0.00895114 0.0388277 0.0378069 -0.00258894 0.0399746 
-0.0239415 0.00778453 0.0367835 -0.00455055 0.00150128 0.0395289 0.0204115 0.00377255 0.0319678 
0.0247962 0.00588339 0.0399039 -0.0257198 0.0119578 0.0329136 0.000454301 0.0148694 0.0372016 
0.0256478 0.0186625 0.0339451 -0.0464761 0.0279315 0.0327101 -0.0389831 0.022158 0.0352561 
-0.0229804 0.0207032 0.0302611 -0.00779688 0.0232245 0.0315101 0.00726244 0.0294201 0.0379177 
0.0169926 0.0290742 0.0375063 0.0123948 0.0209427 0.0355681 0.015188 0.0274166 0.0333913 
0.0353629 0.0227054 0.0365498 0.0312957 0.0256051 0.0304195 -0.045104 0.0346938 0.0301015 
-0.0202821 0.0365189 0.0342533 -0.00449537 0.0322872 0.0308828 -0.00816789 0.0372773 0.0356387 
0.00640669 0.0396476 0.0358941 0.00157773 0.035126 0.0368139 0.0186019 0.0380972 0.0373522 
-0.0426127 0.0478451 0.0358295 -0.0391036 0.0419387 0.0387454 -0.0264287 0.040691 0.030302 
-0.00861561 0.0453933 0.0304781 0.0237418 0.0428072 0.0337893 -0.0317075 -0.0428566 0.0424064 
-0.0141429 -0.0418956 0.0468388 -0.00754748 -0.045957 0.0478726 -0.025537 -0.0364216 0.0440626 
-0.0146421 -0.030138 0.0405912 -0.00583401 -0.0333143 0.0454863 0.0381248 -0.0398935 0.0422245 
0.0306804 -0.0311584 0.0416332 0.044759 -0.0376616 0.0475657 -0.0410316 -0.0285882 0.0416762 
-0.033998 -0.0232001 0.048148 -0.0275684 -0.0267786 0.045485 0.000987131 -0.0226595 0.0468596 
0.013777 -0.0294018 0.0422446 0.024845 -0.020748 0.0433843 0.0419324 -0.0273437 0.0471878 
-0.0416611 -0.0173181 0.0415619 -0.0208002 -0.0129424 0.0410358 -0.0110374 -0.0165924 0.0469612 
4.1381e-05 -0.0122975 0.0420479 0.00186869 -0.0194684 0.0429886 0.0360753 -0.0150021 0.047025 
-0.0403591 -0.00225842 0.0435679 -0.0153111 -0.00399791 0.0421244 0.0192119 -0.00958189 0.0448678 
0.0283561 -0.00363905 0.0415434 -0.0230774 0.00306596 0.041622 -0.011515 0.00556476 0.0405398 
0.00421974 0.00290217 0.0418096 0.0396747 0.00269155 0.0424605 -0.0458343 0.0149669 0.0411876 
-0.0358327 0.0135613 0.0473376 -0.0293932 0.0164882 0.043479 -0.0191838 0.0124016 0.0472043 
0.016349 0.014088 0.0423563 0.0273557 0.0147377 0.0461403 0.04261 0.0123089 0.0448393 
-0.046274 0.0213333 0.0460789 -0.0234534 0.0259309 0.0481264 -0.0133311 0.0239071 0.0459109 
0.0171396 0.0292972 0.0458623 0.0273274 0.0251463 0.0447343 0.0335271 0.0282561 0.0437933 
0.044991 0.0263019 0.0428724 -0.0456525 0.0382134 0.0450961 -0.032461 0.0372753 0.0458472 
-0.0247839 0.0388717 0.0475277 0.0385093 0.0317383 0.0419975 0.0408891 0.0342744 0.0453331 
-0.0283018 0.0438669 0.0423305 -0.0201253 0.0421065 0.0407556 -0.0134242 0.0415633 0.0411359 
0.00152821 0.0450656 0.0409766 0.0275037 0.0426823 0.0416283 0.0282316 0.045778 0.0467638 

gid 1 567 double
0 0 0 0 0 0 0 0 0 
0 0 0 0 0 0 0 0 0 
0 0 0 0 0 0 0 0 0 
0 0 0 0 0 0 0 0 0 
0 0 0 0 0 0 0 0 0 
0 0 0 0 0 0 0 0 0 
0 0 0 0 0 0 0 0 0 
0 0 0 0 0 0 0 0 0 
0 0 0 0 0 0 0 0 0 
0 0 0 0 0 0 0 0 0 
0 0 0 0 0 0 0 0 0 
0 0 0 0 0 0 0 0 0 
0 0 0 0 0 0 0 0 0 
0 0 0 0 0 0 0 0 0 
0 0 0 0 0 0 0 0 0 
0 0 0 0 0 0 0 0 0 
0 0 0 0 0 0 0 0 0 
0 0 0 0 0 0 0 0 0 
0 0 0 0 0 0 0 0 0 
0 0 0 0 0 0 0 0 0 
0 0 0 0 0 0 0 0 0 
0 0 0 0 0 0 0 0 0 
0 0 0 0 0 0 0 0 0 
0 0 0 0 0 0 0 0 0 
0 0 0 0 0 0 0 0 0 
0 0 0 0 0 0 0 0 0 
0 0 0 0 0 0 0 0 0 
0 0 0 0 0 0 0 0 0 
0 0 0 0 0 0 0 0 0 
0 0 0 0 0 0 0 0 0 
0 0 0 0 0 0 0 0 0 
0 0 0 0 0 0 0 0 0 
0 0 0 0 0 0 0 0 0 
0 0 0 0 0 0 0 0 0 
0 0 0 0 0 0 0 0 0 
0 0 0 0 0 0 0 0 0 
0 0 0 0 0 0 0 0 0 
0 0 0 0 0 0 0 0 0 
0 0 0 0 0 0 0 0 0 
0 0 0 0 0 0 0 0 0 
0 0 0 0 0 0 0 0 0 
0 0 0 0 0 0 0 0 0 
0 0 0 0 0 0 0 0 0 
0 0 0 0 0 0 0 0 0 
0 0 0 0 0 0 0 0 0 
0 0 0 0 0 0 0 0 0 
0 0 0 0 0 0 0 0 0 
0 0 0 0 0 0 0 0 0 
0 0 0 0 0 0 0 0 0 
0 0 0 0 0 0 0 0 0 
0 0 0 0 0 0 0 0 0 
0 0 0 0 0 0 0 0 0 
0 0 0 0 0 0 0 0 0 
0 0 0 0 0 0 0 0 0 
0 0 0 0 0 0 0 0 0 
0 0 0 0 0 0 0 0 0 
0 0 0 0 0 0 0 0 0 
0 0 0 0 0 0 0 0 0 
0 0 0 0 0 0 0 0 0 
0 0 0 0 0 0 0 0 0 
0 0 0 0 0 0 0 0 0 
0 0 0 0 0 0 0 0 0 
0 0 0 0 0 0 0 0 0 

a 3 567 double
0 0 0 0 258.627 0 0 0 0 
0 0 0 0 0 0 0 0 0 
-9.07444 -18.1138 -17.6989 0 0 0 0 0 0 
0 0 0 0 0 0 0 0 0 
0 0 0 0 0 0 0 0 0 
0 0 0 4.03151 -1.76904 0.0783483 -4.03151 1.76904 -0.0783483 
0 0 0 0 0 0 0 0 0 
9.65971 30.0038 -7.88911 0 0 0 53.1554 -49.6735 2.94136 
0 0 0 0 0 0 1.00199 -0.00266555 -0.0679046 
-1.00199 0.00266555 0.0679046 0 0 0 0 0 0 
0 0 0 0 0 0 42.1598 -14.4784 -20.421 
0 0 0 -53.1554 49.6735 -2.94136 0 0 0 
0 0 0 0 0 0 0 0 0 
0 0 0 0 0 0 0 0 0 
0 0 0 11.4145 -12.3825 -5.5679 0 0 0 
0 0 0 0 0 0 0 0 0 
0 0 0 0 0 0 0 0 0 
0 0 0 0 0 0 -13.2287 -18.4199 -7.4752 
0 0 0 49.0182 48.9071 -50.9868 0 0 0 
0 0 0 0 0 0 0 0 0 
-11.1501 -20.7166 13.6293 0 0 0 0 0 0 
0 0 0 0 0 0 13.2287 18.4199 7.4752 
0 0 0 16.3871 -2.31472 -0.341509 0 0 0 
0 0 0 63.6726 -54.6932 4.81398 -63.6726 54.6932 -4.81398 
11.1501 20.7166 -13.6293 0 0 0 2.1474 -54.0188 1.72153 
0 0 0 0 0 0 -16.3871 2.31472 0.341509 
0 0 0 0 0 0 5.53586 0 0 
0 0 0 0 0 0 0 0 0 
0 0 0 -2.1474 54.0188 -1.72153 0 0 0 
0 0 0 0 0 0 -1.93843 -1.44536 0.00412304 
1.93843 1.44536 -0.00412304 0 0 0 0 0 0 
0 0 0 0 0 0 0 0 0 
0 0 0 0 0 0 0 0 0 
0 0 0 0 0 0 0 0 0 
0 0 0 -64.4152 -8.53935 -108.498 0 0 0 
0 0 0 6.69673 -30.0038 7.88911 0 0 0 
0 0 0 -40.7111 -31.6533 -126.142 64.5488 -63.5481 -6.31379 
0 0 0 0 0 0 0 0 0 
9.07444 18.1138 17.6989 0 0 0 0 0 0 
0 0 0 0 0 0 0 0 0 
267.605 72.1637 -126.263 0 0 0 0 0 0 
0 0 0 0 0 0 0 0 0 
-42.1598 14.4784 20.421 0 0 0 0 0 0 
0 0 0 0 0 0 0 0 0 
-1.70678 -0.175345 -1.51296 1.70678 0.175345 1.51296 0 0 0 
0 0 0 0 0 0 0 0 0 
0 0 0 0 0 0 0 0 0 
0 0 0 0 0 0 -11.4145 12.3825 5.5679 
0 0 0 -28.9792 -109.838 -41.5895 0 0 0 
0 0 0 0 0 0 0 0 0 
11.4458 88.0241 -162.201 0 0 0 -20.039 60.9312 92.5763 
0 0 0 0 0 0 0 0 0 
0 0 0 0 0 0 0 0 0 
0 0 0 0 0 0 -0.993331 -0.220358 -0.163531 
-32.2329 99.9841 -45.2675 0 0 0 0 0 0 
0 0 0 0 0 0 0 0 0 
0 0 0 -114.49 0.220358 0.163531 0 0 0 
2.03402 -37.4449 15.3277 -14.0509 13.0526 -10.8643 0 0 0 
0 0 0 0 0 0 0 0 0 
0 0 0 0 0 0 0 0 0 
-2.03402 37.4449 -15.3277 0 0 0 0 0 0 
-40.8404 14.058 -17.4498 13.8952 -21.4277 8.79953 26.9452 7.36965 8.65025 
0 0 0 0 0 0 0 0 0 
0 166.011 0 0 0 0 0 0 0 
0 0 0 0 125.895 0 0 326.94 0 
64.4152 8.53935 108.498 0 0 0 0 0 0 
0 0 0 0 0 0 -0.106582 0.846917 0.52612 
-28.3335 1.06739 14.1543 69.1511 29.739 111.462 -66.7665 -42.993 21.0266 
66.7665 42.993 -21.0266 0 0 0 0 0 0 
0 0 0 0 0 0 0 0 0 
0 0 0 -332.154 -8.61558 132.577 0 0 0 
0 0 0 0 0 0 0 0 0 
0 0 0 0 0 0 0 0 0 
0 0 0 0 0 0 0 0 0 
-74.1424 70.0623 -69.6175 0 0 0 0 0 0 
0 0 0 0 0 0 0 0 0 
0 0 0 -86.4018 -32.4034 -22.4141 0 0 0 
0 0 0 0 0 0 0 0 0 
-118.132 0 0 0 0 0 86.4018 32.4034 22.4141 
-11.4458 -88.0241 162.201 0 0 0 0 0 0 
0 0 0 0 0 0 -89.5928 0 0 
32.2329 -99.9841 45.2675 -19.5145 -216.699 -14.4931 0 0 0 
0 0 0 0 0 0 0 0 0 
0 0 0 0 0 0 33.5654 203.646 25.3574 
0 0 0 0 0 0 0 0 0 
0 0 0 0 0 0 0 0 0 
0 0 0 0 0 0 0 0 0 
43.4768 -7.91578 -34.998 0 0 0 14.1817 -18.8166 5.53606 
-0.40325 6.27274 21.6661 0.40325 -6.27274 -21.6661 0 0 0 
0 0 0 0 0 0 0 0 0 
-14.1817 18.8166 -5.53606 0 0 0 0 0 0 
0 0 0 0 0 0 0 0 0 
0 158.457 0 0 0 0 0 0 0 
0 0 0 0 0 0 0 0 0 
0 0 0 0 0 0 0 0 0 
0 0 0 13.4415 -3.3263 -27.1684 0 0 0 
-6.96446 35.8023 2.75639 6.96446 -35.8023 -2.75639 0 0 0 
0 0 0 74.1424 -70.0623 69.6175 0 0 0 
0 0 0 0 0 0 0 0 0 
0 0 0 0 0 0 -2.96361 102.287 90.0732 
2.96361 -102.287 -90.0732 0 0 0 0 0 0 
0 0 0 0 0 0 0 0 0 
0 0 0 0 0 0 0 0 0 
0 0 0 0 0 0 0 0 0 
-140.908 -39.7227 -196.943 0 0 0 0 0 0 
0 0 0 0 0 0 0 0 0 
-4.82006 2.80949 0.396698 4.82006 -2.80949 -0.396698 0 0 0 
-93.997 124.321 29.5751 0 0 0 93.997 -124.321 -29.5751 
0 0 0 0 0 0 0 0 0 
0 0 0 0 0 0 -43.4768 7.91578 34.998 
0 0 0 0 0 0 0 0 0 
0 0 0 0 0 0 0 0 0 
0 0 0 0 0 0 0 0 0 
0 0 0 0 0 0 0 0 0 
0 0 0 0 0 0 0 0 0 
0 0 0 0 0 0 0 0 0 
0 0 0 0 0 0 -283.147 -226.078 -354.858 
0 0 0 0 0 0 0.398238 -0.309306 -0.412201 
-0.398238 0.309306 0.412201 0 0 0 -13.4415 3.3263 27.1684 
0 0 0 0 0 0 0 0 0 
1.21041 1.79436 -0.659073 0 0 0 0 0 0 
0 0 0 -1.21041 -1.79436 0.659073 0 0 0 
0 0 0 0 0 0 0 0 0 
0 0 0 0 0 0 0 0 0 
0 0 0 140.908 39.7227 196.943 0 0 0 
3.18474 -1.11517 -2.66512 0 0 0 0 0 0 
0 0 0 0 0 0 0 0 0 
0 0 0 0 0 0 0 0 0 
0 0 0 0 0 0 -0.046432 -0.467999 -0.204403 
0 0 0 -115.528 101.025 -166.66 0 0 0 
0 0 0 0 0 0 0 0 0 
0 0 0 0 0 0 0 0 0 
0 0 0 -81.6345 -6.42606 60.8944 81.681 6.89406 -60.69 
0 0 0 0 0 0 0 0 0 
0 0 0 0 0 0 0 0 0 
0 0 0 0 0 0 -11.2926 -2.25183 0.217749 
11.2926 2.25183 -0.217749 0 0 0 0 0 0 
0 0 0 0 0 0 0 0 0 
0 0 0 0 0 0 0 0 0 
0 0 0 -36.156 52.8882 -50.1604 -1.28905 173.19 405.019 
-1022.01 1770.29 -1795.97 0 0 0 0 0 0 
0 0 0 0 0 0 0 0 0 
0 0 0 -1047.23 -374.985 -1035.46 1047.23 374.985 1035.46 
0 0 0 0 0 0 0 0 0 
-213.393 189.823 -439.704 213.393 -189.823 439.704 -3.18474 1.11517 2.66512 
0 0 0 0 0 0 0 0 0 
0 0 0 0 0 0 0 0 0 
115.528 -101.025 166.66 0 0 0 201.097 361.372 -161.7 
0 0 0 0 0 0 0 0 0 
0 0 0 0 0 0 0 0 0 
0 0 0 0 0 0 0 0 0 
0 0 0 0 0 0 58.3278 0 0 
0 0 0 69.6131 -275.225 -218.386 -69.6131 275.225 218.386 
169.58 -125.184 -425.364 1908.95 -2314.38 2435.46 -2345.6 2289.57 -4012.85 
1043.84 -2289.57 4012.85 0 0 0 3106.36 1020.62 -3054.78 
28.9003 -14.9291 14.559 0 0 0 0 0 0 
-2082.89 2195.64 -2549.53 0 0 0 -28.9003 14.9291 -14.559 
1022.01 -1770.29 1795.97 0 0 0 -2418.86 1261.69 -1185.96 
2351.49 -1069.37 1047.8 0 0 0 0 0 0 
0 0 0 1426.38 -3205.66 -5448.81 0 0 0 
-2329.46 1857.36 -1361.78 0 0 0 -6.85424 -507.093 -445.349 
-624.305 3042.39 -5894.59 -1426.38 3205.66 5448.81 0 0 0 
-12.3165 977.009 -105.938 0 0 0 0 0 0 
0 0 0 773.997 -215.717 214.17 0 0 0 
0 0 0 0 0 0 669.174 -658.957 -92.4647 
1586.76 1035.24 6032.95 -133.834 -607.992 177.369 -1452.93 -427.253 -6210.32 
916.192 -667.673 2959.29 -916.192 667.673 -2959.29 -165.86 -145.655 -52.4706 
0 0 0 0 0 0 790.478 -535.844 -1016.27 
1023.49 1384.75 -1219.35 -1692.67 -725.796 1311.82 -64.7925 -65.2416 0.986825 
-198.365 -473.024 -241.569 198.365 -180.728 241.569 0 0 0 
0 0 0 -268.394 -22.2312 -971.47 0 0 0 
0 0 -2206.76 0 -2.87476 0 -2.63178 46.6986 19.6661 
-169.58 125.184 425.364 0 0 0 0 0 0 
0 0 0 0 0 -506.918 -3106.36 -1020.62 3054.78 
0 0 -2834.98 2.63178 -46.6986 -19.6661 -28.9323 -59.2963 -9035.2 
173.941 118.735 114.067 67.3727 -192.318 138.162 0 0 -3484.77 
0 0 0 0 0 0 0 0 0 
-315.248 670.962 270.221 344.18 -611.665 -416.083 0 0 0 
0 0 0 0 0 0 0 0 -627.507 
2341.77 -2834.37 1467.72 624.305 -3042.39 5894.59 0 0 0 
0 0 0 6.85424 507.093 445.349 9.04379 -43.2252 -42.7008 
0 0 -4702.77 0 0 0 0 0 -8783.39 
0 0 0 0 0 0 0 0 -393.95 
1895.16 43.2252 42.7008 0 0 -3744.02 0 0 0 
0 0 0 -2143.84 -1384.08 1346.1 1885.79 1233.14 -1215.09 
0 0 0 -32.8783 0 0 0 0 0 
0 0 -6475.66 -112.202 -258.348 -1434.28 370.258 409.281 -36.2332 
0 0 0 -1661.18 359.472 -465.129 870.698 176.372 1481.4 
0 0 0 -267.809 -931.57 -1351.95 600.996 403.475 1944.55 

v 3 567 double
0.11423 0.142467 1.90442 0.0929123 -0.156136 2.23772 0.12767 0.321255 2.53346 
0.0678163 -0.244245 2.23237 -0.209152 0.125507 2.39775 0.168814 -0.0451121 2.29248 
0.299184 0.08138 2.28462 0.141602 -0.0117498 2.50814 0.155864 0.106098 2.31689 
-0.139875 0.101402 2.20977 0.097289 -0.2849 2.44972 0.165855 -0.156631 2.20213 
0.428407 -0.0605743 2.51008 -0.104956 -0.0480407 2.26292 0.132018 0.0341105 2.52647 
-0.0589341 0.120845 2.43221 -0.19858 0.154464 2.18222 0.0335457 0.0217871 2.17382 
-0.217937 0.112467 2.35039 -0.119558 0.0588971 2.52863 0.321968 -0.298872 2.20622 
-0.0116646 -0.147577 2.34087 -0.0450356 -0.287969 2.17324 0.0837116 -0.0808403 2.26688 
-0.172517 -0.00817685 2.13876 0.00494331 0.00594767 2.27649 -0.072138 -0.00269998 2.48949 
0.000721355 0.100387 2.44703 0.0761066 0.09659 2.45729 0.0458193 -0.132487 2.33607 
-0.213111 -0.26476 2.54153 -0.0199887 -0.0273376 2.33652 0.0820692 0.0797699 2.40762 
0.0959053 -0.2711 2.51868 0.0685491 0.165187 2.27043 -0.196264 -0.0597447 2.54169 
-0.152625 -0.0468676 2.1041 -0.0582327 -0.101902 2.4447 0.134401 -0.189918 2.50773 
-0.0582443 -0.203254 2.40702 -0.0695657 -0.158092 2.37645 0.143969 0.146595 2.40955 
-0.0108257 -0.00266177 2.18436 -0.00486009 0.0136109 2.42038 -0.146459 -0.0646602 2.26726 
-0.326195 -0.182485 2.22441 -0.162893 -0.237296 2.44075 -0.0185316 -0.172517 2.49393 
-0.107411 -0.0185347 2.48658 0.0987527 0.0567166 2.22905 0.105439 -0.00137525 2.55963 
0.0210737 -0.269805 2.34197 0.0215702 0.116901 2.54153 0.0464869 -0.0258358 2.30739 
-0.00932199 -0.0805842 2.53537 -0.145046 -0.0314839 2.4429 0.130405 -0.11099 2.39846 
0.0220582 -0.0933888 2.45658 0.12792 -0.143646 2.46374 0.141973 -0.232774 2.23495 
0.0139683 0.0458885 2.4766 -0.0536553 0.0535472 2.31714 0.0272208 -0.110159 2.33795 
-0.256742 -0.140018 2.26691 0.0182625 0.0104787 2.32302 0.115446 -0.0993938 2.53631 
-0.039294 -0.362709 2.29583 0.13149 -0.298894 2.43869 -0.298358 -0.254575 2.3489 
-0.00608298 -0.0156807 2.367 -0.0837837 -0.313243 2.2819 -0.0722204 0.0998762 2.27698 
-0.244633 -0.170552 2.27334 -0.283281 0.155189 2.58547 0.0360592 -0.179228 2.49609 
0.0451041 0.0652309 2.41145 -0.0534336 0.0876802 2.54454 -0.00989667 -0.203504 2.32505 
-0.0516274 -0.0638493 2.37946 0.157543 -0.0893912 2.40977 -0.161433 -0.0375863 2.4067 
0.121616 0.23482 2.23459 -0.00563288 0.0809898 2.40147 -0.107448 0.118435 2.46277 
-0.246493 0.0696656 2.46406 0.0162818 -0.0726878 2.44134 0.0533093 0.0663823 2.47139 
0.0128314 -0.010265 2.33978 0.0836109 -0.0282317 2.45824 -0.00492233 -0.070819 2.37637 
-0.107923 0.0386012 2.37657 -0.0299268 -0.0199164 2.20938 0.0864231 0.20676 2.38421 
-0.0499423 0.0761355 2.40071 -0.131912 -0.199151 2.54015 -0.159977 -0.0383859 2.50793 
-0.199912 -0.00456815 2.40432 0.0127745 -0.063716 2.46431 -0.0412518 0.143272 2.63829 
0.088367 0.12945 2.70474 0.190627 0.182737 2.52854 0.0212991 0.021192 2.71364 
0.138555 -0.133907 2.62609 0.223224 0.0332845 2.53781 0.166723 0.0320119 2.64732 
-0.22229 -0.145183 2.641 0.133952 -0.308307 2.65594 -0.0491581 0.379386 2.59529 
0.389216 -0.045599 2.46503 -0.00335228 -0.0165419 2.74785 0.164887 0.0295991 2.74983 
-0.15711 0.110706 2.58914 0.226675 -0.130566 2.4842 -0.17642 -0.177027 2.64149 
0.00536139 0.0740717 2.51856 -0.183941 0.0166581 2.73458 0.0458002 0.0906856 2.66352 
0.0700489 -0.171016 2.53655 0.0746211 -0.0466737 2.49133 0.343444 -0.0144836 2.77194 
0.248621 -0.0677938 2.336 0.114618 -0.15802 2.68717 0.0799723 0.00389436 2.59333 
-0.0682074 -0.0893596 2.67267 0.065059 -0.0117541 2.92042 -0.0212594 -0.181566 2.66665 
0.131498 -0.254098 2.5989 0.174711 0.000456641 2.53093 -0.140042 0.120072 2.82359 
-0.121815 0.076301 2.54957 0.0383302 -0.0998544 2.59597 -0.0404788 0.139065 2.45862 
0.0473773 0.0704831 2.58298 0.156596 -0.0122207 2.42875 -0.285516 0.00408896 2.58139 
-0.0303768 -0.287269 2.63358 0.00905438 -0.218309 2.64421 0.0856523 0.15926 2.55622 
-0.193619 0.22736 2.75896 -0.0366439 0.121956 2.69504 -0.108584 0.188235 2.67202 
0.0671612 0.0387161 2.558 0.0608142 -0.120957 2.66985 -0.00199128 -0.0513833 2.64357 
-0.0383018 0.057161 2.60742 0.10755 -0.00217245 2.47259 0.175021 0.0813934 2.66934 
-0.101369 -0.184205 2.72044 -0.117655 -0.042765 2.65453 -0.00354995 -0.150693 2.65879 
-0.0817217 0.0328749 2.62297 0.0182573 0.0286699 2.68734 0.0766347 -0.116747 2.61603 
0.146085 -0.227191 2.58716 0.294514 -0.125437 2.4918 -0.180675 -0.0285917 2.4324 
0.00185004 0.286768 2.70412 -0.0693915 -0.173496 2.59683 -0.142464 0.135793 2.50565 
0.0899846 0.108254 2.60056 -0.100986 -0.0211699 2.44475 -0.22575 -0.181281 2.40628 
0.015822 -0.324244 2.73324 -0.0332922 -0.0369766 2.45113 -0.0782653 0.038368 2.46496 
-0.24932 -0.0127702 2.66768 -0.223804 -0.322767 2.49967 -0.0164364 0.0564837 2.69225 
0.0244253 -0.336028 2.45925 0.0997934 -0.165243 2.65679 -0.200924 -0.297762 2.35129 
0.0318434 -0.176044 2.34978 0.0705811 0.142674 2.86865 -0.213924 0.10316 2.37849 
-0.0391187 -0.0739855 2.58213 0.0141026 -0.335489 2.63469 0.0817413 -0.0857547 2.60594 
0.160026 0.0903508 2.50126 0.0754395 -0.519807 2.64619 0.254294 0.22964 2.68516 
0.226723 0.17711 2.49698 0.13406 -0.191555 2.727 0.223074 -0.00544564 2.74769 
0.290904 0.0271271 2.62011 0.171103 -0.240337 2.69887 -0.0267302 0.0231678 2.52011 
0.028781 -0.0528655 2.73287 -0.00285906 -0.0930916 2.78712 0.00754335 -0.0435942 2.52698 
-0.0264592 -0.0133797 2.74736 0.0377114 0.0230525 2.58251 -0.0414734 0.0180425 2.88149 
0.149174 0.00744598 2.90549 0.153366 -0.0197696 2.94624 0.175753 -0.0357376 2.78237 
-0.157081 -0.351526 2.84258 0.0838598 0.0750214 2.75102 -0.196066 -0.0999801 3.11231 
-0.081425 -0.021586 3.01396 0.0183895 -0.198569 2.77567 0.0625203 -0.026665 2.92615 
-0.0792651 0.110105 2.78507 -0.109862 -0.204961 2.82644 0.0747444 -0.0664289 3.10418 
0.127218 0.0554031 2.76694 0.155566 -0.173333 2.92827 -0.194875 -0.199352 2.86076 
-0.0714961 -0.0825195 2.7579 0.00805824 -0.0161104 2.70246 0.066468 -0.196301 2.8536 
0.203657 -0.14486 2.87749 0.111004 -0.388945 2.61109 0.196158 -0.0748482 2.78629 
-0.177189 -0.200037 2.92046 0.255202 0.111646 2.78599 0.172417 0.0777433 2.84772 
0.0394079 -0.0913878 2.43462 0.100403 0.13872 3.02164 -0.346348 -0.0842487 2.70098 
-0.264616 0.00442414 3.05923 0.045415 -0.366272 2.63789 0.0916264 -0.276661 2.78288 
-0.0654447 -0.0071357 2.81372 0.136924 -0.0642371 2.68471 -0.369489 0.125499 2.7432 
-0.254659 -0.24305 2.62455 0.166311 0.171046 2.77045 -0.0599533 0.106805 2.74338 
-0.0284113 -0.380647 2.75487 -0.0432674 -0.0645126 2.68322 -0.0590005 -0.0670337 2.78553 
0.0736128 0.00744337 2.89795 0.219862 -0.141792 2.79714 -0.222651 -0.266148 2.56768 
0.295025 -0.27241 2.89185 -0.00942368 -0.269387 2.9177 -0.182114 0.11336 2.75304 
-0.153897 0.361152 2.68683 -0.105715 -0.0243301 2.74604 0.00698772 -0.193934 2.73553 
-0.199215 0.287536 2.82677 -0.200986 -0.106263 2.92581 -0.118371 -0.268337 2.70914 
0.142694 -0.0630035 2.72552 -0.0676468 -0.230482 2.63078 -0.231335 -0.0979848 2.76591 
-0.291609 -0.124733 2.89823 -0.178683 0.0112189 2.75188 -0.319099 -0.0751879 2.78004 
0.0797414 -0.135458 2.71356 0.27775 -0.0409954 2.88021 0.0565242 0.154508 2.73086 
0.0631889 0.16933 2.90119 0.238574 0.421178 2.95337 0.166697 -0.050779 2.79324 
-0.120639 -0.140728 2.63754 -0.0643342 -0.137099 2.91113 -0.08292 -0.210246 2.82474 
-0.19619 0.0758452 2.67781 0.0866965 -0.139243 2.87048 -0.119227 0.137029 2.93373 
0.00368081 0.102956 2.54385 -0.208837 0.21045 2.86925 -0.185284 -0.445531 2.87052 
0.00889445 -0.0469235 2.7774 0.263387 0.0532834 2.75309 -0.0870925 -0.312631 2.86932 
-0.0288043 -0.081688 2.55805 0.10549 -0.0783398 2.67307 -0.158946 -0.113741 2.81332 
0.319857 -0.27315 3.02852 -0.0922002 0.0396505 2.72288 -0.0678548 -0.230756 2.96511 
-0.100991 0.347061 2.89186 0.248008 -0.013816 2.9906 -0.0970393 0.229396 3.13867 
-0.0212156 -0.264829 3.1264 0.112187 -0.00687302 3.03026 0.28702 0.0244514 2.93316 
0.262218 0.441613 2.79418 0.116574 -0.146584 2.88209 -0.151571 -0.237247 2.95677 
-0.0717939 0.279032 2.9655 0.328307 0.0106456 2.99176 -0.062251 0.164425 3.02462 
-0.355627 0.0111115 3.22761 -0.291443 0.161576 2.98869 -0.0645756 0.0163272 3.03615 
-0.178801 -0.160635 2.92056 -0.214069 0.0122547 2.59176 0.136169 -0.0534335 3.01369 
0.109148 0.0498352 3.10636 -0.0701639 0.177678 3.08087 0.160707 0.204881 3.03779 
0.114963 -0.168444 2.93553 -0.223963 -0.0715891 2.78222 -0.281601 0.226191 2.94407 
-0.00311089 -0.176383 3.1839 -0.199871 -0.187036 2.74178 0.104281 -0.0928537 2.98851 
0.112126 -0.27072 2.90877 0.288769 0.162291 3.09239 0.200978 -0.156078 2.74357 
0.0159602 -0.213124 2.90451 0.0280655 0.240179 3.12624 0.15961 -0.383242 2.8256 
-0.0548149 0.0669685 3.09093 -0.166595 -0.164522 2.87776 -0.100637 0.129627 2.97613 
0.0153626 0.0153724 3.05929 0.238808 -0.0174462 2.9152 -0.143596 -0.126198 3.02199 
0.404171 0.0715403 2.90216 -0.159835 0.179715 2.88264 -0.180691 -0.439072 3.036 
-0.0645935 -0.0265283 2.98515 -0.0559278 -0.0981921 3.06506 -0.309802 0.200969 2.91107 
-0.0358663 -0.247995 2.60863 -0.0398773 -0.0782391 2.91486 -0.358886 0.0378523 2.84621 
-0.139104 0.210802 2.92911 0.154195 -0.0841495 2.87368 -0.127015 0.0672251 2.87642 
-0.229157 0.00677511 3.20173 -0.310813 -0.41745 3.01544 -0.120055 0.0536141 2.99751 
0.128246 0.188998 2.90345 -0.250296 0.0676221 3.05476 -0.226665 0.159752 2.80161 
-0.0553675 0.15714 3.00484 -0.112243 -0.0810095 3.04089 -0.30181 0.068106 2.85107 
0.0441174 0.0130274 2.99258 0.118991 -0.103191 3.23436 -0.0338385 -0.149061 3.02219 
-0.113077 -0.0931682 3.19751 -0.0786029 0.0752251 2.9833 -0.0838872 0.0196788 2.85558 
0.00157735 -0.0409973 2.97374 -0.426484 -0.137648 3.03568 0.139899 -0.310945 3.01421 
0.52508 -0.274198 3.28911 -0.0760712 -0.0987211 3.15463 -0.245963 -0.158634 3.23072 
-0.53932 0.24175 3.17283 0.151293 -0.0729736 3.11963 -0.053191 0.0705126 3.2194 
-0.00668818 0.167961 3.34616 0.134155 0.224555 3.12554 -0.0316751 0.159183 3.00159 
0.302502 0.285896 3.14582 0.0380255 0.0831313 3.2574 0.07514 -0.00583073 2.9664 
0.267813 -0.0080096 3.34108 0.12421 0.190549 3.2898 0.260366 0.395868 3.40913 
-0.346007 0.0317634 3.12021 -0.0593769 -0.39749 3.1858 -0.210034 -0.174976 3.04985 
0.0950762 -0.0371899 3.07914 -0.0738609 -0.573287 3.11205 0.161332 -0.379684 3.04794 
-0.215107 -0.295357 3.15573 0.153258 0.116277 3.08129 -0.145245 -0.375191 3.06433 
0.100802 0.124446 3.22894 -0.302385 0.203977 3.25291 0.204076 -0.0403531 3.29795 
-0.0712664 -0.251812 3.07803 -0.180456 -0.108486 2.98176 0.120013 -0.151259 3.11919 
-0.240272 0.0955703 3.3561 -0.129558 0.0653293 3.54708 -0.239042 -0.270936 3.19559 
-0.229967 -0.0188429 3.15406 0.180664 -0.190973 3.05933 -0.0782073 -0.118979 3.22897 
-0.0708229 0.328507 3.00617 -0.70654 0.0942283 3.07354 -0.110525 -0.197973 3.03976 
-0.162415 0.00652999 3.1293 0.378995 -0.36442 3.42531 0.0556123 0.214206 3.25588 
0.0718325 0.0107367 3.18199 0.0878387 0.0350013 3.16925 0.0727283 0.148474 3.10592 
0.196208 -0.0601928 3.18555 -0.0275684 0.0382768 3.04606 -0.229745 -0.0403925 3.02637 
-0.102581 -0.129404 3.27742 -0.0431349 -0.2225 3.06155 0.146787 -0.324222 3.21081 
-0.0818029 -0.115852 3.02027 0.290819 0.368652 3.32315 0.0921267 -0.202795 2.78689 
0.080395 -0.0330908 3.1851 0.126551 0.164404 3.40345 -0.126559 -0.16502 3.15796 
-0.301858 0.0491229 3.11147 0.186547 -0.143809 3.31399 0.151109 -0.0510094 3.26095 
0.135247 -0.160667 3.72729 0.0522263 0.164683 3.20313 0.36235 0.00291996 3.34813 
-0.160021 0.195103 3.50085 0.0832467 -0.070584 3.54787 0.116278 -0.333212 3.43164 
0.0534422 -0.436605 3.37277 0.0415486 -0.161997 3.58781 0.123034 0.486562 3.56735 
0.0615185 0.28245 3.52875 -0.192959 0.230557 3.32928 -0.0567305 -0.0609738 3.16856 
0.511795 0.193603 3.43449 0.479343 0.0660763 3.51789 0.124783 0.123781 2.91049 
-0.0227244 -0.0758129 3.94311 -0.0907914 0.102945 3.49451 -0.193911 0.292913 3.5826 
-0.820565 1.3165 2.32662 -0.273994 0.074792 3.42048 -0.39369 -0.621412 2.77562 
-0.0536631 0.0510181 3.33171 -0.226144 0.0658108 3.37315 0.199033 -0.159915 3.43655 
-0.181405 0.0188999 3.35761 -0.516598 -0.257748 2.88952 0.84447 2.722 0.916814 
-0.0512273 -0.146648 3.43438 0.272463 -0.392704 3.39624 -0.247256 -0.265253 3.30431 
0.19747 -0.0202348 3.16742 -0.691931 0.379404 1.07473 -0.101764 -0.342268 3.2843 
0.0621669 -0.14967 3.54619 -0.492395 0.321482 3.30029 0.361725 -0.111033 3.42656 
-0.154532 -0.148403 3.41995 0.0879254 -0.262836 3.41492 0.106054 -0.00225377 3.31878 
-0.207552 -0.102138 2.96413 0.0245363 0.0784541 3.30267 0.343635 0.394651 3.13197 
-0.494422 0.184717 3.27165 -0.379168 -0.0803309 3.30475 -0.341696 -0.0991799 3.58147 
-0.058329 0.0196319 3.29219 -1.8017 -1.31866 2.9017 0.444131 -0.221254 3.60549 
0.233577 0.169726 3.96751 0.983469 -2.59154 0.718941 -0.45504 0.109534 3.69124 
0.29281 -0.0216828 -2.82686 0.122526 0.42036 3.7369 -0.376617 0.0425207 3.73353 
0.798134 0.823975 -0.899939 0.176504 -0.38418 3.41071 -1.58481 -0.885405 1.674 
0.645752 0.244541 3.00944 1.33809 -1.08517 -2.20584 -0.884387 2.08613 1.00113 
1.76747 -2.09277 -0.639782 -0.0918343 0.267102 3.45874 2.12773 0.823383 1.20223 
0.110167 -0.553897 3.45117 1.06238 -0.142339 2.98129 1.01209 -1.0363 3.75222 
-0.887466 1.60941 2.30235 0.136366 -0.445356 3.85009 0.322972 -0.440789 3.44405 
1.16847 1.54061 2.50697 -0.324365 0.419774 3.85686 -2.71663 0.0321311 2.2923 
-0.746156 0.307406 -0.13584 0.348378 0.421469 3.90981 -0.00796701 -0.629466 3.57019 
0.0851664 -0.0155008 3.69512 1.00917 -1.84804 0.766811 -0.300202 -0.251069 3.44609 
1.73148 0.371306 0.618102 1.16574 0.772806 2.75417 -0.181806 0.0172035 3.47868 
-0.477143 1.76667 -0.756615 -1.24266 1.19459 0.176222 0.0105207 0.224542 3.64292 
0.473917 -1.76253 2.53347 0.084297 -0.197045 3.65652 -0.28207 0.258526 3.70415 
0.854575 -0.543392 1.46009 -0.149698 -1.76198 -1.0276 -0.23677 0.143418 3.56406 
0.24349 -0.00988207 3.63376 -0.194224 -0.151797 3.44098 -0.637534 -0.852482 0.583906 
0.162847 0.763122 -0.1334 -1.93982 0.508306 1.86598 -0.512128 -0.181825 0.613412 
3.03096 -2.15986 2.05728 -0.821873 0.549893 0.308273 0.435716 0.0775112 3.30107 
-0.0891138 0.0837682 3.69024 0.355621 0.00465297 3.39545 2.29893 -1.41254 -0.160843 
0.406636 0.714539 2.99265 -2.2387 0.503025 -1.63719 -0.0888312 0.539406 3.84284 
0.780056 3.25877 0.165503 -0.327055 0.228457 -3.24569 0.508628 0.0740172 3.409 
-0.133944 0.283287 3.34245 -0.957603 -1.01338 -1.55927 -0.171858 0.308553 3.89494 
-0.13448 -2.43248 0.103414 0.0902374 0.0932165 3.90797 1.45897 -1.38745 1.69091 
0.628383 1.50655 2.82689 -0.359343 0.390274 3.67159 -1.37019 1.2352 -0.0619238 
-0.056294 -0.413978 3.87651 -2.35395 1.3731 2.77867 -2.16038 -0.270554 -0.726045 
0.134186 -0.117061 2.61271 -0.981706 3.25258 -0.219553 0.394085 0.246138 -2.45062 
-0.922392 0.759693 -3.25718 -1.14875 1.83931 0.27539 0.797952 0.258812 0.259017 
-0.108474 0.176557 3.93574 0.186959 -0.333148 -3.20357 -1.72148 -0.737798 2.996 
1.89506 1.01423 -1.97385 0.0996775 -0.435344 3.58874 0.733407 0.109377 3.05001 
0.153863 -0.208355 3.77758 -0.391298 2.75922 1.09409 0.639555 -0.0565872 -3.24672 
0.261624 1.95814 0.110416 0.270729 -2.65801 1.20056 -0.617227 0.291924 3.79872 
-2.03363 0.00732812 3.5376 2.30258 -1.15483 -0.545366 -0.058857 -0.372469 3.35143 
1.23451 -2.36358 0.0831431 0.524708 -3.68827 1.1774 0.150597 0.350707 -1.59404 
-1.35083 -1.31474 3.346 -1.72779 2.27097 1.85421 0.271906 -0.347499 -3.13327 
0.95329 0.313404 3.3455 -0.368243 -0.46088 2.15862 -0.0426016 -0.315743 3.9063 
-0.983188 -2.19261 -0.241607 -0.665106 0.266031 -1.1347 2.1044 0.700983 1.60277 
0.101477 0.270051 3.89056 0.718572 0.667987 2.18199 0.46666 0.0160428 2.82967 
-1.90924 -0.354751 -0.157139 -0.0178229 -0.207989 2.8564 0.196302 -0.0640407 -2.74002 
0.559699 -1.25051 -0.868964 -0.67271 0.117129 3.61522 -0.136508 1.24056 2.04454 
0.036649 -0.0735864 3.85295 1.05527 -1.67989 1.58476 0.426801 -1.28329 1.01379 

om 3 567 double
0 0 0 0 0 0 0 0 0 
0 0 0 0 0 0 0 0 0 
0 0 0 0 0 0 0 0 0 
0 0 0 0 0 0 0 0 0 
0 0 0 0 0 0 0 0 0 
0 0 0 0 0 0 0 0 0 
0 0 0 0 0 0 0 0 0 
0 0 0 0 0 0 0 0 0 
0 0 0 0 0 0 0 0 0 
0 0 0 0 0 0 0 0 0 
0 0 0 0 0 0 0 0 0 
0 0 0 0 0 0 0 0 0 
0 0 0 0 0 0 0 0 0 
0 0 0 0 0 0 0 0 0 
0 0 0 0 0 0 0 0 0 
0 0 0 0 0 0 0 0 0 
0 0 0 0 0 0 0 0 0 
0 0 0 0 0 0 0 0 0 
0 0 0 0 0 0 0 0 0 
0 0 0 0 0 0 0 0 0 
0 0 0 0 0 0 0 0 0 
0 0 0 0 0 0 0 0 0 
0 0 0 0 0 0 0 0 0 
0 0 0 0 0 0 0 0 0 
0 0 0 0 0 0 0 0 0 
0 0 0 0 0 0 0 0 0 
0 0 0 0 0 0 0 0 0 
0 0 0 0 0 0 0 0 0 
0 0 0 0 0 0 0 0 0 
0 0 0 0 0 0 0 0 0 
0 0 0 0 0 0 0 0 0 
0 0 0 0 0 0 0 0 0 
0 0 0 0 0 0 0 0 0 
0 0 0 0 0 0 0 0 0 
0 0 0 0 0 0 0 0 0 
0 0 0 0 0 0 0 0 0 
0 0 0 0 0 0 0 0 0 
0 0 0 0 0 0 0 0 0 
0 0 0 0 0 0 0 0 0 
0 0 0 0 0 0 0 0 0 
0 0 0 0 0 0 0 0 0 
0 0 0 0 0 0 0 0 0 
0 0 0 0 0 0 0 0 0 
0 0 0 0 0 0 0 0 0 
0 0 0 0 0 0 0 0 0 
0 0 0 0 0 0 0 0 0 
0 0 0 0 0 0 0 0 0 
0 0 0 0 0 0 0 0 0 
0 0 0 0 0 0 0 0 0 
0 0 0 0 0 0 0 0 0 
0 0 0 0 0 0 0 0 0 
0 0 0 0 0 0 0 0 0 
0 0 0 0 0 0 0 0 0 
0 0 0 0 0 0 0 0 0 
0 0 0 0 0 0 0 0 0 
0 0 0 0 0 0 0 0 0 
0 0 0 0 0 0 0 0 0 
0 0 0 0 0 0 0 0 0 
0 0 0 0 0 0 0 0 0 
0 0 0 0 0 0 0 0 0 
0 0 0 0 0 0 0 0 0 
0 0 0 0 0 0 0 0 0 
0 0 0 0 0 0 0 0 0 
0 0 0 0 0 0 0 0 0 
0 0 0 0 0 0 0 0 0 
0 0 0 0 0 0 0 0 0 
0 0 0 0 0 0 0 0 0 
0 0 0 0 0 0 0 0 0 
0 0 0 0 0 0 0 0 0 
0 0 0 0 0 0 0 0 0 
0 0 0 0 0 0 0 0 0 
0 0 0 0 0 0 0 0 0 
0 0 0 0 0 0 0 0 0 
0 0 0 0 0 0 0 0 0 
0 0 0 0 0 0 0 0 0 
0 0 0 0 0 0 0 0 0 
0 0 0 0 0 0 0 0 0 
0 0 0 0 0 0 0 0 0 
0 0 0 0 0 0 0 0 0 
0 0 0 0 0 0 0 0 0 
0 0 0 0 0 0 0 0 0 
0 0 0 0 0 0 0 0 0 
0 0 0 0 0 0 0 0 0 
0 0 0 0 0 0 0 0 0 
0 0 0 0 0 0 0 0 0 
0 0 0 0 0 0 0 0 0 
0 0 0 0 0 0 0 0 0 
0 0 0 0 0 0 0 0 0 
0 0 0 0 0 0 0 0 0 
0 0 0 0 0 0 0 0 0 
0 0 0 0 0 0 0 0 0 
0 0 0 0 0 0 0 0 0 
0 0 0 0 0 0 0 0 0 
0 0 0 0 0 0 0 0 0 
0 0 0 0 0 0 0 0 0 
0 0 0 0 0 0 0 0 0 
0 0 0 0 0 0 0 0 0 
0 0 0 0 0 0 0 0 0 
0 0 0 0 0 0 0 0 0 
0 0 0 0 0 0 0 0 0 
0 0 0 0 0 0 0 0 0 
0 0 0 0 0 0 0 0 0 
0 0 0 0 0 0 0 0 0 
0 0 0 0 0 0 0 0 0 
0 0 0 0 0 0 0 0 0 
0 0 0 0 0 0 0 0 0 
0 0 0 0 0 0 0 0 0 
0 0 0 0 0 0 0 0 0 
0 0 0 0 0 0 0 0 0 
0 0 0 0 0 0 0 0 0 
0 0 0 0 0 0 0 0 0 
0 0 0 0 0 0 0 0 0 
0 0 0 0 0 0 0 0 0 
0 0 0 0 0 0 0 0 0 
0 0 0 0 0 0 0 0 0 
0 0 0 0 0 0 0 0 0 
0 0 0 0 0 0 0 0 0 
0 0 0 0 0 0 0 0 0 
0 0 0 0 0 0 0 0 0 
0 0 0 0 0 0 0 0 0 
0 0 0 0 0 0 0 0 0 
0 0 0 0 0 0 0 0 0 
0 0 0 0 0 0 0 0 0 
0 0 0 0 0 0 0 0 0 
0 0 0 0 0 0 0 0 0 
0 0 0 0 0 0 0 0 0 
0 0 0 0 0 0 0 0 0 
0 0 0 0 0 0 0 0 0 
0 0 0 0 0 0 0 0 0 
0 0 0 0 0 0 0 0 0 
0 0 0 0 0 0 0 0 0 
0 0 0 0 0 0 0 0 0 
0 0 0 0 0 0 0 0 0 
0 0 0 0 0 0 0 0 0 
0 0 0 0 0 0 0 0 0 
0 0 0 0 0 0 0 0 0 
0 0 0 0 0 0 0 0 0 
0 0 0 0 0 0 0 0 0 
0 0 0 0 0 0 0 0 0 
0 0 0 0 0 0 0 0 0 
0 0 0 0 0 0 0 0 0 
0 0 0 0 0 0 0 0 0 
0 0 0 0 0 0 0 0 0 
0 0 0 0 0 0 0 0 0 
0 0 0 0 0 0 0 0 0 
0 0 0 0 0 0 0 0 0 
0 0 0 0 0 0 0 0 0 
0 0 0 0 0 0 0 0 0 
0 0 0 0 0 0 0 0 0 
0 0 0 0 0 0 0 0 0 
0 0 0 0 0 0 0 0 0 
0 0 0 0 0 0 0 0 0 
0 0 0 0 0 0 0 0 0 
0 0 0 0 0 0 0 0 0 
0 0 0 0 0 0 0 0 0 
0 0 0 0 0 0 0 0 0 
0 0 0 0 0 0 0 0 0 
0 0 0 0 0 0 0 0 0 
0 0 0 0 0 0 0 0 0 
0 0 0 0 0 0 0 0 0 
0 0 0 0 0 0 0 0 0 
0 0 0 0 0 0 0 0 0 
0 0 0 0 0 0 0 0 0 
0 0 0 0 0 0 0 0 0 
0 0 0 0 0 0 0 0 0 
0 0 0 0 0 0 0 0 0 
0 0 0 0 0 0 0 0 0 
0 0 0 0 0 0 0 0 0 
0 0 0 0 0 0 0 0 0 
0 0 0 0 0 0 0 0 0 
0 0 0 0 0 0 0 0 0 
0 0 0 0 0 0 0 0 0 
0 0 0 0 0 0 0 0 0 
0 0 0 0 0 0 0 0 0 
0 0 0 0 0 0 0 0 0 
0 0 0 0 0 0 0 0 0 
0 0 0 0 0 0 0 0 0 
0 0 0 0 0 0 0 0 0 
0 0 0 0 0 0 0 0 0 
0 0 0 0 0 0 0 0 0 
0 0 0 0 0 0 0 0 0 
0 0 0 0 0 0 0 0 0 
0 0 0 0 0 0 0 0 0 
0 0 0 0 0 0 0 0 0 
0 0 0 0 0 0 0 0 0 
0 0 0 0 0 0 0 0 0 
0 0 0 0 0 0 0 0 0 
0 0 0 0 0 0 0 0 0 
0 0 0 0 0 0 0 0 0 

bottom 1 567 double
-0.00853541 -0.00853541 -0.00853541 -0.00853541 -0.00853541 -0.00853541 -0.00853541 -0.00853541 -0.00853541 
-0.00853541 -0.00853541 -0.00853541 -0.00853541 -0.00853541 -0.00853541 -0.00853541 -0.00853541 -0.00853541 
-0.00853541 -0.00853541 -0.00853541 -0.00853541 -0.00853541 -0.00853541 -0.00853541 -0.00853541 -0.00853541 
-0.00853541 -0.00853541 -0.00853541 -0.00853541 -0.00853541 -0.00853541 -0.00853541 -0.00853541 -0.00853541 
-0.00853541 -0.00853541 -0.00853541 -0.00853541 -0.00853541 -0.00853541 -0.00853541 -0.00853541 -0.00853541 
-0.00853541 -0.00853541 -0.00853541 -0.00853541 -0.00853541 -0.00853541 -0.00853541 -0.00853541 -0.00853541 
-0.00853541 -0.00853541 -0.00853541 -0.00853541 -0.00853541 -0.00853541 -0.00853541 -0.00853541 -0.00853541 
-0.00853541 -0.00853541 -0.00853541 -0.00853541 -0.00853541 -0.00853541 -0.00853541 -0.00853541 -0.00853541 
-0.00853541 -0.00853541 -0.00853541 -0.00853541 -0.00853541 -0.00853541 -0.00853541 -0.00853541 -0.00853541 
-0.00853541 -0.00853541 -0.00853541 -0.00853541 -0.00853541 -0.00853541 -0.00853541 -0.00853541 -0.00853541 
-0.00853541 -0.00853541 -0.00853541 -0.00853541 -0.00853541 -0.00853541 -0.00853541 -0.00853541 -0.00853541 
-0.00853541 -0.00853541 -0.00853541 -0.00853541 -0.00853541 -0.00853541 -0.00853541 -0.00853541 -0.00853541 
-0.00853541 -0.00853541 -0.00853541 -0.00853541 -0.00853541 -0.00853541 -0.00853541 -0.00853541 -0.00853541 
-0.00853541 -0.00853541 -0.00853541 -0.00853541 -0.00853541 -0.00853541 -0.00853541 -0.00853541 -0.00853541 
-0.00853541 -0.00853541 -0.00853541 -0.00853541 -0.00853541 -0.00853541 -0.00853541 -0.00853541 -0.00853541 
-0.00853541 -0.00853541 -0.00853541 -0.00853541 -0.00853541 -0.00853541 -0.00853541 -0.00853541 -0.00853541 
-0.00853541 -0.00853541 -0.00853541 -0.00853541 -0.00853541 -0.00853541 -0.00853541 -0.00853541 -0.00853541 
-0.00853541 -0.00853541 -0.00853541 -0.00853541 -0.00853541 -0.00853541 -0.00853541 -0.00853541 -0.00853541 
-0.00853541 -0.00853541 -0.00853541 -0.00853541 -0.00853541 -0.00853541 -0.00853541 -0.00853541 -0.00853541 
-0.00853541 -0.00853541 -0.00853541 -0.00853541 -0.00853541 -0.00853541 -0.00853541 -0.00853541 -0.00853541 
-0.00853541 -0.00853541 -0.00853541 -0.00853541 -0.00853541 -0.00853541 -0.00853541 -0.00853541 -0.00853541 
-0.00853541 -0.00853541 -0.00853541 -0.00853541 -0.00853541 -0.00853541 -0.00853541 -0.00853541 -0.00853541 
-0.00853541 -0.00853541 -0.00853541 -0.00853541 -0.00853541 -0.00853541 -0.00853541 -0.00853541 -0.00853541 
-0.00853541 -0.00853541 -0.00853541 -0.00853541 -0.00853541 -0.00853541 -0.00853541 -0.00853541 -0.00853541 
-0.00853541 -0.00853541 -0.00853541 -0.00853541 -0.00853541 -0.00853541 -0.00853541 -0.00853541 -0.00853541 
-0.00853541 -0.00853541 -0.00853541 -0.00853541 -0.00853541 -0.00853541 -0.00853541 -0.00853541 -0.00853541 
-0.00853541 -0.00853541 -0.00853541 -0.00853541 -0.00853541 -0.00853541 -0.00853541 -0.00853541 -0.00853541 
-0.00853541 -0.00853541 -0.00853541 -0.00853541 -0.00853541 -0.00853541 -0.00853541 -0.00853541 -0.00853541 
-0.00853541 -0.00853541 -0.00853541 -0.00853541 -0.00853541 -0.00853541 -0.00853541 -0.00853541 -0.00853541 
-0.00853541 -0.00853541 -0.00853541 -0.00853541 -0.00853541 -0.00853541 -0.00853541 -0.00853541 -0.00853541 
-0.00853541 -0.00853541 -0.00853541 -0.00853541 -0.00853541 -0.00853541 -0.00853541 -0.00853541 -0.00853541 
-0.00853541 -0.00853541 -0.00853541 -0.00853541 -0.00853541 -0.00853541 -0.00853541 -0.00853541 -0.00853541 
-0.00853541 -0.00853541 -0.00853541 -0.00853541 -0.00853541 -0.00853541 -0.00853541 -0.00853541 -0.00853541 
-0.00853541 -0.00853541 -0.00853541 -0.00853541 -0.00853541 -0.00853541 -0.00853541 -0.00853541 -0.00853541 
-0.00853541 -0.00853541 -0.00853541 -0.00853541 -0.00853541 -0.00853541 -0.00853541 -0.00853541 -0.00853541 
-0.00853541 -0.00853541 -0.00853541 -0.00853541 -0.00853541 -0.00853541 -0.00853541 -0.00853541 -0.00853541 
-0.00853541 -0.00853541 -0.00853541 -0.00853541 -0.00853541 -0.00853541 -0.00853541 -0.00853541 -0.00853541 
-0.00853541 -0.00853541 -0.00853541 -0.00853541 -0.00853541 -0.00853541 -0.00853541 -0.00853541 -0.00853541 
-0.00853541 -0.00853541 -0.00853541 -0.00853541 -0.00853541 -0.00853541 -0.00853541 -0.00853541 -0.00853541 
-0.00853541 -0.00853541 -0.00853541 -0.00853541 -0.00853541 -0.00853541 -0.00853541 -0.00853541 -0.00853541 
-0.00853541 -0.00853541 -0.00853541 -0.00853541 -0.00853541 -0.00853541 -0.00853541 -0.00853541 -0.00853541 
-0.00853541 -0.00853541 -0.00853541 -0.00853541 -0.00853541 -0.00853541 -0.00853541 -0.00853541 -0.00853541 
-0.00853541 -0.00853541 -0.00853541 -0.00853541 -0.00853541 -0.00853541 -0.00853541 -0.00853541 -0.00853541 
-0.00853541 -0.00853541 -0.00853541 -0.00853541 -0.00853541 -0.00853541 -0.00853541 -0.00853541 -0.00853541 
-0.00853541 -0.00853541 -0.00853541 -0.00853541 -0.00853541 -0.00853541 -0.00853541 -0.00853541 -0.00853541 
-0.00853541 -0.00853541 -0.00853541 -0.00853541 -0.00853541 -0.00853541 -0.00853541 -0.00853541 -0.00853541 
-0.00853541 -0.00853541 -0.00853541 -0.00853541 -0.00853541 -0.00853541 -0.00853541 -0.00853541 -0.00853541 
-0.00853541 -0.00853541 -0.00853541 -0.00853541 -0.00853541 -0.00853541 -0.00853541 -0.00853541 -0.00853541 
-0.00853541 -0.00853541 -0.00853541 -0.00853541 -0.00853541 -0.00853541 -0.00853541 -0.00853541 -0.00853541 
-0.00853541 -0.00853541 -0.00853541 -0.00853541 -0.00853541 -0.00853541 -0.00853541 -0.00853541 -0.00853541 
-0.00853541 -0.00853541 -0.00853541 -0.00853541 -0.00853541 -0.00853541 -0.00853541 -0.00853541 -0.00853541 
-0.00853541 -0.00853541 -0.00853541 -0.00853541 -0.00853541 -0.00853541 -0.00853541 -0.00853541 -0.00853541 
-0.00853541 -0.00853541 -0.00853541 -0.00853541 -0.00853541 -0.00853541 -0.00853541 -0.00853541 -0.00853541 
-0.00853541 -0.00853541 -0.00853541 -0.00853541 -0.00853541 -0.00853541 -0.00853541 -0.00853541 -0.00853541 
-0.00853541 -0.00853541 -0.00853541 -0.00853541 -0.00853541 -0.00853541 -0.00853541 -0.00853541 -0.00853541 
-0.00853541 -0.00853541 -0.00853541 -0.00853541 -0.00853541 -0.00853541 -0.00853541 -0.00853541 -0.00853541 
-0.00853541 -0.00853541 -0.00853541 -0.00853541 -0.00853541 -0.00853541 -0.00853541 -0.00853541 -0.00853541 
-0.00853541 -0.00853541 -0.00853541 -0.00853541 -0.00853541 -0.00853541 -0.00853541 -0.00853541 -0.00853541 
-0.00853541 -0.00853541 -0.00853541 -0.00853541 -0.00853541 -0.00853541 -0.00853541 -0.00853541 -0.00853541 
-0.00853541 -0.00853541 -0.00853541 -0.00853541 -0.00853541 -0.00853541 -0.00853541 -0.00853541 -0.00853541 
-0.00853541 -0.00853541 -0.00853541 -0.00853541 -0.00853541 -0.00853541 -0.00853541 -0.00853541 -0.00853541 
-0.00853541 -0.00853541 -0.00853541 -0.00853541 -0.00853541 -0.00853541 -0.00853541 -0.00853541 -0.00853541 
-0.00853541 -0.00853541 -0.00853541 -0.00853541 -0.00853541 -0.00853541 -0.00853541 -0.00853541 -0.00853541 

top 1 567 double
0.0914646 0.0914646 0.0914646 0.0914646 0.0914646 0.0914646 0.0914646 0.0914646 0.0914646 
0.0914646 0.0914646 0.0914646 0.0914646 0.0914646 0.0914646 0.0914646 0.0914646 0.0914646 
0.0914646 0.0914646 0.0914646 0.0914646 0.0914646 0.0914646 0.0914646 0.0914646 0.0914646 
0.0914646 0.0914646 0.0914646 0.0914646 0.0914646 0.0914646 0.0914646 0.0914646 0.0914646 
0.0914646 0.0914646 0.0914646 0.0914646 0.0914646 0.0914646 0.0914646 0.0914646 0.0914646 
0.0914646 0.0914646 0.0914646 0.0914646 0.0914646 0.0914646 0.0914646 0.0914646 0.0914646 
0.0914646 0.0914646 0.0914646 0.0914646 0.0914646 0.0914646 0.0914646 0.0914646 0.0914646 
0.0914646 0.0914646 0.0914646 0.0914646 0.0914646 0.0914646 0.0914646 0.0914646 0.0914646 
0.0914646 0.0914646 0.0914646 0.0914646 0.0914646 0.0914646 0.0914646 0.0914646 0.0914646 
0.0914646 0.0914646 0.0914646 0.0914646 0.0914646 0.0914646 0.0914646 0.0914646 0.0914646 
0.0914646 0.0914646 0.0914646 0.0914646 0.0914646 0.0914646 0.0914646 0.0914646 0.0914646 
0.0914646 0.0914646 0.0914646 0.0914646 0.0914646 0.0914646 0.0914646 0.0914646 0.0914646 
0.0914646 0.0914646 0.0914646 0.0914646 0.0914646 0.0914646 0.0914646 0.0914646 0.0914646 
0.0914646 0.0914646 0.0914646 0.0914646 0.0914646 0.0914646 0.0914646 0.0914646 0.0914646 
0.0914646 0.0914646 0.0914646 0.0914646 0.0914646 0.0914646 0.0914646 0.0914646 0.0914646 
0.0914646 0.0914646 0.0914646 0.0914646 0.0914646 0.0914646 0.0914646 0.0914646 0.0914646 
0.0914646 0.0914646 0.0914646 0.0914646 0.0914646 0.0914646 0.0914646 0.0914646 0.0914646 
0.0914646 0.0914646 0.0914646 0.0914646 0.0914646 0.0914646 0.0914646 0.0914646 0.0914646 
0.0914646 0.0914646 0.0914646 0.0914646 0.0914646 0.0914646 0.0914646 0.0914646 0.0914646 
0.0914646 0.0914646 0.0914646 0.0914646 0.0914646 0.0914646 0.0914646 0.0914646 0.0914646 
0.0914646 0.0914646 0.0914646 0.0914646 0.0914646 0.0914646 0.0914646 0.0914646 0.0914646 
0.0914646 0.0914646 0.0914646 0.0914646 0.0914646 0.0914646 0.0914646 0.0914646 0.0914646 
0.0914646 0.0914646 0.0914646 0.0914646 0.0914646 0.0914646 0.0914646 0.0914646 0.0914646 
0.0914646 0.0914646 0.0914646 0.0914646 0.0914646 0.0914646 0.0914646 0.0914646 0.0914646 
0.0914646 0.0914646 0.0914646 0.0914646 0.0914646 0.0914646 0.0914646 0.0914646 0.0914646 
0.0914646 0.0914646 0.0914646 0.0914646 0.0914646 0.0914646 0.0914646 0.0914646 0.0914646 
0.0914646 0.0914646 0.0914646 0.0914646 0.0914646 0.0914646 0.0914646 0.0914646 0.0914646 
0.0914646 0.0914646 0.0914646 0.0914646 0.0914646 0.0914646 0.0914646 0.0914646 0.0914646 
0.0914646 0.0914646 0.0914646 0.0914646 0.0914646 0.0914646 0.0914646 0.0914646 0.0914646 
0.0914646 0.0914646 0.0914646 0.0914646 0.0914646 0.0914646 0.0914646 0.0914646 0.0914646 
0.0914646 0.0914646 0.0914646 0.0914646 0.0914646 0.0914646 0.0914646 0.0914646 0.0914646 
0.0914646 0.0914646 0.0914646 0.0914646 0.0914646 0.0914646 0.0914646 0.0914646 0.0914646 
0.0914646 0.0914646 0.0914646 0.0914646 0.0914646 0.0914646 0.0914646 0.0914646 0.0914646 
0.0914646 0.0914646 0.0914646 0.0914646 0.0914646 0.0914646 0.0914646 0.0914646 0.0914646 
0.0914646 0.0914646 0.0914646 0.0914646 0.0914646 0.0914646 0.0914646 0.0914646 0.0914646 
0.0914646 0.0914646 0.0914646 0.0914646 0.0914646 0.0914646 0.0914646 0.0914646 0.0914646 
0.0914646 0.0914646 0.0914646 0.0914646 0.0914646 0.0914646 0.0914646 0.0914646 0.0914646 
0.0914646 0.0914646 0.0914646 0.0914646 0.0914646 0.0914646 0.0914646 0.0914646 0.0914646 
0.0914646 0.0914646 0.0914646 0.0914646 0.0914646 0.0914646 0.0914646 0.0914646 0.0914646 
0.0914646 0.0914646 0.0914646 0.0914646 0.0914646 0.0914646 0.0914646 0.0914646 0.0914646 
0.0914646 0.0914646 0.0914646 0.0914646 0.0914646 0.0914646 0.0914646 0.0914646 0.0914646 
0.0914646 0.0914646 0.0914646 0.0914646 0.0914646 0.0914646 0.0914646 0.0914646 0.0914646 
0.0914646 0.0914646 0.0914646 0.0914646 0.0914646 0.0914646 0.0914646 0.0914646 0.0914646 
0.0914646 0.0914646 0.0914646 0.0914646 0.0914646 0.0914646 0.0914646 0.0914646 0.0914646 
0.0914646 0.0914646 0.0914646 0.0914646 0.0914646 0.0914646 0.0914646 0.0914646 0.0914646 
0.0914646 0.0914646 0.0914646 0.0914646 0.0914646 0.0914646 0.0914646 0.0914646 0.0914646 
0.0914646 0.0914646 0.0914646 0.0914646 0.0914646 0.0914646 0.0914646 0.0914646 0.0914646 
0.0914646 0.0914646 0.0914646 0.0914646 0.0914646 0.0914646 0.0914646 0.0914646 0.0914646 
0.0914646 0.0914646 0.0914646 0.0914646 0.0914646 0.0914646 0.0914646 0.0914646 0.0914646 
0.0914646 0.0914646 0.0914646 0.0914646 0.0914646 0.0914646 0.0914646 0.0914646 0.0914646 
0.0914646 0.0914646 0.0914646 0.0914646 0.0914646 0.0914646 0.0914646 0.0914646 0.0914646 
0.0914646 0.0914646 0.0914646 0.0914646 0.0914646 0.0914646 0.0914646 0.0914646 0.0914646 
0.0914646 0.0914646 0.0914646 0.0914646 0.0914646 0.0914646 0.0914646 0.0914646 0.0914646 
0.0914646 0.0914646 0.0914646 0.0914646 0.0914646 0.0914646 0.0914646 0.0914646 0.0914646 
0.0914646 0.0914646 0.0914646 0.0914646 0.0914646 0.0914646 0.0914646 0.0914646 0.0914646 
0.0914646 0.0914646 0.0914646 0.0914646 0.0914646 0.0914646 0.0914646 0.0914646 0.0914646 
0.0914646 0.0914646 0.0914646 0.0914646 0.0914646 0.0914646 0.0914646 0.0914646 0.0914646 
0.0914646 0.0914646 0.0914646 0.0914646 0.0914646 0.0914646 0.0914646 0.0914646 0.0914646 
0.0914646 0.0914646 0.0914646 0.0914646 0.0914646 0.0914646 0.0914646 0.0914646 0.0914646 
0.0914646 0.0914646 0.0914646 0.0914646 0.0914646 0.0914646 0.0914646 0.0914646 0.0914646 
0.0914646 0.0914646 0.0914646 0.0914646 0.0914646 0.0914646 0.0914646 0.0914646 0.0914646 
0.0914646 0.0914646 0.0914646 0.0914646 0.0914646 0.0914646 0.0914646 0.0914646 0.0914646 
0.0914646 0.0914646 0.0914646 0.0914646 0.0914646 0.0914646 0.0914646 0.0914646 0.0914646 

