# vtk DataFile Version 4.0
vtk output
ASCII
DATASET POLYDATA
FIELD FieldData 4
domain 1 4 string
domain_min:-5|-5|-5
domain_max:5|5|5
cell_size:0.01|0.01|0.01
boundary:1|1|1

variables 1 8 string
T:0.685
dt:0.0005
A:-20.6788
V:-0.921924
Z:0.00477703
write_case:1
substeps:10
all_steps:1370

constants 1 11 string
L:0.1
csize:0.01
R:0.004
mass:0.00210445
E:2.06e+06
nu:0.33
M:20
freq:10
gamma:62.8319
S:78956.8
g:0|0|-9.81

equations 1 9 string
time:T=(T+dt)#true
eq:a=(dem_l(v,om,R,mass,E,nu,0.1)/mass)#true
tank_acceleration:A=(((-(transpose((fsum(a)*mass))*e_k))-(S*Z))/M)#true
iv:v=euler(v,((a+g)-(A*e_k)),dt)#true
ia:r=euler(r,v,dt)#true
tank_velocity:V=euler(V,A,dt)#true
tank_position:Z=euler(Z,V,dt)#true
bottom:bottom=(Z-0.05)#true
top:top=(Z+0.05)#true

POINTS 567 float
-0.0236504 -0.0451664 -0.0423829 -0.0108385 -0.0206638 -0.0419916 0.0011284 -0.0251692 -0.0413814 
0.0123521 -0.0234911 -0.0400678 0.019282 0.00460353 -0.0408101 -0.0437566 0.0172724 -0.0412024 
-0.001651 0.0247668 -0.0402391 0.0228322 0.033537 -0.043352 -0.0443141 -0.0460732 -0.0315553 
-0.0312432 -0.0404283 -0.0341161 -0.00406253 -0.0455912 -0.0397143 0.00281231 -0.0442981 -0.0318289 
0.0192373 -0.0428797 -0.0329979 0.043028 -0.0443239 -0.0317409 -0.0213112 -0.0376939 -0.0303872 
-0.02561 -0.0310676 -0.0321346 -0.0155707 -0.0396342 -0.0371247 -0.00897959 -0.0330525 -0.0353651 
-0.00681923 -0.0396465 -0.0321126 0.0125282 -0.0369146 -0.0345861 0.0212847 -0.0331935 -0.0345014 
0.0398878 -0.034648 -0.0396897 -0.0445514 -0.0243806 -0.037885 -0.0402179 -0.0296168 -0.0318116 
-0.0273464 -0.0226584 -0.0300977 -0.0197221 -0.0297635 -0.0383721 -0.0027738 -0.0215056 -0.031995 
0.00791027 -0.0267585 -0.0346208 0.025026 -0.0241812 -0.0367609 0.037089 -0.0242313 -0.0349819 
-0.0416378 -0.0109592 -0.0389104 -0.0327967 -0.0135791 -0.0369989 -0.0183028 -0.019076 -0.0300586 
-0.000341708 -0.0116879 -0.0345165 -0.00923483 -0.0147629 -0.0336101 0.0204085 -0.0149079 -0.0387208 
0.0339442 -0.0162637 -0.0364753 0.0423438 -0.0187987 -0.037853 -0.0396092 -0.00288203 -0.0376475 
-0.0176099 -0.00864965 -0.0334327 -0.00534565 -0.00328977 -0.0331255 0.00697478 -0.00628446 -0.0353176 
0.0313443 -0.00860643 -0.0308068 0.0406133 -0.00819871 -0.0394487 -0.0459272 0.00643279 -0.0368472 
-0.036551 0.00868081 -0.0371761 -0.0182778 0.0092007 -0.0357192 -0.0087663 0.00334793 -0.0312062 
0.00360873 0.00221713 -0.0366245 0.0130741 0.000257134 -0.0344861 0.045627 0.00493071 -0.0315136 
-0.0240729 0.01478 -0.0341862 -0.00353938 0.0186704 -0.0323531 -0.000843194 0.0112605 -0.0334391 
0.00700154 0.0163899 -0.0381632 0.0187276 0.0158744 -0.0397259 0.0265424 0.0108474 -0.0304281 
0.0422936 0.016514 -0.0317852 -0.0413098 0.0256097 -0.0321042 -0.0342278 0.0204601 -0.0308403 
-0.0246344 0.022791 -0.0332834 -0.0121241 0.0212187 -0.0352881 0.0098239 0.0251593 -0.0328361 
0.0148481 0.026631 -0.0390002 0.0358466 0.0258778 -0.0322164 0.0300312 0.0248476 -0.0379709 
-0.0443504 0.0341976 -0.0320592 -0.0336102 0.0306702 -0.0311484 -0.0363997 0.0368884 -0.036618 
-0.0152051 0.0342873 -0.0313819 -0.00191378 0.0396048 -0.0375162 0.0127348 0.0343623 -0.030986 
0.031862 0.0383839 -0.0356165 -0.0312873 0.0459664 -0.0350104 -0.0267602 0.0411565 -0.0398176 
-0.0179804 0.0415154 -0.0334813 -0.00986295 0.0446272 -0.0373031 0.00827312 0.0458336 -0.0375545 
0.0167488 0.0441089 -0.0308417 0.0231162 0.041055 -0.0361005 0.0312509 0.0447215 -0.0310245 
0.0442296 0.0403146 -0.0330016 -0.0294501 -0.0439402 -0.0263087 -0.0236844 -0.0401559 -0.0208628 
-0.0151932 -0.0437253 -0.021819 -0.00473851 -0.0430946 -0.0238484 0.00584462 -0.0402101 -0.0213802 
0.0197888 -0.0429173 -0.0233187 0.0110305 -0.0456453 -0.0260683 0.0261821 -0.0444497 -0.0284853 
-0.0305726 -0.0371083 -0.0216115 -0.0349621 -0.0308175 -0.0253411 -0.000897562 -0.0368541 -0.0273424 
-0.00814215 -0.0360534 -0.020769 0.0160976 -0.0308057 -0.0291573 0.0288945 -0.0319789 -0.0263028 
0.0263709 -0.0372211 -0.0204789 0.0346595 -0.0376713 -0.0251169 0.038224 -0.0304475 -0.0280204 
-0.0206537 -0.0249929 -0.0227022 0.0011892 -0.0270693 -0.0284124 0.0195291 -0.0217074 -0.0273797 
0.0312294 -0.0210134 -0.0264803 0.0436103 -0.0221037 -0.0261501 -0.0390588 -0.0152104 -0.0206209 
-0.0367434 -0.0133541 -0.0279776 -0.0192667 -0.0129569 -0.021078 0.00292089 -0.0188777 -0.0243938 
0.0107084 -0.0193525 -0.0256581 0.0144304 -0.0112623 -0.0280647 0.0229708 -0.0147531 -0.0290295 
0.0376879 -0.0181298 -0.0203799 -0.0446869 -0.000198705 -0.0279158 -0.034676 -0.0058538 -0.0288166 
-0.0298618 -0.00925937 -0.0222376 -0.0217033 -0.00559285 -0.0210599 -0.00584706 -0.0020631 -0.0240983 
-0.00842781 -0.00874173 -0.0206036 0.00643629 -0.00535095 -0.0224421 0.0129915 -0.00288065 -0.0261554 
0.0229834 -0.00703317 -0.0271353 0.0374006 -0.00992583 -0.0219957 0.0458943 -0.0042586 -0.0282329 
-0.0408517 0.00640944 -0.0290235 -0.032025 0.00200416 -0.0204524 -0.0338327 0.00215631 -0.0295791 
-0.015069 0.00159081 -0.0265361 -0.00434293 0.00540306 -0.0205612 0.00810344 0.00580691 -0.0249007 
0.0177954 0.0038465 -0.0238709 0.0285249 0.00171329 -0.0270151 0.0424916 0.000866549 -0.0229772 
0.0451878 0.00963833 -0.0202805 -0.0288127 0.0116931 -0.0275217 -0.0130372 0.0109699 -0.02512 
-0.0197131 0.0152822 -0.0229116 -0.00868973 0.0177836 -0.0208924 -0.00273209 0.0131544 -0.0249882 
0.00868985 0.0159552 -0.0262098 0.0193472 0.0123351 -0.0221076 0.0310723 0.0195955 -0.0277297 
-0.0422524 0.0204562 -0.0259215 -0.0353398 0.0219796 -0.0212125 -0.0293325 0.0255429 -0.0250184 
-0.0140491 0.0258292 -0.0268651 -0.00630767 0.0299704 -0.0296427 0.00456111 0.0223853 -0.0215533 
0.0230143 0.0274051 -0.0272341 0.0356979 0.0201413 -0.0211485 0.0300216 0.0267439 -0.0226449 
-0.0367807 0.0303387 -0.0226698 -0.0360261 0.0377496 -0.0263999 -0.0197731 0.0307247 -0.0236074 
-0.000527031 0.0349011 -0.0235806 0.00705262 0.0301382 -0.0219856 0.00735418 0.0386919 -0.0251669 
0.0174073 0.0317723 -0.0239037 0.0244454 0.0330556 -0.020303 0.0457651 0.0329753 -0.0299509 
0.0453058 0.038301 -0.0238536 -0.0452186 0.0440649 -0.0229675 -0.0362442 0.0459855 -0.0219557 
-0.0230829 0.046242 -0.026937 -0.0162499 0.0459638 -0.0206026 -0.00545569 0.041751 -0.029325 
0.00391896 0.0458954 -0.0214038 0.0265766 0.0445104 -0.0234278 -0.0455951 -0.0448834 -0.0112537 
-0.038816 -0.0411013 -0.0166463 0.00695179 -0.0422705 -0.0138909 0.0247783 -0.0424501 -0.0140037 
0.0398966 -0.0442757 -0.0183836 0.0461181 -0.0443312 -0.0137165 -0.0455185 -0.0333913 -0.0152188 
-0.0347929 -0.0338557 -0.015074 -0.0137779 -0.0300622 -0.0101107 -0.0160528 -0.0369901 -0.0158055 
-0.00597217 -0.0318286 -0.0110266 0.00482087 -0.0314375 -0.0159621 0.0160886 -0.0392539 -0.0115818 
0.0160598 -0.0318187 -0.0182748 0.0250945 -0.0342229 -0.0102378 0.0347004 -0.0309025 -0.0166029 
0.0437108 -0.0352239 -0.0165412 -0.0460464 -0.0261786 -0.0103198 -0.0442959 -0.0245496 -0.0179685 
-0.0303204 -0.0284173 -0.0114607 -0.0362108 -0.0230011 -0.0155047 -0.0283497 -0.0231252 -0.0198608 
-0.0126447 -0.0227073 -0.0177111 -0.00326646 -0.0264275 -0.0177664 0.00495032 -0.0245816 -0.0101461 
0.0107313 -0.0263674 -0.0155314 0.018139 -0.0296236 -0.0111133 0.0261279 -0.0291758 -0.0193564 
0.0214733 -0.022135 -0.0153696 0.0312904 -0.021086 -0.0124729 0.0453241 -0.0246148 -0.0163186 
-0.0270864 -0.0144249 -0.0114859 -0.0143269 -0.0141231 -0.0146109 -0.00384524 -0.0113858 -0.0119294 
-0.00850343 -0.018719 -0.0104886 -0.000670575 -0.0128098 -0.0199513 0.00361475 -0.0100418 -0.0104881 
0.0189617 -0.015029 -0.0199412 0.0157596 -0.0126561 -0.0108941 0.010637 -0.0130231 -0.0176356 
0.0240213 -0.0101277 -0.0129854 0.0315254 -0.0108755 -0.0146675 0.046011 -0.01629 -0.0173496 
-0.0460932 -0.0083791 -0.0107806 -0.0385452 -0.005683 -0.0188683 -0.0289398 -0.00541933 -0.0136942 
-0.0140144 -0.00659714 -0.0116851 -0.000205355 -0.00462769 -0.0158805 0.0195115 -0.00386943 -0.016661 
0.0289344 -0.00350877 -0.0191549 0.0392015 -0.00446506 -0.0126242 -0.0440196 0.000371241 -0.0108125 
-0.0431069 0.00803781 -0.0174555 -0.0325886 0.00255824 -0.0118857 -0.0257872 0.00699212 -0.0172729 
-0.0219828 0.0030974 -0.0112035 -0.0147135 0.00350411 -0.0166271 0.00346886 0.00225629 -0.0179992 
0.00595339 0.00770074 -0.0124863 0.0171034 0.0055788 -0.0112923 0.023958 0.00334199 -0.0161255 
0.036975 0.00286274 -0.0151462 0.0449723 0.00345042 -0.0113719 -0.0365652 0.0118102 -0.0101516 
-0.0293158 0.0162218 -0.0166331 -0.0230907 0.0148038 -0.0117168 -0.0137589 0.0167634 -0.0105756 
-0.00183855 0.014102 -0.0148548 -0.00935665 0.0107874 -0.015693 0.00718583 0.013443 -0.0181685 
0.0136429 0.0175621 -0.010881 0.0133941 0.0179418 -0.0190524 0.0225892 0.0174931 -0.010128 
0.0308027 0.0139387 -0.018784 0.0378508 0.0148023 -0.0150145 -0.0386771 0.0203096 -0.0126837 
-0.0311477 0.0269851 -0.0153936 -0.0213762 0.0228882 -0.0131617 -0.00942114 0.0270958 -0.0186386 
-0.00337728 0.0220695 -0.0159365 0.0104432 0.0250715 -0.0151577 0.0239795 0.0200575 -0.0198954 
0.03712 0.0236518 -0.0113642 0.0371421 0.0292041 -0.0189391 0.0456914 0.0278422 -0.0185756 
0.0457899 0.0224615 -0.0126928 -0.0439649 0.0300559 -0.0161457 -0.0427558 0.0362551 -0.0105952 
-0.0455308 0.0380621 -0.0178847 -0.0360141 0.0369941 -0.0163565 -0.0255426 0.0355478 -0.0167347 
-0.0116862 0.0377201 -0.0193789 -0.00245199 0.0308345 -0.013656 0.00876934 0.0364392 -0.016356 
0.0177763 0.03565 -0.0100452 0.0250295 0.0319337 -0.0125058 0.033305 0.0390394 -0.0175519 
0.0455742 0.0327432 -0.0118011 0.0411668 0.0385454 -0.0155862 -0.0437204 0.0453946 -0.0137236 
-0.0346587 0.0435881 -0.0114186 -0.0262427 0.0450471 -0.0119067 -0.0287739 0.0432199 -0.0199314 
-0.00553291 0.045706 -0.0192305 -0.00225184 0.0434627 -0.0124731 0.00832368 0.0438558 -0.0105062 
0.0197846 0.0443563 -0.0196292 0.0327083 0.0452965 -0.011671 -0.0438838 -0.0410399 -0.00249338 
-0.0352903 -0.0462978 -0.00839369 -0.0204223 -0.0458811 -0.00477905 -0.0281568 -0.0456635 -0.0040535 
-0.00949562 -0.0414207 -0.000124889 0.0172722 -0.0456703 -0.00126329 -0.0401802 -0.0374208 -0.00959119 
-0.0337052 -0.0397137 -0.00374533 -0.0288397 -0.0372037 -0.0098143 -0.0206117 -0.0343999 -0.0097041 
-0.0122263 -0.0380602 -0.00865192 -0.0097118 -0.0300196 -0.00323768 -0.00434767 -0.0381031 -0.00604812 
0.00262409 -0.0339138 -0.00296512 0.019928 -0.0375844 -0.00492967 0.0117831 -0.0347311 -0.00233986 
0.027446 -0.0372823 -0.00262576 0.0374885 -0.0393948 -0.00671246 -0.0313507 -0.023143 -0.00533512 
-0.037746 -0.0269878 -0.00120288 -0.0223432 -0.0232316 -0.00102116 -0.017399 -0.0239422 -0.00692836 
0.0168096 -0.0219628 -0.00545322 0.0257395 -0.0249958 -0.00485137 0.0350922 -0.0229676 -0.00599133 
0.0450625 -0.0295661 -0.00371225 -0.035895 -0.0163085 -0.00892917 -0.0280197 -0.0174136 -8.70761e-05 
-0.0154595 -0.0179564 -0.00267351 -0.00728846 -0.0167344 -0.00259599 0.00044828 -0.0178725 -0.00761308 
0.0255827 -0.0120378 -0.00357129 0.0221307 -0.0176308 -0.00865874 0.0395081 -0.0149624 -0.00907085 
0.034917 -0.0154215 -0.00293836 -0.0430641 -0.000954199 -0.00118472 -0.0343608 -0.00457465 -0.00427702 
-0.0260237 -0.00635034 -0.00446842 -0.0106712 -0.00595352 -0.00364278 0.0167366 -0.00299543 -0.00221722 
0.010266 -0.00422374 -0.00896914 0.0459878 -0.00500568 -0.00564672 -0.0421606 0.0061297 -0.00526088 
-0.0298548 0.00889886 -0.00181507 -0.0201406 0.00821075 -0.00500779 -0.0145502 0.00246063 -0.00820593 
-0.00564403 0.00279607 -0.0097706 -0.00915691 0.00610079 -0.002793 -0.000512794 0.00644006 -0.00420121 
0.0363622 0.00132392 -0.00672504 0.0348765 0.00911195 -0.00955023 -0.0346501 0.0191271 -0.00220996 
-0.0134845 0.0168195 -0.00234051 0.0016577 0.0158048 -0.00183671 0.0075871 0.0104266 -0.00523294 
0.0266105 0.0195169 -0.00222209 0.0272907 0.0105855 -0.00879977 0.0304263 0.0194744 -0.00986764 
0.0423042 0.0112593 -0.00382063 -0.0448083 0.0253201 -0.00975452 -0.0333619 0.0278546 -0.00549068 
-0.0255256 0.020068 -0.00230045 -0.0115354 0.0245699 -0.00677982 -0.00511641 0.02158 -0.0029235 
0.00022131 0.0201955 -0.00927952 0.00491295 0.0239661 -0.000751212 0.00246317 0.0299189 -0.00665817 
0.0198373 0.0266987 -0.00891739 0.0136289 0.0212502 -0.00258801 0.0377039 0.0219087 -0.00146939 
0.0312837 0.0260035 -0.00174986 -0.0425495 0.0366095 -0.00167663 -0.0295612 0.0356222 -0.00998391 
-0.0188866 0.0344599 -0.00184701 -0.0170248 0.0389732 -0.00865374 0.00885403 0.0345582 -0.00413085 
0.0294247 0.0340708 -0.00167769 0.0206477 0.0344652 -1.15733e-05 0.037523 0.0326044 -0.00909512 
0.0433531 0.0387317 -0.000462586 -0.0245064 0.0420587 -0.00423083 -0.0103691 0.0421809 -0.00465375 
0.0155792 0.0405848 -0.00368756 0.0376881 0.0427029 -0.00336838 0.0457562 0.0444028 -0.0092078 
-0.0416921 -0.0458314 0.00940706 -0.0221882 -0.0419326 0.00365812 0.028792 -0.0442013 0.00148561 
0.0338803 -0.0419266 0.00758275 0.0429918 -0.0434661 0.00482053 -0.0405763 -0.0363275 0.00314049 
-0.024657 -0.0307688 0.00600206 -0.0289643 -0.0353062 0.000624033 -0.0118117 -0.0389871 0.00724317 
-0.0193743 -0.032085 9.44219e-05 -0.0100846 -0.031366 0.00555924 -0.000628475 -0.0374151 0.00387919 
0.00731091 -0.0392582 0.00448014 0.0164035 -0.0393238 0.00730035 0.0328591 -0.0300058 0.00554072 
0.0423185 -0.034802 0.000980096 -0.0423546 -0.0236967 0.00664085 -0.0147956 -0.0237752 0.00304887 
-0.0009654 -0.0258316 0.00463523 0.0060256 -0.0234586 0.000175303 0.0075927 -0.0292551 0.00501868 
0.0195583 -0.0276725 0.0015008 0.044493 -0.0293558 0.00821946 -0.0436971 -0.0148236 0.00709908 
-0.0208123 -0.0192405 0.00665542 -0.007068 -0.0150012 0.00667217 0.00734148 -0.0171085 0.00545533 
0.0252233 -0.0112879 0.00796599 0.0431271 -0.0197602 0.0014552 0.0446372 -0.0104749 0.00839666 
-0.0462279 -0.0079891 0.000282757 -0.0376612 -0.00843499 0.00593279 -0.010438 -0.000271406 0.00195392 
-0.0193097 -0.00809697 0.00187343 -0.00364352 -0.00577107 0.00760991 0.00926472 -0.0075685 0.00479038 
0.0179872 -0.00246678 0.00661274 0.017679 -0.00993174 0.00458331 0.0355293 -0.00770025 0.00396115 
0.0430822 -0.00170232 0.00289203 -0.0406522 0.00396646 0.00818194 -0.0310896 0.00696832 0.00688223 
-0.0227284 0.00247015 0.00337457 -0.00176219 5.11285e-06 0.00162533 0.00733277 0.00142201 0.00165561 
0.00537753 0.0014396 0.00915985 0.0176875 0.00616576 0.00937605 0.0150793 0.00545462 0.000187414 
0.025031 0.000945694 0.000227381 0.0303827 0.00460795 0.00395418 0.0389722 0.00506389 0.00864374 
-0.0361451 0.0152002 0.00615247 -0.0226205 0.0160711 0.00398411 -0.000895426 0.0111035 0.00770266 
-0.00411206 0.0184063 0.00748174 0.00975031 0.0177193 0.00763049 0.0195935 0.0156985 0.00282622 
0.0356997 0.011915 0.000338201 0.0310258 0.0174447 0.00860142 0.0421997 0.0151906 0.00494711 
-0.0407322 0.023013 0.00772766 -0.0387037 0.0289359 0.00250114 -0.0304377 0.0288093 0.00198644 
-0.02813 0.0219577 0.00563026 -0.0211102 0.0254255 0.00272184 -0.0127177 0.0286137 0.000543859 
-0.00493789 0.0288712 0.00129687 0.00671859 0.0292228 0.00676417 0.013515 0.0249332 0.00714528 
0.0222012 0.0246247 0.00579017 0.0283265 0.029952 0.0066016 0.0367495 0.0254007 0.0061412 
0.0459853 0.0215666 0.00123225 -0.0275176 0.0379914 0.00434657 -0.00347852 0.0392686 0.00896046 
0.00159416 0.0350594 0.000191999 0.0438596 0.0317869 0.00706634 -0.0458099 0.0445499 0.00310322 
-0.0384891 0.0443103 0.000204377 -0.0316912 0.045269 0.00504555 -0.0225142 0.0456038 0.00278685 
-0.0102181 0.042716 0.00502763 0.00472676 0.0459105 0.00130681 0.016712 0.0444785 0.00479889 
0.0253939 0.0442091 0.00544224 0.0458913 0.0454973 0.00847223 -0.0387768 -0.0451054 0.0182773 
-0.0295409 -0.0429794 0.0113788 -0.00291105 -0.043841 0.0109535 0.0127136 -0.0448184 0.0110746 
0.0264733 -0.0437918 0.0152519 0.0374006 -0.0433955 0.0192402 -0.0216113 -0.0344622 0.0169602 
-0.00699172 -0.0309896 0.0197059 -0.00425954 -0.037397 0.0141517 0.00353026 -0.0391774 0.0115083 
0.017204 -0.0335162 0.0129909 0.0232679 -0.0357991 0.018815 0.0376424 -0.0318998 0.0195274 
-0.036081 -0.0201812 0.0178025 -0.0260592 -0.0266214 0.0153635 -0.0207007 -0.0204561 0.0168169 
0.00289609 -0.0259434 0.0142404 0.0109485 -0.0239101 0.0124855 0.0323509 -0.0256974 0.0178454 
0.0364781 -0.0263118 0.0113198 -0.0261791 -0.0138668 0.0120467 -0.0163161 -0.0104135 0.0152916 
-0.00120018 -0.0185489 0.0112068 0.0127702 -0.0123824 0.0140526 0.0193966 -0.0189395 0.0147634 
0.0452757 -0.0159516 0.0194449 -0.0457287 -0.00428621 0.0157383 -0.0346067 -0.00747992 0.0145469 
-0.0152337 -0.000139732 0.0136903 -0.00207334 -0.0060634 0.016617 0.0135332 -0.0012667 0.0151404 
0.0261044 -0.0038579 0.0173104 0.0417126 -0.00142463 0.0136442 -0.00885168 0.00563554 0.015353 
0.00322416 0.00233947 0.0188562 0.0129435 0.00804319 0.0192853 0.044735 0.00922512 0.014117 
-0.0420904 0.0153748 0.0149689 -0.0236422 0.0148746 0.0186129 -0.0108918 0.0135686 0.0121082 
0.00813039 0.0161739 0.0185175 0.00170848 0.0119745 0.0189806 0.0189964 0.0177609 0.0104553 
0.0247251 0.0132759 0.0133847 -0.0255119 0.0286086 0.0185614 -0.0145499 0.0267634 0.0127239 
-0.00394023 0.0284147 0.0100564 0.00529852 0.0256077 0.0139336 0.0164351 0.029565 0.0157277 
0.0199649 0.0215322 0.0187495 0.0285484 0.0217145 0.017092 -0.0357318 0.0328191 0.0113993 
-0.0213712 0.0373123 0.0148622 0.00543252 0.0348144 0.012593 0.0205383 0.036993 0.0181969 
0.0372014 0.0316068 0.011242 0.0315961 0.0307511 0.0189077 -0.0435485 0.0439083 0.0134324 
-0.0300354 0.0457381 0.0197864 -0.0175557 0.0442957 0.0120112 -0.00891717 0.0456517 0.0181382 
0.00865219 0.0424306 0.0114417 0.0043367 0.0438225 0.019084 0.0329915 0.0400183 0.016599 
0.0386565 0.0451577 0.0193412 -0.0454076 -0.0460736 0.0260503 -0.0162782 -0.0443926 0.0260025 
-0.00750492 -0.04396 0.0263628 0.0167782 -0.042987 0.0273523 -0.0310397 -0.0353791 0.0289326 
-0.00150085 -0.0354472 0.0238817 0.00741895 -0.0339204 0.0246914 -0.0415433 -0.027136 0.0232698 
-0.0206695 -0.0265653 0.028253 0.00837528 -0.0242915 0.0223894 0.0216948 -0.0239668 0.0216529 
-0.0376501 -0.0191694 0.0289709 -0.0107585 -0.0198893 0.0204982 -0.0352713 -0.00104616 0.0202063 
-0.0198537 -0.00126535 0.0231957 -0.0125381 -0.00334488 0.0292244 -0.0106357 -0.00261138 0.0208418 
0.00448699 -0.00761765 0.0227634 0.0206573 -0.00831926 0.0218485 0.0370971 -0.00888855 0.0206263 
0.044569 -0.00257644 0.0224931 0.0333498 0.00868718 0.023491 -0.00426221 0.018547 0.0278166 
0.00511555 0.0151572 0.0272046 0.0184441 0.0128626 0.0209288 0.0328946 0.0172293 0.0216159 
0.0438366 0.0163735 0.0200046 -0.0436087 0.0225149 0.0213162 -0.0226185 0.027954 0.0299422 
-0.0053387 0.037546 0.0225128 0.00449137 0.0361214 0.0219092 0.0230927 0.0366661 0.0260299 
0.0168211 0.043686 0.0269003 -0.0331105 -0.0432724 0.0316757 0.0223988 -0.043711 0.0330683 
-0.012385 -0.0368532 0.0310173 0.0173932 -0.0357246 0.0308152 0.0439805 -0.0312842 0.0364953 
-0.0242898 -0.0279051 0.0365684 -0.0306455 -0.0193776 0.0360518 -0.0237185 -0.0168746 0.0322932 
0.0242192 -0.0137895 0.033852 0.0438757 -0.0189065 0.0373715 0.00662398 -0.00795672 0.03532 
0.0351045 -0.000851273 0.0315931 -0.0387594 0.016054 0.0316187 0.0420341 0.011189 0.0300522 
0.00737389 0.0248843 0.0310637 0.0207511 0.0212524 0.0397268 -0.0298684 0.0353686 0.0311713 
0.0284251 0.0375931 0.0383602 -0.0442802 -0.0220863 0.0461203 -0.0382213 -0.0223025 0.0408597 
0.0199265 -0.0290256 0.0413746 0.0400666 0.0163019 0.0422309 -0.0290038 0.0234436 0.0413151 

VERTICES 1134 1134
1 0 
1 1 
1 2 
1 3 
1 4 
1 5 
1 6 
1 7 
1 8 
1 9 
1 10 
1 11 
1 12 
1 13 
1 14 
1 15 
1 16 
1 17 
1 18 
1 19 
1 20 
1 21 
1 22 
1 23 
1 24 
1 25 
1 26 
1 27 
1 28 
1 29 
1 30 
1 31 
1 32 
1 33 
1 34 
1 35 
1 36 
1 37 
1 38 
1 39 
1 40 
1 41 
1 42 
1 43 
1 44 
1 45 
1 46 
1 47 
1 48 
1 49 
1 50 
1 51 
1 52 
1 53 
1 54 
1 55 
1 56 
1 57 
1 58 
1 59 
1 60 
1 61 
1 62 
1 63 
1 64 
1 65 
1 66 
1 67 
1 68 
1 69 
1 70 
1 71 
1 72 
1 73 
1 74 
1 75 
1 76 
1 77 
1 78 
1 79 
1 80 
1 81 
1 82 
1 83 
1 84 
1 85 
1 86 
1 87 
1 88 
1 89 
1 90 
1 91 
1 92 
1 93 
1 94 
1 95 
1 96 
1 97 
1 98 
1 99 
1 100 
1 101 
1 102 
1 103 
1 104 
1 105 
1 106 
1 107 
1 108 
1 109 
1 110 
1 111 
1 112 
1 113 
1 114 
1 115 
1 116 
1 117 
1 118 
1 119 
1 120 
1 121 
1 122 
1 123 
1 124 
1 125 
1 126 
1 127 
1 128 
1 129 
1 130 
1 131 
1 132 
1 133 
1 134 
1 135 
1 136 
1 137 
1 138 
1 139 
1 140 
1 141 
1 142 
1 143 
1 144 
1 145 
1 146 
1 147 
1 148 
1 149 
1 150 
1 151 
1 152 
1 153 
1 154 
1 155 
1 156 
1 157 
1 158 
1 159 
1 160 
1 161 
1 162 
1 163 
1 164 
1 165 
1 166 
1 167 
1 168 
1 169 
1 170 
1 171 
1 172 
1 173 
1 174 
1 175 
1 176 
1 177 
1 178 
1 179 
1 180 
1 181 
1 182 
1 183 
1 184 
1 185 
1 186 
1 187 
1 188 
1 189 
1 190 
1 191 
1 192 
1 193 
1 194 
1 195 
1 196 
1 197 
1 198 
1 199 
1 200 
1 201 
1 202 
1 203 
1 204 
1 205 
1 206 
1 207 
1 208 
1 209 
1 210 
1 211 
1 212 
1 213 
1 214 
1 215 
1 216 
1 217 
1 218 
1 219 
1 220 
1 221 
1 222 
1 223 
1 224 
1 225 
1 226 
1 227 
1 228 
1 229 
1 230 
1 231 
1 232 
1 233 
1 234 
1 235 
1 236 
1 237 
1 238 
1 239 
1 240 
1 241 
1 242 
1 243 
1 244 
1 245 
1 246 
1 247 
1 248 
1 249 
1 250 
1 251 
1 252 
1 253 
1 254 
1 255 
1 256 
1 257 
1 258 
1 259 
1 260 
1 261 
1 262 
1 263 
1 264 
1 265 
1 266 
1 267 
1 268 
1 269 
1 270 
1 271 
1 272 
1 273 
1 274 
1 275 
1 276 
1 277 
1 278 
1 279 
1 280 
1 281 
1 282 
1 283 
1 284 
1 285 
1 286 
1 287 
1 288 
1 289 
1 290 
1 291 
1 292 
1 293 
1 294 
1 295 
1 296 
1 297 
1 298 
1 299 
1 300 
1 301 
1 302 
1 303 
1 304 
1 305 
1 306 
1 307 
1 308 
1 309 
1 310 
1 311 
1 312 
1 313 
1 314 
1 315 
1 316 
1 317 
1 318 
1 319 
1 320 
1 321 
1 322 
1 323 
1 324 
1 325 
1 326 
1 327 
1 328 
1 329 
1 330 
1 331 
1 332 
1 333 
1 334 
1 335 
1 336 
1 337 
1 338 
1 339 
1 340 
1 341 
1 342 
1 343 
1 344 
1 345 
1 346 
1 347 
1 348 
1 349 
1 350 
1 351 
1 352 
1 353 
1 354 
1 355 
1 356 
1 357 
1 358 
1 359 
1 360 
1 361 
1 362 
1 363 
1 364 
1 365 
1 366 
1 367 
1 368 
1 369 
1 370 
1 371 
1 372 
1 373 
1 374 
1 375 
1 376 
1 377 
1 378 
1 379 
1 380 
1 381 
1 382 
1 383 
1 384 
1 385 
1 386 
1 387 
1 388 
1 389 
1 390 
1 391 
1 392 
1 393 
1 394 
1 395 
1 396 
1 397 
1 398 
1 399 
1 400 
1 401 
1 402 
1 403 
1 404 
1 405 
1 406 
1 407 
1 408 
1 409 
1 410 
1 411 
1 412 
1 413 
1 414 
1 415 
1 416 
1 417 
1 418 
1 419 
1 420 
1 421 
1 422 
1 423 
1 424 
1 425 
1 426 
1 427 
1 428 
1 429 
1 430 
1 431 
1 432 
1 433 
1 434 
1 435 
1 436 
1 437 
1 438 
1 439 
1 440 
1 441 
1 442 
1 443 
1 444 
1 445 
1 446 
1 447 
1 448 
1 449 
1 450 
1 451 
1 452 
1 453 
1 454 
1 455 
1 456 
1 457 
1 458 
1 459 
1 460 
1 461 
1 462 
1 463 
1 464 
1 465 
1 466 
1 467 
1 468 
1 469 
1 470 
1 471 
1 472 
1 473 
1 474 
1 475 
1 476 
1 477 
1 478 
1 479 
1 480 
1 481 
1 482 
1 483 
1 484 
1 485 
1 486 
1 487 
1 488 
1 489 
1 490 
1 491 
1 492 
1 493 
1 494 
1 495 
1 496 
1 497 
1 498 
1 499 
1 500 
1 501 
1 502 
1 503 
1 504 
1 505 
1 506 
1 507 
1 508 
1 509 
1 510 
1 511 
1 512 
1 513 
1 514 
1 515 
1 516 
1 517 
1 518 
1 519 
1 520 
1 521 
1 522 
1 523 
1 524 
1 525 
1 526 
1 527 
1 528 
1 529 
1 530 
1 531 
1 532 
1 533 
1 534 
1 535 
1 536 
1 537 
1 538 
1 539 
1 540 
1 541 
1 542 
1 543 
1 544 
1 545 
1 546 
1 547 
1 548 
1 549 
1 550 
1 551 
1 552 
1 553 
1 554 
1 555 
1 556 
1 557 
1 558 
1 559 
1 560 
1 561 
1 562 
1 563 
1 564 
1 565 
1 566 

POINT_DATA 567
SCALARS id double
LOOKUP_TABLE default
330 133 457 259 135 30 235 363 17 
397 136 23 406 331 76 139 416 448 
211 273 441 540 256 71 132 70 468 
467 531 205 104 202 200 40 459 426 
469 451 33 140 68 60 384 535 275 
171 295 326 280 237 395 138 306 276 
381 418 435 475 218 537 207 97 319 
538 495 14 58 77 228 314 231 562 
226 169 223 289 37 351 561 396 490 
323 447 156 41 524 128 552 456 402 
407 129 252 354 81 424 328 378 419 
131 85 333 137 450 96 111 382 340 
549 262 141 545 82 20 461 296 162 
110 266 385 499 560 449 415 1 86 
307 90 222 541 193 544 408 19 288 
185 173 439 401 429 421 101 356 365 
309 44 564 348 536 163 168 88 279 
217 530 369 438 502 125 425 124 357 
92 151 480 313 350 460 115 383 318 
532 500 204 13 512 444 260 528 496 
526 508 386 455 427 29 210 221 466 
553 47 142 216 523 201 476 315 65 
25 150 258 149 94 89 428 505 197 
183 283 550 334 504 31 100 344 272 
325 472 157 43 362 103 39 161 224 
554 404 520 501 462 34 299 83 297 
483 294 73 493 391 209 510 521 118 
473 301 311 74 53 515 107 394 488 
346 229 199 374 355 411 108 239 332 
556 212 452 414 62 503 175 232 11 
121 300 359 373 546 26 84 400 190 
143 430 191 95 12 27 0 2 464 
4 322 102 67 327 146 55 304 509 
10 51 220 518 527 167 126 244 3 
516 6 405 206 158 242 336 261 389 
432 219 241 298 286 52 56 387 353 
453 79 227 189 454 18 445 152 434 
529 182 45 105 347 106 343 59 49 
471 506 292 533 112 342 234 113 484 
233 492 367 494 285 119 563 57 485 
8 66 321 75 446 269 390 93 147 
130 145 72 551 293 308 478 376 491 
42 54 487 380 236 338 63 465 274 
511 9 393 24 277 497 196 69 253 
525 519 5 192 474 46 489 290 282 
371 482 278 341 559 557 440 422 208 
481 565 181 267 372 302 122 230 159 
375 238 312 164 251 398 463 358 186 
566 281 109 547 21 32 28 38 345 
248 148 187 392 339 399 91 265 203 
264 48 127 195 335 36 498 215 324 
388 437 117 443 268 320 64 507 240 
377 442 409 317 249 61 366 7 368 
155 542 154 87 250 410 165 370 413 
166 245 188 225 284 291 349 78 179 
246 177 116 176 534 361 310 548 433 
214 178 360 287 543 558 271 114 35 
329 263 213 254 255 198 517 379 514 
403 479 423 99 174 247 144 305 22 
513 539 160 180 364 352 417 257 337 
50 170 470 303 98 316 15 458 522 
270 80 16 134 412 486 477 120 123 
436 172 243 420 194 184 431 555 153 

FIELD FieldData 7
r 3 567 double
-0.0236504 -0.0451664 -0.0423829 -0.0108385 -0.0206638 -0.0419916 0.0011284 -0.0251692 -0.0413814 
0.0123521 -0.0234911 -0.0400678 0.019282 0.00460353 -0.0408101 -0.0437566 0.0172724 -0.0412024 
-0.001651 0.0247668 -0.0402391 0.0228322 0.033537 -0.043352 -0.0443141 -0.0460732 -0.0315553 
-0.0312432 -0.0404283 -0.0341161 -0.00406253 -0.0455912 -0.0397143 0.00281231 -0.0442981 -0.0318289 
0.0192373 -0.0428797 -0.0329979 0.043028 -0.0443239 -0.0317409 -0.0213112 -0.0376939 -0.0303872 
-0.02561 -0.0310676 -0.0321346 -0.0155707 -0.0396342 -0.0371247 -0.00897959 -0.0330525 -0.0353651 
-0.00681923 -0.0396465 -0.0321126 0.0125282 -0.0369146 -0.0345861 0.0212847 -0.0331935 -0.0345014 
0.0398878 -0.034648 -0.0396897 -0.0445514 -0.0243806 -0.037885 -0.0402179 -0.0296168 -0.0318116 
-0.0273464 -0.0226584 -0.0300977 -0.0197221 -0.0297635 -0.0383721 -0.0027738 -0.0215056 -0.031995 
0.00791027 -0.0267585 -0.0346208 0.025026 -0.0241812 -0.036761 0.037089 -0.0242313 -0.0349819 
-0.0416378 -0.0109592 -0.0389104 -0.0327967 -0.0135791 -0.0369989 -0.0183028 -0.019076 -0.0300586 
-0.000341708 -0.0116879 -0.0345165 -0.00923483 -0.0147629 -0.0336101 0.0204085 -0.0149079 -0.0387209 
0.0339442 -0.0162637 -0.0364753 0.0423438 -0.0187987 -0.037853 -0.0396092 -0.00288203 -0.0376475 
-0.0176099 -0.00864965 -0.0334327 -0.00534565 -0.00328977 -0.0331255 0.00697478 -0.00628446 -0.0353176 
0.0313443 -0.00860643 -0.0308068 0.0406133 -0.00819871 -0.0394487 -0.0459272 0.00643279 -0.0368472 
-0.036551 0.00868081 -0.0371761 -0.0182778 0.0092007 -0.0357192 -0.0087663 0.00334793 -0.0312062 
0.00360873 0.00221713 -0.0366245 0.0130741 0.000257134 -0.0344861 0.045627 0.00493071 -0.0315136 
-0.0240729 0.01478 -0.0341862 -0.00353938 0.0186704 -0.0323531 -0.000843194 0.0112605 -0.0334391 
0.00700154 0.0163899 -0.0381632 0.0187276 0.0158744 -0.0397259 0.0265424 0.0108474 -0.0304281 
0.0422936 0.016514 -0.0317852 -0.0413098 0.0256097 -0.0321042 -0.0342278 0.0204601 -0.0308403 
-0.0246344 0.022791 -0.0332834 -0.0121241 0.0212187 -0.0352881 0.0098239 0.0251593 -0.0328361 
0.0148481 0.026631 -0.0390002 0.0358466 0.0258778 -0.0322164 0.0300312 0.0248476 -0.0379709 
-0.0443504 0.0341976 -0.0320592 -0.0336102 0.0306702 -0.0311484 -0.0363997 0.0368884 -0.036618 
-0.0152051 0.0342873 -0.0313819 -0.00191378 0.0396048 -0.0375162 0.0127348 0.0343623 -0.030986 
0.031862 0.0383839 -0.0356165 -0.0312873 0.0459664 -0.0350104 -0.0267602 0.0411565 -0.0398176 
-0.0179804 0.0415154 -0.0334813 -0.00986295 0.0446272 -0.0373031 0.00827312 0.0458336 -0.0375545 
0.0167488 0.0441089 -0.0308417 0.0231162 0.041055 -0.0361005 0.0312509 0.0447215 -0.0310245 
0.0442296 0.0403146 -0.0330016 -0.0294501 -0.0439402 -0.0263087 -0.0236844 -0.0401559 -0.0208628 
-0.0151932 -0.0437253 -0.021819 -0.00473851 -0.0430946 -0.0238484 0.00584462 -0.0402101 -0.0213802 
0.0197888 -0.0429173 -0.0233187 0.0110305 -0.0456453 -0.0260683 0.0261821 -0.0444497 -0.0284853 
-0.0305726 -0.0371083 -0.0216115 -0.0349621 -0.0308175 -0.0253411 -0.000897562 -0.0368541 -0.0273425 
-0.00814215 -0.0360534 -0.020769 0.0160976 -0.0308057 -0.0291573 0.0288945 -0.0319789 -0.0263028 
0.0263709 -0.0372211 -0.0204789 0.0346595 -0.0376713 -0.0251169 0.038224 -0.0304475 -0.0280204 
-0.0206537 -0.0249929 -0.0227022 0.0011892 -0.0270693 -0.0284124 0.019529 -0.0217074 -0.0273797 
0.0312294 -0.0210134 -0.0264803 0.0436103 -0.0221037 -0.0261501 -0.0390588 -0.0152104 -0.0206209 
-0.0367434 -0.0133541 -0.0279776 -0.0192667 -0.0129569 -0.021078 0.00292089 -0.0188777 -0.0243938 
0.0107084 -0.0193525 -0.0256581 0.0144304 -0.0112623 -0.0280647 0.0229708 -0.0147531 -0.0290295 
0.0376879 -0.0181298 -0.0203799 -0.0446869 -0.000198705 -0.0279158 -0.034676 -0.0058538 -0.0288166 
-0.0298618 -0.00925937 -0.0222376 -0.0217033 -0.00559285 -0.0210599 -0.00584706 -0.0020631 -0.0240983 
-0.00842781 -0.00874173 -0.0206036 0.00643629 -0.00535095 -0.0224421 0.0129915 -0.00288065 -0.0261554 
0.0229834 -0.00703317 -0.0271353 0.0374006 -0.00992583 -0.0219957 0.0458943 -0.0042586 -0.0282329 
-0.0408517 0.00640944 -0.0290235 -0.032025 0.00200416 -0.0204524 -0.0338327 0.00215631 -0.0295791 
-0.015069 0.00159081 -0.0265361 -0.00434293 0.00540306 -0.0205612 0.00810344 0.00580691 -0.0249007 
0.0177954 0.0038465 -0.0238709 0.0285249 0.00171329 -0.0270151 0.0424916 0.000866549 -0.0229772 
0.0451878 0.00963833 -0.0202805 -0.0288127 0.0116931 -0.0275217 -0.0130372 0.0109699 -0.02512 
-0.0197131 0.0152822 -0.0229116 -0.00868973 0.0177836 -0.0208924 -0.00273209 0.0131544 -0.0249882 
0.00868985 0.0159552 -0.0262098 0.0193472 0.0123351 -0.0221076 0.0310723 0.0195955 -0.0277297 
-0.0422524 0.0204562 -0.0259215 -0.0353398 0.0219796 -0.0212125 -0.0293325 0.0255429 -0.0250184 
-0.0140491 0.0258292 -0.0268651 -0.00630767 0.0299704 -0.0296427 0.00456111 0.0223853 -0.0215533 
0.0230143 0.0274051 -0.0272341 0.0356979 0.0201413 -0.0211486 0.0300216 0.0267439 -0.0226449 
-0.0367807 0.0303387 -0.0226698 -0.0360261 0.0377496 -0.0263999 -0.0197731 0.0307247 -0.0236074 
-0.000527031 0.0349011 -0.0235806 0.00705262 0.0301382 -0.0219856 0.00735418 0.0386919 -0.0251669 
0.0174073 0.0317723 -0.0239037 0.0244454 0.0330556 -0.020303 0.0457651 0.0329753 -0.0299509 
0.0453058 0.038301 -0.0238536 -0.0452186 0.0440649 -0.0229675 -0.0362442 0.0459855 -0.0219557 
-0.0230829 0.046242 -0.026937 -0.0162499 0.0459638 -0.0206026 -0.00545569 0.041751 -0.029325 
0.00391896 0.0458954 -0.0214038 0.0265766 0.0445104 -0.0234278 -0.0455951 -0.0448834 -0.0112537 
-0.038816 -0.0411013 -0.0166463 0.00695179 -0.0422705 -0.0138909 0.0247783 -0.0424501 -0.0140037 
0.0398966 -0.0442757 -0.0183836 0.0461181 -0.0443312 -0.0137165 -0.0455185 -0.0333913 -0.0152188 
-0.0347929 -0.0338557 -0.015074 -0.0137779 -0.0300622 -0.0101107 -0.0160528 -0.0369901 -0.0158055 
-0.00597217 -0.0318286 -0.0110266 0.00482087 -0.0314375 -0.0159621 0.0160886 -0.0392539 -0.0115818 
0.0160598 -0.0318187 -0.0182748 0.0250945 -0.0342229 -0.0102378 0.0347004 -0.0309025 -0.0166029 
0.0437108 -0.0352239 -0.0165412 -0.0460464 -0.0261786 -0.0103198 -0.0442959 -0.0245496 -0.0179685 
-0.0303204 -0.0284173 -0.0114607 -0.0362108 -0.0230011 -0.0155047 -0.0283497 -0.0231252 -0.0198608 
-0.0126447 -0.0227073 -0.0177111 -0.00326646 -0.0264275 -0.0177664 0.00495032 -0.0245816 -0.0101461 
0.0107313 -0.0263674 -0.0155314 0.018139 -0.0296236 -0.0111133 0.0261279 -0.0291758 -0.0193564 
0.0214733 -0.022135 -0.0153696 0.0312904 -0.021086 -0.0124729 0.0453241 -0.0246148 -0.0163186 
-0.0270864 -0.0144249 -0.0114859 -0.0143269 -0.0141231 -0.0146109 -0.00384524 -0.0113858 -0.0119294 
-0.00850343 -0.018719 -0.0104886 -0.000670575 -0.0128098 -0.0199513 0.00361475 -0.0100418 -0.0104881 
0.0189617 -0.015029 -0.0199412 0.0157596 -0.0126561 -0.0108941 0.010637 -0.0130231 -0.0176356 
0.0240213 -0.0101277 -0.0129854 0.0315254 -0.0108755 -0.0146675 0.046011 -0.01629 -0.0173496 
-0.0460932 -0.0083791 -0.0107806 -0.0385452 -0.005683 -0.0188683 -0.0289398 -0.00541933 -0.0136942 
-0.0140144 -0.00659714 -0.0116851 -0.000205355 -0.00462769 -0.0158805 0.0195115 -0.00386943 -0.016661 
0.0289344 -0.00350877 -0.0191549 0.0392015 -0.00446506 -0.0126242 -0.0440196 0.000371241 -0.0108125 
-0.0431069 0.00803781 -0.0174555 -0.0325886 0.00255824 -0.0118857 -0.0257872 0.00699212 -0.0172729 
-0.0219828 0.0030974 -0.0112035 -0.0147135 0.00350411 -0.0166271 0.00346886 0.00225629 -0.0179992 
0.00595339 0.00770074 -0.0124863 0.0171034 0.0055788 -0.0112923 0.023958 0.00334199 -0.0161255 
0.036975 0.00286274 -0.0151462 0.0449723 0.00345042 -0.0113719 -0.0365652 0.0118102 -0.0101516 
-0.0293158 0.0162218 -0.0166331 -0.0230907 0.0148038 -0.0117168 -0.0137589 0.0167634 -0.0105756 
-0.00183855 0.014102 -0.0148548 -0.00935665 0.0107874 -0.015693 0.00718583 0.013443 -0.0181685 
0.0136429 0.0175621 -0.010881 0.0133941 0.0179418 -0.0190524 0.0225892 0.0174931 -0.010128 
0.0308027 0.0139387 -0.018784 0.0378508 0.0148023 -0.0150145 -0.0386771 0.0203096 -0.0126837 
-0.0311477 0.0269851 -0.0153936 -0.0213762 0.0228882 -0.0131617 -0.00942114 0.0270958 -0.0186386 
-0.00337728 0.0220695 -0.0159365 0.0104432 0.0250715 -0.0151577 0.0239795 0.0200575 -0.0198954 
0.03712 0.0236518 -0.0113642 0.0371421 0.0292041 -0.0189391 0.0456914 0.0278422 -0.0185756 
0.0457899 0.0224615 -0.0126928 -0.0439649 0.0300559 -0.0161457 -0.0427558 0.0362551 -0.0105952 
-0.0455308 0.0380621 -0.0178847 -0.0360141 0.0369941 -0.0163565 -0.0255426 0.0355478 -0.0167347 
-0.0116862 0.0377201 -0.0193789 -0.00245199 0.0308345 -0.013656 0.00876934 0.0364392 -0.016356 
0.0177763 0.03565 -0.0100452 0.0250295 0.0319337 -0.0125058 0.033305 0.0390394 -0.0175519 
0.0455742 0.0327432 -0.0118011 0.0411669 0.0385454 -0.0155862 -0.0437204 0.0453946 -0.0137236 
-0.0346587 0.0435881 -0.0114186 -0.0262427 0.0450471 -0.0119067 -0.0287739 0.0432199 -0.0199314 
-0.00553291 0.045706 -0.0192305 -0.00225184 0.0434627 -0.0124731 0.00832368 0.0438558 -0.0105062 
0.0197846 0.0443563 -0.0196292 0.0327083 0.0452965 -0.011671 -0.0438838 -0.0410399 -0.00249338 
-0.0352903 -0.0462978 -0.00839369 -0.0204223 -0.0458811 -0.00477905 -0.0281568 -0.0456635 -0.0040535 
-0.00949562 -0.0414207 -0.000124889 0.0172722 -0.0456703 -0.00126329 -0.0401802 -0.0374208 -0.00959119 
-0.0337052 -0.0397137 -0.00374533 -0.0288397 -0.0372037 -0.0098143 -0.0206117 -0.0343999 -0.0097041 
-0.0122263 -0.0380602 -0.00865192 -0.0097118 -0.0300196 -0.00323768 -0.00434767 -0.0381031 -0.00604812 
0.00262409 -0.0339138 -0.00296512 0.019928 -0.0375844 -0.00492967 0.0117831 -0.0347311 -0.00233986 
0.027446 -0.0372823 -0.00262576 0.0374885 -0.0393948 -0.00671246 -0.0313507 -0.023143 -0.00533512 
-0.037746 -0.0269878 -0.00120288 -0.0223432 -0.0232316 -0.00102116 -0.017399 -0.0239422 -0.00692836 
0.0168096 -0.0219628 -0.00545322 0.0257395 -0.0249958 -0.00485137 0.0350922 -0.0229676 -0.00599133 
0.0450625 -0.0295661 -0.00371225 -0.035895 -0.0163085 -0.00892917 -0.0280197 -0.0174136 -8.70761e-05 
-0.0154595 -0.0179564 -0.00267351 -0.00728846 -0.0167344 -0.00259599 0.00044828 -0.0178725 -0.00761308 
0.0255827 -0.0120378 -0.00357129 0.0221307 -0.0176308 -0.00865874 0.0395081 -0.0149624 -0.00907085 
0.034917 -0.0154215 -0.00293836 -0.0430641 -0.000954199 -0.00118472 -0.0343608 -0.00457465 -0.00427702 
-0.0260237 -0.00635034 -0.00446842 -0.0106712 -0.00595352 -0.00364278 0.0167366 -0.00299543 -0.00221722 
0.010266 -0.00422374 -0.00896914 0.0459878 -0.00500568 -0.00564672 -0.0421606 0.0061297 -0.00526088 
-0.0298548 0.00889886 -0.00181507 -0.0201406 0.00821075 -0.00500779 -0.0145502 0.00246063 -0.00820593 
-0.00564403 0.00279607 -0.0097706 -0.00915691 0.00610079 -0.002793 -0.000512794 0.00644006 -0.00420121 
0.0363622 0.00132392 -0.00672504 0.0348765 0.00911195 -0.00955023 -0.0346501 0.019127 -0.00220996 
-0.0134845 0.0168195 -0.00234051 0.0016577 0.0158048 -0.00183671 0.0075871 0.0104266 -0.00523294 
0.0266105 0.0195169 -0.00222209 0.0272907 0.0105855 -0.00879977 0.0304263 0.0194744 -0.00986764 
0.0423042 0.0112593 -0.00382063 -0.0448083 0.0253201 -0.00975452 -0.0333619 0.0278546 -0.00549068 
-0.0255256 0.020068 -0.00230045 -0.0115354 0.0245699 -0.00677982 -0.00511641 0.02158 -0.0029235 
0.00022131 0.0201955 -0.00927952 0.00491295 0.0239661 -0.000751212 0.00246317 0.0299189 -0.00665817 
0.0198373 0.0266987 -0.00891739 0.0136289 0.0212502 -0.00258801 0.0377039 0.0219087 -0.00146939 
0.0312837 0.0260035 -0.00174986 -0.0425495 0.0366095 -0.00167663 -0.0295612 0.0356222 -0.00998391 
-0.0188866 0.0344599 -0.00184701 -0.0170248 0.0389733 -0.00865374 0.00885403 0.0345582 -0.00413085 
0.0294247 0.0340708 -0.00167769 0.0206477 0.0344652 -1.15733e-05 0.037523 0.0326044 -0.00909512 
0.0433531 0.0387317 -0.000462586 -0.0245064 0.0420587 -0.00423083 -0.0103691 0.0421809 -0.00465375 
0.0155792 0.0405848 -0.00368756 0.0376881 0.0427029 -0.00336838 0.0457562 0.0444028 -0.0092078 
-0.0416921 -0.0458314 0.00940706 -0.0221882 -0.0419326 0.00365812 0.028792 -0.0442013 0.00148561 
0.0338803 -0.0419266 0.00758275 0.0429918 -0.0434661 0.00482053 -0.0405763 -0.0363275 0.00314049 
-0.024657 -0.0307688 0.00600206 -0.0289643 -0.0353062 0.000624033 -0.0118117 -0.0389871 0.00724317 
-0.0193743 -0.032085 9.44219e-05 -0.0100846 -0.031366 0.00555924 -0.000628475 -0.0374151 0.00387919 
0.00731091 -0.0392582 0.00448014 0.0164035 -0.0393238 0.00730035 0.0328591 -0.0300058 0.00554072 
0.0423185 -0.034802 0.000980096 -0.0423546 -0.0236967 0.00664085 -0.0147956 -0.0237752 0.00304887 
-0.0009654 -0.0258316 0.00463523 0.0060256 -0.0234586 0.000175303 0.0075927 -0.0292551 0.00501868 
0.0195583 -0.0276725 0.0015008 0.044493 -0.0293558 0.00821946 -0.0436971 -0.0148236 0.00709908 
-0.0208123 -0.0192405 0.00665542 -0.007068 -0.0150012 0.00667217 0.00734148 -0.0171085 0.00545533 
0.0252233 -0.0112879 0.00796599 0.0431271 -0.0197602 0.0014552 0.0446372 -0.0104749 0.00839666 
-0.0462279 -0.0079891 0.000282757 -0.0376612 -0.00843499 0.00593279 -0.010438 -0.000271406 0.00195392 
-0.0193097 -0.00809697 0.00187343 -0.00364352 -0.00577107 0.00760991 0.00926472 -0.0075685 0.00479038 
0.0179872 -0.00246678 0.00661274 0.017679 -0.00993174 0.00458331 0.0355293 -0.00770025 0.00396115 
0.0430822 -0.00170232 0.00289203 -0.0406522 0.00396646 0.00818194 -0.0310896 0.00696832 0.00688223 
-0.0227284 0.00247015 0.00337457 -0.00176219 5.11285e-06 0.00162533 0.00733276 0.00142201 0.00165561 
0.00537753 0.0014396 0.00915985 0.0176875 0.00616576 0.00937605 0.0150793 0.00545462 0.000187414 
0.025031 0.000945694 0.000227381 0.0303827 0.00460795 0.00395418 0.0389722 0.00506389 0.00864374 
-0.0361451 0.0152002 0.00615247 -0.0226205 0.0160711 0.00398411 -0.000895426 0.0111035 0.00770266 
-0.00411206 0.0184063 0.00748174 0.00975031 0.0177193 0.00763049 0.0195935 0.0156985 0.00282622 
0.0356997 0.011915 0.000338201 0.0310258 0.0174447 0.00860142 0.0421997 0.0151906 0.00494711 
-0.0407322 0.023013 0.00772766 -0.0387037 0.0289359 0.00250114 -0.0304377 0.0288093 0.00198644 
-0.02813 0.0219577 0.00563026 -0.0211102 0.0254255 0.00272184 -0.0127177 0.0286137 0.000543858 
-0.00493789 0.0288712 0.00129687 0.00671859 0.0292228 0.00676417 0.013515 0.0249332 0.00714528 
0.0222012 0.0246247 0.00579017 0.0283265 0.029952 0.0066016 0.0367495 0.0254007 0.0061412 
0.0459853 0.0215666 0.00123225 -0.0275176 0.0379914 0.00434657 -0.00347852 0.0392686 0.00896046 
0.00159416 0.0350594 0.000191999 0.0438596 0.0317869 0.00706634 -0.0458099 0.0445499 0.00310322 
-0.0384891 0.0443103 0.000204377 -0.0316912 0.045269 0.00504555 -0.0225142 0.0456038 0.00278685 
-0.0102181 0.0427161 0.00502763 0.00472676 0.0459105 0.00130681 0.016712 0.0444785 0.00479889 
0.0253939 0.0442091 0.00544224 0.0458913 0.0454973 0.00847223 -0.0387768 -0.0451054 0.0182773 
-0.0295409 -0.0429794 0.0113788 -0.00291105 -0.043841 0.0109535 0.0127136 -0.0448184 0.0110746 
0.0264733 -0.0437918 0.0152519 0.0374006 -0.0433955 0.0192402 -0.0216113 -0.0344622 0.0169602 
-0.00699172 -0.0309896 0.0197059 -0.00425954 -0.037397 0.0141517 0.00353026 -0.0391774 0.0115083 
0.017204 -0.0335162 0.0129909 0.0232679 -0.0357991 0.018815 0.0376424 -0.0318998 0.0195274 
-0.036081 -0.0201812 0.0178025 -0.0260592 -0.0266214 0.0153635 -0.0207007 -0.0204561 0.0168169 
0.00289609 -0.0259434 0.0142404 0.0109485 -0.0239101 0.0124855 0.0323509 -0.0256974 0.0178454 
0.0364781 -0.0263118 0.0113198 -0.0261791 -0.0138668 0.0120467 -0.0163161 -0.0104134 0.0152916 
-0.00120018 -0.0185489 0.0112068 0.0127702 -0.0123824 0.0140526 0.0193966 -0.0189395 0.0147634 
0.0452757 -0.0159516 0.0194449 -0.0457287 -0.00428621 0.0157383 -0.0346067 -0.00747992 0.0145469 
-0.0152337 -0.000139732 0.0136903 -0.00207334 -0.0060634 0.016617 0.0135332 -0.0012667 0.0151404 
0.0261044 -0.0038579 0.0173104 0.0417126 -0.00142463 0.0136442 -0.00885168 0.00563554 0.015353 
0.00322416 0.00233947 0.0188562 0.0129435 0.00804319 0.0192853 0.044735 0.00922512 0.014117 
-0.0420904 0.0153748 0.0149689 -0.0236422 0.0148746 0.0186129 -0.0108918 0.0135686 0.0121083 
0.00813039 0.0161739 0.0185175 0.00170848 0.0119745 0.0189806 0.0189964 0.0177609 0.0104553 
0.0247251 0.0132759 0.0133847 -0.0255119 0.0286086 0.0185614 -0.0145499 0.0267634 0.0127239 
-0.00394023 0.0284147 0.0100564 0.00529852 0.0256077 0.0139336 0.0164351 0.029565 0.0157277 
0.0199649 0.0215322 0.0187495 0.0285484 0.0217145 0.017092 -0.0357318 0.0328191 0.0113993 
-0.0213712 0.0373123 0.0148622 0.00543252 0.0348144 0.012593 0.0205383 0.036993 0.0181969 
0.0372014 0.0316068 0.011242 0.0315961 0.0307511 0.0189077 -0.0435485 0.0439083 0.0134324 
-0.0300354 0.0457381 0.0197864 -0.0175557 0.0442957 0.0120112 -0.00891717 0.0456517 0.0181382 
0.00865219 0.0424306 0.0114417 0.0043367 0.0438225 0.019084 0.0329915 0.0400183 0.016599 
0.0386565 0.0451577 0.0193412 -0.0454076 -0.0460736 0.0260503 -0.0162782 -0.0443926 0.0260025 
-0.00750492 -0.04396 0.0263628 0.0167782 -0.042987 0.0273523 -0.0310397 -0.0353791 0.0289326 
-0.00150085 -0.0354472 0.0238817 0.00741895 -0.0339204 0.0246914 -0.0415433 -0.027136 0.0232698 
-0.0206695 -0.0265653 0.028253 0.00837528 -0.0242915 0.0223894 0.0216948 -0.0239668 0.0216529 
-0.0376501 -0.0191694 0.0289709 -0.0107585 -0.0198893 0.0204982 -0.0352713 -0.00104616 0.0202063 
-0.0198537 -0.00126535 0.0231957 -0.0125381 -0.00334488 0.0292244 -0.0106357 -0.00261139 0.0208418 
0.00448699 -0.00761765 0.0227634 0.0206573 -0.00831926 0.0218485 0.0370971 -0.00888855 0.0206263 
0.044569 -0.00257644 0.0224931 0.0333498 0.00868718 0.023491 -0.00426221 0.018547 0.0278166 
0.00511555 0.0151572 0.0272046 0.0184441 0.0128626 0.0209288 0.0328946 0.0172293 0.0216159 
0.0438366 0.0163735 0.0200046 -0.0436087 0.0225149 0.0213162 -0.0226185 0.027954 0.0299422 
-0.0053387 0.037546 0.0225128 0.00449137 0.0361214 0.0219092 0.0230927 0.0366661 0.0260299 
0.0168211 0.043686 0.0269003 -0.0331105 -0.0432724 0.0316757 0.0223988 -0.043711 0.0330683 
-0.012385 -0.0368532 0.0310173 0.0173932 -0.0357246 0.0308152 0.0439805 -0.0312842 0.0364953 
-0.0242898 -0.0279051 0.0365684 -0.0306455 -0.0193776 0.0360518 -0.0237185 -0.0168746 0.0322932 
0.0242192 -0.0137895 0.033852 0.0438757 -0.0189065 0.0373715 0.00662398 -0.00795672 0.03532 
0.0351045 -0.000851273 0.0315931 -0.0387594 0.016054 0.0316187 0.0420341 0.011189 0.0300522 
0.00737389 0.0248843 0.0310637 0.0207511 0.0212524 0.0397268 -0.0298684 0.0353686 0.0311713 
0.0284251 0.0375931 0.0383602 -0.0442802 -0.0220863 0.0461203 -0.0382213 -0.0223025 0.0408597 
0.0199265 -0.0290256 0.0413746 0.0400666 0.0163019 0.0422309 -0.0290038 0.0234436 0.0413151 

gid 1 567 double
0 0 0 0 0 0 0 0 0 
0 0 0 0 0 0 0 0 0 
0 0 0 0 0 0 0 0 0 
0 0 0 0 0 0 0 0 0 
0 0 0 0 0 0 0 0 0 
0 0 0 0 0 0 0 0 0 
0 0 0 0 0 0 0 0 0 
0 0 0 0 0 0 0 0 0 
0 0 0 0 0 0 0 0 0 
0 0 0 0 0 0 0 0 0 
0 0 0 0 0 0 0 0 0 
0 0 0 0 0 0 0 0 0 
0 0 0 0 0 0 0 0 0 
0 0 0 0 0 0 0 0 0 
0 0 0 0 0 0 0 0 0 
0 0 0 0 0 0 0 0 0 
0 0 0 0 0 0 0 0 0 
0 0 0 0 0 0 0 0 0 
0 0 0 0 0 0 0 0 0 
0 0 0 0 0 0 0 0 0 
0 0 0 0 0 0 0 0 0 
0 0 0 0 0 0 0 0 0 
0 0 0 0 0 0 0 0 0 
0 0 0 0 0 0 0 0 0 
0 0 0 0 0 0 0 0 0 
0 0 0 0 0 0 0 0 0 
0 0 0 0 0 0 0 0 0 
0 0 0 0 0 0 0 0 0 
0 0 0 0 0 0 0 0 0 
0 0 0 0 0 0 0 0 0 
0 0 0 0 0 0 0 0 0 
0 0 0 0 0 0 0 0 0 
0 0 0 0 0 0 0 0 0 
0 0 0 0 0 0 0 0 0 
0 0 0 0 0 0 0 0 0 
0 0 0 0 0 0 0 0 0 
0 0 0 0 0 0 0 0 0 
0 0 0 0 0 0 0 0 0 
0 0 0 0 0 0 0 0 0 
0 0 0 0 0 0 0 0 0 
0 0 0 0 0 0 0 0 0 
0 0 0 0 0 0 0 0 0 
0 0 0 0 0 0 0 0 0 
0 0 0 0 0 0 0 0 0 
0 0 0 0 0 0 0 0 0 
0 0 0 0 0 0 0 0 0 
0 0 0 0 0 0 0 0 0 
0 0 0 0 0 0 0 0 0 
0 0 0 0 0 0 0 0 0 
0 0 0 0 0 0 0 0 0 
0 0 0 0 0 0 0 0 0 
0 0 0 0 0 0 0 0 0 
0 0 0 0 0 0 0 0 0 
0 0 0 0 0 0 0 0 0 
0 0 0 0 0 0 0 0 0 
0 0 0 0 0 0 0 0 0 
0 0 0 0 0 0 0 0 0 
0 0 0 0 0 0 0 0 0 
0 0 0 0 0 0 0 0 0 
0 0 0 0 0 0 0 0 0 
0 0 0 0 0 0 0 0 0 
0 0 0 0 0 0 0 0 0 
0 0 0 0 0 0 0 0 0 

a 3 567 double
0 0 0 0 0 0 0 0 0 
120.407 110.148 -132.691 0 0 0 0 0 0 
0 0 0 0 0 0 0 0 0 
0 0 0 0 0 0 0 0 0 
0 0 0 0 0 0 -1.26435 2.40606 -0.788475 
1.26435 -2.40606 0.788475 0 0 0 -24.2717 114.045 -63.901 
23.7931 -114.2 63.4958 0 0 0 15.5877 -10.1679 -16.6291 
0 0 0 0 0 0 0 0 0 
0 0 0 0 0 0 -120.28 133.086 -85.869 
-120.407 -110.148 132.691 0 0 0 0 0 0 
0 0 0 0 0 0 0 0 0 
0 0 0 0 0 0 0 0 0 
0 0 0 0 0 0 0 0 0 
0 0 0 31.1051 -88.73 -19.7848 0 0 0 
0 0 0 0 0 0 0 0 0 
0 0 0 0 0 0 -31.1051 88.73 19.7848 
0 0 0 0 0 0 0 0 0 
0 0 0 -18.5845 39.5041 2.62157 18.5845 -39.5041 -2.62157 
0 0 0 0 0 0 0 0 0 
0 0 0 0 0 0 0 0 0 
0 0 0 0 0 0 0 0 0 
0 0 0 0 0 0 0 0 0 
0 0 0 0 0 0 0 0 0 
0 0 0 0 0 0 0 0 0 
-2.04966 -64.7978 -49.2954 0 -10.9605 0 0 0 0 
0 0 0 0 0 0 0 0 0 
0 0 0 0 0 0 2.04966 64.7978 49.2954 
0 0 0 0 0 0 87.0279 -51.177 13.7646 
0 0 0 -37.6096 -25.9774 29.8437 -15.8808 35.325 -87.1714 
0 0 0 0 0 0 0 0 0 
-87.0279 51.177 -13.7646 0 0 0 31.3064 39.7834 -21.4244 
6.78171 -13.6517 -8.01412 -15.5877 10.1679 16.6291 0 0 0 
0 0 0 0 0 0 0 0 0 
0 0 0 120.28 -133.086 85.869 0 0 0 
0 0 0 0 0 0 -2.51722 -2.93463 7.72626 
-36.5426 -97.017 4.16114 18.8185 -43.6373 4.24437 -25.6107 4.63395 3.44641 
25.6107 -4.63395 -3.44641 0 0 0 -1.78481 -60.4671 -6.74816 
0 0 0 -24.7042 -46.0065 0.204877 39.0598 99.9516 -11.8874 
0 0 0 -18.8185 43.6373 -4.24437 10.882 37.6854 -23.1009 
-10.882 -37.6854 23.1009 -46.6213 -24.8806 25.8306 46.6213 24.8806 -25.8306 
1.78481 60.4671 6.74816 0 0 0 0 0 0 
24.7042 46.0065 -0.204877 0 0 0 0 0 0 
0 0 0 0 0 0 0 0 0 
0 0 0 0 0 0 0 0 0 
0 0 0 0 0 0 0 0 0 
0 0 0 0 0 0 0 0 0 
0 0 0 0 0 0 0 0 0 
0 0 0 -63.5767 -27.5555 34.6866 63.5767 27.5555 -34.6866 
0 0 0 0 0 0 0 0 0 
68.9351 -60.7914 -33.205 0 0 0 0 0 0 
0 0 0 0 0 0 0 0 0 
0 0 0 0 0 0 0 0 0 
-90.8085 54.1041 20.9781 9.935 18.6054 -49.0187 0 0 0 
0 0 0 8.67128 84.9831 -58.3731 0 0 0 
0 -192.178 0 0 0 0 0 0 0 
0 0 0 0 0 0 0 0 0 
0 0 0 15.8808 -35.325 87.1714 0 0 0 
-114.252 -15.0393 -79.8266 -31.9287 15.0393 79.8266 0 0 0 
-20.9109 -18.8507 -15.5648 0 0 0 -0.225428 0.10614 0.363236 
0 0 0 -69.2253 -48.8284 -9.95258 -23.8347 -6.34783 -31.2816 
-55.7396 -32.9763 -148.129 -1.40359 -1.27658 1.5551 0 0 0 
0 0 0 29.0729 -0.199692 1.42615 0.19904 0.199692 -1.42615 
21.0666 17.9738 14.7746 0 0 0 0 0 0 
0 0 0 0 0 0 -0.489964 0.151941 0.36044 
69.7153 48.6764 9.59214 55.7396 32.9763 148.129 0 0 0 
0 0 0 -48.6503 25.2726 -65.1504 0 0 0 
0 0 0 0 0 0 -136.767 -6.93891 -31.0835 
0 0 0 0 0 0 136.767 6.93891 31.0835 
0 0 0 0 0 0 0 0 0 
-157.773 12.0895 15.8544 157.773 -12.0895 -15.8544 -1.12107 0 0 
104.566 0 0 0 0 0 0 0 0 
0 0 0 0 0 0 0 0 0 
0 0 0 0 0 0 0 0 0 
0 0 0 0 0 0 0 0 0 
0 0 0 0 0 0 0 0 0 
-5.39752 -6.5512 -25.8514 0 0 0 0 0 0 
0 0 0 0 0 0 0 0 0 
0 0 0 0 0 0 0 0 0 
0 0 0 0 0 0 -27.8496 -25.3457 3.27052 
0 0 0 27.8496 25.3457 -3.27052 0 0 0 
0 0 0 0 0 0 0 0 0 
0 0 0 0 0 0 0 0 0 
-32.2542 13.4178 -43.9746 0 0 0 0 0 0 
0 0 0 0 0 0 -2.14713 42.8055 -36.7901 
2.14713 -42.8055 36.7901 1.81506 9.36898 -15.8734 0 0 0 
-8.67128 -84.9831 58.3731 0 0 0 32.2784 -7.55353 -62.0673 
0 0 0 0 0 0 0 0 0 
0 0 0 11.9384 -11.9182 61.2455 0 0 0 
0 0 0 0 0 0 0 0 0 
0 0 0 0 0 0 0 0 0 
-103.581 68.0794 -158.707 103.581 -68.0794 158.707 0 0 0 
0 0 0 0 0 0 -18.6173 -26.7288 -40.9393 
0 57.271 0 306.898 30.5391 -28.7017 -306.898 -30.5391 28.7017 
0 0 0 0 0 0 0 0 0 
-355.648 -288.704 -224.939 0 0 0 0.225428 -0.10614 -0.363236 
0 0 0 0 0 0 0 0 0 
0 0 0 -71.3371 -8.67506 -0.309392 0 0 0 
96.5754 16.2995 30.0359 0 0 0 -0.155621 0.87693 0.79023 
0 0 0 -81.0326 14.2731 79.2235 47.9817 -103.481 -164.367 
-246.42 -251.363 144.391 0 0 0 48.6503 -25.2726 65.1504 
77.2234 136.716 -166.098 0 0 0 0 0 0 
33.051 89.2078 85.1434 0 0 0 0 0 0 
0 0 0 246.42 251.363 -144.391 101.096 -4.99393 -113.52 
-101.096 4.99393 113.52 7.57899 21.0011 -6.5209 0 0 0 
0 0 0 -0.414563 -2.01688 -1.97764 0 0 0 
0 0 0 0 0 0 0 0 0 
0 0 0 0 0 0 0 0 0 
0 0 0 0 0 0 0 0 0 
0 0 0 180.668 -13.6601 -9.36747 0 0 0 
0 0 0 0 0 0 5.39752 6.5512 25.8514 
-4.94874 -8.73959 -1.02177 -180.668 13.6601 9.36747 0 0 0 
15.3276 -3.48061 -10.5544 -1.81506 -9.36898 15.8734 0 0 0 
-14.3652 12.9509 -25.7091 -13.5517 6.74078 -5.65267 13.5517 -6.74078 5.65267 
32.2542 -13.4178 43.9746 0 0 0 0 0 0 
0 0 0 0 0 0 300.599 -223.912 -19.4165 
-295.65 232.651 20.4383 0 0 0 -32.2784 7.55353 62.0673 
0 0 0 0 0 0 0 0 0 
0 0 0 0 0 0 0 0 0 
306.311 -183.561 105.239 -0.300918 -0.549303 -0.798011 0 0 0 
0 0 0 -306.311 183.561 -105.239 0 0 0 
0 0 0 0 0 0 0 0 0 
0 0 0 0 0 0 18.6173 26.7288 40.9393 
-9.64887 0.899014 10.4881 355.648 288.704 224.939 -5.81967 -24.1996 8.50202 
9.64887 -0.899014 -10.4881 5.81967 24.1996 -8.50202 0 0 0 
0 0 0 118.147 137.968 -86.0878 -207.808 -211.544 -259.783 
-77.2234 -136.716 166.098 0 0 0 0 0 0 
0 0 0 -38.3068 103.247 -73.5305 38.3068 -103.247 73.5305 
0 0 0 0 0 0 0 0 0 
0 0 0 6.5748 -3.13345 3.72961 0 0 0 
0 0 0 0 0 0 0 0 0 
116.244 -21.0011 6.5209 0 0 0 0.414563 2.01688 1.97764 
0 0 0 0 0 0 0 0 0 
7.42099 46.1701 17.8705 -7.42099 -46.1701 -17.8705 0 0 0 
0 0 0 0 0 0 0 0 0 
0 0 0 0 0 0 131.801 18.457 -339.675 
-131.801 -18.457 339.675 0 0 0 0 0 0 
-193.796 -184.996 -156.005 193.796 184.996 156.005 0 0 0 
0 0 0 14.3652 -12.9509 25.7091 0 0 0 
0 0 0 0 0 0 0 0 0 
-15.3276 3.48061 10.5544 0 0 0 0 0 0 
0 0 0 0 0 0 -3.90795 7.72937 -4.10938 
3.90795 -7.72937 4.10938 0 0 0 -278.281 -6.46634 4.69124 
278.281 6.46634 -4.69124 0 0 0 0 0 0 
0 0 0 0 0 0 0.78202 -17.4393 -17.5332 
-18.4474 0 0 0 0 0 0 0 0 
0 0 0 0 0 0 -17.5761 1.55219 9.11876 
17.5761 -1.55219 -9.11876 0 0 0 0.300918 0.549303 0.798011 
0 0 0 0 0 0 0 0 0 
0 0 0 -0.19363 0 0 0 0 0 
0 0 0 -0.852773 -77.7942 -38.0144 -118.147 -137.968 86.0878 
0 0 0 0 0 0 0 0 0 
0 0 0 -25.5004 81.2786 48.6192 26.3532 -3.48441 -10.6048 
0 0 0 0 0 0 0 0 0 
0 0 0 0 0 0 0 0 0 
0 0 0 0 0 0 -193.04 -13.8462 320.332 
400.848 225.39 -60.5498 0 0 0 0 0 0 
-6.5748 3.13345 -3.72961 0 0 0 0 0 0 
0 0 0 0 0 0 0 0 0 
0 0 0 0 0 0 0 0 0 
0 0 0 0 0 0 0 0 0 
0 0 0 -317.612 -363.334 -105.11 0 0 0 
0 0 0 0 0 0 0 0 0 
107.057 88.8343 9.05703 -107.057 -88.8343 -9.05703 -58.3698 35.8824 -24.213 
58.3698 -35.8824 24.213 0 0 0 0 0 0 
0 0 0 0 0 0 0 0 0 
0 0 0 -112.425 91.8733 -88.3825 0 0 0 
0 0 0 0 0 0 0 0 0 
-0.78202 17.4393 17.5332 0 0 0 0 0 0 
0 0 0 0 0 0 0 0 0 
0 0 0 0 0 0 0 0 0 
0 0 0 0 99.9385 0 0 0 0 
0 0 0 0.277781 -42.671 -16.386 0 0 0 
0 0 0 0 0 0 0 0 0 
0 0 0 0 0 0 0 0 0 
0 0 0 0 0 0 0 0 0 
0 0 0 0 0 0 0 0 0 
0 0 0 0 0 0 0 0 0 
0 0 0 0 0 0 0 0 0 
0 0 0 317.612 363.334 105.11 112.425 -91.8733 88.3825 
0 0 0 0 0 0 0 0 0 
0 0 0 0 0 0 0 0 0 
0 0 0 0 0 0 0 0 0 
0 0 0 -0.277781 42.671 16.386 0 0 0 
0 0 0 0 0 0 0 0 0 
0 0 0 0 0 0 0 0 0 
0 0 0 0 0 0 0 0 0 
0 0 0 0 0 0 0 0 0 
0 0 0 0 0 0 0 0 0 
0 0 0 0 0 0 0 0 0 

v 3 567 double
0.0396051 -0.056233 0.431663 -0.021914 -0.2633 0.365651 -0.194523 0.164527 0.449809 
-0.159825 -0.321796 0.355687 -0.103073 -0.217553 0.461051 0.0612985 -0.137943 0.433268 
-0.13625 -0.152752 0.560018 -0.438725 0.100329 0.0620687 0.0332263 -0.455001 0.65965 
-0.0528725 0.0789086 0.761325 0.147859 -0.0635716 0.482637 0.28466 -0.528526 0.997976 
-0.00259067 0.227258 0.663842 -0.292271 -0.222439 0.640837 0.0240434 -0.112031 0.811273 
-0.197048 -0.0105871 0.865152 -0.183027 0.465187 0.571045 -0.155976 -0.356644 0.822848 
-0.019899 -0.176003 0.619344 -0.24905 0.145602 0.857397 -0.35949 0.0907552 0.783829 
-0.306943 -0.418006 0.333324 0.104589 -0.443189 0.598187 -0.0619944 -0.141654 0.895343 
0.00616601 -0.0586073 0.972304 -0.170136 -0.139825 0.585573 -0.0328972 -0.0807493 0.880403 
-0.257992 -0.0750608 0.697287 -0.304696 -0.323708 0.671641 -0.0271901 -0.22251 0.700895 
0.0424736 -0.132505 0.508754 -0.319664 -0.0299074 0.313923 0.0688143 0.0974543 0.839695 
-0.0902726 0.14599 0.618542 0.311298 -0.342567 0.882806 -0.182402 -0.194704 0.468847 
-0.169962 -0.27679 0.621966 -0.126684 -0.190238 0.682046 0.0357026 0.043908 0.497194 
0.230407 -0.370903 0.844949 0.120912 0.259429 0.772073 -0.00367695 0.140401 0.689456 
0.0892127 0.0919914 0.616568 0.235595 -0.0810181 0.502372 -0.0400575 0.0599377 0.392233 
-0.116412 0.0187372 0.651281 0.184169 0.314059 0.762259 -0.332119 -0.242922 0.912677 
0.100662 -0.0743726 0.624702 0.109463 0.0587686 0.683523 -0.204842 -0.228132 0.675508 
-0.158763 0.107095 0.716002 -0.0871595 0.040286 0.871698 -0.248402 -0.182472 0.656737 
0.073914 -0.230636 0.606671 -0.0329254 -0.476805 0.550326 -0.114856 -0.0830544 0.840243 
0.257106 -0.100048 0.67431 -0.439015 -0.0292376 0.812847 -0.129251 -0.180192 0.982611 
-0.259011 0.136419 0.708873 -0.117396 0.178973 0.719645 -0.288263 0.210702 0.74081 
-0.517967 0.14815 0.610833 -0.132933 -0.0947693 0.937922 0.0791496 0.06693 0.582587 
-0.281929 -0.115332 0.946148 -0.0635953 0.260201 0.93973 0.00875124 -0.543852 0.676155 
0.0899872 0.0601261 0.844717 -0.0733834 0.034835 0.457724 0.0926687 0.166324 0.977609 
-0.215111 -0.0745226 0.738043 -0.0641056 -0.138465 0.843522 -0.0418665 0.116441 0.450446 
-0.179803 -0.417777 0.805601 -0.271421 -0.271441 0.626839 -0.0494211 -0.207799 0.732276 
-0.118592 0.265975 0.787211 -0.406787 -0.44824 0.723549 -0.31174 -0.0161036 0.754663 
0.104135 0.0119133 0.774603 0.03342 0.20188 0.776604 -0.223098 0.247585 1.17309 
-0.197691 0.147071 1.04583 -0.0284805 -0.369641 0.979264 -0.0572121 -0.087222 1.21018 
0.155495 0.0866336 0.839695 -0.380493 -0.00457829 1.22372 -0.361274 -0.127786 1.04743 
0.107797 -0.228111 1.32091 -0.26223 -0.452228 0.904943 0.170942 0.114679 0.695304 
-0.365155 0.400348 1.14575 -0.26131 -0.142056 0.646961 -0.120092 -0.187318 1.09392 
0.0357521 0.0134627 1.08459 0.032715 -0.156974 1.27253 -0.132344 0.0399768 0.664657 
-0.0770008 -0.589913 0.495811 -0.127857 -0.205409 0.959421 0.0497607 0.142732 1.03844 
-0.343495 0.190195 0.73446 -0.201739 -0.111662 0.932012 0.056717 0.310913 0.968032 
0.0256988 0.126119 0.976593 0.013681 -0.181297 1.04151 -0.219343 -0.0983891 1.1711 
-0.237599 0.222425 1.10003 0.141424 0.0246468 0.876766 -0.112379 -0.17145 0.567628 
0.0174713 -0.366859 1.02878 0.0579773 0.165161 1.00941 -0.000148474 0.226822 0.97213 
0.171849 0.396956 1.04418 0.376692 -0.34599 1.34762 0.321357 -0.0887997 0.952511 
0.133927 -0.268833 0.93842 -0.0271258 0.39408 0.95759 0.18822 0.140924 0.809146 
-0.219884 -0.0700691 1.10888 0.128278 -0.29414 1.05397 0.186009 -0.168554 1.07669 
-0.0141204 -0.279629 0.384584 0.0715139 0.363104 0.912546 0.205602 -0.348194 0.568102 
0.0506358 0.154923 0.841945 -0.424053 -0.172598 1.1631 -0.164725 -0.045307 0.937884 
0.0616024 -0.105718 0.876624 -0.0644712 -0.3444 0.939621 0.118135 0.00723286 0.975598 
-0.123704 -0.577506 1.33586 0.105291 0.238053 1.02768 0.00806889 -0.11354 1.10414 
-0.0662022 -0.376282 0.982537 -0.0464388 -0.0855096 1.00907 0.3257 -0.0857603 0.938756 
-0.293302 0.0967727 0.936304 -0.0620894 0.0186367 1.023 0.135549 -0.0411067 0.919694 
-0.22566 0.25819 0.930799 -0.212904 -0.049565 0.999389 -0.158518 0.290917 0.795198 
-0.148744 -0.116621 1.11015 -0.0424621 0.146229 0.78007 -0.261693 -0.0838005 1.03147 
-0.0465484 0.0527221 0.773441 -0.298393 -0.278605 1.03968 -0.143122 -0.0671709 0.884688 
0.167268 -0.314821 0.812776 -0.108907 -0.268816 0.830915 0.0243653 0.223513 0.920844 
-0.138837 0.474022 1.08074 -0.195015 0.125178 1.02058 -0.388242 0.123053 0.93538 
-0.140403 0.0313678 0.908665 0.0969039 -0.0156737 0.947517 -0.0571289 -0.0932955 1.09064 
-0.129105 -0.544463 1.02736 -0.0838694 0.00616992 0.926616 -0.142042 0.200152 1.07069 
0.199077 0.189557 0.874566 -0.0115652 0.248374 0.845834 -0.246289 -0.180593 0.958736 
-0.0498584 0.144639 1.10095 -0.251015 -0.204086 1.14969 0.304959 0.152601 1.78984 
-0.0662474 -0.180142 1.36362 -0.106862 0.152006 1.3895 -7.04148e-05 0.305337 1.31987 
-0.0305219 0.148203 0.98594 -0.0373576 -0.137171 1.13081 0.037437 -0.295946 1.3139 
0.187098 -0.622993 1.11068 -0.109625 0.343228 1.28945 0.301503 -0.225536 1.42648 
-0.0787401 0.0812718 1.15338 -0.0349273 -0.284986 1.2851 0.230733 0.0388244 1.13188 
-0.0524267 -0.0844544 1.07416 0.130716 0.0149338 1.0677 -0.0728547 0.129998 1.15812 
-0.158266 -0.0545445 1.18879 -0.0025616 -0.0445018 1.43478 0.108617 0.0579253 1.40833 
-0.167815 -0.206828 0.99498 0.238663 0.0224211 0.765033 -0.0248335 -0.18558 1.05425 
-0.015935 -0.078566 1.25039 -0.143516 0.0398742 1.15459 -0.226112 -0.191637 1.53654 
-0.170656 -0.176983 1.17056 -0.137405 0.0639285 1.18511 -0.212155 -0.170897 0.885581 
0.120673 0.0727315 1.31263 0.227775 -0.189901 1.21014 -0.0519335 -0.049347 1.12416 
-0.0431144 0.0912669 0.982069 -0.274271 0.103231 0.954763 -0.0282842 -0.223438 1.4252 
0.0490944 -0.00404766 1.41465 -0.148311 0.162629 1.03432 -0.140682 0.210574 1.28389 
0.0430087 0.244115 1.21682 -0.250114 -0.270768 1.40405 0.165157 0.217033 0.933121 
0.0780559 0.0227978 1.24342 0.0102316 -0.034482 0.914683 0.0155416 -0.177419 1.07197 
0.027426 0.249874 1.52172 0.207476 0.00937417 1.08822 0.0665614 0.241737 1.44508 
0.101214 -0.31859 1.19671 0.321188 0.286688 1.15447 -0.0687992 0.221001 1.41024 
-0.236517 0.271125 1.09699 0.144389 0.0219687 1.16778 -0.0393309 0.228136 1.3561 
-0.0547719 0.100426 0.736164 0.259876 -0.0969441 1.17769 0.0307319 -0.22301 1.23708 
-0.0801078 -0.514468 1.25265 -0.444229 0.131704 0.896477 -0.0238934 0.0524346 1.12178 
-0.16738 0.111525 1.24506 0.168456 -0.014087 1.13818 -0.0481059 0.270902 1.18622 
-0.0194212 -0.451349 1.32791 -0.147123 0.0395506 1.40851 0.382185 -0.381816 0.920879 
-0.0805298 0.116736 1.30666 -0.202374 -0.227222 1.03547 0.131681 0.0780574 1.33566 
-0.144782 0.0101309 1.27654 -0.239673 0.1792 1.20929 0.00570275 0.10593 1.00665 
-0.105966 0.425911 1.33571 -0.19539 -0.316595 0.998072 -0.0948283 0.165785 1.12187 
0.195862 -0.105732 1.05783 -0.0239681 0.0682239 1.04159 -0.184906 0.00978538 1.26191 
-0.153096 0.102667 0.87022 -0.130576 0.109945 0.988296 0.473067 -0.0946532 0.966565 
0.271783 -0.195136 1.06353 -0.18794 -0.137253 0.987819 0.00547019 0.0632671 1.02842 
-0.0787458 -0.0551487 1.3133 0.0714078 -0.124045 1.21342 0.293845 -0.300613 0.952275 
0.221195 -0.218747 1.38507 0.0540891 0.0718824 1.06936 -0.121508 0.191531 1.17559 
-0.027085 -0.0419851 1.15681 0.120077 -0.107817 1.03938 0.168063 0.121921 1.05878 
-0.0454069 0.199358 1.13817 -0.0128534 -0.143766 1.15672 -0.185537 0.16686 0.882766 
-0.0375368 -0.193361 1.28833 -0.261432 0.110108 1.11449 0.184138 0.0441645 1.22682 
-0.0770537 -0.132233 0.951482 0.0515846 -0.172304 0.82513 0.0886057 0.0934656 1.06738 
-0.203155 0.332212 1.39601 0.0201568 0.0300174 1.33574 -0.145403 0.0138023 1.02134 
0.500685 -0.0981845 0.646006 0.284852 -0.00149493 1.21569 -0.185435 0.094258 0.984379 
0.463468 -0.261592 1.32614 -0.265164 0.156315 1.31634 -0.0712142 -0.302952 1.21836 
-0.0690223 -0.521671 1.42107 -0.00864747 0.0208179 1.43898 -0.448566 0.442359 1.48116 
0.283411 -0.0522884 1.46054 -0.157888 -0.267817 1.16936 0.0670134 -0.191735 1.08235 
-0.0789574 -0.633026 0.641574 -0.196678 0.173955 1.61929 0.101255 0.0133193 1.34364 
-0.0115864 -0.0440456 1.37474 -0.145313 -0.0306516 1.1083 -0.315803 -0.0386073 1.46618 
-0.0684663 -0.0499648 1.44282 -0.286033 0.237766 1.31798 -0.177055 -0.101909 1.83268 
-0.0975558 -0.0936308 1.35488 -0.0265174 -0.0192631 1.33772 -0.212466 -0.247474 1.57712 
-0.170056 0.00608753 1.45667 0.149171 -0.153657 1.30677 0.0158078 -0.168177 1.32452 
-0.0738595 0.135732 1.47803 0.136175 0.313382 1.15778 -0.0787329 -2.71952e-05 1.25608 
-0.0130372 0.202611 1.54249 -0.161726 0.0285207 0.893371 -0.158082 -0.0546256 1.47358 
-0.13743 -0.0856773 0.627875 -0.121253 0.285979 1.38059 0.0536702 0.308792 1.21326 
-0.157723 0.0340627 1.48752 0.120541 0.0548157 1.3418 -0.196284 0.159566 1.48638 
0.106048 -0.129202 1.53699 -0.124872 0.363885 1.4331 0.0446045 -0.127546 1.56448 
-0.134262 -0.157623 1.67944 -0.153733 0.358385 1.23274 0.148125 0.0283857 1.31679 
0.196987 0.240929 1.32418 0.145343 0.356999 1.47165 -0.277838 -0.0494399 1.11123 
0.137886 -0.410604 1.47855 -0.362889 -0.319646 1.30213 -0.039495 -0.172672 1.01007 
-0.251144 0.0633225 1.25642 0.186281 -0.344258 1.31834 -0.117582 -0.0987531 1.50331 
-0.00832159 0.0273698 1.25825 0.036939 -0.217757 1.29963 0.750433 0.12933 1.34505 
-0.117497 -0.0629638 1.59914 -0.0110408 0.302922 1.6758 -0.155462 0.25733 1.20115 
-0.250129 -0.0177906 1.28829 -0.0310519 0.159205 1.45071 0.0536995 0.237918 1.13818 
-0.125674 0.152581 1.50966 0.0327664 -0.0787296 1.1513 0.0888303 -0.207115 1.5193 
-0.0470693 0.152773 1.26347 0.0983313 -0.00401419 0.844691 0.0987572 0.123749 1.58816 
-0.2588 -0.158274 1.194 0.0870547 -0.0531741 1.42939 -0.168282 0.314595 1.13938 
-0.0941604 -0.145748 1.44489 -0.278341 0.0901808 1.7264 0.293782 -0.0536206 1.33557 
0.0212774 -0.0433123 1.15356 0.214082 -0.505542 1.38078 0.0509005 -0.0660294 1.04122 
-0.455911 0.102568 1.41744 -0.187056 0.0253314 1.44628 -0.37558 0.210167 1.20376 
0.028063 0.106079 1.09526 0.067336 0.0810169 1.44515 -0.130182 0.00367039 1.16245 
-0.131941 -0.344773 1.63655 0.127618 0.217412 1.31072 -0.231032 -0.212303 1.13792 
-0.331705 -0.342842 1.49598 0.140861 -0.24263 1.28807 0.0659861 -0.231575 1.06548 
-0.260966 -0.0767838 1.61133 -0.274899 0.396248 1.44897 0.556743 0.406516 1.51877 
0.296284 0.29466 1.29124 0.0011846 -0.77409 1.66139 0.268639 0.169194 1.25043 
-0.327174 -0.333796 1.47471 0.00422909 -0.153725 1.70397 0.472048 -0.128519 0.912254 
-0.195036 -0.413698 1.31751 0.495988 0.112998 1.14861 -0.0633978 -0.0145946 1.64867 
-0.295554 -0.207845 1.57601 -0.438378 0.0652926 1.68572 0.117073 -0.463494 0.947192 
-0.0405311 -0.0714816 0.8803 0.0340428 0.00312624 1.75838 0.0507273 0.429975 0.878202 
-0.248543 0.25201 1.34625 0.106109 0.303751 1.31208 -0.105554 0.444433 1.40734 
-0.0648504 0.21573 1.41031 -0.32008 -0.027379 0.893459 -0.552732 0.346652 1.56298 
-0.355504 0.194469 1.3985 0.0171541 0.182778 1.19224 0.278434 0.336634 1.51922 
0.163583 0.605264 1.90733 0.195034 -0.127113 1.52719 0.221823 0.43452 1.48553 
-0.248799 0.530479 1.11255 -0.638085 -0.719832 1.57843 -0.422511 0.358334 1.23992 
0.254999 0.270489 1.36752 -0.239549 0.388994 1.72756 0.373558 0.172557 1.39525 
-0.146718 -0.12538 1.34318 0.444503 -0.0194636 1.93795 0.0762982 0.114338 1.35671 
0.389483 0.320168 1.49838 -0.130249 -0.398769 1.45032 -0.274433 -0.325108 1.68762 
0.486279 -0.0986143 1.26375 0.050092 -0.0540555 1.14828 -0.237185 -0.220819 1.3547 
-0.0121553 -0.0498746 1.95436 0.504649 -0.0550254 1.68308 -0.28403 0.208556 1.51056 
-0.18495 0.450955 1.31635 0.047305 -0.134595 1.17892 0.0552828 0.0634153 1.66882 
0.112612 0.0205327 1.35194 -0.276262 -0.289875 1.36477 0.232278 0.0511454 1.61819 
0.118857 -0.160764 1.66686 0.100756 0.461049 1.5487 -0.0325598 0.682762 1.58795 
0.0354799 -0.00375779 1.34351 -0.188528 -0.128692 1.58367 -0.216099 0.0762964 1.81148 
0.49393 -0.621674 1.6074 -0.109841 -0.319921 1.35666 -0.0331961 0.333067 1.27343 
-0.408661 -0.0823582 1.49486 -0.476067 -0.184585 1.06611 -0.23459 0.0663579 1.34641 
0.236215 0.100436 1.60502 0.0592397 -0.0636608 1.8686 -0.0565163 0.0667125 1.70721 
0.286461 0.307544 1.45476 -0.0192981 0.159388 1.43055 0.210917 -0.107884 1.47854 
-0.114464 -0.425412 1.13623 0.0990216 0.346379 1.83729 -0.187616 0.239246 1.74591 
-0.186383 -0.358983 1.47473 -0.429067 -0.287056 1.60953 0.173828 -0.109126 1.32283 
0.126581 -0.0207313 1.53346 -0.144699 0.0377287 1.44273 -0.0402835 -0.144482 1.91467 
0.073905 0.148524 1.23943 0.139349 0.22558 1.68479 -0.0899849 0.125877 1.45249 
0.27057 0.0202501 1.62079 -0.28671 -0.0212314 1.93252 -0.128749 -0.145736 2.40511 
0.292075 0.00073086 1.90994 -0.184959 0.631858 1.58808 -0.00994538 0.0553742 1.84073 
-0.0172363 0.173661 1.90139 0.278966 -0.0196179 1.89892 -0.170263 -0.228967 1.70408 
0.480611 0.26772 1.59779 -0.766793 -0.474576 0.996749 0.619123 -0.371282 1.23158 
-0.0162055 -0.0870001 1.32167 0.207181 -0.240222 1.81402 0.495331 -0.0326549 1.7397 
-0.137524 0.610286 1.92652 -0.0340326 -0.0870459 1.57053 -0.524059 -0.996607 1.66824 
-0.429482 -0.291728 1.40149 -0.118632 -0.576388 1.48481 -0.17483 -0.0902874 1.92788 
0.250829 -0.388141 1.60034 0.303048 0.626094 1.4603 -0.00859016 0.071916 1.3239 
-0.0914029 -0.227329 1.87221 0.367874 -0.443103 1.5149 -0.575302 0.203941 1.84317 
0.724113 -0.540268 1.80421 0.0441604 -0.183493 2.14737 0.135897 0.624487 1.3818 
0.369643 -0.280747 1.73913 -0.267239 -0.471331 1.78914 0.267757 -0.488083 1.92264 
-0.418488 -0.011467 1.57651 -0.132522 -0.10792 2.00283 -0.205304 0.31914 1.63402 
-0.270531 -0.486277 1.93124 0.208141 -0.135983 2.01749 -0.229139 0.0867897 1.87862 
0.233609 0.373223 2.03176 -0.00747151 -0.116347 1.66895 -0.154535 -0.684683 1.4761 
0.133427 -0.624086 1.16962 -0.1373 0.0620017 1.95821 -0.197051 0.00902077 1.5503 
-0.337216 -0.150669 1.63329 0.301618 0.137023 1.9023 0.29566 -0.104145 1.71881 
-0.00875753 -0.177619 1.35736 0.600757 0.355452 1.63834 -0.0756385 -0.144815 1.60321 
0.0426982 -0.266764 1.8359 0.0353059 0.373491 1.79999 0.646697 -0.153887 1.54976 
-0.327892 0.416574 1.81016 -0.365035 -0.279721 1.66379 -0.353132 -0.390901 1.87369 
0.575751 0.366055 1.35298 0.469206 -0.0387256 1.35572 0.368529 -0.160405 1.59472 
0.465627 0.17273 1.99752 0.356577 -0.00130642 1.79938 -0.261099 -0.265785 1.92848 
0.346728 -0.198586 1.64274 0.542582 0.426226 1.84272 0.0199041 0.20823 1.68703 
0.186243 -0.118895 2.16549 -0.137081 0.0649733 2.37872 0.105118 -0.568048 1.44284 
0.189821 0.306165 2.37112 0.0917491 -0.101127 2.54016 0.223307 -0.120565 2.11999 
-0.538803 -0.458581 1.53146 -0.195652 -0.240848 1.86261 0.414319 0.499454 1.92194 
-0.0867631 -0.871234 2.00838 -0.843063 0.211682 1.80724 -0.266377 0.234988 1.8023 
0.868845 -0.328317 2.12948 -0.407722 0.154539 1.7725 -0.116863 0.524741 2.21136 
0.260619 -0.221748 2.14852 -0.261146 0.583456 2.0539 -0.0478019 -0.0873674 1.84405 
-0.221069 -0.349308 2.21603 0.209331 -0.852829 1.786 0.187744 -0.0644865 1.88354 
-0.80745 0.351135 1.838 -0.319284 -0.556318 2.1398 1.19416 0.250245 1.5357 
0.285731 0.422643 1.71517 0.636915 -0.356769 2.074 -0.285106 0.253454 2.00102 
0.275218 0.00460383 1.89034 -0.365629 -0.187689 2.21171 0.481194 -0.45683 2.51257 
-0.0752453 0.021617 2.06057 0.13633 0.275033 1.70717 0.294808 -0.228542 1.28118 
-0.676034 1.03858 1.85051 -0.164628 0.636458 2.62624 0.0459255 -0.0243392 2.34748 
0.651541 0.387118 1.5723 0.283373 0.22201 2.86142 -1.13174 0.796437 2.49213 
-0.423866 -0.225901 2.23747 -0.224374 -0.432285 2.42855 0.146555 -0.217295 2.24784 
0.493458 -0.361562 2.15607 -0.0807353 -0.188974 2.66684 -0.112571 0.25822 1.86813 
0.140004 -0.119149 2.47682 0.398399 -0.593072 2.18514 -0.211434 0.0534285 1.66062 
-0.526217 -0.327368 2.15633 -0.208141 0.609065 2.3887 0.721448 -0.387868 2.39972 
-0.57358 -0.324439 2.75523 0.623885 0.28774 2.68219 -0.137854 -0.87389 2.29101 
-0.259857 -1.18414 2.16486 -0.375767 0.461757 2.61439 -0.0736071 -0.642896 2.74127 

om 3 567 double
0 0 0 0 0 0 0 0 0 
0 0 0 0 0 0 0 0 0 
0 0 0 0 0 0 0 0 0 
0 0 0 0 0 0 0 0 0 
0 0 0 0 0 0 0 0 0 
0 0 0 0 0 0 0 0 0 
0 0 0 0 0 0 0 0 0 
0 0 0 0 0 0 0 0 0 
0 0 0 0 0 0 0 0 0 
0 0 0 0 0 0 0 0 0 
0 0 0 0 0 0 0 0 0 
0 0 0 0 0 0 0 0 0 
0 0 0 0 0 0 0 0 0 
0 0 0 0 0 0 0 0 0 
0 0 0 0 0 0 0 0 0 
0 0 0 0 0 0 0 0 0 
0 0 0 0 0 0 0 0 0 
0 0 0 0 0 0 0 0 0 
0 0 0 0 0 0 0 0 0 
0 0 0 0 0 0 0 0 0 
0 0 0 0 0 0 0 0 0 
0 0 0 0 0 0 0 0 0 
0 0 0 0 0 0 0 0 0 
0 0 0 0 0 0 0 0 0 
0 0 0 0 0 0 0 0 0 
0 0 0 0 0 0 0 0 0 
0 0 0 0 0 0 0 0 0 
0 0 0 0 0 0 0 0 0 
0 0 0 0 0 0 0 0 0 
0 0 0 0 0 0 0 0 0 
0 0 0 0 0 0 0 0 0 
0 0 0 0 0 0 0 0 0 
0 0 0 0 0 0 0 0 0 
0 0 0 0 0 0 0 0 0 
0 0 0 0 0 0 0 0 0 
0 0 0 0 0 0 0 0 0 
0 0 0 0 0 0 0 0 0 
0 0 0 0 0 0 0 0 0 
0 0 0 0 0 0 0 0 0 
0 0 0 0 0 0 0 0 0 
0 0 0 0 0 0 0 0 0 
0 0 0 0 0 0 0 0 0 
0 0 0 0 0 0 0 0 0 
0 0 0 0 0 0 0 0 0 
0 0 0 0 0 0 0 0 0 
0 0 0 0 0 0 0 0 0 
0 0 0 0 0 0 0 0 0 
0 0 0 0 0 0 0 0 0 
0 0 0 0 0 0 0 0 0 
0 0 0 0 0 0 0 0 0 
0 0 0 0 0 0 0 0 0 
0 0 0 0 0 0 0 0 0 
0 0 0 0 0 0 0 0 0 
0 0 0 0 0 0 0 0 0 
0 0 0 0 0 0 0 0 0 
0 0 0 0 0 0 0 0 0 
0 0 0 0 0 0 0 0 0 
0 0 0 0 0 0 0 0 0 
0 0 0 0 0 0 0 0 0 
0 0 0 0 0 0 0 0 0 
0 0 0 0 0 0 0 0 0 
0 0 0 0 0 0 0 0 0 
0 0 0 0 0 0 0 0 0 
0 0 0 0 0 0 0 0 0 
0 0 0 0 0 0 0 0 0 
0 0 0 0 0 0 0 0 0 
0 0 0 0 0 0 0 0 0 
0 0 0 0 0 0 0 0 0 
0 0 0 0 0 0 0 0 0 
0 0 0 0 0 0 0 0 0 
0 0 0 0 0 0 0 0 0 
0 0 0 0 0 0 0 0 0 
0 0 0 0 0 0 0 0 0 
0 0 0 0 0 0 0 0 0 
0 0 0 0 0 0 0 0 0 
0 0 0 0 0 0 0 0 0 
0 0 0 0 0 0 0 0 0 
0 0 0 0 0 0 0 0 0 
0 0 0 0 0 0 0 0 0 
0 0 0 0 0 0 0 0 0 
0 0 0 0 0 0 0 0 0 
0 0 0 0 0 0 0 0 0 
0 0 0 0 0 0 0 0 0 
0 0 0 0 0 0 0 0 0 
0 0 0 0 0 0 0 0 0 
0 0 0 0 0 0 0 0 0 
0 0 0 0 0 0 0 0 0 
0 0 0 0 0 0 0 0 0 
0 0 0 0 0 0 0 0 0 
0 0 0 0 0 0 0 0 0 
0 0 0 0 0 0 0 0 0 
0 0 0 0 0 0 0 0 0 
0 0 0 0 0 0 0 0 0 
0 0 0 0 0 0 0 0 0 
0 0 0 0 0 0 0 0 0 
0 0 0 0 0 0 0 0 0 
0 0 0 0 0 0 0 0 0 
0 0 0 0 0 0 0 0 0 
0 0 0 0 0 0 0 0 0 
0 0 0 0 0 0 0 0 0 
0 0 0 0 0 0 0 0 0 
0 0 0 0 0 0 0 0 0 
0 0 0 0 0 0 0 0 0 
0 0 0 0 0 0 0 0 0 
0 0 0 0 0 0 0 0 0 
0 0 0 0 0 0 0 0 0 
0 0 0 0 0 0 0 0 0 
0 0 0 0 0 0 0 0 0 
0 0 0 0 0 0 0 0 0 
0 0 0 0 0 0 0 0 0 
0 0 0 0 0 0 0 0 0 
0 0 0 0 0 0 0 0 0 
0 0 0 0 0 0 0 0 0 
0 0 0 0 0 0 0 0 0 
0 0 0 0 0 0 0 0 0 
0 0 0 0 0 0 0 0 0 
0 0 0 0 0 0 0 0 0 
0 0 0 0 0 0 0 0 0 
0 0 0 0 0 0 0 0 0 
0 0 0 0 0 0 0 0 0 
0 0 0 0 0 0 0 0 0 
0 0 0 0 0 0 0 0 0 
0 0 0 0 0 0 0 0 0 
0 0 0 0 0 0 0 0 0 
0 0 0 0 0 0 0 0 0 
0 0 0 0 0 0 0 0 0 
0 0 0 0 0 0 0 0 0 
0 0 0 0 0 0 0 0 0 
0 0 0 0 0 0 0 0 0 
0 0 0 0 0 0 0 0 0 
0 0 0 0 0 0 0 0 0 
0 0 0 0 0 0 0 0 0 
0 0 0 0 0 0 0 0 0 
0 0 0 0 0 0 0 0 0 
0 0 0 0 0 0 0 0 0 
0 0 0 0 0 0 0 0 0 
0 0 0 0 0 0 0 0 0 
0 0 0 0 0 0 0 0 0 
0 0 0 0 0 0 0 0 0 
0 0 0 0 0 0 0 0 0 
0 0 0 0 0 0 0 0 0 
0 0 0 0 0 0 0 0 0 
0 0 0 0 0 0 0 0 0 
0 0 0 0 0 0 0 0 0 
0 0 0 0 0 0 0 0 0 
0 0 0 0 0 0 0 0 0 
0 0 0 0 0 0 0 0 0 
0 0 0 0 0 0 0 0 0 
0 0 0 0 0 0 0 0 0 
0 0 0 0 0 0 0 0 0 
0 0 0 0 0 0 0 0 0 
0 0 0 0 0 0 0 0 0 
0 0 0 0 0 0 0 0 0 
0 0 0 0 0 0 0 0 0 
0 0 0 0 0 0 0 0 0 
0 0 0 0 0 0 0 0 0 
0 0 0 0 0 0 0 0 0 
0 0 0 0 0 0 0 0 0 
0 0 0 0 0 0 0 0 0 
0 0 0 0 0 0 0 0 0 
0 0 0 0 0 0 0 0 0 
0 0 0 0 0 0 0 0 0 
0 0 0 0 0 0 0 0 0 
0 0 0 0 0 0 0 0 0 
0 0 0 0 0 0 0 0 0 
0 0 0 0 0 0 0 0 0 
0 0 0 0 0 0 0 0 0 
0 0 0 0 0 0 0 0 0 
0 0 0 0 0 0 0 0 0 
0 0 0 0 0 0 0 0 0 
0 0 0 0 0 0 0 0 0 
0 0 0 0 0 0 0 0 0 
0 0 0 0 0 0 0 0 0 
0 0 0 0 0 0 0 0 0 
0 0 0 0 0 0 0 0 0 
0 0 0 0 0 0 0 0 0 
0 0 0 0 0 0 0 0 0 
0 0 0 0 0 0 0 0 0 
0 0 0 0 0 0 0 0 0 
0 0 0 0 0 0 0 0 0 
0 0 0 0 0 0 0 0 0 
0 0 0 0 0 0 0 0 0 
0 0 0 0 0 0 0 0 0 
0 0 0 0 0 0 0 0 0 
0 0 0 0 0 0 0 0 0 
0 0 0 0 0 0 0 0 0 
0 0 0 0 0 0 0 0 0 
0 0 0 0 0 0 0 0 0 
0 0 0 0 0 0 0 0 0 

bottom 1 567 double
-0.045223 -0.045223 -0.045223 -0.045223 -0.045223 -0.045223 -0.045223 -0.045223 -0.045223 
-0.045223 -0.045223 -0.045223 -0.045223 -0.045223 -0.045223 -0.045223 -0.045223 -0.045223 
-0.045223 -0.045223 -0.045223 -0.045223 -0.045223 -0.045223 -0.045223 -0.045223 -0.045223 
-0.045223 -0.045223 -0.045223 -0.045223 -0.045223 -0.045223 -0.045223 -0.045223 -0.045223 
-0.045223 -0.045223 -0.045223 -0.045223 -0.045223 -0.045223 -0.045223 -0.045223 -0.045223 
-0.045223 -0.045223 -0.045223 -0.045223 -0.045223 -0.045223 -0.045223 -0.045223 -0.045223 
-0.045223 -0.045223 -0.045223 -0.045223 -0.045223 -0.045223 -0.045223 -0.045223 -0.045223 
-0.045223 -0.045223 -0.045223 -0.045223 -0.045223 -0.045223 -0.045223 -0.045223 -0.045223 
-0.045223 -0.045223 -0.045223 -0.045223 -0.045223 -0.045223 -0.045223 -0.045223 -0.045223 
-0.045223 -0.045223 -0.045223 -0.045223 -0.045223 -0.045223 -0.045223 -0.045223 -0.045223 
-0.045223 -0.045223 -0.045223 -0.045223 -0.045223 -0.045223 -0.045223 -0.045223 -0.045223 
-0.045223 -0.045223 -0.045223 -0.045223 -0.045223 -0.045223 -0.045223 -0.045223 -0.045223 
-0.045223 -0.045223 -0.045223 -0.045223 -0.045223 -0.045223 -0.045223 -0.045223 -0.045223 
-0.045223 -0.045223 -0.045223 -0.045223 -0.045223 -0.045223 -0.045223 -0.045223 -0.045223 
-0.045223 -0.045223 -0.045223 -0.045223 -0.045223 -0.045223 -0.045223 -0.045223 -0.045223 
-0.045223 -0.045223 -0.045223 -0.045223 -0.045223 -0.045223 -0.045223 -0.045223 -0.045223 
-0.045223 -0.045223 -0.045223 -0.045223 -0.045223 -0.045223 -0.045223 -0.045223 -0.045223 
-0.045223 -0.045223 -0.045223 -0.045223 -0.045223 -0.045223 -0.045223 -0.045223 -0.045223 
-0.045223 -0.045223 -0.045223 -0.045223 -0.045223 -0.045223 -0.045223 -0.045223 -0.045223 
-0.045223 -0.045223 -0.045223 -0.045223 -0.045223 -0.045223 -0.045223 -0.045223 -0.045223 
-0.045223 -0.045223 -0.045223 -0.045223 -0.045223 -0.045223 -0.045223 -0.045223 -0.045223 
-0.045223 -0.045223 -0.045223 -0.045223 -0.045223 -0.045223 -0.045223 -0.045223 -0.045223 
-0.045223 -0.045223 -0.045223 -0.045223 -0.045223 -0.045223 -0.045223 -0.045223 -0.045223 
-0.045223 -0.045223 -0.045223 -0.045223 -0.045223 -0.045223 -0.045223 -0.045223 -0.045223 
-0.045223 -0.045223 -0.045223 -0.045223 -0.045223 -0.045223 -0.045223 -0.045223 -0.045223 
-0.045223 -0.045223 -0.045223 -0.045223 -0.045223 -0.045223 -0.045223 -0.045223 -0.045223 
-0.045223 -0.045223 -0.045223 -0.045223 -0.045223 -0.045223 -0.045223 -0.045223 -0.045223 
-0.045223 -0.045223 -0.045223 -0.045223 -0.045223 -0.045223 -0.045223 -0.045223 -0.045223 
-0.045223 -0.045223 -0.045223 -0.045223 -0.045223 -0.045223 -0.045223 -0.045223 -0.045223 
-0.045223 -0.045223 -0.045223 -0.045223 -0.045223 -0.045223 -0.045223 -0.045223 -0.045223 
-0.045223 -0.045223 -0.045223 -0.045223 -0.045223 -0.045223 -0.045223 -0.045223 -0.045223 
-0.045223 -0.045223 -0.045223 -0.045223 -0.045223 -0.045223 -0.045223 -0.045223 -0.045223 
-0.045223 -0.045223 -0.045223 -0.045223 -0.045223 -0.045223 -0.045223 -0.045223 -0.045223 
-0.045223 -0.045223 -0.045223 -0.045223 -0.045223 -0.045223 -0.045223 -0.045223 -0.045223 
-0.045223 -0.045223 -0.045223 -0.045223 -0.045223 -0.045223 -0.045223 -0.045223 -0.045223 
-0.045223 -0.045223 -0.045223 -0.045223 -0.045223 -0.045223 -0.045223 -0.045223 -0.045223 
-0.045223 -0.045223 -0.045223 -0.045223 -0.045223 -0.045223 -0.045223 -0.045223 -0.045223 
-0.045223 -0.045223 -0.045223 -0.045223 -0.045223 -0.045223 -0.045223 -0.045223 -0.045223 
-0.045223 -0.045223 -0.045223 -0.045223 -0.045223 -0.045223 -0.045223 -0.045223 -0.045223 
-0.045223 -0.045223 -0.045223 -0.045223 -0.045223 -0.045223 -0.045223 -0.045223 -0.045223 
-0.045223 -0.045223 -0.045223 -0.045223 -0.045223 -0.045223 -0.045223 -0.045223 -0.045223 
-0.045223 -0.045223 -0.045223 -0.045223 -0.045223 -0.045223 -0.045223 -0.045223 -0.045223 
-0.045223 -0.045223 -0.045223 -0.045223 -0.045223 -0.045223 -0.045223 -0.045223 -0.045223 
-0.045223 -0.045223 -0.045223 -0.045223 -0.045223 -0.045223 -0.045223 -0.045223 -0.045223 
-0.045223 -0.045223 -0.045223 -0.045223 -0.045223 -0.045223 -0.045223 -0.045223 -0.045223 
-0.045223 -0.045223 -0.045223 -0.045223 -0.045223 -0.045223 -0.045223 -0.045223 -0.045223 
-0.045223 -0.045223 -0.045223 -0.045223 -0.045223 -0.045223 -0.045223 -0.045223 -0.045223 
-0.045223 -0.045223 -0.045223 -0.045223 -0.045223 -0.045223 -0.045223 -0.045223 -0.045223 
-0.045223 -0.045223 -0.045223 -0.045223 -0.045223 -0.045223 -0.045223 -0.045223 -0.045223 
-0.045223 -0.045223 -0.045223 -0.045223 -0.045223 -0.045223 -0.045223 -0.045223 -0.045223 
-0.045223 -0.045223 -0.045223 -0.045223 -0.045223 -0.045223 -0.045223 -0.045223 -0.045223 
-0.045223 -0.045223 -0.045223 -0.045223 -0.045223 -0.045223 -0.045223 -0.045223 -0.045223 
-0.045223 -0.045223 -0.045223 -0.045223 -0.045223 -0.045223 -0.045223 -0.045223 -0.045223 
-0.045223 -0.045223 -0.045223 -0.045223 -0.045223 -0.045223 -0.045223 -0.045223 -0.045223 
-0.045223 -0.045223 -0.045223 -0.045223 -0.045223 -0.045223 -0.045223 -0.045223 -0.045223 
-0.045223 -0.045223 -0.045223 -0.045223 -0.045223 -0.045223 -0.045223 -0.045223 -0.045223 
-0.045223 -0.045223 -0.045223 -0.045223 -0.045223 -0.045223 -0.045223 -0.045223 -0.045223 
-0.045223 -0.045223 -0.045223 -0.045223 -0.045223 -0.045223 -0.045223 -0.045223 -0.045223 
-0.045223 -0.045223 -0.045223 -0.045223 -0.045223 -0.045223 -0.045223 -0.045223 -0.045223 
-0.045223 -0.045223 -0.045223 -0.045223 -0.045223 -0.045223 -0.045223 -0.045223 -0.045223 
-0.045223 -0.045223 -0.045223 -0.045223 -0.045223 -0.045223 -0.045223 -0.045223 -0.045223 
-0.045223 -0.045223 -0.045223 -0.045223 -0.045223 -0.045223 -0.045223 -0.045223 -0.045223 
-0.045223 -0.045223 -0.045223 -0.045223 -0.045223 -0.045223 -0.045223 -0.045223 -0.045223 

top 1 567 double
0.054777 0.054777 0.054777 0.054777 0.054777 0.054777 0.054777 0.054777 0.054777 
0.054777 0.054777 0.054777 0.054777 0.054777 0.054777 0.054777 0.054777 0.054777 
0.054777 0.054777 0.054777 0.054777 0.054777 0.054777 0.054777 0.054777 0.054777 
0.054777 0.054777 0.054777 0.054777 0.054777 0.054777 0.054777 0.054777 0.054777 
0.054777 0.054777 0.054777 0.054777 0.054777 0.054777 0.054777 0.054777 0.054777 
0.054777 0.054777 0.054777 0.054777 0.054777 0.054777 0.054777 0.054777 0.054777 
0.054777 0.054777 0.054777 0.054777 0.054777 0.054777 0.054777 0.054777 0.054777 
0.054777 0.054777 0.054777 0.054777 0.054777 0.054777 0.054777 0.054777 0.054777 
0.054777 0.054777 0.054777 0.054777 0.054777 0.054777 0.054777 0.054777 0.054777 
0.054777 0.054777 0.054777 0.054777 0.054777 0.054777 0.054777 0.054777 0.054777 
0.054777 0.054777 0.054777 0.054777 0.054777 0.054777 0.054777 0.054777 0.054777 
0.054777 0.054777 0.054777 0.054777 0.054777 0.054777 0.054777 0.054777 0.054777 
0.054777 0.054777 0.054777 0.054777 0.054777 0.054777 0.054777 0.054777 0.054777 
0.054777 0.054777 0.054777 0.054777 0.054777 0.054777 0.054777 0.054777 0.054777 
0.054777 0.054777 0.054777 0.054777 0.054777 0.054777 0.054777 0.054777 0.054777 
0.054777 0.054777 0.054777 0.054777 0.054777 0.054777 0.054777 0.054777 0.054777 
0.054777 0.054777 0.054777 0.054777 0.054777 0.054777 0.054777 0.054777 0.054777 
0.054777 0.054777 0.054777 0.054777 0.054777 0.054777 0.054777 0.054777 0.054777 
0.054777 0.054777 0.054777 0.054777 0.054777 0.054777 0.054777 0.054777 0.054777 
0.054777 0.054777 0.054777 0.054777 0.054777 0.054777 0.054777 0.054777 0.054777 
0.054777 0.054777 0.054777 0.054777 0.054777 0.054777 0.054777 0.054777 0.054777 
0.054777 0.054777 0.054777 0.054777 0.054777 0.054777 0.054777 0.054777 0.054777 
0.054777 0.054777 0.054777 0.054777 0.054777 0.054777 0.054777 0.054777 0.054777 
0.054777 0.054777 0.054777 0.054777 0.054777 0.054777 0.054777 0.054777 0.054777 
0.054777 0.054777 0.054777 0.054777 0.054777 0.054777 0.054777 0.054777 0.054777 
0.054777 0.054777 0.054777 0.054777 0.054777 0.054777 0.054777 0.054777 0.054777 
0.054777 0.054777 0.054777 0.054777 0.054777 0.054777 0.054777 0.054777 0.054777 
0.054777 0.054777 0.054777 0.054777 0.054777 0.054777 0.054777 0.054777 0.054777 
0.054777 0.054777 0.054777 0.054777 0.054777 0.054777 0.054777 0.054777 0.054777 
0.054777 0.054777 0.054777 0.054777 0.054777 0.054777 0.054777 0.054777 0.054777 
0.054777 0.054777 0.054777 0.054777 0.054777 0.054777 0.054777 0.054777 0.054777 
0.054777 0.054777 0.054777 0.054777 0.054777 0.054777 0.054777 0.054777 0.054777 
0.054777 0.054777 0.054777 0.054777 0.054777 0.054777 0.054777 0.054777 0.054777 
0.054777 0.054777 0.054777 0.054777 0.054777 0.054777 0.054777 0.054777 0.054777 
0.054777 0.054777 0.054777 0.054777 0.054777 0.054777 0.054777 0.054777 0.054777 
0.054777 0.054777 0.054777 0.054777 0.054777 0.054777 0.054777 0.054777 0.054777 
0.054777 0.054777 0.054777 0.054777 0.054777 0.054777 0.054777 0.054777 0.054777 
0.054777 0.054777 0.054777 0.054777 0.054777 0.054777 0.054777 0.054777 0.054777 
0.054777 0.054777 0.054777 0.054777 0.054777 0.054777 0.054777 0.054777 0.054777 
0.054777 0.054777 0.054777 0.054777 0.054777 0.054777 0.054777 0.054777 0.054777 
0.054777 0.054777 0.054777 0.054777 0.054777 0.054777 0.054777 0.054777 0.054777 
0.054777 0.054777 0.054777 0.054777 0.054777 0.054777 0.054777 0.054777 0.054777 
0.054777 0.054777 0.054777 0.054777 0.054777 0.054777 0.054777 0.054777 0.054777 
0.054777 0.054777 0.054777 0.054777 0.054777 0.054777 0.054777 0.054777 0.054777 
0.054777 0.054777 0.054777 0.054777 0.054777 0.054777 0.054777 0.054777 0.054777 
0.054777 0.054777 0.054777 0.054777 0.054777 0.054777 0.054777 0.054777 0.054777 
0.054777 0.054777 0.054777 0.054777 0.054777 0.054777 0.054777 0.054777 0.054777 
0.054777 0.054777 0.054777 0.054777 0.054777 0.054777 0.054777 0.054777 0.054777 
0.054777 0.054777 0.054777 0.054777 0.054777 0.054777 0.054777 0.054777 0.054777 
0.054777 0.054777 0.054777 0.054777 0.054777 0.054777 0.054777 0.054777 0.054777 
0.054777 0.054777 0.054777 0.054777 0.054777 0.054777 0.054777 0.054777 0.054777 
0.054777 0.054777 0.054777 0.054777 0.054777 0.054777 0.054777 0.054777 0.054777 
0.054777 0.054777 0.054777 0.054777 0.054777 0.054777 0.054777 0.054777 0.054777 
0.054777 0.054777 0.054777 0.054777 0.054777 0.054777 0.054777 0.054777 0.054777 
0.054777 0.054777 0.054777 0.054777 0.054777 0.054777 0.054777 0.054777 0.054777 
0.054777 0.054777 0.054777 0.054777 0.054777 0.054777 0.054777 0.054777 0.054777 
0.054777 0.054777 0.054777 0.054777 0.054777 0.054777 0.054777 0.054777 0.054777 
0.054777 0.054777 0.054777 0.054777 0.054777 0.054777 0.054777 0.054777 0.054777 
0.054777 0.054777 0.054777 0.054777 0.054777 0.054777 0.054777 0.054777 0.054777 
0.054777 0.054777 0.054777 0.054777 0.054777 0.054777 0.054777 0.054777 0.054777 
0.054777 0.054777 0.054777 0.054777 0.054777 0.054777 0.054777 0.054777 0.054777 
0.054777 0.054777 0.054777 0.054777 0.054777 0.054777 0.054777 0.054777 0.054777 
0.054777 0.054777 0.054777 0.054777 0.054777 0.054777 0.054777 0.054777 0.054777 

