# vtk DataFile Version 4.0
vtk output
ASCII
DATASET POLYDATA
FIELD FieldData 4
domain 1 4 string
domain_min:-5|-5|-5
domain_max:5|5|5
cell_size:0.01|0.01|0.01
boundary:1|1|1

variables 1 8 string
T:0.72
dt:0.0005
A:56.6382
V:0.290798
Z:-0.0142828
write_case:1
substeps:10
all_steps:1440

constants 1 11 string
L:0.1
csize:0.01
R:0.004
mass:0.00210445
E:2.06e+06
nu:0.33
M:20
freq:10
gamma:62.8319
S:78956.8
g:0|0|-9.81

equations 1 9 string
time:T=(T+dt)#true
eq:a=(dem_l(v,om,R,mass,E,nu,0.1)/mass)#true
tank_acceleration:A=(((-(transpose((fsum(a)*mass))*e_k))-(S*Z))/M)#true
iv:v=euler(v,((a+g)-(A*e_k)),dt)#true
ia:r=euler(r,v,dt)#true
tank_velocity:V=euler(V,A,dt)#true
tank_position:Z=euler(Z,V,dt)#true
bottom:bottom=(Z-0.05)#true
top:top=(Z+0.05)#true

POINTS 567 float
-0.0222642 -0.0451917 -0.0465611 0.00111253 -0.0446133 -0.0421239 0.0291448 -0.0440464 -0.0467859 
0.00814026 -0.0335457 -0.0459218 -0.0116055 -0.0298793 -0.045852 0.0140245 -0.0217225 -0.0416132 
-0.0424652 -0.0124349 -0.0430586 -0.0341574 -0.016228 -0.0432432 -0.00567991 -0.0194108 -0.0449401 
0.0440769 -0.0110343 -0.0411676 0.0155827 -0.00682437 -0.0448981 -0.0455284 0.00702298 -0.041722 
-0.0418897 0.0145837 -0.0466316 -0.0356125 0.0112093 -0.0410398 0.00747684 0.0370485 -0.0447328 
-0.0282256 0.0452319 -0.043354 -0.0044822 0.040824 -0.0407979 -0.0405853 -0.0394788 -0.0375793 
-0.0210201 -0.0392845 -0.0362191 0.0102758 -0.031476 -0.0312803 0.0340194 -0.0312469 -0.032286 
-0.0310908 -0.0236412 -0.0387183 -0.000677586 -0.029477 -0.030903 0.0185647 -0.0250969 -0.0351557 
0.0279956 -0.0259513 -0.0340085 0.0396714 -0.0234607 -0.0345271 0.0196562 -0.013253 -0.0315685 
-0.0383597 -0.00134525 -0.0395477 -0.00313792 -0.00814878 -0.0326987 -0.0249726 0.00614162 -0.0304625 
-0.00652929 0.00731014 -0.0314132 0.00411018 0.00321272 -0.0344744 0.017667 0.00299977 -0.0388437 
-0.00641976 0.0194205 -0.0399404 0.0104975 0.0100266 -0.0365778 -0.0379472 0.0210309 -0.0365702 
0.00887863 0.0253666 -0.0300782 0.0328015 0.0271902 -0.0368823 -0.0193627 0.0351268 -0.0346657 
-0.00290527 0.0319264 -0.0374043 0.00654338 0.0385606 -0.0312269 -0.0205402 -0.0422038 -0.0271798 
-0.028934 -0.0402287 -0.0205838 -0.00629472 -0.0409196 -0.025978 0.00336743 -0.0405224 -0.0273437 
0.0182845 -0.0458241 -0.0267519 0.0327985 -0.0410502 -0.0286135 -0.0443519 -0.035896 -0.0282955 
-0.0331497 -0.0376474 -0.0268545 -0.0325067 -0.0314381 -0.0211562 -0.0109446 -0.0344047 -0.0282093 
-0.000872036 -0.0364736 -0.0210093 0.0339484 -0.0318169 -0.0202823 -0.000611153 -0.025656 -0.0211569 
-0.0136944 -0.0104052 -0.0264132 -0.00540413 -0.0174038 -0.0249353 0.00895883 -0.00667801 -0.02973 
0.0324961 -0.00705305 -0.0286473 0.0404282 -0.00138757 -0.0270544 -0.0404469 0.00309652 -0.0278771 
-0.0142542 0.00305431 -0.0231697 0.00160946 0.000335162 -0.0266967 0.0169053 0.00231403 -0.0298648 
0.0225225 0.00794051 -0.0203216 -0.0292051 0.0169328 -0.0285925 0.0419885 0.0130123 -0.0274863 
-0.0381628 0.0223625 -0.0253487 -0.0313106 0.0260041 -0.0295905 -0.0118319 0.0201928 -0.0283421 
-0.016233 0.0274828 -0.0294025 -0.00661337 0.020132 -0.0211416 0.0333511 0.0257254 -0.0209572 
-0.0341407 0.0316846 -0.0216289 -0.0273238 0.0353187 -0.026962 -0.0156214 0.0310202 -0.0207817 
0.00296262 0.0313463 -0.0279687 0.0243082 0.0346672 -0.0299274 -0.033531 0.0411201 -0.0247892 
0.0128824 0.0461052 -0.0242945 0.0209815 0.0452555 -0.023043 0.0446205 0.0407316 -0.0251925 
-0.0451099 -0.0457161 -0.0138266 0.0145388 -0.0404153 -0.0106121 0.0243641 -0.0417507 -0.0197912 
-0.0414925 -0.0319668 -0.0179218 -0.021827 -0.0340457 -0.0185943 0.0179042 -0.0383877 -0.0175584 
0.0239325 -0.0368326 -0.0133706 -0.0278819 -0.0250583 -0.0161287 -0.0209331 -0.023087 -0.0110918 
-0.0169097 -0.0238758 -0.0186004 0.00522813 -0.0285066 -0.0166458 0.0374855 -0.0264716 -0.0142272 
-0.0378792 -0.0189579 -0.0134796 0.0131954 -0.0137583 -0.018297 0.0214598 -0.0161439 -0.0181874 
0.043187 -0.0148808 -0.0139386 -0.0447447 -0.00339656 -0.0109017 -0.0335195 -0.00327888 -0.0146512 
-0.0163507 -0.0019032 -0.0100596 -0.000434802 -0.00628219 -0.0114589 0.0158173 -0.00348375 -0.0189486 
0.0288287 -0.00839271 -0.0143666 -0.022623 0.00258643 -0.0170218 0.010396 0.00654341 -0.0142275 
0.0239032 0.00363667 -0.0114906 0.0401002 0.00903634 -0.0136167 -0.0450239 0.0115527 -0.0109918 
-0.0387516 0.0141534 -0.0157509 -0.0234636 0.0107432 -0.011921 -0.0255578 0.0198199 -0.0110481 
-0.00545688 0.0125651 -0.0104013 0.0101961 0.0180709 -0.0191173 0.0317992 0.0148036 -0.0152046 
-0.0445262 0.0245363 -0.0121741 -0.0217992 0.0254687 -0.0172439 0.00335173 0.0234808 -0.0156225 
0.0256055 0.0244699 -0.0120609 0.022229 0.0285014 -0.0198897 0.0443385 0.0223104 -0.0193713 
0.0459004 0.0253652 -0.0108396 -0.0426967 0.0387515 -0.0108418 -0.0415609 0.0341781 -0.0172504 
-0.0201234 0.0368116 -0.0107113 -0.013028 0.0361149 -0.015061 -0.0199609 0.0374218 -0.0198605 
-0.0039177 0.0333146 -0.0182906 0.0143308 0.0354237 -0.0169094 0.0331062 0.0392705 -0.0112 
-0.0460745 0.0461742 -0.0112049 -0.0095372 0.0434423 -0.0115691 0.00224276 0.0422825 -0.0165103 
-0.0443207 -0.0431518 -0.00629628 -0.0337128 -0.0418882 -0.00754368 -0.0119918 -0.0429567 -0.00619854 
-0.00326543 -0.0413226 -0.0026576 0.00213385 -0.0445101 -0.00858412 0.0190972 -0.0464478 -0.00294452 
0.0263354 -0.0416297 -0.00318531 0.0359493 -0.0452015 -0.00598817 0.0424654 -0.0457023 -0.000926189 
-0.0274323 -0.0319771 -0.00707713 -0.00574396 -0.0378802 -0.00889241 0.00321362 -0.0321354 -0.00817424 
0.0126676 -0.0319554 -0.00150988 0.0334094 -0.0376136 -0.00615102 -0.0363581 -0.0218116 -0.00350269 
-0.0158076 -0.0262576 -0.00194062 -0.00724543 -0.0251598 -0.00015983 0.0195026 -0.0287888 -0.00410987 
0.0183974 -0.0225137 -0.0091337 0.0374183 -0.0276697 -0.00594543 0.0463093 -0.0285649 -0.00160044 
-0.0397158 -0.0109746 -0.00586338 -0.0145594 -0.0126631 -0.0080395 -0.00394851 -0.0193474 -0.00585716 
0.00749532 -0.0138206 -0.00976536 0.0296427 -0.0167439 -0.00140539 0.0214918 -0.0178591 -0.00266881 
0.0367158 -0.0111896 -0.00316834 0.0404974 -0.0195539 -0.00549855 -0.0293619 -0.000980689 -0.0063285 
-0.00726413 -0.00322585 -0.00484985 0.0125484 -0.0070171 -0.00160668 0.0208966 -0.00791213 -0.00634559 
0.0422188 -0.00127933 -0.00832095 -0.0111465 0.0060649 -0.00625856 0.00853315 0.00028273 -0.00725698 
0.0224433 0.0024159 -0.00181263 0.0354002 0.00868759 -0.00341736 -0.0424799 0.0171965 -0.00491124 
-0.031932 0.014659 -0.00719024 -0.0214938 0.0158177 -0.00492099 -0.0106231 0.0149461 -0.00461928 
-0.000515083 0.0146848 -0.00431078 0.0129691 0.0185877 -0.00291469 0.0210323 0.0121769 -0.00669387 
0.0341607 0.0188572 -0.00471189 -0.0338911 0.0240486 -0.00651194 -0.0187753 0.0220902 -0.00719422 
-0.00376463 0.0245227 -0.00465543 0.00584033 0.022813 -0.00108996 0.0234427 0.0214074 -0.00250834 
0.0445817 0.0211214 -0.00168075 -0.0386401 0.0311069 -0.00940417 -0.0185918 0.0397897 -0.000509828 
-0.000162519 0.0329875 -0.0065677 -0.00906788 0.0328183 -0.00856763 0.0187204 0.0351047 -0.00564981 
0.0123255 0.0321976 -0.00850892 0.029151 0.0316599 -0.00903116 -0.0405987 0.042878 -0.00365978 
-0.0306854 0.0462294 -0.00493526 -0.0163267 0.0443191 -0.00746915 -0.00227067 0.0429891 -0.00698459 
0.00936299 0.0400969 -0.00247397 0.0178561 0.0452116 -0.00218569 0.0287457 0.0460623 -0.00201819 
0.0379014 0.0400378 -0.00509637 -0.0435796 -0.0431217 0.00869672 -0.0453859 -0.0456957 0.00132897 
-0.0093803 -0.0438647 0.00750121 0.0029556 -0.0455072 0.00413105 0.0116728 -0.0402718 0.00711695 
0.025638 -0.0447558 0.0033977 0.0321029 -0.0460019 0.00947665 -0.0418271 -0.0367803 0.00188661 
-0.0339199 -0.031988 0.00298813 -0.0227771 -0.0352624 0.00127198 -0.0292861 -0.0372784 0.00736303 
-0.0128746 -0.0334686 0.00326682 0.00543355 -0.0367099 0.0017612 0.0289556 -0.0380965 0.00673766 
0.0374849 -0.030755 0.00727326 0.0321223 -0.0310627 0.000676909 0.042726 -0.0371971 0.00211594 
-0.040309 -0.0258536 0.0047415 -0.0307688 -0.0299455 0.00930129 -0.021596 -0.0282364 0.00412812 
-0.0275448 -0.0228194 0.00252645 -0.0128843 -0.02302 0.00603395 -0.00559614 -0.0276451 0.00794498 
-0.00433579 -0.020059 0.00424402 0.0103853 -0.027113 0.00626139 0.0445961 -0.0225755 0.00860076 
-0.0414822 -0.0145054 0.000283806 -0.0332072 -0.0151558 0.00946451 -0.0390463 -0.019009 0.00747203 
-0.0194191 -0.0170876 0.003018 -0.0136406 -0.0119289 0.000694831 -0.018951 -0.0110024 0.00901144 
-0.00536807 -0.0113263 0.0070803 0.00411354 -0.0118309 0.00902478 0.00125475 -0.0105587 0.00103622 
0.0133432 -0.0122337 0.00852365 0.014326 -0.0195783 0.00260919 0.0454848 -0.0195011 0.000701147 
0.0431258 -0.0123491 0.00213743 -0.0455708 -0.007723 0.0047262 -0.0334783 -0.00565347 0.00755751 
-0.0347411 -0.00635551 0.000111365 -0.0231244 -0.00681746 0.0030729 -0.0113813 -0.00273538 0.0031928 
0.00467732 -0.00238832 0.00548065 0.0236322 -0.00818397 0.00178366 0.0253064 -0.00469076 0.00809939 
0.0365448 -0.00358011 0.00209624 0.0436741 -0.00438907 0.00613749 -0.0448817 0.00139465 0.00346301 
-0.0300873 0.00536229 0.00362786 -0.01438 0.0089711 0.00776686 -0.00314707 0.00122366 0.00556591 
0.00627583 0.00438232 0.001643 0.0031754 0.0042365 0.00951646 0.0174342 0.00145806 0.00798522 
0.0199809 0.00871922 0.00400383 0.0456058 0.00969133 0.004179 -0.0433583 0.0104083 0.00749947 
-0.0338725 0.0191847 0.00174726 -0.0329308 0.0124467 0.00638289 -0.0391296 0.0193114 0.00926927 
-0.0245525 0.0166427 0.00756358 -0.0176457 0.0155559 0.00316598 -0.0107479 0.0191231 0.00679812 
-0.00578031 0.0117919 0.00748024 0.00503966 0.0113669 0.00440227 0.0374893 0.0172839 0.00272906 
-0.0259464 0.0267363 0.00212671 -0.0119315 0.0272085 0.00708377 0.000807172 0.0284304 0.00301488 
0.00544631 0.0290533 0.00932758 0.000281654 0.0210813 0.00530882 0.0162782 0.0228347 0.00786481 
0.0301419 0.0207201 0.00153495 0.0358499 0.0266578 0.00897062 -0.0460952 0.0302322 0.00121407 
-0.0457585 0.0384953 0.00138882 -0.0343205 0.0380026 0.000440564 -0.0347321 0.0303382 0.00233377 
-0.0310729 0.0373971 0.00899456 -0.0257459 0.0382124 0.0027149 -0.00559524 0.0342894 0.000341077 
0.0136614 0.0314972 0.00353082 0.0218511 0.0316899 0.00362355 0.0348598 0.0337437 0.00717103 
0.04181 0.030478 0.00146154 -0.040345 0.0445925 0.004793 -0.0106288 0.0411205 0.00320195 
-0.00226322 0.0462004 0.00745489 0.0143539 0.044378 0.00613695 0.0331932 0.0419896 0.00425029 
0.0404654 0.0412573 0.00851861 0.0460599 0.0458407 0.00720877 -0.0339811 -0.0444298 0.0118532 
-0.0257301 -0.0448647 0.013321 -0.0161302 -0.0461668 0.0148686 -0.00214894 -0.0452426 0.0149655 
0.00446277 -0.0452226 0.0191325 0.0190118 -0.0446808 0.019178 0.0192352 -0.0463291 0.0112539 
0.0114982 -0.0458665 0.0144025 0.0372074 -0.0434557 0.0155301 0.0460383 -0.0448181 0.0181808 
-0.0382019 -0.03562 0.0169414 -0.023584 -0.0366626 0.0131874 -0.0289329 -0.0353827 0.019128 
-0.0156347 -0.0348243 0.0110768 -0.0160532 -0.0379769 0.0188686 -0.000756707 -0.0330066 0.0118102 
-0.000603703 -0.0371955 0.0184558 0.00444283 -0.0304681 0.0173758 0.0175362 -0.0340234 0.0120138 
0.0281285 -0.0395993 0.0149187 0.0278197 -0.0323293 0.0188271 0.033107 -0.0312494 0.0138351 
0.0453729 -0.0367997 0.0130052 -0.0430392 -0.0214893 0.0148419 -0.0428602 -0.0292798 0.0115652 
-0.0298956 -0.0275989 0.0180643 -0.0211587 -0.0266359 0.0138427 -0.0104854 -0.0247052 0.0173955 
-0.00181658 -0.023401 0.0192678 0.0110873 -0.0244462 0.0157054 0.0292812 -0.0246287 0.0120277 
0.0335302 -0.0223542 0.0192935 -0.0329953 -0.0195883 0.0196285 -0.0356829 -0.0109173 0.0154607 
-0.025207 -0.0189773 0.0177503 -0.0176699 -0.0198025 0.0134479 -0.0125965 -0.013511 0.0155884 
0.00843636 -0.0182344 0.0194384 0.0244027 -0.013258 0.010525 0.0456249 -0.0189559 0.0182647 
0.0424246 -0.0114936 0.0157499 -0.0270803 -0.00806838 0.0109056 -0.0241449 -0.000661046 0.0148504 
-0.0159964 -0.00204638 0.011234 0.000113481 -0.00773462 0.0163288 0.00798782 -0.00303917 0.0128666 
0.0153478 -0.00619669 0.0120125 0.032757 -0.00413895 0.0168841 -0.0314385 0.00063898 0.0127071 
-0.035765 0.00986154 0.0194795 -0.0295429 0.00867589 0.0127183 -0.0100225 0.0044559 0.0132698 
-0.0190116 0.00777839 0.0148963 -8.96199e-06 0.00249345 0.0161745 0.0138308 0.00597484 0.0166265 
0.0235482 0.000647583 0.0139729 0.0296751 0.00478981 0.0182545 0.0311908 0.00104034 0.0102755 
0.0364008 0.00886177 0.0135711 0.0416931 0.00217188 0.0104524 -0.0254841 0.0140192 0.0165077 
-0.0116244 0.0190563 0.0150651 -0.00356377 0.0171742 0.0159522 -0.00505403 0.0104103 0.0187966 
0.00863861 0.0144055 0.013285 0.0158142 0.0145651 0.011288 0.0294079 0.0130523 0.0173523 
0.0401616 0.0164417 0.0111334 -0.0456596 0.020282 0.0170543 -0.0426987 0.028129 0.0120959 
0.0235181 0.0214156 0.0137081 0.0337939 0.0210409 0.0143198 -0.0450663 0.0397959 0.0107824 
-0.0441245 0.031798 0.0191882 -0.0176787 0.0338192 0.0136052 -0.00175148 0.0360752 0.0187244 
-0.00843511 0.0386497 0.0190905 0.0193603 0.0337966 0.0186027 0.0221404 0.0360849 0.011642 
0.0408108 0.0396869 0.0193301 0.0432123 0.030751 0.0100275 -0.0398086 0.0414649 0.0175113 
-0.0261918 0.0460359 0.0138257 -0.00765254 0.0448132 0.0154423 0.000856097 0.0432898 0.0164483 
0.026117 0.0459752 0.0168763 0.0295267 0.040949 0.011906 -0.0332944 -0.0437305 0.0200337 
-0.0152255 -0.0458519 0.0271713 -0.00765029 -0.0441722 0.0232024 0.00100109 -0.0401578 0.0280277 
0.0109051 -0.0407136 0.0210337 0.0341212 -0.0461476 0.0279439 0.0420982 -0.041402 0.0233025 
-0.0446304 -0.0358682 0.0235984 -0.0218009 -0.0343693 0.0238343 -0.0280997 -0.0303592 0.0273454 
-0.00782279 -0.0349564 0.0243221 0.017077 -0.0339103 0.0201845 0.0100104 -0.0327185 0.0243682 
0.0170263 -0.0345955 0.028956 0.0311418 -0.0378478 0.0232192 0.0403055 -0.0321128 0.0278471 
-0.0449593 -0.0277362 0.0205956 -0.0267292 -0.0212204 0.02869 -0.00689981 -0.0253424 0.0257569 
0.00560304 -0.0229199 0.0247686 0.0172835 -0.0214637 0.0254281 0.0223591 -0.02728 0.0242354 
0.0340856 -0.0271964 0.0277677 0.0392804 -0.0201231 0.026066 -0.0430078 -0.0171516 0.0217004 
-0.0239491 -0.0116987 0.0216112 -0.0109461 -0.0125012 0.0241729 -0.0193163 -0.019709 0.0234575 
-0.00327272 -0.0149108 0.0208806 0.00507941 -0.01154 0.0200892 0.0161534 -0.0100908 0.0211638 
0.0266895 -0.0165343 0.0276968 0.0333363 -0.0126012 0.0210478 -0.0422464 -0.00230421 0.021871 
-0.0325754 -0.00583302 0.0255157 -0.0238738 -0.00236328 0.0277455 -0.0111371 -0.00421728 0.0256027 
0.00814663 -0.00481436 0.0261251 0.00119302 -7.63832e-05 0.0252955 0.0186062 -0.00319992 0.024462 
0.0391895 -0.000702985 0.0278904 0.0442353 -0.00898942 0.0249687 -0.0435345 0.00973608 0.0274153 
-0.0300626 0.00197005 0.0281456 -0.020984 0.00556435 0.0292979 -0.0253285 0.00367555 0.0225421 
-0.00569147 0.00342756 0.0219585 0.0127118 0.00209744 0.0274349 0.0224668 0.00376156 0.0216509 
0.0374468 0.00899727 0.022772 0.0312301 0.00623686 0.0259155 0.0449756 0.00122688 0.0215534 
0.0447185 0.00647992 0.0278948 -0.0389897 0.0195351 0.0207005 -0.0161151 0.0116957 0.0250821 
-0.00220244 0.0194958 0.0270718 0.00938481 0.0156651 0.0236648 0.00348075 0.011445 0.0211593 
0.0173586 0.0114984 0.021068 0.019983 0.0169611 0.0281607 0.0138033 0.0115765 0.0289874 
0.022793 0.0104412 0.0263244 0.0367116 0.0190873 0.0265746 0.0457908 0.01938 0.0229499 
-0.04488 0.0245738 0.0246123 -0.0329817 0.0223038 0.024242 -0.0231117 0.0266379 0.0205979 
0.0088323 0.0246734 0.0202027 0.00278152 0.0276355 0.0249702 0.0141637 0.0280243 0.0261564 
0.0172192 0.0217335 0.0200867 0.0221681 0.0272545 0.025583 0.0304525 0.0254896 0.0231707 
0.0394196 0.0266562 0.0210971 -0.0339953 0.0394901 0.02326 -0.0302239 0.0306833 0.0221699 
-0.0168174 0.0382297 0.020194 -0.0072807 0.0306188 0.0235894 0.00508509 0.0341853 0.0269407 
0.0127608 0.0390816 0.0222828 0.0179339 0.0334364 0.0290296 0.0323988 0.0390845 0.0261945 
0.0345615 0.0332312 0.0292828 0.0457411 0.0346588 0.0279809 -0.0408146 0.0464226 0.0265166 
-0.0118207 0.045329 0.0216783 -0.0190377 0.0455708 0.0204519 0.00496043 0.0430318 0.0279182 
0.0218266 0.041679 0.0239503 0.0348733 0.045421 0.0210819 0.043836 0.0451024 0.0289308 
-0.00666572 -0.044384 0.0309174 0.0090431 -0.0417808 0.0317588 0.0457838 -0.0443662 0.0386428 
-0.0324599 -0.0389943 0.0303297 -0.0334946 -0.0301266 0.0350446 -0.0399493 -0.0367497 0.0374217 
-0.0156345 -0.0343229 0.0306008 -0.010323 -0.0303548 0.036771 -0.00287404 -0.0340538 0.0345912 
0.0286127 -0.0330551 0.0352122 0.0361333 -0.0376785 0.0314504 -0.0403898 -0.0260037 0.0329357 
-0.0255164 -0.0204502 0.0367845 -0.0196179 -0.0267519 0.0364993 0.00356176 -0.0214791 0.0326881 
0.0151201 -0.0211701 0.0361014 0.0268333 -0.0240633 0.03908 -0.043896 -0.0177956 0.033163 
-0.0227601 -0.0132065 0.0335004 -0.0133868 -0.0187699 0.0357271 0.00370115 -0.0102269 0.0358921 
0.00842169 -0.0132665 0.0309826 0.015975 -0.0138612 0.031934 0.033223 -0.0140584 0.036003 
-0.0449342 -0.00474625 0.0326857 -0.0305302 -0.00993426 0.0325581 -0.0205858 -0.000394924 0.0350997 
-0.0154927 -0.00838669 0.0371022 -0.00356294 -0.00740961 0.0300806 0.00597512 -0.000326557 0.03208 
0.0169133 -0.00598629 0.0317705 0.0260272 -0.0069777 0.0388567 0.0374174 -0.000856005 0.0376602 
0.044994 -0.00318836 0.0385198 -0.03442 0.00343211 0.0393041 -0.0293396 0.00933513 0.0338433 
-0.0026988 0.0011237 0.0366842 0.00503318 0.00986828 0.0304106 0.0105606 0.00278734 0.0398589 
0.0277652 0.000244164 0.0316301 0.0210132 0.00369722 0.0357528 -0.0383775 0.0155214 0.0344831 
-0.0210088 0.0143801 0.0330154 -0.00408074 0.0116927 0.0349533 -0.0080029 0.0169295 0.0398278 
0.00637909 0.017563 0.030329 -0.0364136 0.0235525 0.0379186 -0.0292949 0.0230358 0.0338302 
-0.0176394 0.0270885 0.0352117 -0.0128641 0.023075 0.0303142 -0.00204135 0.0202385 0.0348979 
0.0194899 0.0249671 0.0349763 0.0100381 0.0215446 0.0383774 0.0391754 0.0206636 0.0370714 
0.0330267 0.0251252 0.0302857 0.0310149 0.0255741 0.0393614 -0.0443611 0.0322819 0.0379922 
-0.0342752 0.0342977 0.0350568 -0.0226964 0.0321363 0.0303017 -0.0152504 0.0358585 0.0396373 
0.00902408 0.0315905 0.0372836 0.0291987 0.0381243 0.0354677 0.0202984 0.0316536 0.0392246 
0.0368087 0.0379659 0.0384158 0.0435493 0.0349252 0.0387186 -0.0458466 0.0420399 0.0312337 
-0.0322566 0.0457479 0.0369641 -0.0383909 0.0414237 0.0351991 -0.0243804 0.0427745 0.0354435 
-0.00112476 0.0418048 0.0323658 0.0206688 0.0422812 0.0348829 -0.0458754 -0.0445244 0.0405757 
-0.0165745 -0.0441079 0.0437117 -0.00334641 -0.0452462 0.0420443 -0.0434597 -0.0321438 0.0418667 
-0.0283607 -0.0325177 0.0419981 -0.0153163 -0.0341797 0.0454079 0.0195247 -0.0306531 0.0401735 
-0.00719169 -0.0263023 0.0422212 0.00204656 -0.0228728 0.0416725 -0.0280624 -0.0121585 0.0408647 
0.0131306 -0.0148488 0.0411816 0.045044 -0.00873176 0.0459953 -0.0355748 0.0086336 0.0455096 
-0.0198663 0.0096884 0.0432368 0.0379719 0.0084988 0.0438607 -0.0192095 0.0171962 0.0429043 
0.00326886 0.0152594 0.0414164 0.0312314 0.0115691 0.0440525 -0.00130872 0.0263665 0.0403665 
0.00332414 0.0295393 0.0456128 -0.0358078 0.034537 0.0449001 0.00785182 0.0399154 0.0421139 
-0.00812372 0.04101 0.0412294 0.0234218 0.0404479 0.0453803 0.0336307 0.0442356 0.0428481 

VERTICES 1134 1134
1 0 
1 1 
1 2 
1 3 
1 4 
1 5 
1 6 
1 7 
1 8 
1 9 
1 10 
1 11 
1 12 
1 13 
1 14 
1 15 
1 16 
1 17 
1 18 
1 19 
1 20 
1 21 
1 22 
1 23 
1 24 
1 25 
1 26 
1 27 
1 28 
1 29 
1 30 
1 31 
1 32 
1 33 
1 34 
1 35 
1 36 
1 37 
1 38 
1 39 
1 40 
1 41 
1 42 
1 43 
1 44 
1 45 
1 46 
1 47 
1 48 
1 49 
1 50 
1 51 
1 52 
1 53 
1 54 
1 55 
1 56 
1 57 
1 58 
1 59 
1 60 
1 61 
1 62 
1 63 
1 64 
1 65 
1 66 
1 67 
1 68 
1 69 
1 70 
1 71 
1 72 
1 73 
1 74 
1 75 
1 76 
1 77 
1 78 
1 79 
1 80 
1 81 
1 82 
1 83 
1 84 
1 85 
1 86 
1 87 
1 88 
1 89 
1 90 
1 91 
1 92 
1 93 
1 94 
1 95 
1 96 
1 97 
1 98 
1 99 
1 100 
1 101 
1 102 
1 103 
1 104 
1 105 
1 106 
1 107 
1 108 
1 109 
1 110 
1 111 
1 112 
1 113 
1 114 
1 115 
1 116 
1 117 
1 118 
1 119 
1 120 
1 121 
1 122 
1 123 
1 124 
1 125 
1 126 
1 127 
1 128 
1 129 
1 130 
1 131 
1 132 
1 133 
1 134 
1 135 
1 136 
1 137 
1 138 
1 139 
1 140 
1 141 
1 142 
1 143 
1 144 
1 145 
1 146 
1 147 
1 148 
1 149 
1 150 
1 151 
1 152 
1 153 
1 154 
1 155 
1 156 
1 157 
1 158 
1 159 
1 160 
1 161 
1 162 
1 163 
1 164 
1 165 
1 166 
1 167 
1 168 
1 169 
1 170 
1 171 
1 172 
1 173 
1 174 
1 175 
1 176 
1 177 
1 178 
1 179 
1 180 
1 181 
1 182 
1 183 
1 184 
1 185 
1 186 
1 187 
1 188 
1 189 
1 190 
1 191 
1 192 
1 193 
1 194 
1 195 
1 196 
1 197 
1 198 
1 199 
1 200 
1 201 
1 202 
1 203 
1 204 
1 205 
1 206 
1 207 
1 208 
1 209 
1 210 
1 211 
1 212 
1 213 
1 214 
1 215 
1 216 
1 217 
1 218 
1 219 
1 220 
1 221 
1 222 
1 223 
1 224 
1 225 
1 226 
1 227 
1 228 
1 229 
1 230 
1 231 
1 232 
1 233 
1 234 
1 235 
1 236 
1 237 
1 238 
1 239 
1 240 
1 241 
1 242 
1 243 
1 244 
1 245 
1 246 
1 247 
1 248 
1 249 
1 250 
1 251 
1 252 
1 253 
1 254 
1 255 
1 256 
1 257 
1 258 
1 259 
1 260 
1 261 
1 262 
1 263 
1 264 
1 265 
1 266 
1 267 
1 268 
1 269 
1 270 
1 271 
1 272 
1 273 
1 274 
1 275 
1 276 
1 277 
1 278 
1 279 
1 280 
1 281 
1 282 
1 283 
1 284 
1 285 
1 286 
1 287 
1 288 
1 289 
1 290 
1 291 
1 292 
1 293 
1 294 
1 295 
1 296 
1 297 
1 298 
1 299 
1 300 
1 301 
1 302 
1 303 
1 304 
1 305 
1 306 
1 307 
1 308 
1 309 
1 310 
1 311 
1 312 
1 313 
1 314 
1 315 
1 316 
1 317 
1 318 
1 319 
1 320 
1 321 
1 322 
1 323 
1 324 
1 325 
1 326 
1 327 
1 328 
1 329 
1 330 
1 331 
1 332 
1 333 
1 334 
1 335 
1 336 
1 337 
1 338 
1 339 
1 340 
1 341 
1 342 
1 343 
1 344 
1 345 
1 346 
1 347 
1 348 
1 349 
1 350 
1 351 
1 352 
1 353 
1 354 
1 355 
1 356 
1 357 
1 358 
1 359 
1 360 
1 361 
1 362 
1 363 
1 364 
1 365 
1 366 
1 367 
1 368 
1 369 
1 370 
1 371 
1 372 
1 373 
1 374 
1 375 
1 376 
1 377 
1 378 
1 379 
1 380 
1 381 
1 382 
1 383 
1 384 
1 385 
1 386 
1 387 
1 388 
1 389 
1 390 
1 391 
1 392 
1 393 
1 394 
1 395 
1 396 
1 397 
1 398 
1 399 
1 400 
1 401 
1 402 
1 403 
1 404 
1 405 
1 406 
1 407 
1 408 
1 409 
1 410 
1 411 
1 412 
1 413 
1 414 
1 415 
1 416 
1 417 
1 418 
1 419 
1 420 
1 421 
1 422 
1 423 
1 424 
1 425 
1 426 
1 427 
1 428 
1 429 
1 430 
1 431 
1 432 
1 433 
1 434 
1 435 
1 436 
1 437 
1 438 
1 439 
1 440 
1 441 
1 442 
1 443 
1 444 
1 445 
1 446 
1 447 
1 448 
1 449 
1 450 
1 451 
1 452 
1 453 
1 454 
1 455 
1 456 
1 457 
1 458 
1 459 
1 460 
1 461 
1 462 
1 463 
1 464 
1 465 
1 466 
1 467 
1 468 
1 469 
1 470 
1 471 
1 472 
1 473 
1 474 
1 475 
1 476 
1 477 
1 478 
1 479 
1 480 
1 481 
1 482 
1 483 
1 484 
1 485 
1 486 
1 487 
1 488 
1 489 
1 490 
1 491 
1 492 
1 493 
1 494 
1 495 
1 496 
1 497 
1 498 
1 499 
1 500 
1 501 
1 502 
1 503 
1 504 
1 505 
1 506 
1 507 
1 508 
1 509 
1 510 
1 511 
1 512 
1 513 
1 514 
1 515 
1 516 
1 517 
1 518 
1 519 
1 520 
1 521 
1 522 
1 523 
1 524 
1 525 
1 526 
1 527 
1 528 
1 529 
1 530 
1 531 
1 532 
1 533 
1 534 
1 535 
1 536 
1 537 
1 538 
1 539 
1 540 
1 541 
1 542 
1 543 
1 544 
1 545 
1 546 
1 547 
1 548 
1 549 
1 550 
1 551 
1 552 
1 553 
1 554 
1 555 
1 556 
1 557 
1 558 
1 559 
1 560 
1 561 
1 562 
1 563 
1 564 
1 565 
1 566 

POINT_DATA 567
SCALARS id double
LOOKUP_TABLE default
330 136 540 259 133 426 104 202 457 
535 135 275 30 171 363 223 231 256 
416 441 205 70 467 531 469 451 141 
33 40 86 276 280 418 235 381 228 
396 14 37 538 351 76 447 211 273 
406 331 17 397 139 448 252 419 468 
140 459 60 384 395 415 326 68 237 
435 138 475 218 207 295 97 306 495 
77 289 314 319 226 169 561 490 323 
129 552 402 71 131 23 424 132 382 
200 81 450 111 262 137 449 82 20 
161 162 385 193 307 222 541 488 43 
537 185 19 439 401 421 101 365 564 
163 348 125 425 88 58 279 480 92 
44 562 350 124 121 369 115 407 41 
128 456 496 328 532 500 466 524 85 
526 378 221 354 47 201 333 545 65 
96 110 340 549 315 476 283 560 461 
90 197 499 544 288 266 325 510 356 
1 83 173 73 391 429 536 473 309 
311 53 515 414 168 411 530 217 212 
438 502 357 11 151 332 556 313 373 
62 26 460 444 383 293 318 264 204 
210 156 13 512 528 327 220 386 455 
29 509 304 25 553 260 102 216 518 
527 31 338 150 296 126 258 3 94 
505 523 550 472 334 194 504 52 100 
344 428 183 501 408 157 103 189 56 
224 554 272 520 346 440 299 34 118 
105 294 297 483 493 521 301 347 239 
398 74 209 434 107 229 374 355 45 
113 342 49 533 367 358 394 503 108 
300 359 452 57 485 84 190 400 551 
265 458 430 203 321 478 95 27 93 
2 0 464 147 4 322 67 320 308 
236 376 191 12 379 149 142 51 508 
9 146 167 336 491 244 10 6 64 
5 39 286 261 465 89 389 453 362 
298 153 387 422 290 432 206 513 152 
79 462 337 284 343 481 18 404 267 
292 241 182 445 21 199 112 312 547 
164 471 463 179 494 175 232 119 484 
546 233 98 254 143 255 36 316 446 
55 130 403 517 498 72 268 514 22 
427 198 195 145 519 380 75 412 80 
270 240 443 42 54 516 317 405 24 
242 99 196 274 282 134 192 522 158 
474 247 489 497 371 253 529 559 219 
410 227 413 454 106 353 341 180 166 
525 364 566 230 375 349 506 59 188 
181 372 186 555 234 238 243 50 170 
563 287 470 177 548 28 248 285 148 
492 339 392 35 263 324 66 437 114 
390 127 15 215 48 269 335 117 487 
409 305 249 277 479 87 377 486 477 
423 507 388 63 366 442 155 539 511 
393 61 174 154 278 208 482 250 257 
370 245 436 565 122 120 360 291 160 
352 361 417 302 123 433 281 116 214 
251 420 172 310 271 32 38 159 345 
109 187 8 91 329 184 399 213 431 
7 144 16 368 542 46 69 557 165 
246 225 534 78 176 303 178 543 558 

FIELD FieldData 7
r 3 567 double
-0.0222642 -0.0451917 -0.0465611 0.00111253 -0.0446133 -0.0421239 0.0291448 -0.0440464 -0.0467859 
0.00814026 -0.0335457 -0.0459218 -0.0116055 -0.0298793 -0.045852 0.0140245 -0.0217225 -0.0416132 
-0.0424652 -0.0124349 -0.0430586 -0.0341574 -0.016228 -0.0432432 -0.00567991 -0.0194108 -0.0449401 
0.0440769 -0.0110343 -0.0411676 0.0155827 -0.00682437 -0.0448981 -0.0455284 0.00702298 -0.041722 
-0.0418897 0.0145837 -0.0466316 -0.0356125 0.0112093 -0.0410398 0.00747684 0.0370485 -0.0447328 
-0.0282256 0.0452319 -0.043354 -0.0044822 0.040824 -0.0407979 -0.0405853 -0.0394788 -0.0375793 
-0.0210201 -0.0392845 -0.0362191 0.0102758 -0.031476 -0.0312803 0.0340194 -0.0312469 -0.032286 
-0.0310908 -0.0236412 -0.0387183 -0.000677586 -0.029477 -0.030903 0.0185647 -0.0250969 -0.0351557 
0.0279956 -0.0259513 -0.0340085 0.0396714 -0.0234607 -0.0345271 0.0196562 -0.013253 -0.0315685 
-0.0383597 -0.00134525 -0.0395477 -0.00313792 -0.00814878 -0.0326987 -0.0249726 0.00614162 -0.0304625 
-0.00652929 0.00731014 -0.0314132 0.00411018 0.00321272 -0.0344744 0.017667 0.00299977 -0.0388437 
-0.00641976 0.0194205 -0.0399404 0.0104975 0.0100266 -0.0365778 -0.0379472 0.0210309 -0.0365702 
0.00887863 0.0253666 -0.0300782 0.0328015 0.0271902 -0.0368823 -0.0193627 0.0351268 -0.0346657 
-0.00290527 0.0319264 -0.0374043 0.00654338 0.0385606 -0.0312269 -0.0205402 -0.0422038 -0.0271798 
-0.028934 -0.0402287 -0.0205838 -0.00629472 -0.0409196 -0.025978 0.00336743 -0.0405224 -0.0273437 
0.0182845 -0.0458241 -0.0267519 0.0327985 -0.0410502 -0.0286135 -0.0443519 -0.035896 -0.0282955 
-0.0331497 -0.0376474 -0.0268545 -0.0325067 -0.0314381 -0.0211562 -0.0109446 -0.0344047 -0.0282093 
-0.000872036 -0.0364736 -0.0210093 0.0339484 -0.031817 -0.0202823 -0.000611153 -0.025656 -0.0211569 
-0.0136944 -0.0104052 -0.0264132 -0.00540413 -0.0174038 -0.0249353 0.00895883 -0.00667801 -0.02973 
0.0324961 -0.00705305 -0.0286473 0.0404282 -0.00138757 -0.0270544 -0.0404469 0.00309652 -0.0278771 
-0.0142542 0.00305431 -0.0231697 0.00160946 0.000335162 -0.0266967 0.0169053 0.00231403 -0.0298648 
0.0225225 0.00794051 -0.0203216 -0.0292051 0.0169328 -0.0285925 0.0419885 0.0130123 -0.0274863 
-0.0381628 0.0223625 -0.0253487 -0.0313106 0.0260041 -0.0295905 -0.0118319 0.0201928 -0.0283421 
-0.016233 0.0274828 -0.0294025 -0.00661337 0.020132 -0.0211416 0.0333511 0.0257254 -0.0209572 
-0.0341407 0.0316846 -0.0216289 -0.0273238 0.0353187 -0.026962 -0.0156214 0.0310202 -0.0207817 
0.00296262 0.0313463 -0.0279687 0.0243082 0.0346672 -0.0299274 -0.033531 0.0411201 -0.0247892 
0.0128824 0.0461052 -0.0242945 0.0209815 0.0452555 -0.023043 0.0446205 0.0407316 -0.0251925 
-0.0451099 -0.0457161 -0.0138266 0.0145388 -0.0404153 -0.0106121 0.0243641 -0.0417507 -0.0197912 
-0.0414925 -0.0319668 -0.0179218 -0.021827 -0.0340457 -0.0185943 0.0179042 -0.0383877 -0.0175584 
0.0239325 -0.0368326 -0.0133706 -0.0278819 -0.0250583 -0.0161287 -0.0209331 -0.023087 -0.0110918 
-0.0169097 -0.0238758 -0.0186004 0.00522813 -0.0285066 -0.0166458 0.0374855 -0.0264716 -0.0142272 
-0.0378792 -0.0189579 -0.0134796 0.0131954 -0.0137583 -0.018297 0.0214598 -0.0161439 -0.0181874 
0.043187 -0.0148808 -0.0139386 -0.0447447 -0.00339656 -0.0109017 -0.0335195 -0.00327888 -0.0146512 
-0.0163507 -0.0019032 -0.0100596 -0.000434802 -0.00628219 -0.0114589 0.0158173 -0.00348375 -0.0189486 
0.0288287 -0.00839271 -0.0143666 -0.022623 0.00258643 -0.0170218 0.010396 0.00654341 -0.0142275 
0.0239032 0.00363667 -0.0114906 0.0401002 0.00903634 -0.0136167 -0.0450239 0.0115527 -0.0109918 
-0.0387515 0.0141534 -0.0157509 -0.0234636 0.0107432 -0.011921 -0.0255578 0.0198199 -0.0110481 
-0.00545688 0.0125651 -0.0104013 0.0101961 0.0180709 -0.0191173 0.0317992 0.0148036 -0.0152046 
-0.0445262 0.0245363 -0.0121741 -0.0217992 0.0254687 -0.0172439 0.00335173 0.0234808 -0.0156224 
0.0256055 0.0244699 -0.0120609 0.022229 0.0285014 -0.0198897 0.0443385 0.0223104 -0.0193713 
0.0459004 0.0253652 -0.0108396 -0.0426967 0.0387515 -0.0108418 -0.0415609 0.0341781 -0.0172504 
-0.0201234 0.0368116 -0.0107113 -0.013028 0.0361149 -0.015061 -0.0199609 0.0374218 -0.0198605 
-0.0039177 0.0333146 -0.0182906 0.0143308 0.0354237 -0.0169094 0.0331062 0.0392705 -0.0112 
-0.0460745 0.0461742 -0.0112049 -0.0095372 0.0434423 -0.0115691 0.00224276 0.0422825 -0.0165103 
-0.0443207 -0.0431518 -0.00629628 -0.0337128 -0.0418882 -0.00754368 -0.0119918 -0.0429567 -0.00619854 
-0.00326543 -0.0413226 -0.0026576 0.00213385 -0.0445101 -0.00858412 0.0190972 -0.0464478 -0.00294452 
0.0263354 -0.0416297 -0.00318531 0.0359493 -0.0452015 -0.00598817 0.0424654 -0.0457023 -0.000926189 
-0.0274323 -0.0319771 -0.00707713 -0.00574396 -0.0378802 -0.00889241 0.00321362 -0.0321354 -0.00817424 
0.0126676 -0.0319554 -0.00150988 0.0334094 -0.0376136 -0.00615102 -0.0363581 -0.0218116 -0.00350269 
-0.0158076 -0.0262576 -0.00194062 -0.00724543 -0.0251598 -0.00015983 0.0195026 -0.0287888 -0.00410987 
0.0183974 -0.0225137 -0.0091337 0.0374183 -0.0276697 -0.00594542 0.0463093 -0.0285649 -0.00160044 
-0.0397158 -0.0109746 -0.00586338 -0.0145594 -0.0126631 -0.0080395 -0.00394851 -0.0193474 -0.00585716 
0.00749532 -0.0138206 -0.00976536 0.0296427 -0.0167439 -0.00140539 0.0214918 -0.0178591 -0.00266881 
0.0367158 -0.0111896 -0.00316834 0.0404974 -0.0195539 -0.00549855 -0.0293619 -0.000980689 -0.0063285 
-0.00726413 -0.00322585 -0.00484985 0.0125484 -0.0070171 -0.00160668 0.0208966 -0.00791213 -0.00634559 
0.0422188 -0.00127933 -0.00832095 -0.0111465 0.0060649 -0.00625856 0.00853314 0.00028273 -0.00725698 
0.0224433 0.0024159 -0.00181263 0.0354002 0.00868759 -0.00341736 -0.0424799 0.0171965 -0.00491124 
-0.031932 0.014659 -0.00719024 -0.0214938 0.0158177 -0.00492099 -0.0106231 0.0149461 -0.00461928 
-0.000515083 0.0146848 -0.00431078 0.0129691 0.0185877 -0.00291469 0.0210323 0.0121769 -0.00669387 
0.0341607 0.0188572 -0.00471189 -0.0338911 0.0240486 -0.00651194 -0.0187753 0.0220902 -0.00719422 
-0.00376463 0.0245227 -0.00465543 0.00584033 0.022813 -0.00108996 0.0234427 0.0214074 -0.00250834 
0.0445817 0.0211214 -0.00168075 -0.0386401 0.0311069 -0.00940417 -0.0185917 0.0397897 -0.000509828 
-0.000162519 0.0329875 -0.0065677 -0.00906788 0.0328183 -0.00856764 0.0187204 0.0351047 -0.00564981 
0.0123255 0.0321976 -0.00850892 0.029151 0.0316599 -0.00903116 -0.0405987 0.042878 -0.00365978 
-0.0306854 0.0462294 -0.00493526 -0.0163267 0.0443191 -0.00746915 -0.00227067 0.0429891 -0.00698459 
0.00936299 0.0400969 -0.00247397 0.0178561 0.0452116 -0.00218569 0.0287457 0.0460623 -0.00201819 
0.0379014 0.0400378 -0.00509637 -0.0435796 -0.0431217 0.00869672 -0.0453859 -0.0456957 0.00132897 
-0.0093803 -0.0438647 0.00750121 0.0029556 -0.0455072 0.00413105 0.0116728 -0.0402718 0.00711695 
0.025638 -0.0447558 0.0033977 0.0321029 -0.0460019 0.00947665 -0.0418271 -0.0367803 0.00188661 
-0.0339199 -0.031988 0.00298813 -0.0227771 -0.0352624 0.00127198 -0.0292861 -0.0372784 0.00736303 
-0.0128746 -0.0334686 0.00326682 0.00543355 -0.0367099 0.0017612 0.0289556 -0.0380965 0.00673766 
0.0374849 -0.030755 0.00727326 0.0321223 -0.0310627 0.000676909 0.042726 -0.0371971 0.00211594 
-0.040309 -0.0258536 0.0047415 -0.0307687 -0.0299455 0.00930129 -0.021596 -0.0282364 0.00412812 
-0.0275448 -0.0228194 0.00252645 -0.0128843 -0.02302 0.00603395 -0.00559614 -0.0276451 0.00794497 
-0.00433579 -0.020059 0.00424402 0.0103853 -0.027113 0.00626139 0.0445961 -0.0225755 0.00860076 
-0.0414822 -0.0145054 0.000283806 -0.0332072 -0.0151558 0.00946451 -0.0390463 -0.019009 0.00747203 
-0.0194191 -0.0170876 0.003018 -0.0136406 -0.0119289 0.000694831 -0.018951 -0.0110024 0.00901144 
-0.00536807 -0.0113263 0.0070803 0.00411354 -0.0118309 0.00902478 0.00125475 -0.0105587 0.00103622 
0.0133432 -0.0122337 0.00852365 0.014326 -0.0195783 0.00260919 0.0454848 -0.0195011 0.000701147 
0.0431258 -0.0123491 0.00213743 -0.0455708 -0.007723 0.0047262 -0.0334783 -0.00565347 0.00755751 
-0.0347411 -0.00635551 0.000111365 -0.0231244 -0.00681746 0.0030729 -0.0113813 -0.00273538 0.0031928 
0.00467732 -0.00238832 0.00548065 0.0236322 -0.00818397 0.00178366 0.0253064 -0.00469076 0.00809939 
0.0365448 -0.00358011 0.00209624 0.0436741 -0.00438907 0.00613749 -0.0448817 0.00139465 0.00346301 
-0.0300873 0.00536229 0.00362786 -0.01438 0.0089711 0.00776686 -0.00314707 0.00122366 0.00556591 
0.00627583 0.00438232 0.001643 0.0031754 0.0042365 0.00951646 0.0174342 0.00145806 0.00798522 
0.0199809 0.00871922 0.00400383 0.0456058 0.00969133 0.004179 -0.0433583 0.0104083 0.00749947 
-0.0338725 0.0191847 0.00174726 -0.0329308 0.0124467 0.00638289 -0.0391296 0.0193114 0.00926927 
-0.0245525 0.0166427 0.00756358 -0.0176457 0.0155559 0.00316598 -0.0107479 0.0191231 0.00679812 
-0.00578031 0.0117919 0.00748024 0.00503966 0.0113669 0.00440227 0.0374893 0.0172839 0.00272906 
-0.0259464 0.0267363 0.00212671 -0.0119315 0.0272085 0.00708377 0.000807172 0.0284304 0.00301488 
0.00544631 0.0290533 0.00932758 0.000281654 0.0210813 0.00530882 0.0162782 0.0228347 0.00786481 
0.0301419 0.0207201 0.00153495 0.0358499 0.0266578 0.00897062 -0.0460952 0.0302322 0.00121407 
-0.0457585 0.0384953 0.00138882 -0.0343205 0.0380026 0.000440564 -0.0347321 0.0303382 0.00233377 
-0.0310729 0.0373971 0.00899456 -0.0257459 0.0382124 0.0027149 -0.00559524 0.0342894 0.000341077 
0.0136614 0.0314972 0.00353082 0.0218511 0.0316899 0.00362355 0.0348598 0.0337437 0.00717103 
0.04181 0.030478 0.00146154 -0.040345 0.0445925 0.004793 -0.0106288 0.0411205 0.00320195 
-0.00226322 0.0462004 0.00745489 0.0143539 0.044378 0.00613695 0.0331932 0.0419896 0.00425029 
0.0404654 0.0412573 0.00851861 0.0460599 0.0458407 0.00720877 -0.0339811 -0.0444298 0.0118532 
-0.0257301 -0.0448647 0.013321 -0.0161302 -0.0461668 0.0148686 -0.00214894 -0.0452426 0.0149655 
0.00446277 -0.0452226 0.0191325 0.0190118 -0.0446808 0.019178 0.0192352 -0.0463291 0.0112539 
0.0114982 -0.0458665 0.0144025 0.0372074 -0.0434557 0.0155301 0.0460383 -0.0448181 0.0181807 
-0.0382019 -0.03562 0.0169414 -0.023584 -0.0366626 0.0131874 -0.0289329 -0.0353827 0.019128 
-0.0156347 -0.0348243 0.0110768 -0.0160532 -0.0379769 0.0188686 -0.000756707 -0.0330066 0.0118102 
-0.000603703 -0.0371955 0.0184558 0.00444283 -0.0304681 0.0173758 0.0175362 -0.0340234 0.0120138 
0.0281285 -0.0395993 0.0149187 0.0278197 -0.0323293 0.0188271 0.033107 -0.0312494 0.0138351 
0.0453729 -0.0367997 0.0130052 -0.0430392 -0.0214893 0.0148419 -0.0428602 -0.0292798 0.0115652 
-0.0298956 -0.0275989 0.0180643 -0.0211587 -0.0266359 0.0138427 -0.0104854 -0.0247052 0.0173955 
-0.00181658 -0.023401 0.0192678 0.0110873 -0.0244462 0.0157054 0.0292812 -0.0246287 0.0120277 
0.0335302 -0.0223542 0.0192935 -0.0329953 -0.0195883 0.0196285 -0.0356829 -0.0109173 0.0154607 
-0.025207 -0.0189773 0.0177503 -0.0176699 -0.0198025 0.0134479 -0.0125965 -0.013511 0.0155884 
0.00843636 -0.0182344 0.0194384 0.0244027 -0.013258 0.010525 0.0456249 -0.0189559 0.0182647 
0.0424246 -0.0114936 0.0157499 -0.0270803 -0.00806838 0.0109056 -0.0241449 -0.000661046 0.0148504 
-0.0159964 -0.00204638 0.011234 0.000113481 -0.00773462 0.0163288 0.00798782 -0.00303917 0.0128666 
0.0153478 -0.00619669 0.0120125 0.032757 -0.00413895 0.0168842 -0.0314385 0.00063898 0.0127071 
-0.035765 0.00986154 0.0194795 -0.0295429 0.00867589 0.0127183 -0.0100225 0.0044559 0.0132698 
-0.0190116 0.00777839 0.0148963 -8.96199e-06 0.00249345 0.0161745 0.0138308 0.00597484 0.0166265 
0.0235482 0.000647583 0.0139729 0.0296751 0.00478981 0.0182545 0.0311908 0.00104034 0.0102755 
0.0364008 0.00886176 0.0135711 0.0416931 0.00217188 0.0104524 -0.0254841 0.0140192 0.0165077 
-0.0116244 0.0190563 0.0150651 -0.00356377 0.0171742 0.0159522 -0.00505403 0.0104103 0.0187966 
0.00863861 0.0144055 0.013285 0.0158142 0.0145651 0.011288 0.0294079 0.0130523 0.0173523 
0.0401616 0.0164417 0.0111334 -0.0456596 0.020282 0.0170543 -0.0426987 0.028129 0.0120959 
0.0235181 0.0214156 0.0137081 0.0337939 0.0210409 0.0143198 -0.0450663 0.0397959 0.0107824 
-0.0441245 0.031798 0.0191882 -0.0176787 0.0338191 0.0136052 -0.00175148 0.0360752 0.0187244 
-0.00843511 0.0386497 0.0190905 0.0193603 0.0337966 0.0186027 0.0221404 0.0360849 0.011642 
0.0408108 0.0396869 0.0193301 0.0432123 0.030751 0.0100275 -0.0398086 0.0414649 0.0175113 
-0.0261918 0.0460359 0.0138257 -0.00765253 0.0448132 0.0154423 0.000856097 0.0432898 0.0164483 
0.026117 0.0459752 0.0168763 0.0295267 0.040949 0.011906 -0.0332944 -0.0437305 0.0200337 
-0.0152255 -0.0458519 0.0271713 -0.00765029 -0.0441722 0.0232024 0.00100109 -0.0401578 0.0280277 
0.0109051 -0.0407136 0.0210337 0.0341212 -0.0461476 0.0279439 0.0420982 -0.041402 0.0233025 
-0.0446304 -0.0358682 0.0235984 -0.0218009 -0.0343693 0.0238343 -0.0280997 -0.0303592 0.0273454 
-0.00782279 -0.0349564 0.0243221 0.017077 -0.0339103 0.0201845 0.0100104 -0.0327185 0.0243682 
0.0170263 -0.0345955 0.028956 0.0311418 -0.0378478 0.0232192 0.0403055 -0.0321128 0.0278471 
-0.0449593 -0.0277362 0.0205956 -0.0267292 -0.0212204 0.02869 -0.00689981 -0.0253424 0.0257569 
0.00560304 -0.0229199 0.0247686 0.0172835 -0.0214637 0.0254281 0.0223591 -0.02728 0.0242355 
0.0340856 -0.0271964 0.0277677 0.0392804 -0.0201231 0.026066 -0.0430078 -0.0171516 0.0217004 
-0.0239491 -0.0116987 0.0216112 -0.0109461 -0.0125012 0.0241729 -0.0193163 -0.019709 0.0234575 
-0.00327272 -0.0149108 0.0208806 0.00507941 -0.01154 0.0200892 0.0161534 -0.0100908 0.0211638 
0.0266895 -0.0165343 0.0276968 0.0333363 -0.0126012 0.0210478 -0.0422464 -0.00230421 0.021871 
-0.0325754 -0.00583302 0.0255157 -0.0238738 -0.00236328 0.0277455 -0.0111371 -0.00421728 0.0256027 
0.00814663 -0.00481436 0.0261252 0.00119302 -7.63832e-05 0.0252955 0.0186062 -0.00319992 0.024462 
0.0391895 -0.000702985 0.0278904 0.0442353 -0.00898942 0.0249687 -0.0435345 0.00973608 0.0274153 
-0.0300626 0.00197005 0.0281456 -0.020984 0.00556435 0.0292979 -0.0253285 0.00367555 0.0225421 
-0.00569147 0.00342756 0.0219585 0.0127118 0.00209744 0.0274349 0.0224668 0.00376156 0.0216509 
0.0374468 0.00899727 0.022772 0.0312301 0.00623686 0.0259155 0.0449756 0.00122688 0.0215534 
0.0447185 0.00647992 0.0278948 -0.0389897 0.0195351 0.0207005 -0.0161151 0.0116957 0.0250821 
-0.00220244 0.0194958 0.0270718 0.00938481 0.0156651 0.0236648 0.00348075 0.011445 0.0211593 
0.0173586 0.0114984 0.021068 0.019983 0.0169611 0.0281607 0.0138033 0.0115765 0.0289874 
0.022793 0.0104412 0.0263244 0.0367116 0.0190873 0.0265746 0.0457908 0.01938 0.0229499 
-0.04488 0.0245738 0.0246123 -0.0329817 0.0223038 0.024242 -0.0231117 0.0266379 0.0205979 
0.0088323 0.0246734 0.0202027 0.00278152 0.0276355 0.0249702 0.0141637 0.0280243 0.0261564 
0.0172192 0.0217335 0.0200867 0.0221681 0.0272545 0.025583 0.0304525 0.0254896 0.0231707 
0.0394196 0.0266562 0.0210971 -0.0339953 0.0394901 0.02326 -0.0302239 0.0306833 0.0221699 
-0.0168174 0.0382297 0.020194 -0.0072807 0.0306188 0.0235894 0.00508509 0.0341853 0.0269407 
0.0127608 0.0390816 0.0222828 0.0179339 0.0334364 0.0290296 0.0323988 0.0390845 0.0261945 
0.0345615 0.0332312 0.0292828 0.0457411 0.0346588 0.0279809 -0.0408146 0.0464226 0.0265166 
-0.0118207 0.045329 0.0216783 -0.0190377 0.0455708 0.0204519 0.00496043 0.0430318 0.0279182 
0.0218266 0.041679 0.0239503 0.0348733 0.045421 0.0210819 0.043836 0.0451024 0.0289308 
-0.00666572 -0.044384 0.0309174 0.0090431 -0.0417808 0.0317588 0.0457838 -0.0443662 0.0386428 
-0.0324599 -0.0389943 0.0303297 -0.0334946 -0.0301266 0.0350446 -0.0399493 -0.0367497 0.0374217 
-0.0156345 -0.0343229 0.0306008 -0.010323 -0.0303548 0.036771 -0.00287404 -0.0340538 0.0345912 
0.0286127 -0.0330551 0.0352122 0.0361333 -0.0376785 0.0314504 -0.0403898 -0.0260037 0.0329357 
-0.0255164 -0.0204502 0.0367845 -0.0196179 -0.0267519 0.0364993 0.00356176 -0.0214791 0.0326881 
0.0151201 -0.0211701 0.0361014 0.0268333 -0.0240633 0.03908 -0.043896 -0.0177956 0.033163 
-0.0227601 -0.0132065 0.0335004 -0.0133868 -0.0187699 0.0357271 0.00370115 -0.0102269 0.0358921 
0.00842169 -0.0132665 0.0309826 0.015975 -0.0138612 0.031934 0.033223 -0.0140584 0.036003 
-0.0449342 -0.00474625 0.0326857 -0.0305302 -0.00993426 0.0325581 -0.0205858 -0.000394924 0.0350997 
-0.0154927 -0.00838669 0.0371022 -0.00356294 -0.00740961 0.0300806 0.00597512 -0.000326557 0.03208 
0.0169133 -0.00598629 0.0317705 0.0260272 -0.0069777 0.0388567 0.0374174 -0.000856005 0.0376602 
0.044994 -0.00318836 0.0385198 -0.03442 0.00343211 0.0393041 -0.0293396 0.00933513 0.0338433 
-0.0026988 0.0011237 0.0366842 0.00503318 0.00986828 0.0304106 0.0105606 0.00278734 0.0398589 
0.0277652 0.000244164 0.0316301 0.0210132 0.00369722 0.0357528 -0.0383775 0.0155214 0.0344831 
-0.0210088 0.0143801 0.0330154 -0.00408074 0.0116927 0.0349533 -0.0080029 0.0169295 0.0398278 
0.00637909 0.017563 0.030329 -0.0364136 0.0235525 0.0379186 -0.0292949 0.0230358 0.0338302 
-0.0176394 0.0270885 0.0352117 -0.0128641 0.023075 0.0303142 -0.00204135 0.0202385 0.0348979 
0.0194899 0.0249671 0.0349763 0.0100381 0.0215446 0.0383774 0.0391754 0.0206636 0.0370714 
0.0330267 0.0251252 0.0302857 0.0310149 0.0255741 0.0393614 -0.0443611 0.0322819 0.0379922 
-0.0342752 0.0342977 0.0350568 -0.0226964 0.0321362 0.0303017 -0.0152504 0.0358585 0.0396373 
0.00902408 0.0315905 0.0372836 0.0291987 0.0381243 0.0354677 0.0202984 0.0316536 0.0392246 
0.0368087 0.0379659 0.0384158 0.0435493 0.0349252 0.0387186 -0.0458466 0.0420399 0.0312337 
-0.0322566 0.0457479 0.0369641 -0.0383909 0.0414237 0.0351991 -0.0243804 0.0427745 0.0354435 
-0.00112476 0.0418048 0.0323658 0.0206688 0.0422812 0.0348829 -0.0458754 -0.0445244 0.0405757 
-0.0165745 -0.0441079 0.0437117 -0.00334641 -0.0452462 0.0420443 -0.0434597 -0.0321438 0.0418667 
-0.0283607 -0.0325177 0.0419981 -0.0153163 -0.0341797 0.0454079 0.0195247 -0.0306531 0.0401735 
-0.00719169 -0.0263023 0.0422212 0.00204656 -0.0228728 0.0416725 -0.0280624 -0.0121585 0.0408647 
0.0131306 -0.0148488 0.0411816 0.045044 -0.00873176 0.0459953 -0.0355748 0.0086336 0.0455096 
-0.0198663 0.0096884 0.0432368 0.0379719 0.0084988 0.0438607 -0.0192095 0.0171962 0.0429043 
0.00326886 0.0152594 0.0414164 0.0312314 0.0115691 0.0440525 -0.00130872 0.0263665 0.0403665 
0.00332414 0.0295393 0.0456128 -0.0358078 0.034537 0.0449001 0.00785182 0.0399154 0.0421139 
-0.00812372 0.04101 0.0412294 0.0234218 0.0404479 0.0453803 0.0336307 0.0442356 0.0428481 

gid 1 567 double
0 0 0 0 0 0 0 0 0 
0 0 0 0 0 0 0 0 0 
0 0 0 0 0 0 0 0 0 
0 0 0 0 0 0 0 0 0 
0 0 0 0 0 0 0 0 0 
0 0 0 0 0 0 0 0 0 
0 0 0 0 0 0 0 0 0 
0 0 0 0 0 0 0 0 0 
0 0 0 0 0 0 0 0 0 
0 0 0 0 0 0 0 0 0 
0 0 0 0 0 0 0 0 0 
0 0 0 0 0 0 0 0 0 
0 0 0 0 0 0 0 0 0 
0 0 0 0 0 0 0 0 0 
0 0 0 0 0 0 0 0 0 
0 0 0 0 0 0 0 0 0 
0 0 0 0 0 0 0 0 0 
0 0 0 0 0 0 0 0 0 
0 0 0 0 0 0 0 0 0 
0 0 0 0 0 0 0 0 0 
0 0 0 0 0 0 0 0 0 
0 0 0 0 0 0 0 0 0 
0 0 0 0 0 0 0 0 0 
0 0 0 0 0 0 0 0 0 
0 0 0 0 0 0 0 0 0 
0 0 0 0 0 0 0 0 0 
0 0 0 0 0 0 0 0 0 
0 0 0 0 0 0 0 0 0 
0 0 0 0 0 0 0 0 0 
0 0 0 0 0 0 0 0 0 
0 0 0 0 0 0 0 0 0 
0 0 0 0 0 0 0 0 0 
0 0 0 0 0 0 0 0 0 
0 0 0 0 0 0 0 0 0 
0 0 0 0 0 0 0 0 0 
0 0 0 0 0 0 0 0 0 
0 0 0 0 0 0 0 0 0 
0 0 0 0 0 0 0 0 0 
0 0 0 0 0 0 0 0 0 
0 0 0 0 0 0 0 0 0 
0 0 0 0 0 0 0 0 0 
0 0 0 0 0 0 0 0 0 
0 0 0 0 0 0 0 0 0 
0 0 0 0 0 0 0 0 0 
0 0 0 0 0 0 0 0 0 
0 0 0 0 0 0 0 0 0 
0 0 0 0 0 0 0 0 0 
0 0 0 0 0 0 0 0 0 
0 0 0 0 0 0 0 0 0 
0 0 0 0 0 0 0 0 0 
0 0 0 0 0 0 0 0 0 
0 0 0 0 0 0 0 0 0 
0 0 0 0 0 0 0 0 0 
0 0 0 0 0 0 0 0 0 
0 0 0 0 0 0 0 0 0 
0 0 0 0 0 0 0 0 0 
0 0 0 0 0 0 0 0 0 
0 0 0 0 0 0 0 0 0 
0 0 0 0 0 0 0 0 0 
0 0 0 0 0 0 0 0 0 
0 0 0 0 0 0 0 0 0 
0 0 0 0 0 0 0 0 0 
0 0 0 0 0 0 0 0 0 

a 3 567 double
0 0 62.4146 0 0 0 0 0 1710.97 
0 0 750.221 0 0 454.204 0 0 0 
0 0 0 0 0 0 0 0 0 
0 0 0 0 0 0 0 0 0 
0 0 102.957 0 0 0 0 0 0 
0 0 0 0 0 0 0 0 0 
0 0 0 0 0 0 0 0 0 
0 0 0 0 0 0 0 0 0 
0 0 0 0 0 0 0 0 0 
0 0 0 0 0 0 0 0 0 
0 0 0 0 0 0 0 0 0 
0 0 0 0 0 0 0 0 0 
0 0 0 0 0 0 0 0 0 
0 0 0 0 0 0 0 0 0 
4.16358 -1.66982 6.17049 0 0 0 0 0 0 
0 0 0 0 0 0 0 0 0 
-4.16358 1.66982 -6.17049 0 0 0 0 0 0 
0 0 0 0 0 0 -104.747 54.2505 -63.9127 
0 0 0 0 0 0 0 0 0 
0 0 0 0 0 0 0 0 0 
0 0 0 0 0 0 0 0 0 
0 0 0 0 0 0 0 0 0 
0 0 0 0 0 0 0 0 0 
0 0 0 0 0 0 0 0 0 
0 0 0 0 0 0 40.3675 -77.8653 -9.61939 
0 0 0 0 0 0 0 0 0 
0 -112.457 0 0 0 0 0 0 0 
0 0 0 -18.2948 -13.2796 56.9256 125.558 -48.0558 -37.1011 
0 0 0 0 0 0 -327.718 -4.62168 -134.054 
220.454 65.9571 114.229 0 0 0 0 0 0 
0 0 0 104.747 -54.2505 63.9127 0 0 0 
0 0 0 0 0 0 0 0 0 
0 0 0 0 0 0 0 0 0 
0 0 0 0 0 0 0 0 0 
0 0 0 0 0 0 0 0 0 
0 0 0 0 0 0 0 0 0 
0 0 0 0 0 0 -2.25098 -0.958098 -1.10887 
0 0 0 0 0 0 0 0 0 
0 0 0 0 0 0 0 0 0 
0 0 0 0 0 0 0 0 0 
0 0 0 -1.16324 10.1062 16.5922 1.16324 -10.1062 -16.5922 
0 0 0 0 0 0 -40.3675 77.8653 9.61939 
0 0 0 0 0 0 -240.915 -6.21199 -260.683 
75.4783 -277.47 0 0 0 0 0 0 0 
11.7416 13.071 -58.9059 0 0 0 0 0 0 
34.5523 -29.037 65.1011 0 0 0 0 416.572 0 
67.2917 105.2 -279.306 0 0 0 0 0 0 
0 0 0 -34.5523 29.037 -65.1011 0 0 0 
-131.195 -71.8582 64.8388 0 0 0 0 0 0 
0 0 0 -90.6327 -139.26 -162.478 131.195 71.8582 -64.8388 
0 0 0 0 0 0 -299.104 0 0 
46.7628 135.089 -188.498 0 0 0 0 0 0 
0 0 0 0 0 0 0 0 0 
0 0 0 0 0 0 0 0 0 
0 0 0 0 0 0 0 0 0 
0 0 0 0 0 0 0 0 0 
0 0 0 0 0 0 0 0 0 
0 0 0 -159.639 -436.996 234.25 0 0 0 
0 0 0 0 0 0 0 0 0 
47.0583 -32.3954 -96.5138 0 0 0 161.89 437.954 -233.141 
0 0 0 0 0 0 0 0 0 
0 0 0 0 0 0 41.3475 10.5909 -24.7868 
0 0 0 0 0 0 179.081 61.4988 103.514 
-179.081 -61.4988 -103.514 0 0 0 0 0 0 
0 -24.4916 0 0 0 0 0 0 0 
0 0 0 0 0 0 0 -315.31 0 
240.915 6.21199 260.683 0 0 0 -11.7416 -13.071 58.9059 
0 0 0 0 0 0 0 0 0 
-67.2917 -105.2 279.306 5.09355 2.5852 3.61877 0 0 0 
-279.755 -159.085 -393.957 -216.56 -787.164 -481.725 0 0 0 
0 0 0 0 0 0 0 0 0 
49.8686 23.4838 -77.2548 0 0 0 0 0 0 
17.3829 -224.241 -174.044 279.755 159.085 393.957 216.56 787.164 481.725 
0 0 0 0 0 0 0 0 0 
90.6327 139.26 162.478 0 0 0 0 0 0 
-46.7628 -135.089 188.498 292.538 46.9305 -84.8738 -226.499 156.457 67.4902 
0 0 0 0 0 0 0 0 0 
0 0 0 0 0 0 0 0 0 
-199.971 -895.996 -380.707 0 0 0 20.1829 -86.121 -29.2665 
-20.1829 86.121 29.2665 0 0 0 -137.313 -7.67099 -55.5506 
0 0 0 0 0 0 0 0 0 
-4.71819 -23.0157 16.4455 -13.2651 -58.652 -100.756 37.1067 -46.8208 -44.6568 
0 0 0 0 0 0 0 0 0 
0 0 0 0 0 0 0 0 0 
4.71819 23.0157 -16.4455 74.3451 81.5085 -225.069 0 0 0 
0 0 0 0 0 0 0 0 0 
0 0 0 0 0 0 0 0 0 
0 0 0 0 0 0 0 0 0 
0 0 0 0 0 0 0 0 0 
0 0 0 0 0 0 10.1688 76.6814 -16.962 
0 0 0 -10.1688 -76.6814 16.962 0 0 0 
-47.0583 32.3954 96.5138 39.4103 -807.038 268.475 0 0 0 
0 0 0 1.881 24.9621 -9.11182 -1.881 -24.9621 9.11182 
0 0 0 -41.3475 -10.5909 24.7868 0 0 0 
0 0 0 0 0 0 -39.4103 807.038 -268.475 
0 0 0 0 0 0 0 0 0 
0 -68.9356 0 0 0 0 0 0 0 
-252.439 -160.087 92.0825 246.855 160.087 -92.0825 0 0 0 
0 0 0 0 222.925 0 -184.329 21.3405 -157.006 
163.612 -34.1237 153.694 0 0 0 0 842.119 0 
0 0 0 -5.09355 -2.5852 -3.61877 409.727 -521.395 -594.885 
0 0 0 0 0 0 2.44476 -83.203 17.4669 
0 0 0 0 0 0 4.6165 29.4227 -61.489 
-4.6165 -29.4227 61.489 0 0 0 -0.0574338 0.11216 0.698721 
0 0 0 -405.895 8.10701 357.294 356.026 -31.5908 -280.039 
0 0 0 0 0 0 -24.9004 -44.255 60.6571 
-2.44476 83.203 -17.4669 -155.585 -342.925 -21.5742 0 0 0 
0 0 0 222.657 -333.28 -215.842 0 0 0 
0 0 0 -232.104 -56.214 85.2673 -58.5214 65.1085 130.771 
232.104 56.214 -85.2673 155.585 342.925 21.5742 0 0 0 
162.168 744.214 -251.276 0 0 0 0 0 0 
0 0 0 123.814 -23.3975 37.7152 237.366 -18.2521 98.0486 
0 0 0 -641.575 335.005 -391.62 -36.1171 12.1456 1.22379 
236.088 883.851 379.483 0 0 0 -223.867 49.3205 -80.2132 
0 0 0 -141.646 -176.913 -168.045 0 0 0 
0 0 0 -74.3451 -81.5085 225.069 -14.6974 -38.156 -29.2187 
-23.8416 105.473 145.413 0 0 0 0 0 0 
0 0 0 0 0 0 141.646 176.913 168.045 
0 0 0 121.384 655.786 -390.406 -122.072 -618.835 371.409 
-111.706 11.5989 36.1235 111.706 -11.5989 -36.1235 0 0 0 
0 0 0 0 0 0 0 0 0 
0 0 0 0 0 0 0 0 0 
0 0 0 -5.74128 -14.5745 -25.273 320.681 -83.4612 -22.0429 
-438.392 -387.123 265.541 -118.177 -125.981 267.966 118.177 125.981 -267.966 
0 0 0 0 0 0 0 0 0 
0 -18.2137 0 313.179 445.202 -563.48 0 0 0 
-36.0226 70.1703 73.4658 36.0226 -70.1703 -73.4658 0 0 0 
0 0 0 -11.3398 -9.53306 -234.668 0 0 0 
20.7168 12.7831 3.31281 0 71.7676 0 -410.613 521.395 594.885 
0 0 0 0 0 0 0 0 0 
0 0 0 0.0574338 -0.11216 -0.698721 0 0 0 
0 0 0 0 0 0 29.515 33.4454 -16.1077 
0 0 0 0 0 0 0 0 0 
-384.825 -410.934 467.118 -73.9675 109.046 31.3468 73.9675 -109.046 -31.3468 
0 0 0 0 0 0 0 0 0 
0 0 0 0 0 0 0 0 0 
0 0 0 641.575 -335.005 391.62 -14.209 -23.7243 -12.2453 
0 0 0 0 0 0 0 0 0 
0 0 0 17.5878 -15.901 -0.790328 0 0 0 
71.0404 -100.509 -146.948 0 0 0 14.209 23.7243 12.2453 
0 0 0 0 0 0 0 0 0 
-479.759 -44.4587 478.801 0 0 0 462.171 60.3596 -478.011 
0.687464 -36.9512 18.9974 0 0 0 -0.415215 4.49405 2.99801 
281.827 151.85 -204.056 -281.827 -151.85 204.056 0 0 0 
0 0 0 -400.04 -282.368 -241.95 0 0 0 
-0.635553 -4.19466 -15.4022 147.274 47.347 -394.743 -86.3968 -45.2828 -35.2052 
-177.052 111.791 -131.661 -86.848 314.918 112.431 102.124 -115.314 157.373 
279.013 -393.046 45.4508 0 0 0 0 0 0 
0 0 0 400.04 282.368 241.95 0 0 0 
0 0 0 -95.2976 -439.486 -155.371 -188.349 -403.276 -184.369 
0 0 0 0 0 0 -128.234 41.3045 -277.434 
0 0 0 0 0 0 0 0 0 
103.25 -221.17 37.6567 0 0 0 95.2976 439.486 155.371 
0 0 0 188.349 403.276 184.369 -133.566 602.251 -285.048 
133.566 -602.251 285.048 0 0 0 0 -381.578 0 
221.989 34.1244 436.176 -514.965 227.003 -128.578 192.289 19.5337 -107.15 
0 0 0 0 0 0 0 0 0 
11.3398 9.53306 234.668 0 0 0 0 0 0 
0 0 0 0 0 0 47.9353 -60.7657 -74.0524 
0 0 0 -359.594 -429.03 -474.977 0 0 0 
0 0 0 -29.515 -33.4454 16.1077 0 0 0 
0 0 0 0 0 0 0 0 0 
0 0 0 0 0 0 0 0 0 
0 0 0 0 0 0 -218.041 103.854 160.655 
-415.437 -50.7581 -171.878 633.758 -73.5479 11.9041 0 0 0 
0 0 0 0 0 0 0 0 0 
0 0 0 0 0 0 -71.0404 100.509 146.948 
-0.279618 20.4524 -0.681095 0 0 0 -7.39867 1.44961 -1.2784 
7.39867 -1.44961 1.2784 0 0 0 0 0 0 
0 0 0 -6.95502 -99.1772 -6.01469 0 0 0 
0 0 0 0 0 0 0 0 0 
0 0 0 0 0 0 0 0 0 
-156.046 212.427 278.59 0 0 0 0 0 0 
0 0 0 0 0 0 0.635553 4.19466 15.4022 
0.404449 -11.0929 -6.47858 0 0 0 0 0 0 
128.234 -41.3045 277.434 0 0 0 0 0 0 
0 0 0 0 0 0 0 0 0 
0 0 0 0.727925 0.0635184 0.22155 -0.404449 11.0929 6.47858 
-99.1302 33.5985 -11.677 98.4022 -33.662 11.4555 238.7 0 0 
0 0 0 0 0 0 0 0 0 
-192.289 -19.5337 107.15 0 0 0 0 0 0 
0 0 0 0 0 0 -47.9353 60.7657 74.0524 
0 0 0 0 0 0 0 0 0 
359.594 429.03 474.977 0 0 0 0 0 0 
0 0 0 0 0 -20.1456 0 0 0 
54.62 -794.474 -38.6047 239.705 -116.505 26.0364 -54.62 794.474 38.6047 
0 0 0 -239.705 116.505 -26.0364 -289.827 -168.817 -240.009 
289.827 168.817 240.009 0 0 0 0 0 0 
0 0 0 0 0 0 0 0 0 

v 3 567 double
0.0396051 0.0490946 -1.0932 0.147859 0.0555765 -1.07343 -0.306943 0.361912 -0.255561 
-0.120266 -0.287214 1.02169 -0.021914 -0.2633 0.943537 -0.182402 -0.194704 -1.08723 
0.272705 -0.027653 -1.13522 -0.182575 0.249611 -1.29878 -0.194523 0.164527 -1.10626 
-0.205118 -0.0810181 -1.0537 -0.107821 -0.413295 -1.14246 -0.0123035 -0.067867 -1.10465 
0.0334068 0.0465711 -1.18602 0.102634 0.0482181 -1.12356 -0.438725 0.100329 -0.272126 
-0.0418665 0.116441 -1.10563 -0.0733834 0.034835 -1.09835 0.138262 -0.398183 -1.10388 
-0.144016 -0.0879868 -0.975218 -0.341547 0.0738563 -0.915083 -0.108099 -0.195824 -0.948686 
-0.172212 -0.084661 -0.900256 -0.243754 0.0030049 -0.959183 -0.145764 0.0688217 -0.983242 
-0.169962 -0.27679 -0.934106 -0.059162 -0.112792 -0.922692 -0.124432 0.0739146 -1.10566 
0.0357026 0.043908 -1.05888 -0.0733585 0.0726058 -0.962287 0.25527 0.133277 -1.03181 
-0.0899386 -0.0524694 -0.986985 -0.0871776 -0.0948359 -0.915849 -0.0281775 -0.281063 -0.958308 
-0.13625 -0.152752 -0.996054 0.186141 -0.0202059 -0.992108 -0.0498444 -0.443514 -1.01642 
-0.406787 -0.44824 -0.832523 0.0791496 0.06693 -0.973485 -0.271421 -0.271441 -0.929233 
-0.506002 0.151662 -0.960595 -0.0494211 -0.207799 -0.823796 0.0208716 0.505258 -1.01539 
-0.0809132 -0.0616892 -0.83238 -0.12649 0.177904 -0.936937 -0.196774 -0.265144 -0.806322 
-0.0358397 0.205216 -0.802481 -0.292271 0.200535 -0.915235 -0.068009 0.1591 -0.89074 
-0.0821843 0.08925 -0.838151 -0.197048 -0.0105871 -0.69092 -0.0282252 -0.0182298 -0.791377 
0.0510487 0.196624 -0.699932 -0.118956 -0.0641543 -0.749241 -0.190845 -0.0141316 -0.81601 
0.0393184 0.0729928 -0.832887 0.0492454 0.0394539 -0.800301 0.0719351 -0.0495662 -0.83943 
-0.212741 -0.163164 -0.957824 0.0971117 0.0270242 -0.862243 -0.0102546 -0.105052 -0.926033 
-0.215802 -0.0618101 -0.743766 0.193454 0.129422 -0.812003 0.109463 0.0587686 -0.872549 
-0.114856 -0.0830544 -0.715829 -0.121319 -0.0336952 -0.854503 -0.224412 -0.100048 -0.881762 
0.363258 -0.125064 -0.821809 -0.141631 0.103413 -0.941874 0.184169 0.314059 -0.793813 
-0.117396 0.178973 -0.836427 -0.0878283 0.0417624 -0.684257 -0.0545684 0.0202712 -0.70051 
0.114694 0.0301923 -0.776741 -0.270792 -0.16685 -0.821251 0.209036 0.00319372 -0.860617 
0.0177684 0.11212 -0.998096 -0.215824 -0.106309 -0.842128 -0.0641056 -0.138465 -0.71255 
-0.279443 -0.011964 -0.871253 -0.100898 0.0117105 -0.7668 -0.0935706 0.0119133 -0.781469 
-0.29702 -0.418946 -0.681822 -0.294978 -0.0390062 -0.943263 0.0289039 0.155463 -0.789769 
0.00556733 0.0549489 -0.520422 0.097132 0.0589695 -0.769389 0.378741 0.228858 -0.895981 
-0.0652937 -0.063271 -0.60743 -0.0982622 -0.106964 -0.689191 0.0726951 -0.115499 -0.655789 
0.0467905 -0.218901 -0.71219 -0.00811964 -0.0633042 -0.456218 -0.164902 -0.129728 -0.679047 
-0.0376219 -0.184184 -0.587905 -0.0749876 -0.0929134 -0.736002 -0.246759 0.113422 -0.740353 
-0.0802075 -0.335666 -0.623957 0.0785083 -0.0956062 -0.517846 0.0368717 0.0789752 -0.602733 
0.546093 -0.646499 -1.29182 0.0370868 -0.143197 -0.671576 0.0669312 -0.0368489 -0.804645 
0.0580406 -0.251313 -0.661338 -0.20599 0.0501105 -1.36779 0.201658 -0.00166178 -0.7321 
0.188119 -0.0380827 -0.661781 -0.257755 -0.998731 -1.41023 -0.0547719 0.100426 -0.819908 
-0.129251 -0.180192 -0.573461 -0.0272869 0.077864 -0.785532 -0.12136 0.131402 -0.631343 
-0.152999 0.00184804 -0.676682 0.152988 0.0547241 -0.858117 0.00114971 -0.161796 -0.633251 
0.142899 -0.0235611 -0.657504 -0.0177486 -0.233902 -0.655908 -0.0171162 0.037924 -1.22453 
-0.14555 -0.229029 -0.803495 -0.0223761 0.0312697 -0.794779 -0.038088 -0.325761 -0.73166 
0.04017 -0.354478 -0.657949 -0.159616 0.182972 -0.592786 -0.0239846 0.0693424 -0.558142 
-0.20092 2.4899e-05 -0.592159 -0.0521524 -0.10337 -0.653197 0.0154946 -0.194194 -0.847223 
-0.0837034 0.135911 -0.536732 0.0118475 -0.0864643 -0.630306 -0.0992204 0.0834716 -1.2509 
0.0236003 -0.058998 -0.68013 -0.771995 0.187586 -1.19612 -0.112061 0.0886092 -0.783487 
-0.0555379 0.306561 -1.34547 -0.0799301 -0.13654 -0.605514 0.139275 0.00125385 -0.566357 
-0.762407 0.244685 -1.1521 -0.158383 -0.0557197 -0.779039 0.0376109 -0.409647 -1.04494 
-0.0330179 -0.0716424 -0.769982 -0.396054 -0.030064 -1.04527 -0.412113 -0.392538 -1.12386 
-0.322837 -0.346798 -0.686285 -0.0457566 0.343898 -0.609359 0.0956793 -0.140823 -0.382173 
-0.127042 0.0654291 -0.583074 0.0347904 0.0414929 -0.532728 -0.0366902 0.035624 -0.644432 
0.0871094 0.1623 -0.448426 -0.119947 -0.169597 -0.791153 0.351482 0.294145 -0.774566 
-0.0349807 -0.0283862 -0.482038 -0.0365399 -0.0167927 -0.935645 0.218669 0.106718 -0.926216 
-0.291526 -0.205354 -0.953328 -0.20535 -0.0968382 -0.648408 0.0660396 0.323105 -0.922845 
0.0405073 0.0848124 -0.661386 -0.210867 0.211669 -0.991095 -0.384405 0.2214 -1.55038 
0.261462 0.181078 -0.779747 0.0221189 -0.243415 -0.585233 -0.321946 -0.12592 -0.718536 
0.488061 -0.362361 -1.14614 -0.0918818 0.0086612 -0.352514 0.173871 -0.035452 -0.52749 
-0.0333694 -0.0617709 -0.577887 0.0604172 -0.143808 -0.467585 0.0436379 0.204581 -0.637041 
-0.168149 0.134542 -0.526143 0.226385 -0.0681537 -0.617122 -0.203024 -0.145904 -0.536977 
-0.133644 0.360429 -0.586902 -0.036441 0.468841 -1.33636 -0.177525 -0.0195339 -0.436492 
-0.215626 -0.077731 -0.723975 -0.0277627 0.0397301 -0.534299 0.0697197 0.0307461 -0.55725 
-0.00508152 -0.0398482 -0.586699 0.0819826 -0.330546 -0.876199 0.167435 0.236882 -0.477143 
0.0119179 -0.255001 -0.510985 0.000436086 0.076937 -0.589671 -0.0292881 0.0220045 -0.494451 
0.0861561 -0.18502 -0.817688 0.0604396 0.0103322 -0.643185 0.442632 0.186718 -0.7001 
-0.215468 0.0447619 -0.587983 -0.248877 -0.183008 -0.655739 -0.360397 0.308233 -1.11544 
-0.24807 -0.0704815 -0.55906 0.260296 -0.0989227 -0.821301 -0.217666 0.160668 -0.639812 
0.118297 0.438908 -0.80227 -0.15657 0.144046 -0.518583 -0.0565446 0.192867 -0.691135 
-0.0442746 0.141328 -0.912136 0.46016 -0.0436011 -0.457089 0.329269 -0.346764 -1.09531 
0.143792 0.292601 -0.699561 -0.303414 -0.0497441 -1.24399 0.0194248 -0.128642 -0.850343 
0.181688 -0.194147 -0.355916 0.0251163 0.212899 -0.690817 0.104677 -0.046968 -1.69482 
0.667993 -0.244106 -1.38177 0.689047 -0.18976 -2.723 0.164204 -0.0485795 -0.592097 
0.132771 -0.58169 -1.07742 0.0140986 -0.693073 -1.3749 0.124114 0.240886 -0.489267 
0.132281 -0.0430134 -1.21609 -0.169875 -0.258111 -0.663107 -0.57629 -0.180747 -0.872958 
0.241174 -0.325297 -1.07539 -0.217443 0.0577518 -0.656476 0.0976647 0.0797812 -0.619273 
-0.0511078 0.0405569 -1.17289 -0.558149 -0.805594 -0.785799 -0.263496 0.929498 -1.77187 
-0.00164518 -0.365224 -0.615892 -0.0308846 0.303214 -0.587177 0.215836 -0.133928 -0.988969 
-0.373959 -0.253136 -1.64204 0.230394 0.26933 -0.399662 0.00822724 0.0475042 -0.34992 
-0.161449 0.261682 -1.53416 -0.58727 -0.0157657 -0.964872 0.589547 -0.239069 -1.37377 
-0.21334 -0.245229 -0.903136 0.314393 -0.565156 -0.674984 -0.221396 -0.0168414 -0.878251 
-0.113476 0.11721 -1.444 0.192556 0.0597993 -1.12037 -0.0465907 0.122289 -0.291349 
-0.0736998 0.0761851 -1.3084 0.0045343 0.257438 -1.2921 -0.00858381 0.0224426 -0.755725 
-0.415998 -0.268738 -1.5471 -0.0869264 -0.475562 -1.29276 0.633701 0.345667 -2.15143 
-0.00956087 -0.163878 -0.336611 -0.813986 -0.730344 -0.604481 -0.466998 -0.0726899 -1.03478 
0.03014 -0.00612553 -0.572785 0.140899 0.128567 -0.443915 0.210667 -0.330379 -1.16192 
0.744009 -0.814436 -1.81202 0.0255456 -0.475554 -0.502191 0.359996 -0.0595347 -1.14376 
-0.0176514 0.0107163 -0.444769 0.06808 0.047707 -1.1798 0.351554 -0.071109 -0.679589 
0.0970214 0.126379 -0.478768 0.4235 -0.477894 -0.546874 -0.0499974 0.0627558 -0.740052 
0.119013 0.476684 -1.01296 0.11133 -0.808074 -1.17236 -0.347391 0.00700577 -0.990075 
-0.118092 0.146547 -0.855131 -0.10739 -0.0269175 -0.279129 0.168964 0.584009 -0.459866 
-0.263106 0.184185 -2.09395 -0.34034 0.120214 -0.682568 -0.0259251 0.173608 -0.677146 
-0.0577138 0.189939 -0.616688 0.068114 -0.601538 -0.813296 -0.452328 0.0550477 -0.666298 
-0.130576 0.109945 -0.567776 -0.149926 0.187201 -0.567885 0.216203 0.0257535 -0.607061 
-0.909297 -0.209135 -1.11222 0.272283 0.276055 -0.628366 -0.257368 0.153202 -0.59654 
-0.163579 -0.247891 -0.961979 -0.213001 -0.306362 -0.991274 -0.452014 -0.12674 -0.615613 
-0.11327 0.0941038 -0.441976 0.00897139 0.0081229 -0.50006 0.0362805 -0.00742946 -0.649633 
-0.592694 -0.0319707 -1.19975 0.060346 0.166724 -0.795844 -0.13492 -0.0980025 -1.39489 
-0.29681 0.141596 -1.73751 -0.917065 -0.195804 -1.44828 -0.433411 0.160491 -0.975487 
0.658385 0.456366 -0.740693 0.116327 -0.00645815 -0.431091 0.0564898 0.061841 -0.338947 
0.232187 0.276305 -0.861745 0.258226 -0.117577 -0.518935 -0.110775 0.363059 -0.56574 
0.774596 0.0901322 -1.45563 0.0807693 0.447528 -0.64113 -0.517402 0.0207828 -0.848778 
-0.146499 0.508237 -1.24642 0.791478 0.0154022 -1.15403 -0.438113 -0.350513 -1.07566 
0.409201 0.216503 -1.59818 -0.0993069 0.502679 -1.14758 -0.172405 0.193662 -0.471988 
-0.220407 0.217849 -1.46886 -0.291129 -0.742122 -0.430559 0.026518 -0.348763 -1.63789 
-0.302737 -0.0987887 -0.846895 -0.455386 0.0535632 -0.789468 -0.110673 0.0951185 -1.00206 
-0.329802 -0.254565 -0.725295 0.150942 0.0882043 -0.545256 -0.0478277 0.199686 -0.508407 
0.380789 -0.303702 -0.77731 0.183041 0.23367 -1.24829 0.179542 0.0811344 -0.921612 
0.0249884 -0.0308391 -0.95984 0.215752 0.0788293 -0.749403 -0.04286 1.0236 -0.781586 
-0.482199 -0.270898 -1.36589 0.371482 -0.5341 -0.873249 -0.212614 0.60172 -0.316061 
-0.352265 0.313601 -0.865179 -0.322663 0.139434 -1.26602 -0.273296 -0.000446302 -0.0300233 
0.150302 0.401257 -0.588916 -0.982605 -0.108707 -1.10564 0.051315 0.30568 -0.349427 
-0.0423794 -0.188812 -0.49267 -0.779579 0.893509 -0.912128 -0.359534 0.731917 -1.30176 
0.423371 -0.0738017 -0.383934 -0.058059 0.42131 -1.53854 -0.224179 -0.505566 -0.354778 
-0.348747 0.841779 -0.931774 -0.139802 0.00437962 -0.887737 0.173819 1.02012 -1.47981 
-0.170271 -0.152651 -0.667151 -0.635673 -0.747947 -0.979151 0.309473 0.19727 -0.804384 
-0.334753 0.115459 -1.40863 0.369699 0.344278 -1.08094 0.0250968 0.274375 -0.488819 
0.351736 0.0937743 -0.725878 -0.358209 -0.201575 -0.447152 0.0356516 0.689351 -0.372222 
0.048073 -0.0495618 -0.659379 -0.515739 -0.635034 -0.653523 0.214501 -0.122993 -1.28983 
-0.37846 -0.063479 -0.721995 -0.209058 0.0897141 -0.783227 -0.211239 0.196123 -0.548129 
-0.361182 0.607337 -0.821455 0.0841657 -0.166251 -0.542928 0.296788 -0.244851 -1.17432 
-0.141409 -0.245244 -0.382801 0.0122501 -0.0340082 -0.81886 -0.318822 -0.268826 -0.870319 
0.11109 -0.0521701 -0.646957 0.048128 0.675591 -0.804626 -0.251472 -0.0781438 -1.13674 
0.493399 0.280831 -1.03557 -0.177264 0.666228 -0.705767 -0.732866 -0.704981 -0.871166 
0.0513444 0.117173 -0.797655 0.0519011 0.117724 -0.26176 0.299614 0.298981 -0.73243 
0.355754 0.173379 -1.21617 -0.429451 -0.183639 -1.28243 -0.450295 -0.122208 -1.04144 
0.467056 0.940238 -0.905795 -0.0722675 -0.150035 -0.976559 -0.462603 0.28532 -0.799289 
0.398275 0.195427 -0.801749 -0.196052 0.840064 -0.639126 -0.0148912 0.809656 -1.26736 
0.621809 1.21877 -1.84754 -0.519903 -0.698535 -1.66688 -0.0547962 0.0989617 -0.198613 
-0.0551137 0.00660581 -0.417138 -0.253257 -0.160974 -0.730917 0.383573 -0.0127377 -0.360231 
-0.218922 0.324984 -1.05298 0.0083242 0.258577 -1.05451 0.0710969 -0.216585 -0.862036 
-0.107079 0.102957 -0.968009 0.530544 0.324992 -0.766777 0.222502 0.197001 -0.928496 
0.594268 0.580366 -1.3035 0.297737 -0.150305 -1.12076 -0.511394 -0.715368 -1.24627 
0.693514 -0.490133 -0.68863 0.0138921 0.492592 -0.589064 0.0163574 0.0705633 -0.506884 
0.667947 0.378852 -0.875993 0.282124 -0.653609 -0.407 0.079146 0.291633 -0.516419 
0.687851 0.123498 -0.7529 -0.203463 0.00247085 -1.81637 -0.605163 0.434741 -0.901207 
0.0314704 -0.0445018 -0.12129 0.860152 0.189815 -0.853002 -0.417656 -0.301344 -1.45526 
0.310764 -0.0647427 -0.0652254 -0.279814 -0.135027 -1.09862 0.27865 0.0784557 -0.73903 
0.0420685 0.896306 -0.76837 0.694756 -0.358918 -1.70262 1.18246 -0.583982 -1.46324 
0.555786 0.877777 -1.57374 -0.303777 0.363557 -0.434251 -0.851962 0.546216 -0.571844 
0.313091 0.339345 -0.816068 -0.000795926 -0.366874 -0.762993 -0.0296032 -0.10635 -0.881102 
0.285273 0.766507 -0.966428 -0.925853 -0.064748 0.0632458 0.0774871 0.151175 -0.399368 
0.326674 0.222389 -0.755978 -0.41146 0.30449 -0.907947 0.135418 -0.289752 -0.571539 
-0.230478 0.471514 -0.789206 0.0577698 0.0832988 -0.439289 -1.13417 0.59279 -0.755469 
-0.211925 -0.382188 -0.722988 -0.723447 0.319899 -0.815419 0.00567279 -0.291021 -0.533396 
0.0597478 -0.503998 -0.699533 0.00678176 0.30173 -0.881417 0.0500638 0.300035 -1.21158 
-0.361653 0.234996 -1.413 -0.112427 -0.113153 -1.35777 0.342748 0.47029 -0.614195 
0.0350909 0.0690367 -0.379873 -0.348063 0.256015 -1.00904 0.15434 -0.138215 -0.421226 
-0.0904078 -0.557975 -0.717387 -0.427783 0.647547 -0.880996 0.00205625 0.0623558 -0.922061 
-0.084076 0.561486 -0.722275 -0.417244 0.578316 -0.690005 -0.0176016 0.289456 -0.396441 
0.790754 -0.129074 -0.67948 0.145918 0.168897 -0.809999 0.087287 0.201225 -0.116977 
0.643668 0.721587 -0.260414 0.472084 0.905154 -1.21685 0.146078 0.0980263 -1.0794 
0.33559 0.186223 -0.34375 0.160812 -0.138518 -0.600321 -0.338652 0.482352 -1.79216 
-0.272854 0.137208 -0.631876 -0.0628235 -0.221447 -0.698974 -0.083963 0.487043 -0.711168 
-0.532152 0.467222 -0.840824 -0.0472945 -0.170882 -0.287368 0.17238 -0.0436041 -0.845961 
0.0613213 0.000240107 -1.20896 -0.148793 -0.25426 -0.107663 -0.535215 -0.0629419 -1.24456 
-0.189363 -0.00642282 -0.855945 0.318188 -0.707034 -1.27871 0.210259 -0.725315 -1.02648 
0.0574553 -0.073938 -1.05191 0.367884 -0.401396 -0.839038 0.213647 -0.432158 -1.02793 
0.334898 0.300284 -1.27026 0.596495 0.506387 -1.13248 -0.674064 0.387226 0.00538325 
-0.210855 -0.0491919 -0.740174 0.0674846 0.182076 -0.532163 -0.13259 -0.227606 -0.935127 
-0.46213 -0.275589 -0.257581 0.336571 -0.415643 -0.8695 1.21198 0.01537 -0.747953 
0.617157 0.275368 -0.465621 -0.402043 -0.511836 -0.694961 -0.154868 -0.68057 -1.07337 
-0.0193584 0.594132 -0.390965 -0.263167 0.170422 -0.583905 -0.483287 0.580529 -0.177993 
0.348384 0.507858 -0.203461 0.913182 0.112825 -0.748651 0.447346 0.576118 -1.02641 
0.354658 -0.221327 -1.15953 -0.0518186 0.506285 -0.323919 -0.49019 0.356661 -0.196752 
-0.174251 0.641699 -0.403877 -0.690459 -0.880449 -0.694203 -0.0839735 0.133241 -0.450023 
0.114057 -0.275123 -0.265649 0.523484 -0.398053 -0.0652189 0.216218 -0.60644 -1.52011 
0.123072 -0.384793 -0.31619 0.273957 0.503257 -0.625089 0.222469 0.0660144 -0.598923 
-0.700896 -0.101839 -1.02728 0.0101434 -0.125848 -0.826308 0.907604 -0.026637 -0.49137 
1.05283 0.172675 -0.553283 0.0860071 -0.626259 -0.72009 0.272981 0.3423 -1.16051 
0.30267 1.05478 0.0758362 0.212716 -0.331521 -0.897187 -0.200295 0.618537 -0.655539 
0.530223 -0.170707 -0.75932 -0.133363 -0.263379 -0.6556 0.204172 0.111014 -0.076119 
0.166554 -0.172137 -0.236686 -0.970604 -0.227138 -0.0728381 -0.10747 0.891723 -0.677422 
0.305385 -0.0898397 -0.230016 -0.386295 0.221161 -0.189893 0.161479 -0.345329 -0.207275 
-0.159793 -0.153714 -0.764192 0.805518 0.00815686 -0.734857 0.225554 0.0246005 -0.714982 
0.0585469 -0.273686 -0.835978 0.0866499 0.48143 -0.452319 -0.0616084 -0.267278 -0.0552244 
-0.0330708 0.19088 -0.378064 -0.202465 0.711349 -0.492976 -0.0138542 -0.41498 -0.244786 
0.0502924 -0.741292 -0.793796 -0.0125345 0.556959 -1.8348 -0.219131 -0.594234 -0.759603 
-0.736651 0.522535 -0.52988 -0.289433 -0.608503 -0.637167 -0.251616 0.199728 -1.25121 
-0.0363432 0.189647 -0.745238 -0.185831 0.895644 -0.782906 -0.557502 -0.590517 -1.22275 
-0.300572 0.0888902 -0.332892 -0.439901 -0.0359974 -1.51143 0.198738 -0.684628 -0.964424 
0.31629 -0.197328 -0.185002 0.0183696 0.163408 -0.934471 -0.143734 0.421747 -0.396594 
0.333439 -0.184016 -0.531078 -0.550742 -0.0164989 -0.722542 0.748446 0.159939 -0.436663 
-0.4297 -0.0618075 -0.253682 -0.00710735 0.326347 0.0118273 -0.0943464 0.661674 -0.434392 
0.26388 -0.545898 -0.533686 0.0688249 -0.619532 -0.0714385 -0.384934 -0.00992769 -1.21095 
-0.456447 0.585733 -0.208769 -0.0416202 0.219155 -0.462603 0.00442015 -0.031542 -0.970166 
0.245356 0.542982 -0.463695 -0.342656 -0.569104 -0.259944 -1.23135 -0.116909 0.264942 
0.979018 0.301496 -0.204546 -0.467491 -0.488536 -0.488256 -0.581389 0.0513947 -0.661555 
0.172209 -0.214711 -0.394555 0.149598 -0.326863 -0.0888989 0.399532 -0.091106 0.572469 
-0.855876 -0.479965 0.0684756 -0.133164 0.178192 -0.759938 0.212714 0.204441 -0.561543 
-0.399267 -0.0537567 -0.210736 0.244388 -0.0805978 -0.380881 0.384611 -0.105656 -0.639029 
0.191774 0.0833411 0.0968824 -0.2537 -0.875982 -0.432495 -0.04211 -0.0270334 -0.187606 
0.210804 -0.15593 -0.182446 0.179782 -0.326223 -0.0173703 -0.0641748 0.0799786 -0.677965 

om 3 567 double
0 0 0 0 0 0 0 0 0 
0 0 0 0 0 0 0 0 0 
0 0 0 0 0 0 0 0 0 
0 0 0 0 0 0 0 0 0 
0 0 0 0 0 0 0 0 0 
0 0 0 0 0 0 0 0 0 
0 0 0 0 0 0 0 0 0 
0 0 0 0 0 0 0 0 0 
0 0 0 0 0 0 0 0 0 
0 0 0 0 0 0 0 0 0 
0 0 0 0 0 0 0 0 0 
0 0 0 0 0 0 0 0 0 
0 0 0 0 0 0 0 0 0 
0 0 0 0 0 0 0 0 0 
0 0 0 0 0 0 0 0 0 
0 0 0 0 0 0 0 0 0 
0 0 0 0 0 0 0 0 0 
0 0 0 0 0 0 0 0 0 
0 0 0 0 0 0 0 0 0 
0 0 0 0 0 0 0 0 0 
0 0 0 0 0 0 0 0 0 
0 0 0 0 0 0 0 0 0 
0 0 0 0 0 0 0 0 0 
0 0 0 0 0 0 0 0 0 
0 0 0 0 0 0 0 0 0 
0 0 0 0 0 0 0 0 0 
0 0 0 0 0 0 0 0 0 
0 0 0 0 0 0 0 0 0 
0 0 0 0 0 0 0 0 0 
0 0 0 0 0 0 0 0 0 
0 0 0 0 0 0 0 0 0 
0 0 0 0 0 0 0 0 0 
0 0 0 0 0 0 0 0 0 
0 0 0 0 0 0 0 0 0 
0 0 0 0 0 0 0 0 0 
0 0 0 0 0 0 0 0 0 
0 0 0 0 0 0 0 0 0 
0 0 0 0 0 0 0 0 0 
0 0 0 0 0 0 0 0 0 
0 0 0 0 0 0 0 0 0 
0 0 0 0 0 0 0 0 0 
0 0 0 0 0 0 0 0 0 
0 0 0 0 0 0 0 0 0 
0 0 0 0 0 0 0 0 0 
0 0 0 0 0 0 0 0 0 
0 0 0 0 0 0 0 0 0 
0 0 0 0 0 0 0 0 0 
0 0 0 0 0 0 0 0 0 
0 0 0 0 0 0 0 0 0 
0 0 0 0 0 0 0 0 0 
0 0 0 0 0 0 0 0 0 
0 0 0 0 0 0 0 0 0 
0 0 0 0 0 0 0 0 0 
0 0 0 0 0 0 0 0 0 
0 0 0 0 0 0 0 0 0 
0 0 0 0 0 0 0 0 0 
0 0 0 0 0 0 0 0 0 
0 0 0 0 0 0 0 0 0 
0 0 0 0 0 0 0 0 0 
0 0 0 0 0 0 0 0 0 
0 0 0 0 0 0 0 0 0 
0 0 0 0 0 0 0 0 0 
0 0 0 0 0 0 0 0 0 
0 0 0 0 0 0 0 0 0 
0 0 0 0 0 0 0 0 0 
0 0 0 0 0 0 0 0 0 
0 0 0 0 0 0 0 0 0 
0 0 0 0 0 0 0 0 0 
0 0 0 0 0 0 0 0 0 
0 0 0 0 0 0 0 0 0 
0 0 0 0 0 0 0 0 0 
0 0 0 0 0 0 0 0 0 
0 0 0 0 0 0 0 0 0 
0 0 0 0 0 0 0 0 0 
0 0 0 0 0 0 0 0 0 
0 0 0 0 0 0 0 0 0 
0 0 0 0 0 0 0 0 0 
0 0 0 0 0 0 0 0 0 
0 0 0 0 0 0 0 0 0 
0 0 0 0 0 0 0 0 0 
0 0 0 0 0 0 0 0 0 
0 0 0 0 0 0 0 0 0 
0 0 0 0 0 0 0 0 0 
0 0 0 0 0 0 0 0 0 
0 0 0 0 0 0 0 0 0 
0 0 0 0 0 0 0 0 0 
0 0 0 0 0 0 0 0 0 
0 0 0 0 0 0 0 0 0 
0 0 0 0 0 0 0 0 0 
0 0 0 0 0 0 0 0 0 
0 0 0 0 0 0 0 0 0 
0 0 0 0 0 0 0 0 0 
0 0 0 0 0 0 0 0 0 
0 0 0 0 0 0 0 0 0 
0 0 0 0 0 0 0 0 0 
0 0 0 0 0 0 0 0 0 
0 0 0 0 0 0 0 0 0 
0 0 0 0 0 0 0 0 0 
0 0 0 0 0 0 0 0 0 
0 0 0 0 0 0 0 0 0 
0 0 0 0 0 0 0 0 0 
0 0 0 0 0 0 0 0 0 
0 0 0 0 0 0 0 0 0 
0 0 0 0 0 0 0 0 0 
0 0 0 0 0 0 0 0 0 
0 0 0 0 0 0 0 0 0 
0 0 0 0 0 0 0 0 0 
0 0 0 0 0 0 0 0 0 
0 0 0 0 0 0 0 0 0 
0 0 0 0 0 0 0 0 0 
0 0 0 0 0 0 0 0 0 
0 0 0 0 0 0 0 0 0 
0 0 0 0 0 0 0 0 0 
0 0 0 0 0 0 0 0 0 
0 0 0 0 0 0 0 0 0 
0 0 0 0 0 0 0 0 0 
0 0 0 0 0 0 0 0 0 
0 0 0 0 0 0 0 0 0 
0 0 0 0 0 0 0 0 0 
0 0 0 0 0 0 0 0 0 
0 0 0 0 0 0 0 0 0 
0 0 0 0 0 0 0 0 0 
0 0 0 0 0 0 0 0 0 
0 0 0 0 0 0 0 0 0 
0 0 0 0 0 0 0 0 0 
0 0 0 0 0 0 0 0 0 
0 0 0 0 0 0 0 0 0 
0 0 0 0 0 0 0 0 0 
0 0 0 0 0 0 0 0 0 
0 0 0 0 0 0 0 0 0 
0 0 0 0 0 0 0 0 0 
0 0 0 0 0 0 0 0 0 
0 0 0 0 0 0 0 0 0 
0 0 0 0 0 0 0 0 0 
0 0 0 0 0 0 0 0 0 
0 0 0 0 0 0 0 0 0 
0 0 0 0 0 0 0 0 0 
0 0 0 0 0 0 0 0 0 
0 0 0 0 0 0 0 0 0 
0 0 0 0 0 0 0 0 0 
0 0 0 0 0 0 0 0 0 
0 0 0 0 0 0 0 0 0 
0 0 0 0 0 0 0 0 0 
0 0 0 0 0 0 0 0 0 
0 0 0 0 0 0 0 0 0 
0 0 0 0 0 0 0 0 0 
0 0 0 0 0 0 0 0 0 
0 0 0 0 0 0 0 0 0 
0 0 0 0 0 0 0 0 0 
0 0 0 0 0 0 0 0 0 
0 0 0 0 0 0 0 0 0 
0 0 0 0 0 0 0 0 0 
0 0 0 0 0 0 0 0 0 
0 0 0 0 0 0 0 0 0 
0 0 0 0 0 0 0 0 0 
0 0 0 0 0 0 0 0 0 
0 0 0 0 0 0 0 0 0 
0 0 0 0 0 0 0 0 0 
0 0 0 0 0 0 0 0 0 
0 0 0 0 0 0 0 0 0 
0 0 0 0 0 0 0 0 0 
0 0 0 0 0 0 0 0 0 
0 0 0 0 0 0 0 0 0 
0 0 0 0 0 0 0 0 0 
0 0 0 0 0 0 0 0 0 
0 0 0 0 0 0 0 0 0 
0 0 0 0 0 0 0 0 0 
0 0 0 0 0 0 0 0 0 
0 0 0 0 0 0 0 0 0 
0 0 0 0 0 0 0 0 0 
0 0 0 0 0 0 0 0 0 
0 0 0 0 0 0 0 0 0 
0 0 0 0 0 0 0 0 0 
0 0 0 0 0 0 0 0 0 
0 0 0 0 0 0 0 0 0 
0 0 0 0 0 0 0 0 0 
0 0 0 0 0 0 0 0 0 
0 0 0 0 0 0 0 0 0 
0 0 0 0 0 0 0 0 0 
0 0 0 0 0 0 0 0 0 
0 0 0 0 0 0 0 0 0 
0 0 0 0 0 0 0 0 0 
0 0 0 0 0 0 0 0 0 
0 0 0 0 0 0 0 0 0 
0 0 0 0 0 0 0 0 0 
0 0 0 0 0 0 0 0 0 
0 0 0 0 0 0 0 0 0 
0 0 0 0 0 0 0 0 0 
0 0 0 0 0 0 0 0 0 

bottom 1 567 double
-0.0642828 -0.0642828 -0.0642828 -0.0642828 -0.0642828 -0.0642828 -0.0642828 -0.0642828 -0.0642828 
-0.0642828 -0.0642828 -0.0642828 -0.0642828 -0.0642828 -0.0642828 -0.0642828 -0.0642828 -0.0642828 
-0.0642828 -0.0642828 -0.0642828 -0.0642828 -0.0642828 -0.0642828 -0.0642828 -0.0642828 -0.0642828 
-0.0642828 -0.0642828 -0.0642828 -0.0642828 -0.0642828 -0.0642828 -0.0642828 -0.0642828 -0.0642828 
-0.0642828 -0.0642828 -0.0642828 -0.0642828 -0.0642828 -0.0642828 -0.0642828 -0.0642828 -0.0642828 
-0.0642828 -0.0642828 -0.0642828 -0.0642828 -0.0642828 -0.0642828 -0.0642828 -0.0642828 -0.0642828 
-0.0642828 -0.0642828 -0.0642828 -0.0642828 -0.0642828 -0.0642828 -0.0642828 -0.0642828 -0.0642828 
-0.0642828 -0.0642828 -0.0642828 -0.0642828 -0.0642828 -0.0642828 -0.0642828 -0.0642828 -0.0642828 
-0.0642828 -0.0642828 -0.0642828 -0.0642828 -0.0642828 -0.0642828 -0.0642828 -0.0642828 -0.0642828 
-0.0642828 -0.0642828 -0.0642828 -0.0642828 -0.0642828 -0.0642828 -0.0642828 -0.0642828 -0.0642828 
-0.0642828 -0.0642828 -0.0642828 -0.0642828 -0.0642828 -0.0642828 -0.0642828 -0.0642828 -0.0642828 
-0.0642828 -0.0642828 -0.0642828 -0.0642828 -0.0642828 -0.0642828 -0.0642828 -0.0642828 -0.0642828 
-0.0642828 -0.0642828 -0.0642828 -0.0642828 -0.0642828 -0.0642828 -0.0642828 -0.0642828 -0.0642828 
-0.0642828 -0.0642828 -0.0642828 -0.0642828 -0.0642828 -0.0642828 -0.0642828 -0.0642828 -0.0642828 
-0.0642828 -0.0642828 -0.0642828 -0.0642828 -0.0642828 -0.0642828 -0.0642828 -0.0642828 -0.0642828 
-0.0642828 -0.0642828 -0.0642828 -0.0642828 -0.0642828 -0.0642828 -0.0642828 -0.0642828 -0.0642828 
-0.0642828 -0.0642828 -0.0642828 -0.0642828 -0.0642828 -0.0642828 -0.0642828 -0.0642828 -0.0642828 
-0.0642828 -0.0642828 -0.0642828 -0.0642828 -0.0642828 -0.0642828 -0.0642828 -0.0642828 -0.0642828 
-0.0642828 -0.0642828 -0.0642828 -0.0642828 -0.0642828 -0.0642828 -0.0642828 -0.0642828 -0.0642828 
-0.0642828 -0.0642828 -0.0642828 -0.0642828 -0.0642828 -0.0642828 -0.0642828 -0.0642828 -0.0642828 
-0.0642828 -0.0642828 -0.0642828 -0.0642828 -0.0642828 -0.0642828 -0.0642828 -0.0642828 -0.0642828 
-0.0642828 -0.0642828 -0.0642828 -0.0642828 -0.0642828 -0.0642828 -0.0642828 -0.0642828 -0.0642828 
-0.0642828 -0.0642828 -0.0642828 -0.0642828 -0.0642828 -0.0642828 -0.0642828 -0.0642828 -0.0642828 
-0.0642828 -0.0642828 -0.0642828 -0.0642828 -0.0642828 -0.0642828 -0.0642828 -0.0642828 -0.0642828 
-0.0642828 -0.0642828 -0.0642828 -0.0642828 -0.0642828 -0.0642828 -0.0642828 -0.0642828 -0.0642828 
-0.0642828 -0.0642828 -0.0642828 -0.0642828 -0.0642828 -0.0642828 -0.0642828 -0.0642828 -0.0642828 
-0.0642828 -0.0642828 -0.0642828 -0.0642828 -0.0642828 -0.0642828 -0.0642828 -0.0642828 -0.0642828 
-0.0642828 -0.0642828 -0.0642828 -0.0642828 -0.0642828 -0.0642828 -0.0642828 -0.0642828 -0.0642828 
-0.0642828 -0.0642828 -0.0642828 -0.0642828 -0.0642828 -0.0642828 -0.0642828 -0.0642828 -0.0642828 
-0.0642828 -0.0642828 -0.0642828 -0.0642828 -0.0642828 -0.0642828 -0.0642828 -0.0642828 -0.0642828 
-0.0642828 -0.0642828 -0.0642828 -0.0642828 -0.0642828 -0.0642828 -0.0642828 -0.0642828 -0.0642828 
-0.0642828 -0.0642828 -0.0642828 -0.0642828 -0.0642828 -0.0642828 -0.0642828 -0.0642828 -0.0642828 
-0.0642828 -0.0642828 -0.0642828 -0.0642828 -0.0642828 -0.0642828 -0.0642828 -0.0642828 -0.0642828 
-0.0642828 -0.0642828 -0.0642828 -0.0642828 -0.0642828 -0.0642828 -0.0642828 -0.0642828 -0.0642828 
-0.0642828 -0.0642828 -0.0642828 -0.0642828 -0.0642828 -0.0642828 -0.0642828 -0.0642828 -0.0642828 
-0.0642828 -0.0642828 -0.0642828 -0.0642828 -0.0642828 -0.0642828 -0.0642828 -0.0642828 -0.0642828 
-0.0642828 -0.0642828 -0.0642828 -0.0642828 -0.0642828 -0.0642828 -0.0642828 -0.0642828 -0.0642828 
-0.0642828 -0.0642828 -0.0642828 -0.0642828 -0.0642828 -0.0642828 -0.0642828 -0.0642828 -0.0642828 
-0.0642828 -0.0642828 -0.0642828 -0.0642828 -0.0642828 -0.0642828 -0.0642828 -0.0642828 -0.0642828 
-0.0642828 -0.0642828 -0.0642828 -0.0642828 -0.0642828 -0.0642828 -0.0642828 -0.0642828 -0.0642828 
-0.0642828 -0.0642828 -0.0642828 -0.0642828 -0.0642828 -0.0642828 -0.0642828 -0.0642828 -0.0642828 
-0.0642828 -0.0642828 -0.0642828 -0.0642828 -0.0642828 -0.0642828 -0.0642828 -0.0642828 -0.0642828 
-0.0642828 -0.0642828 -0.0642828 -0.0642828 -0.0642828 -0.0642828 -0.0642828 -0.0642828 -0.0642828 
-0.0642828 -0.0642828 -0.0642828 -0.0642828 -0.0642828 -0.0642828 -0.0642828 -0.0642828 -0.0642828 
-0.0642828 -0.0642828 -0.0642828 -0.0642828 -0.0642828 -0.0642828 -0.0642828 -0.0642828 -0.0642828 
-0.0642828 -0.0642828 -0.0642828 -0.0642828 -0.0642828 -0.0642828 -0.0642828 -0.0642828 -0.0642828 
-0.0642828 -0.0642828 -0.0642828 -0.0642828 -0.0642828 -0.0642828 -0.0642828 -0.0642828 -0.0642828 
-0.0642828 -0.0642828 -0.0642828 -0.0642828 -0.0642828 -0.0642828 -0.0642828 -0.0642828 -0.0642828 
-0.0642828 -0.0642828 -0.0642828 -0.0642828 -0.0642828 -0.0642828 -0.0642828 -0.0642828 -0.0642828 
-0.0642828 -0.0642828 -0.0642828 -0.0642828 -0.0642828 -0.0642828 -0.0642828 -0.0642828 -0.0642828 
-0.0642828 -0.0642828 -0.0642828 -0.0642828 -0.0642828 -0.0642828 -0.0642828 -0.0642828 -0.0642828 
-0.0642828 -0.0642828 -0.0642828 -0.0642828 -0.0642828 -0.0642828 -0.0642828 -0.0642828 -0.0642828 
-0.0642828 -0.0642828 -0.0642828 -0.0642828 -0.0642828 -0.0642828 -0.0642828 -0.0642828 -0.0642828 
-0.0642828 -0.0642828 -0.0642828 -0.0642828 -0.0642828 -0.0642828 -0.0642828 -0.0642828 -0.0642828 
-0.0642828 -0.0642828 -0.0642828 -0.0642828 -0.0642828 -0.0642828 -0.0642828 -0.0642828 -0.0642828 
-0.0642828 -0.0642828 -0.0642828 -0.0642828 -0.0642828 -0.0642828 -0.0642828 -0.0642828 -0.0642828 
-0.0642828 -0.0642828 -0.0642828 -0.0642828 -0.0642828 -0.0642828 -0.0642828 -0.0642828 -0.0642828 
-0.0642828 -0.0642828 -0.0642828 -0.0642828 -0.0642828 -0.0642828 -0.0642828 -0.0642828 -0.0642828 
-0.0642828 -0.0642828 -0.0642828 -0.0642828 -0.0642828 -0.0642828 -0.0642828 -0.0642828 -0.0642828 
-0.0642828 -0.0642828 -0.0642828 -0.0642828 -0.0642828 -0.0642828 -0.0642828 -0.0642828 -0.0642828 
-0.0642828 -0.0642828 -0.0642828 -0.0642828 -0.0642828 -0.0642828 -0.0642828 -0.0642828 -0.0642828 
-0.0642828 -0.0642828 -0.0642828 -0.0642828 -0.0642828 -0.0642828 -0.0642828 -0.0642828 -0.0642828 
-0.0642828 -0.0642828 -0.0642828 -0.0642828 -0.0642828 -0.0642828 -0.0642828 -0.0642828 -0.0642828 

top 1 567 double
0.0357172 0.0357172 0.0357172 0.0357172 0.0357172 0.0357172 0.0357172 0.0357172 0.0357172 
0.0357172 0.0357172 0.0357172 0.0357172 0.0357172 0.0357172 0.0357172 0.0357172 0.0357172 
0.0357172 0.0357172 0.0357172 0.0357172 0.0357172 0.0357172 0.0357172 0.0357172 0.0357172 
0.0357172 0.0357172 0.0357172 0.0357172 0.0357172 0.0357172 0.0357172 0.0357172 0.0357172 
0.0357172 0.0357172 0.0357172 0.0357172 0.0357172 0.0357172 0.0357172 0.0357172 0.0357172 
0.0357172 0.0357172 0.0357172 0.0357172 0.0357172 0.0357172 0.0357172 0.0357172 0.0357172 
0.0357172 0.0357172 0.0357172 0.0357172 0.0357172 0.0357172 0.0357172 0.0357172 0.0357172 
0.0357172 0.0357172 0.0357172 0.0357172 0.0357172 0.0357172 0.0357172 0.0357172 0.0357172 
0.0357172 0.0357172 0.0357172 0.0357172 0.0357172 0.0357172 0.0357172 0.0357172 0.0357172 
0.0357172 0.0357172 0.0357172 0.0357172 0.0357172 0.0357172 0.0357172 0.0357172 0.0357172 
0.0357172 0.0357172 0.0357172 0.0357172 0.0357172 0.0357172 0.0357172 0.0357172 0.0357172 
0.0357172 0.0357172 0.0357172 0.0357172 0.0357172 0.0357172 0.0357172 0.0357172 0.0357172 
0.0357172 0.0357172 0.0357172 0.0357172 0.0357172 0.0357172 0.0357172 0.0357172 0.0357172 
0.0357172 0.0357172 0.0357172 0.0357172 0.0357172 0.0357172 0.0357172 0.0357172 0.0357172 
0.0357172 0.0357172 0.0357172 0.0357172 0.0357172 0.0357172 0.0357172 0.0357172 0.0357172 
0.0357172 0.0357172 0.0357172 0.0357172 0.0357172 0.0357172 0.0357172 0.0357172 0.0357172 
0.0357172 0.0357172 0.0357172 0.0357172 0.0357172 0.0357172 0.0357172 0.0357172 0.0357172 
0.0357172 0.0357172 0.0357172 0.0357172 0.0357172 0.0357172 0.0357172 0.0357172 0.0357172 
0.0357172 0.0357172 0.0357172 0.0357172 0.0357172 0.0357172 0.0357172 0.0357172 0.0357172 
0.0357172 0.0357172 0.0357172 0.0357172 0.0357172 0.0357172 0.0357172 0.0357172 0.0357172 
0.0357172 0.0357172 0.0357172 0.0357172 0.0357172 0.0357172 0.0357172 0.0357172 0.0357172 
0.0357172 0.0357172 0.0357172 0.0357172 0.0357172 0.0357172 0.0357172 0.0357172 0.0357172 
0.0357172 0.0357172 0.0357172 0.0357172 0.0357172 0.0357172 0.0357172 0.0357172 0.0357172 
0.0357172 0.0357172 0.0357172 0.0357172 0.0357172 0.0357172 0.0357172 0.0357172 0.0357172 
0.0357172 0.0357172 0.0357172 0.0357172 0.0357172 0.0357172 0.0357172 0.0357172 0.0357172 
0.0357172 0.0357172 0.0357172 0.0357172 0.0357172 0.0357172 0.0357172 0.0357172 0.0357172 
0.0357172 0.0357172 0.0357172 0.0357172 0.0357172 0.0357172 0.0357172 0.0357172 0.0357172 
0.0357172 0.0357172 0.0357172 0.0357172 0.0357172 0.0357172 0.0357172 0.0357172 0.0357172 
0.0357172 0.0357172 0.0357172 0.0357172 0.0357172 0.0357172 0.0357172 0.0357172 0.0357172 
0.0357172 0.0357172 0.0357172 0.0357172 0.0357172 0.0357172 0.0357172 0.0357172 0.0357172 
0.0357172 0.0357172 0.0357172 0.0357172 0.0357172 0.0357172 0.0357172 0.0357172 0.0357172 
0.0357172 0.0357172 0.0357172 0.0357172 0.0357172 0.0357172 0.0357172 0.0357172 0.0357172 
0.0357172 0.0357172 0.0357172 0.0357172 0.0357172 0.0357172 0.0357172 0.0357172 0.0357172 
0.0357172 0.0357172 0.0357172 0.0357172 0.0357172 0.0357172 0.0357172 0.0357172 0.0357172 
0.0357172 0.0357172 0.0357172 0.0357172 0.0357172 0.0357172 0.0357172 0.0357172 0.0357172 
0.0357172 0.0357172 0.0357172 0.0357172 0.0357172 0.0357172 0.0357172 0.0357172 0.0357172 
0.0357172 0.0357172 0.0357172 0.0357172 0.0357172 0.0357172 0.0357172 0.0357172 0.0357172 
0.0357172 0.0357172 0.0357172 0.0357172 0.0357172 0.0357172 0.0357172 0.0357172 0.0357172 
0.0357172 0.0357172 0.0357172 0.0357172 0.0357172 0.0357172 0.0357172 0.0357172 0.0357172 
0.0357172 0.0357172 0.0357172 0.0357172 0.0357172 0.0357172 0.0357172 0.0357172 0.0357172 
0.0357172 0.0357172 0.0357172 0.0357172 0.0357172 0.0357172 0.0357172 0.0357172 0.0357172 
0.0357172 0.0357172 0.0357172 0.0357172 0.0357172 0.0357172 0.0357172 0.0357172 0.0357172 
0.0357172 0.0357172 0.0357172 0.0357172 0.0357172 0.0357172 0.0357172 0.0357172 0.0357172 
0.0357172 0.0357172 0.0357172 0.0357172 0.0357172 0.0357172 0.0357172 0.0357172 0.0357172 
0.0357172 0.0357172 0.0357172 0.0357172 0.0357172 0.0357172 0.0357172 0.0357172 0.0357172 
0.0357172 0.0357172 0.0357172 0.0357172 0.0357172 0.0357172 0.0357172 0.0357172 0.0357172 
0.0357172 0.0357172 0.0357172 0.0357172 0.0357172 0.0357172 0.0357172 0.0357172 0.0357172 
0.0357172 0.0357172 0.0357172 0.0357172 0.0357172 0.0357172 0.0357172 0.0357172 0.0357172 
0.0357172 0.0357172 0.0357172 0.0357172 0.0357172 0.0357172 0.0357172 0.0357172 0.0357172 
0.0357172 0.0357172 0.0357172 0.0357172 0.0357172 0.0357172 0.0357172 0.0357172 0.0357172 
0.0357172 0.0357172 0.0357172 0.0357172 0.0357172 0.0357172 0.0357172 0.0357172 0.0357172 
0.0357172 0.0357172 0.0357172 0.0357172 0.0357172 0.0357172 0.0357172 0.0357172 0.0357172 
0.0357172 0.0357172 0.0357172 0.0357172 0.0357172 0.0357172 0.0357172 0.0357172 0.0357172 
0.0357172 0.0357172 0.0357172 0.0357172 0.0357172 0.0357172 0.0357172 0.0357172 0.0357172 
0.0357172 0.0357172 0.0357172 0.0357172 0.0357172 0.0357172 0.0357172 0.0357172 0.0357172 
0.0357172 0.0357172 0.0357172 0.0357172 0.0357172 0.0357172 0.0357172 0.0357172 0.0357172 
0.0357172 0.0357172 0.0357172 0.0357172 0.0357172 0.0357172 0.0357172 0.0357172 0.0357172 
0.0357172 0.0357172 0.0357172 0.0357172 0.0357172 0.0357172 0.0357172 0.0357172 0.0357172 
0.0357172 0.0357172 0.0357172 0.0357172 0.0357172 0.0357172 0.0357172 0.0357172 0.0357172 
0.0357172 0.0357172 0.0357172 0.0357172 0.0357172 0.0357172 0.0357172 0.0357172 0.0357172 
0.0357172 0.0357172 0.0357172 0.0357172 0.0357172 0.0357172 0.0357172 0.0357172 0.0357172 
0.0357172 0.0357172 0.0357172 0.0357172 0.0357172 0.0357172 0.0357172 0.0357172 0.0357172 
0.0357172 0.0357172 0.0357172 0.0357172 0.0357172 0.0357172 0.0357172 0.0357172 0.0357172 

