# vtk DataFile Version 4.0
vtk output
ASCII
DATASET POLYDATA
FIELD FieldData 4
domain 1 4 string
domain_min:-5|-5|-5
domain_max:5|5|5
cell_size:0.01|0.01|0.01
boundary:1|1|1

variables 1 8 string
T:0.7
dt:0.0005
A:35.6451
V:-0.77769
Z:-0.00899605
write_case:1
substeps:10
all_steps:1400

constants 1 11 string
L:0.1
csize:0.01
R:0.004
mass:0.00210445
E:2.06e+06
nu:0.33
M:20
freq:10
gamma:62.8319
S:78956.8
g:0|0|-9.81

equations 1 9 string
time:T=(T+dt)#true
eq:a=(dem_l(v,om,R,mass,E,nu,0.1)/mass)#true
tank_acceleration:A=(((-(transpose((fsum(a)*mass))*e_k))-(S*Z))/M)#true
iv:v=euler(v,((a+g)-(A*e_k)),dt)#true
ia:r=euler(r,v,dt)#true
tank_velocity:V=euler(V,A,dt)#true
tank_position:Z=euler(Z,V,dt)#true
bottom:bottom=(Z-0.05)#true
top:top=(Z+0.05)#true

POINTS 567 float
0.0162513 0.0350419 -0.0436172 -0.0230563 -0.0460099 -0.0371042 -0.00184464 -0.0457248 -0.0336709 
0.0352836 -0.0409181 -0.0358861 -0.0429826 -0.0310284 -0.0301084 -0.0241701 -0.0280755 -0.0314203 
-0.0111673 -0.0246133 -0.037703 -0.00178945 -0.0227013 -0.0358305 0.0105456 -0.0278014 -0.0365965 
-0.0446101 -0.0118818 -0.0333697 -0.0339823 -0.0150927 -0.0325919 0.0176725 -0.0178284 -0.0328844 
-0.0390737 -0.00222341 -0.0313858 0.0441472 -0.00941398 -0.0331093 -0.0456749 0.00733186 -0.0321599 
-0.0369934 0.00974246 -0.0310924 0.0177358 0.00132941 -0.0350929 0.0182339 0.00873314 -0.0326648 
-0.0428371 0.0152032 -0.0358996 0.00811025 0.0129304 -0.0302593 -0.00369475 0.0224756 -0.033035 
0.00721477 0.0288932 -0.0312081 0.0312185 0.0258516 -0.0304283 -0.0273882 0.0429031 -0.0342571 
-0.00301453 0.0401273 -0.0318466 -0.0438157 -0.0408889 -0.0228567 -0.00633717 -0.0455656 -0.022229 
0.0190013 -0.0421482 -0.0237179 0.038644 -0.0450608 -0.0233245 -0.0320363 -0.0392447 -0.0238924 
-0.0285657 -0.0312264 -0.0203535 -0.0181398 -0.0375247 -0.0297304 -0.0103801 -0.0340401 -0.0253974 
0.00786424 -0.0362214 -0.0241623 0.0171068 -0.0329531 -0.0259943 -0.00118796 -0.023895 -0.0207589 
0.00363643 -0.0285354 -0.0248058 0.02148 -0.0264733 -0.0285066 0.0361814 -0.0273304 -0.0263279 
0.0313948 -0.0204155 -0.028342 0.0408546 -0.0212048 -0.0290889 -0.0144807 -0.0118651 -0.0227711 
-0.0076695 -0.0167006 -0.0223267 0.0221448 -0.0147313 -0.022471 -0.00225962 -0.00225328 -0.0234723 
-0.00167075 -0.0096009 -0.0264686 0.00752012 -0.00568668 -0.0259571 0.0326825 -0.00722656 -0.0227545 
-0.0402418 0.00519756 -0.0223721 -0.030078 0.00347607 -0.0228419 -0.0101095 0.00414873 -0.0212132 
-0.00455919 0.0085013 -0.024786 0.00451815 0.00260977 -0.0286651 0.014716 0.00113866 -0.0254294 
0.0425544 0.00150874 -0.0225772 -0.0264543 0.0163865 -0.0246423 -0.0155153 0.0139116 -0.0254815 
-0.0048568 0.0192968 -0.0204721 0.0461441 0.0150133 -0.0228667 -0.045428 0.0248638 -0.0219282 
-0.0369503 0.0299011 -0.0292574 -0.0285196 0.0248372 -0.0238465 -0.0138851 0.0239033 -0.0256896 
0.00536375 0.0282799 -0.022746 -0.0331715 0.0302999 -0.0200624 -0.021908 0.0386557 -0.0235526 
0.0170144 0.0343314 -0.0264434 0.0286247 0.0367934 -0.0261004 -0.0322489 0.0438894 -0.0235538 
-0.0139343 0.0405556 -0.0290967 0.0075318 0.0427166 -0.0277666 0.0149699 0.0447681 -0.0202298 
0.0265854 0.0449526 -0.0205424 0.0457916 0.0404933 -0.0225787 -0.0209577 -0.0401763 -0.0198877 
-0.0287535 -0.0413679 -0.0164009 -0.00516571 -0.0444751 -0.0103556 0.0065109 -0.0454463 -0.0100648 
0.00762819 -0.0423309 -0.0181639 0.0250102 -0.0453285 -0.0173732 -0.0411478 -0.0317416 -0.0195777 
-0.0391695 -0.0373372 -0.0132058 -0.0218016 -0.0330397 -0.0159878 0.00067924 -0.0376439 -0.0180522 
0.0110644 -0.0302109 -0.0172486 0.0277153 -0.0348064 -0.0129702 0.0363275 -0.0305339 -0.0183131 
-0.0272539 -0.0235375 -0.0167093 0.00130004 -0.029319 -0.0135464 0.019097 -0.021946 -0.0125086 
0.0407835 -0.023877 -0.0136619 -0.0371268 -0.0152742 -0.0147371 -0.020387 -0.0186324 -0.0100165 
-0.0176932 -0.0195483 -0.0178103 0.00773453 -0.0160995 -0.0104387 0.0146952 -0.0119001 -0.0165926 
0.0263949 -0.0184124 -0.016396 -0.0459427 -0.00148443 -0.0135604 -0.0342569 -0.00485838 -0.0156122 
-0.00118971 -0.00342107 -0.0110464 0.0144786 -0.00274677 -0.0158713 0.0214314 -0.00712576 -0.0111708 
0.0276689 -0.00336575 -0.014156 0.0447911 -0.00816748 -0.0144751 -0.0192311 0.00236319 -0.0120223 
0.00636287 0.00657664 -0.0126011 0.0248196 0.00960159 -0.0190207 0.0201412 0.00428253 -0.011309 
-0.0361665 0.0177572 -0.0172973 -0.0272333 0.0152639 -0.0133027 -8.31688e-05 0.011364 -0.0118359 
0.00713636 0.0169764 -0.0149706 0.0317762 0.0180395 -0.0155552 -0.0457315 0.0237829 -0.012484 
-0.0389087 0.0292881 -0.0103706 -0.0266062 0.0266926 -0.0150487 -0.0162803 0.0240799 -0.0114091 
0.0279086 0.0257764 -0.010602 0.0226765 0.027876 -0.0170098 0.0344425 0.02532 -0.0199626 
0.0451003 0.0288248 -0.0177552 -0.0445784 0.0333212 -0.0189143 -0.0389515 0.0374841 -0.0125053 
-0.0194076 0.0340774 -0.0109909 -0.0145691 0.0325255 -0.019238 -0.00915003 0.0390421 -0.0161402 
-0.00500013 0.0314204 -0.0188481 0.0150988 0.0323981 -0.0109493 0.0139668 0.0370218 -0.0178576 
0.0450969 0.0324556 -0.0106948 -0.0458695 0.0443886 -0.0104344 -0.0208933 0.0425487 -0.0158803 
0.00448399 0.0405103 -0.0138562 0.0289139 0.04154 -0.0104192 -0.0407948 -0.0451005 -0.00325358 
-0.0147773 -0.0429818 -0.00788705 0.00372473 -0.0403302 -0.00413653 0.017874 -0.0406468 -0.00851631 
0.0399451 -0.0440751 -0.00353717 -0.0321142 -0.0391575 -0.00844904 -0.0238114 -0.0385375 -0.00297104 
-0.0136192 -0.0300584 -0.00478965 0.0149297 -0.0333036 -0.00429702 0.0266961 -0.0390333 -0.00517257 
0.0336639 -0.0381351 -0.00916384 -0.0356243 -0.022524 -0.00362971 -0.0257287 -0.0260497 -0.00683891 
-0.0128916 -0.0238726 -0.000144118 -0.00541132 -0.025832 -0.00164454 -0.000959327 -0.0202701 -0.00793864 
0.0224828 -0.0296704 -0.00565143 0.0377507 -0.0235343 -0.0058486 0.0338906 -0.0299384 -0.000858294 
0.0444822 -0.026372 -0.0005634 -0.0387322 -0.0119825 -0.00660879 -0.0104524 -0.0107263 -0.00808698 
0.00113721 -0.0124219 -0.00526704 0.0206996 -0.0116317 -0.00306936 0.0334267 -0.0115367 -0.00237258 
0.0393248 -0.0143379 -0.00738231 0.045909 -0.0179343 -0.00255524 -0.035232 -0.00443043 -0.00344746 
-0.0272841 -0.00330503 -0.00777115 -0.0174108 -0.00724326 -0.00221896 0.00589463 -0.00144432 -0.00865385 
0.0120216 -0.00950316 -0.00465084 0.0258063 -0.000274946 -0.00430543 0.0428862 -4.39099e-05 -0.00977887 
-0.0439284 0.00954419 -0.00760925 -0.0309742 0.00743989 -0.00797577 -0.0265035 0.00482342 -0.000738966 
-0.0107037 0.00281408 -0.0043108 -0.0123549 0.00894105 -0.00992252 -0.0185781 0.00479432 -0.00449155 
0.00489368 0.00413063 -0.00325732 0.0439895 0.00337526 -3.01874e-06 -0.0213883 0.0103527 -0.00948632 
-0.00938632 0.0165009 -0.00695251 0.00329813 0.0138368 -0.00383067 0.0135243 0.0177931 -0.00524436 
0.0196376 0.0116778 -0.00852617 0.0347473 0.0193189 -0.00699128 0.0308725 0.0100507 -0.00409056 
-0.0384195 0.0201146 -0.00718736 -0.0332813 0.0279565 -0.00358079 -0.0043673 0.0270986 -0.00647213 
0.00261017 0.0227814 -0.0084795 0.00762414 0.0230127 -0.00153658 0.0240277 0.0209665 -0.00563423 
0.0373146 0.027649 -0.00176639 0.0439448 0.0230152 -0.00564422 -0.0430186 0.0303105 -0.00111994 
-0.045863 0.0382342 -0.0024709 -0.0343758 0.0359454 -0.00191768 -0.0227339 0.0373205 -0.00258984 
-0.0117586 0.0398837 -0.00303477 -0.00414406 0.0364306 -0.00906512 0.00597106 0.0388206 -0.00427081 
0.0041269 0.0320139 -0.00787442 0.0258631 0.0328588 -0.00749598 0.0337292 0.0398987 -0.000830817 
0.0415572 0.0373032 -0.00079786 -0.0387734 0.0439856 -0.00719088 -0.0305336 0.0432688 -0.00570037 
-0.0162354 0.0441691 -0.00871354 -0.00509856 0.0448977 -0.00909166 0.00865286 0.0460606 -0.00605951 
-0.045785 -0.0458768 0.00743685 -0.0354898 -0.0459973 0.00666301 0.0059043 -0.0417535 0.00692475 
0.0261504 -0.0413574 0.00280118 0.0448966 -0.0460962 0.00276331 -0.0451121 -0.0358079 0.000711286 
-0.0423867 -0.0389594 0.00740934 -0.0329604 -0.0390598 0.00319639 -0.020889 -0.035334 0.00945806 
-0.0130141 -0.0399818 0.00160388 -0.0135231 -0.0315179 0.00296635 -0.00376473 -0.0310881 0.00413189 
0.00265345 -0.0346624 0.00166149 0.0174739 -0.0385629 0.00367043 0.0271774 -0.0308205 0.00603635 
0.0413368 -0.0360421 9.43718e-05 -0.0426667 -0.0236807 0.00196022 -0.032467 -0.0298582 0.0022585 
-0.0214736 -0.0238647 0.00909347 -0.00926295 -0.0209361 0.00990227 0.00934032 -0.0281659 0.000984313 
0.0164217 -0.0284466 0.0064056 0.0232834 -0.0210441 0.00312368 0.0329024 -0.0221693 0.00271288 
-0.0383209 -0.0158806 0.00327519 -0.0275119 -0.0155149 0.00182865 -0.0159138 -0.016234 0.000820081 
-0.00565511 -0.01156 0.00625309 0.0120079 -0.0167176 0.00897038 0.0247891 -0.0150859 0.00932158 
-0.044961 -0.00572663 0.00960384 -0.0288023 -0.00814488 0.00507842 -0.022794 -0.00200934 0.00665021 
-0.0126627 -0.00698309 0.00551295 0.00231173 -0.00352956 0.000815746 0.00386989 -0.00701499 0.00845421 
0.0185713 -0.00101988 0.00303903 0.0132192 -0.000608873 0.0096951 0.0235869 -0.00799647 0.00366333 
0.0429134 -0.00822086 0.00485519 -0.0458319 0.00157255 0.00481339 -0.0303524 0.000726836 0.00642259 
-0.0147372 0.00075472 0.00551556 -0.00635227 0.00286844 0.00479956 0.00338428 0.00931215 0.00471415 
0.017582 0.00641842 0.00624699 0.0235713 0.00659974 7.07299e-05 0.0354377 0.00104914 0.00187276 
0.035754 0.00850718 0.00781359 0.0427594 0.00406152 0.00853573 -0.0393656 0.018985 0.00403376 
-0.0332011 0.0111849 0.0031391 -0.0319873 0.018537 0.000437933 -0.0245872 0.0110615 0.00384244 
-0.012242 0.0170598 0.00842596 -0.0127429 0.01295 0.000652 -0.00387191 0.0122414 0.00322245 
-0.00243936 0.017544 0.00944433 -0.00188384 0.0196729 6.97377e-05 0.0206603 0.0198321 0.00549225 
0.0387754 0.0159001 8.09352e-05 0.0443217 0.0189407 0.0068493 -0.0460366 0.025617 0.00732299 
-0.0233349 0.0245374 0.00046658 -0.00967698 0.0258787 0.00506653 -0.00307492 0.0286698 0.0017927 
0.0114565 0.0235684 0.00768014 0.0288247 0.0211524 0.00681409 0.0383306 0.0251079 0.00636774 
0.0452199 0.02965 0.00217537 -0.0442859 0.0389116 0.00657604 -0.0290854 0.0346879 0.00497877 
-0.0211586 0.0376656 0.00993802 -0.00195932 0.0330287 0.00927449 0.0150535 0.0338085 0.00887587 
0.0233035 0.0324882 0.00243251 0.0355702 0.0326595 0.00714545 -0.0423913 0.0455695 0.00109096 
-0.0377061 0.0444795 0.00832529 -0.0259404 0.0454973 0.00693311 -0.00143534 0.0429964 0.00444272 
0.00918934 0.045587 0.00350001 0.0287308 0.044935 0.00687787 0.0206341 0.0403416 0.00210729 
0.0455505 0.0409292 0.00557816 -0.0278014 -0.0453542 0.0168729 -0.0198548 -0.0455186 0.0155442 
-0.00704067 -0.0460119 0.0190919 0.0149038 -0.0433649 0.0150809 0.0359188 -0.040788 0.0103239 
-0.0360868 -0.034955 0.0144923 -0.0211319 -0.0360255 0.0171961 -0.029142 -0.0337318 0.0109553 
-0.011098 -0.0304556 0.0134124 -0.0137316 -0.0389675 0.0125199 -0.00205375 -0.0362218 0.0104974 
0.00167276 -0.0346469 0.0175271 0.0108178 -0.0309924 0.0190212 0.016127 -0.0339072 0.0141818 
0.0257444 -0.0370845 0.015517 0.0340901 -0.0339817 0.0181677 0.0416184 -0.0379466 0.017904 
-0.0455887 -0.0268462 0.0100058 -0.0417951 -0.0265101 0.0197979 -0.0331345 -0.0260236 0.0162238 
-0.0221325 -0.0253155 0.0194735 0.00155863 -0.0274561 0.0117057 0.0136799 -0.0214 0.0161712 
0.0280895 -0.0218578 0.0122152 0.0359152 -0.0237902 0.0138958 0.0457517 -0.0240674 0.0137078 
-0.0141477 -0.0184562 0.0160341 -0.016004 -0.0134116 0.0100171 -0.00905014 -0.0124199 0.0159641 
0.0026923 -0.0148057 0.0105585 0.0069534 -0.0170003 0.0172544 0.0232169 -0.0115268 0.0175453 
0.0381931 -0.0134477 0.0102818 -0.0437229 -0.00443996 0.018369 -0.0352149 -0.00618196 0.0180591 
-0.0265145 -0.00902058 0.0194618 -0.0123369 -0.0019472 0.0138012 -0.00314522 -0.00256246 0.0188259 
0.0169971 -0.00412763 0.015767 0.0369239 -0.00103088 0.0118238 -0.0236643 0.00340084 0.0122565 
-0.0299591 0.00189321 0.0190905 -0.00994037 0.00588991 0.0159698 0.00119574 0.00675818 0.0153849 
0.020749 0.00637876 0.0167269 0.0444885 0.000331469 0.0152555 0.0414927 0.00989703 0.0141634 
-0.0444917 0.0124327 0.0110881 -0.0351528 0.0174662 0.0171193 -0.0192191 0.0184031 0.0106704 
0.00531951 0.0143688 0.0118932 0.0228586 0.01925 0.0159061 0.025815 0.0130773 0.0118279 
-0.0327766 0.0265462 0.0136945 -0.0165502 0.0296359 0.0195023 -0.00528995 0.0214061 0.0174253 
0.0134601 0.0299299 0.0153613 0.0107262 0.0215831 0.019487 0.0190188 0.024902 0.0118426 
0.0299779 0.0265354 0.0144374 0.0381869 0.0201921 0.0154727 -0.0398435 0.0304335 0.0170062 
-0.0245392 0.0365581 0.0177376 0.00437445 0.0383909 0.0120529 0.0130208 0.0371524 0.0180723 
0.0297107 0.0357105 0.013404 0.0372604 0.0338577 0.0160666 -0.0376125 0.04351 0.019176 
-0.0234485 0.0459681 0.0148447 -0.0116503 0.0400358 0.0125143 0.0366204 0.0410596 0.0135136 
-0.0438574 -0.0427172 0.0216307 -0.0245241 -0.040426 0.026948 -0.0035819 -0.045071 0.0267872 
0.004276 -0.0456195 0.0214418 0.00964156 -0.0404229 0.0222664 0.0165879 -0.0404116 0.0299785 
0.0308611 -0.0449043 0.0266951 0.0340046 -0.0442189 0.0207706 0.0459283 -0.0416962 0.0278732 
-0.0330307 -0.0377483 0.0221047 -0.0393532 -0.0328157 0.0261273 -0.00885634 -0.0393495 0.0271067 
-0.00381737 -0.031209 0.0215586 7.60327e-05 -0.0373278 0.0271328 0.0155584 -0.0322655 0.0247748 
0.0380217 -0.0356495 0.0286506 -0.026133 -0.022745 0.0282057 -0.00354441 -0.0205243 0.023687 
0.00666293 -0.0244925 0.0263135 0.0188248 -0.024726 0.0218579 0.0373374 -0.0232749 0.0216221 
0.0401232 -0.0296064 0.0205051 0.0456678 -0.0209694 0.0211345 -0.0457196 -0.0190925 0.0244968 
-0.0334812 -0.0104257 0.0258404 -0.0307347 -0.0182527 0.0204406 -0.0251833 -0.014607 0.0249751 
-0.00671676 -0.0121218 0.0242793 0.0110764 -0.013562 0.0269844 0.0337391 -0.0164005 0.0205666 
-0.0426059 -0.00201508 0.0287406 -0.0158194 -0.00448219 0.0211745 0.00622994 -0.00162953 0.0200505 
0.0125315 -0.00542122 0.0234996 0.0366738 -0.00598518 0.0231156 0.0448004 -0.00395706 0.0294834 
-0.0432965 0.00518389 0.0204092 -0.0351806 0.00787934 0.0206826 -0.0353681 0.00465334 0.0290784 
-0.0228268 0.00222104 0.0229188 -0.00936072 0.00049196 0.0222654 0.0108188 0.00858297 0.0216496 
0.0187685 0.000923752 0.0273257 0.0342824 0.00468499 0.0233855 0.0442318 0.0031002 0.0241715 
-0.030385 0.0142436 0.0263217 -0.0238658 0.0117941 0.0224873 -0.015247 0.015875 0.0204505 
-0.015518 0.0115117 0.0291568 -0.00395549 0.0161519 0.0297362 0.00138296 0.0164127 0.0220856 
0.0338306 0.0131857 0.0207865 0.0449934 0.0180271 0.0205372 -0.0409738 0.022901 0.0222522 
-0.0323741 0.0256296 0.0203746 -0.0236447 0.0282411 0.0227159 -0.0186311 0.0263279 0.0271737 
-0.00549957 0.0295041 0.0230333 -0.0065446 0.0273618 0.0295151 0.00353662 0.0267033 0.0204696 
0.0201163 0.0207699 0.0237842 0.0231291 0.0278673 0.0250419 0.0356318 0.0244406 0.0211525 
0.0459075 0.0275219 0.0236419 -0.0315485 0.033482 0.0218436 0.00678064 0.0309608 0.0282078 
0.00257649 0.0345036 0.0215748 0.0216578 0.0356804 0.0204695 0.0441616 0.0346028 0.0212932 
-0.0451427 0.0430409 0.022609 -0.0313571 0.0456436 0.0274624 -0.0204953 0.0451125 0.029462 
-0.00910957 0.0449439 0.0224229 0.00681699 0.0436625 0.0253825 0.0153623 0.0460251 0.0253901 
0.0294524 0.0445129 0.0285578 -0.045769 -0.0454784 0.0323337 -0.0398982 -0.0419451 0.0320114 
-0.0259786 -0.0442722 0.0380654 -0.0119713 -0.0406988 0.0330373 0.00516364 -0.0424303 0.0363809 
0.0124767 -0.0460415 0.0322364 -0.0324202 -0.035297 0.0348472 -0.0263671 -0.0328935 0.0303745 
-0.0177901 -0.0308953 0.0347095 -0.00266989 -0.0300305 0.0325288 0.00826381 -0.0323394 0.0335873 
0.0245046 -0.0314033 0.0323778 0.0348521 -0.038517 0.0396701 0.0414309 -0.0302375 0.03495 
-0.0410916 -0.0249278 0.0314233 -0.0440571 -0.028783 0.0360211 -0.0293242 -0.0287189 0.0357432 
-0.00116078 -0.0213123 0.0368171 0.0176751 -0.0208599 0.0384534 0.013162 -0.0281422 0.0391139 
-0.0463235 -0.0102676 0.0345237 -0.00710733 -0.01747 0.0337643 0.0100002 -0.0103245 0.0345363 
0.0299745 -0.0146584 0.0357471 0.0225049 -0.0136062 0.0306534 0.044365 -0.0188342 0.0336991 
-0.0326283 -0.00154618 0.0367561 -0.0230957 -0.00439166 0.0323193 -0.0150355 -0.00948546 0.0343559 
-0.00993665 -0.00486695 0.0384249 0.030145 -0.00272857 0.0348812 0.0416458 -0.00558325 0.0393027 
-0.0177587 0.00665953 0.0392801 -0.00723707 5.86075e-05 0.0323136 -0.00549869 0.00233539 0.0392511 
0.00387672 0.000985614 0.0365179 0.012106 0.00823504 0.0348405 0.0244663 0.00341705 0.0322836 
0.0402626 0.00584839 0.0317839 -0.031123 0.0141878 0.0342645 -0.0389168 0.0195053 0.0331892 
0.00321519 0.0101667 0.0308563 0.00861741 0.0197392 0.0301245 0.0153375 0.0189454 0.0327251 
0.0162742 0.0176346 0.0393147 0.0281978 0.0155143 0.0311603 0.0213766 0.0122113 0.0379314 
0.0325308 0.0108417 0.0344139 0.0387207 0.0155065 0.0304352 0.044823 0.0120518 0.0383513 
-0.0170049 0.0200712 0.0312194 -0.00893053 0.026081 0.0369731 0.00256065 0.0221725 0.0325778 
0.0455229 0.0222548 0.0314427 -0.0268103 0.0308033 0.0332026 -0.0281985 0.0383851 0.0315569 
-0.000380781 0.0312266 0.03707 0.00118296 0.0378037 0.0388296 0.0138531 0.0394518 0.0348866 
0.0196263 0.031125 0.033462 0.0254604 0.0352838 0.0305255 0.0380292 0.0380739 0.0325315 
-0.0380205 0.0415022 0.036157 -0.0124462 0.0443454 0.0377716 -0.00610741 0.0428033 0.0338684 
0.0415907 0.0451788 0.0362638 -0.0423602 -0.0431969 0.0406189 -0.0342607 -0.0446219 0.0459517 
-0.0181029 -0.0444617 0.0459978 -0.0116847 -0.0464825 0.0402595 -0.00204552 -0.0414691 0.0453757 
0.00910759 -0.0427172 0.0430411 0.0276868 -0.0446688 0.0449423 0.0415851 -0.0436898 0.0465277 
-0.0233464 -0.036593 0.0420916 -0.00867144 -0.0386056 0.0425086 -0.00448202 -0.0332229 0.0447223 
0.00447332 -0.0375205 0.0436276 0.0450723 -0.0323896 0.0444266 -0.0466971 -0.0233255 0.0454955 
-0.0208735 -0.0261466 0.0424356 -0.00467734 -0.0242559 0.0466153 0.00118872 -0.0270811 0.0408573 
0.018293 -0.0256935 0.0436998 0.0413227 -0.0234883 0.0461858 -0.0299275 -0.0179074 0.0407024 
-0.019977 -0.0154178 0.0428239 -0.00140879 -0.0149255 0.0452342 -0.00670012 -0.0127802 0.0414654 
0.019976 -0.0174492 0.0445873 0.0413124 -0.0116777 0.0463573 -0.0450663 -0.0070386 0.0467527 
-0.0386847 -0.000204918 0.0448512 -0.0280398 -0.00931137 0.0422935 -0.0103348 -0.00375885 0.0467997 
-0.019153 -0.00592355 0.0434547 -0.00285676 -0.0046946 0.0453289 0.0136896 -0.00886239 0.0428444 
0.0226761 -0.00337082 0.040896 0.0311768 -0.00810654 0.0454517 0.0115676 0.000878916 0.0405507 
0.0140686 0.00387193 0.0470915 0.0286806 0.000425442 0.0411741 0.0301459 0.00956211 0.0437376 
-0.0457081 0.0195919 0.0436494 -0.0217112 0.0118101 0.0418815 -0.00232526 0.0114821 0.046983 
0.0176485 0.0182174 0.046236 0.0254216 0.018379 0.0459843 0.0372748 0.0121156 0.0437257 
0.0451733 0.0166229 0.0469274 -0.0369581 0.0210809 0.043097 0.0080002 0.0285625 0.0400376 
0.00420953 0.0212095 0.0422267 0.0204706 0.0256629 0.0428422 0.0290454 0.0277766 0.0415438 
0.0365612 0.0292951 0.0423908 -0.0206249 0.0336712 0.0456209 -0.00618284 0.0376735 0.0431864 
0.0107852 0.0374627 0.0460672 0.0144374 0.033931 0.0414079 0.0202328 0.0343376 0.0458739 
-0.0261694 0.043187 0.0402064 -0.0231711 0.0447216 0.0460853 -0.0130645 0.0418463 0.0458936 
0.0132827 0.0450316 0.0449965 0.0332901 0.0431418 0.0407083 0.0414501 0.0433742 0.0447694 

VERTICES 1134 1134
1 0 
1 1 
1 2 
1 3 
1 4 
1 5 
1 6 
1 7 
1 8 
1 9 
1 10 
1 11 
1 12 
1 13 
1 14 
1 15 
1 16 
1 17 
1 18 
1 19 
1 20 
1 21 
1 22 
1 23 
1 24 
1 25 
1 26 
1 27 
1 28 
1 29 
1 30 
1 31 
1 32 
1 33 
1 34 
1 35 
1 36 
1 37 
1 38 
1 39 
1 40 
1 41 
1 42 
1 43 
1 44 
1 45 
1 46 
1 47 
1 48 
1 49 
1 50 
1 51 
1 52 
1 53 
1 54 
1 55 
1 56 
1 57 
1 58 
1 59 
1 60 
1 61 
1 62 
1 63 
1 64 
1 65 
1 66 
1 67 
1 68 
1 69 
1 70 
1 71 
1 72 
1 73 
1 74 
1 75 
1 76 
1 77 
1 78 
1 79 
1 80 
1 81 
1 82 
1 83 
1 84 
1 85 
1 86 
1 87 
1 88 
1 89 
1 90 
1 91 
1 92 
1 93 
1 94 
1 95 
1 96 
1 97 
1 98 
1 99 
1 100 
1 101 
1 102 
1 103 
1 104 
1 105 
1 106 
1 107 
1 108 
1 109 
1 110 
1 111 
1 112 
1 113 
1 114 
1 115 
1 116 
1 117 
1 118 
1 119 
1 120 
1 121 
1 122 
1 123 
1 124 
1 125 
1 126 
1 127 
1 128 
1 129 
1 130 
1 131 
1 132 
1 133 
1 134 
1 135 
1 136 
1 137 
1 138 
1 139 
1 140 
1 141 
1 142 
1 143 
1 144 
1 145 
1 146 
1 147 
1 148 
1 149 
1 150 
1 151 
1 152 
1 153 
1 154 
1 155 
1 156 
1 157 
1 158 
1 159 
1 160 
1 161 
1 162 
1 163 
1 164 
1 165 
1 166 
1 167 
1 168 
1 169 
1 170 
1 171 
1 172 
1 173 
1 174 
1 175 
1 176 
1 177 
1 178 
1 179 
1 180 
1 181 
1 182 
1 183 
1 184 
1 185 
1 186 
1 187 
1 188 
1 189 
1 190 
1 191 
1 192 
1 193 
1 194 
1 195 
1 196 
1 197 
1 198 
1 199 
1 200 
1 201 
1 202 
1 203 
1 204 
1 205 
1 206 
1 207 
1 208 
1 209 
1 210 
1 211 
1 212 
1 213 
1 214 
1 215 
1 216 
1 217 
1 218 
1 219 
1 220 
1 221 
1 222 
1 223 
1 224 
1 225 
1 226 
1 227 
1 228 
1 229 
1 230 
1 231 
1 232 
1 233 
1 234 
1 235 
1 236 
1 237 
1 238 
1 239 
1 240 
1 241 
1 242 
1 243 
1 244 
1 245 
1 246 
1 247 
1 248 
1 249 
1 250 
1 251 
1 252 
1 253 
1 254 
1 255 
1 256 
1 257 
1 258 
1 259 
1 260 
1 261 
1 262 
1 263 
1 264 
1 265 
1 266 
1 267 
1 268 
1 269 
1 270 
1 271 
1 272 
1 273 
1 274 
1 275 
1 276 
1 277 
1 278 
1 279 
1 280 
1 281 
1 282 
1 283 
1 284 
1 285 
1 286 
1 287 
1 288 
1 289 
1 290 
1 291 
1 292 
1 293 
1 294 
1 295 
1 296 
1 297 
1 298 
1 299 
1 300 
1 301 
1 302 
1 303 
1 304 
1 305 
1 306 
1 307 
1 308 
1 309 
1 310 
1 311 
1 312 
1 313 
1 314 
1 315 
1 316 
1 317 
1 318 
1 319 
1 320 
1 321 
1 322 
1 323 
1 324 
1 325 
1 326 
1 327 
1 328 
1 329 
1 330 
1 331 
1 332 
1 333 
1 334 
1 335 
1 336 
1 337 
1 338 
1 339 
1 340 
1 341 
1 342 
1 343 
1 344 
1 345 
1 346 
1 347 
1 348 
1 349 
1 350 
1 351 
1 352 
1 353 
1 354 
1 355 
1 356 
1 357 
1 358 
1 359 
1 360 
1 361 
1 362 
1 363 
1 364 
1 365 
1 366 
1 367 
1 368 
1 369 
1 370 
1 371 
1 372 
1 373 
1 374 
1 375 
1 376 
1 377 
1 378 
1 379 
1 380 
1 381 
1 382 
1 383 
1 384 
1 385 
1 386 
1 387 
1 388 
1 389 
1 390 
1 391 
1 392 
1 393 
1 394 
1 395 
1 396 
1 397 
1 398 
1 399 
1 400 
1 401 
1 402 
1 403 
1 404 
1 405 
1 406 
1 407 
1 408 
1 409 
1 410 
1 411 
1 412 
1 413 
1 414 
1 415 
1 416 
1 417 
1 418 
1 419 
1 420 
1 421 
1 422 
1 423 
1 424 
1 425 
1 426 
1 427 
1 428 
1 429 
1 430 
1 431 
1 432 
1 433 
1 434 
1 435 
1 436 
1 437 
1 438 
1 439 
1 440 
1 441 
1 442 
1 443 
1 444 
1 445 
1 446 
1 447 
1 448 
1 449 
1 450 
1 451 
1 452 
1 453 
1 454 
1 455 
1 456 
1 457 
1 458 
1 459 
1 460 
1 461 
1 462 
1 463 
1 464 
1 465 
1 466 
1 467 
1 468 
1 469 
1 470 
1 471 
1 472 
1 473 
1 474 
1 475 
1 476 
1 477 
1 478 
1 479 
1 480 
1 481 
1 482 
1 483 
1 484 
1 485 
1 486 
1 487 
1 488 
1 489 
1 490 
1 491 
1 492 
1 493 
1 494 
1 495 
1 496 
1 497 
1 498 
1 499 
1 500 
1 501 
1 502 
1 503 
1 504 
1 505 
1 506 
1 507 
1 508 
1 509 
1 510 
1 511 
1 512 
1 513 
1 514 
1 515 
1 516 
1 517 
1 518 
1 519 
1 520 
1 521 
1 522 
1 523 
1 524 
1 525 
1 526 
1 527 
1 528 
1 529 
1 530 
1 531 
1 532 
1 533 
1 534 
1 535 
1 536 
1 537 
1 538 
1 539 
1 540 
1 541 
1 542 
1 543 
1 544 
1 545 
1 546 
1 547 
1 548 
1 549 
1 550 
1 551 
1 552 
1 553 
1 554 
1 555 
1 556 
1 557 
1 558 
1 559 
1 560 
1 561 
1 562 
1 563 
1 564 
1 565 
1 566 

POINT_DATA 567
SCALARS id double
LOOKUP_TABLE default
363 330 136 540 256 70 133 457 259 
104 202 426 33 535 275 171 135 418 
30 381 235 538 14 223 231 17 211 
406 331 397 139 416 448 273 441 468 
467 531 205 469 451 140 459 141 68 
40 60 384 415 86 326 276 280 237 
395 138 295 306 475 218 228 207 97 
319 77 289 396 226 169 37 351 561 
490 323 76 447 524 456 23 402 71 
129 131 252 81 424 419 132 85 333 
450 111 382 200 549 262 137 82 20 
162 385 499 193 449 307 222 435 541 
537 19 439 401 421 101 168 365 309 
163 348 495 125 58 88 279 314 480 
44 438 562 425 124 92 369 350 115 
41 128 552 532 407 156 354 526 328 
378 221 466 553 47 340 201 545 386 
65 96 110 94 428 283 560 550 504 
461 296 266 197 325 544 43 1 103 
90 288 161 224 408 185 173 73 391 
429 536 510 356 473 311 564 53 515 
394 488 229 374 355 411 108 217 332 
530 502 452 62 357 11 151 121 313 
460 84 383 318 500 204 191 13 27 
444 512 260 528 496 508 455 29 210 
509 149 216 523 476 315 527 25 150 
258 505 6 334 31 39 100 344 89 
272 432 183 472 157 362 52 56 554 
404 520 501 79 462 118 34 299 83 
297 294 483 343 74 209 521 346 182 
301 347 239 493 434 107 414 199 342 
113 49 556 212 367 503 175 232 300 
359 546 373 485 190 400 143 430 327 
95 130 12 2 0 464 4 102 322 
67 308 478 427 55 146 304 142 10 
51 220 518 491 126 244 3 54 516 
405 24 242 336 261 290 389 453 286 
298 387 353 341 219 529 241 227 105 
18 445 152 45 312 106 398 506 471 
533 292 112 234 484 563 233 358 28 
285 119 57 26 66 265 551 293 458 
264 321 446 93 269 147 145 72 498 
75 403 42 487 380 317 236 9 338 
277 167 63 465 274 206 474 196 282 
253 5 393 158 440 46 489 497 278 
525 559 192 153 422 189 413 481 454 
267 566 230 375 238 284 164 349 59 
181 463 186 21 159 251 547 492 494 
32 38 345 248 148 187 392 8 98 
91 254 36 203 437 390 335 443 268 
320 215 64 376 184 270 377 409 431 
194 479 442 134 519 522 61 507 240 
366 511 542 174 69 154 371 166 482 
557 120 122 208 565 188 246 372 225 
513 302 410 337 291 160 555 116 281 
534 170 287 179 470 310 433 178 109 
339 114 399 213 35 329 263 316 48 
127 517 15 255 324 198 117 379 195 
514 412 80 16 144 7 305 22 249 
423 388 247 99 87 368 155 477 486 
250 539 364 257 370 245 180 352 123 
417 165 78 436 172 177 548 243 50 
303 361 420 176 214 360 543 558 271 

FIELD FieldData 7
r 3 567 double
0.0162513 0.0350419 -0.0436172 -0.0230563 -0.0460099 -0.0371042 -0.00184464 -0.0457248 -0.0336709 
0.0352836 -0.0409181 -0.0358861 -0.0429826 -0.0310284 -0.0301084 -0.0241701 -0.0280755 -0.0314203 
-0.0111673 -0.0246133 -0.037703 -0.00178945 -0.0227013 -0.0358305 0.0105456 -0.0278014 -0.0365965 
-0.0446101 -0.0118818 -0.0333698 -0.0339823 -0.0150927 -0.0325919 0.0176725 -0.0178284 -0.0328844 
-0.0390737 -0.00222341 -0.0313858 0.0441472 -0.00941398 -0.0331093 -0.0456749 0.00733186 -0.0321599 
-0.0369934 0.00974246 -0.0310924 0.0177358 0.00132941 -0.0350929 0.0182339 0.00873314 -0.0326648 
-0.0428371 0.0152032 -0.0358996 0.00811025 0.0129304 -0.0302593 -0.00369475 0.0224756 -0.033035 
0.00721477 0.0288932 -0.0312081 0.0312185 0.0258516 -0.0304283 -0.0273882 0.0429031 -0.0342571 
-0.00301453 0.0401273 -0.0318466 -0.0438157 -0.0408889 -0.0228567 -0.00633717 -0.0455656 -0.022229 
0.0190013 -0.0421482 -0.0237179 0.038644 -0.0450608 -0.0233245 -0.0320363 -0.0392447 -0.0238924 
-0.0285658 -0.0312264 -0.0203535 -0.0181398 -0.0375247 -0.0297304 -0.0103801 -0.0340401 -0.0253974 
0.00786424 -0.0362214 -0.0241623 0.0171068 -0.0329531 -0.0259943 -0.00118796 -0.023895 -0.0207589 
0.00363643 -0.0285354 -0.0248058 0.02148 -0.0264733 -0.0285066 0.0361814 -0.0273304 -0.0263279 
0.0313948 -0.0204155 -0.028342 0.0408546 -0.0212048 -0.0290889 -0.0144807 -0.0118651 -0.0227711 
-0.0076695 -0.0167006 -0.0223267 0.0221448 -0.0147313 -0.022471 -0.00225962 -0.00225328 -0.0234723 
-0.00167075 -0.0096009 -0.0264686 0.00752012 -0.00568668 -0.0259571 0.0326825 -0.00722656 -0.0227545 
-0.0402418 0.00519756 -0.0223721 -0.030078 0.00347607 -0.0228419 -0.0101095 0.00414873 -0.0212132 
-0.00455919 0.0085013 -0.024786 0.00451815 0.00260977 -0.0286651 0.014716 0.00113866 -0.0254294 
0.0425544 0.00150874 -0.0225772 -0.0264543 0.0163865 -0.0246423 -0.0155153 0.0139116 -0.0254815 
-0.0048568 0.0192968 -0.0204721 0.0461441 0.0150133 -0.0228667 -0.045428 0.0248638 -0.0219282 
-0.0369503 0.0299011 -0.0292574 -0.0285196 0.0248372 -0.0238465 -0.0138851 0.0239033 -0.0256896 
0.00536375 0.0282799 -0.022746 -0.0331715 0.0302999 -0.0200624 -0.021908 0.0386557 -0.0235526 
0.0170144 0.0343314 -0.0264434 0.0286247 0.0367934 -0.0261004 -0.0322489 0.0438894 -0.0235538 
-0.0139343 0.0405556 -0.0290967 0.0075318 0.0427166 -0.0277666 0.0149699 0.0447681 -0.0202298 
0.0265854 0.0449526 -0.0205424 0.0457916 0.0404933 -0.0225787 -0.0209577 -0.0401763 -0.0198877 
-0.0287535 -0.0413679 -0.0164009 -0.00516571 -0.0444751 -0.0103556 0.0065109 -0.0454463 -0.0100648 
0.00762819 -0.0423309 -0.0181639 0.0250102 -0.0453285 -0.0173732 -0.0411478 -0.0317416 -0.0195777 
-0.0391695 -0.0373372 -0.0132058 -0.0218016 -0.0330397 -0.0159878 0.00067924 -0.0376439 -0.0180522 
0.0110644 -0.0302109 -0.0172486 0.0277153 -0.0348064 -0.0129702 0.0363275 -0.0305339 -0.0183131 
-0.0272539 -0.0235375 -0.0167093 0.00130004 -0.029319 -0.0135464 0.019097 -0.021946 -0.0125086 
0.0407835 -0.023877 -0.0136619 -0.0371268 -0.0152742 -0.0147371 -0.020387 -0.0186324 -0.0100165 
-0.0176932 -0.0195483 -0.0178103 0.00773453 -0.0160995 -0.0104387 0.0146952 -0.0119001 -0.0165926 
0.0263949 -0.0184124 -0.016396 -0.0459427 -0.00148443 -0.0135604 -0.0342569 -0.00485838 -0.0156122 
-0.00118971 -0.00342107 -0.0110464 0.0144786 -0.00274677 -0.0158713 0.0214314 -0.00712576 -0.0111708 
0.0276689 -0.00336575 -0.014156 0.0447911 -0.00816748 -0.0144751 -0.0192311 0.00236319 -0.0120223 
0.00636287 0.00657664 -0.0126011 0.0248196 0.00960159 -0.0190207 0.0201412 0.00428253 -0.011309 
-0.0361665 0.0177572 -0.0172973 -0.0272333 0.0152639 -0.0133027 -8.31688e-05 0.011364 -0.0118359 
0.00713636 0.0169764 -0.0149706 0.0317762 0.0180395 -0.0155552 -0.0457315 0.0237829 -0.012484 
-0.0389087 0.0292881 -0.0103706 -0.0266062 0.0266926 -0.0150486 -0.0162803 0.0240799 -0.0114091 
0.0279086 0.0257764 -0.010602 0.0226765 0.027876 -0.0170098 0.0344425 0.02532 -0.0199626 
0.0451003 0.0288248 -0.0177552 -0.0445784 0.0333212 -0.0189143 -0.0389515 0.0374841 -0.0125053 
-0.0194076 0.0340774 -0.0109909 -0.0145691 0.0325255 -0.019238 -0.00915003 0.0390421 -0.0161402 
-0.00500013 0.0314204 -0.0188481 0.0150988 0.0323981 -0.0109493 0.0139668 0.0370218 -0.0178576 
0.0450969 0.0324556 -0.0106948 -0.0458695 0.0443886 -0.0104344 -0.0208933 0.0425487 -0.0158803 
0.00448399 0.0405103 -0.0138562 0.0289139 0.04154 -0.0104192 -0.0407948 -0.0451005 -0.00325358 
-0.0147773 -0.0429818 -0.00788705 0.00372473 -0.0403302 -0.00413653 0.017874 -0.0406468 -0.00851631 
0.0399451 -0.0440751 -0.00353717 -0.0321142 -0.0391575 -0.00844904 -0.0238114 -0.0385375 -0.00297104 
-0.0136192 -0.0300584 -0.00478965 0.0149297 -0.0333036 -0.00429702 0.0266961 -0.0390333 -0.00517257 
0.0336639 -0.0381351 -0.00916384 -0.0356243 -0.022524 -0.00362971 -0.0257287 -0.0260497 -0.00683891 
-0.0128916 -0.0238726 -0.000144118 -0.00541132 -0.025832 -0.00164454 -0.000959327 -0.0202701 -0.00793864 
0.0224828 -0.0296704 -0.00565143 0.0377507 -0.0235343 -0.0058486 0.0338907 -0.0299384 -0.000858294 
0.0444822 -0.026372 -0.0005634 -0.0387322 -0.0119825 -0.00660879 -0.0104524 -0.0107263 -0.00808698 
0.00113721 -0.0124219 -0.00526704 0.0206996 -0.0116317 -0.00306936 0.0334267 -0.0115367 -0.00237258 
0.0393248 -0.0143379 -0.00738231 0.045909 -0.0179343 -0.00255524 -0.035232 -0.00443043 -0.00344746 
-0.0272841 -0.00330503 -0.00777115 -0.0174108 -0.00724325 -0.00221896 0.00589463 -0.00144432 -0.00865385 
0.0120216 -0.00950315 -0.00465084 0.0258063 -0.000274946 -0.00430543 0.0428862 -4.39099e-05 -0.00977887 
-0.0439284 0.00954419 -0.00760925 -0.0309742 0.00743989 -0.00797577 -0.0265035 0.00482342 -0.000738966 
-0.0107037 0.00281408 -0.0043108 -0.0123549 0.00894105 -0.00992252 -0.0185781 0.00479432 -0.00449155 
0.00489368 0.00413063 -0.00325732 0.0439895 0.00337526 -3.01874e-06 -0.0213883 0.0103527 -0.00948632 
-0.00938632 0.016501 -0.00695251 0.00329813 0.0138368 -0.00383067 0.0135243 0.0177931 -0.00524436 
0.0196376 0.0116778 -0.00852617 0.0347473 0.0193189 -0.00699128 0.0308725 0.0100507 -0.00409056 
-0.0384195 0.0201146 -0.00718736 -0.0332813 0.0279565 -0.00358079 -0.0043673 0.0270986 -0.00647213 
0.00261017 0.0227814 -0.0084795 0.00762414 0.0230127 -0.00153658 0.0240277 0.0209665 -0.00563423 
0.0373146 0.027649 -0.00176639 0.0439448 0.0230152 -0.00564422 -0.0430186 0.0303105 -0.00111995 
-0.045863 0.0382342 -0.0024709 -0.0343758 0.0359454 -0.00191768 -0.0227339 0.0373205 -0.00258984 
-0.0117586 0.0398837 -0.00303477 -0.00414406 0.0364306 -0.00906512 0.00597106 0.0388206 -0.00427081 
0.0041269 0.0320139 -0.00787442 0.0258631 0.0328588 -0.00749598 0.0337292 0.0398987 -0.000830817 
0.0415572 0.0373032 -0.00079786 -0.0387734 0.0439856 -0.00719088 -0.0305336 0.0432688 -0.00570037 
-0.0162354 0.0441691 -0.00871354 -0.00509856 0.0448977 -0.00909166 0.00865286 0.0460606 -0.00605951 
-0.045785 -0.0458768 0.00743685 -0.0354898 -0.0459973 0.00666301 0.0059043 -0.0417535 0.00692475 
0.0261504 -0.0413574 0.00280118 0.0448966 -0.0460962 0.00276331 -0.0451121 -0.0358079 0.000711286 
-0.0423867 -0.0389594 0.00740934 -0.0329604 -0.0390598 0.00319639 -0.020889 -0.035334 0.00945806 
-0.0130141 -0.0399818 0.00160388 -0.0135231 -0.0315179 0.00296635 -0.00376473 -0.0310881 0.00413189 
0.00265345 -0.0346624 0.00166149 0.0174739 -0.0385629 0.00367043 0.0271774 -0.0308205 0.00603635 
0.0413368 -0.0360421 9.43718e-05 -0.0426667 -0.0236807 0.00196022 -0.032467 -0.0298582 0.0022585 
-0.0214737 -0.0238647 0.00909347 -0.00926295 -0.0209361 0.00990227 0.00934032 -0.0281659 0.000984313 
0.0164217 -0.0284466 0.0064056 0.0232834 -0.0210441 0.00312368 0.0329024 -0.0221693 0.00271288 
-0.0383209 -0.0158806 0.00327519 -0.0275119 -0.0155149 0.00182865 -0.0159138 -0.016234 0.000820081 
-0.00565511 -0.01156 0.0062531 0.0120079 -0.0167176 0.00897038 0.0247891 -0.0150859 0.00932158 
-0.044961 -0.00572663 0.00960384 -0.0288023 -0.00814488 0.00507842 -0.022794 -0.00200934 0.00665021 
-0.0126627 -0.00698309 0.00551295 0.00231173 -0.00352956 0.000815746 0.00386989 -0.00701499 0.00845422 
0.0185713 -0.00101988 0.00303903 0.0132192 -0.000608873 0.0096951 0.0235869 -0.00799647 0.00366333 
0.0429134 -0.00822086 0.00485519 -0.0458319 0.00157255 0.00481339 -0.0303524 0.000726836 0.00642259 
-0.0147372 0.00075472 0.00551556 -0.00635227 0.00286844 0.00479956 0.00338428 0.00931215 0.00471415 
0.017582 0.00641842 0.00624699 0.0235713 0.00659974 7.07299e-05 0.0354376 0.00104914 0.00187276 
0.035754 0.00850718 0.00781359 0.0427594 0.00406152 0.00853573 -0.0393656 0.018985 0.00403376 
-0.0332011 0.0111849 0.0031391 -0.0319873 0.018537 0.000437933 -0.0245872 0.0110615 0.00384244 
-0.012242 0.0170598 0.00842597 -0.0127429 0.01295 0.000652 -0.00387191 0.0122414 0.00322245 
-0.00243936 0.017544 0.00944433 -0.00188384 0.0196729 6.97377e-05 0.0206603 0.0198321 0.00549225 
0.0387754 0.0159001 8.09352e-05 0.0443217 0.0189407 0.0068493 -0.0460366 0.025617 0.00732299 
-0.0233349 0.0245374 0.00046658 -0.00967698 0.0258787 0.00506653 -0.00307492 0.0286698 0.0017927 
0.0114565 0.0235684 0.00768014 0.0288247 0.0211524 0.00681409 0.0383306 0.0251079 0.00636774 
0.0452199 0.02965 0.00217537 -0.0442859 0.0389116 0.00657604 -0.0290854 0.0346879 0.00497877 
-0.0211586 0.0376656 0.00993802 -0.00195932 0.0330287 0.00927449 0.0150535 0.0338085 0.00887587 
0.0233035 0.0324882 0.00243251 0.0355702 0.0326595 0.00714545 -0.0423913 0.0455695 0.00109096 
-0.0377061 0.0444795 0.00832529 -0.0259404 0.0454973 0.00693311 -0.00143534 0.0429964 0.00444272 
0.00918934 0.045587 0.00350001 0.0287308 0.044935 0.00687787 0.0206341 0.0403416 0.00210729 
0.0455505 0.0409292 0.00557816 -0.0278014 -0.0453542 0.0168729 -0.0198548 -0.0455186 0.0155442 
-0.00704067 -0.0460119 0.0190919 0.0149038 -0.0433649 0.0150809 0.0359188 -0.040788 0.0103239 
-0.0360868 -0.034955 0.0144923 -0.0211319 -0.0360255 0.0171961 -0.029142 -0.0337318 0.0109553 
-0.011098 -0.0304556 0.0134124 -0.0137316 -0.0389675 0.0125199 -0.00205375 -0.0362218 0.0104974 
0.00167276 -0.0346469 0.0175271 0.0108178 -0.0309924 0.0190212 0.016127 -0.0339072 0.0141818 
0.0257444 -0.0370845 0.015517 0.0340901 -0.0339817 0.0181677 0.0416184 -0.0379466 0.017904 
-0.0455887 -0.0268462 0.0100058 -0.0417951 -0.0265101 0.0197979 -0.0331345 -0.0260236 0.0162238 
-0.0221325 -0.0253155 0.0194735 0.00155863 -0.0274561 0.0117057 0.0136799 -0.0214 0.0161712 
0.0280895 -0.0218578 0.0122152 0.0359152 -0.0237902 0.0138958 0.0457517 -0.0240674 0.0137078 
-0.0141477 -0.0184562 0.0160341 -0.016004 -0.0134116 0.0100171 -0.00905014 -0.0124199 0.0159641 
0.0026923 -0.0148057 0.0105585 0.0069534 -0.0170003 0.0172544 0.0232169 -0.0115268 0.0175453 
0.0381931 -0.0134477 0.0102818 -0.0437229 -0.00443996 0.018369 -0.0352149 -0.00618196 0.0180591 
-0.0265145 -0.00902058 0.0194618 -0.0123369 -0.0019472 0.0138012 -0.00314522 -0.00256246 0.0188259 
0.0169971 -0.00412763 0.015767 0.0369239 -0.00103088 0.0118238 -0.0236643 0.00340084 0.0122565 
-0.0299591 0.00189321 0.0190905 -0.00994037 0.00588991 0.0159698 0.00119574 0.00675818 0.0153849 
0.020749 0.00637876 0.0167269 0.0444885 0.000331469 0.0152555 0.0414927 0.00989703 0.0141634 
-0.0444917 0.0124327 0.0110881 -0.0351528 0.0174662 0.0171193 -0.0192191 0.0184031 0.0106704 
0.00531951 0.0143688 0.0118932 0.0228586 0.01925 0.0159061 0.025815 0.0130773 0.0118279 
-0.0327766 0.0265462 0.0136945 -0.0165502 0.0296359 0.0195023 -0.00528995 0.0214061 0.0174253 
0.0134601 0.0299299 0.0153613 0.0107262 0.0215831 0.019487 0.0190188 0.024902 0.0118426 
0.0299779 0.0265354 0.0144374 0.0381869 0.0201921 0.0154727 -0.0398435 0.0304335 0.0170062 
-0.0245392 0.0365581 0.0177376 0.00437445 0.0383909 0.0120529 0.0130208 0.0371524 0.0180723 
0.0297107 0.0357105 0.013404 0.0372604 0.0338577 0.0160666 -0.0376125 0.04351 0.019176 
-0.0234485 0.0459681 0.0148447 -0.0116503 0.0400358 0.0125143 0.0366204 0.0410596 0.0135136 
-0.0438574 -0.0427172 0.0216307 -0.0245241 -0.040426 0.026948 -0.0035819 -0.045071 0.0267872 
0.004276 -0.0456195 0.0214418 0.00964156 -0.0404229 0.0222664 0.0165879 -0.0404116 0.0299785 
0.0308611 -0.0449043 0.0266951 0.0340046 -0.0442189 0.0207706 0.0459283 -0.0416962 0.0278732 
-0.0330307 -0.0377483 0.0221047 -0.0393532 -0.0328157 0.0261273 -0.00885634 -0.0393495 0.0271067 
-0.00381737 -0.031209 0.0215586 7.60327e-05 -0.0373278 0.0271328 0.0155584 -0.0322655 0.0247748 
0.0380217 -0.0356495 0.0286506 -0.026133 -0.022745 0.0282057 -0.00354441 -0.0205243 0.023687 
0.00666293 -0.0244925 0.0263135 0.0188248 -0.024726 0.0218579 0.0373374 -0.0232749 0.0216221 
0.0401232 -0.0296064 0.0205051 0.0456678 -0.0209694 0.0211345 -0.0457196 -0.0190925 0.0244968 
-0.0334812 -0.0104257 0.0258404 -0.0307347 -0.0182527 0.0204406 -0.0251833 -0.014607 0.0249751 
-0.00671676 -0.0121218 0.0242793 0.0110764 -0.013562 0.0269844 0.0337391 -0.0164005 0.0205666 
-0.0426059 -0.00201508 0.0287406 -0.0158194 -0.00448219 0.0211745 0.00622994 -0.00162953 0.0200505 
0.0125315 -0.00542122 0.0234996 0.0366738 -0.00598518 0.0231156 0.0448004 -0.00395706 0.0294834 
-0.0432965 0.00518389 0.0204092 -0.0351806 0.00787934 0.0206826 -0.0353681 0.00465334 0.0290784 
-0.0228268 0.00222104 0.0229188 -0.00936072 0.00049196 0.0222654 0.0108188 0.00858297 0.0216496 
0.0187685 0.000923752 0.0273257 0.0342824 0.00468499 0.0233855 0.0442318 0.0031002 0.0241715 
-0.030385 0.0142436 0.0263217 -0.0238658 0.0117941 0.0224873 -0.015247 0.015875 0.0204505 
-0.015518 0.0115117 0.0291568 -0.00395549 0.0161519 0.0297362 0.00138296 0.0164127 0.0220856 
0.0338306 0.0131857 0.0207865 0.0449934 0.0180271 0.0205372 -0.0409738 0.022901 0.0222522 
-0.0323741 0.0256296 0.0203746 -0.0236447 0.0282411 0.0227159 -0.0186311 0.0263279 0.0271737 
-0.00549957 0.0295041 0.0230333 -0.0065446 0.0273618 0.0295151 0.00353662 0.0267033 0.0204696 
0.0201163 0.0207699 0.0237842 0.0231291 0.0278673 0.0250419 0.0356318 0.0244406 0.0211525 
0.0459075 0.0275219 0.0236419 -0.0315485 0.033482 0.0218436 0.00678065 0.0309608 0.0282078 
0.00257649 0.0345036 0.0215748 0.0216578 0.0356804 0.0204695 0.0441616 0.0346028 0.0212932 
-0.0451427 0.0430409 0.022609 -0.0313571 0.0456436 0.0274624 -0.0204953 0.0451125 0.029462 
-0.00910957 0.0449439 0.0224229 0.00681699 0.0436625 0.0253825 0.0153623 0.0460251 0.0253901 
0.0294524 0.0445129 0.0285578 -0.045769 -0.0454784 0.0323337 -0.0398982 -0.0419451 0.0320114 
-0.0259786 -0.0442722 0.0380654 -0.0119713 -0.0406988 0.0330373 0.00516364 -0.0424303 0.0363809 
0.0124767 -0.0460415 0.0322364 -0.0324202 -0.035297 0.0348472 -0.0263671 -0.0328935 0.0303745 
-0.0177901 -0.0308953 0.0347095 -0.00266989 -0.0300305 0.0325288 0.00826381 -0.0323394 0.0335873 
0.0245046 -0.0314033 0.0323778 0.0348521 -0.038517 0.0396701 0.0414309 -0.0302375 0.03495 
-0.0410915 -0.0249278 0.0314233 -0.0440571 -0.028783 0.0360211 -0.0293242 -0.0287189 0.0357432 
-0.00116078 -0.0213123 0.0368171 0.0176751 -0.0208599 0.0384534 0.013162 -0.0281422 0.0391139 
-0.0463235 -0.0102676 0.0345237 -0.00710733 -0.01747 0.0337643 0.0100002 -0.0103245 0.0345363 
0.0299745 -0.0146584 0.0357471 0.022505 -0.0136062 0.0306534 0.044365 -0.0188342 0.0336991 
-0.0326283 -0.00154618 0.0367561 -0.0230957 -0.00439166 0.0323193 -0.0150355 -0.00948546 0.0343559 
-0.00993665 -0.00486695 0.0384249 0.030145 -0.00272857 0.0348812 0.0416458 -0.00558325 0.0393027 
-0.0177587 0.00665953 0.0392801 -0.00723707 5.86075e-05 0.0323136 -0.00549869 0.00233539 0.0392511 
0.00387672 0.000985614 0.0365179 0.012106 0.00823504 0.0348405 0.0244663 0.00341705 0.0322836 
0.0402626 0.00584839 0.0317839 -0.031123 0.0141878 0.0342645 -0.0389168 0.0195053 0.0331892 
0.00321519 0.0101667 0.0308563 0.00861741 0.0197392 0.0301245 0.0153375 0.0189454 0.0327251 
0.0162742 0.0176346 0.0393147 0.0281978 0.0155143 0.0311603 0.0213766 0.0122113 0.0379314 
0.0325308 0.0108417 0.0344139 0.0387207 0.0155065 0.0304352 0.044823 0.0120518 0.0383513 
-0.0170049 0.0200712 0.0312194 -0.00893053 0.026081 0.0369731 0.00256065 0.0221725 0.0325778 
0.0455229 0.0222548 0.0314427 -0.0268103 0.0308033 0.0332026 -0.0281985 0.0383851 0.0315569 
-0.000380781 0.0312266 0.03707 0.00118296 0.0378037 0.0388296 0.0138531 0.0394518 0.0348866 
0.0196263 0.031125 0.033462 0.0254605 0.0352838 0.0305255 0.0380292 0.0380739 0.0325315 
-0.0380205 0.0415022 0.036157 -0.0124462 0.0443454 0.0377716 -0.00610741 0.0428033 0.0338684 
0.0415907 0.0451788 0.0362638 -0.0423602 -0.0431969 0.0406189 -0.0342607 -0.0446219 0.0459517 
-0.0181029 -0.0444617 0.0459978 -0.0116847 -0.0464825 0.0402595 -0.00204552 -0.0414691 0.0453757 
0.00910759 -0.0427172 0.0430411 0.0276868 -0.0446688 0.0449423 0.0415851 -0.0436898 0.0465277 
-0.0233464 -0.036593 0.0420916 -0.00867144 -0.0386056 0.0425086 -0.00448202 -0.0332229 0.0447223 
0.00447332 -0.0375205 0.0436276 0.0450723 -0.0323896 0.0444266 -0.0466971 -0.0233255 0.0454955 
-0.0208735 -0.0261466 0.0424356 -0.00467734 -0.0242559 0.0466153 0.00118872 -0.0270811 0.0408573 
0.018293 -0.0256935 0.0436998 0.0413227 -0.0234883 0.0461858 -0.0299275 -0.0179074 0.0407024 
-0.019977 -0.0154178 0.0428239 -0.00140879 -0.0149255 0.0452342 -0.00670012 -0.0127802 0.0414654 
0.019976 -0.0174492 0.0445873 0.0413124 -0.0116777 0.0463573 -0.0450663 -0.0070386 0.0467527 
-0.0386847 -0.000204918 0.0448512 -0.0280398 -0.00931137 0.0422935 -0.0103348 -0.00375885 0.0467997 
-0.019153 -0.00592355 0.0434547 -0.00285677 -0.0046946 0.0453289 0.0136896 -0.00886239 0.0428444 
0.0226761 -0.00337082 0.040896 0.0311768 -0.00810653 0.0454517 0.0115676 0.000878916 0.0405507 
0.0140686 0.00387193 0.0470915 0.0286806 0.000425442 0.0411741 0.0301459 0.00956211 0.0437376 
-0.0457081 0.0195919 0.0436494 -0.0217112 0.0118101 0.0418815 -0.00232526 0.0114821 0.046983 
0.0176485 0.0182174 0.046236 0.0254216 0.018379 0.0459843 0.0372748 0.0121156 0.0437257 
0.0451733 0.0166229 0.0469274 -0.0369581 0.0210809 0.043097 0.0080002 0.0285625 0.0400376 
0.00420953 0.0212095 0.0422267 0.0204706 0.0256629 0.0428422 0.0290454 0.0277766 0.0415438 
0.0365612 0.0292951 0.0423908 -0.0206249 0.0336712 0.0456209 -0.00618284 0.0376735 0.0431864 
0.0107852 0.0374627 0.0460672 0.0144374 0.033931 0.0414079 0.0202328 0.0343376 0.0458739 
-0.0261694 0.043187 0.0402064 -0.0231711 0.0447216 0.0460853 -0.0130645 0.0418463 0.0458936 
0.0132827 0.0450316 0.0449965 0.0332901 0.0431418 0.0407083 0.0414501 0.0433742 0.0447694 

gid 1 567 double
0 0 0 0 0 0 0 0 0 
0 0 0 0 0 0 0 0 0 
0 0 0 0 0 0 0 0 0 
0 0 0 0 0 0 0 0 0 
0 0 0 0 0 0 0 0 0 
0 0 0 0 0 0 0 0 0 
0 0 0 0 0 0 0 0 0 
0 0 0 0 0 0 0 0 0 
0 0 0 0 0 0 0 0 0 
0 0 0 0 0 0 0 0 0 
0 0 0 0 0 0 0 0 0 
0 0 0 0 0 0 0 0 0 
0 0 0 0 0 0 0 0 0 
0 0 0 0 0 0 0 0 0 
0 0 0 0 0 0 0 0 0 
0 0 0 0 0 0 0 0 0 
0 0 0 0 0 0 0 0 0 
0 0 0 0 0 0 0 0 0 
0 0 0 0 0 0 0 0 0 
0 0 0 0 0 0 0 0 0 
0 0 0 0 0 0 0 0 0 
0 0 0 0 0 0 0 0 0 
0 0 0 0 0 0 0 0 0 
0 0 0 0 0 0 0 0 0 
0 0 0 0 0 0 0 0 0 
0 0 0 0 0 0 0 0 0 
0 0 0 0 0 0 0 0 0 
0 0 0 0 0 0 0 0 0 
0 0 0 0 0 0 0 0 0 
0 0 0 0 0 0 0 0 0 
0 0 0 0 0 0 0 0 0 
0 0 0 0 0 0 0 0 0 
0 0 0 0 0 0 0 0 0 
0 0 0 0 0 0 0 0 0 
0 0 0 0 0 0 0 0 0 
0 0 0 0 0 0 0 0 0 
0 0 0 0 0 0 0 0 0 
0 0 0 0 0 0 0 0 0 
0 0 0 0 0 0 0 0 0 
0 0 0 0 0 0 0 0 0 
0 0 0 0 0 0 0 0 0 
0 0 0 0 0 0 0 0 0 
0 0 0 0 0 0 0 0 0 
0 0 0 0 0 0 0 0 0 
0 0 0 0 0 0 0 0 0 
0 0 0 0 0 0 0 0 0 
0 0 0 0 0 0 0 0 0 
0 0 0 0 0 0 0 0 0 
0 0 0 0 0 0 0 0 0 
0 0 0 0 0 0 0 0 0 
0 0 0 0 0 0 0 0 0 
0 0 0 0 0 0 0 0 0 
0 0 0 0 0 0 0 0 0 
0 0 0 0 0 0 0 0 0 
0 0 0 0 0 0 0 0 0 
0 0 0 0 0 0 0 0 0 
0 0 0 0 0 0 0 0 0 
0 0 0 0 0 0 0 0 0 
0 0 0 0 0 0 0 0 0 
0 0 0 0 0 0 0 0 0 
0 0 0 0 0 0 0 0 0 
0 0 0 0 0 0 0 0 0 
0 0 0 0 0 0 0 0 0 

a 3 567 double
0 0 0 0 0 0 0 0 0 
0 0 0 0 0 0 0 0 0 
0 0 0 0 0 0 0 0 0 
0 0 0 0 0 0 0 0 0 
0 0 0 0 0 0 0 0 0 
0 0 0 -0.593267 -43.3095 -9.58607 0.593267 43.3095 9.58607 
0 0 0 0 0 0 0 0 0 
0 0 0 0 0 0 0 0 0 
0 0 0 0 0 0 0 0 0 
0 0 0 0 0 0 0 0 0 
0 0 0 0 0 0 0 0 0 
0 0 0 0 0 0 -104.238 79.4209 68.6375 
104.238 -79.4209 -68.6375 0 0 0 0 0 0 
0 0 0 0 0 0 0 0 0 
0 0 0 0 0 0 -4.18298 21.3227 7.53632 
4.18298 -21.3227 -7.53632 0 0 0 0 0 0 
0 0 0 0 0 0 0 0 0 
0 0 0 0 0 0 0 0 0 
0 0 0 0 0 0 0 0 0 
0 0 0 -24.2067 0 0 0 0 0 
0 0 0 0 0 0 0 0 0 
0 0 0 0 0 0 0 0 0 
0 0 0 0 0 0 0 0 0 
0 0 0 0 0 0 0 0 0 
0 0 0 0 0 0 0.0233457 -3.91112 -2.28866 
0 0 0 0 0 0 0 0 0 
0 0 0 0 0 0 0 0 0 
0 0 0 -0.0233457 3.91112 2.28866 0 0 0 
0 0 0 -67.5831 47.1038 -38.2995 0 0 0 
0 0 0 0 0 0 0 0 0 
0 0 0 0 0 0 0 0 0 
0 0 0 0 0 0 0 0 0 
0 0 0 0 0 0 0 0 0 
-174.122 -33.7085 -42.0325 0 0 0 -62.9626 -46.3551 24.1296 
62.9626 46.3551 -24.1296 0 0 0 1.68351 -22.0291 -56.7749 
35.5259 -32.5526 -1.92443 0 0 0 -0.174879 -6.0487 -1.87034 
0 0 0 0 0 0 -35.5259 32.5526 1.92443 
0 0 0 0 0 0 0 0 0 
0 0 0 0 0 0 0 0 0 
15.0076 17.8875 -14.7814 0 0 0 0 0 0 
1.83732 -11.0848 -18.5297 0 0 0 0 0 0 
0 0 0 0 0 0 0 0 0 
0 0 0 0 0 0 0 0 0 
-1.83732 11.0848 18.5297 -55.6373 -1.31622 -19.4306 0 0 0 
0 0 0 0 0 0 0 0 0 
0 0 0 0 0 0 0 0 0 
0 0 0 0 0 0 0 0 0 
1.23382 -41.1524 -43.1376 0 0 0 0 0 0 
67.5831 -47.1038 38.2995 0 0 0 0 0 0 
-24.4372 50.3965 28.6317 24.4307 -7.97715 -2.58365 0 0 0 
0 0 0 0 0 0 0 0 0 
0 0 0 0 0 0 0 0 0 
0 0 0 0 0 0 0 0 0 
0 0 0 0 0 0 0 0 0 
0 0 0 0 0 0 183.544 -15.8995 3.06834 
0 0 0 0 0 0 0 0 0 
0 0 0 0 0 0 0 0 0 
0 0 0 0 0 0 21.5542 -40.1776 102.318 
-9.42182 49.608 38.9641 0 0 0 -23.2377 62.2067 -45.5433 
0 0 0 0 0 0 0 0 0 
0.174879 6.0487 1.87034 0 0 0 0 0 0 
0 0 0 0 0 0 0 0 0 
0 0 0 0 0 0 -15.0076 -17.8875 14.7814 
0 0 0 0 0 0 0 0 0 
0 0 0 0 0 0 0 0 0 
0 0 0 0 0 0 -6.90058 -32.9944 16.8136 
-1.98534 -7.70526 -5.16758 0 0 0 0 0 0 
0 0 0 55.6373 1.31622 19.4306 0 0 0 
0 0 0 0 0 0 8.88592 -2.51616 -11.646 
-11.8159 -18.2437 -0.00721021 1.22245 5.00887 -2.35278 0 0 0 
0 0 0 0 135.884 0 -28.0834 22.9795 -48.6291 
39.8993 -4.73582 48.6363 -1.22245 -5.00887 2.35278 2.6152 -1.60513 -108.293 
0 0 0 -1.22725 -1.267 17.0896 -27.2897 11.5634 11.9366 
27.2897 -11.5634 -11.9366 0 0 0 0 0 0 
0 0 0 0 0 0 0 0 0 
0 0 0 0 0 0 0 0 0 
0 0 0 0 0 0 0 0 0 
0 0 0 0 0 0 0 0 0 
0 0 0 0 0 0 0 0 0 
0 0 0 0 0 0 0.239767 -47.3658 -52.9246 
0 0 0 0 0 0 0 0 0 
0 0 0 -2.89506 1.7813 -4.14468 0 0 0 
0 0 0 0 0 0 0.788702 -0.206068 0.0875186 
0 0 0 0 0 0 0 0 0 
0 0 0 0 0 0 0 0 0 
0 0 0 -8.50004 24.0689 -33.2219 0 0 0 
-16.7063 -59.1492 26.2845 16.7063 59.1492 -26.2845 0 0 0 
319.929 -72.505 -146.932 0 0 0 0 0 0 
0 0 0 0 0 0 0 0 0 
0 0 0 0 0 0 82.1934 0 0 
0 0 0 0 0 0 0 0 0 
0 0 0 0 0 0 0 0 0 
0 0 0 0 0 0 0 0 0 
0 0 0 0 0 0 0 0 0 
0 0 0 0 0 0 0 0 0 
0 0 0 0 0 0 0 0 0 
0 0 0 0 0 0 0 0 0 
0 0 0 0 0 0 0 0 0 
0 241.538 0 0 0 0 0 0 0 
-19.2551 -4.85196 12.259 -2.6152 1.60513 108.293 19.2551 4.85196 -12.259 
0 0 0 0 0 0 0 0 0 
75.2388 -35.0172 -56.5627 -198.865 65.5516 210.892 198.865 -65.5516 -210.892 
0 0 0 -154.369 -100.272 -42.7356 0 0 0 
0 0 0 0 0 0 0 0 0 
0 0 0 0 0 0 0 0 0 
0 0 0 0 0 0 -46.3476 -114.305 -275.448 
-50.033 -54.9635 8.73146 0 0 0 50.033 54.9635 -8.73146 
0 0 0 0 0 0 0 0 0 
0 0 0 0 0 0 0 0 0 
0 0 0 0 0 0 200.82 -72.3765 -82.7519 
2.89506 -1.7813 4.14468 0 0 0 -1.02847 47.5718 52.837 
310.856 -423.456 -190.68 0 0 0 0 0 0 
0 0 0 8.50004 -24.0689 33.2219 0 0 0 
0 0 0 0 0 0 -319.929 72.505 146.932 
0 0 0 0 0 0 0 0 0 
-21.1985 249.283 -806.23 50.9064 14.1478 -18.6566 0 0 0 
42.0459 -516.605 -32.2327 0 0 0 0 0 0 
0 0 0 7.79272 -21.0523 -38.3922 0 0 0 
0 0 0 0 0 0 -42.0459 516.605 32.2327 
-63.5229 18.8963 -44.6915 63.5229 -18.8963 44.6915 0 0 0 
0 0 0 0 0 0 0 0 0 
0 0 0 0 0 0 87.6866 -107.379 8.66199 
-595.366 -532.923 -208.326 595.366 532.923 208.326 405.092 649.39 -436.167 
0 0 0 0 0 0 0 0 0 
0 0 0 0 0 0 -42.9256 132.611 -185.067 
-75.2388 35.0172 56.5627 0 0 0 0 0 0 
0 0 0 -24.9267 -122.256 78.4211 0 0 0 
0 0 0 0 0 0 419.039 -340.34 427.572 
255.504 -305.83 -81.2196 -215.806 114.305 275.448 0 0 0 
0 0 0 -12.6062 -5.45162 -13.8153 37.5329 127.707 -64.6058 
0 0 0 0 0 0 -520.174 746.442 -303.617 
0 0 0 0 0 0 0 0 0 
0 0 0 0 0 0 0 0 0 
0 0 0 -310.856 423.456 190.68 0 0 0 
0 0 0 -200.82 72.3765 82.7519 0 0 0 
-8.61286 -5.75092 -7.91109 0 0 0 0 0 0 
-96.8431 40.0281 75.143 96.8431 -40.0281 -75.143 0 0 0 
0 0 0 0 0 0 0 0 0 
0 0 0 0 0 0 0 0 0 
21.1985 -249.283 806.23 -288.8 54.4782 -374.78 154.935 98.3352 280.731 
-12.8477 501.288 -1362.67 59.2621 -489.764 1283.62 21.786 -94.0952 -10.2254 
-205.669 -416.931 -132.392 205.669 416.931 132.392 -7.79272 21.0523 38.3922 
-504.116 0 0 0 0 0 0 0 0 
-21.786 94.0952 10.2254 0 0 0 0 0 0 
0 0 0 0 0 0 0 0 0 
0 0 0 0 0 0 0 -59.4181 0 
0 0 0 -649.971 -424.135 -188.455 649.971 424.135 188.455 
0 0 0 -44.761 -25.2325 176.405 0 0 0 
-405.092 -649.39 436.167 -101.286 -187.68 -74.7361 0 0 0 
0 0 0 0 0 0 0 0 0 
0 0 0 0 0 0 0 0 0 
359.21 917.272 -1342.74 -359.21 -917.272 1342.74 101.286 187.68 74.7361 
17.9486 1104.42 -976.013 -125.153 -179.853 -245.081 0 0 0 
756.502 0 0 -419.599 268.876 -119.296 0 0 0 
0 0 0 0 0 0 0 0 0 
0 0 0 0 0 0 -6.90555 -7.71596 -4.86749 
6.90555 7.71596 4.86749 0 0 0 0 0 0 
848.683 -995.553 -158.835 -1.22418 -20.8884 -54.0778 1.22418 20.8884 54.0778 
-18.5674 1.94343 -14.9998 0 0 0 8.61286 5.75092 7.91109 
0 0 0 0 0 0 0 0 0 
0 0 0 -0.296445 -11.5472 -92.5647 -457.602 276.822 -2788.61 
115.706 186.233 2870.99 0 0 0 419.53 -482.621 -220.747 
0 0 0 0 0 0 0 0 0 
82.959 -166.961 112.706 -46.4144 -11.5239 79.0522 -79.3976 21.6739 40.1208 
0 0 0 2.51352 -29.6776 9.61391 -2.51352 29.6776 -9.61391 
-307.575 -816.878 -467.813 307.575 816.878 467.813 0 0 0 
0 0 0 0 0 0 0 0 0 
0 0 0 -270 77.2018 127.865 270 -77.2018 -127.865 
0 0 0 0 0 0 0 0 -870.598 
0 0 -24.424 0 648.369 0 56.2455 -20.7926 12.7734 
43.4038 -50.3824 -24.159 0 0 0 0 0 0 
0 0 0 -261.3 -197.137 -34.1804 205.055 217.929 21.407 
-43.4038 50.3824 24.159 0 0 0 2087.27 0 0 
0 0 0 0 0 -2160.67 401.65 -1373.3 1095.31 
0 0 0 0 0 -1791.55 0 0 0 
0 0 0 1417.16 -745.969 1598.09 -1417.16 745.969 -1598.09 
125.153 179.853 245.081 0 0 0 0 0 0 
0 0 0 0 0 0 0 0 -509.33 
0 0 0 0 0 0 0 0 0 
-480.177 -332.123 -217.878 0 0 0 15.5725 -4.98739 10.2172 
2.99496 3.04395 -2727.8 480.177 332.123 217.878 0 0 0 
-41.2797 -5.42677 12.5034 -848.683 995.553 158.835 0 0 -799.289 
2.05997 9.44009 -1025.26 0 0 -1960.37 0 0 0 
0 0 -704.329 41.2797 5.42677 -12.5034 93.3169 166.421 -92.4927 
-93.3169 -166.421 92.4927 0 0 0 -90.1887 -29.0792 -4.91183 
90.1887 29.0792 4.91183 0 0 -248.852 34.8969 -22.5945 -1.52095 
-1163.02 742.963 1023.43 532.732 -819.818 -1640.01 610.662 8.94971 272.331 
0 0 0 0 0 -2441.05 -34.8969 22.5945 1.52095 
19.6233 67.9055 -21.9371 0 0 0 0 0 0 

v 3 567 double
-0.438725 0.100329 -0.229315 0.0396051 -0.056233 0.140279 0.147859 0.0555765 0.191253 
-0.306943 -0.418006 0.0419394 0.104589 -0.443189 0.306803 -0.390465 0.29971 0.219898 
-0.021914 -0.2633 0.0742671 -0.194523 0.164527 0.158425 -0.120266 -0.287214 0.0195951 
-0.312868 -0.027653 0.129465 0.0356782 -0.13476 0.110444 -0.182402 -0.194704 0.177462 
0.0357026 0.043908 0.20581 0.235595 -0.0810181 0.210988 0.0353345 0.0599377 0.100849 
0.0271045 0.104928 0.0856234 -0.103369 -0.239207 0.164873 -0.0326288 -0.455151 0.263735 
0.0612985 -0.137943 0.141884 0.073914 -0.230636 0.315287 -0.13625 -0.152752 0.268634 
-0.506002 0.151662 0.304093 0.0791496 0.06693 0.291203 -0.0418665 0.116441 0.159062 
-0.0733834 0.034835 0.166339 0.0332263 0.400708 0.368266 0.0336683 -0.400778 0.450594 
-0.0358397 -0.235127 0.462207 -0.292271 0.200535 0.349453 -0.0528725 0.0789086 0.469941 
-0.197048 -0.0105871 0.573768 -0.144016 -0.0879868 0.28947 -0.0282252 -0.0182298 0.473311 
-0.342824 -0.00507677 0.440481 -0.341547 0.0738563 0.349605 -0.0289404 0.000771794 0.557972 
-0.122473 -0.23751 0.340313 -0.145764 0.0688217 0.281446 -0.108099 -0.195824 0.316002 
-0.169962 -0.27679 0.330582 -0.059162 -0.112792 0.341996 0.0393184 0.0729928 0.431801 
0.215153 -0.153682 0.513629 -0.124432 0.0739146 0.159029 0.194024 0.126216 0.451524 
-0.0739283 0.0758116 0.303561 0.0719351 -0.0495662 0.425258 0.0892127 0.0919914 0.325184 
-0.0102546 -0.105052 0.338654 0.25527 0.133277 0.232879 -0.0580078 0.0696688 0.433389 
-0.247733 -0.183948 0.365235 0.0250497 0.115594 0.306132 0.109463 0.0587686 0.392139 
-0.204842 -0.228132 0.384124 -0.158763 0.107095 0.424618 0.184169 0.314059 0.470874 
-0.0878283 0.0417624 0.580431 0.245002 -0.100048 0.382926 0.363258 -0.125064 0.442879 
-0.0498444 -0.443514 0.248266 -0.259011 0.136419 0.417489 -0.117396 0.178973 0.428261 
-0.300228 0.20719 0.464782 0.0250523 -0.067806 0.458282 -0.270792 -0.16685 0.443437 
-0.406787 -0.44824 0.432165 -0.215824 -0.106309 0.42256 -0.0641056 -0.138465 0.552138 
-0.271421 -0.271441 0.335455 -0.0494211 -0.207799 0.440891 -0.118592 -0.236718 0.495827 
-0.311028 0.015683 0.487378 0.104135 0.0119133 0.483219 0.0208716 -0.570966 0.249297 
0.060736 0.1386 0.409183 -0.0284805 0.329379 0.68788 -0.262053 0.122538 0.816807 
0.515695 0.194447 0.662395 -0.0338753 0.179491 0.493469 -0.0619944 -0.141654 0.603959 
-0.29702 -0.418946 0.582865 -0.073829 -0.130978 0.475019 -0.10911 0.0245152 0.441913 
-0.311163 0.0953763 0.63301 -0.133425 -0.142134 0.626559 -0.118956 -0.0641543 0.515447 
0.00616601 -0.0586073 0.68092 0.0956793 -0.140823 0.882515 -0.0349807 -0.0283862 0.78265 
-0.164902 -0.129728 0.58564 -0.0376219 -0.184184 0.676782 -0.100389 -0.382652 0.486922 
0.00249014 -0.203723 0.680933 -0.196978 0.216708 0.802802 -0.0749876 -0.0929134 0.528686 
-0.246759 0.113422 0.524335 -0.0894048 -0.0956062 0.746842 0.0368717 0.0789752 0.661955 
0.129919 -0.123882 0.616531 0.0669312 -0.0368489 0.460043 -0.106987 -0.0296987 0.911771 
0.0391004 -0.264684 0.611019 -0.0802075 -0.335666 0.640731 -0.30261 -0.00831382 0.640138 
0.201658 -0.00166178 0.532588 -0.114856 -0.0830544 0.548859 0.188514 0.0719192 0.638847 
-0.129251 -0.180192 0.691227 0.105291 0.238053 0.736295 -0.284085 0.0678238 0.698515 
0.152988 0.0547241 0.406571 0.00114971 -0.161796 0.631437 -0.233165 0.214368 0.693455 
-0.229269 -0.00076376 0.632939 0.307138 -0.0166612 0.477177 -0.148744 -0.116621 0.818767 
-0.114893 -0.0337334 0.566796 -0.0223761 0.0312697 0.469909 -0.0545684 0.0202712 0.564177 
-0.0389103 -0.320427 0.542045 0.217873 0.0243161 0.679308 -0.217959 0.0487123 0.761483 
0.0243653 0.223513 0.62946 -0.0957791 -0.0854127 0.583033 -0.246289 -0.180593 0.667352 
0.234293 0.0408407 0.529766 -0.138424 0.0252922 0.685976 0.0665172 0.193852 0.629679 
0.0409923 -0.359811 0.597721 0.0367746 0.0206006 0.611764 0.048476 -0.260951 0.418734 
-0.112061 0.0886092 0.481201 0.179349 -0.197606 0.643298 -0.186529 -0.230851 0.506857 
0.139275 0.00125385 0.698331 -0.176365 -0.0576171 0.87567 -0.171903 0.161883 0.810891 
0.10502 -0.115282 0.908583 -0.0799301 -0.13654 0.659173 -0.103906 0.147773 1.00215 
-0.364538 0.379772 0.832802 -0.0755132 -0.0991032 0.719744 0.0186529 -0.143563 0.813281 
-0.107968 0.0543034 0.755054 -0.0366902 0.035624 0.620256 0.25052 -0.198783 0.616263 
-0.0299256 -0.0527792 0.973498 -0.129529 0.0352972 0.86174 -0.259964 -0.092672 0.885564 
-0.246391 -0.0132331 0.71385 -0.0193663 -0.348793 0.792387 0.00164779 -0.130889 0.752625 
-0.0585038 -0.155029 0.842068 0.000995398 0.110542 0.700749 -0.20535 -0.0968382 0.616279 
0.190895 -0.00960619 0.773838 0.171576 0.213002 0.90399 0.128414 -0.0442162 0.607779 
0.128278 -0.29414 0.762586 -0.00753426 -0.071737 0.771297 0.239829 0.186423 0.843791 
0.171849 0.396956 0.752792 0.282378 -0.0997216 1.04407 0.126976 0.0194032 0.785229 
0.0365905 0.248145 0.663179 -0.168149 0.134542 0.738545 -0.0333694 -0.0617709 0.686801 
-0.0547719 0.100426 0.44478 0.0694071 0.362067 0.619684 -0.118379 -0.0270965 0.789081 
-0.424053 -0.172598 0.871719 0.0604172 -0.143808 0.797103 0.0435383 -0.144231 0.867845 
0.0685643 -0.0885535 0.805194 -0.0591169 -0.341391 1.18646 -0.207247 -0.0701114 0.504791 
-0.0464388 -0.0855096 0.717687 -0.238435 0.295823 0.734443 -0.0277627 0.0397301 0.730388 
0.0693247 -0.0792558 0.671498 -0.0299835 -0.0226287 0.729231 0.226385 -0.0681537 0.647565 
-0.203024 -0.145904 0.727711 -0.0931384 -0.109559 0.561574 0.274123 0.0192358 0.542736 
-0.100456 0.148144 0.668499 -0.18794 -0.137253 0.696435 -0.0227588 0.0298296 0.76354 
-0.0730572 -0.0745623 0.94937 -0.116358 -0.350911 0.634289 0.0674505 -0.00882063 0.795452 
0.056199 0.0392464 0.803708 0.0601193 0.104409 0.765259 0.187481 0.118136 0.730913 
0.0564898 0.061841 0.925741 -0.238511 -0.190886 0.704085 -0.199043 0.0738663 0.623644 
-0.196008 0.121325 0.726612 0.0945177 -0.013123 0.642168 -0.0388734 0.0664868 0.896416 
0.00525269 -0.0392469 0.87592 -0.157959 -0.159225 0.778632 -0.0927387 -0.00586316 0.743313 
0.0371391 -0.078758 0.639942 -0.182033 -0.370722 0.55194 0.458124 0.00116782 0.809738 
0.270503 0.182466 0.896783 0.0962355 -0.307591 1.00846 -0.0169893 -0.142227 1.25156 
0.172469 -0.0302953 0.850404 -0.0829861 0.0655641 0.887731 0.173936 -0.0572934 0.690872 
-0.220272 -0.147229 0.909378 0.212647 -0.0321775 0.866859 -0.0630136 -0.0930721 0.983427 
0.181688 -0.194147 0.908772 0.0238026 -0.0964272 0.64048 0.178402 0.10363 0.738112 
-0.190147 0.0487457 0.982509 0.00675846 0.0631521 0.822625 0.142332 0.312461 0.91235 
-0.158266 -0.0545445 0.897401 0.108617 0.0579253 1.11695 -0.135897 -0.036948 0.69626 
-0.293473 0.0266507 0.855167 -0.0867878 -0.200025 1.1568 -0.090946 -0.118571 0.889636 
-0.114318 0.0785773 0.956755 0.120673 0.0727315 1.02125 0.0485703 0.12461 0.88124 
-0.161726 0.0285207 0.601987 -0.00164518 -0.365224 0.648796 -0.0779934 -0.174255 0.844907 
0.0991988 -0.0224723 0.962173 -0.250114 -0.270768 1.11266 0.123314 0.146506 1.00672 
0.0642036 0.109115 0.93896 -0.0335583 -0.469742 0.994949 -0.0730032 -0.288795 0.933948 
0.00842952 0.423388 0.685636 0.136465 0.0704642 0.878131 0.0344743 0.176407 1.08313 
-0.031673 0.0323658 1.01471 0.194665 0.242305 1.0295 -0.0207643 0.261402 0.823416 
0.303609 -0.152301 0.881687 -0.1251 0.109813 0.786046 -0.0944976 -0.0140927 1.15381 
-0.0351992 -0.0151552 0.64576 0.162091 0.0177036 0.689416 -0.171074 0.108313 0.935906 
-0.0473081 0.227805 1.07937 -0.275566 0.0607697 1.00126 -0.111709 -0.0854829 0.910779 
0.0473352 0.006384 0.931155 -0.154902 0.062106 1.0867 -0.00728739 -0.11562 0.884067 
0.068607 0.0480718 0.773088 -0.142185 0.314311 0.842387 -0.086001 -0.252679 0.836489 
0.273955 -0.031306 0.999238 -0.207584 0.0979307 0.825038 -0.138648 -0.17927 0.990329 
-0.169107 -0.162748 1.05504 0.0190875 -0.161464 0.956171 -0.162409 0.145303 0.828423 
0.0708629 0.0737768 0.799603 -0.0933561 -0.267555 1.08785 0.12145 0.0471067 0.945654 
-0.130576 0.109945 0.696912 0.138034 0.13776 0.591502 -0.0479258 -0.135159 0.80987 
-0.237718 0.342354 0.982742 -0.0943632 0.106202 0.906888 0.035226 0.144999 0.967928 
0.00397286 -0.245133 0.752406 -0.0993093 0.175162 0.939951 0.031483 -0.0622437 0.786316 
-0.268402 -0.137099 0.975835 -0.340954 0.16292 0.863291 -0.223475 -0.102354 1.06536 
-0.0731085 0.0165501 0.768654 -0.130182 0.00367039 0.871067 0.0886057 -0.083069 0.776 
-0.203155 -0.29409 1.10462 0.0201568 0.0300174 1.04435 -0.146082 -0.048806 0.892438 
0.258226 0.133135 0.745752 -0.265164 -0.141806 1.02496 0.0331037 -0.268072 1.24977 
-0.0582645 -0.231575 0.774093 0.0659583 0.127286 1.18333 0.0378308 0.0241686 1.14325 
0.122794 0.382417 1.09794 -0.157888 0.237761 0.877974 -0.182842 -0.16632 0.80189 
0.0233525 0.298794 1.02439 -0.0667884 -0.159981 0.948879 0.0195708 0.216961 1.16258 
-0.0875631 -0.0291743 0.905652 -0.11814 -0.0637472 1.22497 0.247643 0.0975166 0.869566 
-0.0129082 -0.0595731 1.14244 -0.347459 1.3486 0.437493 -0.0260292 0.188865 0.812192 
-0.121268 0.0341779 0.983004 -0.261055 -0.0182496 0.583099 0.129167 -0.176061 1.01523 
0.0314704 -0.0445018 1.1434 -0.318048 0.150192 1.14737 -0.0821928 -0.170466 1.2021 
0.00748544 -0.137974 1.16192 -0.226112 -0.191637 1.24515 -0.245108 0.0791386 1.17179 
0.0877298 0.124611 0.970992 0.172023 -0.0670448 1.12911 -0.185944 -0.04451 0.00371928 
-0.0658352 0.220492 0.692368 -0.167846 0.0171193 0.895841 -0.0178551 0.391956 0.907071 
0.183805 0.167739 1.02737 0.0609141 0.433318 0.924891 -0.157723 0.0340627 1.19614 
-0.131876 -0.032483 1.15937 0.178265 0.215954 1.2229 -0.103615 -0.0977307 1.27935 
0.0139568 -0.187439 1.3818 -0.0409974 0.140454 1.01784 0.0385867 -0.293218 0.879098 
-0.0527686 -0.134879 0.969325 0.0490045 -0.203736 1.03972 -0.118557 -0.277259 0.922491 
0.239912 -1.41933 0.513435 -0.118408 0.0561912 1.0424 0.182155 0.0646512 1.05315 
-0.217131 0.417169 0.906518 -0.120057 0.334444 1.21068 -0.179564 -0.35659 0.839835 
-0.137425 0.497064 0.877716 -0.20429 -0.211468 1.10018 0.327341 -0.116428 0.68013 
-0.15109 0.262919 0.930496 -0.250129 -0.0177906 0.996905 -0.0987741 0.166169 1.16357 
0.0173156 0.106505 0.636019 -0.159675 0.0961692 1.01902 -0.105068 -0.0704448 1.0462 
-0.331413 0.291515 -1.79804 -0.399868 -0.279242 1.01454 0.0368818 -0.0605173 1.21615 
-0.0875626 0.035827 0.867535 -0.0413508 -0.120731 0.873978 0.149803 -0.325582 0.982787 
-0.0623733 0.288115 0.965613 -0.248435 0.279174 0.824428 -0.124683 0.2168 1.25088 
-0.110609 0.1542 0.660019 1.78368 0.0957786 -1.41121 0.033694 -0.059937 1.01602 
0.0274806 0.293649 1.09099 -0.0495489 -0.126109 0.953947 -0.0733618 -0.108154 0.912927 
0.0232244 -0.0547526 1.53786 -0.119473 -0.0651578 1.44708 0.0605732 0.135241 0.842243 
-0.871897 -1.04996 0.699288 -0.406773 -0.344339 0.0886849 0.738649 0.118957 0.209165 
0.813259 -0.128813 -1.80986 0.245305 -0.451221 1.03956 0.448281 0.336742 1.26705 
-0.29061 -0.106077 1.2407 -0.0445056 0.197922 1.61721 -0.123106 0.0839535 1.10347 
0.315698 -0.0612239 0.878964 0.271519 0.0475127 1.301 -0.423741 -0.0275367 -1.42652 
-0.0816436 0.143137 0.94583 0.434122 -1.30399 -0.594363 -0.106184 0.442435 1.06184 
-0.0615322 0.314654 1.20892 -0.0133446 0.15393 1.20424 -0.856323 -1.19359 -0.458085 
0.0777871 -0.00606699 0.635279 -1.17399 0.374504 0.982267 -0.201883 -0.631488 -0.609306 
0.669001 0.0756862 1.04273 -0.26321 -0.0639102 1.06529 0.217142 1.56987 -0.17567 
0.0334546 0.206234 1.05823 0.179034 0.00275162 1.1758 -0.907691 0.9288 0.758511 
-0.130249 -0.398769 1.15894 0.189642 0.184664 1.07303 0.0183524 -0.19393 1.01453 
0.143531 0.261228 0.954535 0.0762982 0.114338 1.06533 -0.197732 0.43452 1.19414 
-0.00731891 0.390987 1.25216 -1.30662 -0.377956 -0.0609201 -0.375791 -0.102088 1.27109 
-0.0366413 -0.0594704 1.28468 0.211464 0.0950506 1.29383 -0.28403 0.208556 1.21917 
0.176086 0.31849 1.19924 0.237265 -0.0685276 1.11769 -0.351128 0.320168 1.20699 
0.105387 -0.248137 0.622927 0.640903 -0.369392 0.707383 -0.117497 -0.0629638 1.30776 
-0.333769 -0.0482296 0.881745 -0.544658 -0.97849 0.494595 0.0221718 -0.102871 1.39249 
-0.108357 0.163502 1.12767 -0.0506605 0.0235517 1.24106 -0.644367 -0.418014 1.0554 
0.161777 1.16614 -0.105772 -0.31481 0.270205 1.03784 0.984474 -0.693578 -1.90106 
-0.127185 0.440628 0.33061 -1.01218 0.573601 0.491037 -0.0951778 -0.00337276 1.20026 
-0.214351 -0.588413 0.976341 -0.0230619 0.324418 0.737875 -1.15151 0.151703 -0.753447 
-0.859917 0.520664 -0.123201 -0.383289 0.165676 1.25403 -0.00597686 0.136439 1.17408 
0.0159964 0.314062 1.29099 0.067336 0.0810169 1.15377 0.0382881 -0.142795 1.11525 
0.0239861 -0.099661 1.09548 0.0558553 -0.108028 1.31308 0.194476 -0.203673 1.54736 
0.073905 0.148524 0.948047 0.139349 -0.197783 1.39341 -0.0899849 -0.108986 1.16111 
0.27057 0.0202501 1.3294 -0.585951 -0.144745 1.22572 -0.950705 -0.757647 -1.42978 
0.0871784 -0.327528 1.42588 -1.12427 -0.0906731 -1.5307 -0.0731865 -0.114447 1.47925 
-0.216747 -0.36203 -1.13415 0.243555 0.0662862 0.626745 -0.0835618 -0.114068 1.44618 
-0.907467 0.463047 1.17361 -0.313713 -0.253837 0.905207 -0.411912 -0.509277 1.20051 
-0.143261 -0.616593 -0.649836 1.63655 -0.393515 0.591139 0.468424 0.223662 1.70533 
0.424706 0.0589695 0.698071 -1.40695 -0.0784567 -0.377648 -0.325936 -0.108794 -1.24612 
0.903 0.758396 0.227003 -0.0429967 0.442055 1.05706 -1.789 0.219961 1.20011 
0.14383 1.19688 0.725633 0.547937 0.756142 -1.08101 -0.272669 0.26828 1.23014 
-0.124029 0.740937 -1.02806 0.301595 -0.253315 1.5145 2.15644 0.494686 -1.10863 
0.126055 -0.0284497 1.6015 0.0806286 0.63961 1.1027 0.179203 0.0154748 1.07619 
0.360688 -0.322915 1.44241 0.455273 0.515158 1.44277 0.2384 -0.60152 1.1017 
-0.804067 0.332566 -0.854755 -0.240161 0.378549 1.40913 1.37097 -0.393663 0.486596 
-0.820446 0.169304 0.661622 0.267269 -0.527762 0.876429 0.418741 -0.278615 1.26256 
0.297734 -0.0276667 1.02505 0.725716 0.780586 -1.78376 -0.133363 -0.154442 1.60596 
0.278792 -0.0750773 1.33248 -0.180214 0.0954477 1.2135 -0.511623 0.253884 -0.789037 
-0.573909 -0.00754915 0.651847 -0.188528 -0.128692 1.29229 0.170141 -0.386509 1.25547 
-1.37696 1.54261 -0.43544 -0.289507 -0.178058 1.37225 1.41049 0.475978 -0.107052 
-0.158349 -1.00154 -1.94271 0.644809 0.257001 1.47817 1.49749 -0.0316749 0.148348 
0.932408 -0.465954 1.3946 0.312668 -0.0414101 1.16255 -0.0950829 -0.0660414 1.61567 
-0.558253 -0.664773 1.17142 -1.40372 0.0676123 -0.8747 0.346728 -0.198586 1.35136 
0.499564 0.603108 0.909986 -0.310379 0.701945 1.14175 0.0892265 0.473106 1.10835 
0.368529 -0.160405 1.30334 0.102938 0.0721454 1.59704 0.0555924 0.168848 1.3422 
-0.28671 -0.0212314 1.64113 1.44781 0.414882 -1.13894 1.33034 0.540737 -1.03596 
0.344503 1.53169 -0.0960478 1.38621 -0.287293 -0.832748 0.801621 -0.13138 -0.706228 
-1.09833 1.01414 1.19182 0.231265 -0.162638 1.23461 0.278966 -0.0196179 1.60753 
0.0346335 0.0992922 1.60538 1.45455 -0.0976415 -1.73018 -0.0910492 -0.664689 0.195562 
-0.217353 -0.215657 -1.55908 0.495331 -0.0326549 1.44831 0.135155 0.0704086 0.933232 
0.0457457 -0.31416 1.50751 -1.0781 -1.14704 -0.347395 1.58829 -0.63937 1.03979 
-0.278204 -0.50465 -1.94747 -0.268939 -0.437695 -1.08151 -0.986677 0.3666 -0.614667 
0.327043 0.681423 0.145271 0.439579 -0.0916991 -0.287122 -1.23973 0.068335 0.305742 
-0.464972 -0.109457 1.08937 0.576142 -0.559873 1.23213 0.0441604 -0.183493 1.85599 
-0.444181 -0.848917 -1.4702 1.42664 0.87583 1.15079 0.502193 0.00204972 1.10328 
-0.557743 -0.515823 -1.41687 -0.738282 -0.428245 1.34329 -0.273442 -0.527793 1.6406 
-0.28421 -0.0515167 1.39952 -0.999938 -0.821943 -0.956502 1.57632 0.710233 0.122865 
0.20419 -0.145335 0.397859 -0.0791957 -0.390256 -1.802 0.769043 -0.259921 -1.84466 
-0.961105 -0.281601 -0.980932 -0.186626 0.252141 1.36143 -0.271142 -0.0343217 1.26899 
0.515437 0.140429 -0.650195 -0.163005 -0.0357886 -1.60605 -1.25391 0.171006 0.187741 
-0.127836 0.087658 1.22054 1.51703 0.467136 0.888164 0.510261 1.14457 0.623434 
-0.3596 -1.05541 -0.23042 -0.0524656 -0.240417 1.38844 0.495134 0.329885 1.31926 
0.355637 -0.077264 1.48684 0.414031 0.420864 -1.25993 0.179416 -0.153265 -1.7132 
-0.0137309 -0.257547 0.362298 -0.50441 -0.618735 -0.521284 0.282902 -0.0779597 -0.845446 
-0.303921 0.340162 1.39265 0.441656 -0.0801425 -1.62778 -0.505329 -0.0939574 1.58636 
0.76988 0.192899 1.33844 0.0199041 0.20823 1.39565 0.186243 -0.118895 -1.80839 

om 3 567 double
0 0 0 0 0 0 0 0 0 
0 0 0 0 0 0 0 0 0 
0 0 0 0 0 0 0 0 0 
0 0 0 0 0 0 0 0 0 
0 0 0 0 0 0 0 0 0 
0 0 0 0 0 0 0 0 0 
0 0 0 0 0 0 0 0 0 
0 0 0 0 0 0 0 0 0 
0 0 0 0 0 0 0 0 0 
0 0 0 0 0 0 0 0 0 
0 0 0 0 0 0 0 0 0 
0 0 0 0 0 0 0 0 0 
0 0 0 0 0 0 0 0 0 
0 0 0 0 0 0 0 0 0 
0 0 0 0 0 0 0 0 0 
0 0 0 0 0 0 0 0 0 
0 0 0 0 0 0 0 0 0 
0 0 0 0 0 0 0 0 0 
0 0 0 0 0 0 0 0 0 
0 0 0 0 0 0 0 0 0 
0 0 0 0 0 0 0 0 0 
0 0 0 0 0 0 0 0 0 
0 0 0 0 0 0 0 0 0 
0 0 0 0 0 0 0 0 0 
0 0 0 0 0 0 0 0 0 
0 0 0 0 0 0 0 0 0 
0 0 0 0 0 0 0 0 0 
0 0 0 0 0 0 0 0 0 
0 0 0 0 0 0 0 0 0 
0 0 0 0 0 0 0 0 0 
0 0 0 0 0 0 0 0 0 
0 0 0 0 0 0 0 0 0 
0 0 0 0 0 0 0 0 0 
0 0 0 0 0 0 0 0 0 
0 0 0 0 0 0 0 0 0 
0 0 0 0 0 0 0 0 0 
0 0 0 0 0 0 0 0 0 
0 0 0 0 0 0 0 0 0 
0 0 0 0 0 0 0 0 0 
0 0 0 0 0 0 0 0 0 
0 0 0 0 0 0 0 0 0 
0 0 0 0 0 0 0 0 0 
0 0 0 0 0 0 0 0 0 
0 0 0 0 0 0 0 0 0 
0 0 0 0 0 0 0 0 0 
0 0 0 0 0 0 0 0 0 
0 0 0 0 0 0 0 0 0 
0 0 0 0 0 0 0 0 0 
0 0 0 0 0 0 0 0 0 
0 0 0 0 0 0 0 0 0 
0 0 0 0 0 0 0 0 0 
0 0 0 0 0 0 0 0 0 
0 0 0 0 0 0 0 0 0 
0 0 0 0 0 0 0 0 0 
0 0 0 0 0 0 0 0 0 
0 0 0 0 0 0 0 0 0 
0 0 0 0 0 0 0 0 0 
0 0 0 0 0 0 0 0 0 
0 0 0 0 0 0 0 0 0 
0 0 0 0 0 0 0 0 0 
0 0 0 0 0 0 0 0 0 
0 0 0 0 0 0 0 0 0 
0 0 0 0 0 0 0 0 0 
0 0 0 0 0 0 0 0 0 
0 0 0 0 0 0 0 0 0 
0 0 0 0 0 0 0 0 0 
0 0 0 0 0 0 0 0 0 
0 0 0 0 0 0 0 0 0 
0 0 0 0 0 0 0 0 0 
0 0 0 0 0 0 0 0 0 
0 0 0 0 0 0 0 0 0 
0 0 0 0 0 0 0 0 0 
0 0 0 0 0 0 0 0 0 
0 0 0 0 0 0 0 0 0 
0 0 0 0 0 0 0 0 0 
0 0 0 0 0 0 0 0 0 
0 0 0 0 0 0 0 0 0 
0 0 0 0 0 0 0 0 0 
0 0 0 0 0 0 0 0 0 
0 0 0 0 0 0 0 0 0 
0 0 0 0 0 0 0 0 0 
0 0 0 0 0 0 0 0 0 
0 0 0 0 0 0 0 0 0 
0 0 0 0 0 0 0 0 0 
0 0 0 0 0 0 0 0 0 
0 0 0 0 0 0 0 0 0 
0 0 0 0 0 0 0 0 0 
0 0 0 0 0 0 0 0 0 
0 0 0 0 0 0 0 0 0 
0 0 0 0 0 0 0 0 0 
0 0 0 0 0 0 0 0 0 
0 0 0 0 0 0 0 0 0 
0 0 0 0 0 0 0 0 0 
0 0 0 0 0 0 0 0 0 
0 0 0 0 0 0 0 0 0 
0 0 0 0 0 0 0 0 0 
0 0 0 0 0 0 0 0 0 
0 0 0 0 0 0 0 0 0 
0 0 0 0 0 0 0 0 0 
0 0 0 0 0 0 0 0 0 
0 0 0 0 0 0 0 0 0 
0 0 0 0 0 0 0 0 0 
0 0 0 0 0 0 0 0 0 
0 0 0 0 0 0 0 0 0 
0 0 0 0 0 0 0 0 0 
0 0 0 0 0 0 0 0 0 
0 0 0 0 0 0 0 0 0 
0 0 0 0 0 0 0 0 0 
0 0 0 0 0 0 0 0 0 
0 0 0 0 0 0 0 0 0 
0 0 0 0 0 0 0 0 0 
0 0 0 0 0 0 0 0 0 
0 0 0 0 0 0 0 0 0 
0 0 0 0 0 0 0 0 0 
0 0 0 0 0 0 0 0 0 
0 0 0 0 0 0 0 0 0 
0 0 0 0 0 0 0 0 0 
0 0 0 0 0 0 0 0 0 
0 0 0 0 0 0 0 0 0 
0 0 0 0 0 0 0 0 0 
0 0 0 0 0 0 0 0 0 
0 0 0 0 0 0 0 0 0 
0 0 0 0 0 0 0 0 0 
0 0 0 0 0 0 0 0 0 
0 0 0 0 0 0 0 0 0 
0 0 0 0 0 0 0 0 0 
0 0 0 0 0 0 0 0 0 
0 0 0 0 0 0 0 0 0 
0 0 0 0 0 0 0 0 0 
0 0 0 0 0 0 0 0 0 
0 0 0 0 0 0 0 0 0 
0 0 0 0 0 0 0 0 0 
0 0 0 0 0 0 0 0 0 
0 0 0 0 0 0 0 0 0 
0 0 0 0 0 0 0 0 0 
0 0 0 0 0 0 0 0 0 
0 0 0 0 0 0 0 0 0 
0 0 0 0 0 0 0 0 0 
0 0 0 0 0 0 0 0 0 
0 0 0 0 0 0 0 0 0 
0 0 0 0 0 0 0 0 0 
0 0 0 0 0 0 0 0 0 
0 0 0 0 0 0 0 0 0 
0 0 0 0 0 0 0 0 0 
0 0 0 0 0 0 0 0 0 
0 0 0 0 0 0 0 0 0 
0 0 0 0 0 0 0 0 0 
0 0 0 0 0 0 0 0 0 
0 0 0 0 0 0 0 0 0 
0 0 0 0 0 0 0 0 0 
0 0 0 0 0 0 0 0 0 
0 0 0 0 0 0 0 0 0 
0 0 0 0 0 0 0 0 0 
0 0 0 0 0 0 0 0 0 
0 0 0 0 0 0 0 0 0 
0 0 0 0 0 0 0 0 0 
0 0 0 0 0 0 0 0 0 
0 0 0 0 0 0 0 0 0 
0 0 0 0 0 0 0 0 0 
0 0 0 0 0 0 0 0 0 
0 0 0 0 0 0 0 0 0 
0 0 0 0 0 0 0 0 0 
0 0 0 0 0 0 0 0 0 
0 0 0 0 0 0 0 0 0 
0 0 0 0 0 0 0 0 0 
0 0 0 0 0 0 0 0 0 
0 0 0 0 0 0 0 0 0 
0 0 0 0 0 0 0 0 0 
0 0 0 0 0 0 0 0 0 
0 0 0 0 0 0 0 0 0 
0 0 0 0 0 0 0 0 0 
0 0 0 0 0 0 0 0 0 
0 0 0 0 0 0 0 0 0 
0 0 0 0 0 0 0 0 0 
0 0 0 0 0 0 0 0 0 
0 0 0 0 0 0 0 0 0 
0 0 0 0 0 0 0 0 0 
0 0 0 0 0 0 0 0 0 
0 0 0 0 0 0 0 0 0 
0 0 0 0 0 0 0 0 0 
0 0 0 0 0 0 0 0 0 
0 0 0 0 0 0 0 0 0 
0 0 0 0 0 0 0 0 0 
0 0 0 0 0 0 0 0 0 
0 0 0 0 0 0 0 0 0 
0 0 0 0 0 0 0 0 0 
0 0 0 0 0 0 0 0 0 
0 0 0 0 0 0 0 0 0 
0 0 0 0 0 0 0 0 0 

bottom 1 567 double
-0.058996 -0.058996 -0.058996 -0.058996 -0.058996 -0.058996 -0.058996 -0.058996 -0.058996 
-0.058996 -0.058996 -0.058996 -0.058996 -0.058996 -0.058996 -0.058996 -0.058996 -0.058996 
-0.058996 -0.058996 -0.058996 -0.058996 -0.058996 -0.058996 -0.058996 -0.058996 -0.058996 
-0.058996 -0.058996 -0.058996 -0.058996 -0.058996 -0.058996 -0.058996 -0.058996 -0.058996 
-0.058996 -0.058996 -0.058996 -0.058996 -0.058996 -0.058996 -0.058996 -0.058996 -0.058996 
-0.058996 -0.058996 -0.058996 -0.058996 -0.058996 -0.058996 -0.058996 -0.058996 -0.058996 
-0.058996 -0.058996 -0.058996 -0.058996 -0.058996 -0.058996 -0.058996 -0.058996 -0.058996 
-0.058996 -0.058996 -0.058996 -0.058996 -0.058996 -0.058996 -0.058996 -0.058996 -0.058996 
-0.058996 -0.058996 -0.058996 -0.058996 -0.058996 -0.058996 -0.058996 -0.058996 -0.058996 
-0.058996 -0.058996 -0.058996 -0.058996 -0.058996 -0.058996 -0.058996 -0.058996 -0.058996 
-0.058996 -0.058996 -0.058996 -0.058996 -0.058996 -0.058996 -0.058996 -0.058996 -0.058996 
-0.058996 -0.058996 -0.058996 -0.058996 -0.058996 -0.058996 -0.058996 -0.058996 -0.058996 
-0.058996 -0.058996 -0.058996 -0.058996 -0.058996 -0.058996 -0.058996 -0.058996 -0.058996 
-0.058996 -0.058996 -0.058996 -0.058996 -0.058996 -0.058996 -0.058996 -0.058996 -0.058996 
-0.058996 -0.058996 -0.058996 -0.058996 -0.058996 -0.058996 -0.058996 -0.058996 -0.058996 
-0.058996 -0.058996 -0.058996 -0.058996 -0.058996 -0.058996 -0.058996 -0.058996 -0.058996 
-0.058996 -0.058996 -0.058996 -0.058996 -0.058996 -0.058996 -0.058996 -0.058996 -0.058996 
-0.058996 -0.058996 -0.058996 -0.058996 -0.058996 -0.058996 -0.058996 -0.058996 -0.058996 
-0.058996 -0.058996 -0.058996 -0.058996 -0.058996 -0.058996 -0.058996 -0.058996 -0.058996 
-0.058996 -0.058996 -0.058996 -0.058996 -0.058996 -0.058996 -0.058996 -0.058996 -0.058996 
-0.058996 -0.058996 -0.058996 -0.058996 -0.058996 -0.058996 -0.058996 -0.058996 -0.058996 
-0.058996 -0.058996 -0.058996 -0.058996 -0.058996 -0.058996 -0.058996 -0.058996 -0.058996 
-0.058996 -0.058996 -0.058996 -0.058996 -0.058996 -0.058996 -0.058996 -0.058996 -0.058996 
-0.058996 -0.058996 -0.058996 -0.058996 -0.058996 -0.058996 -0.058996 -0.058996 -0.058996 
-0.058996 -0.058996 -0.058996 -0.058996 -0.058996 -0.058996 -0.058996 -0.058996 -0.058996 
-0.058996 -0.058996 -0.058996 -0.058996 -0.058996 -0.058996 -0.058996 -0.058996 -0.058996 
-0.058996 -0.058996 -0.058996 -0.058996 -0.058996 -0.058996 -0.058996 -0.058996 -0.058996 
-0.058996 -0.058996 -0.058996 -0.058996 -0.058996 -0.058996 -0.058996 -0.058996 -0.058996 
-0.058996 -0.058996 -0.058996 -0.058996 -0.058996 -0.058996 -0.058996 -0.058996 -0.058996 
-0.058996 -0.058996 -0.058996 -0.058996 -0.058996 -0.058996 -0.058996 -0.058996 -0.058996 
-0.058996 -0.058996 -0.058996 -0.058996 -0.058996 -0.058996 -0.058996 -0.058996 -0.058996 
-0.058996 -0.058996 -0.058996 -0.058996 -0.058996 -0.058996 -0.058996 -0.058996 -0.058996 
-0.058996 -0.058996 -0.058996 -0.058996 -0.058996 -0.058996 -0.058996 -0.058996 -0.058996 
-0.058996 -0.058996 -0.058996 -0.058996 -0.058996 -0.058996 -0.058996 -0.058996 -0.058996 
-0.058996 -0.058996 -0.058996 -0.058996 -0.058996 -0.058996 -0.058996 -0.058996 -0.058996 
-0.058996 -0.058996 -0.058996 -0.058996 -0.058996 -0.058996 -0.058996 -0.058996 -0.058996 
-0.058996 -0.058996 -0.058996 -0.058996 -0.058996 -0.058996 -0.058996 -0.058996 -0.058996 
-0.058996 -0.058996 -0.058996 -0.058996 -0.058996 -0.058996 -0.058996 -0.058996 -0.058996 
-0.058996 -0.058996 -0.058996 -0.058996 -0.058996 -0.058996 -0.058996 -0.058996 -0.058996 
-0.058996 -0.058996 -0.058996 -0.058996 -0.058996 -0.058996 -0.058996 -0.058996 -0.058996 
-0.058996 -0.058996 -0.058996 -0.058996 -0.058996 -0.058996 -0.058996 -0.058996 -0.058996 
-0.058996 -0.058996 -0.058996 -0.058996 -0.058996 -0.058996 -0.058996 -0.058996 -0.058996 
-0.058996 -0.058996 -0.058996 -0.058996 -0.058996 -0.058996 -0.058996 -0.058996 -0.058996 
-0.058996 -0.058996 -0.058996 -0.058996 -0.058996 -0.058996 -0.058996 -0.058996 -0.058996 
-0.058996 -0.058996 -0.058996 -0.058996 -0.058996 -0.058996 -0.058996 -0.058996 -0.058996 
-0.058996 -0.058996 -0.058996 -0.058996 -0.058996 -0.058996 -0.058996 -0.058996 -0.058996 
-0.058996 -0.058996 -0.058996 -0.058996 -0.058996 -0.058996 -0.058996 -0.058996 -0.058996 
-0.058996 -0.058996 -0.058996 -0.058996 -0.058996 -0.058996 -0.058996 -0.058996 -0.058996 
-0.058996 -0.058996 -0.058996 -0.058996 -0.058996 -0.058996 -0.058996 -0.058996 -0.058996 
-0.058996 -0.058996 -0.058996 -0.058996 -0.058996 -0.058996 -0.058996 -0.058996 -0.058996 
-0.058996 -0.058996 -0.058996 -0.058996 -0.058996 -0.058996 -0.058996 -0.058996 -0.058996 
-0.058996 -0.058996 -0.058996 -0.058996 -0.058996 -0.058996 -0.058996 -0.058996 -0.058996 
-0.058996 -0.058996 -0.058996 -0.058996 -0.058996 -0.058996 -0.058996 -0.058996 -0.058996 
-0.058996 -0.058996 -0.058996 -0.058996 -0.058996 -0.058996 -0.058996 -0.058996 -0.058996 
-0.058996 -0.058996 -0.058996 -0.058996 -0.058996 -0.058996 -0.058996 -0.058996 -0.058996 
-0.058996 -0.058996 -0.058996 -0.058996 -0.058996 -0.058996 -0.058996 -0.058996 -0.058996 
-0.058996 -0.058996 -0.058996 -0.058996 -0.058996 -0.058996 -0.058996 -0.058996 -0.058996 
-0.058996 -0.058996 -0.058996 -0.058996 -0.058996 -0.058996 -0.058996 -0.058996 -0.058996 
-0.058996 -0.058996 -0.058996 -0.058996 -0.058996 -0.058996 -0.058996 -0.058996 -0.058996 
-0.058996 -0.058996 -0.058996 -0.058996 -0.058996 -0.058996 -0.058996 -0.058996 -0.058996 
-0.058996 -0.058996 -0.058996 -0.058996 -0.058996 -0.058996 -0.058996 -0.058996 -0.058996 
-0.058996 -0.058996 -0.058996 -0.058996 -0.058996 -0.058996 -0.058996 -0.058996 -0.058996 
-0.058996 -0.058996 -0.058996 -0.058996 -0.058996 -0.058996 -0.058996 -0.058996 -0.058996 

top 1 567 double
0.041004 0.041004 0.041004 0.041004 0.041004 0.041004 0.041004 0.041004 0.041004 
0.041004 0.041004 0.041004 0.041004 0.041004 0.041004 0.041004 0.041004 0.041004 
0.041004 0.041004 0.041004 0.041004 0.041004 0.041004 0.041004 0.041004 0.041004 
0.041004 0.041004 0.041004 0.041004 0.041004 0.041004 0.041004 0.041004 0.041004 
0.041004 0.041004 0.041004 0.041004 0.041004 0.041004 0.041004 0.041004 0.041004 
0.041004 0.041004 0.041004 0.041004 0.041004 0.041004 0.041004 0.041004 0.041004 
0.041004 0.041004 0.041004 0.041004 0.041004 0.041004 0.041004 0.041004 0.041004 
0.041004 0.041004 0.041004 0.041004 0.041004 0.041004 0.041004 0.041004 0.041004 
0.041004 0.041004 0.041004 0.041004 0.041004 0.041004 0.041004 0.041004 0.041004 
0.041004 0.041004 0.041004 0.041004 0.041004 0.041004 0.041004 0.041004 0.041004 
0.041004 0.041004 0.041004 0.041004 0.041004 0.041004 0.041004 0.041004 0.041004 
0.041004 0.041004 0.041004 0.041004 0.041004 0.041004 0.041004 0.041004 0.041004 
0.041004 0.041004 0.041004 0.041004 0.041004 0.041004 0.041004 0.041004 0.041004 
0.041004 0.041004 0.041004 0.041004 0.041004 0.041004 0.041004 0.041004 0.041004 
0.041004 0.041004 0.041004 0.041004 0.041004 0.041004 0.041004 0.041004 0.041004 
0.041004 0.041004 0.041004 0.041004 0.041004 0.041004 0.041004 0.041004 0.041004 
0.041004 0.041004 0.041004 0.041004 0.041004 0.041004 0.041004 0.041004 0.041004 
0.041004 0.041004 0.041004 0.041004 0.041004 0.041004 0.041004 0.041004 0.041004 
0.041004 0.041004 0.041004 0.041004 0.041004 0.041004 0.041004 0.041004 0.041004 
0.041004 0.041004 0.041004 0.041004 0.041004 0.041004 0.041004 0.041004 0.041004 
0.041004 0.041004 0.041004 0.041004 0.041004 0.041004 0.041004 0.041004 0.041004 
0.041004 0.041004 0.041004 0.041004 0.041004 0.041004 0.041004 0.041004 0.041004 
0.041004 0.041004 0.041004 0.041004 0.041004 0.041004 0.041004 0.041004 0.041004 
0.041004 0.041004 0.041004 0.041004 0.041004 0.041004 0.041004 0.041004 0.041004 
0.041004 0.041004 0.041004 0.041004 0.041004 0.041004 0.041004 0.041004 0.041004 
0.041004 0.041004 0.041004 0.041004 0.041004 0.041004 0.041004 0.041004 0.041004 
0.041004 0.041004 0.041004 0.041004 0.041004 0.041004 0.041004 0.041004 0.041004 
0.041004 0.041004 0.041004 0.041004 0.041004 0.041004 0.041004 0.041004 0.041004 
0.041004 0.041004 0.041004 0.041004 0.041004 0.041004 0.041004 0.041004 0.041004 
0.041004 0.041004 0.041004 0.041004 0.041004 0.041004 0.041004 0.041004 0.041004 
0.041004 0.041004 0.041004 0.041004 0.041004 0.041004 0.041004 0.041004 0.041004 
0.041004 0.041004 0.041004 0.041004 0.041004 0.041004 0.041004 0.041004 0.041004 
0.041004 0.041004 0.041004 0.041004 0.041004 0.041004 0.041004 0.041004 0.041004 
0.041004 0.041004 0.041004 0.041004 0.041004 0.041004 0.041004 0.041004 0.041004 
0.041004 0.041004 0.041004 0.041004 0.041004 0.041004 0.041004 0.041004 0.041004 
0.041004 0.041004 0.041004 0.041004 0.041004 0.041004 0.041004 0.041004 0.041004 
0.041004 0.041004 0.041004 0.041004 0.041004 0.041004 0.041004 0.041004 0.041004 
0.041004 0.041004 0.041004 0.041004 0.041004 0.041004 0.041004 0.041004 0.041004 
0.041004 0.041004 0.041004 0.041004 0.041004 0.041004 0.041004 0.041004 0.041004 
0.041004 0.041004 0.041004 0.041004 0.041004 0.041004 0.041004 0.041004 0.041004 
0.041004 0.041004 0.041004 0.041004 0.041004 0.041004 0.041004 0.041004 0.041004 
0.041004 0.041004 0.041004 0.041004 0.041004 0.041004 0.041004 0.041004 0.041004 
0.041004 0.041004 0.041004 0.041004 0.041004 0.041004 0.041004 0.041004 0.041004 
0.041004 0.041004 0.041004 0.041004 0.041004 0.041004 0.041004 0.041004 0.041004 
0.041004 0.041004 0.041004 0.041004 0.041004 0.041004 0.041004 0.041004 0.041004 
0.041004 0.041004 0.041004 0.041004 0.041004 0.041004 0.041004 0.041004 0.041004 
0.041004 0.041004 0.041004 0.041004 0.041004 0.041004 0.041004 0.041004 0.041004 
0.041004 0.041004 0.041004 0.041004 0.041004 0.041004 0.041004 0.041004 0.041004 
0.041004 0.041004 0.041004 0.041004 0.041004 0.041004 0.041004 0.041004 0.041004 
0.041004 0.041004 0.041004 0.041004 0.041004 0.041004 0.041004 0.041004 0.041004 
0.041004 0.041004 0.041004 0.041004 0.041004 0.041004 0.041004 0.041004 0.041004 
0.041004 0.041004 0.041004 0.041004 0.041004 0.041004 0.041004 0.041004 0.041004 
0.041004 0.041004 0.041004 0.041004 0.041004 0.041004 0.041004 0.041004 0.041004 
0.041004 0.041004 0.041004 0.041004 0.041004 0.041004 0.041004 0.041004 0.041004 
0.041004 0.041004 0.041004 0.041004 0.041004 0.041004 0.041004 0.041004 0.041004 
0.041004 0.041004 0.041004 0.041004 0.041004 0.041004 0.041004 0.041004 0.041004 
0.041004 0.041004 0.041004 0.041004 0.041004 0.041004 0.041004 0.041004 0.041004 
0.041004 0.041004 0.041004 0.041004 0.041004 0.041004 0.041004 0.041004 0.041004 
0.041004 0.041004 0.041004 0.041004 0.041004 0.041004 0.041004 0.041004 0.041004 
0.041004 0.041004 0.041004 0.041004 0.041004 0.041004 0.041004 0.041004 0.041004 
0.041004 0.041004 0.041004 0.041004 0.041004 0.041004 0.041004 0.041004 0.041004 
0.041004 0.041004 0.041004 0.041004 0.041004 0.041004 0.041004 0.041004 0.041004 
0.041004 0.041004 0.041004 0.041004 0.041004 0.041004 0.041004 0.041004 0.041004 

