# vtk DataFile Version 4.0
vtk output
ASCII
DATASET POLYDATA
FIELD FieldData 4
domain 1 4 string
domain_min:-5|-5|-5
domain_max:5|5|5
cell_size:0.01|0.01|0.01
boundary:1|1|1

variables 1 8 string
T:0.66
dt:0.0005
A:-58.2825
V:0.316009
Z:0.014746
write_case:1
substeps:10
all_steps:1320

constants 1 11 string
L:0.1
csize:0.01
R:0.004
mass:0.00210445
E:2.06e+06
nu:0.33
M:20
freq:10
gamma:62.8319
S:78956.8
g:0|0|-9.81

equations 1 9 string
time:T=(T+dt)#true
eq:a=(dem_l(v,om,R,mass,E,nu,0.1)/mass)#true
tank_acceleration:A=(((-(transpose((fsum(a)*mass))*e_k))-(S*Z))/M)#true
iv:v=euler(v,((a+g)-(A*e_k)),dt)#true
ia:r=euler(r,v,dt)#true
tank_velocity:V=euler(V,A,dt)#true
tank_position:Z=euler(Z,V,dt)#true
bottom:bottom=(Z-0.05)#true
top:top=(Z+0.05)#true

POINTS 567 float
-0.0384071 -0.0459175 -0.0449935 -0.0240474 -0.0430962 -0.0444295 -0.0156018 -0.040499 -0.0437804 
-0.00480411 -0.0436516 -0.0435131 0.0184656 -0.0407106 -0.0456974 0.0111482 -0.0456009 -0.0440305 
0.0247172 -0.0454358 -0.0459884 0.0322537 -0.0461049 -0.0461208 0.0448647 -0.0440027 -0.0423402 
-0.0457513 -0.0381597 -0.0450513 -0.0387559 -0.0382271 -0.0418351 -0.0327512 -0.0319062 -0.0451499 
-0.031978 -0.0399473 -0.0456019 -0.0222827 -0.0353194 -0.0454714 -0.0142492 -0.0323782 -0.0443729 
-0.00522778 -0.0311459 -0.0460007 0.000359781 -0.0317252 -0.0403519 0.00953718 -0.0384731 -0.045177 
0.00684328 -0.0310261 -0.045645 0.017054 -0.0330297 -0.0452885 0.0295744 -0.0368568 -0.0456757 
0.0387245 -0.0319449 -0.0461664 -0.0463788 -0.0256805 -0.0451092 -0.0387444 -0.0264486 -0.0452333 
-0.0321351 -0.0233233 -0.0432617 -0.0256649 -0.0278698 -0.044707 -0.0145186 -0.0229887 -0.0461663 
-0.00556437 -0.0232623 -0.0450701 0.00502184 -0.0230891 -0.0404227 0.0135269 -0.024861 -0.0448909 
0.0244099 -0.0207824 -0.045546 0.0245785 -0.0296908 -0.0451154 0.0307627 -0.0260332 -0.043484 
0.0384261 -0.0240762 -0.0446576 0.0461895 -0.0279239 -0.0434009 -0.0458281 -0.0145282 -0.0453792 
-0.0312745 -0.0104897 -0.042603 -0.0380224 -0.0179532 -0.0459802 -0.0264958 -0.0196088 -0.0462484 
-0.0228456 -0.0131592 -0.0447054 -0.019684 -0.0195867 -0.040701 -0.0153038 -0.0152647 -0.0447869 
-0.000553327 -0.016461 -0.0447695 0.00704175 -0.0156884 -0.0426625 0.0190141 -0.0148958 -0.046042 
0.032607 -0.018145 -0.0461165 0.0386602 -0.0104047 -0.0460048 0.0463988 -0.0138293 -0.0461047 
-0.046104 -0.000631995 -0.043427 -0.0420399 -0.00698488 -0.0453185 -0.027942 -0.00439582 -0.0458305 
-0.01869 -0.00690241 -0.0462439 -0.0108913 -0.0073604 -0.0430837 -0.00297805 -0.00895867 -0.0440507 
-0.00216852 -0.00117562 -0.0411013 0.0036106 -0.00443045 -0.0463552 0.0199378 -0.00434701 -0.0432093 
0.0122675 -0.000892813 -0.0449319 0.0139929 -0.00992125 -0.0426454 0.0297923 -0.00951122 -0.0461753 
0.0320586 -0.00241922 -0.0451252 0.0419357 -0.00237946 -0.0434244 -0.038158 0.0080284 -0.0459773 
-0.0303789 0.00315885 -0.044607 -0.039295 6.01771e-05 -0.0442654 -0.0213546 0.00427063 -0.0459933 
-0.00985673 0.00295767 -0.0435895 -0.00374478 0.00975206 -0.0456632 0.00186102 0.00310505 -0.0452506 
0.00992595 0.00644476 -0.0416421 0.0176161 0.00520037 -0.0443507 0.0260538 0.00081839 -0.0442345 
0.0385436 0.00376208 -0.0403779 0.0315369 0.00734965 -0.0411427 0.0444142 0.00419734 -0.0461468 
-0.0445606 0.0112598 -0.0453341 -0.0378966 0.0151795 -0.0425921 -0.0305962 0.0112304 -0.0446335 
-0.027932 0.0190494 -0.0462365 -0.0219167 0.0119425 -0.0459384 -0.00952008 0.0184661 -0.0455707 
-0.00107531 0.0181871 -0.0456035 0.00746158 0.0144894 -0.0435288 0.0151887 0.0148877 -0.0408078 
0.0218771 0.0151795 -0.0459674 0.0292844 0.0131016 -0.0457626 0.0316479 0.0198469 -0.0412 
0.0391933 0.0186035 -0.0442816 0.0458862 0.0116831 -0.0406478 -0.0460481 0.0257838 -0.0447911 
-0.0334321 0.0237488 -0.0419484 -0.0264061 0.0260794 -0.043399 -0.0196885 0.0223695 -0.045785 
-0.0143934 0.0282291 -0.0446439 -0.00582672 0.0282879 -0.046461 0.00610323 0.0214884 -0.0450505 
0.00243136 0.0294671 -0.0456398 0.0105084 0.029718 -0.0459847 0.0140778 0.0218394 -0.0452175 
0.0208201 0.0235496 -0.0432783 0.0286164 0.0260731 -0.0451749 0.0367598 0.0268762 -0.0454257 
0.0457909 0.0223633 -0.0445824 -0.0321443 0.0341483 -0.0424681 -0.0398372 0.037109 -0.0461123 
-0.0248123 0.0359946 -0.0450933 -0.0164486 0.0363708 -0.045597 -0.00903738 0.0355945 -0.0444941 
0.00315805 0.0365237 -0.04637 0.0174678 0.0310563 -0.0421095 0.020446 0.0388563 -0.0423139 
0.0262214 0.0313175 -0.040063 0.0305369 0.0341493 -0.0460397 0.038695 0.0347822 -0.0447044 
0.0461718 0.0397501 -0.0460893 0.0460786 0.0311596 -0.0459 -0.0460523 0.0429294 -0.0412969 
-0.0391757 0.0442646 -0.0456291 -0.0302666 0.0430295 -0.0461024 -0.0194234 0.0450783 -0.042957 
-0.00994493 0.0440394 -0.0432917 -0.00257705 0.0420253 -0.0426851 0.0106917 0.0410943 -0.0453374 
0.0296617 0.0420711 -0.044727 0.0361494 0.0436061 -0.0402128 0.045682 0.0463586 -0.0416838 
-0.0417719 -0.0455526 -0.0360272 -0.0330159 -0.0455441 -0.0357955 -0.0283298 -0.0432441 -0.0309302 
-0.0187042 -0.0435695 -0.0372942 -0.0112454 -0.0452303 -0.0314767 -0.0107509 -0.0435559 -0.0388221 
-0.000245362 -0.0410122 -0.0368902 0.000908021 -0.045432 -0.0311499 0.00929208 -0.0445753 -0.0357745 
0.0176642 -0.0459375 -0.0397456 0.027805 -0.0463352 -0.0365366 0.0353797 -0.0453004 -0.0359529 
-0.044177 -0.036468 -0.0366097 -0.0397579 -0.0309839 -0.0309726 -0.0376684 -0.0311173 -0.0388163 
-0.0330944 -0.0360734 -0.0340207 -0.0266039 -0.0300275 -0.0356386 -0.0224561 -0.0364614 -0.0371725 
-0.0149278 -0.0371639 -0.0350556 -0.00806636 -0.0343559 -0.039391 -0.00554698 -0.0392526 -0.0307455 
0.00615669 -0.0363186 -0.0371256 0.0117875 -0.0314496 -0.0398837 0.0148064 -0.0392091 -0.0366568 
0.0226801 -0.0377394 -0.0326015 0.0259385 -0.0345832 -0.0396171 0.0304653 -0.0351549 -0.0316723 
0.0383941 -0.0392884 -0.0301982 0.0458862 -0.0367803 -0.0344132 0.0401391 -0.0374841 -0.0398982 
-0.0420999 -0.0221724 -0.0389308 -0.0451152 -0.0218366 -0.0310899 -0.0459214 -0.0289915 -0.0365535 
-0.0278278 -0.0250006 -0.0304281 -0.0202914 -0.027863 -0.0382269 -0.025517 -0.0220589 -0.0368715 
-0.0129932 -0.0298758 -0.0352329 -0.0154027 -0.0223624 -0.0334159 -0.00416352 -0.0277868 -0.0362977 
0.00297665 -0.0262915 -0.0334807 0.0115582 -0.0215681 -0.0369447 0.0166005 -0.0265729 -0.0354817 
0.0230069 -0.0299375 -0.0348327 0.0268776 -0.0233882 -0.0377966 0.0356812 -0.0254941 -0.0373489 
0.0301442 -0.0277381 -0.0325101 0.0430067 -0.0290915 -0.0365891 0.0462076 -0.0222494 -0.033097 
-0.046012 -0.0147653 -0.0374165 -0.0348051 -0.0172141 -0.0324887 -0.0377135 -0.0115618 -0.0385974 
-0.0274532 -0.013317 -0.0372968 -0.0209433 -0.0164811 -0.0331855 -0.0113944 -0.0190894 -0.0392519 
-0.00953198 -0.0127392 -0.0352816 -0.00351212 -0.0193754 -0.037104 0.00605888 -0.014186 -0.033599 
0.0198957 -0.0192161 -0.0383838 0.0159418 -0.0169231 -0.0309735 0.0284146 -0.0160322 -0.0396317 
0.0316224 -0.0182346 -0.0310578 0.037471 -0.0123568 -0.0386411 0.0433111 -0.0147117 -0.0317808 
0.0447124 -0.0102358 -0.0390346 0.0418752 -0.0193463 -0.0384945 -0.0442437 -0.0065912 -0.0360434 
-0.0340614 -0.00340637 -0.0396722 -0.0276266 -0.0036485 -0.0352436 -0.0185 -0.00767346 -0.0380507 
-0.0154782 -0.00158275 -0.0309857 -0.00906594 -0.00431052 -0.0355831 -0.000729479 -0.00480089 -0.0320835 
0.0061864 -0.00299056 -0.0372842 0.00241994 -0.00998985 -0.039496 0.0136135 -0.00282095 -0.0358754 
0.0173028 -0.00959884 -0.0354554 0.0215906 -0.00299858 -0.0353631 0.0250511 -0.00955032 -0.0361423 
0.0298726 -0.000614493 -0.0354445 0.0327758 -0.00664941 -0.0385084 0.0405542 -0.00665465 -0.0344296 
-0.0460105 0.00548998 -0.0373664 -0.0380914 0.00524366 -0.0361681 -0.030769 0.00725993 -0.0317609 
-0.0254358 0.00516811 -0.0389867 -0.0217512 0.00787641 -0.0323315 -0.0187097 0.00141365 -0.037526 
-0.0116275 0.00428139 -0.0346514 -0.00426426 0.00833771 -0.0345797 0.00375002 0.00655128 -0.0356836 
0.0191777 0.00411666 -0.0359317 0.0109388 0.00413048 -0.0331885 0.0270702 0.00641139 -0.0344936 
0.0378097 0.00145678 -0.03081 0.0345263 0.00845641 -0.0302204 0.0460973 0.00176876 -0.038498 
0.0421442 0.00725343 -0.0317672 -0.04487 0.0127755 -0.0339327 -0.0304287 0.0195832 -0.0330364 
-0.0351267 0.0138298 -0.0346755 -0.0240655 0.0160218 -0.0315276 -0.0170469 0.0162456 -0.036606 
-0.0125284 0.010843 -0.0392966 -0.00477353 0.015131 -0.0391289 -0.00538507 0.0182286 -0.0317049 
0.00859673 0.0130584 -0.0362695 0.00215618 0.0162672 -0.0355604 0.0152766 0.0109649 -0.0330363 
0.021444 0.0117986 -0.0376753 0.0292623 0.0133114 -0.0376702 0.0220345 0.0185765 -0.0349311 
0.0374869 0.010654 -0.036537 0.0327928 0.0174465 -0.031242 0.0415566 0.0171437 -0.0355938 
-0.0461705 0.0287531 -0.0368724 -0.0430912 0.0206436 -0.0351799 -0.034456 0.0287999 -0.0329288 
-0.026082 0.0287505 -0.0353975 -0.0242993 0.0209941 -0.0373341 -0.0155978 0.0236361 -0.0384216 
-0.0186023 0.0251303 -0.0308191 -0.00745804 0.0282964 -0.032329 -0.00819486 0.0231755 -0.037781 
0.00620634 0.0215086 -0.0315252 0.00158417 0.0229907 -0.038971 0.0108013 0.0273068 -0.0305665 
0.0107564 0.020311 -0.0383232 0.0162824 0.0200395 -0.0303372 0.0164427 0.0248196 -0.0367787 
0.0280083 0.023387 -0.0357013 0.0374775 0.0244439 -0.0303689 0.0425374 0.0274866 -0.0392133 
0.0462308 0.0227025 -0.0336973 -0.0423831 0.0388265 -0.0303353 -0.0416641 0.0309384 -0.0305311 
-0.0441293 0.0365721 -0.0375026 -0.0388566 0.0308227 -0.039557 -0.0359359 0.0378765 -0.0357893 
-0.0209636 0.0385638 -0.0390296 -0.0211921 0.0340815 -0.0317457 -0.0204896 0.0312236 -0.0399268 
-0.0283668 0.0357688 -0.0357647 -0.0127605 0.0319176 -0.0353482 -0.00578778 0.0365734 -0.0361768 
-0.00117241 0.0305242 -0.0359867 0.00877202 0.0309017 -0.0378784 0.00510807 0.0373448 -0.038403 
0.0136802 0.0382254 -0.0387883 0.0122848 0.0355313 -0.0319313 0.0190273 0.039268 -0.033841 
0.0296735 0.0384985 -0.036699 0.0313292 0.0324049 -0.0314046 0.0371358 0.0389527 -0.0310805 
0.033957 0.0303392 -0.0379878 0.0395576 0.0360284 -0.0375097 0.046092 0.0344502 -0.0346545 
-0.0449614 0.0462433 -0.0327681 -0.0360806 0.0456899 -0.0360717 -0.0185184 0.0460723 -0.0320802 
-0.0142659 0.0408516 -0.0346222 -0.00320032 0.0438477 -0.0357704 0.00374306 0.0431232 -0.0333358 
0.0133801 0.0454916 -0.0399354 0.0228932 0.0461234 -0.0300672 0.0242853 0.0453039 -0.0392468 
0.0330596 0.0459745 -0.0339506 0.0459359 0.0449774 -0.0324761 -0.0429655 -0.0438713 -0.0233154 
-0.0358785 -0.0416934 -0.0233947 -0.0264549 -0.0436846 -0.021382 -0.0177431 -0.0445146 -0.0248845 
-0.00506365 -0.0408196 -0.0232863 0.00649732 -0.0403297 -0.029414 0.00405039 -0.0458493 -0.0227688 
0.0128233 -0.0454616 -0.0280823 0.028811 -0.0427008 -0.027824 0.0212652 -0.045752 -0.0282817 
0.0281525 -0.0461701 -0.0208116 0.0220777 -0.0411815 -0.0209643 0.0389397 -0.0462678 -0.0258434 
0.0459661 -0.0413909 -0.0286014 0.0462353 -0.0462624 -0.0216925 -0.0404949 -0.036306 -0.0253013 
-0.032752 -0.0339628 -0.0216185 -0.027783 -0.0344791 -0.0288076 -0.0232454 -0.0300347 -0.0240105 
-0.0132888 -0.0337408 -0.0249921 0.00883473 -0.0312756 -0.029932 0.00960837 -0.0363099 -0.0222668 
0.0212753 -0.0337815 -0.0234133 0.0361925 -0.0336331 -0.0230773 0.046261 -0.0347626 -0.0229583 
-0.0408852 -0.0236345 -0.0226593 -0.0346117 -0.0274128 -0.0256867 -0.0209652 -0.0239566 -0.0275211 
-0.0135938 -0.02668 -0.0260728 -0.00794552 -0.0228849 -0.0296045 -0.00710783 -0.0297592 -0.0227431 
-0.00995801 -0.0210475 -0.0227121 -0.00237106 -0.0297692 -0.0294117 -0.00126848 -0.0238942 -0.0215935 
0.00405096 -0.0286791 -0.0246642 0.012181 -0.0237618 -0.0254988 0.0196918 -0.025505 -0.020782 
0.0298721 -0.0221952 -0.0235191 0.0288844 -0.0294318 -0.024122 0.023962 -0.0252742 -0.0280506 
0.0398677 -0.0207474 -0.0282846 0.0381117 -0.0254913 -0.0221729 0.0460424 -0.0298694 -0.0293251 
0.0432521 -0.0203123 -0.0220549 -0.0419805 -0.0161277 -0.0262655 -0.0337091 -0.0114024 -0.0258197 
-0.0297937 -0.0190044 -0.0261464 -0.0120454 -0.0118226 -0.0211235 -0.017374 -0.0173035 -0.0247875 
-0.0175165 -0.0110125 -0.0280073 -0.000648924 -0.0159396 -0.0210987 -0.0026308 -0.0181687 -0.029667 
0.0164637 -0.0105598 -0.0201767 0.0108823 -0.0167627 -0.0210781 0.0241356 -0.0181513 -0.0293648 
0.0203589 -0.0123989 -0.026379 0.0307692 -0.0144639 -0.024402 0.0456576 -0.0101635 -0.0249029 
-0.0463523 -0.00343103 -0.025982 -0.0336503 -0.00348689 -0.029033 -0.0235289 -0.00637361 -0.0298484 
-0.0216623 -0.00450257 -0.0210624 -0.00877677 -0.00371023 -0.0263307 -0.0022142 -0.00913672 -0.0265737 
0.00479587 -0.0095199 -0.0272049 0.0110429 -0.00608923 -0.0292222 0.0172959 -0.00364244 -0.0268973 
0.0251881 -0.00179376 -0.0282308 0.0260464 -0.00863852 -0.021891 0.0336637 -0.00271027 -0.0256402 
0.037454 -0.00907512 -0.0256608 0.0306324 -0.00758347 -0.0299041 0.0460505 -0.00279551 -0.0266408 
-0.0418182 0.00273743 -0.0298632 -0.0373137 0.00922274 -0.0280726 -0.0333032 0.00344771 -0.0215836 
-0.0268169 0.00102023 -0.028257 -0.02048 0.00567316 -0.0210085 -0.00973119 0.00951704 -0.0279274 
-0.00209759 0.00446172 -0.0270519 -0.00594427 0.00149932 -0.0212711 0.00341188 0.000350914 -0.0242318 
0.00801416 0.00639088 -0.0259812 0.0115666 3.29343e-05 -0.0239288 0.0192758 0.00643839 -0.0279464 
0.0226319 0.00207865 -0.0231376 0.0405186 0.00467932 -0.0240878 -0.0465509 0.0111994 -0.0258986 
-0.0403956 0.0157797 -0.0252696 -0.0311794 0.0137396 -0.027257 -0.0348441 0.0119929 -0.0214387 
-0.0259139 0.0103916 -0.0227115 -0.0238536 0.019335 -0.0245513 -0.013549 0.0196469 -0.0272741 
-0.0184292 0.0136068 -0.0266313 -0.00765671 0.0181121 -0.0213825 -0.00108689 0.0151274 -0.0247984 
0.00360975 0.0105741 -0.0297333 0.0191925 0.0127718 -0.0223481 0.0127825 0.0140153 -0.0259925 
0.02571 0.0117844 -0.0290367 0.0277164 0.0160338 -0.0222732 0.0355357 0.0116189 -0.0231344 
0.038059 0.0191774 -0.0248379 0.0456179 0.0168028 -0.0282005 0.0456116 0.0116945 -0.0211947 
-0.0453612 0.0248133 -0.028109 -0.0464469 0.0284937 -0.0205861 -0.0377215 0.0236129 -0.0252997 
-0.0298676 0.0252298 -0.027356 -0.0179502 0.0253331 -0.0219885 -0.00645591 0.0271629 -0.0244413 
0.000907706 0.0269841 -0.0285273 0.00453897 0.0208781 -0.0242862 0.00545048 0.0299726 -0.0231459 
0.0113421 0.0253464 -0.0225988 0.0218328 0.0235619 -0.0224473 0.0298044 0.0247988 -0.0267947 
0.0256924 0.0298987 -0.0201485 0.0452312 0.0251875 -0.0239606 -0.0322622 0.0393337 -0.0219019 
-0.0358478 0.0336855 -0.0263587 -0.026086 0.0321505 -0.0254033 -0.0159785 0.0377065 -0.0276609 
-0.0141698 0.0307008 -0.0276872 -0.00245081 0.0368052 -0.0219742 -0.00694587 0.037612 -0.0279277 
0.00512876 0.0366987 -0.0276959 0.0182398 0.0312506 -0.0223191 0.0202602 0.0305377 -0.0299347 
0.025017 0.0350169 -0.0270616 0.03927 0.0334464 -0.0259148 0.0302914 0.0368104 -0.0204779 
0.0466487 0.0344187 -0.0265635 -0.0464459 0.0462098 -0.025348 -0.0369527 0.0449798 -0.0262894 
-0.0250114 0.0412199 -0.0293273 -0.0281728 0.0459751 -0.0237418 -0.0152558 0.0456842 -0.0246631 
-0.00907446 0.0457023 -0.0294357 -0.00454832 0.0452398 -0.0221386 0.00350657 0.0448926 -0.025197 
0.0113877 0.0452145 -0.0288205 0.0297126 0.0402827 -0.0284185 0.0234224 0.0422406 -0.0234528 
0.0356644 0.0432098 -0.0218343 0.03919 0.0464559 -0.0297646 0.0434947 0.0458462 -0.0200697 
-0.0125306 -0.0428134 -0.0191362 -0.00434797 -0.0449472 -0.017061 0.0100841 -0.0423023 -0.0133735 
0.0387359 -0.0409292 -0.0196751 -0.0449217 -0.0323318 -0.0127074 -0.0453161 -0.0326828 -0.0191817 
-0.0379715 -0.0347474 -0.0153419 -0.019617 -0.0370909 -0.0195655 -0.018916 -0.0391915 -0.0124207 
-0.0130651 -0.0324397 -0.0145624 -0.00757191 -0.0366141 -0.0167796 0.0298691 -0.0344314 -0.0169356 
0.0418228 -0.0317832 -0.0167049 -0.0272752 -0.0285514 -0.0178046 -0.00698751 -0.0237737 -0.0117208 
-0.000981647 -0.0292015 -0.0162729 0.00426024 -0.0242547 -0.0104573 0.0113088 -0.0254114 -0.018029 
0.0119217 -0.0299939 -0.0125973 0.015049 -0.022684 -0.0127314 0.032734 -0.0267683 -0.0143105 
0.0401302 -0.0221101 -0.0156371 -0.0429692 -0.0169639 -0.0172199 -0.0225317 -0.0194391 -0.0166236 
-0.0272003 -0.0121219 -0.0174797 -0.0183253 -0.0114197 -0.0128013 -0.00445131 -0.0172761 -0.0148239 
-0.000333575 -0.0109681 -0.0130542 0.0314835 -0.0133764 -0.0170252 0.0459955 -0.0140951 -0.0189177 
-0.0361114 -0.00911821 -0.0153484 -0.0364908 -0.00111653 -0.0150489 -0.000370934 -0.0075695 -0.0196595 
0.0264513 -0.00345288 -0.0169851 0.0425763 -0.003356 -0.0183713 -0.0405664 0.00162593 -0.0199827 
-0.0300031 0.00918396 -0.013059 -0.0262453 0.000248756 -0.0144251 -0.01363 0.00145458 -0.0193521 
0.000377736 0.00276175 -0.0154094 0.0127357 0.00225009 -0.0123057 0.0172767 0.0067141 -0.0192915 
0.0264884 0.00507463 -0.0164819 0.0329638 0.0053727 -0.0196602 0.0456541 0.00465478 -0.0161138 
-0.0434696 0.0197896 -0.0139431 -0.0234554 0.0177833 -0.0130361 0.0103115 0.0165908 -0.0193716 
0.0122883 0.0131487 -0.0117897 0.0243482 0.0187706 -0.0149327 0.0335108 0.0179615 -0.0160784 
0.0415991 0.0189059 -0.0110914 -0.0159173 0.0257406 -0.0152866 -0.00319267 0.0282942 -0.0171688 
0.00724139 0.0287492 -0.0144634 0.0153068 0.0271932 -0.0157233 0.0291086 0.0269714 -0.0119788 
0.0331945 0.0267188 -0.0198201 0.0402976 0.0229048 -0.017186 -0.0440312 0.0308808 -0.0129349 
-0.0314263 0.0331822 -0.017272 -0.0263502 0.0387809 -0.0151173 -0.0155115 0.0331184 -0.0121891 
-0.0182086 0.0367202 -0.0180754 -0.00926402 0.0325414 -0.0198609 0.00194782 0.0352378 -0.0139277 
0.0129455 0.0364416 -0.0199031 0.0268204 0.03717 -0.0112818 0.0379485 0.0350303 -0.0178672 
0.0447146 0.0321788 -0.0188801 -0.0464948 0.0409039 -0.0194902 -0.0380685 0.0459656 -0.0168793 
-0.0114012 0.0410417 -0.0190437 -0.0187629 0.0448409 -0.0183202 -0.000886102 0.0415396 -0.015547 
0.00631594 0.0444628 -0.0147276 0.0148764 0.0453208 -0.01565 0.0238844 0.0463052 -0.0120958 
0.0212767 0.0404912 -0.01679 0.0199207 -0.0412262 -0.00613617 -0.000842735 -0.0321252 -0.00166678 
0.0290213 -0.036767 -0.00946892 -0.0434801 -0.0264374 -0.00629011 -0.0333567 -0.0284172 -0.00879372 
0.00797327 -0.0290451 -0.00627716 0.0142363 -0.0215086 -0.00480629 0.0452171 -0.024865 -0.000560734 
-0.0302102 -0.0120819 -0.00354206 -0.0100362 -0.01555 -0.0075721 0.00751858 -0.0171226 -0.00678358 
0.0288199 -0.0199889 -0.00925478 -0.031822 -0.00193575 -0.00299183 0.0119122 -0.00573011 -0.00957321 
-0.0401458 0.000968571 -0.00281495 -0.00701769 0.006528 -0.00843114 0.0256395 0.00769122 -0.00107781 
0.0264224 0.000582649 -0.00267102 0.0439424 0.00320733 -0.00338379 -0.0314169 0.0190229 -0.00457519 
-0.0341161 0.0122909 -0.000501051 0.00365772 0.0126255 -0.000583351 0.031535 0.0182384 -0.0088147 
-0.037546 0.0256923 -0.00705999 0.0128245 0.0284376 -0.00919495 -0.0448955 0.0387428 -5.17756e-05 
-0.00469282 0.0324938 -0.00724002 0.00637462 0.0317736 -0.00262312 0.030398 0.0341617 -0.000395459 
-0.0425629 0.044896 -0.00661962 -0.027748 -0.045898 0.00938975 -0.0457094 -0.0366225 0.000264742 
-0.0239251 -0.0361952 0.00426491 -0.0262339 -0.0248762 0.000525439 0.0100087 -0.0131505 0.00125059 
0.0316269 -0.0156695 0.00185006 -0.00494146 -0.00959523 0.00580223 -0.00327326 0.00257583 0.00616226 
-0.00298398 0.01899 0.00937566 0.0463547 0.0111879 0.00542338 -0.0157334 0.0277689 0.00273116 
0.00814094 0.0275679 0.00557649 0.0205047 0.0350714 0.00492585 -0.0227453 -0.0335782 0.0176319 
-0.0175571 -0.0237075 0.0133849 0.0103058 -0.0195343 0.0125407 0.042104 0.0167376 0.0103135 

VERTICES 1134 1134
1 0 
1 1 
1 2 
1 3 
1 4 
1 5 
1 6 
1 7 
1 8 
1 9 
1 10 
1 11 
1 12 
1 13 
1 14 
1 15 
1 16 
1 17 
1 18 
1 19 
1 20 
1 21 
1 22 
1 23 
1 24 
1 25 
1 26 
1 27 
1 28 
1 29 
1 30 
1 31 
1 32 
1 33 
1 34 
1 35 
1 36 
1 37 
1 38 
1 39 
1 40 
1 41 
1 42 
1 43 
1 44 
1 45 
1 46 
1 47 
1 48 
1 49 
1 50 
1 51 
1 52 
1 53 
1 54 
1 55 
1 56 
1 57 
1 58 
1 59 
1 60 
1 61 
1 62 
1 63 
1 64 
1 65 
1 66 
1 67 
1 68 
1 69 
1 70 
1 71 
1 72 
1 73 
1 74 
1 75 
1 76 
1 77 
1 78 
1 79 
1 80 
1 81 
1 82 
1 83 
1 84 
1 85 
1 86 
1 87 
1 88 
1 89 
1 90 
1 91 
1 92 
1 93 
1 94 
1 95 
1 96 
1 97 
1 98 
1 99 
1 100 
1 101 
1 102 
1 103 
1 104 
1 105 
1 106 
1 107 
1 108 
1 109 
1 110 
1 111 
1 112 
1 113 
1 114 
1 115 
1 116 
1 117 
1 118 
1 119 
1 120 
1 121 
1 122 
1 123 
1 124 
1 125 
1 126 
1 127 
1 128 
1 129 
1 130 
1 131 
1 132 
1 133 
1 134 
1 135 
1 136 
1 137 
1 138 
1 139 
1 140 
1 141 
1 142 
1 143 
1 144 
1 145 
1 146 
1 147 
1 148 
1 149 
1 150 
1 151 
1 152 
1 153 
1 154 
1 155 
1 156 
1 157 
1 158 
1 159 
1 160 
1 161 
1 162 
1 163 
1 164 
1 165 
1 166 
1 167 
1 168 
1 169 
1 170 
1 171 
1 172 
1 173 
1 174 
1 175 
1 176 
1 177 
1 178 
1 179 
1 180 
1 181 
1 182 
1 183 
1 184 
1 185 
1 186 
1 187 
1 188 
1 189 
1 190 
1 191 
1 192 
1 193 
1 194 
1 195 
1 196 
1 197 
1 198 
1 199 
1 200 
1 201 
1 202 
1 203 
1 204 
1 205 
1 206 
1 207 
1 208 
1 209 
1 210 
1 211 
1 212 
1 213 
1 214 
1 215 
1 216 
1 217 
1 218 
1 219 
1 220 
1 221 
1 222 
1 223 
1 224 
1 225 
1 226 
1 227 
1 228 
1 229 
1 230 
1 231 
1 232 
1 233 
1 234 
1 235 
1 236 
1 237 
1 238 
1 239 
1 240 
1 241 
1 242 
1 243 
1 244 
1 245 
1 246 
1 247 
1 248 
1 249 
1 250 
1 251 
1 252 
1 253 
1 254 
1 255 
1 256 
1 257 
1 258 
1 259 
1 260 
1 261 
1 262 
1 263 
1 264 
1 265 
1 266 
1 267 
1 268 
1 269 
1 270 
1 271 
1 272 
1 273 
1 274 
1 275 
1 276 
1 277 
1 278 
1 279 
1 280 
1 281 
1 282 
1 283 
1 284 
1 285 
1 286 
1 287 
1 288 
1 289 
1 290 
1 291 
1 292 
1 293 
1 294 
1 295 
1 296 
1 297 
1 298 
1 299 
1 300 
1 301 
1 302 
1 303 
1 304 
1 305 
1 306 
1 307 
1 308 
1 309 
1 310 
1 311 
1 312 
1 313 
1 314 
1 315 
1 316 
1 317 
1 318 
1 319 
1 320 
1 321 
1 322 
1 323 
1 324 
1 325 
1 326 
1 327 
1 328 
1 329 
1 330 
1 331 
1 332 
1 333 
1 334 
1 335 
1 336 
1 337 
1 338 
1 339 
1 340 
1 341 
1 342 
1 343 
1 344 
1 345 
1 346 
1 347 
1 348 
1 349 
1 350 
1 351 
1 352 
1 353 
1 354 
1 355 
1 356 
1 357 
1 358 
1 359 
1 360 
1 361 
1 362 
1 363 
1 364 
1 365 
1 366 
1 367 
1 368 
1 369 
1 370 
1 371 
1 372 
1 373 
1 374 
1 375 
1 376 
1 377 
1 378 
1 379 
1 380 
1 381 
1 382 
1 383 
1 384 
1 385 
1 386 
1 387 
1 388 
1 389 
1 390 
1 391 
1 392 
1 393 
1 394 
1 395 
1 396 
1 397 
1 398 
1 399 
1 400 
1 401 
1 402 
1 403 
1 404 
1 405 
1 406 
1 407 
1 408 
1 409 
1 410 
1 411 
1 412 
1 413 
1 414 
1 415 
1 416 
1 417 
1 418 
1 419 
1 420 
1 421 
1 422 
1 423 
1 424 
1 425 
1 426 
1 427 
1 428 
1 429 
1 430 
1 431 
1 432 
1 433 
1 434 
1 435 
1 436 
1 437 
1 438 
1 439 
1 440 
1 441 
1 442 
1 443 
1 444 
1 445 
1 446 
1 447 
1 448 
1 449 
1 450 
1 451 
1 452 
1 453 
1 454 
1 455 
1 456 
1 457 
1 458 
1 459 
1 460 
1 461 
1 462 
1 463 
1 464 
1 465 
1 466 
1 467 
1 468 
1 469 
1 470 
1 471 
1 472 
1 473 
1 474 
1 475 
1 476 
1 477 
1 478 
1 479 
1 480 
1 481 
1 482 
1 483 
1 484 
1 485 
1 486 
1 487 
1 488 
1 489 
1 490 
1 491 
1 492 
1 493 
1 494 
1 495 
1 496 
1 497 
1 498 
1 499 
1 500 
1 501 
1 502 
1 503 
1 504 
1 505 
1 506 
1 507 
1 508 
1 509 
1 510 
1 511 
1 512 
1 513 
1 514 
1 515 
1 516 
1 517 
1 518 
1 519 
1 520 
1 521 
1 522 
1 523 
1 524 
1 525 
1 526 
1 527 
1 528 
1 529 
1 530 
1 531 
1 532 
1 533 
1 534 
1 535 
1 536 
1 537 
1 538 
1 539 
1 540 
1 541 
1 542 
1 543 
1 544 
1 545 
1 546 
1 547 
1 548 
1 549 
1 550 
1 551 
1 552 
1 553 
1 554 
1 555 
1 556 
1 557 
1 558 
1 559 
1 560 
1 561 
1 562 
1 563 
1 564 
1 565 
1 566 

POINT_DATA 567
SCALARS id double
LOOKUP_TABLE default
460 330 416 136 273 456 406 402 331 
17 115 407 397 76 211 23 252 128 
457 467 441 378 29 71 129 139 70 
448 85 549 333 81 424 205 540 256 
20 111 132 202 200 133 468 340 259 
531 469 451 82 104 140 459 68 40 
344 60 272 237 262 426 535 560 171 
296 33 295 162 326 280 222 135 499 
544 193 449 30 101 19 537 138 97 
306 276 401 418 435 421 475 395 218 
356 77 207 309 44 381 235 562 319 
348 14 495 408 88 58 223 314 108 
231 438 561 502 538 226 323 125 124 
228 169 92 289 37 351 396 490 425 
8 447 91 156 400 41 524 464 383 
552 318 532 26 191 13 84 210 12 
27 354 0 4 528 526 322 328 508 
327 455 386 96 427 204 146 444 466 
512 509 47 142 197 216 523 476 137 
201 419 65 334 461 504 31 131 553 
258 94 519 428 6 141 315 545 219 
550 450 157 1 336 382 100 110 56 
224 266 385 505 520 183 325 384 472 
275 86 362 103 39 307 161 294 90 
541 554 152 453 79 462 529 415 473 
299 83 297 288 439 106 73 483 493 
429 510 515 501 434 521 229 118 342 
411 365 185 301 74 173 343 217 53 
564 506 391 163 107 536 346 112 199 
374 168 355 151 285 279 11 311 239 
49 530 313 369 332 556 452 212 62 
363 394 488 503 357 232 113 480 148 
373 563 350 546 485 114 399 147 66 
72 551 263 496 321 430 264 458 75 
500 446 95 388 190 93 143 102 36 
380 67 478 221 55 304 130 149 2 
244 260 3 54 10 308 409 51 511 
405 220 518 9 527 167 338 497 126 
150 69 89 442 274 516 389 206 393 
158 242 25 196 290 261 253 432 404 
278 341 559 192 283 542 43 241 277 
489 52 387 353 154 371 565 282 482 
525 557 165 34 298 440 46 105 189 
286 422 208 454 181 18 209 445 267 
292 302 410 182 122 45 159 238 481 
164 59 251 398 463 533 358 414 337 
230 281 234 347 109 300 547 484 471 
492 367 233 494 32 28 175 38 345 
121 119 287 359 57 392 271 339 420 
329 203 316 48 269 376 213 127 98 
145 265 293 324 507 491 42 479 487 
498 268 514 64 24 390 63 117 465 
377 5 412 403 423 7 477 317 249 
474 99 240 87 144 368 155 539 123 
227 370 250 305 188 372 417 413 78 
364 246 177 186 352 120 284 153 50 
176 312 543 534 558 21 566 116 214 
248 178 360 303 187 361 179 522 335 
215 61 194 255 379 236 80 517 443 
22 16 134 184 366 172 431 513 375 
160 245 225 257 436 243 349 170 310 
433 35 198 195 437 486 320 174 247 
180 555 291 166 548 15 270 254 470 

FIELD FieldData 7
r 3 567 double
-0.0384071 -0.0459175 -0.0449935 -0.0240474 -0.0430962 -0.0444295 -0.0156018 -0.040499 -0.0437804 
-0.00480411 -0.0436516 -0.0435131 0.0184656 -0.0407106 -0.0456974 0.0111482 -0.0456009 -0.0440305 
0.0247172 -0.0454358 -0.0459884 0.0322537 -0.0461049 -0.0461208 0.0448647 -0.0440027 -0.0423402 
-0.0457513 -0.0381597 -0.0450513 -0.0387559 -0.0382271 -0.0418351 -0.0327512 -0.0319062 -0.0451499 
-0.031978 -0.0399473 -0.0456019 -0.0222827 -0.0353194 -0.0454714 -0.0142492 -0.0323782 -0.0443729 
-0.00522778 -0.0311459 -0.0460007 0.000359781 -0.0317252 -0.0403519 0.00953718 -0.0384731 -0.045177 
0.00684328 -0.0310261 -0.045645 0.017054 -0.0330297 -0.0452885 0.0295744 -0.0368568 -0.0456757 
0.0387245 -0.0319449 -0.0461664 -0.0463788 -0.0256805 -0.0451092 -0.0387444 -0.0264486 -0.0452333 
-0.0321351 -0.0233233 -0.0432617 -0.0256649 -0.0278698 -0.044707 -0.0145186 -0.0229887 -0.0461663 
-0.00556437 -0.0232623 -0.0450701 0.00502184 -0.0230891 -0.0404227 0.0135269 -0.024861 -0.0448909 
0.0244099 -0.0207824 -0.045546 0.0245785 -0.0296908 -0.0451154 0.0307627 -0.0260332 -0.043484 
0.0384261 -0.0240762 -0.0446576 0.0461895 -0.0279239 -0.0434009 -0.0458281 -0.0145282 -0.0453792 
-0.0312745 -0.0104897 -0.042603 -0.0380224 -0.0179532 -0.0459802 -0.0264958 -0.0196088 -0.0462484 
-0.0228456 -0.0131592 -0.0447054 -0.019684 -0.0195867 -0.040701 -0.0153038 -0.0152647 -0.0447869 
-0.000553327 -0.016461 -0.0447694 0.00704175 -0.0156884 -0.0426625 0.0190141 -0.0148958 -0.046042 
0.032607 -0.018145 -0.0461165 0.0386602 -0.0104047 -0.0460048 0.0463988 -0.0138293 -0.0461047 
-0.046104 -0.000631995 -0.043427 -0.0420399 -0.00698488 -0.0453185 -0.027942 -0.00439582 -0.0458305 
-0.01869 -0.00690241 -0.0462439 -0.0108913 -0.0073604 -0.0430837 -0.00297805 -0.00895867 -0.0440507 
-0.00216852 -0.00117562 -0.0411013 0.0036106 -0.00443045 -0.0463552 0.0199378 -0.00434701 -0.0432093 
0.0122675 -0.000892814 -0.0449319 0.0139929 -0.00992125 -0.0426454 0.0297923 -0.00951122 -0.0461753 
0.0320586 -0.00241922 -0.0451252 0.0419357 -0.00237946 -0.0434244 -0.038158 0.0080284 -0.0459773 
-0.0303789 0.00315885 -0.044607 -0.039295 6.01771e-05 -0.0442654 -0.0213546 0.00427063 -0.0459933 
-0.00985673 0.00295767 -0.0435895 -0.00374478 0.00975206 -0.0456632 0.00186102 0.00310505 -0.0452506 
0.00992595 0.00644476 -0.0416421 0.0176161 0.00520037 -0.0443507 0.0260538 0.00081839 -0.0442345 
0.0385436 0.00376208 -0.0403779 0.0315369 0.00734965 -0.0411427 0.0444142 0.00419734 -0.0461468 
-0.0445606 0.0112598 -0.0453341 -0.0378966 0.0151795 -0.0425921 -0.0305962 0.0112304 -0.0446335 
-0.027932 0.0190494 -0.0462365 -0.0219167 0.0119425 -0.0459384 -0.00952008 0.0184661 -0.0455707 
-0.00107531 0.0181871 -0.0456035 0.00746158 0.0144894 -0.0435288 0.0151887 0.0148877 -0.0408078 
0.0218771 0.0151795 -0.0459674 0.0292844 0.0131016 -0.0457626 0.0316479 0.0198469 -0.0412 
0.0391933 0.0186035 -0.0442816 0.0458862 0.0116831 -0.0406478 -0.0460481 0.0257838 -0.0447911 
-0.0334321 0.0237488 -0.0419484 -0.0264061 0.0260794 -0.043399 -0.0196885 0.0223695 -0.045785 
-0.0143934 0.0282291 -0.0446439 -0.00582672 0.0282879 -0.046461 0.00610323 0.0214884 -0.0450505 
0.00243136 0.0294671 -0.0456398 0.0105084 0.029718 -0.0459847 0.0140778 0.0218394 -0.0452175 
0.0208201 0.0235496 -0.0432783 0.0286164 0.0260731 -0.0451749 0.0367598 0.0268762 -0.0454257 
0.0457909 0.0223633 -0.0445824 -0.0321443 0.0341483 -0.0424681 -0.0398372 0.037109 -0.0461123 
-0.0248123 0.0359946 -0.0450933 -0.0164486 0.0363708 -0.045597 -0.00903738 0.0355945 -0.0444941 
0.00315805 0.0365237 -0.04637 0.0174678 0.0310563 -0.0421095 0.020446 0.0388563 -0.0423139 
0.0262214 0.0313175 -0.040063 0.0305369 0.0341493 -0.0460397 0.038695 0.0347822 -0.0447044 
0.0461718 0.0397501 -0.0460893 0.0460786 0.0311596 -0.0459 -0.0460523 0.0429294 -0.0412969 
-0.0391757 0.0442646 -0.0456291 -0.0302666 0.0430295 -0.0461024 -0.0194234 0.0450783 -0.042957 
-0.00994493 0.0440394 -0.0432917 -0.00257705 0.0420253 -0.0426851 0.0106917 0.0410943 -0.0453374 
0.0296617 0.0420711 -0.044727 0.0361494 0.0436061 -0.0402128 0.045682 0.0463586 -0.0416838 
-0.0417719 -0.0455526 -0.0360272 -0.0330159 -0.0455441 -0.0357955 -0.0283298 -0.0432441 -0.0309302 
-0.0187042 -0.0435695 -0.0372942 -0.0112454 -0.0452303 -0.0314767 -0.0107509 -0.0435559 -0.0388221 
-0.000245362 -0.0410122 -0.0368902 0.000908021 -0.045432 -0.0311499 0.00929208 -0.0445753 -0.0357745 
0.0176642 -0.0459375 -0.0397456 0.027805 -0.0463352 -0.0365366 0.0353797 -0.0453004 -0.0359529 
-0.044177 -0.036468 -0.0366097 -0.0397579 -0.0309839 -0.0309726 -0.0376684 -0.0311173 -0.0388163 
-0.0330944 -0.0360734 -0.0340207 -0.0266039 -0.0300275 -0.0356386 -0.0224561 -0.0364614 -0.0371725 
-0.0149278 -0.0371639 -0.0350556 -0.00806636 -0.0343559 -0.039391 -0.00554698 -0.0392526 -0.0307455 
0.00615669 -0.0363186 -0.0371256 0.0117875 -0.0314497 -0.0398837 0.0148064 -0.0392091 -0.0366568 
0.0226801 -0.0377394 -0.0326015 0.0259385 -0.0345832 -0.0396171 0.0304653 -0.035155 -0.0316723 
0.0383941 -0.0392884 -0.0301982 0.0458862 -0.0367803 -0.0344132 0.0401391 -0.0374841 -0.0398982 
-0.0420999 -0.0221724 -0.0389308 -0.0451152 -0.0218366 -0.0310899 -0.0459214 -0.0289915 -0.0365535 
-0.0278278 -0.0250006 -0.0304281 -0.0202914 -0.027863 -0.0382269 -0.025517 -0.0220589 -0.0368716 
-0.0129932 -0.0298758 -0.0352329 -0.0154027 -0.0223624 -0.0334159 -0.00416352 -0.0277868 -0.0362977 
0.00297665 -0.0262915 -0.0334807 0.0115582 -0.0215681 -0.0369447 0.0166005 -0.0265729 -0.0354817 
0.0230069 -0.0299375 -0.0348327 0.0268776 -0.0233882 -0.0377966 0.0356812 -0.0254941 -0.0373489 
0.0301442 -0.0277381 -0.0325101 0.0430067 -0.0290915 -0.0365891 0.0462076 -0.0222494 -0.033097 
-0.046012 -0.0147653 -0.0374165 -0.0348051 -0.0172141 -0.0324887 -0.0377135 -0.0115618 -0.0385974 
-0.0274532 -0.013317 -0.0372968 -0.0209433 -0.0164811 -0.0331855 -0.0113944 -0.0190894 -0.0392519 
-0.00953198 -0.0127392 -0.0352816 -0.00351212 -0.0193754 -0.037104 0.00605888 -0.014186 -0.033599 
0.0198957 -0.0192161 -0.0383838 0.0159418 -0.0169231 -0.0309735 0.0284146 -0.0160322 -0.0396317 
0.0316224 -0.0182346 -0.0310578 0.037471 -0.0123568 -0.0386411 0.0433111 -0.0147117 -0.0317808 
0.0447124 -0.0102358 -0.0390346 0.0418752 -0.0193463 -0.0384945 -0.0442437 -0.0065912 -0.0360434 
-0.0340614 -0.00340637 -0.0396722 -0.0276266 -0.0036485 -0.0352436 -0.0185 -0.00767346 -0.0380507 
-0.0154782 -0.00158275 -0.0309857 -0.00906594 -0.00431052 -0.0355831 -0.000729479 -0.00480089 -0.0320835 
0.0061864 -0.00299056 -0.0372842 0.00241994 -0.00998985 -0.039496 0.0136135 -0.00282095 -0.0358754 
0.0173028 -0.00959884 -0.0354554 0.0215906 -0.00299858 -0.0353631 0.0250511 -0.00955031 -0.0361423 
0.0298726 -0.000614493 -0.0354445 0.0327758 -0.00664941 -0.0385084 0.0405542 -0.00665465 -0.0344296 
-0.0460105 0.00548998 -0.0373664 -0.0380914 0.00524366 -0.0361681 -0.030769 0.00725993 -0.0317609 
-0.0254358 0.00516811 -0.0389867 -0.0217512 0.00787641 -0.0323315 -0.0187097 0.00141365 -0.037526 
-0.0116275 0.00428139 -0.0346514 -0.00426426 0.00833771 -0.0345797 0.00375002 0.00655128 -0.0356836 
0.0191777 0.00411666 -0.0359317 0.0109388 0.00413048 -0.0331885 0.0270702 0.00641139 -0.0344936 
0.0378097 0.00145678 -0.03081 0.0345263 0.00845641 -0.0302204 0.0460973 0.00176876 -0.038498 
0.0421442 0.00725343 -0.0317672 -0.04487 0.0127755 -0.0339327 -0.0304287 0.0195832 -0.0330364 
-0.0351267 0.0138298 -0.0346755 -0.0240655 0.0160218 -0.0315276 -0.0170469 0.0162456 -0.036606 
-0.0125284 0.010843 -0.0392966 -0.00477353 0.015131 -0.0391289 -0.00538507 0.0182286 -0.0317049 
0.00859673 0.0130584 -0.0362695 0.00215618 0.0162672 -0.0355604 0.0152766 0.0109649 -0.0330363 
0.021444 0.0117986 -0.0376753 0.0292623 0.0133114 -0.0376702 0.0220345 0.0185765 -0.0349311 
0.0374869 0.010654 -0.036537 0.0327928 0.0174465 -0.031242 0.0415566 0.0171437 -0.0355938 
-0.0461705 0.0287531 -0.0368724 -0.0430912 0.0206436 -0.0351799 -0.034456 0.0287999 -0.0329288 
-0.026082 0.0287505 -0.0353975 -0.0242993 0.0209941 -0.0373341 -0.0155978 0.0236361 -0.0384216 
-0.0186023 0.0251303 -0.0308191 -0.00745804 0.0282964 -0.032329 -0.00819486 0.0231755 -0.037781 
0.00620634 0.0215086 -0.0315252 0.00158417 0.0229907 -0.038971 0.0108013 0.0273068 -0.0305665 
0.0107563 0.020311 -0.0383232 0.0162824 0.0200395 -0.0303372 0.0164427 0.0248196 -0.0367787 
0.0280083 0.023387 -0.0357013 0.0374775 0.0244439 -0.0303689 0.0425374 0.0274866 -0.0392133 
0.0462308 0.0227025 -0.0336973 -0.0423831 0.0388265 -0.0303353 -0.0416641 0.0309384 -0.0305311 
-0.0441293 0.0365721 -0.0375026 -0.0388566 0.0308227 -0.039557 -0.0359359 0.0378765 -0.0357893 
-0.0209636 0.0385638 -0.0390296 -0.0211921 0.0340815 -0.0317457 -0.0204896 0.0312236 -0.0399268 
-0.0283668 0.0357688 -0.0357647 -0.0127605 0.0319176 -0.0353482 -0.00578778 0.0365734 -0.0361768 
-0.00117241 0.0305242 -0.0359867 0.00877202 0.0309017 -0.0378784 0.00510807 0.0373448 -0.038403 
0.0136802 0.0382254 -0.0387883 0.0122848 0.0355313 -0.0319313 0.0190273 0.039268 -0.033841 
0.0296735 0.0384985 -0.036699 0.0313292 0.0324049 -0.0314046 0.0371358 0.0389527 -0.0310805 
0.033957 0.0303392 -0.0379878 0.0395576 0.0360284 -0.0375097 0.046092 0.0344502 -0.0346545 
-0.0449614 0.0462433 -0.0327681 -0.0360806 0.0456899 -0.0360717 -0.0185184 0.0460723 -0.0320802 
-0.0142659 0.0408516 -0.0346222 -0.00320032 0.0438477 -0.0357704 0.00374306 0.0431232 -0.0333358 
0.0133801 0.0454916 -0.0399354 0.0228932 0.0461234 -0.0300672 0.0242853 0.0453039 -0.0392468 
0.0330596 0.0459745 -0.0339506 0.0459359 0.0449774 -0.0324761 -0.0429655 -0.0438713 -0.0233154 
-0.0358785 -0.0416934 -0.0233947 -0.0264549 -0.0436846 -0.021382 -0.0177431 -0.0445146 -0.0248845 
-0.00506365 -0.0408196 -0.0232863 0.00649732 -0.0403297 -0.029414 0.00405039 -0.0458493 -0.0227688 
0.0128233 -0.0454616 -0.0280823 0.028811 -0.0427008 -0.027824 0.0212652 -0.045752 -0.0282817 
0.0281525 -0.0461701 -0.0208116 0.0220777 -0.0411815 -0.0209643 0.0389397 -0.0462678 -0.0258434 
0.0459661 -0.0413909 -0.0286014 0.0462353 -0.0462624 -0.0216925 -0.0404949 -0.036306 -0.0253013 
-0.032752 -0.0339628 -0.0216185 -0.027783 -0.0344791 -0.0288076 -0.0232454 -0.0300347 -0.0240105 
-0.0132888 -0.0337408 -0.0249921 0.00883473 -0.0312756 -0.029932 0.00960837 -0.0363099 -0.0222668 
0.0212753 -0.0337815 -0.0234133 0.0361925 -0.0336331 -0.0230773 0.046261 -0.0347626 -0.0229583 
-0.0408852 -0.0236345 -0.0226593 -0.0346117 -0.0274128 -0.0256867 -0.0209652 -0.0239566 -0.0275211 
-0.0135938 -0.02668 -0.0260728 -0.00794552 -0.0228849 -0.0296045 -0.00710783 -0.0297592 -0.0227431 
-0.00995801 -0.0210475 -0.0227121 -0.00237106 -0.0297692 -0.0294117 -0.00126848 -0.0238942 -0.0215935 
0.00405096 -0.0286791 -0.0246642 0.012181 -0.0237618 -0.0254988 0.0196918 -0.025505 -0.020782 
0.0298721 -0.0221952 -0.0235191 0.0288844 -0.0294318 -0.024122 0.023962 -0.0252742 -0.0280506 
0.0398677 -0.0207474 -0.0282846 0.0381117 -0.0254913 -0.0221729 0.0460424 -0.0298694 -0.0293251 
0.0432521 -0.0203123 -0.0220549 -0.0419805 -0.0161277 -0.0262655 -0.0337091 -0.0114024 -0.0258197 
-0.0297937 -0.0190044 -0.0261464 -0.0120454 -0.0118226 -0.0211235 -0.017374 -0.0173035 -0.0247875 
-0.0175165 -0.0110125 -0.0280073 -0.000648924 -0.0159396 -0.0210987 -0.0026308 -0.0181687 -0.029667 
0.0164637 -0.0105598 -0.0201767 0.0108823 -0.0167627 -0.0210781 0.0241356 -0.0181513 -0.0293648 
0.0203589 -0.0123989 -0.026379 0.0307692 -0.0144639 -0.024402 0.0456576 -0.0101635 -0.0249029 
-0.0463523 -0.00343103 -0.025982 -0.0336503 -0.00348689 -0.029033 -0.0235289 -0.00637361 -0.0298484 
-0.0216623 -0.00450257 -0.0210624 -0.00877677 -0.00371023 -0.0263307 -0.0022142 -0.00913672 -0.0265737 
0.00479587 -0.0095199 -0.0272049 0.0110429 -0.00608923 -0.0292222 0.0172959 -0.00364244 -0.0268973 
0.0251881 -0.00179376 -0.0282308 0.0260464 -0.00863851 -0.021891 0.0336637 -0.00271027 -0.0256402 
0.037454 -0.00907512 -0.0256608 0.0306324 -0.00758347 -0.0299041 0.0460505 -0.00279551 -0.0266408 
-0.0418182 0.00273743 -0.0298632 -0.0373137 0.00922274 -0.0280726 -0.0333032 0.00344771 -0.0215836 
-0.0268169 0.00102023 -0.028257 -0.02048 0.00567316 -0.0210085 -0.00973119 0.00951704 -0.0279274 
-0.00209759 0.00446172 -0.0270519 -0.00594427 0.00149932 -0.0212711 0.00341188 0.000350914 -0.0242318 
0.00801416 0.00639088 -0.0259812 0.0115666 3.29343e-05 -0.0239288 0.0192758 0.00643839 -0.0279464 
0.0226319 0.00207865 -0.0231376 0.0405186 0.00467932 -0.0240878 -0.0465509 0.0111994 -0.0258986 
-0.0403956 0.0157797 -0.0252696 -0.0311794 0.0137396 -0.027257 -0.0348442 0.0119929 -0.0214387 
-0.0259139 0.0103916 -0.0227115 -0.0238536 0.019335 -0.0245513 -0.013549 0.0196469 -0.0272741 
-0.0184292 0.0136068 -0.0266313 -0.00765672 0.0181121 -0.0213825 -0.00108689 0.0151274 -0.0247984 
0.00360975 0.0105741 -0.0297333 0.0191925 0.0127718 -0.0223481 0.0127825 0.0140153 -0.0259925 
0.02571 0.0117844 -0.0290367 0.0277164 0.0160338 -0.0222732 0.0355357 0.0116189 -0.0231344 
0.038059 0.0191774 -0.0248379 0.0456179 0.0168028 -0.0282005 0.0456116 0.0116945 -0.0211947 
-0.0453612 0.0248133 -0.028109 -0.0464469 0.0284937 -0.0205861 -0.0377215 0.0236129 -0.0252997 
-0.0298676 0.0252298 -0.027356 -0.0179502 0.0253331 -0.0219885 -0.00645591 0.0271629 -0.0244413 
0.000907706 0.0269841 -0.0285273 0.00453897 0.0208781 -0.0242862 0.00545048 0.0299726 -0.0231459 
0.0113421 0.0253464 -0.0225988 0.0218328 0.0235619 -0.0224473 0.0298044 0.0247988 -0.0267947 
0.0256924 0.0298987 -0.0201485 0.0452312 0.0251875 -0.0239606 -0.0322622 0.0393337 -0.0219019 
-0.0358478 0.0336855 -0.0263587 -0.026086 0.0321505 -0.0254033 -0.0159785 0.0377065 -0.0276609 
-0.0141698 0.0307008 -0.0276872 -0.00245081 0.0368052 -0.0219742 -0.00694587 0.037612 -0.0279277 
0.00512876 0.0366987 -0.0276959 0.0182398 0.0312506 -0.0223191 0.0202602 0.0305377 -0.0299347 
0.025017 0.0350169 -0.0270616 0.03927 0.0334464 -0.0259148 0.0302914 0.0368104 -0.0204779 
0.0466487 0.0344187 -0.0265635 -0.0464459 0.0462098 -0.025348 -0.0369527 0.0449798 -0.0262894 
-0.0250114 0.0412199 -0.0293273 -0.0281728 0.0459751 -0.0237418 -0.0152558 0.0456842 -0.0246631 
-0.00907446 0.0457023 -0.0294357 -0.00454832 0.0452398 -0.0221386 0.00350657 0.0448926 -0.025197 
0.0113877 0.0452145 -0.0288205 0.0297126 0.0402827 -0.0284185 0.0234224 0.0422406 -0.0234528 
0.0356644 0.0432098 -0.0218343 0.03919 0.0464559 -0.0297646 0.0434947 0.0458462 -0.0200697 
-0.0125306 -0.0428134 -0.0191362 -0.00434797 -0.0449472 -0.017061 0.0100841 -0.0423023 -0.0133735 
0.0387359 -0.0409292 -0.0196751 -0.0449217 -0.0323318 -0.0127074 -0.0453161 -0.0326828 -0.0191817 
-0.0379715 -0.0347474 -0.0153419 -0.019617 -0.0370909 -0.0195655 -0.018916 -0.0391915 -0.0124207 
-0.0130651 -0.0324397 -0.0145624 -0.00757191 -0.0366141 -0.0167796 0.0298691 -0.0344314 -0.0169356 
0.0418228 -0.0317832 -0.0167049 -0.0272752 -0.0285514 -0.0178046 -0.00698751 -0.0237737 -0.0117208 
-0.000981647 -0.0292015 -0.0162729 0.00426024 -0.0242547 -0.0104573 0.0113088 -0.0254114 -0.018029 
0.0119217 -0.0299939 -0.0125973 0.015049 -0.022684 -0.0127314 0.032734 -0.0267683 -0.0143105 
0.0401302 -0.0221101 -0.0156371 -0.0429692 -0.0169639 -0.0172199 -0.0225318 -0.0194391 -0.0166236 
-0.0272003 -0.0121219 -0.0174797 -0.0183253 -0.0114197 -0.0128013 -0.00445131 -0.0172761 -0.0148239 
-0.000333575 -0.0109681 -0.0130542 0.0314835 -0.0133764 -0.0170252 0.0459955 -0.0140951 -0.0189177 
-0.0361114 -0.00911821 -0.0153484 -0.0364908 -0.00111653 -0.0150489 -0.000370934 -0.0075695 -0.0196595 
0.0264513 -0.00345288 -0.0169851 0.0425763 -0.003356 -0.0183713 -0.0405664 0.00162593 -0.0199827 
-0.0300031 0.00918396 -0.013059 -0.0262453 0.000248756 -0.0144251 -0.01363 0.00145458 -0.0193521 
0.000377736 0.00276175 -0.0154094 0.0127357 0.00225009 -0.0123057 0.0172767 0.0067141 -0.0192915 
0.0264884 0.00507463 -0.0164819 0.0329638 0.0053727 -0.0196602 0.0456541 0.00465478 -0.0161138 
-0.0434696 0.0197896 -0.0139431 -0.0234554 0.0177833 -0.0130361 0.0103115 0.0165908 -0.0193716 
0.0122883 0.0131487 -0.0117897 0.0243482 0.0187706 -0.0149327 0.0335108 0.0179615 -0.0160784 
0.0415991 0.0189059 -0.0110914 -0.0159173 0.0257406 -0.0152866 -0.00319267 0.0282942 -0.0171688 
0.00724139 0.0287492 -0.0144634 0.0153068 0.0271932 -0.0157233 0.0291086 0.0269714 -0.0119788 
0.0331945 0.0267188 -0.0198201 0.0402976 0.0229048 -0.017186 -0.0440312 0.0308808 -0.0129349 
-0.0314263 0.0331822 -0.017272 -0.0263502 0.0387809 -0.0151173 -0.0155115 0.0331184 -0.0121891 
-0.0182086 0.0367202 -0.0180754 -0.00926402 0.0325414 -0.0198609 0.00194782 0.0352378 -0.0139277 
0.0129455 0.0364416 -0.0199031 0.0268204 0.03717 -0.0112818 0.0379485 0.0350303 -0.0178672 
0.0447146 0.0321788 -0.0188801 -0.0464948 0.0409039 -0.0194902 -0.0380685 0.0459656 -0.0168793 
-0.0114012 0.0410417 -0.0190437 -0.0187629 0.0448409 -0.0183202 -0.000886102 0.0415396 -0.015547 
0.00631594 0.0444628 -0.0147276 0.0148764 0.0453208 -0.01565 0.0238844 0.0463052 -0.0120958 
0.0212767 0.0404912 -0.01679 0.0199207 -0.0412262 -0.00613617 -0.000842735 -0.0321252 -0.00166678 
0.0290213 -0.036767 -0.00946892 -0.0434801 -0.0264374 -0.00629011 -0.0333567 -0.0284172 -0.00879372 
0.00797327 -0.0290451 -0.00627716 0.0142363 -0.0215086 -0.00480629 0.0452171 -0.024865 -0.000560734 
-0.0302102 -0.0120819 -0.00354206 -0.0100362 -0.01555 -0.0075721 0.00751858 -0.0171226 -0.00678358 
0.0288199 -0.0199889 -0.00925478 -0.031822 -0.00193575 -0.00299183 0.0119122 -0.00573011 -0.00957321 
-0.0401458 0.000968571 -0.00281495 -0.00701769 0.006528 -0.00843114 0.0256395 0.00769122 -0.00107781 
0.0264224 0.000582649 -0.00267102 0.0439424 0.00320733 -0.00338379 -0.0314169 0.0190229 -0.00457519 
-0.0341161 0.0122909 -0.000501051 0.00365772 0.0126255 -0.000583351 0.031535 0.0182384 -0.0088147 
-0.037546 0.0256923 -0.00705999 0.0128245 0.0284376 -0.00919495 -0.0448955 0.0387428 -5.17756e-05 
-0.00469282 0.0324938 -0.00724002 0.00637462 0.0317736 -0.00262312 0.030398 0.0341617 -0.000395459 
-0.0425629 0.044896 -0.00661962 -0.027748 -0.045898 0.00938975 -0.0457094 -0.0366225 0.000264742 
-0.0239251 -0.0361952 0.00426491 -0.0262339 -0.0248762 0.000525439 0.0100087 -0.0131505 0.00125059 
0.0316269 -0.0156695 0.00185006 -0.00494146 -0.00959523 0.00580223 -0.00327326 0.00257583 0.00616226 
-0.00298398 0.01899 0.00937566 0.0463547 0.0111879 0.00542338 -0.0157334 0.0277689 0.00273116 
0.00814094 0.0275679 0.00557649 0.0205047 0.0350714 0.00492585 -0.0227453 -0.0335782 0.0176319 
-0.0175571 -0.0237075 0.0133849 0.0103058 -0.0195343 0.0125407 0.042104 0.0167376 0.0103135 

gid 1 567 double
0 0 0 0 0 0 0 0 0 
0 0 0 0 0 0 0 0 0 
0 0 0 0 0 0 0 0 0 
0 0 0 0 0 0 0 0 0 
0 0 0 0 0 0 0 0 0 
0 0 0 0 0 0 0 0 0 
0 0 0 0 0 0 0 0 0 
0 0 0 0 0 0 0 0 0 
0 0 0 0 0 0 0 0 0 
0 0 0 0 0 0 0 0 0 
0 0 0 0 0 0 0 0 0 
0 0 0 0 0 0 0 0 0 
0 0 0 0 0 0 0 0 0 
0 0 0 0 0 0 0 0 0 
0 0 0 0 0 0 0 0 0 
0 0 0 0 0 0 0 0 0 
0 0 0 0 0 0 0 0 0 
0 0 0 0 0 0 0 0 0 
0 0 0 0 0 0 0 0 0 
0 0 0 0 0 0 0 0 0 
0 0 0 0 0 0 0 0 0 
0 0 0 0 0 0 0 0 0 
0 0 0 0 0 0 0 0 0 
0 0 0 0 0 0 0 0 0 
0 0 0 0 0 0 0 0 0 
0 0 0 0 0 0 0 0 0 
0 0 0 0 0 0 0 0 0 
0 0 0 0 0 0 0 0 0 
0 0 0 0 0 0 0 0 0 
0 0 0 0 0 0 0 0 0 
0 0 0 0 0 0 0 0 0 
0 0 0 0 0 0 0 0 0 
0 0 0 0 0 0 0 0 0 
0 0 0 0 0 0 0 0 0 
0 0 0 0 0 0 0 0 0 
0 0 0 0 0 0 0 0 0 
0 0 0 0 0 0 0 0 0 
0 0 0 0 0 0 0 0 0 
0 0 0 0 0 0 0 0 0 
0 0 0 0 0 0 0 0 0 
0 0 0 0 0 0 0 0 0 
0 0 0 0 0 0 0 0 0 
0 0 0 0 0 0 0 0 0 
0 0 0 0 0 0 0 0 0 
0 0 0 0 0 0 0 0 0 
0 0 0 0 0 0 0 0 0 
0 0 0 0 0 0 0 0 0 
0 0 0 0 0 0 0 0 0 
0 0 0 0 0 0 0 0 0 
0 0 0 0 0 0 0 0 0 
0 0 0 0 0 0 0 0 0 
0 0 0 0 0 0 0 0 0 
0 0 0 0 0 0 0 0 0 
0 0 0 0 0 0 0 0 0 
0 0 0 0 0 0 0 0 0 
0 0 0 0 0 0 0 0 0 
0 0 0 0 0 0 0 0 0 
0 0 0 0 0 0 0 0 0 
0 0 0 0 0 0 0 0 0 
0 0 0 0 0 0 0 0 0 
0 0 0 0 0 0 0 0 0 
0 0 0 0 0 0 0 0 0 
0 0 0 0 0 0 0 0 0 

a 3 567 double
0 0 0 -9.82666 -115.353 6.64531 -182.91 122.268 -156.359 
476.348 -92.9782 -372.626 11.6468 22.0361 -142.075 34.9363 -317.666 -22.3067 
-1127.99 -58.6477 90.911 1127.99 58.6477 512.721 0 0 0 
-266.69 39.1574 -114.581 436.017 -124.147 -29.5845 0 0 0 
36.6648 -9.69758 -14.6604 -2.69525 130.877 -95.4906 0 0 0 
24.8322 59.493 -93.9698 528.537 -321.519 -546.702 -25.7281 -9.89104 -0.316604 
-118.185 331.825 -80.449 143.016 76.7719 -204.037 315.356 -222.484 -423.246 
23.1467 -286.454 229.4 984.878 -3.10684 9.14875 -132.905 -80.6455 -102.918 
-409.288 -339.595 319.472 5.34751 -2.68484 -0.902642 0.655359 -6.53634 232.001 
0 0 0 -113.972 -27.1555 -78.0152 0 0 0 
0 0 0 -721.466 13.5849 -444.759 838.148 122.748 -199.216 
19.6342 293.225 21.2174 -29.892 6.78807 -255.268 3.16749 23.1278 -127.666 
-57.4953 185.918 -638.699 0 0 420.206 573.3 278.58 -73.6116 
-273.357 77.6355 63.3683 165.867 76.782 -25.8213 381.284 44.0741 -130.232 
27.9728 -65.5005 -0.384784 26.415 -26.1872 -11.2462 69.6385 -69.7797 -18.0526 
0 0 895.629 8.95807 11.3089 192.85 -632.534 -30.3 2.80019 
-399.208 -144.01 250.808 -104.336 -382.843 -13.1984 0 0 -3.92633 
49.4213 107.583 121.663 0 0 0 -727.665 290.516 -470.384 
-345.36 -489.701 461.112 19.9399 -242.283 381.966 0 0 0 
-76.4223 -124.55 -8.57707 -69.6385 69.7797 32.4821 -169.25 -426.251 23.4734 
426.668 420.345 -240.203 -76.8719 -760.395 -405.591 114 -58.5335 5.60442 
-64.9648 -20.7968 -94.4 1098.01 559.062 -256.006 -2.07241 -48.3733 92.5148 
0 0 0 0 0 0 325.42 731.984 -466.729 
-4.77755 1.51677 2.05551 81.1999 123.033 6.52156 -242.77 152.328 1.50697 
-105.092 223.979 153.532 99.2249 -458.706 -197.601 28.4769 124.7 363.645 
-118.805 42.4235 21.3839 0 0 0 0 0 0 
-79.6557 -214.321 157.768 2.07241 48.3733 2.78632 0 0 0 
-70.7698 -45.4828 -4.95335 -111.584 -326.797 -416.053 535.692 -566.515 -334.987 
-90.4933 17.1522 5.60891 60.5548 83.7565 -68.0552 158.221 70.5444 -183.171 
-453.839 -360.947 24.5243 -151.537 0 0 354.339 0 0 
-292.304 -78.0231 23.2801 300.373 322.482 93.3898 71.5868 -30.1378 -32.3283 
15.7132 40.8067 -46.747 0 0 1311.81 100.801 404.603 -157.241 
-288.507 -1323.21 124.436 -27.7833 -7.82285 -12.4188 -537.874 -91.1015 -427.347 
601.071 141.011 249.231 267.351 -658.128 -502.918 2.38055 6.15716 0.0110931 
453.839 360.947 -24.5243 -120.167 -50.8432 0.272327 -71.1026 -505.585 -3.46665 
-77.765 -55.2983 -217.139 -458.955 -6.50807 -15.6641 458.955 6.50807 15.6641 
288.507 1323.21 549.26 27.7833 7.82285 12.4188 279.788 -13.214 -173.818 
-300.109 636.576 534.426 33.065 11.1766 -18.5951 -1.01831 -58.0245 -274.846 
-418.565 -7.78746 83.7915 -263.17 0 0 -114.217 277.368 -125.355 
141.189 528.597 68.1032 0 0 123.561 9.53083 83.436 -41.0782 
-385.215 160.268 -28.3173 532.783 -380.91 -566.279 -32.3108 -54.869 -89.9203 
-3.32835 10.607 1.89372 241.788 -73.3585 -488.46 -0.250191 -1138.86 3.65688 
0 0 0 -170.34 -78.6279 -118.136 170.34 78.6279 118.136 
-93.2059 -125.626 -10.1113 8.55518 -4.63063 70.1757 -291.865 -10.7437 445.483 
-249.585 690.995 -774.412 -4.61754 -905.935 742.535 0 0 0 
138.704 -361.857 127.54 -546.645 163.59 -84.0148 546.645 1.52668 84.0148 
-112.299 -519.781 54.2751 -3.61016 267.196 -237.524 0 0 0 
-220.208 -120.272 -226.218 -614.535 -512.23 -321.121 196.026 -232.987 48.2398 
53.5981 -79.9788 7.70379 -24.8322 -59.493 95.5231 11.44 59.3305 -179.716 
-54.2512 -43.2238 15.4093 -71.416 94.5452 218.192 -57.4555 209.343 89.509 
0.737944 4.5316 -1.47241 -141.242 -236.881 469.08 -13.9333 -283.28 12.08 
-43.2266 13.1012 -15.401 -64.9795 296.172 -397.431 0 0 0 
0 0 0 -66.9539 -160.163 -191.373 -93.6924 614.468 104.551 
-786.098 98.9765 1098.94 681.916 195.107 -161.894 18.2988 203.69 -543.685 
59.3382 139.874 7.39515 -217.574 -108.44 236.758 -1370.35 759.921 -991.345 
815.357 285.325 -355.56 -919.186 935.227 -87.3181 660.313 -760.021 131.183 
232.696 -7.41299 228.68 -480.827 69.34 172.523 267.333 88.5323 -93.8012 
-45.5116 18.9469 424.981 -110.308 -6.00438 246.147 143.455 -334.696 166.244 
182.419 -23.1278 127.666 0 0 0 -282.032 -29.7875 224.622 
339.527 -156.131 414.077 1.40437 2.96608 2.53545 160.215 115.413 -254.688 
8.75563 52.1887 24.3197 -34.4766 -50.6829 -215.318 4.40481 -92.4589 -106.536 
0 0 0 -103.396 -75.6832 -76.1733 77.5053 275.671 -43.551 
511.313 -50.2642 -295.766 189.806 -501.192 -46.3612 113.071 385.854 -80.5451 
220.724 -104.837 -141.586 -237.186 150.259 -215.28 0 0 0 
3.69199 -17.895 6.46067 -138.15 64.8664 -143.787 0 0 0 
-107.809 4.71822 -33.6745 0 0 0 232.785 563.503 -556.405 
-127.234 -15.5625 -21.87 673.278 -198.829 482.015 144.176 355.478 -282.918 
-676.495 -255.638 -12.3743 160.702 -97.0782 246.327 845.297 -473.192 -90.5371 
-181.56 32.2131 126.2 69.6609 -318.389 72.5141 -187.405 231.969 252.366 
450.407 -125.379 -63.4866 37.9788 15.7716 -50.784 391.956 -273.592 -318.043 
64.9648 20.7968 94.4 0 0 0 -40.9171 -11.078 -17.5634 
77.1366 -72.1679 100.544 0 0 0 100.63 -478.759 -598.096 
-217.469 689.833 -139.666 81.4402 -35.8974 -186.471 -125.923 465.089 40.6993 
-480.101 -951.632 -176.942 -371.981 -80.4946 500.08 298.254 340.665 322.328 
886.815 711.529 248.083 65.543 137.409 -174.081 223.226 731.041 10.1751 
-492.003 -485.024 -173.169 144.741 -441.775 171.769 -39.0198 -163.137 61.9088 
-15.6054 127.44 -112.211 -160.475 -29.7677 -194.965 -11.2609 24.1497 84.0543 
-37.1208 -263.207 223.652 -144.8 156.411 109.303 227.351 -115.696 332.505 
414.897 -485.442 -189.334 -270.681 325.971 296.619 -177.651 140.028 58.0391 
-28.4722 251.276 -798.209 0 0 0 -69.942 -103.223 -32.5677 
833.565 -7.47919 0.378301 0 0 0 729.549 -332.39 -307.231 
-41.5283 -790.663 152.188 102.178 246.735 -356.711 -176.255 157.007 -20.5501 
-72.7242 -83.8681 -33.2726 381.906 -511.682 578.509 199.017 -66.5616 -36.1602 
-353.436 -561.883 -212.274 -72.0823 40.4428 105.56 380.792 594.221 159.193 
-844.244 683.071 322.813 -262.904 25.1135 174.392 106.098 117.082 48.1368 
321.925 294.487 38.0363 0.311157 16.6716 -19.9411 0 0 0 
-118.7 323.997 -41.0786 102.774 372.422 502.92 -1278.76 -22.151 -177.207 
-135.378 -455.353 -328.922 26.3726 -38.5569 -21.066 0 0 0 
204.325 550.545 293.915 -283.795 -306.648 -271.701 152.882 -409.567 -233.753 
-127.278 672.39 45.5946 -690.982 554.749 -671.722 -188.805 211.483 26.615 
479.36 -119.463 -276.785 121.058 -255.799 -9.2306 -88.7029 -87.6949 -218.816 
-1201.94 -633.712 -860.904 -120.344 -124.561 345.058 1015.18 214.962 743.122 
0 0 0 -61.2587 10.6975 167.83 -179.563 -215.434 38.8124 
111.709 -54.8335 -207.816 -615.633 203.302 -232.631 658.862 -231.996 111.397 
77.2582 -57.6564 -295.053 0 0 0 -566.566 372.254 167.057 
517.265 -469.938 -338.782 -201.149 231.705 587.611 21.2255 332.431 235.032 
59.6216 611.395 36.4626 5.56652 -326.605 -108.454 0 0 0 
-400.48 -2.41799 409.824 704.748 -92.2796 -217.268 0 0 0 
87.3658 -106.202 20.1158 0 0 0 0 0 0 
-212.656 356.463 -617.647 254.203 214.94 31.8771 0 0 0 
0 0 0 10.2928 240.461 -482.68 -66.6212 -31.5206 1.68226 
56.3284 -123.408 480.998 -7.38834 -127.149 36.216 -0.18141 565.933 -1.55546 
109.214 -309.274 412.832 -1004.18 0 0 -83.7557 -160.994 217.408 
47.9159 -272.541 112.162 220.208 120.272 226.218 256.948 -347.407 -449.808 
31.8299 -231.464 20.1535 80.6597 -38.6022 -114.515 0 0 0 
7.38834 127.149 -36.216 3.50979 16.7391 5.50187 -540.173 -3.09642 2.9225 
0 0 0 -47.9159 272.541 -112.162 319.215 313.145 -127.835 
-414.064 -82.2647 -41.6304 -11.6866 -187.141 -295.351 0 0 0 
122.572 253.636 278.365 26.451 -723.727 1893.61 -115.017 593.234 -474.201 
-80.6597 38.6022 114.515 -6.33153 16.9526 -146.049 -68.1783 -1.93245 85.0368 
-15.9788 -237.355 -17.3487 304.109 -525.733 177.631 -369.616 -373.891 -38.5365 
-492.486 -282.194 -321.335 -160.006 -238.985 -251.057 -53.5955 2.31273 6.19909 
330.278 -180.047 -280.518 66.9539 160.163 191.373 0 0 0 
0 0 0 0 0 0 -87.2213 -1250.62 480.252 
132.923 1259.11 -450.39 128.433 84.2576 -210.903 329.495 296.288 257.228 
0 0 0 0 0 0 -187.989 63.2353 -419.487 
-178.674 544.792 316.597 57.7825 603.776 154.953 -134.815 -527.199 -349.772 
1384.68 0 0 -54.569 -22.7449 -3.29768 278.677 -256.846 121.089 
0 0 0 87.1949 -48.9123 62.9049 -636.901 -606.975 402.594 
-304.128 -315.588 380.997 -198.351 -40.5915 -381.143 1115.55 -134.182 138.256 
270.118 -720.039 -745.5 -62.7942 -575.559 -698.235 12.0311 230.029 252.102 
20.3467 -53.515 2.20825 -125.846 -244.977 -145.439 56.1085 749.568 -107.68 
-37.9788 -15.7716 50.784 -724.183 -527.494 -65.0547 0 0 0 
-95.9322 242.69 26.2017 590.059 -599.076 376.971 0 0 0 
-49.8296 375.89 -524.684 163.892 -235.527 337.276 270.491 -235.301 99.2155 
354.115 -288.878 406.829 -372.139 329.359 308.115 -234.251 329.984 -511.07 
-130.724 315.446 1068.15 37.0603 56.1664 94.4936 -32.3834 -482.277 56.803 
608.203 670.155 314.418 723.693 884.003 -753.835 -455.145 -329.823 1009.98 
-438.019 536.422 -273.56 -32.3545 121.28 217.622 34.2343 39.5258 -11.4931 
59.221 -100.536 33.0786 -146.633 96.7667 80.8113 42.2998 -181.265 -106.406 
-531.885 825.048 416.269 875.727 740.711 -35.8567 -244.55 -206.47 -990.612 
-18.0278 45.8346 56.3684 0 0 0 211.962 459.976 -173.212 
-1.71773 -23.289 21.5332 -15.6947 -138.541 97.5467 0 0 0 
-17.9664 -21.2369 11.2067 449.756 0 0 0 0 0 
-1.50004 -4.21624 -2.25336 -12.132 3.11433 -57.7884 38.3001 -78.7424 295.253 
-284.098 -242.614 -361.8 89.1692 69.3043 84.0549 -186.598 678.236 353.043 
465.729 -480.797 41.0204 0 0 0 -70.6908 -61.0744 -154.499 
-34.8768 -92.8162 -6.31415 0 0 0 -24.1256 192.821 -165.295 
610.929 180.949 465.71 1.07789 2.62211 0.866435 112.956 993.164 381.398 
211.088 -640.656 48.4439 165.673 20.4807 190.181 -165.673 -20.4807 -190.181 
4.94986 44.3586 -29.9845 384.105 -337.905 -114.123 -486.975 -394.348 -337.005 
-42.9343 -280.665 505.193 -292.809 -46.716 40.071 52.2721 86.9618 7.77748 
-971.37 27.279 295.34 1325.23 102.917 81.5561 0 0 0 
70.7684 -113.325 -92.5346 -70.7684 30.8373 92.5346 -139.86 55.1862 254.678 
202.4 -13.1768 -118.144 0 0 0 0 0 0 
0 0 0 472.416 713.247 -129.306 483.174 244.194 -1019.01 
0 0 0 -413.784 -251.103 319.17 0 8.5025 0 
0 0 0 196.291 -421.512 795.865 0 0 0 
0.18141 1.35496 1.55546 16.5102 310.498 1725.03 -163.053 -253.133 -1632.11 
146.543 -57.3652 -92.9255 -37.8696 31.6849 -258.708 37.8696 -31.6849 258.708 
-222.555 101.889 87.9154 222.555 -101.889 -87.9154 0 0 0 
0 0 0 -326.906 76.476 644.426 -114.883 -220.257 168.107 
115.017 -593.234 474.201 -104.364 191.566 -188.126 -811.062 -561.114 -1779.99 
354.539 -320.377 -457.807 827.339 688.308 1780.9 0 0 0 
-98.903 -51.2559 806.525 0 0 0 0 0 0 
0 0 0 0 0 0 -13.5503 136 42.7963 
-3.02279 -19.1217 57.5683 16.8931 17.8514 75.2047 148.684 311.956 627.917 
-0.395007 3.27559 0.688975 1212.86 -617.794 1809.23 68.9181 61.4083 95.7697 
96.5286 610.764 736.124 0 0 0 -1212.47 614.519 -1809.91 
0 0 0 0 0 0 -406.72 63.7138 93.2077 
0 0 0 0 0 0 -262.374 -782.791 317.349 
-741.806 -154.249 591.231 652.623 -246.456 -254.413 0 0 0 
0 0 0 0 0 0 -400.04 265.907 728.84 
0 0 0 0 0 0 64.8135 -36.62 -485.893 
349.764 -543.548 932.988 12.132 -3.11433 57.7884 108.634 -93.7336 42.0444 
-51.8152 2.71098 -44.8293 47.1188 -24.1508 -128.024 0 0 0 
68.2738 62.6454 154.231 -349.764 543.548 -932.988 0 0 0 
6.63483 -198.015 175.76 27.4702 28.6102 4.84693 0 0 0 
3.91865 -493.424 -76.089 -108.634 93.7336 -42.0444 363.499 -1001.91 440.169 
-401.949 342.664 111.453 0 0 0 -99.2994 36.4748 33.3068 
102.165 -36.9506 -31.833 1361.69 -162.314 213.497 0 0 0 
49.0521 23.2633 -6.27905 -52.9708 470.16 82.3681 -876.035 792.168 -418.132 
512.536 209.742 -22.037 0 0 0 0 -491.455 0 
-488.74 -331.004 1127.47 0 0 0 0 0 0 
0 0 0 0 0 0 0 0 0 
-260.121 -15.3357 791.07 0 0 0 0 0 0 
0 0 0 0 0 0 0 0 0 
0 0 0 0 0 0 0 0 0 
0 0 0 0 0 0 -116.386 781.994 385.013 
116.386 -781.994 -385.013 0 0 0 0 0 0 
0 0 0 0 0 0 -64.8135 36.62 485.893 
0 0 0 4.69641 21.4398 172.853 0 0 0 
0 0 0 0 0 0 0 0 0 
0 0 0 0 0 0 0 0 0 
0 0 0 0 0 0 0 0 0 
0 0 0 0 0 0 0 0 0 
0 0 0 -441.192 0 0 0 0 0 
0 0 0 0 0 0 0 0 0 
0 0 0 0 0 0 0 0 0 

v 3 567 double
-0.205461 -0.130193 0.841783 0.0202531 -0.742393 -0.432892 0.232456 -0.629088 0.178391 
0.184457 0.0988236 0.209557 0.124527 0.0710432 -0.243696 -0.291308 -0.293075 0.527169 
-0.396083 0.0892166 0.0577791 0.833195 -0.630453 0.467181 -0.832702 0.269257 0.0199015 
-0.143199 0.079258 0.544125 0.0841809 0.509922 0.667631 0.292619 -0.306727 0.453558 
0.0498527 0.549566 0.229582 0.881724 -0.358502 -0.931323 0.178428 -0.36178 0.0833835 
0.700294 -0.376749 0.0223826 0.348246 -0.761439 0.208392 0.187088 -0.472778 0.546329 
-0.217481 0.346687 0.585663 -0.340595 0.118312 0.159537 -0.579948 0.473467 0.59239 
-0.472354 -0.381617 0.121709 0.265921 0.222028 0.448947 0.0832125 -0.372275 0.673047 
-0.0876673 0.132648 0.432244 -0.421807 -0.541118 0.137717 -0.0557332 -0.611121 0.0243817 
-0.146607 -0.816078 0.271862 -0.0398767 0.137422 0.497401 -0.112122 0.2215 0.334009 
-0.14418 0.160639 0.260056 -0.585885 -0.40378 0.446377 -0.426243 -0.02594 0.267638 
-0.438524 0.647794 -0.00184641 0.139313 0.461289 0.158415 0.26169 -0.230996 -0.0378837 
0.404305 0.640405 0.323273 -0.281613 -0.275937 0.624876 0.0806855 0.254846 -0.226442 
-0.275868 0.066316 0.139032 0.136153 -0.62563 -0.385739 0.0918671 -0.895323 0.662429 
0.157134 -0.603234 0.122764 -0.312229 -0.125399 0.183548 -0.254748 -0.0880591 -0.0343388 
-0.027392 -0.59725 0.693153 -0.137488 -0.274324 0.378672 0.112154 -0.138362 -0.0852233 
0.56008 -0.267527 0.0594312 -0.279807 -0.371824 0.188701 0.326949 -0.168893 0.417204 
0.440918 -0.749197 -0.269789 0.715077 -0.0934838 -0.289858 0.382244 -0.39182 0.413921 
0.0488108 -0.485466 0.406346 0.856464 -0.668429 -0.245838 0.106986 -0.200017 0.6328 
-0.39531 0.542089 0.109423 -0.202505 -0.167582 0.440631 -0.814059 0.113954 -0.249919 
-0.790635 0.282011 -0.222 -0.213211 -0.217935 0.176626 -0.564168 0.292727 0.146359 
0.138147 -0.362244 0.38736 0.323781 -0.3571 0.543502 -0.195069 0.708755 0.234391 
0.0781389 0.589352 0.681645 -0.0585855 -0.214516 0.133837 0.113772 -0.506924 0.55069 
0.165534 -0.0665189 0.202427 1.01518 0.510091 0.250105 0.410162 -0.88944 0.0533106 
0.117235 0.19374 0.500554 -0.392534 0.246706 0.44379 0.338508 -0.957984 0.243045 
0.789665 0.292015 -0.363591 -0.275763 0.0482722 0.111476 0.363142 -0.563437 0.0861899 
0.42307 -0.00744816 -0.116472 -0.423492 0.273665 0.170124 -0.349307 -0.0258003 -0.450929 
-0.291822 0.462232 0.352091 0.252243 0.428802 0.352483 -0.399097 -0.354871 -0.0666503 
-0.235251 0.0337571 -0.0104221 -0.544864 -0.136194 0.2458 -0.612461 0.318934 0.243996 
-0.920995 0.147618 0.789894 -0.559782 -0.514181 0.0497569 0.416389 0.168358 -0.0891221 
0.168052 0.0724513 0.316198 -0.0601962 0.318419 -0.0401928 0.203347 -0.414125 0.0899805 
-0.100583 -0.633698 0.363936 0.035734 -0.0175813 0.211871 0.185545 -0.0200416 0.366216 
0.0683914 -0.452126 -0.207549 0.087495 0.194525 0.0216335 -0.0330577 -0.0341274 0.456321 
-0.111406 -0.0258209 0.19252 -0.0064702 -0.326853 -0.0597617 0.280021 0.139188 -0.0831117 
-0.0321763 -0.258025 0.783513 -0.10332 0.546289 0.0580584 -0.120541 0.188211 -0.0186575 
0.473984 -0.0273865 -0.332551 0.0233003 0.131944 0.276977 0.0814665 -0.564956 0.951765 
-0.0877119 0.190894 -0.0169382 0.356922 0.027745 0.440637 0.123114 0.484181 0.232341 
-0.398359 0.35259 0.89206 -1.05464 -0.336306 -0.0264984 -0.38463 0.679435 0.389131 
-0.202536 0.0377779 0.00657859 -0.256776 0.123127 -0.30181 -0.987706 0.331591 0.282303 
-0.320519 -0.16329 -0.645273 -0.000151624 -0.140374 0.0311393 -0.327807 -0.374022 0.0820213 
-0.621168 -0.41196 -0.324824 -0.0933524 -0.091661 -0.465911 -0.471331 -0.0190934 0.703278 
0.349148 0.183087 -0.0279763 0.489075 -1.59159 0.517721 -0.228364 -0.334076 0.786989 
0.982262 -0.127678 1.30316 0.209047 0.274815 0.293616 -1.42248 -0.361171 0.543797 
0.0144581 -0.295808 -0.11581 -0.664015 -0.726485 -0.095777 -0.21696 -0.481548 0.623062 
-0.056451 -0.064456 -0.279263 -0.113863 -0.524696 0.237264 0.107026 0.594628 0.471535 
-0.073677 -0.273432 0.299141 -0.336224 -0.433487 0.38598 0.27345 0.312498 0.0247528 
0.0386687 -0.206355 1.35163 0.357361 -0.122391 0.507195 -0.136697 0.123949 0.191338 
-0.206977 0.49913 0.383243 0.0892086 0.284124 0.696241 -0.114659 -0.397484 0.380006 
-0.601305 -0.0657465 0.64048 -0.377123 0.324284 0.227019 -0.189177 -0.331774 -0.345055 
-0.549828 -0.0135555 0.759186 -0.686917 0.181826 0.0950827 -0.66813 0.168992 0.475106 
0.090692 -0.327087 0.220939 -0.503703 0.192083 0.947054 -0.0851827 0.281169 0.563087 
-0.507837 -0.188162 0.606492 0.231123 -0.198459 0.22994 -0.292368 0.084017 1.06003 
-0.218277 -0.141949 0.53763 -0.0985348 -0.769562 0.487745 -0.580044 0.528695 0.315438 
0.479729 0.466236 0.865734 -0.293328 -0.135531 0.0761408 0.336745 0.743705 0.314303 
-0.317139 -0.440908 0.158183 -0.307385 0.091378 0.598296 0.064248 0.244548 -0.718368 
0.131193 0.499504 0.0537306 -0.345501 0.516605 0.123324 0.21168 -0.191752 0.282619 
-0.160807 0.00226695 0.331179 -0.28193 -0.293374 0.23977 -0.0949177 0.114754 0.321031 
-0.36342 0.0136125 0.562173 0.0237357 -0.0886617 0.0440394 0.141843 0.0840137 0.251619 
0.318579 0.523361 0.479301 0.00384821 0.395862 0.841911 0.00095996 0.284598 0.169971 
-0.272612 0.430032 -0.00188123 -0.46905 -0.184228 -0.320884 -0.121802 0.148539 -0.0126301 
0.208006 -0.565119 0.392594 0.370562 0.165429 0.551955 0.0822787 0.469272 0.14062 
0.00707474 0.329227 -0.00904162 0.0234261 -0.164652 0.354342 -0.179984 -0.0397489 -0.101822 
0.445602 0.0067303 0.587947 0.461707 -0.0323242 0.105404 -0.288842 1.16826 0.0941178 
-0.57473 -0.288799 0.546551 0.638532 -0.00663486 -0.145432 -0.616895 -0.289288 0.640743 
0.353266 0.428569 0.649525 0.187373 -0.216045 0.397017 -0.324578 -0.239958 -0.0948303 
-0.499864 -0.0558857 0.113801 0.0973414 0.035748 0.0636562 0.177091 -0.161451 0.558438 
0.595057 0.595211 0.024146 0.0894404 0.206289 0.896035 0.182486 0.572328 -0.164722 
-0.929553 -0.145476 0.343033 -0.215937 -0.0426571 0.0261113 0.155996 0.148153 0.0459563 
0.101955 -0.362811 0.454203 -0.0482547 -0.527434 0.0356428 0.523745 -0.299707 0.221787 
0.621146 -0.158212 -0.317107 -1.14288 0.58494 -0.0779112 -0.314933 -0.695831 0.523109 
0.453851 -0.00895276 -0.0772811 0.691416 -0.731428 0.196256 -0.394317 -0.61225 0.127757 
0.101989 -0.131561 0.300959 -0.352259 -0.228756 -0.0671124 -0.165984 0.276951 0.252277 
-0.540832 0.581922 0.211963 -0.189995 -0.086252 -0.0350783 -0.465495 0.0858747 0.357547 
-0.504359 -0.101902 0.59097 0.372372 0.221927 0.545026 0.260095 -0.256108 0.781105 
-0.0193006 0.266957 0.52578 0.414044 0.751534 -0.0305281 0.464758 0.278093 0.64362 
0.188658 -0.493575 -0.135177 0.0625715 0.0436073 0.33157 0.281654 -0.60849 0.255094 
-0.0442171 0.621762 -0.0991268 -0.330963 -0.068294 -0.287472 -0.139817 0.482062 0.129368 
-0.6366 0.186333 0.668398 0.21713 0.677846 -0.508091 -0.0210917 -0.0278341 0.960543 
-0.30465 -0.155557 -0.0084017 -0.281387 0.0193684 0.354366 0.390669 -0.410574 -0.19763 
-0.0193442 0.212832 0.407366 -0.24093 -0.417767 -0.096154 0.0215203 0.0605825 0.0600394 
0.536771 -0.453382 0.674915 0.419604 -0.247002 0.668879 0.44049 0.00647588 0.687298 
-0.241404 0.491278 0.37297 -0.412962 0.51643 0.280855 0.131285 -0.390954 0.544822 
0.223336 0.0181896 0.127467 0.0644877 -0.42185 -0.09653 -0.373098 -0.0271872 0.701917 
-0.217812 -0.198393 0.536653 0.173785 -0.310537 0.349057 0.416172 -0.03417 0.22501 
-0.374345 0.444731 0.696296 0.840015 0.23917 0.0370127 -0.176759 -0.650338 0.137951 
0.420605 0.664007 -0.00784573 0.206301 -0.158683 0.823638 -0.0115994 -0.41015 0.377517 
0.0842064 -0.371344 -0.0367405 -0.275177 0.604931 1.0497 -1.28256 -0.0107181 0.775007 
-0.402459 0.242163 0.364758 0.107629 0.0699767 0.150756 0.0580399 0.303555 0.177026 
-0.531588 -0.0486691 0.421316 -0.743518 0.616483 0.454273 0.0104652 -0.0852517 0.283884 
-0.429697 0.676135 0.13823 -0.290851 -0.227412 0.369193 0.68904 0.0517717 0.263684 
0.697914 0.0243568 0.635765 0.0417653 0.867623 0.224969 0.0150664 0.430906 -0.101879 
-0.376494 0.0566827 -0.298603 0.307461 0.397544 -0.00573529 0.145621 0.273056 0.545681 
0.694291 0.404648 0.0497651 0.5434 0.792034 0.0743257 0.107546 -0.692915 -0.145155 
-0.383201 0.531426 0.386804 -0.242463 0.628213 -0.143957 0.356086 0.736369 -0.730811 
-0.353545 0.471684 0.467651 -0.0508869 -0.442962 -0.0619552 -0.203714 -0.098531 0.26505 
-0.416382 -0.30616 0.459196 0.778492 -0.716925 -0.463103 -0.625418 0.386279 0.951374 
-0.509798 0.0466151 -0.328041 -0.5779 -0.309198 0.202273 -0.0278519 -0.425344 -0.22441 
0.625795 -0.265632 0.159299 -0.0460767 0.10055 0.1933 1.46919 0.32084 1.35657 
-0.643457 0.529661 1.24791 -0.545124 0.504261 1.11125 0.709502 -0.105264 1.35896 
0.947689 0.836318 -0.155725 -0.12145 0.0350052 0.796787 1.0649 0.0632988 1.24576 
-0.420853 -0.931905 -0.833746 0.531601 0.573059 0.436326 -0.154785 0.317816 0.445681 
-0.94407 -0.163231 1.14571 0.300092 -0.161854 1.15483 -0.360944 0.118955 0.804129 
-0.107433 -0.285408 0.195075 -0.509732 -0.69262 -0.809468 -0.140986 -0.261513 1.20324 
0.098648 0.360414 1.3867 0.113154 -0.265861 0.537191 0.19649 -0.39338 0.293232 
0.314433 0.764871 0.644047 0.0805547 0.488338 0.621933 0.199438 0.0756573 0.801718 
-0.677293 -0.135983 0.876462 -0.109416 0.0213117 0.79105 -0.111504 0.553216 0.720786 
0.263559 0.267608 -1.16808 -0.565438 0.369196 0.0988574 0.447723 -0.461377 1.0276 
0.473931 -0.33245 0.585207 0.321862 0.501609 0.76522 -0.394343 0.374474 0.249361 
0.461613 -0.251038 0.115885 0.116432 -0.268564 0.708102 0.120843 -0.137353 -0.40817 
-0.0225223 0.712069 -0.0971877 0.552178 0.316136 0.422573 0.284217 0.0557716 1.19786 
0.0353827 -0.529876 1.27654 0.024615 0.115302 0.674718 0.437655 0.012836 -0.460944 
0.461057 0.190108 0.18923 0.306775 1.0664 -0.770101 -0.0677797 -0.114756 -0.00951069 
-0.186923 -0.317658 -0.0284302 1.31111 0.607141 -0.0937982 0.108825 0.307385 0.536703 
-1.16385 -0.147482 -0.478177 0.0872591 0.362237 0.798314 0.486064 0.298535 0.612171 
-0.0721347 0.404139 -0.256344 -0.80424 -0.522683 0.628457 -0.355516 -0.0950861 0.555245 
-0.101136 -0.499856 0.274892 -0.20957 -0.824715 0.65063 -0.178431 0.231056 0.714164 
-0.710741 0.38486 0.857611 -0.0222614 0.411217 0.426644 0.0565159 0.00409173 1.47377 
0.493588 -0.297453 0.441959 -0.219703 -0.513766 0.489628 -0.861825 -0.586849 -0.0130432 
0.5089 -0.676446 0.678906 1.01326 0.637883 1.02556 0.448495 0.265671 0.951725 
-0.637676 0.356923 0.872947 -0.188792 0.529262 0.61644 0.0755807 0.701072 -0.437917 
0.428606 0.368065 -0.0383197 0.952119 -0.119961 0.751349 -0.295424 -0.475475 0.911902 
0.222 1.00058 0.544037 0.0378768 0.838331 0.679105 0.0228777 0.786517 1.28515 
-0.602628 0.334235 -0.145404 -0.340478 -0.396701 1.57745 -0.794195 -0.786787 0.408016 
-0.266286 1.14072 0.845449 0.607133 -0.377984 -0.571888 0.603894 -0.590499 0.684206 
0.166944 0.509745 0.444951 0.219144 0.157985 0.773957 -0.248206 0.556673 0.831011 
-0.302456 0.328449 0.875889 -0.81638 0.0917835 -0.743727 -0.705124 0.0114961 0.945608 
-0.0102834 -0.54163 0.075115 -0.254812 0.205895 0.718645 -0.336819 -0.416465 1.29708 
0.429826 0.727457 0.976 0.118276 0.471154 0.095965 -0.542312 0.362075 -0.0197406 
-0.462819 -0.110273 0.607262 -0.172809 0.467062 0.313854 0.0166475 -0.0852809 0.633633 
0.231635 -0.116384 0.0469554 -0.553425 -0.589967 0.877715 0.263033 -0.24165 0.542732 
0.307008 -0.00829947 0.386679 0.0260972 -0.618775 0.552608 0.000558848 -0.480608 -0.369417 
-0.235569 0.148149 0.226491 0.12315 -0.0920508 0.289159 -0.028229 -0.145863 0.333363 
0.279864 0.196306 0.319674 0.145352 -0.61451 0.95996 0.314427 -0.119163 0.535049 
-0.0640059 0.0416697 0.442897 -0.376882 1.02397 0.685254 -0.906633 -0.597267 -0.117051 
-0.107908 0.0868832 1.12516 0.312183 -0.110903 1.0762 0.0700761 -0.314908 1.01936 
-0.0817853 -0.375312 0.401455 0.262579 0.859093 -0.163461 0.144859 -0.0500377 0.841543 
0.877552 0.0497343 0.823461 0.0971483 -0.616153 1.25697 -0.211412 0.204911 -0.189998 
-0.811747 -0.725089 0.703935 -1.09359 -0.0792028 0.440458 0.343206 0.388608 1.35807 
-0.370996 0.568558 1.02904 0.317138 0.298467 1.07482 0.235358 -0.17496 0.527536 
0.165363 -0.156928 0.624844 0.0802723 -0.540468 0.778362 0.72403 0.882672 0.734831 
-0.398194 0.338053 0.299184 -0.626217 -1.24009 -0.0243241 -0.0387565 -0.120682 0.806949 
-0.26366 -0.184197 0.724942 0.411724 0.0841904 0.560004 -0.11571 0.205406 0.176839 
0.202052 0.460728 0.514853 0.316995 0.242559 0.635754 0.0626072 -0.14144 0.401105 
-0.488225 0.0590552 -0.176456 -0.46187 -0.270475 1.03625 0.217694 -0.651548 0.997877 
0.156316 -0.417139 0.289576 -0.822238 -0.0629301 0.177127 0.0818875 0.126215 1.00339 
-0.129001 -0.406634 0.506022 0.207547 -0.541594 0.38171 0.269057 0.521412 0.621518 
-0.480894 0.0271724 1.05298 -0.34033 0.199978 0.565483 -0.779703 -0.366039 1.65874 
0.0591793 -0.588974 0.389393 0.448738 -0.084947 0.342252 1.40726 -0.926358 1.19327 
-0.585187 0.294307 1.29352 -0.427683 0.521856 -0.15723 -0.304225 0.60841 0.275264 
0.557436 0.502183 1.51708 -0.549684 1.10108 0.752884 -0.901845 0.178818 0.240872 
1.42394 -0.153175 -0.114448 -0.0698169 -1.12381 0.428558 -0.644249 0.192863 0.0329286 
-1.23245 -0.751888 0.214234 -0.451462 0.167378 0.56569 -0.323162 -0.666096 -0.675272 
-0.452057 -0.219666 0.513202 -0.843367 -0.140644 0.643918 -0.527186 -0.453 0.208697 
0.0940325 0.6077 -0.673598 0.909151 0.42989 0.351484 -0.92032 0.751183 1.17692 
-0.497785 0.27846 0.162924 0.0444044 0.0824933 -0.291458 0.418706 -0.048874 0.54545 
-0.330404 -0.182706 1.30871 0.593253 -0.832643 -0.177278 -0.697864 0.270078 0.478919 
-0.152066 -0.373884 -0.91638 -0.606912 -0.256577 -0.153746 -0.332412 -0.199657 0.802808 
-0.261596 -0.619993 1.49664 0.623135 -0.390948 0.384229 -0.457955 0.056649 0.362732 
0.81095 0.239946 0.58036 -0.155918 -0.676391 1.12368 -0.299839 0.661293 -0.00141712 
-0.719001 -0.116641 -1.09674 -0.540434 0.478124 0.581766 -0.776578 -0.725885 1.03591 
-0.0314333 0.294161 1.08261 -0.511305 -0.686122 0.780559 -0.239279 -0.340981 0.514332 
-0.0296115 0.531938 1.36208 0.314868 -0.451724 1.15578 0.0416568 0.200581 1.21552 
0.103022 0.0680197 -0.860645 -0.00747151 -0.116347 0.676271 0.314433 -0.132162 0.556628 
0.56237 -0.86891 0.688426 -0.634213 -0.0623152 -0.911613 0.327245 -0.17878 -0.28002 
0.205289 -0.564181 -0.139153 0.148103 0.29731 -0.879906 1.22637 -0.369237 0.503407 
-0.89378 0.525148 0.821092 -0.0138891 0.340951 0.828459 -0.198219 -0.178305 -0.97356 
0.0874195 0.287086 0.388849 0.636642 0.179938 -0.865747 -0.445988 -0.593072 1.19245 
0.170799 -0.528498 0.669649 -0.192949 -0.602839 1.52763 0.20881 0.129196 -1.00846 
-0.471098 -0.929578 0.704206 0.884821 -0.380664 0.265524 0.24335 -0.359675 -0.559693 
-1.03479 -0.541781 0.576067 0.920801 -0.255988 0.378239 0.801353 -0.386787 -0.410396 
0.0580328 -0.381198 0.533016 0.157882 -0.379047 0.983599 -0.609719 2.00322 0.0730695 
-0.166151 -0.318678 0.676844 -0.238423 0.701018 -0.885192 -0.471253 -0.124517 0.278048 
0.531476 -0.129221 1.08006 -0.262599 -0.43317 -0.357948 0.168898 0.0273711 -0.861393 
0.0154075 0.377572 1.23324 0.951637 -1.01167 0.492604 0.045316 0.0538075 -0.850804 
-0.244459 0.183474 -0.944181 0.241615 -0.434403 -0.927234 -0.338471 0.0417786 1.19098 
-0.222141 0.395703 -0.137779 -0.216597 -0.296229 -0.799813 -0.274005 -0.45695 -0.494559 
-0.139877 -0.17395 -0.907565 -0.231064 -0.381571 -0.8856 0.798163 0.340394 0.846578 
-0.241464 0.370353 -0.829426 -0.559204 -0.0941666 -0.870903 0.48504 0.25004 0.917595 
1.22654 -1.24457 0.813712 -0.500576 0.0499167 -0.996248 -0.110285 0.0179392 -0.512805 
-0.291118 -0.936656 1.25539 -0.221478 -0.815087 -0.0441014 -0.471873 0.307253 -0.895332 
1.19416 0.250245 0.543015 -0.254148 -0.0766782 -0.850387 -0.270846 -0.326217 -0.160719 
0.0586915 -0.321054 -0.915968 0.107243 0.116617 -0.713004 0.326164 0.240028 -0.551615 
-0.0906111 -0.129208 -0.884144 -0.0130134 -0.106575 -0.7389 -0.156503 -0.106754 -0.791714 
-0.135735 -0.0525243 -0.824222 0.575915 -0.308999 -0.56557 -0.123516 0.218567 -0.477228 
0.165124 0.280966 -0.736988 -0.466754 -0.364155 -0.754421 -0.498319 -0.555635 -0.775198 
0.1707 -0.540228 -0.636366 -0.36723 -0.23438 -0.690065 -0.0935401 -0.09901 -0.581156 
0.359192 -0.704335 -0.452365 0.18108 0.857417 1.16586 0.22216 0.0162953 -0.69259 
-0.226259 -0.0184652 -0.635735 0.328816 -0.353659 -0.634057 0.381269 -0.203669 -0.144286 
-0.133471 -0.148918 -0.514129 -0.457033 -0.676294 -0.285146 -0.214558 0.135196 -0.523663 

om 3 567 double
0 0 0 0 0 0 0 0 0 
0 0 0 0 0 0 0 0 0 
0 0 0 0 0 0 0 0 0 
0 0 0 0 0 0 0 0 0 
0 0 0 0 0 0 0 0 0 
0 0 0 0 0 0 0 0 0 
0 0 0 0 0 0 0 0 0 
0 0 0 0 0 0 0 0 0 
0 0 0 0 0 0 0 0 0 
0 0 0 0 0 0 0 0 0 
0 0 0 0 0 0 0 0 0 
0 0 0 0 0 0 0 0 0 
0 0 0 0 0 0 0 0 0 
0 0 0 0 0 0 0 0 0 
0 0 0 0 0 0 0 0 0 
0 0 0 0 0 0 0 0 0 
0 0 0 0 0 0 0 0 0 
0 0 0 0 0 0 0 0 0 
0 0 0 0 0 0 0 0 0 
0 0 0 0 0 0 0 0 0 
0 0 0 0 0 0 0 0 0 
0 0 0 0 0 0 0 0 0 
0 0 0 0 0 0 0 0 0 
0 0 0 0 0 0 0 0 0 
0 0 0 0 0 0 0 0 0 
0 0 0 0 0 0 0 0 0 
0 0 0 0 0 0 0 0 0 
0 0 0 0 0 0 0 0 0 
0 0 0 0 0 0 0 0 0 
0 0 0 0 0 0 0 0 0 
0 0 0 0 0 0 0 0 0 
0 0 0 0 0 0 0 0 0 
0 0 0 0 0 0 0 0 0 
0 0 0 0 0 0 0 0 0 
0 0 0 0 0 0 0 0 0 
0 0 0 0 0 0 0 0 0 
0 0 0 0 0 0 0 0 0 
0 0 0 0 0 0 0 0 0 
0 0 0 0 0 0 0 0 0 
0 0 0 0 0 0 0 0 0 
0 0 0 0 0 0 0 0 0 
0 0 0 0 0 0 0 0 0 
0 0 0 0 0 0 0 0 0 
0 0 0 0 0 0 0 0 0 
0 0 0 0 0 0 0 0 0 
0 0 0 0 0 0 0 0 0 
0 0 0 0 0 0 0 0 0 
0 0 0 0 0 0 0 0 0 
0 0 0 0 0 0 0 0 0 
0 0 0 0 0 0 0 0 0 
0 0 0 0 0 0 0 0 0 
0 0 0 0 0 0 0 0 0 
0 0 0 0 0 0 0 0 0 
0 0 0 0 0 0 0 0 0 
0 0 0 0 0 0 0 0 0 
0 0 0 0 0 0 0 0 0 
0 0 0 0 0 0 0 0 0 
0 0 0 0 0 0 0 0 0 
0 0 0 0 0 0 0 0 0 
0 0 0 0 0 0 0 0 0 
0 0 0 0 0 0 0 0 0 
0 0 0 0 0 0 0 0 0 
0 0 0 0 0 0 0 0 0 
0 0 0 0 0 0 0 0 0 
0 0 0 0 0 0 0 0 0 
0 0 0 0 0 0 0 0 0 
0 0 0 0 0 0 0 0 0 
0 0 0 0 0 0 0 0 0 
0 0 0 0 0 0 0 0 0 
0 0 0 0 0 0 0 0 0 
0 0 0 0 0 0 0 0 0 
0 0 0 0 0 0 0 0 0 
0 0 0 0 0 0 0 0 0 
0 0 0 0 0 0 0 0 0 
0 0 0 0 0 0 0 0 0 
0 0 0 0 0 0 0 0 0 
0 0 0 0 0 0 0 0 0 
0 0 0 0 0 0 0 0 0 
0 0 0 0 0 0 0 0 0 
0 0 0 0 0 0 0 0 0 
0 0 0 0 0 0 0 0 0 
0 0 0 0 0 0 0 0 0 
0 0 0 0 0 0 0 0 0 
0 0 0 0 0 0 0 0 0 
0 0 0 0 0 0 0 0 0 
0 0 0 0 0 0 0 0 0 
0 0 0 0 0 0 0 0 0 
0 0 0 0 0 0 0 0 0 
0 0 0 0 0 0 0 0 0 
0 0 0 0 0 0 0 0 0 
0 0 0 0 0 0 0 0 0 
0 0 0 0 0 0 0 0 0 
0 0 0 0 0 0 0 0 0 
0 0 0 0 0 0 0 0 0 
0 0 0 0 0 0 0 0 0 
0 0 0 0 0 0 0 0 0 
0 0 0 0 0 0 0 0 0 
0 0 0 0 0 0 0 0 0 
0 0 0 0 0 0 0 0 0 
0 0 0 0 0 0 0 0 0 
0 0 0 0 0 0 0 0 0 
0 0 0 0 0 0 0 0 0 
0 0 0 0 0 0 0 0 0 
0 0 0 0 0 0 0 0 0 
0 0 0 0 0 0 0 0 0 
0 0 0 0 0 0 0 0 0 
0 0 0 0 0 0 0 0 0 
0 0 0 0 0 0 0 0 0 
0 0 0 0 0 0 0 0 0 
0 0 0 0 0 0 0 0 0 
0 0 0 0 0 0 0 0 0 
0 0 0 0 0 0 0 0 0 
0 0 0 0 0 0 0 0 0 
0 0 0 0 0 0 0 0 0 
0 0 0 0 0 0 0 0 0 
0 0 0 0 0 0 0 0 0 
0 0 0 0 0 0 0 0 0 
0 0 0 0 0 0 0 0 0 
0 0 0 0 0 0 0 0 0 
0 0 0 0 0 0 0 0 0 
0 0 0 0 0 0 0 0 0 
0 0 0 0 0 0 0 0 0 
0 0 0 0 0 0 0 0 0 
0 0 0 0 0 0 0 0 0 
0 0 0 0 0 0 0 0 0 
0 0 0 0 0 0 0 0 0 
0 0 0 0 0 0 0 0 0 
0 0 0 0 0 0 0 0 0 
0 0 0 0 0 0 0 0 0 
0 0 0 0 0 0 0 0 0 
0 0 0 0 0 0 0 0 0 
0 0 0 0 0 0 0 0 0 
0 0 0 0 0 0 0 0 0 
0 0 0 0 0 0 0 0 0 
0 0 0 0 0 0 0 0 0 
0 0 0 0 0 0 0 0 0 
0 0 0 0 0 0 0 0 0 
0 0 0 0 0 0 0 0 0 
0 0 0 0 0 0 0 0 0 
0 0 0 0 0 0 0 0 0 
0 0 0 0 0 0 0 0 0 
0 0 0 0 0 0 0 0 0 
0 0 0 0 0 0 0 0 0 
0 0 0 0 0 0 0 0 0 
0 0 0 0 0 0 0 0 0 
0 0 0 0 0 0 0 0 0 
0 0 0 0 0 0 0 0 0 
0 0 0 0 0 0 0 0 0 
0 0 0 0 0 0 0 0 0 
0 0 0 0 0 0 0 0 0 
0 0 0 0 0 0 0 0 0 
0 0 0 0 0 0 0 0 0 
0 0 0 0 0 0 0 0 0 
0 0 0 0 0 0 0 0 0 
0 0 0 0 0 0 0 0 0 
0 0 0 0 0 0 0 0 0 
0 0 0 0 0 0 0 0 0 
0 0 0 0 0 0 0 0 0 
0 0 0 0 0 0 0 0 0 
0 0 0 0 0 0 0 0 0 
0 0 0 0 0 0 0 0 0 
0 0 0 0 0 0 0 0 0 
0 0 0 0 0 0 0 0 0 
0 0 0 0 0 0 0 0 0 
0 0 0 0 0 0 0 0 0 
0 0 0 0 0 0 0 0 0 
0 0 0 0 0 0 0 0 0 
0 0 0 0 0 0 0 0 0 
0 0 0 0 0 0 0 0 0 
0 0 0 0 0 0 0 0 0 
0 0 0 0 0 0 0 0 0 
0 0 0 0 0 0 0 0 0 
0 0 0 0 0 0 0 0 0 
0 0 0 0 0 0 0 0 0 
0 0 0 0 0 0 0 0 0 
0 0 0 0 0 0 0 0 0 
0 0 0 0 0 0 0 0 0 
0 0 0 0 0 0 0 0 0 
0 0 0 0 0 0 0 0 0 
0 0 0 0 0 0 0 0 0 
0 0 0 0 0 0 0 0 0 
0 0 0 0 0 0 0 0 0 
0 0 0 0 0 0 0 0 0 
0 0 0 0 0 0 0 0 0 
0 0 0 0 0 0 0 0 0 
0 0 0 0 0 0 0 0 0 
0 0 0 0 0 0 0 0 0 
0 0 0 0 0 0 0 0 0 
0 0 0 0 0 0 0 0 0 

bottom 1 567 double
-0.035254 -0.035254 -0.035254 -0.035254 -0.035254 -0.035254 -0.035254 -0.035254 -0.035254 
-0.035254 -0.035254 -0.035254 -0.035254 -0.035254 -0.035254 -0.035254 -0.035254 -0.035254 
-0.035254 -0.035254 -0.035254 -0.035254 -0.035254 -0.035254 -0.035254 -0.035254 -0.035254 
-0.035254 -0.035254 -0.035254 -0.035254 -0.035254 -0.035254 -0.035254 -0.035254 -0.035254 
-0.035254 -0.035254 -0.035254 -0.035254 -0.035254 -0.035254 -0.035254 -0.035254 -0.035254 
-0.035254 -0.035254 -0.035254 -0.035254 -0.035254 -0.035254 -0.035254 -0.035254 -0.035254 
-0.035254 -0.035254 -0.035254 -0.035254 -0.035254 -0.035254 -0.035254 -0.035254 -0.035254 
-0.035254 -0.035254 -0.035254 -0.035254 -0.035254 -0.035254 -0.035254 -0.035254 -0.035254 
-0.035254 -0.035254 -0.035254 -0.035254 -0.035254 -0.035254 -0.035254 -0.035254 -0.035254 
-0.035254 -0.035254 -0.035254 -0.035254 -0.035254 -0.035254 -0.035254 -0.035254 -0.035254 
-0.035254 -0.035254 -0.035254 -0.035254 -0.035254 -0.035254 -0.035254 -0.035254 -0.035254 
-0.035254 -0.035254 -0.035254 -0.035254 -0.035254 -0.035254 -0.035254 -0.035254 -0.035254 
-0.035254 -0.035254 -0.035254 -0.035254 -0.035254 -0.035254 -0.035254 -0.035254 -0.035254 
-0.035254 -0.035254 -0.035254 -0.035254 -0.035254 -0.035254 -0.035254 -0.035254 -0.035254 
-0.035254 -0.035254 -0.035254 -0.035254 -0.035254 -0.035254 -0.035254 -0.035254 -0.035254 
-0.035254 -0.035254 -0.035254 -0.035254 -0.035254 -0.035254 -0.035254 -0.035254 -0.035254 
-0.035254 -0.035254 -0.035254 -0.035254 -0.035254 -0.035254 -0.035254 -0.035254 -0.035254 
-0.035254 -0.035254 -0.035254 -0.035254 -0.035254 -0.035254 -0.035254 -0.035254 -0.035254 
-0.035254 -0.035254 -0.035254 -0.035254 -0.035254 -0.035254 -0.035254 -0.035254 -0.035254 
-0.035254 -0.035254 -0.035254 -0.035254 -0.035254 -0.035254 -0.035254 -0.035254 -0.035254 
-0.035254 -0.035254 -0.035254 -0.035254 -0.035254 -0.035254 -0.035254 -0.035254 -0.035254 
-0.035254 -0.035254 -0.035254 -0.035254 -0.035254 -0.035254 -0.035254 -0.035254 -0.035254 
-0.035254 -0.035254 -0.035254 -0.035254 -0.035254 -0.035254 -0.035254 -0.035254 -0.035254 
-0.035254 -0.035254 -0.035254 -0.035254 -0.035254 -0.035254 -0.035254 -0.035254 -0.035254 
-0.035254 -0.035254 -0.035254 -0.035254 -0.035254 -0.035254 -0.035254 -0.035254 -0.035254 
-0.035254 -0.035254 -0.035254 -0.035254 -0.035254 -0.035254 -0.035254 -0.035254 -0.035254 
-0.035254 -0.035254 -0.035254 -0.035254 -0.035254 -0.035254 -0.035254 -0.035254 -0.035254 
-0.035254 -0.035254 -0.035254 -0.035254 -0.035254 -0.035254 -0.035254 -0.035254 -0.035254 
-0.035254 -0.035254 -0.035254 -0.035254 -0.035254 -0.035254 -0.035254 -0.035254 -0.035254 
-0.035254 -0.035254 -0.035254 -0.035254 -0.035254 -0.035254 -0.035254 -0.035254 -0.035254 
-0.035254 -0.035254 -0.035254 -0.035254 -0.035254 -0.035254 -0.035254 -0.035254 -0.035254 
-0.035254 -0.035254 -0.035254 -0.035254 -0.035254 -0.035254 -0.035254 -0.035254 -0.035254 
-0.035254 -0.035254 -0.035254 -0.035254 -0.035254 -0.035254 -0.035254 -0.035254 -0.035254 
-0.035254 -0.035254 -0.035254 -0.035254 -0.035254 -0.035254 -0.035254 -0.035254 -0.035254 
-0.035254 -0.035254 -0.035254 -0.035254 -0.035254 -0.035254 -0.035254 -0.035254 -0.035254 
-0.035254 -0.035254 -0.035254 -0.035254 -0.035254 -0.035254 -0.035254 -0.035254 -0.035254 
-0.035254 -0.035254 -0.035254 -0.035254 -0.035254 -0.035254 -0.035254 -0.035254 -0.035254 
-0.035254 -0.035254 -0.035254 -0.035254 -0.035254 -0.035254 -0.035254 -0.035254 -0.035254 
-0.035254 -0.035254 -0.035254 -0.035254 -0.035254 -0.035254 -0.035254 -0.035254 -0.035254 
-0.035254 -0.035254 -0.035254 -0.035254 -0.035254 -0.035254 -0.035254 -0.035254 -0.035254 
-0.035254 -0.035254 -0.035254 -0.035254 -0.035254 -0.035254 -0.035254 -0.035254 -0.035254 
-0.035254 -0.035254 -0.035254 -0.035254 -0.035254 -0.035254 -0.035254 -0.035254 -0.035254 
-0.035254 -0.035254 -0.035254 -0.035254 -0.035254 -0.035254 -0.035254 -0.035254 -0.035254 
-0.035254 -0.035254 -0.035254 -0.035254 -0.035254 -0.035254 -0.035254 -0.035254 -0.035254 
-0.035254 -0.035254 -0.035254 -0.035254 -0.035254 -0.035254 -0.035254 -0.035254 -0.035254 
-0.035254 -0.035254 -0.035254 -0.035254 -0.035254 -0.035254 -0.035254 -0.035254 -0.035254 
-0.035254 -0.035254 -0.035254 -0.035254 -0.035254 -0.035254 -0.035254 -0.035254 -0.035254 
-0.035254 -0.035254 -0.035254 -0.035254 -0.035254 -0.035254 -0.035254 -0.035254 -0.035254 
-0.035254 -0.035254 -0.035254 -0.035254 -0.035254 -0.035254 -0.035254 -0.035254 -0.035254 
-0.035254 -0.035254 -0.035254 -0.035254 -0.035254 -0.035254 -0.035254 -0.035254 -0.035254 
-0.035254 -0.035254 -0.035254 -0.035254 -0.035254 -0.035254 -0.035254 -0.035254 -0.035254 
-0.035254 -0.035254 -0.035254 -0.035254 -0.035254 -0.035254 -0.035254 -0.035254 -0.035254 
-0.035254 -0.035254 -0.035254 -0.035254 -0.035254 -0.035254 -0.035254 -0.035254 -0.035254 
-0.035254 -0.035254 -0.035254 -0.035254 -0.035254 -0.035254 -0.035254 -0.035254 -0.035254 
-0.035254 -0.035254 -0.035254 -0.035254 -0.035254 -0.035254 -0.035254 -0.035254 -0.035254 
-0.035254 -0.035254 -0.035254 -0.035254 -0.035254 -0.035254 -0.035254 -0.035254 -0.035254 
-0.035254 -0.035254 -0.035254 -0.035254 -0.035254 -0.035254 -0.035254 -0.035254 -0.035254 
-0.035254 -0.035254 -0.035254 -0.035254 -0.035254 -0.035254 -0.035254 -0.035254 -0.035254 
-0.035254 -0.035254 -0.035254 -0.035254 -0.035254 -0.035254 -0.035254 -0.035254 -0.035254 
-0.035254 -0.035254 -0.035254 -0.035254 -0.035254 -0.035254 -0.035254 -0.035254 -0.035254 
-0.035254 -0.035254 -0.035254 -0.035254 -0.035254 -0.035254 -0.035254 -0.035254 -0.035254 
-0.035254 -0.035254 -0.035254 -0.035254 -0.035254 -0.035254 -0.035254 -0.035254 -0.035254 
-0.035254 -0.035254 -0.035254 -0.035254 -0.035254 -0.035254 -0.035254 -0.035254 -0.035254 

top 1 567 double
0.064746 0.064746 0.064746 0.064746 0.064746 0.064746 0.064746 0.064746 0.064746 
0.064746 0.064746 0.064746 0.064746 0.064746 0.064746 0.064746 0.064746 0.064746 
0.064746 0.064746 0.064746 0.064746 0.064746 0.064746 0.064746 0.064746 0.064746 
0.064746 0.064746 0.064746 0.064746 0.064746 0.064746 0.064746 0.064746 0.064746 
0.064746 0.064746 0.064746 0.064746 0.064746 0.064746 0.064746 0.064746 0.064746 
0.064746 0.064746 0.064746 0.064746 0.064746 0.064746 0.064746 0.064746 0.064746 
0.064746 0.064746 0.064746 0.064746 0.064746 0.064746 0.064746 0.064746 0.064746 
0.064746 0.064746 0.064746 0.064746 0.064746 0.064746 0.064746 0.064746 0.064746 
0.064746 0.064746 0.064746 0.064746 0.064746 0.064746 0.064746 0.064746 0.064746 
0.064746 0.064746 0.064746 0.064746 0.064746 0.064746 0.064746 0.064746 0.064746 
0.064746 0.064746 0.064746 0.064746 0.064746 0.064746 0.064746 0.064746 0.064746 
0.064746 0.064746 0.064746 0.064746 0.064746 0.064746 0.064746 0.064746 0.064746 
0.064746 0.064746 0.064746 0.064746 0.064746 0.064746 0.064746 0.064746 0.064746 
0.064746 0.064746 0.064746 0.064746 0.064746 0.064746 0.064746 0.064746 0.064746 
0.064746 0.064746 0.064746 0.064746 0.064746 0.064746 0.064746 0.064746 0.064746 
0.064746 0.064746 0.064746 0.064746 0.064746 0.064746 0.064746 0.064746 0.064746 
0.064746 0.064746 0.064746 0.064746 0.064746 0.064746 0.064746 0.064746 0.064746 
0.064746 0.064746 0.064746 0.064746 0.064746 0.064746 0.064746 0.064746 0.064746 
0.064746 0.064746 0.064746 0.064746 0.064746 0.064746 0.064746 0.064746 0.064746 
0.064746 0.064746 0.064746 0.064746 0.064746 0.064746 0.064746 0.064746 0.064746 
0.064746 0.064746 0.064746 0.064746 0.064746 0.064746 0.064746 0.064746 0.064746 
0.064746 0.064746 0.064746 0.064746 0.064746 0.064746 0.064746 0.064746 0.064746 
0.064746 0.064746 0.064746 0.064746 0.064746 0.064746 0.064746 0.064746 0.064746 
0.064746 0.064746 0.064746 0.064746 0.064746 0.064746 0.064746 0.064746 0.064746 
0.064746 0.064746 0.064746 0.064746 0.064746 0.064746 0.064746 0.064746 0.064746 
0.064746 0.064746 0.064746 0.064746 0.064746 0.064746 0.064746 0.064746 0.064746 
0.064746 0.064746 0.064746 0.064746 0.064746 0.064746 0.064746 0.064746 0.064746 
0.064746 0.064746 0.064746 0.064746 0.064746 0.064746 0.064746 0.064746 0.064746 
0.064746 0.064746 0.064746 0.064746 0.064746 0.064746 0.064746 0.064746 0.064746 
0.064746 0.064746 0.064746 0.064746 0.064746 0.064746 0.064746 0.064746 0.064746 
0.064746 0.064746 0.064746 0.064746 0.064746 0.064746 0.064746 0.064746 0.064746 
0.064746 0.064746 0.064746 0.064746 0.064746 0.064746 0.064746 0.064746 0.064746 
0.064746 0.064746 0.064746 0.064746 0.064746 0.064746 0.064746 0.064746 0.064746 
0.064746 0.064746 0.064746 0.064746 0.064746 0.064746 0.064746 0.064746 0.064746 
0.064746 0.064746 0.064746 0.064746 0.064746 0.064746 0.064746 0.064746 0.064746 
0.064746 0.064746 0.064746 0.064746 0.064746 0.064746 0.064746 0.064746 0.064746 
0.064746 0.064746 0.064746 0.064746 0.064746 0.064746 0.064746 0.064746 0.064746 
0.064746 0.064746 0.064746 0.064746 0.064746 0.064746 0.064746 0.064746 0.064746 
0.064746 0.064746 0.064746 0.064746 0.064746 0.064746 0.064746 0.064746 0.064746 
0.064746 0.064746 0.064746 0.064746 0.064746 0.064746 0.064746 0.064746 0.064746 
0.064746 0.064746 0.064746 0.064746 0.064746 0.064746 0.064746 0.064746 0.064746 
0.064746 0.064746 0.064746 0.064746 0.064746 0.064746 0.064746 0.064746 0.064746 
0.064746 0.064746 0.064746 0.064746 0.064746 0.064746 0.064746 0.064746 0.064746 
0.064746 0.064746 0.064746 0.064746 0.064746 0.064746 0.064746 0.064746 0.064746 
0.064746 0.064746 0.064746 0.064746 0.064746 0.064746 0.064746 0.064746 0.064746 
0.064746 0.064746 0.064746 0.064746 0.064746 0.064746 0.064746 0.064746 0.064746 
0.064746 0.064746 0.064746 0.064746 0.064746 0.064746 0.064746 0.064746 0.064746 
0.064746 0.064746 0.064746 0.064746 0.064746 0.064746 0.064746 0.064746 0.064746 
0.064746 0.064746 0.064746 0.064746 0.064746 0.064746 0.064746 0.064746 0.064746 
0.064746 0.064746 0.064746 0.064746 0.064746 0.064746 0.064746 0.064746 0.064746 
0.064746 0.064746 0.064746 0.064746 0.064746 0.064746 0.064746 0.064746 0.064746 
0.064746 0.064746 0.064746 0.064746 0.064746 0.064746 0.064746 0.064746 0.064746 
0.064746 0.064746 0.064746 0.064746 0.064746 0.064746 0.064746 0.064746 0.064746 
0.064746 0.064746 0.064746 0.064746 0.064746 0.064746 0.064746 0.064746 0.064746 
0.064746 0.064746 0.064746 0.064746 0.064746 0.064746 0.064746 0.064746 0.064746 
0.064746 0.064746 0.064746 0.064746 0.064746 0.064746 0.064746 0.064746 0.064746 
0.064746 0.064746 0.064746 0.064746 0.064746 0.064746 0.064746 0.064746 0.064746 
0.064746 0.064746 0.064746 0.064746 0.064746 0.064746 0.064746 0.064746 0.064746 
0.064746 0.064746 0.064746 0.064746 0.064746 0.064746 0.064746 0.064746 0.064746 
0.064746 0.064746 0.064746 0.064746 0.064746 0.064746 0.064746 0.064746 0.064746 
0.064746 0.064746 0.064746 0.064746 0.064746 0.064746 0.064746 0.064746 0.064746 
0.064746 0.064746 0.064746 0.064746 0.064746 0.064746 0.064746 0.064746 0.064746 
0.064746 0.064746 0.064746 0.064746 0.064746 0.064746 0.064746 0.064746 0.064746 

