# vtk DataFile Version 4.0
vtk output
ASCII
DATASET POLYDATA
FIELD FieldData 4
domain 1 4 string
domain_min:-5|-5|-5
domain_max:5|5|5
cell_size:0.01|0.01|0.01
boundary:1|1|1

variables 1 8 string
T:0.89
dt:0.0005
A:0.869197
V:-0.827198
Z:-0.000603046
write_case:1
substeps:10
all_steps:1780

constants 1 11 string
L:0.1
csize:0.01
R:0.004
mass:0.00210445
E:2.06e+06
nu:0.33
M:20
freq:10
gamma:62.8319
S:78956.8
g:0|0|-9.81

equations 1 9 string
time:T=(T+dt)#true
eq:a=(dem_l(v,om,R,mass,E,nu,0.1)/mass)#true
tank_acceleration:A=(((-(transpose((fsum(a)*mass))*e_k))-(S*Z))/M)#true
iv:v=euler(v,((a+g)-(A*e_k)),dt)#true
ia:r=euler(r,v,dt)#true
tank_velocity:V=euler(V,A,dt)#true
tank_position:Z=euler(Z,V,dt)#true
bottom:bottom=(Z-0.05)#true
top:top=(Z+0.05)#true

POINTS 567 float
-0.0436235 -0.0375296 -0.0420595 -0.0252407 -0.0386571 -0.0421181 -0.0332343 -0.0268669 -0.0407436 
-0.0114065 -0.0114865 -0.0456272 0.0413571 -0.00973606 -0.0438486 -0.0455348 0.0116216 -0.0431349 
-0.0179546 0.0117726 -0.0426363 0.0386802 0.0172354 -0.0424194 0.0252254 0.0392029 -0.0420736 
-0.0185351 0.0451461 -0.042125 -0.0392281 -0.0453608 -0.0331041 -0.0217181 -0.0424498 -0.0301798 
-0.0282066 -0.0435238 -0.0336506 -0.0102715 -0.0411904 -0.0369913 0.000180486 -0.0454945 -0.0363871 
0.021152 -0.0415643 -0.0302093 0.0353653 -0.0444048 -0.0395686 0.0437717 -0.0448224 -0.0342782 
-0.0361183 -0.0368459 -0.0335939 -0.0206517 -0.034036 -0.0333319 -0.011994 -0.0310873 -0.0359412 
0.00150441 -0.0356629 -0.0376433 0.00415549 -0.0302204 -0.0303117 0.0269003 -0.038264 -0.0360958 
0.031624 -0.0317684 -0.0345955 0.0351828 -0.0383113 -0.0317012 -0.0448718 -0.0255135 -0.0304513 
-0.0305887 -0.0213348 -0.0301759 -0.0324814 -0.0293192 -0.0318979 -0.00370942 -0.0270509 -0.0385705 
0.0144713 -0.0282543 -0.0308608 0.0277574 -0.0200184 -0.0357536 0.037557 -0.0216289 -0.0301525 
0.043778 -0.0296301 -0.0305031 -0.0437766 -0.0184425 -0.033735 -0.0345853 -0.0126408 -0.0307963 
-0.0225696 -0.0167951 -0.0349104 -0.0149706 -0.0190015 -0.0388904 -0.00532073 -0.01102 -0.0322932 
0.00379927 -0.016734 -0.0390472 0.0152015 -0.0191887 -0.0302833 0.0223766 -0.0149359 -0.031487 
0.0315385 -0.011993 -0.0357859 0.0460996 -0.0184406 -0.0328854 -0.0262832 -0.00590947 -0.0311581 
-0.0188784 -0.00879722 -0.0333612 -0.00645171 -0.00547028 -0.0375432 0.00471558 -0.00401698 -0.0312343 
0.0239734 -0.00421241 -0.0381928 0.037195 -0.00432732 -0.0388294 0.0445174 -0.00495297 -0.0358836 
-0.0236001 0.00325709 -0.0354807 -0.0038016 0.00486601 -0.0374431 0.00792792 0.00469505 -0.0310041 
0.0161437 0.00198787 -0.0381985 0.0113476 0.00839541 -0.0394307 0.022871 0.00658861 -0.0384891 
0.0427162 0.00512385 -0.0314882 -0.0398669 0.0147985 -0.0324562 -0.0354547 0.0116116 -0.0390751 
-0.0224396 0.0151383 -0.0337972 -0.00584421 0.0173815 -0.0366087 0.00328078 0.0116526 -0.03155 
0.00248884 0.0185527 -0.0353624 0.0168407 0.0157582 -0.0389252 0.0245649 0.0152599 -0.0387547 
0.0356581 0.0146453 -0.0334895 -0.0453082 0.0224774 -0.0303304 -0.0329333 0.0227002 -0.0332381 
-0.0257199 0.0232654 -0.0360323 -0.0159132 0.0223377 -0.0379071 0.0129113 0.0261911 -0.0379551 
0.0341019 0.0257771 -0.0373271 -0.0365513 0.0371167 -0.0343209 -0.0225297 0.0311535 -0.0351395 
-0.0274866 0.0360348 -0.0316136 -0.0174907 0.0351257 -0.0396459 0.0193905 0.0318409 -0.0302215 
0.0274804 0.0326463 -0.0303668 0.043185 0.0391726 -0.0327907 0.0447183 0.0307884 -0.0321412 
-0.0440824 0.0457432 -0.0332744 -0.035736 0.045886 -0.0339518 -0.0274628 0.04577 -0.0323441 
-0.0162174 0.0426515 -0.0310788 0.00623119 0.0407458 -0.0307686 0.0199056 0.0460425 -0.0367897 
0.014777 0.0405043 -0.0394206 0.0272304 0.0460036 -0.0318192 -0.0459856 -0.0455654 -0.0275955 
-0.019063 -0.0421426 -0.0202369 -0.00359985 -0.0454741 -0.0200732 0.00628109 -0.043058 -0.0297364 
0.00408337 -0.0457457 -0.0213019 0.0148762 -0.0403571 -0.0242689 0.0232273 -0.0453942 -0.0202256 
0.0315781 -0.0408775 -0.0249069 0.0459547 -0.0440099 -0.0229465 -0.0461391 -0.0324295 -0.0260111 
-0.0396553 -0.0396113 -0.0249429 -0.0361725 -0.0321881 -0.024363 -0.0264341 -0.0339558 -0.0214898 
-0.00797076 -0.0370681 -0.0250417 0.00787043 -0.0385085 -0.0219903 0.0245973 -0.0340387 -0.0268745 
0.0320671 -0.0335326 -0.0209191 0.0438176 -0.0337594 -0.0214062 -0.037359 -0.0202558 -0.0263311 
-0.0272614 -0.0251929 -0.0213636 -0.00546875 -0.0209687 -0.0278181 -0.00160074 -0.0271746 -0.0239141 
0.0227724 -0.0227782 -0.0264984 0.0286782 -0.0274742 -0.0279591 0.0366364 -0.0259081 -0.0212039 
-0.0439974 -0.0161472 -0.0228049 -0.0231796 -0.0139608 -0.0270114 -0.0092331 -0.0140043 -0.0254409 
0.00762705 -0.010294 -0.0273101 0.00279948 -0.0173926 -0.026001 0.0283912 -0.0178153 -0.0202294 
0.0292227 -0.0156878 -0.0279661 0.0382473 -0.0150183 -0.0263546 0.0455887 -0.0113701 -0.0239113 
-0.045079 -0.00361169 -0.0249687 -0.0367407 -0.00981919 -0.0239942 -0.0192136 -0.00335717 -0.025867 
-0.0105444 -0.000896477 -0.0289222 -0.00287321 -0.00665309 -0.0250449 0.0147844 -0.00743604 -0.0236662 
0.0241965 -0.00138701 -0.0245851 0.0319623 -0.00851092 -0.0251608 0.0358931 -0.00215944 -0.0280013 
0.0441945 -0.00364121 -0.0252868 -0.0429011 0.00347158 -0.0215798 -0.0322101 0.00881867 -0.0279636 
-0.0345914 0.00188779 -0.0212527 -0.0364945 0.00155307 -0.0287946 -0.0178299 0.00999135 -0.0291281 
0.00181021 0.00501513 -0.0264308 0.019567 0.0030125 -0.0291552 0.0270951 0.00593463 -0.0276291 
0.039707 0.00688455 -0.0242892 -0.0368677 0.0117868 -0.0218305 -0.0215147 0.0152635 -0.0227845 
-0.0293714 0.0162703 -0.0274532 -0.00485267 0.011312 -0.026203 0.00409328 0.0181149 -0.0258441 
0.0135153 0.0127838 -0.0241314 0.0221114 0.014785 -0.0272952 0.0303234 0.0147885 -0.0251355 
0.0458126 0.01516 -0.020448 -0.0450296 0.0212607 -0.02146 -0.0288255 0.0235863 -0.0228778 
-0.0141358 0.0206719 -0.028412 -0.0134661 0.0275235 -0.0243516 -0.0075346 0.0216779 -0.0224282 
0.00179919 0.0277613 -0.0268275 0.00882938 0.0253974 -0.0244582 0.0146568 0.0205218 -0.026742 
0.0242481 0.0261254 -0.0229034 0.0304755 0.0214765 -0.0209596 0.0441112 0.0215301 -0.026533 
-0.045775 0.0300097 -0.023427 -0.0460114 0.0390559 -0.0277494 -0.0345887 0.0309267 -0.0275934 
-0.0361828 0.0386488 -0.0233043 -0.0207148 0.0373749 -0.0258211 -0.0291461 0.0330383 -0.0220507 
-0.00614597 0.0342513 -0.0297649 -0.00894383 0.0367663 -0.0211391 0.00759138 0.0335039 -0.0279655 
0.0346799 0.0369308 -0.0223293 0.0421154 0.0302704 -0.0247071 -0.0423596 0.0451421 -0.0233047 
-0.0317307 0.0457042 -0.0231487 -0.0209043 0.0450691 -0.0229887 -0.0104589 0.0459302 -0.0213649 
-0.001132 0.0409039 -0.0239967 0.00634001 0.0446277 -0.0225619 0.0137434 0.0460155 -0.0242727 
0.0265507 0.0419257 -0.0232973 0.0364152 0.0429228 -0.0295756 0.0416555 0.0451253 -0.0206886 
-0.044272 -0.0446663 -0.0177793 -0.0360466 -0.045321 -0.0198241 -0.0265278 -0.0432806 -0.0184669 
-0.0241853 -0.0452231 -0.0116163 -0.0111402 -0.0447911 -0.0121798 0.00662271 -0.045461 -0.0106904 
0.0153349 -0.0452526 -0.0105055 0.0310812 -0.0404836 -0.0124348 0.0375856 -0.0438868 -0.0156852 
-0.0446612 -0.0347627 -0.0182254 -0.0367839 -0.0363919 -0.0146948 -0.0146597 -0.0309129 -0.0190306 
-0.000972659 -0.0353496 -0.0193037 -0.00926069 -0.0357728 -0.016317 0.00759097 -0.0313137 -0.0114901 
0.00575759 -0.0384588 -0.013882 0.0174946 -0.0379911 -0.01136 0.026576 -0.0331285 -0.0115354 
0.0423166 -0.0363073 -0.0102372 -0.0440219 -0.0267237 -0.016529 -0.0357663 -0.0265228 -0.0173231 
-0.0223281 -0.0295021 -0.0136901 -0.0297882 -0.0227626 -0.0121597 -0.0176319 -0.023208 -0.0169793 
-0.00570765 -0.0273105 -0.0157834 -0.00581938 -0.0202269 -0.019032 0.000564148 -0.0253192 -0.0110946 
0.00987639 -0.0250677 -0.019711 0.0188983 -0.0299937 -0.0169102 0.0133565 -0.0230118 -0.010191 
0.0259763 -0.0272746 -0.0199747 0.0295335 -0.0237852 -0.0124952 0.0383388 -0.0238401 -0.0131636 
0.0448398 -0.0278047 -0.016395 -0.041303 -0.0120953 -0.0157545 -0.0338895 -0.0135954 -0.0110126 
-0.0283718 -0.0173533 -0.0187333 -0.0243348 -0.0118222 -0.0147795 -0.00638737 -0.0126639 -0.0125906 
0.00574893 -0.0177489 -0.0152296 0.0132217 -0.015663 -0.0196532 0.0210625 -0.0119143 -0.0149624 
0.0209001 -0.0194541 -0.0156013 0.0303414 -0.0121455 -0.0113769 0.0355088 -0.0156683 -0.0172024 
0.0445476 -0.0194863 -0.0163678 -0.0424626 -0.00462761 -0.0122019 -0.0326141 -0.00802576 -0.016626 
-0.0249141 -1.95659e-05 -0.0182169 -0.0228755 -0.00539353 -0.0100082 -0.0163071 -0.00751409 -0.0197848 
-0.00966481 -0.00597379 -0.0163704 0.000930683 -0.00574117 -0.0145433 0.00904083 -0.0039253 -0.0137856 
0.0235219 -0.00216488 -0.0147682 0.0318512 -0.00409624 -0.0116268 0.0398259 -0.00924931 -0.0170335 
0.0311432 -0.000600197 -0.0195492 0.0429327 -0.00186778 -0.0149888 -0.0303158 0.00753211 -0.0167069 
-0.0208509 0.00679674 -0.0172788 -0.015168 0.0013564 -0.0169052 -0.00686498 0.00779591 -0.0193961 
-0.00246296 0.000460737 -0.0186978 0.00424272 0.00877802 -0.0193831 0.0173937 0.0067443 -0.0134031 
0.0269552 0.00491606 -0.0139935 0.0356693 0.00539794 -0.0170925 -0.0439199 0.0154676 -0.0152155 
-0.0255149 0.0142245 -0.0157005 -0.0127404 0.0151281 -0.0119553 -0.00339823 0.0141593 -0.0130306 
0.00769405 0.0176206 -0.0116335 0.0171522 0.0192427 -0.0171045 0.0299987 0.0160707 -0.0127063 
0.0380259 0.015124 -0.0104535 0.0356394 0.0140358 -0.0188973 0.0455832 0.0139538 -0.0124161 
-0.0326915 0.0220193 -0.0135495 -0.0370829 0.0267287 -0.0185941 -0.0226682 0.0267216 -0.0107163 
-0.0140911 0.0210446 -0.0173959 -0.0197167 0.0286683 -0.0192092 -0.00605621 0.0290492 -0.0145375 
0.00757343 0.0278532 -0.0150833 0.0170905 0.0296486 -0.0145882 0.0207247 0.0234876 -0.0109421 
0.040379 0.0297236 -0.0152708 -0.0397038 0.0339979 -0.013287 -0.0211069 0.0392766 -0.0155584 
-0.0296625 0.0313446 -0.0120398 -0.0139216 0.0350955 -0.0149779 -0.00226451 0.0394082 -0.015918 
0.00278362 0.0337166 -0.0199185 0.010357 0.0362657 -0.0158354 0.0238707 0.0390266 -0.0108232 
0.0259414 0.0301057 -0.0160567 0.0333578 0.0376639 -0.0108703 0.0456225 0.0364556 -0.0176948 
-0.0446457 0.0425342 -0.0106046 -0.0166433 0.045393 -0.0140755 0.0071655 0.0446949 -0.0128215 
0.0146983 0.0443882 -0.0153144 0.032999 0.0448736 -0.0167581 0.0374199 0.0461741 -0.0105289 
-0.0421929 -0.0418676 -0.00867672 -0.0350674 -0.0460037 -0.0082939 -0.0324551 -0.0459275 -0.000454281 
-0.0242655 -0.045675 -0.0030137 -0.00646816 -0.0437921 -0.00288269 0.00487967 -0.0443268 -0.000107124 
0.0229682 -0.0423145 -0.00731184 0.033482 -0.045912 -0.00494206 0.0405629 -0.0433469 -0.00684855 
-0.0363327 -0.039702 -0.00272716 -0.0314706 -0.0332845 -0.00573218 -0.0256908 -0.0309278 -0.000951785 
-0.0252544 -0.0379756 -0.00805033 -0.0112314 -0.0357866 -0.00685134 -0.0182707 -0.0361048 -0.000448216 
-0.000575109 -0.0320109 -0.00538817 0.00940207 -0.0375794 -0.00257231 0.0235979 -0.0302469 -0.00362828 
0.0338198 -0.0349066 -0.00750102 -0.0459951 -0.0243404 -0.00157792 -0.0348655 -0.0255571 -0.0021964 
-0.0201296 -0.0220009 -0.0067946 -0.0119187 -0.0284861 -0.00183551 -0.0110541 -0.0262574 -0.00999163 
-0.00426021 -0.0243038 -0.00293956 0.00515515 -0.0252669 -0.000435726 0.0128416 -0.0281278 -0.00274498 
0.0173329 -0.0214931 -0.00332035 0.0335912 -0.0274007 -0.00399767 0.0442334 -0.0247063 -0.00751967 
0.045242 -0.0201727 -0.000247926 -0.0420113 -0.0190169 -0.00772709 -0.0352387 -0.0153341 -0.0022202 
-0.0283091 -0.0175573 -0.00659074 -0.0130199 -0.0169319 -0.00401958 -0.00505832 -0.0154186 -0.00376943 
0.00615972 -0.0113551 -0.00713219 0.00314331 -0.0186809 -0.00738464 0.0127294 -0.0143744 -0.000816639 
0.0363451 -0.017533 -0.00771451 0.0354827 -0.0110298 -0.00278997 0.0439149 -0.0118248 -0.00825218 
-0.0445296 -0.00228817 -0.00429822 -0.0316191 -0.00623199 -0.00692731 -0.0129467 -0.00142853 -0.00628907 
-0.00442265 -0.00177463 -0.0094822 0.000100188 -0.00721273 -0.00481031 0.0150287 -0.00175556 -0.0089044 
0.0178922 -0.00881043 -0.0014192 0.0316169 -0.00377844 -0.001726 -0.0424192 0.0045386 -0.00949785 
-0.0336294 0.00347473 -0.00822302 -0.0252287 0.00132947 -0.00656374 -0.02704 0.00765385 -0.0014282 
-0.0110665 0.00670392 -0.00679633 -0.0185667 0.00779633 -0.00888567 -0.000927537 0.00703853 -0.00432926 
0.0042718 0.000709994 -0.00809595 0.014082 0.00973828 -0.0059204 0.0222662 0.00107026 -0.000283686 
0.0368593 0.000371125 -0.00710642 0.0453543 0.00295593 -0.00669898 -0.0440991 0.0126215 -0.00439502 
-0.0373711 0.0121021 -0.0098919 -0.0268511 0.0146401 -0.00459045 -0.019227 0.014911 -0.00179109 
-0.0102457 0.0139935 -0.00310013 -0.00351985 0.0172291 -0.00460883 0.0066078 0.0109152 -0.0040249 
0.0221504 0.0136667 -0.00645785 0.0280562 0.0170233 -0.00128522 0.0351827 0.010627 -0.00444858 
0.0455965 0.0131454 -0.00360151 -0.0443868 0.021397 -0.00942896 -0.0333754 0.0217144 -0.00546716 
-0.037939 0.0278052 -0.0086343 -0.0105677 0.0217507 -0.00781695 -0.0183976 0.0250177 -0.00330303 
0.00347875 0.0260197 -0.00586819 0.0128288 0.0238825 -0.00801921 0.0222254 0.0248256 -0.00313972 
0.0282874 0.0296054 -0.00524872 0.0366995 0.0231439 -0.00909408 0.0455245 0.0282639 -0.00231885 
-0.0430915 0.036708 -0.00552528 -0.0272198 0.0383803 -0.00277802 -0.0194753 0.0343235 -0.00859823 
-0.0169549 0.039484 -0.00273781 -0.00571443 0.0300746 -0.00283313 0.00787298 0.032524 -0.0057331 
0.0170323 0.0394497 -0.00547701 0.0215077 0.0352356 -0.000556765 0.0450984 0.0324713 -0.00900886 
0.0432472 0.0361065 -0.000394784 -0.0459544 0.0452156 -0.00257336 -0.0316491 0.0403086 -0.00911425 
-0.0238762 0.0452211 -0.00950145 -0.0126543 0.0456451 -0.00089058 -0.00986612 0.0425615 -0.00801405 
0.00311119 0.0412094 -0.00568456 0.0110249 0.0423277 -0.00155845 0.0292205 0.0456235 -0.00855564 
0.0230854 0.0446159 -0.000981582 0.0417223 0.0405394 -0.00810519 -0.0411551 -0.0459458 8.03713e-05 
-0.0395592 -0.0459948 0.00813602 -0.0212408 -0.0413894 0.00830279 -0.00750702 -0.0453609 0.00499433 
0.0159998 -0.0415264 0.00910262 0.0216815 -0.0422555 0.000763077 0.0397305 -0.0442398 0.00276607 
-0.0317887 -0.0390226 0.0068008 -0.0113214 -0.0363475 0.00589878 -0.00130021 -0.0362167 0.0035885 
0.00593864 -0.03501 0.0058941 0.019533 -0.0336515 0.00273855 0.0230321 -0.0309885 0.00998374 
0.0354993 -0.0397756 0.00759505 0.0354919 -0.0343129 0.00217631 0.0427966 -0.0311342 0.000754194 
-0.0267059 -0.025119 0.00619412 -0.0187752 -0.0288192 0.0062192 0.00226915 -0.0286598 0.00821215 
0.0330982 -0.0206432 0.00137656 0.0415957 -0.0282532 0.00794777 -0.0367681 -0.0177532 0.00712913 
-0.0114683 -0.0108795 0.00191873 -0.0195631 -0.0176777 0.00747326 -0.00629401 -0.0182506 0.00519838 
-0.00207027 -0.01062 0.00202993 0.0049802 -0.0148271 0.0012061 0.0152557 -0.0113459 0.00776709 
0.0250737 -0.0133358 0.00680633 0.0415169 -0.0106125 0.0048118 -0.0452611 -0.00848054 0.00114919 
-0.0352761 -0.00624129 0.00099019 -0.0313226 -0.00136536 0.00772594 -0.0259955 -0.00783169 0.00233592 
-0.0156602 -0.00309777 0.00601332 -0.00321227 -0.00964722 0.00995199 -0.00707942 -0.00458142 0.00279127 
0.00263296 -0.00109359 0.00615767 0.00871942 -0.00795263 0.00390991 0.0123853 -0.000619199 0.00701733 
-0.0424731 0.00973946 0.0029495 -0.0345966 0.00681037 0.000413423 -0.0217289 0.00131681 0.00134132 
-0.0181224 0.00653424 0.00625643 0.0123387 0.00597508 0.000921859 0.0251129 0.00834454 0.00744209 
0.0337352 0.00795078 0.00416545 0.0460376 0.000549925 0.00422264 -0.0201099 0.0159465 0.00590872 
-0.0275283 0.0199454 0.00787667 0.000118224 0.0120345 0.00577752 0.0188289 0.0122341 0.0024357 
0.0116083 0.0160084 0.00199768 0.0394343 0.0176434 0.00884192 -0.0418748 0.0201847 0.00215844 
-0.0394294 0.029065 0.000459727 -0.00702633 0.026117 0.00513283 0.00614688 0.0204549 0.00626786 
0.0111949 0.025035 0.000346091 0.0163279 0.0234074 0.00711199 0.0239909 0.02227 0.00471079 
0.0462639 0.0258249 0.00682131 -0.0451886 0.0316971 0.00662343 -0.0351219 0.0300125 0.0091212 
-0.0347603 0.0371243 0.00179655 -0.0230328 0.0367281 0.00365328 -0.00505029 0.0395265 0.00474351 
0.00430512 0.0322112 0.0012722 0.00992986 0.0324952 0.00752481 0.0192548 0.030134 0.00503418 
0.0321755 0.030994 0.00377485 0.0368528 0.0376727 0.00569448 -0.0426355 0.0449927 0.00965297 
-0.0262683 0.044494 0.00539506 -0.0168138 0.0414642 0.00677059 0.00390737 0.0409819 0.00625624 
0.0114476 0.0450382 0.00551589 0.0317733 0.0437582 0.000668068 0.0400191 0.0447285 0.00257672 
-0.0263304 -0.0404719 0.0171728 -0.00751343 -0.0449342 0.0182938 0.00769323 -0.0409955 0.0107898 
0.0269636 -0.0454366 0.0168186 -0.0459587 -0.0366624 0.0103724 -0.0386287 -0.031338 0.0101301 
-0.023728 -0.0341037 0.0120177 -0.00798349 -0.0320316 0.0174074 0.00950138 -0.0363072 0.0190257 
0.0194251 -0.0396536 0.0175176 0.0267576 -0.0392586 0.0110282 0.0304843 -0.0323104 0.0107012 
0.0359773 -0.0359667 0.0198775 0.0406189 -0.0379968 0.013637 -0.0439261 -0.0298603 0.0198651 
-0.0452133 -0.02134 0.0171232 -0.0300705 -0.0207403 0.012865 -0.0196855 -0.0200588 0.0162171 
0.0130302 -0.0222324 0.011638 0.0186253 -0.0263631 0.0176722 0.0299598 -0.0217987 0.0148835 
-0.0455375 -0.0144508 0.0104752 -0.0240937 -0.0121504 0.0123832 -0.0105907 -0.0120581 0.0107063 
-0.00569843 -0.0174754 0.0135182 0.00512528 -0.0183004 0.0186391 0.0113506 -0.0116715 0.0145396 
0.0317637 -0.0153629 0.0104213 0.0314677 -0.010498 0.0180387 0.0431701 -0.018307 0.0140131 
0.0426938 -0.0105105 0.0163974 -0.0453233 -0.00616563 0.0150789 -0.0306264 -0.0081596 0.012963 
-0.00170441 -0.00140453 0.0194327 0.00421205 -0.000914234 0.0147503 0.0116532 -0.000767629 0.0195619 
0.0270358 -0.00533017 0.0134655 -0.0450644 0.00876457 0.0194057 -0.0265393 0.00777022 0.014268 
0.0148699 0.00401028 0.0148026 0.0328834 0.00138434 0.0142641 0.0403448 0.000562611 0.0106388 
0.0417564 0.00919659 0.0159212 -0.0377777 0.0166169 0.0126562 0.0320538 0.0126528 0.0151515 
0.045412 0.0173251 0.0182648 -0.0395631 0.0236973 0.0103929 -0.0161474 0.0217075 0.0127359 
-0.00981539 0.0275547 0.0143884 0.00958139 0.0202885 0.0158545 0.0145653 0.0282691 0.012718 
-0.0401415 0.0360438 0.0157881 -0.0292769 0.0307684 0.0150174 -0.00943911 0.0377901 0.0141643 
0.00299152 0.0354866 0.0199131 0.00411532 0.0356692 0.0116036 0.0239701 0.0363116 0.0195992 
-0.0176547 0.0415403 0.01624 0.0346315 0.0431386 0.0132208 0.0461743 0.0406793 0.0168298 
-0.0239789 -0.0426261 0.0258732 0.000232636 -0.0373648 0.0250578 0.0391254 -0.0382919 0.0263356 
-0.00475014 -0.0225624 0.0228335 -0.0301647 -0.0199888 0.0244117 -0.0136279 -0.0122213 0.0223114 
-0.00181784 -0.0159895 0.0283118 0.044964 -0.00436359 0.0299846 -0.0159758 0.00273272 0.0255129 
-0.00850201 0.00671214 0.0231589 0.00719931 0.00588314 0.0205678 -0.0278421 0.0173439 0.0290582 
-0.0142925 0.0187228 0.0212555 -0.0452895 0.0292236 0.0297317 -0.0275936 0.0275912 0.0218752 
-0.00344747 0.0220635 0.0216994 0.00841055 0.0267106 0.0201607 -0.0379449 0.0304394 0.029467 
-0.0207766 0.0321469 0.0207568 -0.0149216 0.0388808 0.0230407 -0.00308433 0.0354694 0.0254892 
0.0383325 0.0369406 0.0274122 -0.0340513 -0.0427744 0.0328802 -0.00819835 -0.0200318 0.0340491 
-0.00208792 -0.00585765 0.0322894 0.0395487 0.0018675 0.0319301 0.0137942 0.0177988 0.0302819 
0.00187493 0.0332801 0.0386 0.0284238 0.0339137 0.0334435 -0.0348695 -0.0253457 0.0428263 
0.00630397 -0.0255151 0.0451814 -0.0207316 0.00304651 0.0449711 -0.0103651 0.0199505 0.0401286 
-0.0400489 0.0237475 0.045514 -0.0340187 0.0353047 0.0420449 -0.012861 0.0358069 0.046425 

VERTICES 1134 1134
1 0 
1 1 
1 2 
1 3 
1 4 
1 5 
1 6 
1 7 
1 8 
1 9 
1 10 
1 11 
1 12 
1 13 
1 14 
1 15 
1 16 
1 17 
1 18 
1 19 
1 20 
1 21 
1 22 
1 23 
1 24 
1 25 
1 26 
1 27 
1 28 
1 29 
1 30 
1 31 
1 32 
1 33 
1 34 
1 35 
1 36 
1 37 
1 38 
1 39 
1 40 
1 41 
1 42 
1 43 
1 44 
1 45 
1 46 
1 47 
1 48 
1 49 
1 50 
1 51 
1 52 
1 53 
1 54 
1 55 
1 56 
1 57 
1 58 
1 59 
1 60 
1 61 
1 62 
1 63 
1 64 
1 65 
1 66 
1 67 
1 68 
1 69 
1 70 
1 71 
1 72 
1 73 
1 74 
1 75 
1 76 
1 77 
1 78 
1 79 
1 80 
1 81 
1 82 
1 83 
1 84 
1 85 
1 86 
1 87 
1 88 
1 89 
1 90 
1 91 
1 92 
1 93 
1 94 
1 95 
1 96 
1 97 
1 98 
1 99 
1 100 
1 101 
1 102 
1 103 
1 104 
1 105 
1 106 
1 107 
1 108 
1 109 
1 110 
1 111 
1 112 
1 113 
1 114 
1 115 
1 116 
1 117 
1 118 
1 119 
1 120 
1 121 
1 122 
1 123 
1 124 
1 125 
1 126 
1 127 
1 128 
1 129 
1 130 
1 131 
1 132 
1 133 
1 134 
1 135 
1 136 
1 137 
1 138 
1 139 
1 140 
1 141 
1 142 
1 143 
1 144 
1 145 
1 146 
1 147 
1 148 
1 149 
1 150 
1 151 
1 152 
1 153 
1 154 
1 155 
1 156 
1 157 
1 158 
1 159 
1 160 
1 161 
1 162 
1 163 
1 164 
1 165 
1 166 
1 167 
1 168 
1 169 
1 170 
1 171 
1 172 
1 173 
1 174 
1 175 
1 176 
1 177 
1 178 
1 179 
1 180 
1 181 
1 182 
1 183 
1 184 
1 185 
1 186 
1 187 
1 188 
1 189 
1 190 
1 191 
1 192 
1 193 
1 194 
1 195 
1 196 
1 197 
1 198 
1 199 
1 200 
1 201 
1 202 
1 203 
1 204 
1 205 
1 206 
1 207 
1 208 
1 209 
1 210 
1 211 
1 212 
1 213 
1 214 
1 215 
1 216 
1 217 
1 218 
1 219 
1 220 
1 221 
1 222 
1 223 
1 224 
1 225 
1 226 
1 227 
1 228 
1 229 
1 230 
1 231 
1 232 
1 233 
1 234 
1 235 
1 236 
1 237 
1 238 
1 239 
1 240 
1 241 
1 242 
1 243 
1 244 
1 245 
1 246 
1 247 
1 248 
1 249 
1 250 
1 251 
1 252 
1 253 
1 254 
1 255 
1 256 
1 257 
1 258 
1 259 
1 260 
1 261 
1 262 
1 263 
1 264 
1 265 
1 266 
1 267 
1 268 
1 269 
1 270 
1 271 
1 272 
1 273 
1 274 
1 275 
1 276 
1 277 
1 278 
1 279 
1 280 
1 281 
1 282 
1 283 
1 284 
1 285 
1 286 
1 287 
1 288 
1 289 
1 290 
1 291 
1 292 
1 293 
1 294 
1 295 
1 296 
1 297 
1 298 
1 299 
1 300 
1 301 
1 302 
1 303 
1 304 
1 305 
1 306 
1 307 
1 308 
1 309 
1 310 
1 311 
1 312 
1 313 
1 314 
1 315 
1 316 
1 317 
1 318 
1 319 
1 320 
1 321 
1 322 
1 323 
1 324 
1 325 
1 326 
1 327 
1 328 
1 329 
1 330 
1 331 
1 332 
1 333 
1 334 
1 335 
1 336 
1 337 
1 338 
1 339 
1 340 
1 341 
1 342 
1 343 
1 344 
1 345 
1 346 
1 347 
1 348 
1 349 
1 350 
1 351 
1 352 
1 353 
1 354 
1 355 
1 356 
1 357 
1 358 
1 359 
1 360 
1 361 
1 362 
1 363 
1 364 
1 365 
1 366 
1 367 
1 368 
1 369 
1 370 
1 371 
1 372 
1 373 
1 374 
1 375 
1 376 
1 377 
1 378 
1 379 
1 380 
1 381 
1 382 
1 383 
1 384 
1 385 
1 386 
1 387 
1 388 
1 389 
1 390 
1 391 
1 392 
1 393 
1 394 
1 395 
1 396 
1 397 
1 398 
1 399 
1 400 
1 401 
1 402 
1 403 
1 404 
1 405 
1 406 
1 407 
1 408 
1 409 
1 410 
1 411 
1 412 
1 413 
1 414 
1 415 
1 416 
1 417 
1 418 
1 419 
1 420 
1 421 
1 422 
1 423 
1 424 
1 425 
1 426 
1 427 
1 428 
1 429 
1 430 
1 431 
1 432 
1 433 
1 434 
1 435 
1 436 
1 437 
1 438 
1 439 
1 440 
1 441 
1 442 
1 443 
1 444 
1 445 
1 446 
1 447 
1 448 
1 449 
1 450 
1 451 
1 452 
1 453 
1 454 
1 455 
1 456 
1 457 
1 458 
1 459 
1 460 
1 461 
1 462 
1 463 
1 464 
1 465 
1 466 
1 467 
1 468 
1 469 
1 470 
1 471 
1 472 
1 473 
1 474 
1 475 
1 476 
1 477 
1 478 
1 479 
1 480 
1 481 
1 482 
1 483 
1 484 
1 485 
1 486 
1 487 
1 488 
1 489 
1 490 
1 491 
1 492 
1 493 
1 494 
1 495 
1 496 
1 497 
1 498 
1 499 
1 500 
1 501 
1 502 
1 503 
1 504 
1 505 
1 506 
1 507 
1 508 
1 509 
1 510 
1 511 
1 512 
1 513 
1 514 
1 515 
1 516 
1 517 
1 518 
1 519 
1 520 
1 521 
1 522 
1 523 
1 524 
1 525 
1 526 
1 527 
1 528 
1 529 
1 530 
1 531 
1 532 
1 533 
1 534 
1 535 
1 536 
1 537 
1 538 
1 539 
1 540 
1 541 
1 542 
1 543 
1 544 
1 545 
1 546 
1 547 
1 548 
1 549 
1 550 
1 551 
1 552 
1 553 
1 554 
1 555 
1 556 
1 557 
1 558 
1 559 
1 560 
1 561 
1 562 
1 563 
1 564 
1 565 
1 566 

POINT_DATA 567
SCALARS id double
LOOKUP_TABLE default
132 156 210 333 193 111 413 544 494 
363 129 329 466 41 259 402 478 455 
256 448 260 136 540 406 449 451 221 
133 524 441 496 137 414 328 71 415 
110 33 564 23 476 384 501 541 334 
459 531 262 499 325 346 457 311 295 
385 373 237 475 96 138 381 290 314 
421 515 348 521 30 19 537 97 163 
434 207 326 480 365 62 452 502 425 
58 92 319 11 561 313 351 14 397 
13 2 318 36 327 263 419 264 509 
115 304 447 456 552 545 315 141 416 
504 252 76 508 201 395 167 202 162 
135 549 405 469 488 472 139 27 171 
235 224 435 155 6 222 418 527 306 
146 20 396 56 367 429 495 275 194 
37 100 173 438 536 54 107 228 185 
49 286 239 439 226 391 371 181 57 
101 218 121 289 108 294 44 538 506 
358 267 169 151 231 50 530 556 369 
209 555 548 26 407 211 354 335 331 
147 378 268 12 25 330 203 383 216 
551 15 322 514 17 150 460 296 140 
467 81 430 519 560 528 532 10 205 
220 117 80 426 336 161 424 40 192 
55 9 283 65 104 31 157 288 307 
461 428 68 276 389 510 266 197 261 
83 189 375 497 86 94 401 559 356 
489 230 343 483 432 274 344 186 566 
175 77 105 247 297 217 398 490 445 
341 299 411 182 309 170 533 562 272 
233 350 394 88 484 481 492 485 470 
376 190 84 95 468 321 518 500 446 
507 382 47 512 204 70 293 368 526 
22 338 379 4 444 60 85 277 254 
517 152 308 79 131 437 403 273 505 
377 523 511 64 498 250 158 440 337 
340 516 89 206 219 52 153 43 34 
388 1 258 280 53 543 21 453 82 
357 118 353 284 73 387 554 253 292 
392 45 433 229 347 278 332 361 178 
563 302 529 124 312 473 164 493 106 
188 251 125 372 168 355 342 59 300 
558 109 339 323 364 191 195 423 316 
67 255 236 200 90 539 265 208 458 
386 145 320 0 244 198 450 412 491 
474 99 8 245 183 128 380 557 91 
130 422 362 242 553 126 465 3 520 
112 103 370 282 246 177 399 535 16 
234 390 513 301 404 238 349 18 345 
471 486 534 546 199 116 223 120 279 
291 74 78 462 134 503 148 165 547 
420 525 271 66 142 400 324 29 213 
270 269 366 35 305 72 127 317 149 
32 427 63 240 410 542 39 257 184 
7 102 477 5 154 408 409 227 285 
69 454 487 24 249 48 160 42 75 
287 241 172 87 374 443 214 479 179 
38 113 187 417 463 123 310 359 225 
114 143 215 98 93 61 360 550 176 
196 436 243 298 159 442 122 303 28 
248 393 119 212 431 144 522 51 180 
482 352 46 166 464 565 174 232 281 

FIELD FieldData 7
r 3 567 double
-0.0436235 -0.0375296 -0.0420595 -0.0252407 -0.0386571 -0.0421181 -0.0332343 -0.0268669 -0.0407436 
-0.0114065 -0.0114865 -0.0456272 0.0413571 -0.00973606 -0.0438486 -0.0455348 0.0116216 -0.0431349 
-0.0179546 0.0117726 -0.0426363 0.0386802 0.0172354 -0.0424194 0.0252254 0.0392029 -0.0420736 
-0.0185351 0.0451461 -0.042125 -0.0392281 -0.0453608 -0.0331041 -0.0217181 -0.0424498 -0.0301798 
-0.0282066 -0.0435238 -0.0336506 -0.0102715 -0.0411904 -0.0369913 0.000180486 -0.0454945 -0.0363871 
0.021152 -0.0415643 -0.0302093 0.0353653 -0.0444048 -0.0395686 0.0437717 -0.0448224 -0.0342782 
-0.0361183 -0.0368459 -0.0335939 -0.0206517 -0.034036 -0.0333319 -0.011994 -0.0310873 -0.0359412 
0.00150441 -0.0356629 -0.0376433 0.00415549 -0.0302204 -0.0303117 0.0269003 -0.038264 -0.0360958 
0.031624 -0.0317684 -0.0345955 0.0351828 -0.0383113 -0.0317012 -0.0448718 -0.0255135 -0.0304513 
-0.0305887 -0.0213348 -0.0301759 -0.0324814 -0.0293192 -0.0318979 -0.00370942 -0.0270509 -0.0385705 
0.0144713 -0.0282543 -0.0308608 0.0277574 -0.0200184 -0.0357536 0.037557 -0.0216289 -0.0301525 
0.043778 -0.0296301 -0.0305031 -0.0437766 -0.0184425 -0.033735 -0.0345853 -0.0126408 -0.0307963 
-0.0225696 -0.0167951 -0.0349104 -0.0149706 -0.0190015 -0.0388904 -0.00532073 -0.01102 -0.0322932 
0.00379927 -0.016734 -0.0390472 0.0152015 -0.0191887 -0.0302833 0.0223766 -0.0149359 -0.031487 
0.0315385 -0.011993 -0.0357859 0.0460996 -0.0184406 -0.0328854 -0.0262832 -0.00590947 -0.0311581 
-0.0188784 -0.00879722 -0.0333612 -0.00645171 -0.00547028 -0.0375432 0.00471558 -0.00401698 -0.0312343 
0.0239734 -0.00421241 -0.0381928 0.037195 -0.00432732 -0.0388294 0.0445174 -0.00495297 -0.0358836 
-0.0236001 0.00325709 -0.0354808 -0.0038016 0.00486601 -0.0374431 0.00792792 0.00469505 -0.0310041 
0.0161437 0.00198787 -0.0381985 0.0113476 0.00839541 -0.0394307 0.022871 0.00658861 -0.0384891 
0.0427162 0.00512385 -0.0314882 -0.0398669 0.0147985 -0.0324562 -0.0354547 0.0116116 -0.0390751 
-0.0224396 0.0151383 -0.0337972 -0.00584421 0.0173815 -0.0366087 0.00328078 0.0116526 -0.03155 
0.00248884 0.0185527 -0.0353624 0.0168407 0.0157582 -0.0389252 0.0245649 0.0152599 -0.0387547 
0.0356581 0.0146453 -0.0334895 -0.0453082 0.0224774 -0.0303304 -0.0329333 0.0227002 -0.0332381 
-0.0257199 0.0232654 -0.0360323 -0.0159132 0.0223377 -0.0379072 0.0129113 0.0261911 -0.0379551 
0.0341019 0.0257771 -0.0373271 -0.0365513 0.0371167 -0.0343209 -0.0225297 0.0311535 -0.0351395 
-0.0274866 0.0360348 -0.0316136 -0.0174907 0.0351257 -0.0396459 0.0193905 0.0318409 -0.0302215 
0.0274804 0.0326463 -0.0303668 0.043185 0.0391726 -0.0327907 0.0447183 0.0307884 -0.0321412 
-0.0440824 0.0457432 -0.0332744 -0.035736 0.045886 -0.0339518 -0.0274628 0.04577 -0.0323441 
-0.0162174 0.0426515 -0.0310788 0.00623119 0.0407458 -0.0307686 0.0199056 0.0460425 -0.0367897 
0.014777 0.0405043 -0.0394206 0.0272304 0.0460036 -0.0318192 -0.0459856 -0.0455654 -0.0275955 
-0.019063 -0.0421426 -0.0202369 -0.00359985 -0.0454741 -0.0200732 0.00628109 -0.043058 -0.0297364 
0.00408337 -0.0457457 -0.0213019 0.0148762 -0.0403571 -0.0242689 0.0232273 -0.0453942 -0.0202256 
0.0315781 -0.0408775 -0.0249069 0.0459547 -0.0440099 -0.0229465 -0.0461391 -0.0324295 -0.0260111 
-0.0396553 -0.0396113 -0.0249429 -0.0361725 -0.0321881 -0.024363 -0.0264341 -0.0339558 -0.0214898 
-0.00797076 -0.0370681 -0.0250417 0.00787043 -0.0385085 -0.0219903 0.0245973 -0.0340387 -0.0268745 
0.0320671 -0.0335326 -0.0209191 0.0438176 -0.0337594 -0.0214062 -0.037359 -0.0202558 -0.0263311 
-0.0272614 -0.0251929 -0.0213636 -0.00546875 -0.0209687 -0.0278181 -0.00160074 -0.0271746 -0.0239141 
0.0227724 -0.0227782 -0.0264984 0.0286782 -0.0274742 -0.0279591 0.0366364 -0.0259081 -0.0212039 
-0.0439974 -0.0161472 -0.0228049 -0.0231796 -0.0139608 -0.0270114 -0.0092331 -0.0140043 -0.0254409 
0.00762705 -0.010294 -0.0273101 0.00279948 -0.0173926 -0.026001 0.0283912 -0.0178153 -0.0202294 
0.0292227 -0.0156878 -0.0279661 0.0382473 -0.0150183 -0.0263546 0.0455887 -0.0113701 -0.0239113 
-0.045079 -0.00361169 -0.0249687 -0.0367407 -0.00981919 -0.0239942 -0.0192136 -0.00335717 -0.025867 
-0.0105444 -0.000896477 -0.0289222 -0.00287321 -0.00665309 -0.0250449 0.0147844 -0.00743604 -0.0236662 
0.0241965 -0.00138701 -0.0245851 0.0319623 -0.00851092 -0.0251608 0.0358931 -0.00215944 -0.0280013 
0.0441945 -0.00364121 -0.0252868 -0.0429011 0.00347159 -0.0215798 -0.0322101 0.00881867 -0.0279636 
-0.0345914 0.00188779 -0.0212527 -0.0364945 0.00155307 -0.0287946 -0.0178299 0.00999135 -0.0291281 
0.00181021 0.00501513 -0.0264308 0.019567 0.0030125 -0.0291552 0.0270951 0.00593463 -0.0276291 
0.039707 0.00688455 -0.0242892 -0.0368677 0.0117868 -0.0218305 -0.0215147 0.0152635 -0.0227845 
-0.0293714 0.0162703 -0.0274532 -0.00485267 0.011312 -0.026203 0.00409328 0.0181149 -0.0258441 
0.0135153 0.0127838 -0.0241314 0.0221114 0.014785 -0.0272952 0.0303234 0.0147885 -0.0251355 
0.0458126 0.01516 -0.020448 -0.0450296 0.0212607 -0.02146 -0.0288255 0.0235863 -0.0228778 
-0.0141358 0.0206719 -0.028412 -0.0134661 0.0275235 -0.0243516 -0.0075346 0.0216779 -0.0224282 
0.00179919 0.0277614 -0.0268275 0.00882938 0.0253974 -0.0244582 0.0146568 0.0205218 -0.026742 
0.0242481 0.0261254 -0.0229034 0.0304755 0.0214765 -0.0209596 0.0441112 0.0215301 -0.026533 
-0.045775 0.0300097 -0.023427 -0.0460114 0.0390559 -0.0277494 -0.0345887 0.0309267 -0.0275934 
-0.0361828 0.0386488 -0.0233043 -0.0207148 0.0373749 -0.0258211 -0.0291461 0.0330383 -0.0220507 
-0.00614597 0.0342513 -0.0297649 -0.00894383 0.0367663 -0.0211391 0.00759138 0.0335039 -0.0279655 
0.0346799 0.0369308 -0.0223293 0.0421154 0.0302704 -0.0247071 -0.0423596 0.0451421 -0.0233047 
-0.0317307 0.0457042 -0.0231487 -0.0209043 0.0450691 -0.0229887 -0.0104589 0.0459302 -0.0213649 
-0.001132 0.0409039 -0.0239967 0.00634001 0.0446277 -0.0225619 0.0137434 0.0460155 -0.0242727 
0.0265507 0.0419257 -0.0232973 0.0364152 0.0429228 -0.0295756 0.0416555 0.0451253 -0.0206886 
-0.044272 -0.0446663 -0.0177793 -0.0360466 -0.045321 -0.0198241 -0.0265278 -0.0432806 -0.0184669 
-0.0241853 -0.0452231 -0.0116163 -0.0111402 -0.0447911 -0.0121798 0.00662271 -0.045461 -0.0106904 
0.0153349 -0.0452526 -0.0105055 0.0310812 -0.0404836 -0.0124348 0.0375856 -0.0438868 -0.0156852 
-0.0446612 -0.0347627 -0.0182254 -0.0367839 -0.0363919 -0.0146948 -0.0146597 -0.0309129 -0.0190306 
-0.000972659 -0.0353496 -0.0193037 -0.00926069 -0.0357728 -0.016317 0.00759097 -0.0313137 -0.0114901 
0.00575759 -0.0384588 -0.013882 0.0174946 -0.0379911 -0.01136 0.026576 -0.0331285 -0.0115354 
0.0423166 -0.0363073 -0.0102372 -0.0440219 -0.0267237 -0.016529 -0.0357663 -0.0265228 -0.0173231 
-0.0223281 -0.0295021 -0.0136901 -0.0297882 -0.0227626 -0.0121597 -0.0176319 -0.023208 -0.0169793 
-0.00570765 -0.0273105 -0.0157834 -0.00581938 -0.0202269 -0.019032 0.000564148 -0.0253192 -0.0110946 
0.0098764 -0.0250677 -0.019711 0.0188983 -0.0299937 -0.0169102 0.0133565 -0.0230118 -0.010191 
0.0259763 -0.0272746 -0.0199747 0.0295335 -0.0237852 -0.0124952 0.0383388 -0.0238401 -0.0131636 
0.0448398 -0.0278047 -0.016395 -0.041303 -0.0120953 -0.0157545 -0.0338895 -0.0135954 -0.0110126 
-0.0283718 -0.0173533 -0.0187333 -0.0243348 -0.0118222 -0.0147795 -0.00638737 -0.0126639 -0.0125906 
0.00574893 -0.0177489 -0.0152296 0.0132217 -0.015663 -0.0196532 0.0210625 -0.0119143 -0.0149624 
0.0209001 -0.0194541 -0.0156013 0.0303414 -0.0121455 -0.0113769 0.0355088 -0.0156683 -0.0172024 
0.0445476 -0.0194863 -0.0163678 -0.0424626 -0.00462761 -0.0122019 -0.0326141 -0.00802576 -0.016626 
-0.0249141 -1.95659e-05 -0.0182169 -0.0228755 -0.00539353 -0.0100082 -0.0163071 -0.00751409 -0.0197848 
-0.00966481 -0.00597379 -0.0163704 0.000930683 -0.00574117 -0.0145433 0.00904083 -0.0039253 -0.0137856 
0.0235219 -0.00216488 -0.0147682 0.0318512 -0.00409624 -0.0116268 0.0398259 -0.00924931 -0.0170335 
0.0311432 -0.000600197 -0.0195492 0.0429327 -0.00186778 -0.0149888 -0.0303158 0.00753211 -0.0167069 
-0.0208509 0.00679674 -0.0172788 -0.015168 0.0013564 -0.0169052 -0.00686498 0.00779591 -0.0193961 
-0.00246296 0.000460737 -0.0186978 0.00424272 0.00877802 -0.0193831 0.0173937 0.0067443 -0.0134031 
0.0269552 0.00491606 -0.0139935 0.0356693 0.00539794 -0.0170925 -0.0439199 0.0154676 -0.0152155 
-0.0255149 0.0142245 -0.0157005 -0.0127404 0.0151281 -0.0119553 -0.00339823 0.0141593 -0.0130306 
0.00769405 0.0176206 -0.0116335 0.0171522 0.0192427 -0.0171045 0.0299987 0.0160707 -0.0127063 
0.0380259 0.015124 -0.0104535 0.0356394 0.0140358 -0.0188973 0.0455832 0.0139538 -0.0124161 
-0.0326915 0.0220193 -0.0135495 -0.0370829 0.0267287 -0.0185941 -0.0226682 0.0267216 -0.0107163 
-0.0140911 0.0210446 -0.0173959 -0.0197167 0.0286683 -0.0192092 -0.00605621 0.0290492 -0.0145375 
0.00757343 0.0278532 -0.0150833 0.0170905 0.0296486 -0.0145882 0.0207247 0.0234876 -0.0109421 
0.040379 0.0297236 -0.0152708 -0.0397038 0.0339979 -0.013287 -0.0211069 0.0392766 -0.0155584 
-0.0296625 0.0313446 -0.0120398 -0.0139216 0.0350955 -0.0149779 -0.00226451 0.0394082 -0.015918 
0.00278362 0.0337166 -0.0199185 0.010357 0.0362658 -0.0158354 0.0238707 0.0390266 -0.0108232 
0.0259414 0.0301057 -0.0160567 0.0333578 0.0376639 -0.0108703 0.0456225 0.0364556 -0.0176948 
-0.0446457 0.0425342 -0.0106046 -0.0166433 0.045393 -0.0140755 0.0071655 0.0446949 -0.0128215 
0.0146983 0.0443882 -0.0153144 0.032999 0.0448736 -0.0167581 0.0374199 0.0461741 -0.0105289 
-0.0421929 -0.0418676 -0.00867672 -0.0350674 -0.0460037 -0.0082939 -0.0324551 -0.0459275 -0.000454281 
-0.0242655 -0.045675 -0.0030137 -0.00646816 -0.0437921 -0.00288269 0.00487967 -0.0443268 -0.000107124 
0.0229682 -0.0423145 -0.00731184 0.033482 -0.045912 -0.00494206 0.0405629 -0.0433469 -0.00684855 
-0.0363327 -0.039702 -0.00272716 -0.0314706 -0.0332845 -0.00573218 -0.0256908 -0.0309278 -0.000951785 
-0.0252544 -0.0379756 -0.00805033 -0.0112314 -0.0357866 -0.00685134 -0.0182707 -0.0361048 -0.000448216 
-0.000575109 -0.0320109 -0.00538817 0.00940207 -0.0375794 -0.00257231 0.0235979 -0.0302469 -0.00362828 
0.0338198 -0.0349066 -0.00750102 -0.0459951 -0.0243404 -0.00157792 -0.0348655 -0.0255571 -0.0021964 
-0.0201296 -0.0220009 -0.00679461 -0.0119187 -0.0284861 -0.00183551 -0.0110541 -0.0262574 -0.00999163 
-0.00426021 -0.0243038 -0.00293956 0.00515515 -0.0252669 -0.000435726 0.0128416 -0.0281278 -0.00274498 
0.0173329 -0.0214931 -0.00332035 0.0335912 -0.0274007 -0.00399767 0.0442334 -0.0247063 -0.00751967 
0.045242 -0.0201727 -0.000247926 -0.0420113 -0.0190169 -0.00772709 -0.0352387 -0.0153341 -0.0022202 
-0.0283091 -0.0175573 -0.00659074 -0.0130199 -0.0169319 -0.00401958 -0.00505832 -0.0154186 -0.00376943 
0.00615972 -0.0113551 -0.00713219 0.00314331 -0.0186809 -0.00738464 0.0127294 -0.0143744 -0.000816639 
0.0363451 -0.017533 -0.00771451 0.0354827 -0.0110298 -0.00278997 0.0439149 -0.0118248 -0.00825218 
-0.0445296 -0.00228817 -0.00429822 -0.0316191 -0.00623199 -0.00692731 -0.0129467 -0.00142853 -0.00628907 
-0.00442265 -0.00177463 -0.0094822 0.000100188 -0.00721273 -0.00481031 0.0150287 -0.00175556 -0.0089044 
0.0178922 -0.00881043 -0.0014192 0.0316169 -0.00377844 -0.001726 -0.0424192 0.0045386 -0.00949785 
-0.0336294 0.00347473 -0.00822302 -0.0252287 0.00132947 -0.00656374 -0.02704 0.00765385 -0.0014282 
-0.0110665 0.00670392 -0.00679633 -0.0185667 0.00779633 -0.00888567 -0.000927537 0.00703853 -0.00432926 
0.0042718 0.000709994 -0.00809595 0.014082 0.00973828 -0.0059204 0.0222662 0.00107026 -0.000283686 
0.0368593 0.000371125 -0.00710642 0.0453543 0.00295593 -0.00669898 -0.0440991 0.0126215 -0.00439502 
-0.0373711 0.0121021 -0.0098919 -0.0268511 0.0146401 -0.00459045 -0.019227 0.014911 -0.00179109 
-0.0102457 0.0139935 -0.00310013 -0.00351985 0.0172291 -0.00460883 0.0066078 0.0109152 -0.0040249 
0.0221504 0.0136667 -0.00645786 0.0280562 0.0170233 -0.00128522 0.0351827 0.010627 -0.00444858 
0.0455965 0.0131454 -0.00360151 -0.0443868 0.021397 -0.00942896 -0.0333754 0.0217144 -0.00546716 
-0.037939 0.0278052 -0.0086343 -0.0105677 0.0217507 -0.00781694 -0.0183976 0.0250177 -0.00330303 
0.00347875 0.0260197 -0.00586819 0.0128288 0.0238825 -0.00801921 0.0222254 0.0248256 -0.00313972 
0.0282874 0.0296054 -0.00524872 0.0366995 0.0231439 -0.00909408 0.0455245 0.0282639 -0.00231885 
-0.0430915 0.036708 -0.00552528 -0.0272198 0.0383803 -0.00277802 -0.0194753 0.0343235 -0.00859823 
-0.0169549 0.039484 -0.00273781 -0.00571443 0.0300746 -0.00283313 0.00787298 0.032524 -0.0057331 
0.0170323 0.0394497 -0.00547701 0.0215077 0.0352356 -0.000556765 0.0450984 0.0324713 -0.00900886 
0.0432472 0.0361065 -0.000394784 -0.0459544 0.0452156 -0.00257336 -0.0316491 0.0403086 -0.00911425 
-0.0238762 0.0452211 -0.00950145 -0.0126543 0.0456451 -0.00089058 -0.00986612 0.0425615 -0.00801405 
0.00311119 0.0412094 -0.00568456 0.0110249 0.0423277 -0.00155845 0.0292205 0.0456235 -0.00855564 
0.0230854 0.0446159 -0.000981582 0.0417223 0.0405394 -0.00810519 -0.0411551 -0.0459458 8.03713e-05 
-0.0395592 -0.0459948 0.00813602 -0.0212407 -0.0413894 0.00830279 -0.00750702 -0.0453609 0.00499433 
0.0159998 -0.0415264 0.00910262 0.0216815 -0.0422555 0.000763077 0.0397305 -0.0442398 0.00276607 
-0.0317887 -0.0390226 0.0068008 -0.0113214 -0.0363475 0.00589878 -0.00130021 -0.0362167 0.0035885 
0.00593864 -0.03501 0.0058941 0.019533 -0.0336515 0.00273855 0.0230321 -0.0309885 0.00998373 
0.0354993 -0.0397756 0.00759505 0.0354919 -0.0343129 0.00217631 0.0427966 -0.0311342 0.000754194 
-0.0267059 -0.025119 0.00619412 -0.0187752 -0.0288192 0.0062192 0.00226915 -0.0286598 0.00821215 
0.0330982 -0.0206432 0.00137656 0.0415957 -0.0282532 0.00794777 -0.0367681 -0.0177532 0.00712913 
-0.0114683 -0.0108795 0.00191873 -0.0195631 -0.0176777 0.00747326 -0.00629401 -0.0182506 0.00519838 
-0.00207027 -0.01062 0.00202993 0.0049802 -0.0148271 0.0012061 0.0152557 -0.0113459 0.00776709 
0.0250737 -0.0133358 0.00680633 0.0415169 -0.0106125 0.0048118 -0.0452611 -0.00848054 0.00114919 
-0.0352761 -0.00624129 0.00099019 -0.0313226 -0.00136536 0.00772594 -0.0259955 -0.00783169 0.00233592 
-0.0156602 -0.00309777 0.00601332 -0.00321227 -0.00964722 0.00995199 -0.00707942 -0.00458142 0.00279127 
0.00263296 -0.00109359 0.00615767 0.00871942 -0.00795263 0.00390991 0.0123853 -0.000619199 0.00701733 
-0.0424731 0.00973946 0.0029495 -0.0345966 0.00681037 0.000413423 -0.0217289 0.00131681 0.00134132 
-0.0181224 0.00653424 0.00625643 0.0123387 0.00597508 0.000921859 0.0251129 0.00834454 0.00744209 
0.0337352 0.00795078 0.00416545 0.0460376 0.000549925 0.00422264 -0.0201099 0.0159465 0.00590872 
-0.0275283 0.0199454 0.00787667 0.000118224 0.0120345 0.00577751 0.0188289 0.0122341 0.0024357 
0.0116083 0.0160084 0.00199768 0.0394343 0.0176434 0.00884192 -0.0418748 0.0201847 0.00215844 
-0.0394294 0.029065 0.000459727 -0.00702633 0.026117 0.00513283 0.00614688 0.0204549 0.00626786 
0.0111949 0.025035 0.000346091 0.0163279 0.0234074 0.00711199 0.0239909 0.02227 0.00471079 
0.0462639 0.0258249 0.00682131 -0.0451886 0.0316971 0.00662343 -0.0351219 0.0300125 0.0091212 
-0.0347603 0.0371243 0.00179655 -0.0230328 0.0367281 0.00365328 -0.00505029 0.0395265 0.00474351 
0.00430512 0.0322112 0.0012722 0.00992986 0.0324952 0.00752481 0.0192548 0.030134 0.00503418 
0.0321755 0.030994 0.00377485 0.0368528 0.0376727 0.00569448 -0.0426355 0.0449927 0.00965297 
-0.0262683 0.044494 0.00539506 -0.0168138 0.0414642 0.00677059 0.00390737 0.0409819 0.00625624 
0.0114476 0.0450382 0.00551589 0.0317733 0.0437582 0.000668068 0.0400191 0.0447285 0.00257672 
-0.0263304 -0.0404719 0.0171728 -0.00751343 -0.0449342 0.0182938 0.00769323 -0.0409955 0.0107898 
0.0269636 -0.0454366 0.0168186 -0.0459587 -0.0366624 0.0103724 -0.0386287 -0.031338 0.0101301 
-0.023728 -0.0341037 0.0120177 -0.00798349 -0.0320316 0.0174074 0.00950138 -0.0363072 0.0190257 
0.0194251 -0.0396536 0.0175176 0.0267576 -0.0392586 0.0110282 0.0304843 -0.0323104 0.0107012 
0.0359773 -0.0359667 0.0198775 0.0406189 -0.0379968 0.013637 -0.0439261 -0.0298603 0.0198651 
-0.0452133 -0.02134 0.0171232 -0.0300705 -0.0207403 0.012865 -0.0196855 -0.0200588 0.0162171 
0.0130302 -0.0222324 0.011638 0.0186253 -0.0263631 0.0176722 0.0299598 -0.0217987 0.0148835 
-0.0455375 -0.0144508 0.0104752 -0.0240937 -0.0121504 0.0123832 -0.0105907 -0.0120581 0.0107063 
-0.00569843 -0.0174754 0.0135182 0.00512528 -0.0183004 0.0186391 0.0113506 -0.0116715 0.0145396 
0.0317637 -0.0153629 0.0104213 0.0314677 -0.010498 0.0180387 0.0431701 -0.018307 0.0140131 
0.0426938 -0.0105105 0.0163974 -0.0453233 -0.00616563 0.0150789 -0.0306264 -0.0081596 0.012963 
-0.00170441 -0.00140453 0.0194327 0.00421205 -0.000914234 0.0147503 0.0116532 -0.000767629 0.0195619 
0.0270358 -0.00533017 0.0134655 -0.0450644 0.00876457 0.0194057 -0.0265393 0.00777022 0.014268 
0.0148699 0.00401028 0.0148026 0.0328834 0.00138434 0.0142641 0.0403448 0.000562611 0.0106388 
0.0417564 0.00919659 0.0159212 -0.0377777 0.0166169 0.0126562 0.0320538 0.0126528 0.0151515 
0.045412 0.0173251 0.0182648 -0.0395631 0.0236973 0.0103929 -0.0161474 0.0217075 0.0127359 
-0.00981539 0.0275547 0.0143884 0.00958139 0.0202885 0.0158545 0.0145653 0.0282691 0.012718 
-0.0401415 0.0360438 0.0157881 -0.0292769 0.0307684 0.0150174 -0.00943911 0.0377901 0.0141643 
0.00299152 0.0354866 0.0199131 0.00411532 0.0356692 0.0116036 0.0239701 0.0363116 0.0195992 
-0.0176547 0.0415403 0.01624 0.0346315 0.0431386 0.0132208 0.0461743 0.0406793 0.0168298 
-0.0239789 -0.0426261 0.0258732 0.000232636 -0.0373647 0.0250578 0.0391254 -0.0382919 0.0263356 
-0.00475014 -0.0225624 0.0228335 -0.0301647 -0.0199888 0.0244117 -0.0136279 -0.0122213 0.0223114 
-0.00181784 -0.0159895 0.0283118 0.044964 -0.00436359 0.0299846 -0.0159758 0.00273272 0.0255129 
-0.00850201 0.00671214 0.0231589 0.00719931 0.00588314 0.0205678 -0.0278421 0.0173439 0.0290582 
-0.0142925 0.0187228 0.0212555 -0.0452895 0.0292236 0.0297317 -0.0275936 0.0275912 0.0218752 
-0.00344747 0.0220635 0.0216994 0.00841054 0.0267106 0.0201607 -0.0379449 0.0304394 0.029467 
-0.0207766 0.0321469 0.0207568 -0.0149216 0.0388808 0.0230407 -0.00308433 0.0354694 0.0254892 
0.0383325 0.0369406 0.0274122 -0.0340513 -0.0427744 0.0328802 -0.00819835 -0.0200318 0.0340491 
-0.00208792 -0.00585765 0.0322894 0.0395487 0.0018675 0.0319301 0.0137942 0.0177988 0.0302819 
0.00187493 0.0332801 0.0386 0.0284238 0.0339137 0.0334434 -0.0348695 -0.0253457 0.0428263 
0.00630397 -0.0255151 0.0451814 -0.0207316 0.00304651 0.0449711 -0.0103651 0.0199505 0.0401286 
-0.0400489 0.0237475 0.045514 -0.0340187 0.0353047 0.0420449 -0.012861 0.0358069 0.046425 

gid 1 567 double
0 0 0 0 0 0 0 0 0 
0 0 0 0 0 0 0 0 0 
0 0 0 0 0 0 0 0 0 
0 0 0 0 0 0 0 0 0 
0 0 0 0 0 0 0 0 0 
0 0 0 0 0 0 0 0 0 
0 0 0 0 0 0 0 0 0 
0 0 0 0 0 0 0 0 0 
0 0 0 0 0 0 0 0 0 
0 0 0 0 0 0 0 0 0 
0 0 0 0 0 0 0 0 0 
0 0 0 0 0 0 0 0 0 
0 0 0 0 0 0 0 0 0 
0 0 0 0 0 0 0 0 0 
0 0 0 0 0 0 0 0 0 
0 0 0 0 0 0 0 0 0 
0 0 0 0 0 0 0 0 0 
0 0 0 0 0 0 0 0 0 
0 0 0 0 0 0 0 0 0 
0 0 0 0 0 0 0 0 0 
0 0 0 0 0 0 0 0 0 
0 0 0 0 0 0 0 0 0 
0 0 0 0 0 0 0 0 0 
0 0 0 0 0 0 0 0 0 
0 0 0 0 0 0 0 0 0 
0 0 0 0 0 0 0 0 0 
0 0 0 0 0 0 0 0 0 
0 0 0 0 0 0 0 0 0 
0 0 0 0 0 0 0 0 0 
0 0 0 0 0 0 0 0 0 
0 0 0 0 0 0 0 0 0 
0 0 0 0 0 0 0 0 0 
0 0 0 0 0 0 0 0 0 
0 0 0 0 0 0 0 0 0 
0 0 0 0 0 0 0 0 0 
0 0 0 0 0 0 0 0 0 
0 0 0 0 0 0 0 0 0 
0 0 0 0 0 0 0 0 0 
0 0 0 0 0 0 0 0 0 
0 0 0 0 0 0 0 0 0 
0 0 0 0 0 0 0 0 0 
0 0 0 0 0 0 0 0 0 
0 0 0 0 0 0 0 0 0 
0 0 0 0 0 0 0 0 0 
0 0 0 0 0 0 0 0 0 
0 0 0 0 0 0 0 0 0 
0 0 0 0 0 0 0 0 0 
0 0 0 0 0 0 0 0 0 
0 0 0 0 0 0 0 0 0 
0 0 0 0 0 0 0 0 0 
0 0 0 0 0 0 0 0 0 
0 0 0 0 0 0 0 0 0 
0 0 0 0 0 0 0 0 0 
0 0 0 0 0 0 0 0 0 
0 0 0 0 0 0 0 0 0 
0 0 0 0 0 0 0 0 0 
0 0 0 0 0 0 0 0 0 
0 0 0 0 0 0 0 0 0 
0 0 0 0 0 0 0 0 0 
0 0 0 0 0 0 0 0 0 
0 0 0 0 0 0 0 0 0 
0 0 0 0 0 0 0 0 0 
0 0 0 0 0 0 0 0 0 

a 3 567 double
0 0 0 0 0 0 0 0 0 
0 0 0 0 0 0 0 0 0 
0 0 0 0 0 0 0 0 0 
0 0 0 0 0 0 162.864 7.20207 99.6604 
-162.864 -7.20207 -99.6604 0 0 0 0 0 0 
0 0 0 0 0 0 0 0 0 
0 0 0 0 0 0 0 0 0 
0 0 0 0 0 0 0 0 0 
0 0 0 0 0 0 -3.29874 -12.1315 6.79165 
145.968 -8.8237 -94.636 0 0 0 0 0 0 
0 0 0 0 0 0 1.86336 -112.637 -59.5423 
0 0 0 3.29874 12.1315 -6.79165 67.8222 -117.583 -201.304 
0 0 0 0 0 0 5.12211 -46.3908 35.162 
0 0 0 0 0 0 -162.234 35.7 -96.5618 
0 0 0 -65.572 0 0 0 0 0 
0 0 0 -5.12211 46.3908 -35.162 0 0 0 
0 0 0 -29.8618 5.84798 -10.3658 29.8618 -5.84798 10.3658 
0 0 0 0 0 0 277.042 -20.7028 -163.141 
-1.87203 2.7511 -0.21155 1.87203 -2.7511 0.21155 0 0 0 
6.98441 -2.8354 -12.5188 0 0 0 0 0 0 
0 0 0 0 0 0 0 0 0 
0 0 0 -145.907 1.19846 9.64008 145.907 -1.19846 -9.64008 
0 0 0 0 0 0 -17.2493 -2.45495 4.73293 
17.2493 2.45495 -4.73293 0 0 0 0 0 0 
0 0 0 0 0 0 13.0298 -71.9354 1.0539 
-52.3518 42.3744 26.5795 39.322 29.561 -27.6333 0 0 0 
0 0 0 0 0 0 7.8878 -0.289198 -16.9852 
0 0 0 0 0 0 0 0 0 
0 0 0 -10.8945 32.7067 -11.0298 42.2764 8.94466 18.0074 
-42.2764 -36.0111 -18.0074 0 -26.4888 0 6.05096 0 0 
169.667 18.075 -18.3144 -86.7061 12.6933 18.2412 0 0 0 
86.7061 -12.6933 -18.2412 270.581 -55.7185 -59.3458 0 0 0 
0 0 0 0 0 0 202.077 0 0 
0 0 0 0 0 0 0 0 0 
0 0 0 -270.581 55.7185 59.3458 -28.5793 -57.0334 13.1528 
0 0 0 -32.6299 -124.952 -85.0263 -145.968 8.8237 94.636 
0 0 0 0 0 0 0 0 0 
-88.18 71.9319 8.83986 116.759 -14.8985 -21.9927 0 0 0 
0 0 0 0 0 0 0 0 0 
0 0 0 0 0 0 -2.19516 -5.47865 13.5873 
164.43 -30.2214 82.9745 -1.86336 112.637 59.5423 0 0 0 
-8.99677 -20.7284 -11.899 -67.8222 117.583 201.304 -16.5144 32.5933 -49.8699 
0 0 0 0 0 0 0 0 0 
8.42555 -10.3913 9.02473 0 0 0 0 0 0 
0 0 0 8.99677 20.7284 11.899 -11.219 -43.476 -2.88415 
19.1714 -0.094882 131.442 -19.1714 0.094882 -131.442 0 0 0 
-277.042 20.7028 163.141 -8.42555 10.3913 -9.02473 0 0 0 
-6.98441 2.8354 12.5188 0 0 0 0 0 0 
11.219 43.476 2.88415 0 0 0 0 0 0 
0 0 0 0 0 0 -1.06997 -27.2135 -12.8602 
0 0 0 0 0 0 0 0 0 
0.10099 -4.24307 -2.23084 -0.10099 4.24307 2.23084 0 0 0 
-82.0723 25.4273 -17.7154 28.0083 9.76545 33.2162 54.0639 -35.1927 -15.5008 
-17.3692 12.0493 -2.76327 18.4392 15.1642 15.6235 0 0 0 
0 0 0 53.0792 0 0 -45.0111 -19.5438 -37.1802 
0 0 0 0 0 0 45.0111 19.5438 37.1802 
0 0 0 0 0 0 10.8945 -32.7067 11.0298 
0 0 0 -7.8878 0.289198 16.9852 0 0 0 
0 0 0 0 0 0 0 -0.438212 0 
0 0 0 -119.539 -10.5857 21.6908 119.539 10.5857 -21.6908 
0 0 0 0 0 0 0 0 0 
0 0 0 0 0 0 -334.347 61.4963 -386.403 
164.68 -79.5713 404.717 0 0 0 38.6173 -140.252 76.2493 
-35.0192 -192.167 22.9011 -23.6105 -49.2465 -34.009 1.24209 -0.727944 -0.440301 
0 0 0 0 0 0 -35.4164 24.9413 -17.1454 
0 0 0 35.4164 -24.9413 17.1454 2.51603 7.22354 3.23252 
-41.1333 133.028 -79.4818 35.0192 192.167 -22.9011 0 0 0 
14.5793 74.4633 -27.0136 0 0 0 0 0 0 
0 0 0 -11.1578 -25.382 -25.5014 0 0 0 
24.1207 -73.4278 21.5568 -10.7237 71.0333 -33.2307 0 0 0 
0 0 0 0 0 0 -5.29781 -1.03981 -10.3313 
0 0 0 0 0 0 0 0 0 
32.6299 124.952 85.0263 0 0 0 0 0 0 
-58.6223 -64.3665 -42.885 58.6223 64.3665 42.885 0 0 0 
0 0 0 0 0 0 44.1245 347.157 6.33888 
-44.1245 -347.157 -6.33888 0 0 0 -22.8193 -36.4052 -5.6174 
0 0 0 0 0 0 0 0 0 
0 0 0 23.2406 -47.3579 -22.6945 -210.416 -55.8443 -68.457 
226.931 23.251 118.327 0 0 0 -5.29 -1.26805 -4.92009 
-43.9562 -83.7036 1.28676 0 0 0 22.8193 36.4052 5.6174 
-12.4313 -19.0398 -9.99153 0 0 0 0 0 0 
-29.0242 27.5054 2.74322 29.0242 -27.5054 -2.74322 0 0 0 
0 0 0 0 0 0 0 0 0 
43.9562 83.7036 -1.28676 12.4313 19.0398 9.99153 0 0 0 
0 0 0 0 0 0 0 0 0 
0 0 0 0 0 0 0 0 0 
-65.4041 19.0673 13.7804 0 0 0 65.4041 -19.0673 -13.7804 
0 0 0 0 0 0 0 0 0 
0 0 0 0 0 0 0 0 0 
0 0 0 0 0 0 0 0 0 
0 0 0 0 0 0 -64.0529 -79.5241 -29.5529 
0 0 0 0 0 0 0 0 0 
0 0 0 0 0 0 0 0 0 
0 0 0 0 0 0 0 0 0 
0 0 0 64.0529 79.5241 29.5529 -29.6796 5.05418 10.0567 
29.6796 -5.05418 -10.0567 -107.773 -42.6009 -128.669 -93.4627 142.821 48.737 
0 0 0 0 149.013 0 133.462 -286.08 88.673 
0 0 0 0 0 0 0 0 0 
0 0 0 -26.7424 112.655 6.38568 12.1631 -60.8789 20.6279 
-133.462 286.08 -88.673 -14.69 -5.09062 -7.65553 12.2617 6.53548 8.57951 
2.42838 -1.44486 -0.923982 0 0 0 0 0 0 
0 0 0 0 0 0 0 0 0 
22.3684 49.9744 34.4493 0 0 0 0 0 0 
0 0 0 0 0 0 -13.397 2.39451 11.6739 
0 0 0 0 0 0 -14.0869 -26.6171 2.64702 
19.3847 27.6569 7.68426 0 0 0 0 0 0 
0 0 0 0 0 0 0 0 0 
11.1578 25.382 25.5014 0 0 0 0.987244 1.21629 1.83243 
18.5992 -9.51688 -6.57016 0 0 0 -230.446 -200.624 28.6454 
0 0 0 0 0 0 0 0 0 
0 0 0 0 0 0 0 0 0 
0 0 0 15.0119 84.616 -104.047 5.29 1.26805 4.92009 
241.345 200.748 -30.2915 0 0 0 0 0 0 
0 0 0 -23.2406 47.3579 22.6945 -4.26698 -76.2287 23.457 
75.2158 -5.04961 26.9541 -75.2158 5.04961 -26.9541 0 0 0 
0 0 0 109.731 -2.18057 -43.2148 0 0 0 
0 0 0 0 0 0 0 0 0 
0 0 0 4.26698 76.2287 -23.457 23.287 -34.3503 -134.079 
-58.8206 -20.6945 15.4393 58.8206 20.6945 -15.4393 -107.998 6.08683 33.8573 
0 0 0 0 0 0 0 0 0 
0 0 0 0 0 0 0 0 0 
0 0 0 0 0 0 0 0 0 
0 0 0 0 0 0 -30.4429 -26.4936 6.80288 
30.4429 26.4936 -6.80288 0 0 0 -2.29494 -18.3449 30.4871 
0 0 0 -111.27 19.3395 -162.21 0 0 0 
-59.3885 -73.2228 -32.6961 0 0 0 24.3387 6.59074 -38.0888 
-1.32061 42.4674 -84.6298 46.4178 -44.3179 48.261 2.29494 18.3449 -30.4871 
0 0 0 14.4022 0 0 0 0 0 
0 0 0 59.3885 73.2228 32.6961 0 0 0 
0 0 0 -41.6808 -21.0536 -101.444 0 0 0 
0 0 0 201.236 -292.42 79.9324 0 0 0 
0 0 0 0 0 0 0 0 0 
0 0 0 0 0 0 72.3392 -57.707 -69.1868 
0 0 0 0 0 0 -154.965 -35.9704 -28.0034 
231.667 -137.337 -43.0171 0 0 0 -450.829 144.006 -43.3028 
-86.7117 -168.205 257.336 3.09137 221.227 -187.294 17.3824 -6.08173 -22.2933 
0 0 0 0 0 0 -76.7019 173.307 71.0205 
0 0 0 -6.10125 10.7674 21.4382 0 0 0 
-38.0631 -57.9899 0.340262 0 0 0 0 0 0 
-34.5983 -76.3154 108.784 -10.899 -0.123978 1.64614 18.5042 -1.151 -25.1117 
-6.28509 1.48016 -2.50272 0 0 0 0 0 0 
0 0 0 0 0 0 0 0 0 
0 0 0 168.545 22.8463 -6.23484 38.0631 57.9899 -0.340262 
0 0 0 0 0 0 0 0 0 
0 0 0 0 0 0 0 0 0 
0 0 0 -1.73243 -3.90626 9.35754 0 0 0 
0 0 0 0 0 0 -23.287 34.3503 134.079 
0 0 0 0 0 0 59.713 -26.3957 9.42129 
-59.713 26.3957 -9.42129 0 0 0 0 0 0 
0 0 0 0 0 0 0 0 0 
0 0 0 -60.5952 -343.358 -151.775 0 0 0 
-320.491 0 0 0 0 0 0 0 0 
0 0 0 111.27 -19.3395 162.21 0 0 0 
-24.3387 -6.59074 38.0888 53.1801 -40.0164 -51.2279 101.285 169.851 -64.9185 
0 0 0 0 0 0 0 0 0 
0 0 0 0 0 0 -17.2962 118.486 -159.543 
-0.0790804 34.9562 126.578 0 0 0 0 0 0 
0 0 0 0 0 0 0 0 0 
0 0 0 0 0 0 0 0 0 
0 0 0 0 0 0 0 0 0 
0 0 0 -51.8339 -134.499 14.8937 502.663 -9.50706 28.4091 
-43.1456 12.7124 46.8304 43.1456 -12.7124 -46.8304 0 0 0 
0 0 0 0 0 0 0 0 0 
0 0 0 0 0 0 -14.3816 -38.7843 21.5516 
0 0 0 221.537 -162.049 10.3678 -168.545 -22.8463 6.23484 
0 0 0 0 0 0 -18.5042 1.151 25.1117 
20.6667 37.3041 -19.0489 0 0 0 1.80277 -19.264 -8.82301 
-1.80277 19.264 8.82301 0 0 0 -221.537 162.049 -10.3678 
-319.791 -70.642 220.76 319.791 70.642 -220.76 0 0 0 
0 0 0 0 0 0 0 0 0 
0 0 0 0 0 0 0 0 0 
0 0 0 92.4677 -225.941 68.7804 0 0 0 
0 0 0 -92.4677 225.941 -68.7804 0 0 0 
0 0 0 31.4954 -111.773 -95.7242 -44.0274 161.455 227.928 
0 0 0 -20.3958 32.3145 -56.8309 0 0 0 
0 0 0 -35.8839 -78.4697 210.771 0 0 0 
-44.2035 67.8389 -137.058 0 0 0 -184.098 0 0 
0 0 0 0 0 0 0 0 0 
0 0 0 0 0 0 0 0 0 
0 0 0 0 0 0 0 0 0 
0 0 0 0 0 0 0 0 0 
0 0 0 -464.723 -33.1359 78.5532 23.6121 -29.9497 55.7919 
0 0 0 -31.4954 111.773 95.7242 464.723 33.1359 -78.5532 
-3.21633 -2.36483 1.03899 44.2035 -67.8389 137.058 0 0 0 
0 0 0 0 0 0 0 0 0 
0 0 0 0 0 0 0 0 0 
0 0 0 0 0 0 0 0 0 
0 0 0 0 0 0 0 0 0 
0 0 0 0 0 0 0 0 -1152.7 

v 3 567 double
-0.0223522 -0.0999055 0.0777473 -0.156397 0.137243 0.245229 0.22698 0.075471 0.161699 
-0.150089 0.111359 -0.0112565 0.0308284 -0.0626896 0.202885 0.0631491 0.0805136 0.198568 
-0.111014 -0.0945133 0.232575 -0.360583 -0.120228 0.205127 0.158309 -0.0394547 0.0645656 
0.219832 0.0103649 0.243261 -0.155305 0.0846102 0.612931 -0.14059 0.18467 0.101706 
0.309187 -0.0310956 0.526514 0.107194 0.278515 0.376316 0.0303424 -0.193811 0.547395 
-0.399368 0.343817 0.732001 0.0252055 0.127258 0.389594 0.0231045 0.0248061 0.411144 
-0.157973 0.165535 0.578423 -0.405219 -0.258057 0.659958 0.213513 0.0663094 0.416852 
0.00679294 0.191144 0.449226 -0.31752 0.0942864 0.674299 -0.148623 -0.0536319 0.401297 
0.137323 -0.129206 0.381926 -0.348411 0.0372517 0.492001 0.0555496 -0.177446 0.332875 
-0.0255093 0.15722 0.610422 -0.0146069 0.376098 0.556974 -0.0633869 0.211315 0.357624 
-0.435006 0.121729 0.569234 -0.0977849 0.208629 0.319762 -0.0372508 -0.040158 0.705488 
0.0306667 0.288616 0.589679 -0.211483 -0.215986 0.563707 -0.0455515 0.221692 0.441839 
0.0539876 0.158116 0.499371 -0.131655 -0.0292983 0.241794 -0.10698 0.377824 0.383387 
-0.34601 0.124267 0.318178 0.146498 0.354956 0.526534 -0.0783591 -0.0953097 0.409401 
-0.158354 -0.149392 0.508909 0.0512019 0.378384 0.409189 0.0334959 -0.0998224 0.576354 
-0.175902 0.0519574 0.611713 -0.237609 -0.0876807 0.369649 0.134512 -0.0978483 0.578864 
-0.342016 -0.029504 0.422556 0.0265019 -0.445259 0.398364 0.0367147 -0.237454 0.506759 
0.0175253 -0.0844326 0.51103 0.137537 -0.20081 0.457864 -0.0230761 0.0657776 0.391667 
-0.0630489 -0.0750092 0.399552 -0.188259 0.0899644 0.364896 -0.324828 0.0857681 0.364782 
-0.147824 0.019499 0.299817 0.179379 -0.0281226 0.4632 0.17242 -0.0608436 0.385395 
0.0877731 -0.145215 0.523628 0.154652 0.131896 0.399042 -0.0819479 0.306024 0.467866 
0.057512 -0.149842 0.543449 0.103352 -0.224238 0.36774 0.108915 -0.264084 0.429679 
-0.0379152 -0.0818442 0.572072 -0.0397359 -0.0641399 0.717503 0.371814 0.176863 0.537289 
-0.103352 -0.0219811 0.435909 0.226462 0.00944158 0.228872 -0.340052 -0.0229921 0.458392 
0.119808 -0.133735 0.485782 -0.026509 -0.124487 0.485666 -0.16011 0.00451059 0.352354 
0.221707 0.0968267 0.59367 -0.228688 0.00181344 0.348424 0.0783301 0.0292852 0.468226 
-0.0101915 0.0323635 0.380933 -0.328824 -0.25066 0.531027 -0.0394463 0.140835 0.54698 
0.00526648 0.0720187 0.448463 0.128026 0.108445 0.516296 -0.0171942 0.283551 0.570075 
-0.0333456 0.071617 0.665147 0.58106 -0.171236 0.369115 0.0338771 -0.00442292 0.466184 
0.00409448 -0.365036 0.321134 -0.0649839 -0.0913863 0.608775 0.0750692 0.257537 0.70781 
-0.126184 0.200556 0.221775 0.221554 -0.0983933 0.475835 -0.159813 0.0336533 0.695947 
0.194665 0.162772 0.598377 0.0443104 0.0852152 0.535988 -0.0215972 -0.0147142 0.783901 
-0.176 -0.0418094 0.440761 0.0820488 0.0025074 0.582831 0.0529419 -0.230774 0.606964 
-0.0778863 -0.0599481 0.556828 0.0683627 0.0614565 0.824386 0.307309 0.388727 0.817413 
-0.214679 0.0457311 0.601352 0.0861827 0.13312 0.630129 -0.0976259 0.144021 0.453719 
0.261817 0.136904 0.628856 0.168886 -0.13118 0.550766 -0.338683 0.270148 0.737032 
-0.147525 -0.0170886 0.547201 -0.137659 -0.082739 0.560751 -0.149662 0.108111 0.844162 
0.15587 -0.203811 0.720107 -0.00463074 -0.0101518 0.538509 -0.147342 0.222313 0.696538 
0.0979158 0.13521 0.793165 -0.260203 0.0207328 0.503005 -0.0833124 -0.188656 0.536946 
0.162301 0.210669 0.452499 -0.346731 0.143794 0.691339 0.11161 0.269521 0.795939 
0.0648836 0.00296137 0.394565 0.102401 -0.285824 0.627072 0.209821 0.0679652 0.657414 
-0.0880734 -0.0531638 0.642893 -0.0690882 -0.171141 0.703389 -0.0604011 0.0459114 0.700619 
-0.066852 0.0528582 0.652457 -0.133989 -0.107515 0.74251 -0.0654876 -0.124747 0.793995 
0.125241 0.170436 0.39281 0.102851 -0.254239 0.476127 -0.0614321 -0.267437 0.389551 
-0.1566 -0.310438 0.692095 -0.117504 0.526209 0.763279 -0.0641826 0.0287137 0.799584 
0.185225 0.0490417 0.680779 0.00803548 -0.0243723 0.654606 0.116959 0.00882394 0.397337 
-0.0710178 0.036553 0.652195 0.151117 -0.0732723 0.483349 -0.250553 -0.0760655 0.44828 
0.00538951 0.0975889 0.495007 0.0691383 0.280381 0.940352 -0.140033 0.35027 0.890309 
0.196743 0.203909 0.815 -0.0874532 -0.166498 0.579432 0.235763 0.0234173 0.599812 
0.306674 0.0150531 0.616983 0.237572 -0.145808 0.736216 0.112397 -0.0314009 0.605257 
0.189812 0.077683 0.656631 0.201945 -0.0858939 0.724744 0.366215 -0.0436746 0.889518 
-0.191467 0.0429935 0.557644 0.0551409 0.00867052 0.674798 -0.211101 -0.0454151 0.549042 
0.322738 0.229169 0.71508 0.226194 0.241592 0.826327 0.0812592 -0.164667 0.574529 
0.0319867 -0.0842721 0.469375 0.0793628 -0.222787 0.82159 0.259534 -0.0154718 0.567074 
0.0624996 0.029065 0.649125 0.128949 -0.0623321 0.811327 -0.167713 0.0597598 0.467878 
-0.111816 0.0750528 0.678064 0.0878113 -0.0920926 0.587247 0.0163229 0.0602473 0.950479 
-0.0279817 0.0458479 0.59884 0.144327 0.16387 0.916862 -0.00636922 -0.181479 0.575259 
0.146958 -0.0737829 0.878985 0.313327 -0.130465 0.557791 -0.0143173 0.137072 0.946677 
-0.0499792 0.118639 0.703009 0.197968 -0.0570992 0.726038 0.107321 -0.190604 0.711566 
0.085031 -0.110139 0.660742 0.185022 0.0474187 0.652982 0.0696152 0.101534 0.641633 
0.37359 0.227304 0.438538 -0.131068 -0.0656816 0.616567 0.247778 -0.0843796 0.734757 
0.0601169 -0.133765 0.609797 -0.17221 -0.062201 0.795423 -0.10124 0.0199513 0.683613 
-0.0248089 -0.0292722 0.743493 -0.130783 0.0250105 0.48783 -0.265942 -0.0403528 0.538073 
-0.0236877 0.127059 0.763379 0.0784946 -0.03997 0.893599 0.108179 0.154165 0.46683 
0.151778 0.0473615 0.736949 0.0223456 -0.137535 0.534755 0.286825 -0.0688721 0.77135 
0.493096 0.0666683 0.537112 -0.0383503 -0.0551926 0.634271 0.0334987 -0.114565 0.435715 
0.312581 0.218611 0.771865 0.0658637 -0.0316638 0.783831 -0.0915581 0.301646 1.11899 
-0.0415667 0.312416 0.663969 0.0364393 -0.0874283 0.822223 0.0512398 0.18185 0.570951 
0.129306 0.195989 0.689556 0.0458704 -0.0442234 1.03005 -0.231827 0.159197 0.944612 
0.00276084 0.0969035 0.922803 0.349311 0.0497285 0.973618 -0.0537958 0.253398 0.992539 
-0.334575 -0.0440936 0.688367 0.212608 0.362589 0.549964 -0.0517409 -0.204039 0.602936 
-0.171669 0.0566655 0.56206 -0.228213 -0.0456902 0.60754 0.188725 0.155178 0.896818 
-0.0884769 -0.119427 1.02757 0.0891747 -0.118555 0.528828 0.173961 -0.00928648 0.851317 
-0.0647677 -0.13219 0.624616 -0.152284 0.108713 0.86754 -0.331253 0.00204257 1.11162 
-0.130456 0.02446 1.03119 -0.182868 -0.0768774 0.768054 0.0779335 -0.0541381 0.838381 
0.386775 -0.125801 0.636854 -0.18218 0.0686919 0.949865 0.0470045 0.173091 0.966901 
0.067821 -0.430475 0.410684 0.278569 -0.286628 0.903738 -0.168607 -0.0863828 0.923523 
-0.102312 0.147985 0.939977 -0.103299 -0.236611 0.888147 0.100972 -0.0805701 0.756803 
0.0908682 0.119712 0.722516 -0.280406 0.39925 0.798034 -0.0118909 -0.182631 0.923626 
0.108262 -0.301903 0.625165 0.204849 -0.341729 0.672753 -0.0893553 -0.135195 0.760164 
0.0348919 -0.166241 0.717219 0.273226 -0.133855 0.751272 -0.0799397 0.00813302 0.865778 
0.16489 -0.0459449 0.667648 0.128087 -0.0263242 0.924422 0.23876 -0.0379082 0.540934 
0.340264 0.267221 0.646317 -0.0608987 -0.243461 0.924547 0.177724 0.018593 0.925737 
0.136848 -0.0792719 0.89538 0.176507 -0.219121 0.489906 -0.154595 -0.202622 0.769196 
0.170548 -0.200519 0.938143 0.26767 -0.0410583 0.764352 -0.146474 -0.0879098 0.930763 
0.0186002 -0.281509 0.740924 -0.100842 0.430871 0.899893 0.165473 -0.111657 0.888234 
-0.122669 -0.152654 0.775865 -0.390089 -0.0326431 0.750206 0.0387288 0.371323 0.537176 
0.117443 -0.0692257 0.822045 -0.0956804 -0.0890439 0.717754 0.160567 0.0580279 0.986977 
0.0720484 0.0123505 0.804115 -0.0757885 0.109423 0.813599 0.190722 0.0511715 0.823956 
0.107516 -0.198739 0.895794 0.104062 -0.389519 0.825853 0.160269 -0.230987 0.798382 
-0.0827529 -0.222565 0.805466 0.242567 -0.168557 0.976923 0.144482 0.0711641 0.788544 
0.136583 -0.0910864 0.94288 0.0246394 0.0234881 0.65702 0.508503 0.0515156 0.88188 
-0.16546 -0.0929821 0.646241 0.29655 -0.0659713 0.505089 -0.404512 -0.0621235 0.627018 
-0.174868 -0.424981 0.915015 -0.316639 -0.120179 1.05003 0.0659174 0.180702 0.904425 
0.0732316 -0.0953703 1.05203 0.0496079 -0.0582461 0.75643 0.13401 -0.174217 0.788881 
0.23547 0.16606 0.77631 -0.0214476 0.0817434 0.79348 -0.106047 0.016964 0.9971 
-0.0775264 0.167478 0.611086 0.00769568 0.291833 0.98329 0.112334 -0.121615 0.99532 
0.274487 0.189532 0.543254 -0.0249853 -0.337877 0.937916 -0.0969645 0.102081 0.819791 
-0.115406 0.365329 0.868039 0.0119283 0.469748 0.940077 -0.159049 -0.0120929 0.925464 
-0.257547 -0.0569919 0.855486 -0.0401157 0.273582 0.715257 -0.253501 -0.174122 0.903549 
0.171932 -0.0464609 0.650021 0.191388 -0.00981254 1.03537 0.023406 -0.210408 0.856259 
-0.125385 0.18021 1.0915 -0.32226 0.394561 0.521219 -0.0477114 0.0740066 0.97384 
0.142881 -0.0393361 1.17912 -0.0240511 0.193999 1.18628 -0.340111 0.0441341 1.13748 
0.0822565 -0.367649 0.787173 0.167866 0.0725462 1.15587 0.0700176 0.133078 1.03729 
-0.2381 0.00443916 1.04056 -0.021335 -0.0936088 0.980612 -0.123456 -0.13917 0.795846 
0.163366 0.0219968 0.801686 -0.28614 0.027087 0.933977 -0.106627 0.0282202 0.717422 
0.282906 -0.191036 1.15641 -0.349549 -0.0248469 0.906554 0.025708 -0.185559 0.671729 
-0.21374 -0.258324 0.884333 -0.185324 -0.0255868 0.643491 -0.0819907 -0.0765861 1.16729 
-0.458728 -0.151389 0.902606 0.202547 -0.101928 0.97062 0.0634978 -0.136994 0.737885 
0.0480753 0.0980269 1.03875 -0.0943214 0.275042 0.975995 0.0308541 0.0621704 0.852836 
0.0767744 -0.295744 0.811027 0.380121 -0.00981811 0.840172 0.0515209 0.21369 0.793208 
0.343147 -0.100292 0.897133 0.13618 -0.149241 0.695748 0.150503 0.100785 0.845646 
-0.182453 0.256402 0.790131 0.11346 0.44865 0.87125 -0.0384362 -0.135394 1.00464 
0.254401 -0.198455 0.975312 0.118357 -0.0850668 1.03047 0.14399 0.0871702 0.962607 
0.238154 -0.182855 0.768692 0.148081 -0.111956 0.802313 0.026324 0.154697 0.982251 
0.0735334 0.0663614 1.05418 0.0629936 -0.204952 0.971544 0.0203427 0.151149 0.970257 
-0.105548 -0.181383 0.927946 -0.344143 -0.069562 0.846076 0.100699 0.00430035 0.998153 
-0.121219 0.0349253 0.759667 0.0299338 -0.413673 0.685821 0.227501 0.176313 0.641404 
0.320634 -0.276035 0.844629 -0.23573 -0.283347 1.04631 0.0172486 -0.0287949 0.885905 
0.22066 0.321254 0.702394 -0.272458 0.361676 0.934943 -0.0419407 0.0940358 0.791119 
-0.154241 -0.0581517 0.770472 0.284465 -0.356419 0.90333 -0.174524 0.129319 0.598182 
-0.0671491 -0.0411781 0.609804 0.0252271 0.00691099 0.946502 0.284063 -0.111572 0.659887 
0.168293 -0.0155555 1.13767 -0.175636 -0.211161 0.920041 -0.158719 -0.168014 0.780592 
0.0589768 -0.0892075 0.563591 0.136994 -0.108573 0.444827 -0.124138 0.100063 0.901275 
0.284825 -0.157633 0.459586 -0.171763 0.140601 0.832903 0.206187 0.0759241 0.761221 
0.250039 -0.0224346 1.07326 -0.0275847 -0.0875269 0.960201 -0.0918648 -0.425227 0.80096 
-0.160036 -0.210935 0.938237 0.268128 -0.0189622 0.970644 -0.440967 0.158666 0.906775 
-0.278073 0.212805 0.655921 0.177074 0.141868 0.992594 0.050307 -0.227166 0.947568 
-0.0371461 -0.0283617 0.972768 0.0831019 -0.00485778 0.84595 -0.168744 -0.179545 0.838003 
0.321397 -0.069472 1.27676 0.156688 -0.195549 0.782651 -0.400327 -0.196836 1.0612 
-0.660737 0.0523482 1.10968 -0.0849888 0.193157 1.21273 -0.341836 -0.200914 1.01176 
-0.0505876 -0.312817 0.938299 -0.478916 -0.139499 0.962882 -0.42709 -0.157557 0.840518 
-0.107102 0.319522 1.21229 -0.00292995 -0.0633493 0.936899 -0.391386 -0.181154 0.984125 
0.111629 -0.0822089 1.06861 0.152509 -0.0740422 1.05495 0.342583 0.252689 0.864635 
0.180731 -0.137517 1.40799 0.210602 0.0842828 0.755792 -0.219023 -0.0190137 1.23429 
-0.250765 -0.0618491 1.16208 -0.21223 0.0904617 0.966785 0.110856 0.167173 0.760358 
-0.00562184 -0.180079 1.1521 -0.251722 -0.403054 1.16219 -0.0268747 -0.185587 1.3323 
-0.24814 -0.0900394 0.939982 0.451831 -0.137646 0.744563 -0.293888 -0.453357 1.06151 
0.254249 0.160652 0.83101 0.188889 -0.100647 1.19941 -0.199561 0.14032 0.884136 
-0.0879326 0.124597 1.28479 -0.060075 -0.170515 1.02907 -0.129376 0.537294 0.840426 
0.128828 0.0946385 0.86921 -0.0953252 -0.281851 1.12039 0.1692 -0.305345 1.09852 
-0.0503268 0.151278 1.03823 -0.247963 0.00696197 1.2362 0.340337 -0.0398313 1.08635 
-0.0610027 0.0497889 0.606685 -0.0338566 0.750523 0.626653 0.149859 -0.125547 1.13037 
0.136787 0.55734 1.19499 0.047595 -0.0935316 1.06104 -0.20317 -0.400588 1.07743 
-0.0566875 -0.258942 1.0285 0.511727 0.0774905 0.860538 -0.0444234 -0.11847 1.35179 
-0.493046 0.18273 1.41105 -0.110657 -0.441051 0.924817 -0.2363 -0.124335 0.952172 
0.238786 0.204398 1.51553 0.279126 -0.213453 1.08074 0.39172 -0.187108 0.884404 
0.0409915 -0.0847994 1.06969 0.193034 -0.22275 1.04381 0.209066 -0.327912 1.00469 
-0.389694 0.0992545 1.10586 0.0985119 -0.0973362 1.49042 0.157503 -0.256541 0.956962 
-0.0258796 -0.137917 0.73312 -0.105796 0.0508602 1.14302 0.213639 0.0252419 1.10394 
0.242368 0.280579 1.07892 0.369783 0.0786958 0.714909 0.000669694 -0.203528 0.832925 
0.0957473 0.284269 1.27567 0.231376 -0.0114058 1.17838 -0.352454 -0.393519 1.0376 
0.205201 -0.0439966 1.04337 -0.0414525 -0.18671 1.13081 0.318647 0.0147012 1.28454 
0.316427 0.0781462 1.01682 0.267185 0.304735 1.13282 0.083611 0.229126 1.02605 
0.03838 0.141534 0.963114 -0.545482 0.274513 1.43777 -0.0505807 -0.134538 1.11205 
0.0378984 -0.208644 0.683181 0.12976 0.175354 0.847169 0.06349 0.153462 1.33983 
0.244962 -0.19074 0.37004 0.118442 0.422287 1.03183 -0.216466 0.353 1.15508 
-0.0244601 -0.0963761 1.01282 0.0638626 -0.232678 1.58673 -0.0176471 0.410556 0.805892 
0.0778627 -0.319383 0.389713 -0.0968756 0.00922665 1.08796 0.0843491 0.396053 1.1181 
0.206617 0.455332 0.83586 0.417902 -0.138439 1.26111 0.0377242 0.399618 1.422 
-0.283505 0.153365 0.567253 -0.420046 0.354589 1.07635 0.248276 0.401135 1.27245 
-0.0329569 0.193755 1.66894 0.00344216 -0.0497884 1.20682 -0.278331 0.185674 1.25173 
-0.315984 0.252065 1.45929 0.317813 0.2617 1.27853 0.359115 -0.681021 1.2753 
0.164221 0.422055 1.23228 -0.651679 -0.102296 0.906208 -0.0284134 -0.124159 1.57149 
0.465245 -0.120437 1.10929 0.485274 0.0268485 0.757344 0.177569 -0.577273 1.08168 
-0.210947 0.255161 0.659357 0.348369 0.197571 0.624935 0.385026 0.208347 0.911743 
-0.25133 0.0413297 1.04393 0.0864378 0.067496 1.02462 0.187336 -0.284639 1.17452 
0.265432 0.430843 0.82285 0.0265213 0.31579 1.53643 0.174906 -0.214508 1.26937 
0.139204 -0.219518 1.10574 0.134618 -0.63025 0.808838 0.411074 0.148522 0.252858 
0.511754 -0.19055 1.4503 0.049975 -0.109357 1.52164 0.10111 -0.762563 0.647282 
0.360813 -0.4324 1.4178 0.260466 -0.24878 0.960868 -0.230078 0.0439293 0.213917 
-0.260787 -0.318086 1.31493 -0.111697 -0.475348 0.83243 -0.315767 0.318682 1.32824 
-0.0911344 0.0550427 1.43171 0.441251 -0.308051 0.721221 0.153737 0.485329 1.12622 
0.406441 0.00965311 1.57368 -0.0377781 -0.324276 1.03807 0.202688 0.355417 0.52238 
-0.131811 -0.107485 1.30723 -0.0720353 -0.533904 1.03995 -0.275216 -0.213945 1.42638 
-0.384612 -0.0859243 1.19999 -0.294242 -0.199633 0.596344 0.139534 -0.323651 1.50848 
-0.506213 -0.316233 1.25736 0.0362026 0.0280483 1.36925 0.0476416 -0.0254916 1.61419 
0.457909 -0.186096 1.47571 0.146283 -0.337813 1.15956 -0.024587 -0.199097 0.482578 
0.188323 -0.0475761 1.28068 -0.375464 0.24417 1.62304 -0.183351 -0.162916 1.48552 
-0.0759225 0.0722002 0.557901 0.480495 0.514638 1.27506 0.389435 0.215401 1.75031 
-0.058815 0.254577 0.43029 0.234671 -0.159919 1.42617 0.0242309 -0.131991 1.60671 
0.231651 -0.0777346 1.33957 -0.455191 -0.219893 0.535447 -0.298256 -0.300711 0.95108 
-0.454736 -0.278527 1.07992 0.154373 0.104357 0.820329 -0.450293 0.305843 1.27605 
0.394079 -0.00941627 1.26238 -0.321789 -0.218488 1.414 0.154766 0.127379 1.41634 
-0.462876 0.179086 1.95855 -0.0225354 0.111433 0.571422 -0.184266 -0.0188686 0.692321 
-0.246682 -0.337988 0.587278 0.432064 0.446889 0.538092 -0.241161 0.223386 1.81239 
-0.636409 0.341774 0.688597 0.0445786 -0.301566 1.74849 -0.15213 -0.201072 0.711016 
-0.0923861 -0.552892 0.790751 0.0266722 0.416504 -0.748984 -0.0614713 -0.409483 0.593355 
-0.0839046 -0.0682461 -0.718274 0.174681 -0.391977 2.08594 0.228615 -0.0704991 -0.192669 

om 3 567 double
0 0 0 0 0 0 0 0 0 
0 0 0 0 0 0 0 0 0 
0 0 0 0 0 0 0 0 0 
0 0 0 0 0 0 0 0 0 
0 0 0 0 0 0 0 0 0 
0 0 0 0 0 0 0 0 0 
0 0 0 0 0 0 0 0 0 
0 0 0 0 0 0 0 0 0 
0 0 0 0 0 0 0 0 0 
0 0 0 0 0 0 0 0 0 
0 0 0 0 0 0 0 0 0 
0 0 0 0 0 0 0 0 0 
0 0 0 0 0 0 0 0 0 
0 0 0 0 0 0 0 0 0 
0 0 0 0 0 0 0 0 0 
0 0 0 0 0 0 0 0 0 
0 0 0 0 0 0 0 0 0 
0 0 0 0 0 0 0 0 0 
0 0 0 0 0 0 0 0 0 
0 0 0 0 0 0 0 0 0 
0 0 0 0 0 0 0 0 0 
0 0 0 0 0 0 0 0 0 
0 0 0 0 0 0 0 0 0 
0 0 0 0 0 0 0 0 0 
0 0 0 0 0 0 0 0 0 
0 0 0 0 0 0 0 0 0 
0 0 0 0 0 0 0 0 0 
0 0 0 0 0 0 0 0 0 
0 0 0 0 0 0 0 0 0 
0 0 0 0 0 0 0 0 0 
0 0 0 0 0 0 0 0 0 
0 0 0 0 0 0 0 0 0 
0 0 0 0 0 0 0 0 0 
0 0 0 0 0 0 0 0 0 
0 0 0 0 0 0 0 0 0 
0 0 0 0 0 0 0 0 0 
0 0 0 0 0 0 0 0 0 
0 0 0 0 0 0 0 0 0 
0 0 0 0 0 0 0 0 0 
0 0 0 0 0 0 0 0 0 
0 0 0 0 0 0 0 0 0 
0 0 0 0 0 0 0 0 0 
0 0 0 0 0 0 0 0 0 
0 0 0 0 0 0 0 0 0 
0 0 0 0 0 0 0 0 0 
0 0 0 0 0 0 0 0 0 
0 0 0 0 0 0 0 0 0 
0 0 0 0 0 0 0 0 0 
0 0 0 0 0 0 0 0 0 
0 0 0 0 0 0 0 0 0 
0 0 0 0 0 0 0 0 0 
0 0 0 0 0 0 0 0 0 
0 0 0 0 0 0 0 0 0 
0 0 0 0 0 0 0 0 0 
0 0 0 0 0 0 0 0 0 
0 0 0 0 0 0 0 0 0 
0 0 0 0 0 0 0 0 0 
0 0 0 0 0 0 0 0 0 
0 0 0 0 0 0 0 0 0 
0 0 0 0 0 0 0 0 0 
0 0 0 0 0 0 0 0 0 
0 0 0 0 0 0 0 0 0 
0 0 0 0 0 0 0 0 0 
0 0 0 0 0 0 0 0 0 
0 0 0 0 0 0 0 0 0 
0 0 0 0 0 0 0 0 0 
0 0 0 0 0 0 0 0 0 
0 0 0 0 0 0 0 0 0 
0 0 0 0 0 0 0 0 0 
0 0 0 0 0 0 0 0 0 
0 0 0 0 0 0 0 0 0 
0 0 0 0 0 0 0 0 0 
0 0 0 0 0 0 0 0 0 
0 0 0 0 0 0 0 0 0 
0 0 0 0 0 0 0 0 0 
0 0 0 0 0 0 0 0 0 
0 0 0 0 0 0 0 0 0 
0 0 0 0 0 0 0 0 0 
0 0 0 0 0 0 0 0 0 
0 0 0 0 0 0 0 0 0 
0 0 0 0 0 0 0 0 0 
0 0 0 0 0 0 0 0 0 
0 0 0 0 0 0 0 0 0 
0 0 0 0 0 0 0 0 0 
0 0 0 0 0 0 0 0 0 
0 0 0 0 0 0 0 0 0 
0 0 0 0 0 0 0 0 0 
0 0 0 0 0 0 0 0 0 
0 0 0 0 0 0 0 0 0 
0 0 0 0 0 0 0 0 0 
0 0 0 0 0 0 0 0 0 
0 0 0 0 0 0 0 0 0 
0 0 0 0 0 0 0 0 0 
0 0 0 0 0 0 0 0 0 
0 0 0 0 0 0 0 0 0 
0 0 0 0 0 0 0 0 0 
0 0 0 0 0 0 0 0 0 
0 0 0 0 0 0 0 0 0 
0 0 0 0 0 0 0 0 0 
0 0 0 0 0 0 0 0 0 
0 0 0 0 0 0 0 0 0 
0 0 0 0 0 0 0 0 0 
0 0 0 0 0 0 0 0 0 
0 0 0 0 0 0 0 0 0 
0 0 0 0 0 0 0 0 0 
0 0 0 0 0 0 0 0 0 
0 0 0 0 0 0 0 0 0 
0 0 0 0 0 0 0 0 0 
0 0 0 0 0 0 0 0 0 
0 0 0 0 0 0 0 0 0 
0 0 0 0 0 0 0 0 0 
0 0 0 0 0 0 0 0 0 
0 0 0 0 0 0 0 0 0 
0 0 0 0 0 0 0 0 0 
0 0 0 0 0 0 0 0 0 
0 0 0 0 0 0 0 0 0 
0 0 0 0 0 0 0 0 0 
0 0 0 0 0 0 0 0 0 
0 0 0 0 0 0 0 0 0 
0 0 0 0 0 0 0 0 0 
0 0 0 0 0 0 0 0 0 
0 0 0 0 0 0 0 0 0 
0 0 0 0 0 0 0 0 0 
0 0 0 0 0 0 0 0 0 
0 0 0 0 0 0 0 0 0 
0 0 0 0 0 0 0 0 0 
0 0 0 0 0 0 0 0 0 
0 0 0 0 0 0 0 0 0 
0 0 0 0 0 0 0 0 0 
0 0 0 0 0 0 0 0 0 
0 0 0 0 0 0 0 0 0 
0 0 0 0 0 0 0 0 0 
0 0 0 0 0 0 0 0 0 
0 0 0 0 0 0 0 0 0 
0 0 0 0 0 0 0 0 0 
0 0 0 0 0 0 0 0 0 
0 0 0 0 0 0 0 0 0 
0 0 0 0 0 0 0 0 0 
0 0 0 0 0 0 0 0 0 
0 0 0 0 0 0 0 0 0 
0 0 0 0 0 0 0 0 0 
0 0 0 0 0 0 0 0 0 
0 0 0 0 0 0 0 0 0 
0 0 0 0 0 0 0 0 0 
0 0 0 0 0 0 0 0 0 
0 0 0 0 0 0 0 0 0 
0 0 0 0 0 0 0 0 0 
0 0 0 0 0 0 0 0 0 
0 0 0 0 0 0 0 0 0 
0 0 0 0 0 0 0 0 0 
0 0 0 0 0 0 0 0 0 
0 0 0 0 0 0 0 0 0 
0 0 0 0 0 0 0 0 0 
0 0 0 0 0 0 0 0 0 
0 0 0 0 0 0 0 0 0 
0 0 0 0 0 0 0 0 0 
0 0 0 0 0 0 0 0 0 
0 0 0 0 0 0 0 0 0 
0 0 0 0 0 0 0 0 0 
0 0 0 0 0 0 0 0 0 
0 0 0 0 0 0 0 0 0 
0 0 0 0 0 0 0 0 0 
0 0 0 0 0 0 0 0 0 
0 0 0 0 0 0 0 0 0 
0 0 0 0 0 0 0 0 0 
0 0 0 0 0 0 0 0 0 
0 0 0 0 0 0 0 0 0 
0 0 0 0 0 0 0 0 0 
0 0 0 0 0 0 0 0 0 
0 0 0 0 0 0 0 0 0 
0 0 0 0 0 0 0 0 0 
0 0 0 0 0 0 0 0 0 
0 0 0 0 0 0 0 0 0 
0 0 0 0 0 0 0 0 0 
0 0 0 0 0 0 0 0 0 
0 0 0 0 0 0 0 0 0 
0 0 0 0 0 0 0 0 0 
0 0 0 0 0 0 0 0 0 
0 0 0 0 0 0 0 0 0 
0 0 0 0 0 0 0 0 0 
0 0 0 0 0 0 0 0 0 
0 0 0 0 0 0 0 0 0 
0 0 0 0 0 0 0 0 0 
0 0 0 0 0 0 0 0 0 
0 0 0 0 0 0 0 0 0 
0 0 0 0 0 0 0 0 0 
0 0 0 0 0 0 0 0 0 
0 0 0 0 0 0 0 0 0 
0 0 0 0 0 0 0 0 0 

bottom 1 567 double
-0.050603 -0.050603 -0.050603 -0.050603 -0.050603 -0.050603 -0.050603 -0.050603 -0.050603 
-0.050603 -0.050603 -0.050603 -0.050603 -0.050603 -0.050603 -0.050603 -0.050603 -0.050603 
-0.050603 -0.050603 -0.050603 -0.050603 -0.050603 -0.050603 -0.050603 -0.050603 -0.050603 
-0.050603 -0.050603 -0.050603 -0.050603 -0.050603 -0.050603 -0.050603 -0.050603 -0.050603 
-0.050603 -0.050603 -0.050603 -0.050603 -0.050603 -0.050603 -0.050603 -0.050603 -0.050603 
-0.050603 -0.050603 -0.050603 -0.050603 -0.050603 -0.050603 -0.050603 -0.050603 -0.050603 
-0.050603 -0.050603 -0.050603 -0.050603 -0.050603 -0.050603 -0.050603 -0.050603 -0.050603 
-0.050603 -0.050603 -0.050603 -0.050603 -0.050603 -0.050603 -0.050603 -0.050603 -0.050603 
-0.050603 -0.050603 -0.050603 -0.050603 -0.050603 -0.050603 -0.050603 -0.050603 -0.050603 
-0.050603 -0.050603 -0.050603 -0.050603 -0.050603 -0.050603 -0.050603 -0.050603 -0.050603 
-0.050603 -0.050603 -0.050603 -0.050603 -0.050603 -0.050603 -0.050603 -0.050603 -0.050603 
-0.050603 -0.050603 -0.050603 -0.050603 -0.050603 -0.050603 -0.050603 -0.050603 -0.050603 
-0.050603 -0.050603 -0.050603 -0.050603 -0.050603 -0.050603 -0.050603 -0.050603 -0.050603 
-0.050603 -0.050603 -0.050603 -0.050603 -0.050603 -0.050603 -0.050603 -0.050603 -0.050603 
-0.050603 -0.050603 -0.050603 -0.050603 -0.050603 -0.050603 -0.050603 -0.050603 -0.050603 
-0.050603 -0.050603 -0.050603 -0.050603 -0.050603 -0.050603 -0.050603 -0.050603 -0.050603 
-0.050603 -0.050603 -0.050603 -0.050603 -0.050603 -0.050603 -0.050603 -0.050603 -0.050603 
-0.050603 -0.050603 -0.050603 -0.050603 -0.050603 -0.050603 -0.050603 -0.050603 -0.050603 
-0.050603 -0.050603 -0.050603 -0.050603 -0.050603 -0.050603 -0.050603 -0.050603 -0.050603 
-0.050603 -0.050603 -0.050603 -0.050603 -0.050603 -0.050603 -0.050603 -0.050603 -0.050603 
-0.050603 -0.050603 -0.050603 -0.050603 -0.050603 -0.050603 -0.050603 -0.050603 -0.050603 
-0.050603 -0.050603 -0.050603 -0.050603 -0.050603 -0.050603 -0.050603 -0.050603 -0.050603 
-0.050603 -0.050603 -0.050603 -0.050603 -0.050603 -0.050603 -0.050603 -0.050603 -0.050603 
-0.050603 -0.050603 -0.050603 -0.050603 -0.050603 -0.050603 -0.050603 -0.050603 -0.050603 
-0.050603 -0.050603 -0.050603 -0.050603 -0.050603 -0.050603 -0.050603 -0.050603 -0.050603 
-0.050603 -0.050603 -0.050603 -0.050603 -0.050603 -0.050603 -0.050603 -0.050603 -0.050603 
-0.050603 -0.050603 -0.050603 -0.050603 -0.050603 -0.050603 -0.050603 -0.050603 -0.050603 
-0.050603 -0.050603 -0.050603 -0.050603 -0.050603 -0.050603 -0.050603 -0.050603 -0.050603 
-0.050603 -0.050603 -0.050603 -0.050603 -0.050603 -0.050603 -0.050603 -0.050603 -0.050603 
-0.050603 -0.050603 -0.050603 -0.050603 -0.050603 -0.050603 -0.050603 -0.050603 -0.050603 
-0.050603 -0.050603 -0.050603 -0.050603 -0.050603 -0.050603 -0.050603 -0.050603 -0.050603 
-0.050603 -0.050603 -0.050603 -0.050603 -0.050603 -0.050603 -0.050603 -0.050603 -0.050603 
-0.050603 -0.050603 -0.050603 -0.050603 -0.050603 -0.050603 -0.050603 -0.050603 -0.050603 
-0.050603 -0.050603 -0.050603 -0.050603 -0.050603 -0.050603 -0.050603 -0.050603 -0.050603 
-0.050603 -0.050603 -0.050603 -0.050603 -0.050603 -0.050603 -0.050603 -0.050603 -0.050603 
-0.050603 -0.050603 -0.050603 -0.050603 -0.050603 -0.050603 -0.050603 -0.050603 -0.050603 
-0.050603 -0.050603 -0.050603 -0.050603 -0.050603 -0.050603 -0.050603 -0.050603 -0.050603 
-0.050603 -0.050603 -0.050603 -0.050603 -0.050603 -0.050603 -0.050603 -0.050603 -0.050603 
-0.050603 -0.050603 -0.050603 -0.050603 -0.050603 -0.050603 -0.050603 -0.050603 -0.050603 
-0.050603 -0.050603 -0.050603 -0.050603 -0.050603 -0.050603 -0.050603 -0.050603 -0.050603 
-0.050603 -0.050603 -0.050603 -0.050603 -0.050603 -0.050603 -0.050603 -0.050603 -0.050603 
-0.050603 -0.050603 -0.050603 -0.050603 -0.050603 -0.050603 -0.050603 -0.050603 -0.050603 
-0.050603 -0.050603 -0.050603 -0.050603 -0.050603 -0.050603 -0.050603 -0.050603 -0.050603 
-0.050603 -0.050603 -0.050603 -0.050603 -0.050603 -0.050603 -0.050603 -0.050603 -0.050603 
-0.050603 -0.050603 -0.050603 -0.050603 -0.050603 -0.050603 -0.050603 -0.050603 -0.050603 
-0.050603 -0.050603 -0.050603 -0.050603 -0.050603 -0.050603 -0.050603 -0.050603 -0.050603 
-0.050603 -0.050603 -0.050603 -0.050603 -0.050603 -0.050603 -0.050603 -0.050603 -0.050603 
-0.050603 -0.050603 -0.050603 -0.050603 -0.050603 -0.050603 -0.050603 -0.050603 -0.050603 
-0.050603 -0.050603 -0.050603 -0.050603 -0.050603 -0.050603 -0.050603 -0.050603 -0.050603 
-0.050603 -0.050603 -0.050603 -0.050603 -0.050603 -0.050603 -0.050603 -0.050603 -0.050603 
-0.050603 -0.050603 -0.050603 -0.050603 -0.050603 -0.050603 -0.050603 -0.050603 -0.050603 
-0.050603 -0.050603 -0.050603 -0.050603 -0.050603 -0.050603 -0.050603 -0.050603 -0.050603 
-0.050603 -0.050603 -0.050603 -0.050603 -0.050603 -0.050603 -0.050603 -0.050603 -0.050603 
-0.050603 -0.050603 -0.050603 -0.050603 -0.050603 -0.050603 -0.050603 -0.050603 -0.050603 
-0.050603 -0.050603 -0.050603 -0.050603 -0.050603 -0.050603 -0.050603 -0.050603 -0.050603 
-0.050603 -0.050603 -0.050603 -0.050603 -0.050603 -0.050603 -0.050603 -0.050603 -0.050603 
-0.050603 -0.050603 -0.050603 -0.050603 -0.050603 -0.050603 -0.050603 -0.050603 -0.050603 
-0.050603 -0.050603 -0.050603 -0.050603 -0.050603 -0.050603 -0.050603 -0.050603 -0.050603 
-0.050603 -0.050603 -0.050603 -0.050603 -0.050603 -0.050603 -0.050603 -0.050603 -0.050603 
-0.050603 -0.050603 -0.050603 -0.050603 -0.050603 -0.050603 -0.050603 -0.050603 -0.050603 
-0.050603 -0.050603 -0.050603 -0.050603 -0.050603 -0.050603 -0.050603 -0.050603 -0.050603 
-0.050603 -0.050603 -0.050603 -0.050603 -0.050603 -0.050603 -0.050603 -0.050603 -0.050603 
-0.050603 -0.050603 -0.050603 -0.050603 -0.050603 -0.050603 -0.050603 -0.050603 -0.050603 

top 1 567 double
0.049397 0.049397 0.049397 0.049397 0.049397 0.049397 0.049397 0.049397 0.049397 
0.049397 0.049397 0.049397 0.049397 0.049397 0.049397 0.049397 0.049397 0.049397 
0.049397 0.049397 0.049397 0.049397 0.049397 0.049397 0.049397 0.049397 0.049397 
0.049397 0.049397 0.049397 0.049397 0.049397 0.049397 0.049397 0.049397 0.049397 
0.049397 0.049397 0.049397 0.049397 0.049397 0.049397 0.049397 0.049397 0.049397 
0.049397 0.049397 0.049397 0.049397 0.049397 0.049397 0.049397 0.049397 0.049397 
0.049397 0.049397 0.049397 0.049397 0.049397 0.049397 0.049397 0.049397 0.049397 
0.049397 0.049397 0.049397 0.049397 0.049397 0.049397 0.049397 0.049397 0.049397 
0.049397 0.049397 0.049397 0.049397 0.049397 0.049397 0.049397 0.049397 0.049397 
0.049397 0.049397 0.049397 0.049397 0.049397 0.049397 0.049397 0.049397 0.049397 
0.049397 0.049397 0.049397 0.049397 0.049397 0.049397 0.049397 0.049397 0.049397 
0.049397 0.049397 0.049397 0.049397 0.049397 0.049397 0.049397 0.049397 0.049397 
0.049397 0.049397 0.049397 0.049397 0.049397 0.049397 0.049397 0.049397 0.049397 
0.049397 0.049397 0.049397 0.049397 0.049397 0.049397 0.049397 0.049397 0.049397 
0.049397 0.049397 0.049397 0.049397 0.049397 0.049397 0.049397 0.049397 0.049397 
0.049397 0.049397 0.049397 0.049397 0.049397 0.049397 0.049397 0.049397 0.049397 
0.049397 0.049397 0.049397 0.049397 0.049397 0.049397 0.049397 0.049397 0.049397 
0.049397 0.049397 0.049397 0.049397 0.049397 0.049397 0.049397 0.049397 0.049397 
0.049397 0.049397 0.049397 0.049397 0.049397 0.049397 0.049397 0.049397 0.049397 
0.049397 0.049397 0.049397 0.049397 0.049397 0.049397 0.049397 0.049397 0.049397 
0.049397 0.049397 0.049397 0.049397 0.049397 0.049397 0.049397 0.049397 0.049397 
0.049397 0.049397 0.049397 0.049397 0.049397 0.049397 0.049397 0.049397 0.049397 
0.049397 0.049397 0.049397 0.049397 0.049397 0.049397 0.049397 0.049397 0.049397 
0.049397 0.049397 0.049397 0.049397 0.049397 0.049397 0.049397 0.049397 0.049397 
0.049397 0.049397 0.049397 0.049397 0.049397 0.049397 0.049397 0.049397 0.049397 
0.049397 0.049397 0.049397 0.049397 0.049397 0.049397 0.049397 0.049397 0.049397 
0.049397 0.049397 0.049397 0.049397 0.049397 0.049397 0.049397 0.049397 0.049397 
0.049397 0.049397 0.049397 0.049397 0.049397 0.049397 0.049397 0.049397 0.049397 
0.049397 0.049397 0.049397 0.049397 0.049397 0.049397 0.049397 0.049397 0.049397 
0.049397 0.049397 0.049397 0.049397 0.049397 0.049397 0.049397 0.049397 0.049397 
0.049397 0.049397 0.049397 0.049397 0.049397 0.049397 0.049397 0.049397 0.049397 
0.049397 0.049397 0.049397 0.049397 0.049397 0.049397 0.049397 0.049397 0.049397 
0.049397 0.049397 0.049397 0.049397 0.049397 0.049397 0.049397 0.049397 0.049397 
0.049397 0.049397 0.049397 0.049397 0.049397 0.049397 0.049397 0.049397 0.049397 
0.049397 0.049397 0.049397 0.049397 0.049397 0.049397 0.049397 0.049397 0.049397 
0.049397 0.049397 0.049397 0.049397 0.049397 0.049397 0.049397 0.049397 0.049397 
0.049397 0.049397 0.049397 0.049397 0.049397 0.049397 0.049397 0.049397 0.049397 
0.049397 0.049397 0.049397 0.049397 0.049397 0.049397 0.049397 0.049397 0.049397 
0.049397 0.049397 0.049397 0.049397 0.049397 0.049397 0.049397 0.049397 0.049397 
0.049397 0.049397 0.049397 0.049397 0.049397 0.049397 0.049397 0.049397 0.049397 
0.049397 0.049397 0.049397 0.049397 0.049397 0.049397 0.049397 0.049397 0.049397 
0.049397 0.049397 0.049397 0.049397 0.049397 0.049397 0.049397 0.049397 0.049397 
0.049397 0.049397 0.049397 0.049397 0.049397 0.049397 0.049397 0.049397 0.049397 
0.049397 0.049397 0.049397 0.049397 0.049397 0.049397 0.049397 0.049397 0.049397 
0.049397 0.049397 0.049397 0.049397 0.049397 0.049397 0.049397 0.049397 0.049397 
0.049397 0.049397 0.049397 0.049397 0.049397 0.049397 0.049397 0.049397 0.049397 
0.049397 0.049397 0.049397 0.049397 0.049397 0.049397 0.049397 0.049397 0.049397 
0.049397 0.049397 0.049397 0.049397 0.049397 0.049397 0.049397 0.049397 0.049397 
0.049397 0.049397 0.049397 0.049397 0.049397 0.049397 0.049397 0.049397 0.049397 
0.049397 0.049397 0.049397 0.049397 0.049397 0.049397 0.049397 0.049397 0.049397 
0.049397 0.049397 0.049397 0.049397 0.049397 0.049397 0.049397 0.049397 0.049397 
0.049397 0.049397 0.049397 0.049397 0.049397 0.049397 0.049397 0.049397 0.049397 
0.049397 0.049397 0.049397 0.049397 0.049397 0.049397 0.049397 0.049397 0.049397 
0.049397 0.049397 0.049397 0.049397 0.049397 0.049397 0.049397 0.049397 0.049397 
0.049397 0.049397 0.049397 0.049397 0.049397 0.049397 0.049397 0.049397 0.049397 
0.049397 0.049397 0.049397 0.049397 0.049397 0.049397 0.049397 0.049397 0.049397 
0.049397 0.049397 0.049397 0.049397 0.049397 0.049397 0.049397 0.049397 0.049397 
0.049397 0.049397 0.049397 0.049397 0.049397 0.049397 0.049397 0.049397 0.049397 
0.049397 0.049397 0.049397 0.049397 0.049397 0.049397 0.049397 0.049397 0.049397 
0.049397 0.049397 0.049397 0.049397 0.049397 0.049397 0.049397 0.049397 0.049397 
0.049397 0.049397 0.049397 0.049397 0.049397 0.049397 0.049397 0.049397 0.049397 
0.049397 0.049397 0.049397 0.049397 0.049397 0.049397 0.049397 0.049397 0.049397 
0.049397 0.049397 0.049397 0.049397 0.049397 0.049397 0.049397 0.049397 0.049397 

