# vtk DataFile Version 4.0
vtk output
ASCII
DATASET POLYDATA
FIELD FieldData 4
domain 1 4 string
domain_min:-5|-5|-5
domain_max:5|5|5
cell_size:0.01|0.01|0.01
boundary:1|1|1

variables 1 8 string
T:0.755
dt:0.0005
A:-46.9237
V:0.514812
Z:0.0116429
write_case:1
substeps:10
all_steps:1510

constants 1 11 string
L:0.1
csize:0.01
R:0.004
mass:0.00210445
E:2.06e+06
nu:0.33
M:20
freq:10
gamma:62.8319
S:78956.8
g:0|0|-9.81

equations 1 9 string
time:T=(T+dt)#true
eq:a=(dem_l(v,om,R,mass,E,nu,0.1)/mass)#true
tank_acceleration:A=(((-(transpose((fsum(a)*mass))*e_k))-(S*Z))/M)#true
iv:v=euler(v,((a+g)-(A*e_k)),dt)#true
ia:r=euler(r,v,dt)#true
tank_velocity:V=euler(V,A,dt)#true
tank_position:Z=euler(Z,V,dt)#true
bottom:bottom=(Z-0.05)#true
top:top=(Z+0.05)#true

POINTS 567 float
-0.0461871 -0.0461356 -0.0428339 -0.0366861 -0.0464514 -0.0459951 -0.0160273 -0.0443229 -0.0450589 
-0.00873183 -0.040064 -0.0459454 -0.00438842 -0.0462982 -0.0440707 0.00643038 -0.0460522 -0.0463815 
0.0102056 -0.0414572 -0.0400358 0.0163539 -0.0434316 -0.0464666 0.0259164 -0.0452306 -0.0461569 
0.0352255 -0.0447908 -0.0456299 0.0431446 -0.0452338 -0.0458196 -0.0443081 -0.0314079 -0.0456674 
-0.0454062 -0.0389055 -0.040101 -0.0348343 -0.03451 -0.0432927 -0.0395091 -0.0396556 -0.0463754 
-0.02316 -0.0376528 -0.0451335 -0.0156043 -0.032961 -0.0447049 -0.00233051 -0.0342377 -0.0459364 
0.00519343 -0.0389532 -0.045287 0.00787619 -0.0309414 -0.0457675 0.0136171 -0.0311613 -0.0416041 
0.0199845 -0.0325738 -0.0460123 0.0252191 -0.039235 -0.0415058 0.0323099 -0.0381557 -0.0462906 
0.0394785 -0.0307099 -0.0452169 0.0311697 -0.0305915 -0.0458589 0.0456493 -0.0363668 -0.0447775 
-0.0382539 -0.0236516 -0.0448709 -0.0291358 -0.0296566 -0.0442431 -0.0220551 -0.0279156 -0.0438817 
-0.0290919 -0.0220849 -0.0431913 -0.0176976 -0.0219642 -0.0462138 -0.00892789 -0.0273804 -0.0437247 
0.00283214 -0.0253117 -0.0451139 0.0137104 -0.0257578 -0.0463491 0.0171799 -0.0221514 -0.0400102 
0.0217136 -0.0226597 -0.0459336 -0.0440316 -0.011183 -0.0425146 -0.0464959 -0.0178341 -0.0450781 
-0.0377095 -0.0156322 -0.0458703 -0.0247319 -0.0162648 -0.0446997 -0.0177443 -0.0167097 -0.0401916 
-0.0188764 -0.0123885 -0.0462003 -0.00993087 -0.0194689 -0.0457856 -0.00262197 -0.0189533 -0.0423279 
-0.00324693 -0.0116598 -0.0454903 0.00431011 -0.0124154 -0.0436722 0.0100777 -0.0193372 -0.0453854 
0.0379747 -0.0178827 -0.0453761 0.03007 -0.0169921 -0.0460979 0.0446098 -0.0145941 -0.04275 
-0.0429049 -0.00289051 -0.0415744 -0.0383787 -0.00807166 -0.0462731 -0.0286015 -0.00647003 -0.0456479 
-0.0125684 -0.00883425 -0.0440957 -0.0075984 -0.00302732 -0.04609 0.00542412 -0.00336673 -0.044626 
0.0142841 -0.00980975 -0.0457382 0.0123838 -0.00182382 -0.0453947 0.023078 -0.00946527 -0.0441064 
0.0289963 -0.00223288 -0.0412248 0.0204179 -0.00300959 -0.0446925 0.0310513 -0.00879536 -0.0456364 
0.037485 -0.0014876 -0.0461671 0.0460355 -0.00142451 -0.0447863 0.0421133 -0.00711112 -0.0410088 
-0.0435061 0.0033683 -0.0408735 -0.0373881 0.00483559 -0.0463269 -0.0273094 0.00256143 -0.046174 
-0.0180825 0.0097649 -0.0442672 -0.0171256 0.00299883 -0.0419959 -0.00932263 0.0017936 -0.0405071 
-0.00695468 0.00870407 -0.0402352 -0.00388371 0.00313207 -0.0463015 0.00066774 0.00915419 -0.0448632 
0.00970329 0.00826657 -0.0457985 0.017899 0.00385615 -0.0461894 0.0282055 0.0061821 -0.0460844 
0.0364201 0.00858735 -0.0454607 0.0352516 0.00305624 -0.0406966 0.0446648 0.00594548 -0.0461574 
-0.0451084 0.0194818 -0.0401358 -0.0449643 0.0152541 -0.0462713 -0.0368807 0.0120605 -0.0456957 
-0.0285896 0.0101501 -0.046162 -0.0193596 0.0193355 -0.0420364 -0.0113099 0.0125746 -0.0454817 
-0.00667527 0.0184795 -0.0402154 -0.0033031 0.0164696 -0.0462403 0.0052577 0.0171448 -0.0457283 
0.0160538 0.0122954 -0.0438803 0.0194083 0.0186671 -0.0413598 0.0235056 0.012018 -0.0440741 
0.0295851 0.0172949 -0.0462149 0.0464883 0.0176805 -0.0459881 -0.0443106 0.024528 -0.0465771 
-0.0372573 0.0290113 -0.0455122 -0.0381256 0.0227783 -0.0411464 -0.0254999 0.0209555 -0.0448853 
-0.0106787 0.0281155 -0.0463222 -0.0125583 0.0201311 -0.0445928 -0.0194018 0.02669 -0.0441624 
-0.00436653 0.0290187 -0.0421136 0.00157538 0.027799 -0.0462975 0.0123831 0.0207246 -0.0459155 
0.0183161 0.0286181 -0.0458695 0.0253914 0.0252098 -0.0418311 0.0330077 0.0239069 -0.045845 
0.0390975 0.028882 -0.0436978 0.0463015 0.0262167 -0.0455678 0.0413381 0.0216044 -0.0413946 
-0.0449795 0.032246 -0.0461792 -0.0331181 0.0377056 -0.0436079 -0.0387428 0.0356083 -0.0403025 
-0.0269264 0.0312497 -0.0459555 -0.0258769 0.0392709 -0.0464764 -0.0164785 0.0337994 -0.0455498 
-0.000206352 0.0348462 -0.0463136 -0.00991604 0.0389386 -0.0419854 0.00635266 0.0380572 -0.0431291 
0.0101079 0.0308613 -0.0431543 0.0156448 0.0371777 -0.0438118 0.0293886 0.0329409 -0.0465642 
0.0394412 0.0380802 -0.0424358 0.0459587 0.0361226 -0.040158 -0.0403328 0.0434736 -0.0416666 
-0.0461555 0.045538 -0.0453785 -0.0344508 0.0462708 -0.0456025 -0.0214464 0.0460459 -0.0427188 
-0.0137071 0.0463958 -0.0459011 -0.00450403 0.0448966 -0.0461461 0.00954673 0.0437516 -0.046149 
0.0027469 0.0462389 -0.0438489 0.0176241 0.0456385 -0.043549 0.0260876 0.0449142 -0.0456601 
0.0347701 0.045612 -0.0462538 0.0451395 0.0456842 -0.043894 -0.044349 -0.0464624 -0.0348038 
-0.0316687 -0.0464854 -0.0392917 -0.0384651 -0.0423485 -0.0395573 -0.0224637 -0.0461893 -0.0388692 
-0.0266466 -0.0437046 -0.0326697 -0.0267753 -0.0404191 -0.0396545 -0.0127932 -0.0463193 -0.0310271 
-0.0188755 -0.0417561 -0.0303463 -0.0139341 -0.045221 -0.0384437 -0.00387221 -0.0450959 -0.0358344 
0.00406002 -0.0456413 -0.0380446 0.0135461 -0.0451164 -0.0345824 0.0212857 -0.0461014 -0.0368878 
0.0313735 -0.0448842 -0.0348148 0.0402699 -0.0461751 -0.0353241 0.0452796 -0.0425649 -0.0311631 
0.0458824 -0.0435737 -0.039814 -0.0460735 -0.0318941 -0.0367858 -0.0455951 -0.0384207 -0.0322943 
-0.0321575 -0.0371269 -0.0362974 -0.0385786 -0.0335378 -0.0336294 -0.0244477 -0.0320763 -0.0373622 
-0.0149111 -0.0317393 -0.0300323 -0.0117018 -0.0380747 -0.0334027 -0.0180597 -0.0390348 -0.0387686 
-0.0124523 -0.0316154 -0.037933 -0.00454456 -0.038259 -0.0385689 0.00312784 -0.0357933 -0.0370923 
0.0160767 -0.038282 -0.0364606 0.0123365 -0.0326451 -0.0316659 0.0224507 -0.0341562 -0.03499 
0.0314582 -0.0356822 -0.0377531 0.0389486 -0.037924 -0.0389947 0.0462512 -0.0347413 -0.0348012 
-0.0422639 -0.0261649 -0.032068 -0.0401572 -0.0293354 -0.0398632 -0.0353634 -0.021237 -0.0330673 
-0.0320526 -0.0291958 -0.0350174 -0.0242146 -0.0212602 -0.0357195 -0.0180462 -0.0256617 -0.0342877 
-0.0108726 -0.0207262 -0.0309385 -0.00141046 -0.020429 -0.0323132 -0.00446683 -0.0293925 -0.0334058 
0.0059953 -0.0206883 -0.0372698 0.00338875 -0.0283332 -0.0384317 0.0104857 -0.0252164 -0.031777 
0.0223664 -0.023917 -0.0339096 0.0255499 -0.0288595 -0.039613 0.034882 -0.0200673 -0.0368608 
0.0338257 -0.0270717 -0.0387878 0.0397354 -0.0266512 -0.032495 0.0306674 -0.0254526 -0.0324073 
0.0450736 -0.0281269 -0.0393841 0.0429794 -0.021021 -0.0393728 -0.0460764 -0.0166778 -0.0370925 
-0.0382044 -0.0145021 -0.0366103 -0.0302978 -0.0168765 -0.037663 -0.022433 -0.0102138 -0.0392821 
-0.0114342 -0.0149847 -0.0358762 -0.00684239 -0.0106092 -0.0308736 -0.00248544 -0.011371 -0.0370908 
0.00946369 -0.0173468 -0.031181 0.00262084 -0.0130521 -0.0302784 0.0190033 -0.0100033 -0.033249 
0.0194618 -0.0134412 -0.0397215 0.0112122 -0.015189 -0.0393783 0.0248831 -0.0190433 -0.0393249 
0.0316368 -0.0132855 -0.038385 0.0365194 -0.0129388 -0.0330083 0.0461641 -0.0124162 -0.0352886 
-0.0460597 -0.00949439 -0.031007 -0.0314232 -0.00172487 -0.0312288 -0.0318547 -0.00905832 -0.0380943 
-0.0398864 -0.00615136 -0.0337812 -0.0253925 -0.00579909 -0.0316726 -0.0273321 -0.00302513 -0.0392482 
-0.0168783 -0.00420659 -0.0393789 -0.00945235 -0.00494207 -0.0342772 0.00233728 -0.00472335 -0.0352242 
0.00804658 -0.00902494 -0.0377648 0.0112482 -0.00231358 -0.0313835 0.0144747 -0.00489041 -0.0384753 
0.0199083 -0.00283496 -0.0352991 0.028483 -0.00555092 -0.0326545 0.0351212 -0.00652154 -0.0381952 
0.044212 -0.0061018 -0.0326031 0.0423856 -5.62705e-05 -0.0379968 -0.0441422 0.00476052 -0.0304856 
-0.0316709 0.00698458 -0.0395107 -0.0361143 0.0014464 -0.0367731 -0.0310967 0.00612079 -0.0310132 
-0.0210735 0.00264553 -0.0300269 -0.0239205 0.00547736 -0.0385736 -0.0140202 0.00263357 -0.0348866 
-0.00161874 0.00938733 -0.0326021 -0.000963021 0.00214384 -0.0373087 0.00520469 0.00614358 -0.0397653 
0.0123265 0.00161028 -0.0385373 0.0177883 0.00724989 -0.0371382 0.02629 0.00234855 -0.035887 
0.0339656 0.00853958 -0.0316109 0.0384184 0.00085247 -0.0321597 0.0449616 0.00255546 -0.0314501 
-0.044697 0.0106406 -0.0364037 -0.0399501 0.0196653 -0.0332045 -0.0354816 0.0111603 -0.0337843 
-0.0266889 0.013239 -0.0375617 -0.0135718 0.0180849 -0.0365118 -0.0194215 0.0134849 -0.0326783 
-0.013081 0.0109143 -0.0367451 -0.00501522 0.0189208 -0.0302451 0.00268803 0.0163696 -0.0314537 
0.00773036 0.0196059 -0.0393752 0.00371373 0.0138624 -0.039124 0.00959097 0.0121366 -0.0345248 
0.0291729 0.0144598 -0.0372722 0.0213886 0.0142498 -0.0361092 0.0257094 0.0171301 -0.030145 
0.0368604 0.012268 -0.0393398 0.0414563 0.0143494 -0.0327537 0.0463112 0.0123167 -0.0394259 
-0.046475 0.0289851 -0.0379208 -0.0325497 0.0289133 -0.0393028 -0.0337732 0.0255543 -0.031942 
-0.0311952 0.021395 -0.0379724 -0.0395808 0.0292767 -0.0361712 -0.0224877 0.0230715 -0.0347914 
-0.0249555 0.0299137 -0.0386684 -0.0252381 0.0294168 -0.0309099 -0.0132963 0.0286095 -0.0395808 
-0.0119515 0.0252258 -0.031816 -0.0040623 0.0255915 -0.034205 0.00283279 0.0298268 -0.0397397 
0.00141982 0.0221737 -0.0376498 0.0109866 0.0259454 -0.032104 0.0127373 0.0254811 -0.0398332 
0.022474 0.0277525 -0.0320166 0.0280716 0.0241254 -0.034613 0.0349568 0.0265806 -0.0310029 
0.035026 0.0202551 -0.038023 0.0451985 0.0211983 -0.0309858 -0.0460105 0.0386437 -0.0324296 
-0.0461659 0.0385256 -0.0399948 -0.0346567 0.0338532 -0.0323732 -0.0386487 0.0398992 -0.0336173 
-0.0264177 0.0374188 -0.0382219 -0.022547 0.0392123 -0.0323224 -0.0144814 0.036944 -0.0306247 
-0.0190132 0.0339836 -0.0385774 -0.00315586 0.0359592 -0.0389924 -0.0058666 0.0398144 -0.0315441 
-0.00932225 0.0338726 -0.034868 0.00721604 0.0368887 -0.0359182 0.015371 0.035331 -0.0355135 
0.0194111 0.0310428 -0.0387976 0.0266099 0.0339212 -0.0331822 0.0363482 0.0316034 -0.0350749 
0.0318495 0.0371016 -0.0398097 -0.0457245 0.0455963 -0.0360394 -0.0324734 0.0439221 -0.0386303 
-0.0214917 0.0465049 -0.0335391 -0.0152284 0.0428184 -0.0354001 -0.00526075 0.0454036 -0.037988 
0.00128181 0.0415392 -0.0340243 0.010419 0.043853 -0.0386692 0.0141528 0.0443163 -0.0318244 
0.0208627 0.0407234 -0.0336957 0.0305246 0.046158 -0.0361301 0.0362827 0.0461028 -0.0316299 
0.0393567 0.0461995 -0.0384576 0.0458847 0.043385 -0.0361666 -0.0454333 -0.0453884 -0.0278135 
-0.0394045 -0.041019 -0.0213555 -0.0384914 -0.0443491 -0.0296191 -0.0311223 -0.0464515 -0.02611 
-0.0225872 -0.0411951 -0.0225918 -0.013298 -0.0460819 -0.023719 -0.000853027 -0.0453919 -0.0247244 
0.0134016 -0.0455936 -0.0245373 0.0193546 -0.0415333 -0.0248876 0.0260062 -0.0407749 -0.0282784 
0.0325756 -0.0459103 -0.0240741 -0.0450442 -0.0316862 -0.0254107 -0.0353774 -0.0355518 -0.0270064 
-0.0205245 -0.0336083 -0.0255835 -0.0112371 -0.0346366 -0.0216522 -0.00505364 -0.0379977 -0.024427 
0.00970731 -0.0386104 -0.0280293 0.00229191 -0.0393537 -0.0289218 0.0205684 -0.0342384 -0.0256163 
0.0301997 -0.0330238 -0.0295628 0.0358419 -0.0301882 -0.0249984 0.0346433 -0.0377622 -0.0214079 
0.0402608 -0.0354312 -0.0298208 0.045963 -0.0360889 -0.023501 -0.0454382 -0.0240072 -0.0252742 
-0.0294877 -0.0261972 -0.0291627 -0.00585994 -0.0294006 -0.0231311 0.00272537 -0.0252863 -0.0204671 
0.0122011 -0.0285663 -0.023509 0.0147268 -0.022194 -0.0260351 0.0235566 -0.0202632 -0.0280223 
0.0460583 -0.0222415 -0.0269677 -0.0436993 -0.0183547 -0.0297802 -0.0322074 -0.0125211 -0.0291163 
-0.0386538 -0.0153945 -0.0241935 -0.0233055 -0.0152 -0.0298793 -0.0113805 -0.0182039 -0.0234252 
-0.018884 -0.0125096 -0.023559 -0.00172414 -0.0170401 -0.0211962 0.00325841 -0.0195682 -0.0267336 
0.00850169 -0.0121042 -0.025489 0.0176674 -0.0134785 -0.0248616 0.0136046 -0.0178711 -0.020097 
0.0272859 -0.0167653 -0.021783 0.0310521 -0.0151184 -0.0288191 0.0390114 -0.0155078 -0.0228176 
-0.0458137 -0.0010881 -0.0253381 -0.0368251 -0.00792392 -0.0253893 -0.0325321 -0.0012986 -0.0237851 
-0.0143818 -0.00704037 -0.0224037 -0.0118695 -0.00160024 -0.0288951 -0.0149381 -0.00921039 -0.0293911 
-0.00375974 -0.00980793 -0.0215897 0.0177722 -0.00171053 -0.0275334 0.0243184 -0.007453 -0.024961 
0.020466 -0.00185492 -0.0212542 0.0328384 -0.00873619 -0.0201258 0.0349692 -0.00228295 -0.0243424 
0.0435825 -0.00718281 -0.0251087 -0.0390047 0.00512111 -0.0253852 -0.03166 0.00775865 -0.0237092 
-0.0235937 0.00988009 -0.0256015 -0.0103316 0.00744316 -0.0256559 -0.0172454 0.00989362 -0.021265 
-0.00481224 0.00219155 -0.0288103 -0.00179122 0.00980249 -0.0223635 0.00635109 0.00719603 -0.0292985 
0.00206868 0.00033567 -0.023839 0.0175194 0.00596598 -0.0286773 0.0269212 0.00870254 -0.0279204 
0.0291097 0.00106925 -0.0284246 0.0390314 0.00979469 -0.0226759 -0.0434459 0.0148076 -0.0259266 
-0.0395308 0.010805 -0.0207534 -0.0309483 0.0169408 -0.0283034 -0.0211239 0.0166477 -0.0216521 
-0.0135267 0.0153654 -0.0275085 0.006395 0.0126112 -0.0241049 0.015127 0.0156362 -0.0273502 
0.046339 0.0100543 -0.0274192 -0.0458113 0.0245265 -0.0295414 -0.041013 0.0218884 -0.0244112 
-0.0271175 0.0241711 -0.0250392 -0.011853 0.0262925 -0.0229558 -0.0173898 0.0221478 -0.0268035 
-0.00468469 0.0262612 -0.0272687 0.00775146 0.0201116 -0.0262261 0.00181381 0.0251197 -0.023138 
0.0092897 0.0296054 -0.0248491 0.0262914 0.0221878 -0.0235136 0.0451114 0.0270096 -0.0255689 
-0.0421496 0.0323412 -0.0262874 -0.0342045 0.0372207 -0.0250177 -0.0258508 0.0362118 -0.0269048 
-0.0187762 0.0376405 -0.0211896 -0.00824323 0.0335488 -0.0281409 0.00760895 0.0348854 -0.029254 
0.00546577 0.0363982 -0.0208613 0.0122371 0.0387978 -0.0219257 0.0167485 0.0325619 -0.0285284 
0.0311839 0.036066 -0.0282626 0.0446834 0.0350249 -0.0293861 -0.0457522 0.0456477 -0.0286595 
-0.0456475 0.0402108 -0.0227263 -0.0365899 0.0454067 -0.0281573 -0.0253117 0.0419617 -0.0220746 
-0.0292382 0.0457215 -0.0292395 -0.0100845 0.0460033 -0.0298445 -0.00247427 0.0451159 -0.0249948 
0.00567338 0.042945 -0.0273044 0.0289016 0.0408667 -0.0209326 0.0295737 0.0468791 -0.0259364 
0.0235311 0.0411736 -0.0272092 0.0422856 0.0460688 -0.0257459 -0.0322492 -0.0458799 -0.0161848 
-0.023576 -0.0430703 -0.0160595 0.00900891 -0.044272 -0.0182956 0.000167962 -0.0401369 -0.0195854 
0.0229288 -0.040048 -0.0171086 0.0438644 -0.0432671 -0.0185548 -0.0398308 -0.0330222 -0.0196724 
0.00745272 -0.0321134 -0.0180388 0.0157963 -0.0393743 -0.0185914 0.0221504 -0.0337815 -0.0101915 
-0.0363344 -0.027599 -0.014303 -0.0359067 -0.0200721 -0.0133113 -0.0262725 -0.0242666 -0.0129797 
-0.020494 -0.0207598 -0.01929 -0.00841762 -0.0251102 -0.0109796 0.0226312 -0.022134 -0.0114571 
0.022857 -0.0249964 -0.019934 0.0326511 -0.022049 -0.0177046 -0.0316411 -0.0135347 -0.0197421 
0.00647161 -0.0182524 -0.0167896 0.0186384 -0.0134875 -0.0110525 0.0412326 -0.018686 -0.0114305 
-0.0386572 -0.000239914 -0.0158269 -0.0235257 -0.00190267 -0.0161657 -0.0105693 -0.00527004 -0.0165938 
0.0126219 -0.000883001 -0.0133683 0.0426162 -0.0055193 -0.0113767 -0.0448926 0.00521495 -0.011751 
-0.0326676 0.00818423 -0.0119924 -0.0227444 0.0075551 -0.0115919 -0.00885659 0.00444283 -0.0100007 
-0.00232274 0.00157737 -0.0153486 -0.00899811 0.00153377 -0.0197417 0.013677 0.00900551 -0.0125079 
0.0242798 0.00296759 -0.0166487 0.0368247 0.000691996 -0.0159852 -0.0382158 0.015995 -0.0122924 
-0.0275746 0.0127389 -0.0189138 -0.0139836 0.019546 -0.0196497 -0.00871057 0.0113782 -0.014321 
0.00340555 0.0151981 -0.017439 0.0123358 0.0185254 -0.0111836 0.0453719 0.0126094 -0.019417 
-0.0375182 0.0292945 -0.0197937 -0.0171782 0.0298234 -0.0109978 -0.0192344 0.0205232 -0.0138867 
-0.00536539 0.0247419 -0.0143979 0.00537143 0.0226353 -0.0146939 0.0179732 0.0262217 -0.0199893 
0.0369859 0.0279056 -0.0168146 0.0432201 0.020848 -0.0133603 -0.0447173 0.0362093 -0.0150269 
-0.0272512 0.039628 -0.0147103 0.00814277 0.0305044 -0.0150843 0.000402991 0.0310286 -0.0163673 
0.0179454 0.0364222 -0.0163578 0.0264732 0.0301699 -0.0195439 -0.0321952 0.0435501 -0.0194467 
-0.00942612 0.0421946 -0.0137252 0.00542597 0.0424665 -0.0130346 0.0386924 0.0414748 -0.0186944 
-0.0460077 -0.038646 -0.00986086 -0.0316089 -0.0375501 -0.00388205 0.0166222 -0.0306677 -0.00348899 
-0.0445743 -0.0200492 -0.00980924 -0.0427035 -0.0295952 -0.00977997 0.000974968 -0.0240287 -0.00182095 
0.0111782 -0.0225667 -0.00842293 0.0288652 -0.0265379 -0.00560895 0.0444443 -0.0285963 -0.00538162 
-0.0450592 -0.0103596 -0.00413204 -0.00022464 -0.0113251 -0.00926275 -0.0084068 -0.0183328 -0.0012989 
0.0310049 -0.014994 -0.0030364 -0.0192803 -0.00866634 -0.00378751 -0.009105 -0.000573579 -1.572e-05 
-0.00347964 -0.00202708 -0.00736784 -0.00786262 -0.00933927 -0.00974004 0.026547 -0.00855836 -0.00390887 
0.0435731 0.00254808 -0.00900672 0.0435592 0.0085494 -0.000511161 -0.024027 0.0119122 -0.00316814 
0.00325462 0.0119664 -0.00723937 0.0364726 0.0118197 -0.00358079 -0.0450682 0.0244859 -0.0092979 
-0.0262003 0.0297812 -0.00163561 0.00407966 0.0253561 -0.00362278 0.013149 0.0254769 -0.000585086 
0.0408954 0.0239432 -0.00562887 -0.038014 0.0310749 -0.0095075 0.0260392 0.0387833 -0.0015331 
0.0301237 0.0323867 -0.000552686 -0.041322 0.0428316 -0.000842813 -0.00289961 0.0450331 -0.00865006 
0.0241581 0.0443229 -0.00786902 0.0417567 0.0439032 -0.00704718 -0.0440131 -0.0303038 0.00135622 
-0.0372197 -0.0384136 0.00875711 -0.018952 -0.0328788 0.00145208 -0.00480311 -0.0375758 0.00401091 
0.012132 -0.0260755 0.00492807 0.0192792 -0.0222713 0.00556788 0.035056 -0.0282623 0.00123204 
-0.0370516 -0.018363 0.000769722 -0.0201143 -0.0134678 0.00441572 -0.00115013 -0.0155645 0.000539476 
0.0036809 -0.00818598 1.83132e-05 0.00375291 -0.00193451 0.00815949 0.0219941 -0.00982906 0.00214285 
0.0420755 -0.00922602 0.00840327 0.00951293 0.00956765 0.00968315 0.0168567 0.0186196 0.00304959 
0.0227568 0.0168511 0.00781162 -0.0344892 0.0222453 0.00441917 -0.011757 0.0292271 0.00144119 
-0.00398969 0.0229829 0.00197712 -0.0277591 0.0342792 0.00995081 -0.03008 0.0440208 0.0013628 
0.0174272 0.0426799 0.00541446 0.027182 0.0445679 0.00415971 0.0451552 -0.0379952 0.0149551 
-0.0400092 -0.0168343 0.0100213 -0.028848 -0.0178819 0.017333 -0.0275976 -0.00451773 0.0149125 
0.0162124 -0.00929916 0.0107619 -0.0135357 0.00185402 0.0147338 0.0443937 0.00260545 0.0131642 
-0.0461109 0.0104577 0.0125749 -0.00364116 0.013425 0.012472 0.0126677 0.0196273 0.0152081 
-0.0445959 0.0286794 0.0108167 -0.00074556 0.0355525 0.0130015 -0.00858705 0.0342042 0.0189594 
0.00334446 0.0303556 0.019474 -0.0445959 0.0439365 0.019611 -0.028736 0.0419153 0.0136449 
0.00559103 0.0437079 0.0148268 -0.0224881 -0.0367408 0.0282851 -0.0235233 -0.024624 0.0206302 
-0.0156692 -0.025176 0.0228562 0.0425965 -0.020172 0.0210416 -0.0381566 -0.0119203 0.0211496 
-0.0420247 0.009943 0.0270061 0.0297142 0.0290301 0.0229301 0.011949 0.0336228 0.0289011 

VERTICES 1134 1134
1 0 
1 1 
1 2 
1 3 
1 4 
1 5 
1 6 
1 7 
1 8 
1 9 
1 10 
1 11 
1 12 
1 13 
1 14 
1 15 
1 16 
1 17 
1 18 
1 19 
1 20 
1 21 
1 22 
1 23 
1 24 
1 25 
1 26 
1 27 
1 28 
1 29 
1 30 
1 31 
1 32 
1 33 
1 34 
1 35 
1 36 
1 37 
1 38 
1 39 
1 40 
1 41 
1 42 
1 43 
1 44 
1 45 
1 46 
1 47 
1 48 
1 49 
1 50 
1 51 
1 52 
1 53 
1 54 
1 55 
1 56 
1 57 
1 58 
1 59 
1 60 
1 61 
1 62 
1 63 
1 64 
1 65 
1 66 
1 67 
1 68 
1 69 
1 70 
1 71 
1 72 
1 73 
1 74 
1 75 
1 76 
1 77 
1 78 
1 79 
1 80 
1 81 
1 82 
1 83 
1 84 
1 85 
1 86 
1 87 
1 88 
1 89 
1 90 
1 91 
1 92 
1 93 
1 94 
1 95 
1 96 
1 97 
1 98 
1 99 
1 100 
1 101 
1 102 
1 103 
1 104 
1 105 
1 106 
1 107 
1 108 
1 109 
1 110 
1 111 
1 112 
1 113 
1 114 
1 115 
1 116 
1 117 
1 118 
1 119 
1 120 
1 121 
1 122 
1 123 
1 124 
1 125 
1 126 
1 127 
1 128 
1 129 
1 130 
1 131 
1 132 
1 133 
1 134 
1 135 
1 136 
1 137 
1 138 
1 139 
1 140 
1 141 
1 142 
1 143 
1 144 
1 145 
1 146 
1 147 
1 148 
1 149 
1 150 
1 151 
1 152 
1 153 
1 154 
1 155 
1 156 
1 157 
1 158 
1 159 
1 160 
1 161 
1 162 
1 163 
1 164 
1 165 
1 166 
1 167 
1 168 
1 169 
1 170 
1 171 
1 172 
1 173 
1 174 
1 175 
1 176 
1 177 
1 178 
1 179 
1 180 
1 181 
1 182 
1 183 
1 184 
1 185 
1 186 
1 187 
1 188 
1 189 
1 190 
1 191 
1 192 
1 193 
1 194 
1 195 
1 196 
1 197 
1 198 
1 199 
1 200 
1 201 
1 202 
1 203 
1 204 
1 205 
1 206 
1 207 
1 208 
1 209 
1 210 
1 211 
1 212 
1 213 
1 214 
1 215 
1 216 
1 217 
1 218 
1 219 
1 220 
1 221 
1 222 
1 223 
1 224 
1 225 
1 226 
1 227 
1 228 
1 229 
1 230 
1 231 
1 232 
1 233 
1 234 
1 235 
1 236 
1 237 
1 238 
1 239 
1 240 
1 241 
1 242 
1 243 
1 244 
1 245 
1 246 
1 247 
1 248 
1 249 
1 250 
1 251 
1 252 
1 253 
1 254 
1 255 
1 256 
1 257 
1 258 
1 259 
1 260 
1 261 
1 262 
1 263 
1 264 
1 265 
1 266 
1 267 
1 268 
1 269 
1 270 
1 271 
1 272 
1 273 
1 274 
1 275 
1 276 
1 277 
1 278 
1 279 
1 280 
1 281 
1 282 
1 283 
1 284 
1 285 
1 286 
1 287 
1 288 
1 289 
1 290 
1 291 
1 292 
1 293 
1 294 
1 295 
1 296 
1 297 
1 298 
1 299 
1 300 
1 301 
1 302 
1 303 
1 304 
1 305 
1 306 
1 307 
1 308 
1 309 
1 310 
1 311 
1 312 
1 313 
1 314 
1 315 
1 316 
1 317 
1 318 
1 319 
1 320 
1 321 
1 322 
1 323 
1 324 
1 325 
1 326 
1 327 
1 328 
1 329 
1 330 
1 331 
1 332 
1 333 
1 334 
1 335 
1 336 
1 337 
1 338 
1 339 
1 340 
1 341 
1 342 
1 343 
1 344 
1 345 
1 346 
1 347 
1 348 
1 349 
1 350 
1 351 
1 352 
1 353 
1 354 
1 355 
1 356 
1 357 
1 358 
1 359 
1 360 
1 361 
1 362 
1 363 
1 364 
1 365 
1 366 
1 367 
1 368 
1 369 
1 370 
1 371 
1 372 
1 373 
1 374 
1 375 
1 376 
1 377 
1 378 
1 379 
1 380 
1 381 
1 382 
1 383 
1 384 
1 385 
1 386 
1 387 
1 388 
1 389 
1 390 
1 391 
1 392 
1 393 
1 394 
1 395 
1 396 
1 397 
1 398 
1 399 
1 400 
1 401 
1 402 
1 403 
1 404 
1 405 
1 406 
1 407 
1 408 
1 409 
1 410 
1 411 
1 412 
1 413 
1 414 
1 415 
1 416 
1 417 
1 418 
1 419 
1 420 
1 421 
1 422 
1 423 
1 424 
1 425 
1 426 
1 427 
1 428 
1 429 
1 430 
1 431 
1 432 
1 433 
1 434 
1 435 
1 436 
1 437 
1 438 
1 439 
1 440 
1 441 
1 442 
1 443 
1 444 
1 445 
1 446 
1 447 
1 448 
1 449 
1 450 
1 451 
1 452 
1 453 
1 454 
1 455 
1 456 
1 457 
1 458 
1 459 
1 460 
1 461 
1 462 
1 463 
1 464 
1 465 
1 466 
1 467 
1 468 
1 469 
1 470 
1 471 
1 472 
1 473 
1 474 
1 475 
1 476 
1 477 
1 478 
1 479 
1 480 
1 481 
1 482 
1 483 
1 484 
1 485 
1 486 
1 487 
1 488 
1 489 
1 490 
1 491 
1 492 
1 493 
1 494 
1 495 
1 496 
1 497 
1 498 
1 499 
1 500 
1 501 
1 502 
1 503 
1 504 
1 505 
1 506 
1 507 
1 508 
1 509 
1 510 
1 511 
1 512 
1 513 
1 514 
1 515 
1 516 
1 517 
1 518 
1 519 
1 520 
1 521 
1 522 
1 523 
1 524 
1 525 
1 526 
1 527 
1 528 
1 529 
1 530 
1 531 
1 532 
1 533 
1 534 
1 535 
1 536 
1 537 
1 538 
1 539 
1 540 
1 541 
1 542 
1 543 
1 544 
1 545 
1 546 
1 547 
1 548 
1 549 
1 550 
1 551 
1 552 
1 553 
1 554 
1 555 
1 556 
1 557 
1 558 
1 559 
1 560 
1 561 
1 562 
1 563 
1 564 
1 565 
1 566 

POINT_DATA 567
SCALARS id double
LOOKUP_TABLE default
256 447 156 76 136 552 203 406 402 
500 331 17 129 210 397 330 133 252 
259 23 293 540 496 328 451 141 455 
139 132 200 70 524 47 81 424 476 
469 96 71 111 416 110 457 426 468 
459 441 333 283 315 449 275 20 33 
161 40 60 531 135 384 193 418 395 
541 346 501 43 415 171 326 307 276 
86 396 235 564 237 435 475 499 544 
299 30 228 185 138 306 173 311 295 
401 348 163 421 125 101 207 218 19 
44 314 365 438 381 367 226 57 536 
555 425 494 58 289 168 37 92 480 
319 217 530 53 351 358 14 394 355 
169 121 151 538 363 561 369 490 350 
62 323 26 407 460 41 190 466 444 
2 211 383 456 265 318 532 264 446 
478 115 29 13 25 131 553 128 448 
512 467 85 430 526 327 378 419 65 
338 221 379 304 382 354 296 102 273 
549 260 523 216 545 560 220 308 320 
205 450 527 52 202 126 140 270 340 
505 94 6 137 262 201 428 488 472 
334 31 504 104 39 461 100 90 465 
162 224 385 197 183 152 408 510 82 
537 157 194 288 261 439 56 280 68 
222 266 325 21 5 462 356 34 1 
83 297 286 189 343 493 391 73 520 
495 429 404 521 292 414 229 77 118 
105 473 294 309 301 97 347 239 398 
483 506 515 181 434 186 107 566 374 
88 45 349 11 312 291 279 533 108 
49 209 562 373 445 502 452 124 223 
342 411 332 300 556 359 212 313 233 
485 339 191 95 84 98 254 400 551 
147 458 67 321 509 204 149 0 464 
36 528 322 386 412 236 518 514 376 
27 142 517 72 519 508 550 80 336 
12 150 244 491 51 4 3 516 10 
405 9 64 167 146 362 99 497 258 
42 344 389 134 522 535 219 153 489 
247 481 454 387 290 554 89 272 513 
453 559 440 298 103 337 413 432 206 
79 182 241 227 284 422 74 18 106 
188 267 364 238 113 116 164 50 547 
170 563 471 470 179 357 199 503 243 
232 231 119 484 392 463 546 548 8 
55 263 143 316 324 93 15 255 268 
66 507 403 130 195 380 498 22 443 
377 155 48 24 242 240 486 192 158 
474 370 196 54 388 274 253 482 257 
174 353 282 371 180 529 230 214 375 
160 565 341 302 417 112 285 352 59 
287 372 175 248 492 177 114 117 145 
249 427 35 127 317 215 16 366 390 
477 423 245 479 277 75 410 557 360 
442 250 433 345 109 534 271 234 123 
525 28 148 420 310 269 91 198 329 
144 368 409 437 399 487 87 154 539 
393 361 166 225 122 165 278 120 281 
187 558 305 335 69 61 208 63 511 
176 246 172 32 178 436 251 159 38 
303 431 213 7 542 184 46 543 78 

FIELD FieldData 7
r 3 567 double
-0.0461871 -0.0461356 -0.0428339 -0.0366861 -0.0464514 -0.0459951 -0.0160273 -0.0443229 -0.0450588 
-0.00873183 -0.040064 -0.0459454 -0.00438842 -0.0462982 -0.0440707 0.00643038 -0.0460522 -0.0463815 
0.0102056 -0.0414572 -0.0400358 0.0163539 -0.0434316 -0.0464665 0.0259164 -0.0452306 -0.0461569 
0.0352255 -0.0447908 -0.0456299 0.0431446 -0.0452338 -0.0458196 -0.0443081 -0.0314079 -0.0456674 
-0.0454062 -0.0389055 -0.040101 -0.0348343 -0.03451 -0.0432927 -0.0395091 -0.0396556 -0.0463754 
-0.02316 -0.0376528 -0.0451335 -0.0156043 -0.032961 -0.0447049 -0.00233051 -0.0342377 -0.0459364 
0.00519343 -0.0389532 -0.045287 0.00787619 -0.0309414 -0.0457675 0.0136171 -0.0311613 -0.0416041 
0.0199845 -0.0325738 -0.0460123 0.0252191 -0.039235 -0.0415058 0.0323099 -0.0381557 -0.0462906 
0.0394785 -0.0307099 -0.0452169 0.0311697 -0.0305915 -0.0458589 0.0456493 -0.0363668 -0.0447775 
-0.0382539 -0.0236516 -0.0448709 -0.0291358 -0.0296566 -0.0442431 -0.0220551 -0.0279156 -0.0438817 
-0.0290919 -0.0220849 -0.0431913 -0.0176976 -0.0219642 -0.0462138 -0.00892789 -0.0273804 -0.0437247 
0.00283214 -0.0253117 -0.0451139 0.0137104 -0.0257578 -0.0463491 0.0171799 -0.0221514 -0.0400102 
0.0217136 -0.0226597 -0.0459336 -0.0440316 -0.011183 -0.0425146 -0.0464959 -0.0178341 -0.0450781 
-0.0377095 -0.0156322 -0.0458703 -0.0247319 -0.0162648 -0.0446997 -0.0177443 -0.0167097 -0.0401916 
-0.0188764 -0.0123885 -0.0462003 -0.00993087 -0.0194689 -0.0457856 -0.00262197 -0.0189533 -0.0423279 
-0.00324693 -0.0116598 -0.0454903 0.00431011 -0.0124154 -0.0436722 0.0100777 -0.0193372 -0.0453854 
0.0379747 -0.0178827 -0.0453761 0.03007 -0.0169921 -0.0460979 0.0446098 -0.0145941 -0.04275 
-0.0429049 -0.00289051 -0.0415744 -0.0383787 -0.00807166 -0.0462731 -0.0286015 -0.00647003 -0.0456479 
-0.0125684 -0.00883425 -0.0440957 -0.0075984 -0.00302732 -0.04609 0.00542412 -0.00336673 -0.044626 
0.0142841 -0.00980975 -0.0457382 0.0123838 -0.00182382 -0.0453947 0.023078 -0.00946527 -0.0441064 
0.0289963 -0.00223288 -0.0412248 0.0204179 -0.00300959 -0.0446925 0.0310513 -0.00879536 -0.0456364 
0.037485 -0.0014876 -0.0461671 0.0460355 -0.00142451 -0.0447863 0.0421133 -0.00711112 -0.0410088 
-0.0435061 0.0033683 -0.0408735 -0.0373881 0.00483559 -0.0463269 -0.0273094 0.00256143 -0.046174 
-0.0180825 0.0097649 -0.0442672 -0.0171256 0.00299883 -0.0419959 -0.00932263 0.0017936 -0.0405071 
-0.00695468 0.00870407 -0.0402352 -0.00388371 0.00313207 -0.0463015 0.00066774 0.0091542 -0.0448632 
0.00970329 0.00826657 -0.0457985 0.017899 0.00385615 -0.0461894 0.0282055 0.0061821 -0.0460844 
0.0364201 0.00858735 -0.0454607 0.0352516 0.00305624 -0.0406966 0.0446648 0.00594548 -0.0461574 
-0.0451084 0.0194818 -0.0401358 -0.0449643 0.0152541 -0.0462713 -0.0368807 0.0120605 -0.0456957 
-0.0285896 0.0101501 -0.046162 -0.0193596 0.0193355 -0.0420364 -0.0113099 0.0125746 -0.0454817 
-0.00667527 0.0184795 -0.0402154 -0.0033031 0.0164696 -0.0462403 0.0052577 0.0171448 -0.0457283 
0.0160538 0.0122954 -0.0438803 0.0194083 0.0186671 -0.0413598 0.0235056 0.012018 -0.0440741 
0.0295851 0.0172949 -0.0462149 0.0464883 0.0176805 -0.0459881 -0.0443106 0.024528 -0.0465771 
-0.0372573 0.0290113 -0.0455122 -0.0381256 0.0227783 -0.0411464 -0.0254999 0.0209555 -0.0448853 
-0.0106787 0.0281155 -0.0463222 -0.0125583 0.0201311 -0.0445928 -0.0194018 0.02669 -0.0441624 
-0.00436653 0.0290187 -0.0421136 0.00157538 0.027799 -0.0462975 0.0123831 0.0207246 -0.0459155 
0.0183162 0.0286181 -0.0458695 0.0253914 0.0252098 -0.0418311 0.0330077 0.0239069 -0.045845 
0.0390975 0.028882 -0.0436978 0.0463015 0.0262167 -0.0455678 0.0413381 0.0216044 -0.0413946 
-0.0449795 0.032246 -0.0461792 -0.0331181 0.0377056 -0.0436079 -0.0387428 0.0356083 -0.0403025 
-0.0269264 0.0312497 -0.0459555 -0.0258769 0.0392709 -0.0464764 -0.0164785 0.0337994 -0.0455498 
-0.000206352 0.0348462 -0.0463136 -0.00991604 0.0389386 -0.0419854 0.00635266 0.0380572 -0.0431291 
0.0101079 0.0308613 -0.0431543 0.0156448 0.0371777 -0.0438118 0.0293886 0.0329409 -0.0465642 
0.0394412 0.0380802 -0.0424358 0.0459587 0.0361226 -0.040158 -0.0403328 0.0434736 -0.0416666 
-0.0461555 0.045538 -0.0453785 -0.0344508 0.0462708 -0.0456025 -0.0214464 0.0460459 -0.0427188 
-0.0137071 0.0463958 -0.0459011 -0.00450403 0.0448966 -0.0461461 0.00954673 0.0437516 -0.046149 
0.0027469 0.0462389 -0.0438489 0.0176241 0.0456385 -0.043549 0.0260876 0.0449142 -0.0456601 
0.0347701 0.045612 -0.0462538 0.0451395 0.0456842 -0.043894 -0.044349 -0.0464624 -0.0348038 
-0.0316687 -0.0464854 -0.0392917 -0.0384651 -0.0423485 -0.0395573 -0.0224637 -0.0461893 -0.0388692 
-0.0266466 -0.0437046 -0.0326697 -0.0267753 -0.0404191 -0.0396545 -0.0127932 -0.0463193 -0.0310271 
-0.0188755 -0.0417561 -0.0303463 -0.0139341 -0.045221 -0.0384437 -0.00387221 -0.0450959 -0.0358344 
0.00406002 -0.0456413 -0.0380446 0.0135461 -0.0451164 -0.0345824 0.0212857 -0.0461014 -0.0368878 
0.0313735 -0.0448842 -0.0348148 0.0402699 -0.0461751 -0.0353241 0.0452796 -0.0425649 -0.0311631 
0.0458824 -0.0435737 -0.039814 -0.0460735 -0.0318941 -0.0367858 -0.0455951 -0.0384207 -0.0322943 
-0.0321575 -0.0371269 -0.0362974 -0.0385786 -0.0335378 -0.0336294 -0.0244477 -0.0320763 -0.0373622 
-0.0149111 -0.0317393 -0.0300323 -0.0117018 -0.0380747 -0.0334027 -0.0180597 -0.0390348 -0.0387686 
-0.0124523 -0.0316154 -0.037933 -0.00454456 -0.038259 -0.0385689 0.00312784 -0.0357933 -0.0370923 
0.0160767 -0.038282 -0.0364606 0.0123365 -0.0326451 -0.0316659 0.0224507 -0.0341562 -0.03499 
0.0314582 -0.0356822 -0.0377531 0.0389486 -0.037924 -0.0389947 0.0462512 -0.0347413 -0.0348012 
-0.0422639 -0.0261649 -0.032068 -0.0401572 -0.0293354 -0.0398632 -0.0353634 -0.021237 -0.0330673 
-0.0320526 -0.0291958 -0.0350174 -0.0242146 -0.0212602 -0.0357195 -0.0180462 -0.0256617 -0.0342877 
-0.0108726 -0.0207262 -0.0309385 -0.00141046 -0.020429 -0.0323132 -0.00446683 -0.0293925 -0.0334058 
0.0059953 -0.0206883 -0.0372698 0.00338875 -0.0283332 -0.0384317 0.0104857 -0.0252164 -0.031777 
0.0223664 -0.023917 -0.0339096 0.0255499 -0.0288595 -0.039613 0.034882 -0.0200673 -0.0368608 
0.0338257 -0.0270717 -0.0387878 0.0397354 -0.0266512 -0.032495 0.0306674 -0.0254526 -0.0324073 
0.0450736 -0.0281269 -0.0393841 0.0429794 -0.021021 -0.0393728 -0.0460764 -0.0166778 -0.0370925 
-0.0382044 -0.0145021 -0.0366103 -0.0302978 -0.0168765 -0.037663 -0.022433 -0.0102138 -0.0392821 
-0.0114342 -0.0149847 -0.0358762 -0.00684239 -0.0106092 -0.0308736 -0.00248544 -0.011371 -0.0370908 
0.00946369 -0.0173468 -0.031181 0.00262084 -0.0130521 -0.0302784 0.0190033 -0.0100033 -0.033249 
0.0194618 -0.0134412 -0.0397215 0.0112122 -0.015189 -0.0393783 0.0248831 -0.0190433 -0.0393249 
0.0316368 -0.0132855 -0.038385 0.0365194 -0.0129388 -0.0330083 0.0461641 -0.0124162 -0.0352886 
-0.0460597 -0.00949439 -0.031007 -0.0314232 -0.00172487 -0.0312288 -0.0318547 -0.00905832 -0.0380943 
-0.0398864 -0.00615136 -0.0337812 -0.0253925 -0.00579909 -0.0316726 -0.0273321 -0.00302513 -0.0392482 
-0.0168783 -0.00420659 -0.0393789 -0.00945235 -0.00494207 -0.0342772 0.00233728 -0.00472335 -0.0352242 
0.00804658 -0.00902494 -0.0377648 0.0112482 -0.00231358 -0.0313835 0.0144747 -0.00489041 -0.0384753 
0.0199083 -0.00283496 -0.0352991 0.028483 -0.00555092 -0.0326545 0.0351212 -0.00652154 -0.0381952 
0.044212 -0.0061018 -0.0326031 0.0423856 -5.62705e-05 -0.0379968 -0.0441422 0.00476052 -0.0304856 
-0.0316709 0.00698458 -0.0395107 -0.0361143 0.0014464 -0.0367731 -0.0310967 0.00612079 -0.0310132 
-0.0210735 0.00264553 -0.0300269 -0.0239205 0.00547736 -0.0385736 -0.0140202 0.00263357 -0.0348866 
-0.00161874 0.00938733 -0.0326021 -0.000963021 0.00214384 -0.0373087 0.00520469 0.00614358 -0.0397653 
0.0123265 0.00161028 -0.0385373 0.0177883 0.00724989 -0.0371382 0.02629 0.00234855 -0.035887 
0.0339656 0.00853958 -0.0316109 0.0384184 0.00085247 -0.0321597 0.0449616 0.00255546 -0.0314501 
-0.044697 0.0106406 -0.0364037 -0.0399501 0.0196653 -0.0332045 -0.0354816 0.0111603 -0.0337843 
-0.0266889 0.013239 -0.0375617 -0.0135718 0.0180849 -0.0365118 -0.0194215 0.0134849 -0.0326783 
-0.013081 0.0109143 -0.0367451 -0.00501522 0.0189208 -0.0302451 0.00268803 0.0163696 -0.0314537 
0.00773036 0.0196059 -0.0393752 0.00371373 0.0138624 -0.039124 0.00959097 0.0121366 -0.0345248 
0.0291729 0.0144598 -0.0372722 0.0213886 0.0142498 -0.0361092 0.0257094 0.0171301 -0.030145 
0.0368604 0.012268 -0.0393398 0.0414563 0.0143494 -0.0327537 0.0463112 0.0123167 -0.0394259 
-0.046475 0.0289851 -0.0379208 -0.0325497 0.0289133 -0.0393028 -0.0337732 0.0255543 -0.031942 
-0.0311952 0.021395 -0.0379724 -0.0395808 0.0292767 -0.0361712 -0.0224877 0.0230715 -0.0347914 
-0.0249555 0.0299137 -0.0386684 -0.0252381 0.0294168 -0.0309099 -0.0132963 0.0286095 -0.0395808 
-0.0119515 0.0252258 -0.031816 -0.0040623 0.0255915 -0.034205 0.00283279 0.0298268 -0.0397397 
0.00141982 0.0221737 -0.0376498 0.0109866 0.0259454 -0.032104 0.0127373 0.0254811 -0.0398332 
0.022474 0.0277525 -0.0320166 0.0280716 0.0241254 -0.034613 0.0349568 0.0265806 -0.0310029 
0.035026 0.0202551 -0.038023 0.0451985 0.0211983 -0.0309858 -0.0460105 0.0386437 -0.0324296 
-0.0461659 0.0385256 -0.0399948 -0.0346567 0.0338532 -0.0323732 -0.0386486 0.0398992 -0.0336173 
-0.0264177 0.0374188 -0.0382219 -0.022547 0.0392123 -0.0323224 -0.0144814 0.036944 -0.0306247 
-0.0190132 0.0339836 -0.0385774 -0.00315586 0.0359592 -0.0389924 -0.0058666 0.0398144 -0.0315441 
-0.00932225 0.0338726 -0.034868 0.00721604 0.0368887 -0.0359182 0.015371 0.035331 -0.0355135 
0.0194111 0.0310428 -0.0387976 0.0266099 0.0339212 -0.0331822 0.0363482 0.0316034 -0.0350749 
0.0318495 0.0371016 -0.0398097 -0.0457245 0.0455963 -0.0360394 -0.0324734 0.0439221 -0.0386303 
-0.0214917 0.0465049 -0.0335391 -0.0152284 0.0428184 -0.0354001 -0.00526075 0.0454036 -0.037988 
0.00128181 0.0415392 -0.0340243 0.010419 0.043853 -0.0386692 0.0141528 0.0443163 -0.0318244 
0.0208627 0.0407234 -0.0336957 0.0305246 0.046158 -0.0361301 0.0362827 0.0461028 -0.0316299 
0.0393567 0.0461995 -0.0384576 0.0458847 0.043385 -0.0361666 -0.0454333 -0.0453884 -0.0278135 
-0.0394045 -0.041019 -0.0213555 -0.0384914 -0.0443491 -0.0296191 -0.0311223 -0.0464515 -0.02611 
-0.0225872 -0.0411951 -0.0225918 -0.013298 -0.0460819 -0.023719 -0.000853027 -0.0453919 -0.0247244 
0.0134016 -0.0455936 -0.0245373 0.0193546 -0.0415333 -0.0248876 0.0260062 -0.0407749 -0.0282784 
0.0325756 -0.0459103 -0.0240741 -0.0450442 -0.0316862 -0.0254107 -0.0353774 -0.0355518 -0.0270064 
-0.0205245 -0.0336083 -0.0255835 -0.0112371 -0.0346366 -0.0216522 -0.00505364 -0.0379977 -0.024427 
0.00970731 -0.0386104 -0.0280293 0.00229191 -0.0393537 -0.0289218 0.0205684 -0.0342384 -0.0256163 
0.0301997 -0.0330238 -0.0295628 0.0358419 -0.0301882 -0.0249984 0.0346433 -0.0377622 -0.0214079 
0.0402608 -0.0354312 -0.0298208 0.045963 -0.0360889 -0.023501 -0.0454382 -0.0240072 -0.0252742 
-0.0294877 -0.0261972 -0.0291627 -0.00585994 -0.0294006 -0.0231311 0.00272537 -0.0252863 -0.0204671 
0.0122011 -0.0285663 -0.023509 0.0147268 -0.022194 -0.0260351 0.0235566 -0.0202632 -0.0280223 
0.0460583 -0.0222415 -0.0269677 -0.0436993 -0.0183547 -0.0297802 -0.0322074 -0.0125211 -0.0291163 
-0.0386538 -0.0153945 -0.0241935 -0.0233055 -0.0152 -0.0298793 -0.0113805 -0.0182039 -0.0234252 
-0.018884 -0.0125096 -0.023559 -0.00172414 -0.0170401 -0.0211962 0.00325841 -0.0195682 -0.0267336 
0.00850169 -0.0121042 -0.025489 0.0176674 -0.0134785 -0.0248616 0.0136046 -0.0178711 -0.020097 
0.0272859 -0.0167653 -0.021783 0.0310521 -0.0151184 -0.0288191 0.0390114 -0.0155078 -0.0228176 
-0.0458137 -0.0010881 -0.0253381 -0.0368251 -0.00792392 -0.0253893 -0.0325321 -0.0012986 -0.0237851 
-0.0143818 -0.00704037 -0.0224037 -0.0118695 -0.00160024 -0.0288951 -0.0149381 -0.00921039 -0.0293911 
-0.00375974 -0.00980793 -0.0215897 0.0177722 -0.00171053 -0.0275334 0.0243184 -0.007453 -0.024961 
0.020466 -0.00185492 -0.0212542 0.0328384 -0.00873619 -0.0201258 0.0349692 -0.00228295 -0.0243424 
0.0435825 -0.00718281 -0.0251087 -0.0390047 0.00512111 -0.0253852 -0.03166 0.00775865 -0.0237092 
-0.0235937 0.00988009 -0.0256015 -0.0103316 0.00744316 -0.0256559 -0.0172454 0.00989362 -0.021265 
-0.00481224 0.00219155 -0.0288103 -0.00179122 0.00980249 -0.0223635 0.00635109 0.00719603 -0.0292985 
0.00206868 0.00033567 -0.023839 0.0175194 0.00596598 -0.0286773 0.0269212 0.00870254 -0.0279204 
0.0291097 0.00106925 -0.0284246 0.0390314 0.00979469 -0.0226759 -0.0434459 0.0148076 -0.0259266 
-0.0395308 0.010805 -0.0207534 -0.0309483 0.0169408 -0.0283034 -0.0211239 0.0166477 -0.0216521 
-0.0135267 0.0153654 -0.0275085 0.006395 0.0126112 -0.0241049 0.015127 0.0156362 -0.0273502 
0.046339 0.0100543 -0.0274192 -0.0458113 0.0245265 -0.0295414 -0.041013 0.0218884 -0.0244112 
-0.0271175 0.0241711 -0.0250392 -0.011853 0.0262925 -0.0229558 -0.0173898 0.0221478 -0.0268035 
-0.00468469 0.0262612 -0.0272687 0.00775147 0.0201116 -0.0262261 0.00181381 0.0251197 -0.023138 
0.0092897 0.0296054 -0.0248491 0.0262914 0.0221878 -0.0235136 0.0451114 0.0270096 -0.0255689 
-0.0421496 0.0323412 -0.0262874 -0.0342045 0.0372207 -0.0250177 -0.0258508 0.0362118 -0.0269048 
-0.0187762 0.0376405 -0.0211896 -0.00824323 0.0335488 -0.0281409 0.00760895 0.0348854 -0.029254 
0.00546577 0.0363982 -0.0208613 0.0122371 0.0387978 -0.0219257 0.0167485 0.0325619 -0.0285284 
0.0311839 0.036066 -0.0282626 0.0446834 0.0350249 -0.0293861 -0.0457522 0.0456477 -0.0286595 
-0.0456475 0.0402108 -0.0227263 -0.0365899 0.0454067 -0.0281573 -0.0253117 0.0419617 -0.0220746 
-0.0292382 0.0457215 -0.0292395 -0.0100845 0.0460033 -0.0298445 -0.00247427 0.0451159 -0.0249948 
0.00567338 0.042945 -0.0273044 0.0289016 0.0408667 -0.0209326 0.0295737 0.0468791 -0.0259364 
0.0235311 0.0411736 -0.0272092 0.0422856 0.0460688 -0.0257459 -0.0322492 -0.0458799 -0.0161848 
-0.023576 -0.0430703 -0.0160595 0.00900891 -0.044272 -0.0182956 0.000167962 -0.0401369 -0.0195854 
0.0229288 -0.040048 -0.0171086 0.0438644 -0.0432671 -0.0185548 -0.0398308 -0.0330222 -0.0196724 
0.00745272 -0.0321134 -0.0180388 0.0157963 -0.0393743 -0.0185914 0.0221504 -0.0337815 -0.0101915 
-0.0363344 -0.027599 -0.014303 -0.0359067 -0.0200721 -0.0133113 -0.0262725 -0.0242666 -0.0129797 
-0.020494 -0.0207598 -0.01929 -0.00841762 -0.0251102 -0.0109796 0.0226312 -0.022134 -0.0114571 
0.022857 -0.0249964 -0.019934 0.0326511 -0.022049 -0.0177046 -0.0316411 -0.0135347 -0.0197421 
0.00647161 -0.0182524 -0.0167896 0.0186384 -0.0134875 -0.0110525 0.0412326 -0.018686 -0.0114305 
-0.0386572 -0.000239914 -0.0158269 -0.0235257 -0.00190267 -0.0161657 -0.0105693 -0.00527004 -0.0165938 
0.0126219 -0.000883001 -0.0133683 0.0426162 -0.0055193 -0.0113767 -0.0448926 0.00521495 -0.011751 
-0.0326676 0.00818423 -0.0119924 -0.0227444 0.0075551 -0.0115919 -0.00885659 0.00444283 -0.0100007 
-0.00232274 0.00157737 -0.0153486 -0.00899811 0.00153377 -0.0197417 0.013677 0.00900551 -0.0125079 
0.0242798 0.00296759 -0.0166487 0.0368247 0.000691996 -0.0159852 -0.0382158 0.015995 -0.0122924 
-0.0275746 0.0127389 -0.0189138 -0.0139836 0.019546 -0.0196497 -0.00871057 0.0113782 -0.014321 
0.00340555 0.0151981 -0.017439 0.0123358 0.0185254 -0.0111836 0.0453719 0.0126094 -0.019417 
-0.0375182 0.0292945 -0.0197937 -0.0171782 0.0298234 -0.0109978 -0.0192344 0.0205232 -0.0138867 
-0.00536539 0.0247419 -0.0143979 0.00537143 0.0226353 -0.0146939 0.0179732 0.0262217 -0.0199893 
0.0369859 0.0279056 -0.0168146 0.0432201 0.020848 -0.0133603 -0.0447173 0.0362093 -0.0150269 
-0.0272512 0.039628 -0.0147103 0.00814277 0.0305044 -0.0150843 0.000402991 0.0310286 -0.0163673 
0.0179454 0.0364222 -0.0163578 0.0264732 0.0301699 -0.0195439 -0.0321952 0.0435501 -0.0194467 
-0.00942612 0.0421946 -0.0137252 0.00542597 0.0424664 -0.0130346 0.0386924 0.0414748 -0.0186944 
-0.0460077 -0.038646 -0.00986086 -0.0316089 -0.0375501 -0.00388205 0.0166222 -0.0306677 -0.00348899 
-0.0445743 -0.0200492 -0.00980924 -0.0427035 -0.0295952 -0.00977997 0.000974968 -0.0240287 -0.00182095 
0.0111782 -0.0225667 -0.00842293 0.0288652 -0.0265379 -0.00560895 0.0444443 -0.0285963 -0.00538162 
-0.0450592 -0.0103596 -0.00413204 -0.00022464 -0.0113251 -0.00926275 -0.0084068 -0.0183328 -0.0012989 
0.0310049 -0.014994 -0.0030364 -0.0192803 -0.00866634 -0.00378751 -0.009105 -0.000573579 -1.572e-05 
-0.00347964 -0.00202708 -0.00736784 -0.00786262 -0.00933927 -0.00974004 0.026547 -0.00855836 -0.00390887 
0.0435731 0.00254808 -0.00900672 0.0435592 0.0085494 -0.000511161 -0.024027 0.0119122 -0.00316814 
0.00325462 0.0119664 -0.00723937 0.0364726 0.0118197 -0.00358079 -0.0450682 0.0244859 -0.0092979 
-0.0262003 0.0297812 -0.00163561 0.00407966 0.0253561 -0.00362279 0.013149 0.0254769 -0.000585086 
0.0408954 0.0239432 -0.00562887 -0.038014 0.0310749 -0.0095075 0.0260392 0.0387833 -0.0015331 
0.0301237 0.0323867 -0.000552686 -0.041322 0.0428316 -0.000842813 -0.00289961 0.0450331 -0.00865006 
0.0241581 0.0443229 -0.00786902 0.0417567 0.0439032 -0.00704718 -0.0440131 -0.0303038 0.00135622 
-0.0372197 -0.0384136 0.00875711 -0.018952 -0.0328788 0.00145208 -0.00480311 -0.0375758 0.00401091 
0.012132 -0.0260755 0.00492807 0.0192792 -0.0222713 0.00556788 0.035056 -0.0282623 0.00123204 
-0.0370516 -0.018363 0.000769722 -0.0201143 -0.0134678 0.00441572 -0.00115013 -0.0155645 0.000539476 
0.0036809 -0.00818598 1.83132e-05 0.00375291 -0.00193451 0.00815949 0.0219941 -0.00982906 0.00214285 
0.0420755 -0.00922602 0.00840327 0.00951293 0.00956765 0.00968315 0.0168567 0.0186196 0.00304959 
0.0227568 0.0168511 0.00781162 -0.0344892 0.0222453 0.00441917 -0.011757 0.0292271 0.00144119 
-0.00398969 0.0229829 0.00197712 -0.0277591 0.0342792 0.00995081 -0.03008 0.0440208 0.0013628 
0.0174272 0.0426799 0.00541446 0.027182 0.0445679 0.00415971 0.0451552 -0.0379952 0.0149551 
-0.0400092 -0.0168343 0.0100213 -0.028848 -0.0178819 0.017333 -0.0275976 -0.00451773 0.0149125 
0.0162124 -0.00929916 0.0107619 -0.0135357 0.00185402 0.0147338 0.0443937 0.00260545 0.0131642 
-0.0461109 0.0104577 0.0125749 -0.00364116 0.013425 0.012472 0.0126677 0.0196273 0.0152081 
-0.044596 0.0286794 0.0108167 -0.00074556 0.0355525 0.0130015 -0.00858705 0.0342042 0.0189594 
0.00334446 0.0303556 0.019474 -0.0445959 0.0439365 0.019611 -0.028736 0.0419153 0.0136449 
0.00559103 0.0437079 0.0148268 -0.0224881 -0.0367408 0.0282851 -0.0235233 -0.024624 0.0206302 
-0.0156692 -0.025176 0.0228562 0.0425965 -0.020172 0.0210416 -0.0381566 -0.0119203 0.0211496 
-0.0420247 0.009943 0.0270061 0.0297142 0.0290301 0.0229301 0.011949 0.0336228 0.0289011 

gid 1 567 double
0 0 0 0 0 0 0 0 0 
0 0 0 0 0 0 0 0 0 
0 0 0 0 0 0 0 0 0 
0 0 0 0 0 0 0 0 0 
0 0 0 0 0 0 0 0 0 
0 0 0 0 0 0 0 0 0 
0 0 0 0 0 0 0 0 0 
0 0 0 0 0 0 0 0 0 
0 0 0 0 0 0 0 0 0 
0 0 0 0 0 0 0 0 0 
0 0 0 0 0 0 0 0 0 
0 0 0 0 0 0 0 0 0 
0 0 0 0 0 0 0 0 0 
0 0 0 0 0 0 0 0 0 
0 0 0 0 0 0 0 0 0 
0 0 0 0 0 0 0 0 0 
0 0 0 0 0 0 0 0 0 
0 0 0 0 0 0 0 0 0 
0 0 0 0 0 0 0 0 0 
0 0 0 0 0 0 0 0 0 
0 0 0 0 0 0 0 0 0 
0 0 0 0 0 0 0 0 0 
0 0 0 0 0 0 0 0 0 
0 0 0 0 0 0 0 0 0 
0 0 0 0 0 0 0 0 0 
0 0 0 0 0 0 0 0 0 
0 0 0 0 0 0 0 0 0 
0 0 0 0 0 0 0 0 0 
0 0 0 0 0 0 0 0 0 
0 0 0 0 0 0 0 0 0 
0 0 0 0 0 0 0 0 0 
0 0 0 0 0 0 0 0 0 
0 0 0 0 0 0 0 0 0 
0 0 0 0 0 0 0 0 0 
0 0 0 0 0 0 0 0 0 
0 0 0 0 0 0 0 0 0 
0 0 0 0 0 0 0 0 0 
0 0 0 0 0 0 0 0 0 
0 0 0 0 0 0 0 0 0 
0 0 0 0 0 0 0 0 0 
0 0 0 0 0 0 0 0 0 
0 0 0 0 0 0 0 0 0 
0 0 0 0 0 0 0 0 0 
0 0 0 0 0 0 0 0 0 
0 0 0 0 0 0 0 0 0 
0 0 0 0 0 0 0 0 0 
0 0 0 0 0 0 0 0 0 
0 0 0 0 0 0 0 0 0 
0 0 0 0 0 0 0 0 0 
0 0 0 0 0 0 0 0 0 
0 0 0 0 0 0 0 0 0 
0 0 0 0 0 0 0 0 0 
0 0 0 0 0 0 0 0 0 
0 0 0 0 0 0 0 0 0 
0 0 0 0 0 0 0 0 0 
0 0 0 0 0 0 0 0 0 
0 0 0 0 0 0 0 0 0 
0 0 0 0 0 0 0 0 0 
0 0 0 0 0 0 0 0 0 
0 0 0 0 0 0 0 0 0 
0 0 0 0 0 0 0 0 0 
0 0 0 0 0 0 0 0 0 
0 0 0 0 0 0 0 0 0 

a 3 567 double
801.659 0.492982 -16.0601 352.354 384.142 -315.605 -176.553 120.371 -1002.43 
0 0 8.53772 0 650.69 0 50.9592 -590.077 1056.47 
231.276 432.278 -402.355 0 0 1139.86 -0.271814 -98.8887 -21.0055 
-187.23 -239.301 33.6257 28.2565 -10.8582 -20.1218 -119.402 -60.489 -121.606 
32.5984 -326.486 -255.633 92.7371 125.179 80.7445 -669.949 643.092 -875.617 
188.637 105.308 -280.999 -130.264 -26.1304 -335.648 0 0 0 
-189.392 738.489 -96.4788 -362.892 -83.7409 -416.996 403.889 -432.203 644.462 
52.3673 -7.03473 88.733 0.271814 98.8887 64.5281 -101.193 103.168 1140.09 
0 0 0 -3.27539 98.8681 248.016 0 0 0 
59.8371 65.3809 -222.59 -819.921 -682.225 -98.9408 855.489 116.809 -30.7047 
-76.1945 327.707 39.624 23.3323 19.7668 376.494 0 0 0 
-105.387 222.879 -185.047 313.711 -334.132 646.221 -25.6211 10.1805 -24.4871 
0 0 556.455 -286.337 -119.282 284.941 403.85 -53.2147 -19.6951 
-14.4263 193.287 -33.5502 -567.621 -394.914 371.662 74.2242 -235.742 176.409 
721.551 758.141 99.0276 -56.6874 -10.0364 -19.6073 51.2491 7.61528 19.163 
0 0 0 -125.544 -214.941 -281.939 -294.869 584.577 -99.9643 
-432.48 -179.536 -96.0931 0.991632 0.0258141 598.166 638.089 739.837 -231.621 
-82.0702 -1017.17 -39.1022 297.701 176.192 312.315 -78.2439 -314.279 -452.774 
-382.98 -634.34 -10.9081 368.246 162.166 -206.894 -345.924 -93.6258 80.0699 
0 0 0 -123.304 34.618 -490.316 992.185 -118.261 -603.289 
164.457 -335.757 -496.364 88.1949 45.7101 -73.9859 0 0 -23.7331 
133.605 -144.8 253.496 -614.575 -12.2738 -86.4397 -65.714 -217.704 51.431 
89.8162 1016.16 32.5746 -7.74604 1.01089 1044.02 0.481902 -20.0205 2.1477 
-746.434 -21.4014 138.803 -311.353 -44.6935 -133.398 97.8928 -702.367 -299.579 
1081.76 532.918 -103.92 -84.3641 -258.438 944.223 140.597 565.551 20.2084 
18.4786 -103.124 -352.835 3.05844 566.093 -2.46239 186.439 -166.321 -74.4517 
299.695 -592.975 -2214.11 -350.977 -423.35 756.165 -37.2217 110.695 -6.96194 
-19.456 159.916 339.717 -26.4791 -169.545 391.731 0 0 0 
-0.481902 20.0205 314.218 614.9 -1353.37 807.834 751.629 228.013 -243.758 
151.603 -61.0809 411.308 165.204 -54.4358 550.319 -356.742 -272.739 -1122.53 
-134.361 136.889 -37.1633 -146.236 905.146 -865.52 97.1362 125.605 113.172 
-216.461 -425.554 35.7339 -853.48 0 62.0444 41.3983 -107.81 427.816 
-23.711 106.679 -154.553 -263.454 -59.2627 17.7464 -1186 457.187 -476.567 
-10.0864 -69.0432 86.0624 214.879 428.665 -337.715 72.0047 766.192 -172.139 
-435.518 27.8535 -30.9326 229.458 -323.761 270.091 32.7754 -117.532 -274.141 
-85.4583 -49.6286 -368.362 -16.5616 5.79356 -68.3641 221.305 424.046 -38.4497 
-507.735 455.645 25.5113 444.618 -102.809 -227.514 439.769 -229.164 -67.7206 
-29.2478 111.962 47.1433 1043.06 181.498 -378.378 -791.269 -181.852 163.209 
-8.8872 -43.2713 -1.57423 8.8872 43.2713 627.465 282.045 -105.984 -645.942 
3.23558 17.4518 317.796 0 0 0 -678.09 -672.134 180.505 
-363.229 1020.16 -448.719 0 0 0 0 0 2007.33 
-689.472 128.557 -395.722 686.213 -128.557 395.722 493.726 -366.099 425.855 
150.985 340.593 -343.201 112.768 213.054 -697.253 0 0 0 
0 -287.393 -6.42942 -422.011 -16.2523 -189.714 697.696 702.396 -742.515 
382.598 38.3131 82.3563 -26.0531 -6.75107 -11.4918 0 0 0 
0 0 752.674 146.187 -23.4362 -178.533 101.915 510.187 -1343.73 
-347.793 -113.304 -16.2984 85.2366 -157.852 1200.97 689.339 -632.883 86.5722 
20.7548 -46.7888 142.688 58.595 764.13 -236.136 199.559 -22.3 -16.1397 
-89.3953 38.5309 17.2902 480.918 -876.461 658.691 7.45962 -39.5962 24.1892 
-448.206 -311.55 83.2828 252.507 -349.518 564.038 41.2745 460.608 -18.3481 
0 0 0 -871.271 -233.243 -453.453 796.623 554.423 503.156 
338.09 84.6493 611.586 197.149 357.415 306.327 15.9356 -50.6223 50.9529 
-557.047 247.308 301.965 -114.914 -0.266224 -188.896 -10.9879 -18.1234 21.3056 
41.0496 30.6301 -15.4372 26.8189 -111.177 107.698 -420.667 769.061 30.804 
134.983 134.763 227.191 -7.45962 39.5962 -24.1892 96.8658 -1137.68 -48.3629 
-381.8 -97.493 -173.403 209.581 19.6041 -284.062 425.333 161.545 157.677 
-68.7921 13.3943 3.74066 68.7921 -13.3943 -3.74066 -26.6396 -70.2481 -20.3562 
-0.89157 2.16733 0.13625 347.63 -15.2709 218.08 0 0 0 
-99.478 -153.545 -465.104 -221.856 65.6531 -10.6386 309.507 -148.877 31.9254 
22.719 -231.035 152.742 -291.629 36.8665 -356.043 0 0 0 
-124.795 -103.918 -134.02 -105.213 1047.31 278.896 -158.268 192.531 -51.6925 
-373.273 -151.198 -49.8713 176.815 -166.887 -246.732 53.1592 125.104 121.534 
170.635 -347.332 -332.734 0 0 0 -176.042 108.337 255.338 
-0.140413 67.3253 -50.7771 -207.606 -560.885 322.792 73.0017 101.833 -272.894 
0 0 0 -104.266 168.425 78.7471 -89.8448 78.8929 100.408 
3.14203 238.835 -139.142 228.317 -516.408 666.834 114.925 -59.7537 -212.233 
127.577 112.297 110.187 -273.954 39.6 -324.228 -60.2705 70.3555 310.481 
-780.903 -359.086 423.352 357.133 -379.745 178.256 371.882 -86.0251 -240.424 
-711.204 -794.492 -556.846 507.03 161.768 324.055 -152.062 -130.749 -66.3113 
-106.978 -46.0094 36.0037 -380.813 -383.394 -554.353 -107.96 -142.475 34.3468 
106.978 46.0094 -36.0037 373.605 -230.448 -114.875 179.041 488.255 413.273 
-135.212 -252.477 216.389 -10.3589 263.711 -1250.53 -544.245 470.153 391.166 
311.403 256.179 -54.6357 -351.327 45.1225 -223.682 -600.436 -1505.55 -768.983 
787.897 296.848 685.176 -29.915 8.66382 32.0494 340.257 831.994 42.5975 
234.325 291.782 -1299.49 122.344 55.6557 -634.73 -56.7687 162.699 -183.51 
78.0317 61.1446 -150.689 -199.338 -228.045 153.698 229.126 290.252 -58.0605 
0 0 0 0 0 0 -240.982 303.28 -10.8145 
-3.58251 -5.84431 -0.184421 0 0 0 -97.9768 -131.401 411.398 
-498.453 967.325 390.26 156.816 227.667 66.3326 -29.8778 463.158 506.673 
59.8635 5.9519 -42.9509 -1232.99 -94.0549 265.014 1096.72 157.682 411.687 
0 0 0 0 0 0 -168.639 228.201 -59.1238 
121.021 163.041 14.4885 -121.326 409.835 123.018 0 0 0 
-639.545 -156.703 179.496 0 0 0 4.22923 21.224 55.9876 
1547.92 375.765 359.164 -790.3 -873.759 294.887 76.5266 16.1219 -1.77057 
55.0593 4.29586 -11.6015 108.674 -858.194 869.856 39.4492 26.1069 42.7677 
-82.3225 1161.13 1693.43 -54.185 20.7737 123.469 -39.6324 -28.0655 -111.112 
712.859 -68.2286 -92.9257 353.616 221.486 -160.764 -31.1762 32.1166 47.8049 
417.146 -369.886 67.9776 -102.253 -226.775 151.209 0 0 0 
-200.915 -796.381 -279.297 46.1394 -388.208 141.912 -103.99 35.4321 537.54 
-2.78683 5.6177 -18.7893 -497.507 344.444 -437.305 341.753 289.349 750.321 
-504.597 -235.353 96.0611 -25.0368 39.1298 202.253 871.641 -361.789 590.353 
-982.297 146.868 430.441 611.037 -463.651 -378.724 49.8192 -374.222 676.057 
-376.653 -123.671 269.723 3.09674 -84.6774 -98.2044 -251.155 -60.5867 584.017 
-247.408 -93.504 -506.773 364.001 -68.2473 244.849 135.226 246.73 -81.1558 
-581.517 330.943 -658.883 950.45 587.78 -88.6137 -398.117 29.1916 594.858 
63.8949 393.956 598.678 68.8087 37.3018 -1.56265 -158.389 -272.767 223.759 
-123.082 1.40434 -1751.99 -107.307 294.125 -1087.27 -761.564 97.937 180.835 
507.517 -337.732 22.5087 -419.54 -104.971 -944.617 172.164 454.476 -524.57 
7.93148 -11.9949 6.48374 -49.8164 54.3239 -541.676 186.829 -4.84162 618.406 
-422.037 -208.999 63.7558 415.793 -140.825 -307.155 -6.35722 -10.6552 115.759 
387.415 96.6117 -214.02 -362.147 -69.8975 -606.947 287.78 103.584 909.776 
383.532 300.425 29.8691 -779.325 -107.33 -617.083 779.325 91.827 617.083 
-630.754 -141.73 -77.5636 336.73 -167.221 256.097 -550.43 351.988 1471.43 
-13.2323 -120.725 -26.7547 448.515 10.5639 -127.703 -3.7306 792.99 3.95864 
267.164 195.922 -850.087 -29.642 5.32969 288.684 -109.589 -384.16 -526.846 
-491.963 -224.568 -8.18399 168.549 -155.464 322.738 329.801 49.6754 -263.311 
0 0 0 5.28208 -424.452 38.031 101.865 -60.427 276.266 
-45.1369 -26.7672 35.3459 -552.913 300.067 396.62 520.178 -284.866 -436.017 
-75.4893 -267.303 278.247 -44.0697 -5.89553 -14.8604 8.45443 322.293 -68.6542 
-103.138 -46.9941 -63.1888 103.138 46.9941 63.1888 0 0 0 
-62.0332 2.92282 71.1333 0 0 0 -98.092 192.008 202.364 
119.837 177.141 458.668 0 0 0 0 0 0 
-1.17663 -0.565326 1.24734 97.8143 -3.29183 -48.2532 -12.9922 76.107 345.574 
-20.648 0 0 199.98 126.915 35.431 372.735 -379.005 -455.085 
-100.379 -270.523 1.81168 0 0 0 0 0 0 
-832.066 -1137.63 -375.866 -46.2475 -29.5791 67.6094 367.038 -152.169 299.409 
276.247 14.6439 298.577 155.488 120.334 -152.299 -157.288 -52.7525 254.349 
-16.1467 92.0666 409.727 -7.72174 -68.9082 -135.429 0 0 0 
-19.4465 -161.767 113.462 -272.355 649.528 453.273 -52.9937 99.2481 768.914 
550.794 1132.39 600.137 -283.911 63.0547 1172.96 103.304 -41.5307 -445.716 
-31.4549 90.6374 14.6761 -145.965 -178.871 -811.164 229.622 -329.23 -309.634 
267.669 462.979 1344.48 0 0 0 0 0 0 
-253.673 -160.474 1370.53 -169.01 -975.089 -754.049 470.327 178.126 184.954 
-217.823 -4.07088 -207.991 -9.11664 9.40035 7.18442 345.63 -239.934 265.149 
12.8486 -7.66227 -7.93096 0 0 0 -108.445 -410.309 -461.632 
0 0 0 0 0 0 -80.8924 122.885 64.485 
18.7743 -128.808 -27.5832 -69.8871 -28.6352 -25.2184 -429.031 -45.8252 -703.604 
126.071 376.939 1268.8 0 0 0 -134.319 230.479 -41.9119 
56.2005 -72.481 3.8668 77.8945 351.364 504.631 0 0 0 
-7.27348 7.29183 -12.357 89.5073 13.3868 -15.946 94.1473 451.531 89.8893 
-2.19075 -5.41069 8.13676 0 0 0 -49.6884 86.0064 -19.1123 
-179.478 -16.5703 404.998 2.43936 32.1391 -11.6336 384.738 -153.145 280.753 
105.984 -241.454 258.702 0 0 0 -3.09674 84.6774 98.2044 
0 0 0 0 0 0 -528.277 -256.051 977.999 
0 0 0 245.751 -137.789 1356.07 125.24 -129.982 1103.91 
-951.567 -334.002 278.179 781.948 414.335 -489.393 0 0 0 
596.118 309.731 904.97 0 0 0 41.0402 54.9928 529.206 
2.17523 -17.1713 22.9495 -410.056 5.90279 157.511 700.479 -248.739 -227.77 
426.32 59.9405 -89.7233 -246.715 162.034 15.6443 0 0 0 
0 0 0 401.533 -110.341 561.554 38.729 -3073.56 -143.998 
-440.262 -33.0087 -417.556 0 -4.66999 0 0 52.6628 0 
-267.164 -195.922 850.087 0 0 0 142.324 368.96 566.243 
53.484 -10.0023 18.0104 0 0 0 13.2323 120.725 26.7547 
1.17663 0.565326 -1.24734 -68.3251 18.0659 -0.598859 0 0 0 
0 0 0 0 0 0 0 0 0 
0 0 0 0 0 0 0 0 0 
0 0 0 0 0 0 0 0 0 
-27.7694 -3.22605 18.5709 0 0 0 0 0 0 
0 0 0 0 0 0 169.546 -126.262 312.369 
0 0 0 0 0 0 0 0 0 
0 0 0 0 0 0 0 0 0 
0 0 0 8.42257 173.028 -90.9246 0 0 0 
0 0 0 0 0 0 0 0 0 
0 0 0 0 0 0 0 0 0 
0 0 0 0 0 0 69.8871 28.6352 25.2184 
0 0 0 0 0 0 0 0 0 
0 0 0 0 0 0 0 0 0 
0 0 0 0 0 0 0 0 0 
0 0 0 67.9708 -11.7765 15.6304 -67.9708 11.7765 -15.6304 
169.619 -80.3333 211.215 0 0 0 -700.479 248.739 227.77 
0 0 0 0 0 0 0 0 0 
123.983 0 0 0 0 0 0 0 0 
0 0 0 0 0 0 0 0 0 
0 0 0 0 0 0 0 0 0 
0 0 0 0 0 0 0 0 0 
11.1392 -13.1122 3.46962 0 0 0 0 0 0 
0 0 0 0 0 0 70.9263 24.02 -95.6028 
0 0 0 0 0 0 0 0 0 
0 0 0 0 0 0 0 0 0 
0 0 0 0 0 0 0 0 0 
0 0 0 0 0 0 -70.9307 142.025 -4.84571 
70.9307 -142.025 4.84571 0 0 0 0 0 0 
0 0 0 0 0 0 0 0 0 
0 0 0 0 0 0 0 0 0 
0 0 0 0 0 0 0 0 0 
0 0 0 0 0 0 0 0 0 
0 0 0 0 0 0 -82.0655 -10.9078 92.1331 
0 0 0 0 0 0 -6.41053 1.01432 -5.32602 
6.41053 -1.01432 5.32602 0 0 0 0 0 0 
0 0 0 0 0 0 0 0 0 
0 0 0 0 0 0 0 0 0 
0 0 0 0 0 0 0 0 0 
0 0 0 0 0 0 0 0 0 
0 0 0 0 0 0 0 0 0 
0 0 0 0 0 0 0 0 0 
0 0 0 0 0 0 0 0 0 
0 0 0 0 0 0 0 0 0 
0 0 0 0 0 0 0 0 0 
0 0 0 0 0 0 0 0 0 

v 3 567 double
0.479994 -0.0623583 -0.702875 -0.12796 0.119121 -0.78356 0.235897 0.0263632 0.540172 
0.644443 0.213667 0.177878 -0.517939 0.118897 0.219179 -0.026905 0.0479361 0.278983 
0.552467 0.730952 -0.447487 -0.512319 0.580552 0.0929552 0.265359 0.183211 -0.225213 
-0.510249 0.447243 0.481724 0.304861 -1.00468 1.21995 0.333785 0.273156 0.118684 
0.648043 -0.614454 0.944064 0.186173 -0.244496 -0.0203715 -0.0765079 0.168265 -0.566632 
-0.663194 0.0306973 0.570188 0.0996466 0.23589 0.471245 -0.0714722 -0.0960512 -0.0948682 
-0.213674 0.0690506 -0.280507 -0.0335181 0.0270291 0.509423 -0.432562 0.687126 0.0632198 
-0.25111 0.426841 0.251585 0.000218995 -0.255538 -0.256042 0.177934 -0.139735 0.472667 
-0.480359 0.0622486 0.482214 -0.473762 -0.532513 0.732052 -0.0471821 -0.489751 0.557256 
0.0382238 0.252774 0.0236949 -0.0936099 -0.508767 -0.256777 0.128938 -0.049068 -0.10459 
-0.0103998 0.304142 -0.230673 -0.829309 0.290997 0.0756499 -1.24305 -0.16769 -0.120639 
0.0159706 -0.0715924 -0.592838 -0.22177 0.147937 0.283746 -0.0316795 -0.384578 -0.304753 
-0.390275 1.46245 0.843428 0.109057 -0.0409104 -0.292521 -0.517905 0.904736 -0.123492 
0.786741 1.20741 0.213428 -0.278436 -0.000569466 -0.656411 0.0700712 -0.240168 0.190601 
0.613369 -0.219207 0.461428 -0.388466 0.290399 -0.105698 0.0564159 0.196347 0.264346 
0.00614784 -0.00586155 0.346467 -0.350889 0.632967 0.102394 -0.900399 0.456184 -0.0143785 
-0.0512078 -0.815275 -0.260346 -0.106917 0.026656 0.515423 0.344787 -0.0776297 0.661378 
0.913346 0.370301 0.518399 0.40626 0.033274 0.129626 0.0287041 0.108446 0.402429 
-0.452275 -0.543134 0.540341 0.395412 0.516357 -0.13829 -0.0710333 -0.493715 0.038758 
-0.711182 0.323498 0.404365 -0.729774 -0.811101 0.402074 -0.223429 -0.202422 0.404214 
0.919831 0.449752 -0.317303 0.930495 -0.0763878 0.93937 -0.725513 0.575667 0.83488 
-0.626772 -0.787786 0.28513 -0.761405 0.232786 0.339747 -0.720592 -0.247323 0.39056 
-0.124204 -1.31256 0.827958 0.145246 1.63836 0.330155 0.719294 0.0621905 -0.70486 
-0.724119 -0.415242 -0.137465 -0.450016 0.438642 0.459308 0.687895 -0.276621 0.430979 
-0.120901 0.52359 -0.545975 -0.143333 -0.0241511 0.408073 1.04667 0.148205 0.1755 
-0.0680179 0.153731 -0.0802771 -0.348823 -0.636627 -0.602282 -0.165507 -0.48185 -0.302755 
-0.0106616 0.0908549 -0.932194 0.512538 0.030379 -0.185692 0.392902 0.0282071 -0.360806 
0.168353 -0.307085 -0.299929 0.659771 -0.999137 0.254736 -0.359392 0.00451378 0.251016 
-0.146956 -0.598104 0.124532 0.292857 -0.266837 0.281251 0.153501 -0.818221 0.0891871 
0.270831 -0.139611 -0.303667 -0.26587 -0.22109 0.373278 -0.173311 -0.124873 -0.312082 
0.522704 -0.405202 0.805901 -0.136255 -0.266692 0.235982 0.310183 0.385819 -0.345543 
0.15848 0.17708 -0.622485 0.146147 0.157179 0.196006 -0.768632 0.141644 -0.696161 
-0.0214962 0.459713 0.333698 -0.205643 0.0963337 -0.40157 0.221851 -0.364526 -0.188382 
0.288596 0.292884 0.0902503 0.0668126 -0.739467 -0.142268 -0.138486 0.583827 -0.260861 
-0.312295 0.105413 0.729233 -1.12374 0.874263 0.353724 0.250003 -0.560482 -0.281253 
-0.566711 -0.925984 0.331077 -1.41623 0.203533 0.51426 0.201063 0.20906 -0.250891 
-0.0773089 0.774188 0.101066 0.981227 0.319085 0.503606 0.351663 -0.221457 -0.168647 
0.46899 0.233906 -0.268458 -0.430272 0.139736 -0.981669 0.719324 -0.207972 0.385051 
-0.0943554 -0.436581 -0.0294595 -0.349685 0.114196 -0.293685 -0.490635 -0.0335561 -0.357355 
0.0711121 -0.286793 -0.167969 -0.229281 -1.16906 -0.283825 0.101193 -0.537605 -0.315873 
0.427104 0.109058 -1.08986 0.649362 0.226602 0.364602 0.425517 -0.546345 0.379001 
-0.494993 0.687729 0.584601 -0.205303 -0.154795 -0.802297 0.48869 0.252765 0.749715 
0.60993 -0.229832 -0.0211126 0.0104316 0.597908 -0.12231 -0.230088 0.567833 0.257232 
0.0334772 0.423701 0.222425 0.100276 -0.256719 -0.422382 -0.71085 0.446134 -0.25607 
0.297375 0.540698 0.572855 0.650558 0.49405 0.156335 -1.3992 -0.643191 0.226968 
-0.440566 -0.0697547 0.291763 -0.125336 0.0425111 0.974053 0.48252 -0.0590635 -0.24455 
-0.5331 -0.596427 0.231235 -0.329753 0.20979 0.163549 -0.439695 -0.213863 0.0434792 
-0.333185 0.136707 -0.280568 -0.250862 0.391887 -0.0854598 -0.354768 -0.792782 0.485985 
0.680785 0.287768 -0.784884 0.630444 -0.308892 0.260651 0.23161 0.319348 -0.921295 
0.0711889 0.278613 -0.0907263 -0.000721672 -0.0893434 -0.390904 0.798761 0.40295 -0.139236 
-0.907955 -0.0409825 0.367043 0.24172 0.170107 -0.329486 0.829774 0.479962 0.403752 
0.13061 -0.0624465 0.0206061 0.529661 0.319542 0.952727 -0.891021 -1.02267 -0.182479 
0.019589 0.228066 0.0127385 0.12707 -0.387408 -0.287829 0.237317 0.342421 0.718052 
-0.803867 -1.20748 1.09604 0.482509 0.119385 0.547194 -0.109673 -0.0563416 -0.420655 
0.308145 0.575287 0.479572 0.822409 -0.186632 0.548379 -0.627126 -0.768059 0.947313 
-0.846127 -0.171222 -0.0181312 -0.0107326 0.219451 0.413021 -0.380414 0.494012 0.000137675 
-0.203505 -0.377272 0.582993 -0.230275 -0.856688 0.0683554 0.352939 0.0873619 0.293564 
-0.556005 0.248263 0.585652 -0.59995 -0.283262 0.231284 -0.746599 0.81976 -0.206247 
-0.0747266 0.417718 0.547265 0.31768 0.566754 0.465191 -0.147052 -0.633478 1.20956 
-0.289126 0.0309636 0.688688 -0.0721327 -0.303926 0.582163 -0.335336 0.768349 0.370143 
0.487822 0.268733 -0.186253 0.43017 0.309238 -1.09434 0.30585 0.430418 0.0524869 
0.199395 -0.491468 0.457683 0.702538 -1.15326 -0.807324 0.313447 -0.0671367 -0.561481 
-0.0685142 0.578924 -0.296487 0.925731 -0.318381 -0.344758 0.934084 -0.245741 -0.189743 
-0.480906 0.72976 0.125684 0.186947 -0.416966 0.710858 0.175541 -0.0801191 -0.147043 
-0.722854 -0.509241 -0.0734511 -0.0144986 -0.0895664 0.0557717 -0.316408 0.0775337 0.716492 
-0.251394 -0.233056 0.390397 -0.449283 -1.12756 0.0261836 0.141538 0.00207967 0.243302 
-0.680506 -0.207334 1.13668 -0.633301 0.0993117 0.441362 0.528844 0.918072 -0.742323 
-0.365817 -0.0356165 0.128269 -0.148341 -0.132053 -0.317801 0.34903 -0.217788 0.332356 
-0.247184 -0.323711 0.132725 -0.205274 -0.05959 -0.201923 0.038082 0.890652 0.375974 
-0.244023 -0.404635 0.57189 0.0767018 0.196749 -0.768463 -0.0482657 0.134691 0.169531 
-0.779549 -0.498281 0.613744 -0.128558 0.177421 0.741523 0.148683 -0.0823518 0.509388 
-0.283714 0.185708 0.717109 0.0797269 -0.955364 0.257537 -0.16801 0.231449 -0.00382575 
1.04663 -0.128607 0.507392 0.217383 -0.405957 0.158221 -0.253581 0.300739 0.812559 
-0.700138 0.387823 0.0987052 -1.11403 -0.0199317 0.979985 0.728508 0.358289 0.121823 
-0.391304 -0.0400059 -1.11323 0.058307 -0.598815 0.718342 0.243114 0.387278 0.549342 
-0.350062 0.156915 -0.271511 -0.450873 -0.0551763 -0.406974 -0.380012 1.31662 1.0604 
-0.254104 -0.119386 0.645602 -0.536083 0.426843 -0.557308 -0.633954 -0.261192 -0.829452 
-0.836015 -0.0519285 -0.248652 0.41331 0.12821 -0.0742565 -0.364536 -0.0536003 0.5638 
-0.205549 -0.0278101 0.360442 1.22277 -0.0479802 0.155348 0.353703 1.07804 -0.447734 
0.395953 -0.21017 -0.255567 0.806812 -0.0150307 0.182109 -0.015874 0.620796 0.255673 
0.170837 -0.18837 0.309922 0.299804 -0.610028 0.405349 -0.123437 -0.0315481 0.0245305 
0.434944 0.818823 1.0727 0.0938017 -0.407975 -0.446527 0.783954 0.0204664 -1.19453 
-0.237513 0.149339 0.33779 -0.0865097 0.472208 -0.609898 -0.447379 0.576021 0.0551152 
0.0405152 -0.1781 0.102165 0.232975 -0.13659 -0.329459 -0.35062 0.0640259 -0.286105 
0.29901 -0.172972 0.332074 0.305727 -0.430771 0.577385 0.0491764 -0.279663 0.923258 
0.155999 0.475157 0.478101 -0.76309 0.425299 0.335813 0.469115 -0.0473177 -0.765048 
0.20639 0.0230625 0.0761368 0.36035 0.231871 -0.196647 0.374568 0.067339 0.0389806 
-0.115207 -0.208909 0.267621 -0.207569 -0.091667 0.238859 0.281346 0.633533 0.868335 
0.0661986 -0.0418055 -0.747498 0.0995578 0.223717 -0.0721289 -0.159532 0.285439 -0.380678 
0.155335 -0.543632 0.73317 -0.15923 -0.402402 0.628394 0.435745 -0.0948051 -0.337317 
0.316583 1.03829 -0.548821 -0.206914 0.146761 -0.30709 0.776517 0.73763 -0.808501 
0.231385 -0.0378365 0.225345 -0.0172411 -0.467175 -0.152047 1.12611 0.30516 0.0530948 
0.264636 0.254164 -0.77768 0.14759 -0.0349894 -1.2309 -0.0903244 -0.156966 0.5381 
-0.0837358 0.318724 -0.00634956 0.135606 0.639107 -0.0554657 -0.285908 -0.373643 -0.68608 
-0.163124 0.598315 0.0198386 0.0781185 0.416794 0.179974 0.00105644 0.0116904 -0.303678 
-0.266389 -0.481347 0.14526 -0.0792566 -0.277491 0.0433081 -0.0445667 -0.649426 -0.510539 
0.0120888 -0.313442 -0.10288 0.189118 -0.205962 -0.670691 -0.135569 -0.383462 0.243082 
-1.18709 0.568069 0.107541 -0.197119 -0.0438214 -0.258443 0.432007 0.0657239 1.7421 
-0.501139 -0.0454521 0.0465508 0.546787 -0.176377 0.9603 -0.183843 -0.292385 0.33677 
-0.254474 0.206588 0.263578 0.156569 0.354444 0.0462973 -0.0810993 0.712263 0.511804 
0.816071 0.222552 -0.0373596 -0.0978782 0.189986 -0.429113 0.902745 0.256321 0.822526 
0.781976 0.0378659 0.728843 -0.076026 0.387795 -0.379135 0.344666 0.164165 -0.0651952 
-0.983853 -0.0696945 1.08145 -0.589111 -0.580612 0.278323 0.153565 -0.398697 0.467313 
0.458669 -0.395457 -0.309396 -0.399705 0.0123708 0.280881 -0.259351 -0.107966 1.08643 
-0.498123 0.364693 -0.0574539 -0.218497 -0.062161 -0.0697975 0.377112 -0.565925 -0.202283 
0.0803194 -0.504302 -0.0978745 -0.827745 0.278716 -0.449342 0.0178963 0.187681 0.822403 
0.522772 0.143273 -0.112534 0.426642 -0.338689 0.0103563 0.343749 -0.516799 -0.299996 
-0.297252 0.293985 0.738149 -0.425553 0.400917 -0.638556 0.612865 -0.168587 0.244728 
-0.406742 -0.555845 -1.07118 0.127704 -0.168918 0.662416 0.0505433 -0.0176809 0.28808 
0.542309 -0.0461618 0.335213 0.386479 -0.0198462 0.646782 -0.0211494 0.027762 0.371165 
-0.473424 -0.836783 -0.651804 0.875691 -0.231137 -0.535871 0.322586 0.155982 0.216141 
0.387749 0.517196 -0.585731 -0.701136 -0.397307 0.0279551 0.153254 0.530794 -0.529504 
0.0349408 0.364242 -1.10281 0.0419986 -0.612026 0.807972 -0.163815 0.327539 -0.761413 
0.0530263 1.01065 1.90625 0.228374 0.309519 0.68152 0.4153 0.0838806 0.128734 
0.466073 0.360531 0.303645 -0.382652 0.344967 0.298862 0.280607 0.112571 -1.21589 
-0.161956 -0.242946 0.396809 -0.627466 0.187068 0.70682 -0.2221 1.12424 0.242202 
0.142611 0.653872 -0.0153361 0.0905998 -0.0804453 -0.221735 0.440334 -0.402458 -0.137528 
-0.127122 0.460155 0.425503 0.231993 1.0082 -0.713301 0.238368 -0.661023 0.726714 
-0.489292 0.41053 1.37274 -0.386839 0.901317 -0.703559 -0.0890626 0.160165 -0.0524591 
0.715524 0.234926 -0.411014 0.529548 -0.424079 -0.769194 -0.574924 -0.308118 0.194522 
0.0245514 -0.278768 -0.957866 0.658994 0.926585 -0.0435956 0.654088 -0.571276 0.239142 
0.180734 0.395469 -0.158106 -0.343893 0.0413523 -0.995418 -0.0383355 1.21534 0.794961 
-0.507653 -0.341191 0.516002 -0.495291 -0.139276 -0.339216 0.806898 0.482447 -0.700487 
-0.637966 -0.319988 -0.443922 -0.213552 0.512188 0.797004 0.12253 -0.462975 -1.08551 
0.38883 0.0438817 0.732509 0.165611 0.573878 -0.969657 0.707505 -0.670261 -0.191349 
-0.741896 -0.0163935 0.689417 0.417001 0.457571 0.626379 -0.285139 0.489085 -0.916713 
0.475469 0.178588 -0.418423 0.110778 0.107002 -1.40793 -0.839607 0.512369 -0.185595 
0.110496 0.234515 0.361609 -0.246336 -0.353349 1.05022 -0.380305 -0.163871 -0.243401 
0.133232 0.0978318 -1.25719 -0.130395 0.366874 -0.58296 0.122754 0.101877 -0.662953 
0.718078 -0.447128 -0.183061 0.670625 -0.838953 0.468622 0.19355 0.596046 0.332949 
-0.086433 -0.472446 -0.228133 0.0103584 0.0969694 1.45452 1.05304 0.663958 -0.256013 
-0.808786 -0.735023 -0.00737576 0.281392 0.374275 -0.491112 0.328946 0.13084 0.1273 
-0.180626 0.0811272 -1.25218 0.550076 0.849016 -0.503789 0.161325 0.379772 -1.05475 
-0.614819 -0.195208 -1.08047 0.614713 -0.232884 0.482655 -0.14456 1.04289 0.395714 
-0.476838 0.211199 -0.973875 -0.882443 0.768159 0.170325 0.0631209 -0.256887 -0.307727 
-0.984004 -0.0356887 -1.08224 -0.49987 0.197884 -0.843777 -0.400476 0.116413 -0.87859 
0.52391 0.10487 -0.759803 0.0230274 -0.238871 0.127746 0.398532 -0.0585609 0.940125 
0.321718 -0.509851 1.01456 -0.25572 -0.076924 -0.21814 0.440718 0.0709313 -0.0806788 
-0.280362 -0.261365 -0.146078 -0.0704531 -0.364619 0.873399 0.556747 0.544153 -0.114667 
0.538042 0.147592 0.447621 0.673201 -0.824384 0.911416 -0.0762645 -0.285928 0.581923 
-0.342366 -0.37045 -0.917889 0.997101 0.133452 0.0397999 1.06016 0.431698 -0.367414 
0.403833 0.209577 -0.523284 0.16907 0.0723617 -1.42093 0.249585 0.348759 -0.657067 
-0.359241 0.207919 -1.17244 -0.185735 -0.0537962 -1.54747 -0.504222 0.519321 -0.179422 
0.273885 -0.289848 -1.09094 0.683883 -0.315349 -0.353109 0.153309 -0.0751663 -0.892546 
0.0453943 0.678737 -0.517468 -0.318115 -0.0633532 -1.2173 -0.0534311 0.0163732 -0.959761 
0.0533372 0.266227 -1.2307 -0.0280666 0.0493723 -0.932291 -0.213419 -0.0231606 -0.733598 
-0.157418 -0.285683 0.22917 0.0706959 0.273518 -1.07433 -0.460272 0.0845521 -1.17606 
0.0483075 -0.109948 -0.992283 0.0383195 -0.329962 -1.06327 -0.524984 0.709477 -1.24779 
0.117971 0.00267193 -1.0532 0.27188 0.170823 -0.934498 -0.207895 0.0948352 -0.809934 
0.121176 0.660183 -1.15785 0.234254 -0.0967843 -1.1065 -0.141465 -0.0715479 -1.02012 
0.399303 0.0789481 -1.02575 -0.171023 -0.0886452 -1.10413 -0.413921 0.45221 -0.504624 
0.156396 0.307744 -0.800388 0.826207 -2.16135e-05 -0.4541 0.149556 -0.0839935 -1.05513 
0.0799599 0.0495338 -0.920966 0.394167 0.249247 -0.984966 0.180905 -0.209555 -1.30225 
0.150023 0.0687603 -1.48324 -0.455362 -0.0127666 -0.972166 -0.545862 0.646067 -0.624118 
0.00902163 0.0811955 -1.24051 -0.192327 0.480703 -0.974239 -0.340241 -0.0133775 -1.28213 
0.325704 -0.23956 -0.789992 -0.295548 0.206372 -1.28456 0.417412 -0.0529951 -1.01918 
-0.226459 -0.00859036 -1.41674 -0.075576 -0.154843 -1.13978 0.0828416 0.338144 -1.04369 
0.292756 0.104327 -1.30146 0.137547 0.177365 -1.15392 -0.27533 -0.034453 -0.643197 
-0.192285 -0.207168 -0.90337 0.0105135 0.443125 -1.26267 -0.0878575 0.205037 -1.13009 
0.774032 -0.403831 0.0413043 0.27228 0.108781 -1.27255 -0.231421 -0.0827484 0.316442 
-0.124564 -0.169412 -1.04695 -0.469905 0.0649594 -1.02495 -0.532567 0.392596 -1.25756 
0.249267 -0.161001 -1.2109 -0.210601 0.768563 -1.03047 0.304481 -0.375441 -0.886609 
-0.0656964 0.0879899 -1.15367 0.128974 0.00756721 -1.07014 0.0482558 0.711409 -0.831222 
0.611969 0.242797 -1.21194 0.188059 -0.493176 -0.974821 0.873157 0.0531923 -1.1887 
0.504652 0.0513947 -1.22892 0.231926 -0.782458 0.196681 0.182617 0.448365 -0.868694 
-0.789798 -0.0331931 -1.057 -0.261311 -0.52357 -1.01683 0.535279 0.104749 -0.729773 
0.355718 0.282171 -1.03373 0.674237 -0.0257642 -1.31315 -0.406607 0.115878 -0.739847 
-0.337607 -0.0394345 -1.26087 0.229641 0.0407571 -0.730214 -0.411489 -0.375144 -0.845413 
-0.0563533 0.283686 -1.05941 -0.174289 0.439282 -1.19677 0.15399 0.0921384 -1.15242 
-0.00120732 -0.587995 -1.00386 0.188251 -0.291646 -0.931589 0.491357 -0.0319703 -1.03822 
-0.236504 -0.318145 -1.20928 -0.0711042 -0.183787 -0.930522 -0.124697 0.0807072 -1.10431 
0.183547 0.519615 -0.667547 -0.0101447 -0.131113 -0.634273 -0.106627 0.166807 -0.74097 
-0.199575 -0.235529 -1.09323 0.296508 0.158577 -1.30469 0.133566 -0.130552 -0.727236 
-0.602641 0.36688 -0.957733 0.243306 -0.440225 -0.686319 -0.0416202 0.219155 -1.02997 
0.0605756 -0.0902999 -0.792744 0.20024 -0.193496 -0.953275 0.381643 -0.0566304 -0.76739 
0.137609 0.314136 -0.690775 0.234015 0.544506 -1.01478 -0.138553 0.17176 -0.850096 
0.0296831 -0.0515245 -0.999544 -0.0635683 -0.445253 -0.754064 -0.155225 0.00488995 -0.820145 
-0.150551 -0.172505 -0.803771 0.222593 0.137909 -0.686922 0.0840817 0.201732 -0.687005 
-0.243821 0.152703 -0.976346 0.237812 -0.303247 -0.82723 0.212929 0.34374 -1.12796 
-0.179502 0.316054 -0.682655 0.12196 -0.0709431 -0.763193 0.227537 -0.452763 -0.833533 
-0.351118 -0.369971 -0.595433 -0.186378 0.0735746 -0.848124 0.523484 -0.398053 -0.632584 
-0.426333 0.0767105 -0.694729 -0.603861 0.0684448 -0.978722 0.874872 -0.227138 -0.640203 
0.161479 -0.345329 -0.77464 -0.115164 -0.236981 -0.645555 0.197846 0.0930269 -0.642901 
-0.402155 -0.451385 -1.04565 -0.10377 -0.0516769 -0.766729 -0.228793 -0.452303 -0.582208 
-0.0938449 -0.265378 -0.498413 0.210804 -0.15593 -0.749811 0.0607291 1.0224 -0.479934 
-0.234076 -0.0823692 -0.416269 -0.194967 0.0880465 -0.364475 0.0599093 0.402809 -0.425752 
-0.0809922 0.207737 -0.6996 -1.13372 -0.297833 -0.240596 0.166402 -0.578109 -0.40218 
-0.255028 0.14352 -0.512688 -0.133064 -0.326863 -0.656264 0.284935 0.576227 -0.421194 
-0.253292 -0.116336 -0.243005 0.179782 -0.326223 -0.584735 0.246426 0.116671 -0.420777 

om 3 567 double
0 0 0 0 0 0 0 0 0 
0 0 0 0 0 0 0 0 0 
0 0 0 0 0 0 0 0 0 
0 0 0 0 0 0 0 0 0 
0 0 0 0 0 0 0 0 0 
0 0 0 0 0 0 0 0 0 
0 0 0 0 0 0 0 0 0 
0 0 0 0 0 0 0 0 0 
0 0 0 0 0 0 0 0 0 
0 0 0 0 0 0 0 0 0 
0 0 0 0 0 0 0 0 0 
0 0 0 0 0 0 0 0 0 
0 0 0 0 0 0 0 0 0 
0 0 0 0 0 0 0 0 0 
0 0 0 0 0 0 0 0 0 
0 0 0 0 0 0 0 0 0 
0 0 0 0 0 0 0 0 0 
0 0 0 0 0 0 0 0 0 
0 0 0 0 0 0 0 0 0 
0 0 0 0 0 0 0 0 0 
0 0 0 0 0 0 0 0 0 
0 0 0 0 0 0 0 0 0 
0 0 0 0 0 0 0 0 0 
0 0 0 0 0 0 0 0 0 
0 0 0 0 0 0 0 0 0 
0 0 0 0 0 0 0 0 0 
0 0 0 0 0 0 0 0 0 
0 0 0 0 0 0 0 0 0 
0 0 0 0 0 0 0 0 0 
0 0 0 0 0 0 0 0 0 
0 0 0 0 0 0 0 0 0 
0 0 0 0 0 0 0 0 0 
0 0 0 0 0 0 0 0 0 
0 0 0 0 0 0 0 0 0 
0 0 0 0 0 0 0 0 0 
0 0 0 0 0 0 0 0 0 
0 0 0 0 0 0 0 0 0 
0 0 0 0 0 0 0 0 0 
0 0 0 0 0 0 0 0 0 
0 0 0 0 0 0 0 0 0 
0 0 0 0 0 0 0 0 0 
0 0 0 0 0 0 0 0 0 
0 0 0 0 0 0 0 0 0 
0 0 0 0 0 0 0 0 0 
0 0 0 0 0 0 0 0 0 
0 0 0 0 0 0 0 0 0 
0 0 0 0 0 0 0 0 0 
0 0 0 0 0 0 0 0 0 
0 0 0 0 0 0 0 0 0 
0 0 0 0 0 0 0 0 0 
0 0 0 0 0 0 0 0 0 
0 0 0 0 0 0 0 0 0 
0 0 0 0 0 0 0 0 0 
0 0 0 0 0 0 0 0 0 
0 0 0 0 0 0 0 0 0 
0 0 0 0 0 0 0 0 0 
0 0 0 0 0 0 0 0 0 
0 0 0 0 0 0 0 0 0 
0 0 0 0 0 0 0 0 0 
0 0 0 0 0 0 0 0 0 
0 0 0 0 0 0 0 0 0 
0 0 0 0 0 0 0 0 0 
0 0 0 0 0 0 0 0 0 
0 0 0 0 0 0 0 0 0 
0 0 0 0 0 0 0 0 0 
0 0 0 0 0 0 0 0 0 
0 0 0 0 0 0 0 0 0 
0 0 0 0 0 0 0 0 0 
0 0 0 0 0 0 0 0 0 
0 0 0 0 0 0 0 0 0 
0 0 0 0 0 0 0 0 0 
0 0 0 0 0 0 0 0 0 
0 0 0 0 0 0 0 0 0 
0 0 0 0 0 0 0 0 0 
0 0 0 0 0 0 0 0 0 
0 0 0 0 0 0 0 0 0 
0 0 0 0 0 0 0 0 0 
0 0 0 0 0 0 0 0 0 
0 0 0 0 0 0 0 0 0 
0 0 0 0 0 0 0 0 0 
0 0 0 0 0 0 0 0 0 
0 0 0 0 0 0 0 0 0 
0 0 0 0 0 0 0 0 0 
0 0 0 0 0 0 0 0 0 
0 0 0 0 0 0 0 0 0 
0 0 0 0 0 0 0 0 0 
0 0 0 0 0 0 0 0 0 
0 0 0 0 0 0 0 0 0 
0 0 0 0 0 0 0 0 0 
0 0 0 0 0 0 0 0 0 
0 0 0 0 0 0 0 0 0 
0 0 0 0 0 0 0 0 0 
0 0 0 0 0 0 0 0 0 
0 0 0 0 0 0 0 0 0 
0 0 0 0 0 0 0 0 0 
0 0 0 0 0 0 0 0 0 
0 0 0 0 0 0 0 0 0 
0 0 0 0 0 0 0 0 0 
0 0 0 0 0 0 0 0 0 
0 0 0 0 0 0 0 0 0 
0 0 0 0 0 0 0 0 0 
0 0 0 0 0 0 0 0 0 
0 0 0 0 0 0 0 0 0 
0 0 0 0 0 0 0 0 0 
0 0 0 0 0 0 0 0 0 
0 0 0 0 0 0 0 0 0 
0 0 0 0 0 0 0 0 0 
0 0 0 0 0 0 0 0 0 
0 0 0 0 0 0 0 0 0 
0 0 0 0 0 0 0 0 0 
0 0 0 0 0 0 0 0 0 
0 0 0 0 0 0 0 0 0 
0 0 0 0 0 0 0 0 0 
0 0 0 0 0 0 0 0 0 
0 0 0 0 0 0 0 0 0 
0 0 0 0 0 0 0 0 0 
0 0 0 0 0 0 0 0 0 
0 0 0 0 0 0 0 0 0 
0 0 0 0 0 0 0 0 0 
0 0 0 0 0 0 0 0 0 
0 0 0 0 0 0 0 0 0 
0 0 0 0 0 0 0 0 0 
0 0 0 0 0 0 0 0 0 
0 0 0 0 0 0 0 0 0 
0 0 0 0 0 0 0 0 0 
0 0 0 0 0 0 0 0 0 
0 0 0 0 0 0 0 0 0 
0 0 0 0 0 0 0 0 0 
0 0 0 0 0 0 0 0 0 
0 0 0 0 0 0 0 0 0 
0 0 0 0 0 0 0 0 0 
0 0 0 0 0 0 0 0 0 
0 0 0 0 0 0 0 0 0 
0 0 0 0 0 0 0 0 0 
0 0 0 0 0 0 0 0 0 
0 0 0 0 0 0 0 0 0 
0 0 0 0 0 0 0 0 0 
0 0 0 0 0 0 0 0 0 
0 0 0 0 0 0 0 0 0 
0 0 0 0 0 0 0 0 0 
0 0 0 0 0 0 0 0 0 
0 0 0 0 0 0 0 0 0 
0 0 0 0 0 0 0 0 0 
0 0 0 0 0 0 0 0 0 
0 0 0 0 0 0 0 0 0 
0 0 0 0 0 0 0 0 0 
0 0 0 0 0 0 0 0 0 
0 0 0 0 0 0 0 0 0 
0 0 0 0 0 0 0 0 0 
0 0 0 0 0 0 0 0 0 
0 0 0 0 0 0 0 0 0 
0 0 0 0 0 0 0 0 0 
0 0 0 0 0 0 0 0 0 
0 0 0 0 0 0 0 0 0 
0 0 0 0 0 0 0 0 0 
0 0 0 0 0 0 0 0 0 
0 0 0 0 0 0 0 0 0 
0 0 0 0 0 0 0 0 0 
0 0 0 0 0 0 0 0 0 
0 0 0 0 0 0 0 0 0 
0 0 0 0 0 0 0 0 0 
0 0 0 0 0 0 0 0 0 
0 0 0 0 0 0 0 0 0 
0 0 0 0 0 0 0 0 0 
0 0 0 0 0 0 0 0 0 
0 0 0 0 0 0 0 0 0 
0 0 0 0 0 0 0 0 0 
0 0 0 0 0 0 0 0 0 
0 0 0 0 0 0 0 0 0 
0 0 0 0 0 0 0 0 0 
0 0 0 0 0 0 0 0 0 
0 0 0 0 0 0 0 0 0 
0 0 0 0 0 0 0 0 0 
0 0 0 0 0 0 0 0 0 
0 0 0 0 0 0 0 0 0 
0 0 0 0 0 0 0 0 0 
0 0 0 0 0 0 0 0 0 
0 0 0 0 0 0 0 0 0 
0 0 0 0 0 0 0 0 0 
0 0 0 0 0 0 0 0 0 
0 0 0 0 0 0 0 0 0 
0 0 0 0 0 0 0 0 0 
0 0 0 0 0 0 0 0 0 
0 0 0 0 0 0 0 0 0 
0 0 0 0 0 0 0 0 0 
0 0 0 0 0 0 0 0 0 
0 0 0 0 0 0 0 0 0 
0 0 0 0 0 0 0 0 0 
0 0 0 0 0 0 0 0 0 

bottom 1 567 double
-0.0383571 -0.0383571 -0.0383571 -0.0383571 -0.0383571 -0.0383571 -0.0383571 -0.0383571 -0.0383571 
-0.0383571 -0.0383571 -0.0383571 -0.0383571 -0.0383571 -0.0383571 -0.0383571 -0.0383571 -0.0383571 
-0.0383571 -0.0383571 -0.0383571 -0.0383571 -0.0383571 -0.0383571 -0.0383571 -0.0383571 -0.0383571 
-0.0383571 -0.0383571 -0.0383571 -0.0383571 -0.0383571 -0.0383571 -0.0383571 -0.0383571 -0.0383571 
-0.0383571 -0.0383571 -0.0383571 -0.0383571 -0.0383571 -0.0383571 -0.0383571 -0.0383571 -0.0383571 
-0.0383571 -0.0383571 -0.0383571 -0.0383571 -0.0383571 -0.0383571 -0.0383571 -0.0383571 -0.0383571 
-0.0383571 -0.0383571 -0.0383571 -0.0383571 -0.0383571 -0.0383571 -0.0383571 -0.0383571 -0.0383571 
-0.0383571 -0.0383571 -0.0383571 -0.0383571 -0.0383571 -0.0383571 -0.0383571 -0.0383571 -0.0383571 
-0.0383571 -0.0383571 -0.0383571 -0.0383571 -0.0383571 -0.0383571 -0.0383571 -0.0383571 -0.0383571 
-0.0383571 -0.0383571 -0.0383571 -0.0383571 -0.0383571 -0.0383571 -0.0383571 -0.0383571 -0.0383571 
-0.0383571 -0.0383571 -0.0383571 -0.0383571 -0.0383571 -0.0383571 -0.0383571 -0.0383571 -0.0383571 
-0.0383571 -0.0383571 -0.0383571 -0.0383571 -0.0383571 -0.0383571 -0.0383571 -0.0383571 -0.0383571 
-0.0383571 -0.0383571 -0.0383571 -0.0383571 -0.0383571 -0.0383571 -0.0383571 -0.0383571 -0.0383571 
-0.0383571 -0.0383571 -0.0383571 -0.0383571 -0.0383571 -0.0383571 -0.0383571 -0.0383571 -0.0383571 
-0.0383571 -0.0383571 -0.0383571 -0.0383571 -0.0383571 -0.0383571 -0.0383571 -0.0383571 -0.0383571 
-0.0383571 -0.0383571 -0.0383571 -0.0383571 -0.0383571 -0.0383571 -0.0383571 -0.0383571 -0.0383571 
-0.0383571 -0.0383571 -0.0383571 -0.0383571 -0.0383571 -0.0383571 -0.0383571 -0.0383571 -0.0383571 
-0.0383571 -0.0383571 -0.0383571 -0.0383571 -0.0383571 -0.0383571 -0.0383571 -0.0383571 -0.0383571 
-0.0383571 -0.0383571 -0.0383571 -0.0383571 -0.0383571 -0.0383571 -0.0383571 -0.0383571 -0.0383571 
-0.0383571 -0.0383571 -0.0383571 -0.0383571 -0.0383571 -0.0383571 -0.0383571 -0.0383571 -0.0383571 
-0.0383571 -0.0383571 -0.0383571 -0.0383571 -0.0383571 -0.0383571 -0.0383571 -0.0383571 -0.0383571 
-0.0383571 -0.0383571 -0.0383571 -0.0383571 -0.0383571 -0.0383571 -0.0383571 -0.0383571 -0.0383571 
-0.0383571 -0.0383571 -0.0383571 -0.0383571 -0.0383571 -0.0383571 -0.0383571 -0.0383571 -0.0383571 
-0.0383571 -0.0383571 -0.0383571 -0.0383571 -0.0383571 -0.0383571 -0.0383571 -0.0383571 -0.0383571 
-0.0383571 -0.0383571 -0.0383571 -0.0383571 -0.0383571 -0.0383571 -0.0383571 -0.0383571 -0.0383571 
-0.0383571 -0.0383571 -0.0383571 -0.0383571 -0.0383571 -0.0383571 -0.0383571 -0.0383571 -0.0383571 
-0.0383571 -0.0383571 -0.0383571 -0.0383571 -0.0383571 -0.0383571 -0.0383571 -0.0383571 -0.0383571 
-0.0383571 -0.0383571 -0.0383571 -0.0383571 -0.0383571 -0.0383571 -0.0383571 -0.0383571 -0.0383571 
-0.0383571 -0.0383571 -0.0383571 -0.0383571 -0.0383571 -0.0383571 -0.0383571 -0.0383571 -0.0383571 
-0.0383571 -0.0383571 -0.0383571 -0.0383571 -0.0383571 -0.0383571 -0.0383571 -0.0383571 -0.0383571 
-0.0383571 -0.0383571 -0.0383571 -0.0383571 -0.0383571 -0.0383571 -0.0383571 -0.0383571 -0.0383571 
-0.0383571 -0.0383571 -0.0383571 -0.0383571 -0.0383571 -0.0383571 -0.0383571 -0.0383571 -0.0383571 
-0.0383571 -0.0383571 -0.0383571 -0.0383571 -0.0383571 -0.0383571 -0.0383571 -0.0383571 -0.0383571 
-0.0383571 -0.0383571 -0.0383571 -0.0383571 -0.0383571 -0.0383571 -0.0383571 -0.0383571 -0.0383571 
-0.0383571 -0.0383571 -0.0383571 -0.0383571 -0.0383571 -0.0383571 -0.0383571 -0.0383571 -0.0383571 
-0.0383571 -0.0383571 -0.0383571 -0.0383571 -0.0383571 -0.0383571 -0.0383571 -0.0383571 -0.0383571 
-0.0383571 -0.0383571 -0.0383571 -0.0383571 -0.0383571 -0.0383571 -0.0383571 -0.0383571 -0.0383571 
-0.0383571 -0.0383571 -0.0383571 -0.0383571 -0.0383571 -0.0383571 -0.0383571 -0.0383571 -0.0383571 
-0.0383571 -0.0383571 -0.0383571 -0.0383571 -0.0383571 -0.0383571 -0.0383571 -0.0383571 -0.0383571 
-0.0383571 -0.0383571 -0.0383571 -0.0383571 -0.0383571 -0.0383571 -0.0383571 -0.0383571 -0.0383571 
-0.0383571 -0.0383571 -0.0383571 -0.0383571 -0.0383571 -0.0383571 -0.0383571 -0.0383571 -0.0383571 
-0.0383571 -0.0383571 -0.0383571 -0.0383571 -0.0383571 -0.0383571 -0.0383571 -0.0383571 -0.0383571 
-0.0383571 -0.0383571 -0.0383571 -0.0383571 -0.0383571 -0.0383571 -0.0383571 -0.0383571 -0.0383571 
-0.0383571 -0.0383571 -0.0383571 -0.0383571 -0.0383571 -0.0383571 -0.0383571 -0.0383571 -0.0383571 
-0.0383571 -0.0383571 -0.0383571 -0.0383571 -0.0383571 -0.0383571 -0.0383571 -0.0383571 -0.0383571 
-0.0383571 -0.0383571 -0.0383571 -0.0383571 -0.0383571 -0.0383571 -0.0383571 -0.0383571 -0.0383571 
-0.0383571 -0.0383571 -0.0383571 -0.0383571 -0.0383571 -0.0383571 -0.0383571 -0.0383571 -0.0383571 
-0.0383571 -0.0383571 -0.0383571 -0.0383571 -0.0383571 -0.0383571 -0.0383571 -0.0383571 -0.0383571 
-0.0383571 -0.0383571 -0.0383571 -0.0383571 -0.0383571 -0.0383571 -0.0383571 -0.0383571 -0.0383571 
-0.0383571 -0.0383571 -0.0383571 -0.0383571 -0.0383571 -0.0383571 -0.0383571 -0.0383571 -0.0383571 
-0.0383571 -0.0383571 -0.0383571 -0.0383571 -0.0383571 -0.0383571 -0.0383571 -0.0383571 -0.0383571 
-0.0383571 -0.0383571 -0.0383571 -0.0383571 -0.0383571 -0.0383571 -0.0383571 -0.0383571 -0.0383571 
-0.0383571 -0.0383571 -0.0383571 -0.0383571 -0.0383571 -0.0383571 -0.0383571 -0.0383571 -0.0383571 
-0.0383571 -0.0383571 -0.0383571 -0.0383571 -0.0383571 -0.0383571 -0.0383571 -0.0383571 -0.0383571 
-0.0383571 -0.0383571 -0.0383571 -0.0383571 -0.0383571 -0.0383571 -0.0383571 -0.0383571 -0.0383571 
-0.0383571 -0.0383571 -0.0383571 -0.0383571 -0.0383571 -0.0383571 -0.0383571 -0.0383571 -0.0383571 
-0.0383571 -0.0383571 -0.0383571 -0.0383571 -0.0383571 -0.0383571 -0.0383571 -0.0383571 -0.0383571 
-0.0383571 -0.0383571 -0.0383571 -0.0383571 -0.0383571 -0.0383571 -0.0383571 -0.0383571 -0.0383571 
-0.0383571 -0.0383571 -0.0383571 -0.0383571 -0.0383571 -0.0383571 -0.0383571 -0.0383571 -0.0383571 
-0.0383571 -0.0383571 -0.0383571 -0.0383571 -0.0383571 -0.0383571 -0.0383571 -0.0383571 -0.0383571 
-0.0383571 -0.0383571 -0.0383571 -0.0383571 -0.0383571 -0.0383571 -0.0383571 -0.0383571 -0.0383571 
-0.0383571 -0.0383571 -0.0383571 -0.0383571 -0.0383571 -0.0383571 -0.0383571 -0.0383571 -0.0383571 
-0.0383571 -0.0383571 -0.0383571 -0.0383571 -0.0383571 -0.0383571 -0.0383571 -0.0383571 -0.0383571 

top 1 567 double
0.0616429 0.0616429 0.0616429 0.0616429 0.0616429 0.0616429 0.0616429 0.0616429 0.0616429 
0.0616429 0.0616429 0.0616429 0.0616429 0.0616429 0.0616429 0.0616429 0.0616429 0.0616429 
0.0616429 0.0616429 0.0616429 0.0616429 0.0616429 0.0616429 0.0616429 0.0616429 0.0616429 
0.0616429 0.0616429 0.0616429 0.0616429 0.0616429 0.0616429 0.0616429 0.0616429 0.0616429 
0.0616429 0.0616429 0.0616429 0.0616429 0.0616429 0.0616429 0.0616429 0.0616429 0.0616429 
0.0616429 0.0616429 0.0616429 0.0616429 0.0616429 0.0616429 0.0616429 0.0616429 0.0616429 
0.0616429 0.0616429 0.0616429 0.0616429 0.0616429 0.0616429 0.0616429 0.0616429 0.0616429 
0.0616429 0.0616429 0.0616429 0.0616429 0.0616429 0.0616429 0.0616429 0.0616429 0.0616429 
0.0616429 0.0616429 0.0616429 0.0616429 0.0616429 0.0616429 0.0616429 0.0616429 0.0616429 
0.0616429 0.0616429 0.0616429 0.0616429 0.0616429 0.0616429 0.0616429 0.0616429 0.0616429 
0.0616429 0.0616429 0.0616429 0.0616429 0.0616429 0.0616429 0.0616429 0.0616429 0.0616429 
0.0616429 0.0616429 0.0616429 0.0616429 0.0616429 0.0616429 0.0616429 0.0616429 0.0616429 
0.0616429 0.0616429 0.0616429 0.0616429 0.0616429 0.0616429 0.0616429 0.0616429 0.0616429 
0.0616429 0.0616429 0.0616429 0.0616429 0.0616429 0.0616429 0.0616429 0.0616429 0.0616429 
0.0616429 0.0616429 0.0616429 0.0616429 0.0616429 0.0616429 0.0616429 0.0616429 0.0616429 
0.0616429 0.0616429 0.0616429 0.0616429 0.0616429 0.0616429 0.0616429 0.0616429 0.0616429 
0.0616429 0.0616429 0.0616429 0.0616429 0.0616429 0.0616429 0.0616429 0.0616429 0.0616429 
0.0616429 0.0616429 0.0616429 0.0616429 0.0616429 0.0616429 0.0616429 0.0616429 0.0616429 
0.0616429 0.0616429 0.0616429 0.0616429 0.0616429 0.0616429 0.0616429 0.0616429 0.0616429 
0.0616429 0.0616429 0.0616429 0.0616429 0.0616429 0.0616429 0.0616429 0.0616429 0.0616429 
0.0616429 0.0616429 0.0616429 0.0616429 0.0616429 0.0616429 0.0616429 0.0616429 0.0616429 
0.0616429 0.0616429 0.0616429 0.0616429 0.0616429 0.0616429 0.0616429 0.0616429 0.0616429 
0.0616429 0.0616429 0.0616429 0.0616429 0.0616429 0.0616429 0.0616429 0.0616429 0.0616429 
0.0616429 0.0616429 0.0616429 0.0616429 0.0616429 0.0616429 0.0616429 0.0616429 0.0616429 
0.0616429 0.0616429 0.0616429 0.0616429 0.0616429 0.0616429 0.0616429 0.0616429 0.0616429 
0.0616429 0.0616429 0.0616429 0.0616429 0.0616429 0.0616429 0.0616429 0.0616429 0.0616429 
0.0616429 0.0616429 0.0616429 0.0616429 0.0616429 0.0616429 0.0616429 0.0616429 0.0616429 
0.0616429 0.0616429 0.0616429 0.0616429 0.0616429 0.0616429 0.0616429 0.0616429 0.0616429 
0.0616429 0.0616429 0.0616429 0.0616429 0.0616429 0.0616429 0.0616429 0.0616429 0.0616429 
0.0616429 0.0616429 0.0616429 0.0616429 0.0616429 0.0616429 0.0616429 0.0616429 0.0616429 
0.0616429 0.0616429 0.0616429 0.0616429 0.0616429 0.0616429 0.0616429 0.0616429 0.0616429 
0.0616429 0.0616429 0.0616429 0.0616429 0.0616429 0.0616429 0.0616429 0.0616429 0.0616429 
0.0616429 0.0616429 0.0616429 0.0616429 0.0616429 0.0616429 0.0616429 0.0616429 0.0616429 
0.0616429 0.0616429 0.0616429 0.0616429 0.0616429 0.0616429 0.0616429 0.0616429 0.0616429 
0.0616429 0.0616429 0.0616429 0.0616429 0.0616429 0.0616429 0.0616429 0.0616429 0.0616429 
0.0616429 0.0616429 0.0616429 0.0616429 0.0616429 0.0616429 0.0616429 0.0616429 0.0616429 
0.0616429 0.0616429 0.0616429 0.0616429 0.0616429 0.0616429 0.0616429 0.0616429 0.0616429 
0.0616429 0.0616429 0.0616429 0.0616429 0.0616429 0.0616429 0.0616429 0.0616429 0.0616429 
0.0616429 0.0616429 0.0616429 0.0616429 0.0616429 0.0616429 0.0616429 0.0616429 0.0616429 
0.0616429 0.0616429 0.0616429 0.0616429 0.0616429 0.0616429 0.0616429 0.0616429 0.0616429 
0.0616429 0.0616429 0.0616429 0.0616429 0.0616429 0.0616429 0.0616429 0.0616429 0.0616429 
0.0616429 0.0616429 0.0616429 0.0616429 0.0616429 0.0616429 0.0616429 0.0616429 0.0616429 
0.0616429 0.0616429 0.0616429 0.0616429 0.0616429 0.0616429 0.0616429 0.0616429 0.0616429 
0.0616429 0.0616429 0.0616429 0.0616429 0.0616429 0.0616429 0.0616429 0.0616429 0.0616429 
0.0616429 0.0616429 0.0616429 0.0616429 0.0616429 0.0616429 0.0616429 0.0616429 0.0616429 
0.0616429 0.0616429 0.0616429 0.0616429 0.0616429 0.0616429 0.0616429 0.0616429 0.0616429 
0.0616429 0.0616429 0.0616429 0.0616429 0.0616429 0.0616429 0.0616429 0.0616429 0.0616429 
0.0616429 0.0616429 0.0616429 0.0616429 0.0616429 0.0616429 0.0616429 0.0616429 0.0616429 
0.0616429 0.0616429 0.0616429 0.0616429 0.0616429 0.0616429 0.0616429 0.0616429 0.0616429 
0.0616429 0.0616429 0.0616429 0.0616429 0.0616429 0.0616429 0.0616429 0.0616429 0.0616429 
0.0616429 0.0616429 0.0616429 0.0616429 0.0616429 0.0616429 0.0616429 0.0616429 0.0616429 
0.0616429 0.0616429 0.0616429 0.0616429 0.0616429 0.0616429 0.0616429 0.0616429 0.0616429 
0.0616429 0.0616429 0.0616429 0.0616429 0.0616429 0.0616429 0.0616429 0.0616429 0.0616429 
0.0616429 0.0616429 0.0616429 0.0616429 0.0616429 0.0616429 0.0616429 0.0616429 0.0616429 
0.0616429 0.0616429 0.0616429 0.0616429 0.0616429 0.0616429 0.0616429 0.0616429 0.0616429 
0.0616429 0.0616429 0.0616429 0.0616429 0.0616429 0.0616429 0.0616429 0.0616429 0.0616429 
0.0616429 0.0616429 0.0616429 0.0616429 0.0616429 0.0616429 0.0616429 0.0616429 0.0616429 
0.0616429 0.0616429 0.0616429 0.0616429 0.0616429 0.0616429 0.0616429 0.0616429 0.0616429 
0.0616429 0.0616429 0.0616429 0.0616429 0.0616429 0.0616429 0.0616429 0.0616429 0.0616429 
0.0616429 0.0616429 0.0616429 0.0616429 0.0616429 0.0616429 0.0616429 0.0616429 0.0616429 
0.0616429 0.0616429 0.0616429 0.0616429 0.0616429 0.0616429 0.0616429 0.0616429 0.0616429 
0.0616429 0.0616429 0.0616429 0.0616429 0.0616429 0.0616429 0.0616429 0.0616429 0.0616429 
0.0616429 0.0616429 0.0616429 0.0616429 0.0616429 0.0616429 0.0616429 0.0616429 0.0616429 

