# vtk DataFile Version 4.0
vtk output
ASCII
DATASET POLYDATA
FIELD FieldData 4
domain 1 4 string
domain_min:0|0
domain_max:5|5
cell_size:4|4
boundary:1|1

variables 1 4 string
dt:0.01
write_case:1
substeps:10
all_steps:770

constants 1 2 string
Lx:20
cell_size:4

equations 1 3 string
pos:r=verlet_r(r,v,a,dt)#true
acceleration:a=md(1,1,3)#true
vel:v=verlet_v(v,a,dt)#true

POINTS 81 float
6.32515 4.92393 0 7.39156 6.79063 0 5.63277 7.60858 0 
6.70542 7.67816 0 7.92739 7.8409 0 7.38183 4.88249 0 
6.86261 5.80648 0 6.12904 6.60268 0 8.00679 5.83536 0 
9.02348 7.90546 0 11.8362 7.05839 0 9.16055 5.98889 0 
8.48479 6.94746 0 10.2124 5.98219 0 9.70572 6.89364 0 
11.371 5.99716 0 10.7307 7.06676 0 14.1095 6.75048 0 
13.0386 7.08547 0 12.5322 6.1085 0 14.663 7.68825 0 
15.2766 6.73802 0 6.19507 8.8062 0 5.27608 11.9024 0 
6.66028 9.84409 0 4.9873 10.8189 0 5.11739 8.68949 0 
7.7751 11.8613 0 7.20228 10.8817 0 7.303 8.79521 0 
6.00875 10.8272 0 5.55508 9.80275 0 7.73121 9.92685 0 
6.52712 11.8084 0 8.86745 11.9012 0 9.45106 8.95032 0 
10.7615 8.95649 0 10.0542 9.89621 0 11.3023 8.03539 0 
8.40631 8.95273 0 9.4711 10.9165 0 11.1128 11.8553 0 
10.5511 10.8857 0 8.31092 10.825 0 8.86673 9.90038 0 
11.2159 10.0193 0 11.8661 8.90455 0 10.1334 8.00103 0 
10.0202 11.8826 0 11.7261 10.9519 0 13.43 10.0873 0 
15.1221 8.67687 0 12.4661 8.03193 0 14.8752 10.0589 0 
12.9049 11.2417 0 14.1208 9.19582 0 12.9612 9.01047 0 
12.3365 9.99853 0 13.6402 8.07291 0 14.9802 11.6252 0 
14.1387 10.9001 0 13.845 11.9989 0 5.96777 12.9437 0 
7.15968 12.8378 0 7.83732 14.0002 0 6.73963 13.8614 0 
6.34642 14.9256 0 10.1741 13.8411 0 11.7988 12.7285 0 
9.4209 12.7909 0 9.04881 13.7931 0 10.6619 12.8967 0 
8.35816 12.8865 0 11.5062 13.808 0 12.325 14.5694 0 
14.6881 12.7113 0 14.4961 13.7325 0 13.4192 14.1773 0 
13.6065 13.1357 0 12.5654 13.4845 0 12.8362 12.3747 0 

VERTICES 162 162
1 0 
1 1 
1 2 
1 3 
1 4 
1 5 
1 6 
1 7 
1 8 
1 9 
1 10 
1 11 
1 12 
1 13 
1 14 
1 15 
1 16 
1 17 
1 18 
1 19 
1 20 
1 21 
1 22 
1 23 
1 24 
1 25 
1 26 
1 27 
1 28 
1 29 
1 30 
1 31 
1 32 
1 33 
1 34 
1 35 
1 36 
1 37 
1 38 
1 39 
1 40 
1 41 
1 42 
1 43 
1 44 
1 45 
1 46 
1 47 
1 48 
1 49 
1 50 
1 51 
1 52 
1 53 
1 54 
1 55 
1 56 
1 57 
1 58 
1 59 
1 60 
1 61 
1 62 
1 63 
1 64 
1 65 
1 66 
1 67 
1 68 
1 69 
1 70 
1 71 
1 72 
1 73 
1 74 
1 75 
1 76 
1 77 
1 78 
1 79 
1 80 

POINT_DATA 81
SCALARS id double
LOOKUP_TABLE default
1 19 2 11 20 0 9 10 18 
29 55 27 28 36 37 45 46 63 
64 54 73 72 12 6 13 5 3 
24 23 21 14 4 22 15 33 39 
48 40 47 30 41 51 50 32 31 
49 57 38 42 59 67 74 56 76 
68 75 66 58 65 78 77 69 7 
16 26 17 8 44 52 34 35 43 
25 53 62 79 80 71 70 61 60 

FIELD FieldData 4
r 3 81 double
6.32515 4.92393 0 7.39156 6.79063 0 5.63277 7.60858 0 
6.70542 7.67816 0 7.92739 7.8409 0 7.38183 4.88249 0 
6.86261 5.80648 0 6.12904 6.60268 0 8.00679 5.83536 0 
9.02348 7.90546 0 11.8362 7.05839 0 9.16055 5.98889 0 
8.48479 6.94746 0 10.2124 5.98219 0 9.70572 6.89364 0 
11.371 5.99716 0 10.7307 7.06676 0 14.1095 6.75048 0 
13.0386 7.08547 0 12.5322 6.1085 0 14.663 7.68825 0 
15.2766 6.73802 0 6.19507 8.8062 0 5.27608 11.9024 0 
6.66028 9.84409 0 4.9873 10.8189 0 5.11739 8.68949 0 
7.7751 11.8613 0 7.20228 10.8817 0 7.303 8.79521 0 
6.00875 10.8272 0 5.55508 9.80275 0 7.73121 9.92685 0 
6.52712 11.8084 0 8.86745 11.9012 0 9.45106 8.95032 0 
10.7615 8.95649 0 10.0542 9.89621 0 11.3023 8.03539 0 
8.40631 8.95273 0 9.4711 10.9165 0 11.1128 11.8553 0 
10.5511 10.8857 0 8.31092 10.825 0 8.86673 9.90038 0 
11.2159 10.0193 0 11.8661 8.90455 0 10.1334 8.00103 0 
10.0202 11.8826 0 11.7261 10.9519 0 13.43 10.0873 0 
15.1221 8.67687 0 12.4661 8.03193 0 14.8752 10.0589 0 
12.9049 11.2417 0 14.1208 9.19582 0 12.9612 9.01047 0 
12.3365 9.99853 0 13.6402 8.07291 0 14.9802 11.6252 0 
14.1387 10.9001 0 13.845 11.9989 0 5.96777 12.9437 0 
7.15968 12.8378 0 7.83732 14.0002 0 6.73963 13.8614 0 
6.34642 14.9256 0 10.1741 13.8411 0 11.7988 12.7285 0 
9.4209 12.7909 0 9.04881 13.7931 0 10.6619 12.8967 0 
8.35816 12.8865 0 11.5062 13.808 0 12.325 14.5694 0 
14.6881 12.7113 0 14.4961 13.7325 0 13.4192 14.1773 0 
13.6065 13.1357 0 12.5654 13.4845 0 12.8362 12.3747 0 

gid 1 81 double
0 0 0 0 0 0 0 0 0 
0 0 0 0 0 0 0 0 0 
0 0 0 0 0 0 0 0 0 
0 0 0 0 0 0 0 0 0 
0 0 0 0 0 0 0 0 0 
0 0 0 0 0 0 0 0 0 
0 0 0 0 0 0 0 0 0 
0 0 0 0 0 0 0 0 0 
0 0 0 0 0 0 0 0 0 

v 3 81 double
0.370246 0.103468 0 -0.157184 -0.241343 0 -0.358057 0.0208218 0 
-0.361079 -0.0599442 0 -0.112766 -0.393918 0 -0.339172 -0.15547 0 
0.397655 -0.282033 0 -0.733618 0.527692 0 -0.222764 -0.0952516 0 
0.303245 -0.564659 0 -0.182186 -0.0567861 0 -0.160287 -1.02849 0 
-0.0481327 -0.467849 0 -0.200546 -0.844667 0 0.0353621 -0.335063 0 
-0.27152 -0.321379 0 0.643757 0.677051 0 0.86312 0.434502 0 
-0.244216 0.444521 0 -0.463624 0.158881 0 -0.648024 0.207755 0 
0.0296042 0.280632 0 0.159475 -0.0367537 0 0.00457166 0.0103322 0 
0.0614184 -0.751259 0 -0.3391 0.602189 0 -0.265783 -0.0405089 0 
1.41523 0.256389 0 0.00171072 -0.00441091 0 0.104641 -0.275137 0 
-0.138755 -0.372058 0 -0.134059 0.231037 0 -0.0099696 -0.268779 0 
0.499857 0.0320049 0 -0.043994 0.1398 0 -0.299596 0.205467 0 
-0.0617595 0.228501 0 -0.423369 0.368056 0 0.174497 -0.0919062 0 
0.364448 -0.111482 0 0.813528 0.535614 0 0.253989 -0.0812191 0 
0.892949 -0.634214 0 0.833565 -1.11142 0 -0.0637791 -0.259728 0 
-0.0276233 -0.716095 0 0.214255 0.431913 0 -0.376097 -0.402609 0 
0.727945 -0.196552 0 -0.413384 -0.574037 0 0.599135 0.0655863 0 
0.090201 0.123319 0 0.215565 -0.667703 0 -0.640772 -0.208686 0 
0.185876 0.140988 0 0.0378284 0.500713 0 -0.20719 -0.400586 0 
0.628752 -0.325535 0 0.236642 -0.338197 0 -0.453699 -0.267259 0 
-0.139296 0.678717 0 0.073576 0.715479 0 0.00873776 0.84223 0 
0.125735 0.0766593 0 -0.500834 -0.147801 0 0.895104 -0.179255 0 
1.21505 0.0831974 0 -0.13026 0.0728734 0 -1.37442 0.922474 0 
-0.451307 0.222541 0 -0.52084 0.0207397 0 -0.829677 0.4671 0 
-0.0834288 0.989343 0 -0.018842 0.125671 0 1.12507 0.0144105 0 
0.454051 0.297887 0 -0.252541 0.304854 0 -1.59269 -0.319105 0 
-0.273649 0.277247 0 0.0367661 0.776237 0 0.0923547 -0.586221 0 

a 3 81 double
-13.1423 -9.39177 0 -1.92169 0.934905 0 -3.85055 3.68343 0 
5.86644 2.75979 0 -8.52506 7.36291 0 10.7167 -4.81492 0 
6.48456 14.0375 0 1.5986 4.36515 0 0.507309 2.54493 0 
2.36402 1.78812 0 4.6897 -1.57182 0 -14.5037 -4.25827 0 
6.93647 -11.3061 0 15.2587 -6.19075 0 -14.4298 17.2768 0 
-0.595601 4.07166 0 10.0724 -2.47151 0 -0.830999 -0.681594 0 
-0.141495 2.16534 0 -3.2219 0.685688 0 1.71548 -0.486825 0 
-2.16299 0.72777 0 2.02739 -1.17343 0 5.29377 -0.0743234 0 
-2.47123 0.291625 0 -14.2944 -1.65004 0 -0.825702 -0.182108 0 
-3.68181 0.48407 0 -5.09352 1.86012 0 -0.408764 1.27111 0 
17.8106 -0.27255 0 -1.15556 -2.36479 0 3.66866 -9.76546 0 
1.27061 3.81395 0 -1.11405 -11.4186 0 12.58 -2.12661 0 
-6.85773 6.50673 0 -0.668351 -0.654852 0 -4.0344 -13.8458 0 
-13.1801 -9.04378 0 -6.31412 -2.66266 0 0.429135 1.8229 0 
4.08094 2.87005 0 3.53389 10.9718 0 7.38067 5.79757 0 
-2.76264 -10.4362 0 1.74901 18.6631 0 0.544509 1.24298 0 
-0.343119 -0.0305566 0 4.93219 3.80535 0 -1.15042 -2.54453 0 
-0.474963 3.54909 0 1.68355 -7.43842 0 -1.88353 -1.74404 0 
1.6036 -2.56567 0 -2.13509 -1.77795 0 4.71133 3.90743 0 
-1.25063 -1.70461 0 -3.6892 1.75513 0 -1.99238 0.515884 0 
-0.960664 3.70839 0 2.75236 -3.31748 0 3.6039 -2.69281 0 
1.20276 -2.44424 0 3.15338 -4.28449 0 -2.77867 -0.664672 0 
0.605275 -1.07022 0 -2.1718 2.95893 0 -5.1099 -2.07388 0 
13.9149 5.99949 0 -4.27199 3.88616 0 2.12852 -6.63086 0 
-9.42766 2.05462 0 -4.58982 -1.79087 0 1.58387 -0.256116 0 
0.901438 -9.52219 0 -0.0173881 13.4224 0 -0.113879 7.03369 0 
2.51663 -9.97763 0 1.42105 0.100101 0 -4.74479 -1.3207 0 

