# vtk DataFile Version 4.0
vtk output
ASCII
DATASET POLYDATA
FIELD FieldData 4
domain 1 4 string
domain_min:0|0
domain_max:5|5
cell_size:4|4
boundary:1|1

variables 1 4 string
dt:0.01
write_case:1
substeps:10
all_steps:110

constants 1 2 string
Lx:20
cell_size:4

equations 1 3 string
pos:r=verlet_r(r,v,a,dt)#true
acceleration:a=md(1,1,3)#true
vel:v=verlet_v(v,a,dt)#true

POINTS 81 float
7.93665 7.95215 0 5.6177 5.4471 0 7.86089 5.77339 0 
7.79131 6.86955 0 6.7177 6.79827 0 6.71384 5.70489 0 
6.84579 7.87806 0 5.76143 7.66208 0 5.66286 6.55268 0 
10.1181 7.72119 0 9.94225 6.63748 0 10.103 5.55559 0 
11.2302 5.67066 0 11.0163 6.74089 0 11.1967 7.8146 0 
9.02512 7.82067 0 8.86576 6.73468 0 8.97711 5.65212 0 
14.5302 5.4549 0 12.2841 7.78471 0 12.3645 5.63346 0 
12.1055 6.69441 0 14.3983 7.65186 0 13.4683 5.81741 0 
13.1856 6.88609 0 13.3614 7.96582 0 14.241 6.54232 0 
6.62353 11.1259 0 7.71178 11.1893 0 5.5492 11.0156 0 
5.7158 9.90208 0 6.69479 8.95781 0 5.62349 8.78172 0 
7.77874 9.03248 0 7.89137 10.1204 0 6.80917 10.0498 0 
11.1397 9.95887 0 10.9748 11.0255 0 10.0565 9.91524 0 
11.0413 8.88764 0 9.88182 11.0151 0 8.97314 9.98254 0 
9.94919 8.81302 0 8.86196 8.89834 0 8.78977 11.065 0 
13.166 11.1628 0 12.0766 11.1141 0 12.2171 10.0007 0 
12.1374 8.89027 0 13.2206 9.03604 0 14.2647 11.0322 0 
14.3675 9.90503 0 14.2966 8.77393 0 13.305 10.1086 0 
6.79543 12.2079 0 6.57879 14.3624 0 5.47911 14.3602 0 
7.69041 14.4238 0 6.81297 13.2968 0 5.7158 13.2573 0 
5.70475 12.1259 0 7.89488 13.3549 0 7.8914 12.2685 0 
11.1378 12.0855 0 11.0813 14.2494 0 11.0942 13.1589 0 
8.9678 12.1418 0 8.95628 13.2254 0 8.81859 14.3162 0 
10.0293 13.2028 0 10.0574 12.1067 0 9.95191 14.2982 0 
14.3287 13.293 0 14.3884 12.1626 0 14.4334 14.4093 0 
13.3216 14.3698 0 13.2365 13.293 0 13.3042 12.2322 0 
12.1932 14.4118 0 12.1566 13.3229 0 12.2173 12.2254 0 

VERTICES 162 162
1 0 
1 1 
1 2 
1 3 
1 4 
1 5 
1 6 
1 7 
1 8 
1 9 
1 10 
1 11 
1 12 
1 13 
1 14 
1 15 
1 16 
1 17 
1 18 
1 19 
1 20 
1 21 
1 22 
1 23 
1 24 
1 25 
1 26 
1 27 
1 28 
1 29 
1 30 
1 31 
1 32 
1 33 
1 34 
1 35 
1 36 
1 37 
1 38 
1 39 
1 40 
1 41 
1 42 
1 43 
1 44 
1 45 
1 46 
1 47 
1 48 
1 49 
1 50 
1 51 
1 52 
1 53 
1 54 
1 55 
1 56 
1 57 
1 58 
1 59 
1 60 
1 61 
1 62 
1 63 
1 64 
1 65 
1 66 
1 67 
1 68 
1 69 
1 70 
1 71 
1 72 
1 73 
1 74 
1 75 
1 76 
1 77 
1 78 
1 79 
1 80 

POINT_DATA 81
SCALARS id double
LOOKUP_TABLE default
20 0 18 19 10 9 11 2 1 
38 37 36 45 46 47 29 28 27 
72 56 54 55 74 63 64 65 73 
14 23 5 4 12 3 21 22 13 
49 50 40 48 41 31 39 30 32 
68 59 58 57 66 77 76 75 67 
15 17 8 26 16 7 6 25 24 
51 53 52 33 34 35 43 42 44 
79 78 80 71 70 69 62 61 60 

FIELD FieldData 4
r 3 81 double
7.93665 7.95215 0 5.6177 5.4471 0 7.86089 5.77339 0 
7.79131 6.86955 0 6.7177 6.79827 0 6.71384 5.70489 0 
6.84579 7.87806 0 5.76143 7.66208 0 5.66286 6.55268 0 
10.1181 7.72119 0 9.94225 6.63748 0 10.103 5.55559 0 
11.2302 5.67066 0 11.0163 6.74089 0 11.1967 7.8146 0 
9.02512 7.82067 0 8.86576 6.73468 0 8.97711 5.65212 0 
14.5302 5.4549 0 12.2841 7.78471 0 12.3645 5.63346 0 
12.1055 6.69441 0 14.3983 7.65186 0 13.4683 5.81741 0 
13.1856 6.88609 0 13.3614 7.96582 0 14.241 6.54232 0 
6.62353 11.1259 0 7.71178 11.1893 0 5.5492 11.0156 0 
5.7158 9.90208 0 6.69479 8.95781 0 5.62349 8.78172 0 
7.77874 9.03248 0 7.89137 10.1204 0 6.80917 10.0498 0 
11.1397 9.95887 0 10.9748 11.0255 0 10.0565 9.91524 0 
11.0413 8.88764 0 9.88182 11.0151 0 8.97314 9.98254 0 
9.94919 8.81302 0 8.86196 8.89834 0 8.78977 11.065 0 
13.166 11.1628 0 12.0766 11.1141 0 12.2171 10.0007 0 
12.1374 8.89027 0 13.2206 9.03604 0 14.2647 11.0322 0 
14.3675 9.90503 0 14.2966 8.77393 0 13.305 10.1086 0 
6.79544 12.2079 0 6.57879 14.3624 0 5.47911 14.3602 0 
7.69041 14.4238 0 6.81297 13.2968 0 5.7158 13.2573 0 
5.70475 12.1259 0 7.89488 13.3549 0 7.8914 12.2685 0 
11.1378 12.0855 0 11.0813 14.2494 0 11.0942 13.1589 0 
8.9678 12.1418 0 8.95628 13.2254 0 8.81859 14.3162 0 
10.0293 13.2028 0 10.0574 12.1067 0 9.95191 14.2982 0 
14.3287 13.293 0 14.3884 12.1626 0 14.4334 14.4093 0 
13.3216 14.3698 0 13.2365 13.293 0 13.3042 12.2322 0 
12.1932 14.4118 0 12.1566 13.3229 0 12.2173 12.2254 0 

gid 1 81 double
0 0 0 0 0 0 0 0 0 
0 0 0 0 0 0 0 0 0 
0 0 0 0 0 0 0 0 0 
0 0 0 0 0 0 0 0 0 
0 0 0 0 0 0 0 0 0 
0 0 0 0 0 0 0 0 0 
0 0 0 0 0 0 0 0 0 
0 0 0 0 0 0 0 0 0 
0 0 0 0 0 0 0 0 0 

v 3 81 double
0.40436 0.33636 0 0.0802871 -0.277056 0 0.120392 0.361122 0 
-0.262027 0.299311 0 -0.306374 0.230201 0 -0.0387303 0.222597 0 
0.35356 0.225168 0 0.438459 -0.316548 0 -0.0608324 -0.349476 0 
0.4169 -0.256783 0 -0.289171 -0.251766 0 0.262438 -0.228241 0 
0.395759 0.123617 0 -0.385035 0.0904042 0 0.402825 -0.0490997 0 
0.437419 -0.0105353 0 -0.216897 -0.061995 0 0.203884 0.00505383 0 
0.208304 -0.254299 0 0.403254 -0.176634 0 0.342809 0.0829003 0 
-0.320624 -0.140873 0 0.129542 -0.479248 0 0.107261 0.347677 0 
-0.383404 0.459227 0 0.377815 0.450734 0 -0.33526 -0.112679 0 
-0.39169 -0.00570016 0 -0.368584 0.315899 0 -0.421612 -0.188678 0 
0.312244 -0.276308 0 -0.249562 0.189976 0 -0.105502 -0.360518 0 
-0.205844 0.385857 0 0.321958 0.370242 0 0.298434 0.147094 0 
0.305443 -0.0020565 0 -0.504243 -0.0952933 0 0.260349 -0.161876 0 
-0.316608 -0.106843 0 -0.409419 -0.207157 0 0.29985 -0.0515311 0 
-0.328265 -0.17123 0 -0.271597 -0.0632084 0 -0.463038 -0.178666 0 
-0.418247 0.235118 0 -0.329677 0.108749 0 0.211354 0.0356891 0 
-0.300218 -0.0486703 0 -0.186073 0.459948 0 -0.377743 -0.179817 0 
0.145364 -0.314043 0 -0.316483 -0.44523 0 0.242317 0.334486 0 
0.229911 0.0723679 0 -0.240172 -0.0149642 0 -0.229581 -0.117566 0 
-0.223357 0.2956 0 0.17675 0.0478971 0 0.10466 -0.0929422 0 
0.153076 -0.114066 0 0.264281 0.364748 0 0.312258 0.261169 0 
0.267967 -0.254126 0 -0.0271115 -0.154628 0 0.0509694 -0.290439 0 
0.155084 -0.168625 0 0.200896 -0.0246911 0 -0.217269 -0.163837 0 
0.0311635 -0.166723 0 0.185367 -0.242447 0 -0.131842 -0.16436 0 
0.0301271 -0.075517 0 0.277091 -0.134238 0 -0.0427473 -0.134403 0 
0.012518 0.0946908 0 -0.0389432 0.237919 0 0.262416 0.187192 0 
0.00428241 0.0520448 0 -0.0692538 0.0649604 0 0.197257 0.0391336 0 

a 3 81 double
2.07403 1.19185 0 0.554903 -0.523666 0 -0.545607 0.3279 0 
-0.274483 1.23927 0 -1.92478 0.989766 0 0.125547 -0.0796034 0 
0.680996 0.409049 0 1.36094 -0.346873 0 -1.20639 -1.03599 0 
0.192449 -0.670711 0 -1.89009 -0.583469 0 0.840207 -0.522451 0 
1.26579 -0.181343 0 -1.01836 1.15836 0 2.44552 0.0585015 0 
1.76911 -0.546348 0 -1.68455 0.791184 0 1.58423 -0.82176 0 
-0.29286 0.419683 0 2.08915 -0.72089 0 0.133068 -0.7496 0 
-1.44843 0.29803 0 1.35849 -1.26389 0 -5.06142 -4.89558 0 
-0.722638 1.15915 0 0.840893 1.24138 0 5.00766 4.62934 0 
-0.38037 1.0129 0 -2.54646 2.09034 0 -2.38079 -0.828964 0 
0.944805 -0.579349 0 -1.07805 1.62379 0 -1.4933 -1.02559 0 
-0.835363 1.28286 0 2.58258 0.50387 0 0.0211397 -0.476719 0 
1.01 0.409169 0 -1.28364 -1.01674 0 0.996063 -0.116759 0 
-1.58123 -0.658081 0 -1.45151 -1.00225 0 0.786179 0.841517 0 
-0.870454 -0.844284 0 -1.8195 -0.687857 0 -1.28679 -1.48385 0 
-0.876227 2.83302 0 -2.43818 0.255271 0 2.62627 0.15261 0 
-1.11461 -0.839515 0 -0.174216 1.20652 0 -1.1959 -0.571278 0 
1.55848 -1.32734 0 -1.44868 -1.04301 0 0.601897 0.204789 0 
1.49006 -0.928973 0 0.127094 0.450188 0 -0.99698 -0.74848 0 
-0.0272337 0.891663 0 0.215379 0.093618 0 0.233461 0.147031 0 
-0.0601918 -0.518506 0 -0.39603 1.59399 0 -0.447413 0.251044 0 
2.60161 -0.868145 0 -0.0663958 0.344465 0 1.25178 0.00529822 0 
1.64591 -1.41925 0 0.795278 0.5161 0 -1.20445 -0.538203 0 
-0.827047 -0.0265532 0 -0.028225 -0.901785 0 -0.671401 0.00430827 0 
0.349444 -0.677301 0 1.37798 -0.443211 0 -0.00392236 -0.507316 0 
-0.614611 1.85257 0 -0.141808 1.90698 0 1.1038 -1.70593 0 
0.697782 1.12475 0 0.0202428 0.0856352 0 0.450405 -0.870314 0 

