# vtk DataFile Version 4.0
vtk output
ASCII
DATASET POLYDATA
FIELD FieldData 4
domain 1 4 string
domain_min:0|0
domain_max:5|5
cell_size:4|4
boundary:1|1

variables 1 4 string
dt:0.01
write_case:1
substeps:10
all_steps:90

constants 1 2 string
Lx:20
cell_size:4

equations 1 3 string
pos:r=verlet_r(r,v,a,dt)#true
acceleration:a=md(1,1,3)#true
vel:v=verlet_v(v,a,dt)#true

POINTS 81 float
7.88354 7.90294 0 5.61222 5.49588 0 7.83015 5.71234 0 
7.8248 6.81571 0 6.7863 7.84802 0 6.74046 6.75661 0 
6.71699 5.65919 0 5.69361 7.72086 0 5.66013 6.60268 0 
10.0508 7.75692 0 9.97558 6.67374 0 10.0646 5.58523 0 
11.1792 5.6394 0 11.0626 6.73897 0 11.1453 7.81841 0 
8.96815 7.82181 0 8.89983 6.73816 0 8.95687 5.64264 0 
12.2318 7.8022 0 12.2972 5.61349 0 12.1544 6.71198 0 
14.3324 6.59934 0 14.4981 5.49908 0 14.3942 7.71796 0 
13.4111 5.72147 0 13.2458 6.81147 0 13.3126 7.89708 0 
7.76309 11.1473 0 5.59108 11.0422 0 5.66353 9.94178 0 
6.71721 8.93873 0 6.75631 10.0274 0 6.68128 11.1172 0 
5.62446 8.83316 0 7.80893 8.98241 0 7.85311 10.0626 0 
10.0159 9.94354 0 11.0817 8.8923 0 11.1077 9.97013 0 
11.037 11.0418 0 9.94863 11.0408 0 8.89637 8.90552 0 
8.85077 11.0754 0 8.93537 9.99879 0 9.9913 8.84631 0 
12.1282 11.1024 0 12.1936 9.99566 0 12.17 8.89398 0 
13.2608 8.97699 0 13.2753 10.0523 0 13.2248 11.1265 0 
14.3252 11.0629 0 14.3656 9.94768 0 14.3428 8.83696 0 
6.76513 12.2006 0 7.85068 12.2236 0 5.66952 12.1497 0 
5.69002 13.2739 0 7.73322 14.3878 0 5.51008 14.373 0 
6.62319 14.3744 0 7.85421 13.3075 0 6.77513 13.2866 0 
11.0877 14.2983 0 11.0968 13.2035 0 11.1157 12.1189 0 
8.94075 12.1568 0 8.93206 13.2507 0 8.84421 14.3385 0 
9.96587 14.3338 0 10.0097 13.2373 0 10.0276 12.1389 0 
14.3359 13.3048 0 14.3615 12.183 0 14.436 14.4227 0 
13.3157 14.3727 0 13.2455 13.2808 0 13.2711 12.1972 0 
12.2028 14.4176 0 12.1674 13.3146 0 12.1878 12.206 0 

VERTICES 162 162
1 0 
1 1 
1 2 
1 3 
1 4 
1 5 
1 6 
1 7 
1 8 
1 9 
1 10 
1 11 
1 12 
1 13 
1 14 
1 15 
1 16 
1 17 
1 18 
1 19 
1 20 
1 21 
1 22 
1 23 
1 24 
1 25 
1 26 
1 27 
1 28 
1 29 
1 30 
1 31 
1 32 
1 33 
1 34 
1 35 
1 36 
1 37 
1 38 
1 39 
1 40 
1 41 
1 42 
1 43 
1 44 
1 45 
1 46 
1 47 
1 48 
1 49 
1 50 
1 51 
1 52 
1 53 
1 54 
1 55 
1 56 
1 57 
1 58 
1 59 
1 60 
1 61 
1 62 
1 63 
1 64 
1 65 
1 66 
1 67 
1 68 
1 69 
1 70 
1 71 
1 72 
1 73 
1 74 
1 75 
1 76 
1 77 
1 78 
1 79 
1 80 

POINT_DATA 81
SCALARS id double
LOOKUP_TABLE default
20 0 18 19 11 10 9 2 1 
38 37 36 45 46 47 29 28 27 
56 54 55 73 72 74 63 64 65 
23 5 4 12 13 14 3 21 22 
40 48 49 50 41 30 32 31 39 
59 58 57 66 67 68 77 76 75 
15 24 6 7 26 8 17 25 16 
53 52 51 33 34 35 44 43 42 
79 78 80 71 70 69 62 61 60 

FIELD FieldData 4
r 3 81 double
7.88354 7.90294 0 5.61222 5.49589 0 7.83015 5.71234 0 
7.8248 6.81571 0 6.7863 7.84802 0 6.74046 6.75661 0 
6.71699 5.65919 0 5.69361 7.72086 0 5.66013 6.60268 0 
10.0508 7.75692 0 9.97558 6.67374 0 10.0646 5.58523 0 
11.1792 5.6394 0 11.0626 6.73897 0 11.1453 7.81841 0 
8.96815 7.82181 0 8.89983 6.73816 0 8.95687 5.64264 0 
12.2318 7.8022 0 12.2972 5.61349 0 12.1544 6.71198 0 
14.3324 6.59934 0 14.4981 5.49908 0 14.3942 7.71796 0 
13.4111 5.72147 0 13.2458 6.81147 0 13.3126 7.89708 0 
7.76309 11.1473 0 5.59108 11.0422 0 5.66353 9.94178 0 
6.71721 8.93873 0 6.75631 10.0274 0 6.68128 11.1172 0 
5.62446 8.83316 0 7.80893 8.98241 0 7.85311 10.0626 0 
10.0159 9.94354 0 11.0817 8.8923 0 11.1077 9.97013 0 
11.037 11.0418 0 9.94863 11.0408 0 8.89637 8.90552 0 
8.85077 11.0754 0 8.93537 9.99879 0 9.9913 8.84631 0 
12.1282 11.1024 0 12.1936 9.99566 0 12.17 8.89398 0 
13.2608 8.97699 0 13.2753 10.0523 0 13.2248 11.1265 0 
14.3252 11.0629 0 14.3656 9.94768 0 14.3428 8.83696 0 
6.76513 12.2006 0 7.85068 12.2236 0 5.66952 12.1497 0 
5.69002 13.2739 0 7.73322 14.3878 0 5.51008 14.373 0 
6.62319 14.3744 0 7.85421 13.3075 0 6.77513 13.2866 0 
11.0877 14.2983 0 11.0968 13.2035 0 11.1157 12.1189 0 
8.94075 12.1568 0 8.93206 13.2507 0 8.84421 14.3385 0 
9.96587 14.3338 0 10.0097 13.2373 0 10.0276 12.1389 0 
14.3359 13.3048 0 14.3615 12.183 0 14.436 14.4227 0 
13.3157 14.3727 0 13.2455 13.2808 0 13.2711 12.1972 0 
12.2028 14.4176 0 12.1674 13.3146 0 12.1878 12.206 0 

gid 1 81 double
0 0 0 0 0 0 0 0 0 
0 0 0 0 0 0 0 0 0 
0 0 0 0 0 0 0 0 0 
0 0 0 0 0 0 0 0 0 
0 0 0 0 0 0 0 0 0 
0 0 0 0 0 0 0 0 0 
0 0 0 0 0 0 0 0 0 
0 0 0 0 0 0 0 0 0 
0 0 0 0 0 0 0 0 0 

v 3 81 double
0.208682 0.195092 0 -0.0121182 -0.211015 0 0.12828 0.238964 0 
-0.0177857 0.287707 0 0.231239 0.0732183 0 0.0220849 0.212021 0 
0.040154 0.228093 0 0.27633 -0.248669 0 0.0689113 -0.186351 0 
0.17368 -0.114927 0 -0.125808 -0.0872613 0 0.116517 -0.0583706 0 
0.138813 0.145796 0 -0.0803832 0.0297108 0 0.207638 0.0312087 0 
0.182657 -0.0278154 0 -0.168012 0.0992221 0 0.080959 0.0552686 0 
0.172992 0.000952837 0 0.328293 0.0712323 0 -0.198123 0.0357571 0 
-0.374742 -0.292239 0 0.0879923 -0.163953 0 -0.043095 -0.209004 0 
0.292457 0.417243 0 -0.252477 0.342504 0 0.0675426 0.248682 0 
-0.245651 0.212734 0 -0.0566961 -0.117037 0 0.247284 -0.10509 0 
0.0179718 0.0692111 0 0.177867 0.0250687 0 -0.113157 0.154783 0 
0.0538924 -0.165073 0 -0.0867132 0.145955 0 0.186698 0.152718 0 
0.119387 -0.110838 0 -0.109875 0.00147969 0 0.0482944 -0.0538555 0 
-0.135314 -0.138542 0 -0.246323 -0.0825426 0 -0.138501 -0.0605187 0 
-0.170252 0.00858878 0 0.0788523 -0.0133988 0 -0.0829447 -0.196042 0 
-0.271279 0.0177645 0 0.128452 0.0137297 0 -0.0781745 -0.0348771 0 
-0.179271 0.170296 0 -0.00219204 0.174605 0 -0.176687 0.289765 0 
-0.252 -0.145684 0 -0.0761293 -0.153961 0 -0.214256 -0.164392 0 
0.154181 -0.0367332 0 0.014422 0.144549 0 0.190987 -0.156016 0 
0.199264 -0.0491582 0 -0.183972 0.0504817 0 -0.114789 -0.0367488 0 
-0.17227 -0.0847306 0 0.0872869 0.151811 0 0.19732 0.0195851 0 
-0.0461379 -0.326416 0 0.0443724 -0.143971 0 0.0984341 -0.0914577 0 
0.193822 -0.0663717 0 0.0901285 -0.169472 0 -0.0769961 -0.0983048 0 
-0.0185564 -0.199762 0 0.0556176 -0.162019 0 0.061817 -0.104823 0 
-0.112059 -0.0710315 0 0.00819794 -0.0848853 0 0.0376429 0.00439231 0 
-0.00291585 -0.078688 0 -0.0791426 -0.0336197 0 0.075843 -0.0165279 0 
-0.0649169 -0.0646721 0 -0.0477833 0.0113526 0 0.0498611 0.0848426 0 

a 3 81 double
-0.110909 0.0230309 0 0.117091 -0.46047 0 0.92287 0.56337 0 
-1.30435 -0.115119 0 0.742784 0.262901 0 -0.639072 0.247582 0 
-0.714061 0.0615854 0 0.367143 -0.904468 0 -0.579574 -0.104464 0 
2.01199 -0.2295 0 0.304206 -1.1429 0 0.87141 -0.871859 0 
0.595845 0.725974 0 -0.752298 -1.36717 0 -0.00317917 -0.478082 0 
0.486541 0.00434523 0 -0.618988 -0.906406 0 -0.579494 -0.0539955 0 
0.622685 -0.684297 0 0.422879 0.455413 0 -0.627375 -1.53331 0 
-1.42907 -0.716254 0 0.540406 -0.395002 0 0.254281 -0.796466 0 
0.557243 1.16625 0 -0.114351 0.040446 0 1.72892 0.805219 0 
-0.210101 -0.358694 0 -0.972779 0.206037 0 0.0381808 -0.89057 0 
-0.819898 0.00412234 0 1.00697 0.557181 0 -1.74649 -0.27881 0 
-0.346016 -0.747464 0 -0.916294 0.523944 0 -0.425756 1.52513 0 
1.57959 -0.269259 0 -0.962403 0.526594 0 0.0578865 -0.561558 0 
-0.572394 0.547273 0 -1.70559 -0.101715 0 -0.125054 0.54169 0 
-0.445075 0.227818 0 0.426506 -1.45105 0 -0.987016 -0.00390902 0 
-0.222073 0.0423903 0 0.0530235 0.284413 0 0.156659 0.316262 0 
-0.887738 0.422477 0 1.56888 0.871406 0 -0.480506 -0.134466 0 
-0.491438 -0.0522999 0 0.362155 -0.249831 0 0.396881 -1.53592 0 
-0.305716 -0.0818983 0 1.20261 0.958569 0 -0.00457401 0.372985 0 
-1.03094 -0.477952 0 -0.621672 1.16504 0 -0.0680862 0.00529727 0 
-0.719749 -0.0460984 0 0.78895 0.712636 0 0.417107 1.05442 0 
0.149265 0.127037 0 -1.29864 -0.266146 0 -0.765438 -0.263148 0 
-0.0303323 0.7027 0 0.0801509 -0.782716 0 -0.107343 0.492356 0 
-0.299942 0.188235 0 1.28348 -0.325106 0 0.645542 -0.206589 0 
0.674033 0.138347 0 0.92044 0.0329349 0 -0.546601 -0.576113 0 
0.694311 0.354764 0 0.596007 0.440268 0 0.999382 1.61269 0 
-0.214671 -0.110182 0 -0.043627 0.259437 0 1.20236 0.960698 0 

