# vtk DataFile Version 4.0
vtk output
ASCII
DATASET POLYDATA
FIELD FieldData 4
domain 1 4 string
domain_min:0|0
domain_max:5|5
cell_size:4|4
boundary:1|1

variables 1 4 string
dt:0.01
write_case:1
substeps:10
all_steps:470

constants 1 2 string
Lx:20
cell_size:4

equations 1 3 string
pos:r=verlet_r(r,v,a,dt)#true
acceleration:a=md(1,1,3)#true
vel:v=verlet_v(v,a,dt)#true

POINTS 81 float
7.47639 7.0617 0 5.86296 5.56813 0 5.60642 7.989 0 
6.35724 7.08727 0 7.92611 6.0366 0 6.81421 6.04455 0 
6.67548 4.91916 0 8.98705 6.23158 0 10.115 6.08285 0 
11.8872 7.01528 0 10.6288 7.08036 0 11.2682 6.17803 0 
8.5089 7.14906 0 9.59739 7.11796 0 11.2831 7.99049 0 
13.0084 7.01094 0 13.5109 5.89408 0 13.5672 7.95875 0 
14.8183 7.8547 0 14.0638 6.89912 0 14.5848 5.79904 0 
12.3694 6.07576 0 7.51682 10.8623 0 6.94624 11.7277 0 
6.89093 9.99411 0 7.51055 9.03756 0 6.26349 8.8927 0 
6.89439 8.0151 0 5.11175 9.0544 0 6.20555 10.8919 0 
5.29368 11.6765 0 5.79356 9.88564 0 5.00659 10.5967 0 
9.21176 9.9904 0 8.55363 10.8861 0 10.2307 8.04945 0 
10.7245 9.0409 0 8.05693 8.09064 0 8.07389 9.94374 0 
10.3087 10.0026 0 9.08667 8.06294 0 9.67667 8.98644 0 
9.62737 11.0393 0 10.7038 11.0493 0 11.3615 10.0877 0 
11.7735 11.1254 0 8.02873 11.965 0 11.8298 8.99206 0 
8.62638 9.04716 0 12.3763 8.00179 0 13.7033 9.83566 0 
14.222 8.88467 0 13.8899 10.9698 0 13.0399 8.90244 0 
12.5115 10.1346 0 14.737 10.2999 0 14.8223 11.6132 0 
12.8442 11.3862 0 6.11877 12.3761 0 7.21615 12.8502 0 
5.10616 12.8411 0 6.13685 13.4679 0 7.78309 14.1356 0 
10.0981 13.959 0 9.05294 12.0054 0 11.2498 12.0829 0 
11.1718 14.0201 0 8.31986 13.0863 0 10.6189 13.0128 0 
8.94934 14.0881 0 10.1734 12.0856 0 11.7379 13.0684 0 
9.52504 12.9539 0 12.009 14.719 0 14.7717 12.7379 0 
14.4947 13.839 0 13.5702 14.2591 0 13.5481 13.1625 0 
13.6695 12.0737 0 12.5462 13.7404 0 12.6544 12.5464 0 

VERTICES 162 162
1 0 
1 1 
1 2 
1 3 
1 4 
1 5 
1 6 
1 7 
1 8 
1 9 
1 10 
1 11 
1 12 
1 13 
1 14 
1 15 
1 16 
1 17 
1 18 
1 19 
1 20 
1 21 
1 22 
1 23 
1 24 
1 25 
1 26 
1 27 
1 28 
1 29 
1 30 
1 31 
1 32 
1 33 
1 34 
1 35 
1 36 
1 37 
1 38 
1 39 
1 40 
1 41 
1 42 
1 43 
1 44 
1 45 
1 46 
1 47 
1 48 
1 49 
1 50 
1 51 
1 52 
1 53 
1 54 
1 55 
1 56 
1 57 
1 58 
1 59 
1 60 
1 61 
1 62 
1 63 
1 64 
1 65 
1 66 
1 67 
1 68 
1 69 
1 70 
1 71 
1 72 
1 73 
1 74 
1 75 
1 76 
1 77 
1 78 
1 79 
1 80 

POINT_DATA 81
SCALARS id double
LOOKUP_TABLE default
19 1 2 10 18 9 0 27 36 
55 46 45 28 37 47 64 63 65 
74 73 72 54 23 15 13 21 12 
11 3 14 6 4 5 31 32 38 
48 20 22 40 29 39 41 50 49 
59 24 57 30 56 67 75 77 66 
58 76 78 68 7 16 8 17 26 
44 33 51 53 25 43 35 42 52 
34 62 79 80 71 70 69 61 60 

FIELD FieldData 4
r 3 81 double
7.47639 7.0617 0 5.86296 5.56813 0 5.60642 7.989 0 
6.35724 7.08727 0 7.92611 6.0366 0 6.81421 6.04455 0 
6.67548 4.91916 0 8.98705 6.23158 0 10.115 6.08285 0 
11.8872 7.01527 0 10.6288 7.08036 0 11.2682 6.17803 0 
8.5089 7.14906 0 9.59739 7.11796 0 11.2831 7.99049 0 
13.0084 7.01094 0 13.5109 5.89408 0 13.5672 7.95875 0 
14.8183 7.8547 0 14.0638 6.89912 0 14.5848 5.79904 0 
12.3694 6.07576 0 7.51682 10.8623 0 6.94624 11.7277 0 
6.89093 9.99411 0 7.51055 9.03756 0 6.26349 8.8927 0 
6.89439 8.0151 0 5.11175 9.0544 0 6.20555 10.8919 0 
5.29368 11.6765 0 5.79356 9.88564 0 5.00659 10.5967 0 
9.21176 9.9904 0 8.55363 10.8861 0 10.2307 8.04945 0 
10.7245 9.0409 0 8.05693 8.09064 0 8.07389 9.94374 0 
10.3087 10.0026 0 9.08667 8.06294 0 9.67667 8.98644 0 
9.62737 11.0393 0 10.7038 11.0493 0 11.3615 10.0877 0 
11.7735 11.1254 0 8.02873 11.965 0 11.8298 8.99206 0 
8.62638 9.04716 0 12.3763 8.00179 0 13.7033 9.83565 0 
14.222 8.88467 0 13.8899 10.9698 0 13.0399 8.90244 0 
12.5115 10.1346 0 14.737 10.2999 0 14.8223 11.6132 0 
12.8442 11.3862 0 6.11877 12.3761 0 7.21615 12.8502 0 
5.10616 12.8411 0 6.13685 13.4679 0 7.78309 14.1356 0 
10.0981 13.959 0 9.05294 12.0054 0 11.2498 12.0829 0 
11.1718 14.0201 0 8.31986 13.0863 0 10.6189 13.0128 0 
8.94934 14.0881 0 10.1734 12.0856 0 11.7379 13.0684 0 
9.52504 12.9539 0 12.009 14.719 0 14.7717 12.7379 0 
14.4947 13.839 0 13.5702 14.2591 0 13.5481 13.1625 0 
13.6695 12.0737 0 12.5462 13.7404 0 12.6544 12.5464 0 

gid 1 81 double
0 0 0 0 0 0 0 0 0 
0 0 0 0 0 0 0 0 0 
0 0 0 0 0 0 0 0 0 
0 0 0 0 0 0 0 0 0 
0 0 0 0 0 0 0 0 0 
0 0 0 0 0 0 0 0 0 
0 0 0 0 0 0 0 0 0 
0 0 0 0 0 0 0 0 0 
0 0 0 0 0 0 0 0 0 

v 3 81 double
0.302732 -0.716346 0 0.690674 -0.167717 0 -0.307959 -0.113654 0 
0.0790183 0.0663748 0 0.0182309 0.491448 0 0.476663 -0.267465 0 
0.532775 -1.25674 0 -0.540146 0.206003 0 0.205408 0.616239 0 
0.662947 0.00296807 0 -0.4854 0.251713 0 -0.752069 -0.400702 0 
1.04174 -0.065369 0 -0.30774 -0.305424 0 -0.169346 0.657052 0 
-0.0767574 0.0528979 0 -0.308175 -0.310628 0 0.224165 0.112863 0 
-0.760245 0.37562 0 -0.149147 -0.00297228 0 -0.283272 -0.372995 0 
0.0648097 0.463611 0 0.491218 0.498291 0 -0.289608 0.246918 0 
-0.33306 -0.493377 0 0.686755 -0.104415 0 -0.457701 -0.017649 0 
0.208555 -0.472121 0 -0.566289 -0.159147 0 -0.848373 -0.649675 0 
0.0893793 -0.286203 0 0.0387772 -0.70004 0 -0.562835 -0.612552 0 
-0.0979943 0.225184 0 0.110081 0.339735 0 -0.5811 0.158724 0 
-0.520942 -0.214914 0 0.795294 -0.0616691 0 -0.775831 0.640446 0 
-0.528413 0.31766 0 -0.131604 0.603384 0 0.1579 0.413787 0 
-0.106514 0.279813 0 0.0195013 0.555009 0 0.330201 0.837474 0 
-0.380599 -0.459018 0 0.199854 0.0516551 0 0.341204 0.0343245 0 
-0.0240171 0.377686 0 0.295721 0.154483 0 0.999636 0.378512 0 
-0.314885 -0.634126 0 1.11706 0.318802 0 0.502566 0.0223482 0 
0.0155946 0.618127 0 -0.303895 -1.08533 0 0.743239 -0.571697 0 
-0.226924 -0.427149 0 -0.0278184 0.167596 0 0.146084 -0.253738 0 
0.447384 0.412148 0 -0.374535 0.949394 0 0.650636 -0.316091 0 
-0.448505 -0.543823 0 -0.862863 0.201906 0 -0.582932 -0.312229 0 
-0.499935 -0.208393 0 0.558493 -0.663068 0 -0.43269 0.586557 0 
0.789645 -0.180219 0 0.0978058 -0.0526619 0 -0.245089 -0.0502367 0 
-0.34302 -0.284193 0 0.590592 0.302728 0 -0.0198534 0.00938227 0 
0.436378 0.309271 0 0.541942 -0.0179551 0 -0.0747961 -0.251997 0 
0.056333 -0.670037 0 0.087239 0.253097 0 -0.125726 0.572026 0 

a 3 81 double
-10.9163 -1.10979 0 -13.1316 4.90092 0 2.85126 0.287998 0 
-3.07801 -3.74155 0 -2.40759 1.3784 0 5.73435 5.15048 0 
8.84634 -5.46486 0 7.4522 -12.4479 0 -0.0304797 2.0861 0 
-0.818201 14.8376 0 17.319 -7.4936 0 -8.00559 -8.38836 0 
4.4954 -1.56902 0 -4.80624 -0.623442 0 5.30457 1.05977 0 
-7.45048 -1.32967 0 -5.90767 4.06621 0 3.42117 -2.92207 0 
-5.30626 0.101974 0 6.9067 -0.0739619 0 2.61114 2.09048 0 
6.16359 -5.70365 0 -5.34703 -0.10607 0 -0.499568 5.45536 0 
-0.268464 -6.10461 0 -8.0437 -3.92376 0 1.21701 4.00788 0 
5.15849 3.41851 0 0.0206128 -4.15778 0 -0.56477 3.92316 0 
-0.160272 -1.61652 0 4.83826 -2.16079 0 -2.01516 3.67121 0 
-1.92629 1.21206 0 10.8077 10.4896 0 -11.1733 5.34115 0 
13.2466 -6.61205 0 -18.7614 4.86558 0 -3.08069 1.19616 0 
-11.2445 7.36488 0 14.1038 2.10586 0 0.530188 3.66964 0 
0.897927 0.0352134 0 0.18774 1.49148 0 6.82632 -2.26575 0 
5.84066 -3.06922 0 -14.4707 -1.47781 0 3.03627 2.19234 0 
-4.6753 -3.65719 0 5.44103 -0.216312 0 -4.1915 4.11894 0 
0.283975 -4.179 0 -3.67428 1.44412 0 -2.28997 5.81361 0 
0.431529 0.143284 0 1.78548 -1.31923 0 -3.27459 -1.28785 0 
-2.92352 -2.81061 0 -0.947799 4.05836 0 -1.75457 -1.41999 0 
2.05465 -0.73838 0 0.72172 -0.366537 0 1.6889 -3.72542 0 
-7.85622 1.2067 0 9.68262 -5.85971 0 2.62515 -0.546221 0 
2.73163 -2.41142 0 3.07885 -0.498355 0 9.97904 9.77436 0 
-0.140753 -4.31143 0 -8.05176 -17.8323 0 -11.383 -0.769313 0 
-3.61454 11.4573 0 2.21035 0.821526 0 -4.69379 -0.0738813 0 
14.5858 -9.25946 0 -17.9041 8.3391 0 3.94814 2.28315 0 
7.73784 1.06103 0 7.37107 2.44713 0 2.61484 -5.72384 0 

