# vtk DataFile Version 4.0
vtk output
ASCII
DATASET POLYDATA
FIELD FieldData 4
domain 1 4 string
domain_min:0|0
domain_max:5|5
cell_size:4|4
boundary:1|1

variables 1 4 string
dt:0.01
write_case:1
substeps:10
all_steps:410

constants 1 2 string
Lx:20
cell_size:4

equations 1 3 string
pos:r=verlet_r(r,v,a,dt)#true
acceleration:a=md(1,1,3)#true
vel:v=verlet_v(v,a,dt)#true

POINTS 81 float
5.91699 7.09598 0 5.52034 6.09003 0 6.62413 5.11009 0 
6.85037 7.99386 0 6.59397 6.22312 0 7.38193 7.06161 0 
7.82911 6.04231 0 11.938 6.91289 0 10.7726 6.96707 0 
9.64534 6.94938 0 8.55829 6.94797 0 9.06476 5.92171 0 
11.3909 7.8683 0 10.2727 6.00273 0 9.16659 7.94385 0 
10.2446 7.97118 0 11.4215 5.74929 0 8.05315 7.98362 0 
14.1708 6.98834 0 13.0342 7.00949 0 13.6203 5.96115 0 
13.6303 7.96139 0 12.5709 5.99631 0 14.7655 7.99943 0 
14.7669 6.11723 0 12.4795 7.96744 0 6.97745 11.8959 0 
7.51021 8.91771 0 6.40557 8.99851 0 5.73907 10.0183 0 
6.84515 10.1167 0 4.95864 9.28988 0 6.18848 11.0844 0 
4.72426 10.6131 0 5.60826 8.1653 0 7.54694 10.9963 0 
5.21638 11.8238 0 7.96676 9.92591 0 11.5665 11.7152 0 
8.12339 11.9373 0 9.65135 8.89389 0 9.07754 9.97763 0 
9.70785 10.9758 0 11.9591 10.7501 0 8.55984 8.94259 0 
11.926 8.90648 0 10.4528 11.8799 0 11.3722 9.85094 0 
10.7756 8.87748 0 10.8219 10.8578 0 10.1073 9.91037 0 
8.6379 11.0096 0 13.8009 11.0315 0 14.7373 11.6815 0 
13.8078 9.8829 0 13.0582 8.87697 0 12.6762 9.80194 0 
12.7011 11.5574 0 14.2912 8.93555 0 14.8085 10.2275 0 
6.21038 13.6369 0 5.1611 13.0449 0 7.59013 13.8891 0 
6.07401 12.5343 0 7.12088 12.9286 0 11.2311 14.0413 0 
9.23326 12.0079 0 9.9865 14.0509 0 8.29181 13.0768 0 
10.3961 13.0007 0 8.81411 14.0727 0 9.38456 13.0903 0 
11.5212 12.9422 0 12.2768 14.7874 0 14.5159 12.871 0 
14.449 14.0324 0 13.3615 14.5475 0 13.5507 13.341 0 
13.6513 12.135 0 12.5027 13.7172 0 12.6097 12.6281 0 

VERTICES 162 162
1 0 
1 1 
1 2 
1 3 
1 4 
1 5 
1 6 
1 7 
1 8 
1 9 
1 10 
1 11 
1 12 
1 13 
1 14 
1 15 
1 16 
1 17 
1 18 
1 19 
1 20 
1 21 
1 22 
1 23 
1 24 
1 25 
1 26 
1 27 
1 28 
1 29 
1 30 
1 31 
1 32 
1 33 
1 34 
1 35 
1 36 
1 37 
1 38 
1 39 
1 40 
1 41 
1 42 
1 43 
1 44 
1 45 
1 46 
1 47 
1 48 
1 49 
1 50 
1 51 
1 52 
1 53 
1 54 
1 55 
1 56 
1 57 
1 58 
1 59 
1 60 
1 61 
1 62 
1 63 
1 64 
1 65 
1 66 
1 67 
1 68 
1 69 
1 70 
1 71 
1 72 
1 73 
1 74 
1 75 
1 76 
1 77 
1 78 
1 79 
1 80 

POINT_DATA 81
SCALARS id double
LOOKUP_TABLE default
10 1 0 11 9 19 18 55 46 
37 28 27 47 36 29 38 45 20 
73 64 63 65 54 74 72 56 15 
21 12 4 13 3 14 5 2 23 
6 22 51 24 39 31 41 59 30 
57 42 49 48 50 40 32 77 78 
67 66 58 68 75 76 17 8 26 
7 16 53 33 44 25 43 35 34 
52 62 79 80 71 70 69 61 60 

FIELD FieldData 4
r 3 81 double
5.91699 7.09598 0 5.52034 6.09003 0 6.62413 5.11009 0 
6.85037 7.99386 0 6.59397 6.22312 0 7.38193 7.06161 0 
7.82911 6.04231 0 11.938 6.91289 0 10.7726 6.96707 0 
9.64534 6.94938 0 8.55829 6.94797 0 9.06476 5.92171 0 
11.3909 7.8683 0 10.2727 6.00273 0 9.16659 7.94385 0 
10.2446 7.97118 0 11.4215 5.74929 0 8.05315 7.98362 0 
14.1708 6.98834 0 13.0342 7.00949 0 13.6203 5.96115 0 
13.6303 7.96139 0 12.5709 5.99631 0 14.7655 7.99943 0 
14.7669 6.11723 0 12.4795 7.96744 0 6.97745 11.8959 0 
7.51021 8.91771 0 6.40557 8.99851 0 5.73907 10.0183 0 
6.84515 10.1167 0 4.95864 9.28988 0 6.18848 11.0844 0 
4.72426 10.6131 0 5.60826 8.1653 0 7.54694 10.9963 0 
5.21638 11.8238 0 7.96676 9.92591 0 11.5665 11.7152 0 
8.12339 11.9373 0 9.65135 8.89389 0 9.07754 9.97763 0 
9.70785 10.9758 0 11.9591 10.7501 0 8.55984 8.94259 0 
11.926 8.90648 0 10.4528 11.8799 0 11.3722 9.85094 0 
10.7756 8.87748 0 10.8219 10.8578 0 10.1073 9.91037 0 
8.6379 11.0096 0 13.8009 11.0315 0 14.7373 11.6815 0 
13.8078 9.8829 0 13.0582 8.87697 0 12.6762 9.80194 0 
12.7011 11.5574 0 14.2912 8.93555 0 14.8085 10.2275 0 
6.21038 13.6369 0 5.1611 13.0449 0 7.59013 13.8891 0 
6.07401 12.5343 0 7.12088 12.9286 0 11.2311 14.0413 0 
9.23326 12.0079 0 9.9865 14.0509 0 8.29181 13.0768 0 
10.3961 13.0007 0 8.81411 14.0727 0 9.38456 13.0903 0 
11.5212 12.9422 0 12.2768 14.7874 0 14.5159 12.871 0 
14.449 14.0324 0 13.3615 14.5475 0 13.5507 13.341 0 
13.6513 12.135 0 12.5027 13.7172 0 12.6097 12.6281 0 

gid 1 81 double
0 0 0 0 0 0 0 0 0 
0 0 0 0 0 0 0 0 0 
0 0 0 0 0 0 0 0 0 
0 0 0 0 0 0 0 0 0 
0 0 0 0 0 0 0 0 0 
0 0 0 0 0 0 0 0 0 
0 0 0 0 0 0 0 0 0 
0 0 0 0 0 0 0 0 0 
0 0 0 0 0 0 0 0 0 

v 3 81 double
0.464187 -0.503842 0 -0.44852 -1.16858 0 0.266786 0.228562 0 
0.391501 -0.195262 0 0.374637 0.0229113 0 -0.380846 0.0347255 0 
0.150092 0.902248 0 -0.254217 -0.0678077 0 0.299995 0.460896 0 
-0.47865 -0.0352407 0 0.444748 0.00522294 0 -0.298909 0.269702 0 
0.447847 0.143764 0 0.281124 0.161178 0 -0.641388 -0.206612 0 
0.0232947 0.186102 0 -0.389694 -0.137806 0 0.216428 -0.0372881 0 
-0.374162 -0.142219 0 0.291399 0.40938 0 -0.484228 0.369483 0 
0.527645 -0.150554 0 -0.561726 -0.0982841 0 -0.158873 -0.0650662 0 
-0.594433 0.0773571 0 0.0838526 0.325788 0 -0.00540952 0.209739 0 
-0.106082 -0.227676 0 0.489745 0.223484 0 0.637775 -0.546373 0 
-0.405603 -0.22857 0 1.05345 -0.593029 0 0.400496 -0.298305 0 
0.562105 0.409071 0 -0.159562 -0.453459 0 0.221317 0.0809415 0 
-0.379874 -0.318857 0 -0.222619 -0.1047 0 -1.00328 0.207961 0 
-0.00179942 0.226916 0 -0.792251 0.401844 0 0.220741 0.121174 0 
-0.393186 -0.579303 0 -0.0588899 0.818022 0 0.152199 0.105401 0 
0.106684 0.886593 0 -0.623014 -0.182877 0 0.0692845 0.975752 0 
-0.123797 0.492595 0 -0.128723 0.883603 0 -0.140792 0.399778 0 
0.0975855 -0.21553 0 0.0415613 0.0315937 0 -0.878711 -0.174929 0 
-0.352356 -0.0911875 0 0.145408 -0.00883338 0 -0.884334 -0.305453 0 
0.494869 -0.741765 0 -0.324613 -0.866849 0 0.324412 0.904191 0 
0.000674561 -0.402648 0 -0.026841 -1.00564 0 -0.337725 -0.383865 0 
-0.0630832 -0.415014 0 0.470573 0.431258 0 -0.136221 -0.192977 0 
0.484754 0.508401 0 0.244521 0.69229 0 0.545252 0.348348 0 
0.200097 -0.37932 0 0.127241 -0.132564 0 -0.245661 -0.291292 0 
0.371581 0.387465 0 -0.0473904 -0.717534 0 -0.206354 -0.760643 0 
0.267519 -0.698482 0 -0.0802625 0.518947 0 1.141 -0.398672 0 
0.0945306 -0.629842 0 0.400402 -0.202 0 0.18039 0.893591 0 

a 3 81 double
3.93282 5.31781 0 -3.50125 -4.25306 0 -0.0410587 1.21322 0 
-2.60014 1.42307 0 7.56584 1.1875 0 2.45925 -3.39959 0 
0.466601 0.669966 0 -2.82249 -0.952701 0 1.94934 0.135943 0 
3.97991 -1.17532 0 -4.90418 1.02887 0 0.429169 3.4653 0 
-3.03576 6.25037 0 -2.07673 -1.96993 0 -8.00313 -3.74277 0 
1.14968 -10.9271 0 0.162462 4.89306 0 -2.03296 -7.56553 0 
-4.98903 5.94173 0 3.94537 -1.69912 0 9.21041 3.73217 0 
1.67824 -0.994807 0 -10.0208 -0.417571 0 1.68676 -9.30069 0 
2.34112 -5.75725 0 1.16665 -6.05265 0 -2.76437 -5.95176 0 
-10.663 2.78995 0 -3.67741 4.93301 0 3.65857 3.87965 0 
0.858154 -1.86792 0 -1.56894 -3.77355 0 -0.00609921 -0.0779435 0 
3.99765 -0.562181 0 2.39992 3.29822 0 -1.26482 -7.14975 0 
1.25737 -1.62483 0 0.344802 2.95872 0 -2.52482 12.3547 0 
-4.67821 9.14249 0 2.38378 7.79333 0 -10.6134 -0.868172 0 
4.72156 -0.446807 0 5.39942 -8.77289 0 8.718 3.83213 0 
-0.691657 0.127336 0 -3.89843 2.5496 0 -4.73741 -1.76624 0 
5.47156 8.10744 0 1.60878 -5.01232 0 17.0778 -0.153318 0 
0.250554 -6.06536 0 -0.409945 -1.90608 0 -3.22247 1.15245 0 
-11.565 2.27672 0 12.2324 -13.7558 0 -12.4429 22.7013 0 
2.02819 -4.26361 0 -4.51869 2.13245 0 3.68689 3.35376 0 
1.00556 -1.36077 0 -5.61808 3.07381 0 0.169535 7.508 0 
7.76249 -5.81872 0 1.36426 4.97341 0 0.574672 -1.82351 0 
1.88523 -2.7808 0 0.424329 -1.18069 0 -0.504539 -6.43556 0 
18.4401 -0.819986 0 -0.150653 -1.54758 0 -15.0945 3.84965 0 
1.42009 -1.23669 0 -2.93951 0.406433 0 3.27871 -3.14579 0 
-2.75393 -1.2347 0 1.48102 -5.31323 0 -5.14055 0.743753 0 
1.06467 3.53832 0 -2.46898 0.315306 0 0.856184 1.87371 0 

