# vtk DataFile Version 4.0
vtk output
ASCII
DATASET POLYDATA
FIELD FieldData 4
domain 1 4 string
domain_min:0|0
domain_max:5|5
cell_size:4|4
boundary:1|1

variables 1 4 string
dt:0.01
write_case:1
substeps:10
all_steps:870

constants 1 2 string
Lx:20
cell_size:4

equations 1 3 string
pos:r=verlet_r(r,v,a,dt)#true
acceleration:a=md(1,1,3)#true
vel:v=verlet_v(v,a,dt)#true

POINTS 81 float
5.58002 7.93336 0 6.75768 7.8433 0 7.86224 5.93505 0 
7.88762 7.88179 0 7.303 4.81679 0 6.73029 5.86052 0 
6.13214 6.88468 0 6.12239 4.74404 0 7.27259 6.86732 0 
9.03288 7.85154 0 10.1347 7.88487 0 11.8789 6.77375 0 
9.04546 5.9012 0 8.4022 6.92276 0 10.1956 5.85856 0 
9.66179 6.9066 0 11.4476 5.68901 0 11.2553 7.89978 0 
10.7417 6.88612 0 14.1706 7.14406 0 13.0882 6.98143 0 
15.2873 7.19327 0 12.5079 5.93133 0 12.4349 7.86976 0 
7.87282 9.75029 0 7.38783 10.7798 0 7.37461 8.78209 0 
6.79425 11.7147 0 5.74889 9.82039 0 5.05918 10.7538 0 
6.22125 10.7793 0 6.79873 9.84914 0 6.32838 8.80933 0 
5.61081 11.7136 0 7.92063 11.7803 0 5.0119 8.86187 0 
8.44606 8.83874 0 10.1122 11.8925 0 9.06535 9.8032 0 
10.7472 10.9029 0 9.55866 8.80483 0 9.56576 10.8435 0 
8.96952 11.8375 0 11.8431 11.0145 0 10.1334 9.95771 0 
11.1813 9.76291 0 8.50571 10.7981 0 10.6383 8.82946 0 
11.2233 11.9329 0 11.7963 8.84842 0 12.8911 10.9878 0 
13.5436 8.05097 0 15.4103 8.96053 0 13.4442 10.0099 0 
12.3443 11.9569 0 12.2387 9.9438 0 12.8691 9.08622 0 
14.6091 8.08455 0 13.922 10.9298 0 14.7574 9.99933 0 
13.6474 11.9889 0 14.7183 11.7663 0 14.1208 9.07549 0 
6.6535 13.7229 0 6.13927 12.7416 0 7.36189 12.6972 0 
7.71479 14.8966 0 7.7157 13.8341 0 11.7447 12.8187 0 
11.0246 13.9645 0 11.9554 14.5414 0 8.38953 12.7823 0 
10.6754 12.9745 0 8.82054 13.909 0 9.45007 12.7951 0 
9.95173 13.8348 0 12.5225 13.6329 0 13.5786 13.3987 0 
13.2769 14.5101 0 14.4852 14.1321 0 14.5305 12.8263 0 

VERTICES 162 162
1 0 
1 1 
1 2 
1 3 
1 4 
1 5 
1 6 
1 7 
1 8 
1 9 
1 10 
1 11 
1 12 
1 13 
1 14 
1 15 
1 16 
1 17 
1 18 
1 19 
1 20 
1 21 
1 22 
1 23 
1 24 
1 25 
1 26 
1 27 
1 28 
1 29 
1 30 
1 31 
1 32 
1 33 
1 34 
1 35 
1 36 
1 37 
1 38 
1 39 
1 40 
1 41 
1 42 
1 43 
1 44 
1 45 
1 46 
1 47 
1 48 
1 49 
1 50 
1 51 
1 52 
1 53 
1 54 
1 55 
1 56 
1 57 
1 58 
1 59 
1 60 
1 61 
1 62 
1 63 
1 64 
1 65 
1 66 
1 67 
1 68 
1 69 
1 70 
1 71 
1 72 
1 73 
1 74 
1 75 
1 76 
1 77 
1 78 
1 79 
1 80 

POINT_DATA 81
SCALARS id double
LOOKUP_TABLE default
2 11 18 20 0 9 10 1 19 
29 38 55 27 28 36 37 45 47 
46 63 64 72 54 56 22 23 21 
15 4 5 14 13 12 6 24 3 
30 42 31 50 39 41 33 59 40 
49 32 48 51 57 68 65 74 67 
60 58 66 73 77 76 69 78 75 
17 7 16 8 26 52 53 62 25 
43 35 34 44 61 70 71 80 79 

FIELD FieldData 4
r 3 81 double
5.58002 7.93336 0 6.75768 7.8433 0 7.86224 5.93505 0 
7.88762 7.88179 0 7.303 4.81679 0 6.73029 5.86052 0 
6.13214 6.88468 0 6.12239 4.74404 0 7.27259 6.86732 0 
9.03288 7.85154 0 10.1347 7.88487 0 11.8789 6.77375 0 
9.04546 5.9012 0 8.4022 6.92276 0 10.1956 5.85856 0 
9.66179 6.9066 0 11.4476 5.68901 0 11.2553 7.89978 0 
10.7417 6.88612 0 14.1706 7.14406 0 13.0882 6.98144 0 
15.2873 7.19327 0 12.5079 5.93133 0 12.4349 7.86976 0 
7.87282 9.75029 0 7.38783 10.7798 0 7.37461 8.78209 0 
6.79425 11.7147 0 5.74889 9.82039 0 5.05918 10.7538 0 
6.22125 10.7793 0 6.79873 9.84914 0 6.32838 8.80933 0 
5.61081 11.7136 0 7.92063 11.7803 0 5.0119 8.86187 0 
8.44606 8.83874 0 10.1122 11.8925 0 9.06535 9.8032 0 
10.7472 10.9029 0 9.55866 8.80483 0 9.56576 10.8435 0 
8.96952 11.8375 0 11.8431 11.0145 0 10.1334 9.95771 0 
11.1813 9.76291 0 8.50571 10.7981 0 10.6383 8.82946 0 
11.2233 11.9329 0 11.7963 8.84843 0 12.8911 10.9878 0 
13.5436 8.05097 0 15.4103 8.96053 0 13.4442 10.0099 0 
12.3443 11.9569 0 12.2387 9.94379 0 12.8691 9.08622 0 
14.6091 8.08455 0 13.922 10.9298 0 14.7574 9.99933 0 
13.6474 11.9889 0 14.7183 11.7663 0 14.1208 9.07549 0 
6.6535 13.7229 0 6.13927 12.7416 0 7.36189 12.6972 0 
7.71479 14.8966 0 7.7157 13.8341 0 11.7447 12.8187 0 
11.0246 13.9645 0 11.9554 14.5414 0 8.38953 12.7823 0 
10.6754 12.9745 0 8.82054 13.909 0 9.45007 12.7951 0 
9.95173 13.8348 0 12.5225 13.6329 0 13.5786 13.3987 0 
13.2769 14.5101 0 14.4852 14.1321 0 14.5305 12.8263 0 

gid 1 81 double
0 0 0 0 0 0 0 0 0 
0 0 0 0 0 0 0 0 0 
0 0 0 0 0 0 0 0 0 
0 0 0 0 0 0 0 0 0 
0 0 0 0 0 0 0 0 0 
0 0 0 0 0 0 0 0 0 
0 0 0 0 0 0 0 0 0 
0 0 0 0 0 0 0 0 0 
0 0 0 0 0 0 0 0 0 

v 3 81 double
-0.497118 -0.262343 0 -0.711535 -0.608908 0 0.0351912 0.562852 0 
0.677944 -0.180772 0 -0.37282 -0.0995151 0 -0.78577 -0.0546017 0 
-0.12337 0.47905 0 -0.0969751 0.31936 0 0.397641 0.0613413 0 
-0.485752 -0.38957 0 0.602404 0.255712 0 0.23886 -0.131977 0 
0.662104 0.64041 0 0.2496 0.947109 0 -0.906154 -0.0905539 0 
0.19953 -0.147323 0 -0.0438996 -0.423865 0 0.0789112 -0.917152 0 
0.103963 -0.0209158 0 0.378762 -0.343681 0 0.378596 -0.332833 0 
0.00500347 0.142796 0 -0.119967 -0.0963303 0 0.495961 0.465142 0 
0.539503 0.332708 0 -0.541519 -0.308487 0 0.570284 -0.464576 0 
-1.08696 -1.30774 0 0.347169 0.594633 0 0.0216446 -0.235452 0 
0.4786 -0.202587 0 0.183364 0.0376869 0 0.489774 0.49338 0 
-0.084107 0.543423 0 -0.152012 -0.329144 0 0.561777 -0.822866 0 
-0.132477 0.55883 0 -0.474785 0.26019 0 -0.0255934 0.219947 0 
0.0967551 -0.217802 0 -0.00952409 0.0548885 0 0.783686 0.0535515 0 
-0.314487 -0.324474 0 -0.342119 -0.752056 0 0.493088 0.333312 0 
-0.135489 0.394409 0 0.0952691 0.606274 0 0.559509 0.635019 0 
0.182898 -0.404497 0 -0.50056 -0.455548 0 0.123575 -0.0785423 0 
-0.368196 0.7136 0 -0.106743 0.312868 0 -0.00766606 0.406297 0 
-0.686044 -0.641225 0 -0.777808 0.435761 0 -0.628227 -0.146535 0 
-0.128192 0.157296 0 -0.0101377 0.0980359 0 0.820707 0.0647763 0 
-0.184261 -0.30842 0 -0.509091 0.163346 0 -0.374589 0.46361 0 
0.881575 0.337313 0 -0.606159 -0.626647 0 -0.28084 0.811429 0 
1.20278 -0.214987 0 0.443388 -0.0254037 0 0.122848 -0.392966 0 
0.407246 0.498478 0 -0.426886 0.48322 0 -0.243052 -0.996547 0 
0.731503 -0.508705 0 -0.831074 -0.217937 0 0.540113 0.0406578 0 
-0.211785 -0.661056 0 0.0521367 0.247198 0 -0.730836 -0.319066 0 
-0.119279 -0.213235 0 0.203652 0.878184 0 0.352161 -0.427727 0 

a 3 81 double
5.65539 -2.96312 0 0.592583 -5.81205 0 1.05534 -2.70876 0 
3.45904 -9.98208 0 -1.81204 4.19661 0 0.173684 -0.808835 0 
1.97657 1.07969 0 3.2488 2.41905 0 0.251251 1.21288 0 
-3.96731 -1.77122 0 2.67448 -5.59166 0 -4.4315 9.82872 0 
-1.05355 4.06694 0 4.16827 -4.02213 0 1.09806 3.30979 0 
-7.70099 -4.76631 0 -5.33757 3.08926 0 1.71498 -4.81308 0 
4.08704 -0.579008 0 -2.59521 -10.54 0 -4.04427 -1.88645 0 
0.0431735 0.488733 0 8.51343 -3.4633 0 -3.92602 2.56212 0 
5.67641 7.98101 0 0.0714812 0.209138 0 -3.38393 9.06087 0 
-1.82483 4.64174 0 -11.4626 -6.8351 0 2.48338 -2.35546 0 
1.03091 4.34538 0 5.74131 -5.1037 0 -14.6097 8.06073 0 
3.45432 2.1792 0 -6.319 -6.60823 0 2.58391 4.28165 0 
7.71022 -2.45172 0 -0.358054 -1.48087 0 -6.46168 0.790079 0 
-3.20415 -0.559333 0 -2.14797 6.23258 0 3.53838 8.98945 0 
7.85935 -6.50254 0 -9.63378 -7.24443 0 2.52534 -8.98982 0 
1.85627 5.78494 0 -6.96483 -1.59272 0 4.14388 3.75967 0 
-8.21611 -10.0467 0 0.479967 0.744692 0 -3.40532 -0.332049 0 
-7.51675 3.39972 0 -5.25745 0.229877 0 -3.48919 -8.99408 0 
9.39927 -1.21042 0 3.21136 6.81835 0 6.35526 -10.5722 0 
11.588 11.0839 0 20.2621 6.42297 0 -2.86261 -0.0151436 0 
-5.09224 3.67227 0 1.45867 -5.84701 0 -2.74804 0.314395 0 
-2.55733 -1.45363 0 3.00225 -4.42262 0 -17.9862 5.85348 0 
0.401984 4.44784 0 4.95515 -10.1602 0 4.88902 19.9883 0 
6.47266 5.05793 0 1.20429 4.31512 0 5.90317 6.60851 0 
-8.78313 -11.6842 0 0.887541 -3.78348 0 10.128 7.64205 0 
-4.71639 -2.22904 0 -0.986976 -3.1252 0 3.25397 -0.087027 0 
-0.508219 -3.20183 0 -3.6984 -2.70756 0 -2.17644 4.13467 0 

