# vtk DataFile Version 4.0
vtk output
ASCII
DATASET POLYDATA
FIELD FieldData 4
domain 1 4 string
domain_min:0|0
domain_max:5|5
cell_size:4|4
boundary:1|1

variables 1 4 string
dt:0.01
write_case:1
substeps:10
all_steps:210

constants 1 2 string
Lx:20
cell_size:4

equations 1 3 string
pos:r=verlet_r(r,v,a,dt)#true
acceleration:a=md(1,1,3)#true
vel:v=verlet_v(v,a,dt)#true

POINTS 81 float
6.50957 7.03602 0 5.70251 6.27285 0 5.82705 5.09551 0 
6.75015 5.8643 0 7.92162 6.05695 0 7.62925 7.15594 0 
11.4031 7.84819 0 10.1566 6.07436 0 9.00089 5.80299 0 
10.7971 6.93396 0 11.9377 6.97508 0 11.3022 5.90555 0 
9.69914 7.0227 0 10.2906 7.9447 0 9.1413 7.93337 0 
8.65281 6.94204 0 14.7004 5.60075 0 12.6242 7.8476 0 
14.7842 7.80071 0 12.4203 5.9247 0 14.2396 6.80559 0 
13.5442 5.84502 0 13.7125 7.86469 0 13.0734 6.84331 0 
7.38454 10.99 0 5.07338 11.026 0 5.26665 9.07839 0 
5.86045 8.03099 0 6.33376 11.0111 0 5.81398 9.99697 0 
7.45078 9.06462 0 5.75761 11.9492 0 6.90242 11.951 0 
6.32275 8.9549 0 6.87833 9.96879 0 6.99177 8.04246 0 
9.66456 8.86744 0 8.50197 11.1273 0 8.09034 8.11493 0 
9.67985 11.1635 0 8.57756 9.16346 0 8.03074 10.1453 0 
10.2554 9.77709 0 9.16728 10.1662 0 10.8459 10.7179 0 
11.6822 11.5932 0 11.4079 9.69696 0 10.6008 11.762 0 
11.9331 10.5849 0 10.8417 8.80601 0 11.957 8.77406 0 
13.5674 10.0968 0 14.695 10.202 0 14.9462 11.9222 0 
12.564 9.71546 0 13.1319 8.804 0 14.1008 11.1476 0 
12.8712 11.2618 0 14.2255 9.04987 0 5.17078 13.963 0 
7.41365 14.362 0 6.98624 13.1321 0 7.97915 12.3351 0 
5.88429 13.0862 0 6.33109 14.0991 0 11.2748 12.6293 0 
9.1008 12.0921 0 9.08649 13.1825 0 8.8042 14.3242 0 
10.1155 12.7533 0 10.0199 13.9115 0 11.1213 13.7207 0 
8.01412 13.4363 0 14.2998 12.9774 0 14.1182 14.1676 0 
13.1091 14.6476 0 13.1771 13.3532 0 13.5329 12.2431 0 
12.0136 14.5066 0 12.0788 13.3457 0 12.4662 12.3492 0 

VERTICES 162 162
1 0 
1 1 
1 2 
1 3 
1 4 
1 5 
1 6 
1 7 
1 8 
1 9 
1 10 
1 11 
1 12 
1 13 
1 14 
1 15 
1 16 
1 17 
1 18 
1 19 
1 20 
1 21 
1 22 
1 23 
1 24 
1 25 
1 26 
1 27 
1 28 
1 29 
1 30 
1 31 
1 32 
1 33 
1 34 
1 35 
1 36 
1 37 
1 38 
1 39 
1 40 
1 41 
1 42 
1 43 
1 44 
1 45 
1 46 
1 47 
1 48 
1 49 
1 50 
1 51 
1 52 
1 53 
1 54 
1 55 
1 56 
1 57 
1 58 
1 59 
1 60 
1 61 
1 62 
1 63 
1 64 
1 65 
1 66 
1 67 
1 68 
1 69 
1 70 
1 71 
1 72 
1 73 
1 74 
1 75 
1 76 
1 77 
1 78 
1 79 
1 80 

POINT_DATA 81
SCALARS id double
LOOKUP_TABLE default
10 1 0 9 18 19 47 36 27 
46 55 45 37 38 29 28 72 56 
74 54 73 63 65 64 23 5 3 
2 14 4 21 6 15 12 13 11 
39 32 20 41 30 22 40 31 50 
51 49 42 59 48 57 67 76 78 
58 66 77 68 75 8 26 16 24 
7 17 52 33 34 35 43 44 53 
25 79 80 71 70 69 62 61 60 

FIELD FieldData 4
r 3 81 double
6.50957 7.03602 0 5.70251 6.27285 0 5.82705 5.09551 0 
6.75015 5.8643 0 7.92162 6.05695 0 7.62925 7.15594 0 
11.4031 7.84819 0 10.1566 6.07436 0 9.00089 5.80299 0 
10.7971 6.93396 0 11.9377 6.97508 0 11.3022 5.90555 0 
9.69914 7.0227 0 10.2906 7.9447 0 9.1413 7.93337 0 
8.65281 6.94204 0 14.7004 5.60075 0 12.6242 7.8476 0 
14.7842 7.80071 0 12.4203 5.9247 0 14.2396 6.80559 0 
13.5442 5.84502 0 13.7125 7.86469 0 13.0734 6.84331 0 
7.38454 10.99 0 5.07338 11.026 0 5.26665 9.07839 0 
5.86045 8.03099 0 6.33376 11.0111 0 5.81398 9.99697 0 
7.45078 9.06462 0 5.75761 11.9492 0 6.90242 11.951 0 
6.32275 8.9549 0 6.87833 9.96879 0 6.99177 8.04246 0 
9.66456 8.86744 0 8.50197 11.1273 0 8.09034 8.11493 0 
9.67985 11.1635 0 8.57756 9.16346 0 8.03074 10.1453 0 
10.2554 9.77709 0 9.16728 10.1662 0 10.8459 10.7179 0 
11.6822 11.5932 0 11.4079 9.69696 0 10.6008 11.762 0 
11.9331 10.5849 0 10.8417 8.80601 0 11.957 8.77406 0 
13.5674 10.0968 0 14.695 10.202 0 14.9462 11.9222 0 
12.564 9.71546 0 13.1319 8.804 0 14.1008 11.1476 0 
12.8712 11.2618 0 14.2255 9.04987 0 5.17078 13.963 0 
7.41365 14.362 0 6.98624 13.1321 0 7.97915 12.3351 0 
5.88429 13.0862 0 6.33109 14.0991 0 11.2748 12.6293 0 
9.1008 12.0921 0 9.08649 13.1825 0 8.8042 14.3242 0 
10.1155 12.7533 0 10.0199 13.9115 0 11.1213 13.7207 0 
8.01412 13.4363 0 14.2998 12.9774 0 14.1182 14.1676 0 
13.1091 14.6476 0 13.1771 13.3532 0 13.5329 12.2431 0 
12.0136 14.5066 0 12.0788 13.3457 0 12.4662 12.3492 0 

gid 1 81 double
0 0 0 0 0 0 0 0 0 
0 0 0 0 0 0 0 0 0 
0 0 0 0 0 0 0 0 0 
0 0 0 0 0 0 0 0 0 
0 0 0 0 0 0 0 0 0 
0 0 0 0 0 0 0 0 0 
0 0 0 0 0 0 0 0 0 
0 0 0 0 0 0 0 0 0 
0 0 0 0 0 0 0 0 0 

v 3 81 double
-0.785702 0.814081 0 -0.579653 -0.105592 0 -2.33077e-05 -0.40779 0 
0.572432 0.367032 0 0.571621 0.303096 0 -0.396944 -0.36238 0 
-0.596453 -0.0475164 0 0.197474 -0.1563 0 -0.146842 0.467268 0 
-0.0611568 0.660438 0 -0.138941 0.498141 0 0.453602 0.282441 0 
0.0783921 0.249064 0 -0.205009 0.903727 0 0.0866376 0.281605 0 
-0.954951 0.301739 0 0.133826 0.762536 0 0.151524 -0.30623 0 
0.814229 0.28809 0 -0.230582 0.611217 0 -0.257672 1.13152 0 
0.315248 0.11688 0 0.935809 -0.548765 0 0.196253 -0.495791 0 
0.176846 0.30753 0 0.25006 0.564014 0 -0.54364 0.565873 0 
-0.461307 0.553892 0 0.286896 -0.0607396 0 -0.426961 -0.0356202 0 
0.0165787 0.3231 0 -0.00156087 -0.286277 0 -0.19037 -0.466894 0 
-0.0812235 -0.0586523 0 -0.98023 0.326061 0 0.461277 0.0648168 0 
0.35433 0.312466 0 0.464375 -0.535899 0 -0.232916 -0.0829279 0 
0.248508 0.158565 0 0.333009 0.0497214 0 -0.234399 -0.590936 0 
-0.397721 0.411842 0 -0.0290878 -0.113537 0 0.820025 -0.351012 0 
0.204128 -0.0189211 0 -0.0713492 -0.257436 0 0.465393 0.180267 0 
0.64078 -0.521236 0 0.302883 0.342922 0 -0.183936 0.469553 0 
0.356349 -0.353026 0 -0.0536637 0.514106 0 -0.202723 -0.573803 0 
0.323279 -0.205891 0 -0.192835 -1.01111 0 0.0769002 -0.824946 0 
0.188582 0.404674 0 -0.0031299 0.576375 0 -0.127389 -0.357603 0 
-0.298949 -0.853067 0 0.399675 -0.557099 0 -0.589352 0.343155 0 
-0.103189 -0.277247 0 -0.184073 -0.880868 0 0.72928 -0.516274 0 
-0.304633 -0.296297 0 0.602578 -0.058103 0 0.0801026 -0.539753 0 
-0.0414917 -0.0944362 0 0.242842 0.613069 0 0.156478 -0.846762 0 
0.195744 -0.486789 0 0.118558 0.566051 0 -0.347661 -0.319516 0 
-0.441423 -0.448443 0 -0.386796 -0.768561 0 0.00888363 -0.417819 0 
-0.713745 -0.38088 0 0.0954762 0.0266346 0 -0.311561 0.564698 0 

a 3 81 double
0.581324 -0.132929 0 0.0687553 -1.98318 0 1.62282 3.62529 0 
0.464434 2.05778 0 -2.67821 2.13079 0 -10.3132 -6.25479 0 
-5.7154 10.4448 0 -0.216825 -10.6625 0 2.99295 4.14192 0 
4.45454 2.01402 0 6.72025 -16.295 0 -0.960417 3.80667 0 
4.57008 0.746625 0 -8.09803 -11.9472 0 1.00275 1.8968 0 
-0.56127 -4.31726 0 -2.95784 2.78027 0 -7.25134 -0.115336 0 
2.83395 0.849207 0 -0.0252017 2.08275 0 -3.12407 -1.20096 0 
3.17845 0.559735 0 -1.01339 -2.39856 0 1.70487 1.86019 0 
6.66186 0.962211 0 4.87943 -1.13131 0 -6.82934 -5.3037 0 
-4.47917 -10.9473 0 -9.72412 -5.10413 0 -2.81415 5.861 0 
4.09806 -2.86567 0 0.415192 1.50825 0 -1.18248 8.18137 0 
12.7928 12.5196 0 3.67509 5.23781 0 -3.21428 2.6271 0 
1.37096 3.19138 0 2.99812 3.47636 0 -0.180883 6.58624 0 
0.508035 -4.00906 0 0.738173 -1.5031 0 0.399901 -9.4152 0 
1.23127 2.56378 0 -0.407977 -1.85584 0 -0.572761 -2.77288 0 
-1.52 5.74366 0 -5.56993 0.354812 0 -2.74698 3.29642 0 
9.72597 4.48389 0 1.38428 7.95608 0 6.72869 -1.50951 0 
4.54039 1.34653 0 -1.53951 -2.1565 0 -3.75326 1.14949 0 
-5.06544 -0.802938 0 1.62159 1.70161 0 -4.07055 1.86644 0 
0.216198 0.308438 0 -1.06244 0.566602 0 2.28604 -0.350904 0 
0.751126 -1.35066 0 -1.97474 -1.7107 0 5.08459e-05 -2.67607 0 
-1.08739 -2.56658 0 -0.424925 -1.15215 0 -1.45185 -2.54249 0 
0.0050787 0.195829 0 0.7169 4.10303 0 -0.465127 -4.45808 0 
0.617211 1.52171 0 -3.644 -2.60325 0 -12.1142 6.06921 0 
5.14774 2.93032 0 3.01683 4.80245 0 -1.47007 -4.1839 0 
0.647808 -2.73918 0 3.72227 -0.160249 0 0.440878 -7.14731 0 
-2.25746 -3.97471 0 12.4938 3.7561 0 -1.48877 -1.56345 0 

