# vtk DataFile Version 4.0
vtk output
ASCII
DATASET POLYDATA
FIELD FieldData 4
domain 1 4 string
domain_min:0|0
domain_max:5|5
cell_size:4|4
boundary:1|1

variables 1 4 string
dt:0.01
write_case:1
substeps:10
all_steps:380

constants 1 2 string
Lx:20
cell_size:4

equations 1 3 string
pos:r=verlet_r(r,v,a,dt)#true
acceleration:a=md(1,1,3)#true
vel:v=verlet_v(v,a,dt)#true

POINTS 81 float
6.55609 5.14097 0 6.69055 6.24236 0 7.95259 7.98266 0 
7.78856 5.89735 0 7.41239 7.01787 0 6.01157 7.28513 0 
5.49221 6.24376 0 9.06694 7.89638 0 11.9208 6.88549 0 
10.8467 6.80872 0 9.63691 6.88707 0 9.08346 5.99241 0 
11.3803 7.81932 0 10.2106 5.88687 0 10.2227 7.80944 0 
11.4463 5.95816 0 8.53609 6.91282 0 14.945 6.06459 0 
13.63 7.9232 0 13.8335 6.0021 0 13.1543 6.87631 0 
14.7491 7.94769 0 14.2433 6.96125 0 12.5004 7.78881 0 
12.5742 5.94393 0 6.76184 8.02915 0 6.82362 10.0551 0 
7.36301 9.01142 0 6.2617 9.21032 0 7.9756 11.9046 0 
5.69611 10.1197 0 6.90502 11.8519 0 4.71226 9.43899 0 
4.64674 10.4945 0 5.58457 8.36963 0 7.53701 10.9361 0 
5.28711 11.8475 0 7.98725 9.92354 0 6.0973 11.1244 0 
11.9159 10.7556 0 10.5764 11.9104 0 9.16243 11.9548 0 
9.85882 11.0006 0 9.19103 9.92707 0 9.71505 8.88392 0 
8.62853 8.9308 0 10.801 8.7549 0 11.4145 9.72872 0 
11.673 11.7861 0 10.8796 10.768 0 10.3018 9.82722 0 
8.65727 10.9237 0 11.984 8.77945 0 13.816 11.1038 0 
14.7917 11.7825 0 13.787 9.97273 0 13.0999 8.94318 0 
12.6305 9.91354 0 12.8062 11.3641 0 14.3376 9.01818 0 
14.8493 10.0397 0 5.19189 13.3233 0 6.25029 13.6821 0 
7.12893 13.0214 0 7.65938 14.0301 0 6.10698 12.5873 0 
11.2325 13.9814 0 9.93077 13.9979 0 8.18524 13.0414 0 
10.4781 13.0457 0 8.74042 14.0458 0 9.25988 13.037 0 
11.5475 12.8739 0 12.2573 14.9085 0 14.5033 13.0345 0 
14.3315 14.1092 0 13.2233 14.4031 0 13.4023 13.3211 0 
13.6584 12.2894 0 12.2575 13.7699 0 12.5927 12.6544 0 

VERTICES 162 162
1 0 
1 1 
1 2 
1 3 
1 4 
1 5 
1 6 
1 7 
1 8 
1 9 
1 10 
1 11 
1 12 
1 13 
1 14 
1 15 
1 16 
1 17 
1 18 
1 19 
1 20 
1 21 
1 22 
1 23 
1 24 
1 25 
1 26 
1 27 
1 28 
1 29 
1 30 
1 31 
1 32 
1 33 
1 34 
1 35 
1 36 
1 37 
1 38 
1 39 
1 40 
1 41 
1 42 
1 43 
1 44 
1 45 
1 46 
1 47 
1 48 
1 49 
1 50 
1 51 
1 52 
1 53 
1 54 
1 55 
1 56 
1 57 
1 58 
1 59 
1 60 
1 61 
1 62 
1 63 
1 64 
1 65 
1 66 
1 67 
1 68 
1 69 
1 70 
1 71 
1 72 
1 73 
1 74 
1 75 
1 76 
1 77 
1 78 
1 79 
1 80 

POINT_DATA 81
SCALARS id double
LOOKUP_TABLE default
0 9 20 18 19 10 1 29 55 
46 37 27 47 36 38 45 28 72 
65 63 64 74 73 56 54 11 13 
21 12 24 4 15 3 5 2 23 
6 22 14 59 42 33 41 31 39 
30 48 49 51 50 40 32 57 77 
78 67 66 58 68 75 76 8 17 
16 26 7 53 44 25 43 35 34 
52 62 79 80 71 70 69 61 60 

FIELD FieldData 4
r 3 81 double
6.55609 5.14097 0 6.69055 6.24236 0 7.95259 7.98266 0 
7.78856 5.89735 0 7.41239 7.01787 0 6.01157 7.28513 0 
5.49221 6.24376 0 9.06694 7.89638 0 11.9208 6.88549 0 
10.8467 6.80872 0 9.63691 6.88707 0 9.08346 5.99241 0 
11.3803 7.81932 0 10.2106 5.88687 0 10.2227 7.80944 0 
11.4463 5.95816 0 8.53609 6.91282 0 14.945 6.06459 0 
13.63 7.9232 0 13.8335 6.0021 0 13.1543 6.87631 0 
14.7491 7.94769 0 14.2433 6.96125 0 12.5004 7.78881 0 
12.5742 5.94393 0 6.76184 8.02915 0 6.82362 10.0551 0 
7.36301 9.01142 0 6.2617 9.21032 0 7.9756 11.9046 0 
5.69611 10.1197 0 6.90502 11.8519 0 4.71226 9.43899 0 
4.64674 10.4945 0 5.58457 8.36963 0 7.53701 10.9361 0 
5.28711 11.8475 0 7.98725 9.92354 0 6.0973 11.1244 0 
11.9159 10.7556 0 10.5764 11.9104 0 9.16243 11.9548 0 
9.85882 11.0006 0 9.19103 9.92707 0 9.71505 8.88392 0 
8.62853 8.9308 0 10.801 8.7549 0 11.4145 9.72872 0 
11.673 11.7861 0 10.8796 10.768 0 10.3018 9.82722 0 
8.65727 10.9237 0 11.984 8.77945 0 13.816 11.1038 0 
14.7917 11.7825 0 13.787 9.97273 0 13.0999 8.94318 0 
12.6305 9.91354 0 12.8062 11.3641 0 14.3376 9.01818 0 
14.8493 10.0397 0 5.19189 13.3233 0 6.25029 13.6821 0 
7.12893 13.0214 0 7.65938 14.0301 0 6.10698 12.5873 0 
11.2325 13.9814 0 9.93077 13.9979 0 8.18524 13.0414 0 
10.478 13.0457 0 8.74042 14.0458 0 9.25988 13.037 0 
11.5475 12.8739 0 12.2573 14.9085 0 14.5033 13.0345 0 
14.3315 14.1092 0 13.2233 14.4031 0 13.4023 13.3211 0 
13.6584 12.2894 0 12.2575 13.7699 0 12.5927 12.6544 0 

gid 1 81 double
0 0 0 0 0 0 0 0 0 
0 0 0 0 0 0 0 0 0 
0 0 0 0 0 0 0 0 0 
0 0 0 0 0 0 0 0 0 
0 0 0 0 0 0 0 0 0 
0 0 0 0 0 0 0 0 0 
0 0 0 0 0 0 0 0 0 
0 0 0 0 0 0 0 0 0 
0 0 0 0 0 0 0 0 0 

v 3 81 double
0.149992 -0.478668 0 0.274105 0.40129 0 0.516023 -0.400869 0 
0.0960576 -0.0606261 0 -0.174369 -0.44954 0 -0.538332 0.245643 0 
-0.144538 -0.430545 0 0.295981 0.245144 0 -0.792576 0.0466453 0 
0.394652 0.365926 0 0.211284 0.265341 0 0.48165 -0.155326 0 
-0.511483 0.673526 0 -0.187125 0.276675 0 0.399212 0.11141 0 
0.545371 -0.295104 0 -0.162298 0.100093 0 -0.587235 -0.0458214 0 
-0.00666976 -0.30652 0 -0.0581002 -0.0879226 0 -0.28363 0.534189 0 
0.242204 -0.0781807 0 -0.848791 0.491493 0 -0.422715 0.167348 0 
-0.189828 0.223205 0 -0.273763 -0.577583 0 -0.35585 -0.668328 0 
0.300877 -0.120578 0 0.909831 -0.131293 0 0.0382265 0.307088 0 
0.0223832 0.30284 0 0.324035 -0.392278 0 0.302011 -0.258347 0 
0.183794 -0.0424242 0 0.378799 -0.728388 0 0.33716 0.0606772 0 
0.261609 0.0440954 0 -0.345609 0.499271 0 -0.0181625 0.127408 0 
-0.573739 -1.06067 0 -0.188488 0.0713476 0 0.239755 0.121514 0 
-0.0452836 0.311146 0 -1.16657 0.200486 0 0.514132 0.3641 0 
0.35442 0.107038 0 0.074817 0.308483 0 -0.89626 0.0371407 0 
-0.409386 0.129219 0 0.806372 -0.882148 0 -0.119241 0.326662 0 
-0.234667 0.222295 0 -0.499716 -0.108079 0 -0.684558 -0.563705 0 
0.556327 -0.519399 0 -0.487979 -0.110969 0 -0.310996 -0.327683 0 
0.982501 0.389412 0 -0.287059 0.604355 0 0.131747 0.173133 0 
-0.202952 0.563919 0 -0.479931 -0.610011 0 -0.262779 0.00235785 0 
0.337398 -0.259454 0 0.106983 -0.219644 0 0.0356506 -0.455015 0 
1.06792 0.428727 0 0.332481 -0.145289 0 -0.191622 -0.43734 0 
0.307773 -0.0282542 0 0.0456263 0.300178 0 -0.318646 0.426819 0 
0.313848 -0.532345 0 0.1526 -0.000894178 0 0.371779 -0.235202 0 
0.390979 0.107591 0 1.21979 0.0130294 0 -0.393643 -0.120305 0 
-0.0919795 0.300709 0 -0.147939 0.159228 0 -0.498019 0.566067 0 

a 3 81 double
0.479713 0.912706 0 -6.41369 -1.77439 0 -0.713529 2.2209 0 
0.670458 3.94832 0 2.52777 4.31748 0 -3.26176 -6.95343 0 
3.88599 0.949614 0 3.66039 0.426506 0 10.9803 1.86287 0 
-12.7256 11.3568 0 6.77891 5.2601 0 -3.42184 -10.539 0 
-2.81623 1.53489 0 1.17194 1.80124 0 0.784035 1.34094 0 
-0.650462 -17.0432 0 -6.82371 4.39995 0 -0.24269 1.06834 0 
-0.82618 0.93468 0 -6.40102 -9.58823 0 -3.94458 3.52648 0 
-0.362192 1.68319 0 5.25752 8.78861 0 4.34185 5.25736 0 
0.496355 0.212306 0 6.12893 6.70575 0 11.4415 15.7326 0 
1.30667 -2.32615 0 -4.93664 -18.0097 0 9.89859 6.90185 0 
-4.39547 -0.495271 0 -0.604083 2.13618 0 4.47978 -7.16013 0 
0.655455 8.42172 0 -0.0970086 -3.20438 0 -4.21128 -5.54592 0 
-2.62354 1.00583 0 3.68547 0.363813 0 3.52543 -1.91955 0 
8.41735 -8.7245 0 -2.05388 -0.733282 0 -0.753133 -4.50956 0 
-11.5031 0.402371 0 -1.29821 0.0732438 0 -0.608802 -2.53368 0 
-6.40959 1.41975 0 3.55853 4.59545 0 1.04908 2.29255 0 
2.18912 3.68949 0 -0.397053 1.14315 0 -0.104368 -0.0789377 0 
0.574697 0.587909 0 -0.54718 0.618436 0 11.0483 -0.734984 0 
-4.8035 1.57712 0 -9.853 -0.335633 0 4.46686 -4.52139 0 
-2.41712 1.99713 0 -7.37912 7.79913 0 -2.47196 -3.42076 0 
4.21597 0.6569 0 1.55943 -2.64626 0 0.695102 2.21303 0 
-4.0259 -3.6427 0 -5.10874 -1.43089 0 -3.21858 1.05251 0 
-10.6225 -0.298818 0 -1.76458 -0.345405 0 3.75664 -1.79292 0 
-3.21021 -0.806673 0 5.3036 -2.02525 0 7.45814 4.1827 0 
-2.9369 3.16747 0 -3.40205 -1.25887 0 -0.526108 -4.86424 0 
-3.60882 1.13005 0 1.72741 -1.02303 0 5.3841 11.4502 0 
1.91428 -10.2596 0 12.1111 -3.90747 0 -3.09097 -8.66531 0 

