# vtk DataFile Version 4.0
vtk output
ASCII
DATASET POLYDATA
FIELD FieldData 4
domain 1 4 string
domain_min:-1
domain_max:51
cell_size:0.02
boundary:0

variables 1 7 string
Time:11.5
dt:0.01
S:0.467979
S_dot:0.0234519
write_case:1
substeps:50
all_steps:1150

constants 1 11 string
L:1
csize:0.02
dx:0.00952381
rho0:1000
mass:9.52381
a_liquid:0.002
a_solid:0.005
wall:0
liquid:1
interface:2
solid:3

equations 1 10 string
mb1:gid=interface#and(gt(x,(S-(dx/2))),lt(x,(S+(dx/2))))
mb2:gid=liquid#and(lt(x,((S-(dx/2))-0.01)),not(eq(gid,wall)))
mb3:gid=solid#gt(x,(S+(dx/2)))
bc1:T=0#eq(gid,interface)
liquid:T_dot=(a_liquid*sph_L0(T,mass,rho0,Wp22210,csize))#eq(gid,liquid)
solid:T_dot=(a_solid*sph_L0(T,mass,rho0,Wp22210,csize))#eq(gid,solid)
i1:T=euler(T,T_dot,dt)#true
eq2:S_dot=fmax(if(eq(gid,interface),(-sph_G00(if(neq(gid,solid),T,0),mass,rho0,Wp22210,csize)),0))#true
i2:S=euler(S,S_dot,dt)#true
time:Time=(Time+dt)#true

POINTS 106 float
-0.005 0 0 -0.015 0 0 0.0144231 0 0 
0.00480769 0 0 0.0336538 0 0 0.0240385 0 0 
0.0432692 0 0 0.0528846 0 0 0.0721154 0 0 
0.0625 0 0 0.0817308 0 0 0.0913462 0 0 
0.110577 0 0 0.100962 0 0 0.120192 0 0 
0.129808 0 0 0.139423 0 0 0.158654 0 0 
0.149038 0 0 0.177885 0 0 0.168269 0 0 
0.1875 0 0 0.197115 0 0 0.216346 0 0 
0.206731 0 0 0.225962 0 0 0.235577 0 0 
0.254808 0 0 0.245192 0 0 0.264423 0 0 
0.274038 0 0 0.293269 0 0 0.283654 0 0 
0.302885 0 0 0.3125 0 0 0.331731 0 0 
0.322115 0 0 0.341346 0 0 0.350962 0 0 
0.379808 0 0 0.360577 0 0 0.370192 0 0 
0.399038 0 0 0.389423 0 0 0.408654 0 0 
0.418269 0 0 0.4375 0 0 0.427885 0 0 
0.456731 0 0 0.447115 0 0 0.475962 0 0 
0.466346 0 0 0.485577 0 0 0.495192 0 0 
0.504808 0 0 0.514423 0 0 0.524038 0 0 
0.533654 0 0 0.543269 0 0 0.552885 0 0 
0.5625 0 0 0.572115 0 0 0.581731 0 0 
0.591346 0 0 0.600962 0 0 0.610577 0 0 
0.620192 0 0 0.629808 0 0 0.639423 0 0 
0.649038 0 0 0.658654 0 0 0.668269 0 0 
0.677885 0 0 0.6875 0 0 0.697115 0 0 
0.706731 0 0 0.716346 0 0 0.735577 0 0 
0.725962 0 0 0.745192 0 0 0.754808 0 0 
0.764423 0 0 0.774038 0 0 0.783654 0 0 
0.793269 0 0 0.802885 0 0 0.8125 0 0 
0.822115 0 0 0.831731 0 0 0.841346 0 0 
0.850962 0 0 0.860577 0 0 0.870192 0 0 
0.879808 0 0 0.889423 0 0 0.899038 0 0 
0.908654 0 0 0.918269 0 0 0.927885 0 0 
0.9375 0 0 0.947115 0 0 0.956731 0 0 
0.966346 0 0 0.975962 0 0 0.985577 0 0 
0.995192 0 0 
VERTICES 212 212
1 0 
1 1 
1 2 
1 3 
1 4 
1 5 
1 6 
1 7 
1 8 
1 9 
1 10 
1 11 
1 12 
1 13 
1 14 
1 15 
1 16 
1 17 
1 18 
1 19 
1 20 
1 21 
1 22 
1 23 
1 24 
1 25 
1 26 
1 27 
1 28 
1 29 
1 30 
1 31 
1 32 
1 33 
1 34 
1 35 
1 36 
1 37 
1 38 
1 39 
1 40 
1 41 
1 42 
1 43 
1 44 
1 45 
1 46 
1 47 
1 48 
1 49 
1 50 
1 51 
1 52 
1 53 
1 54 
1 55 
1 56 
1 57 
1 58 
1 59 
1 60 
1 61 
1 62 
1 63 
1 64 
1 65 
1 66 
1 67 
1 68 
1 69 
1 70 
1 71 
1 72 
1 73 
1 74 
1 75 
1 76 
1 77 
1 78 
1 79 
1 80 
1 81 
1 82 
1 83 
1 84 
1 85 
1 86 
1 87 
1 88 
1 89 
1 90 
1 91 
1 92 
1 93 
1 94 
1 95 
1 96 
1 97 
1 98 
1 99 
1 100 
1 101 
1 102 
1 103 
1 104 
1 105 

POINT_DATA 106
SCALARS id double
LOOKUP_TABLE default
105 104 1 0 3 2 4 5 7 
6 8 9 11 10 12 13 14 16 
15 18 17 19 20 22 21 23 24 
26 25 27 28 30 29 31 32 34 
33 35 36 39 37 38 41 40 42 
43 45 44 47 46 49 48 50 51 
52 53 54 55 56 57 58 59 60 
61 62 63 64 65 66 67 68 69 
70 71 72 73 74 76 75 77 78 
79 80 81 82 83 84 85 86 87 
88 89 90 91 92 93 94 95 96 
97 98 99 100 101 102 103 
FIELD FieldData 5
r 1 106 double
-0.005 -0.015 0.0144231 0.00480769 0.0336538 0.0240385 0.0432692 0.0528846 0.0721154 
0.0625 0.0817308 0.0913462 0.110577 0.100962 0.120192 0.129808 0.139423 0.158654 
0.149038 0.177885 0.168269 0.1875 0.197115 0.216346 0.206731 0.225962 0.235577 
0.254808 0.245192 0.264423 0.274038 0.293269 0.283654 0.302885 0.3125 0.331731 
0.322115 0.341346 0.350962 0.379808 0.360577 0.370192 0.399038 0.389423 0.408654 
0.418269 0.4375 0.427885 0.456731 0.447115 0.475962 0.466346 0.485577 0.495192 
0.504808 0.514423 0.524038 0.533654 0.543269 0.552885 0.5625 0.572115 0.581731 
0.591346 0.600962 0.610577 0.620192 0.629808 0.639423 0.649038 0.658654 0.668269 
0.677885 0.6875 0.697115 0.706731 0.716346 0.735577 0.725962 0.745192 0.754808 
0.764423 0.774038 0.783654 0.793269 0.802885 0.8125 0.822115 0.831731 0.841346 
0.850962 0.860577 0.870192 0.879808 0.889423 0.899038 0.908654 0.918269 0.927885 
0.9375 0.947115 0.956731 0.966346 0.975962 0.985577 0.995192 
gid 1 106 double
0 0 1 1 1 1 1 1 1 
1 1 1 1 1 1 1 1 1 
1 1 1 1 1 1 1 1 1 
1 1 1 1 1 1 1 1 1 
1 1 1 1 1 1 1 1 1 
1 1 1 2 1 3 2 3 3 
3 3 3 3 3 3 3 3 3 
3 3 3 3 3 3 3 3 3 
3 3 3 3 3 3 3 3 3 
3 3 3 3 3 3 3 3 3 
3 3 3 3 3 3 3 3 3 
3 3 3 3 3 3 3 
T 1 106 double
0.2 0.2 0.18284 0.190979 0.166949 0.174866 0.159112 0.151373 0.13626 
0.14375 0.128918 0.12174 0.107925 0.114738 0.101313 0.0949106 0.0887271 0.0770437 
0.0827695 0.066304 0.0715542 0.0612952 0.0565284 0.0477172 0.0520029 0.0436685 0.039853 
0.0329027 0.0362662 0.0297562 0.0268199 0.0215486 0.0240867 0.0191975 0.017025 0.0131811 
0.0150225 0.011492 0.00994628 0.00608323 0.00853524 0.00725027 0.00407308 0.0050265 0.00321619 
0.00244841 0.00113848 0.00176024 1.85759e-05 0.000565924 -0.00550704 1.79228e-05 -0.0107732 -0.0159492 
-0.0209878 -0.025856 -0.0305289 -0.03499 -0.0392303 -0.0432476 -0.0470444 -0.0506266 -0.0540025 
-0.0571813 -0.0601722 -0.0629846 -0.0656273 -0.0681085 -0.0704361 -0.0726175 -0.0746601 -0.0765706 
-0.0783557 -0.0800219 -0.0815755 -0.0830225 -0.0843689 -0.086782 -0.0856202 -0.0878593 -0.0888573 
-0.0897805 -0.0906337 -0.0914209 -0.0921464 -0.0928141 -0.0934274 -0.09399 -0.094505 -0.0949754 
-0.0954042 -0.0957938 -0.0961468 -0.0964655 -0.0967519 -0.0970079 -0.0972352 -0.0974355 -0.09761 
-0.0977601 -0.0978868 -0.0979909 -0.0980734 -0.0981347 -0.0981753 -0.0981962 
T_dot 1 106 double
0 0 0.0007452 0.000392765 0.00142069 0.00108683 0.0017442 0.00205513 0.00263098 
0.00235137 0.00289224 0.00313362 0.00355182 0.00335383 0.00372677 0.00387811 0.00400554 0.00418856 
0.00410897 0.00427796 0.00424469 0.00428915 0.00427923 0.00420062 0.0042493 0.00413456 0.00405257 
0.00384695 0.00395618 0.00372648 0.00359637 0.00331359 0.00345823 0.00316393 0.00301061 0.00269775 
0.00285485 0.00254049 0.0023846 0.00195256 0.00223245 0.00208731 0.00171151 0.00182914 0.00158382 
0.00141977 0.000871938 0.00118935 0.00185759 0.000470726 0.00230382 0.00179228 0.00438735 0.00621618 
0.0077036 0.00880705 0.00952558 0.0098937 0.00997052 0.00982698 0.00953413 0.00915413 0.00873523 
0.00831036 0.00789865 0.00750852 0.00714137 0.00679485 0.0064653 0.00614926 0.00584418 0.00554856 
0.00526173 0.00498362 0.00471447 0.00445461 0.00420434 0.00373347 0.00396391 0.00351307 0.00330271 
0.00310233 0.00291185 0.00273114 0.00256008 0.00239851 0.00224627 0.00210318 0.00196906 0.00184374 
0.00172702 0.0016187 0.00151862 0.00142657 0.00134238 0.00126588 0.0011969 0.00113529 0.0010809 
0.00103361 0.000993299 0.000959864 0.00093322 0.000913299 0.000900056 0.000893203 
x 1 106 double
-0.005 -0.015 0.0144231 0.00480769 0.0336538 0.0240385 0.0432692 0.0528846 0.0721154 
0.0625 0.0817308 0.0913462 0.110577 0.100962 0.120192 0.129808 0.139423 0.158654 
0.149038 0.177885 0.168269 0.1875 0.197115 0.216346 0.206731 0.225962 0.235577 
0.254808 0.245192 0.264423 0.274038 0.293269 0.283654 0.302885 0.3125 0.331731 
0.322115 0.341346 0.350962 0.379808 0.360577 0.370192 0.399038 0.389423 0.408654 
0.418269 0.4375 0.427885 0.456731 0.447115 0.475962 0.466346 0.485577 0.495192 
0.504808 0.514423 0.524038 0.533654 0.543269 0.552885 0.5625 0.572115 0.581731 
0.591346 0.600962 0.610577 0.620192 0.629808 0.639423 0.649038 0.658654 0.668269 
0.677885 0.6875 0.697115 0.706731 0.716346 0.735577 0.725962 0.745192 0.754808 
0.764423 0.774038 0.783654 0.793269 0.802885 0.8125 0.822115 0.831731 0.841346 
0.850962 0.860577 0.870192 0.879808 0.889423 0.899038 0.908654 0.918269 0.927885 
0.9375 0.947115 0.956731 0.966346 0.975962 0.985577 0.995192 
