# vtk DataFile Version 4.0
vtk output
ASCII
DATASET POLYDATA
FIELD FieldData 4
domain 1 4 string
domain_min:-1
domain_max:51
cell_size:0.02
boundary:0

variables 1 7 string
Time:21.5
dt:0.01
S:0.638434
S_dot:0.0150826
write_case:1
substeps:50
all_steps:2150

constants 1 11 string
L:1
csize:0.02
dx:0.00952381
rho0:1000
mass:9.52381
a_liquid:0.002
a_solid:0.005
wall:0
liquid:1
interface:2
solid:3

equations 1 10 string
mb1:gid=interface#and(gt(x,(S-(dx/2))),lt(x,(S+(dx/2))))
mb2:gid=liquid#and(lt(x,((S-(dx/2))-0.01)),not(eq(gid,wall)))
mb3:gid=solid#gt(x,(S+(dx/2)))
bc1:T=0#eq(gid,interface)
liquid:T_dot=(a_liquid*sph_L0(T,mass,rho0,Wp22210,csize))#eq(gid,liquid)
solid:T_dot=(a_solid*sph_L0(T,mass,rho0,Wp22210,csize))#eq(gid,solid)
i1:T=euler(T,T_dot,dt)#true
eq2:S_dot=fmax(if(eq(gid,interface),(-sph_G00(if(neq(gid,solid),T,0),mass,rho0,Wp22210,csize)),0))#true
i2:S=euler(S,S_dot,dt)#true
time:Time=(Time+dt)#true

POINTS 106 float
-0.005 0 0 -0.015 0 0 0.0144231 0 0 
0.00480769 0 0 0.0336538 0 0 0.0240385 0 0 
0.0432692 0 0 0.0528846 0 0 0.0721154 0 0 
0.0625 0 0 0.0817308 0 0 0.0913462 0 0 
0.110577 0 0 0.100962 0 0 0.120192 0 0 
0.129808 0 0 0.139423 0 0 0.158654 0 0 
0.149038 0 0 0.177885 0 0 0.168269 0 0 
0.1875 0 0 0.197115 0 0 0.216346 0 0 
0.206731 0 0 0.225962 0 0 0.235577 0 0 
0.254808 0 0 0.245192 0 0 0.264423 0 0 
0.274038 0 0 0.293269 0 0 0.283654 0 0 
0.302885 0 0 0.3125 0 0 0.331731 0 0 
0.322115 0 0 0.341346 0 0 0.350962 0 0 
0.379808 0 0 0.360577 0 0 0.370192 0 0 
0.399038 0 0 0.389423 0 0 0.408654 0 0 
0.418269 0 0 0.4375 0 0 0.427885 0 0 
0.456731 0 0 0.447115 0 0 0.475962 0 0 
0.466346 0 0 0.485577 0 0 0.495192 0 0 
0.504808 0 0 0.514423 0 0 0.524038 0 0 
0.533654 0 0 0.543269 0 0 0.552885 0 0 
0.5625 0 0 0.572115 0 0 0.581731 0 0 
0.591346 0 0 0.600962 0 0 0.610577 0 0 
0.620192 0 0 0.629808 0 0 0.639423 0 0 
0.649038 0 0 0.658654 0 0 0.668269 0 0 
0.677885 0 0 0.6875 0 0 0.697115 0 0 
0.706731 0 0 0.716346 0 0 0.735577 0 0 
0.725962 0 0 0.745192 0 0 0.754808 0 0 
0.764423 0 0 0.774038 0 0 0.783654 0 0 
0.793269 0 0 0.802885 0 0 0.8125 0 0 
0.822115 0 0 0.831731 0 0 0.841346 0 0 
0.850962 0 0 0.860577 0 0 0.870192 0 0 
0.879808 0 0 0.889423 0 0 0.899038 0 0 
0.908654 0 0 0.918269 0 0 0.927885 0 0 
0.9375 0 0 0.947115 0 0 0.956731 0 0 
0.966346 0 0 0.975962 0 0 0.985577 0 0 
0.995192 0 0 
VERTICES 212 212
1 0 
1 1 
1 2 
1 3 
1 4 
1 5 
1 6 
1 7 
1 8 
1 9 
1 10 
1 11 
1 12 
1 13 
1 14 
1 15 
1 16 
1 17 
1 18 
1 19 
1 20 
1 21 
1 22 
1 23 
1 24 
1 25 
1 26 
1 27 
1 28 
1 29 
1 30 
1 31 
1 32 
1 33 
1 34 
1 35 
1 36 
1 37 
1 38 
1 39 
1 40 
1 41 
1 42 
1 43 
1 44 
1 45 
1 46 
1 47 
1 48 
1 49 
1 50 
1 51 
1 52 
1 53 
1 54 
1 55 
1 56 
1 57 
1 58 
1 59 
1 60 
1 61 
1 62 
1 63 
1 64 
1 65 
1 66 
1 67 
1 68 
1 69 
1 70 
1 71 
1 72 
1 73 
1 74 
1 75 
1 76 
1 77 
1 78 
1 79 
1 80 
1 81 
1 82 
1 83 
1 84 
1 85 
1 86 
1 87 
1 88 
1 89 
1 90 
1 91 
1 92 
1 93 
1 94 
1 95 
1 96 
1 97 
1 98 
1 99 
1 100 
1 101 
1 102 
1 103 
1 104 
1 105 

POINT_DATA 106
SCALARS id double
LOOKUP_TABLE default
105 104 1 0 3 2 4 5 7 
6 8 9 11 10 12 13 14 16 
15 18 17 19 20 22 21 23 24 
26 25 27 28 30 29 31 32 34 
33 35 36 39 37 38 41 40 42 
43 45 44 47 46 49 48 50 51 
52 53 54 55 56 57 58 59 60 
61 62 63 64 65 66 67 68 69 
70 71 72 73 74 76 75 77 78 
79 80 81 82 83 84 85 86 87 
88 89 90 91 92 93 94 95 96 
97 98 99 100 101 102 103 
FIELD FieldData 5
r 1 106 double
-0.005 -0.015 0.0144231 0.00480769 0.0336538 0.0240385 0.0432692 0.0528846 0.0721154 
0.0625 0.0817308 0.0913462 0.110577 0.100962 0.120192 0.129808 0.139423 0.158654 
0.149038 0.177885 0.168269 0.1875 0.197115 0.216346 0.206731 0.225962 0.235577 
0.254808 0.245192 0.264423 0.274038 0.293269 0.283654 0.302885 0.3125 0.331731 
0.322115 0.341346 0.350962 0.379808 0.360577 0.370192 0.399038 0.389423 0.408654 
0.418269 0.4375 0.427885 0.456731 0.447115 0.475962 0.466346 0.485577 0.495192 
0.504808 0.514423 0.524038 0.533654 0.543269 0.552885 0.5625 0.572115 0.581731 
0.591346 0.600962 0.610577 0.620192 0.629808 0.639423 0.649038 0.658654 0.668269 
0.677885 0.6875 0.697115 0.706731 0.716346 0.735577 0.725962 0.745192 0.754808 
0.764423 0.774038 0.783654 0.793269 0.802885 0.8125 0.822115 0.831731 0.841346 
0.850962 0.860577 0.870192 0.879808 0.889423 0.899038 0.908654 0.918269 0.927885 
0.9375 0.947115 0.956731 0.966346 0.975962 0.985577 0.995192 
gid 1 106 double
0 0 1 1 1 1 1 1 1 
1 1 1 1 1 1 1 1 1 
1 1 1 1 1 1 1 1 1 
1 1 1 1 1 1 1 1 1 
1 1 1 1 1 1 1 1 1 
1 1 1 1 1 1 1 1 1 
1 1 1 1 1 1 1 1 1 
1 1 1 1 2 2 3 3 3 
3 3 3 3 3 3 3 3 3 
3 3 3 3 3 3 3 3 3 
3 3 3 3 3 3 3 3 3 
3 3 3 3 3 3 3 
T 1 106 double
0.2 0.2 0.187444 0.193404 0.17576 0.181591 0.169959 0.164198 0.152822 
0.158483 0.147221 0.141686 0.130843 0.136225 0.125546 0.12034 0.11523 0.105315 
0.11022 0.0958377 0.10052 0.0912716 0.0868247 0.0782985 0.0824996 0.0742232 0.0702752 
0.0627645 0.0664554 0.059203 0.0557708 0.0492923 0.0524674 0.0462445 0.0433227 0.0378508 
0.0405254 0.0352969 0.0328614 0.0262402 0.0305419 0.0283357 0.0223689 0.0242522 0.020587 
0.0189033 0.015817 0.0173144 0.0130831 0.0144077 0.0106739 0.0118396 0.00958251 0.00856209 
0.00760924 0.0067206 0.0058928 0.00512252 0.00440652 0.00374184 0.00312597 0.00255718 0.00203442 
0.00155684 0.00112253 0.000726816 0.000361325 8.77931e-06 8.4928e-06 -0.00414028 -0.00810135 -0.0119987 
-0.0157992 -0.0194813 -0.0230295 -0.0264346 -0.0296931 -0.035774 -0.0328051 -0.0386041 -0.0413005 
-0.043868 -0.0463109 -0.0486327 -0.0508364 -0.0529244 -0.0548987 -0.0567614 -0.0585142 -0.0601588 
-0.0616969 -0.0631301 -0.06446 -0.0656882 -0.066816 -0.0678448 -0.068776 -0.0696107 -0.0703499 
-0.0709946 -0.0715457 -0.0720038 -0.0723695 -0.0726434 -0.0728257 -0.0729201 
T_dot 1 106 double
0 0 0.000291787 0.00015351 0.000560263 0.000426827 0.000691506 0.000820054 0.00106715 
0.000945422 0.00118479 0.00129793 0.00150919 0.00140618 0.00160664 0.00169823 0.00178371 0.00193552 
0.00186287 0.00206078 0.00200153 0.00211321 0.00215879 0.00222945 0.00219752 0.00225466 0.00227324 
0.00229114 0.00228535 0.00229081 0.00228459 0.00225543 0.00227271 0.00223304 0.00220583 0.00213819 
0.00217411 0.00209841 0.00205508 0.00190721 0.00200855 0.00195915 0.00179702 0.00185306 0.00173941 
0.00168053 0.00156019 0.00162069 0.00143831 0.00149931 0.00131688 0.00137745 0.00125671 0.00119691 
0.00113732 0.00107783 0.00101867 0.000960998 0.000907602 0.000862973 0.000831767 0.000814706 0.000802799 
0.000773623 0.000695154 0.000539622 0.000302287 0.000877931 0.000849281 0.00165434 0.00313108 0.00439254 
0.00537288 0.00604842 0.00643385 0.00657376 0.00653003 0.0061482 0.00636853 0.00591421 0.00569563 
0.00550675 0.00535057 0.00522318 0.0051176 0.00502655 0.00494409 0.0048662 0.00479065 0.00471658 
0.00464404 0.00457352 0.00450568 0.00444115 0.00438046 0.00432403 0.00427217 0.00422511 0.004183 
0.00414597 0.00411409 0.00408743 0.00406604 0.00404996 0.00403924 0.00403367 
x 1 106 double
-0.005 -0.015 0.0144231 0.00480769 0.0336538 0.0240385 0.0432692 0.0528846 0.0721154 
0.0625 0.0817308 0.0913462 0.110577 0.100962 0.120192 0.129808 0.139423 0.158654 
0.149038 0.177885 0.168269 0.1875 0.197115 0.216346 0.206731 0.225962 0.235577 
0.254808 0.245192 0.264423 0.274038 0.293269 0.283654 0.302885 0.3125 0.331731 
0.322115 0.341346 0.350962 0.379808 0.360577 0.370192 0.399038 0.389423 0.408654 
0.418269 0.4375 0.427885 0.456731 0.447115 0.475962 0.466346 0.485577 0.495192 
0.504808 0.514423 0.524038 0.533654 0.543269 0.552885 0.5625 0.572115 0.581731 
0.591346 0.600962 0.610577 0.620192 0.629808 0.639423 0.649038 0.658654 0.668269 
0.677885 0.6875 0.697115 0.706731 0.716346 0.735577 0.725962 0.745192 0.754808 
0.764423 0.774038 0.783654 0.793269 0.802885 0.8125 0.822115 0.831731 0.841346 
0.850962 0.860577 0.870192 0.879808 0.889423 0.899038 0.908654 0.918269 0.927885 
0.9375 0.947115 0.956731 0.966346 0.975962 0.985577 0.995192 
