# vtk DataFile Version 4.0
vtk output
ASCII
DATASET POLYDATA
FIELD FieldData 4
domain 1 4 string
domain_min:-1
domain_max:51
cell_size:0.02
boundary:0

variables 1 7 string
Time:38
dt:0.01
S:0.84798
S_dot:0.00977503
write_case:1
substeps:50
all_steps:3800

constants 1 11 string
L:1
csize:0.02
dx:0.00952381
rho0:1000
mass:9.52381
a_liquid:0.002
a_solid:0.005
wall:0
liquid:1
interface:2
solid:3

equations 1 10 string
mb1:gid=interface#and(gt(x,(S-(dx/2))),lt(x,(S+(dx/2))))
mb2:gid=liquid#and(lt(x,((S-(dx/2))-0.01)),not(eq(gid,wall)))
mb3:gid=solid#gt(x,(S+(dx/2)))
bc1:T=0#eq(gid,interface)
liquid:T_dot=(a_liquid*sph_L0(T,mass,rho0,Wp22210,csize))#eq(gid,liquid)
solid:T_dot=(a_solid*sph_L0(T,mass,rho0,Wp22210,csize))#eq(gid,solid)
i1:T=euler(T,T_dot,dt)#true
eq2:S_dot=fmax(if(eq(gid,interface),(-sph_G00(if(neq(gid,solid),T,0),mass,rho0,Wp22210,csize)),0))#true
i2:S=euler(S,S_dot,dt)#true
time:Time=(Time+dt)#true

POINTS 106 float
-0.005 0 0 -0.015 0 0 0.0144231 0 0 
0.00480769 0 0 0.0336538 0 0 0.0240385 0 0 
0.0432692 0 0 0.0528846 0 0 0.0721154 0 0 
0.0625 0 0 0.0817308 0 0 0.0913462 0 0 
0.110577 0 0 0.100962 0 0 0.120192 0 0 
0.129808 0 0 0.139423 0 0 0.158654 0 0 
0.149038 0 0 0.177885 0 0 0.168269 0 0 
0.1875 0 0 0.197115 0 0 0.216346 0 0 
0.206731 0 0 0.225962 0 0 0.235577 0 0 
0.254808 0 0 0.245192 0 0 0.264423 0 0 
0.274038 0 0 0.293269 0 0 0.283654 0 0 
0.302885 0 0 0.3125 0 0 0.331731 0 0 
0.322115 0 0 0.341346 0 0 0.350962 0 0 
0.379808 0 0 0.360577 0 0 0.370192 0 0 
0.399038 0 0 0.389423 0 0 0.408654 0 0 
0.418269 0 0 0.4375 0 0 0.427885 0 0 
0.456731 0 0 0.447115 0 0 0.475962 0 0 
0.466346 0 0 0.485577 0 0 0.495192 0 0 
0.504808 0 0 0.514423 0 0 0.524038 0 0 
0.533654 0 0 0.543269 0 0 0.552885 0 0 
0.5625 0 0 0.572115 0 0 0.581731 0 0 
0.591346 0 0 0.600962 0 0 0.610577 0 0 
0.620192 0 0 0.629808 0 0 0.639423 0 0 
0.649038 0 0 0.658654 0 0 0.668269 0 0 
0.677885 0 0 0.6875 0 0 0.697115 0 0 
0.706731 0 0 0.716346 0 0 0.735577 0 0 
0.725962 0 0 0.745192 0 0 0.754808 0 0 
0.764423 0 0 0.774038 0 0 0.783654 0 0 
0.793269 0 0 0.802885 0 0 0.8125 0 0 
0.822115 0 0 0.831731 0 0 0.841346 0 0 
0.850962 0 0 0.860577 0 0 0.870192 0 0 
0.879808 0 0 0.889423 0 0 0.899038 0 0 
0.908654 0 0 0.918269 0 0 0.927885 0 0 
0.9375 0 0 0.947115 0 0 0.956731 0 0 
0.966346 0 0 0.975962 0 0 0.985577 0 0 
0.995192 0 0 
VERTICES 212 212
1 0 
1 1 
1 2 
1 3 
1 4 
1 5 
1 6 
1 7 
1 8 
1 9 
1 10 
1 11 
1 12 
1 13 
1 14 
1 15 
1 16 
1 17 
1 18 
1 19 
1 20 
1 21 
1 22 
1 23 
1 24 
1 25 
1 26 
1 27 
1 28 
1 29 
1 30 
1 31 
1 32 
1 33 
1 34 
1 35 
1 36 
1 37 
1 38 
1 39 
1 40 
1 41 
1 42 
1 43 
1 44 
1 45 
1 46 
1 47 
1 48 
1 49 
1 50 
1 51 
1 52 
1 53 
1 54 
1 55 
1 56 
1 57 
1 58 
1 59 
1 60 
1 61 
1 62 
1 63 
1 64 
1 65 
1 66 
1 67 
1 68 
1 69 
1 70 
1 71 
1 72 
1 73 
1 74 
1 75 
1 76 
1 77 
1 78 
1 79 
1 80 
1 81 
1 82 
1 83 
1 84 
1 85 
1 86 
1 87 
1 88 
1 89 
1 90 
1 91 
1 92 
1 93 
1 94 
1 95 
1 96 
1 97 
1 98 
1 99 
1 100 
1 101 
1 102 
1 103 
1 104 
1 105 

POINT_DATA 106
SCALARS id double
LOOKUP_TABLE default
105 104 1 0 3 2 4 5 7 
6 8 9 11 10 12 13 14 16 
15 18 17 19 20 22 21 23 24 
26 25 27 28 30 29 31 32 34 
33 35 36 39 37 38 41 40 42 
43 45 44 47 46 49 48 50 51 
52 53 54 55 56 57 58 59 60 
61 62 63 64 65 66 67 68 69 
70 71 72 73 74 76 75 77 78 
79 80 81 82 83 84 85 86 87 
88 89 90 91 92 93 94 95 96 
97 98 99 100 101 102 103 
FIELD FieldData 5
r 1 106 double
-0.005 -0.015 0.0144231 0.00480769 0.0336538 0.0240385 0.0432692 0.0528846 0.0721154 
0.0625 0.0817308 0.0913462 0.110577 0.100962 0.120192 0.129808 0.139423 0.158654 
0.149038 0.177885 0.168269 0.1875 0.197115 0.216346 0.206731 0.225962 0.235577 
0.254808 0.245192 0.264423 0.274038 0.293269 0.283654 0.302885 0.3125 0.331731 
0.322115 0.341346 0.350962 0.379808 0.360577 0.370192 0.399038 0.389423 0.408654 
0.418269 0.4375 0.427885 0.456731 0.447115 0.475962 0.466346 0.485577 0.495192 
0.504808 0.514423 0.524038 0.533654 0.543269 0.552885 0.5625 0.572115 0.581731 
0.591346 0.600962 0.610577 0.620192 0.629808 0.639423 0.649038 0.658654 0.668269 
0.677885 0.6875 0.697115 0.706731 0.716346 0.735577 0.725962 0.745192 0.754808 
0.764423 0.774038 0.783654 0.793269 0.802885 0.8125 0.822115 0.831731 0.841346 
0.850962 0.860577 0.870192 0.879808 0.889423 0.899038 0.908654 0.918269 0.927885 
0.9375 0.947115 0.956731 0.966346 0.975962 0.985577 0.995192 
gid 1 106 double
0 0 1 1 1 1 1 1 1 
1 1 1 1 1 1 1 1 1 
1 1 1 1 1 1 1 1 1 
1 1 1 1 1 1 1 1 1 
1 1 1 1 1 1 1 1 1 
1 1 1 1 1 1 1 1 1 
1 1 1 1 1 1 1 1 1 
1 1 1 1 1 1 1 1 1 
1 1 1 1 1 1 1 1 1 
1 1 1 1 1 1 1 1 2 
2 3 3 3 3 3 3 3 3 
3 3 3 3 3 3 3 
T 1 106 double
0.2 0.2 0.190554 0.195039 0.181741 0.186143 0.177352 0.17298 0.164299 
0.168628 0.159995 0.155721 0.147273 0.15148 0.143103 0.138975 0.134889 0.126858 
0.130849 0.119028 0.122917 0.115195 0.111418 0.104044 0.107701 0.100449 0.0969182 
0.090054 0.0934528 0.0867231 0.0834611 0.0771476 0.080269 0.0740976 0.0711195 0.0653811 
0.0682139 0.0626213 0.0599346 0.0523129 0.0573211 0.0547806 0.0475947 0.0499177 0.0453433 
0.0431628 0.0390124 0.0410528 0.0351369 0.0370407 0.0315289 0.0333 0.0298227 0.02818 
0.0265998 0.0250808 0.0236217 0.0222211 0.0208778 0.0195903 0.0183573 0.0171773 0.0160488 
0.0149705 0.0139409 0.0129584 0.0120217 0.0111292 0.0102796 0.00947129 0.00870291 0.00797303 
0.00728024 0.00662315 0.00600042 0.00541069 0.00485264 0.00382611 0.0043249 0.00335483 0.00290954 
0.00248871 0.00209101 0.00171572 0.00136346 0.00103652 0.000738303 0.000470722 0.000230889 2.59362e-06 
2.19348e-06 -0.000548439 -0.00106789 -0.00156912 -0.00204407 -0.00248721 -0.00289473 -0.00326436 -0.00359486 
-0.00388558 -0.00413611 -0.00434606 -0.00451495 -0.00464226 -0.00472743 -0.00477168 
T_dot 1 106 double
0 0 0.000124243 6.53059e-05 0.000239411 0.000182014 0.000296276 0.000352484 0.000462446 
0.000407914 0.000515963 0.000568355 0.000669329 0.000619511 0.000717708 0.000764556 0.000809784 0.000895054 
0.000853309 0.00097293 0.000934949 0.00100894 0.00104292 0.00110465 0.00107484 0.00113233 0.00115784 
0.00120233 0.00118118 0.00122129 0.00123806 0.00126508 0.00125265 0.00127536 0.00128353 0.00129365 
0.00128961 0.00129569 0.00129577 0.00128485 0.00129396 0.00129029 0.00126886 0.00127768 0.00125845 
0.00124653 0.00121846 0.00123318 0.00118525 0.00120246 0.00114754 0.00116692 0.0011272 0.00110597 
0.00108394 0.00106118 0.00103778 0.0010138 0.00098933 0.000964438 0.000939195 0.000913673 0.000887938 
0.000862054 0.000836085 0.00081009 0.00078413 0.000758263 0.000732554 0.000707064 0.000681858 0.000656995 
0.000632514 0.000608418 0.000584641 0.00056102 0.000537254 0.000487435 0.0005129 0.000460554 0.000432975 
0.00040805 0.000393807 0.000402886 0.000445358 0.000511749 0.000556508 0.000507353 0.000315502 0.000259362 
0.000219348 0.00046168 0.000865731 0.00119821 0.00144388 0.00160506 0.00169739 0.00174316 0.00176459 
0.00177866 0.00179512 0.00181683 0.00184194 0.00186627 0.00188538 0.00189626 
x 1 106 double
-0.005 -0.015 0.0144231 0.00480769 0.0336538 0.0240385 0.0432692 0.0528846 0.0721154 
0.0625 0.0817308 0.0913462 0.110577 0.100962 0.120192 0.129808 0.139423 0.158654 
0.149038 0.177885 0.168269 0.1875 0.197115 0.216346 0.206731 0.225962 0.235577 
0.254808 0.245192 0.264423 0.274038 0.293269 0.283654 0.302885 0.3125 0.331731 
0.322115 0.341346 0.350962 0.379808 0.360577 0.370192 0.399038 0.389423 0.408654 
0.418269 0.4375 0.427885 0.456731 0.447115 0.475962 0.466346 0.485577 0.495192 
0.504808 0.514423 0.524038 0.533654 0.543269 0.552885 0.5625 0.572115 0.581731 
0.591346 0.600962 0.610577 0.620192 0.629808 0.639423 0.649038 0.658654 0.668269 
0.677885 0.6875 0.697115 0.706731 0.716346 0.735577 0.725962 0.745192 0.754808 
0.764423 0.774038 0.783654 0.793269 0.802885 0.8125 0.822115 0.831731 0.841346 
0.850962 0.860577 0.870192 0.879808 0.889423 0.899038 0.908654 0.918269 0.927885 
0.9375 0.947115 0.956731 0.966346 0.975962 0.985577 0.995192 
