# vtk DataFile Version 4.0
vtk output
ASCII
DATASET POLYDATA
FIELD FieldData 4
domain 1 4 string
domain_min:-1
domain_max:51
cell_size:0.02
boundary:0

variables 1 7 string
Time:19
dt:0.01
S:0.600383
S_dot:0.0163997
write_case:1
substeps:50
all_steps:1900

constants 1 11 string
L:1
csize:0.02
dx:0.00952381
rho0:1000
mass:9.52381
a_liquid:0.002
a_solid:0.005
wall:0
liquid:1
interface:2
solid:3

equations 1 10 string
mb1:gid=interface#and(gt(x,(S-(dx/2))),lt(x,(S+(dx/2))))
mb2:gid=liquid#and(lt(x,((S-(dx/2))-0.01)),not(eq(gid,wall)))
mb3:gid=solid#gt(x,(S+(dx/2)))
bc1:T=0#eq(gid,interface)
liquid:T_dot=(a_liquid*sph_L0(T,mass,rho0,Wp22210,csize))#eq(gid,liquid)
solid:T_dot=(a_solid*sph_L0(T,mass,rho0,Wp22210,csize))#eq(gid,solid)
i1:T=euler(T,T_dot,dt)#true
eq2:S_dot=fmax(if(eq(gid,interface),(-sph_G00(if(neq(gid,solid),T,0),mass,rho0,Wp22210,csize)),0))#true
i2:S=euler(S,S_dot,dt)#true
time:Time=(Time+dt)#true

POINTS 106 float
-0.005 0 0 -0.015 0 0 0.0144231 0 0 
0.00480769 0 0 0.0336538 0 0 0.0240385 0 0 
0.0432692 0 0 0.0528846 0 0 0.0721154 0 0 
0.0625 0 0 0.0817308 0 0 0.0913462 0 0 
0.110577 0 0 0.100962 0 0 0.120192 0 0 
0.129808 0 0 0.139423 0 0 0.158654 0 0 
0.149038 0 0 0.177885 0 0 0.168269 0 0 
0.1875 0 0 0.197115 0 0 0.216346 0 0 
0.206731 0 0 0.225962 0 0 0.235577 0 0 
0.254808 0 0 0.245192 0 0 0.264423 0 0 
0.274038 0 0 0.293269 0 0 0.283654 0 0 
0.302885 0 0 0.3125 0 0 0.331731 0 0 
0.322115 0 0 0.341346 0 0 0.350962 0 0 
0.379808 0 0 0.360577 0 0 0.370192 0 0 
0.399038 0 0 0.389423 0 0 0.408654 0 0 
0.418269 0 0 0.4375 0 0 0.427885 0 0 
0.456731 0 0 0.447115 0 0 0.475962 0 0 
0.466346 0 0 0.485577 0 0 0.495192 0 0 
0.504808 0 0 0.514423 0 0 0.524038 0 0 
0.533654 0 0 0.543269 0 0 0.552885 0 0 
0.5625 0 0 0.572115 0 0 0.581731 0 0 
0.591346 0 0 0.600962 0 0 0.610577 0 0 
0.620192 0 0 0.629808 0 0 0.639423 0 0 
0.649038 0 0 0.658654 0 0 0.668269 0 0 
0.677885 0 0 0.6875 0 0 0.697115 0 0 
0.706731 0 0 0.716346 0 0 0.735577 0 0 
0.725962 0 0 0.745192 0 0 0.754808 0 0 
0.764423 0 0 0.774038 0 0 0.783654 0 0 
0.793269 0 0 0.802885 0 0 0.8125 0 0 
0.822115 0 0 0.831731 0 0 0.841346 0 0 
0.850962 0 0 0.860577 0 0 0.870192 0 0 
0.879808 0 0 0.889423 0 0 0.899038 0 0 
0.908654 0 0 0.918269 0 0 0.927885 0 0 
0.9375 0 0 0.947115 0 0 0.956731 0 0 
0.966346 0 0 0.975962 0 0 0.985577 0 0 
0.995192 0 0 
VERTICES 212 212
1 0 
1 1 
1 2 
1 3 
1 4 
1 5 
1 6 
1 7 
1 8 
1 9 
1 10 
1 11 
1 12 
1 13 
1 14 
1 15 
1 16 
1 17 
1 18 
1 19 
1 20 
1 21 
1 22 
1 23 
1 24 
1 25 
1 26 
1 27 
1 28 
1 29 
1 30 
1 31 
1 32 
1 33 
1 34 
1 35 
1 36 
1 37 
1 38 
1 39 
1 40 
1 41 
1 42 
1 43 
1 44 
1 45 
1 46 
1 47 
1 48 
1 49 
1 50 
1 51 
1 52 
1 53 
1 54 
1 55 
1 56 
1 57 
1 58 
1 59 
1 60 
1 61 
1 62 
1 63 
1 64 
1 65 
1 66 
1 67 
1 68 
1 69 
1 70 
1 71 
1 72 
1 73 
1 74 
1 75 
1 76 
1 77 
1 78 
1 79 
1 80 
1 81 
1 82 
1 83 
1 84 
1 85 
1 86 
1 87 
1 88 
1 89 
1 90 
1 91 
1 92 
1 93 
1 94 
1 95 
1 96 
1 97 
1 98 
1 99 
1 100 
1 101 
1 102 
1 103 
1 104 
1 105 

POINT_DATA 106
SCALARS id double
LOOKUP_TABLE default
105 104 1 0 3 2 4 5 7 
6 8 9 11 10 12 13 14 16 
15 18 17 19 20 22 21 23 24 
26 25 27 28 30 29 31 32 34 
33 35 36 39 37 38 41 40 42 
43 45 44 47 46 49 48 50 51 
52 53 54 55 56 57 58 59 60 
61 62 63 64 65 66 67 68 69 
70 71 72 73 74 76 75 77 78 
79 80 81 82 83 84 85 86 87 
88 89 90 91 92 93 94 95 96 
97 98 99 100 101 102 103 
FIELD FieldData 5
r 1 106 double
-0.005 -0.015 0.0144231 0.00480769 0.0336538 0.0240385 0.0432692 0.0528846 0.0721154 
0.0625 0.0817308 0.0913462 0.110577 0.100962 0.120192 0.129808 0.139423 0.158654 
0.149038 0.177885 0.168269 0.1875 0.197115 0.216346 0.206731 0.225962 0.235577 
0.254808 0.245192 0.264423 0.274038 0.293269 0.283654 0.302885 0.3125 0.331731 
0.322115 0.341346 0.350962 0.379808 0.360577 0.370192 0.399038 0.389423 0.408654 
0.418269 0.4375 0.427885 0.456731 0.447115 0.475962 0.466346 0.485577 0.495192 
0.504808 0.514423 0.524038 0.533654 0.543269 0.552885 0.5625 0.572115 0.581731 
0.591346 0.600962 0.610577 0.620192 0.629808 0.639423 0.649038 0.658654 0.668269 
0.677885 0.6875 0.697115 0.706731 0.716346 0.735577 0.725962 0.745192 0.754808 
0.764423 0.774038 0.783654 0.793269 0.802885 0.8125 0.822115 0.831731 0.841346 
0.850962 0.860577 0.870192 0.879808 0.889423 0.899038 0.908654 0.918269 0.927885 
0.9375 0.947115 0.956731 0.966346 0.975962 0.985577 0.995192 
gid 1 106 double
0 0 1 1 1 1 1 1 1 
1 1 1 1 1 1 1 1 1 
1 1 1 1 1 1 1 1 1 
1 1 1 1 1 1 1 1 1 
1 1 1 1 1 1 1 1 1 
1 1 1 1 1 1 1 1 1 
1 1 1 1 1 1 1 1 1 
2 2 3 3 3 3 3 3 3 
3 3 3 3 3 3 3 3 3 
3 3 3 3 3 3 3 3 3 
3 3 3 3 3 3 3 3 3 
3 3 3 3 3 3 3 
T 1 106 double
0.2 0.2 0.186645 0.192983 0.174225 0.180422 0.168066 0.161954 0.149905 
0.155898 0.143985 0.138144 0.126732 0.132391 0.121175 0.115725 0.110388 0.100076 
0.10517 0.0902767 0.0951105 0.0855786 0.0810191 0.0723254 0.0766007 0.0681946 0.0642095 
0.0566781 0.0603707 0.0531317 0.0497305 0.0433593 0.0464736 0.040386 0.0375515 0.0322885 
0.0348532 0.0298544 0.0275475 0.0213562 0.0253647 0.0233021 0.0177986 0.019523 0.0161789 
0.0146598 0.0119069 0.0132372 0.00950692 0.0106649 0.00742679 0.00842891 0.00649647 0.00563395 
0.00483534 0.00409703 0.00341596 0.00278975 0.00221666 0.00169499 0.00122178 0.000791119 0.000393364 
1.01396e-05 9.77932e-06 -0.00446864 -0.00874441 -0.0129524 -0.0170571 -0.021035 -0.0248693 -0.0285497 
-0.0320717 -0.0354355 -0.0386443 -0.0417032 -0.0446179 -0.050038 -0.0473944 -0.0525534 -0.0549449 
-0.0572159 -0.0593699 -0.0614098 -0.0633385 -0.0651587 -0.0668731 -0.0684842 -0.0699947 -0.071407 
-0.0727235 -0.0739463 -0.0750778 -0.0761197 -0.0770742 -0.0779428 -0.0787273 -0.0794291 -0.0800495 
-0.0805897 -0.0810508 -0.0814337 -0.0817391 -0.0819676 -0.0821196 -0.0821983 
T_dot 1 106 double
0 0 0.000351178 0.000184807 0.000673575 0.000513473 0.000830694 0.000984156 0.00127753 
0.00113331 0.00141625 0.0015489 0.00179408 0.001675 0.00190574 0.00200963 0.00210544 0.00227189 
0.00219293 0.00240376 0.0023422 0.00245654 0.00250057 0.00256269 0.00253591 0.00258107 0.00259126 
0.00258812 0.00259352 0.00257539 0.00255569 0.00249687 0.00252938 0.00245858 0.00241493 0.00231337 
0.00236638 0.00225636 0.0021958 0.00199729 0.00213214 0.00206582 0.00185525 0.00192696 0.00178257 
0.00170931 0.0015624 0.00163582 0.00141649 0.00148926 0.00127198 0.00134406 0.00120064 0.00113137 
0.00106701 0.00101189 0.000969983 0.000940773 0.000913841 0.000865934 0.000765504 0.000586439 0.000325745 
0.00101397 0.000977932 0.00175764 0.00333118 0.00468345 0.0057449 0.00648811 0.0069244 0.007096 
0.00706391 0.00689492 0.00665042 0.00637916 0.00611417 0.00566325 0.00587349 0.00548174 0.00532329 
0.00518122 0.00504972 0.00492458 0.00480334 0.00468491 0.00456914 0.00445641 0.00434731 0.00424246 
0.00414239 0.00404751 0.00395815 0.00387455 0.0037969 0.00372531 0.00365991 0.00360078 0.00354802 
0.00350168 0.00346183 0.00342854 0.00340184 0.00338178 0.0033684 0.00336146 
x 1 106 double
-0.005 -0.015 0.0144231 0.00480769 0.0336538 0.0240385 0.0432692 0.0528846 0.0721154 
0.0625 0.0817308 0.0913462 0.110577 0.100962 0.120192 0.129808 0.139423 0.158654 
0.149038 0.177885 0.168269 0.1875 0.197115 0.216346 0.206731 0.225962 0.235577 
0.254808 0.245192 0.264423 0.274038 0.293269 0.283654 0.302885 0.3125 0.331731 
0.322115 0.341346 0.350962 0.379808 0.360577 0.370192 0.399038 0.389423 0.408654 
0.418269 0.4375 0.427885 0.456731 0.447115 0.475962 0.466346 0.485577 0.495192 
0.504808 0.514423 0.524038 0.533654 0.543269 0.552885 0.5625 0.572115 0.581731 
0.591346 0.600962 0.610577 0.620192 0.629808 0.639423 0.649038 0.658654 0.668269 
0.677885 0.6875 0.697115 0.706731 0.716346 0.735577 0.725962 0.745192 0.754808 
0.764423 0.774038 0.783654 0.793269 0.802885 0.8125 0.822115 0.831731 0.841346 
0.850962 0.860577 0.870192 0.879808 0.889423 0.899038 0.908654 0.918269 0.927885 
0.9375 0.947115 0.956731 0.966346 0.975962 0.985577 0.995192 
