# vtk DataFile Version 4.0
vtk output
ASCII
DATASET POLYDATA
FIELD FieldData 4
domain 1 4 string
domain_min:-1
domain_max:51
cell_size:0.02
boundary:0

variables 1 7 string
Time:19.5
dt:0.01
S:0.608197
S_dot:0.0143008
write_case:1
substeps:50
all_steps:1950

constants 1 11 string
L:1
csize:0.02
dx:0.00952381
rho0:1000
mass:9.52381
a_liquid:0.002
a_solid:0.005
wall:0
liquid:1
interface:2
solid:3

equations 1 10 string
mb1:gid=interface#and(gt(x,(S-(dx/2))),lt(x,(S+(dx/2))))
mb2:gid=liquid#and(lt(x,((S-(dx/2))-0.01)),not(eq(gid,wall)))
mb3:gid=solid#gt(x,(S+(dx/2)))
bc1:T=0#eq(gid,interface)
liquid:T_dot=(a_liquid*sph_L0(T,mass,rho0,Wp22210,csize))#eq(gid,liquid)
solid:T_dot=(a_solid*sph_L0(T,mass,rho0,Wp22210,csize))#eq(gid,solid)
i1:T=euler(T,T_dot,dt)#true
eq2:S_dot=fmax(if(eq(gid,interface),(-sph_G00(if(neq(gid,solid),T,0),mass,rho0,Wp22210,csize)),0))#true
i2:S=euler(S,S_dot,dt)#true
time:Time=(Time+dt)#true

POINTS 106 float
-0.005 0 0 -0.015 0 0 0.0144231 0 0 
0.00480769 0 0 0.0336538 0 0 0.0240385 0 0 
0.0432692 0 0 0.0528846 0 0 0.0721154 0 0 
0.0625 0 0 0.0817308 0 0 0.0913462 0 0 
0.110577 0 0 0.100962 0 0 0.120192 0 0 
0.129808 0 0 0.139423 0 0 0.158654 0 0 
0.149038 0 0 0.177885 0 0 0.168269 0 0 
0.1875 0 0 0.197115 0 0 0.216346 0 0 
0.206731 0 0 0.225962 0 0 0.235577 0 0 
0.254808 0 0 0.245192 0 0 0.264423 0 0 
0.274038 0 0 0.293269 0 0 0.283654 0 0 
0.302885 0 0 0.3125 0 0 0.331731 0 0 
0.322115 0 0 0.341346 0 0 0.350962 0 0 
0.379808 0 0 0.360577 0 0 0.370192 0 0 
0.399038 0 0 0.389423 0 0 0.408654 0 0 
0.418269 0 0 0.4375 0 0 0.427885 0 0 
0.456731 0 0 0.447115 0 0 0.475962 0 0 
0.466346 0 0 0.485577 0 0 0.495192 0 0 
0.504808 0 0 0.514423 0 0 0.524038 0 0 
0.533654 0 0 0.543269 0 0 0.552885 0 0 
0.5625 0 0 0.572115 0 0 0.581731 0 0 
0.591346 0 0 0.600962 0 0 0.610577 0 0 
0.620192 0 0 0.629808 0 0 0.639423 0 0 
0.649038 0 0 0.658654 0 0 0.668269 0 0 
0.677885 0 0 0.6875 0 0 0.697115 0 0 
0.706731 0 0 0.716346 0 0 0.735577 0 0 
0.725962 0 0 0.745192 0 0 0.754808 0 0 
0.764423 0 0 0.774038 0 0 0.783654 0 0 
0.793269 0 0 0.802885 0 0 0.8125 0 0 
0.822115 0 0 0.831731 0 0 0.841346 0 0 
0.850962 0 0 0.860577 0 0 0.870192 0 0 
0.879808 0 0 0.889423 0 0 0.899038 0 0 
0.908654 0 0 0.918269 0 0 0.927885 0 0 
0.9375 0 0 0.947115 0 0 0.956731 0 0 
0.966346 0 0 0.975962 0 0 0.985577 0 0 
0.995192 0 0 
VERTICES 212 212
1 0 
1 1 
1 2 
1 3 
1 4 
1 5 
1 6 
1 7 
1 8 
1 9 
1 10 
1 11 
1 12 
1 13 
1 14 
1 15 
1 16 
1 17 
1 18 
1 19 
1 20 
1 21 
1 22 
1 23 
1 24 
1 25 
1 26 
1 27 
1 28 
1 29 
1 30 
1 31 
1 32 
1 33 
1 34 
1 35 
1 36 
1 37 
1 38 
1 39 
1 40 
1 41 
1 42 
1 43 
1 44 
1 45 
1 46 
1 47 
1 48 
1 49 
1 50 
1 51 
1 52 
1 53 
1 54 
1 55 
1 56 
1 57 
1 58 
1 59 
1 60 
1 61 
1 62 
1 63 
1 64 
1 65 
1 66 
1 67 
1 68 
1 69 
1 70 
1 71 
1 72 
1 73 
1 74 
1 75 
1 76 
1 77 
1 78 
1 79 
1 80 
1 81 
1 82 
1 83 
1 84 
1 85 
1 86 
1 87 
1 88 
1 89 
1 90 
1 91 
1 92 
1 93 
1 94 
1 95 
1 96 
1 97 
1 98 
1 99 
1 100 
1 101 
1 102 
1 103 
1 104 
1 105 

POINT_DATA 106
SCALARS id double
LOOKUP_TABLE default
105 104 1 0 3 2 4 5 7 
6 8 9 11 10 12 13 14 16 
15 18 17 19 20 22 21 23 24 
26 25 27 28 30 29 31 32 34 
33 35 36 39 37 38 41 40 42 
43 45 44 47 46 49 48 50 51 
52 53 54 55 56 57 58 59 60 
61 62 63 64 65 66 67 68 69 
70 71 72 73 74 76 75 77 78 
79 80 81 82 83 84 85 86 87 
88 89 90 91 92 93 94 95 96 
97 98 99 100 101 102 103 
FIELD FieldData 5
r 1 106 double
-0.005 -0.015 0.0144231 0.00480769 0.0336538 0.0240385 0.0432692 0.0528846 0.0721154 
0.0625 0.0817308 0.0913462 0.110577 0.100962 0.120192 0.129808 0.139423 0.158654 
0.149038 0.177885 0.168269 0.1875 0.197115 0.216346 0.206731 0.225962 0.235577 
0.254808 0.245192 0.264423 0.274038 0.293269 0.283654 0.302885 0.3125 0.331731 
0.322115 0.341346 0.350962 0.379808 0.360577 0.370192 0.399038 0.389423 0.408654 
0.418269 0.4375 0.427885 0.456731 0.447115 0.475962 0.466346 0.485577 0.495192 
0.504808 0.514423 0.524038 0.533654 0.543269 0.552885 0.5625 0.572115 0.581731 
0.591346 0.600962 0.610577 0.620192 0.629808 0.639423 0.649038 0.658654 0.668269 
0.677885 0.6875 0.697115 0.706731 0.716346 0.735577 0.725962 0.745192 0.754808 
0.764423 0.774038 0.783654 0.793269 0.802885 0.8125 0.822115 0.831731 0.841346 
0.850962 0.860577 0.870192 0.879808 0.889423 0.899038 0.908654 0.918269 0.927885 
0.9375 0.947115 0.956731 0.966346 0.975962 0.985577 0.995192 
gid 1 106 double
0 0 1 1 1 1 1 1 1 
1 1 1 1 1 1 1 1 1 
1 1 1 1 1 1 1 1 1 
1 1 1 1 1 1 1 1 1 
1 1 1 1 1 1 1 1 1 
1 1 1 1 1 1 1 1 1 
1 1 1 1 1 1 1 1 1 
1 2 2 3 3 3 3 3 3 
3 3 3 3 3 3 3 3 3 
3 3 3 3 3 3 3 3 3 
3 3 3 3 3 3 3 3 3 
3 3 3 3 3 3 3 
T 1 106 double
0.2 0.2 0.186817 0.193073 0.174555 0.180674 0.168474 0.162437 0.150532 
0.156453 0.144679 0.138904 0.127613 0.133213 0.12211 0.116712 0.111422 0.101193 
0.106248 0.0914591 0.0962622 0.0867875 0.0822501 0.073588 0.0778496 0.0694669 0.0654875 
0.0579558 0.0616504 0.0544038 0.0509936 0.0445948 0.0477244 0.0416033 0.0387479 0.0334362 
0.0360264 0.0309745 0.0286384 0.0223507 0.0264247 0.02433 0.0187238 0.0204832 0.0170686 
0.0155136 0.0126886 0.014055 0.010217 0.0114106 0.00806709 0.00910377 0.00710308 0.0062079 
0.00537769 0.00460851 0.00389643 0.00323772 0.00262946 0.00207038 0.0015615 0.00110511 0.00070125 
0.000342954 9.77932e-06 9.30589e-06 -0.00463775 -0.00905396 -0.0133624 -0.017518 -0.0214966 -0.0252881 
-0.0288941 -0.0323234 -0.0355881 -0.0387002 -0.0416701 -0.0472115 -0.0445053 -0.0497924 -0.0522508 
-0.0545892 -0.0568097 -0.0589148 -0.0609067 -0.0627881 -0.0645613 -0.066229 -0.0677936 -0.0692575 
-0.070623 -0.0718922 -0.0730672 -0.0741501 -0.0751425 -0.0760461 -0.0768627 -0.0775934 -0.0782397 
-0.0788027 -0.0792834 -0.0796826 -0.0800011 -0.0802395 -0.0803981 -0.0804801 
T_dot 1 106 double
0 0 0.00033777 0.00017774 0.00064801 0.000493917 0.000799308 0.000947175 0.0012302 
0.001091 0.00136422 0.00149255 0.00173029 0.00161472 0.00183887 0.00194012 0.00203375 0.00219725 
0.00211953 0.002328 0.00226677 0.00238091 0.00242549 0.00248996 0.00246181 0.00251008 0.00252237 
0.00252435 0.00252704 0.00251459 0.00249808 0.00244621 0.00247517 0.00241161 0.00237175 0.00227794 
0.00232706 0.00222482 0.00216814 0.00198086 0.0021083 0.00204574 0.00184573 0.00191406 0.00177625 
0.00170601 0.00156471 0.00163538 0.00142461 0.00149436 0.00128733 0.00135562 0.00121934 0.00115094 
0.00108138 0.00101098 0.000943499 0.000889211 0.000865096 0.000884839 0.000934784 0.000950423 0.000829654 
0.00050415 0.000977932 0.000930589 0.0028643 0.00526935 0.00706107 0.00812396 0.00850013 0.00834644 
0.00787313 0.00727955 0.00671276 0.00625145 0.00591561 0.00553154 0.00568689 0.00541634 0.00531691 
0.00521913 0.00511704 0.00500975 0.00489875 0.00478625 0.00467435 0.00456471 0.00445857 0.00435676 
0.00425984 0.00416819 0.00408203 0.00400153 0.0039268 0.00385792 0.00379499 0.00373808 0.00368726 
0.00364262 0.00360421 0.0035721 0.00354635 0.00352699 0.00351408 0.00350738 
x 1 106 double
-0.005 -0.015 0.0144231 0.00480769 0.0336538 0.0240385 0.0432692 0.0528846 0.0721154 
0.0625 0.0817308 0.0913462 0.110577 0.100962 0.120192 0.129808 0.139423 0.158654 
0.149038 0.177885 0.168269 0.1875 0.197115 0.216346 0.206731 0.225962 0.235577 
0.254808 0.245192 0.264423 0.274038 0.293269 0.283654 0.302885 0.3125 0.331731 
0.322115 0.341346 0.350962 0.379808 0.360577 0.370192 0.399038 0.389423 0.408654 
0.418269 0.4375 0.427885 0.456731 0.447115 0.475962 0.466346 0.485577 0.495192 
0.504808 0.514423 0.524038 0.533654 0.543269 0.552885 0.5625 0.572115 0.581731 
0.591346 0.600962 0.610577 0.620192 0.629808 0.639423 0.649038 0.658654 0.668269 
0.677885 0.6875 0.697115 0.706731 0.716346 0.735577 0.725962 0.745192 0.754808 
0.764423 0.774038 0.783654 0.793269 0.802885 0.8125 0.822115 0.831731 0.841346 
0.850962 0.860577 0.870192 0.879808 0.889423 0.899038 0.908654 0.918269 0.927885 
0.9375 0.947115 0.956731 0.966346 0.975962 0.985577 0.995192 
