# vtk DataFile Version 4.0
vtk output
ASCII
DATASET POLYDATA
FIELD FieldData 4
domain 1 4 string
domain_min:-40|-40
domain_max:40|40
cell_size:1|1
boundary:0|0

variables 1 5 string
T:9
dt:0.01
write_case:1
substeps:10
all_steps:900

constants 1 17 string
L:40
c_s:1
dx:1
k:1000
d1:-13.5|10
d2:-6|10
d3:9|14.5
d4:13.5|10
d5:-6|8
d6:0|8
d7:6|8
d8:-9|9
d9:9|9
d10:-12|0
d11:12|0
d12:0|-10
R_w:0.1

equations 1 18 string
time:T=(T+dt)#true
pos_x:x=elem(r,0,0)#eq(gid,1)
pos_y:y=elem(r,1,0)#eq(gid,1)
wp_1:p0=if(and(lt(x,(-9)),gt(y,10)),d1,p0)#eq(gid,1)
wp_2:p0=if(and(and(gt(x,(-9)),lt(x,(-3))),gt(y,10)),d2,p0)#eq(gid,1)
wp_3:p0=if(and(and(gt(x,(-3)),lt(x,9)),gt(y,10)),d3,p0)#eq(gid,1)
wp_4:p0=if(and(gt(x,9),gt(y,10)),d4,p0)#eq(gid,1)
wp_5:p0=if(and(and(gt(x,(-9)),lt(x,(-3))),lt(y,8)),d5,p0)#eq(gid,1)
wp_6:p0=if(and(and(gt(x,(-3)),lt(x,3)),lt(y,8)),d6,p0)#eq(gid,1)
wp_7:p0=if(and(and(gt(x,3),lt(x,9)),lt(y,8)),d7,p0)#eq(gid,1)
wp_8:p0=if(and(and(gt(x,(-9)),lt(x,0)),and(gt(y,8),lt(y,10))),d8,p0)#eq(gid,1)
wp_9:p0=if(and(and(gt(x,0),lt(x,9)),and(gt(y,8),lt(y,10))),d9,p0)#eq(gid,1)
wp_10:p0=if(and(lt(x,(-9)),lt(y,10)),d10,p0)#eq(gid,1)
wp_11:p0=if(and(gt(x,9),lt(y,10)),d11,p0)#eq(gid,1)
wp_12:p0=if(lt(y,0),d12,p0)#eq(gid,1)
acceleration:v=sfm(v,p0,v0,m,R,A,B,k,c,tau)#eq(gid,1)
velocity:v=euler(v,a,dt)#eq(gid,1)
position:r=euler(r,v,dt)#eq(gid,1)

POINTS 1049 float
4.8997 -6.00131 0 -5.30684 -5.48912 0 -5.95531 -5.47597 0 
-6.1808 -4.81507 0 7.43217 -4.28654 0 -8.83845 -3.2132 0 
-8.12941 -3.3972 0 7.38572 -3.67723 0 7.77615 -3.24198 0 
8.39868 -3.77997 0 9.46865 -3.02356 0 -9.64255 -2.41635 0 
-8.83318 -2.37216 0 8.39857 -2.93502 0 9.29365 -2.35853 0 
-11.0588 -1.00326 0 -10.4532 -1.52992 0 -9.8383 -1.80939 0 
9.8644 -1.9637 0 10.5314 -1.37319 0 -12.0023 -0.0265786 0 
-11.6095 -0.459109 0 -14.2857 0 0 -15 0 0 
-14.4643 0 0 -15 0.8 0 -15 0.6 0 
-14.1071 0 0 -15 0.4 0 -14.8214 0 0 
-15 0.2 0 -14.6429 0 0 -13.2143 0 0 
-13.9286 0 0 -13.0357 0 0 -13.75 0 0 
-13.5714 0 0 -13.3929 0 0 -12.6786 0 0 
-12.5 0 0 -12.8571 0 0 -11.8636 0.522029 0 
-11.1429 0 0 -11.5 0 0 -11.3214 0 0 
-10.0714 0 0 -10.9643 0 0 -10.4286 0 0 
-10.25 0 0 -10.7857 0 0 -10.6071 0 0 
-9.5357 0 0 -9.8929 0 0 -9.1786 0 0 
-9.7143 0 0 -9.3571 0 0 -9 0.6 0 
-9 0 0 -8.6 0 0 -8.8 0 0 
-9 0.8 0 -9 0.4 0 -8.4 0 0 
-8.2 0 0 -9 0.2 0 -8 0 0 
-7.8 0 0 -7.6 0 0 -7.2 0 0 
-7.4 0 0 -6.8 0 0 -7 0 0 
-6.6 0 0 -6.2 0 0 -6.4 0 0 
-5.2 0 0 -5.6 0 0 -6 0 0 
-5.4 0 0 -5.8 0 0 -4.4 0 0 
-4.6 0 0 -5 0 0 -4.8 0 0 
-4.2 0 0 -3.8 0 0 -3.6 0 0 
-3.4 0 0 -3.2 0 0 -4 0 0 
-3 0.4 0 -2.4 0 0 -2.8 0 0 
-2.6 0 0 -3 0.2 0 -2.2 0 0 
-3 0.6 0 -3 0.8 0 -3 0 0 
-1.2 0 0 -1.4 0 0 -2 0 0 
-1.8 0 0 -1.6 0 0 -0.4 0 0 
-1 0 0 -0.8 0 0 -0.2 0 0 
-0.6 0 0 -0 0 0 0.6 0 0 
0.2 0 0 0.4 0 0 0.8 0 0 
1.4 0 0 1.6 0 0 1 0 0 
1.2 0 0 1.8 0 0 2 0 0 
2.2 0 0 2.6 0 0 2.4 0 0 
2.8 0 0 3.8 0 0 3 0.8 0 
3 0.2 0 3 0.6 0 3.2 0 0 
3.6 0 0 3 0 0 3 0.4 0 
3.4 0 0 4.8 0 0 4.6 0 0 
4 0 0 4.4 0 0 4.2 0 0 
5.4 0 0 5 0 0 5.6 0 0 
5.2 0 0 5.8 0 0 6.4 0 0 
6.6 0 0 6 0 0 6.2 0 0 
6.8 0 0 7.6 0 0 7.2 0 0 
7.8 0 0 7.4 0 0 7 0 0 
8.8 0 0 8 0 0 8.6 0 0 
8.4 0 0 8.2 0 0 9 0.4 0 
9 0.2 0 9.7143 0 0 9.3571 0 0 
9 0 0 9.5357 0 0 9 0.6 0 
9.8929 0 0 9.1786 0 0 9 0.8 0 
10.6071 0 0 10.25 0 0 10.9643 0 0 
10.7857 0 0 10.4286 0 0 10.0714 0 0 
11.3214 0 0 11.1429 0 0 11.5 0 0 
11.5328 0.616245 0 12.1044 0.641991 0 12.0051 0.0170606 0 
12.8571 0 0 12.5 0 0 12.6786 0 0 
13.2143 0 0 13.5714 0 0 13.0357 0 0 
13.75 0 0 13.3929 0 0 13.9286 0 0 
14.1071 0 0 14.2857 0 0 14.8214 0 0 
14.4643 0 0 14.6429 0 0 15 0.8 0 
15 0.4 0 15 0.6 0 15 0 0 
15 0.2 0 -15 1.8 0 -15 1 0 
-15 1.4 0 -15 1.2 0 -15 1.6 0 
-11.5635 1.02226 0 -11.2015 1.73973 0 -11.8468 1.59813 0 
-9 1.4 0 -9 1.2 0 -9 1.8 0 
-9 1 0 -9 1.6 0 -3 1.6 0 
-3 1.8 0 -3 1.4 0 -3 1 0 
-3 1.2 0 3 1.6 0 3 1.2 0 
3 1.8 0 3 1 0 3 1.4 0 
9 1.4 0 9 1.8 0 9 1 0 
9 1.6 0 9 1.2 0 15 1.2 0 
15 1.6 0 15 1.8 0 15 1 0 
15 1.4 0 -15 2.4 0 -15 2.6 0 
-15 2.2 0 -15 2 0 -15 2.8 0 
-12.3339 2.1368 0 -11.3383 2.3937 0 -9 2.4 0 
-9 2.2 0 -9 2.6 0 -9 2 0 
-9 2.8 0 -3 2.2 0 -3 2 0 
-3 2.8 0 -3 2.4 0 -3 2.6 0 
3 2.8 0 3 2 0 3 2.2 0 
3 2.4 0 3 2.6 0 9 2.2 0 
9 2.8 0 9 2.6 0 9 2 0 
9 2.4 0 11.2019 2.76017 0 15 2.4 0 
15 2.6 0 15 2.8 0 15 2 0 
15 2.2 0 -15 3.4 0 -15 3.6 0 
-15 3.8 0 -15 3.2 0 -15 3 0 
-12.7324 3.91628 0 -11.053 3.07894 0 -9 3.2 0 
-9 3.8 0 -9 3.4 0 -9 3.6 0 
-9 3 0 -3 3 0 -3 3.2 0 
-3 3.4 0 -3 3.8 0 -3 3.6 0 
3 3.4 0 3 3 0 3 3.6 0 
3 3.8 0 3 3.2 0 9 3.4 0 
9 3.8 0 9 3 0 9 3.6 0 
9 3.2 0 10.6949 3.59173 0 12.514 3.98365 0 
12.6043 3.43649 0 15 3.6 0 15 3 0 
15 3.8 0 15 3.2 0 15 3.4 0 
-15 4 0 -15 4.2 0 -15 4.6 0 
-15 4.8 0 -15 4.4 0 -13.0942 4.49652 0 
-12.3775 4.36204 0 -12.5072 4.9029 0 -10.556 4.78598 0 
-10.7823 4.00381 0 -9 4.4 0 -9 4.8 0 
-9 4 0 -9 4.6 0 -9 4.2 0 
-3 4.8 0 -3 4.6 0 -3 4.4 0 
-3 4 0 -3 4.2 0 3 4.2 0 
3 4.4 0 3 4 0 3 4.6 0 
3 4.8 0 9 4.6 0 9 4.4 0 
9 4.2 0 9 4 0 9 4.8 0 
10.6489 4.79015 0 10.5423 4.14775 0 11.2546 4.13631 0 
15 4 0 15 4.4 0 15 4.8 0 
15 4.6 0 15 4.2 0 -15 5.2 0 
-15 5.6 0 -15 5 0 -15 5.4 0 
-15 5.8 0 -12.8801 5.44659 0 -10.3445 5.39216 0 
-9 5.2 0 -9 5.4 0 -9 5.8 0 
-9 5 0 -9 5.6 0 -3 5.8 0 
-3 5 0 -3 5.2 0 -3 5.6 0 
-3 5.4 0 3 5 0 3 5.4 0 
3 5.8 0 3 5.2 0 3 5.6 0 
9 5 0 9 5.4 0 9 5.8 0 
9 5.2 0 9 5.6 0 10.2632 5.75253 0 
12.8447 5.58281 0 15 5.8 0 15 5.6 0 
15 5.2 0 15 5 0 15 5.4 0 
-15 6.4 0 -15 6.2 0 -15 6 0 
-15 6.6 0 -15 6.8 0 -9.91208 6.86703 0 
-9 6 0 -9 6.4 0 -9 6.2 0 
-9 6.6 0 -9 6.8 0 -3 6.6 0 
-3 6.2 0 -3 6.8 0 -3 6.4 0 
-3 6 0 3 6 0 3 6.2 0 
3 6.4 0 3 6.8 0 3 6.6 0 
6.39505 6.67397 0 9 6.4 0 9 6 0 
9.85475 6.57584 0 9 6.6 0 9 6.8 0 
9 6.2 0 10.5031 6.58017 0 12.9487 6.4199 0 
12.3922 6.52101 0 13.5536 6.47631 0 15 6 0 
15 6.8 0 15 6.4 0 15 6.6 0 
15 6.2 0 -15 7.6 0 -15 7.8 0 
-15 7.4 0 -15 7 0 -15 7.2 0 
-13.2398 7.08474 0 -12.6624 7.03832 0 -10.1623 7.43669 0 
-10.6394 7.71857 0 -9.57565 7.5978 0 -9 7.4 0 
-9 7 0 -9 7.2 0 -9 7.6 0 
-9 7.8 0 -3 7.2 0 -3 7.8 0 
-3 7.6 0 -3 7 0 -3 7.4 0 
-0.339318 7.57843 0 0.203081 7.41376 0 3 7.6 0 
3 7.4 0 3 7.8 0 3 7 0 
3 7.2 0 5.99764 7.99035 0 9.91375 7.29823 0 
9 7 0 9 7.4 0 9 7.8 0 
9 7.6 0 9 7.2 0 9.6463 7.87182 0 
13.3828 7.88432 0 15 7.8 0 15 7.6 0 
15 7.4 0 15 7 0 15 7.2 0 
-15 8.2 0 -15 8 0 -15 8.8 0 
-15 8.6 0 -15 8.4 0 -9.9323 8.18781 0 
-9.29961 8.23864 0 -9.54689 8.81195 0 -8.1071 8 0 
-8.81326 8.76435 0 -8.8214 8 0 -8.4643 8 0 
-8.2857 8 0 -8.26659 8.77577 0 -8.6429 8 0 
-9 8 0 -7.75 8 0 -7.2143 8 0 
-7.0357 8 0 -7.5714 8 0 -7.3929 8 0 
-7.9286 8 0 -7.63123 8.76826 0 -7.06281 8.62989 0 
-6.33529 8.354 0 -6.5 8 0 -6.6786 8 0 
-6.8571 8 0 -5.5 8 0 -5.1429 8 0 
-5.3214 8 0 -5.02458 8.93021 0 -4.0714 8 0 
-4.9643 8 0 -4.4286 8 0 -4.7857 8 0 
-4.25 8 0 -4.6071 8 0 -4.23074 8.87486 0 
-3.7143 8 0 -3.5357 8 0 -3.1786 8 0 
-3.3571 8 0 -3.8929 8 0 -2.4643 8 0 
-2.1071 8 0 -2.2857 8 0 -2.8214 8 0 
-2.6429 8 0 -3 8 0 -2.66583 8.77673 0 
-1.75 8 0 -1.9286 8 0 -1.2143 8 0 
-1.5714 8 0 -1.0357 8 0 -1.3929 8 0 
-0.8571 8 0 -0.487581 8.39719 0 -0.6786 8 0 
-0.5 8 0 0.0978296 8.02822 0 0.5 8 0 
0.6786 8 0 0.8571 8 0 1.00677 8.5595 0 
1.2143 8 0 1.9286 8 0 1.3929 8 0 
1.75 8 0 1.5714 8 0 1.0357 8 0 
2.6429 8 0 2.4643 8 0 2.2857 8 0 
2.8214 8 0 2.1071 8 0 3.07514 8.87053 0 
3.5357 8 0 3.1786 8 0 3.3571 8 0 
3 8 0 3.7143 8 0 3.8929 8 0 
4.25 8 0 4.0714 8 0 4.7857 8 0 
4.6071 8 0 4.9643 8 0 4.4286 8 0 
5.5 8 0 5.1429 8 0 5.3214 8 0 
6.55161 8.45689 0 6.8571 8 0 6.5 8 0 
6.6786 8 0 7.46307 8.72807 0 7.3929 8 0 
7.0357 8 0 7.2143 8 0 7.5714 8 0 
7.9286 8 0 7.75 8 0 8.06006 8.61326 0 
8.67473 8.59303 0 8.4643 8 0 8.1071 8 0 
8.2857 8 0 8.8214 8 0 8.6429 8 0 
9.01835 8.98835 0 9.57136 8.90314 0 9 8 0 
9.25461 8.31903 0 9 8 0 13.3157 8.43738 0 
13.3408 8.99443 0 15 8 0 15 8.6 0 
15 8.8 0 15 8.2 0 15 8.4 0 
-15 9.8 0 -15 9 0 -15 9.6 0 
-15 9.4 0 -15 9.2 0 -9.09103 9.22013 0 
-8.524 9.2461 0 -7.99106 9.20532 0 -7.44854 9.32578 0 
-6.65295 9.50761 0 7.82143 9.16157 0 8.382 9.08729 0 
8.72503 9.45223 0 13.4721 9.79535 0 15 9.8 0 
15 9.6 0 15 9 0 15 9.4 0 
15 9.2 0 -15 10.6 0 -15 10.4 0 
-14.6667 10 0 -15 10.2 0 -14.1667 10 0 
-14.3333 10 0 -15 10.8 0 -14.5 10 0 
-15 10 0 -14.8333 10 0 -14 10 0 
-12.8 10 0 -12.4 10 0 -13 10 0 
-12.6 10 0 -12.2 10 0 -11.2 10 0 
-12 10 0 -11.8 10 0 -11.4 10 0 
-11.6 10 0 -10.6 10 0 -10.4 10 0 
-10.2 10 0 -11 10 0 -10.8 10 0 
-9.8 10 0 -10 10 0 -9.4 10 0 
-9.6 10 0 -9.2 10 0 -8.1071 10 0 
-9 10 0 -9 10.8 0 -9 10.6 0 
-9 10.4 0 -8.4643 10 0 -8.8214 10 0 
-8.2857 10 0 -8.6429 10 0 -9 10.2 0 
-7.0357 10 0 -7.3929 10 0 -7.5714 10 0 
-7.2143 10 0 -7.9286 10 0 -7.75 10 0 
-6.8571 10 0 -6.6786 10 0 -6.5 10 0 
-5.5 10 0 -5.1429 10 0 -5.3214 10 0 
-4.25 10 0 -4.6071 10 0 -4.0714 10 0 
-4.9643 10 0 -4.7857 10 0 -4.4286 10 0 
-3.7143 10 0 -3.3571 10 0 -3.8929 10 0 
-3.5357 10 0 -3.1786 10 0 -3 10.6 0 
-3 10.2 0 -2.2 10 0 -3 10 0 
-2.8 10 0 -3 10.4 0 -3 10.8 0 
-2.4 10 0 -2.6 10 0 -1.6 10 0 
-1.4 10 0 -2 10 0 -1.8 10 0 
-1.2 10 0 -0.4 10 0 -1 10 0 
-0.6 10 0 -0.8 10 0 -0.2 10 0 
-0 10 0 0.6 10 0 0.4 10 0 
0.8 10 0 0.2 10 0 1.8 10 0 
1.4 10 0 1 10 0 1.6 10 0 
1.2 10 0 2.4 10 0 2.2 10 0 
2.8 10 0 2.6 10 0 2 10 0 
3.4 10 0 3.8 10 0 3.2 10 0 
3 10 0 3.6 10 0 4.6 10 0 
4 10 0 4.2 10 0 4.8 10 0 
4.4 10 0 5.2 10 0 5.6 10 0 
5.4 10 0 5 10 0 5.8 10 0 
6.4 10 0 6.8 10 0 6.6 10 0 
6.2 10 0 6 10 0 7.8 10 0 
7.4 10 0 7.6 10 0 7.2 10 0 
7 10 0 8.8 10 0 8.2 10 0 
8.6 10 0 8.4 10 0 8 10 0 
9.8 10 0 9.6 10 0 9 10.8 0 
9 10 0 9.4 10 0 9 10.2 0 
9 10.6 0 9 10.4 0 9.2 10 0 
10.6 10 0 10.8 10 0 10 10 0 
10.2 10 0 10.4 10 0 11.4 10 0 
11.2 10 0 11.6 10 0 11 10 0 
11.8 10 0 12.8 10 0 12 10 0 
12.3621 10.571 0 12.2 10 0 12.6 10 0 
12.4 10 0 13 10 0 14.5 10 0 
14.3333 10 0 14.8333 10 0 14.6667 10 0 
14.1667 10 0 14 10 0 15 10.8 0 
15 10.6 0 15 10.2 0 15 10.4 0 
15 10 0 -15 11.6 0 -15 11.4 0 
-15 11.2 0 -15 11 0 -15 11.8 0 
-9 11.6 0 -9 11.8 0 -9 11 0 
-9 11.4 0 -9 11.2 0 -3 11.4 0 
-3 11.2 0 -3 11.6 0 -3 11.8 0 
-3 11 0 9 11.2 0 9 11.4 0 
9 11 0 9 11.6 0 9 11.8 0 
11.971 11.2107 0 11.5419 11.7548 0 12.1752 11.7598 0 
12.6762 11.627 0 12.6427 11.0653 0 15 11.4 0 
15 11.8 0 15 11.6 0 15 11.2 0 
15 11 0 -15 12.4 0 -15 12.6 0 
-15 12 0 -15 12.2 0 -15 12.8 0 
-9 12.2 0 -9 12.6 0 -9 12 0 
-9 12.4 0 -9 12.8 0 -3 12.4 0 
-3 12.2 0 -3 12 0 -3 12.8 0 
-3 12.6 0 3.84094 12.6936 0 4.70087 12.7326 0 
9 12.2 0 9 12.8 0 9 12.4 0 
9 12.6 0 9 12 0 11.678 12.3212 0 
15 12.6 0 15 12.4 0 15 12.8 0 
15 12.2 0 15 12 0 -15 13.8 0 
-15 13.2 0 -15 13.4 0 -15 13.6 0 
-15 13 0 -9 13.2 0 -9 13.4 0 
-9 13.6 0 -9 13 0 -9 13.8 0 
-3 13 0 -3 13.2 0 -3 13.6 0 
-3 13.8 0 -3 13.4 0 6.62841 13.3287 0 
8.63911 13.8179 0 9 13.4 0 9 13.8 0 
9 13.2 0 9 13 0 9 13.6 0 
9.72796 13.9544 0 10.4998 13.0192 0 10.7396 13.6755 0 
10.1571 13.5513 0 15 13.2 0 15 13.8 0 
15 13.4 0 15 13 0 15 13.6 0 
-15 14.2 0 -15 14 0 -15 14.6 0 
-15 14.4 0 -15 14.8 0 -9 14.6 0 
-9 14 0 -9 14.4 0 -9 14.2 0 
-9 14.8 0 -3 14 0 -3 14.8 0 
-3 14.2 0 -3 14.6 0 -3 14.4 0 
7.67471 14.4104 0 8.14192 14.8468 0 8.37709 14.2928 0 
8.78724 14.7082 0 9.28084 14.2817 0 9 14 0 
15 14.6 0 15 14.4 0 15 14.2 0 
15 14.8 0 15 14 0 -15 15.6 0 
-15 15.8 0 -15 15.2 0 -15 15.4 0 
-15 15 0 -9 15 0 -9 15.6 0 
-9 15.8 0 -9 15.2 0 -9 15.4 0 
-3 15.2 0 -3 15.8 0 -3 15.6 0 
-3 15.4 0 -3 15 0 9 15.1667 0 
9 15 0 9 15.6667 0 9 15.8333 0 
9 15.5 0 9 15.3333 0 15 15.8 0 
15 15 0 15 15.6 0 15 15.4 0 
15 15.2 0 -14.6 16 0 -14.8 16 0 
-14.2 16 0 -15 16 0 -14.4 16 0 
-13.2 16 0 -14 16 0 -13.4 16 0 
-13.8 16 0 -13.6 16 0 -12.6 16 0 
-12.8 16 0 -13 16 0 -12.2 16 0 
-12.4 16 0 -11.4 16 0 -11.2 16 0 
-11.8 16 0 -11.6 16 0 -12 16 0 
-11 16 0 -10.6 16 0 -10.4 16 0 
-10.2 16 0 -10.8 16 0 -9.8 16 0 
-9.6 16 0 -9.4 16 0 -9.2 16 0 
-10 16 0 -8.2 16 0 -8.8 16 0 
-8.6 16 0 -8.4 16 0 -9 16 0 
-8 16 0 -7.8 16 0 -7.6 16 0 
-7.2 16 0 -7.4 16 0 -6.4 16 0 
-7 16 0 -6.6 16 0 -6.2 16 0 
-6.8 16 0 -5.6 16 0 -5.4 16 0 
-5.8 16 0 -5.2 16 0 -6 16 0 
-4.8 16 0 -5 16 0 -4.6 16 0 
-4.2 16 0 -4.4 16 0 -3.6 16 0 
-4 16 0 -3.2 16 0 -3.8 16 0 
-3.4 16 0 -2.2 16 0 -2.8 16 0 
-3 16 0 -2.6 16 0 -2.4 16 0 
-2 16 0 -1.2 16 0 -1.4 16 0 
-1.8 16 0 -1.6 16 0 -0.8 16 0 
-0.6 16 0 -0.2 16 0 -0.4 16 0 
-1 16 0 0.8 16 0 0.2 16 0 
0.6 16 0 -0 16 0 0.4 16 0 
1.2 16 0 1.4 16 0 1.8 16 0 
1 16 0 1.6 16 0 2.8 16 0 
2 16 0 2.2 16 0 2.6 16 0 
2.4 16 0 3.2 16 0 3.4 16 0 
3 16 0 3.6 16 0 3.8 16 0 
4 16 0 4.8 16 0 4.6 16 0 
4.4 16 0 4.2 16 0 5.2 16 0 
5 16 0 5.6 16 0 5.8 16 0 
5.4 16 0 6.4 16 0 6.8 16 0 
6.6 16 0 6.2 16 0 6 16 0 
7.8 16 0 7.6 16 0 7.2 16 0 
7 16 0 7.4 16 0 8.2 16 0 
8.6 16 0 8.4 16 0 8.8 16 0 
8 16 0 9.6 16 0 9.4 16 0 
9 16 0 9.8 16 0 9.2 16 0 
10 16 0 10.2 16 0 10.4 16 0 
10.6 16 0 10.8 16 0 11.8 16 0 
11 16 0 11.4 16 0 11.6 16 0 
11.2 16 0 12.4 16 0 12.8 16 0 
12.6 16 0 12.2 16 0 12 16 0 
13.2 16 0 13.4 16 0 13 16 0 
13.6 16 0 13.8 16 0 14.8 16 0 
14 16 0 14.2 16 0 14.4 16 0 
14.6 16 0 15 16 0 
VERTICES 2098 2098
1 0 
1 1 
1 2 
1 3 
1 4 
1 5 
1 6 
1 7 
1 8 
1 9 
1 10 
1 11 
1 12 
1 13 
1 14 
1 15 
1 16 
1 17 
1 18 
1 19 
1 20 
1 21 
1 22 
1 23 
1 24 
1 25 
1 26 
1 27 
1 28 
1 29 
1 30 
1 31 
1 32 
1 33 
1 34 
1 35 
1 36 
1 37 
1 38 
1 39 
1 40 
1 41 
1 42 
1 43 
1 44 
1 45 
1 46 
1 47 
1 48 
1 49 
1 50 
1 51 
1 52 
1 53 
1 54 
1 55 
1 56 
1 57 
1 58 
1 59 
1 60 
1 61 
1 62 
1 63 
1 64 
1 65 
1 66 
1 67 
1 68 
1 69 
1 70 
1 71 
1 72 
1 73 
1 74 
1 75 
1 76 
1 77 
1 78 
1 79 
1 80 
1 81 
1 82 
1 83 
1 84 
1 85 
1 86 
1 87 
1 88 
1 89 
1 90 
1 91 
1 92 
1 93 
1 94 
1 95 
1 96 
1 97 
1 98 
1 99 
1 100 
1 101 
1 102 
1 103 
1 104 
1 105 
1 106 
1 107 
1 108 
1 109 
1 110 
1 111 
1 112 
1 113 
1 114 
1 115 
1 116 
1 117 
1 118 
1 119 
1 120 
1 121 
1 122 
1 123 
1 124 
1 125 
1 126 
1 127 
1 128 
1 129 
1 130 
1 131 
1 132 
1 133 
1 134 
1 135 
1 136 
1 137 
1 138 
1 139 
1 140 
1 141 
1 142 
1 143 
1 144 
1 145 
1 146 
1 147 
1 148 
1 149 
1 150 
1 151 
1 152 
1 153 
1 154 
1 155 
1 156 
1 157 
1 158 
1 159 
1 160 
1 161 
1 162 
1 163 
1 164 
1 165 
1 166 
1 167 
1 168 
1 169 
1 170 
1 171 
1 172 
1 173 
1 174 
1 175 
1 176 
1 177 
1 178 
1 179 
1 180 
1 181 
1 182 
1 183 
1 184 
1 185 
1 186 
1 187 
1 188 
1 189 
1 190 
1 191 
1 192 
1 193 
1 194 
1 195 
1 196 
1 197 
1 198 
1 199 
1 200 
1 201 
1 202 
1 203 
1 204 
1 205 
1 206 
1 207 
1 208 
1 209 
1 210 
1 211 
1 212 
1 213 
1 214 
1 215 
1 216 
1 217 
1 218 
1 219 
1 220 
1 221 
1 222 
1 223 
1 224 
1 225 
1 226 
1 227 
1 228 
1 229 
1 230 
1 231 
1 232 
1 233 
1 234 
1 235 
1 236 
1 237 
1 238 
1 239 
1 240 
1 241 
1 242 
1 243 
1 244 
1 245 
1 246 
1 247 
1 248 
1 249 
1 250 
1 251 
1 252 
1 253 
1 254 
1 255 
1 256 
1 257 
1 258 
1 259 
1 260 
1 261 
1 262 
1 263 
1 264 
1 265 
1 266 
1 267 
1 268 
1 269 
1 270 
1 271 
1 272 
1 273 
1 274 
1 275 
1 276 
1 277 
1 278 
1 279 
1 280 
1 281 
1 282 
1 283 
1 284 
1 285 
1 286 
1 287 
1 288 
1 289 
1 290 
1 291 
1 292 
1 293 
1 294 
1 295 
1 296 
1 297 
1 298 
1 299 
1 300 
1 301 
1 302 
1 303 
1 304 
1 305 
1 306 
1 307 
1 308 
1 309 
1 310 
1 311 
1 312 
1 313 
1 314 
1 315 
1 316 
1 317 
1 318 
1 319 
1 320 
1 321 
1 322 
1 323 
1 324 
1 325 
1 326 
1 327 
1 328 
1 329 
1 330 
1 331 
1 332 
1 333 
1 334 
1 335 
1 336 
1 337 
1 338 
1 339 
1 340 
1 341 
1 342 
1 343 
1 344 
1 345 
1 346 
1 347 
1 348 
1 349 
1 350 
1 351 
1 352 
1 353 
1 354 
1 355 
1 356 
1 357 
1 358 
1 359 
1 360 
1 361 
1 362 
1 363 
1 364 
1 365 
1 366 
1 367 
1 368 
1 369 
1 370 
1 371 
1 372 
1 373 
1 374 
1 375 
1 376 
1 377 
1 378 
1 379 
1 380 
1 381 
1 382 
1 383 
1 384 
1 385 
1 386 
1 387 
1 388 
1 389 
1 390 
1 391 
1 392 
1 393 
1 394 
1 395 
1 396 
1 397 
1 398 
1 399 
1 400 
1 401 
1 402 
1 403 
1 404 
1 405 
1 406 
1 407 
1 408 
1 409 
1 410 
1 411 
1 412 
1 413 
1 414 
1 415 
1 416 
1 417 
1 418 
1 419 
1 420 
1 421 
1 422 
1 423 
1 424 
1 425 
1 426 
1 427 
1 428 
1 429 
1 430 
1 431 
1 432 
1 433 
1 434 
1 435 
1 436 
1 437 
1 438 
1 439 
1 440 
1 441 
1 442 
1 443 
1 444 
1 445 
1 446 
1 447 
1 448 
1 449 
1 450 
1 451 
1 452 
1 453 
1 454 
1 455 
1 456 
1 457 
1 458 
1 459 
1 460 
1 461 
1 462 
1 463 
1 464 
1 465 
1 466 
1 467 
1 468 
1 469 
1 470 
1 471 
1 472 
1 473 
1 474 
1 475 
1 476 
1 477 
1 478 
1 479 
1 480 
1 481 
1 482 
1 483 
1 484 
1 485 
1 486 
1 487 
1 488 
1 489 
1 490 
1 491 
1 492 
1 493 
1 494 
1 495 
1 496 
1 497 
1 498 
1 499 
1 500 
1 501 
1 502 
1 503 
1 504 
1 505 
1 506 
1 507 
1 508 
1 509 
1 510 
1 511 
1 512 
1 513 
1 514 
1 515 
1 516 
1 517 
1 518 
1 519 
1 520 
1 521 
1 522 
1 523 
1 524 
1 525 
1 526 
1 527 
1 528 
1 529 
1 530 
1 531 
1 532 
1 533 
1 534 
1 535 
1 536 
1 537 
1 538 
1 539 
1 540 
1 541 
1 542 
1 543 
1 544 
1 545 
1 546 
1 547 
1 548 
1 549 
1 550 
1 551 
1 552 
1 553 
1 554 
1 555 
1 556 
1 557 
1 558 
1 559 
1 560 
1 561 
1 562 
1 563 
1 564 
1 565 
1 566 
1 567 
1 568 
1 569 
1 570 
1 571 
1 572 
1 573 
1 574 
1 575 
1 576 
1 577 
1 578 
1 579 
1 580 
1 581 
1 582 
1 583 
1 584 
1 585 
1 586 
1 587 
1 588 
1 589 
1 590 
1 591 
1 592 
1 593 
1 594 
1 595 
1 596 
1 597 
1 598 
1 599 
1 600 
1 601 
1 602 
1 603 
1 604 
1 605 
1 606 
1 607 
1 608 
1 609 
1 610 
1 611 
1 612 
1 613 
1 614 
1 615 
1 616 
1 617 
1 618 
1 619 
1 620 
1 621 
1 622 
1 623 
1 624 
1 625 
1 626 
1 627 
1 628 
1 629 
1 630 
1 631 
1 632 
1 633 
1 634 
1 635 
1 636 
1 637 
1 638 
1 639 
1 640 
1 641 
1 642 
1 643 
1 644 
1 645 
1 646 
1 647 
1 648 
1 649 
1 650 
1 651 
1 652 
1 653 
1 654 
1 655 
1 656 
1 657 
1 658 
1 659 
1 660 
1 661 
1 662 
1 663 
1 664 
1 665 
1 666 
1 667 
1 668 
1 669 
1 670 
1 671 
1 672 
1 673 
1 674 
1 675 
1 676 
1 677 
1 678 
1 679 
1 680 
1 681 
1 682 
1 683 
1 684 
1 685 
1 686 
1 687 
1 688 
1 689 
1 690 
1 691 
1 692 
1 693 
1 694 
1 695 
1 696 
1 697 
1 698 
1 699 
1 700 
1 701 
1 702 
1 703 
1 704 
1 705 
1 706 
1 707 
1 708 
1 709 
1 710 
1 711 
1 712 
1 713 
1 714 
1 715 
1 716 
1 717 
1 718 
1 719 
1 720 
1 721 
1 722 
1 723 
1 724 
1 725 
1 726 
1 727 
1 728 
1 729 
1 730 
1 731 
1 732 
1 733 
1 734 
1 735 
1 736 
1 737 
1 738 
1 739 
1 740 
1 741 
1 742 
1 743 
1 744 
1 745 
1 746 
1 747 
1 748 
1 749 
1 750 
1 751 
1 752 
1 753 
1 754 
1 755 
1 756 
1 757 
1 758 
1 759 
1 760 
1 761 
1 762 
1 763 
1 764 
1 765 
1 766 
1 767 
1 768 
1 769 
1 770 
1 771 
1 772 
1 773 
1 774 
1 775 
1 776 
1 777 
1 778 
1 779 
1 780 
1 781 
1 782 
1 783 
1 784 
1 785 
1 786 
1 787 
1 788 
1 789 
1 790 
1 791 
1 792 
1 793 
1 794 
1 795 
1 796 
1 797 
1 798 
1 799 
1 800 
1 801 
1 802 
1 803 
1 804 
1 805 
1 806 
1 807 
1 808 
1 809 
1 810 
1 811 
1 812 
1 813 
1 814 
1 815 
1 816 
1 817 
1 818 
1 819 
1 820 
1 821 
1 822 
1 823 
1 824 
1 825 
1 826 
1 827 
1 828 
1 829 
1 830 
1 831 
1 832 
1 833 
1 834 
1 835 
1 836 
1 837 
1 838 
1 839 
1 840 
1 841 
1 842 
1 843 
1 844 
1 845 
1 846 
1 847 
1 848 
1 849 
1 850 
1 851 
1 852 
1 853 
1 854 
1 855 
1 856 
1 857 
1 858 
1 859 
1 860 
1 861 
1 862 
1 863 
1 864 
1 865 
1 866 
1 867 
1 868 
1 869 
1 870 
1 871 
1 872 
1 873 
1 874 
1 875 
1 876 
1 877 
1 878 
1 879 
1 880 
1 881 
1 882 
1 883 
1 884 
1 885 
1 886 
1 887 
1 888 
1 889 
1 890 
1 891 
1 892 
1 893 
1 894 
1 895 
1 896 
1 897 
1 898 
1 899 
1 900 
1 901 
1 902 
1 903 
1 904 
1 905 
1 906 
1 907 
1 908 
1 909 
1 910 
1 911 
1 912 
1 913 
1 914 
1 915 
1 916 
1 917 
1 918 
1 919 
1 920 
1 921 
1 922 
1 923 
1 924 
1 925 
1 926 
1 927 
1 928 
1 929 
1 930 
1 931 
1 932 
1 933 
1 934 
1 935 
1 936 
1 937 
1 938 
1 939 
1 940 
1 941 
1 942 
1 943 
1 944 
1 945 
1 946 
1 947 
1 948 
1 949 
1 950 
1 951 
1 952 
1 953 
1 954 
1 955 
1 956 
1 957 
1 958 
1 959 
1 960 
1 961 
1 962 
1 963 
1 964 
1 965 
1 966 
1 967 
1 968 
1 969 
1 970 
1 971 
1 972 
1 973 
1 974 
1 975 
1 976 
1 977 
1 978 
1 979 
1 980 
1 981 
1 982 
1 983 
1 984 
1 985 
1 986 
1 987 
1 988 
1 989 
1 990 
1 991 
1 992 
1 993 
1 994 
1 995 
1 996 
1 997 
1 998 
1 999 
1 1000 
1 1001 
1 1002 
1 1003 
1 1004 
1 1005 
1 1006 
1 1007 
1 1008 
1 1009 
1 1010 
1 1011 
1 1012 
1 1013 
1 1014 
1 1015 
1 1016 
1 1017 
1 1018 
1 1019 
1 1020 
1 1021 
1 1022 
1 1023 
1 1024 
1 1025 
1 1026 
1 1027 
1 1028 
1 1029 
1 1030 
1 1031 
1 1032 
1 1033 
1 1034 
1 1035 
1 1036 
1 1037 
1 1038 
1 1039 
1 1040 
1 1041 
1 1042 
1 1043 
1 1044 
1 1045 
1 1046 
1 1047 
1 1048 

POINT_DATA 1049
SCALARS id double
LOOKUP_TABLE default
1027 1048 980 977 1020 993 1033 964 983 
951 976 978 968 1036 1024 1045 966 1032 
945 975 1004 990 42 0 41 388 389 
43 390 39 391 40 48 44 49 45 
46 47 51 1 50 1040 53 2 52 
59 54 57 58 55 56 62 60 64 
61 63 394 3 66 65 395 393 67 
68 392 69 70 71 73 72 75 74 
76 78 77 83 81 79 82 80 87 
86 84 85 88 90 91 92 93 89 
494 96 94 95 495 97 493 492 4 
102 101 98 99 100 106 103 104 107 
105 108 111 109 110 112 115 116 113 
114 117 118 119 121 120 122 126 557 
560 558 123 125 5 559 124 131 130 
127 129 128 134 132 135 133 136 139 
140 137 138 141 145 143 146 144 142 
151 147 150 149 148 588 587 155 153 
6 154 589 156 152 590 160 158 162 
161 159 157 164 163 7 941 972 955 
166 8 165 168 170 167 171 169 172 
173 174 177 175 176 181 179 180 9 
178 383 387 385 386 384 933 947 995 
398 397 400 396 399 488 487 489 491 
490 553 555 552 556 554 593 595 591 
594 592 183 185 186 182 184 380 379 
381 382 378 1041 1005 403 402 404 401 
405 485 486 482 484 483 547 551 550 
549 548 597 600 599 596 598 1016 189 
190 191 187 188 375 374 373 376 377 
954 942 407 410 408 409 406 481 480 
479 477 478 544 546 543 542 545 603 
605 601 604 602 987 1028 932 195 192 
196 193 194 372 371 369 368 370 1047 
1026 1008 1018 969 413 415 411 414 412 
472 473 474 476 475 540 539 541 538 
537 609 608 607 606 610 960 930 962 
197 199 201 200 198 366 364 367 365 
363 936 939 417 418 420 416 419 467 
471 470 468 469 536 534 532 535 533 
611 613 615 612 614 986 1009 206 205 
203 202 204 360 361 362 359 358 985 
421 423 422 424 425 463 465 462 464 
466 531 530 529 527 528 974 618 616 
1022 619 620 617 997 1037 1030 1011 207 
211 209 210 208 354 353 355 357 356 
1042 967 1014 952 998 428 426 427 429 
430 460 457 458 461 459 1006 963 523 
524 522 526 525 1001 973 621 623 625 
624 622 1043 946 216 215 214 212 213 
351 352 348 349 350 965 989 984 435 
1038 431 433 434 953 432 10 437 440 
441 438 439 436 1017 1000 971 11 443 
442 12 445 444 1031 451 446 449 447 
450 448 944 453 454 456 455 452 498 
500 499 496 497 13 1003 502 501 505 
503 506 504 507 1034 508 14 1010 15 
509 510 981 512 516 513 515 514 511 
520 519 518 521 517 1023 563 561 562 
16 564 565 567 566 570 569 571 568 
17 572 573 1002 575 18 574 937 578 
576 577 579 581 580 1019 1025 584 582 
583 586 585 988 950 34 1029 19 1015 
999 217 220 221 218 219 343 347 344 
345 346 992 1007 1012 935 1021 1044 979 
994 929 226 225 222 224 223 340 341 
661 342 664 663 339 662 20 660 21 
665 667 22 666 668 673 669 670 672 
671 676 677 678 674 675 680 679 682 
681 683 717 23 687 686 685 715 713 
716 714 684 723 721 720 722 718 719 
724 725 36 37 727 726 732 730 733 
728 729 731 735 737 734 736 738 633 
631 742 24 739 632 634 741 740 745 
746 743 744 747 751 748 750 749 752 
753 756 755 757 754 762 760 758 761 
759 765 764 767 766 763 770 772 769 
768 771 776 773 774 777 775 779 781 
780 778 782 785 787 786 784 783 792 
790 791 789 788 797 794 796 795 793 
801 800 820 35 799 817 819 818 798 
805 806 802 803 804 809 808 810 807 
811 816 812 934 813 815 814 25 628 
629 626 627 630 26 230 229 227 228 
27 335 336 337 338 334 691 692 688 
690 689 637 636 638 639 635 822 823 
821 824 825 943 931 958 940 1013 233 
235 234 232 231 331 330 333 332 329 
694 696 693 695 697 642 641 640 644 
643 996 970 827 830 828 829 826 949 
239 238 240 237 236 324 327 326 325 
328 699 700 701 698 702 645 646 648 
649 647 982 991 833 835 832 831 834 
956 1035 948 959 242 245 243 241 244 
322 323 320 321 319 706 703 705 704 
707 650 654 651 653 652 938 1039 1046 
961 957 29 249 248 247 250 246 315 
314 317 316 318 708 711 712 709 710 
656 659 658 657 655 924 28 927 928 
926 925 255 251 254 253 252 312 313 
310 30 311 305 309 306 308 307 302 
303 304 300 301 296 295 298 297 299 
294 292 291 290 293 288 287 286 285 
289 281 284 283 282 31 280 279 278 
276 277 272 275 273 271 274 268 267 
269 266 270 264 265 263 261 262 258 
260 256 259 257 839 836 32 837 838 
840 844 843 841 842 846 847 849 848 
845 854 851 853 850 852 856 857 859 
855 858 864 860 861 863 862 866 867 
865 868 869 870 874 873 872 871 876 
875 878 879 877 882 884 883 881 880 
889 888 886 885 887 891 893 892 894 
890 897 896 38 898 895 899 900 901 
902 903 908 904 906 907 905 911 913 
912 910 909 915 916 914 917 918 923 
919 920 921 922 33 
FIELD FieldData 14
r 3 1049 double
4.8997 -6.00131 0 -5.30684 -5.48912 0 -5.9553 -5.47597 0 
-6.1808 -4.81507 0 7.43217 -4.28654 0 -8.83845 -3.2132 0 
-8.12941 -3.3972 0 7.38572 -3.67723 0 7.77615 -3.24198 0 
8.39868 -3.77997 0 9.46865 -3.02356 0 -9.64255 -2.41635 0 
-8.83318 -2.37216 0 8.39857 -2.93502 0 9.29365 -2.35853 0 
-11.0588 -1.00326 0 -10.4532 -1.52992 0 -9.8383 -1.80939 0 
9.8644 -1.9637 0 10.5314 -1.37319 0 -12.0023 -0.0265786 0 
-11.6095 -0.459109 0 -14.2857 0 0 -15 0 0 
-14.4643 0 0 -15 0.8 0 -15 0.6 0 
-14.1071 0 0 -15 0.4 0 -14.8214 0 0 
-15 0.2 0 -14.6429 0 0 -13.2143 0 0 
-13.9286 0 0 -13.0357 0 0 -13.75 0 0 
-13.5714 0 0 -13.3929 0 0 -12.6786 0 0 
-12.5 0 0 -12.8571 0 0 -11.8636 0.522029 0 
-11.1429 0 0 -11.5 0 0 -11.3214 0 0 
-10.0714 0 0 -10.9643 0 0 -10.4286 0 0 
-10.25 0 0 -10.7857 0 0 -10.6071 0 0 
-9.5357 0 0 -9.8929 0 0 -9.1786 0 0 
-9.7143 0 0 -9.3571 0 0 -9 0.6 0 
-9 0 0 -8.6 0 0 -8.8 0 0 
-9 0.8 0 -9 0.4 0 -8.4 0 0 
-8.2 0 0 -9 0.2 0 -8 0 0 
-7.8 0 0 -7.6 0 0 -7.2 0 0 
-7.4 0 0 -6.8 0 0 -7 0 0 
-6.6 0 0 -6.2 0 0 -6.4 0 0 
-5.2 0 0 -5.6 0 0 -6 0 0 
-5.4 0 0 -5.8 0 0 -4.4 0 0 
-4.6 0 0 -5 0 0 -4.8 0 0 
-4.2 0 0 -3.8 0 0 -3.6 0 0 
-3.4 0 0 -3.2 0 0 -4 0 0 
-3 0.4 0 -2.4 0 0 -2.8 0 0 
-2.6 0 0 -3 0.2 0 -2.2 0 0 
-3 0.6 0 -3 0.8 0 -3 0 0 
-1.2 0 0 -1.4 0 0 -2 0 0 
-1.8 0 0 -1.6 0 0 -0.4 0 0 
-1 0 0 -0.8 0 0 -0.2 0 0 
-0.6 0 0 -0 0 0 0.6 0 0 
0.2 0 0 0.4 0 0 0.8 0 0 
1.4 0 0 1.6 0 0 1 0 0 
1.2 0 0 1.8 0 0 2 0 0 
2.2 0 0 2.6 0 0 2.4 0 0 
2.8 0 0 3.8 0 0 3 0.8 0 
3 0.2 0 3 0.6 0 3.2 0 0 
3.6 0 0 3 0 0 3 0.4 0 
3.4 0 0 4.8 0 0 4.6 0 0 
4 0 0 4.4 0 0 4.2 0 0 
5.4 0 0 5 0 0 5.6 0 0 
5.2 0 0 5.8 0 0 6.4 0 0 
6.6 0 0 6 0 0 6.2 0 0 
6.8 0 0 7.6 0 0 7.2 0 0 
7.8 0 0 7.4 0 0 7 0 0 
8.8 0 0 8 0 0 8.6 0 0 
8.4 0 0 8.2 0 0 9 0.4 0 
9 0.2 0 9.7143 0 0 9.3571 0 0 
9 0 0 9.5357 0 0 9 0.6 0 
9.8929 0 0 9.1786 0 0 9 0.8 0 
10.6071 0 0 10.25 0 0 10.9643 0 0 
10.7857 0 0 10.4286 0 0 10.0714 0 0 
11.3214 0 0 11.1429 0 0 11.5 0 0 
11.5328 0.616245 0 12.1044 0.641991 0 12.0051 0.0170606 0 
12.8571 0 0 12.5 0 0 12.6786 0 0 
13.2143 0 0 13.5714 0 0 13.0357 0 0 
13.75 0 0 13.3929 0 0 13.9286 0 0 
14.1071 0 0 14.2857 0 0 14.8214 0 0 
14.4643 0 0 14.6429 0 0 15 0.8 0 
15 0.4 0 15 0.6 0 15 0 0 
15 0.2 0 -15 1.8 0 -15 1 0 
-15 1.4 0 -15 1.2 0 -15 1.6 0 
-11.5635 1.02226 0 -11.2015 1.73973 0 -11.8468 1.59813 0 
-9 1.4 0 -9 1.2 0 -9 1.8 0 
-9 1 0 -9 1.6 0 -3 1.6 0 
-3 1.8 0 -3 1.4 0 -3 1 0 
-3 1.2 0 3 1.6 0 3 1.2 0 
3 1.8 0 3 1 0 3 1.4 0 
9 1.4 0 9 1.8 0 9 1 0 
9 1.6 0 9 1.2 0 15 1.2 0 
15 1.6 0 15 1.8 0 15 1 0 
15 1.4 0 -15 2.4 0 -15 2.6 0 
-15 2.2 0 -15 2 0 -15 2.8 0 
-12.3339 2.1368 0 -11.3383 2.3937 0 -9 2.4 0 
-9 2.2 0 -9 2.6 0 -9 2 0 
-9 2.8 0 -3 2.2 0 -3 2 0 
-3 2.8 0 -3 2.4 0 -3 2.6 0 
3 2.8 0 3 2 0 3 2.2 0 
3 2.4 0 3 2.6 0 9 2.2 0 
9 2.8 0 9 2.6 0 9 2 0 
9 2.4 0 11.2019 2.76017 0 15 2.4 0 
15 2.6 0 15 2.8 0 15 2 0 
15 2.2 0 -15 3.4 0 -15 3.6 0 
-15 3.8 0 -15 3.2 0 -15 3 0 
-12.7324 3.91628 0 -11.053 3.07894 0 -9 3.2 0 
-9 3.8 0 -9 3.4 0 -9 3.6 0 
-9 3 0 -3 3 0 -3 3.2 0 
-3 3.4 0 -3 3.8 0 -3 3.6 0 
3 3.4 0 3 3 0 3 3.6 0 
3 3.8 0 3 3.2 0 9 3.4 0 
9 3.8 0 9 3 0 9 3.6 0 
9 3.2 0 10.6949 3.59173 0 12.514 3.98365 0 
12.6043 3.43649 0 15 3.6 0 15 3 0 
15 3.8 0 15 3.2 0 15 3.4 0 
-15 4 0 -15 4.2 0 -15 4.6 0 
-15 4.8 0 -15 4.4 0 -13.0942 4.49652 0 
-12.3775 4.36204 0 -12.5072 4.9029 0 -10.556 4.78598 0 
-10.7823 4.00381 0 -9 4.4 0 -9 4.8 0 
-9 4 0 -9 4.6 0 -9 4.2 0 
-3 4.8 0 -3 4.6 0 -3 4.4 0 
-3 4 0 -3 4.2 0 3 4.2 0 
3 4.4 0 3 4 0 3 4.6 0 
3 4.8 0 9 4.6 0 9 4.4 0 
9 4.2 0 9 4 0 9 4.8 0 
10.6489 4.79015 0 10.5423 4.14775 0 11.2546 4.13631 0 
15 4 0 15 4.4 0 15 4.8 0 
15 4.6 0 15 4.2 0 -15 5.2 0 
-15 5.6 0 -15 5 0 -15 5.4 0 
-15 5.8 0 -12.8801 5.44659 0 -10.3445 5.39216 0 
-9 5.2 0 -9 5.4 0 -9 5.8 0 
-9 5 0 -9 5.6 0 -3 5.8 0 
-3 5 0 -3 5.2 0 -3 5.6 0 
-3 5.4 0 3 5 0 3 5.4 0 
3 5.8 0 3 5.2 0 3 5.6 0 
9 5 0 9 5.4 0 9 5.8 0 
9 5.2 0 9 5.6 0 10.2632 5.75253 0 
12.8447 5.58281 0 15 5.8 0 15 5.6 0 
15 5.2 0 15 5 0 15 5.4 0 
-15 6.4 0 -15 6.2 0 -15 6 0 
-15 6.6 0 -15 6.8 0 -9.91208 6.86703 0 
-9 6 0 -9 6.4 0 -9 6.2 0 
-9 6.6 0 -9 6.8 0 -3 6.6 0 
-3 6.2 0 -3 6.8 0 -3 6.4 0 
-3 6 0 3 6 0 3 6.2 0 
3 6.4 0 3 6.8 0 3 6.6 0 
6.39505 6.67397 0 9 6.4 0 9 6 0 
9.85475 6.57584 0 9 6.6 0 9 6.8 0 
9 6.2 0 10.5031 6.58017 0 12.9487 6.4199 0 
12.3922 6.52101 0 13.5536 6.47631 0 15 6 0 
15 6.8 0 15 6.4 0 15 6.6 0 
15 6.2 0 -15 7.6 0 -15 7.8 0 
-15 7.4 0 -15 7 0 -15 7.2 0 
-13.2398 7.08474 0 -12.6624 7.03832 0 -10.1623 7.43669 0 
-10.6394 7.71857 0 -9.57565 7.5978 0 -9 7.4 0 
-9 7 0 -9 7.2 0 -9 7.6 0 
-9 7.8 0 -3 7.2 0 -3 7.8 0 
-3 7.6 0 -3 7 0 -3 7.4 0 
-0.339318 7.57843 0 0.203081 7.41376 0 3 7.6 0 
3 7.4 0 3 7.8 0 3 7 0 
3 7.2 0 5.99764 7.99035 0 9.91375 7.29823 0 
9 7 0 9 7.4 0 9 7.8 0 
9 7.6 0 9 7.2 0 9.6463 7.87182 0 
13.3828 7.88432 0 15 7.8 0 15 7.6 0 
15 7.4 0 15 7 0 15 7.2 0 
-15 8.2 0 -15 8 0 -15 8.8 0 
-15 8.6 0 -15 8.4 0 -9.9323 8.18781 0 
-9.29961 8.23864 0 -9.54689 8.81195 0 -8.1071 8 0 
-8.81327 8.76435 0 -8.8214 8 0 -8.4643 8 0 
-8.2857 8 0 -8.26659 8.77577 0 -8.6429 8 0 
-9 8 0 -7.75 8 0 -7.2143 8 0 
-7.0357 8 0 -7.5714 8 0 -7.3929 8 0 
-7.9286 8 0 -7.63123 8.76826 0 -7.06281 8.62989 0 
-6.33529 8.354 0 -6.5 8 0 -6.6786 8 0 
-6.8571 8 0 -5.5 8 0 -5.1429 8 0 
-5.3214 8 0 -5.02458 8.93021 0 -4.0714 8 0 
-4.9643 8 0 -4.4286 8 0 -4.7857 8 0 
-4.25 8 0 -4.6071 8 0 -4.23074 8.87486 0 
-3.7143 8 0 -3.5357 8 0 -3.1786 8 0 
-3.3571 8 0 -3.8929 8 0 -2.4643 8 0 
-2.1071 8 0 -2.2857 8 0 -2.8214 8 0 
-2.6429 8 0 -3 8 0 -2.66583 8.77673 0 
-1.75 8 0 -1.9286 8 0 -1.2143 8 0 
-1.5714 8 0 -1.0357 8 0 -1.3929 8 0 
-0.8571 8 0 -0.487581 8.39719 0 -0.6786 8 0 
-0.5 8 0 0.0978296 8.02822 0 0.5 8 0 
0.6786 8 0 0.8571 8 0 1.00677 8.5595 0 
1.2143 8 0 1.9286 8 0 1.3929 8 0 
1.75 8 0 1.5714 8 0 1.0357 8 0 
2.6429 8 0 2.4643 8 0 2.2857 8 0 
2.8214 8 0 2.1071 8 0 3.07514 8.87053 0 
3.5357 8 0 3.1786 8 0 3.3571 8 0 
3 8 0 3.7143 8 0 3.8929 8 0 
4.25 8 0 4.0714 8 0 4.7857 8 0 
4.6071 8 0 4.9643 8 0 4.4286 8 0 
5.5 8 0 5.1429 8 0 5.3214 8 0 
6.55161 8.45689 0 6.8571 8 0 6.5 8 0 
6.6786 8 0 7.46307 8.72807 0 7.3929 8 0 
7.0357 8 0 7.2143 8 0 7.5714 8 0 
7.9286 8 0 7.75 8 0 8.06006 8.61326 0 
8.67473 8.59303 0 8.4643 8 0 8.1071 8 0 
8.2857 8 0 8.8214 8 0 8.6429 8 0 
9.01835 8.98835 0 9.57136 8.90314 0 9 8 0 
9.25461 8.31903 0 9 8 0 13.3157 8.43738 0 
13.3408 8.99443 0 15 8 0 15 8.6 0 
15 8.8 0 15 8.2 0 15 8.4 0 
-15 9.8 0 -15 9 0 -15 9.6 0 
-15 9.4 0 -15 9.2 0 -9.09103 9.22013 0 
-8.524 9.2461 0 -7.99106 9.20532 0 -7.44854 9.32578 0 
-6.65295 9.50761 0 7.82143 9.16157 0 8.382 9.08729 0 
8.72503 9.45223 0 13.4721 9.79535 0 15 9.8 0 
15 9.6 0 15 9 0 15 9.4 0 
15 9.2 0 -15 10.6 0 -15 10.4 0 
-14.6667 10 0 -15 10.2 0 -14.1667 10 0 
-14.3333 10 0 -15 10.8 0 -14.5 10 0 
-15 10 0 -14.8333 10 0 -14 10 0 
-12.8 10 0 -12.4 10 0 -13 10 0 
-12.6 10 0 -12.2 10 0 -11.2 10 0 
-12 10 0 -11.8 10 0 -11.4 10 0 
-11.6 10 0 -10.6 10 0 -10.4 10 0 
-10.2 10 0 -11 10 0 -10.8 10 0 
-9.8 10 0 -10 10 0 -9.4 10 0 
-9.6 10 0 -9.2 10 0 -8.1071 10 0 
-9 10 0 -9 10.8 0 -9 10.6 0 
-9 10.4 0 -8.4643 10 0 -8.8214 10 0 
-8.2857 10 0 -8.6429 10 0 -9 10.2 0 
-7.0357 10 0 -7.3929 10 0 -7.5714 10 0 
-7.2143 10 0 -7.9286 10 0 -7.75 10 0 
-6.8571 10 0 -6.6786 10 0 -6.5 10 0 
-5.5 10 0 -5.1429 10 0 -5.3214 10 0 
-4.25 10 0 -4.6071 10 0 -4.0714 10 0 
-4.9643 10 0 -4.7857 10 0 -4.4286 10 0 
-3.7143 10 0 -3.3571 10 0 -3.8929 10 0 
-3.5357 10 0 -3.1786 10 0 -3 10.6 0 
-3 10.2 0 -2.2 10 0 -3 10 0 
-2.8 10 0 -3 10.4 0 -3 10.8 0 
-2.4 10 0 -2.6 10 0 -1.6 10 0 
-1.4 10 0 -2 10 0 -1.8 10 0 
-1.2 10 0 -0.4 10 0 -1 10 0 
-0.6 10 0 -0.8 10 0 -0.2 10 0 
-0 10 0 0.6 10 0 0.4 10 0 
0.8 10 0 0.2 10 0 1.8 10 0 
1.4 10 0 1 10 0 1.6 10 0 
1.2 10 0 2.4 10 0 2.2 10 0 
2.8 10 0 2.6 10 0 2 10 0 
3.4 10 0 3.8 10 0 3.2 10 0 
3 10 0 3.6 10 0 4.6 10 0 
4 10 0 4.2 10 0 4.8 10 0 
4.4 10 0 5.2 10 0 5.6 10 0 
5.4 10 0 5 10 0 5.8 10 0 
6.4 10 0 6.8 10 0 6.6 10 0 
6.2 10 0 6 10 0 7.8 10 0 
7.4 10 0 7.6 10 0 7.2 10 0 
7 10 0 8.8 10 0 8.2 10 0 
8.6 10 0 8.4 10 0 8 10 0 
9.8 10 0 9.6 10 0 9 10.8 0 
9 10 0 9.4 10 0 9 10.2 0 
9 10.6 0 9 10.4 0 9.2 10 0 
10.6 10 0 10.8 10 0 10 10 0 
10.2 10 0 10.4 10 0 11.4 10 0 
11.2 10 0 11.6 10 0 11 10 0 
11.8 10 0 12.8 10 0 12 10 0 
12.3621 10.571 0 12.2 10 0 12.6 10 0 
12.4 10 0 13 10 0 14.5 10 0 
14.3333 10 0 14.8333 10 0 14.6667 10 0 
14.1667 10 0 14 10 0 15 10.8 0 
15 10.6 0 15 10.2 0 15 10.4 0 
15 10 0 -15 11.6 0 -15 11.4 0 
-15 11.2 0 -15 11 0 -15 11.8 0 
-9 11.6 0 -9 11.8 0 -9 11 0 
-9 11.4 0 -9 11.2 0 -3 11.4 0 
-3 11.2 0 -3 11.6 0 -3 11.8 0 
-3 11 0 9 11.2 0 9 11.4 0 
9 11 0 9 11.6 0 9 11.8 0 
11.971 11.2107 0 11.5419 11.7548 0 12.1752 11.7598 0 
12.6762 11.627 0 12.6427 11.0653 0 15 11.4 0 
15 11.8 0 15 11.6 0 15 11.2 0 
15 11 0 -15 12.4 0 -15 12.6 0 
-15 12 0 -15 12.2 0 -15 12.8 0 
-9 12.2 0 -9 12.6 0 -9 12 0 
-9 12.4 0 -9 12.8 0 -3 12.4 0 
-3 12.2 0 -3 12 0 -3 12.8 0 
-3 12.6 0 3.84094 12.6936 0 4.70087 12.7326 0 
9 12.2 0 9 12.8 0 9 12.4 0 
9 12.6 0 9 12 0 11.678 12.3212 0 
15 12.6 0 15 12.4 0 15 12.8 0 
15 12.2 0 15 12 0 -15 13.8 0 
-15 13.2 0 -15 13.4 0 -15 13.6 0 
-15 13 0 -9 13.2 0 -9 13.4 0 
-9 13.6 0 -9 13 0 -9 13.8 0 
-3 13 0 -3 13.2 0 -3 13.6 0 
-3 13.8 0 -3 13.4 0 6.62841 13.3287 0 
8.63911 13.8179 0 9 13.4 0 9 13.8 0 
9 13.2 0 9 13 0 9 13.6 0 
9.72796 13.9544 0 10.4998 13.0192 0 10.7396 13.6755 0 
10.1571 13.5513 0 15 13.2 0 15 13.8 0 
15 13.4 0 15 13 0 15 13.6 0 
-15 14.2 0 -15 14 0 -15 14.6 0 
-15 14.4 0 -15 14.8 0 -9 14.6 0 
-9 14 0 -9 14.4 0 -9 14.2 0 
-9 14.8 0 -3 14 0 -3 14.8 0 
-3 14.2 0 -3 14.6 0 -3 14.4 0 
7.67471 14.4104 0 8.14192 14.8468 0 8.37709 14.2928 0 
8.78724 14.7082 0 9.28084 14.2817 0 9 14 0 
15 14.6 0 15 14.4 0 15 14.2 0 
15 14.8 0 15 14 0 -15 15.6 0 
-15 15.8 0 -15 15.2 0 -15 15.4 0 
-15 15 0 -9 15 0 -9 15.6 0 
-9 15.8 0 -9 15.2 0 -9 15.4 0 
-3 15.2 0 -3 15.8 0 -3 15.6 0 
-3 15.4 0 -3 15 0 9 15.1667 0 
9 15 0 9 15.6667 0 9 15.8333 0 
9 15.5 0 9 15.3333 0 15 15.8 0 
15 15 0 15 15.6 0 15 15.4 0 
15 15.2 0 -14.6 16 0 -14.8 16 0 
-14.2 16 0 -15 16 0 -14.4 16 0 
-13.2 16 0 -14 16 0 -13.4 16 0 
-13.8 16 0 -13.6 16 0 -12.6 16 0 
-12.8 16 0 -13 16 0 -12.2 16 0 
-12.4 16 0 -11.4 16 0 -11.2 16 0 
-11.8 16 0 -11.6 16 0 -12 16 0 
-11 16 0 -10.6 16 0 -10.4 16 0 
-10.2 16 0 -10.8 16 0 -9.8 16 0 
-9.6 16 0 -9.4 16 0 -9.2 16 0 
-10 16 0 -8.2 16 0 -8.8 16 0 
-8.6 16 0 -8.4 16 0 -9 16 0 
-8 16 0 -7.8 16 0 -7.6 16 0 
-7.2 16 0 -7.4 16 0 -6.4 16 0 
-7 16 0 -6.6 16 0 -6.2 16 0 
-6.8 16 0 -5.6 16 0 -5.4 16 0 
-5.8 16 0 -5.2 16 0 -6 16 0 
-4.8 16 0 -5 16 0 -4.6 16 0 
-4.2 16 0 -4.4 16 0 -3.6 16 0 
-4 16 0 -3.2 16 0 -3.8 16 0 
-3.4 16 0 -2.2 16 0 -2.8 16 0 
-3 16 0 -2.6 16 0 -2.4 16 0 
-2 16 0 -1.2 16 0 -1.4 16 0 
-1.8 16 0 -1.6 16 0 -0.8 16 0 
-0.6 16 0 -0.2 16 0 -0.4 16 0 
-1 16 0 0.8 16 0 0.2 16 0 
0.6 16 0 -0 16 0 0.4 16 0 
1.2 16 0 1.4 16 0 1.8 16 0 
1 16 0 1.6 16 0 2.8 16 0 
2 16 0 2.2 16 0 2.6 16 0 
2.4 16 0 3.2 16 0 3.4 16 0 
3 16 0 3.6 16 0 3.8 16 0 
4 16 0 4.8 16 0 4.6 16 0 
4.4 16 0 4.2 16 0 5.2 16 0 
5 16 0 5.6 16 0 5.8 16 0 
5.4 16 0 6.4 16 0 6.8 16 0 
6.6 16 0 6.2 16 0 6 16 0 
7.8 16 0 7.6 16 0 7.2 16 0 
7 16 0 7.4 16 0 8.2 16 0 
8.6 16 0 8.4 16 0 8.8 16 0 
8 16 0 9.6 16 0 9.4 16 0 
9 16 0 9.8 16 0 9.2 16 0 
10 16 0 10.2 16 0 10.4 16 0 
10.6 16 0 10.8 16 0 11.8 16 0 
11 16 0 11.4 16 0 11.6 16 0 
11.2 16 0 12.4 16 0 12.8 16 0 
12.6 16 0 12.2 16 0 12 16 0 
13.2 16 0 13.4 16 0 13 16 0 
13.6 16 0 13.8 16 0 14.8 16 0 
14 16 0 14.2 16 0 14.4 16 0 
14.6 16 0 15 16 0 
gid 1 1049 double
1 1 1 1 1 1 1 1 1 
1 1 1 1 1 1 1 1 1 
1 1 1 1 2 2 2 2 2 
2 2 2 2 2 2 2 2 2 
2 2 2 2 2 1 2 2 2 
2 2 2 2 2 2 2 2 2 
2 2 2 2 2 2 2 2 2 
2 2 2 2 2 2 2 2 2 
2 2 2 2 2 2 2 2 2 
2 2 2 2 2 2 2 2 2 
2 2 2 2 2 2 2 2 2 
2 2 2 2 2 2 2 2 2 
2 2 2 2 2 2 2 2 2 
2 2 2 2 2 2 2 2 2 
2 2 2 2 2 2 2 2 2 
2 2 2 2 2 2 2 2 2 
2 2 2 2 2 2 2 2 2 
2 2 2 2 2 2 2 2 2 
2 2 2 2 2 2 2 2 2 
2 2 2 2 2 2 1 1 1 
2 2 2 2 2 2 2 2 2 
2 2 2 2 2 2 2 2 2 
2 2 2 2 2 2 1 1 1 
2 2 2 2 2 2 2 2 2 
2 2 2 2 2 2 2 2 2 
2 2 2 2 2 2 2 2 2 
2 2 2 1 1 2 2 2 2 
2 2 2 2 2 2 2 2 2 
2 2 2 2 2 2 2 1 2 
2 2 2 2 2 2 2 2 2 
1 1 2 2 2 2 2 2 2 
2 2 2 2 2 2 2 2 2 
2 2 2 2 1 1 1 2 2 
2 2 2 2 2 2 2 2 1 
1 1 1 1 2 2 2 2 2 
2 2 2 2 2 2 2 2 2 
2 2 2 2 2 2 1 1 1 
2 2 2 2 2 2 2 2 2 
2 1 1 2 2 2 2 2 2 
2 2 2 2 2 2 2 2 2 
2 2 2 2 2 1 1 2 2 
2 2 2 2 2 2 2 2 1 
2 2 2 2 2 2 2 2 2 
2 2 2 2 2 2 1 2 2 
1 2 2 2 1 1 1 1 2 
2 2 2 2 2 2 2 2 2 
1 1 1 1 1 2 2 2 2 
2 2 2 2 2 2 1 1 2 
2 2 2 2 1 1 2 2 2 
2 2 1 1 2 2 2 2 2 
2 2 2 2 2 1 1 1 2 
1 2 2 2 1 2 2 2 2 
2 2 2 2 1 1 1 2 2 
2 2 2 2 1 2 2 2 2 
2 2 1 2 2 2 2 2 2 
2 2 2 2 2 1 2 2 2 
2 2 2 2 1 2 2 1 2 
2 2 1 2 2 2 2 2 2 
2 2 2 2 2 1 2 2 2 
2 2 2 2 2 2 2 2 2 
2 2 2 1 2 2 2 1 2 
2 2 2 2 2 1 1 2 2 
2 2 2 1 1 2 1 2 1 
1 2 2 2 2 2 2 2 2 
2 2 1 1 1 1 1 1 1 
1 1 2 2 2 2 2 2 2 
2 2 2 2 2 2 2 2 2 
2 2 2 2 2 2 2 2 2 
2 2 2 2 2 2 2 2 2 
2 2 2 2 2 2 2 2 2 
2 2 2 2 2 2 2 2 2 
2 2 2 2 2 2 2 2 2 
2 2 2 2 2 2 2 2 2 
2 2 2 2 2 2 2 2 2 
2 2 2 2 2 2 2 2 2 
2 2 2 2 2 2 2 2 2 
2 2 2 2 2 2 2 2 2 
2 2 2 2 2 2 2 2 2 
2 2 2 2 2 2 2 2 2 
2 2 2 2 2 2 2 2 2 
2 2 2 2 2 2 2 2 2 
2 2 2 2 2 2 2 2 2 
2 2 2 1 2 2 2 2 2 
2 2 2 2 2 2 2 2 2 
2 2 2 2 2 2 2 2 2 
2 2 2 2 2 2 2 2 2 
2 2 2 1 1 1 1 1 2 
2 2 2 2 2 2 2 2 2 
2 2 2 2 2 2 2 2 2 
2 1 1 2 2 2 2 2 1 
2 2 2 2 2 2 2 2 2 
2 2 2 2 2 2 2 2 2 
2 2 1 1 2 2 2 2 2 
1 1 1 1 2 2 2 2 2 
2 2 2 2 2 2 2 2 2 
2 2 2 2 2 2 1 1 1 
1 1 2 2 2 2 2 2 2 
2 2 2 2 2 2 2 2 2 
2 2 2 2 2 2 2 2 2 
2 2 2 2 2 2 2 2 2 
2 2 2 2 2 2 2 2 2 
2 2 2 2 2 2 2 2 2 
2 2 2 2 2 2 2 2 2 
2 2 2 2 2 2 2 2 2 
2 2 2 2 2 2 2 2 2 
2 2 2 2 2 2 2 2 2 
2 2 2 2 2 2 2 2 2 
2 2 2 2 2 2 2 2 2 
2 2 2 2 2 2 2 2 2 
2 2 2 2 2 2 2 2 2 
2 2 2 2 2 2 2 2 2 
2 2 2 2 2 2 2 2 2 
2 2 2 2 2 2 2 2 2 
2 2 2 2 2 2 2 2 2 
2 2 2 2 2 2 2 2 2 
2 2 2 2 2 2 2 2 2 
2 2 2 2 2 
A 1 1049 double
10 10 10 10 10 10 10 10 10 
10 10 10 10 10 10 10 10 10 
10 10 10 10 10 10 10 10 10 
10 10 10 10 10 10 10 10 10 
10 10 10 10 10 10 10 10 10 
10 10 10 10 10 10 10 10 10 
10 10 10 10 10 10 10 10 10 
10 10 10 10 10 10 10 10 10 
10 10 10 10 10 10 10 10 10 
10 10 10 10 10 10 10 10 10 
10 10 10 10 10 10 10 10 10 
10 10 10 10 10 10 10 10 10 
10 10 10 10 10 10 10 10 10 
10 10 10 10 10 10 10 10 10 
10 10 10 10 10 10 10 10 10 
10 10 10 10 10 10 10 10 10 
10 10 10 10 10 10 10 10 10 
10 10 10 10 10 10 10 10 10 
10 10 10 10 10 10 10 10 10 
10 10 10 10 10 10 10 10 10 
10 10 10 10 10 10 10 10 10 
10 10 10 10 10 10 10 10 10 
10 10 10 10 10 10 10 10 10 
10 10 10 10 10 10 10 10 10 
10 10 10 10 10 10 10 10 10 
10 10 10 10 10 10 10 10 10 
10 10 10 10 10 10 10 10 10 
10 10 10 10 10 10 10 10 10 
10 10 10 10 10 10 10 10 10 
10 10 10 10 10 10 10 10 10 
10 10 10 10 10 10 10 10 10 
10 10 10 10 10 10 10 10 10 
10 10 10 10 10 10 10 10 10 
10 10 10 10 10 10 10 10 10 
10 10 10 10 10 10 10 10 10 
10 10 10 10 10 10 10 10 10 
10 10 10 10 10 10 10 10 10 
10 10 10 10 10 10 10 10 10 
10 10 10 10 10 10 10 10 10 
10 10 10 10 10 10 10 10 10 
10 10 10 10 10 10 10 10 10 
10 10 10 10 10 10 10 10 10 
10 10 10 10 10 10 10 10 10 
10 10 10 10 10 10 10 10 10 
10 10 10 10 10 10 10 10 10 
10 10 10 10 10 10 10 10 10 
10 10 10 10 10 10 10 10 10 
10 10 10 10 10 10 10 10 10 
10 10 10 10 10 10 10 10 10 
10 10 10 10 10 10 10 10 10 
10 10 10 10 10 10 10 10 10 
10 10 10 10 10 10 10 10 10 
10 10 10 10 10 10 10 10 10 
10 10 10 10 10 10 10 10 10 
10 10 10 10 10 10 10 10 10 
10 10 10 10 10 10 10 10 10 
10 10 10 10 10 10 10 10 10 
10 10 10 10 10 10 10 10 10 
10 10 10 10 10 10 10 10 10 
10 10 10 10 10 10 10 10 10 
10 10 10 10 10 10 10 10 10 
10 10 10 10 10 10 10 10 10 
10 10 10 10 10 10 10 10 10 
10 10 10 10 10 10 10 10 10 
10 10 10 10 10 10 10 10 10 
10 10 10 10 10 10 10 10 10 
10 10 10 10 10 10 10 10 10 
10 10 10 10 10 10 10 10 10 
10 10 10 10 10 10 10 10 10 
10 10 10 10 10 10 10 10 10 
10 10 10 10 10 10 10 10 10 
10 10 10 10 10 10 10 10 10 
10 10 10 10 10 10 10 10 10 
10 10 10 10 10 10 10 10 10 
10 10 10 10 10 10 10 10 10 
10 10 10 10 10 10 10 10 10 
10 10 10 10 10 10 10 10 10 
10 10 10 10 10 10 10 10 10 
10 10 10 10 10 10 10 10 10 
10 10 10 10 10 10 10 10 10 
10 10 10 10 10 10 10 10 10 
10 10 10 10 10 10 10 10 10 
10 10 10 10 10 10 10 10 10 
10 10 10 10 10 10 10 10 10 
10 10 10 10 10 10 10 10 10 
10 10 10 10 10 10 10 10 10 
10 10 10 10 10 10 10 10 10 
10 10 10 10 10 10 10 10 10 
10 10 10 10 10 10 10 10 10 
10 10 10 10 10 10 10 10 10 
10 10 10 10 10 10 10 10 10 
10 10 10 10 10 10 10 10 10 
10 10 10 10 10 10 10 10 10 
10 10 10 10 10 10 10 10 10 
10 10 10 10 10 10 10 10 10 
10 10 10 10 10 10 10 10 10 
10 10 10 10 10 10 10 10 10 
10 10 10 10 10 10 10 10 10 
10 10 10 10 10 10 10 10 10 
10 10 10 10 10 10 10 10 10 
10 10 10 10 10 10 10 10 10 
10 10 10 10 10 10 10 10 10 
10 10 10 10 10 10 10 10 10 
10 10 10 10 10 10 10 10 10 
10 10 10 10 10 10 10 10 10 
10 10 10 10 10 10 10 10 10 
10 10 10 10 10 10 10 10 10 
10 10 10 10 10 10 10 10 10 
10 10 10 10 10 10 10 10 10 
10 10 10 10 10 10 10 10 10 
10 10 10 10 10 10 10 10 10 
10 10 10 10 10 10 10 10 10 
10 10 10 10 10 10 10 10 10 
10 10 10 10 10 10 10 10 10 
10 10 10 10 10 10 10 10 10 
10 10 10 10 10 10 10 10 10 
10 10 10 10 10 
B 1 1049 double
0.2 0.2 0.2 0.2 0.2 0.2 0.2 0.2 0.2 
0.2 0.2 0.2 0.2 0.2 0.2 0.2 0.2 0.2 
0.2 0.2 0.2 0.2 0.2 0.2 0.2 0.2 0.2 
0.2 0.2 0.2 0.2 0.2 0.2 0.2 0.2 0.2 
0.2 0.2 0.2 0.2 0.2 0.2 0.2 0.2 0.2 
0.2 0.2 0.2 0.2 0.2 0.2 0.2 0.2 0.2 
0.2 0.2 0.2 0.2 0.2 0.2 0.2 0.2 0.2 
0.2 0.2 0.2 0.2 0.2 0.2 0.2 0.2 0.2 
0.2 0.2 0.2 0.2 0.2 0.2 0.2 0.2 0.2 
0.2 0.2 0.2 0.2 0.2 0.2 0.2 0.2 0.2 
0.2 0.2 0.2 0.2 0.2 0.2 0.2 0.2 0.2 
0.2 0.2 0.2 0.2 0.2 0.2 0.2 0.2 0.2 
0.2 0.2 0.2 0.2 0.2 0.2 0.2 0.2 0.2 
0.2 0.2 0.2 0.2 0.2 0.2 0.2 0.2 0.2 
0.2 0.2 0.2 0.2 0.2 0.2 0.2 0.2 0.2 
0.2 0.2 0.2 0.2 0.2 0.2 0.2 0.2 0.2 
0.2 0.2 0.2 0.2 0.2 0.2 0.2 0.2 0.2 
0.2 0.2 0.2 0.2 0.2 0.2 0.2 0.2 0.2 
0.2 0.2 0.2 0.2 0.2 0.2 0.2 0.2 0.2 
0.2 0.2 0.2 0.2 0.2 0.2 0.2 0.2 0.2 
0.2 0.2 0.2 0.2 0.2 0.2 0.2 0.2 0.2 
0.2 0.2 0.2 0.2 0.2 0.2 0.2 0.2 0.2 
0.2 0.2 0.2 0.2 0.2 0.2 0.2 0.2 0.2 
0.2 0.2 0.2 0.2 0.2 0.2 0.2 0.2 0.2 
0.2 0.2 0.2 0.2 0.2 0.2 0.2 0.2 0.2 
0.2 0.2 0.2 0.2 0.2 0.2 0.2 0.2 0.2 
0.2 0.2 0.2 0.2 0.2 0.2 0.2 0.2 0.2 
0.2 0.2 0.2 0.2 0.2 0.2 0.2 0.2 0.2 
0.2 0.2 0.2 0.2 0.2 0.2 0.2 0.2 0.2 
0.2 0.2 0.2 0.2 0.2 0.2 0.2 0.2 0.2 
0.2 0.2 0.2 0.2 0.2 0.2 0.2 0.2 0.2 
0.2 0.2 0.2 0.2 0.2 0.2 0.2 0.2 0.2 
0.2 0.2 0.2 0.2 0.2 0.2 0.2 0.2 0.2 
0.2 0.2 0.2 0.2 0.2 0.2 0.2 0.2 0.2 
0.2 0.2 0.2 0.2 0.2 0.2 0.2 0.2 0.2 
0.2 0.2 0.2 0.2 0.2 0.2 0.2 0.2 0.2 
0.2 0.2 0.2 0.2 0.2 0.2 0.2 0.2 0.2 
0.2 0.2 0.2 0.2 0.2 0.2 0.2 0.2 0.2 
0.2 0.2 0.2 0.2 0.2 0.2 0.2 0.2 0.2 
0.2 0.2 0.2 0.2 0.2 0.2 0.2 0.2 0.2 
0.2 0.2 0.2 0.2 0.2 0.2 0.2 0.2 0.2 
0.2 0.2 0.2 0.2 0.2 0.2 0.2 0.2 0.2 
0.2 0.2 0.2 0.2 0.2 0.2 0.2 0.2 0.2 
0.2 0.2 0.2 0.2 0.2 0.2 0.2 0.2 0.2 
0.2 0.2 0.2 0.2 0.2 0.2 0.2 0.2 0.2 
0.2 0.2 0.2 0.2 0.2 0.2 0.2 0.2 0.2 
0.2 0.2 0.2 0.2 0.2 0.2 0.2 0.2 0.2 
0.2 0.2 0.2 0.2 0.2 0.2 0.2 0.2 0.2 
0.2 0.2 0.2 0.2 0.2 0.2 0.2 0.2 0.2 
0.2 0.2 0.2 0.2 0.2 0.2 0.2 0.2 0.2 
0.2 0.2 0.2 0.2 0.2 0.2 0.2 0.2 0.2 
0.2 0.2 0.2 0.2 0.2 0.2 0.2 0.2 0.2 
0.2 0.2 0.2 0.2 0.2 0.2 0.2 0.2 0.2 
0.2 0.2 0.2 0.2 0.2 0.2 0.2 0.2 0.2 
0.2 0.2 0.2 0.2 0.2 0.2 0.2 0.2 0.2 
0.2 0.2 0.2 0.2 0.2 0.2 0.2 0.2 0.2 
0.2 0.2 0.2 0.2 0.2 0.2 0.2 0.2 0.2 
0.2 0.2 0.2 0.2 0.2 0.2 0.2 0.2 0.2 
0.2 0.2 0.2 0.2 0.2 0.2 0.2 0.2 0.2 
0.2 0.2 0.2 0.2 0.2 0.2 0.2 0.2 0.2 
0.2 0.2 0.2 0.2 0.2 0.2 0.2 0.2 0.2 
0.2 0.2 0.2 0.2 0.2 0.2 0.2 0.2 0.2 
0.2 0.2 0.2 0.2 0.2 0.2 0.2 0.2 0.2 
0.2 0.2 0.2 0.2 0.2 0.2 0.2 0.2 0.2 
0.2 0.2 0.2 0.2 0.2 0.2 0.2 0.2 0.2 
0.2 0.2 0.2 0.2 0.2 0.2 0.2 0.2 0.2 
0.2 0.2 0.2 0.2 0.2 0.2 0.2 0.2 0.2 
0.2 0.2 0.2 0.2 0.2 0.2 0.2 0.2 0.2 
0.2 0.2 0.2 0.2 0.2 0.2 0.2 0.2 0.2 
0.2 0.2 0.2 0.2 0.2 0.2 0.2 0.2 0.2 
0.2 0.2 0.2 0.2 0.2 0.2 0.2 0.2 0.2 
0.2 0.2 0.2 0.2 0.2 0.2 0.2 0.2 0.2 
0.2 0.2 0.2 0.2 0.2 0.2 0.2 0.2 0.2 
0.2 0.2 0.2 0.2 0.2 0.2 0.2 0.2 0.2 
0.2 0.2 0.2 0.2 0.2 0.2 0.2 0.2 0.2 
0.2 0.2 0.2 0.2 0.2 0.2 0.2 0.2 0.2 
0.2 0.2 0.2 0.2 0.2 0.2 0.2 0.2 0.2 
0.2 0.2 0.2 0.2 0.2 0.2 0.2 0.2 0.2 
0.2 0.2 0.2 0.2 0.2 0.2 0.2 0.2 0.2 
0.2 0.2 0.2 0.2 0.2 0.2 0.2 0.2 0.2 
0.2 0.2 0.2 0.2 0.2 0.2 0.2 0.2 0.2 
0.2 0.2 0.2 0.2 0.2 0.2 0.2 0.2 0.2 
0.2 0.2 0.2 0.2 0.2 0.2 0.2 0.2 0.2 
0.2 0.2 0.2 0.2 0.2 0.2 0.2 0.2 0.2 
0.2 0.2 0.2 0.2 0.2 0.2 0.2 0.2 0.2 
0.2 0.2 0.2 0.2 0.2 0.2 0.2 0.2 0.2 
0.2 0.2 0.2 0.2 0.2 0.2 0.2 0.2 0.2 
0.2 0.2 0.2 0.2 0.2 0.2 0.2 0.2 0.2 
0.2 0.2 0.2 0.2 0.2 0.2 0.2 0.2 0.2 
0.2 0.2 0.2 0.2 0.2 0.2 0.2 0.2 0.2 
0.2 0.2 0.2 0.2 0.2 0.2 0.2 0.2 0.2 
0.2 0.2 0.2 0.2 0.2 0.2 0.2 0.2 0.2 
0.2 0.2 0.2 0.2 0.2 0.2 0.2 0.2 0.2 
0.2 0.2 0.2 0.2 0.2 0.2 0.2 0.2 0.2 
0.2 0.2 0.2 0.2 0.2 0.2 0.2 0.2 0.2 
0.2 0.2 0.2 0.2 0.2 0.2 0.2 0.2 0.2 
0.2 0.2 0.2 0.2 0.2 0.2 0.2 0.2 0.2 
0.2 0.2 0.2 0.2 0.2 0.2 0.2 0.2 0.2 
0.2 0.2 0.2 0.2 0.2 0.2 0.2 0.2 0.2 
0.2 0.2 0.2 0.2 0.2 0.2 0.2 0.2 0.2 
0.2 0.2 0.2 0.2 0.2 0.2 0.2 0.2 0.2 
0.2 0.2 0.2 0.2 0.2 0.2 0.2 0.2 0.2 
0.2 0.2 0.2 0.2 0.2 0.2 0.2 0.2 0.2 
0.2 0.2 0.2 0.2 0.2 0.2 0.2 0.2 0.2 
0.2 0.2 0.2 0.2 0.2 0.2 0.2 0.2 0.2 
0.2 0.2 0.2 0.2 0.2 0.2 0.2 0.2 0.2 
0.2 0.2 0.2 0.2 0.2 0.2 0.2 0.2 0.2 
0.2 0.2 0.2 0.2 0.2 0.2 0.2 0.2 0.2 
0.2 0.2 0.2 0.2 0.2 0.2 0.2 0.2 0.2 
0.2 0.2 0.2 0.2 0.2 0.2 0.2 0.2 0.2 
0.2 0.2 0.2 0.2 0.2 0.2 0.2 0.2 0.2 
0.2 0.2 0.2 0.2 0.2 0.2 0.2 0.2 0.2 
0.2 0.2 0.2 0.2 0.2 0.2 0.2 0.2 0.2 
0.2 0.2 0.2 0.2 0.2 0.2 0.2 0.2 0.2 
0.2 0.2 0.2 0.2 0.2 0.2 0.2 0.2 0.2 
0.2 0.2 0.2 0.2 0.2 0.2 0.2 0.2 0.2 
0.2 0.2 0.2 0.2 0.2 
c 1 1049 double
0.1 0.1 0.1 0.1 0.1 0.1 0.1 0.1 0.1 
0.1 0.1 0.1 0.1 0.1 0.1 0.1 0.1 0.1 
0.1 0.1 0.1 0.1 0.1 0.1 0.1 0.1 0.1 
0.1 0.1 0.1 0.1 0.1 0.1 0.1 0.1 0.1 
0.1 0.1 0.1 0.1 0.1 0.1 0.1 0.1 0.1 
0.1 0.1 0.1 0.1 0.1 0.1 0.1 0.1 0.1 
0.1 0.1 0.1 0.1 0.1 0.1 0.1 0.1 0.1 
0.1 0.1 0.1 0.1 0.1 0.1 0.1 0.1 0.1 
0.1 0.1 0.1 0.1 0.1 0.1 0.1 0.1 0.1 
0.1 0.1 0.1 0.1 0.1 0.1 0.1 0.1 0.1 
0.1 0.1 0.1 0.1 0.1 0.1 0.1 0.1 0.1 
0.1 0.1 0.1 0.1 0.1 0.1 0.1 0.1 0.1 
0.1 0.1 0.1 0.1 0.1 0.1 0.1 0.1 0.1 
0.1 0.1 0.1 0.1 0.1 0.1 0.1 0.1 0.1 
0.1 0.1 0.1 0.1 0.1 0.1 0.1 0.1 0.1 
0.1 0.1 0.1 0.1 0.1 0.1 0.1 0.1 0.1 
0.1 0.1 0.1 0.1 0.1 0.1 0.1 0.1 0.1 
0.1 0.1 0.1 0.1 0.1 0.1 0.1 0.1 0.1 
0.1 0.1 0.1 0.1 0.1 0.1 0.1 0.1 0.1 
0.1 0.1 0.1 0.1 0.1 0.1 0.1 0.1 0.1 
0.1 0.1 0.1 0.1 0.1 0.1 0.1 0.1 0.1 
0.1 0.1 0.1 0.1 0.1 0.1 0.1 0.1 0.1 
0.1 0.1 0.1 0.1 0.1 0.1 0.1 0.1 0.1 
0.1 0.1 0.1 0.1 0.1 0.1 0.1 0.1 0.1 
0.1 0.1 0.1 0.1 0.1 0.1 0.1 0.1 0.1 
0.1 0.1 0.1 0.1 0.1 0.1 0.1 0.1 0.1 
0.1 0.1 0.1 0.1 0.1 0.1 0.1 0.1 0.1 
0.1 0.1 0.1 0.1 0.1 0.1 0.1 0.1 0.1 
0.1 0.1 0.1 0.1 0.1 0.1 0.1 0.1 0.1 
0.1 0.1 0.1 0.1 0.1 0.1 0.1 0.1 0.1 
0.1 0.1 0.1 0.1 0.1 0.1 0.1 0.1 0.1 
0.1 0.1 0.1 0.1 0.1 0.1 0.1 0.1 0.1 
0.1 0.1 0.1 0.1 0.1 0.1 0.1 0.1 0.1 
0.1 0.1 0.1 0.1 0.1 0.1 0.1 0.1 0.1 
0.1 0.1 0.1 0.1 0.1 0.1 0.1 0.1 0.1 
0.1 0.1 0.1 0.1 0.1 0.1 0.1 0.1 0.1 
0.1 0.1 0.1 0.1 0.1 0.1 0.1 0.1 0.1 
0.1 0.1 0.1 0.1 0.1 0.1 0.1 0.1 0.1 
0.1 0.1 0.1 0.1 0.1 0.1 0.1 0.1 0.1 
0.1 0.1 0.1 0.1 0.1 0.1 0.1 0.1 0.1 
0.1 0.1 0.1 0.1 0.1 0.1 0.1 0.1 0.1 
0.1 0.1 0.1 0.1 0.1 0.1 0.1 0.1 0.1 
0.1 0.1 0.1 0.1 0.1 0.1 0.1 0.1 0.1 
0.1 0.1 0.1 0.1 0.1 0.1 0.1 0.1 0.1 
0.1 0.1 0.1 0.1 0.1 0.1 0.1 0.1 0.1 
0.1 0.1 0.1 0.1 0.1 0.1 0.1 0.1 0.1 
0.1 0.1 0.1 0.1 0.1 0.1 0.1 0.1 0.1 
0.1 0.1 0.1 0.1 0.1 0.1 0.1 0.1 0.1 
0.1 0.1 0.1 0.1 0.1 0.1 0.1 0.1 0.1 
0.1 0.1 0.1 0.1 0.1 0.1 0.1 0.1 0.1 
0.1 0.1 0.1 0.1 0.1 0.1 0.1 0.1 0.1 
0.1 0.1 0.1 0.1 0.1 0.1 0.1 0.1 0.1 
0.1 0.1 0.1 0.1 0.1 0.1 0.1 0.1 0.1 
0.1 0.1 0.1 0.1 0.1 0.1 0.1 0.1 0.1 
0.1 0.1 0.1 0.1 0.1 0.1 0.1 0.1 0.1 
0.1 0.1 0.1 0.1 0.1 0.1 0.1 0.1 0.1 
0.1 0.1 0.1 0.1 0.1 0.1 0.1 0.1 0.1 
0.1 0.1 0.1 0.1 0.1 0.1 0.1 0.1 0.1 
0.1 0.1 0.1 0.1 0.1 0.1 0.1 0.1 0.1 
0.1 0.1 0.1 0.1 0.1 0.1 0.1 0.1 0.1 
0.1 0.1 0.1 0.1 0.1 0.1 0.1 0.1 0.1 
0.1 0.1 0.1 0.1 0.1 0.1 0.1 0.1 0.1 
0.1 0.1 0.1 0.1 0.1 0.1 0.1 0.1 0.1 
0.1 0.1 0.1 0.1 0.1 0.1 0.1 0.1 0.1 
0.1 0.1 0.1 0.1 0.1 0.1 0.1 0.1 0.1 
0.1 0.1 0.1 0.1 0.1 0.1 0.1 0.1 0.1 
0.1 0.1 0.1 0.1 0.1 0.1 0.1 0.1 0.1 
0.1 0.1 0.1 0.1 0.1 0.1 0.1 0.1 0.1 
0.1 0.1 0.1 0.1 0.1 0.1 0.1 0.1 0.1 
0.1 0.1 0.1 0.1 0.1 0.1 0.1 0.1 0.1 
0.1 0.1 0.1 0.1 0.1 0.1 0.1 0.1 0.1 
0.1 0.1 0.1 0.1 0.1 0.1 0.1 0.1 0.1 
0.1 0.1 0.1 0.1 0.1 0.1 0.1 0.1 0.1 
0.1 0.1 0.1 0.1 0.1 0.1 0.1 0.1 0.1 
0.1 0.1 0.1 0.1 0.1 0.1 0.1 0.1 0.1 
0.1 0.1 0.1 0.1 0.1 0.1 0.1 0.1 0.1 
0.1 0.1 0.1 0.1 0.1 0.1 0.1 0.1 0.1 
0.1 0.1 0.1 0.1 0.1 0.1 0.1 0.1 0.1 
0.1 0.1 0.1 0.1 0.1 0.1 0.1 0.1 0.1 
0.1 0.1 0.1 0.1 0.1 0.1 0.1 0.1 0.1 
0.1 0.1 0.1 0.1 0.1 0.1 0.1 0.1 0.1 
0.1 0.1 0.1 0.1 0.1 0.1 0.1 0.1 0.1 
0.1 0.1 0.1 0.1 0.1 0.1 0.1 0.1 0.1 
0.1 0.1 0.1 0.1 0.1 0.1 0.1 0.1 0.1 
0.1 0.1 0.1 0.1 0.1 0.1 0.1 0.1 0.1 
0.1 0.1 0.1 0.1 0.1 0.1 0.1 0.1 0.1 
0.1 0.1 0.1 0.1 0.1 0.1 0.1 0.1 0.1 
0.1 0.1 0.1 0.1 0.1 0.1 0.1 0.1 0.1 
0.1 0.1 0.1 0.1 0.1 0.1 0.1 0.1 0.1 
0.1 0.1 0.1 0.1 0.1 0.1 0.1 0.1 0.1 
0.1 0.1 0.1 0.1 0.1 0.1 0.1 0.1 0.1 
0.1 0.1 0.1 0.1 0.1 0.1 0.1 0.1 0.1 
0.1 0.1 0.1 0.1 0.1 0.1 0.1 0.1 0.1 
0.1 0.1 0.1 0.1 0.1 0.1 0.1 0.1 0.1 
0.1 0.1 0.1 0.1 0.1 0.1 0.1 0.1 0.1 
0.1 0.1 0.1 0.1 0.1 0.1 0.1 0.1 0.1 
0.1 0.1 0.1 0.1 0.1 0.1 0.1 0.1 0.1 
0.1 0.1 0.1 0.1 0.1 0.1 0.1 0.1 0.1 
0.1 0.1 0.1 0.1 0.1 0.1 0.1 0.1 0.1 
0.1 0.1 0.1 0.1 0.1 0.1 0.1 0.1 0.1 
0.1 0.1 0.1 0.1 0.1 0.1 0.1 0.1 0.1 
0.1 0.1 0.1 0.1 0.1 0.1 0.1 0.1 0.1 
0.1 0.1 0.1 0.1 0.1 0.1 0.1 0.1 0.1 
0.1 0.1 0.1 0.1 0.1 0.1 0.1 0.1 0.1 
0.1 0.1 0.1 0.1 0.1 0.1 0.1 0.1 0.1 
0.1 0.1 0.1 0.1 0.1 0.1 0.1 0.1 0.1 
0.1 0.1 0.1 0.1 0.1 0.1 0.1 0.1 0.1 
0.1 0.1 0.1 0.1 0.1 0.1 0.1 0.1 0.1 
0.1 0.1 0.1 0.1 0.1 0.1 0.1 0.1 0.1 
0.1 0.1 0.1 0.1 0.1 0.1 0.1 0.1 0.1 
0.1 0.1 0.1 0.1 0.1 0.1 0.1 0.1 0.1 
0.1 0.1 0.1 0.1 0.1 0.1 0.1 0.1 0.1 
0.1 0.1 0.1 0.1 0.1 0.1 0.1 0.1 0.1 
0.1 0.1 0.1 0.1 0.1 0.1 0.1 0.1 0.1 
0.1 0.1 0.1 0.1 0.1 0.1 0.1 0.1 0.1 
0.1 0.1 0.1 0.1 0.1 0.1 0.1 0.1 0.1 
0.1 0.1 0.1 0.1 0.1 
m 1 1049 double
91.315 56.755 76.33 65.975 75.77 61.625 94.14 84.655 62.64 
65.745 90.92 83.88 53.285 84.935 99.255 97.585 93.885 94.295 
95.485 56.49 92.105 53.87 72.105 96.915 86.865 59.805 63.77 
74.595 56.63 90.21 71.295 81.145 91.575 68.92 71.85 92.685 
75.99 71.62 67.63 54.43 82.065 69.85 94.9 63.885 80.455 
86.405 99.78 95.85 84.98 59.365 84.31 85.42 61.525 51.68 
54.625 81.635 66.01 84.575 54.23 82.525 67.53 91.01 58.645 
56.565 94.72 79.285 80.62 69.475 52.725 97.91 66.835 94.07 
77.17 70.215 51.82 85.89 84.04 68.75 86.38 55.435 63.255 
77.015 78.94 67.92 63.77 99.66 75.3 98.38 66.84 61.995 
58.41 81.13 88.695 50.06 76.7 92.93 91.95 64.145 88.965 
57.17 52.85 90.47 87.695 53.975 50.485 51.89 87.335 64.51 
83.005 66.585 53.78 52.46 83.26 86.505 97.205 69.325 51.4 
71.43 98.445 92.22 83.095 73.645 92.2 90.155 72.405 77.165 
91.69 94.935 90.585 78.855 91.675 89.44 90.485 89.28 72.835 
53.375 94.635 53.545 72.93 97.485 84.825 61.765 76.53 93.12 
57.64 73.415 81.095 64.355 50.095 94.145 91.35 97.515 78.66 
90.745 66.84 81.7 83.575 98.54 55.5 78.645 61.225 53.615 
76.93 63.09 67.295 64.23 88.98 68.09 61.895 64.605 88.82 
87.44 67.775 67.255 99.205 91.14 52.46 88.61 63.205 91.99 
75.965 83.245 61.75 85.17 50.62 57.5 74.57 88.82 84.935 
79.28 68.715 91.825 82.455 61.135 62.755 59.68 57.16 57.105 
99.295 66.025 53.065 97.835 62.52 88.105 89.775 95.63 91.415 
64.21 60.105 97.64 83.92 54.34 61.46 89.94 78.975 65.72 
53.715 61.37 88.205 80.945 83.1 81.775 56.94 56.165 97.19 
65.37 90.125 96.14 77.035 57.37 82.185 66.375 77.895 90.71 
79.42 59.965 59.3 76.76 90.795 99.54 94.36 99.79 75.945 
52.49 51.445 76.835 76.19 84.745 89.855 50.45 94.845 98.05 
97.395 72.06 68.405 51.35 51.79 90.785 67.465 68.31 71.975 
80.145 56.185 80.605 94.29 58.88 76.365 73.845 94.25 86.275 
53.195 58.915 94.04 66.515 88.765 81.24 90.18 64.5 65.885 
81.675 82.145 76.715 96.07 67.56 59.43 56.56 91.775 59.195 
91.815 53.495 77.845 67.085 60.985 62.455 71.55 72.14 91.175 
80.715 68.965 79.09 51.895 90.02 55.775 88.66 79.97 65.415 
73.95 56.77 51.995 92.83 58.24 98.77 66.665 64.45 60.665 
52.52 78.145 50.245 91.425 54.82 54.285 92.965 93.135 98.155 
95.4 99.235 65.865 93.97 63.11 82.155 69.45 82.91 75.995 
55.055 97.645 62.02 93.88 79.64 94.095 91.045 96.68 92.905 
62.95 84.075 54.265 58.73 51.84 72.5 87.835 97.645 60.67 
80.635 61.075 71.695 58.46 95.255 63.235 94.73 84.85 61.45 
87.31 96.95 78.955 83.41 71.46 86.39 58.805 93.03 72.69 
78.815 72.215 73.065 61.49 80.95 52.62 53.565 69.49 97.965 
90.23 98.985 68.94 81.245 84.95 92.69 75.755 88.235 80.795 
62.675 67.645 77.89 82.76 74.97 74.58 96.84 57.605 75.285 
95.075 80.785 92.87 75.575 80.635 79.28 50.185 64.86 84.2 
53.44 74.09 75.64 64.52 56.11 76.925 96.495 80.21 83.2 
88.325 50.495 59.26 54.55 91.91 76.815 66.515 65.165 62.485 
51.265 72.5 60.01 52.14 53.405 82.015 74.925 72.76 86.93 
75.5 81.56 63.63 71.73 96.67 63.675 57.455 64.755 75.105 
96.155 59.735 77.555 69.135 66.62 84.98 99.585 86.845 89.585 
69.25 88.125 96.46 59.86 88.36 80.435 98.36 51.54 69.98 
82.95 74.46 95.625 55.76 52.64 88.43 61.81 95.94 77.18 
62.3 95.785 68.645 79.875 77.41 73.465 85.085 50.135 69.605 
67.07 93.45 81.52 52.3 67.685 94.51 50.14 83.74 90.135 
87.78 90.25 93.285 88.485 93.495 55.195 55.215 73.97 69.13 
61.305 71.16 67.705 52.845 50.295 86.67 51.8 80.21 83.805 
95.585 50.405 90.115 81.545 54.355 65.95 88.815 93.81 69.63 
77.125 94.98 67.14 73.385 72.62 71.17 58.13 53.45 81.835 
91.025 65.84 98.07 51.79 80.285 82.53 86.42 72.83 88.85 
52.7 84.28 52.085 61.3 53.03 86.025 51.185 65.295 79.245 
67.13 76.085 92.59 62.195 53.915 95.86 74.725 72.85 54.365 
84.365 92.29 88.185 52.415 71.445 81.085 81.82 63.785 83.035 
52.39 72.355 96.57 62.775 83.255 65.345 65.86 78.68 59.25 
77.105 88.715 92.45 77.495 97.35 60.915 86.345 50.42 56.98 
70.405 78.15 75 64.785 57.705 71.125 55.865 65.345 79.025 
54.985 54.64 87.525 77.95 98.86 78.22 83.625 69.6 96.12 
69.75 62.11 89.09 87.8 83.29 76.18 76.055 50.635 76.84 
75.525 50.245 62.835 52.815 56.22 86.875 93.555 59.025 66.455 
99.67 67.945 68.84 94.965 94.775 68.07 64.025 74.59 74.11 
84.41 84.91 70.09 82.145 57.87 65.465 70.15 96.455 81.64 
83.55 54.625 83.585 69.29 75.275 84.815 85.45 86.085 84.18 
90.65 74.52 56.965 92.28 63.305 92.855 63.02 73.945 84.255 
98.165 98.425 65.365 96.25 82.515 99.025 89.34 97.425 87.58 
76.625 64.745 78.91 95.03 55.405 67.58 73.195 60.975 51.13 
83.815 55.6 54.835 88.385 87.8 52.98 54.325 69.905 95.18 
89.775 96.055 67.59 81.71 88.85 91.35 61.895 62.66 86.605 
75.98 72.135 70.86 60.2 71.17 74.92 86.99 55.315 50.36 
86.415 79.15 52.865 51.735 84.75 68.57 60.15 87.61 84.62 
70.235 80.295 75.41 96.02 52.215 64.77 56.16 97.175 95.795 
78.2 71.39 77.43 59.49 99.24 96.31 55.205 98.415 51.31 
95.61 81.36 78.985 90.835 91.62 69.795 64.03 83.64 58.615 
87.285 96.825 70.77 86.675 79.105 58.88 55.855 51.345 63.735 
76.09 54.535 93.505 54.44 58.515 99.665 73.265 57.65 75.27 
70.15 52.685 68.7 70.49 64.31 88.345 98.93 90.695 64.77 
75.615 81.14 55.635 95.75 79.92 58.525 51.265 52.715 50.63 
57.43 82.965 80.695 61.155 58.98 77.02 65.01 85.42 56.54 
93.6 76.67 63.49 61.75 83.105 61.965 50.04 88.58 92.32 
97.535 50.985 92.71 90.41 99.055 79.695 78.335 69.7 99.52 
89.07 90.895 65.37 73.565 91.885 96.09 72.9 61.69 69.85 
95.105 92.06 54.76 81.88 55.26 94.49 63.575 54.955 60.355 
93.055 81.74 68.11 94.02 96.775 76.605 72.995 74.095 56.275 
88.605 78.875 85.44 64.595 73.81 78.55 99.31 74.06 74.885 
63.425 76.895 94.77 82.225 57.795 70.05 90.945 75.855 62.53 
59.44 86.4 56.345 92.885 96.495 77.84 86.715 89.14 78.73 
88.565 86.86 91.03 96.505 87.935 51.73 83.66 55.085 51.47 
51.175 57.68 96.035 99.52 67.415 70.88 67.185 91.705 86.805 
94.88 83.05 65.675 69.05 66.555 77.11 88.025 71.7 60.045 
58.295 76.05 61.68 81.71 55.685 69.715 62.865 78.455 75.765 
74.285 99.555 67.495 98.72 98.795 55.68 70.335 88.215 51.685 
98.09 56.8 56.525 59.005 74.39 68.65 78.305 66.74 60.86 
84.435 69.645 97.06 95.535 92.09 87.225 95.895 98.78 66.88 
77.71 79.68 60.45 88.42 64.63 55.475 75.42 82.33 56.7 
85.95 64.065 68.865 64.795 98.34 94.495 89.905 85.995 50.815 
64.98 74.65 93.3 79.47 94.665 99.01 69.405 85.655 54.865 
87.34 50.355 67.26 77.75 59.495 60.18 96.895 60.31 88.185 
78.12 64.62 63 91.41 66.29 67.08 67.325 83.54 97.22 
92.61 96.6 93.13 93.68 82.695 95.08 70.11 91.12 65.545 
50 75.405 75.265 66.89 90.545 56.69 79.945 90.335 97.13 
95.57 82.66 76.115 61.155 75.735 83.935 56.405 69.375 50.895 
60.61 74.25 69.065 82.95 61.27 55.655 76.75 57.47 95.905 
89.285 80.405 73.015 78.6 87.435 50.905 89.91 62.165 96.48 
97.075 77.02 93.61 94.125 51.485 95.67 50.16 52.755 84.46 
98.54 85.285 92.53 65.905 52.075 99.995 61.485 59.81 87.415 
52.975 94.885 50.77 75.055 56.545 78.88 62.935 99.66 66.91 
75.105 71.33 88.425 67.815 68.41 96.055 94.3 54.65 72.915 
79.95 71.425 95.43 57.38 70.58 86.57 79.1 59.46 87.45 
87.625 77.64 94.195 87.625 65.29 
p0 3 1049 double
0 -10 0 0 -10 0 0 -10 0 
0 -10 0 0 -10 0 0 -10 0 
0 -10 0 0 -10 0 0 -10 0 
0 -10 0 0 -10 0 0 -10 0 
0 -10 0 0 -10 0 0 -10 0 
0 -10 0 0 -10 0 0 -10 0 
0 -10 0 0 -10 0 0 -10 0 
0 -10 0 0 0 0 0 0 0 
0 0 0 0 0 0 0 0 0 
0 0 0 0 0 0 0 0 0 
0 0 0 0 0 0 0 0 0 
0 0 0 0 0 0 0 0 0 
0 0 0 0 0 0 0 0 0 
0 0 0 0 0 0 -12 0 0 
0 0 0 0 0 0 0 0 0 
0 0 0 0 0 0 0 0 0 
0 0 0 0 0 0 0 0 0 
0 0 0 0 0 0 0 0 0 
0 0 0 0 0 0 0 0 0 
0 0 0 0 0 0 0 0 0 
0 0 0 0 0 0 0 0 0 
0 0 0 0 0 0 0 0 0 
0 0 0 0 0 0 0 0 0 
0 0 0 0 0 0 0 0 0 
0 0 0 0 0 0 0 0 0 
0 0 0 0 0 0 0 0 0 
0 0 0 0 0 0 0 0 0 
0 0 0 0 0 0 0 0 0 
0 0 0 0 0 0 0 0 0 
0 0 0 0 0 0 0 0 0 
0 0 0 0 0 0 0 0 0 
0 0 0 0 0 0 0 0 0 
0 0 0 0 0 0 0 0 0 
0 0 0 0 0 0 0 0 0 
0 0 0 0 0 0 0 0 0 
0 0 0 0 0 0 0 0 0 
0 0 0 0 0 0 0 0 0 
0 0 0 0 0 0 0 0 0 
0 0 0 0 0 0 0 0 0 
0 0 0 0 0 0 0 0 0 
0 0 0 0 0 0 0 0 0 
0 0 0 0 0 0 0 0 0 
0 0 0 0 0 0 0 0 0 
0 0 0 0 0 0 0 0 0 
0 0 0 0 0 0 0 0 0 
0 0 0 0 0 0 0 0 0 
0 0 0 0 0 0 0 0 0 
0 0 0 0 0 0 0 0 0 
0 0 0 0 0 0 0 0 0 
0 0 0 0 0 0 0 0 0 
0 0 0 0 0 0 0 0 0 
0 0 0 0 0 0 0 0 0 
0 0 0 0 0 0 0 0 0 
0 0 0 0 0 0 0 0 0 
0 0 0 0 0 0 0 0 0 
0 0 0 0 0 0 0 0 0 
0 0 0 0 0 0 0 0 0 
0 0 0 0 0 0 0 0 0 
0 0 0 0 0 0 0 0 0 
12 0 0 12 0 0 12 0 0 
0 0 0 0 0 0 0 0 0 
0 0 0 0 0 0 0 0 0 
0 0 0 0 0 0 0 0 0 
0 0 0 0 0 0 0 0 0 
0 0 0 0 0 0 0 0 0 
0 0 0 0 0 0 0 0 0 
0 0 0 0 0 0 0 0 0 
0 0 0 0 0 0 0 0 0 
-12 0 0 -12 0 0 -12 0 0 
0 0 0 0 0 0 0 0 0 
0 0 0 0 0 0 0 0 0 
0 0 0 0 0 0 0 0 0 
0 0 0 0 0 0 0 0 0 
0 0 0 0 0 0 0 0 0 
0 0 0 0 0 0 0 0 0 
0 0 0 0 0 0 0 0 0 
0 0 0 0 0 0 0 0 0 
0 0 0 0 0 0 0 0 0 
0 0 0 0 0 0 0 0 0 
-12 0 0 -12 0 0 0 0 0 
0 0 0 0 0 0 0 0 0 
0 0 0 0 0 0 0 0 0 
0 0 0 0 0 0 0 0 0 
0 0 0 0 0 0 0 0 0 
0 0 0 0 0 0 0 0 0 
0 0 0 0 0 0 0 0 0 
0 0 0 12 0 0 0 0 0 
0 0 0 0 0 0 0 0 0 
0 0 0 0 0 0 0 0 0 
0 0 0 0 0 0 0 0 0 
-12 0 0 -12 0 0 0 0 0 
0 0 0 0 0 0 0 0 0 
0 0 0 0 0 0 0 0 0 
0 0 0 0 0 0 0 0 0 
0 0 0 0 0 0 0 0 0 
0 0 0 0 0 0 0 0 0 
0 0 0 0 0 0 0 0 0 
0 0 0 12 0 0 12 0 0 
12 0 0 0 0 0 0 0 0 
0 0 0 0 0 0 0 0 0 
0 0 0 0 0 0 0 0 0 
0 0 0 0 0 0 -12 0 0 
-12 0 0 -12 0 0 -12 0 0 
-12 0 0 0 0 0 0 0 0 
0 0 0 0 0 0 0 0 0 
0 0 0 0 0 0 0 0 0 
0 0 0 0 0 0 0 0 0 
0 0 0 0 0 0 0 0 0 
0 0 0 0 0 0 0 0 0 
0 0 0 0 0 0 0 0 0 
12 0 0 12 0 0 12 0 0 
0 0 0 0 0 0 0 0 0 
0 0 0 0 0 0 0 0 0 
0 0 0 0 0 0 0 0 0 
0 0 0 -12 0 0 -12 0 0 
0 0 0 0 0 0 0 0 0 
0 0 0 0 0 0 0 0 0 
0 0 0 0 0 0 0 0 0 
0 0 0 0 0 0 0 0 0 
0 0 0 0 0 0 0 0 0 
0 0 0 0 0 0 0 0 0 
0 0 0 0 0 0 12 0 0 
12 0 0 0 0 0 0 0 0 
0 0 0 0 0 0 0 0 0 
0 0 0 0 0 0 0 0 0 
0 0 0 0 0 0 -12 0 0 
0 0 0 0 0 0 0 0 0 
0 0 0 0 0 0 0 0 0 
0 0 0 0 0 0 0 0 0 
0 0 0 0 0 0 0 0 0 
0 0 0 0 0 0 0 0 0 
6 8 0 0 0 0 0 0 0 
12 0 0 0 0 0 0 0 0 
0 0 0 12 0 0 12 0 0 
12 0 0 12 0 0 0 0 0 
0 0 0 0 0 0 0 0 0 
0 0 0 0 0 0 0 0 0 
0 0 0 0 0 0 0 0 0 
-12 0 0 -12 0 0 -12 0 0 
-12 0 0 -12 0 0 0 0 0 
0 0 0 0 0 0 0 0 0 
0 0 0 0 0 0 0 0 0 
0 0 0 0 0 0 0 0 0 
0 8 0 0 8 0 0 0 0 
0 0 0 0 0 0 0 0 0 
0 0 0 6 8 0 12 0 0 
0 0 0 0 0 0 0 0 0 
0 0 0 0 0 0 12 0 0 
12 0 0 0 0 0 0 0 0 
0 0 0 0 0 0 0 0 0 
0 0 0 0 0 0 0 0 0 
0 0 0 0 0 0 -12 0 0 
-12 0 0 -12 0 0 0 0 0 
-9 9 0 0 0 0 0 0 0 
0 0 0 -9 9 0 0 0 0 
0 0 0 0 0 0 0 0 0 
0 0 0 0 0 0 0 0 0 
0 0 0 -9 9 0 -9 9 0 
-9 9 0 0 0 0 0 0 0 
0 0 0 0 0 0 0 0 0 
0 0 0 -9 9 0 0 0 0 
0 0 0 0 0 0 0 0 0 
0 0 0 0 0 0 -9 9 0 
0 0 0 0 0 0 0 0 0 
0 0 0 0 0 0 0 0 0 
0 0 0 0 0 0 0 0 0 
0 0 0 0 0 0 -9 9 0 
0 0 0 0 0 0 0 0 0 
0 0 0 0 0 0 0 0 0 
0 0 0 -9 9 0 0 0 0 
0 0 0 9 9 0 0 0 0 
0 0 0 0 0 0 9 9 0 
0 0 0 0 0 0 0 0 0 
0 0 0 0 0 0 0 0 0 
0 0 0 0 0 0 0 0 0 
0 0 0 0 0 0 9 9 0 
0 0 0 0 0 0 0 0 0 
0 0 0 0 0 0 0 0 0 
0 0 0 0 0 0 0 0 0 
0 0 0 0 0 0 0 0 0 
0 0 0 0 0 0 0 0 0 
9 9 0 0 0 0 0 0 0 
0 0 0 9 9 0 0 0 0 
0 0 0 0 0 0 0 0 0 
0 0 0 0 0 0 9 9 0 
9 9 0 0 0 0 0 0 0 
0 0 0 0 0 0 0 0 0 
12 0 0 12 0 0 0 0 0 
12 0 0 0 0 0 12 0 0 
12 0 0 0 0 0 0 0 0 
0 0 0 0 0 0 0 0 0 
0 0 0 0 0 0 0 0 0 
0 0 0 0 0 0 -12 0 0 
-9 9 0 -9 9 0 -9 9 0 
-9 9 0 9 9 0 9 9 0 
9 9 0 12 0 0 0 0 0 
0 0 0 0 0 0 0 0 0 
0 0 0 0 0 0 0 0 0 
0 0 0 0 0 0 0 0 0 
0 0 0 0 0 0 0 0 0 
0 0 0 0 0 0 0 0 0 
0 0 0 0 0 0 0 0 0 
0 0 0 0 0 0 0 0 0 
0 0 0 0 0 0 0 0 0 
0 0 0 0 0 0 0 0 0 
0 0 0 0 0 0 0 0 0 
0 0 0 0 0 0 0 0 0 
0 0 0 0 0 0 0 0 0 
0 0 0 0 0 0 0 0 0 
0 0 0 0 0 0 0 0 0 
0 0 0 0 0 0 0 0 0 
0 0 0 0 0 0 0 0 0 
0 0 0 0 0 0 0 0 0 
0 0 0 0 0 0 0 0 0 
0 0 0 0 0 0 0 0 0 
0 0 0 0 0 0 0 0 0 
0 0 0 0 0 0 0 0 0 
0 0 0 0 0 0 0 0 0 
0 0 0 0 0 0 0 0 0 
0 0 0 0 0 0 0 0 0 
0 0 0 0 0 0 0 0 0 
0 0 0 0 0 0 0 0 0 
0 0 0 0 0 0 0 0 0 
0 0 0 0 0 0 0 0 0 
0 0 0 0 0 0 0 0 0 
0 0 0 0 0 0 0 0 0 
0 0 0 0 0 0 0 0 0 
0 0 0 0 0 0 0 0 0 
0 0 0 0 0 0 0 0 0 
0 0 0 0 0 0 0 0 0 
0 0 0 0 0 0 0 0 0 
0 0 0 0 0 0 0 0 0 
0 0 0 0 0 0 0 0 0 
0 0 0 0 0 0 0 0 0 
0 0 0 0 0 0 0 0 0 
0 0 0 0 0 0 0 0 0 
0 0 0 0 0 0 0 0 0 
0 0 0 0 0 0 0 0 0 
0 0 0 0 0 0 0 0 0 
0 0 0 0 0 0 0 0 0 
0 0 0 0 0 0 0 0 0 
0 0 0 0 0 0 0 0 0 
0 0 0 0 0 0 0 0 0 
0 0 0 0 0 0 0 0 0 
0 0 0 0 0 0 0 0 0 
0 0 0 0 0 0 0 0 0 
0 0 0 0 0 0 0 0 0 
13.5 10 0 0 0 0 0 0 0 
0 0 0 0 0 0 0 0 0 
0 0 0 0 0 0 0 0 0 
0 0 0 0 0 0 0 0 0 
0 0 0 0 0 0 0 0 0 
0 0 0 0 0 0 0 0 0 
0 0 0 0 0 0 0 0 0 
0 0 0 0 0 0 0 0 0 
0 0 0 0 0 0 0 0 0 
0 0 0 0 0 0 0 0 0 
0 0 0 0 0 0 0 0 0 
0 0 0 0 0 0 0 0 0 
13.5 10 0 13.5 10 0 13.5 10 0 
13.5 10 0 13.5 10 0 0 0 0 
0 0 0 0 0 0 0 0 0 
0 0 0 0 0 0 0 0 0 
0 0 0 0 0 0 0 0 0 
0 0 0 0 0 0 0 0 0 
0 0 0 0 0 0 0 0 0 
0 0 0 0 0 0 0 0 0 
0 0 0 9 14.5 0 9 14.5 0 
0 0 0 0 0 0 0 0 0 
0 0 0 0 0 0 13.5 10 0 
0 0 0 0 0 0 0 0 0 
0 0 0 0 0 0 0 0 0 
0 0 0 0 0 0 0 0 0 
0 0 0 0 0 0 0 0 0 
0 0 0 0 0 0 0 0 0 
0 0 0 0 0 0 0 0 0 
0 0 0 0 0 0 9 14.5 0 
9 14.5 0 0 0 0 0 0 0 
0 0 0 0 0 0 0 0 0 
13.5 10 0 13.5 10 0 13.5 10 0 
13.5 10 0 0 0 0 0 0 0 
0 0 0 0 0 0 0 0 0 
0 0 0 0 0 0 0 0 0 
0 0 0 0 0 0 0 0 0 
0 0 0 0 0 0 0 0 0 
0 0 0 0 0 0 0 0 0 
0 0 0 0 0 0 0 0 0 
9 14.5 0 9 14.5 0 9 14.5 0 
9 14.5 0 13.5 10 0 0 0 0 
0 0 0 0 0 0 0 0 0 
0 0 0 0 0 0 0 0 0 
0 0 0 0 0 0 0 0 0 
0 0 0 0 0 0 0 0 0 
0 0 0 0 0 0 0 0 0 
0 0 0 0 0 0 0 0 0 
0 0 0 0 0 0 0 0 0 
0 0 0 0 0 0 0 0 0 
0 0 0 0 0 0 0 0 0 
0 0 0 0 0 0 0 0 0 
0 0 0 0 0 0 0 0 0 
0 0 0 0 0 0 0 0 0 
0 0 0 0 0 0 0 0 0 
0 0 0 0 0 0 0 0 0 
0 0 0 0 0 0 0 0 0 
0 0 0 0 0 0 0 0 0 
0 0 0 0 0 0 0 0 0 
0 0 0 0 0 0 0 0 0 
0 0 0 0 0 0 0 0 0 
0 0 0 0 0 0 0 0 0 
0 0 0 0 0 0 0 0 0 
0 0 0 0 0 0 0 0 0 
0 0 0 0 0 0 0 0 0 
0 0 0 0 0 0 0 0 0 
0 0 0 0 0 0 0 0 0 
0 0 0 0 0 0 0 0 0 
0 0 0 0 0 0 0 0 0 
0 0 0 0 0 0 0 0 0 
0 0 0 0 0 0 0 0 0 
0 0 0 0 0 0 0 0 0 
0 0 0 0 0 0 0 0 0 
0 0 0 0 0 0 0 0 0 
0 0 0 0 0 0 0 0 0 
0 0 0 0 0 0 0 0 0 
0 0 0 0 0 0 0 0 0 
0 0 0 0 0 0 0 0 0 
0 0 0 0 0 0 0 0 0 
0 0 0 0 0 0 0 0 0 
0 0 0 0 0 0 0 0 0 
0 0 0 0 0 0 0 0 0 
0 0 0 0 0 0 0 0 0 
0 0 0 0 0 0 0 0 0 
0 0 0 0 0 0 0 0 0 
0 0 0 0 0 0 0 0 0 
0 0 0 0 0 0 0 0 0 
0 0 0 0 0 0 0 0 0 
0 0 0 0 0 0 0 0 0 
0 0 0 0 0 0 0 0 0 
0 0 0 0 0 0 0 0 0 
0 0 0 0 0 0 0 0 0 
0 0 0 0 0 0 0 0 0 
0 0 0 0 0 0 0 0 0 
0 0 0 0 0 0 0 0 0 
0 0 0 0 0 0 0 0 0 
0 0 0 0 0 0 0 0 0 
0 0 0 0 0 0 0 0 0 
0 0 0 0 0 0 0 0 0 
0 0 0 0 0 0 0 0 0 
0 0 0 0 0 0 0 0 0 
0 0 0 0 0 0 0 0 0 
0 0 0 0 0 0 
v0 1 1049 double
3.5598 3.4418 3.7348 3.908 2.2246 3.5868 2.7598 3.1534 3.7604 
2.9072 2.7868 2.2234 2.087 3.8026 3.447 3.1552 3.3932 3.5098 
3.7132 3.4192 3.3376 2.8894 0 0 0 0 0 
0 0 0 0 0 0 0 0 0 
0 0 0 0 0 2.798 0 0 0 
0 0 0 0 0 0 0 0 0 
0 0 0 0 0 0 0 0 0 
0 0 0 0 0 0 0 0 0 
0 0 0 0 0 0 0 0 0 
0 0 0 0 0 0 0 0 0 
0 0 0 0 0 0 0 0 0 
0 0 0 0 0 0 0 0 0 
0 0 0 0 0 0 0 0 0 
0 0 0 0 0 0 0 0 0 
0 0 0 0 0 0 0 0 0 
0 0 0 0 0 0 0 0 0 
0 0 0 0 0 0 0 0 0 
0 0 0 0 0 0 0 0 0 
0 0 0 0 0 0 0 0 0 
0 0 0 0 0 0 2.9348 3.9438 3.5394 
0 0 0 0 0 0 0 0 0 
0 0 0 0 0 0 0 0 0 
0 0 0 0 0 0 2.5562 3.5338 2.959 
0 0 0 0 0 0 0 0 0 
0 0 0 0 0 0 0 0 0 
0 0 0 0 0 0 0 0 0 
0 0 0 3.3968 3.7722 0 0 0 0 
0 0 0 0 0 0 0 0 0 
0 0 0 0 0 0 0 2.7364 0 
0 0 0 0 0 0 0 0 0 
2.5998 3.7956 0 0 0 0 0 0 0 
0 0 0 0 0 0 0 0 0 
0 0 0 0 2.105 3.6894 2.2178 0 0 
0 0 0 0 0 0 0 0 3.4142 
2.9892 3.6802 3.7004 3.7386 0 0 0 0 0 
0 0 0 0 0 0 0 0 0 
0 0 0 0 0 0 3.1134 3.2294 2.6972 
0 0 0 0 0 0 0 0 0 
0 3.6034 3.9802 0 0 0 0 0 0 
0 0 0 0 0 0 0 0 0 
0 0 0 0 0 2.5702 2.8228 0 0 
0 0 0 0 0 0 0 0 2.726 
0 0 0 0 0 0 0 0 0 
0 0 0 0 0 0 2.0424 0 0 
3.358 0 0 0 2.227 3.9752 2.3004 2.6856 0 
0 0 0 0 0 0 0 0 0 
3.4388 2.0272 3.7164 2.0254 2.9862 0 0 0 0 
0 0 0 0 0 0 2.5992 2.6016 0 
0 0 0 0 2.264 3.0734 0 0 0 
0 0 2.9518 2.5952 0 0 0 0 0 
0 0 0 0 0 3.2554 3.938 3.4416 0 
3.5126 0 0 0 3.3812 0 0 0 0 
0 0 0 0 2.2866 3.236 2.9892 0 0 
0 0 0 0 2.9256 0 0 0 0 
0 0 3.4754 0 0 0 0 0 0 
0 0 0 0 0 3.18 0 0 0 
0 0 0 0 2.1056 0 0 2.6138 0 
0 0 2.79 0 0 0 0 0 0 
0 0 0 0 0 2.0302 0 0 0 
0 0 0 0 0 0 0 0 0 
0 0 0 2.4594 0 0 0 3.5612 0 
0 0 0 0 0 3.8554 2.192 0 0 
0 0 0 3.8484 2.5666 0 3.2458 0 2.325 
3.4702 0 0 0 0 0 0 0 0 
0 0 2.5352 3.3948 2.8832 2.7916 2.5898 3.4072 3.219 
2.8338 3.991 0 0 0 0 0 0 0 
0 0 0 0 0 0 0 0 0 
0 0 0 0 0 0 0 0 0 
0 0 0 0 0 0 0 0 0 
0 0 0 0 0 0 0 0 0 
0 0 0 0 0 0 0 0 0 
0 0 0 0 0 0 0 0 0 
0 0 0 0 0 0 0 0 0 
0 0 0 0 0 0 0 0 0 
0 0 0 0 0 0 0 0 0 
0 0 0 0 0 0 0 0 0 
0 0 0 0 0 0 0 0 0 
0 0 0 0 0 0 0 0 0 
0 0 0 0 0 0 0 0 0 
0 0 0 0 0 0 0 0 0 
0 0 0 0 0 0 0 0 0 
0 0 0 0 0 0 0 0 0 
0 0 0 3.2878 0 0 0 0 0 
0 0 0 0 0 0 0 0 0 
0 0 0 0 0 0 0 0 0 
0 0 0 0 0 0 0 0 0 
0 0 0 3.053 3.1832 3.3678 2.9022 2.0104 0 
0 0 0 0 0 0 0 0 0 
0 0 0 0 0 0 0 0 0 
0 2.1126 2.0074 0 0 0 0 0 3.8268 
0 0 0 0 0 0 0 0 0 
0 0 0 0 0 0 0 0 0 
0 0 2.1262 2.2322 0 0 0 0 0 
2.6632 2.1178 2.4322 3.514 0 0 0 0 0 
0 0 0 0 0 0 0 0 0 
0 0 0 0 0 0 3.075 2.7532 3.2768 
2.5972 3.852 0 0 0 0 0 0 0 
0 0 0 0 0 0 0 0 0 
0 0 0 0 0 0 0 0 0 
0 0 0 0 0 0 0 0 0 
0 0 0 0 0 0 0 0 0 
0 0 0 0 0 0 0 0 0 
0 0 0 0 0 0 0 0 0 
0 0 0 0 0 0 0 0 0 
0 0 0 0 0 0 0 0 0 
0 0 0 0 0 0 0 0 0 
0 0 0 0 0 0 0 0 0 
0 0 0 0 0 0 0 0 0 
0 0 0 0 0 0 0 0 0 
0 0 0 0 0 0 0 0 0 
0 0 0 0 0 0 0 0 0 
0 0 0 0 0 0 0 0 0 
0 0 0 0 0 0 0 0 0 
0 0 0 0 0 0 0 0 0 
0 0 0 0 0 0 0 0 0 
0 0 0 0 0 0 0 0 0 
0 0 0 0 0 
tau 1 1049 double
2 2 2 2 2 2 2 2 2 
2 2 2 2 2 2 2 2 2 
2 2 2 2 2 2 2 2 2 
2 2 2 2 2 2 2 2 2 
2 2 2 2 2 2 2 2 2 
2 2 2 2 2 2 2 2 2 
2 2 2 2 2 2 2 2 2 
2 2 2 2 2 2 2 2 2 
2 2 2 2 2 2 2 2 2 
2 2 2 2 2 2 2 2 2 
2 2 2 2 2 2 2 2 2 
2 2 2 2 2 2 2 2 2 
2 2 2 2 2 2 2 2 2 
2 2 2 2 2 2 2 2 2 
2 2 2 2 2 2 2 2 2 
2 2 2 2 2 2 2 2 2 
2 2 2 2 2 2 2 2 2 
2 2 2 2 2 2 2 2 2 
2 2 2 2 2 2 2 2 2 
2 2 2 2 2 2 2 2 2 
2 2 2 2 2 2 2 2 2 
2 2 2 2 2 2 2 2 2 
2 2 2 2 2 2 2 2 2 
2 2 2 2 2 2 2 2 2 
2 2 2 2 2 2 2 2 2 
2 2 2 2 2 2 2 2 2 
2 2 2 2 2 2 2 2 2 
2 2 2 2 2 2 2 2 2 
2 2 2 2 2 2 2 2 2 
2 2 2 2 2 2 2 2 2 
2 2 2 2 2 2 2 2 2 
2 2 2 2 2 2 2 2 2 
2 2 2 2 2 2 2 2 2 
2 2 2 2 2 2 2 2 2 
2 2 2 2 2 2 2 2 2 
2 2 2 2 2 2 2 2 2 
2 2 2 2 2 2 2 2 2 
2 2 2 2 2 2 2 2 2 
2 2 2 2 2 2 2 2 2 
2 2 2 2 2 2 2 2 2 
2 2 2 2 2 2 2 2 2 
2 2 2 2 2 2 2 2 2 
2 2 2 2 2 2 2 2 2 
2 2 2 2 2 2 2 2 2 
2 2 2 2 2 2 2 2 2 
2 2 2 2 2 2 2 2 2 
2 2 2 2 2 2 2 2 2 
2 2 2 2 2 2 2 2 2 
2 2 2 2 2 2 2 2 2 
2 2 2 2 2 2 2 2 2 
2 2 2 2 2 2 2 2 2 
2 2 2 2 2 2 2 2 2 
2 2 2 2 2 2 2 2 2 
2 2 2 2 2 2 2 2 2 
2 2 2 2 2 2 2 2 2 
2 2 2 2 2 2 2 2 2 
2 2 2 2 2 2 2 2 2 
2 2 2 2 2 2 2 2 2 
2 2 2 2 2 2 2 2 2 
2 2 2 2 2 2 2 2 2 
2 2 2 2 2 2 2 2 2 
2 2 2 2 2 2 2 2 2 
2 2 2 2 2 2 2 2 2 
2 2 2 2 2 2 2 2 2 
2 2 2 2 2 2 2 2 2 
2 2 2 2 2 2 2 2 2 
2 2 2 2 2 2 2 2 2 
2 2 2 2 2 2 2 2 2 
2 2 2 2 2 2 2 2 2 
2 2 2 2 2 2 2 2 2 
2 2 2 2 2 2 2 2 2 
2 2 2 2 2 2 2 2 2 
2 2 2 2 2 2 2 2 2 
2 2 2 2 2 2 2 2 2 
2 2 2 2 2 2 2 2 2 
2 2 2 2 2 2 2 2 2 
2 2 2 2 2 2 2 2 2 
2 2 2 2 2 2 2 2 2 
2 2 2 2 2 2 2 2 2 
2 2 2 2 2 2 2 2 2 
2 2 2 2 2 2 2 2 2 
2 2 2 2 2 2 2 2 2 
2 2 2 2 2 2 2 2 2 
2 2 2 2 2 2 2 2 2 
2 2 2 2 2 2 2 2 2 
2 2 2 2 2 2 2 2 2 
2 2 2 2 2 2 2 2 2 
2 2 2 2 2 2 2 2 2 
2 2 2 2 2 2 2 2 2 
2 2 2 2 2 2 2 2 2 
2 2 2 2 2 2 2 2 2 
2 2 2 2 2 2 2 2 2 
2 2 2 2 2 2 2 2 2 
2 2 2 2 2 2 2 2 2 
2 2 2 2 2 2 2 2 2 
2 2 2 2 2 2 2 2 2 
2 2 2 2 2 2 2 2 2 
2 2 2 2 2 2 2 2 2 
2 2 2 2 2 2 2 2 2 
2 2 2 2 2 2 2 2 2 
2 2 2 2 2 2 2 2 2 
2 2 2 2 2 2 2 2 2 
2 2 2 2 2 2 2 2 2 
2 2 2 2 2 2 2 2 2 
2 2 2 2 2 2 2 2 2 
2 2 2 2 2 2 2 2 2 
2 2 2 2 2 2 2 2 2 
2 2 2 2 2 2 2 2 2 
2 2 2 2 2 2 2 2 2 
2 2 2 2 2 2 2 2 2 
2 2 2 2 2 2 2 2 2 
2 2 2 2 2 2 2 2 2 
2 2 2 2 2 2 2 2 2 
2 2 2 2 2 2 2 2 2 
2 2 2 2 2 2 2 2 2 
2 2 2 2 2 2 2 2 2 
2 2 2 2 2 
R 1 1049 double
0.33263 0.26351 0.30266 0.28195 0.30154 0.27325 0.33828 0.31931 0.27528 
0.28149 0.33184 0.31776 0.25657 0.31987 0.34851 0.34517 0.33777 0.33859 
0.34097 0.26298 0.33421 0.25774 0.1 0.1 0.1 0.1 0.1 
0.1 0.1 0.1 0.1 0.1 0.1 0.1 0.1 0.1 
0.1 0.1 0.1 0.1 0.1 0.2897 0.1 0.1 0.1 
0.1 0.1 0.1 0.1 0.1 0.1 0.1 0.1 0.1 
0.1 0.1 0.1 0.1 0.1 0.1 0.1 0.1 0.1 
0.1 0.1 0.1 0.1 0.1 0.1 0.1 0.1 0.1 
0.1 0.1 0.1 0.1 0.1 0.1 0.1 0.1 0.1 
0.1 0.1 0.1 0.1 0.1 0.1 0.1 0.1 0.1 
0.1 0.1 0.1 0.1 0.1 0.1 0.1 0.1 0.1 
0.1 0.1 0.1 0.1 0.1 0.1 0.1 0.1 0.1 
0.1 0.1 0.1 0.1 0.1 0.1 0.1 0.1 0.1 
0.1 0.1 0.1 0.1 0.1 0.1 0.1 0.1 0.1 
0.1 0.1 0.1 0.1 0.1 0.1 0.1 0.1 0.1 
0.1 0.1 0.1 0.1 0.1 0.1 0.1 0.1 0.1 
0.1 0.1 0.1 0.1 0.1 0.1 0.1 0.1 0.1 
0.1 0.1 0.1 0.1 0.1 0.1 0.1 0.1 0.1 
0.1 0.1 0.1 0.1 0.1 0.1 0.1 0.1 0.1 
0.1 0.1 0.1 0.1 0.1 0.1 0.32722 0.27641 0.33398 
0.1 0.1 0.1 0.1 0.1 0.1 0.1 0.1 0.1 
0.1 0.1 0.1 0.1 0.1 0.1 0.1 0.1 0.1 
0.1 0.1 0.1 0.1 0.1 0.1 0.32955 0.34126 0.33283 
0.1 0.1 0.1 0.1 0.1 0.1 0.1 0.1 0.1 
0.1 0.1 0.1 0.1 0.1 0.1 0.1 0.1 0.1 
0.1 0.1 0.1 0.1 0.1 0.1 0.1 0.1 0.1 
0.1 0.1 0.1 0.30352 0.33159 0.1 0.1 0.1 0.1 
0.1 0.1 0.1 0.1 0.1 0.1 0.1 0.1 0.1 
0.1 0.1 0.1 0.1 0.1 0.1 0.1 0.28662 0.1 
0.1 0.1 0.1 0.1 0.1 0.1 0.1 0.1 0.1 
0.25639 0.26783 0.1 0.1 0.1 0.1 0.1 0.1 0.1 
0.1 0.1 0.1 0.1 0.1 0.1 0.1 0.1 0.1 
0.1 0.1 0.1 0.1 0.27197 0.27491 0.2931 0.1 0.1 
0.1 0.1 0.1 0.1 0.1 0.1 0.1 0.1 0.28083 
0.2979 0.26354 0.25399 0.33566 0.1 0.1 0.1 0.1 0.1 
0.1 0.1 0.1 0.1 0.1 0.1 0.1 0.1 0.1 
0.1 0.1 0.1 0.1 0.1 0.1 0.2889 0.31582 0.30199 
0.1 0.1 0.1 0.1 0.1 0.1 0.1 0.1 0.1 
0.1 0.31815 0.25853 0.1 0.1 0.1 0.1 0.1 0.1 
0.1 0.1 0.1 0.1 0.1 0.1 0.1 0.1 0.1 
0.1 0.1 0.1 0.1 0.1 0.32278 0.26761 0.1 0.1 
0.1 0.1 0.1 0.1 0.1 0.1 0.1 0.1 0.34593 
0.1 0.1 0.1 0.1 0.1 0.1 0.1 0.1 0.1 
0.1 0.1 0.1 0.1 0.1 0.1 0.34368 0.1 0.1 
0.34015 0.1 0.1 0.1 0.31127 0.30856 0.25037 0.27972 0.1 
0.1 0.1 0.1 0.1 0.1 0.1 0.1 0.1 0.1 
0.32665 0.25099 0.26852 0.2591 0.33382 0.1 0.1 0.1 0.1 
0.1 0.1 0.1 0.1 0.1 0.1 0.29985 0.29552 0.1 
0.1 0.1 0.1 0.1 0.34334 0.27735 0.1 0.1 0.1 
0.1 0.1 0.30511 0.28827 0.1 0.1 0.1 0.1 0.1 
0.1 0.1 0.1 0.1 0.1 0.31087 0.34672 0.25308 0.1 
0.3159 0.1 0.1 0.1 0.25528 0.1 0.1 0.1 0.1 
0.1 0.1 0.1 0.1 0.30482 0.29693 0.32017 0.1 0.1 
0.1 0.1 0.1 0.1 0.28537 0.1 0.1 0.1 0.1 
0.1 0.1 0.33657 0.1 0.1 0.1 0.1 0.1 0.1 
0.1 0.1 0.1 0.1 0.1 0.32334 0.1 0.1 0.1 
0.1 0.1 0.1 0.1 0.25871 0.1 0.1 0.33762 0.1 
0.1 0.1 0.28428 0.1 0.1 0.1 0.1 0.1 0.1 
0.1 0.1 0.1 0.1 0.1 0.31506 0.1 0.1 0.1 
0.1 0.1 0.1 0.1 0.1 0.1 0.1 0.1 0.1 
0.1 0.1 0.1 0.27439 0.1 0.1 0.1 0.2957 0.1 
0.1 0.1 0.1 0.1 0.1 0.31217 0.31364 0.1 0.1 
0.1 0.1 0.1 0.27555 0.31651 0.1 0.28172 0.1 0.2685 
0.30421 0.1 0.1 0.1 0.1 0.1 0.1 0.1 0.1 
0.1 0.1 0.3 0.27957 0.26541 0.29225 0.26173 0.28069 0.30805 
0.25997 0.25928 0.1 0.1 0.1 0.1 0.1 0.1 0.1 
0.1 0.1 0.1 0.1 0.1 0.1 0.1 0.1 0.1 
0.1 0.1 0.1 0.1 0.1 0.1 0.1 0.1 0.1 
0.1 0.1 0.1 0.1 0.1 0.1 0.1 0.1 0.1 
0.1 0.1 0.1 0.1 0.1 0.1 0.1 0.1 0.1 
0.1 0.1 0.1 0.1 0.1 0.1 0.1 0.1 0.1 
0.1 0.1 0.1 0.1 0.1 0.1 0.1 0.1 0.1 
0.1 0.1 0.1 0.1 0.1 0.1 0.1 0.1 0.1 
0.1 0.1 0.1 0.1 0.1 0.1 0.1 0.1 0.1 
0.1 0.1 0.1 0.1 0.1 0.1 0.1 0.1 0.1 
0.1 0.1 0.1 0.1 0.1 0.1 0.1 0.1 0.1 
0.1 0.1 0.1 0.1 0.1 0.1 0.1 0.1 0.1 
0.1 0.1 0.1 0.1 0.1 0.1 0.1 0.1 0.1 
0.1 0.1 0.1 0.1 0.1 0.1 0.1 0.1 0.1 
0.1 0.1 0.1 0.1 0.1 0.1 0.1 0.1 0.1 
0.1 0.1 0.1 0.1 0.1 0.1 0.1 0.1 0.1 
0.1 0.1 0.1 0.1 0.1 0.1 0.1 0.1 0.1 
0.1 0.1 0.1 0.25888 0.1 0.1 0.1 0.1 0.1 
0.1 0.1 0.1 0.1 0.1 0.1 0.1 0.1 0.1 
0.1 0.1 0.1 0.1 0.1 0.1 0.1 0.1 0.1 
0.1 0.1 0.1 0.1 0.1 0.1 0.1 0.1 0.1 
0.1 0.1 0.1 0.2735 0.31621 0.27393 0.25008 0.32716 0.1 
0.1 0.1 0.1 0.1 0.1 0.1 0.1 0.1 0.1 
0.1 0.1 0.1 0.1 0.1 0.1 0.1 0.1 0.1 
0.1 0.33412 0.25952 0.1 0.1 0.1 0.1 0.1 0.27071 
0.1 0.1 0.1 0.1 0.1 0.1 0.1 0.1 0.1 
0.1 0.1 0.1 0.1 0.1 0.1 0.1 0.1 0.1 
0.1 0.1 0.33954 0.31445 0.1 0.1 0.1 0.1 0.1 
0.26888 0.3228 0.26269 0.33577 0.1 0.1 0.1 0.1 0.1 
0.1 0.1 0.1 0.1 0.1 0.1 0.1 0.1 0.1 
0.1 0.1 0.1 0.1 0.1 0.1 0.28437 0.33341 0.32361 
0.33976 0.3161 0.1 0.1 0.1 0.1 0.1 0.1 0.1 
0.1 0.1 0.1 0.1 0.1 0.1 0.1 0.1 0.1 
0.1 0.1 0.1 0.1 0.1 0.1 0.1 0.1 0.1 
0.1 0.1 0.1 0.1 0.1 0.1 0.1 0.1 0.1 
0.1 0.1 0.1 0.1 0.1 0.1 0.1 0.1 0.1 
0.1 0.1 0.1 0.1 0.1 0.1 0.1 0.1 0.1 
0.1 0.1 0.1 0.1 0.1 0.1 0.1 0.1 0.1 
0.1 0.1 0.1 0.1 0.1 0.1 0.1 0.1 0.1 
0.1 0.1 0.1 0.1 0.1 0.1 0.1 0.1 0.1 
0.1 0.1 0.1 0.1 0.1 0.1 0.1 0.1 0.1 
0.1 0.1 0.1 0.1 0.1 0.1 0.1 0.1 0.1 
0.1 0.1 0.1 0.1 0.1 0.1 0.1 0.1 0.1 
0.1 0.1 0.1 0.1 0.1 0.1 0.1 0.1 0.1 
0.1 0.1 0.1 0.1 0.1 0.1 0.1 0.1 0.1 
0.1 0.1 0.1 0.1 0.1 0.1 0.1 0.1 0.1 
0.1 0.1 0.1 0.1 0.1 0.1 0.1 0.1 0.1 
0.1 0.1 0.1 0.1 0.1 0.1 0.1 0.1 0.1 
0.1 0.1 0.1 0.1 0.1 0.1 0.1 0.1 0.1 
0.1 0.1 0.1 0.1 0.1 0.1 0.1 0.1 0.1 
0.1 0.1 0.1 0.1 0.1 0.1 0.1 0.1 0.1 
0.1 0.1 0.1 0.1 0.1 
a 3 1049 double
0 0 0 0 0 0 0 0 0 
0 0 0 0 0 0 0 0 0 
0 0 0 0 0 0 0 0 0 
0 0 0 0 0 0 0 0 0 
0 0 0 0 0 0 0 0 0 
0 0 0 0 0 0 0 0 0 
0 0 0 0 0 0 0 0 0 
0 0 0 0 0 0 0 0 0 
0 0 0 0 0 0 0 0 0 
0 0 0 0 0 0 0 0 0 
0 0 0 0 0 0 0 0 0 
0 0 0 0 0 0 0 0 0 
0 0 0 0 0 0 0 0 0 
0 0 0 0 0 0 0 0 0 
0 0 0 0 0 0 0 0 0 
0 0 0 0 0 0 0 0 0 
0 0 0 0 0 0 0 0 0 
0 0 0 0 0 0 0 0 0 
0 0 0 0 0 0 0 0 0 
0 0 0 0 0 0 0 0 0 
0 0 0 0 0 0 0 0 0 
0 0 0 0 0 0 0 0 0 
0 0 0 0 0 0 0 0 0 
0 0 0 0 0 0 0 0 0 
0 0 0 0 0 0 0 0 0 
0 0 0 0 0 0 0 0 0 
0 0 0 0 0 0 0 0 0 
0 0 0 0 0 0 0 0 0 
0 0 0 0 0 0 0 0 0 
0 0 0 0 0 0 0 0 0 
0 0 0 0 0 0 0 0 0 
0 0 0 0 0 0 0 0 0 
0 0 0 0 0 0 0 0 0 
0 0 0 0 0 0 0 0 0 
0 0 0 0 0 0 0 0 0 
0 0 0 0 0 0 0 0 0 
0 0 0 0 0 0 0 0 0 
0 0 0 0 0 0 0 0 0 
0 0 0 0 0 0 0 0 0 
0 0 0 0 0 0 0 0 0 
0 0 0 0 0 0 0 0 0 
0 0 0 0 0 0 0 0 0 
0 0 0 0 0 0 0 0 0 
0 0 0 0 0 0 0 0 0 
0 0 0 0 0 0 0 0 0 
0 0 0 0 0 0 0 0 0 
0 0 0 0 0 0 0 0 0 
0 0 0 0 0 0 0 0 0 
0 0 0 0 0 0 0 0 0 
0 0 0 0 0 0 0 0 0 
0 0 0 0 0 0 0 0 0 
0 0 0 0 0 0 0 0 0 
0 0 0 0 0 0 0 0 0 
0 0 0 0 0 0 0 0 0 
0 0 0 0 0 0 0 0 0 
0 0 0 0 0 0 0 0 0 
0 0 0 0 0 0 0 0 0 
0 0 0 0 0 0 0 0 0 
0 0 0 0 0 0 0 0 0 
0 0 0 0 0 0 0 0 0 
0 0 0 0 0 0 0 0 0 
0 0 0 0 0 0 0 0 0 
0 0 0 0 0 0 0 0 0 
0 0 0 0 0 0 0 0 0 
0 0 0 0 0 0 0 0 0 
0 0 0 0 0 0 0 0 0 
0 0 0 0 0 0 0 0 0 
0 0 0 0 0 0 0 0 0 
0 0 0 0 0 0 0 0 0 
0 0 0 0 0 0 0 0 0 
0 0 0 0 0 0 0 0 0 
0 0 0 0 0 0 0 0 0 
0 0 0 0 0 0 0 0 0 
0 0 0 0 0 0 0 0 0 
0 0 0 0 0 0 0 0 0 
0 0 0 0 0 0 0 0 0 
0 0 0 0 0 0 0 0 0 
0 0 0 0 0 0 0 0 0 
0 0 0 0 0 0 0 0 0 
0 0 0 0 0 0 0 0 0 
0 0 0 0 0 0 0 0 0 
0 0 0 0 0 0 0 0 0 
0 0 0 0 0 0 0 0 0 
0 0 0 0 0 0 0 0 0 
0 0 0 0 0 0 0 0 0 
0 0 0 0 0 0 0 0 0 
0 0 0 0 0 0 0 0 0 
0 0 0 0 0 0 0 0 0 
0 0 0 0 0 0 0 0 0 
0 0 0 0 0 0 0 0 0 
0 0 0 0 0 0 0 0 0 
0 0 0 0 0 0 0 0 0 
0 0 0 0 0 0 0 0 0 
0 0 0 0 0 0 0 0 0 
0 0 0 0 0 0 0 0 0 
0 0 0 0 0 0 0 0 0 
0 0 0 0 0 0 0 0 0 
0 0 0 0 0 0 0 0 0 
0 0 0 0 0 0 0 0 0 
0 0 0 0 0 0 0 0 0 
0 0 0 0 0 0 0 0 0 
0 0 0 0 0 0 0 0 0 
0 0 0 0 0 0 0 0 0 
0 0 0 0 0 0 0 0 0 
0 0 0 0 0 0 0 0 0 
0 0 0 0 0 0 0 0 0 
0 0 0 0 0 0 0 0 0 
0 0 0 0 0 0 0 0 0 
0 0 0 0 0 0 0 0 0 
0 0 0 0 0 0 0 0 0 
0 0 0 0 0 0 0 0 0 
0 0 0 0 0 0 0 0 0 
0 0 0 0 0 0 0 0 0 
0 0 0 0 0 0 0 0 0 
0 0 0 0 0 0 0 0 0 
0 0 0 0 0 0 0 0 0 
0 0 0 0 0 0 0 0 0 
0 0 0 0 0 0 0 0 0 
0 0 0 0 0 0 0 0 0 
0 0 0 0 0 0 0 0 0 
0 0 0 0 0 0 0 0 0 
0 0 0 0 0 0 0 0 0 
0 0 0 0 0 0 0 0 0 
0 0 0 0 0 0 0 0 0 
0 0 0 0 0 0 0 0 0 
0 0 0 0 0 0 0 0 0 
0 0 0 0 0 0 0 0 0 
0 0 0 0 0 0 0 0 0 
0 0 0 0 0 0 0 0 0 
0 0 0 0 0 0 0 0 0 
0 0 0 0 0 0 0 0 0 
0 0 0 0 0 0 0 0 0 
0 0 0 0 0 0 0 0 0 
0 0 0 0 0 0 0 0 0 
0 0 0 0 0 0 0 0 0 
0 0 0 0 0 0 0 0 0 
0 0 0 0 0 0 0 0 0 
0 0 0 0 0 0 0 0 0 
0 0 0 0 0 0 0 0 0 
0 0 0 0 0 0 0 0 0 
0 0 0 0 0 0 0 0 0 
0 0 0 0 0 0 0 0 0 
0 0 0 0 0 0 0 0 0 
0 0 0 0 0 0 0 0 0 
0 0 0 0 0 0 0 0 0 
0 0 0 0 0 0 0 0 0 
0 0 0 0 0 0 0 0 0 
0 0 0 0 0 0 0 0 0 
0 0 0 0 0 0 0 0 0 
0 0 0 0 0 0 0 0 0 
0 0 0 0 0 0 0 0 0 
0 0 0 0 0 0 0 0 0 
0 0 0 0 0 0 0 0 0 
0 0 0 0 0 0 0 0 0 
0 0 0 0 0 0 0 0 0 
0 0 0 0 0 0 0 0 0 
0 0 0 0 0 0 0 0 0 
0 0 0 0 0 0 0 0 0 
0 0 0 0 0 0 0 0 0 
0 0 0 0 0 0 0 0 0 
0 0 0 0 0 0 0 0 0 
0 0 0 0 0 0 0 0 0 
0 0 0 0 0 0 0 0 0 
0 0 0 0 0 0 0 0 0 
0 0 0 0 0 0 0 0 0 
0 0 0 0 0 0 0 0 0 
0 0 0 0 0 0 0 0 0 
0 0 0 0 0 0 0 0 0 
0 0 0 0 0 0 0 0 0 
0 0 0 0 0 0 0 0 0 
0 0 0 0 0 0 0 0 0 
0 0 0 0 0 0 0 0 0 
0 0 0 0 0 0 0 0 0 
0 0 0 0 0 0 0 0 0 
0 0 0 0 0 0 0 0 0 
0 0 0 0 0 0 0 0 0 
0 0 0 0 0 0 0 0 0 
0 0 0 0 0 0 0 0 0 
0 0 0 0 0 0 0 0 0 
0 0 0 0 0 0 0 0 0 
0 0 0 0 0 0 0 0 0 
0 0 0 0 0 0 0 0 0 
0 0 0 0 0 0 0 0 0 
0 0 0 0 0 0 0 0 0 
0 0 0 0 0 0 0 0 0 
0 0 0 0 0 0 0 0 0 
0 0 0 0 0 0 0 0 0 
0 0 0 0 0 0 0 0 0 
0 0 0 0 0 0 0 0 0 
0 0 0 0 0 0 0 0 0 
0 0 0 0 0 0 0 0 0 
0 0 0 0 0 0 0 0 0 
0 0 0 0 0 0 0 0 0 
0 0 0 0 0 0 0 0 0 
0 0 0 0 0 0 0 0 0 
0 0 0 0 0 0 0 0 0 
0 0 0 0 0 0 0 0 0 
0 0 0 0 0 0 0 0 0 
0 0 0 0 0 0 0 0 0 
0 0 0 0 0 0 0 0 0 
0 0 0 0 0 0 0 0 0 
0 0 0 0 0 0 0 0 0 
0 0 0 0 0 0 0 0 0 
0 0 0 0 0 0 0 0 0 
0 0 0 0 0 0 0 0 0 
0 0 0 0 0 0 0 0 0 
0 0 0 0 0 0 0 0 0 
0 0 0 0 0 0 0 0 0 
0 0 0 0 0 0 0 0 0 
0 0 0 0 0 0 0 0 0 
0 0 0 0 0 0 0 0 0 
0 0 0 0 0 0 0 0 0 
0 0 0 0 0 0 0 0 0 
0 0 0 0 0 0 0 0 0 
0 0 0 0 0 0 0 0 0 
0 0 0 0 0 0 0 0 0 
0 0 0 0 0 0 0 0 0 
0 0 0 0 0 0 0 0 0 
0 0 0 0 0 0 0 0 0 
0 0 0 0 0 0 0 0 0 
0 0 0 0 0 0 0 0 0 
0 0 0 0 0 0 0 0 0 
0 0 0 0 0 0 0 0 0 
0 0 0 0 0 0 0 0 0 
0 0 0 0 0 0 0 0 0 
0 0 0 0 0 0 0 0 0 
0 0 0 0 0 0 0 0 0 
0 0 0 0 0 0 0 0 0 
0 0 0 0 0 0 0 0 0 
0 0 0 0 0 0 0 0 0 
0 0 0 0 0 0 0 0 0 
0 0 0 0 0 0 0 0 0 
0 0 0 0 0 0 0 0 0 
0 0 0 0 0 0 0 0 0 
0 0 0 0 0 0 0 0 0 
0 0 0 0 0 0 0 0 0 
0 0 0 0 0 0 0 0 0 
0 0 0 0 0 0 0 0 0 
0 0 0 0 0 0 0 0 0 
0 0 0 0 0 0 0 0 0 
0 0 0 0 0 0 0 0 0 
0 0 0 0 0 0 0 0 0 
0 0 0 0 0 0 0 0 0 
0 0 0 0 0 0 0 0 0 
0 0 0 0 0 0 0 0 0 
0 0 0 0 0 0 0 0 0 
0 0 0 0 0 0 0 0 0 
0 0 0 0 0 0 0 0 0 
0 0 0 0 0 0 0 0 0 
0 0 0 0 0 0 0 0 0 
0 0 0 0 0 0 0 0 0 
0 0 0 0 0 0 0 0 0 
0 0 0 0 0 0 0 0 0 
0 0 0 0 0 0 0 0 0 
0 0 0 0 0 0 0 0 0 
0 0 0 0 0 0 0 0 0 
0 0 0 0 0 0 0 0 0 
0 0 0 0 0 0 0 0 0 
0 0 0 0 0 0 0 0 0 
0 0 0 0 0 0 0 0 0 
0 0 0 0 0 0 0 0 0 
0 0 0 0 0 0 0 0 0 
0 0 0 0 0 0 0 0 0 
0 0 0 0 0 0 0 0 0 
0 0 0 0 0 0 0 0 0 
0 0 0 0 0 0 0 0 0 
0 0 0 0 0 0 0 0 0 
0 0 0 0 0 0 0 0 0 
0 0 0 0 0 0 0 0 0 
0 0 0 0 0 0 0 0 0 
0 0 0 0 0 0 0 0 0 
0 0 0 0 0 0 0 0 0 
0 0 0 0 0 0 0 0 0 
0 0 0 0 0 0 0 0 0 
0 0 0 0 0 0 0 0 0 
0 0 0 0 0 0 0 0 0 
0 0 0 0 0 0 0 0 0 
0 0 0 0 0 0 0 0 0 
0 0 0 0 0 0 0 0 0 
0 0 0 0 0 0 0 0 0 
0 0 0 0 0 0 0 0 0 
0 0 0 0 0 0 0 0 0 
0 0 0 0 0 0 0 0 0 
0 0 0 0 0 0 0 0 0 
0 0 0 0 0 0 0 0 0 
0 0 0 0 0 0 0 0 0 
0 0 0 0 0 0 0 0 0 
0 0 0 0 0 0 0 0 0 
0 0 0 0 0 0 0 0 0 
0 0 0 0 0 0 0 0 0 
0 0 0 0 0 0 0 0 0 
0 0 0 0 0 0 0 0 0 
0 0 0 0 0 0 0 0 0 
0 0 0 0 0 0 0 0 0 
0 0 0 0 0 0 0 0 0 
0 0 0 0 0 0 0 0 0 
0 0 0 0 0 0 0 0 0 
0 0 0 0 0 0 0 0 0 
0 0 0 0 0 0 0 0 0 
0 0 0 0 0 0 0 0 0 
0 0 0 0 0 0 0 0 0 
0 0 0 0 0 0 0 0 0 
0 0 0 0 0 0 0 0 0 
0 0 0 0 0 0 0 0 0 
0 0 0 0 0 0 0 0 0 
0 0 0 0 0 0 0 0 0 
0 0 0 0 0 0 0 0 0 
0 0 0 0 0 0 0 0 0 
0 0 0 0 0 0 0 0 0 
0 0 0 0 0 0 0 0 0 
0 0 0 0 0 0 0 0 0 
0 0 0 0 0 0 0 0 0 
0 0 0 0 0 0 0 0 0 
0 0 0 0 0 0 0 0 0 
0 0 0 0 0 0 0 0 0 
0 0 0 0 0 0 0 0 0 
0 0 0 0 0 0 0 0 0 
0 0 0 0 0 0 0 0 0 
0 0 0 0 0 0 0 0 0 
0 0 0 0 0 0 0 0 0 
0 0 0 0 0 0 0 0 0 
0 0 0 0 0 0 0 0 0 
0 0 0 0 0 0 0 0 0 
0 0 0 0 0 0 0 0 0 
0 0 0 0 0 0 0 0 0 
0 0 0 0 0 0 0 0 0 
0 0 0 0 0 0 0 0 0 
0 0 0 0 0 0 0 0 0 
0 0 0 0 0 0 0 0 0 
0 0 0 0 0 0 0 0 0 
0 0 0 0 0 0 0 0 0 
0 0 0 0 0 0 0 0 0 
0 0 0 0 0 0 0 0 0 
0 0 0 0 0 0 0 0 0 
0 0 0 0 0 0 0 0 0 
0 0 0 0 0 0 0 0 0 
0 0 0 0 0 0 0 0 0 
0 0 0 0 0 0 0 0 0 
0 0 0 0 0 0 0 0 0 
0 0 0 0 0 0 0 0 0 
0 0 0 0 0 0 0 0 0 
0 0 0 0 0 0 0 0 0 
0 0 0 0 0 0 0 0 0 
0 0 0 0 0 0 0 0 0 
0 0 0 0 0 0 0 0 0 
0 0 0 0 0 0 0 0 0 
0 0 0 0 0 0 0 0 0 
0 0 0 0 0 0 0 0 0 
0 0 0 0 0 0 0 0 0 
0 0 0 0 0 0 
v 3 1049 double
-0.919311 -0.750258 0 0.950773 -0.744586 0 0.950044 -0.797936 0 
0.979857 -0.783973 0 -0.574971 -0.629654 0 0.892279 -0.735618 0 
0.750602 -0.589487 0 -0.916953 -0.64379 0 -0.879301 -0.671434 0 
-0.759222 -0.622524 0 -0.730213 -0.618681 0 0.631786 -0.68282 0 
0.563786 -0.427308 0 -0.927853 -0.772837 0 -0.957128 -0.704768 0 
0.808459 -0.661229 0 0.837068 -0.705028 0 0.90481 -0.581883 0 
-0.916009 -0.753878 0 -0.861468 -0.704333 0 0.702542 -0.90667 0 
0.808715 -0.909323 0 0 0 0 0 0 0 
0 0 0 0 0 0 0 0 0 
0 0 0 0 0 0 0 0 0 
0 0 0 0 0 0 0 0 0 
0 0 0 0 0 0 0 0 0 
0 0 0 0 0 0 0 0 0 
0 0 0 0 0 0 -0.334167 -0.643252 0 
0 0 0 0 0 0 0 0 0 
0 0 0 0 0 0 0 0 0 
0 0 0 0 0 0 0 0 0 
0 0 0 0 0 0 0 0 0 
0 0 0 0 0 0 0 0 0 
0 0 0 0 0 0 0 0 0 
0 0 0 0 0 0 0 0 0 
0 0 0 0 0 0 0 0 0 
0 0 0 0 0 0 0 0 0 
0 0 0 0 0 0 0 0 0 
0 0 0 0 0 0 0 0 0 
0 0 0 0 0 0 0 0 0 
0 0 0 0 0 0 0 0 0 
0 0 0 0 0 0 0 0 0 
0 0 0 0 0 0 0 0 0 
0 0 0 0 0 0 0 0 0 
0 0 0 0 0 0 0 0 0 
0 0 0 0 0 0 0 0 0 
0 0 0 0 0 0 0 0 0 
0 0 0 0 0 0 0 0 0 
0 0 0 0 0 0 0 0 0 
0 0 0 0 0 0 0 0 0 
0 0 0 0 0 0 0 0 0 
0 0 0 0 0 0 0 0 0 
0 0 0 0 0 0 0 0 0 
0 0 0 0 0 0 0 0 0 
0 0 0 0 0 0 0 0 0 
0 0 0 0 0 0 0 0 0 
0 0 0 0 0 0 0 0 0 
0 0 0 0 0 0 0 0 0 
0 0 0 0 0 0 0 0 0 
0 0 0 0 0 0 0 0 0 
0 0 0 0 0 0 0 0 0 
0 0 0 0 0 0 0 0 0 
0 0 0 0 0 0 0 0 0 
0 0 0 0 0 0 0 0 0 
0 0 0 0 0 0 0 0 0 
0 0 0 0 0 0 0 0 0 
0 0 0 0 0 0 0 0 0 
0 0 0 0 0 0 0 0 0 
0 0 0 0 0 0 0 0 0 
0 0 0 0 0 0 0 0 0 
0 0 0 0 0 0 0 0 0 
0 0 0 0 0 0 0 0 0 
0 0 0 0 0 0 0 0 0 
0.267167 -0.689778 0 0.246694 -1.15605 0 -0.309068 -1.22555 0 
0 0 0 0 0 0 0 0 0 
0 0 0 0 0 0 0 0 0 
0 0 0 0 0 0 0 0 0 
0 0 0 0 0 0 0 0 0 
0 0 0 0 0 0 0 0 0 
0 0 0 0 0 0 0 0 0 
0 0 0 0 0 0 0 0 0 
0 0 0 0 0 0 0 0 0 
-0.0618542 -0.715717 0 -0.290565 -1.10509 0 -0.345728 -0.8609 0 
0 0 0 0 0 0 0 0 0 
0 0 0 0 0 0 0 0 0 
0 0 0 0 0 0 0 0 0 
0 0 0 0 0 0 0 0 0 
0 0 0 0 0 0 0 0 0 
0 0 0 0 0 0 0 0 0 
0 0 0 0 0 0 0 0 0 
0 0 0 0 0 0 0 0 0 
0 0 0 0 0 0 0 0 0 
0 0 0 0 0 0 0 0 0 
0.138633 -1.07898 0 -0.361678 -1.12303 0 0 0 0 
0 0 0 0 0 0 0 0 0 
0 0 0 0 0 0 0 0 0 
0 0 0 0 0 0 0 0 0 
0 0 0 0 0 0 0 0 0 
0 0 0 0 0 0 0 0 0 
0 0 0 0 0 0 0 0 0 
0 0 0 0.259232 -0.885839 0 0 0 0 
0 0 0 0 0 0 0 0 0 
0 0 0 0 0 0 0 0 0 
0 0 0 0 0 0 0 0 0 
0.118951 -0.99156 0 -0.356036 -1.1761 0 0 0 0 
0 0 0 0 0 0 0 0 0 
0 0 0 0 0 0 0 0 0 
0 0 0 0 0 0 0 0 0 
0 0 0 0 0 0 0 0 0 
0 0 0 0 0 0 0 0 0 
0 0 0 0 0 0 0 0 0 
0 0 0 0.26867 -0.903848 0 -0.199003 -0.966363 0 
-0.0917392 -0.949219 0 0 0 0 0 0 0 
0 0 0 0 0 0 0 0 0 
0 0 0 0 0 0 0 0 0 
0 0 0 0 0 0 0.159102 -1.09513 0 
0.210635 -1.07074 0 0.168983 -1.08103 0 -0.366743 -1.20418 0 
-0.365791 -1.20334 0 0 0 0 0 0 0 
0 0 0 0 0 0 0 0 0 
0 0 0 0 0 0 0 0 0 
0 0 0 0 0 0 0 0 0 
0 0 0 0 0 0 0 0 0 
0 0 0 0 0 0 0 0 0 
0 0 0 0 0 0 0 0 0 
0.280187 -0.90973 0 0.251104 -0.908618 0 0.247725 -0.878218 0 
0 0 0 0 0 0 0 0 0 
0 0 0 0 0 0 0 0 0 
0 0 0 0 0 0 0 0 0 
0 0 0 0.164156 -1.13101 0 -0.368621 -1.20877 0 
0 0 0 0 0 0 0 0 0 
0 0 0 0 0 0 0 0 0 
0 0 0 0 0 0 0 0 0 
0 0 0 0 0 0 0 0 0 
0 0 0 0 0 0 0 0 0 
0 0 0 0 0 0 0 0 0 
0 0 0 0 0 0 0.250018 -0.861684 0 
-0.14425 -0.958425 0 0 0 0 0 0 0 
0 0 0 0 0 0 0 0 0 
0 0 0 0 0 0 0 0 0 
0 0 0 0 0 0 -0.273719 -0.961181 0 
0 0 0 0 0 0 0 0 0 
0 0 0 0 0 0 0 0 0 
0 0 0 0 0 0 0 0 0 
0 0 0 0 0 0 0 0 0 
0 0 0 0 0 0 0 0 0 
-0.194381 0.652461 0 0 0 0 0 0 0 
0.274244 -1.0884 0 0 0 0 0 0 0 
0 0 0 0.290125 -0.709669 0 -0.187158 -1.31058 0 
-0.171722 -0.74345 0 -0.116414 -0.862359 0 0 0 0 
0 0 0 0 0 0 0 0 0 
0 0 0 0 0 0 0 0 0 
0 0 0 0 0 0 0 0 0 
0.123596 -1.1228 0 0.192681 -0.68381 0 -0.371145 -1.22028 0 
-0.233133 -0.627198 0 -0.354134 -0.999848 0 0 0 0 
0 0 0 0 0 0 0 0 0 
0 0 0 0 0 0 0 0 0 
0 0 0 0 0 0 0 0 0 
0.134745 0.482797 0 0.0752459 0.510364 0 0 0 0 
0 0 0 0 0 0 0 0 0 
0 0 0 0.141129 0.705376 0 0.32985 -0.983594 0 
0 0 0 0 0 0 0 0 0 
0 0 0 0 0 0 0.418973 -0.934007 0 
-0.137953 -0.946679 0 0 0 0 0 0 0 
0 0 0 0 0 0 0 0 0 
0 0 0 0 0 0 0 0 0 
0 0 0 0 0 0 -0.573693 -1.0077 0 
-0.674117 -0.855108 0 -0.453115 -1.0114 0 0 0 0 
-0.741666 0.020945 0 0 0 0 0 0 0 
0 0 0 -0.794951 0.0568752 0 0 0 0 
0 0 0 0 0 0 0 0 0 
0 0 0 0 0 0 0 0 0 
0 0 0 -0.904007 -0.0215344 0 -0.841005 0.242046 0 
-0.721407 0.587056 0 0 0 0 0 0 0 
0 0 0 0 0 0 0 0 0 
0 0 0 -1.01464 0.0391677 0 0 0 0 
0 0 0 0 0 0 0 0 0 
0 0 0 0 0 0 -1.12889 0.0584674 0 
0 0 0 0 0 0 0 0 0 
0 0 0 0 0 0 0 0 0 
0 0 0 0 0 0 0 0 0 
0 0 0 0 0 0 -1.05974 0.0944681 0 
0 0 0 0 0 0 0 0 0 
0 0 0 0 0 0 0 0 0 
0 0 0 -0.667754 0.348686 0 0 0 0 
0 0 0 0.721081 0.34411 0 0 0 0 
0 0 0 0 0 0 0.921589 0.22104 0 
0 0 0 0 0 0 0 0 0 
0 0 0 0 0 0 0 0 0 
0 0 0 0 0 0 0 0 0 
0 0 0 0 0 0 0.676177 0.0480137 0 
0 0 0 0 0 0 0 0 0 
0 0 0 0 0 0 0 0 0 
0 0 0 0 0 0 0 0 0 
0 0 0 0 0 0 0 0 0 
0 0 0 0 0 0 0 0 0 
0.767394 0.406171 0 0 0 0 0 0 0 
0 0 0 0.937847 0.127922 0 0 0 0 
0 0 0 0 0 0 0 0 0 
0 0 0 0 0 0 0.861485 0.126571 0 
0.374617 -0.19267 0 0 0 0 0 0 0 
0 0 0 0 0 0 0 0 0 
0.643193 -0.544712 0 0.606373 -0.821125 0 0 0 0 
0.519638 -0.868544 0 0 0 0 -0.145886 -0.945073 0 
-0.164361 -0.944935 0 0 0 0 0 0 0 
0 0 0 0 0 0 0 0 0 
0 0 0 0 0 0 0 0 0 
0 0 0 0 0 0 -0.863225 -0.0733523 0 
-0.805711 -0.0756657 0 -0.790664 0.0397577 0 -0.771369 -0.0519096 0 
-0.762883 -0.361211 0 0.887954 0.136275 0 0.858285 0.16753 0 
1.11504 -0.149846 0 -0.179906 -1.33289 0 0 0 0 
0 0 0 0 0 0 0 0 0 
0 0 0 0 0 0 0 0 0 
0 0 0 0 0 0 0 0 0 
0 0 0 0 0 0 0 0 0 
0 0 0 0 0 0 0 0 0 
0 0 0 0 0 0 0 0 0 
0 0 0 0 0 0 0 0 0 
0 0 0 0 0 0 0 0 0 
0 0 0 0 0 0 0 0 0 
0 0 0 0 0 0 0 0 0 
0 0 0 0 0 0 0 0 0 
0 0 0 0 0 0 0 0 0 
0 0 0 0 0 0 0 0 0 
0 0 0 0 0 0 0 0 0 
0 0 0 0 0 0 0 0 0 
0 0 0 0 0 0 0 0 0 
0 0 0 0 0 0 0 0 0 
0 0 0 0 0 0 0 0 0 
0 0 0 0 0 0 0 0 0 
0 0 0 0 0 0 0 0 0 
0 0 0 0 0 0 0 0 0 
0 0 0 0 0 0 0 0 0 
0 0 0 0 0 0 0 0 0 
0 0 0 0 0 0 0 0 0 
0 0 0 0 0 0 0 0 0 
0 0 0 0 0 0 0 0 0 
0 0 0 0 0 0 0 0 0 
0 0 0 0 0 0 0 0 0 
0 0 0 0 0 0 0 0 0 
0 0 0 0 0 0 0 0 0 
0 0 0 0 0 0 0 0 0 
0 0 0 0 0 0 0 0 0 
0 0 0 0 0 0 0 0 0 
0 0 0 0 0 0 0 0 0 
0 0 0 0 0 0 0 0 0 
0 0 0 0 0 0 0 0 0 
0 0 0 0 0 0 0 0 0 
0 0 0 0 0 0 0 0 0 
0 0 0 0 0 0 0 0 0 
0 0 0 0 0 0 0 0 0 
0 0 0 0 0 0 0 0 0 
0 0 0 0 0 0 0 0 0 
0 0 0 0 0 0 0 0 0 
0 0 0 0 0 0 0 0 0 
0 0 0 0 0 0 0 0 0 
0 0 0 0 0 0 0 0 0 
0 0 0 0 0 0 0 0 0 
0 0 0 0 0 0 0 0 0 
0 0 0 0 0 0 0 0 0 
0 0 0 0 0 0 0 0 0 
0 0 0 0 0 0 0 0 0 
0.829867 -0.671713 0 0 0 0 0 0 0 
0 0 0 0 0 0 0 0 0 
0 0 0 0 0 0 0 0 0 
0 0 0 0 0 0 0 0 0 
0 0 0 0 0 0 0 0 0 
0 0 0 0 0 0 0 0 0 
0 0 0 0 0 0 0 0 0 
0 0 0 0 0 0 0 0 0 
0 0 0 0 0 0 0 0 0 
0 0 0 0 0 0 0 0 0 
0 0 0 0 0 0 0 0 0 
0 0 0 0 0 0 0 0 0 
0.700282 -0.731325 0 0.669988 -0.785503 0 0.633212 -0.771427 0 
0.687273 -0.568203 0 0.574059 -0.554681 0 0 0 0 
0 0 0 0 0 0 0 0 0 
0 0 0 0 0 0 0 0 0 
0 0 0 0 0 0 0 0 0 
0 0 0 0 0 0 0 0 0 
0 0 0 0 0 0 0 0 0 
0 0 0 0 0 0 0 0 0 
0 0 0 0.646332 0.231897 0 0.649646 0.255807 0 
0 0 0 0 0 0 0 0 0 
0 0 0 0 0 0 0.7998 -0.818221 0 
0 0 0 0 0 0 0 0 0 
0 0 0 0 0 0 0 0 0 
0 0 0 0 0 0 0 0 0 
0 0 0 0 0 0 0 0 0 
0 0 0 0 0 0 0 0 0 
0 0 0 0 0 0 0 0 0 
0 0 0 0 0 0 0.635461 0.313835 0 
-0.0359919 -0.136816 0 0 0 0 0 0 0 
0 0 0 0 0 0 0 0 0 
0.829773 -0.708099 0 0.635899 -0.779182 0 0.658558 -0.554414 0 
0.708203 -0.780206 0 0 0 0 0 0 0 
0 0 0 0 0 0 0 0 0 
0 0 0 0 0 0 0 0 0 
0 0 0 0 0 0 0 0 0 
0 0 0 0 0 0 0 0 0 
0 0 0 0 0 0 0 0 0 
0 0 0 0 0 0 0 0 0 
0.902402 0.0187688 0 0.499385 0.192945 0 0.318415 0.110438 0 
0.745475 -0.679338 0 0.968994 -0.552006 0 0 0 0 
0 0 0 0 0 0 0 0 0 
0 0 0 0 0 0 0 0 0 
0 0 0 0 0 0 0 0 0 
0 0 0 0 0 0 0 0 0 
0 0 0 0 0 0 0 0 0 
0 0 0 0 0 0 0 0 0 
0 0 0 0 0 0 0 0 0 
0 0 0 0 0 0 0 0 0 
0 0 0 0 0 0 0 0 0 
0 0 0 0 0 0 0 0 0 
0 0 0 0 0 0 0 0 0 
0 0 0 0 0 0 0 0 0 
0 0 0 0 0 0 0 0 0 
0 0 0 0 0 0 0 0 0 
0 0 0 0 0 0 0 0 0 
0 0 0 0 0 0 0 0 0 
0 0 0 0 0 0 0 0 0 
0 0 0 0 0 0 0 0 0 
0 0 0 0 0 0 0 0 0 
0 0 0 0 0 0 0 0 0 
0 0 0 0 0 0 0 0 0 
0 0 0 0 0 0 0 0 0 
0 0 0 0 0 0 0 0 0 
0 0 0 0 0 0 0 0 0 
0 0 0 0 0 0 0 0 0 
0 0 0 0 0 0 0 0 0 
0 0 0 0 0 0 0 0 0 
0 0 0 0 0 0 0 0 0 
0 0 0 0 0 0 0 0 0 
0 0 0 0 0 0 0 0 0 
0 0 0 0 0 0 0 0 0 
0 0 0 0 0 0 0 0 0 
0 0 0 0 0 0 0 0 0 
0 0 0 0 0 0 0 0 0 
0 0 0 0 0 0 0 0 0 
0 0 0 0 0 0 0 0 0 
0 0 0 0 0 0 0 0 0 
0 0 0 0 0 0 0 0 0 
0 0 0 0 0 0 0 0 0 
0 0 0 0 0 0 0 0 0 
0 0 0 0 0 0 0 0 0 
0 0 0 0 0 0 0 0 0 
0 0 0 0 0 0 0 0 0 
0 0 0 0 0 0 0 0 0 
0 0 0 0 0 0 0 0 0 
0 0 0 0 0 0 0 0 0 
0 0 0 0 0 0 0 0 0 
0 0 0 0 0 0 0 0 0 
0 0 0 0 0 0 0 0 0 
0 0 0 0 0 0 0 0 0 
0 0 0 0 0 0 0 0 0 
0 0 0 0 0 0 0 0 0 
0 0 0 0 0 0 0 0 0 
0 0 0 0 0 0 0 0 0 
0 0 0 0 0 0 0 0 0 
0 0 0 0 0 0 0 0 0 
0 0 0 0 0 0 0 0 0 
0 0 0 0 0 0 0 0 0 
0 0 0 0 0 0 0 0 0 
0 0 0 0 0 0 0 0 0 
0 0 0 0 0 0 
x 1 1049 double
4.9089 -5.31635 -5.96481 -6.1906 7.43792 -8.84737 -8.13692 7.39489 7.78494 
8.40627 9.47595 -9.64887 -8.83882 8.40784 9.30322 -11.0669 -10.4616 -9.84735 
9.87356 10.54 -12.0093 -11.6175 -14.2857 -15 -14.4643 -15 -15 
-14.1071 -15 -14.8214 -15 -14.6429 -13.2143 -13.9286 -13.0357 -13.75 
-13.5714 -13.3929 -12.6786 -12.5 -12.8571 -11.8602 -11.1429 -11.5 -11.3214 
-10.0714 -10.9643 -10.4286 -10.25 -10.7857 -10.6071 -9.5357 -9.8929 -9.1786 
-9.7143 -9.3571 -9 -9 -8.6 -8.8 -9 -9 -8.4 
-8.2 -9 -8 -7.8 -7.6 -7.2 -7.4 -6.8 -7 
-6.6 -6.2 -6.4 -5.2 -5.6 -6 -5.4 -5.8 -4.4 
-4.6 -5 -4.8 -4.2 -3.8 -3.6 -3.4 -3.2 -4 
-3 -2.4 -2.8 -2.6 -3 -2.2 -3 -3 -3 
-1.2 -1.4 -2 -1.8 -1.6 -0.4 -1 -0.8 -0.2 
-0.6 -0 0.6 0.2 0.4 0.8 1.4 1.6 1 
1.2 1.8 2 2.2 2.6 2.4 2.8 3.8 3 
3 3 3.2 3.6 3 3 3.4 4.8 4.6 
4 4.4 4.2 5.4 5 5.6 5.2 5.8 6.4 
6.6 6 6.2 6.8 7.6 7.2 7.8 7.4 7 
8.8 8 8.6 8.4 8.2 9 9 9.7143 9.3571 
9 9.5357 9 9.8929 9.1786 9 10.6071 10.25 10.9643 
10.7857 10.4286 10.0714 11.3214 11.1429 11.5 11.5301 12.102 12.0082 
12.8571 12.5 12.6786 13.2143 13.5714 13.0357 13.75 13.3929 13.9286 
14.1071 14.2857 14.8214 14.4643 14.6429 15 15 15 15 
15 -15 -15 -15 -15 -15 -11.5629 -11.1986 -11.8434 
-9 -9 -9 -9 -9 -3 -3 -3 -3 
-3 3 3 3 3 3 9 9 9 
9 9 15 15 15 15 15 -15 -15 
-15 -15 -15 -12.3353 -11.3346 -9 -9 -9 -9 
-9 -3 -3 -3 -3 -3 3 3 3 
3 3 9 9 9 9 9 11.1993 15 
15 15 15 15 -15 -15 -15 -15 -15 
-12.7335 -11.0495 -9 -9 -9 -9 -9 -3 -3 
-3 -3 -3 3 3 3 3 3 9 
9 9 9 9 10.6922 12.516 12.6053 15 15 
15 15 15 -15 -15 -15 -15 -15 -13.0958 
-12.3796 -12.5089 -10.5523 -10.7786 -9 -9 -9 -9 -9 
-3 -3 -3 -3 -3 3 3 3 3 
3 9 9 9 9 9 10.6461 10.5398 11.2521 
15 15 15 15 15 -15 -15 -15 -15 
-15 -12.8818 -10.3408 -9 -9 -9 -9 -9 -3 
-3 -3 -3 -3 3 3 3 3 3 
9 9 9 9 9 10.2607 12.8461 15 15 
15 15 15 -15 -15 -15 -15 -15 -9.90935 
-9 -9 -9 -9 -9 -3 -3 -3 -3 
-3 3 3 3 3 3 6.39699 9 9 
9.85201 9 9 9 10.5002 12.9506 12.3939 13.5548 15 
15 15 15 15 -15 -15 -15 -15 -15 
-13.241 -12.6643 -10.1586 -10.6371 -9.5721 -9 -9 -9 -9 
-9 -3 -3 -3 -3 -3 -0.340665 0.202328 3 
3 3 3 3 5.99623 9.91045 9 9 9 
9 9 9.64211 13.3842 15 15 15 15 15 
-15 -15 -15 -15 -15 -9.92656 -9.29287 -9.54236 -8.1071 
-8.80585 -8.8214 -8.4643 -8.2857 -8.25864 -8.6429 -9 -7.75 -7.2143 
-7.0357 -7.5714 -7.3929 -7.9286 -7.62219 -7.0544 -6.32808 -6.5 -6.6786 
-6.8571 -5.5 -5.1429 -5.3214 -5.01443 -4.0714 -4.9643 -4.4286 -4.7857 
-4.25 -4.6071 -4.21945 -3.7143 -3.5357 -3.1786 -3.3571 -3.8929 -2.4643 
-2.1071 -2.2857 -2.8214 -2.6429 -3 -2.65524 -1.75 -1.9286 -1.2143 
-1.5714 -1.0357 -1.3929 -0.8571 -0.480903 -0.6786 -0.5 0.0906187 0.5 
0.6786 0.8571 0.997549 1.2143 1.9286 1.3929 1.75 1.5714 1.0357 
2.6429 2.4643 2.2857 2.8214 2.1071 3.06838 3.5357 3.1786 3.3571 
3 3.7143 3.8929 4.25 4.0714 4.7857 4.6071 4.9643 4.4286 
5.5 5.1429 5.3214 6.54394 6.8571 6.5 6.6786 7.45369 7.3929 
7.0357 7.2143 7.5714 7.9286 7.75 8.05144 8.67098 8.4643 8.1071 
8.2857 8.8214 8.6429 9.01192 9.5653 9 9.24942 9 13.3172 
13.3424 15 15 15 15 15 -15 -15 -15 
-15 -15 -9.0824 -8.51594 -7.98316 -7.44083 -6.64532 7.81255 8.37342 
8.71388 13.4739 15 15 15 15 15 -15 -15 
-14.6667 -15 -14.1667 -14.3333 -15 -14.5 -15 -14.8333 -14 
-12.8 -12.4 -13 -12.6 -12.2 -11.2 -12 -11.8 -11.4 
-11.6 -10.6 -10.4 -10.2 -11 -10.8 -9.8 -10 -9.4 
-9.6 -9.2 -8.1071 -9 -9 -9 -9 -8.4643 -8.8214 
-8.2857 -8.6429 -9 -7.0357 -7.3929 -7.5714 -7.2143 -7.9286 -7.75 
-6.8571 -6.6786 -6.5 -5.5 -5.1429 -5.3214 -4.25 -4.6071 -4.0714 
-4.9643 -4.7857 -4.4286 -3.7143 -3.3571 -3.8929 -3.5357 -3.1786 -3 
-3 -2.2 -3 -2.8 -3 -3 -2.4 -2.6 -1.6 
-1.4 -2 -1.8 -1.2 -0.4 -1 -0.6 -0.8 -0.2 
-0 0.6 0.4 0.8 0.2 1.8 1.4 1 1.6 
1.2 2.4 2.2 2.8 2.6 2 3.4 3.8 3.2 
3 3.6 4.6 4 4.2 4.8 4.4 5.2 5.6 
5.4 5 5.8 6.4 6.8 6.6 6.2 6 7.8 
7.4 7.6 7.2 7 8.8 8.2 8.6 8.4 8 
9.8 9.6 9 9 9.4 9 9 9 9.2 
10.6 10.8 10 10.2 10.4 11.4 11.2 11.6 11 
11.8 12.8 12 12.3538 12.2 12.6 12.4 13 14.5 
14.3333 14.8333 14.6667 14.1667 14 15 15 15 15 
15 -15 -15 -15 -15 -15 -9 -9 -9 
-9 -9 -3 -3 -3 -3 -3 9 9 
9 9 9 11.964 11.5352 12.1689 12.6694 12.6369 15 
15 15 15 15 -15 -15 -15 -15 -15 
-9 -9 -9 -9 -9 -3 -3 -3 -3 
-3 3.83448 4.69437 9 9 9 9 9 11.67 
15 15 15 15 15 -15 -15 -15 -15 
-15 -9 -9 -9 -9 -9 -3 -3 -3 
-3 -3 6.62206 8.63947 9 9 9 9 9 
9.71967 10.4934 10.733 10.15 15 15 15 15 15 
-15 -15 -15 -15 -15 -9 -9 -9 -9 
-9 -3 -3 -3 -3 -3 7.66569 8.13692 8.3739 
8.77978 9.27115 9 15 15 15 15 15 -15 
-15 -15 -15 -15 -9 -9 -9 -9 -9 
-3 -3 -3 -3 -3 9 9 9 9 
9 9 15 15 15 15 15 -14.6 -14.8 
-14.2 -15 -14.4 -13.2 -14 -13.4 -13.8 -13.6 -12.6 
-12.8 -13 -12.2 -12.4 -11.4 -11.2 -11.8 -11.6 -12 
-11 -10.6 -10.4 -10.2 -10.8 -9.8 -9.6 -9.4 -9.2 
-10 -8.2 -8.8 -8.6 -8.4 -9 -8 -7.8 -7.6 
-7.2 -7.4 -6.4 -7 -6.6 -6.2 -6.8 -5.6 -5.4 
-5.8 -5.2 -6 -4.8 -5 -4.6 -4.2 -4.4 -3.6 
-4 -3.2 -3.8 -3.4 -2.2 -2.8 -3 -2.6 -2.4 
-2 -1.2 -1.4 -1.8 -1.6 -0.8 -0.6 -0.2 -0.4 
-1 0.8 0.2 0.6 -0 0.4 1.2 1.4 1.8 
1 1.6 2.8 2 2.2 2.6 2.4 3.2 3.4 
3 3.6 3.8 4 4.8 4.6 4.4 4.2 5.2 
5 5.6 5.8 5.4 6.4 6.8 6.6 6.2 6 
7.8 7.6 7.2 7 7.4 8.2 8.6 8.4 8.8 
8 9.6 9.4 9 9.8 9.2 10 10.2 10.4 
10.6 10.8 11.8 11 11.4 11.6 11.2 12.4 12.8 
12.6 12.2 12 13.2 13.4 13 13.6 13.8 14.8 
14 14.2 14.4 14.6 15 
y 1 1049 double
-5.9938 -5.48168 -5.46799 -4.80723 -4.28025 -3.20584 -3.3913 -3.67079 -3.23527 
-3.77375 -3.01738 -2.40952 -2.36789 -2.92729 -2.35148 -0.996645 -1.52287 -1.80357 
-1.95616 -1.36615 -0.0175119 -0.450016 0 0 0 0.8 0.6 
0 0.4 0 0.2 0 0 0 0 0 
0 0 0 0 0 0.528461 0 0 0 
0 0 0 0 0 0 0 0 0 
0 0 0.6 0 0 0 0.8 0.4 0 
0 0.2 0 0 0 0 0 0 0 
0 0 0 0 0 0 0 0 0 
0 0 0 0 0 0 0 0 0 
0.4 0 0 0 0.2 0 0.6 0.8 0 
0 0 0 0 0 0 0 0 0 
0 0 0 0 0 0 0 0 0 
0 0 0 0 0 0 0 0 0.8 
0.2 0.6 0 0 0 0.4 0 0 0 
0 0 0 0 0 0 0 0 0 
0 0 0 0 0 0 0 0 0 
0 0 0 0 0 0.4 0.2 0 0 
0 0 0.6 0 0 0.8 0 0 0 
0 0 0 0 0 0 0.623143 0.653551 0.0293161 
0 0 0 0 0 0 0 0 0 
0 0 0 0 0 0.8 0.4 0.6 0 
0.2 1.8 1 1.4 1.2 1.6 1.02942 1.75078 1.60674 
1.4 1.2 1.8 1 1.6 1.6 1.8 1.4 1 
1.2 1.6 1.2 1.8 1 1.4 1.4 1.8 1 
1.6 1.2 1.2 1.6 1.8 1 1.4 2.4 2.6 
2.2 2 2.8 2.14759 2.40493 2.4 2.2 2.6 2 
2.8 2.2 2 2.8 2.4 2.6 2.8 2 2.2 
2.4 2.6 2.2 2.8 2.6 2 2.4 2.76903 2.4 
2.6 2.8 2 2.2 3.4 3.6 3.8 3.2 3 
3.9262 3.0907 3.2 3.8 3.4 3.6 3 3 3.2 
3.4 3.8 3.6 3.4 3 3.6 3.8 3.2 3.4 
3.8 3 3.6 3.2 3.60077 3.99331 3.44598 3.6 3 
3.8 3.2 3.4 4 4.2 4.6 4.8 4.4 4.50747 
4.37275 4.91371 4.79802 4.01584 4.4 4.8 4 4.6 4.2 
4.8 4.6 4.4 4 4.2 4.2 4.4 4 4.6 
4.8 4.6 4.4 4.2 4 4.8 4.79925 4.15684 4.1451 
4 4.4 4.8 4.6 4.2 5.2 5.6 5 5.4 
5.8 5.4579 5.40425 5.2 5.4 5.8 5 5.6 5.8 
5 5.2 5.6 5.4 5 5.4 5.8 5.2 5.6 
5 5.4 5.8 5.2 5.6 5.76115 5.59239 5.8 5.6 
5.2 5 5.4 6.4 6.2 6 6.6 6.8 6.87664 
6 6.4 6.2 6.6 6.8 6.6 6.2 6.8 6.4 
6 6 6.2 6.4 6.8 6.6 6.66744 6.4 6 
6.58672 6.6 6.8 6.2 6.58726 6.433 6.52844 6.48493 6 
6.8 6.4 6.6 6.2 7.6 7.8 7.4 7 7.2 
7.09597 7.04516 7.44889 7.72484 7.6078 7.4 7 7.2 7.6 
7.8 7.2 7.8 7.6 7 7.4 7.5736 7.40866 7.6 
7.4 7.8 7 7.2 7.98329 7.30806 7 7.4 7.8 
7.6 7.2 7.88116 7.89379 7.8 7.6 7.4 7 7.2 
8.2 8 8.8 8.6 8.4 8.19788 8.2472 8.82206 8 
8.76414 8 8 8 8.7752 8 8 8 8 
8 8 8 8 8.76847 8.62747 8.34813 8 8 
8 8 8 8 8.92982 8 8 8 8 
8 8 8.87428 8 8 8 8 8 8 
8 8 8 8 8 8.77578 8 8 8 
8 8 8 8 8.3937 8 8 8.02478 8 
8 8 8.55729 8 8 8 8 8 8 
8 8 8 8 8 8.87005 8 8 8 
8 8 8 8 8 8 8 8 8 
8 8 8 8.45283 8 8 8 8.72679 8 
8 8 8 8 8 8.612 8.59496 8 8 
8 8 8 8.9938 8.91135 8 8.32771 8 8.44683 
9.00388 8 8.6 8.8 8.2 8.4 9.8 9 9.6 
9.4 9.2 9.22086 9.24686 9.20492 9.3263 9.51122 9.16021 9.08561 
9.45373 9.80868 9.8 9.6 9 9.4 9.2 10.6 10.4 
10 10.2 10 10 10.8 10 10 10 10 
10 10 10 10 10 10 10 10 10 
10 10 10 10 10 10 10 10 10 
10 10 10 10 10.8 10.6 10.4 10 10 
10 10 10.2 10 10 10 10 10 10 
10 10 10 10 10 10 10 10 10 
10 10 10 10 10 10 10 10 10.6 
10.2 10 10 10 10.4 10.8 10 10 10 
10 10 10 10 10 10 10 10 10 
10 10 10 10 10 10 10 10 10 
10 10 10 10 10 10 10 10 10 
10 10 10 10 10 10 10 10 10 
10 10 10 10 10 10 10 10 10 
10 10 10 10 10 10 10 10 10 
10 10 10.8 10 10 10.2 10.6 10.4 10 
10 10 10 10 10 10 10 10 10 
10 10 10 10.5777 10 10 10 10 10 
10 10 10 10 10 10.8 10.6 10.2 10.4 
10 11.6 11.4 11.2 11 11.8 11.6 11.8 11 
11.4 11.2 11.4 11.2 11.6 11.8 11 11.2 11.4 
11 11.6 11.8 11.218 11.7627 11.7675 11.6327 11.0709 11.4 
11.8 11.6 11.2 11 12.4 12.6 12 12.2 12.8 
12.2 12.6 12 12.4 12.8 12.4 12.2 12 12.8 
12.6 12.6913 12.73 12.2 12.8 12.4 12.6 12 12.3294 
12.6 12.4 12.8 12.2 12 13.8 13.2 13.4 13.6 
13 13.2 13.4 13.6 13 13.8 13 13.2 13.6 
13.8 13.4 13.3256 13.8192 13.4 13.8 13.2 13 13.6 
13.9615 13.027 13.681 13.5591 13.2 13.8 13.4 13 13.6 
14.2 14 14.6 14.4 14.8 14.6 14 14.4 14.2 
14.8 14 14.8 14.2 14.6 14.4 14.4102 14.8449 14.2917 
14.715 14.2872 14 14.6 14.4 14.2 14.8 14 15.6 
15.8 15.2 15.4 15 15 15.6 15.8 15.2 15.4 
15.2 15.8 15.6 15.4 15 15.1667 15 15.6667 15.8333 
15.5 15.3333 15.8 15 15.6 15.4 15.2 16 16 
16 16 16 16 16 16 16 16 16 
16 16 16 16 16 16 16 16 16 
16 16 16 16 16 16 16 16 16 
16 16 16 16 16 16 16 16 16 
16 16 16 16 16 16 16 16 16 
16 16 16 16 16 16 16 16 16 
16 16 16 16 16 16 16 16 16 
16 16 16 16 16 16 16 16 16 
16 16 16 16 16 16 16 16 16 
16 16 16 16 16 16 16 16 16 
16 16 16 16 16 16 16 16 16 
16 16 16 16 16 16 16 16 16 
16 16 16 16 16 16 16 16 16 
16 16 16 16 16 16 16 16 16 
16 16 16 16 16 16 16 16 16 
16 16 16 16 16 16 16 16 16 
16 16 16 16 16 
