# vtk DataFile Version 4.0
vtk output
ASCII
DATASET POLYDATA
FIELD FieldData 4
domain 1 4 string
domain_min:-40|-40
domain_max:40|40
cell_size:1|1
boundary:0|0

variables 1 5 string
T:7.9
dt:0.01
write_case:1
substeps:10
all_steps:790

constants 1 17 string
L:40
c_s:1
dx:1
k:1000
d1:-13.5|10
d2:-6|10
d3:9|14.5
d4:13.5|10
d5:-6|8
d6:0|8
d7:6|8
d8:-9|9
d9:9|9
d10:-12|0
d11:12|0
d12:0|-10
R_w:0.1

equations 1 18 string
time:T=(T+dt)#true
pos_x:x=elem(r,0,0)#eq(gid,1)
pos_y:y=elem(r,1,0)#eq(gid,1)
wp_1:p0=if(and(lt(x,(-9)),gt(y,10)),d1,p0)#eq(gid,1)
wp_2:p0=if(and(and(gt(x,(-9)),lt(x,(-3))),gt(y,10)),d2,p0)#eq(gid,1)
wp_3:p0=if(and(and(gt(x,(-3)),lt(x,9)),gt(y,10)),d3,p0)#eq(gid,1)
wp_4:p0=if(and(gt(x,9),gt(y,10)),d4,p0)#eq(gid,1)
wp_5:p0=if(and(and(gt(x,(-9)),lt(x,(-3))),lt(y,8)),d5,p0)#eq(gid,1)
wp_6:p0=if(and(and(gt(x,(-3)),lt(x,3)),lt(y,8)),d6,p0)#eq(gid,1)
wp_7:p0=if(and(and(gt(x,3),lt(x,9)),lt(y,8)),d7,p0)#eq(gid,1)
wp_8:p0=if(and(and(gt(x,(-9)),lt(x,0)),and(gt(y,8),lt(y,10))),d8,p0)#eq(gid,1)
wp_9:p0=if(and(and(gt(x,0),lt(x,9)),and(gt(y,8),lt(y,10))),d9,p0)#eq(gid,1)
wp_10:p0=if(and(lt(x,(-9)),lt(y,10)),d10,p0)#eq(gid,1)
wp_11:p0=if(and(gt(x,9),lt(y,10)),d11,p0)#eq(gid,1)
wp_12:p0=if(lt(y,0),d12,p0)#eq(gid,1)
acceleration:v=sfm(v,p0,v0,m,R,A,B,k,c,tau)#eq(gid,1)
velocity:v=euler(v,a,dt)#eq(gid,1)
position:r=euler(r,v,dt)#eq(gid,1)

POINTS 1049 float
5.91095 -5.17602 0 -6.99863 -4.59651 0 -6.35546 -4.66952 0 
-7.25844 -3.95494 0 8.12281 -3.54982 0 9.21125 -3.09847 0 
-9.82702 -2.3646 0 -8.9394 -2.75112 0 8.36177 -2.99546 0 
8.72585 -2.54088 0 9.4448 -2.07275 0 10.2721 -2.34762 0 
-10.8027 -1.16038 0 -10.411 -1.65213 0 -9.46597 -1.93187 0 
10.334 -1.57451 0 10.8772 -1.13357 0 -11.8623 -0.173845 0 
-11.3436 -0.77169 0 11.4691 -0.573084 0 -15 0.4 0 
-14.8214 0 0 -15 0.8 0 -14.4643 0 0 
-14.2857 0 0 -15 0.6 0 -15 0 0 
-14.6429 0 0 -15 0.2 0 -14.1071 0 0 
-13.2143 0 0 -13.9286 0 0 -13.75 0 0 
-13.3929 0 0 -13.0357 0 0 -13.5714 0 0 
-12.6786 0 0 -12.8571 0 0 -12.5 0 0 
-11.9001 0.528801 0 -11.1429 0 0 -11.5 0 0 
-11.3214 0 0 -10.7857 0 0 -10.4286 0 0 
-10.9643 0 0 -10.6071 0 0 -10.25 0 0 
-10.0714 0 0 -9.5357 0 0 -9.3571 0 0 
-9.7143 0 0 -9.1786 0 0 -9.8929 0 0 
-9 0.6 0 -8.8 0 0 -9 0 0 
-8.6 0 0 -9 0.4 0 -8.4 0 0 
-9 0.8 0 -9 0.2 0 -8.2 0 0 
-7.2 0 0 -7.6 0 0 -7.8 0 0 
-7.4 0 0 -8 0 0 -6.2 0 0 
-6.4 0 0 -7 0 0 -6.8 0 0 
-6.6 0 0 -5.4 0 0 -6 0 0 
-5.8 0 0 -5.2 0 0 -5.6 0 0 
-4.2 0 0 -4.6 0 0 -4.4 0 0 
-4.8 0 0 -5 0 0 -3.6 0 0 
-3.8 0 0 -3.2 0 0 -4 0 0 
-3.4 0 0 -3 0 0 -3 0.8 0 
-2.2 0 0 -3 0.2 0 -2.8 0 0 
-3 0.6 0 -2.6 0 0 -2.4 0 0 
-3 0.4 0 -1.6 0 0 -1.8 0 0 
-1.2 0 0 -2 0 0 -1.4 0 0 
-0.4 0 0 -0.2 0 0 -0.6 0 0 
-0.8 0 0 -1 0 0 0.4 0 0 
0.2 0 0 0.8 0 0 -0 0 0 
0.6 0 0 1.4 0 0 1.6 0 0 
1 0 0 1.2 0 0 1.8 0 0 
2.6 0 0 2 0 0 2.2 0 0 
2.8 0 0 2.4 0 0 3 0.8 0 
3 0.2 0 3.8 0 0 3.2 0 0 
3.6 0 0 3 0.6 0 3.4 0 0 
3 0.4 0 3 0 0 4 0 0 
4.6 0 0 4.8 0 0 4.2 0 0 
4.4 0 0 5 0 0 5.2 0 0 
5.4 0 0 5.8 0 0 5.6 0 0 
6.8 0 0 6.2 0 0 6.6 0 0 
6.4 0 0 6 0 0 7.2 0 0 
7.4 0 0 7.8 0 0 7.6 0 0 
7 0 0 8 0 0 8.4 0 0 
8.6 0 0 8.8 0 0 8.2 0 0 
9.3571 0 0 9 0.6 0 9.5357 0 0 
9 0.4 0 9 0.2 0 9.7143 0 0 
9 0.8 0 9.8929 0 0 9.1786 0 0 
9 0 0 10.4286 0 0 10.0714 0 0 
10.6071 0 0 10.7857 0 0 10.9643 0 0 
10.25 0 0 11.3214 0 0 11.1429 0 0 
11.5 0 0 12.5 0 0 12.8571 0 0 
12.6786 0 0 13.0357 0 0 13.9286 0 0 
13.3929 0 0 13.75 0 0 13.2143 0 0 
13.5714 0 0 14.2857 0 0 14.6429 0 0 
14.4643 0 0 14.8214 0 0 14.1071 0 0 
15 0 0 15 0.4 0 15 0.2 0 
15 0.6 0 15 0.8 0 -15 1.6 0 
-15 1.8 0 -15 1.2 0 -15 1.4 0 
-15 1 0 -12.4196 1.10284 0 -11.8596 1.34429 0 
-11.3707 1.94571 0 -9 1.2 0 -9 1.4 0 
-9 1 0 -9 1.6 0 -9 1.8 0 
-3 1.6 0 -3 1.8 0 -3 1.2 0 
-3 1 0 -3 1.4 0 3 1.4 0 
3 1.6 0 3 1.2 0 3 1 0 
3 1.8 0 9 1 0 9 1.8 0 
9 1.2 0 9 1.6 0 9 1.4 0 
11.2538 1.5811 0 11.7766 1.85484 0 12.2237 1.36655 0 
15 1.4 0 15 1.2 0 15 1.6 0 
15 1.8 0 15 1 0 -15 2.2 0 
-15 2 0 -15 2.4 0 -15 2.8 0 
-15 2.6 0 -11.4505 2.59493 0 -10.9065 2.96619 0 
-9 2.4 0 -9 2.2 0 -9 2.6 0 
-9 2 0 -9 2.8 0 -3 2.6 0 
-3 2 0 -3 2.8 0 -3 2.2 0 
-3 2.4 0 3 2.8 0 3 2.2 0 
3 2 0 3 2.4 0 3 2.6 0 
9 2.2 0 9 2.8 0 9 2.6 0 
9 2 0 9 2.4 0 15 2 0 
15 2.4 0 15 2.2 0 15 2.8 0 
15 2.6 0 -15 3.6 0 -15 3.8 0 
-15 3.4 0 -15 3.2 0 -15 3 0 
-12.5112 3.35694 0 -10.9319 3.63273 0 -9 3.6 0 
-9 3 0 -9 3.8 0 -9 3.2 0 
-9 3.4 0 -3 3.6 0 -3 3.4 0 
-3 3 0 -3 3.8 0 -3 3.2 0 
3 3 0 3 3.8 0 3 3.6 0 
3 3.4 0 3 3.2 0 9 3.2 0 
9 3.4 0 9 3.8 0 9 3.6 0 
9 3 0 10.9167 3.7339 0 15 3.4 0 
15 3 0 15 3.2 0 15 3.8 0 
15 3.6 0 -15 4.4 0 -15 4.2 0 
-15 4 0 -15 4.6 0 -15 4.8 0 
-12.8605 4.99896 0 -10.6591 4.37734 0 -9 4 0 
-9 4.2 0 -9 4.6 0 -9 4.4 0 
-9 4.8 0 -3 4 0 -3 4.4 0 
-3 4.6 0 -3 4.8 0 -3 4.2 0 
3 4.8 0 3 4.2 0 3 4 0 
3 4.6 0 3 4.4 0 9 4.2 0 
9 4.4 0 9 4 0 9 4.8 0 
9 4.6 0 10.4097 4.58943 0 12.7198 4.48612 0 
15 4 0 15 4.6 0 15 4.4 0 
15 4.2 0 15 4.8 0 -15 5.2 0 
-15 5.8 0 -15 5 0 -15 5.4 0 
-15 5.6 0 -13.2508 5.71337 0 -12.6124 5.52792 0 
-10.3797 5.32836 0 -9 5.4 0 -9 5.8 0 
-9 5.6 0 -9 5.2 0 -9 5 0 
-3 5.6 0 -3 5.2 0 -3 5.4 0 
-3 5 0 -3 5.8 0 3 5.6 0 
3 5.4 0 3 5.8 0 3 5.2 0 
3 5 0 6.60887 5.95626 0 9 5.6 0 
9 5.8 0 9 5.4 0 9 5 0 
9 5.2 0 10.2703 5.14909 0 10.9714 5.09973 0 
10.336 5.7979 0 12.7185 5.04035 0 15 5.4 0 
15 5.2 0 15 5 0 15 5.6 0 
15 5.8 0 -15 6.4 0 -15 6.2 0 
-15 6 0 -15 6.6 0 -15 6.8 0 
-13.0632 6.69616 0 -12.7095 6.09586 0 -10.1526 6.10924 0 
-9.93704 6.723 0 -9 6.6 0 -9 6.4 0 
-9 6 0 -9 6.8 0 -9 6.2 0 
-3 6.6 0 -3 6.2 0 -3 6.8 0 
-3 6.4 0 -3 6 0 -0.420014 6.9266 0 
0.172078 6.88865 0 3 6.2 0 3 6 0 
3 6.8 0 3 6.4 0 3 6.6 0 
9 6 0 9 6.2 0 9 6.6 0 
9 6.8 0 9 6.4 0 10.0004 6.69551 0 
12.995 6.62691 0 15 6 0 15 6.6 0 
15 6.2 0 15 6.4 0 15 6.8 0 
-15 7.8 0 -15 7.6 0 -15 7.4 0 
-15 7.2 0 -15 7 0 -12.9296 7.87814 0 
-9.54844 7.89817 0 -9 7.6 0 -9 7.4 0 
-9 7 0 -9 7.2 0 -9 7.8 0 
-5.89206 7.67446 0 -3 7.4 0 -3 7.2 0 
-3 7.6 0 -3 7 0 -3 7.8 0 
-0.331269 7.77675 0 0.0764499 7.48653 0 3 7.8 0 
3 7.4 0 3 7.6 0 3 7.2 0 
3 7 0 5.87766 7.33935 0 6.15863 7.84762 0 
9 7.6 0 9 7.4 0 9 7.2 0 
9 7.8 0 9 7 0 9.56483 7.74151 0 
10.0958 7.40685 0 12.6947 7.43296 0 13.6328 7.47664 0 
13.1274 7.7686 0 15 7.2 0 15 7.8 0 
15 7.4 0 15 7.6 0 15 7 0 
-15 8.2 0 -15 8.6 0 -15 8.4 0 
-15 8 0 -15 8.8 0 -13.3414 8.27052 0 
-10.11 8.49684 0 -9.65361 8.67348 0 -9.11642 8.6462 0 
-8.8214 8 0 -8.4643 8 0 -8.54572 8.66203 0 
-9 8 0 -8.1071 8 0 -8.2857 8 0 
-8.6429 8 0 -7.0357 8 0 -7.75 8 0 
-7.2143 8 0 -7.5714 8 0 -7.41614 8.70134 0 
-7.9286 8 0 -7.3929 8 0 -7.9628 8.75268 0 
-6.5 8 0 -6.65256 8.5919 0 -6.6786 8 0 
-6.8571 8 0 -6.21956 8.18467 0 -5.5 8 0 
-5.1429 8 0 -5.3214 8 0 -4.0714 8 0 
-4.9643 8 0 -4.4286 8 0 -4.6071 8 0 
-4.7857 8 0 -4.25 8 0 -3.8929 8 0 
-3.5357 8 0 -3.3571 8 0 -3.7143 8 0 
-3.1786 8 0 -3.92068 8.87872 0 -2.2857 8 0 
-3 8 0 -2.4643 8 0 -2.97977 8.79458 0 
-2.1071 8 0 -2.8214 8 0 -2.6429 8 0 
-1.0357 8 0 -1.9286 8 0 -1.2143 8 0 
-1.5714 8 0 -1.75 8 0 -1.3929 8 0 
-1.50086 8.64032 0 -0.8571 8 0 -0.6786 8 0 
-0.5 8 0 0.5 8 0 0.8571 8 0 
0.197808 8.09902 0 0.6786 8 0 1.2143 8 0 
1.9286 8 0 1.3929 8 0 1.75 8 0 
1.5714 8 0 1.0357 8 0 2.6429 8 0 
2.33099 8.80948 0 2.8214 8 0 2.1071 8 0 
2.2857 8 0 2.4643 8 0 3.8929 8 0 
3.5357 8 0 3.1786 8 0 3.7143 8 0 
3.3571 8 0 3 8 0 4.25 8 0 
4.6071 8 0 4.7857 8 0 4.9643 8 0 
4.0714 8 0 4.4286 8 0 5.3214 8 0 
5.5 8 0 5.1429 8 0 6.3694 8.37595 0 
6.5 8 0 6.8571 8 0 6.95643 8.5098 0 
6.6786 8 0 7.97791 8.63884 0 7.5714 8 0 
7.4275 8.83961 0 7.2143 8 0 7.0357 8 0 
7.75 8 0 7.3929 8 0 7.9286 8 0 
8.54597 8.78868 0 8.2857 8 0 8.4643 8 0 
8.6429 8 0 8.1071 8 0 8.8214 8 0 
9.45729 8.36602 0 9.09623 8.84013 0 9 8 0 
9 8 0 13.5341 8.92476 0 15 8 0 
15 8.6 0 15 8.8 0 15 8.4 0 
15 8.2 0 -15 9.4 0 -15 9.8 0 
-15 9.6 0 -15 9 0 -15 9.2 0 
-9.21439 9.28503 0 -8.73391 9.16294 0 -8.22807 9.28611 0 
-7.67315 9.25637 0 -7.12349 9.27207 0 -6.54597 9.54855 0 
-6.086 9.97458 0 6.70896 9.0432 0 7.60906 9.34661 0 
8.16369 9.17993 0 8.70185 9.33315 0 13.4756 9.483 0 
15 9 0 15 9.2 0 15 9.6 0 
15 9.4 0 15 9.8 0 -14.1667 10 0 
-15 10.2 0 -15 10.8 0 -14.3333 10 0 
-15 10 0 -14.5 10 0 -15 10.6 0 
-15 10.4 0 -14.8333 10 0 -14.6667 10 0 
-14 10 0 -12.2 10 0 -12.4 10 0 
-12.6 10 0 -13 10 0 -12.8 10 0 
-12 10 0 -11.2 10 0 -11.6 10 0 
-11.4 10 0 -11.8 10 0 -10.8 10 0 
-10.6 10 0 -10.2 10 0 -11 10 0 
-10.4 10 0 -9.2 10 0 -10 10 0 
-9.8 10 0 -9.6 10 0 -9.4 10 0 
-8.4643 10 0 -9 10.6 0 -8.6429 10 0 
-9 10 0 -8.8214 10 0 -8.1071 10 0 
-9 10.4 0 -9 10.2 0 -9 10.8 0 
-8.2857 10 0 -7.75 10 0 -7.9286 10 0 
-7.2143 10 0 -7.0357 10 0 -7.3929 10 0 
-7.5714 10 0 -6.5 10 0 -6.6786 10 0 
-6.8571 10 0 -5.5 10 0 -5.1429 10 0 
-5.3214 10 0 -4.25 10 0 -4.6071 10 0 
-4.0714 10 0 -4.9643 10 0 -4.7857 10 0 
-4.4286 10 0 -3.5357 10 0 -3.1786 10 0 
-3.3571 10 0 -3.8929 10 0 -3.7143 10 0 
-3 10.6 0 -2.8 10 0 -2.4 10 0 
-3 10.8 0 -2.6 10 0 -3 10.4 0 
-2.2 10 0 -3 10.2 0 -3 10 0 
-1.2 10 0 -1.8 10 0 -2 10 0 
-1.4 10 0 -1.6 10 0 -1 10 0 
-0.4 10 0 -0.6 10 0 -0.8 10 0 
-0.2 10 0 0.2 10 0 -0 10 0 
0.8 10 0 0.6 10 0 0.4 10 0 
1.8 10 0 1.4 10 0 1 10 0 
1.6 10 0 1.2 10 0 2 10 0 
2.4 10 0 2.2 10 0 2.8 10 0 
2.6 10 0 3.8 10 0 3 10 0 
3.2 10 0 3.4 10 0 3.6 10 0 
4.8 10 0 4.6 10 0 4 10 0 
4.4 10 0 4.2 10 0 5.4 10 0 
5.2 10 0 5 10 0 5.6 10 0 
5.8 10 0 6.6 10 0 6.4 10 0 
6.2 10 0 6.8 10 0 6 10 0 
7.8 10 0 7.4 10 0 7.6 10 0 
7.2 10 0 7 10 0 8.6 10 0 
8.2 10 0 8 10 0 8.8 10 0 
8.4 10 0 9.6 10 0 9 10.6 0 
9 10 0 9 10.2 0 9.8 10 0 
9.2 10 0 9 10.4 0 9 10.8 0 
9.4 10 0 10.8 10 0 10.6 10 0 
10 10 0 10.4 10 0 10.2 10 0 
11.2 10 0 11.8 10 0 11.6 10 0 
11 10 0 11.4 10 0 12.4 10 0 
12 10 0 12.8 10 0 12.6 10 0 
12.2 10 0 13.4818 10.0479 0 13 10 0 
14.5 10 0 14.3333 10 0 14.8333 10 0 
14.6667 10 0 14.1667 10 0 14 10 0 
15 10.4 0 15 10.2 0 15 10 0 
15 10.6 0 15 10.8 0 -15 11 0 
-15 11.2 0 -15 11.6 0 -15 11.8 0 
-15 11.4 0 -9 11.8 0 -9 11.2 0 
-9 11.4 0 -9 11 0 -9 11.6 0 
-3 11 0 -3 11.8 0 -3 11.2 0 
-3 11.4 0 -3 11.6 0 9 11.6 0 
9 11.4 0 9 11.2 0 9 11.8 0 
9 11 0 11.9956 11.7165 0 11.5021 11.413 0 
12.8383 11.0239 0 15 11.6 0 15 11 0 
15 11.4 0 15 11.8 0 15 11.2 0 
-15 12 0 -15 12.8 0 -15 12.4 0 
-15 12.6 0 -15 12.2 0 -9 12.2 0 
-9 12.6 0 -9 12.8 0 -9 12 0 
-9 12.4 0 -3 12.4 0 -3 12.8 0 
-3 12 0 -3 12.2 0 -3 12.6 0 
3.1304 12.4378 0 3.98543 12.4525 0 5.92941 12.9835 0 
9 12 0 9 12.6 0 9 12.4 0 
9 12.8 0 9 12.2 0 10.7962 12.6367 0 
11.2116 12.0219 0 11.464 12.5798 0 11.8916 12.2757 0 
15 12.2 0 15 12 0 15 12.8 0 
15 12.4 0 15 12.6 0 -15 13 0 
-15 13.4 0 -15 13.8 0 -15 13.6 0 
-15 13.2 0 -9 13.2 0 -9 13 0 
-9 13.6 0 -9 13.4 0 -9 13.8 0 
-3 13 0 -3 13.4 0 -3 13.2 0 
-3 13.8 0 -3 13.6 0 8.38223 13.8893 0 
9 13.2 0 9 13.8 0 9 13.6 0 
9 13.4 0 9 13 0 9.92119 13.7196 0 
10.7914 13.2198 0 15 13.2 0 15 13.6 0 
15 13.4 0 15 13 0 15 13.8 0 
-15 14.2 0 -15 14 0 -15 14.6 0 
-15 14.4 0 -15 14.8 0 -9 14.8 0 
-9 14 0 -9 14.2 0 -9 14.4 0 
-9 14.6 0 -3 14.4 0 -3 14.2 0 
-3 14.6 0 -3 14 0 -3 14.8 0 
6.58774 14.3498 0 7.715 14.8166 0 7.7974 14.0737 0 
8.25754 14.4804 0 8.65079 14.8783 0 8.77442 14.2926 0 
9.30037 14.4422 0 9 14 0 9.84074 14.2918 0 
15 14.2 0 15 14.8 0 15 14.6 0 
15 14 0 15 14.4 0 -15 15.4 0 
-15 15 0 -15 15.6 0 -15 15.8 0 
-15 15.2 0 -9 15.4 0 -9 15.2 0 
-9 15 0 -9 15.8 0 -9 15.6 0 
-3 15 0 -3 15.6 0 -3 15.4 0 
-3 15.2 0 -3 15.8 0 9 15.5 0 
9 15.6667 0 9 15 0 9 15.1667 0 
9 15.3333 0 9 15.8333 0 15 15.8 0 
15 15 0 15 15.6 0 15 15.4 0 
15 15.2 0 -15 16 0 -14.6 16 0 
-14.4 16 0 -14.2 16 0 -14.8 16 0 
-13.2 16 0 -13.8 16 0 -14 16 0 
-13.6 16 0 -13.4 16 0 -12.4 16 0 
-12.2 16 0 -12.6 16 0 -13 16 0 
-12.8 16 0 -11.8 16 0 -11.4 16 0 
-11.6 16 0 -12 16 0 -11.2 16 0 
-10.6 16 0 -10.4 16 0 -10.2 16 0 
-11 16 0 -10.8 16 0 -10 16 0 
-9.8 16 0 -9.6 16 0 -9.4 16 0 
-9.2 16 0 -9 16 0 -8.4 16 0 
-8.8 16 0 -8.2 16 0 -8.6 16 0 
-8 16 0 -7.8 16 0 -7.6 16 0 
-7.2 16 0 -7.4 16 0 -7 16 0 
-6.8 16 0 -6.6 16 0 -6.2 16 0 
-6.4 16 0 -6 16 0 -5.2 16 0 
-5.4 16 0 -5.6 16 0 -5.8 16 0 
-4.8 16 0 -5 16 0 -4.6 16 0 
-4.2 16 0 -4.4 16 0 -3.8 16 0 
-3.6 16 0 -3.4 16 0 -3.2 16 0 
-4 16 0 -2.4 16 0 -2.6 16 0 
-2.8 16 0 -2.2 16 0 -3 16 0 
-2 16 0 -1.2 16 0 -1.4 16 0 
-1.8 16 0 -1.6 16 0 -0.4 16 0 
-1 16 0 -0.8 16 0 -0.6 16 0 
-0.2 16 0 0.8 16 0 0.2 16 0 
0.6 16 0 -0 16 0 0.4 16 0 
1.6 16 0 1 16 0 1.4 16 0 
1.2 16 0 1.8 16 0 2.8 16 0 
2 16 0 2.2 16 0 2.6 16 0 
2.4 16 0 3 16 0 3.8 16 0 
3.6 16 0 3.4 16 0 3.2 16 0 
4 16 0 4.8 16 0 4.6 16 0 
4.4 16 0 4.2 16 0 5.4 16 0 
5.8 16 0 5.2 16 0 5.6 16 0 
5 16 0 6.4 16 0 6.8 16 0 
6.6 16 0 6.2 16 0 6 16 0 
7.8 16 0 7.6 16 0 7.2 16 0 
7 16 0 7.4 16 0 8.4 16 0 
8.8 16 0 8.6 16 0 8 16 0 
8.2 16 0 9.6 16 0 9.4 16 0 
9 16 0 9.8 16 0 9.2 16 0 
10 16 0 10.2 16 0 10.4 16 0 
10.6 16 0 10.8 16 0 11.8 16 0 
11 16 0 11.4 16 0 11.6 16 0 
11.2 16 0 12.4 16 0 12.8 16 0 
12.6 16 0 12.2 16 0 12 16 0 
13.4 16 0 13.8 16 0 13 16 0 
13.6 16 0 13.2 16 0 14.8 16 0 
14 16 0 14.2 16 0 14.4 16 0 
14.6 16 0 15 16 0 
VERTICES 2098 2098
1 0 
1 1 
1 2 
1 3 
1 4 
1 5 
1 6 
1 7 
1 8 
1 9 
1 10 
1 11 
1 12 
1 13 
1 14 
1 15 
1 16 
1 17 
1 18 
1 19 
1 20 
1 21 
1 22 
1 23 
1 24 
1 25 
1 26 
1 27 
1 28 
1 29 
1 30 
1 31 
1 32 
1 33 
1 34 
1 35 
1 36 
1 37 
1 38 
1 39 
1 40 
1 41 
1 42 
1 43 
1 44 
1 45 
1 46 
1 47 
1 48 
1 49 
1 50 
1 51 
1 52 
1 53 
1 54 
1 55 
1 56 
1 57 
1 58 
1 59 
1 60 
1 61 
1 62 
1 63 
1 64 
1 65 
1 66 
1 67 
1 68 
1 69 
1 70 
1 71 
1 72 
1 73 
1 74 
1 75 
1 76 
1 77 
1 78 
1 79 
1 80 
1 81 
1 82 
1 83 
1 84 
1 85 
1 86 
1 87 
1 88 
1 89 
1 90 
1 91 
1 92 
1 93 
1 94 
1 95 
1 96 
1 97 
1 98 
1 99 
1 100 
1 101 
1 102 
1 103 
1 104 
1 105 
1 106 
1 107 
1 108 
1 109 
1 110 
1 111 
1 112 
1 113 
1 114 
1 115 
1 116 
1 117 
1 118 
1 119 
1 120 
1 121 
1 122 
1 123 
1 124 
1 125 
1 126 
1 127 
1 128 
1 129 
1 130 
1 131 
1 132 
1 133 
1 134 
1 135 
1 136 
1 137 
1 138 
1 139 
1 140 
1 141 
1 142 
1 143 
1 144 
1 145 
1 146 
1 147 
1 148 
1 149 
1 150 
1 151 
1 152 
1 153 
1 154 
1 155 
1 156 
1 157 
1 158 
1 159 
1 160 
1 161 
1 162 
1 163 
1 164 
1 165 
1 166 
1 167 
1 168 
1 169 
1 170 
1 171 
1 172 
1 173 
1 174 
1 175 
1 176 
1 177 
1 178 
1 179 
1 180 
1 181 
1 182 
1 183 
1 184 
1 185 
1 186 
1 187 
1 188 
1 189 
1 190 
1 191 
1 192 
1 193 
1 194 
1 195 
1 196 
1 197 
1 198 
1 199 
1 200 
1 201 
1 202 
1 203 
1 204 
1 205 
1 206 
1 207 
1 208 
1 209 
1 210 
1 211 
1 212 
1 213 
1 214 
1 215 
1 216 
1 217 
1 218 
1 219 
1 220 
1 221 
1 222 
1 223 
1 224 
1 225 
1 226 
1 227 
1 228 
1 229 
1 230 
1 231 
1 232 
1 233 
1 234 
1 235 
1 236 
1 237 
1 238 
1 239 
1 240 
1 241 
1 242 
1 243 
1 244 
1 245 
1 246 
1 247 
1 248 
1 249 
1 250 
1 251 
1 252 
1 253 
1 254 
1 255 
1 256 
1 257 
1 258 
1 259 
1 260 
1 261 
1 262 
1 263 
1 264 
1 265 
1 266 
1 267 
1 268 
1 269 
1 270 
1 271 
1 272 
1 273 
1 274 
1 275 
1 276 
1 277 
1 278 
1 279 
1 280 
1 281 
1 282 
1 283 
1 284 
1 285 
1 286 
1 287 
1 288 
1 289 
1 290 
1 291 
1 292 
1 293 
1 294 
1 295 
1 296 
1 297 
1 298 
1 299 
1 300 
1 301 
1 302 
1 303 
1 304 
1 305 
1 306 
1 307 
1 308 
1 309 
1 310 
1 311 
1 312 
1 313 
1 314 
1 315 
1 316 
1 317 
1 318 
1 319 
1 320 
1 321 
1 322 
1 323 
1 324 
1 325 
1 326 
1 327 
1 328 
1 329 
1 330 
1 331 
1 332 
1 333 
1 334 
1 335 
1 336 
1 337 
1 338 
1 339 
1 340 
1 341 
1 342 
1 343 
1 344 
1 345 
1 346 
1 347 
1 348 
1 349 
1 350 
1 351 
1 352 
1 353 
1 354 
1 355 
1 356 
1 357 
1 358 
1 359 
1 360 
1 361 
1 362 
1 363 
1 364 
1 365 
1 366 
1 367 
1 368 
1 369 
1 370 
1 371 
1 372 
1 373 
1 374 
1 375 
1 376 
1 377 
1 378 
1 379 
1 380 
1 381 
1 382 
1 383 
1 384 
1 385 
1 386 
1 387 
1 388 
1 389 
1 390 
1 391 
1 392 
1 393 
1 394 
1 395 
1 396 
1 397 
1 398 
1 399 
1 400 
1 401 
1 402 
1 403 
1 404 
1 405 
1 406 
1 407 
1 408 
1 409 
1 410 
1 411 
1 412 
1 413 
1 414 
1 415 
1 416 
1 417 
1 418 
1 419 
1 420 
1 421 
1 422 
1 423 
1 424 
1 425 
1 426 
1 427 
1 428 
1 429 
1 430 
1 431 
1 432 
1 433 
1 434 
1 435 
1 436 
1 437 
1 438 
1 439 
1 440 
1 441 
1 442 
1 443 
1 444 
1 445 
1 446 
1 447 
1 448 
1 449 
1 450 
1 451 
1 452 
1 453 
1 454 
1 455 
1 456 
1 457 
1 458 
1 459 
1 460 
1 461 
1 462 
1 463 
1 464 
1 465 
1 466 
1 467 
1 468 
1 469 
1 470 
1 471 
1 472 
1 473 
1 474 
1 475 
1 476 
1 477 
1 478 
1 479 
1 480 
1 481 
1 482 
1 483 
1 484 
1 485 
1 486 
1 487 
1 488 
1 489 
1 490 
1 491 
1 492 
1 493 
1 494 
1 495 
1 496 
1 497 
1 498 
1 499 
1 500 
1 501 
1 502 
1 503 
1 504 
1 505 
1 506 
1 507 
1 508 
1 509 
1 510 
1 511 
1 512 
1 513 
1 514 
1 515 
1 516 
1 517 
1 518 
1 519 
1 520 
1 521 
1 522 
1 523 
1 524 
1 525 
1 526 
1 527 
1 528 
1 529 
1 530 
1 531 
1 532 
1 533 
1 534 
1 535 
1 536 
1 537 
1 538 
1 539 
1 540 
1 541 
1 542 
1 543 
1 544 
1 545 
1 546 
1 547 
1 548 
1 549 
1 550 
1 551 
1 552 
1 553 
1 554 
1 555 
1 556 
1 557 
1 558 
1 559 
1 560 
1 561 
1 562 
1 563 
1 564 
1 565 
1 566 
1 567 
1 568 
1 569 
1 570 
1 571 
1 572 
1 573 
1 574 
1 575 
1 576 
1 577 
1 578 
1 579 
1 580 
1 581 
1 582 
1 583 
1 584 
1 585 
1 586 
1 587 
1 588 
1 589 
1 590 
1 591 
1 592 
1 593 
1 594 
1 595 
1 596 
1 597 
1 598 
1 599 
1 600 
1 601 
1 602 
1 603 
1 604 
1 605 
1 606 
1 607 
1 608 
1 609 
1 610 
1 611 
1 612 
1 613 
1 614 
1 615 
1 616 
1 617 
1 618 
1 619 
1 620 
1 621 
1 622 
1 623 
1 624 
1 625 
1 626 
1 627 
1 628 
1 629 
1 630 
1 631 
1 632 
1 633 
1 634 
1 635 
1 636 
1 637 
1 638 
1 639 
1 640 
1 641 
1 642 
1 643 
1 644 
1 645 
1 646 
1 647 
1 648 
1 649 
1 650 
1 651 
1 652 
1 653 
1 654 
1 655 
1 656 
1 657 
1 658 
1 659 
1 660 
1 661 
1 662 
1 663 
1 664 
1 665 
1 666 
1 667 
1 668 
1 669 
1 670 
1 671 
1 672 
1 673 
1 674 
1 675 
1 676 
1 677 
1 678 
1 679 
1 680 
1 681 
1 682 
1 683 
1 684 
1 685 
1 686 
1 687 
1 688 
1 689 
1 690 
1 691 
1 692 
1 693 
1 694 
1 695 
1 696 
1 697 
1 698 
1 699 
1 700 
1 701 
1 702 
1 703 
1 704 
1 705 
1 706 
1 707 
1 708 
1 709 
1 710 
1 711 
1 712 
1 713 
1 714 
1 715 
1 716 
1 717 
1 718 
1 719 
1 720 
1 721 
1 722 
1 723 
1 724 
1 725 
1 726 
1 727 
1 728 
1 729 
1 730 
1 731 
1 732 
1 733 
1 734 
1 735 
1 736 
1 737 
1 738 
1 739 
1 740 
1 741 
1 742 
1 743 
1 744 
1 745 
1 746 
1 747 
1 748 
1 749 
1 750 
1 751 
1 752 
1 753 
1 754 
1 755 
1 756 
1 757 
1 758 
1 759 
1 760 
1 761 
1 762 
1 763 
1 764 
1 765 
1 766 
1 767 
1 768 
1 769 
1 770 
1 771 
1 772 
1 773 
1 774 
1 775 
1 776 
1 777 
1 778 
1 779 
1 780 
1 781 
1 782 
1 783 
1 784 
1 785 
1 786 
1 787 
1 788 
1 789 
1 790 
1 791 
1 792 
1 793 
1 794 
1 795 
1 796 
1 797 
1 798 
1 799 
1 800 
1 801 
1 802 
1 803 
1 804 
1 805 
1 806 
1 807 
1 808 
1 809 
1 810 
1 811 
1 812 
1 813 
1 814 
1 815 
1 816 
1 817 
1 818 
1 819 
1 820 
1 821 
1 822 
1 823 
1 824 
1 825 
1 826 
1 827 
1 828 
1 829 
1 830 
1 831 
1 832 
1 833 
1 834 
1 835 
1 836 
1 837 
1 838 
1 839 
1 840 
1 841 
1 842 
1 843 
1 844 
1 845 
1 846 
1 847 
1 848 
1 849 
1 850 
1 851 
1 852 
1 853 
1 854 
1 855 
1 856 
1 857 
1 858 
1 859 
1 860 
1 861 
1 862 
1 863 
1 864 
1 865 
1 866 
1 867 
1 868 
1 869 
1 870 
1 871 
1 872 
1 873 
1 874 
1 875 
1 876 
1 877 
1 878 
1 879 
1 880 
1 881 
1 882 
1 883 
1 884 
1 885 
1 886 
1 887 
1 888 
1 889 
1 890 
1 891 
1 892 
1 893 
1 894 
1 895 
1 896 
1 897 
1 898 
1 899 
1 900 
1 901 
1 902 
1 903 
1 904 
1 905 
1 906 
1 907 
1 908 
1 909 
1 910 
1 911 
1 912 
1 913 
1 914 
1 915 
1 916 
1 917 
1 918 
1 919 
1 920 
1 921 
1 922 
1 923 
1 924 
1 925 
1 926 
1 927 
1 928 
1 929 
1 930 
1 931 
1 932 
1 933 
1 934 
1 935 
1 936 
1 937 
1 938 
1 939 
1 940 
1 941 
1 942 
1 943 
1 944 
1 945 
1 946 
1 947 
1 948 
1 949 
1 950 
1 951 
1 952 
1 953 
1 954 
1 955 
1 956 
1 957 
1 958 
1 959 
1 960 
1 961 
1 962 
1 963 
1 964 
1 965 
1 966 
1 967 
1 968 
1 969 
1 970 
1 971 
1 972 
1 973 
1 974 
1 975 
1 976 
1 977 
1 978 
1 979 
1 980 
1 981 
1 982 
1 983 
1 984 
1 985 
1 986 
1 987 
1 988 
1 989 
1 990 
1 991 
1 992 
1 993 
1 994 
1 995 
1 996 
1 997 
1 998 
1 999 
1 1000 
1 1001 
1 1002 
1 1003 
1 1004 
1 1005 
1 1006 
1 1007 
1 1008 
1 1009 
1 1010 
1 1011 
1 1012 
1 1013 
1 1014 
1 1015 
1 1016 
1 1017 
1 1018 
1 1019 
1 1020 
1 1021 
1 1022 
1 1023 
1 1024 
1 1025 
1 1026 
1 1027 
1 1028 
1 1029 
1 1030 
1 1031 
1 1032 
1 1033 
1 1034 
1 1035 
1 1036 
1 1037 
1 1038 
1 1039 
1 1040 
1 1041 
1 1042 
1 1043 
1 1044 
1 1045 
1 1046 
1 1047 
1 1048 

POINT_DATA 1049
SCALARS id double
LOOKUP_TABLE default
1027 980 1048 977 1020 951 993 1033 964 
983 1036 976 1032 978 968 1024 945 1045 
966 975 390 39 388 41 42 389 0 
40 391 43 48 44 45 47 49 46 
51 50 1 990 53 2 52 55 57 
54 56 58 59 62 63 61 64 60 
394 65 3 66 393 67 395 392 68 
73 71 70 72 69 78 77 74 75 
76 82 79 80 83 81 88 86 87 
85 84 91 90 93 89 92 4 492 
97 495 94 493 95 96 494 100 99 
102 98 101 106 107 105 104 103 110 
109 112 108 111 115 116 113 114 117 
121 118 119 122 120 557 560 126 123 
125 558 124 559 5 127 130 131 128 
129 132 133 134 136 135 141 138 140 
139 137 143 144 146 145 142 147 149 
150 151 148 153 589 154 588 587 155 
590 156 152 6 159 157 160 161 162 
158 164 163 7 8 166 165 167 172 
169 171 168 170 174 176 175 177 173 
9 179 178 180 181 384 383 386 385 
387 1004 1040 933 397 398 396 399 400 
488 487 490 491 489 554 553 555 556 
552 591 595 592 594 593 941 972 955 
184 183 185 186 182 381 382 380 378 
379 995 947 403 402 404 401 405 483 
486 482 485 484 547 550 551 549 548 
597 600 599 596 598 187 189 188 191 
190 374 373 375 376 377 1041 1005 409 
406 410 407 408 478 479 481 477 480 
546 542 543 544 545 602 603 605 604 
601 1016 194 192 193 196 195 370 371 
372 369 368 954 942 411 412 414 413 
415 476 474 473 472 475 537 540 541 
538 539 607 608 606 610 609 987 932 
197 200 199 198 201 366 363 367 365 
364 1047 1026 969 418 420 419 417 416 
468 470 469 471 467 533 534 532 535 
536 974 614 615 613 611 612 930 962 
960 1028 204 203 202 205 206 360 361 
362 359 358 936 1008 1018 939 424 423 
421 425 422 463 465 462 464 466 1006 
963 530 531 527 529 528 616 617 619 
620 618 986 1009 207 210 208 209 211 
353 354 355 356 357 967 985 429 428 
426 427 430 971 459 460 458 461 457 
1034 1010 522 524 523 525 526 1001 1002 
624 623 622 625 621 1022 997 1030 1011 
1037 213 216 214 215 212 351 349 350 
352 348 1042 952 1014 998 431 433 989 
10 435 434 432 441 437 440 438 953 
436 439 1038 11 1017 443 442 1000 12 
445 444 451 446 449 448 447 450 452 
454 455 453 456 1031 499 13 498 944 
500 496 497 506 501 505 503 502 504 
1003 507 508 14 15 510 981 509 512 
516 513 515 514 511 520 1023 521 517 
518 519 565 563 561 564 562 16 567 
569 570 571 566 568 573 17 572 937 
18 575 1019 574 1025 579 979 577 576 
580 578 581 1029 583 584 585 582 586 
973 1043 34 19 946 217 220 221 219 
218 345 343 344 347 346 965 984 992 
1007 1012 935 1021 1044 994 988 950 1015 
222 223 225 224 226 664 342 339 663 
20 662 340 341 660 661 21 668 667 
666 22 665 669 673 671 672 670 675 
676 678 674 677 683 679 680 681 682 
715 686 714 23 713 717 685 684 687 
716 719 718 722 723 721 720 36 725 
724 37 727 726 732 730 733 728 729 
731 736 738 737 734 735 633 739 741 
634 740 632 742 631 24 747 744 743 
746 745 748 751 750 749 752 754 753 
757 756 755 762 760 758 761 759 763 
765 764 767 766 772 768 769 770 771 
777 776 773 775 774 780 779 778 781 
782 786 785 784 787 783 792 790 791 
789 788 796 794 793 797 795 800 819 
35 817 801 798 818 820 799 806 805 
802 804 803 808 811 810 807 809 814 
812 816 815 813 999 25 628 629 626 
627 630 26 228 227 27 229 230 338 
337 335 334 336 692 689 690 688 691 
635 639 636 637 638 824 823 822 825 
821 1013 934 929 234 231 233 235 232 
333 329 331 330 332 694 696 697 693 
695 642 644 640 641 643 996 970 982 
826 829 828 830 827 931 943 958 940 
237 236 240 238 239 328 326 324 325 
327 699 698 701 700 702 645 647 646 
649 648 991 832 835 834 833 831 1035 
949 242 244 243 241 245 322 323 320 
321 319 707 703 704 705 706 652 651 
653 650 654 938 1039 1046 957 961 956 
959 29 948 247 250 249 246 248 316 
318 315 314 317 710 709 708 712 711 
655 658 657 656 659 926 927 28 924 
925 928 255 251 254 253 252 30 312 
311 310 313 305 308 309 307 306 301 
300 302 304 303 298 296 297 299 295 
292 291 290 294 293 289 288 287 286 
285 31 282 284 281 283 280 279 278 
276 277 275 274 273 271 272 270 266 
267 268 269 264 265 263 261 262 259 
258 257 256 260 838 837 836 839 32 
840 844 843 841 842 848 845 846 847 
849 854 851 853 850 852 858 855 857 
856 859 864 860 861 863 862 865 869 
868 867 866 870 874 873 872 871 877 
879 876 878 875 882 884 883 881 880 
889 888 886 885 887 892 894 893 890 
891 897 896 38 898 895 899 900 901 
902 903 908 904 906 907 905 911 913 
912 910 909 916 918 914 917 915 923 
919 920 921 922 33 
FIELD FieldData 14
r 3 1049 double
5.91095 -5.17602 0 -6.99863 -4.59651 0 -6.35546 -4.66952 0 
-7.25844 -3.95494 0 8.12281 -3.54982 0 9.21125 -3.09847 0 
-9.82702 -2.3646 0 -8.9394 -2.75112 0 8.36177 -2.99546 0 
8.72585 -2.54088 0 9.4448 -2.07275 0 10.2721 -2.34762 0 
-10.8027 -1.16038 0 -10.411 -1.65213 0 -9.46597 -1.93187 0 
10.334 -1.57451 0 10.8772 -1.13357 0 -11.8623 -0.173845 0 
-11.3436 -0.77169 0 11.4691 -0.573084 0 -15 0.4 0 
-14.8214 0 0 -15 0.8 0 -14.4643 0 0 
-14.2857 0 0 -15 0.6 0 -15 0 0 
-14.6429 0 0 -15 0.2 0 -14.1071 0 0 
-13.2143 0 0 -13.9286 0 0 -13.75 0 0 
-13.3929 0 0 -13.0357 0 0 -13.5714 0 0 
-12.6786 0 0 -12.8571 0 0 -12.5 0 0 
-11.9001 0.528801 0 -11.1429 0 0 -11.5 0 0 
-11.3214 0 0 -10.7857 0 0 -10.4286 0 0 
-10.9643 0 0 -10.6071 0 0 -10.25 0 0 
-10.0714 0 0 -9.5357 0 0 -9.3571 0 0 
-9.7143 0 0 -9.1786 0 0 -9.8929 0 0 
-9 0.6 0 -8.8 0 0 -9 0 0 
-8.6 0 0 -9 0.4 0 -8.4 0 0 
-9 0.8 0 -9 0.2 0 -8.2 0 0 
-7.2 0 0 -7.6 0 0 -7.8 0 0 
-7.4 0 0 -8 0 0 -6.2 0 0 
-6.4 0 0 -7 0 0 -6.8 0 0 
-6.6 0 0 -5.4 0 0 -6 0 0 
-5.8 0 0 -5.2 0 0 -5.6 0 0 
-4.2 0 0 -4.6 0 0 -4.4 0 0 
-4.8 0 0 -5 0 0 -3.6 0 0 
-3.8 0 0 -3.2 0 0 -4 0 0 
-3.4 0 0 -3 0 0 -3 0.8 0 
-2.2 0 0 -3 0.2 0 -2.8 0 0 
-3 0.6 0 -2.6 0 0 -2.4 0 0 
-3 0.4 0 -1.6 0 0 -1.8 0 0 
-1.2 0 0 -2 0 0 -1.4 0 0 
-0.4 0 0 -0.2 0 0 -0.6 0 0 
-0.8 0 0 -1 0 0 0.4 0 0 
0.2 0 0 0.8 0 0 -0 0 0 
0.6 0 0 1.4 0 0 1.6 0 0 
1 0 0 1.2 0 0 1.8 0 0 
2.6 0 0 2 0 0 2.2 0 0 
2.8 0 0 2.4 0 0 3 0.8 0 
3 0.2 0 3.8 0 0 3.2 0 0 
3.6 0 0 3 0.6 0 3.4 0 0 
3 0.4 0 3 0 0 4 0 0 
4.6 0 0 4.8 0 0 4.2 0 0 
4.4 0 0 5 0 0 5.2 0 0 
5.4 0 0 5.8 0 0 5.6 0 0 
6.8 0 0 6.2 0 0 6.6 0 0 
6.4 0 0 6 0 0 7.2 0 0 
7.4 0 0 7.8 0 0 7.6 0 0 
7 0 0 8 0 0 8.4 0 0 
8.6 0 0 8.8 0 0 8.2 0 0 
9.3571 0 0 9 0.6 0 9.5357 0 0 
9 0.4 0 9 0.2 0 9.7143 0 0 
9 0.8 0 9.8929 0 0 9.1786 0 0 
9 0 0 10.4286 0 0 10.0714 0 0 
10.6071 0 0 10.7857 0 0 10.9643 0 0 
10.25 0 0 11.3214 0 0 11.1429 0 0 
11.5 0 0 12.5 0 0 12.8571 0 0 
12.6786 0 0 13.0357 0 0 13.9286 0 0 
13.3929 0 0 13.75 0 0 13.2143 0 0 
13.5714 0 0 14.2857 0 0 14.6429 0 0 
14.4643 0 0 14.8214 0 0 14.1071 0 0 
15 0 0 15 0.4 0 15 0.2 0 
15 0.6 0 15 0.8 0 -15 1.6 0 
-15 1.8 0 -15 1.2 0 -15 1.4 0 
-15 1 0 -12.4196 1.10284 0 -11.8596 1.34429 0 
-11.3707 1.94571 0 -9 1.2 0 -9 1.4 0 
-9 1 0 -9 1.6 0 -9 1.8 0 
-3 1.6 0 -3 1.8 0 -3 1.2 0 
-3 1 0 -3 1.4 0 3 1.4 0 
3 1.6 0 3 1.2 0 3 1 0 
3 1.8 0 9 1 0 9 1.8 0 
9 1.2 0 9 1.6 0 9 1.4 0 
11.2538 1.5811 0 11.7766 1.85484 0 12.2237 1.36655 0 
15 1.4 0 15 1.2 0 15 1.6 0 
15 1.8 0 15 1 0 -15 2.2 0 
-15 2 0 -15 2.4 0 -15 2.8 0 
-15 2.6 0 -11.4505 2.59493 0 -10.9065 2.96619 0 
-9 2.4 0 -9 2.2 0 -9 2.6 0 
-9 2 0 -9 2.8 0 -3 2.6 0 
-3 2 0 -3 2.8 0 -3 2.2 0 
-3 2.4 0 3 2.8 0 3 2.2 0 
3 2 0 3 2.4 0 3 2.6 0 
9 2.2 0 9 2.8 0 9 2.6 0 
9 2 0 9 2.4 0 15 2 0 
15 2.4 0 15 2.2 0 15 2.8 0 
15 2.6 0 -15 3.6 0 -15 3.8 0 
-15 3.4 0 -15 3.2 0 -15 3 0 
-12.5112 3.35694 0 -10.9319 3.63273 0 -9 3.6 0 
-9 3 0 -9 3.8 0 -9 3.2 0 
-9 3.4 0 -3 3.6 0 -3 3.4 0 
-3 3 0 -3 3.8 0 -3 3.2 0 
3 3 0 3 3.8 0 3 3.6 0 
3 3.4 0 3 3.2 0 9 3.2 0 
9 3.4 0 9 3.8 0 9 3.6 0 
9 3 0 10.9167 3.7339 0 15 3.4 0 
15 3 0 15 3.2 0 15 3.8 0 
15 3.6 0 -15 4.4 0 -15 4.2 0 
-15 4 0 -15 4.6 0 -15 4.8 0 
-12.8605 4.99896 0 -10.6591 4.37734 0 -9 4 0 
-9 4.2 0 -9 4.6 0 -9 4.4 0 
-9 4.8 0 -3 4 0 -3 4.4 0 
-3 4.6 0 -3 4.8 0 -3 4.2 0 
3 4.8 0 3 4.2 0 3 4 0 
3 4.6 0 3 4.4 0 9 4.2 0 
9 4.4 0 9 4 0 9 4.8 0 
9 4.6 0 10.4097 4.58943 0 12.7198 4.48612 0 
15 4 0 15 4.6 0 15 4.4 0 
15 4.2 0 15 4.8 0 -15 5.2 0 
-15 5.8 0 -15 5 0 -15 5.4 0 
-15 5.6 0 -13.2508 5.71337 0 -12.6124 5.52792 0 
-10.3797 5.32836 0 -9 5.4 0 -9 5.8 0 
-9 5.6 0 -9 5.2 0 -9 5 0 
-3 5.6 0 -3 5.2 0 -3 5.4 0 
-3 5 0 -3 5.8 0 3 5.6 0 
3 5.4 0 3 5.8 0 3 5.2 0 
3 5 0 6.60887 5.95626 0 9 5.6 0 
9 5.8 0 9 5.4 0 9 5 0 
9 5.2 0 10.2703 5.14909 0 10.9714 5.09973 0 
10.336 5.7979 0 12.7185 5.04035 0 15 5.4 0 
15 5.2 0 15 5 0 15 5.6 0 
15 5.8 0 -15 6.4 0 -15 6.2 0 
-15 6 0 -15 6.6 0 -15 6.8 0 
-13.0632 6.69616 0 -12.7095 6.09586 0 -10.1526 6.10924 0 
-9.93704 6.723 0 -9 6.6 0 -9 6.4 0 
-9 6 0 -9 6.8 0 -9 6.2 0 
-3 6.6 0 -3 6.2 0 -3 6.8 0 
-3 6.4 0 -3 6 0 -0.420014 6.9266 0 
0.172078 6.88865 0 3 6.2 0 3 6 0 
3 6.8 0 3 6.4 0 3 6.6 0 
9 6 0 9 6.2 0 9 6.6 0 
9 6.8 0 9 6.4 0 10.0004 6.69551 0 
12.995 6.62691 0 15 6 0 15 6.6 0 
15 6.2 0 15 6.4 0 15 6.8 0 
-15 7.8 0 -15 7.6 0 -15 7.4 0 
-15 7.2 0 -15 7 0 -12.9296 7.87814 0 
-9.54844 7.89817 0 -9 7.6 0 -9 7.4 0 
-9 7 0 -9 7.2 0 -9 7.8 0 
-5.89206 7.67446 0 -3 7.4 0 -3 7.2 0 
-3 7.6 0 -3 7 0 -3 7.8 0 
-0.331269 7.77675 0 0.0764499 7.48653 0 3 7.8 0 
3 7.4 0 3 7.6 0 3 7.2 0 
3 7 0 5.87766 7.33935 0 6.15863 7.84762 0 
9 7.6 0 9 7.4 0 9 7.2 0 
9 7.8 0 9 7 0 9.56483 7.74151 0 
10.0958 7.40685 0 12.6947 7.43296 0 13.6328 7.47664 0 
13.1274 7.7686 0 15 7.2 0 15 7.8 0 
15 7.4 0 15 7.6 0 15 7 0 
-15 8.2 0 -15 8.6 0 -15 8.4 0 
-15 8 0 -15 8.8 0 -13.3414 8.27052 0 
-10.11 8.49684 0 -9.65361 8.67348 0 -9.11642 8.6462 0 
-8.8214 8 0 -8.4643 8 0 -8.54572 8.66203 0 
-9 8 0 -8.1071 8 0 -8.2857 8 0 
-8.6429 8 0 -7.0357 8 0 -7.75 8 0 
-7.2143 8 0 -7.5714 8 0 -7.41614 8.70134 0 
-7.9286 8 0 -7.3929 8 0 -7.9628 8.75268 0 
-6.5 8 0 -6.65256 8.5919 0 -6.6786 8 0 
-6.8571 8 0 -6.21956 8.18467 0 -5.5 8 0 
-5.1429 8 0 -5.3214 8 0 -4.0714 8 0 
-4.9643 8 0 -4.4286 8 0 -4.6071 8 0 
-4.7857 8 0 -4.25 8 0 -3.8929 8 0 
-3.5357 8 0 -3.3571 8 0 -3.7143 8 0 
-3.1786 8 0 -3.92068 8.87872 0 -2.2857 8 0 
-3 8 0 -2.4643 8 0 -2.97977 8.79458 0 
-2.1071 8 0 -2.8214 8 0 -2.6429 8 0 
-1.0357 8 0 -1.9286 8 0 -1.2143 8 0 
-1.5714 8 0 -1.75 8 0 -1.3929 8 0 
-1.50086 8.64031 0 -0.8571 8 0 -0.6786 8 0 
-0.5 8 0 0.5 8 0 0.8571 8 0 
0.197808 8.09902 0 0.6786 8 0 1.2143 8 0 
1.9286 8 0 1.3929 8 0 1.75 8 0 
1.5714 8 0 1.0357 8 0 2.6429 8 0 
2.33099 8.80948 0 2.8214 8 0 2.1071 8 0 
2.2857 8 0 2.4643 8 0 3.8929 8 0 
3.5357 8 0 3.1786 8 0 3.7143 8 0 
3.3571 8 0 3 8 0 4.25 8 0 
4.6071 8 0 4.7857 8 0 4.9643 8 0 
4.0714 8 0 4.4286 8 0 5.3214 8 0 
5.5 8 0 5.1429 8 0 6.3694 8.37595 0 
6.5 8 0 6.8571 8 0 6.95643 8.5098 0 
6.6786 8 0 7.97791 8.63884 0 7.5714 8 0 
7.4275 8.83961 0 7.2143 8 0 7.0357 8 0 
7.75 8 0 7.3929 8 0 7.9286 8 0 
8.54597 8.78868 0 8.2857 8 0 8.4643 8 0 
8.6429 8 0 8.1071 8 0 8.8214 8 0 
9.45729 8.36602 0 9.09623 8.84013 0 9 8 0 
9 8 0 13.5341 8.92476 0 15 8 0 
15 8.6 0 15 8.8 0 15 8.4 0 
15 8.2 0 -15 9.4 0 -15 9.8 0 
-15 9.6 0 -15 9 0 -15 9.2 0 
-9.21439 9.28503 0 -8.73391 9.16294 0 -8.22807 9.28611 0 
-7.67315 9.25637 0 -7.12349 9.27207 0 -6.54597 9.54855 0 
-6.086 9.97458 0 6.70896 9.0432 0 7.60906 9.34661 0 
8.16369 9.17993 0 8.70185 9.33315 0 13.4756 9.483 0 
15 9 0 15 9.2 0 15 9.6 0 
15 9.4 0 15 9.8 0 -14.1667 10 0 
-15 10.2 0 -15 10.8 0 -14.3333 10 0 
-15 10 0 -14.5 10 0 -15 10.6 0 
-15 10.4 0 -14.8333 10 0 -14.6667 10 0 
-14 10 0 -12.2 10 0 -12.4 10 0 
-12.6 10 0 -13 10 0 -12.8 10 0 
-12 10 0 -11.2 10 0 -11.6 10 0 
-11.4 10 0 -11.8 10 0 -10.8 10 0 
-10.6 10 0 -10.2 10 0 -11 10 0 
-10.4 10 0 -9.2 10 0 -10 10 0 
-9.8 10 0 -9.6 10 0 -9.4 10 0 
-8.4643 10 0 -9 10.6 0 -8.6429 10 0 
-9 10 0 -8.8214 10 0 -8.1071 10 0 
-9 10.4 0 -9 10.2 0 -9 10.8 0 
-8.2857 10 0 -7.75 10 0 -7.9286 10 0 
-7.2143 10 0 -7.0357 10 0 -7.3929 10 0 
-7.5714 10 0 -6.5 10 0 -6.6786 10 0 
-6.8571 10 0 -5.5 10 0 -5.1429 10 0 
-5.3214 10 0 -4.25 10 0 -4.6071 10 0 
-4.0714 10 0 -4.9643 10 0 -4.7857 10 0 
-4.4286 10 0 -3.5357 10 0 -3.1786 10 0 
-3.3571 10 0 -3.8929 10 0 -3.7143 10 0 
-3 10.6 0 -2.8 10 0 -2.4 10 0 
-3 10.8 0 -2.6 10 0 -3 10.4 0 
-2.2 10 0 -3 10.2 0 -3 10 0 
-1.2 10 0 -1.8 10 0 -2 10 0 
-1.4 10 0 -1.6 10 0 -1 10 0 
-0.4 10 0 -0.6 10 0 -0.8 10 0 
-0.2 10 0 0.2 10 0 -0 10 0 
0.8 10 0 0.6 10 0 0.4 10 0 
1.8 10 0 1.4 10 0 1 10 0 
1.6 10 0 1.2 10 0 2 10 0 
2.4 10 0 2.2 10 0 2.8 10 0 
2.6 10 0 3.8 10 0 3 10 0 
3.2 10 0 3.4 10 0 3.6 10 0 
4.8 10 0 4.6 10 0 4 10 0 
4.4 10 0 4.2 10 0 5.4 10 0 
5.2 10 0 5 10 0 5.6 10 0 
5.8 10 0 6.6 10 0 6.4 10 0 
6.2 10 0 6.8 10 0 6 10 0 
7.8 10 0 7.4 10 0 7.6 10 0 
7.2 10 0 7 10 0 8.6 10 0 
8.2 10 0 8 10 0 8.8 10 0 
8.4 10 0 9.6 10 0 9 10.6 0 
9 10 0 9 10.2 0 9.8 10 0 
9.2 10 0 9 10.4 0 9 10.8 0 
9.4 10 0 10.8 10 0 10.6 10 0 
10 10 0 10.4 10 0 10.2 10 0 
11.2 10 0 11.8 10 0 11.6 10 0 
11 10 0 11.4 10 0 12.4 10 0 
12 10 0 12.8 10 0 12.6 10 0 
12.2 10 0 13.4818 10.0479 0 13 10 0 
14.5 10 0 14.3333 10 0 14.8333 10 0 
14.6667 10 0 14.1667 10 0 14 10 0 
15 10.4 0 15 10.2 0 15 10 0 
15 10.6 0 15 10.8 0 -15 11 0 
-15 11.2 0 -15 11.6 0 -15 11.8 0 
-15 11.4 0 -9 11.8 0 -9 11.2 0 
-9 11.4 0 -9 11 0 -9 11.6 0 
-3 11 0 -3 11.8 0 -3 11.2 0 
-3 11.4 0 -3 11.6 0 9 11.6 0 
9 11.4 0 9 11.2 0 9 11.8 0 
9 11 0 11.9956 11.7165 0 11.5021 11.413 0 
12.8383 11.0239 0 15 11.6 0 15 11 0 
15 11.4 0 15 11.8 0 15 11.2 0 
-15 12 0 -15 12.8 0 -15 12.4 0 
-15 12.6 0 -15 12.2 0 -9 12.2 0 
-9 12.6 0 -9 12.8 0 -9 12 0 
-9 12.4 0 -3 12.4 0 -3 12.8 0 
-3 12 0 -3 12.2 0 -3 12.6 0 
3.1304 12.4378 0 3.98543 12.4525 0 5.92941 12.9835 0 
9 12 0 9 12.6 0 9 12.4 0 
9 12.8 0 9 12.2 0 10.7962 12.6367 0 
11.2116 12.0219 0 11.464 12.5798 0 11.8916 12.2757 0 
15 12.2 0 15 12 0 15 12.8 0 
15 12.4 0 15 12.6 0 -15 13 0 
-15 13.4 0 -15 13.8 0 -15 13.6 0 
-15 13.2 0 -9 13.2 0 -9 13 0 
-9 13.6 0 -9 13.4 0 -9 13.8 0 
-3 13 0 -3 13.4 0 -3 13.2 0 
-3 13.8 0 -3 13.6 0 8.38223 13.8893 0 
9 13.2 0 9 13.8 0 9 13.6 0 
9 13.4 0 9 13 0 9.92119 13.7196 0 
10.7914 13.2198 0 15 13.2 0 15 13.6 0 
15 13.4 0 15 13 0 15 13.8 0 
-15 14.2 0 -15 14 0 -15 14.6 0 
-15 14.4 0 -15 14.8 0 -9 14.8 0 
-9 14 0 -9 14.2 0 -9 14.4 0 
-9 14.6 0 -3 14.4 0 -3 14.2 0 
-3 14.6 0 -3 14 0 -3 14.8 0 
6.58774 14.3498 0 7.715 14.8166 0 7.7974 14.0737 0 
8.25754 14.4804 0 8.65079 14.8783 0 8.77442 14.2926 0 
9.30037 14.4422 0 9 14 0 9.84074 14.2918 0 
15 14.2 0 15 14.8 0 15 14.6 0 
15 14 0 15 14.4 0 -15 15.4 0 
-15 15 0 -15 15.6 0 -15 15.8 0 
-15 15.2 0 -9 15.4 0 -9 15.2 0 
-9 15 0 -9 15.8 0 -9 15.6 0 
-3 15 0 -3 15.6 0 -3 15.4 0 
-3 15.2 0 -3 15.8 0 9 15.5 0 
9 15.6667 0 9 15 0 9 15.1667 0 
9 15.3333 0 9 15.8333 0 15 15.8 0 
15 15 0 15 15.6 0 15 15.4 0 
15 15.2 0 -15 16 0 -14.6 16 0 
-14.4 16 0 -14.2 16 0 -14.8 16 0 
-13.2 16 0 -13.8 16 0 -14 16 0 
-13.6 16 0 -13.4 16 0 -12.4 16 0 
-12.2 16 0 -12.6 16 0 -13 16 0 
-12.8 16 0 -11.8 16 0 -11.4 16 0 
-11.6 16 0 -12 16 0 -11.2 16 0 
-10.6 16 0 -10.4 16 0 -10.2 16 0 
-11 16 0 -10.8 16 0 -10 16 0 
-9.8 16 0 -9.6 16 0 -9.4 16 0 
-9.2 16 0 -9 16 0 -8.4 16 0 
-8.8 16 0 -8.2 16 0 -8.6 16 0 
-8 16 0 -7.8 16 0 -7.6 16 0 
-7.2 16 0 -7.4 16 0 -7 16 0 
-6.8 16 0 -6.6 16 0 -6.2 16 0 
-6.4 16 0 -6 16 0 -5.2 16 0 
-5.4 16 0 -5.6 16 0 -5.8 16 0 
-4.8 16 0 -5 16 0 -4.6 16 0 
-4.2 16 0 -4.4 16 0 -3.8 16 0 
-3.6 16 0 -3.4 16 0 -3.2 16 0 
-4 16 0 -2.4 16 0 -2.6 16 0 
-2.8 16 0 -2.2 16 0 -3 16 0 
-2 16 0 -1.2 16 0 -1.4 16 0 
-1.8 16 0 -1.6 16 0 -0.4 16 0 
-1 16 0 -0.8 16 0 -0.6 16 0 
-0.2 16 0 0.8 16 0 0.2 16 0 
0.6 16 0 -0 16 0 0.4 16 0 
1.6 16 0 1 16 0 1.4 16 0 
1.2 16 0 1.8 16 0 2.8 16 0 
2 16 0 2.2 16 0 2.6 16 0 
2.4 16 0 3 16 0 3.8 16 0 
3.6 16 0 3.4 16 0 3.2 16 0 
4 16 0 4.8 16 0 4.6 16 0 
4.4 16 0 4.2 16 0 5.4 16 0 
5.8 16 0 5.2 16 0 5.6 16 0 
5 16 0 6.4 16 0 6.8 16 0 
6.6 16 0 6.2 16 0 6 16 0 
7.8 16 0 7.6 16 0 7.2 16 0 
7 16 0 7.4 16 0 8.4 16 0 
8.8 16 0 8.6 16 0 8 16 0 
8.2 16 0 9.6 16 0 9.4 16 0 
9 16 0 9.8 16 0 9.2 16 0 
10 16 0 10.2 16 0 10.4 16 0 
10.6 16 0 10.8 16 0 11.8 16 0 
11 16 0 11.4 16 0 11.6 16 0 
11.2 16 0 12.4 16 0 12.8 16 0 
12.6 16 0 12.2 16 0 12 16 0 
13.4 16 0 13.8 16 0 13 16 0 
13.6 16 0 13.2 16 0 14.8 16 0 
14 16 0 14.2 16 0 14.4 16 0 
14.6 16 0 15 16 0 
gid 1 1049 double
1 1 1 1 1 1 1 1 1 
1 1 1 1 1 1 1 1 1 
1 1 2 2 2 2 2 2 2 
2 2 2 2 2 2 2 2 2 
2 2 2 1 2 2 2 2 2 
2 2 2 2 2 2 2 2 2 
2 2 2 2 2 2 2 2 2 
2 2 2 2 2 2 2 2 2 
2 2 2 2 2 2 2 2 2 
2 2 2 2 2 2 2 2 2 
2 2 2 2 2 2 2 2 2 
2 2 2 2 2 2 2 2 2 
2 2 2 2 2 2 2 2 2 
2 2 2 2 2 2 2 2 2 
2 2 2 2 2 2 2 2 2 
2 2 2 2 2 2 2 2 2 
2 2 2 2 2 2 2 2 2 
2 2 2 2 2 2 2 2 2 
2 2 2 2 2 2 2 2 2 
2 2 2 2 2 2 2 2 2 
2 2 2 2 2 2 2 2 2 
2 2 2 2 2 2 2 2 2 
2 1 1 1 2 2 2 2 2 
2 2 2 2 2 2 2 2 2 
2 2 2 2 2 2 1 1 1 
2 2 2 2 2 2 2 2 2 
2 1 1 2 2 2 2 2 2 
2 2 2 2 2 2 2 2 2 
2 2 2 2 2 2 2 2 2 
2 2 2 2 2 2 1 1 2 
2 2 2 2 2 2 2 2 2 
2 2 2 2 2 2 2 2 2 
2 1 2 2 2 2 2 2 2 
2 2 2 1 1 2 2 2 2 
2 2 2 2 2 2 2 2 2 
2 2 2 2 2 2 2 1 1 
2 2 2 2 2 2 2 2 2 
2 1 1 1 2 2 2 2 2 
2 2 2 2 2 2 2 2 2 
2 1 2 2 2 2 2 1 1 
1 1 2 2 2 2 2 2 2 
2 2 2 1 1 1 1 2 2 
2 2 2 2 2 2 2 2 1 
1 2 2 2 2 2 2 2 2 
2 2 1 1 2 2 2 2 2 
2 2 2 2 2 1 1 2 2 
2 2 2 1 2 2 2 2 2 
1 1 2 2 2 2 2 1 1 
2 2 2 2 2 1 1 1 1 
1 2 2 2 2 2 2 2 2 
2 2 1 1 1 1 2 2 1 
2 2 2 2 2 2 2 2 1 
2 2 1 2 1 2 2 1 2 
2 2 2 2 2 2 2 2 2 
2 2 2 2 1 2 2 2 1 
2 2 2 2 2 2 2 2 2 
1 2 2 2 2 2 1 2 2 
2 2 2 2 2 2 1 2 2 
2 2 2 2 2 2 2 2 2 
2 2 2 2 2 2 2 2 1 
2 2 1 2 1 2 1 2 2 
2 2 2 1 2 2 2 2 2 
1 1 2 2 1 2 2 2 2 
2 2 2 2 2 2 1 1 1 
1 1 1 1 1 1 1 1 1 
2 2 2 2 2 2 2 2 2 
2 2 2 2 2 2 2 2 2 
2 2 2 2 2 2 2 2 2 
2 2 2 2 2 2 2 2 2 
2 2 2 2 2 2 2 2 2 
2 2 2 2 2 2 2 2 2 
2 2 2 2 2 2 2 2 2 
2 2 2 2 2 2 2 2 2 
2 2 2 2 2 2 2 2 2 
2 2 2 2 2 2 2 2 2 
2 2 2 2 2 2 2 2 2 
2 2 2 2 2 2 2 2 2 
2 2 2 2 2 2 2 2 2 
2 2 2 2 2 2 2 2 2 
2 2 2 2 2 2 2 2 2 
2 2 2 2 2 2 2 2 2 
2 2 2 2 2 2 2 2 2 
2 2 2 2 1 2 2 2 2 
2 2 2 2 2 2 2 2 2 
2 2 2 2 2 2 2 2 2 
2 2 2 2 2 2 2 2 2 
2 1 1 1 2 2 2 2 2 
2 2 2 2 2 2 2 2 2 
2 2 2 2 2 2 1 1 1 
2 2 2 2 2 1 1 1 1 
2 2 2 2 2 2 2 2 2 
2 2 2 2 2 2 2 2 2 
2 2 1 2 2 2 2 2 1 
1 2 2 2 2 2 2 2 2 
2 2 2 2 2 2 2 2 2 
2 2 2 1 1 1 1 1 1 
1 2 1 2 2 2 2 2 2 
2 2 2 2 2 2 2 2 2 
2 2 2 2 2 2 2 2 2 
2 2 2 2 2 2 2 2 2 
2 2 2 2 2 2 2 2 2 
2 2 2 2 2 2 2 2 2 
2 2 2 2 2 2 2 2 2 
2 2 2 2 2 2 2 2 2 
2 2 2 2 2 2 2 2 2 
2 2 2 2 2 2 2 2 2 
2 2 2 2 2 2 2 2 2 
2 2 2 2 2 2 2 2 2 
2 2 2 2 2 2 2 2 2 
2 2 2 2 2 2 2 2 2 
2 2 2 2 2 2 2 2 2 
2 2 2 2 2 2 2 2 2 
2 2 2 2 2 2 2 2 2 
2 2 2 2 2 2 2 2 2 
2 2 2 2 2 2 2 2 2 
2 2 2 2 2 2 2 2 2 
2 2 2 2 2 
A 1 1049 double
10 10 10 10 10 10 10 10 10 
10 10 10 10 10 10 10 10 10 
10 10 10 10 10 10 10 10 10 
10 10 10 10 10 10 10 10 10 
10 10 10 10 10 10 10 10 10 
10 10 10 10 10 10 10 10 10 
10 10 10 10 10 10 10 10 10 
10 10 10 10 10 10 10 10 10 
10 10 10 10 10 10 10 10 10 
10 10 10 10 10 10 10 10 10 
10 10 10 10 10 10 10 10 10 
10 10 10 10 10 10 10 10 10 
10 10 10 10 10 10 10 10 10 
10 10 10 10 10 10 10 10 10 
10 10 10 10 10 10 10 10 10 
10 10 10 10 10 10 10 10 10 
10 10 10 10 10 10 10 10 10 
10 10 10 10 10 10 10 10 10 
10 10 10 10 10 10 10 10 10 
10 10 10 10 10 10 10 10 10 
10 10 10 10 10 10 10 10 10 
10 10 10 10 10 10 10 10 10 
10 10 10 10 10 10 10 10 10 
10 10 10 10 10 10 10 10 10 
10 10 10 10 10 10 10 10 10 
10 10 10 10 10 10 10 10 10 
10 10 10 10 10 10 10 10 10 
10 10 10 10 10 10 10 10 10 
10 10 10 10 10 10 10 10 10 
10 10 10 10 10 10 10 10 10 
10 10 10 10 10 10 10 10 10 
10 10 10 10 10 10 10 10 10 
10 10 10 10 10 10 10 10 10 
10 10 10 10 10 10 10 10 10 
10 10 10 10 10 10 10 10 10 
10 10 10 10 10 10 10 10 10 
10 10 10 10 10 10 10 10 10 
10 10 10 10 10 10 10 10 10 
10 10 10 10 10 10 10 10 10 
10 10 10 10 10 10 10 10 10 
10 10 10 10 10 10 10 10 10 
10 10 10 10 10 10 10 10 10 
10 10 10 10 10 10 10 10 10 
10 10 10 10 10 10 10 10 10 
10 10 10 10 10 10 10 10 10 
10 10 10 10 10 10 10 10 10 
10 10 10 10 10 10 10 10 10 
10 10 10 10 10 10 10 10 10 
10 10 10 10 10 10 10 10 10 
10 10 10 10 10 10 10 10 10 
10 10 10 10 10 10 10 10 10 
10 10 10 10 10 10 10 10 10 
10 10 10 10 10 10 10 10 10 
10 10 10 10 10 10 10 10 10 
10 10 10 10 10 10 10 10 10 
10 10 10 10 10 10 10 10 10 
10 10 10 10 10 10 10 10 10 
10 10 10 10 10 10 10 10 10 
10 10 10 10 10 10 10 10 10 
10 10 10 10 10 10 10 10 10 
10 10 10 10 10 10 10 10 10 
10 10 10 10 10 10 10 10 10 
10 10 10 10 10 10 10 10 10 
10 10 10 10 10 10 10 10 10 
10 10 10 10 10 10 10 10 10 
10 10 10 10 10 10 10 10 10 
10 10 10 10 10 10 10 10 10 
10 10 10 10 10 10 10 10 10 
10 10 10 10 10 10 10 10 10 
10 10 10 10 10 10 10 10 10 
10 10 10 10 10 10 10 10 10 
10 10 10 10 10 10 10 10 10 
10 10 10 10 10 10 10 10 10 
10 10 10 10 10 10 10 10 10 
10 10 10 10 10 10 10 10 10 
10 10 10 10 10 10 10 10 10 
10 10 10 10 10 10 10 10 10 
10 10 10 10 10 10 10 10 10 
10 10 10 10 10 10 10 10 10 
10 10 10 10 10 10 10 10 10 
10 10 10 10 10 10 10 10 10 
10 10 10 10 10 10 10 10 10 
10 10 10 10 10 10 10 10 10 
10 10 10 10 10 10 10 10 10 
10 10 10 10 10 10 10 10 10 
10 10 10 10 10 10 10 10 10 
10 10 10 10 10 10 10 10 10 
10 10 10 10 10 10 10 10 10 
10 10 10 10 10 10 10 10 10 
10 10 10 10 10 10 10 10 10 
10 10 10 10 10 10 10 10 10 
10 10 10 10 10 10 10 10 10 
10 10 10 10 10 10 10 10 10 
10 10 10 10 10 10 10 10 10 
10 10 10 10 10 10 10 10 10 
10 10 10 10 10 10 10 10 10 
10 10 10 10 10 10 10 10 10 
10 10 10 10 10 10 10 10 10 
10 10 10 10 10 10 10 10 10 
10 10 10 10 10 10 10 10 10 
10 10 10 10 10 10 10 10 10 
10 10 10 10 10 10 10 10 10 
10 10 10 10 10 10 10 10 10 
10 10 10 10 10 10 10 10 10 
10 10 10 10 10 10 10 10 10 
10 10 10 10 10 10 10 10 10 
10 10 10 10 10 10 10 10 10 
10 10 10 10 10 10 10 10 10 
10 10 10 10 10 10 10 10 10 
10 10 10 10 10 10 10 10 10 
10 10 10 10 10 10 10 10 10 
10 10 10 10 10 10 10 10 10 
10 10 10 10 10 10 10 10 10 
10 10 10 10 10 10 10 10 10 
10 10 10 10 10 10 10 10 10 
10 10 10 10 10 10 10 10 10 
10 10 10 10 10 
B 1 1049 double
0.2 0.2 0.2 0.2 0.2 0.2 0.2 0.2 0.2 
0.2 0.2 0.2 0.2 0.2 0.2 0.2 0.2 0.2 
0.2 0.2 0.2 0.2 0.2 0.2 0.2 0.2 0.2 
0.2 0.2 0.2 0.2 0.2 0.2 0.2 0.2 0.2 
0.2 0.2 0.2 0.2 0.2 0.2 0.2 0.2 0.2 
0.2 0.2 0.2 0.2 0.2 0.2 0.2 0.2 0.2 
0.2 0.2 0.2 0.2 0.2 0.2 0.2 0.2 0.2 
0.2 0.2 0.2 0.2 0.2 0.2 0.2 0.2 0.2 
0.2 0.2 0.2 0.2 0.2 0.2 0.2 0.2 0.2 
0.2 0.2 0.2 0.2 0.2 0.2 0.2 0.2 0.2 
0.2 0.2 0.2 0.2 0.2 0.2 0.2 0.2 0.2 
0.2 0.2 0.2 0.2 0.2 0.2 0.2 0.2 0.2 
0.2 0.2 0.2 0.2 0.2 0.2 0.2 0.2 0.2 
0.2 0.2 0.2 0.2 0.2 0.2 0.2 0.2 0.2 
0.2 0.2 0.2 0.2 0.2 0.2 0.2 0.2 0.2 
0.2 0.2 0.2 0.2 0.2 0.2 0.2 0.2 0.2 
0.2 0.2 0.2 0.2 0.2 0.2 0.2 0.2 0.2 
0.2 0.2 0.2 0.2 0.2 0.2 0.2 0.2 0.2 
0.2 0.2 0.2 0.2 0.2 0.2 0.2 0.2 0.2 
0.2 0.2 0.2 0.2 0.2 0.2 0.2 0.2 0.2 
0.2 0.2 0.2 0.2 0.2 0.2 0.2 0.2 0.2 
0.2 0.2 0.2 0.2 0.2 0.2 0.2 0.2 0.2 
0.2 0.2 0.2 0.2 0.2 0.2 0.2 0.2 0.2 
0.2 0.2 0.2 0.2 0.2 0.2 0.2 0.2 0.2 
0.2 0.2 0.2 0.2 0.2 0.2 0.2 0.2 0.2 
0.2 0.2 0.2 0.2 0.2 0.2 0.2 0.2 0.2 
0.2 0.2 0.2 0.2 0.2 0.2 0.2 0.2 0.2 
0.2 0.2 0.2 0.2 0.2 0.2 0.2 0.2 0.2 
0.2 0.2 0.2 0.2 0.2 0.2 0.2 0.2 0.2 
0.2 0.2 0.2 0.2 0.2 0.2 0.2 0.2 0.2 
0.2 0.2 0.2 0.2 0.2 0.2 0.2 0.2 0.2 
0.2 0.2 0.2 0.2 0.2 0.2 0.2 0.2 0.2 
0.2 0.2 0.2 0.2 0.2 0.2 0.2 0.2 0.2 
0.2 0.2 0.2 0.2 0.2 0.2 0.2 0.2 0.2 
0.2 0.2 0.2 0.2 0.2 0.2 0.2 0.2 0.2 
0.2 0.2 0.2 0.2 0.2 0.2 0.2 0.2 0.2 
0.2 0.2 0.2 0.2 0.2 0.2 0.2 0.2 0.2 
0.2 0.2 0.2 0.2 0.2 0.2 0.2 0.2 0.2 
0.2 0.2 0.2 0.2 0.2 0.2 0.2 0.2 0.2 
0.2 0.2 0.2 0.2 0.2 0.2 0.2 0.2 0.2 
0.2 0.2 0.2 0.2 0.2 0.2 0.2 0.2 0.2 
0.2 0.2 0.2 0.2 0.2 0.2 0.2 0.2 0.2 
0.2 0.2 0.2 0.2 0.2 0.2 0.2 0.2 0.2 
0.2 0.2 0.2 0.2 0.2 0.2 0.2 0.2 0.2 
0.2 0.2 0.2 0.2 0.2 0.2 0.2 0.2 0.2 
0.2 0.2 0.2 0.2 0.2 0.2 0.2 0.2 0.2 
0.2 0.2 0.2 0.2 0.2 0.2 0.2 0.2 0.2 
0.2 0.2 0.2 0.2 0.2 0.2 0.2 0.2 0.2 
0.2 0.2 0.2 0.2 0.2 0.2 0.2 0.2 0.2 
0.2 0.2 0.2 0.2 0.2 0.2 0.2 0.2 0.2 
0.2 0.2 0.2 0.2 0.2 0.2 0.2 0.2 0.2 
0.2 0.2 0.2 0.2 0.2 0.2 0.2 0.2 0.2 
0.2 0.2 0.2 0.2 0.2 0.2 0.2 0.2 0.2 
0.2 0.2 0.2 0.2 0.2 0.2 0.2 0.2 0.2 
0.2 0.2 0.2 0.2 0.2 0.2 0.2 0.2 0.2 
0.2 0.2 0.2 0.2 0.2 0.2 0.2 0.2 0.2 
0.2 0.2 0.2 0.2 0.2 0.2 0.2 0.2 0.2 
0.2 0.2 0.2 0.2 0.2 0.2 0.2 0.2 0.2 
0.2 0.2 0.2 0.2 0.2 0.2 0.2 0.2 0.2 
0.2 0.2 0.2 0.2 0.2 0.2 0.2 0.2 0.2 
0.2 0.2 0.2 0.2 0.2 0.2 0.2 0.2 0.2 
0.2 0.2 0.2 0.2 0.2 0.2 0.2 0.2 0.2 
0.2 0.2 0.2 0.2 0.2 0.2 0.2 0.2 0.2 
0.2 0.2 0.2 0.2 0.2 0.2 0.2 0.2 0.2 
0.2 0.2 0.2 0.2 0.2 0.2 0.2 0.2 0.2 
0.2 0.2 0.2 0.2 0.2 0.2 0.2 0.2 0.2 
0.2 0.2 0.2 0.2 0.2 0.2 0.2 0.2 0.2 
0.2 0.2 0.2 0.2 0.2 0.2 0.2 0.2 0.2 
0.2 0.2 0.2 0.2 0.2 0.2 0.2 0.2 0.2 
0.2 0.2 0.2 0.2 0.2 0.2 0.2 0.2 0.2 
0.2 0.2 0.2 0.2 0.2 0.2 0.2 0.2 0.2 
0.2 0.2 0.2 0.2 0.2 0.2 0.2 0.2 0.2 
0.2 0.2 0.2 0.2 0.2 0.2 0.2 0.2 0.2 
0.2 0.2 0.2 0.2 0.2 0.2 0.2 0.2 0.2 
0.2 0.2 0.2 0.2 0.2 0.2 0.2 0.2 0.2 
0.2 0.2 0.2 0.2 0.2 0.2 0.2 0.2 0.2 
0.2 0.2 0.2 0.2 0.2 0.2 0.2 0.2 0.2 
0.2 0.2 0.2 0.2 0.2 0.2 0.2 0.2 0.2 
0.2 0.2 0.2 0.2 0.2 0.2 0.2 0.2 0.2 
0.2 0.2 0.2 0.2 0.2 0.2 0.2 0.2 0.2 
0.2 0.2 0.2 0.2 0.2 0.2 0.2 0.2 0.2 
0.2 0.2 0.2 0.2 0.2 0.2 0.2 0.2 0.2 
0.2 0.2 0.2 0.2 0.2 0.2 0.2 0.2 0.2 
0.2 0.2 0.2 0.2 0.2 0.2 0.2 0.2 0.2 
0.2 0.2 0.2 0.2 0.2 0.2 0.2 0.2 0.2 
0.2 0.2 0.2 0.2 0.2 0.2 0.2 0.2 0.2 
0.2 0.2 0.2 0.2 0.2 0.2 0.2 0.2 0.2 
0.2 0.2 0.2 0.2 0.2 0.2 0.2 0.2 0.2 
0.2 0.2 0.2 0.2 0.2 0.2 0.2 0.2 0.2 
0.2 0.2 0.2 0.2 0.2 0.2 0.2 0.2 0.2 
0.2 0.2 0.2 0.2 0.2 0.2 0.2 0.2 0.2 
0.2 0.2 0.2 0.2 0.2 0.2 0.2 0.2 0.2 
0.2 0.2 0.2 0.2 0.2 0.2 0.2 0.2 0.2 
0.2 0.2 0.2 0.2 0.2 0.2 0.2 0.2 0.2 
0.2 0.2 0.2 0.2 0.2 0.2 0.2 0.2 0.2 
0.2 0.2 0.2 0.2 0.2 0.2 0.2 0.2 0.2 
0.2 0.2 0.2 0.2 0.2 0.2 0.2 0.2 0.2 
0.2 0.2 0.2 0.2 0.2 0.2 0.2 0.2 0.2 
0.2 0.2 0.2 0.2 0.2 0.2 0.2 0.2 0.2 
0.2 0.2 0.2 0.2 0.2 0.2 0.2 0.2 0.2 
0.2 0.2 0.2 0.2 0.2 0.2 0.2 0.2 0.2 
0.2 0.2 0.2 0.2 0.2 0.2 0.2 0.2 0.2 
0.2 0.2 0.2 0.2 0.2 0.2 0.2 0.2 0.2 
0.2 0.2 0.2 0.2 0.2 0.2 0.2 0.2 0.2 
0.2 0.2 0.2 0.2 0.2 0.2 0.2 0.2 0.2 
0.2 0.2 0.2 0.2 0.2 0.2 0.2 0.2 0.2 
0.2 0.2 0.2 0.2 0.2 0.2 0.2 0.2 0.2 
0.2 0.2 0.2 0.2 0.2 0.2 0.2 0.2 0.2 
0.2 0.2 0.2 0.2 0.2 0.2 0.2 0.2 0.2 
0.2 0.2 0.2 0.2 0.2 0.2 0.2 0.2 0.2 
0.2 0.2 0.2 0.2 0.2 0.2 0.2 0.2 0.2 
0.2 0.2 0.2 0.2 0.2 0.2 0.2 0.2 0.2 
0.2 0.2 0.2 0.2 0.2 0.2 0.2 0.2 0.2 
0.2 0.2 0.2 0.2 0.2 0.2 0.2 0.2 0.2 
0.2 0.2 0.2 0.2 0.2 0.2 0.2 0.2 0.2 
0.2 0.2 0.2 0.2 0.2 0.2 0.2 0.2 0.2 
0.2 0.2 0.2 0.2 0.2 
c 1 1049 double
0.1 0.1 0.1 0.1 0.1 0.1 0.1 0.1 0.1 
0.1 0.1 0.1 0.1 0.1 0.1 0.1 0.1 0.1 
0.1 0.1 0.1 0.1 0.1 0.1 0.1 0.1 0.1 
0.1 0.1 0.1 0.1 0.1 0.1 0.1 0.1 0.1 
0.1 0.1 0.1 0.1 0.1 0.1 0.1 0.1 0.1 
0.1 0.1 0.1 0.1 0.1 0.1 0.1 0.1 0.1 
0.1 0.1 0.1 0.1 0.1 0.1 0.1 0.1 0.1 
0.1 0.1 0.1 0.1 0.1 0.1 0.1 0.1 0.1 
0.1 0.1 0.1 0.1 0.1 0.1 0.1 0.1 0.1 
0.1 0.1 0.1 0.1 0.1 0.1 0.1 0.1 0.1 
0.1 0.1 0.1 0.1 0.1 0.1 0.1 0.1 0.1 
0.1 0.1 0.1 0.1 0.1 0.1 0.1 0.1 0.1 
0.1 0.1 0.1 0.1 0.1 0.1 0.1 0.1 0.1 
0.1 0.1 0.1 0.1 0.1 0.1 0.1 0.1 0.1 
0.1 0.1 0.1 0.1 0.1 0.1 0.1 0.1 0.1 
0.1 0.1 0.1 0.1 0.1 0.1 0.1 0.1 0.1 
0.1 0.1 0.1 0.1 0.1 0.1 0.1 0.1 0.1 
0.1 0.1 0.1 0.1 0.1 0.1 0.1 0.1 0.1 
0.1 0.1 0.1 0.1 0.1 0.1 0.1 0.1 0.1 
0.1 0.1 0.1 0.1 0.1 0.1 0.1 0.1 0.1 
0.1 0.1 0.1 0.1 0.1 0.1 0.1 0.1 0.1 
0.1 0.1 0.1 0.1 0.1 0.1 0.1 0.1 0.1 
0.1 0.1 0.1 0.1 0.1 0.1 0.1 0.1 0.1 
0.1 0.1 0.1 0.1 0.1 0.1 0.1 0.1 0.1 
0.1 0.1 0.1 0.1 0.1 0.1 0.1 0.1 0.1 
0.1 0.1 0.1 0.1 0.1 0.1 0.1 0.1 0.1 
0.1 0.1 0.1 0.1 0.1 0.1 0.1 0.1 0.1 
0.1 0.1 0.1 0.1 0.1 0.1 0.1 0.1 0.1 
0.1 0.1 0.1 0.1 0.1 0.1 0.1 0.1 0.1 
0.1 0.1 0.1 0.1 0.1 0.1 0.1 0.1 0.1 
0.1 0.1 0.1 0.1 0.1 0.1 0.1 0.1 0.1 
0.1 0.1 0.1 0.1 0.1 0.1 0.1 0.1 0.1 
0.1 0.1 0.1 0.1 0.1 0.1 0.1 0.1 0.1 
0.1 0.1 0.1 0.1 0.1 0.1 0.1 0.1 0.1 
0.1 0.1 0.1 0.1 0.1 0.1 0.1 0.1 0.1 
0.1 0.1 0.1 0.1 0.1 0.1 0.1 0.1 0.1 
0.1 0.1 0.1 0.1 0.1 0.1 0.1 0.1 0.1 
0.1 0.1 0.1 0.1 0.1 0.1 0.1 0.1 0.1 
0.1 0.1 0.1 0.1 0.1 0.1 0.1 0.1 0.1 
0.1 0.1 0.1 0.1 0.1 0.1 0.1 0.1 0.1 
0.1 0.1 0.1 0.1 0.1 0.1 0.1 0.1 0.1 
0.1 0.1 0.1 0.1 0.1 0.1 0.1 0.1 0.1 
0.1 0.1 0.1 0.1 0.1 0.1 0.1 0.1 0.1 
0.1 0.1 0.1 0.1 0.1 0.1 0.1 0.1 0.1 
0.1 0.1 0.1 0.1 0.1 0.1 0.1 0.1 0.1 
0.1 0.1 0.1 0.1 0.1 0.1 0.1 0.1 0.1 
0.1 0.1 0.1 0.1 0.1 0.1 0.1 0.1 0.1 
0.1 0.1 0.1 0.1 0.1 0.1 0.1 0.1 0.1 
0.1 0.1 0.1 0.1 0.1 0.1 0.1 0.1 0.1 
0.1 0.1 0.1 0.1 0.1 0.1 0.1 0.1 0.1 
0.1 0.1 0.1 0.1 0.1 0.1 0.1 0.1 0.1 
0.1 0.1 0.1 0.1 0.1 0.1 0.1 0.1 0.1 
0.1 0.1 0.1 0.1 0.1 0.1 0.1 0.1 0.1 
0.1 0.1 0.1 0.1 0.1 0.1 0.1 0.1 0.1 
0.1 0.1 0.1 0.1 0.1 0.1 0.1 0.1 0.1 
0.1 0.1 0.1 0.1 0.1 0.1 0.1 0.1 0.1 
0.1 0.1 0.1 0.1 0.1 0.1 0.1 0.1 0.1 
0.1 0.1 0.1 0.1 0.1 0.1 0.1 0.1 0.1 
0.1 0.1 0.1 0.1 0.1 0.1 0.1 0.1 0.1 
0.1 0.1 0.1 0.1 0.1 0.1 0.1 0.1 0.1 
0.1 0.1 0.1 0.1 0.1 0.1 0.1 0.1 0.1 
0.1 0.1 0.1 0.1 0.1 0.1 0.1 0.1 0.1 
0.1 0.1 0.1 0.1 0.1 0.1 0.1 0.1 0.1 
0.1 0.1 0.1 0.1 0.1 0.1 0.1 0.1 0.1 
0.1 0.1 0.1 0.1 0.1 0.1 0.1 0.1 0.1 
0.1 0.1 0.1 0.1 0.1 0.1 0.1 0.1 0.1 
0.1 0.1 0.1 0.1 0.1 0.1 0.1 0.1 0.1 
0.1 0.1 0.1 0.1 0.1 0.1 0.1 0.1 0.1 
0.1 0.1 0.1 0.1 0.1 0.1 0.1 0.1 0.1 
0.1 0.1 0.1 0.1 0.1 0.1 0.1 0.1 0.1 
0.1 0.1 0.1 0.1 0.1 0.1 0.1 0.1 0.1 
0.1 0.1 0.1 0.1 0.1 0.1 0.1 0.1 0.1 
0.1 0.1 0.1 0.1 0.1 0.1 0.1 0.1 0.1 
0.1 0.1 0.1 0.1 0.1 0.1 0.1 0.1 0.1 
0.1 0.1 0.1 0.1 0.1 0.1 0.1 0.1 0.1 
0.1 0.1 0.1 0.1 0.1 0.1 0.1 0.1 0.1 
0.1 0.1 0.1 0.1 0.1 0.1 0.1 0.1 0.1 
0.1 0.1 0.1 0.1 0.1 0.1 0.1 0.1 0.1 
0.1 0.1 0.1 0.1 0.1 0.1 0.1 0.1 0.1 
0.1 0.1 0.1 0.1 0.1 0.1 0.1 0.1 0.1 
0.1 0.1 0.1 0.1 0.1 0.1 0.1 0.1 0.1 
0.1 0.1 0.1 0.1 0.1 0.1 0.1 0.1 0.1 
0.1 0.1 0.1 0.1 0.1 0.1 0.1 0.1 0.1 
0.1 0.1 0.1 0.1 0.1 0.1 0.1 0.1 0.1 
0.1 0.1 0.1 0.1 0.1 0.1 0.1 0.1 0.1 
0.1 0.1 0.1 0.1 0.1 0.1 0.1 0.1 0.1 
0.1 0.1 0.1 0.1 0.1 0.1 0.1 0.1 0.1 
0.1 0.1 0.1 0.1 0.1 0.1 0.1 0.1 0.1 
0.1 0.1 0.1 0.1 0.1 0.1 0.1 0.1 0.1 
0.1 0.1 0.1 0.1 0.1 0.1 0.1 0.1 0.1 
0.1 0.1 0.1 0.1 0.1 0.1 0.1 0.1 0.1 
0.1 0.1 0.1 0.1 0.1 0.1 0.1 0.1 0.1 
0.1 0.1 0.1 0.1 0.1 0.1 0.1 0.1 0.1 
0.1 0.1 0.1 0.1 0.1 0.1 0.1 0.1 0.1 
0.1 0.1 0.1 0.1 0.1 0.1 0.1 0.1 0.1 
0.1 0.1 0.1 0.1 0.1 0.1 0.1 0.1 0.1 
0.1 0.1 0.1 0.1 0.1 0.1 0.1 0.1 0.1 
0.1 0.1 0.1 0.1 0.1 0.1 0.1 0.1 0.1 
0.1 0.1 0.1 0.1 0.1 0.1 0.1 0.1 0.1 
0.1 0.1 0.1 0.1 0.1 0.1 0.1 0.1 0.1 
0.1 0.1 0.1 0.1 0.1 0.1 0.1 0.1 0.1 
0.1 0.1 0.1 0.1 0.1 0.1 0.1 0.1 0.1 
0.1 0.1 0.1 0.1 0.1 0.1 0.1 0.1 0.1 
0.1 0.1 0.1 0.1 0.1 0.1 0.1 0.1 0.1 
0.1 0.1 0.1 0.1 0.1 0.1 0.1 0.1 0.1 
0.1 0.1 0.1 0.1 0.1 0.1 0.1 0.1 0.1 
0.1 0.1 0.1 0.1 0.1 0.1 0.1 0.1 0.1 
0.1 0.1 0.1 0.1 0.1 0.1 0.1 0.1 0.1 
0.1 0.1 0.1 0.1 0.1 0.1 0.1 0.1 0.1 
0.1 0.1 0.1 0.1 0.1 0.1 0.1 0.1 0.1 
0.1 0.1 0.1 0.1 0.1 0.1 0.1 0.1 0.1 
0.1 0.1 0.1 0.1 0.1 0.1 0.1 0.1 0.1 
0.1 0.1 0.1 0.1 0.1 0.1 0.1 0.1 0.1 
0.1 0.1 0.1 0.1 0.1 0.1 0.1 0.1 0.1 
0.1 0.1 0.1 0.1 0.1 0.1 0.1 0.1 0.1 
0.1 0.1 0.1 0.1 0.1 0.1 0.1 0.1 0.1 
0.1 0.1 0.1 0.1 0.1 
m 1 1049 double
91.315 76.33 56.755 65.975 75.77 65.745 61.625 94.14 84.655 
62.64 84.935 90.92 94.295 83.88 53.285 99.255 95.485 97.585 
93.885 56.49 56.63 90.21 59.805 86.865 72.105 63.77 96.915 
81.145 71.295 74.595 91.575 68.92 92.685 71.62 71.85 75.99 
67.63 82.065 54.43 53.87 94.9 63.885 80.455 59.365 95.85 
99.78 84.31 84.98 86.405 85.42 81.635 54.625 51.68 61.525 
66.01 82.525 84.575 54.23 91.01 58.645 67.53 94.72 56.565 
52.725 69.475 80.62 97.91 79.285 70.215 51.82 94.07 66.835 
77.17 86.38 68.75 55.435 85.89 84.04 63.77 77.015 63.255 
67.92 78.94 75.3 99.66 66.84 61.995 98.38 88.965 64.145 
92.93 76.7 88.695 91.95 50.06 81.13 58.41 53.975 87.695 
57.17 90.47 52.85 50.485 64.51 83.005 87.335 51.89 83.26 
52.46 86.505 66.585 53.78 97.205 69.325 51.4 71.43 98.445 
73.645 92.22 83.095 90.155 92.2 77.165 91.69 72.405 90.585 
78.855 94.935 90.485 89.44 91.675 53.375 72.835 89.28 53.545 
94.635 97.485 61.765 72.93 76.53 84.825 64.355 81.095 57.64 
93.12 73.415 94.145 97.515 91.35 50.095 78.66 66.84 83.575 
81.7 90.745 98.54 53.615 67.295 63.09 55.5 78.645 61.225 
68.09 64.23 88.98 76.93 67.775 67.255 61.895 87.44 88.82 
64.605 99.205 91.14 52.46 83.245 75.965 61.75 57.5 84.935 
88.82 74.57 85.17 50.62 68.715 61.135 82.455 91.825 79.28 
57.105 59.68 99.295 57.16 62.755 88.105 66.025 62.52 97.835 
53.065 92.105 69.85 89.775 60.105 64.21 83.92 54.34 97.64 
61.46 89.94 53.715 65.72 78.975 81.775 61.37 88.205 83.1 
80.945 97.19 56.165 90.125 65.37 56.94 88.61 63.205 91.99 
66.375 96.14 77.035 57.37 82.185 79.42 59.965 77.895 59.3 
90.71 91.415 95.63 99.54 94.36 99.79 75.945 52.49 89.855 
76.835 76.19 51.445 84.745 50.45 98.05 94.845 97.395 72.06 
68.405 51.35 51.79 90.785 67.465 80.605 71.975 94.29 56.185 
80.145 76.365 73.845 58.88 94.25 86.275 76.76 90.795 81.24 
90.18 66.515 94.04 88.765 76.715 81.675 64.5 82.145 65.885 
67.56 56.56 59.43 96.07 91.775 67.085 59.195 91.815 77.845 
53.495 68.31 79.09 91.175 68.965 80.715 72.14 79.97 90.02 
51.895 55.775 88.66 53.195 58.915 66.665 60.665 64.45 58.24 
98.77 91.425 50.245 78.145 52.52 54.82 95.4 54.285 93.135 
98.155 92.965 93.97 65.865 63.11 82.155 99.235 60.985 71.55 
55.055 93.88 97.645 79.64 62.02 94.095 62.95 96.68 92.905 
91.045 65.415 73.95 92.83 51.84 72.5 97.645 58.73 87.835 
71.695 61.075 58.46 80.635 60.67 61.45 63.235 94.73 84.85 
95.255 96.84 71.46 78.955 96.95 87.31 83.41 82.91 75.995 
69.45 62.455 73.065 78.815 72.215 72.69 93.03 61.49 80.95 
52.62 53.565 69.49 84.075 56.77 51.995 54.265 81.245 98.985 
90.23 84.95 68.94 92.69 75.755 88.235 80.795 62.675 74.925 
72.76 77.89 67.645 74.97 82.76 74.58 75.285 75.575 80.785 
92.87 57.605 86.39 58.805 84.2 75.64 64.52 74.09 53.44 
76.925 56.11 96.495 83.2 80.21 50.495 97.965 62.485 76.815 
66.515 65.165 51.265 85.085 82.015 72.5 52.14 53.405 60.01 
54.355 93.81 81.56 75.5 86.93 71.73 63.63 96.67 62.195 
96.155 64.755 59.735 75.105 57.455 95.075 80.635 50.185 64.86 
79.28 89.585 66.62 99.585 84.98 86.845 69.25 59.86 88.36 
88.125 96.46 88.325 54.55 59.26 91.91 74.46 95.625 98.36 
61.81 69.98 55.76 88.43 62.3 95.94 77.18 95.785 52.64 
79.875 68.645 82.95 50.135 77.41 69.605 67.07 73.465 93.45 
81.52 52.3 94.51 50.14 83.74 90.25 90.135 87.78 73.97 
93.495 55.215 88.485 55.195 67.685 71.16 50.295 69.13 93.285 
61.305 67.705 52.845 50.405 80.21 83.805 95.585 51.8 90.115 
86.67 81.545 65.95 88.815 69.63 94.98 67.14 77.125 73.385 
72.62 71.17 58.13 53.45 81.835 91.025 82.53 51.79 80.285 
98.07 65.84 52.085 86.42 72.83 84.28 88.85 52.7 61.3 
51.185 86.025 65.295 53.03 79.245 92.59 67.13 76.085 72.85 
95.86 53.915 81.085 74.725 81.82 88.185 79.025 92.29 84.365 
71.445 54.365 52.415 65.86 52.39 63.785 96.57 83.035 72.355 
63.675 77.555 65.345 78.68 69.135 88.715 92.45 77.495 60.915 
97.35 70.405 86.345 56.98 50.42 78.15 80.435 51.54 75 
64.785 57.705 71.125 55.865 65.345 54.985 62.775 83.255 59.25 
98.86 83.625 77.95 78.22 87.525 89.09 62.11 83.29 87.8 
76.055 76.18 69.6 96.12 50.635 69.75 76.84 56.22 50.245 
52.815 62.835 75.525 93.555 86.875 99.67 66.455 59.025 68.07 
67.945 94.965 94.775 68.84 84.91 74.59 64.025 84.41 74.11 
96.455 65.465 54.625 82.145 81.64 70.09 70.15 83.585 57.87 
83.55 84.18 86.085 85.45 69.29 75.275 84.815 56.965 74.52 
90.65 92.28 63.305 92.855 63.02 73.945 84.255 98.165 98.425 
65.365 89.34 97.425 82.515 99.025 96.25 87.58 95.03 73.195 
67.58 60.975 55.405 64.745 76.625 78.91 88.385 54.835 55.6 
83.815 51.13 52.98 87.8 54.325 69.905 95.18 88.85 89.775 
81.71 96.055 67.59 91.35 61.895 62.66 86.605 75.98 74.92 
72.135 70.86 60.2 71.17 55.315 86.415 50.36 86.99 79.15 
68.57 52.865 51.735 60.15 84.75 70.235 87.61 80.295 84.62 
75.41 64.77 96.02 56.16 52.215 97.175 95.795 78.2 71.39 
77.43 59.49 55.205 96.31 51.31 99.24 98.415 81.36 64.03 
90.835 69.795 95.61 58.615 83.64 78.985 91.62 96.825 87.285 
70.77 79.105 86.675 55.855 76.09 51.345 63.735 58.88 73.265 
93.505 54.535 99.665 58.515 77.105 57.65 75.27 70.15 52.685 
68.7 70.49 64.31 64.77 90.695 75.615 98.93 88.345 79.92 
95.75 81.14 58.525 55.635 52.715 82.965 57.43 50.63 51.265 
65.01 77.02 61.155 80.695 58.98 76.67 56.54 85.42 63.49 
93.6 88.58 54.44 54.64 50.985 90.41 92.32 97.535 92.71 
78.335 99.52 99.055 79.695 69.7 89.07 90.895 91.885 65.37 
73.565 96.09 69.85 61.69 72.9 95.105 92.06 54.76 94.77 
54.955 63.575 94.49 55.26 81.88 83.105 61.75 61.965 50.04 
94.02 96.775 68.11 81.74 93.055 88.605 74.095 76.605 56.275 
72.995 78.875 73.81 64.595 85.44 78.55 99.31 76.895 74.06 
63.425 74.885 82.225 90.945 70.05 62.53 57.795 75.855 86.4 
60.355 96.495 78.73 86.715 89.14 77.84 88.565 86.86 91.03 
96.505 87.935 51.175 83.66 51.47 55.085 51.73 70.88 99.52 
67.415 57.68 96.035 67.185 91.705 86.805 83.05 94.88 59.44 
92.885 65.675 56.345 77.11 88.025 69.05 71.7 66.555 61.68 
81.71 60.045 58.295 76.05 75.765 78.455 55.685 62.865 69.715 
98.795 67.495 98.72 74.285 99.555 98.09 88.215 70.335 55.68 
56.8 51.685 56.525 59.005 74.39 68.65 78.305 69.645 66.74 
97.06 84.435 60.86 95.535 95.895 92.09 98.78 87.225 88.42 
60.45 66.88 79.68 77.71 75.42 64.63 82.33 56.7 55.475 
64.065 68.865 64.795 85.95 98.34 64.98 94.495 89.905 85.995 
50.815 99.01 94.665 93.3 74.65 79.47 69.405 85.655 54.865 
87.34 50.355 77.75 96.895 59.495 60.18 67.26 63 64.62 
88.185 60.31 78.12 91.41 66.29 67.08 67.325 83.54 93.13 
97.22 93.68 96.6 92.61 65.545 91.12 95.08 82.695 70.11 
50 75.405 75.265 66.89 90.545 97.13 95.57 56.69 79.945 
90.335 82.66 76.115 61.155 75.735 83.935 74.25 60.61 69.375 
56.405 50.895 69.065 82.95 61.27 55.655 76.75 89.285 73.015 
80.405 95.905 57.47 78.6 87.435 50.905 89.91 62.165 94.125 
93.61 96.48 77.02 97.075 51.485 95.67 50.16 52.755 84.46 
98.54 85.285 92.53 65.905 52.075 59.81 87.415 61.485 52.975 
99.995 94.885 50.77 75.055 56.545 78.88 62.935 99.66 66.91 
75.105 71.33 88.425 67.815 68.41 96.055 94.3 54.65 72.915 
79.95 71.425 95.43 70.58 59.46 86.57 79.1 57.38 87.45 
87.625 77.64 94.195 87.625 65.29 
p0 3 1049 double
0 -10 0 0 -10 0 0 -10 0 
0 -10 0 0 -10 0 0 -10 0 
0 -10 0 0 -10 0 0 -10 0 
0 -10 0 0 -10 0 0 -10 0 
0 -10 0 0 -10 0 0 -10 0 
0 -10 0 0 -10 0 0 -10 0 
0 -10 0 0 -10 0 0 0 0 
0 0 0 0 0 0 0 0 0 
0 0 0 0 0 0 0 0 0 
0 0 0 0 0 0 0 0 0 
0 0 0 0 0 0 0 0 0 
0 0 0 0 0 0 0 0 0 
0 0 0 0 0 0 0 0 0 
-12 0 0 0 0 0 0 0 0 
0 0 0 0 0 0 0 0 0 
0 0 0 0 0 0 0 0 0 
0 0 0 0 0 0 0 0 0 
0 0 0 0 0 0 0 0 0 
0 0 0 0 0 0 0 0 0 
0 0 0 0 0 0 0 0 0 
0 0 0 0 0 0 0 0 0 
0 0 0 0 0 0 0 0 0 
0 0 0 0 0 0 0 0 0 
0 0 0 0 0 0 0 0 0 
0 0 0 0 0 0 0 0 0 
0 0 0 0 0 0 0 0 0 
0 0 0 0 0 0 0 0 0 
0 0 0 0 0 0 0 0 0 
0 0 0 0 0 0 0 0 0 
0 0 0 0 0 0 0 0 0 
0 0 0 0 0 0 0 0 0 
0 0 0 0 0 0 0 0 0 
0 0 0 0 0 0 0 0 0 
0 0 0 0 0 0 0 0 0 
0 0 0 0 0 0 0 0 0 
0 0 0 0 0 0 0 0 0 
0 0 0 0 0 0 0 0 0 
0 0 0 0 0 0 0 0 0 
0 0 0 0 0 0 0 0 0 
0 0 0 0 0 0 0 0 0 
0 0 0 0 0 0 0 0 0 
0 0 0 0 0 0 0 0 0 
0 0 0 0 0 0 0 0 0 
0 0 0 0 0 0 0 0 0 
0 0 0 0 0 0 0 0 0 
0 0 0 0 0 0 0 0 0 
0 0 0 0 0 0 0 0 0 
0 0 0 0 0 0 0 0 0 
0 0 0 0 0 0 0 0 0 
0 0 0 0 0 0 0 0 0 
0 0 0 0 0 0 0 0 0 
0 0 0 0 0 0 0 0 0 
0 0 0 0 0 0 0 0 0 
0 0 0 0 0 0 0 0 0 
0 0 0 0 0 0 0 0 0 
0 0 0 0 0 0 0 0 0 
0 0 0 0 0 0 0 0 0 
0 0 0 0 0 0 0 0 0 
0 0 0 0 0 0 0 0 0 
0 0 0 0 0 0 0 0 0 
0 0 0 0 0 0 0 0 0 
0 0 0 0 0 0 0 0 0 
0 0 0 0 0 0 0 0 0 
0 0 0 0 0 0 0 0 0 
0 0 0 0 0 0 0 0 0 
0 0 0 0 0 0 0 0 0 
0 0 0 -12 0 0 -12 0 0 
-12 0 0 0 0 0 0 0 0 
0 0 0 0 0 0 0 0 0 
0 0 0 0 0 0 0 0 0 
0 0 0 0 0 0 0 0 0 
0 0 0 0 0 0 0 0 0 
0 0 0 0 0 0 0 0 0 
0 0 0 0 0 0 0 0 0 
12 0 0 12 0 0 12 0 0 
0 0 0 0 0 0 0 0 0 
0 0 0 0 0 0 0 0 0 
0 0 0 0 0 0 0 0 0 
0 0 0 -12 0 0 -12 0 0 
0 0 0 0 0 0 0 0 0 
0 0 0 0 0 0 0 0 0 
0 0 0 0 0 0 0 0 0 
0 0 0 0 0 0 0 0 0 
0 0 0 0 0 0 0 0 0 
0 0 0 0 0 0 0 0 0 
0 0 0 0 0 0 0 0 0 
0 0 0 0 0 0 0 0 0 
0 0 0 0 0 0 0 0 0 
0 0 0 0 0 0 0 0 0 
-12 0 0 -12 0 0 0 0 0 
0 0 0 0 0 0 0 0 0 
0 0 0 0 0 0 0 0 0 
0 0 0 0 0 0 0 0 0 
0 0 0 0 0 0 0 0 0 
0 0 0 0 0 0 0 0 0 
0 0 0 0 0 0 0 0 0 
0 0 0 12 0 0 0 0 0 
0 0 0 0 0 0 0 0 0 
0 0 0 0 0 0 0 0 0 
0 0 0 0 0 0 0 0 0 
-12 0 0 -12 0 0 0 0 0 
0 0 0 0 0 0 0 0 0 
0 0 0 0 0 0 0 0 0 
0 0 0 0 0 0 0 0 0 
0 0 0 0 0 0 0 0 0 
0 0 0 0 0 0 0 0 0 
0 0 0 0 0 0 0 0 0 
0 0 0 12 0 0 12 0 0 
0 0 0 0 0 0 0 0 0 
0 0 0 0 0 0 0 0 0 
0 0 0 0 0 0 0 0 0 
0 0 0 -12 0 0 -12 0 0 
-12 0 0 0 0 0 0 0 0 
0 0 0 0 0 0 0 0 0 
0 0 0 0 0 0 0 0 0 
0 0 0 0 0 0 0 0 0 
0 0 0 0 0 0 0 0 0 
0 0 0 6 8 0 0 0 0 
0 0 0 0 0 0 0 0 0 
0 0 0 12 0 0 12 0 0 
12 0 0 12 0 0 0 0 0 
0 0 0 0 0 0 0 0 0 
0 0 0 0 0 0 0 0 0 
0 0 0 0 0 0 0 0 0 
-12 0 0 -12 0 0 -12 0 0 
-12 0 0 0 0 0 0 0 0 
0 0 0 0 0 0 0 0 0 
0 0 0 0 0 0 0 0 0 
0 0 0 0 0 0 0 8 0 
0 8 0 0 0 0 0 0 0 
0 0 0 0 0 0 0 0 0 
0 0 0 0 0 0 0 0 0 
0 0 0 0 0 0 12 0 0 
12 0 0 0 0 0 0 0 0 
0 0 0 0 0 0 0 0 0 
0 0 0 0 0 0 0 0 0 
0 0 0 0 0 0 -12 0 0 
-12 0 0 0 0 0 0 0 0 
0 0 0 0 0 0 0 0 0 
-6 8 0 0 0 0 0 0 0 
0 0 0 0 0 0 0 0 0 
0 8 0 0 8 0 0 0 0 
0 0 0 0 0 0 0 0 0 
0 0 0 6 8 0 6 8 0 
0 0 0 0 0 0 0 0 0 
0 0 0 0 0 0 12 0 0 
12 0 0 12 0 0 12 0 0 
12 0 0 0 0 0 0 0 0 
0 0 0 0 0 0 0 0 0 
0 0 0 0 0 0 0 0 0 
0 0 0 0 0 0 -12 0 0 
-12 0 0 -12 0 0 -12 0 0 
0 0 0 0 0 0 -9 9 0 
0 0 0 0 0 0 0 0 0 
0 0 0 0 0 0 0 0 0 
0 0 0 0 0 0 -9 9 0 
0 0 0 0 0 0 -9 9 0 
0 0 0 -9 9 0 0 0 0 
0 0 0 -9 9 0 0 0 0 
0 0 0 0 0 0 0 0 0 
0 0 0 0 0 0 0 0 0 
0 0 0 0 0 0 0 0 0 
0 0 0 0 0 0 0 0 0 
0 0 0 -9 9 0 0 0 0 
0 0 0 0 0 0 -9 9 0 
0 0 0 0 0 0 0 0 0 
0 0 0 0 0 0 0 0 0 
0 0 0 0 0 0 0 0 0 
-9 9 0 0 0 0 0 0 0 
0 0 0 0 0 0 0 0 0 
9 9 0 0 0 0 0 0 0 
0 0 0 0 0 0 0 0 0 
0 0 0 0 0 0 0 0 0 
9 9 0 0 0 0 0 0 0 
0 0 0 0 0 0 0 0 0 
0 0 0 0 0 0 0 0 0 
0 0 0 0 0 0 0 0 0 
0 0 0 0 0 0 0 0 0 
0 0 0 0 0 0 0 0 0 
0 0 0 0 0 0 9 9 0 
0 0 0 0 0 0 9 9 0 
0 0 0 9 9 0 0 0 0 
9 9 0 0 0 0 0 0 0 
0 0 0 0 0 0 0 0 0 
9 9 0 0 0 0 0 0 0 
0 0 0 0 0 0 0 0 0 
12 0 0 12 0 0 0 0 0 
0 0 0 12 0 0 0 0 0 
0 0 0 0 0 0 0 0 0 
0 0 0 0 0 0 0 0 0 
0 0 0 0 0 0 0 0 0 
-12 0 0 -9 9 0 -9 9 0 
-9 9 0 -9 9 0 -9 9 0 
-9 9 0 9 9 0 9 9 0 
9 9 0 9 9 0 12 0 0 
0 0 0 0 0 0 0 0 0 
0 0 0 0 0 0 0 0 0 
0 0 0 0 0 0 0 0 0 
0 0 0 0 0 0 0 0 0 
0 0 0 0 0 0 0 0 0 
0 0 0 0 0 0 0 0 0 
0 0 0 0 0 0 0 0 0 
0 0 0 0 0 0 0 0 0 
0 0 0 0 0 0 0 0 0 
0 0 0 0 0 0 0 0 0 
0 0 0 0 0 0 0 0 0 
0 0 0 0 0 0 0 0 0 
0 0 0 0 0 0 0 0 0 
0 0 0 0 0 0 0 0 0 
0 0 0 0 0 0 0 0 0 
0 0 0 0 0 0 0 0 0 
0 0 0 0 0 0 0 0 0 
0 0 0 0 0 0 0 0 0 
0 0 0 0 0 0 0 0 0 
0 0 0 0 0 0 0 0 0 
0 0 0 0 0 0 0 0 0 
0 0 0 0 0 0 0 0 0 
0 0 0 0 0 0 0 0 0 
0 0 0 0 0 0 0 0 0 
0 0 0 0 0 0 0 0 0 
0 0 0 0 0 0 0 0 0 
0 0 0 0 0 0 0 0 0 
0 0 0 0 0 0 0 0 0 
0 0 0 0 0 0 0 0 0 
0 0 0 0 0 0 0 0 0 
0 0 0 0 0 0 0 0 0 
0 0 0 0 0 0 0 0 0 
0 0 0 0 0 0 0 0 0 
0 0 0 0 0 0 0 0 0 
0 0 0 0 0 0 0 0 0 
0 0 0 0 0 0 0 0 0 
0 0 0 0 0 0 0 0 0 
0 0 0 0 0 0 0 0 0 
0 0 0 0 0 0 0 0 0 
0 0 0 0 0 0 0 0 0 
0 0 0 0 0 0 0 0 0 
0 0 0 0 0 0 0 0 0 
0 0 0 0 0 0 0 0 0 
0 0 0 0 0 0 0 0 0 
0 0 0 0 0 0 0 0 0 
0 0 0 0 0 0 0 0 0 
0 0 0 0 0 0 0 0 0 
0 0 0 0 0 0 0 0 0 
0 0 0 0 0 0 0 0 0 
0 0 0 0 0 0 0 0 0 
0 0 0 0 0 0 0 0 0 
0 0 0 0 0 0 0 0 0 
0 0 0 13.5 10 0 0 0 0 
0 0 0 0 0 0 0 0 0 
0 0 0 0 0 0 0 0 0 
0 0 0 0 0 0 0 0 0 
0 0 0 0 0 0 0 0 0 
0 0 0 0 0 0 0 0 0 
0 0 0 0 0 0 0 0 0 
0 0 0 0 0 0 0 0 0 
0 0 0 0 0 0 0 0 0 
0 0 0 0 0 0 0 0 0 
0 0 0 0 0 0 0 0 0 
0 0 0 13.5 10 0 13.5 10 0 
13.5 10 0 0 0 0 0 0 0 
0 0 0 0 0 0 0 0 0 
0 0 0 0 0 0 0 0 0 
0 0 0 0 0 0 0 0 0 
0 0 0 0 0 0 0 0 0 
0 0 0 0 0 0 0 0 0 
0 0 0 0 0 0 0 0 0 
9 14.5 0 9 14.5 0 9 14.5 0 
0 0 0 0 0 0 0 0 0 
0 0 0 0 0 0 13.5 10 0 
13.5 10 0 13.5 10 0 13.5 10 0 
0 0 0 0 0 0 0 0 0 
0 0 0 0 0 0 0 0 0 
0 0 0 0 0 0 0 0 0 
0 0 0 0 0 0 0 0 0 
0 0 0 0 0 0 0 0 0 
0 0 0 0 0 0 0 0 0 
0 0 0 0 0 0 9 14.5 0 
0 0 0 0 0 0 0 0 0 
0 0 0 0 0 0 13.5 10 0 
13.5 10 0 0 0 0 0 0 0 
0 0 0 0 0 0 0 0 0 
0 0 0 0 0 0 0 0 0 
0 0 0 0 0 0 0 0 0 
0 0 0 0 0 0 0 0 0 
0 0 0 0 0 0 0 0 0 
0 0 0 0 0 0 0 0 0 
9 14.5 0 9 14.5 0 9 14.5 0 
9 14.5 0 9 14.5 0 9 14.5 0 
13.5 10 0 0 0 0 13.5 10 0 
0 0 0 0 0 0 0 0 0 
0 0 0 0 0 0 0 0 0 
0 0 0 0 0 0 0 0 0 
0 0 0 0 0 0 0 0 0 
0 0 0 0 0 0 0 0 0 
0 0 0 0 0 0 0 0 0 
0 0 0 0 0 0 0 0 0 
0 0 0 0 0 0 0 0 0 
0 0 0 0 0 0 0 0 0 
0 0 0 0 0 0 0 0 0 
0 0 0 0 0 0 0 0 0 
0 0 0 0 0 0 0 0 0 
0 0 0 0 0 0 0 0 0 
0 0 0 0 0 0 0 0 0 
0 0 0 0 0 0 0 0 0 
0 0 0 0 0 0 0 0 0 
0 0 0 0 0 0 0 0 0 
0 0 0 0 0 0 0 0 0 
0 0 0 0 0 0 0 0 0 
0 0 0 0 0 0 0 0 0 
0 0 0 0 0 0 0 0 0 
0 0 0 0 0 0 0 0 0 
0 0 0 0 0 0 0 0 0 
0 0 0 0 0 0 0 0 0 
0 0 0 0 0 0 0 0 0 
0 0 0 0 0 0 0 0 0 
0 0 0 0 0 0 0 0 0 
0 0 0 0 0 0 0 0 0 
0 0 0 0 0 0 0 0 0 
0 0 0 0 0 0 0 0 0 
0 0 0 0 0 0 0 0 0 
0 0 0 0 0 0 0 0 0 
0 0 0 0 0 0 0 0 0 
0 0 0 0 0 0 0 0 0 
0 0 0 0 0 0 0 0 0 
0 0 0 0 0 0 0 0 0 
0 0 0 0 0 0 0 0 0 
0 0 0 0 0 0 0 0 0 
0 0 0 0 0 0 0 0 0 
0 0 0 0 0 0 0 0 0 
0 0 0 0 0 0 0 0 0 
0 0 0 0 0 0 0 0 0 
0 0 0 0 0 0 0 0 0 
0 0 0 0 0 0 0 0 0 
0 0 0 0 0 0 0 0 0 
0 0 0 0 0 0 0 0 0 
0 0 0 0 0 0 0 0 0 
0 0 0 0 0 0 0 0 0 
0 0 0 0 0 0 0 0 0 
0 0 0 0 0 0 0 0 0 
0 0 0 0 0 0 0 0 0 
0 0 0 0 0 0 0 0 0 
0 0 0 0 0 0 0 0 0 
0 0 0 0 0 0 0 0 0 
0 0 0 0 0 0 0 0 0 
0 0 0 0 0 0 0 0 0 
0 0 0 0 0 0 0 0 0 
0 0 0 0 0 0 0 0 0 
0 0 0 0 0 0 0 0 0 
0 0 0 0 0 0 0 0 0 
0 0 0 0 0 0 
v0 1 1049 double
3.5598 3.7348 3.4418 3.908 2.2246 2.9072 3.5868 2.7598 3.1534 
3.7604 3.8026 2.7868 3.5098 2.2234 2.087 3.447 3.7132 3.1552 
3.3932 3.4192 0 0 0 0 0 0 0 
0 0 0 0 0 0 0 0 0 
0 0 0 2.8894 0 0 0 0 0 
0 0 0 0 0 0 0 0 0 
0 0 0 0 0 0 0 0 0 
0 0 0 0 0 0 0 0 0 
0 0 0 0 0 0 0 0 0 
0 0 0 0 0 0 0 0 0 
0 0 0 0 0 0 0 0 0 
0 0 0 0 0 0 0 0 0 
0 0 0 0 0 0 0 0 0 
0 0 0 0 0 0 0 0 0 
0 0 0 0 0 0 0 0 0 
0 0 0 0 0 0 0 0 0 
0 0 0 0 0 0 0 0 0 
0 0 0 0 0 0 0 0 0 
0 0 0 0 0 0 0 0 0 
0 0 0 0 0 0 0 0 0 
0 0 0 0 0 0 0 0 0 
0 0 0 0 0 0 0 0 0 
0 3.3376 2.798 2.5562 0 0 0 0 0 
0 0 0 0 0 0 0 0 0 
0 0 0 0 0 0 2.9348 3.9438 3.5394 
0 0 0 0 0 0 0 0 0 
0 2.959 3.5338 0 0 0 0 0 0 
0 0 0 0 0 0 0 0 0 
0 0 0 0 0 0 0 0 0 
0 0 0 0 0 0 3.3968 3.7722 0 
0 0 0 0 0 0 0 0 0 
0 0 0 0 0 0 0 0 0 
0 2.7364 0 0 0 0 0 0 0 
0 0 0 2.5998 3.7956 0 0 0 0 
0 0 0 0 0 0 0 0 0 
0 0 0 0 0 0 0 2.105 2.2178 
0 0 0 0 0 0 0 0 0 
0 3.4142 2.9892 3.7386 0 0 0 0 0 
0 0 0 0 0 0 0 0 0 
0 2.0424 0 0 0 0 0 3.2294 2.6972 
3.1134 3.6894 0 0 0 0 0 0 0 
0 0 0 3.6034 3.6802 3.7004 3.9802 0 0 
0 0 0 0 0 0 0 0 2.5992 
2.6016 0 0 0 0 0 0 0 0 
0 0 2.5702 2.8228 0 0 0 0 0 
0 0 0 0 0 2.0272 2.726 0 0 
0 0 0 2.9892 0 0 0 0 0 
2.1056 2.6138 0 0 0 0 0 2.264 2.4594 
0 0 0 0 0 3.358 2.227 2.3004 2.6856 
3.9752 0 0 0 0 0 0 0 0 
0 0 3.4388 2.0254 3.7164 2.9862 0 0 3.938 
0 0 0 0 0 0 0 0 3.3812 
0 0 3.5126 0 2.2866 0 0 3.236 0 
0 0 0 0 0 0 0 0 0 
0 0 0 0 2.9256 0 0 0 3.4754 
0 0 0 0 0 0 0 0 0 
3.18 0 0 0 0 0 2.79 0 0 
0 0 0 0 0 0 2.0302 0 0 
0 0 0 0 0 0 0 0 0 
0 0 0 0 0 0 0 0 3.5612 
0 0 3.8554 0 2.192 0 3.219 0 0 
0 0 0 3.2458 0 0 0 0 0 
3.0734 2.9518 0 0 2.5952 0 0 0 0 
0 0 0 0 0 0 3.2554 3.4416 2.5352 
3.3948 2.8832 2.7916 2.5898 3.4072 2.8338 3.8484 2.5666 2.325 
0 0 0 0 0 0 0 0 0 
0 0 0 0 0 0 0 0 0 
0 0 0 0 0 0 0 0 0 
0 0 0 0 0 0 0 0 0 
0 0 0 0 0 0 0 0 0 
0 0 0 0 0 0 0 0 0 
0 0 0 0 0 0 0 0 0 
0 0 0 0 0 0 0 0 0 
0 0 0 0 0 0 0 0 0 
0 0 0 0 0 0 0 0 0 
0 0 0 0 0 0 0 0 0 
0 0 0 0 0 0 0 0 0 
0 0 0 0 0 0 0 0 0 
0 0 0 0 0 0 0 0 0 
0 0 0 0 0 0 0 0 0 
0 0 0 0 0 0 0 0 0 
0 0 0 0 0 0 0 0 0 
0 0 0 0 3.4702 0 0 0 0 
0 0 0 0 0 0 0 0 0 
0 0 0 0 0 0 0 0 0 
0 0 0 0 0 0 0 0 0 
0 2.0104 3.2878 3.991 0 0 0 0 0 
0 0 0 0 0 0 0 0 0 
0 0 0 0 0 0 2.1126 2.0074 2.1262 
0 0 0 0 0 3.1832 3.053 3.3678 2.9022 
0 0 0 0 0 0 0 0 0 
0 0 0 0 0 0 0 0 0 
0 0 2.2322 0 0 0 0 0 2.1178 
3.8268 0 0 0 0 0 0 0 0 
0 0 0 0 0 0 0 0 0 
0 0 0 3.075 2.7532 3.2768 3.852 2.5972 2.6632 
3.514 0 2.4322 0 0 0 0 0 0 
0 0 0 0 0 0 0 0 0 
0 0 0 0 0 0 0 0 0 
0 0 0 0 0 0 0 0 0 
0 0 0 0 0 0 0 0 0 
0 0 0 0 0 0 0 0 0 
0 0 0 0 0 0 0 0 0 
0 0 0 0 0 0 0 0 0 
0 0 0 0 0 0 0 0 0 
0 0 0 0 0 0 0 0 0 
0 0 0 0 0 0 0 0 0 
0 0 0 0 0 0 0 0 0 
0 0 0 0 0 0 0 0 0 
0 0 0 0 0 0 0 0 0 
0 0 0 0 0 0 0 0 0 
0 0 0 0 0 0 0 0 0 
0 0 0 0 0 0 0 0 0 
0 0 0 0 0 0 0 0 0 
0 0 0 0 0 0 0 0 0 
0 0 0 0 0 0 0 0 0 
0 0 0 0 0 
tau 1 1049 double
2 2 2 2 2 2 2 2 2 
2 2 2 2 2 2 2 2 2 
2 2 2 2 2 2 2 2 2 
2 2 2 2 2 2 2 2 2 
2 2 2 2 2 2 2 2 2 
2 2 2 2 2 2 2 2 2 
2 2 2 2 2 2 2 2 2 
2 2 2 2 2 2 2 2 2 
2 2 2 2 2 2 2 2 2 
2 2 2 2 2 2 2 2 2 
2 2 2 2 2 2 2 2 2 
2 2 2 2 2 2 2 2 2 
2 2 2 2 2 2 2 2 2 
2 2 2 2 2 2 2 2 2 
2 2 2 2 2 2 2 2 2 
2 2 2 2 2 2 2 2 2 
2 2 2 2 2 2 2 2 2 
2 2 2 2 2 2 2 2 2 
2 2 2 2 2 2 2 2 2 
2 2 2 2 2 2 2 2 2 
2 2 2 2 2 2 2 2 2 
2 2 2 2 2 2 2 2 2 
2 2 2 2 2 2 2 2 2 
2 2 2 2 2 2 2 2 2 
2 2 2 2 2 2 2 2 2 
2 2 2 2 2 2 2 2 2 
2 2 2 2 2 2 2 2 2 
2 2 2 2 2 2 2 2 2 
2 2 2 2 2 2 2 2 2 
2 2 2 2 2 2 2 2 2 
2 2 2 2 2 2 2 2 2 
2 2 2 2 2 2 2 2 2 
2 2 2 2 2 2 2 2 2 
2 2 2 2 2 2 2 2 2 
2 2 2 2 2 2 2 2 2 
2 2 2 2 2 2 2 2 2 
2 2 2 2 2 2 2 2 2 
2 2 2 2 2 2 2 2 2 
2 2 2 2 2 2 2 2 2 
2 2 2 2 2 2 2 2 2 
2 2 2 2 2 2 2 2 2 
2 2 2 2 2 2 2 2 2 
2 2 2 2 2 2 2 2 2 
2 2 2 2 2 2 2 2 2 
2 2 2 2 2 2 2 2 2 
2 2 2 2 2 2 2 2 2 
2 2 2 2 2 2 2 2 2 
2 2 2 2 2 2 2 2 2 
2 2 2 2 2 2 2 2 2 
2 2 2 2 2 2 2 2 2 
2 2 2 2 2 2 2 2 2 
2 2 2 2 2 2 2 2 2 
2 2 2 2 2 2 2 2 2 
2 2 2 2 2 2 2 2 2 
2 2 2 2 2 2 2 2 2 
2 2 2 2 2 2 2 2 2 
2 2 2 2 2 2 2 2 2 
2 2 2 2 2 2 2 2 2 
2 2 2 2 2 2 2 2 2 
2 2 2 2 2 2 2 2 2 
2 2 2 2 2 2 2 2 2 
2 2 2 2 2 2 2 2 2 
2 2 2 2 2 2 2 2 2 
2 2 2 2 2 2 2 2 2 
2 2 2 2 2 2 2 2 2 
2 2 2 2 2 2 2 2 2 
2 2 2 2 2 2 2 2 2 
2 2 2 2 2 2 2 2 2 
2 2 2 2 2 2 2 2 2 
2 2 2 2 2 2 2 2 2 
2 2 2 2 2 2 2 2 2 
2 2 2 2 2 2 2 2 2 
2 2 2 2 2 2 2 2 2 
2 2 2 2 2 2 2 2 2 
2 2 2 2 2 2 2 2 2 
2 2 2 2 2 2 2 2 2 
2 2 2 2 2 2 2 2 2 
2 2 2 2 2 2 2 2 2 
2 2 2 2 2 2 2 2 2 
2 2 2 2 2 2 2 2 2 
2 2 2 2 2 2 2 2 2 
2 2 2 2 2 2 2 2 2 
2 2 2 2 2 2 2 2 2 
2 2 2 2 2 2 2 2 2 
2 2 2 2 2 2 2 2 2 
2 2 2 2 2 2 2 2 2 
2 2 2 2 2 2 2 2 2 
2 2 2 2 2 2 2 2 2 
2 2 2 2 2 2 2 2 2 
2 2 2 2 2 2 2 2 2 
2 2 2 2 2 2 2 2 2 
2 2 2 2 2 2 2 2 2 
2 2 2 2 2 2 2 2 2 
2 2 2 2 2 2 2 2 2 
2 2 2 2 2 2 2 2 2 
2 2 2 2 2 2 2 2 2 
2 2 2 2 2 2 2 2 2 
2 2 2 2 2 2 2 2 2 
2 2 2 2 2 2 2 2 2 
2 2 2 2 2 2 2 2 2 
2 2 2 2 2 2 2 2 2 
2 2 2 2 2 2 2 2 2 
2 2 2 2 2 2 2 2 2 
2 2 2 2 2 2 2 2 2 
2 2 2 2 2 2 2 2 2 
2 2 2 2 2 2 2 2 2 
2 2 2 2 2 2 2 2 2 
2 2 2 2 2 2 2 2 2 
2 2 2 2 2 2 2 2 2 
2 2 2 2 2 2 2 2 2 
2 2 2 2 2 2 2 2 2 
2 2 2 2 2 2 2 2 2 
2 2 2 2 2 2 2 2 2 
2 2 2 2 2 2 2 2 2 
2 2 2 2 2 2 2 2 2 
2 2 2 2 2 2 2 2 2 
2 2 2 2 2 
R 1 1049 double
0.33263 0.30266 0.26351 0.28195 0.30154 0.28149 0.27325 0.33828 0.31931 
0.27528 0.31987 0.33184 0.33859 0.31776 0.25657 0.34851 0.34097 0.34517 
0.33777 0.26298 0.1 0.1 0.1 0.1 0.1 0.1 0.1 
0.1 0.1 0.1 0.1 0.1 0.1 0.1 0.1 0.1 
0.1 0.1 0.1 0.25774 0.1 0.1 0.1 0.1 0.1 
0.1 0.1 0.1 0.1 0.1 0.1 0.1 0.1 0.1 
0.1 0.1 0.1 0.1 0.1 0.1 0.1 0.1 0.1 
0.1 0.1 0.1 0.1 0.1 0.1 0.1 0.1 0.1 
0.1 0.1 0.1 0.1 0.1 0.1 0.1 0.1 0.1 
0.1 0.1 0.1 0.1 0.1 0.1 0.1 0.1 0.1 
0.1 0.1 0.1 0.1 0.1 0.1 0.1 0.1 0.1 
0.1 0.1 0.1 0.1 0.1 0.1 0.1 0.1 0.1 
0.1 0.1 0.1 0.1 0.1 0.1 0.1 0.1 0.1 
0.1 0.1 0.1 0.1 0.1 0.1 0.1 0.1 0.1 
0.1 0.1 0.1 0.1 0.1 0.1 0.1 0.1 0.1 
0.1 0.1 0.1 0.1 0.1 0.1 0.1 0.1 0.1 
0.1 0.1 0.1 0.1 0.1 0.1 0.1 0.1 0.1 
0.1 0.1 0.1 0.1 0.1 0.1 0.1 0.1 0.1 
0.1 0.1 0.1 0.1 0.1 0.1 0.1 0.1 0.1 
0.1 0.1 0.1 0.1 0.1 0.1 0.1 0.1 0.1 
0.1 0.1 0.1 0.1 0.1 0.1 0.1 0.1 0.1 
0.1 0.1 0.1 0.1 0.1 0.1 0.1 0.1 0.1 
0.1 0.33421 0.2897 0.32955 0.1 0.1 0.1 0.1 0.1 
0.1 0.1 0.1 0.1 0.1 0.1 0.1 0.1 0.1 
0.1 0.1 0.1 0.1 0.1 0.1 0.32722 0.27641 0.33398 
0.1 0.1 0.1 0.1 0.1 0.1 0.1 0.1 0.1 
0.1 0.33283 0.34126 0.1 0.1 0.1 0.1 0.1 0.1 
0.1 0.1 0.1 0.1 0.1 0.1 0.1 0.1 0.1 
0.1 0.1 0.1 0.1 0.1 0.1 0.1 0.1 0.1 
0.1 0.1 0.1 0.1 0.1 0.1 0.30352 0.33159 0.1 
0.1 0.1 0.1 0.1 0.1 0.1 0.1 0.1 0.1 
0.1 0.1 0.1 0.1 0.1 0.1 0.1 0.1 0.1 
0.1 0.28662 0.1 0.1 0.1 0.1 0.1 0.1 0.1 
0.1 0.1 0.1 0.25639 0.26783 0.1 0.1 0.1 0.1 
0.1 0.1 0.1 0.1 0.1 0.1 0.1 0.1 0.1 
0.1 0.1 0.1 0.1 0.1 0.1 0.1 0.27197 0.2931 
0.1 0.1 0.1 0.1 0.1 0.1 0.1 0.1 0.1 
0.1 0.28083 0.2979 0.33566 0.1 0.1 0.1 0.1 0.1 
0.1 0.1 0.1 0.1 0.1 0.1 0.1 0.1 0.1 
0.1 0.34368 0.1 0.1 0.1 0.1 0.1 0.31582 0.30199 
0.2889 0.27491 0.1 0.1 0.1 0.1 0.1 0.1 0.1 
0.1 0.1 0.1 0.31815 0.26354 0.25399 0.25853 0.1 0.1 
0.1 0.1 0.1 0.1 0.1 0.1 0.1 0.1 0.29985 
0.29552 0.1 0.1 0.1 0.1 0.1 0.1 0.1 0.1 
0.1 0.1 0.32278 0.26761 0.1 0.1 0.1 0.1 0.1 
0.1 0.1 0.1 0.1 0.1 0.25099 0.34593 0.1 0.1 
0.1 0.1 0.1 0.32017 0.1 0.1 0.1 0.1 0.1 
0.25871 0.33762 0.1 0.1 0.1 0.1 0.1 0.34334 0.27439 
0.1 0.1 0.1 0.1 0.1 0.34015 0.31127 0.25037 0.27972 
0.30856 0.1 0.1 0.1 0.1 0.1 0.1 0.1 0.1 
0.1 0.1 0.32665 0.2591 0.26852 0.33382 0.1 0.1 0.34672 
0.1 0.1 0.1 0.1 0.1 0.1 0.1 0.1 0.25528 
0.1 0.1 0.3159 0.1 0.30482 0.1 0.1 0.29693 0.1 
0.1 0.1 0.1 0.1 0.1 0.1 0.1 0.1 0.1 
0.1 0.1 0.1 0.1 0.28537 0.1 0.1 0.1 0.33657 
0.1 0.1 0.1 0.1 0.1 0.1 0.1 0.1 0.1 
0.32334 0.1 0.1 0.1 0.1 0.1 0.28428 0.1 0.1 
0.1 0.1 0.1 0.1 0.1 0.1 0.31506 0.1 0.1 
0.1 0.1 0.1 0.1 0.1 0.1 0.1 0.1 0.1 
0.1 0.1 0.1 0.1 0.1 0.1 0.1 0.1 0.2957 
0.1 0.1 0.31217 0.1 0.31364 0.1 0.30805 0.1 0.1 
0.1 0.1 0.1 0.28172 0.1 0.1 0.1 0.1 0.1 
0.27735 0.30511 0.1 0.1 0.28827 0.1 0.1 0.1 0.1 
0.1 0.1 0.1 0.1 0.1 0.1 0.31087 0.25308 0.3 
0.27957 0.26541 0.29225 0.26173 0.28069 0.25997 0.27555 0.31651 0.2685 
0.1 0.1 0.1 0.1 0.1 0.1 0.1 0.1 0.1 
0.1 0.1 0.1 0.1 0.1 0.1 0.1 0.1 0.1 
0.1 0.1 0.1 0.1 0.1 0.1 0.1 0.1 0.1 
0.1 0.1 0.1 0.1 0.1 0.1 0.1 0.1 0.1 
0.1 0.1 0.1 0.1 0.1 0.1 0.1 0.1 0.1 
0.1 0.1 0.1 0.1 0.1 0.1 0.1 0.1 0.1 
0.1 0.1 0.1 0.1 0.1 0.1 0.1 0.1 0.1 
0.1 0.1 0.1 0.1 0.1 0.1 0.1 0.1 0.1 
0.1 0.1 0.1 0.1 0.1 0.1 0.1 0.1 0.1 
0.1 0.1 0.1 0.1 0.1 0.1 0.1 0.1 0.1 
0.1 0.1 0.1 0.1 0.1 0.1 0.1 0.1 0.1 
0.1 0.1 0.1 0.1 0.1 0.1 0.1 0.1 0.1 
0.1 0.1 0.1 0.1 0.1 0.1 0.1 0.1 0.1 
0.1 0.1 0.1 0.1 0.1 0.1 0.1 0.1 0.1 
0.1 0.1 0.1 0.1 0.1 0.1 0.1 0.1 0.1 
0.1 0.1 0.1 0.1 0.1 0.1 0.1 0.1 0.1 
0.1 0.1 0.1 0.1 0.1 0.1 0.1 0.1 0.1 
0.1 0.1 0.1 0.1 0.30421 0.1 0.1 0.1 0.1 
0.1 0.1 0.1 0.1 0.1 0.1 0.1 0.1 0.1 
0.1 0.1 0.1 0.1 0.1 0.1 0.1 0.1 0.1 
0.1 0.1 0.1 0.1 0.1 0.1 0.1 0.1 0.1 
0.1 0.32716 0.25888 0.25928 0.1 0.1 0.1 0.1 0.1 
0.1 0.1 0.1 0.1 0.1 0.1 0.1 0.1 0.1 
0.1 0.1 0.1 0.1 0.1 0.1 0.33412 0.25952 0.33954 
0.1 0.1 0.1 0.1 0.1 0.31621 0.2735 0.27393 0.25008 
0.1 0.1 0.1 0.1 0.1 0.1 0.1 0.1 0.1 
0.1 0.1 0.1 0.1 0.1 0.1 0.1 0.1 0.1 
0.1 0.1 0.31445 0.1 0.1 0.1 0.1 0.1 0.3228 
0.27071 0.1 0.1 0.1 0.1 0.1 0.1 0.1 0.1 
0.1 0.1 0.1 0.1 0.1 0.1 0.1 0.1 0.1 
0.1 0.1 0.1 0.28437 0.33341 0.32361 0.3161 0.33976 0.26888 
0.33577 0.1 0.26269 0.1 0.1 0.1 0.1 0.1 0.1 
0.1 0.1 0.1 0.1 0.1 0.1 0.1 0.1 0.1 
0.1 0.1 0.1 0.1 0.1 0.1 0.1 0.1 0.1 
0.1 0.1 0.1 0.1 0.1 0.1 0.1 0.1 0.1 
0.1 0.1 0.1 0.1 0.1 0.1 0.1 0.1 0.1 
0.1 0.1 0.1 0.1 0.1 0.1 0.1 0.1 0.1 
0.1 0.1 0.1 0.1 0.1 0.1 0.1 0.1 0.1 
0.1 0.1 0.1 0.1 0.1 0.1 0.1 0.1 0.1 
0.1 0.1 0.1 0.1 0.1 0.1 0.1 0.1 0.1 
0.1 0.1 0.1 0.1 0.1 0.1 0.1 0.1 0.1 
0.1 0.1 0.1 0.1 0.1 0.1 0.1 0.1 0.1 
0.1 0.1 0.1 0.1 0.1 0.1 0.1 0.1 0.1 
0.1 0.1 0.1 0.1 0.1 0.1 0.1 0.1 0.1 
0.1 0.1 0.1 0.1 0.1 0.1 0.1 0.1 0.1 
0.1 0.1 0.1 0.1 0.1 0.1 0.1 0.1 0.1 
0.1 0.1 0.1 0.1 0.1 0.1 0.1 0.1 0.1 
0.1 0.1 0.1 0.1 0.1 0.1 0.1 0.1 0.1 
0.1 0.1 0.1 0.1 0.1 0.1 0.1 0.1 0.1 
0.1 0.1 0.1 0.1 0.1 0.1 0.1 0.1 0.1 
0.1 0.1 0.1 0.1 0.1 0.1 0.1 0.1 0.1 
0.1 0.1 0.1 0.1 0.1 
a 3 1049 double
0 0 0 0 0 0 0 0 0 
0 0 0 0 0 0 0 0 0 
0 0 0 0 0 0 0 0 0 
0 0 0 0 0 0 0 0 0 
0 0 0 0 0 0 0 0 0 
0 0 0 0 0 0 0 0 0 
0 0 0 0 0 0 0 0 0 
0 0 0 0 0 0 0 0 0 
0 0 0 0 0 0 0 0 0 
0 0 0 0 0 0 0 0 0 
0 0 0 0 0 0 0 0 0 
0 0 0 0 0 0 0 0 0 
0 0 0 0 0 0 0 0 0 
0 0 0 0 0 0 0 0 0 
0 0 0 0 0 0 0 0 0 
0 0 0 0 0 0 0 0 0 
0 0 0 0 0 0 0 0 0 
0 0 0 0 0 0 0 0 0 
0 0 0 0 0 0 0 0 0 
0 0 0 0 0 0 0 0 0 
0 0 0 0 0 0 0 0 0 
0 0 0 0 0 0 0 0 0 
0 0 0 0 0 0 0 0 0 
0 0 0 0 0 0 0 0 0 
0 0 0 0 0 0 0 0 0 
0 0 0 0 0 0 0 0 0 
0 0 0 0 0 0 0 0 0 
0 0 0 0 0 0 0 0 0 
0 0 0 0 0 0 0 0 0 
0 0 0 0 0 0 0 0 0 
0 0 0 0 0 0 0 0 0 
0 0 0 0 0 0 0 0 0 
0 0 0 0 0 0 0 0 0 
0 0 0 0 0 0 0 0 0 
0 0 0 0 0 0 0 0 0 
0 0 0 0 0 0 0 0 0 
0 0 0 0 0 0 0 0 0 
0 0 0 0 0 0 0 0 0 
0 0 0 0 0 0 0 0 0 
0 0 0 0 0 0 0 0 0 
0 0 0 0 0 0 0 0 0 
0 0 0 0 0 0 0 0 0 
0 0 0 0 0 0 0 0 0 
0 0 0 0 0 0 0 0 0 
0 0 0 0 0 0 0 0 0 
0 0 0 0 0 0 0 0 0 
0 0 0 0 0 0 0 0 0 
0 0 0 0 0 0 0 0 0 
0 0 0 0 0 0 0 0 0 
0 0 0 0 0 0 0 0 0 
0 0 0 0 0 0 0 0 0 
0 0 0 0 0 0 0 0 0 
0 0 0 0 0 0 0 0 0 
0 0 0 0 0 0 0 0 0 
0 0 0 0 0 0 0 0 0 
0 0 0 0 0 0 0 0 0 
0 0 0 0 0 0 0 0 0 
0 0 0 0 0 0 0 0 0 
0 0 0 0 0 0 0 0 0 
0 0 0 0 0 0 0 0 0 
0 0 0 0 0 0 0 0 0 
0 0 0 0 0 0 0 0 0 
0 0 0 0 0 0 0 0 0 
0 0 0 0 0 0 0 0 0 
0 0 0 0 0 0 0 0 0 
0 0 0 0 0 0 0 0 0 
0 0 0 0 0 0 0 0 0 
0 0 0 0 0 0 0 0 0 
0 0 0 0 0 0 0 0 0 
0 0 0 0 0 0 0 0 0 
0 0 0 0 0 0 0 0 0 
0 0 0 0 0 0 0 0 0 
0 0 0 0 0 0 0 0 0 
0 0 0 0 0 0 0 0 0 
0 0 0 0 0 0 0 0 0 
0 0 0 0 0 0 0 0 0 
0 0 0 0 0 0 0 0 0 
0 0 0 0 0 0 0 0 0 
0 0 0 0 0 0 0 0 0 
0 0 0 0 0 0 0 0 0 
0 0 0 0 0 0 0 0 0 
0 0 0 0 0 0 0 0 0 
0 0 0 0 0 0 0 0 0 
0 0 0 0 0 0 0 0 0 
0 0 0 0 0 0 0 0 0 
0 0 0 0 0 0 0 0 0 
0 0 0 0 0 0 0 0 0 
0 0 0 0 0 0 0 0 0 
0 0 0 0 0 0 0 0 0 
0 0 0 0 0 0 0 0 0 
0 0 0 0 0 0 0 0 0 
0 0 0 0 0 0 0 0 0 
0 0 0 0 0 0 0 0 0 
0 0 0 0 0 0 0 0 0 
0 0 0 0 0 0 0 0 0 
0 0 0 0 0 0 0 0 0 
0 0 0 0 0 0 0 0 0 
0 0 0 0 0 0 0 0 0 
0 0 0 0 0 0 0 0 0 
0 0 0 0 0 0 0 0 0 
0 0 0 0 0 0 0 0 0 
0 0 0 0 0 0 0 0 0 
0 0 0 0 0 0 0 0 0 
0 0 0 0 0 0 0 0 0 
0 0 0 0 0 0 0 0 0 
0 0 0 0 0 0 0 0 0 
0 0 0 0 0 0 0 0 0 
0 0 0 0 0 0 0 0 0 
0 0 0 0 0 0 0 0 0 
0 0 0 0 0 0 0 0 0 
0 0 0 0 0 0 0 0 0 
0 0 0 0 0 0 0 0 0 
0 0 0 0 0 0 0 0 0 
0 0 0 0 0 0 0 0 0 
0 0 0 0 0 0 0 0 0 
0 0 0 0 0 0 0 0 0 
0 0 0 0 0 0 0 0 0 
0 0 0 0 0 0 0 0 0 
0 0 0 0 0 0 0 0 0 
0 0 0 0 0 0 0 0 0 
0 0 0 0 0 0 0 0 0 
0 0 0 0 0 0 0 0 0 
0 0 0 0 0 0 0 0 0 
0 0 0 0 0 0 0 0 0 
0 0 0 0 0 0 0 0 0 
0 0 0 0 0 0 0 0 0 
0 0 0 0 0 0 0 0 0 
0 0 0 0 0 0 0 0 0 
0 0 0 0 0 0 0 0 0 
0 0 0 0 0 0 0 0 0 
0 0 0 0 0 0 0 0 0 
0 0 0 0 0 0 0 0 0 
0 0 0 0 0 0 0 0 0 
0 0 0 0 0 0 0 0 0 
0 0 0 0 0 0 0 0 0 
0 0 0 0 0 0 0 0 0 
0 0 0 0 0 0 0 0 0 
0 0 0 0 0 0 0 0 0 
0 0 0 0 0 0 0 0 0 
0 0 0 0 0 0 0 0 0 
0 0 0 0 0 0 0 0 0 
0 0 0 0 0 0 0 0 0 
0 0 0 0 0 0 0 0 0 
0 0 0 0 0 0 0 0 0 
0 0 0 0 0 0 0 0 0 
0 0 0 0 0 0 0 0 0 
0 0 0 0 0 0 0 0 0 
0 0 0 0 0 0 0 0 0 
0 0 0 0 0 0 0 0 0 
0 0 0 0 0 0 0 0 0 
0 0 0 0 0 0 0 0 0 
0 0 0 0 0 0 0 0 0 
0 0 0 0 0 0 0 0 0 
0 0 0 0 0 0 0 0 0 
0 0 0 0 0 0 0 0 0 
0 0 0 0 0 0 0 0 0 
0 0 0 0 0 0 0 0 0 
0 0 0 0 0 0 0 0 0 
0 0 0 0 0 0 0 0 0 
0 0 0 0 0 0 0 0 0 
0 0 0 0 0 0 0 0 0 
0 0 0 0 0 0 0 0 0 
0 0 0 0 0 0 0 0 0 
0 0 0 0 0 0 0 0 0 
0 0 0 0 0 0 0 0 0 
0 0 0 0 0 0 0 0 0 
0 0 0 0 0 0 0 0 0 
0 0 0 0 0 0 0 0 0 
0 0 0 0 0 0 0 0 0 
0 0 0 0 0 0 0 0 0 
0 0 0 0 0 0 0 0 0 
0 0 0 0 0 0 0 0 0 
0 0 0 0 0 0 0 0 0 
0 0 0 0 0 0 0 0 0 
0 0 0 0 0 0 0 0 0 
0 0 0 0 0 0 0 0 0 
0 0 0 0 0 0 0 0 0 
0 0 0 0 0 0 0 0 0 
0 0 0 0 0 0 0 0 0 
0 0 0 0 0 0 0 0 0 
0 0 0 0 0 0 0 0 0 
0 0 0 0 0 0 0 0 0 
0 0 0 0 0 0 0 0 0 
0 0 0 0 0 0 0 0 0 
0 0 0 0 0 0 0 0 0 
0 0 0 0 0 0 0 0 0 
0 0 0 0 0 0 0 0 0 
0 0 0 0 0 0 0 0 0 
0 0 0 0 0 0 0 0 0 
0 0 0 0 0 0 0 0 0 
0 0 0 0 0 0 0 0 0 
0 0 0 0 0 0 0 0 0 
0 0 0 0 0 0 0 0 0 
0 0 0 0 0 0 0 0 0 
0 0 0 0 0 0 0 0 0 
0 0 0 0 0 0 0 0 0 
0 0 0 0 0 0 0 0 0 
0 0 0 0 0 0 0 0 0 
0 0 0 0 0 0 0 0 0 
0 0 0 0 0 0 0 0 0 
0 0 0 0 0 0 0 0 0 
0 0 0 0 0 0 0 0 0 
0 0 0 0 0 0 0 0 0 
0 0 0 0 0 0 0 0 0 
0 0 0 0 0 0 0 0 0 
0 0 0 0 0 0 0 0 0 
0 0 0 0 0 0 0 0 0 
0 0 0 0 0 0 0 0 0 
0 0 0 0 0 0 0 0 0 
0 0 0 0 0 0 0 0 0 
0 0 0 0 0 0 0 0 0 
0 0 0 0 0 0 0 0 0 
0 0 0 0 0 0 0 0 0 
0 0 0 0 0 0 0 0 0 
0 0 0 0 0 0 0 0 0 
0 0 0 0 0 0 0 0 0 
0 0 0 0 0 0 0 0 0 
0 0 0 0 0 0 0 0 0 
0 0 0 0 0 0 0 0 0 
0 0 0 0 0 0 0 0 0 
0 0 0 0 0 0 0 0 0 
0 0 0 0 0 0 0 0 0 
0 0 0 0 0 0 0 0 0 
0 0 0 0 0 0 0 0 0 
0 0 0 0 0 0 0 0 0 
0 0 0 0 0 0 0 0 0 
0 0 0 0 0 0 0 0 0 
0 0 0 0 0 0 0 0 0 
0 0 0 0 0 0 0 0 0 
0 0 0 0 0 0 0 0 0 
0 0 0 0 0 0 0 0 0 
0 0 0 0 0 0 0 0 0 
0 0 0 0 0 0 0 0 0 
0 0 0 0 0 0 0 0 0 
0 0 0 0 0 0 0 0 0 
0 0 0 0 0 0 0 0 0 
0 0 0 0 0 0 0 0 0 
0 0 0 0 0 0 0 0 0 
0 0 0 0 0 0 0 0 0 
0 0 0 0 0 0 0 0 0 
0 0 0 0 0 0 0 0 0 
0 0 0 0 0 0 0 0 0 
0 0 0 0 0 0 0 0 0 
0 0 0 0 0 0 0 0 0 
0 0 0 0 0 0 0 0 0 
0 0 0 0 0 0 0 0 0 
0 0 0 0 0 0 0 0 0 
0 0 0 0 0 0 0 0 0 
0 0 0 0 0 0 0 0 0 
0 0 0 0 0 0 0 0 0 
0 0 0 0 0 0 0 0 0 
0 0 0 0 0 0 0 0 0 
0 0 0 0 0 0 0 0 0 
0 0 0 0 0 0 0 0 0 
0 0 0 0 0 0 0 0 0 
0 0 0 0 0 0 0 0 0 
0 0 0 0 0 0 0 0 0 
0 0 0 0 0 0 0 0 0 
0 0 0 0 0 0 0 0 0 
0 0 0 0 0 0 0 0 0 
0 0 0 0 0 0 0 0 0 
0 0 0 0 0 0 0 0 0 
0 0 0 0 0 0 0 0 0 
0 0 0 0 0 0 0 0 0 
0 0 0 0 0 0 0 0 0 
0 0 0 0 0 0 0 0 0 
0 0 0 0 0 0 0 0 0 
0 0 0 0 0 0 0 0 0 
0 0 0 0 0 0 0 0 0 
0 0 0 0 0 0 0 0 0 
0 0 0 0 0 0 0 0 0 
0 0 0 0 0 0 0 0 0 
0 0 0 0 0 0 0 0 0 
0 0 0 0 0 0 0 0 0 
0 0 0 0 0 0 0 0 0 
0 0 0 0 0 0 0 0 0 
0 0 0 0 0 0 0 0 0 
0 0 0 0 0 0 0 0 0 
0 0 0 0 0 0 0 0 0 
0 0 0 0 0 0 0 0 0 
0 0 0 0 0 0 0 0 0 
0 0 0 0 0 0 0 0 0 
0 0 0 0 0 0 0 0 0 
0 0 0 0 0 0 0 0 0 
0 0 0 0 0 0 0 0 0 
0 0 0 0 0 0 0 0 0 
0 0 0 0 0 0 0 0 0 
0 0 0 0 0 0 0 0 0 
0 0 0 0 0 0 0 0 0 
0 0 0 0 0 0 0 0 0 
0 0 0 0 0 0 0 0 0 
0 0 0 0 0 0 0 0 0 
0 0 0 0 0 0 0 0 0 
0 0 0 0 0 0 0 0 0 
0 0 0 0 0 0 0 0 0 
0 0 0 0 0 0 0 0 0 
0 0 0 0 0 0 0 0 0 
0 0 0 0 0 0 0 0 0 
0 0 0 0 0 0 0 0 0 
0 0 0 0 0 0 0 0 0 
0 0 0 0 0 0 0 0 0 
0 0 0 0 0 0 0 0 0 
0 0 0 0 0 0 0 0 0 
0 0 0 0 0 0 0 0 0 
0 0 0 0 0 0 0 0 0 
0 0 0 0 0 0 0 0 0 
0 0 0 0 0 0 0 0 0 
0 0 0 0 0 0 0 0 0 
0 0 0 0 0 0 0 0 0 
0 0 0 0 0 0 0 0 0 
0 0 0 0 0 0 0 0 0 
0 0 0 0 0 0 0 0 0 
0 0 0 0 0 0 0 0 0 
0 0 0 0 0 0 0 0 0 
0 0 0 0 0 0 0 0 0 
0 0 0 0 0 0 0 0 0 
0 0 0 0 0 0 0 0 0 
0 0 0 0 0 0 0 0 0 
0 0 0 0 0 0 0 0 0 
0 0 0 0 0 0 0 0 0 
0 0 0 0 0 0 0 0 0 
0 0 0 0 0 0 0 0 0 
0 0 0 0 0 0 0 0 0 
0 0 0 0 0 0 0 0 0 
0 0 0 0 0 0 0 0 0 
0 0 0 0 0 0 0 0 0 
0 0 0 0 0 0 0 0 0 
0 0 0 0 0 0 0 0 0 
0 0 0 0 0 0 0 0 0 
0 0 0 0 0 0 0 0 0 
0 0 0 0 0 0 0 0 0 
0 0 0 0 0 0 0 0 0 
0 0 0 0 0 0 0 0 0 
0 0 0 0 0 0 0 0 0 
0 0 0 0 0 0 0 0 0 
0 0 0 0 0 0 0 0 0 
0 0 0 0 0 0 0 0 0 
0 0 0 0 0 0 0 0 0 
0 0 0 0 0 0 0 0 0 
0 0 0 0 0 0 0 0 0 
0 0 0 0 0 0 0 0 0 
0 0 0 0 0 0 0 0 0 
0 0 0 0 0 0 0 0 0 
0 0 0 0 0 0 0 0 0 
0 0 0 0 0 0 0 0 0 
0 0 0 0 0 0 0 0 0 
0 0 0 0 0 0 0 0 0 
0 0 0 0 0 0 0 0 0 
0 0 0 0 0 0 0 0 0 
0 0 0 0 0 0 
v 3 1049 double
-0.919311 -0.750258 0 0.947238 -0.800824 0 0.955672 -0.745968 0 
0.979204 -0.779864 0 -0.678678 -0.687223 0 -0.722134 -0.61446 0 
0.88248 -0.811515 0 0.730139 -0.59229 0 -0.851041 -0.609618 0 
-0.85209 -0.609203 0 -0.978175 -0.795771 0 -0.725975 -0.606996 0 
0.852505 -0.611212 0 0.753384 -0.691993 0 0.602088 -0.360393 0 
-0.936213 -0.725127 0 -0.925571 -0.756908 0 0.416165 -0.863321 0 
0.776767 -0.704874 0 -0.815196 -0.811087 0 0 0 0 
0 0 0 0 0 0 0 0 0 
0 0 0 0 0 0 0 0 0 
0 0 0 0 0 0 0 0 0 
0 0 0 0 0 0 0 0 0 
0 0 0 0 0 0 0 0 0 
0 0 0 0 0 0 0 0 0 
-0.167861 -0.89587 0 0 0 0 0 0 0 
0 0 0 0 0 0 0 0 0 
0 0 0 0 0 0 0 0 0 
0 0 0 0 0 0 0 0 0 
0 0 0 0 0 0 0 0 0 
0 0 0 0 0 0 0 0 0 
0 0 0 0 0 0 0 0 0 
0 0 0 0 0 0 0 0 0 
0 0 0 0 0 0 0 0 0 
0 0 0 0 0 0 0 0 0 
0 0 0 0 0 0 0 0 0 
0 0 0 0 0 0 0 0 0 
0 0 0 0 0 0 0 0 0 
0 0 0 0 0 0 0 0 0 
0 0 0 0 0 0 0 0 0 
0 0 0 0 0 0 0 0 0 
0 0 0 0 0 0 0 0 0 
0 0 0 0 0 0 0 0 0 
0 0 0 0 0 0 0 0 0 
0 0 0 0 0 0 0 0 0 
0 0 0 0 0 0 0 0 0 
0 0 0 0 0 0 0 0 0 
0 0 0 0 0 0 0 0 0 
0 0 0 0 0 0 0 0 0 
0 0 0 0 0 0 0 0 0 
0 0 0 0 0 0 0 0 0 
0 0 0 0 0 0 0 0 0 
0 0 0 0 0 0 0 0 0 
0 0 0 0 0 0 0 0 0 
0 0 0 0 0 0 0 0 0 
0 0 0 0 0 0 0 0 0 
0 0 0 0 0 0 0 0 0 
0 0 0 0 0 0 0 0 0 
0 0 0 0 0 0 0 0 0 
0 0 0 0 0 0 0 0 0 
0 0 0 0 0 0 0 0 0 
0 0 0 0 0 0 0 0 0 
0 0 0 0 0 0 0 0 0 
0 0 0 0 0 0 0 0 0 
0 0 0 0 0 0 0 0 0 
0 0 0 0 0 0 0 0 0 
0 0 0 0 0 0 0 0 0 
0 0 0 0 0 0 0 0 0 
0 0 0 0 0 0 0 0 0 
0 0 0 0 0 0 0 0 0 
0 0 0 0 0 0 0 0 0 
0 0 0 0 0 0 0 0 0 
0 0 0 0 0 0 0 0 0 
0 0 0 0 0 0 0 0 0 
0 0 0 0 0 0 0 0 0 
0 0 0 0 0 0 0 0 0 
0 0 0 0 0 0 0 0 0 
0 0 0 0 0 0 0 0 0 
0 0 0 0.21143 -1.08976 0 0.0948854 -0.844036 0 
-0.224492 -0.922473 0 0 0 0 0 0 0 
0 0 0 0 0 0 0 0 0 
0 0 0 0 0 0 0 0 0 
0 0 0 0 0 0 0 0 0 
0 0 0 0 0 0 0 0 0 
0 0 0 0 0 0 0 0 0 
0 0 0 0 0 0 0 0 0 
0.247552 -0.966679 0 0.327623 -1.12889 0 -0.143665 -1.20668 0 
0 0 0 0 0 0 0 0 0 
0 0 0 0 0 0 0 0 0 
0 0 0 0 0 0 0 0 0 
0 0 0 -0.378756 -0.938108 0 -0.252282 -1.11383 0 
0 0 0 0 0 0 0 0 0 
0 0 0 0 0 0 0 0 0 
0 0 0 0 0 0 0 0 0 
0 0 0 0 0 0 0 0 0 
0 0 0 0 0 0 0 0 0 
0 0 0 0 0 0 0 0 0 
0 0 0 0 0 0 0 0 0 
0 0 0 0 0 0 0 0 0 
0 0 0 0 0 0 0 0 0 
0 0 0 0 0 0 0 0 0 
0.170458 -1.11936 0 -0.368444 -1.11399 0 0 0 0 
0 0 0 0 0 0 0 0 0 
0 0 0 0 0 0 0 0 0 
0 0 0 0 0 0 0 0 0 
0 0 0 0 0 0 0 0 0 
0 0 0 0 0 0 0 0 0 
0 0 0 0 0 0 0 0 0 
0 0 0 0.259293 -0.884661 0 0 0 0 
0 0 0 0 0 0 0 0 0 
0 0 0 0 0 0 0 0 0 
0 0 0 0 0 0 0 0 0 
0.116169 -0.976998 0 -0.36048 -1.18503 0 0 0 0 
0 0 0 0 0 0 0 0 0 
0 0 0 0 0 0 0 0 0 
0 0 0 0 0 0 0 0 0 
0 0 0 0 0 0 0 0 0 
0 0 0 0 0 0 0 0 0 
0 0 0 0 0 0 0 0 0 
0 0 0 0.249331 -0.909476 0 -0.116679 -0.957192 0 
0 0 0 0 0 0 0 0 0 
0 0 0 0 0 0 0 0 0 
0 0 0 0 0 0 0 0 0 
0 0 0 0.123502 -1.10406 0 0.211741 -1.0184 0 
-0.366222 -1.20493 0 0 0 0 0 0 0 
0 0 0 0 0 0 0 0 0 
0 0 0 0 0 0 0 0 0 
0 0 0 0 0 0 0 0 0 
0 0 0 0 0 0 0 0 0 
0 0 0 -0.194381 0.652461 0 0 0 0 
0 0 0 0 0 0 0 0 0 
0 0 0 0.243061 -0.91161 0 0.26884 -0.872878 0 
0.289053 -0.926777 0 -0.174067 -0.957135 0 0 0 0 
0 0 0 0 0 0 0 0 0 
0 0 0 0 0 0 0 0 0 
0 0 0 0 0 0 0 0 0 
0.166103 -1.14851 0 0.208906 -1.13153 0 -0.366564 -1.20106 0 
-0.388022 -1.21095 0 0 0 0 0 0 0 
0 0 0 0 0 0 0 0 0 
0 0 0 0 0 0 0 0 0 
0 0 0 0 0 0 0.182612 0.756321 0 
0.0266355 0.496233 0 0 0 0 0 0 0 
0 0 0 0 0 0 0 0 0 
0 0 0 0 0 0 0 0 0 
0 0 0 0 0 0 0.231863 -0.858413 0 
-0.132951 -0.948705 0 0 0 0 0 0 0 
0 0 0 0 0 0 0 0 0 
0 0 0 0 0 0 0 0 0 
0 0 0 0 0 0 0.262122 -0.846346 0 
-0.399851 -0.909203 0 0 0 0 0 0 0 
0 0 0 0 0 0 0 0 0 
-0.267255 0.740516 0 0 0 0 0 0 0 
0 0 0 0 0 0 0 0 0 
0.218171 0.181998 0 0.476976 0.597379 0 0 0 0 
0 0 0 0 0 0 0 0 0 
0 0 0 -0.0213338 0.417923 0 -0.521263 0.836521 0 
0 0 0 0 0 0 0 0 0 
0 0 0 0 0 0 0.306933 -0.998405 0 
0.436566 -0.820608 0 -0.323649 -0.921127 0 -0.0473475 -0.950231 0 
-0.153127 -1.13616 0 0 0 0 0 0 0 
0 0 0 0 0 0 0 0 0 
0 0 0 0 0 0 0 0 0 
0 0 0 0 0 0 0.0789016 -1.03129 0 
-0.747357 -0.851681 0 -0.71206 -0.933626 0 -0.70661 -1.01717 0 
0 0 0 0 0 0 -0.594099 0.256365 0 
0 0 0 0 0 0 0 0 0 
0 0 0 0 0 0 0 0 0 
0 0 0 0 0 0 -0.729599 0.137483 0 
0 0 0 0 0 0 -0.69747 0.0599091 0 
0 0 0 -0.795343 0.313006 0 0 0 0 
0 0 0 -0.389319 0.761401 0 0 0 0 
0 0 0 0 0 0 0 0 0 
0 0 0 0 0 0 0 0 0 
0 0 0 0 0 0 0 0 0 
0 0 0 0 0 0 0 0 0 
0 0 0 -0.993793 0.0544959 0 0 0 0 
0 0 0 0 0 0 -1.14362 0.0942886 0 
0 0 0 0 0 0 0 0 0 
0 0 0 0 0 0 0 0 0 
0 0 0 0 0 0 0 0 0 
-1.05938 0.164432 0 0 0 0 0 0 0 
0 0 0 0 0 0 0 0 0 
0.183026 0.482157 0 0 0 0 0 0 0 
0 0 0 0 0 0 0 0 0 
0 0 0 0 0 0 0 0 0 
0.677315 0.0678084 0 0 0 0 0 0 0 
0 0 0 0 0 0 0 0 0 
0 0 0 0 0 0 0 0 0 
0 0 0 0 0 0 0 0 0 
0 0 0 0 0 0 0 0 0 
0 0 0 0 0 0 0 0 0 
0 0 0 0 0 0 0.931802 0.47176 0 
0 0 0 0 0 0 1.0297 0.143339 0 
0 0 0 0.856524 -0.0480048 0 0 0 0 
0.985443 0.218579 0 0 0 0 0 0 0 
0 0 0 0 0 0 0 0 0 
0.718211 -0.0528832 0 0 0 0 0 0 0 
0 0 0 0 0 0 0 0 0 
0.429771 -0.886795 0 0.714144 -0.870874 0 0 0 0 
0 0 0 -0.136782 -0.945507 0 0 0 0 
0 0 0 0 0 0 0 0 0 
0 0 0 0 0 0 0 0 0 
0 0 0 0 0 0 0 0 0 
-0.992334 -0.821238 0 -0.824514 -0.0151892 0 -0.808022 0.0447633 0 
-0.749597 -0.0302717 0 -0.88582 -0.163453 0 -0.83296 -0.392964 0 
-0.674666 -0.227147 0 1.03454 0.155902 0 0.987803 0.19964 0 
0.84654 -0.0112075 0 0.961837 -0.244138 0 -0.132695 -0.89997 0 
0 0 0 0 0 0 0 0 0 
0 0 0 0 0 0 0 0 0 
0 0 0 0 0 0 0 0 0 
0 0 0 0 0 0 0 0 0 
0 0 0 0 0 0 0 0 0 
0 0 0 0 0 0 0 0 0 
0 0 0 0 0 0 0 0 0 
0 0 0 0 0 0 0 0 0 
0 0 0 0 0 0 0 0 0 
0 0 0 0 0 0 0 0 0 
0 0 0 0 0 0 0 0 0 
0 0 0 0 0 0 0 0 0 
0 0 0 0 0 0 0 0 0 
0 0 0 0 0 0 0 0 0 
0 0 0 0 0 0 0 0 0 
0 0 0 0 0 0 0 0 0 
0 0 0 0 0 0 0 0 0 
0 0 0 0 0 0 0 0 0 
0 0 0 0 0 0 0 0 0 
0 0 0 0 0 0 0 0 0 
0 0 0 0 0 0 0 0 0 
0 0 0 0 0 0 0 0 0 
0 0 0 0 0 0 0 0 0 
0 0 0 0 0 0 0 0 0 
0 0 0 0 0 0 0 0 0 
0 0 0 0 0 0 0 0 0 
0 0 0 0 0 0 0 0 0 
0 0 0 0 0 0 0 0 0 
0 0 0 0 0 0 0 0 0 
0 0 0 0 0 0 0 0 0 
0 0 0 0 0 0 0 0 0 
0 0 0 0 0 0 0 0 0 
0 0 0 0 0 0 0 0 0 
0 0 0 0 0 0 0 0 0 
0 0 0 0 0 0 0 0 0 
0 0 0 0 0 0 0 0 0 
0 0 0 0 0 0 0 0 0 
0 0 0 0 0 0 0 0 0 
0 0 0 0 0 0 0 0 0 
0 0 0 0 0 0 0 0 0 
0 0 0 0 0 0 0 0 0 
0 0 0 0 0 0 0 0 0 
0 0 0 0 0 0 0 0 0 
0 0 0 0 0 0 0 0 0 
0 0 0 0 0 0 0 0 0 
0 0 0 0 0 0 0 0 0 
0 0 0 0 0 0 0 0 0 
0 0 0 0 0 0 0 0 0 
0 0 0 0 0 0 0 0 0 
0 0 0 0 0 0 0 0 0 
0 0 0 0 0 0 0 0 0 
0 0 0 0 0 0 0 0 0 
0 0 0 0.431597 -0.906204 0 0 0 0 
0 0 0 0 0 0 0 0 0 
0 0 0 0 0 0 0 0 0 
0 0 0 0 0 0 0 0 0 
0 0 0 0 0 0 0 0 0 
0 0 0 0 0 0 0 0 0 
0 0 0 0 0 0 0 0 0 
0 0 0 0 0 0 0 0 0 
0 0 0 0 0 0 0 0 0 
0 0 0 0 0 0 0 0 0 
0 0 0 0 0 0 0 0 0 
0 0 0 0.59595 -0.583417 0 0.738564 -0.805711 0 
0.722096 -1.1173 0 0 0 0 0 0 0 
0 0 0 0 0 0 0 0 0 
0 0 0 0 0 0 0 0 0 
0 0 0 0 0 0 0 0 0 
0 0 0 0 0 0 0 0 0 
0 0 0 0 0 0 0 0 0 
0 0 0 0 0 0 0 0 0 
0.645523 0.233105 0 0.6512 0.253474 0 0.635461 0.313835 0 
0 0 0 0 0 0 0 0 0 
0 0 0 0 0 0 0.68731 -0.818686 0 
0.671034 -0.739892 0 0.722651 -0.766069 0 0.669554 -0.593001 0 
0 0 0 0 0 0 0 0 0 
0 0 0 0 0 0 0 0 0 
0 0 0 0 0 0 0 0 0 
0 0 0 0 0 0 0 0 0 
0 0 0 0 0 0 0 0 0 
0 0 0 0 0 0 0 0 0 
0 0 0 0 0 0 0.604499 -0.042259 0 
0 0 0 0 0 0 0 0 0 
0 0 0 0 0 0 0.544199 -0.662603 0 
0.803066 -0.807269 0 0 0 0 0 0 0 
0 0 0 0 0 0 0 0 0 
0 0 0 0 0 0 0 0 0 
0 0 0 0 0 0 0 0 0 
0 0 0 0 0 0 0 0 0 
0 0 0 0 0 0 0 0 0 
0 0 0 0 0 0 0 0 0 
1.02302 0.0637081 0 0.739169 -0.0960916 0 0.559562 0.220769 0 
0.594752 -0.0788405 0 0.472721 -0.212594 0 0.557768 0.410722 0 
1.03582 -0.600199 0 0 0 0 1.07222 -0.55652 0 
0 0 0 0 0 0 0 0 0 
0 0 0 0 0 0 0 0 0 
0 0 0 0 0 0 0 0 0 
0 0 0 0 0 0 0 0 0 
0 0 0 0 0 0 0 0 0 
0 0 0 0 0 0 0 0 0 
0 0 0 0 0 0 0 0 0 
0 0 0 0 0 0 0 0 0 
0 0 0 0 0 0 0 0 0 
0 0 0 0 0 0 0 0 0 
0 0 0 0 0 0 0 0 0 
0 0 0 0 0 0 0 0 0 
0 0 0 0 0 0 0 0 0 
0 0 0 0 0 0 0 0 0 
0 0 0 0 0 0 0 0 0 
0 0 0 0 0 0 0 0 0 
0 0 0 0 0 0 0 0 0 
0 0 0 0 0 0 0 0 0 
0 0 0 0 0 0 0 0 0 
0 0 0 0 0 0 0 0 0 
0 0 0 0 0 0 0 0 0 
0 0 0 0 0 0 0 0 0 
0 0 0 0 0 0 0 0 0 
0 0 0 0 0 0 0 0 0 
0 0 0 0 0 0 0 0 0 
0 0 0 0 0 0 0 0 0 
0 0 0 0 0 0 0 0 0 
0 0 0 0 0 0 0 0 0 
0 0 0 0 0 0 0 0 0 
0 0 0 0 0 0 0 0 0 
0 0 0 0 0 0 0 0 0 
0 0 0 0 0 0 0 0 0 
0 0 0 0 0 0 0 0 0 
0 0 0 0 0 0 0 0 0 
0 0 0 0 0 0 0 0 0 
0 0 0 0 0 0 0 0 0 
0 0 0 0 0 0 0 0 0 
0 0 0 0 0 0 0 0 0 
0 0 0 0 0 0 0 0 0 
0 0 0 0 0 0 0 0 0 
0 0 0 0 0 0 0 0 0 
0 0 0 0 0 0 0 0 0 
0 0 0 0 0 0 0 0 0 
0 0 0 0 0 0 0 0 0 
0 0 0 0 0 0 0 0 0 
0 0 0 0 0 0 0 0 0 
0 0 0 0 0 0 0 0 0 
0 0 0 0 0 0 0 0 0 
0 0 0 0 0 0 0 0 0 
0 0 0 0 0 0 0 0 0 
0 0 0 0 0 0 0 0 0 
0 0 0 0 0 0 0 0 0 
0 0 0 0 0 0 0 0 0 
0 0 0 0 0 0 0 0 0 
0 0 0 0 0 0 0 0 0 
0 0 0 0 0 0 0 0 0 
0 0 0 0 0 0 0 0 0 
0 0 0 0 0 0 0 0 0 
0 0 0 0 0 0 0 0 0 
0 0 0 0 0 0 0 0 0 
0 0 0 0 0 0 
x 1 1049 double
5.92014 -7.00811 -6.36502 -7.26823 8.12959 9.21847 -9.83585 -8.9467 8.37028 
8.73437 9.45458 10.2793 -10.8112 -10.4185 -9.47199 10.3433 10.8864 -11.8665 
-11.3513 11.4773 -15 -14.8214 -15 -14.4643 -14.2857 -15 -15 
-14.6429 -15 -14.1071 -13.2143 -13.9286 -13.75 -13.3929 -13.0357 -13.5714 
-12.6786 -12.8571 -12.5 -11.8984 -11.1429 -11.5 -11.3214 -10.7857 -10.4286 
-10.9643 -10.6071 -10.25 -10.0714 -9.5357 -9.3571 -9.7143 -9.1786 -9.8929 
-9 -8.8 -9 -8.6 -9 -8.4 -9 -9 -8.2 
-7.2 -7.6 -7.8 -7.4 -8 -6.2 -6.4 -7 -6.8 
-6.6 -5.4 -6 -5.8 -5.2 -5.6 -4.2 -4.6 -4.4 
-4.8 -5 -3.6 -3.8 -3.2 -4 -3.4 -3 -3 
-2.2 -3 -2.8 -3 -2.6 -2.4 -3 -1.6 -1.8 
-1.2 -2 -1.4 -0.4 -0.2 -0.6 -0.8 -1 0.4 
0.2 0.8 -0 0.6 1.4 1.6 1 1.2 1.8 
2.6 2 2.2 2.8 2.4 3 3 3.8 3.2 
3.6 3 3.4 3 3 4 4.6 4.8 4.2 
4.4 5 5.2 5.4 5.8 5.6 6.8 6.2 6.6 
6.4 6 7.2 7.4 7.8 7.6 7 8 8.4 
8.6 8.8 8.2 9.3571 9 9.5357 9 9 9.7143 
9 9.8929 9.1786 9 10.4286 10.0714 10.6071 10.7857 10.9643 
10.25 11.3214 11.1429 11.5 12.5 12.8571 12.6786 13.0357 13.9286 
13.3929 13.75 13.2143 13.5714 14.2857 14.6429 14.4643 14.8214 14.1071 
15 15 15 15 15 -15 -15 -15 -15 
-15 -12.4217 -11.8606 -11.3685 -9 -9 -9 -9 -9 
-3 -3 -3 -3 -3 3 3 3 3 
3 9 9 9 9 9 11.2513 11.7733 12.2251 
15 15 15 15 15 -15 -15 -15 -15 
-15 -11.4467 -10.9039 -9 -9 -9 -9 -9 -3 
-3 -3 -3 -3 3 3 3 3 3 
9 9 9 9 9 15 15 15 15 
15 -15 -15 -15 -15 -15 -12.5129 -10.9282 -9 
-9 -9 -9 -9 -3 -3 -3 -3 -3 
3 3 3 3 3 9 9 9 9 
9 10.9141 15 15 15 15 15 -15 -15 
-15 -15 -15 -12.8617 -10.6555 -9 -9 -9 -9 
-9 -3 -3 -3 -3 -3 3 3 3 
3 3 9 9 9 9 9 10.4073 12.721 
15 15 15 15 15 -15 -15 -15 -15 
-15 -13.252 -12.6145 -10.376 -9 -9 -9 -9 -9 
-3 -3 -3 -3 -3 3 3 3 3 
3 6.61081 9 9 9 9 9 10.2678 10.9687 
10.3331 12.7202 15 15 15 15 15 -15 -15 
-15 -15 -15 -13.0649 -12.7115 -10.149 -9.93316 -9 -9 
-9 -9 -9 -3 -3 -3 -3 -3 -0.42184 
0.171812 3 3 3 3 3 9 9 9 
9 9 9.99805 12.9964 15 15 15 15 15 
-15 -15 -15 -15 -15 -12.9322 -9.54444 -9 -9 
-9 -9 -9 -5.88939 -3 -3 -3 -3 -3 
-0.333451 0.0716801 3 3 3 3 3 5.87787 6.16384 
9 9 9 9 9 9.56176 10.0915 12.6979 13.6333 
13.129 15 15 15 15 15 -15 -15 -15 
-15 -15 -13.3422 -10.1026 -9.64649 -9.10935 -8.8214 -8.4643 -8.53977 
-9 -8.1071 -8.2857 -8.6429 -7.0357 -7.75 -7.2143 -7.5714 -7.40885 
-7.9286 -7.3929 -7.95583 -6.5 -6.64461 -6.6786 -6.8571 -6.21567 -5.5 
-5.1429 -5.3214 -4.0714 -4.9643 -4.4286 -4.6071 -4.7857 -4.25 -3.8929 
-3.5357 -3.3571 -3.7143 -3.1786 -3.91075 -2.2857 -3 -2.4643 -2.96833 
-2.1071 -2.8214 -2.6429 -1.0357 -1.9286 -1.2143 -1.5714 -1.75 -1.3929 
-1.49027 -0.8571 -0.6786 -0.5 0.5 0.8571 0.195978 0.6786 1.2143 
1.9286 1.3929 1.75 1.5714 1.0357 2.6429 2.32422 2.8214 2.1071 
2.2857 2.4643 3.8929 3.5357 3.1786 3.7143 3.3571 3 4.25 
4.6071 4.7857 4.9643 4.0714 4.4286 5.3214 5.5 5.1429 6.36009 
6.5 6.8571 6.94614 6.6786 7.96935 7.5714 7.41765 7.2143 7.0357 
7.75 7.3929 7.9286 8.53879 8.2857 8.4643 8.6429 8.1071 8.8214 
9.453 9.08908 9 9 13.5354 15 15 15 15 
15 -15 -15 -15 -15 -15 -9.20447 -8.72566 -8.21999 
-7.66565 -7.11464 -6.53764 -6.07925 6.69862 7.59918 8.15522 8.69223 13.4769 
15 15 15 15 15 -14.1667 -15 -15 -14.3333 
-15 -14.5 -15 -15 -14.8333 -14.6667 -14 -12.2 -12.4 
-12.6 -13 -12.8 -12 -11.2 -11.6 -11.4 -11.8 -10.8 
-10.6 -10.2 -11 -10.4 -9.2 -10 -9.8 -9.6 -9.4 
-8.4643 -9 -8.6429 -9 -8.8214 -8.1071 -9 -9 -9 
-8.2857 -7.75 -7.9286 -7.2143 -7.0357 -7.3929 -7.5714 -6.5 -6.6786 
-6.8571 -5.5 -5.1429 -5.3214 -4.25 -4.6071 -4.0714 -4.9643 -4.7857 
-4.4286 -3.5357 -3.1786 -3.3571 -3.8929 -3.7143 -3 -2.8 -2.4 
-3 -2.6 -3 -2.2 -3 -3 -1.2 -1.8 -2 
-1.4 -1.6 -1 -0.4 -0.6 -0.8 -0.2 0.2 -0 
0.8 0.6 0.4 1.8 1.4 1 1.6 1.2 2 
2.4 2.2 2.8 2.6 3.8 3 3.2 3.4 3.6 
4.8 4.6 4 4.4 4.2 5.4 5.2 5 5.6 
5.8 6.6 6.4 6.2 6.8 6 7.8 7.4 7.6 
7.2 7 8.6 8.2 8 8.8 8.4 9.6 9 
9 9 9.8 9.2 9 9 9.4 10.8 10.6 
10 10.4 10.2 11.2 11.8 11.6 11 11.4 12.4 
12 12.8 12.6 12.2 13.4775 13 14.5 14.3333 14.8333 
14.6667 14.1667 14 15 15 15 15 15 -15 
-15 -15 -15 -15 -9 -9 -9 -9 -9 
-3 -3 -3 -3 -3 9 9 9 9 
9 11.9897 11.4948 12.831 15 15 15 15 15 
-15 -15 -15 -15 -15 -9 -9 -9 -9 
-9 -3 -3 -3 -3 -3 3.12395 3.97892 5.92305 
9 9 9 9 9 10.7894 11.2049 11.4568 11.8849 
15 15 15 15 15 -15 -15 -15 -15 
-15 -9 -9 -9 -9 -9 -3 -3 -3 
-3 -3 8.37619 9 9 9 9 9 9.91575 
10.7833 15 15 15 15 15 -15 -15 -15 
-15 -15 -9 -9 -9 -9 -9 -3 -3 
-3 -3 -3 6.57751 7.70761 7.7918 8.2516 8.64606 8.76884 
9.29001 9 9.83002 15 15 15 15 15 -15 
-15 -15 -15 -15 -9 -9 -9 -9 -9 
-3 -3 -3 -3 -3 9 9 9 9 
9 9 15 15 15 15 15 -15 -14.6 
-14.4 -14.2 -14.8 -13.2 -13.8 -14 -13.6 -13.4 -12.4 
-12.2 -12.6 -13 -12.8 -11.8 -11.4 -11.6 -12 -11.2 
-10.6 -10.4 -10.2 -11 -10.8 -10 -9.8 -9.6 -9.4 
-9.2 -9 -8.4 -8.8 -8.2 -8.6 -8 -7.8 -7.6 
-7.2 -7.4 -7 -6.8 -6.6 -6.2 -6.4 -6 -5.2 
-5.4 -5.6 -5.8 -4.8 -5 -4.6 -4.2 -4.4 -3.8 
-3.6 -3.4 -3.2 -4 -2.4 -2.6 -2.8 -2.2 -3 
-2 -1.2 -1.4 -1.8 -1.6 -0.4 -1 -0.8 -0.6 
-0.2 0.8 0.2 0.6 -0 0.4 1.6 1 1.4 
1.2 1.8 2.8 2 2.2 2.6 2.4 3 3.8 
3.6 3.4 3.2 4 4.8 4.6 4.4 4.2 5.4 
5.8 5.2 5.6 5 6.4 6.8 6.6 6.2 6 
7.8 7.6 7.2 7 7.4 8.4 8.8 8.6 8 
8.2 9.6 9.4 9 9.8 9.2 10 10.2 10.4 
10.6 10.8 11.8 11 11.4 11.6 11.2 12.4 12.8 
12.6 12.2 12 13.4 13.8 13 13.6 13.2 14.8 
14 14.2 14.4 14.6 15 
y 1 1049 double
-5.16852 -4.5885 -4.66206 -3.94714 -3.54294 -3.09232 -2.35648 -2.7452 -2.98936 
-2.53479 -2.06479 -2.34155 -1.15427 -1.64521 -1.92827 -1.56726 -1.126 -0.165212 
-0.764641 -0.564973 0.4 0 0.8 0 0 0.6 0 
0 0.2 0 0 0 0 0 0 0 
0 0 0 0.53776 0 0 0 0 0 
0 0 0 0 0 0 0 0 0 
0.6 0 0 0 0.4 0 0.8 0.2 0 
0 0 0 0 0 0 0 0 0 
0 0 0 0 0 0 0 0 0 
0 0 0 0 0 0 0 0 0.8 
0 0.2 0 0.6 0 0 0.4 0 0 
0 0 0 0 0 0 0 0 0 
0 0 0 0 0 0 0 0 0 
0 0 0 0 0 0.8 0.2 0 0 
0 0.6 0 0.4 0 0 0 0 0 
0 0 0 0 0 0 0 0 0 
0 0 0 0 0 0 0 0 0 
0 0 0 0 0.6 0 0.4 0.2 0 
0.8 0 0 0 0 0 0 0 0 
0 0 0 0 0 0 0 0 0 
0 0 0 0 0 0 0 0 0 
0 0.4 0.2 0.6 0.8 1.6 1.8 1.2 1.4 
1 1.11374 1.35273 1.95494 1.2 1.4 1 1.6 1.8 
1.6 1.8 1.2 1 1.4 1.4 1.6 1.2 1 
1.8 1 1.8 1.2 1.6 1.4 1.59076 1.86613 1.37862 
1.4 1.2 1.6 1.8 1 2.2 2 2.4 2.8 
2.6 2.60431 2.97733 2.4 2.2 2.6 2 2.8 2.6 
2 2.8 2.2 2.4 2.8 2.2 2 2.4 2.6 
2.2 2.8 2.6 2 2.4 2 2.4 2.2 2.8 
2.6 3.6 3.8 3.4 3.2 3 3.36813 3.64387 3.6 
3 3.8 3.2 3.4 3.6 3.4 3 3.8 3.2 
3 3.8 3.6 3.4 3.2 3.2 3.4 3.8 3.6 
3 3.74275 3.4 3 3.2 3.8 3.6 4.4 4.2 
4 4.6 4.8 5.00873 4.38919 4 4.2 4.6 4.4 
4.8 4 4.4 4.6 4.8 4.2 4.8 4.2 4 
4.6 4.4 4.2 4.4 4 4.8 4.6 4.59852 4.49569 
4 4.6 4.4 4.2 4.8 5.2 5.8 5 5.4 
5.6 5.72441 5.53811 5.34041 5.4 5.8 5.6 5.2 5 
5.6 5.2 5.4 5 5.8 5.6 5.4 5.8 5.2 
5 5.94974 5.6 5.8 5.4 5 5.2 5.15821 5.10845 
5.80717 5.04992 5.4 5.2 5 5.6 5.8 6.4 6.2 
6 6.6 6.8 6.70764 6.10718 6.12125 6.73511 6.6 6.4 
6 6.8 6.2 6.6 6.2 6.8 6.4 6 6.91903 
6.88368 6.2 6 6.8 6.4 6.6 6 6.2 6.6 
6.8 6.4 6.70409 6.6364 6 6.6 6.2 6.4 6.8 
7.8 7.6 7.4 7.2 7 7.8866 7.90726 7.6 7.4 
7 7.2 7.8 7.66705 7.4 7.2 7.6 7 7.8 
7.77493 7.48056 7.8 7.4 7.6 7.2 7 7.33517 7.83925 
7.6 7.4 7.2 7.8 7 7.75149 7.41506 7.44217 7.48614 
7.77996 7.2 7.8 7.4 7.6 7 8.2 8.6 8.4 
8 8.8 8.28083 8.50536 8.68282 8.65637 8 8 8.65946 
8 8 8 8 8 8 8 8 8.69997 
8 8 8.75208 8 8.58877 8 8 8.17705 8 
8 8 8 8 8 8 8 8 8 
8 8 8 8 8.87817 8 8 8 8.79364 
8 8 8 8 8 8 8 8 8 
8.63867 8 8 8 8 8 8.0942 8 8 
8 8 8 8 8 8 8.8088 8 8 
8 8 8 8 8 8 8 8 8 
8 8 8 8 8 8 8 8 8.37123 
8 8 8.50837 8 8.63932 8 8.83742 8 8 
8 8 8 8.78921 8 8 8 8 8 
8.37489 8.84884 8 8 8.93421 8 8.6 8.8 8.4 
8.2 9.4 9.8 9.6 9 9.2 9.29324 9.16309 9.28566 
9.25667 9.27371 9.55248 9.97685 9.04164 9.34461 9.18004 9.33559 9.492 
9 9.2 9.6 9.4 9.8 10 10.2 10.8 10 
10 10 10.6 10.4 10 10 10 10 10 
10 10 10 10 10 10 10 10 10 
10 10 10 10 10 10 10 10 10 
10 10.6 10 10 10 10 10.4 10.2 10.8 
10 10 10 10 10 10 10 10 10 
10 10 10 10 10 10 10 10 10 
10 10 10 10 10 10 10.6 10 10 
10.8 10 10.4 10 10.2 10 10 10 10 
10 10 10 10 10 10 10 10 10 
10 10 10 10 10 10 10 10 10 
10 10 10 10 10 10 10 10 10 
10 10 10 10 10 10 10 10 10 
10 10 10 10 10 10 10 10 10 
10 10 10 10 10 10 10 10 10.6 
10 10.2 10 10 10.4 10.8 10 10 10 
10 10 10 10 10 10 10 10 10 
10 10 10 10 10.0569 10 10 10 10 
10 10 10 10.4 10.2 10 10.6 10.8 11 
11.2 11.6 11.8 11.4 11.8 11.2 11.4 11 11.6 
11 11.8 11.2 11.4 11.6 11.6 11.4 11.2 11.8 
11 11.7224 11.421 11.0351 11.6 11 11.4 11.8 11.2 
12 12.8 12.4 12.6 12.2 12.2 12.6 12.8 12 
12.4 12.4 12.8 12 12.2 12.6 12.4355 12.4499 12.9804 
12 12.6 12.4 12.8 12.2 12.6449 12.0293 12.5875 12.2817 
12.2 12 12.8 12.4 12.6 13 13.4 13.8 13.6 
13.2 13.2 13 13.6 13.4 13.8 13 13.4 13.2 
13.8 13.6 13.8898 13.2 13.8 13.6 13.4 13 13.7262 
13.2278 13.2 13.6 13.4 13 13.8 14.2 14 14.6 
14.4 14.8 14.8 14 14.2 14.4 14.6 14.4 14.2 
14.6 14 14.8 14.3491 14.8175 14.0715 14.4812 14.8804 14.2884 
14.4482 14 14.2973 14.2 14.8 14.6 14 14.4 15.4 
15 15.6 15.8 15.2 15.4 15.2 15 15.8 15.6 
15 15.6 15.4 15.2 15.8 15.5 15.6667 15 15.1667 
15.3333 15.8333 15.8 15 15.6 15.4 15.2 16 16 
16 16 16 16 16 16 16 16 16 
16 16 16 16 16 16 16 16 16 
16 16 16 16 16 16 16 16 16 
16 16 16 16 16 16 16 16 16 
16 16 16 16 16 16 16 16 16 
16 16 16 16 16 16 16 16 16 
16 16 16 16 16 16 16 16 16 
16 16 16 16 16 16 16 16 16 
16 16 16 16 16 16 16 16 16 
16 16 16 16 16 16 16 16 16 
16 16 16 16 16 16 16 16 16 
16 16 16 16 16 16 16 16 16 
16 16 16 16 16 16 16 16 16 
16 16 16 16 16 16 16 16 16 
16 16 16 16 16 16 16 16 16 
16 16 16 16 16 16 16 16 16 
16 16 16 16 16 
