# vtk DataFile Version 4.0
vtk output
ASCII
DATASET POLYDATA
FIELD FieldData 4
domain 1 4 string
domain_min:-40|-40
domain_max:40|40
cell_size:1|1
boundary:0|0

variables 1 5 string
T:25.8
dt:0.01
write_case:1
substeps:10
all_steps:2580

constants 1 17 string
L:40
c_s:1
dx:1
k:1000
d1:-13.5|10
d2:-6|10
d3:9|14.5
d4:13.5|10
d5:-6|8
d6:0|8
d7:6|8
d8:-9|9
d9:9|9
d10:-12|0
d11:12|0
d12:0|-10
R_w:0.1

equations 1 18 string
time:T=(T+dt)#true
pos_x:x=elem(r,0,0)#eq(gid,1)
pos_y:y=elem(r,1,0)#eq(gid,1)
wp_1:p0=if(and(lt(x,(-9)),gt(y,10)),d1,p0)#eq(gid,1)
wp_2:p0=if(and(and(gt(x,(-9)),lt(x,(-3))),gt(y,10)),d2,p0)#eq(gid,1)
wp_3:p0=if(and(and(gt(x,(-3)),lt(x,9)),gt(y,10)),d3,p0)#eq(gid,1)
wp_4:p0=if(and(gt(x,9),gt(y,10)),d4,p0)#eq(gid,1)
wp_5:p0=if(and(and(gt(x,(-9)),lt(x,(-3))),lt(y,8)),d5,p0)#eq(gid,1)
wp_6:p0=if(and(and(gt(x,(-3)),lt(x,3)),lt(y,8)),d6,p0)#eq(gid,1)
wp_7:p0=if(and(and(gt(x,3),lt(x,9)),lt(y,8)),d7,p0)#eq(gid,1)
wp_8:p0=if(and(and(gt(x,(-9)),lt(x,0)),and(gt(y,8),lt(y,10))),d8,p0)#eq(gid,1)
wp_9:p0=if(and(and(gt(x,0),lt(x,9)),and(gt(y,8),lt(y,10))),d9,p0)#eq(gid,1)
wp_10:p0=if(and(lt(x,(-9)),lt(y,10)),d10,p0)#eq(gid,1)
wp_11:p0=if(and(gt(x,9),lt(y,10)),d11,p0)#eq(gid,1)
wp_12:p0=if(lt(y,0),d12,p0)#eq(gid,1)
acceleration:v=sfm(v,p0,v0,m,R,A,B,k,c,tau)#eq(gid,1)
velocity:v=euler(v,a,dt)#eq(gid,1)
position:r=euler(r,v,dt)#eq(gid,1)

POINTS 1049 float
-0.446789 -11.2599 0 0.709247 -11.1399 0 0.108266 -11.0638 0 
-1.49037 -10.3668 0 -0.310549 -10.7755 0 -0.875415 -10.3064 0 
-0.418632 -10.416 0 -0.222653 -10.0606 0 -0.866323 -10.8426 0 
0.0571912 -10.4978 0 0.45355 -10.6921 0 0.487914 -10.2347 0 
0.953781 -10.6074 0 1.46928 -10.4407 0 1.08615 -10.0322 0 
-1.16718 -9.89838 0 -1.26168 -9.43765 0 -1.84304 -9.44532 0 
-0.253351 -9.56537 0 -0.598349 -9.87984 0 -0.193721 -9.10158 0 
-0.713124 -9.45088 0 0.0456287 -9.99171 0 0.161726 -9.52749 0 
0.5589 -9.7958 0 0.588022 -9.29084 0 0.972035 -9.50546 0 
1.43005 -9.38778 0 -3.1121 -8.44466 0 -2.43465 -8.59595 0 
-2.02573 -8.22614 0 -1.63244 -8.62298 0 -1.23965 -8.92265 0 
-1.4221 -8.15832 0 -0.926406 -8.43977 0 -0.297521 -8.5534 0 
-0.702636 -8.92691 0 0.163959 -8.36136 0 0.954866 -8.91516 0 
0.318243 -8.88593 0 1.70507 -8.46407 0 2.2984 -8.21259 0 
-3.42864 -7.36657 0 -2.71689 -7.97812 0 -2.25969 -7.61783 0 
2.20219 -7.53627 0 3.58037 -7.71161 0 3.30687 -7.1308 0 
4.44204 -7.02768 0 -5.47594 -6.27089 0 -4.79927 -6.33333 0 
-3.78425 -6.49385 0 3.80954 -6.62187 0 4.96432 -6.76142 0 
5.31124 -6.32166 0 -6.34504 -5.40988 0 -5.81654 -5.72633 0 
-5.04737 -5.49427 0 4.85092 -5.25082 0 4.54268 -5.95273 0 
5.22667 -5.76691 0 5.75621 -5.5803 0 5.39601 -5.06282 0 
6.20471 -5.98085 0 -6.74945 -4.51171 0 -5.91698 -4.82035 0 
6.33827 -4.71127 0 7.61538 -4.76481 0 8.2702 -4.26115 0 
-9.52922 -3.14561 0 -8.54704 -3.16034 0 -7.98989 -3.27216 0 
7.53413 -3.28828 0 7.4102 -3.96914 0 8.13871 -3.30046 0 
8.5546 -3.81624 0 8.69821 -3.29012 0 9.54513 -3.64765 0 
9.21569 -3.18486 0 -10.6006 -2.12076 0 -10.2345 -2.51868 0 
-9.44205 -2.19744 0 -8.75261 -2.6356 0 8.04835 -2.68784 0 
8.69088 -2.52832 0 9.23117 -2.4963 0 9.79885 -2.81737 0 
10.6718 -2.11065 0 -10.1059 -1.40623 0 -10.7298 -1.51789 0 
9.51013 -1.95959 0 10.0766 -1.65157 0 10.6173 -1.37195 0 
11.1871 -1.3385 0 -11.0696 -0.922016 0 -11.7471 -0.705206 0 
-11.8652 -0.131453 0 11.8818 -0.326524 0 11.3573 -0.696186 0 
-14.4643 0 0 -15 0.8 0 -15 0 0 
-15 0.2 0 -15 0.4 0 -14.8214 0 0 
-15 0.6 0 -14.1071 0 0 -14.2857 0 0 
-14.6429 0 0 -13.5714 0 0 -13.9286 0 0 
-13.2143 0 0 -13.3929 0 0 -13.75 0 0 
-13.0357 0 0 -12.6786 0 0 -12.8571 0 0 
-12.5 0 0 -11.3214 0 0 -11.5 0 0 
-11.1429 0 0 -10.9643 0 0 -10.7857 0 0 
-10.6071 0 0 -10.0714 0 0 -10.4286 0 0 
-10.25 0 0 -9.7143 0 0 -9.8929 0 0 
-9.1786 0 0 -9.3571 0 0 -9.5357 0 0 
-9 0 0 -8.6 0 0 -8.4 0 0 
-9 0.4 0 -9 0.2 0 -8.2 0 0 
-8.8 0 0 -9 0.8 0 -9 0.6 0 
-7.2 0 0 -8 0 0 -7.4 0 0 
-7.8 0 0 -7.6 0 0 -6.2 0 0 
-6.4 0 0 -6.8 0 0 -6.6 0 0 
-7 0 0 -5.2 0 0 -5.4 0 0 
-5.6 0 0 -5.8 0 0 -6 0 0 
-4.6 0 0 -5 0 0 -4.4 0 0 
-4.8 0 0 -4.2 0 0 -3.2 0 0 
-4 0 0 -3.6 0 0 -3.8 0 0 
-3.4 0 0 -3 0.6 0 -3 0.2 0 
-2.2 0 0 -2.4 0 0 -2.8 0 0 
-3 0 0 -2.6 0 0 -3 0.4 0 
-3 0.8 0 -1.2 0 0 -1.8 0 0 
-1.4 0 0 -1.6 0 0 -2 0 0 
-0.8 0 0 -1 0 0 -0.4 0 0 
-0.2 0 0 -0.6 0 0 0.6 0 0 
0.4 0 0 0.8 0 0 0.2 0 0 
-0 0 0 1.8 0 0 1.4 0 0 
1.2 0 0 1 0 0 1.6 0 0 
2.4 0 0 2 0 0 2.6 0 0 
2.8 0 0 2.2 0 0 3.6 0 0 
3.2 0 0 3 0 0 3.4 0 0 
3 0.2 0 3 0.8 0 3.8 0 0 
3 0.6 0 3 0.4 0 4.6 0 0 
4.2 0 0 4 0 0 4.4 0 0 
4.8 0 0 5 0 0 5.4 0 0 
5.8 0 0 5.2 0 0 5.6 0 0 
6.8 0 0 6 0 0 6.6 0 0 
6.4 0 0 6.2 0 0 7.8 0 0 
7.2 0 0 7.4 0 0 7.6 0 0 
7 0 0 8 0 0 8.6 0 0 
8.4 0 0 8.2 0 0 8.8 0 0 
9 0.4 0 9 0.8 0 9.7143 0 0 
9 0.6 0 9.1786 0 0 9 0 0 
9.3571 0 0 9.5357 0 0 9.8929 0 0 
9 0.2 0 10.9643 0 0 10.25 0 0 
10.0714 0 0 10.4286 0 0 10.6071 0 0 
10.7857 0 0 11.5021 0.731634 0 11.5 0 0 
11.7073 0.160174 0 11.1429 0 0 11.3214 0 0 
12.6786 0 0 12.6373 0.399147 0 12.5 0 0 
12.8571 0 0 12.0712 0.415347 0 12.2873 0.895555 0 
13.75 0 0 13.0357 0 0 13.3929 0 0 
13.5714 0 0 13.2143 0 0 13.9286 0 0 
14.6429 0 0 14.1071 0 0 14.4643 0 0 
14.2857 0 0 14.8214 0 0 15 0.8 0 
15 0 0 15 0.2 0 15 0.6 0 
15 0.4 0 -15 1.2 0 -15 1.8 0 
-15 1 0 -15 1.6 0 -15 1.4 0 
-9 1.6 0 -9 1.4 0 -9 1.8 0 
-9 1.2 0 -9 1 0 -3 1.2 0 
-3 1.6 0 -3 1.8 0 -3 1.4 0 
-3 1 0 3 1.4 0 3 1.2 0 
3 1.6 0 3 1.8 0 3 1 0 
9 1.8 0 9 1.4 0 9 1.2 0 
9 1.6 0 9 1 0 11.8597 1.26191 0 
12.6958 1.18846 0 12.475 1.73411 0 15 1.4 0 
15 1 0 15 1.8 0 15 1.6 0 
15 1.2 0 -15 2.4 0 -15 2.2 0 
-15 2.8 0 -15 2 0 -15 2.6 0 
-9 2 0 -9 2.8 0 -9 2.4 0 
-9 2.2 0 -9 2.6 0 -3 2.8 0 
-3 2 0 -3 2.6 0 -3 2.2 0 
-3 2.4 0 3 2.6 0 3 2.4 0 
3 2 0 3 2.8 0 3 2.2 0 
9 2.2 0 9 2.4 0 9 2 0 
9 2.8 0 9 2.6 0 11.246 2.48646 0 
12.3382 2.37962 0 12.4386 2.99267 0 15 2 0 
15 2.4 0 15 2.6 0 15 2.8 0 
15 2.2 0 -15 3 0 -15 3.2 0 
-15 3.4 0 -15 3.6 0 -15 3.8 0 
-9 3.2 0 -9 3 0 -9 3.4 0 
-9 3.6 0 -9 3.8 0 -3 3.6 0 
-3 3.2 0 -3 3 0 -3 3.4 0 
-3 3.8 0 3 3.4 0 3 3.2 0 
3 3.8 0 3 3 0 3 3.6 0 
9 3.2 0 9 3.4 0 9 3.6 0 
9 3.8 0 9 3 0 10.7845 3.03034 0 
11.3571 3.39915 0 15 3 0 15 3.6 0 
15 3.2 0 15 3.8 0 15 3.4 0 
-15 4.8 0 -15 4.2 0 -15 4.4 0 
-15 4.6 0 -15 4 0 -10.6722 4.80713 0 
-9 4.4 0 -9 4.8 0 -9 4 0 
-9 4.6 0 -9 4.2 0 -3 4.8 0 
-3 4.6 0 -3 4 0 -3 4.4 0 
-3 4.2 0 3 4.4 0 3 4 0 
3 4.2 0 3 4.8 0 3 4.6 0 
9 4 0 9 4.6 0 9 4.8 0 
9 4.2 0 9 4.4 0 10.798 4.05311 0 
15 4.6 0 15 4.4 0 15 4.2 0 
15 4 0 15 4.8 0 -15 5.2 0 
-15 5.8 0 -15 5.6 0 -15 5 0 
-15 5.4 0 -10.3686 5.28771 0 -9 5.6 0 
-9 5.4 0 -9 5.8 0 -9 5 0 
-9 5.2 0 -3 5 0 -3 5.8 0 
-3 5.6 0 -3 5.2 0 -3 5.4 0 
3 5.2 0 3 5.6 0 3 5 0 
3 5.4 0 3 5.8 0 9 5 0 
9 5.6 0 9 5.4 0 9 5.8 0 
9 5.2 0 15 5.8 0 15 5.6 0 
15 5 0 15 5.2 0 15 5.4 0 
-15 6.4 0 -15 6.6 0 -15 6.2 0 
-15 6.8 0 -15 6 0 -10.1877 6.03289 0 
-9 6 0 -9 6.8 0 -9 6.4 0 
-9 6.2 0 -9 6.6 0 -3 6.4 0 
-3 6.8 0 -3 6 0 -3 6.2 0 
-3 6.6 0 3 6.4 0 3 6.8 0 
3 6 0 3 6.6 0 3 6.2 0 
9 6.8 0 9 6.2 0 9 6.4 0 
9 6.6 0 9 6 0 12.9247 6.10688 0 
15 6.4 0 15 6.6 0 15 6 0 
15 6.2 0 15 6.8 0 -15 7.2 0 
-15 7.4 0 -15 7.8 0 -15 7 0 
-15 7.6 0 -9 7.8 0 -9 7.4 0 
-9 7.2 0 -9 7.6 0 -9 7 0 
-3 7.6 0 -3 7.8 0 -3 7.2 0 
-3 7 0 -3 7.4 0 3 7.4 0 
3 7.2 0 3 7.8 0 3 7 0 
3 7.6 0 9 7.6 0 9 7.8 0 
9 7.4 0 9 7.2 0 9 7 0 
13.1322 7.47118 0 15 7.8 0 15 7.4 0 
15 7.6 0 15 7.2 0 15 7 0 
-15 8.6 0 -15 8.2 0 -15 8 0 
-15 8.8 0 -15 8.4 0 -8.1071 8 0 
-8.6429 8 0 -8.4643 8 0 -8.2857 8 0 
-8.8214 8 0 -9 8 0 -7.2143 8 0 
-7.75 8 0 -7.3929 8 0 -7.0357 8 0 
-7.9286 8 0 -7.5714 8 0 -6.8571 8 0 
-6.6786 8 0 -6.5 8 0 -5.5 8 0 
-5.1429 8 0 -5.3214 8 0 -4.25 8 0 
-4.6071 8 0 -4.9643 8 0 -4.7857 8 0 
-4.4286 8 0 -4.0714 8 0 -3.5357 8 0 
-3.8929 8 0 -3.7143 8 0 -3.1786 8 0 
-3.3571 8 0 -2.6429 8 0 -2.4643 8 0 
-2.2857 8 0 -2.1071 8 0 -2.8214 8 0 
-3 8 0 -1.5714 8 0 -1.2143 8 0 
-1.75 8 0 -1.3929 8 0 -1.0357 8 0 
-1.9286 8 0 -0.5 8 0 -0.6786 8 0 
-0.8571 8 0 0.5 8 0 0.8571 8 0 
0.6786 8 0 1.5714 8 0 1.2143 8 0 
1.75 8 0 1.9286 8 0 1.3929 8 0 
1.0357 8 0 2.6429 8 0 2.2857 8 0 
2.8214 8 0 2.4643 8 0 2.1071 8 0 
3.7143 8 0 3 8 0 3.8929 8 0 
3.1786 8 0 3.5357 8 0 3.3571 8 0 
4.9643 8 0 4.7857 8 0 4.4286 8 0 
4.0714 8 0 4.25 8 0 4.6071 8 0 
5.1429 8 0 5.3214 8 0 5.5 8 0 
6.5 8 0 6.6786 8 0 6.8571 8 0 
7.75 8 0 7.3929 8 0 7.9286 8 0 
7.5714 8 0 7.0357 8 0 7.2143 8 0 
8.8214 8 0 8.6429 8 0 8.1071 8 0 
8.4643 8 0 8.2857 8 0 9 8 0 
9 8 0 15 8.2 0 15 8.6 0 
15 8 0 15 8.4 0 15 8.8 0 
-15 9.4 0 -15 9.6 0 -15 9.2 0 
-15 9.8 0 -15 9 0 13.4346 9.40539 0 
15 9.4 0 15 9 0 15 9.8 0 
15 9.6 0 15 9.2 0 -14.3333 10 0 
-15 10.8 0 -14.8333 10 0 -14.6667 10 0 
-15 10.2 0 -15 10 0 -14.1667 10 0 
-15 10.6 0 -15 10.4 0 -14.5 10 0 
-14 10 0 -13 10 0 -12.8 10 0 
-12.4 10 0 -12.2 10 0 -12.6 10 0 
-12 10 0 -11.6 10 0 -11.8 10 0 
-11.4 10 0 -11.2 10 0 -10.4 10 0 
-11 10 0 -10.6 10 0 -10.8 10 0 
-10.2 10 0 -9.4 10 0 -9.8 10 0 
-9.2 10 0 -10 10 0 -9.6 10 0 
-8.2857 10 0 -8.1071 10 0 -9 10.2 0 
-8.6429 10 0 -8.4643 10 0 -9 10.4 0 
-9 10 0 -8.8214 10 0 -9 10.8 0 
-9 10.6 0 -7.2143 10 0 -7.9286 10 0 
-7.75 10 0 -7.3929 10 0 -7.5714 10 0 
-7.0357 10 0 -6.5 10 0 -6.8571 10 0 
-6.6786 10 0 -5.1429 10 0 -5.3214 10 0 
-5.5 10 0 -4.0714 10 0 -4.9643 10 0 
-4.6071 10 0 -4.4286 10 0 -4.7857 10 0 
-4.25 10 0 -3.7143 10 0 -3.5357 10 0 
-3.3571 10 0 -3.1786 10 0 -3.8929 10 0 
-2.2 10 0 -2.4 10 0 -2.8 10 0 
-3 10 0 -3 10.8 0 -3 10.4 0 
-3 10.2 0 -3 10.6 0 -2.6 10 0 
-1.4 10 0 -2 10 0 -1.2 10 0 
-1.8 10 0 -1.6 10 0 -1 10 0 
-0.4 10 0 -0.2 10 0 -0.6 10 0 
-0.8 10 0 0.2 10 0 -0 10 0 
0.6 10 0 0.8 10 0 0.4 10 0 
1.8 10 0 1.4 10 0 1.2 10 0 
1.6 10 0 1 10 0 2.4 10 0 
2.2 10 0 2.6 10 0 2.8 10 0 
2 10 0 3.6 10 0 3.4 10 0 
3.8 10 0 3 10 0 3.2 10 0 
4.2 10 0 4 10 0 4.6 10 0 
4.8 10 0 4.4 10 0 5.6 10 0 
5.2 10 0 5 10 0 5.8 10 0 
5.4 10 0 6.8 10 0 6.2 10 0 
6 10 0 6.4 10 0 6.6 10 0 
7.4 10 0 7.2 10 0 7.8 10 0 
7 10 0 7.6 10 0 8.8 10 0 
8.2 10 0 8.4 10 0 8 10 0 
8.6 10 0 9.2 10 0 9 10.2 0 
9 10.6 0 9 10.8 0 9 10 0 
9.8 10 0 9 10.4 0 9.4 10 0 
9.6 10 0 10.8 10 0 10.6 10 0 
10.4 10 0 10.2 10 0 10 10 0 
11.8 10 0 11 10 0 11.2 10 0 
11.4 10 0 11.6 10 0 12.8 10 0 
12 10 0 12.4 10 0 12.2 10 0 
12.6 10 0 13 10 0 13.3053 10.3004 0 
14.6667 10 0 14.1667 10 0 14 10 0 
14.5 10 0 14.8333 10 0 14.3333 10 0 
15 10.8 0 15 10.6 0 15 10.4 0 
15 10 0 15 10.2 0 -15 11.4 0 
-15 11.8 0 -15 11.2 0 -15 11.6 0 
-15 11 0 -9 11.4 0 -9 11.6 0 
-9 11 0 -9 11.2 0 -9 11.8 0 
-3 11.8 0 -3 11 0 -3 11.2 0 
-3 11.6 0 -3 11.4 0 9 11.8 0 
9 11.4 0 9 11.2 0 9 11 0 
9 11.6 0 15 11.4 0 15 11.2 0 
15 11.8 0 15 11 0 15 11.6 0 
-15 12 0 -15 12.6 0 -15 12.4 0 
-15 12.8 0 -15 12.2 0 -9 12 0 
-9 12.2 0 -9 12.4 0 -9 12.8 0 
-9 12.6 0 -3 12.8 0 -3 12.6 0 
-3 12.2 0 -3 12 0 -3 12.4 0 
9 12.6 0 9 12 0 9 12.2 0 
9 12.4 0 9 12.8 0 15 12.6 0 
15 12 0 15 12.4 0 15 12.2 0 
15 12.8 0 -15 13 0 -15 13.6 0 
-15 13.4 0 -15 13.2 0 -15 13.8 0 
-9 13.4 0 -9 13.2 0 -9 13.6 0 
-9 13 0 -9 13.8 0 -3 13.2 0 
-3 13.4 0 -3 13 0 -3 13.8 0 
-3 13.6 0 9 13.4 0 9 13.6 0 
9 13.2 0 9 13 0 9 13.8 0 
15 13 0 15 13.4 0 15 13.8 0 
15 13.2 0 15 13.6 0 -15 14 0 
-15 14.2 0 -15 14.6 0 -15 14.8 0 
-15 14.4 0 -9 14.4 0 -9 14.2 0 
-9 14 0 -9 14.8 0 -9 14.6 0 
-3 14.6 0 -3 14.8 0 -3 14.2 0 
-3 14 0 -3 14.4 0 9 14 0 
15 14.6 0 15 14 0 15 14.8 0 
15 14.4 0 15 14.2 0 -15 15 0 
-15 15.4 0 -15 15.8 0 -15 15.2 0 
-15 15.6 0 -9 15.4 0 -9 15.2 0 
-9 15 0 -9 15.8 0 -9 15.6 0 
-3 15.2 0 -3 15.8 0 -3 15.4 0 
-3 15 0 -3 15.6 0 9 15.1667 0 
9 15.3333 0 9 15 0 9 15.6667 0 
9 15.5 0 9 15.8333 0 15 15.8 0 
15 15 0 15 15.6 0 15 15.4 0 
15 15.2 0 -14.2 16 0 -14.8 16 0 
-15 16 0 -14.4 16 0 -14.6 16 0 
-13.2 16 0 -13.8 16 0 -14 16 0 
-13.6 16 0 -13.4 16 0 -12.4 16 0 
-13 16 0 -12.6 16 0 -12.2 16 0 
-12.8 16 0 -11.6 16 0 -11.8 16 0 
-11.4 16 0 -11.2 16 0 -12 16 0 
-11 16 0 -10.2 16 0 -10.6 16 0 
-10.4 16 0 -10.8 16 0 -10 16 0 
-9.2 16 0 -9.6 16 0 -9.4 16 0 
-9.8 16 0 -8.2 16 0 -8.4 16 0 
-9 16 0 -8.8 16 0 -8.6 16 0 
-8 16 0 -7.4 16 0 -7.2 16 0 
-7.6 16 0 -7.8 16 0 -6.2 16 0 
-6.4 16 0 -6.6 16 0 -7 16 0 
-6.8 16 0 -5.8 16 0 -5.6 16 0 
-5.2 16 0 -6 16 0 -5.4 16 0 
-5 16 0 -4.6 16 0 -4.2 16 0 
-4.4 16 0 -4.8 16 0 -4 16 0 
-3.4 16 0 -3.8 16 0 -3.6 16 0 
-3.2 16 0 -2.6 16 0 -2.2 16 0 
-3 16 0 -2.8 16 0 -2.4 16 0 
-1.4 16 0 -1.6 16 0 -1.8 16 0 
-1.2 16 0 -2 16 0 -1 16 0 
-0.2 16 0 -0.8 16 0 -0.4 16 0 
-0.6 16 0 0.4 16 0 -0 16 0 
0.6 16 0 0.8 16 0 0.2 16 0 
1.4 16 0 1.6 16 0 1.2 16 0 
1.8 16 0 1 16 0 2.8 16 0 
2 16 0 2.2 16 0 2.6 16 0 
2.4 16 0 3.4 16 0 3 16 0 
3.8 16 0 3.2 16 0 3.6 16 0 
4 16 0 4.2 16 0 4.4 16 0 
4.6 16 0 4.8 16 0 5.8 16 0 
5 16 0 5.4 16 0 5.2 16 0 
5.6 16 0 6.4 16 0 6.8 16 0 
6.6 16 0 6.2 16 0 6 16 0 
7.4 16 0 7 16 0 7.6 16 0 
7.8 16 0 7.2 16 0 8.6 16 0 
8.8 16 0 8 16 0 8.4 16 0 
8.2 16 0 9 16 0 9.2 16 0 
9.8 16 0 9.4 16 0 9.6 16 0 
10 16 0 10.2 16 0 10.4 16 0 
10.6 16 0 10.8 16 0 11.4 16 0 
11.8 16 0 11 16 0 11.6 16 0 
11.2 16 0 12.4 16 0 12.8 16 0 
12.6 16 0 12.2 16 0 12 16 0 
13.2 16 0 13 16 0 13.4 16 0 
13.6 16 0 13.8 16 0 14.8 16 0 
14 16 0 14.2 16 0 14.4 16 0 
14.6 16 0 15 16 0 
VERTICES 2098 2098
1 0 
1 1 
1 2 
1 3 
1 4 
1 5 
1 6 
1 7 
1 8 
1 9 
1 10 
1 11 
1 12 
1 13 
1 14 
1 15 
1 16 
1 17 
1 18 
1 19 
1 20 
1 21 
1 22 
1 23 
1 24 
1 25 
1 26 
1 27 
1 28 
1 29 
1 30 
1 31 
1 32 
1 33 
1 34 
1 35 
1 36 
1 37 
1 38 
1 39 
1 40 
1 41 
1 42 
1 43 
1 44 
1 45 
1 46 
1 47 
1 48 
1 49 
1 50 
1 51 
1 52 
1 53 
1 54 
1 55 
1 56 
1 57 
1 58 
1 59 
1 60 
1 61 
1 62 
1 63 
1 64 
1 65 
1 66 
1 67 
1 68 
1 69 
1 70 
1 71 
1 72 
1 73 
1 74 
1 75 
1 76 
1 77 
1 78 
1 79 
1 80 
1 81 
1 82 
1 83 
1 84 
1 85 
1 86 
1 87 
1 88 
1 89 
1 90 
1 91 
1 92 
1 93 
1 94 
1 95 
1 96 
1 97 
1 98 
1 99 
1 100 
1 101 
1 102 
1 103 
1 104 
1 105 
1 106 
1 107 
1 108 
1 109 
1 110 
1 111 
1 112 
1 113 
1 114 
1 115 
1 116 
1 117 
1 118 
1 119 
1 120 
1 121 
1 122 
1 123 
1 124 
1 125 
1 126 
1 127 
1 128 
1 129 
1 130 
1 131 
1 132 
1 133 
1 134 
1 135 
1 136 
1 137 
1 138 
1 139 
1 140 
1 141 
1 142 
1 143 
1 144 
1 145 
1 146 
1 147 
1 148 
1 149 
1 150 
1 151 
1 152 
1 153 
1 154 
1 155 
1 156 
1 157 
1 158 
1 159 
1 160 
1 161 
1 162 
1 163 
1 164 
1 165 
1 166 
1 167 
1 168 
1 169 
1 170 
1 171 
1 172 
1 173 
1 174 
1 175 
1 176 
1 177 
1 178 
1 179 
1 180 
1 181 
1 182 
1 183 
1 184 
1 185 
1 186 
1 187 
1 188 
1 189 
1 190 
1 191 
1 192 
1 193 
1 194 
1 195 
1 196 
1 197 
1 198 
1 199 
1 200 
1 201 
1 202 
1 203 
1 204 
1 205 
1 206 
1 207 
1 208 
1 209 
1 210 
1 211 
1 212 
1 213 
1 214 
1 215 
1 216 
1 217 
1 218 
1 219 
1 220 
1 221 
1 222 
1 223 
1 224 
1 225 
1 226 
1 227 
1 228 
1 229 
1 230 
1 231 
1 232 
1 233 
1 234 
1 235 
1 236 
1 237 
1 238 
1 239 
1 240 
1 241 
1 242 
1 243 
1 244 
1 245 
1 246 
1 247 
1 248 
1 249 
1 250 
1 251 
1 252 
1 253 
1 254 
1 255 
1 256 
1 257 
1 258 
1 259 
1 260 
1 261 
1 262 
1 263 
1 264 
1 265 
1 266 
1 267 
1 268 
1 269 
1 270 
1 271 
1 272 
1 273 
1 274 
1 275 
1 276 
1 277 
1 278 
1 279 
1 280 
1 281 
1 282 
1 283 
1 284 
1 285 
1 286 
1 287 
1 288 
1 289 
1 290 
1 291 
1 292 
1 293 
1 294 
1 295 
1 296 
1 297 
1 298 
1 299 
1 300 
1 301 
1 302 
1 303 
1 304 
1 305 
1 306 
1 307 
1 308 
1 309 
1 310 
1 311 
1 312 
1 313 
1 314 
1 315 
1 316 
1 317 
1 318 
1 319 
1 320 
1 321 
1 322 
1 323 
1 324 
1 325 
1 326 
1 327 
1 328 
1 329 
1 330 
1 331 
1 332 
1 333 
1 334 
1 335 
1 336 
1 337 
1 338 
1 339 
1 340 
1 341 
1 342 
1 343 
1 344 
1 345 
1 346 
1 347 
1 348 
1 349 
1 350 
1 351 
1 352 
1 353 
1 354 
1 355 
1 356 
1 357 
1 358 
1 359 
1 360 
1 361 
1 362 
1 363 
1 364 
1 365 
1 366 
1 367 
1 368 
1 369 
1 370 
1 371 
1 372 
1 373 
1 374 
1 375 
1 376 
1 377 
1 378 
1 379 
1 380 
1 381 
1 382 
1 383 
1 384 
1 385 
1 386 
1 387 
1 388 
1 389 
1 390 
1 391 
1 392 
1 393 
1 394 
1 395 
1 396 
1 397 
1 398 
1 399 
1 400 
1 401 
1 402 
1 403 
1 404 
1 405 
1 406 
1 407 
1 408 
1 409 
1 410 
1 411 
1 412 
1 413 
1 414 
1 415 
1 416 
1 417 
1 418 
1 419 
1 420 
1 421 
1 422 
1 423 
1 424 
1 425 
1 426 
1 427 
1 428 
1 429 
1 430 
1 431 
1 432 
1 433 
1 434 
1 435 
1 436 
1 437 
1 438 
1 439 
1 440 
1 441 
1 442 
1 443 
1 444 
1 445 
1 446 
1 447 
1 448 
1 449 
1 450 
1 451 
1 452 
1 453 
1 454 
1 455 
1 456 
1 457 
1 458 
1 459 
1 460 
1 461 
1 462 
1 463 
1 464 
1 465 
1 466 
1 467 
1 468 
1 469 
1 470 
1 471 
1 472 
1 473 
1 474 
1 475 
1 476 
1 477 
1 478 
1 479 
1 480 
1 481 
1 482 
1 483 
1 484 
1 485 
1 486 
1 487 
1 488 
1 489 
1 490 
1 491 
1 492 
1 493 
1 494 
1 495 
1 496 
1 497 
1 498 
1 499 
1 500 
1 501 
1 502 
1 503 
1 504 
1 505 
1 506 
1 507 
1 508 
1 509 
1 510 
1 511 
1 512 
1 513 
1 514 
1 515 
1 516 
1 517 
1 518 
1 519 
1 520 
1 521 
1 522 
1 523 
1 524 
1 525 
1 526 
1 527 
1 528 
1 529 
1 530 
1 531 
1 532 
1 533 
1 534 
1 535 
1 536 
1 537 
1 538 
1 539 
1 540 
1 541 
1 542 
1 543 
1 544 
1 545 
1 546 
1 547 
1 548 
1 549 
1 550 
1 551 
1 552 
1 553 
1 554 
1 555 
1 556 
1 557 
1 558 
1 559 
1 560 
1 561 
1 562 
1 563 
1 564 
1 565 
1 566 
1 567 
1 568 
1 569 
1 570 
1 571 
1 572 
1 573 
1 574 
1 575 
1 576 
1 577 
1 578 
1 579 
1 580 
1 581 
1 582 
1 583 
1 584 
1 585 
1 586 
1 587 
1 588 
1 589 
1 590 
1 591 
1 592 
1 593 
1 594 
1 595 
1 596 
1 597 
1 598 
1 599 
1 600 
1 601 
1 602 
1 603 
1 604 
1 605 
1 606 
1 607 
1 608 
1 609 
1 610 
1 611 
1 612 
1 613 
1 614 
1 615 
1 616 
1 617 
1 618 
1 619 
1 620 
1 621 
1 622 
1 623 
1 624 
1 625 
1 626 
1 627 
1 628 
1 629 
1 630 
1 631 
1 632 
1 633 
1 634 
1 635 
1 636 
1 637 
1 638 
1 639 
1 640 
1 641 
1 642 
1 643 
1 644 
1 645 
1 646 
1 647 
1 648 
1 649 
1 650 
1 651 
1 652 
1 653 
1 654 
1 655 
1 656 
1 657 
1 658 
1 659 
1 660 
1 661 
1 662 
1 663 
1 664 
1 665 
1 666 
1 667 
1 668 
1 669 
1 670 
1 671 
1 672 
1 673 
1 674 
1 675 
1 676 
1 677 
1 678 
1 679 
1 680 
1 681 
1 682 
1 683 
1 684 
1 685 
1 686 
1 687 
1 688 
1 689 
1 690 
1 691 
1 692 
1 693 
1 694 
1 695 
1 696 
1 697 
1 698 
1 699 
1 700 
1 701 
1 702 
1 703 
1 704 
1 705 
1 706 
1 707 
1 708 
1 709 
1 710 
1 711 
1 712 
1 713 
1 714 
1 715 
1 716 
1 717 
1 718 
1 719 
1 720 
1 721 
1 722 
1 723 
1 724 
1 725 
1 726 
1 727 
1 728 
1 729 
1 730 
1 731 
1 732 
1 733 
1 734 
1 735 
1 736 
1 737 
1 738 
1 739 
1 740 
1 741 
1 742 
1 743 
1 744 
1 745 
1 746 
1 747 
1 748 
1 749 
1 750 
1 751 
1 752 
1 753 
1 754 
1 755 
1 756 
1 757 
1 758 
1 759 
1 760 
1 761 
1 762 
1 763 
1 764 
1 765 
1 766 
1 767 
1 768 
1 769 
1 770 
1 771 
1 772 
1 773 
1 774 
1 775 
1 776 
1 777 
1 778 
1 779 
1 780 
1 781 
1 782 
1 783 
1 784 
1 785 
1 786 
1 787 
1 788 
1 789 
1 790 
1 791 
1 792 
1 793 
1 794 
1 795 
1 796 
1 797 
1 798 
1 799 
1 800 
1 801 
1 802 
1 803 
1 804 
1 805 
1 806 
1 807 
1 808 
1 809 
1 810 
1 811 
1 812 
1 813 
1 814 
1 815 
1 816 
1 817 
1 818 
1 819 
1 820 
1 821 
1 822 
1 823 
1 824 
1 825 
1 826 
1 827 
1 828 
1 829 
1 830 
1 831 
1 832 
1 833 
1 834 
1 835 
1 836 
1 837 
1 838 
1 839 
1 840 
1 841 
1 842 
1 843 
1 844 
1 845 
1 846 
1 847 
1 848 
1 849 
1 850 
1 851 
1 852 
1 853 
1 854 
1 855 
1 856 
1 857 
1 858 
1 859 
1 860 
1 861 
1 862 
1 863 
1 864 
1 865 
1 866 
1 867 
1 868 
1 869 
1 870 
1 871 
1 872 
1 873 
1 874 
1 875 
1 876 
1 877 
1 878 
1 879 
1 880 
1 881 
1 882 
1 883 
1 884 
1 885 
1 886 
1 887 
1 888 
1 889 
1 890 
1 891 
1 892 
1 893 
1 894 
1 895 
1 896 
1 897 
1 898 
1 899 
1 900 
1 901 
1 902 
1 903 
1 904 
1 905 
1 906 
1 907 
1 908 
1 909 
1 910 
1 911 
1 912 
1 913 
1 914 
1 915 
1 916 
1 917 
1 918 
1 919 
1 920 
1 921 
1 922 
1 923 
1 924 
1 925 
1 926 
1 927 
1 928 
1 929 
1 930 
1 931 
1 932 
1 933 
1 934 
1 935 
1 936 
1 937 
1 938 
1 939 
1 940 
1 941 
1 942 
1 943 
1 944 
1 945 
1 946 
1 947 
1 948 
1 949 
1 950 
1 951 
1 952 
1 953 
1 954 
1 955 
1 956 
1 957 
1 958 
1 959 
1 960 
1 961 
1 962 
1 963 
1 964 
1 965 
1 966 
1 967 
1 968 
1 969 
1 970 
1 971 
1 972 
1 973 
1 974 
1 975 
1 976 
1 977 
1 978 
1 979 
1 980 
1 981 
1 982 
1 983 
1 984 
1 985 
1 986 
1 987 
1 988 
1 989 
1 990 
1 991 
1 992 
1 993 
1 994 
1 995 
1 996 
1 997 
1 998 
1 999 
1 1000 
1 1001 
1 1002 
1 1003 
1 1004 
1 1005 
1 1006 
1 1007 
1 1008 
1 1009 
1 1010 
1 1011 
1 1012 
1 1013 
1 1014 
1 1015 
1 1016 
1 1017 
1 1018 
1 1019 
1 1020 
1 1021 
1 1022 
1 1023 
1 1024 
1 1025 
1 1026 
1 1027 
1 1028 
1 1029 
1 1030 
1 1031 
1 1032 
1 1033 
1 1034 
1 1035 
1 1036 
1 1037 
1 1038 
1 1039 
1 1040 
1 1041 
1 1042 
1 1043 
1 1044 
1 1045 
1 1046 
1 1047 
1 1048 

POINT_DATA 1049
SCALARS id double
LOOKUP_TABLE default
980 964 1027 978 993 1045 983 966 1032 
977 1048 945 1020 951 976 1040 933 995 
990 1004 947 1005 1036 1024 955 975 972 
1028 1026 954 1047 1008 1041 939 1018 942 
969 968 941 1033 1016 1037 1042 936 1014 
930 987 960 932 998 985 989 1022 962 
1009 984 965 1038 1043 973 999 929 988 
986 1007 953 1029 997 1030 967 1012 992 
1025 950 979 1011 994 1015 1044 935 952 
971 1000 1019 958 949 943 946 1017 944 
937 959 934 957 1031 1021 1003 940 931 
41 388 0 391 390 39 389 43 42 
40 46 44 48 47 45 49 51 50 
1 52 2 53 54 55 56 59 57 
58 61 60 64 63 62 3 66 67 
393 392 68 65 395 394 73 69 72 
70 71 78 77 75 76 74 83 82 
81 80 79 86 84 87 85 88 93 
89 91 90 92 493 495 97 96 94 
4 95 494 492 102 99 101 100 98 
104 103 106 107 105 111 110 112 109 
108 117 115 114 113 116 120 118 121 
122 119 125 123 5 124 560 557 126 
558 559 130 128 127 129 131 132 134 
136 133 135 141 137 140 139 138 146 
143 144 145 142 147 150 149 148 151 
588 590 155 589 152 6 153 154 156 
587 162 158 157 159 160 161 1001 7 
1002 163 164 165 1013 8 166 1035 956 
171 167 169 170 168 172 176 173 175 
174 177 181 9 178 180 179 386 383 
387 384 385 399 398 400 397 396 490 
488 487 489 491 554 555 553 552 556 
595 593 592 594 591 1046 948 961 184 
182 186 185 183 380 381 378 382 379 
401 405 403 402 404 482 486 483 485 
484 548 549 551 547 550 597 598 596 
600 599 974 1039 938 187 189 190 191 
188 377 376 375 374 373 407 406 408 
409 410 478 480 481 479 477 544 545 
542 546 543 602 603 604 605 601 981 
1023 192 195 193 196 194 368 371 370 
369 372 1034 413 415 411 414 412 472 
473 476 474 475 539 541 540 537 538 
606 609 610 607 608 1010 200 199 198 
197 201 366 363 364 367 365 1006 419 
418 420 416 417 471 467 468 470 469 
535 533 536 534 532 611 614 613 615 
612 206 205 202 203 204 360 359 361 
358 362 963 421 425 423 422 424 464 
462 466 465 463 529 527 531 528 530 
620 617 618 619 616 991 209 210 207 
208 211 356 355 353 357 354 430 428 
427 429 426 458 457 460 461 459 524 
525 522 526 523 624 625 623 622 621 
982 216 214 215 213 212 349 351 352 
348 350 435 432 433 434 431 10 440 
437 439 441 436 438 442 443 11 12 
445 444 450 448 446 447 449 451 454 
452 453 456 455 497 498 499 500 496 
13 503 505 502 504 506 501 14 508 
507 15 510 509 514 512 515 516 513 
511 520 518 521 519 517 564 16 565 
561 563 562 571 570 568 566 567 569 
572 573 17 18 574 575 580 578 581 
579 576 577 586 585 582 584 583 19 
34 218 220 217 219 221 345 344 346 
343 347 970 224 222 226 225 223 663 
339 660 661 342 20 664 340 341 662 
21 22 665 667 668 666 669 671 670 
672 673 677 674 676 675 678 682 680 
683 679 681 716 717 684 714 715 685 
23 713 687 686 722 718 719 721 720 
723 36 724 725 727 726 37 733 728 
730 731 729 732 735 736 737 738 734 
742 741 739 24 634 632 631 633 740 
746 743 747 744 745 748 751 752 750 
749 754 753 756 757 755 762 760 759 
761 758 765 764 766 767 763 771 770 
772 768 769 774 773 776 777 775 781 
779 778 782 780 787 784 783 785 786 
790 789 792 788 791 797 794 795 793 
796 798 817 819 820 35 801 818 799 
800 806 805 804 803 802 811 807 808 
809 810 816 812 814 813 815 25 996 
627 630 26 628 626 629 230 229 228 
27 227 336 334 337 335 338 690 691 
688 689 692 639 635 636 638 637 825 
823 822 821 824 233 232 235 231 234 
333 330 331 329 332 693 694 695 697 
696 644 643 641 640 642 829 826 827 
828 830 239 236 238 237 240 328 325 
326 327 324 700 699 701 698 702 646 
647 645 649 648 833 834 832 831 835 
241 243 245 242 244 323 322 320 319 
321 705 704 703 707 706 653 654 651 
650 652 29 249 246 250 248 247 318 
316 314 317 315 710 709 708 712 711 
656 659 657 655 658 924 925 28 927 
926 928 255 251 254 253 252 310 313 
30 311 312 305 308 309 307 306 301 
304 302 300 303 297 298 296 295 299 
294 290 292 291 293 289 285 287 286 
288 281 282 31 284 283 280 277 276 
278 279 271 272 273 275 274 269 268 
266 270 267 265 263 261 262 264 260 
257 259 258 256 837 839 32 836 838 
843 842 841 844 840 845 849 846 848 
847 852 850 853 854 851 857 858 856 
859 855 864 860 861 863 862 867 865 
869 866 868 870 871 872 873 874 879 
875 877 876 878 882 884 883 881 880 
887 885 888 889 886 893 894 890 892 
891 38 895 898 896 897 899 900 901 
902 903 906 908 904 907 905 911 913 
912 910 909 915 914 916 917 918 923 
919 920 921 922 33 
FIELD FieldData 14
r 3 1049 double
-0.446789 -11.2599 0 0.709247 -11.1399 0 0.108266 -11.0638 0 
-1.49037 -10.3668 0 -0.310549 -10.7755 0 -0.875415 -10.3064 0 
-0.418632 -10.416 0 -0.222653 -10.0606 0 -0.866323 -10.8426 0 
0.0571912 -10.4978 0 0.45355 -10.6921 0 0.487914 -10.2347 0 
0.953781 -10.6074 0 1.46928 -10.4407 0 1.08615 -10.0322 0 
-1.16718 -9.89838 0 -1.26168 -9.43765 0 -1.84304 -9.44532 0 
-0.253351 -9.56537 0 -0.598349 -9.87984 0 -0.193721 -9.10158 0 
-0.713123 -9.45088 0 0.0456287 -9.99171 0 0.161726 -9.52749 0 
0.5589 -9.7958 0 0.588022 -9.29084 0 0.972035 -9.50546 0 
1.43005 -9.38778 0 -3.1121 -8.44466 0 -2.43465 -8.59595 0 
-2.02573 -8.22614 0 -1.63244 -8.62298 0 -1.23965 -8.92265 0 
-1.4221 -8.15832 0 -0.926406 -8.43977 0 -0.297521 -8.5534 0 
-0.702636 -8.92691 0 0.163959 -8.36136 0 0.954866 -8.91516 0 
0.318243 -8.88593 0 1.70507 -8.46407 0 2.2984 -8.2126 0 
-3.42864 -7.36657 0 -2.71689 -7.97812 0 -2.25969 -7.61783 0 
2.20219 -7.53627 0 3.58037 -7.71161 0 3.30687 -7.1308 0 
4.44204 -7.02768 0 -5.47594 -6.27089 0 -4.79927 -6.33333 0 
-3.78425 -6.49385 0 3.80954 -6.62187 0 4.96432 -6.76141 0 
5.31124 -6.32166 0 -6.34504 -5.40988 0 -5.81654 -5.72633 0 
-5.04737 -5.49427 0 4.85092 -5.25082 0 4.54268 -5.95273 0 
5.22667 -5.76691 0 5.75621 -5.5803 0 5.39601 -5.06282 0 
6.20471 -5.98085 0 -6.74945 -4.51171 0 -5.91698 -4.82035 0 
6.33827 -4.71127 0 7.61538 -4.76481 0 8.2702 -4.26115 0 
-9.52922 -3.14561 0 -8.54704 -3.16034 0 -7.98989 -3.27216 0 
7.53413 -3.28828 0 7.4102 -3.96914 0 8.13871 -3.30046 0 
8.5546 -3.81624 0 8.69821 -3.29012 0 9.54513 -3.64765 0 
9.21569 -3.18486 0 -10.6006 -2.12076 0 -10.2345 -2.51868 0 
-9.44205 -2.19744 0 -8.75261 -2.6356 0 8.04835 -2.68784 0 
8.69088 -2.52832 0 9.23117 -2.4963 0 9.79885 -2.81737 0 
10.6718 -2.11065 0 -10.1059 -1.40623 0 -10.7298 -1.51789 0 
9.51013 -1.95959 0 10.0766 -1.65157 0 10.6173 -1.37195 0 
11.1871 -1.3385 0 -11.0696 -0.922016 0 -11.7471 -0.705205 0 
-11.8652 -0.131453 0 11.8818 -0.326524 0 11.3573 -0.696186 0 
-14.4643 0 0 -15 0.8 0 -15 0 0 
-15 0.2 0 -15 0.4 0 -14.8214 0 0 
-15 0.6 0 -14.1071 0 0 -14.2857 0 0 
-14.6429 0 0 -13.5714 0 0 -13.9286 0 0 
-13.2143 0 0 -13.3929 0 0 -13.75 0 0 
-13.0357 0 0 -12.6786 0 0 -12.8571 0 0 
-12.5 0 0 -11.3214 0 0 -11.5 0 0 
-11.1429 0 0 -10.9643 0 0 -10.7857 0 0 
-10.6071 0 0 -10.0714 0 0 -10.4286 0 0 
-10.25 0 0 -9.7143 0 0 -9.8929 0 0 
-9.1786 0 0 -9.3571 0 0 -9.5357 0 0 
-9 0 0 -8.6 0 0 -8.4 0 0 
-9 0.4 0 -9 0.2 0 -8.2 0 0 
-8.8 0 0 -9 0.8 0 -9 0.6 0 
-7.2 0 0 -8 0 0 -7.4 0 0 
-7.8 0 0 -7.6 0 0 -6.2 0 0 
-6.4 0 0 -6.8 0 0 -6.6 0 0 
-7 0 0 -5.2 0 0 -5.4 0 0 
-5.6 0 0 -5.8 0 0 -6 0 0 
-4.6 0 0 -5 0 0 -4.4 0 0 
-4.8 0 0 -4.2 0 0 -3.2 0 0 
-4 0 0 -3.6 0 0 -3.8 0 0 
-3.4 0 0 -3 0.6 0 -3 0.2 0 
-2.2 0 0 -2.4 0 0 -2.8 0 0 
-3 0 0 -2.6 0 0 -3 0.4 0 
-3 0.8 0 -1.2 0 0 -1.8 0 0 
-1.4 0 0 -1.6 0 0 -2 0 0 
-0.8 0 0 -1 0 0 -0.4 0 0 
-0.2 0 0 -0.6 0 0 0.6 0 0 
0.4 0 0 0.8 0 0 0.2 0 0 
-0 0 0 1.8 0 0 1.4 0 0 
1.2 0 0 1 0 0 1.6 0 0 
2.4 0 0 2 0 0 2.6 0 0 
2.8 0 0 2.2 0 0 3.6 0 0 
3.2 0 0 3 0 0 3.4 0 0 
3 0.2 0 3 0.8 0 3.8 0 0 
3 0.6 0 3 0.4 0 4.6 0 0 
4.2 0 0 4 0 0 4.4 0 0 
4.8 0 0 5 0 0 5.4 0 0 
5.8 0 0 5.2 0 0 5.6 0 0 
6.8 0 0 6 0 0 6.6 0 0 
6.4 0 0 6.2 0 0 7.8 0 0 
7.2 0 0 7.4 0 0 7.6 0 0 
7 0 0 8 0 0 8.6 0 0 
8.4 0 0 8.2 0 0 8.8 0 0 
9 0.4 0 9 0.8 0 9.7143 0 0 
9 0.6 0 9.1786 0 0 9 0 0 
9.3571 0 0 9.5357 0 0 9.8929 0 0 
9 0.2 0 10.9643 0 0 10.25 0 0 
10.0714 0 0 10.4286 0 0 10.6071 0 0 
10.7857 0 0 11.5021 0.731634 0 11.5 0 0 
11.7073 0.160174 0 11.1429 0 0 11.3214 0 0 
12.6786 0 0 12.6373 0.399147 0 12.5 0 0 
12.8571 0 0 12.0712 0.415347 0 12.2873 0.895555 0 
13.75 0 0 13.0357 0 0 13.3929 0 0 
13.5714 0 0 13.2143 0 0 13.9286 0 0 
14.6429 0 0 14.1071 0 0 14.4643 0 0 
14.2857 0 0 14.8214 0 0 15 0.8 0 
15 0 0 15 0.2 0 15 0.6 0 
15 0.4 0 -15 1.2 0 -15 1.8 0 
-15 1 0 -15 1.6 0 -15 1.4 0 
-9 1.6 0 -9 1.4 0 -9 1.8 0 
-9 1.2 0 -9 1 0 -3 1.2 0 
-3 1.6 0 -3 1.8 0 -3 1.4 0 
-3 1 0 3 1.4 0 3 1.2 0 
3 1.6 0 3 1.8 0 3 1 0 
9 1.8 0 9 1.4 0 9 1.2 0 
9 1.6 0 9 1 0 11.8597 1.26191 0 
12.6958 1.18846 0 12.475 1.73411 0 15 1.4 0 
15 1 0 15 1.8 0 15 1.6 0 
15 1.2 0 -15 2.4 0 -15 2.2 0 
-15 2.8 0 -15 2 0 -15 2.6 0 
-9 2 0 -9 2.8 0 -9 2.4 0 
-9 2.2 0 -9 2.6 0 -3 2.8 0 
-3 2 0 -3 2.6 0 -3 2.2 0 
-3 2.4 0 3 2.6 0 3 2.4 0 
3 2 0 3 2.8 0 3 2.2 0 
9 2.2 0 9 2.4 0 9 2 0 
9 2.8 0 9 2.6 0 11.246 2.48646 0 
12.3382 2.37962 0 12.4386 2.99267 0 15 2 0 
15 2.4 0 15 2.6 0 15 2.8 0 
15 2.2 0 -15 3 0 -15 3.2 0 
-15 3.4 0 -15 3.6 0 -15 3.8 0 
-9 3.2 0 -9 3 0 -9 3.4 0 
-9 3.6 0 -9 3.8 0 -3 3.6 0 
-3 3.2 0 -3 3 0 -3 3.4 0 
-3 3.8 0 3 3.4 0 3 3.2 0 
3 3.8 0 3 3 0 3 3.6 0 
9 3.2 0 9 3.4 0 9 3.6 0 
9 3.8 0 9 3 0 10.7845 3.03034 0 
11.3571 3.39915 0 15 3 0 15 3.6 0 
15 3.2 0 15 3.8 0 15 3.4 0 
-15 4.8 0 -15 4.2 0 -15 4.4 0 
-15 4.6 0 -15 4 0 -10.6722 4.80713 0 
-9 4.4 0 -9 4.8 0 -9 4 0 
-9 4.6 0 -9 4.2 0 -3 4.8 0 
-3 4.6 0 -3 4 0 -3 4.4 0 
-3 4.2 0 3 4.4 0 3 4 0 
3 4.2 0 3 4.8 0 3 4.6 0 
9 4 0 9 4.6 0 9 4.8 0 
9 4.2 0 9 4.4 0 10.798 4.05311 0 
15 4.6 0 15 4.4 0 15 4.2 0 
15 4 0 15 4.8 0 -15 5.2 0 
-15 5.8 0 -15 5.6 0 -15 5 0 
-15 5.4 0 -10.3686 5.28771 0 -9 5.6 0 
-9 5.4 0 -9 5.8 0 -9 5 0 
-9 5.2 0 -3 5 0 -3 5.8 0 
-3 5.6 0 -3 5.2 0 -3 5.4 0 
3 5.2 0 3 5.6 0 3 5 0 
3 5.4 0 3 5.8 0 9 5 0 
9 5.6 0 9 5.4 0 9 5.8 0 
9 5.2 0 15 5.8 0 15 5.6 0 
15 5 0 15 5.2 0 15 5.4 0 
-15 6.4 0 -15 6.6 0 -15 6.2 0 
-15 6.8 0 -15 6 0 -10.1877 6.03289 0 
-9 6 0 -9 6.8 0 -9 6.4 0 
-9 6.2 0 -9 6.6 0 -3 6.4 0 
-3 6.8 0 -3 6 0 -3 6.2 0 
-3 6.6 0 3 6.4 0 3 6.8 0 
3 6 0 3 6.6 0 3 6.2 0 
9 6.8 0 9 6.2 0 9 6.4 0 
9 6.6 0 9 6 0 12.9247 6.10688 0 
15 6.4 0 15 6.6 0 15 6 0 
15 6.2 0 15 6.8 0 -15 7.2 0 
-15 7.4 0 -15 7.8 0 -15 7 0 
-15 7.6 0 -9 7.8 0 -9 7.4 0 
-9 7.2 0 -9 7.6 0 -9 7 0 
-3 7.6 0 -3 7.8 0 -3 7.2 0 
-3 7 0 -3 7.4 0 3 7.4 0 
3 7.2 0 3 7.8 0 3 7 0 
3 7.6 0 9 7.6 0 9 7.8 0 
9 7.4 0 9 7.2 0 9 7 0 
13.1322 7.47118 0 15 7.8 0 15 7.4 0 
15 7.6 0 15 7.2 0 15 7 0 
-15 8.6 0 -15 8.2 0 -15 8 0 
-15 8.8 0 -15 8.4 0 -8.1071 8 0 
-8.6429 8 0 -8.4643 8 0 -8.2857 8 0 
-8.8214 8 0 -9 8 0 -7.2143 8 0 
-7.75 8 0 -7.3929 8 0 -7.0357 8 0 
-7.9286 8 0 -7.5714 8 0 -6.8571 8 0 
-6.6786 8 0 -6.5 8 0 -5.5 8 0 
-5.1429 8 0 -5.3214 8 0 -4.25 8 0 
-4.6071 8 0 -4.9643 8 0 -4.7857 8 0 
-4.4286 8 0 -4.0714 8 0 -3.5357 8 0 
-3.8929 8 0 -3.7143 8 0 -3.1786 8 0 
-3.3571 8 0 -2.6429 8 0 -2.4643 8 0 
-2.2857 8 0 -2.1071 8 0 -2.8214 8 0 
-3 8 0 -1.5714 8 0 -1.2143 8 0 
-1.75 8 0 -1.3929 8 0 -1.0357 8 0 
-1.9286 8 0 -0.5 8 0 -0.6786 8 0 
-0.8571 8 0 0.5 8 0 0.8571 8 0 
0.6786 8 0 1.5714 8 0 1.2143 8 0 
1.75 8 0 1.9286 8 0 1.3929 8 0 
1.0357 8 0 2.6429 8 0 2.2857 8 0 
2.8214 8 0 2.4643 8 0 2.1071 8 0 
3.7143 8 0 3 8 0 3.8929 8 0 
3.1786 8 0 3.5357 8 0 3.3571 8 0 
4.9643 8 0 4.7857 8 0 4.4286 8 0 
4.0714 8 0 4.25 8 0 4.6071 8 0 
5.1429 8 0 5.3214 8 0 5.5 8 0 
6.5 8 0 6.6786 8 0 6.8571 8 0 
7.75 8 0 7.3929 8 0 7.9286 8 0 
7.5714 8 0 7.0357 8 0 7.2143 8 0 
8.8214 8 0 8.6429 8 0 8.1071 8 0 
8.4643 8 0 8.2857 8 0 9 8 0 
9 8 0 15 8.2 0 15 8.6 0 
15 8 0 15 8.4 0 15 8.8 0 
-15 9.4 0 -15 9.6 0 -15 9.2 0 
-15 9.8 0 -15 9 0 13.4346 9.40539 0 
15 9.4 0 15 9 0 15 9.8 0 
15 9.6 0 15 9.2 0 -14.3333 10 0 
-15 10.8 0 -14.8333 10 0 -14.6667 10 0 
-15 10.2 0 -15 10 0 -14.1667 10 0 
-15 10.6 0 -15 10.4 0 -14.5 10 0 
-14 10 0 -13 10 0 -12.8 10 0 
-12.4 10 0 -12.2 10 0 -12.6 10 0 
-12 10 0 -11.6 10 0 -11.8 10 0 
-11.4 10 0 -11.2 10 0 -10.4 10 0 
-11 10 0 -10.6 10 0 -10.8 10 0 
-10.2 10 0 -9.4 10 0 -9.8 10 0 
-9.2 10 0 -10 10 0 -9.6 10 0 
-8.2857 10 0 -8.1071 10 0 -9 10.2 0 
-8.6429 10 0 -8.4643 10 0 -9 10.4 0 
-9 10 0 -8.8214 10 0 -9 10.8 0 
-9 10.6 0 -7.2143 10 0 -7.9286 10 0 
-7.75 10 0 -7.3929 10 0 -7.5714 10 0 
-7.0357 10 0 -6.5 10 0 -6.8571 10 0 
-6.6786 10 0 -5.1429 10 0 -5.3214 10 0 
-5.5 10 0 -4.0714 10 0 -4.9643 10 0 
-4.6071 10 0 -4.4286 10 0 -4.7857 10 0 
-4.25 10 0 -3.7143 10 0 -3.5357 10 0 
-3.3571 10 0 -3.1786 10 0 -3.8929 10 0 
-2.2 10 0 -2.4 10 0 -2.8 10 0 
-3 10 0 -3 10.8 0 -3 10.4 0 
-3 10.2 0 -3 10.6 0 -2.6 10 0 
-1.4 10 0 -2 10 0 -1.2 10 0 
-1.8 10 0 -1.6 10 0 -1 10 0 
-0.4 10 0 -0.2 10 0 -0.6 10 0 
-0.8 10 0 0.2 10 0 -0 10 0 
0.6 10 0 0.8 10 0 0.4 10 0 
1.8 10 0 1.4 10 0 1.2 10 0 
1.6 10 0 1 10 0 2.4 10 0 
2.2 10 0 2.6 10 0 2.8 10 0 
2 10 0 3.6 10 0 3.4 10 0 
3.8 10 0 3 10 0 3.2 10 0 
4.2 10 0 4 10 0 4.6 10 0 
4.8 10 0 4.4 10 0 5.6 10 0 
5.2 10 0 5 10 0 5.8 10 0 
5.4 10 0 6.8 10 0 6.2 10 0 
6 10 0 6.4 10 0 6.6 10 0 
7.4 10 0 7.2 10 0 7.8 10 0 
7 10 0 7.6 10 0 8.8 10 0 
8.2 10 0 8.4 10 0 8 10 0 
8.6 10 0 9.2 10 0 9 10.2 0 
9 10.6 0 9 10.8 0 9 10 0 
9.8 10 0 9 10.4 0 9.4 10 0 
9.6 10 0 10.8 10 0 10.6 10 0 
10.4 10 0 10.2 10 0 10 10 0 
11.8 10 0 11 10 0 11.2 10 0 
11.4 10 0 11.6 10 0 12.8 10 0 
12 10 0 12.4 10 0 12.2 10 0 
12.6 10 0 13 10 0 13.3053 10.3004 0 
14.6667 10 0 14.1667 10 0 14 10 0 
14.5 10 0 14.8333 10 0 14.3333 10 0 
15 10.8 0 15 10.6 0 15 10.4 0 
15 10 0 15 10.2 0 -15 11.4 0 
-15 11.8 0 -15 11.2 0 -15 11.6 0 
-15 11 0 -9 11.4 0 -9 11.6 0 
-9 11 0 -9 11.2 0 -9 11.8 0 
-3 11.8 0 -3 11 0 -3 11.2 0 
-3 11.6 0 -3 11.4 0 9 11.8 0 
9 11.4 0 9 11.2 0 9 11 0 
9 11.6 0 15 11.4 0 15 11.2 0 
15 11.8 0 15 11 0 15 11.6 0 
-15 12 0 -15 12.6 0 -15 12.4 0 
-15 12.8 0 -15 12.2 0 -9 12 0 
-9 12.2 0 -9 12.4 0 -9 12.8 0 
-9 12.6 0 -3 12.8 0 -3 12.6 0 
-3 12.2 0 -3 12 0 -3 12.4 0 
9 12.6 0 9 12 0 9 12.2 0 
9 12.4 0 9 12.8 0 15 12.6 0 
15 12 0 15 12.4 0 15 12.2 0 
15 12.8 0 -15 13 0 -15 13.6 0 
-15 13.4 0 -15 13.2 0 -15 13.8 0 
-9 13.4 0 -9 13.2 0 -9 13.6 0 
-9 13 0 -9 13.8 0 -3 13.2 0 
-3 13.4 0 -3 13 0 -3 13.8 0 
-3 13.6 0 9 13.4 0 9 13.6 0 
9 13.2 0 9 13 0 9 13.8 0 
15 13 0 15 13.4 0 15 13.8 0 
15 13.2 0 15 13.6 0 -15 14 0 
-15 14.2 0 -15 14.6 0 -15 14.8 0 
-15 14.4 0 -9 14.4 0 -9 14.2 0 
-9 14 0 -9 14.8 0 -9 14.6 0 
-3 14.6 0 -3 14.8 0 -3 14.2 0 
-3 14 0 -3 14.4 0 9 14 0 
15 14.6 0 15 14 0 15 14.8 0 
15 14.4 0 15 14.2 0 -15 15 0 
-15 15.4 0 -15 15.8 0 -15 15.2 0 
-15 15.6 0 -9 15.4 0 -9 15.2 0 
-9 15 0 -9 15.8 0 -9 15.6 0 
-3 15.2 0 -3 15.8 0 -3 15.4 0 
-3 15 0 -3 15.6 0 9 15.1667 0 
9 15.3333 0 9 15 0 9 15.6667 0 
9 15.5 0 9 15.8333 0 15 15.8 0 
15 15 0 15 15.6 0 15 15.4 0 
15 15.2 0 -14.2 16 0 -14.8 16 0 
-15 16 0 -14.4 16 0 -14.6 16 0 
-13.2 16 0 -13.8 16 0 -14 16 0 
-13.6 16 0 -13.4 16 0 -12.4 16 0 
-13 16 0 -12.6 16 0 -12.2 16 0 
-12.8 16 0 -11.6 16 0 -11.8 16 0 
-11.4 16 0 -11.2 16 0 -12 16 0 
-11 16 0 -10.2 16 0 -10.6 16 0 
-10.4 16 0 -10.8 16 0 -10 16 0 
-9.2 16 0 -9.6 16 0 -9.4 16 0 
-9.8 16 0 -8.2 16 0 -8.4 16 0 
-9 16 0 -8.8 16 0 -8.6 16 0 
-8 16 0 -7.4 16 0 -7.2 16 0 
-7.6 16 0 -7.8 16 0 -6.2 16 0 
-6.4 16 0 -6.6 16 0 -7 16 0 
-6.8 16 0 -5.8 16 0 -5.6 16 0 
-5.2 16 0 -6 16 0 -5.4 16 0 
-5 16 0 -4.6 16 0 -4.2 16 0 
-4.4 16 0 -4.8 16 0 -4 16 0 
-3.4 16 0 -3.8 16 0 -3.6 16 0 
-3.2 16 0 -2.6 16 0 -2.2 16 0 
-3 16 0 -2.8 16 0 -2.4 16 0 
-1.4 16 0 -1.6 16 0 -1.8 16 0 
-1.2 16 0 -2 16 0 -1 16 0 
-0.2 16 0 -0.8 16 0 -0.4 16 0 
-0.6 16 0 0.4 16 0 -0 16 0 
0.6 16 0 0.8 16 0 0.2 16 0 
1.4 16 0 1.6 16 0 1.2 16 0 
1.8 16 0 1 16 0 2.8 16 0 
2 16 0 2.2 16 0 2.6 16 0 
2.4 16 0 3.4 16 0 3 16 0 
3.8 16 0 3.2 16 0 3.6 16 0 
4 16 0 4.2 16 0 4.4 16 0 
4.6 16 0 4.8 16 0 5.8 16 0 
5 16 0 5.4 16 0 5.2 16 0 
5.6 16 0 6.4 16 0 6.8 16 0 
6.6 16 0 6.2 16 0 6 16 0 
7.4 16 0 7 16 0 7.6 16 0 
7.8 16 0 7.2 16 0 8.6 16 0 
8.8 16 0 8 16 0 8.4 16 0 
8.2 16 0 9 16 0 9.2 16 0 
9.8 16 0 9.4 16 0 9.6 16 0 
10 16 0 10.2 16 0 10.4 16 0 
10.6 16 0 10.8 16 0 11.4 16 0 
11.8 16 0 11 16 0 11.6 16 0 
11.2 16 0 12.4 16 0 12.8 16 0 
12.6 16 0 12.2 16 0 12 16 0 
13.2 16 0 13 16 0 13.4 16 0 
13.6 16 0 13.8 16 0 14.8 16 0 
14 16 0 14.2 16 0 14.4 16 0 
14.6 16 0 15 16 0 
gid 1 1049 double
1 1 1 1 1 1 1 1 1 
1 1 1 1 1 1 1 1 1 
1 1 1 1 1 1 1 1 1 
1 1 1 1 1 1 1 1 1 
1 1 1 1 1 1 1 1 1 
1 1 1 1 1 1 1 1 1 
1 1 1 1 1 1 1 1 1 
1 1 1 1 1 1 1 1 1 
1 1 1 1 1 1 1 1 1 
1 1 1 1 1 1 1 1 1 
1 1 1 1 1 1 1 1 1 
2 2 2 2 2 2 2 2 2 
2 2 2 2 2 2 2 2 2 
2 2 2 2 2 2 2 2 2 
2 2 2 2 2 2 2 2 2 
2 2 2 2 2 2 2 2 2 
2 2 2 2 2 2 2 2 2 
2 2 2 2 2 2 2 2 2 
2 2 2 2 2 2 2 2 2 
2 2 2 2 2 2 2 2 2 
2 2 2 2 2 2 2 2 2 
2 2 2 2 2 2 2 2 2 
2 2 2 2 2 2 2 2 2 
2 2 2 2 2 2 2 2 2 
2 2 2 2 2 2 2 2 2 
2 2 2 2 2 2 2 2 2 
2 2 2 2 2 2 2 2 2 
2 2 2 2 2 2 2 1 2 
1 2 2 2 1 2 2 1 1 
2 2 2 2 2 2 2 2 2 
2 2 2 2 2 2 2 2 2 
2 2 2 2 2 2 2 2 2 
2 2 2 2 2 2 2 2 2 
2 2 2 2 2 1 1 1 2 
2 2 2 2 2 2 2 2 2 
2 2 2 2 2 2 2 2 2 
2 2 2 2 2 2 2 2 2 
2 2 1 1 1 2 2 2 2 
2 2 2 2 2 2 2 2 2 
2 2 2 2 2 2 2 2 2 
2 2 2 2 2 2 2 2 1 
1 2 2 2 2 2 2 2 2 
2 2 1 2 2 2 2 2 2 
2 2 2 2 2 2 2 2 2 
2 2 2 2 2 1 2 2 2 
2 2 2 2 2 2 2 1 2 
2 2 2 2 2 2 2 2 2 
2 2 2 2 2 2 2 2 2 
2 2 2 2 2 2 2 2 2 
2 2 1 2 2 2 2 2 2 
2 2 2 2 2 2 2 2 2 
2 2 2 2 2 1 2 2 2 
2 2 2 2 2 2 2 2 2 
2 2 2 2 2 2 2 2 2 
2 2 2 2 2 2 2 2 2 
1 2 2 2 2 2 2 2 2 
2 2 2 2 2 2 2 2 2 
2 2 2 2 2 2 2 2 2 
2 2 2 2 2 2 2 2 2 
2 2 2 2 2 2 2 2 2 
2 2 2 2 2 2 2 2 2 
2 2 2 2 2 2 2 2 2 
2 2 2 2 2 2 2 2 2 
2 2 2 2 2 2 2 2 2 
2 2 2 2 2 2 2 2 2 
2 2 2 2 2 2 2 2 2 
2 2 2 2 2 2 2 2 2 
2 2 1 2 2 2 2 2 2 
2 2 2 2 2 2 2 2 2 
2 2 2 2 2 2 2 2 2 
2 2 2 2 2 2 2 2 2 
2 2 2 2 2 2 2 2 2 
2 2 2 2 2 2 2 2 2 
2 2 2 2 2 2 2 2 2 
2 2 2 2 2 2 2 2 2 
2 2 2 2 2 2 2 2 2 
2 2 2 2 2 2 2 2 2 
2 2 2 2 2 2 2 2 2 
2 2 2 2 2 2 2 2 2 
2 2 2 2 2 2 2 2 2 
2 2 2 2 2 2 2 2 2 
2 2 2 2 2 2 2 2 2 
2 2 2 2 2 2 2 2 2 
2 2 2 2 2 2 2 2 2 
2 2 2 2 2 2 2 2 1 
2 2 2 2 2 2 2 2 2 
2 2 2 2 2 2 2 2 2 
2 2 2 2 2 2 2 2 2 
2 2 2 2 2 2 2 2 2 
2 2 2 2 2 2 2 2 2 
2 2 2 2 2 2 2 2 2 
2 2 2 2 2 2 2 2 2 
2 2 2 2 2 2 2 2 2 
2 2 2 2 2 2 2 2 2 
2 2 2 2 2 2 2 2 2 
2 2 2 2 2 2 2 2 2 
2 2 2 2 2 2 2 2 2 
2 2 2 2 2 2 2 2 2 
2 2 2 2 2 2 2 2 2 
2 2 2 2 2 2 2 2 2 
2 2 2 2 2 2 2 2 2 
2 2 2 2 2 2 2 2 2 
2 2 2 2 2 2 2 2 2 
2 2 2 2 2 2 2 2 2 
2 2 2 2 2 2 2 2 2 
2 2 2 2 2 2 2 2 2 
2 2 2 2 2 2 2 2 2 
2 2 2 2 2 2 2 2 2 
2 2 2 2 2 2 2 2 2 
2 2 2 2 2 2 2 2 2 
2 2 2 2 2 2 2 2 2 
2 2 2 2 2 2 2 2 2 
2 2 2 2 2 2 2 2 2 
2 2 2 2 2 2 2 2 2 
2 2 2 2 2 2 2 2 2 
2 2 2 2 2 2 2 2 2 
2 2 2 2 2 
A 1 1049 double
10 10 10 10 10 10 10 10 10 
10 10 10 10 10 10 10 10 10 
10 10 10 10 10 10 10 10 10 
10 10 10 10 10 10 10 10 10 
10 10 10 10 10 10 10 10 10 
10 10 10 10 10 10 10 10 10 
10 10 10 10 10 10 10 10 10 
10 10 10 10 10 10 10 10 10 
10 10 10 10 10 10 10 10 10 
10 10 10 10 10 10 10 10 10 
10 10 10 10 10 10 10 10 10 
10 10 10 10 10 10 10 10 10 
10 10 10 10 10 10 10 10 10 
10 10 10 10 10 10 10 10 10 
10 10 10 10 10 10 10 10 10 
10 10 10 10 10 10 10 10 10 
10 10 10 10 10 10 10 10 10 
10 10 10 10 10 10 10 10 10 
10 10 10 10 10 10 10 10 10 
10 10 10 10 10 10 10 10 10 
10 10 10 10 10 10 10 10 10 
10 10 10 10 10 10 10 10 10 
10 10 10 10 10 10 10 10 10 
10 10 10 10 10 10 10 10 10 
10 10 10 10 10 10 10 10 10 
10 10 10 10 10 10 10 10 10 
10 10 10 10 10 10 10 10 10 
10 10 10 10 10 10 10 10 10 
10 10 10 10 10 10 10 10 10 
10 10 10 10 10 10 10 10 10 
10 10 10 10 10 10 10 10 10 
10 10 10 10 10 10 10 10 10 
10 10 10 10 10 10 10 10 10 
10 10 10 10 10 10 10 10 10 
10 10 10 10 10 10 10 10 10 
10 10 10 10 10 10 10 10 10 
10 10 10 10 10 10 10 10 10 
10 10 10 10 10 10 10 10 10 
10 10 10 10 10 10 10 10 10 
10 10 10 10 10 10 10 10 10 
10 10 10 10 10 10 10 10 10 
10 10 10 10 10 10 10 10 10 
10 10 10 10 10 10 10 10 10 
10 10 10 10 10 10 10 10 10 
10 10 10 10 10 10 10 10 10 
10 10 10 10 10 10 10 10 10 
10 10 10 10 10 10 10 10 10 
10 10 10 10 10 10 10 10 10 
10 10 10 10 10 10 10 10 10 
10 10 10 10 10 10 10 10 10 
10 10 10 10 10 10 10 10 10 
10 10 10 10 10 10 10 10 10 
10 10 10 10 10 10 10 10 10 
10 10 10 10 10 10 10 10 10 
10 10 10 10 10 10 10 10 10 
10 10 10 10 10 10 10 10 10 
10 10 10 10 10 10 10 10 10 
10 10 10 10 10 10 10 10 10 
10 10 10 10 10 10 10 10 10 
10 10 10 10 10 10 10 10 10 
10 10 10 10 10 10 10 10 10 
10 10 10 10 10 10 10 10 10 
10 10 10 10 10 10 10 10 10 
10 10 10 10 10 10 10 10 10 
10 10 10 10 10 10 10 10 10 
10 10 10 10 10 10 10 10 10 
10 10 10 10 10 10 10 10 10 
10 10 10 10 10 10 10 10 10 
10 10 10 10 10 10 10 10 10 
10 10 10 10 10 10 10 10 10 
10 10 10 10 10 10 10 10 10 
10 10 10 10 10 10 10 10 10 
10 10 10 10 10 10 10 10 10 
10 10 10 10 10 10 10 10 10 
10 10 10 10 10 10 10 10 10 
10 10 10 10 10 10 10 10 10 
10 10 10 10 10 10 10 10 10 
10 10 10 10 10 10 10 10 10 
10 10 10 10 10 10 10 10 10 
10 10 10 10 10 10 10 10 10 
10 10 10 10 10 10 10 10 10 
10 10 10 10 10 10 10 10 10 
10 10 10 10 10 10 10 10 10 
10 10 10 10 10 10 10 10 10 
10 10 10 10 10 10 10 10 10 
10 10 10 10 10 10 10 10 10 
10 10 10 10 10 10 10 10 10 
10 10 10 10 10 10 10 10 10 
10 10 10 10 10 10 10 10 10 
10 10 10 10 10 10 10 10 10 
10 10 10 10 10 10 10 10 10 
10 10 10 10 10 10 10 10 10 
10 10 10 10 10 10 10 10 10 
10 10 10 10 10 10 10 10 10 
10 10 10 10 10 10 10 10 10 
10 10 10 10 10 10 10 10 10 
10 10 10 10 10 10 10 10 10 
10 10 10 10 10 10 10 10 10 
10 10 10 10 10 10 10 10 10 
10 10 10 10 10 10 10 10 10 
10 10 10 10 10 10 10 10 10 
10 10 10 10 10 10 10 10 10 
10 10 10 10 10 10 10 10 10 
10 10 10 10 10 10 10 10 10 
10 10 10 10 10 10 10 10 10 
10 10 10 10 10 10 10 10 10 
10 10 10 10 10 10 10 10 10 
10 10 10 10 10 10 10 10 10 
10 10 10 10 10 10 10 10 10 
10 10 10 10 10 10 10 10 10 
10 10 10 10 10 10 10 10 10 
10 10 10 10 10 10 10 10 10 
10 10 10 10 10 10 10 10 10 
10 10 10 10 10 10 10 10 10 
10 10 10 10 10 10 10 10 10 
10 10 10 10 10 10 10 10 10 
10 10 10 10 10 
B 1 1049 double
0.2 0.2 0.2 0.2 0.2 0.2 0.2 0.2 0.2 
0.2 0.2 0.2 0.2 0.2 0.2 0.2 0.2 0.2 
0.2 0.2 0.2 0.2 0.2 0.2 0.2 0.2 0.2 
0.2 0.2 0.2 0.2 0.2 0.2 0.2 0.2 0.2 
0.2 0.2 0.2 0.2 0.2 0.2 0.2 0.2 0.2 
0.2 0.2 0.2 0.2 0.2 0.2 0.2 0.2 0.2 
0.2 0.2 0.2 0.2 0.2 0.2 0.2 0.2 0.2 
0.2 0.2 0.2 0.2 0.2 0.2 0.2 0.2 0.2 
0.2 0.2 0.2 0.2 0.2 0.2 0.2 0.2 0.2 
0.2 0.2 0.2 0.2 0.2 0.2 0.2 0.2 0.2 
0.2 0.2 0.2 0.2 0.2 0.2 0.2 0.2 0.2 
0.2 0.2 0.2 0.2 0.2 0.2 0.2 0.2 0.2 
0.2 0.2 0.2 0.2 0.2 0.2 0.2 0.2 0.2 
0.2 0.2 0.2 0.2 0.2 0.2 0.2 0.2 0.2 
0.2 0.2 0.2 0.2 0.2 0.2 0.2 0.2 0.2 
0.2 0.2 0.2 0.2 0.2 0.2 0.2 0.2 0.2 
0.2 0.2 0.2 0.2 0.2 0.2 0.2 0.2 0.2 
0.2 0.2 0.2 0.2 0.2 0.2 0.2 0.2 0.2 
0.2 0.2 0.2 0.2 0.2 0.2 0.2 0.2 0.2 
0.2 0.2 0.2 0.2 0.2 0.2 0.2 0.2 0.2 
0.2 0.2 0.2 0.2 0.2 0.2 0.2 0.2 0.2 
0.2 0.2 0.2 0.2 0.2 0.2 0.2 0.2 0.2 
0.2 0.2 0.2 0.2 0.2 0.2 0.2 0.2 0.2 
0.2 0.2 0.2 0.2 0.2 0.2 0.2 0.2 0.2 
0.2 0.2 0.2 0.2 0.2 0.2 0.2 0.2 0.2 
0.2 0.2 0.2 0.2 0.2 0.2 0.2 0.2 0.2 
0.2 0.2 0.2 0.2 0.2 0.2 0.2 0.2 0.2 
0.2 0.2 0.2 0.2 0.2 0.2 0.2 0.2 0.2 
0.2 0.2 0.2 0.2 0.2 0.2 0.2 0.2 0.2 
0.2 0.2 0.2 0.2 0.2 0.2 0.2 0.2 0.2 
0.2 0.2 0.2 0.2 0.2 0.2 0.2 0.2 0.2 
0.2 0.2 0.2 0.2 0.2 0.2 0.2 0.2 0.2 
0.2 0.2 0.2 0.2 0.2 0.2 0.2 0.2 0.2 
0.2 0.2 0.2 0.2 0.2 0.2 0.2 0.2 0.2 
0.2 0.2 0.2 0.2 0.2 0.2 0.2 0.2 0.2 
0.2 0.2 0.2 0.2 0.2 0.2 0.2 0.2 0.2 
0.2 0.2 0.2 0.2 0.2 0.2 0.2 0.2 0.2 
0.2 0.2 0.2 0.2 0.2 0.2 0.2 0.2 0.2 
0.2 0.2 0.2 0.2 0.2 0.2 0.2 0.2 0.2 
0.2 0.2 0.2 0.2 0.2 0.2 0.2 0.2 0.2 
0.2 0.2 0.2 0.2 0.2 0.2 0.2 0.2 0.2 
0.2 0.2 0.2 0.2 0.2 0.2 0.2 0.2 0.2 
0.2 0.2 0.2 0.2 0.2 0.2 0.2 0.2 0.2 
0.2 0.2 0.2 0.2 0.2 0.2 0.2 0.2 0.2 
0.2 0.2 0.2 0.2 0.2 0.2 0.2 0.2 0.2 
0.2 0.2 0.2 0.2 0.2 0.2 0.2 0.2 0.2 
0.2 0.2 0.2 0.2 0.2 0.2 0.2 0.2 0.2 
0.2 0.2 0.2 0.2 0.2 0.2 0.2 0.2 0.2 
0.2 0.2 0.2 0.2 0.2 0.2 0.2 0.2 0.2 
0.2 0.2 0.2 0.2 0.2 0.2 0.2 0.2 0.2 
0.2 0.2 0.2 0.2 0.2 0.2 0.2 0.2 0.2 
0.2 0.2 0.2 0.2 0.2 0.2 0.2 0.2 0.2 
0.2 0.2 0.2 0.2 0.2 0.2 0.2 0.2 0.2 
0.2 0.2 0.2 0.2 0.2 0.2 0.2 0.2 0.2 
0.2 0.2 0.2 0.2 0.2 0.2 0.2 0.2 0.2 
0.2 0.2 0.2 0.2 0.2 0.2 0.2 0.2 0.2 
0.2 0.2 0.2 0.2 0.2 0.2 0.2 0.2 0.2 
0.2 0.2 0.2 0.2 0.2 0.2 0.2 0.2 0.2 
0.2 0.2 0.2 0.2 0.2 0.2 0.2 0.2 0.2 
0.2 0.2 0.2 0.2 0.2 0.2 0.2 0.2 0.2 
0.2 0.2 0.2 0.2 0.2 0.2 0.2 0.2 0.2 
0.2 0.2 0.2 0.2 0.2 0.2 0.2 0.2 0.2 
0.2 0.2 0.2 0.2 0.2 0.2 0.2 0.2 0.2 
0.2 0.2 0.2 0.2 0.2 0.2 0.2 0.2 0.2 
0.2 0.2 0.2 0.2 0.2 0.2 0.2 0.2 0.2 
0.2 0.2 0.2 0.2 0.2 0.2 0.2 0.2 0.2 
0.2 0.2 0.2 0.2 0.2 0.2 0.2 0.2 0.2 
0.2 0.2 0.2 0.2 0.2 0.2 0.2 0.2 0.2 
0.2 0.2 0.2 0.2 0.2 0.2 0.2 0.2 0.2 
0.2 0.2 0.2 0.2 0.2 0.2 0.2 0.2 0.2 
0.2 0.2 0.2 0.2 0.2 0.2 0.2 0.2 0.2 
0.2 0.2 0.2 0.2 0.2 0.2 0.2 0.2 0.2 
0.2 0.2 0.2 0.2 0.2 0.2 0.2 0.2 0.2 
0.2 0.2 0.2 0.2 0.2 0.2 0.2 0.2 0.2 
0.2 0.2 0.2 0.2 0.2 0.2 0.2 0.2 0.2 
0.2 0.2 0.2 0.2 0.2 0.2 0.2 0.2 0.2 
0.2 0.2 0.2 0.2 0.2 0.2 0.2 0.2 0.2 
0.2 0.2 0.2 0.2 0.2 0.2 0.2 0.2 0.2 
0.2 0.2 0.2 0.2 0.2 0.2 0.2 0.2 0.2 
0.2 0.2 0.2 0.2 0.2 0.2 0.2 0.2 0.2 
0.2 0.2 0.2 0.2 0.2 0.2 0.2 0.2 0.2 
0.2 0.2 0.2 0.2 0.2 0.2 0.2 0.2 0.2 
0.2 0.2 0.2 0.2 0.2 0.2 0.2 0.2 0.2 
0.2 0.2 0.2 0.2 0.2 0.2 0.2 0.2 0.2 
0.2 0.2 0.2 0.2 0.2 0.2 0.2 0.2 0.2 
0.2 0.2 0.2 0.2 0.2 0.2 0.2 0.2 0.2 
0.2 0.2 0.2 0.2 0.2 0.2 0.2 0.2 0.2 
0.2 0.2 0.2 0.2 0.2 0.2 0.2 0.2 0.2 
0.2 0.2 0.2 0.2 0.2 0.2 0.2 0.2 0.2 
0.2 0.2 0.2 0.2 0.2 0.2 0.2 0.2 0.2 
0.2 0.2 0.2 0.2 0.2 0.2 0.2 0.2 0.2 
0.2 0.2 0.2 0.2 0.2 0.2 0.2 0.2 0.2 
0.2 0.2 0.2 0.2 0.2 0.2 0.2 0.2 0.2 
0.2 0.2 0.2 0.2 0.2 0.2 0.2 0.2 0.2 
0.2 0.2 0.2 0.2 0.2 0.2 0.2 0.2 0.2 
0.2 0.2 0.2 0.2 0.2 0.2 0.2 0.2 0.2 
0.2 0.2 0.2 0.2 0.2 0.2 0.2 0.2 0.2 
0.2 0.2 0.2 0.2 0.2 0.2 0.2 0.2 0.2 
0.2 0.2 0.2 0.2 0.2 0.2 0.2 0.2 0.2 
0.2 0.2 0.2 0.2 0.2 0.2 0.2 0.2 0.2 
0.2 0.2 0.2 0.2 0.2 0.2 0.2 0.2 0.2 
0.2 0.2 0.2 0.2 0.2 0.2 0.2 0.2 0.2 
0.2 0.2 0.2 0.2 0.2 0.2 0.2 0.2 0.2 
0.2 0.2 0.2 0.2 0.2 0.2 0.2 0.2 0.2 
0.2 0.2 0.2 0.2 0.2 0.2 0.2 0.2 0.2 
0.2 0.2 0.2 0.2 0.2 0.2 0.2 0.2 0.2 
0.2 0.2 0.2 0.2 0.2 0.2 0.2 0.2 0.2 
0.2 0.2 0.2 0.2 0.2 0.2 0.2 0.2 0.2 
0.2 0.2 0.2 0.2 0.2 0.2 0.2 0.2 0.2 
0.2 0.2 0.2 0.2 0.2 0.2 0.2 0.2 0.2 
0.2 0.2 0.2 0.2 0.2 0.2 0.2 0.2 0.2 
0.2 0.2 0.2 0.2 0.2 0.2 0.2 0.2 0.2 
0.2 0.2 0.2 0.2 0.2 0.2 0.2 0.2 0.2 
0.2 0.2 0.2 0.2 0.2 0.2 0.2 0.2 0.2 
0.2 0.2 0.2 0.2 0.2 0.2 0.2 0.2 0.2 
0.2 0.2 0.2 0.2 0.2 0.2 0.2 0.2 0.2 
0.2 0.2 0.2 0.2 0.2 
c 1 1049 double
0.1 0.1 0.1 0.1 0.1 0.1 0.1 0.1 0.1 
0.1 0.1 0.1 0.1 0.1 0.1 0.1 0.1 0.1 
0.1 0.1 0.1 0.1 0.1 0.1 0.1 0.1 0.1 
0.1 0.1 0.1 0.1 0.1 0.1 0.1 0.1 0.1 
0.1 0.1 0.1 0.1 0.1 0.1 0.1 0.1 0.1 
0.1 0.1 0.1 0.1 0.1 0.1 0.1 0.1 0.1 
0.1 0.1 0.1 0.1 0.1 0.1 0.1 0.1 0.1 
0.1 0.1 0.1 0.1 0.1 0.1 0.1 0.1 0.1 
0.1 0.1 0.1 0.1 0.1 0.1 0.1 0.1 0.1 
0.1 0.1 0.1 0.1 0.1 0.1 0.1 0.1 0.1 
0.1 0.1 0.1 0.1 0.1 0.1 0.1 0.1 0.1 
0.1 0.1 0.1 0.1 0.1 0.1 0.1 0.1 0.1 
0.1 0.1 0.1 0.1 0.1 0.1 0.1 0.1 0.1 
0.1 0.1 0.1 0.1 0.1 0.1 0.1 0.1 0.1 
0.1 0.1 0.1 0.1 0.1 0.1 0.1 0.1 0.1 
0.1 0.1 0.1 0.1 0.1 0.1 0.1 0.1 0.1 
0.1 0.1 0.1 0.1 0.1 0.1 0.1 0.1 0.1 
0.1 0.1 0.1 0.1 0.1 0.1 0.1 0.1 0.1 
0.1 0.1 0.1 0.1 0.1 0.1 0.1 0.1 0.1 
0.1 0.1 0.1 0.1 0.1 0.1 0.1 0.1 0.1 
0.1 0.1 0.1 0.1 0.1 0.1 0.1 0.1 0.1 
0.1 0.1 0.1 0.1 0.1 0.1 0.1 0.1 0.1 
0.1 0.1 0.1 0.1 0.1 0.1 0.1 0.1 0.1 
0.1 0.1 0.1 0.1 0.1 0.1 0.1 0.1 0.1 
0.1 0.1 0.1 0.1 0.1 0.1 0.1 0.1 0.1 
0.1 0.1 0.1 0.1 0.1 0.1 0.1 0.1 0.1 
0.1 0.1 0.1 0.1 0.1 0.1 0.1 0.1 0.1 
0.1 0.1 0.1 0.1 0.1 0.1 0.1 0.1 0.1 
0.1 0.1 0.1 0.1 0.1 0.1 0.1 0.1 0.1 
0.1 0.1 0.1 0.1 0.1 0.1 0.1 0.1 0.1 
0.1 0.1 0.1 0.1 0.1 0.1 0.1 0.1 0.1 
0.1 0.1 0.1 0.1 0.1 0.1 0.1 0.1 0.1 
0.1 0.1 0.1 0.1 0.1 0.1 0.1 0.1 0.1 
0.1 0.1 0.1 0.1 0.1 0.1 0.1 0.1 0.1 
0.1 0.1 0.1 0.1 0.1 0.1 0.1 0.1 0.1 
0.1 0.1 0.1 0.1 0.1 0.1 0.1 0.1 0.1 
0.1 0.1 0.1 0.1 0.1 0.1 0.1 0.1 0.1 
0.1 0.1 0.1 0.1 0.1 0.1 0.1 0.1 0.1 
0.1 0.1 0.1 0.1 0.1 0.1 0.1 0.1 0.1 
0.1 0.1 0.1 0.1 0.1 0.1 0.1 0.1 0.1 
0.1 0.1 0.1 0.1 0.1 0.1 0.1 0.1 0.1 
0.1 0.1 0.1 0.1 0.1 0.1 0.1 0.1 0.1 
0.1 0.1 0.1 0.1 0.1 0.1 0.1 0.1 0.1 
0.1 0.1 0.1 0.1 0.1 0.1 0.1 0.1 0.1 
0.1 0.1 0.1 0.1 0.1 0.1 0.1 0.1 0.1 
0.1 0.1 0.1 0.1 0.1 0.1 0.1 0.1 0.1 
0.1 0.1 0.1 0.1 0.1 0.1 0.1 0.1 0.1 
0.1 0.1 0.1 0.1 0.1 0.1 0.1 0.1 0.1 
0.1 0.1 0.1 0.1 0.1 0.1 0.1 0.1 0.1 
0.1 0.1 0.1 0.1 0.1 0.1 0.1 0.1 0.1 
0.1 0.1 0.1 0.1 0.1 0.1 0.1 0.1 0.1 
0.1 0.1 0.1 0.1 0.1 0.1 0.1 0.1 0.1 
0.1 0.1 0.1 0.1 0.1 0.1 0.1 0.1 0.1 
0.1 0.1 0.1 0.1 0.1 0.1 0.1 0.1 0.1 
0.1 0.1 0.1 0.1 0.1 0.1 0.1 0.1 0.1 
0.1 0.1 0.1 0.1 0.1 0.1 0.1 0.1 0.1 
0.1 0.1 0.1 0.1 0.1 0.1 0.1 0.1 0.1 
0.1 0.1 0.1 0.1 0.1 0.1 0.1 0.1 0.1 
0.1 0.1 0.1 0.1 0.1 0.1 0.1 0.1 0.1 
0.1 0.1 0.1 0.1 0.1 0.1 0.1 0.1 0.1 
0.1 0.1 0.1 0.1 0.1 0.1 0.1 0.1 0.1 
0.1 0.1 0.1 0.1 0.1 0.1 0.1 0.1 0.1 
0.1 0.1 0.1 0.1 0.1 0.1 0.1 0.1 0.1 
0.1 0.1 0.1 0.1 0.1 0.1 0.1 0.1 0.1 
0.1 0.1 0.1 0.1 0.1 0.1 0.1 0.1 0.1 
0.1 0.1 0.1 0.1 0.1 0.1 0.1 0.1 0.1 
0.1 0.1 0.1 0.1 0.1 0.1 0.1 0.1 0.1 
0.1 0.1 0.1 0.1 0.1 0.1 0.1 0.1 0.1 
0.1 0.1 0.1 0.1 0.1 0.1 0.1 0.1 0.1 
0.1 0.1 0.1 0.1 0.1 0.1 0.1 0.1 0.1 
0.1 0.1 0.1 0.1 0.1 0.1 0.1 0.1 0.1 
0.1 0.1 0.1 0.1 0.1 0.1 0.1 0.1 0.1 
0.1 0.1 0.1 0.1 0.1 0.1 0.1 0.1 0.1 
0.1 0.1 0.1 0.1 0.1 0.1 0.1 0.1 0.1 
0.1 0.1 0.1 0.1 0.1 0.1 0.1 0.1 0.1 
0.1 0.1 0.1 0.1 0.1 0.1 0.1 0.1 0.1 
0.1 0.1 0.1 0.1 0.1 0.1 0.1 0.1 0.1 
0.1 0.1 0.1 0.1 0.1 0.1 0.1 0.1 0.1 
0.1 0.1 0.1 0.1 0.1 0.1 0.1 0.1 0.1 
0.1 0.1 0.1 0.1 0.1 0.1 0.1 0.1 0.1 
0.1 0.1 0.1 0.1 0.1 0.1 0.1 0.1 0.1 
0.1 0.1 0.1 0.1 0.1 0.1 0.1 0.1 0.1 
0.1 0.1 0.1 0.1 0.1 0.1 0.1 0.1 0.1 
0.1 0.1 0.1 0.1 0.1 0.1 0.1 0.1 0.1 
0.1 0.1 0.1 0.1 0.1 0.1 0.1 0.1 0.1 
0.1 0.1 0.1 0.1 0.1 0.1 0.1 0.1 0.1 
0.1 0.1 0.1 0.1 0.1 0.1 0.1 0.1 0.1 
0.1 0.1 0.1 0.1 0.1 0.1 0.1 0.1 0.1 
0.1 0.1 0.1 0.1 0.1 0.1 0.1 0.1 0.1 
0.1 0.1 0.1 0.1 0.1 0.1 0.1 0.1 0.1 
0.1 0.1 0.1 0.1 0.1 0.1 0.1 0.1 0.1 
0.1 0.1 0.1 0.1 0.1 0.1 0.1 0.1 0.1 
0.1 0.1 0.1 0.1 0.1 0.1 0.1 0.1 0.1 
0.1 0.1 0.1 0.1 0.1 0.1 0.1 0.1 0.1 
0.1 0.1 0.1 0.1 0.1 0.1 0.1 0.1 0.1 
0.1 0.1 0.1 0.1 0.1 0.1 0.1 0.1 0.1 
0.1 0.1 0.1 0.1 0.1 0.1 0.1 0.1 0.1 
0.1 0.1 0.1 0.1 0.1 0.1 0.1 0.1 0.1 
0.1 0.1 0.1 0.1 0.1 0.1 0.1 0.1 0.1 
0.1 0.1 0.1 0.1 0.1 0.1 0.1 0.1 0.1 
0.1 0.1 0.1 0.1 0.1 0.1 0.1 0.1 0.1 
0.1 0.1 0.1 0.1 0.1 0.1 0.1 0.1 0.1 
0.1 0.1 0.1 0.1 0.1 0.1 0.1 0.1 0.1 
0.1 0.1 0.1 0.1 0.1 0.1 0.1 0.1 0.1 
0.1 0.1 0.1 0.1 0.1 0.1 0.1 0.1 0.1 
0.1 0.1 0.1 0.1 0.1 0.1 0.1 0.1 0.1 
0.1 0.1 0.1 0.1 0.1 0.1 0.1 0.1 0.1 
0.1 0.1 0.1 0.1 0.1 0.1 0.1 0.1 0.1 
0.1 0.1 0.1 0.1 0.1 0.1 0.1 0.1 0.1 
0.1 0.1 0.1 0.1 0.1 0.1 0.1 0.1 0.1 
0.1 0.1 0.1 0.1 0.1 0.1 0.1 0.1 0.1 
0.1 0.1 0.1 0.1 0.1 0.1 0.1 0.1 0.1 
0.1 0.1 0.1 0.1 0.1 0.1 0.1 0.1 0.1 
0.1 0.1 0.1 0.1 0.1 0.1 0.1 0.1 0.1 
0.1 0.1 0.1 0.1 0.1 0.1 0.1 0.1 0.1 
0.1 0.1 0.1 0.1 0.1 0.1 0.1 0.1 0.1 
0.1 0.1 0.1 0.1 0.1 
m 1 1049 double
76.33 84.655 91.315 83.88 61.625 97.585 62.64 93.885 94.295 
65.975 56.755 95.485 75.77 65.745 90.92 69.85 89.775 91.415 
53.87 92.105 95.63 90.795 84.935 99.255 91.99 56.49 63.205 
62.455 73.95 53.195 65.415 56.77 76.76 54.265 51.995 58.915 
92.83 53.285 88.61 94.14 68.31 79.28 88.325 84.075 59.26 
82.91 60.985 69.45 71.55 91.91 97.965 98.36 95.075 75.995 
58.805 51.54 80.435 82.95 77.555 63.675 77.105 54.64 62.775 
86.39 64.785 52.64 65.86 80.635 50.185 50.495 57.705 75 
81.82 83.255 79.025 64.86 54.985 59.25 65.345 71.125 54.55 
85.085 73.465 81.085 61.965 60.355 61.75 69.135 77.41 93.285 
72.85 92.885 54.44 83.05 67.685 55.865 86.67 50.04 83.105 
86.865 59.805 96.915 71.295 56.63 90.21 63.77 74.595 72.105 
81.145 75.99 68.92 91.575 71.62 92.685 71.85 67.63 82.065 
54.43 80.455 63.885 94.9 99.78 59.365 84.31 86.405 95.85 
84.98 54.625 61.525 51.68 81.635 85.42 84.575 54.23 58.645 
91.01 94.72 56.565 82.525 67.53 66.01 52.725 79.285 97.91 
80.62 69.475 70.215 51.82 66.835 77.17 94.07 85.89 86.38 
84.04 55.435 68.75 77.015 78.94 63.255 67.92 63.77 66.84 
61.995 75.3 99.66 98.38 91.95 76.7 92.93 81.13 88.695 
88.965 50.06 58.41 64.145 57.17 87.695 52.85 53.975 90.47 
87.335 51.89 50.485 64.51 83.005 53.78 83.26 86.505 52.46 
66.585 98.445 97.205 71.43 51.4 69.325 92.2 92.22 73.645 
90.155 83.095 78.855 90.585 91.675 90.485 91.69 77.165 72.405 
94.935 89.44 72.835 53.545 53.375 94.635 89.28 97.485 72.93 
76.53 61.765 84.825 64.355 73.415 57.64 93.12 81.095 91.35 
94.145 97.515 50.095 78.66 66.84 81.7 83.575 98.54 90.745 
55.5 68.09 61.225 67.295 88.98 76.93 53.615 63.09 64.23 
78.645 88.82 64.605 67.255 67.775 61.895 87.44 96.67 52.46 
62.195 91.14 99.205 61.75 88.58 83.245 75.965 86.4 59.44 
74.57 57.5 88.82 50.62 85.17 84.935 61.135 79.28 82.455 
68.715 91.825 62.755 57.105 99.295 57.16 59.68 62.52 66.025 
53.065 88.105 97.835 54.34 64.21 97.64 60.105 83.92 53.715 
61.46 89.94 78.975 65.72 81.775 88.205 61.37 80.945 83.1 
56.165 56.94 90.125 65.37 97.19 86.805 56.345 94.88 66.375 
82.185 57.37 77.035 96.14 77.895 79.42 59.3 59.965 90.71 
75.945 52.49 99.54 94.36 99.79 76.19 76.835 89.855 51.445 
84.745 72.06 97.395 94.845 50.45 98.05 68.405 67.465 90.785 
51.35 51.79 96.84 91.705 67.185 80.605 71.975 80.145 56.185 
94.29 86.275 94.25 58.88 76.365 73.845 94.04 90.18 88.765 
81.24 66.515 76.715 65.885 64.5 81.675 82.145 96.07 91.775 
56.56 67.56 59.43 67.085 59.195 77.845 91.815 53.495 67.14 
82.53 91.175 72.14 68.965 80.715 79.09 88.66 90.02 79.97 
55.775 51.895 54.355 58.24 98.77 66.665 64.45 60.665 52.52 
78.145 91.425 50.245 54.82 92.965 93.135 54.285 95.4 98.155 
63.11 99.235 82.155 93.97 65.865 93.81 93.88 97.645 79.64 
55.055 62.02 94.095 62.95 91.045 96.68 92.905 74.925 97.645 
51.84 72.5 87.835 58.73 80.635 60.67 71.695 61.075 58.46 
84.85 61.45 95.255 63.235 94.73 87.31 71.46 96.95 78.955 
83.41 93.03 72.69 72.215 78.815 73.065 61.49 53.565 80.95 
69.49 52.62 72.76 90.23 84.95 98.985 68.94 81.245 80.795 
88.235 62.675 75.755 92.69 82.76 74.97 67.645 74.58 77.89 
92.87 75.575 57.605 80.785 75.285 82.225 74.09 75.64 84.2 
64.52 53.44 83.2 96.495 76.925 80.21 56.11 51.265 76.815 
65.165 62.485 66.515 52.14 60.01 72.5 53.405 82.015 75.5 
71.73 81.56 63.63 86.93 96.155 75.105 64.755 59.735 57.455 
94.77 66.62 99.585 84.98 89.585 86.845 59.86 69.25 88.125 
96.46 88.36 69.98 88.43 95.625 55.76 74.46 61.81 77.18 
95.94 68.645 62.3 79.875 95.785 67.07 69.605 50.135 93.45 
81.52 52.3 87.78 90.25 50.14 90.135 83.74 94.51 93.495 
73.97 88.485 55.195 55.215 52.845 69.13 71.16 61.305 67.705 
50.295 95.585 83.805 51.8 90.115 50.405 80.21 88.815 65.95 
81.545 69.63 94.98 77.125 53.45 73.385 58.13 72.62 71.17 
81.835 91.025 98.07 51.79 65.84 80.285 84.28 52.7 52.085 
72.83 86.42 88.85 65.295 86.025 79.245 53.03 61.3 51.185 
76.085 92.59 67.13 95.86 74.725 53.915 71.445 54.365 52.415 
88.185 84.365 92.29 72.355 96.57 83.035 63.785 52.39 78.68 
65.345 97.35 92.45 88.715 60.915 77.495 70.405 56.98 78.15 
86.345 50.42 54.76 78.22 98.86 87.525 77.95 83.625 87.8 
83.29 50.635 69.75 62.11 76.055 89.09 69.6 96.12 76.18 
76.84 62.835 75.525 50.245 56.22 52.815 93.555 99.67 59.025 
66.455 86.875 68.84 94.775 67.945 68.07 94.965 74.11 64.025 
84.91 74.59 84.41 83.55 70.09 83.585 54.625 96.455 70.15 
82.145 81.64 57.87 65.465 85.45 86.085 84.18 75.275 84.815 
69.29 56.965 90.65 74.52 63.305 92.855 92.28 84.255 98.165 
73.945 65.365 98.425 63.02 96.25 89.34 82.515 97.425 99.025 
64.745 73.195 95.03 78.91 67.58 55.405 76.625 87.58 60.975 
83.815 55.6 88.385 54.835 51.13 52.98 87.8 95.18 54.325 
69.905 88.85 89.775 96.055 81.71 67.59 91.35 61.895 75.98 
86.605 62.66 72.135 70.86 71.17 60.2 74.92 79.15 86.99 
55.315 86.415 50.36 84.75 51.735 52.865 68.57 60.15 84.62 
87.61 80.295 75.41 70.235 52.215 56.16 97.175 96.02 64.77 
78.2 77.43 95.795 59.49 71.39 99.24 96.31 98.415 51.31 
55.205 58.615 69.795 64.03 78.985 90.835 95.61 83.64 91.62 
81.36 96.825 87.285 79.105 86.675 70.77 76.09 63.735 55.855 
58.88 51.345 54.535 93.505 73.265 58.515 99.665 57.65 92.06 
68.7 70.49 64.31 75.27 52.685 70.15 88.345 98.93 64.77 
75.615 90.695 55.635 58.525 95.75 81.14 79.92 57.43 51.265 
50.63 82.965 52.715 77.02 65.01 61.155 58.98 80.695 63.49 
56.54 85.42 93.6 76.67 92.32 92.71 97.535 90.41 50.985 
78.335 79.695 99.055 99.52 69.7 65.37 89.07 73.565 91.885 
90.895 69.85 95.105 72.9 61.69 96.09 63.575 54.955 81.88 
94.49 55.26 93.055 96.775 81.74 94.02 68.11 88.605 56.275 
74.095 72.995 76.605 85.44 78.875 64.595 73.81 78.55 74.06 
76.895 99.31 63.425 74.885 57.795 62.53 90.945 75.855 70.05 
89.14 86.715 77.84 96.495 78.73 86.86 88.565 91.03 87.935 
96.505 55.085 51.47 83.66 51.175 51.73 67.415 96.035 99.52 
57.68 70.88 65.675 69.05 71.7 88.025 66.555 77.11 81.71 
61.68 58.295 76.05 60.045 75.765 78.455 55.685 62.865 69.715 
74.285 99.555 98.72 98.795 67.495 55.68 56.8 70.335 88.215 
98.09 51.685 56.525 59.005 74.39 68.65 78.305 84.435 60.86 
69.645 97.06 66.74 95.535 95.895 92.09 98.78 87.225 88.42 
79.68 66.88 60.45 77.71 82.33 75.42 64.63 55.475 56.7 
85.95 64.795 64.065 68.865 98.34 64.98 50.815 89.905 85.995 
94.495 74.65 94.665 99.01 93.3 79.47 69.405 50.355 87.34 
54.865 85.655 60.18 67.26 59.495 77.75 96.895 78.12 60.31 
64.62 63 88.185 66.29 67.08 67.325 83.54 91.41 92.61 
93.68 93.13 97.22 96.6 91.12 82.695 70.11 95.08 65.545 
75.265 90.545 66.89 75.405 50 95.57 90.335 56.69 97.13 
79.945 83.935 75.735 61.155 82.66 76.115 69.375 74.25 56.405 
50.895 60.61 69.065 82.95 61.27 55.655 76.75 95.905 89.285 
73.015 57.47 80.405 78.6 62.165 89.91 50.905 87.435 93.61 
97.075 94.125 96.48 77.02 51.485 95.67 50.16 52.755 84.46 
52.075 65.905 85.285 98.54 92.53 61.485 87.415 52.975 59.81 
99.995 75.055 78.88 56.545 50.77 94.885 62.935 99.66 66.91 
75.105 71.33 68.41 88.425 67.815 96.055 94.3 54.65 72.915 
79.95 71.425 95.43 57.38 86.57 70.58 79.1 59.46 87.45 
87.625 77.64 94.195 87.625 65.29 
p0 3 1049 double
0 -10 0 0 -10 0 0 -10 0 
0 -10 0 0 -10 0 0 -10 0 
0 -10 0 0 -10 0 0 -10 0 
0 -10 0 0 -10 0 0 -10 0 
0 -10 0 0 -10 0 0 -10 0 
0 -10 0 0 -10 0 0 -10 0 
0 -10 0 0 -10 0 0 -10 0 
0 -10 0 0 -10 0 0 -10 0 
0 -10 0 0 -10 0 0 -10 0 
0 -10 0 0 -10 0 0 -10 0 
0 -10 0 0 -10 0 0 -10 0 
0 -10 0 0 -10 0 0 -10 0 
0 -10 0 0 -10 0 0 -10 0 
0 -10 0 0 -10 0 0 -10 0 
0 -10 0 0 -10 0 0 -10 0 
0 -10 0 0 -10 0 0 -10 0 
0 -10 0 0 -10 0 0 -10 0 
0 -10 0 0 -10 0 0 -10 0 
0 -10 0 0 -10 0 0 -10 0 
0 -10 0 0 -10 0 0 -10 0 
0 -10 0 0 -10 0 0 -10 0 
0 -10 0 0 -10 0 0 -10 0 
0 -10 0 0 -10 0 0 -10 0 
0 -10 0 0 -10 0 0 -10 0 
0 -10 0 0 -10 0 0 -10 0 
0 -10 0 0 -10 0 0 -10 0 
0 -10 0 0 -10 0 0 -10 0 
0 -10 0 0 -10 0 0 -10 0 
0 -10 0 0 -10 0 0 -10 0 
0 -10 0 0 -10 0 0 -10 0 
0 -10 0 0 -10 0 0 -10 0 
0 -10 0 0 -10 0 0 -10 0 
0 -10 0 0 -10 0 0 -10 0 
0 0 0 0 0 0 0 0 0 
0 0 0 0 0 0 0 0 0 
0 0 0 0 0 0 0 0 0 
0 0 0 0 0 0 0 0 0 
0 0 0 0 0 0 0 0 0 
0 0 0 0 0 0 0 0 0 
0 0 0 0 0 0 0 0 0 
0 0 0 0 0 0 0 0 0 
0 0 0 0 0 0 0 0 0 
0 0 0 0 0 0 0 0 0 
0 0 0 0 0 0 0 0 0 
0 0 0 0 0 0 0 0 0 
0 0 0 0 0 0 0 0 0 
0 0 0 0 0 0 0 0 0 
0 0 0 0 0 0 0 0 0 
0 0 0 0 0 0 0 0 0 
0 0 0 0 0 0 0 0 0 
0 0 0 0 0 0 0 0 0 
0 0 0 0 0 0 0 0 0 
0 0 0 0 0 0 0 0 0 
0 0 0 0 0 0 0 0 0 
0 0 0 0 0 0 0 0 0 
0 0 0 0 0 0 0 0 0 
0 0 0 0 0 0 0 0 0 
0 0 0 0 0 0 0 0 0 
0 0 0 0 0 0 0 0 0 
0 0 0 0 0 0 0 0 0 
0 0 0 0 0 0 0 0 0 
0 0 0 0 0 0 0 0 0 
0 0 0 0 0 0 0 0 0 
0 0 0 0 0 0 0 0 0 
0 0 0 0 0 0 0 0 0 
0 0 0 0 0 0 0 0 0 
0 0 0 0 0 0 0 0 0 
0 0 0 0 0 0 0 0 0 
0 0 0 0 0 0 0 0 0 
0 0 0 0 0 0 0 0 0 
0 0 0 0 0 0 0 0 0 
0 0 0 0 0 0 0 0 0 
0 0 0 0 0 0 0 0 0 
0 0 0 0 0 0 0 0 0 
0 0 0 0 0 0 0 0 0 
0 0 0 0 0 0 0 0 0 
0 0 0 0 0 0 0 0 0 
0 0 0 0 0 0 0 0 0 
0 0 0 0 0 0 0 0 0 
0 0 0 0 0 0 0 0 0 
0 0 0 0 0 0 0 0 0 
0 0 0 0 0 0 0 0 0 
0 0 0 0 0 0 0 0 0 
0 0 0 12 0 0 0 0 0 
12 0 0 0 0 0 0 0 0 
0 0 0 12 0 0 0 0 0 
0 0 0 12 0 0 12 0 0 
0 0 0 0 0 0 0 0 0 
0 0 0 0 0 0 0 0 0 
0 0 0 0 0 0 0 0 0 
0 0 0 0 0 0 0 0 0 
0 0 0 0 0 0 0 0 0 
0 0 0 0 0 0 0 0 0 
0 0 0 0 0 0 0 0 0 
0 0 0 0 0 0 0 0 0 
0 0 0 0 0 0 0 0 0 
0 0 0 0 0 0 0 0 0 
0 0 0 0 0 0 0 0 0 
0 0 0 0 0 0 0 0 0 
0 0 0 0 0 0 0 0 0 
0 0 0 0 0 0 12 0 0 
12 0 0 12 0 0 0 0 0 
0 0 0 0 0 0 0 0 0 
0 0 0 0 0 0 0 0 0 
0 0 0 0 0 0 0 0 0 
0 0 0 0 0 0 0 0 0 
0 0 0 0 0 0 0 0 0 
0 0 0 0 0 0 0 0 0 
0 0 0 0 0 0 0 0 0 
0 0 0 0 0 0 0 0 0 
0 0 0 0 0 0 0 0 0 
0 0 0 0 0 0 12 0 0 
12 0 0 12 0 0 0 0 0 
0 0 0 0 0 0 0 0 0 
0 0 0 0 0 0 0 0 0 
0 0 0 0 0 0 0 0 0 
0 0 0 0 0 0 0 0 0 
0 0 0 0 0 0 0 0 0 
0 0 0 0 0 0 0 0 0 
0 0 0 0 0 0 0 0 0 
0 0 0 0 0 0 0 0 0 
0 0 0 0 0 0 0 0 0 
0 0 0 0 0 0 12 0 0 
12 0 0 0 0 0 0 0 0 
0 0 0 0 0 0 0 0 0 
0 0 0 0 0 0 0 0 0 
0 0 0 0 0 0 -12 0 0 
0 0 0 0 0 0 0 0 0 
0 0 0 0 0 0 0 0 0 
0 0 0 0 0 0 0 0 0 
0 0 0 0 0 0 0 0 0 
0 0 0 0 0 0 0 0 0 
0 0 0 0 0 0 0 0 0 
0 0 0 0 0 0 12 0 0 
0 0 0 0 0 0 0 0 0 
0 0 0 0 0 0 0 0 0 
0 0 0 0 0 0 0 0 0 
0 0 0 -12 0 0 0 0 0 
0 0 0 0 0 0 0 0 0 
0 0 0 0 0 0 0 0 0 
0 0 0 0 0 0 0 0 0 
0 0 0 0 0 0 0 0 0 
0 0 0 0 0 0 0 0 0 
0 0 0 0 0 0 0 0 0 
0 0 0 0 0 0 0 0 0 
0 0 0 0 0 0 0 0 0 
0 0 0 0 0 0 0 0 0 
0 0 0 0 0 0 -12 0 0 
0 0 0 0 0 0 0 0 0 
0 0 0 0 0 0 0 0 0 
0 0 0 0 0 0 0 0 0 
0 0 0 0 0 0 0 0 0 
0 0 0 0 0 0 0 0 0 
0 0 0 0 0 0 0 0 0 
0 0 0 0 0 0 12 0 0 
0 0 0 0 0 0 0 0 0 
0 0 0 0 0 0 0 0 0 
0 0 0 0 0 0 0 0 0 
0 0 0 0 0 0 0 0 0 
0 0 0 0 0 0 0 0 0 
0 0 0 0 0 0 0 0 0 
0 0 0 0 0 0 0 0 0 
0 0 0 0 0 0 0 0 0 
0 0 0 0 0 0 0 0 0 
0 0 0 0 0 0 0 0 0 
12 0 0 0 0 0 0 0 0 
0 0 0 0 0 0 0 0 0 
0 0 0 0 0 0 0 0 0 
0 0 0 0 0 0 0 0 0 
0 0 0 0 0 0 0 0 0 
0 0 0 0 0 0 0 0 0 
0 0 0 0 0 0 0 0 0 
0 0 0 0 0 0 0 0 0 
0 0 0 0 0 0 0 0 0 
0 0 0 0 0 0 0 0 0 
0 0 0 0 0 0 0 0 0 
0 0 0 0 0 0 0 0 0 
0 0 0 0 0 0 0 0 0 
0 0 0 0 0 0 0 0 0 
0 0 0 0 0 0 0 0 0 
0 0 0 0 0 0 0 0 0 
0 0 0 0 0 0 0 0 0 
0 0 0 0 0 0 0 0 0 
0 0 0 0 0 0 0 0 0 
0 0 0 0 0 0 0 0 0 
0 0 0 0 0 0 0 0 0 
0 0 0 0 0 0 0 0 0 
0 0 0 0 0 0 0 0 0 
0 0 0 0 0 0 0 0 0 
0 0 0 0 0 0 0 0 0 
0 0 0 0 0 0 0 0 0 
0 0 0 0 0 0 0 0 0 
0 0 0 0 0 0 0 0 0 
0 0 0 0 0 0 0 0 0 
0 0 0 0 0 0 0 0 0 
0 0 0 0 0 0 0 0 0 
0 0 0 0 0 0 0 0 0 
0 0 0 0 0 0 0 0 0 
0 0 0 0 0 0 0 0 0 
0 0 0 0 0 0 0 0 0 
0 0 0 0 0 0 0 0 0 
0 0 0 0 0 0 12 0 0 
0 0 0 0 0 0 0 0 0 
0 0 0 0 0 0 0 0 0 
0 0 0 0 0 0 0 0 0 
0 0 0 0 0 0 0 0 0 
0 0 0 0 0 0 0 0 0 
0 0 0 0 0 0 0 0 0 
0 0 0 0 0 0 0 0 0 
0 0 0 0 0 0 0 0 0 
0 0 0 0 0 0 0 0 0 
0 0 0 0 0 0 0 0 0 
0 0 0 0 0 0 0 0 0 
0 0 0 0 0 0 0 0 0 
0 0 0 0 0 0 0 0 0 
0 0 0 0 0 0 0 0 0 
0 0 0 0 0 0 0 0 0 
0 0 0 0 0 0 0 0 0 
0 0 0 0 0 0 0 0 0 
0 0 0 0 0 0 0 0 0 
0 0 0 0 0 0 0 0 0 
0 0 0 0 0 0 0 0 0 
0 0 0 0 0 0 0 0 0 
0 0 0 0 0 0 0 0 0 
0 0 0 0 0 0 0 0 0 
0 0 0 0 0 0 0 0 0 
0 0 0 0 0 0 0 0 0 
0 0 0 0 0 0 0 0 0 
0 0 0 0 0 0 0 0 0 
0 0 0 0 0 0 0 0 0 
0 0 0 0 0 0 0 0 0 
0 0 0 0 0 0 0 0 0 
0 0 0 0 0 0 0 0 0 
0 0 0 0 0 0 0 0 0 
0 0 0 0 0 0 0 0 0 
0 0 0 0 0 0 0 0 0 
0 0 0 0 0 0 0 0 0 
0 0 0 0 0 0 0 0 0 
0 0 0 0 0 0 0 0 0 
0 0 0 0 0 0 0 0 0 
0 0 0 0 0 0 0 0 0 
0 0 0 0 0 0 0 0 0 
0 0 0 0 0 0 0 0 0 
0 0 0 0 0 0 0 0 0 
0 0 0 0 0 0 0 0 0 
0 0 0 0 0 0 0 0 0 
0 0 0 0 0 0 0 0 0 
0 0 0 0 0 0 0 0 0 
0 0 0 0 0 0 0 0 0 
0 0 0 0 0 0 0 0 0 
0 0 0 0 0 0 0 0 0 
0 0 0 0 0 0 0 0 0 
0 0 0 0 0 0 0 0 0 
0 0 0 0 0 0 0 0 0 
0 0 0 0 0 0 13.5 10 0 
0 0 0 0 0 0 0 0 0 
0 0 0 0 0 0 0 0 0 
0 0 0 0 0 0 0 0 0 
0 0 0 0 0 0 0 0 0 
0 0 0 0 0 0 0 0 0 
0 0 0 0 0 0 0 0 0 
0 0 0 0 0 0 0 0 0 
0 0 0 0 0 0 0 0 0 
0 0 0 0 0 0 0 0 0 
0 0 0 0 0 0 0 0 0 
0 0 0 0 0 0 0 0 0 
0 0 0 0 0 0 0 0 0 
0 0 0 0 0 0 0 0 0 
0 0 0 0 0 0 0 0 0 
0 0 0 0 0 0 0 0 0 
0 0 0 0 0 0 0 0 0 
0 0 0 0 0 0 0 0 0 
0 0 0 0 0 0 0 0 0 
0 0 0 0 0 0 0 0 0 
0 0 0 0 0 0 0 0 0 
0 0 0 0 0 0 0 0 0 
0 0 0 0 0 0 0 0 0 
0 0 0 0 0 0 0 0 0 
0 0 0 0 0 0 0 0 0 
0 0 0 0 0 0 0 0 0 
0 0 0 0 0 0 0 0 0 
0 0 0 0 0 0 0 0 0 
0 0 0 0 0 0 0 0 0 
0 0 0 0 0 0 0 0 0 
0 0 0 0 0 0 0 0 0 
0 0 0 0 0 0 0 0 0 
0 0 0 0 0 0 0 0 0 
0 0 0 0 0 0 0 0 0 
0 0 0 0 0 0 0 0 0 
0 0 0 0 0 0 0 0 0 
0 0 0 0 0 0 0 0 0 
0 0 0 0 0 0 0 0 0 
0 0 0 0 0 0 0 0 0 
0 0 0 0 0 0 0 0 0 
0 0 0 0 0 0 0 0 0 
0 0 0 0 0 0 0 0 0 
0 0 0 0 0 0 0 0 0 
0 0 0 0 0 0 0 0 0 
0 0 0 0 0 0 0 0 0 
0 0 0 0 0 0 0 0 0 
0 0 0 0 0 0 0 0 0 
0 0 0 0 0 0 0 0 0 
0 0 0 0 0 0 0 0 0 
0 0 0 0 0 0 0 0 0 
0 0 0 0 0 0 0 0 0 
0 0 0 0 0 0 0 0 0 
0 0 0 0 0 0 0 0 0 
0 0 0 0 0 0 0 0 0 
0 0 0 0 0 0 0 0 0 
0 0 0 0 0 0 0 0 0 
0 0 0 0 0 0 0 0 0 
0 0 0 0 0 0 0 0 0 
0 0 0 0 0 0 0 0 0 
0 0 0 0 0 0 0 0 0 
0 0 0 0 0 0 0 0 0 
0 0 0 0 0 0 0 0 0 
0 0 0 0 0 0 0 0 0 
0 0 0 0 0 0 0 0 0 
0 0 0 0 0 0 0 0 0 
0 0 0 0 0 0 0 0 0 
0 0 0 0 0 0 0 0 0 
0 0 0 0 0 0 0 0 0 
0 0 0 0 0 0 0 0 0 
0 0 0 0 0 0 0 0 0 
0 0 0 0 0 0 0 0 0 
0 0 0 0 0 0 0 0 0 
0 0 0 0 0 0 0 0 0 
0 0 0 0 0 0 0 0 0 
0 0 0 0 0 0 0 0 0 
0 0 0 0 0 0 0 0 0 
0 0 0 0 0 0 0 0 0 
0 0 0 0 0 0 0 0 0 
0 0 0 0 0 0 0 0 0 
0 0 0 0 0 0 0 0 0 
0 0 0 0 0 0 0 0 0 
0 0 0 0 0 0 0 0 0 
0 0 0 0 0 0 0 0 0 
0 0 0 0 0 0 0 0 0 
0 0 0 0 0 0 0 0 0 
0 0 0 0 0 0 0 0 0 
0 0 0 0 0 0 0 0 0 
0 0 0 0 0 0 0 0 0 
0 0 0 0 0 0 0 0 0 
0 0 0 0 0 0 0 0 0 
0 0 0 0 0 0 0 0 0 
0 0 0 0 0 0 0 0 0 
0 0 0 0 0 0 0 0 0 
0 0 0 0 0 0 0 0 0 
0 0 0 0 0 0 0 0 0 
0 0 0 0 0 0 
v0 1 1049 double
3.7348 3.1534 3.5598 2.2234 3.5868 3.1552 3.7604 3.3932 3.5098 
3.908 3.4418 3.7132 2.2246 2.9072 2.7868 2.798 2.5562 2.959 
2.8894 3.3376 3.5338 3.7722 3.8026 3.447 3.5394 3.4192 3.9438 
3.6894 2.9892 2.5998 3.4142 3.6802 3.3968 3.9802 3.7004 3.7956 
3.7386 2.087 2.9348 2.7598 2.7364 3.9752 3.4388 3.6034 3.7164 
3.2294 2.105 3.1134 2.2178 2.9862 2.726 3.938 3.358 2.6972 
2.8228 3.4416 3.2554 3.5126 2.9518 3.0734 3.4702 3.991 3.8484 
2.5702 3.3948 3.3812 3.2458 2.227 2.3004 2.0272 2.8832 2.5352 
2.192 2.5666 3.219 2.6856 2.8338 2.325 3.4072 2.7916 2.0254 
2.9892 3.236 3.8554 3.3678 3.8268 3.053 2.5952 2.2866 3.4754 
3.5612 3.514 3.2878 3.852 2.9256 2.5898 3.18 2.9022 3.1832 
0 0 0 0 0 0 0 0 0 
0 0 0 0 0 0 0 0 0 
0 0 0 0 0 0 0 0 0 
0 0 0 0 0 0 0 0 0 
0 0 0 0 0 0 0 0 0 
0 0 0 0 0 0 0 0 0 
0 0 0 0 0 0 0 0 0 
0 0 0 0 0 0 0 0 0 
0 0 0 0 0 0 0 0 0 
0 0 0 0 0 0 0 0 0 
0 0 0 0 0 0 0 0 0 
0 0 0 0 0 0 0 0 0 
0 0 0 0 0 0 0 0 0 
0 0 0 0 0 0 0 0 0 
0 0 0 0 0 0 0 0 0 
0 0 0 0 0 0 0 0 0 
0 0 0 0 0 0 0 2.264 0 
2.4594 0 0 0 2.0104 0 0 2.1178 2.6632 
0 0 0 0 0 0 0 0 0 
0 0 0 0 0 0 0 0 0 
0 0 0 0 0 0 0 0 0 
0 0 0 0 0 0 0 0 0 
0 0 0 0 0 3.2768 2.4322 2.5972 0 
0 0 0 0 0 0 0 0 0 
0 0 0 0 0 0 0 0 0 
0 0 0 0 0 0 0 0 0 
0 0 2.0424 2.7532 3.075 0 0 0 0 
0 0 0 0 0 0 0 0 0 
0 0 0 0 0 0 0 0 0 
0 0 0 0 0 0 0 0 2.79 
2.0302 0 0 0 0 0 0 0 0 
0 0 2.1056 0 0 0 0 0 0 
0 0 0 0 0 0 0 0 0 
0 0 0 0 0 2.6138 0 0 0 
0 0 0 0 0 0 0 2.5992 0 
0 0 0 0 0 0 0 0 0 
0 0 0 0 0 0 0 0 0 
0 0 0 0 0 0 0 0 0 
0 0 2.6016 0 0 0 0 0 0 
0 0 0 0 0 0 0 0 0 
0 0 0 0 0 2.2322 0 0 0 
0 0 0 0 0 0 0 0 0 
0 0 0 0 0 0 0 0 0 
0 0 0 0 0 0 0 0 0 
2.1262 0 0 0 0 0 0 0 0 
0 0 0 0 0 0 0 0 0 
0 0 0 0 0 0 0 0 0 
0 0 0 0 0 0 0 0 0 
0 0 0 0 0 0 0 0 0 
0 0 0 0 0 0 0 0 0 
0 0 0 0 0 0 0 0 0 
0 0 0 0 0 0 0 0 0 
0 0 0 0 0 0 0 0 0 
0 0 0 0 0 0 0 0 0 
0 0 0 0 0 0 0 0 0 
0 0 0 0 0 0 0 0 0 
0 0 2.0074 0 0 0 0 0 0 
0 0 0 0 0 0 0 0 0 
0 0 0 0 0 0 0 0 0 
0 0 0 0 0 0 0 0 0 
0 0 0 0 0 0 0 0 0 
0 0 0 0 0 0 0 0 0 
0 0 0 0 0 0 0 0 0 
0 0 0 0 0 0 0 0 0 
0 0 0 0 0 0 0 0 0 
0 0 0 0 0 0 0 0 0 
0 0 0 0 0 0 0 0 0 
0 0 0 0 0 0 0 0 0 
0 0 0 0 0 0 0 0 0 
0 0 0 0 0 0 0 0 0 
0 0 0 0 0 0 0 0 0 
0 0 0 0 0 0 0 0 0 
0 0 0 0 0 0 0 0 0 
0 0 0 0 0 0 0 0 2.1126 
0 0 0 0 0 0 0 0 0 
0 0 0 0 0 0 0 0 0 
0 0 0 0 0 0 0 0 0 
0 0 0 0 0 0 0 0 0 
0 0 0 0 0 0 0 0 0 
0 0 0 0 0 0 0 0 0 
0 0 0 0 0 0 0 0 0 
0 0 0 0 0 0 0 0 0 
0 0 0 0 0 0 0 0 0 
0 0 0 0 0 0 0 0 0 
0 0 0 0 0 0 0 0 0 
0 0 0 0 0 0 0 0 0 
0 0 0 0 0 0 0 0 0 
0 0 0 0 0 0 0 0 0 
0 0 0 0 0 0 0 0 0 
0 0 0 0 0 0 0 0 0 
0 0 0 0 0 0 0 0 0 
0 0 0 0 0 0 0 0 0 
0 0 0 0 0 0 0 0 0 
0 0 0 0 0 0 0 0 0 
0 0 0 0 0 0 0 0 0 
0 0 0 0 0 0 0 0 0 
0 0 0 0 0 0 0 0 0 
0 0 0 0 0 0 0 0 0 
0 0 0 0 0 0 0 0 0 
0 0 0 0 0 0 0 0 0 
0 0 0 0 0 0 0 0 0 
0 0 0 0 0 0 0 0 0 
0 0 0 0 0 0 0 0 0 
0 0 0 0 0 0 0 0 0 
0 0 0 0 0 0 0 0 0 
0 0 0 0 0 
tau 1 1049 double
2 2 2 2 2 2 2 2 2 
2 2 2 2 2 2 2 2 2 
2 2 2 2 2 2 2 2 2 
2 2 2 2 2 2 2 2 2 
2 2 2 2 2 2 2 2 2 
2 2 2 2 2 2 2 2 2 
2 2 2 2 2 2 2 2 2 
2 2 2 2 2 2 2 2 2 
2 2 2 2 2 2 2 2 2 
2 2 2 2 2 2 2 2 2 
2 2 2 2 2 2 2 2 2 
2 2 2 2 2 2 2 2 2 
2 2 2 2 2 2 2 2 2 
2 2 2 2 2 2 2 2 2 
2 2 2 2 2 2 2 2 2 
2 2 2 2 2 2 2 2 2 
2 2 2 2 2 2 2 2 2 
2 2 2 2 2 2 2 2 2 
2 2 2 2 2 2 2 2 2 
2 2 2 2 2 2 2 2 2 
2 2 2 2 2 2 2 2 2 
2 2 2 2 2 2 2 2 2 
2 2 2 2 2 2 2 2 2 
2 2 2 2 2 2 2 2 2 
2 2 2 2 2 2 2 2 2 
2 2 2 2 2 2 2 2 2 
2 2 2 2 2 2 2 2 2 
2 2 2 2 2 2 2 2 2 
2 2 2 2 2 2 2 2 2 
2 2 2 2 2 2 2 2 2 
2 2 2 2 2 2 2 2 2 
2 2 2 2 2 2 2 2 2 
2 2 2 2 2 2 2 2 2 
2 2 2 2 2 2 2 2 2 
2 2 2 2 2 2 2 2 2 
2 2 2 2 2 2 2 2 2 
2 2 2 2 2 2 2 2 2 
2 2 2 2 2 2 2 2 2 
2 2 2 2 2 2 2 2 2 
2 2 2 2 2 2 2 2 2 
2 2 2 2 2 2 2 2 2 
2 2 2 2 2 2 2 2 2 
2 2 2 2 2 2 2 2 2 
2 2 2 2 2 2 2 2 2 
2 2 2 2 2 2 2 2 2 
2 2 2 2 2 2 2 2 2 
2 2 2 2 2 2 2 2 2 
2 2 2 2 2 2 2 2 2 
2 2 2 2 2 2 2 2 2 
2 2 2 2 2 2 2 2 2 
2 2 2 2 2 2 2 2 2 
2 2 2 2 2 2 2 2 2 
2 2 2 2 2 2 2 2 2 
2 2 2 2 2 2 2 2 2 
2 2 2 2 2 2 2 2 2 
2 2 2 2 2 2 2 2 2 
2 2 2 2 2 2 2 2 2 
2 2 2 2 2 2 2 2 2 
2 2 2 2 2 2 2 2 2 
2 2 2 2 2 2 2 2 2 
2 2 2 2 2 2 2 2 2 
2 2 2 2 2 2 2 2 2 
2 2 2 2 2 2 2 2 2 
2 2 2 2 2 2 2 2 2 
2 2 2 2 2 2 2 2 2 
2 2 2 2 2 2 2 2 2 
2 2 2 2 2 2 2 2 2 
2 2 2 2 2 2 2 2 2 
2 2 2 2 2 2 2 2 2 
2 2 2 2 2 2 2 2 2 
2 2 2 2 2 2 2 2 2 
2 2 2 2 2 2 2 2 2 
2 2 2 2 2 2 2 2 2 
2 2 2 2 2 2 2 2 2 
2 2 2 2 2 2 2 2 2 
2 2 2 2 2 2 2 2 2 
2 2 2 2 2 2 2 2 2 
2 2 2 2 2 2 2 2 2 
2 2 2 2 2 2 2 2 2 
2 2 2 2 2 2 2 2 2 
2 2 2 2 2 2 2 2 2 
2 2 2 2 2 2 2 2 2 
2 2 2 2 2 2 2 2 2 
2 2 2 2 2 2 2 2 2 
2 2 2 2 2 2 2 2 2 
2 2 2 2 2 2 2 2 2 
2 2 2 2 2 2 2 2 2 
2 2 2 2 2 2 2 2 2 
2 2 2 2 2 2 2 2 2 
2 2 2 2 2 2 2 2 2 
2 2 2 2 2 2 2 2 2 
2 2 2 2 2 2 2 2 2 
2 2 2 2 2 2 2 2 2 
2 2 2 2 2 2 2 2 2 
2 2 2 2 2 2 2 2 2 
2 2 2 2 2 2 2 2 2 
2 2 2 2 2 2 2 2 2 
2 2 2 2 2 2 2 2 2 
2 2 2 2 2 2 2 2 2 
2 2 2 2 2 2 2 2 2 
2 2 2 2 2 2 2 2 2 
2 2 2 2 2 2 2 2 2 
2 2 2 2 2 2 2 2 2 
2 2 2 2 2 2 2 2 2 
2 2 2 2 2 2 2 2 2 
2 2 2 2 2 2 2 2 2 
2 2 2 2 2 2 2 2 2 
2 2 2 2 2 2 2 2 2 
2 2 2 2 2 2 2 2 2 
2 2 2 2 2 2 2 2 2 
2 2 2 2 2 2 2 2 2 
2 2 2 2 2 2 2 2 2 
2 2 2 2 2 2 2 2 2 
2 2 2 2 2 2 2 2 2 
2 2 2 2 2 2 2 2 2 
2 2 2 2 2 2 2 2 2 
2 2 2 2 2 
R 1 1049 double
0.30266 0.31931 0.33263 0.31776 0.27325 0.34517 0.27528 0.33777 0.33859 
0.28195 0.26351 0.34097 0.30154 0.28149 0.33184 0.2897 0.32955 0.33283 
0.25774 0.33421 0.34126 0.33159 0.31987 0.34851 0.33398 0.26298 0.27641 
0.27491 0.2979 0.25639 0.28083 0.26354 0.30352 0.25853 0.25399 0.26783 
0.33566 0.25657 0.32722 0.33828 0.28662 0.30856 0.32665 0.31815 0.26852 
0.31582 0.27197 0.2889 0.2931 0.33382 0.34593 0.34672 0.34015 0.30199 
0.26761 0.25308 0.31087 0.3159 0.30511 0.27735 0.30421 0.25928 0.27555 
0.32278 0.27957 0.25528 0.28172 0.31127 0.25037 0.25099 0.26541 0.3 
0.31364 0.31651 0.30805 0.27972 0.25997 0.2685 0.28069 0.29225 0.2591 
0.32017 0.29693 0.31217 0.27393 0.27071 0.2735 0.28827 0.30482 0.33657 
0.2957 0.33577 0.25888 0.3161 0.28537 0.26173 0.32334 0.25008 0.31621 
0.1 0.1 0.1 0.1 0.1 0.1 0.1 0.1 0.1 
0.1 0.1 0.1 0.1 0.1 0.1 0.1 0.1 0.1 
0.1 0.1 0.1 0.1 0.1 0.1 0.1 0.1 0.1 
0.1 0.1 0.1 0.1 0.1 0.1 0.1 0.1 0.1 
0.1 0.1 0.1 0.1 0.1 0.1 0.1 0.1 0.1 
0.1 0.1 0.1 0.1 0.1 0.1 0.1 0.1 0.1 
0.1 0.1 0.1 0.1 0.1 0.1 0.1 0.1 0.1 
0.1 0.1 0.1 0.1 0.1 0.1 0.1 0.1 0.1 
0.1 0.1 0.1 0.1 0.1 0.1 0.1 0.1 0.1 
0.1 0.1 0.1 0.1 0.1 0.1 0.1 0.1 0.1 
0.1 0.1 0.1 0.1 0.1 0.1 0.1 0.1 0.1 
0.1 0.1 0.1 0.1 0.1 0.1 0.1 0.1 0.1 
0.1 0.1 0.1 0.1 0.1 0.1 0.1 0.1 0.1 
0.1 0.1 0.1 0.1 0.1 0.1 0.1 0.1 0.1 
0.1 0.1 0.1 0.1 0.1 0.1 0.1 0.1 0.1 
0.1 0.1 0.1 0.1 0.1 0.1 0.1 0.1 0.1 
0.1 0.1 0.1 0.1 0.1 0.1 0.1 0.34334 0.1 
0.27439 0.1 0.1 0.1 0.32716 0.1 0.1 0.3228 0.26888 
0.1 0.1 0.1 0.1 0.1 0.1 0.1 0.1 0.1 
0.1 0.1 0.1 0.1 0.1 0.1 0.1 0.1 0.1 
0.1 0.1 0.1 0.1 0.1 0.1 0.1 0.1 0.1 
0.1 0.1 0.1 0.1 0.1 0.1 0.1 0.1 0.1 
0.1 0.1 0.1 0.1 0.1 0.32361 0.26269 0.33976 0.1 
0.1 0.1 0.1 0.1 0.1 0.1 0.1 0.1 0.1 
0.1 0.1 0.1 0.1 0.1 0.1 0.1 0.1 0.1 
0.1 0.1 0.1 0.1 0.1 0.1 0.1 0.1 0.1 
0.1 0.1 0.34368 0.33341 0.28437 0.1 0.1 0.1 0.1 
0.1 0.1 0.1 0.1 0.1 0.1 0.1 0.1 0.1 
0.1 0.1 0.1 0.1 0.1 0.1 0.1 0.1 0.1 
0.1 0.1 0.1 0.1 0.1 0.1 0.1 0.1 0.28428 
0.31506 0.1 0.1 0.1 0.1 0.1 0.1 0.1 0.1 
0.1 0.1 0.25871 0.1 0.1 0.1 0.1 0.1 0.1 
0.1 0.1 0.1 0.1 0.1 0.1 0.1 0.1 0.1 
0.1 0.1 0.1 0.1 0.1 0.33762 0.1 0.1 0.1 
0.1 0.1 0.1 0.1 0.1 0.1 0.1 0.29985 0.1 
0.1 0.1 0.1 0.1 0.1 0.1 0.1 0.1 0.1 
0.1 0.1 0.1 0.1 0.1 0.1 0.1 0.1 0.1 
0.1 0.1 0.1 0.1 0.1 0.1 0.1 0.1 0.1 
0.1 0.1 0.29552 0.1 0.1 0.1 0.1 0.1 0.1 
0.1 0.1 0.1 0.1 0.1 0.1 0.1 0.1 0.1 
0.1 0.1 0.1 0.1 0.1 0.31445 0.1 0.1 0.1 
0.1 0.1 0.1 0.1 0.1 0.1 0.1 0.1 0.1 
0.1 0.1 0.1 0.1 0.1 0.1 0.1 0.1 0.1 
0.1 0.1 0.1 0.1 0.1 0.1 0.1 0.1 0.1 
0.33954 0.1 0.1 0.1 0.1 0.1 0.1 0.1 0.1 
0.1 0.1 0.1 0.1 0.1 0.1 0.1 0.1 0.1 
0.1 0.1 0.1 0.1 0.1 0.1 0.1 0.1 0.1 
0.1 0.1 0.1 0.1 0.1 0.1 0.1 0.1 0.1 
0.1 0.1 0.1 0.1 0.1 0.1 0.1 0.1 0.1 
0.1 0.1 0.1 0.1 0.1 0.1 0.1 0.1 0.1 
0.1 0.1 0.1 0.1 0.1 0.1 0.1 0.1 0.1 
0.1 0.1 0.1 0.1 0.1 0.1 0.1 0.1 0.1 
0.1 0.1 0.1 0.1 0.1 0.1 0.1 0.1 0.1 
0.1 0.1 0.1 0.1 0.1 0.1 0.1 0.1 0.1 
0.1 0.1 0.1 0.1 0.1 0.1 0.1 0.1 0.1 
0.1 0.1 0.1 0.1 0.1 0.1 0.1 0.1 0.1 
0.1 0.1 0.25952 0.1 0.1 0.1 0.1 0.1 0.1 
0.1 0.1 0.1 0.1 0.1 0.1 0.1 0.1 0.1 
0.1 0.1 0.1 0.1 0.1 0.1 0.1 0.1 0.1 
0.1 0.1 0.1 0.1 0.1 0.1 0.1 0.1 0.1 
0.1 0.1 0.1 0.1 0.1 0.1 0.1 0.1 0.1 
0.1 0.1 0.1 0.1 0.1 0.1 0.1 0.1 0.1 
0.1 0.1 0.1 0.1 0.1 0.1 0.1 0.1 0.1 
0.1 0.1 0.1 0.1 0.1 0.1 0.1 0.1 0.1 
0.1 0.1 0.1 0.1 0.1 0.1 0.1 0.1 0.1 
0.1 0.1 0.1 0.1 0.1 0.1 0.1 0.1 0.1 
0.1 0.1 0.1 0.1 0.1 0.1 0.1 0.1 0.1 
0.1 0.1 0.1 0.1 0.1 0.1 0.1 0.1 0.1 
0.1 0.1 0.1 0.1 0.1 0.1 0.1 0.1 0.1 
0.1 0.1 0.1 0.1 0.1 0.1 0.1 0.1 0.1 
0.1 0.1 0.1 0.1 0.1 0.1 0.1 0.1 0.1 
0.1 0.1 0.1 0.1 0.1 0.1 0.1 0.1 0.1 
0.1 0.1 0.1 0.1 0.1 0.1 0.1 0.1 0.1 
0.1 0.1 0.1 0.1 0.1 0.1 0.1 0.1 0.33412 
0.1 0.1 0.1 0.1 0.1 0.1 0.1 0.1 0.1 
0.1 0.1 0.1 0.1 0.1 0.1 0.1 0.1 0.1 
0.1 0.1 0.1 0.1 0.1 0.1 0.1 0.1 0.1 
0.1 0.1 0.1 0.1 0.1 0.1 0.1 0.1 0.1 
0.1 0.1 0.1 0.1 0.1 0.1 0.1 0.1 0.1 
0.1 0.1 0.1 0.1 0.1 0.1 0.1 0.1 0.1 
0.1 0.1 0.1 0.1 0.1 0.1 0.1 0.1 0.1 
0.1 0.1 0.1 0.1 0.1 0.1 0.1 0.1 0.1 
0.1 0.1 0.1 0.1 0.1 0.1 0.1 0.1 0.1 
0.1 0.1 0.1 0.1 0.1 0.1 0.1 0.1 0.1 
0.1 0.1 0.1 0.1 0.1 0.1 0.1 0.1 0.1 
0.1 0.1 0.1 0.1 0.1 0.1 0.1 0.1 0.1 
0.1 0.1 0.1 0.1 0.1 0.1 0.1 0.1 0.1 
0.1 0.1 0.1 0.1 0.1 0.1 0.1 0.1 0.1 
0.1 0.1 0.1 0.1 0.1 0.1 0.1 0.1 0.1 
0.1 0.1 0.1 0.1 0.1 0.1 0.1 0.1 0.1 
0.1 0.1 0.1 0.1 0.1 0.1 0.1 0.1 0.1 
0.1 0.1 0.1 0.1 0.1 0.1 0.1 0.1 0.1 
0.1 0.1 0.1 0.1 0.1 0.1 0.1 0.1 0.1 
0.1 0.1 0.1 0.1 0.1 0.1 0.1 0.1 0.1 
0.1 0.1 0.1 0.1 0.1 0.1 0.1 0.1 0.1 
0.1 0.1 0.1 0.1 0.1 0.1 0.1 0.1 0.1 
0.1 0.1 0.1 0.1 0.1 0.1 0.1 0.1 0.1 
0.1 0.1 0.1 0.1 0.1 0.1 0.1 0.1 0.1 
0.1 0.1 0.1 0.1 0.1 0.1 0.1 0.1 0.1 
0.1 0.1 0.1 0.1 0.1 0.1 0.1 0.1 0.1 
0.1 0.1 0.1 0.1 0.1 0.1 0.1 0.1 0.1 
0.1 0.1 0.1 0.1 0.1 0.1 0.1 0.1 0.1 
0.1 0.1 0.1 0.1 0.1 0.1 0.1 0.1 0.1 
0.1 0.1 0.1 0.1 0.1 0.1 0.1 0.1 0.1 
0.1 0.1 0.1 0.1 0.1 0.1 0.1 0.1 0.1 
0.1 0.1 0.1 0.1 0.1 
a 3 1049 double
0 0 0 0 0 0 0 0 0 
0 0 0 0 0 0 0 0 0 
0 0 0 0 0 0 0 0 0 
0 0 0 0 0 0 0 0 0 
0 0 0 0 0 0 0 0 0 
0 0 0 0 0 0 0 0 0 
0 0 0 0 0 0 0 0 0 
0 0 0 0 0 0 0 0 0 
0 0 0 0 0 0 0 0 0 
0 0 0 0 0 0 0 0 0 
0 0 0 0 0 0 0 0 0 
0 0 0 0 0 0 0 0 0 
0 0 0 0 0 0 0 0 0 
0 0 0 0 0 0 0 0 0 
0 0 0 0 0 0 0 0 0 
0 0 0 0 0 0 0 0 0 
0 0 0 0 0 0 0 0 0 
0 0 0 0 0 0 0 0 0 
0 0 0 0 0 0 0 0 0 
0 0 0 0 0 0 0 0 0 
0 0 0 0 0 0 0 0 0 
0 0 0 0 0 0 0 0 0 
0 0 0 0 0 0 0 0 0 
0 0 0 0 0 0 0 0 0 
0 0 0 0 0 0 0 0 0 
0 0 0 0 0 0 0 0 0 
0 0 0 0 0 0 0 0 0 
0 0 0 0 0 0 0 0 0 
0 0 0 0 0 0 0 0 0 
0 0 0 0 0 0 0 0 0 
0 0 0 0 0 0 0 0 0 
0 0 0 0 0 0 0 0 0 
0 0 0 0 0 0 0 0 0 
0 0 0 0 0 0 0 0 0 
0 0 0 0 0 0 0 0 0 
0 0 0 0 0 0 0 0 0 
0 0 0 0 0 0 0 0 0 
0 0 0 0 0 0 0 0 0 
0 0 0 0 0 0 0 0 0 
0 0 0 0 0 0 0 0 0 
0 0 0 0 0 0 0 0 0 
0 0 0 0 0 0 0 0 0 
0 0 0 0 0 0 0 0 0 
0 0 0 0 0 0 0 0 0 
0 0 0 0 0 0 0 0 0 
0 0 0 0 0 0 0 0 0 
0 0 0 0 0 0 0 0 0 
0 0 0 0 0 0 0 0 0 
0 0 0 0 0 0 0 0 0 
0 0 0 0 0 0 0 0 0 
0 0 0 0 0 0 0 0 0 
0 0 0 0 0 0 0 0 0 
0 0 0 0 0 0 0 0 0 
0 0 0 0 0 0 0 0 0 
0 0 0 0 0 0 0 0 0 
0 0 0 0 0 0 0 0 0 
0 0 0 0 0 0 0 0 0 
0 0 0 0 0 0 0 0 0 
0 0 0 0 0 0 0 0 0 
0 0 0 0 0 0 0 0 0 
0 0 0 0 0 0 0 0 0 
0 0 0 0 0 0 0 0 0 
0 0 0 0 0 0 0 0 0 
0 0 0 0 0 0 0 0 0 
0 0 0 0 0 0 0 0 0 
0 0 0 0 0 0 0 0 0 
0 0 0 0 0 0 0 0 0 
0 0 0 0 0 0 0 0 0 
0 0 0 0 0 0 0 0 0 
0 0 0 0 0 0 0 0 0 
0 0 0 0 0 0 0 0 0 
0 0 0 0 0 0 0 0 0 
0 0 0 0 0 0 0 0 0 
0 0 0 0 0 0 0 0 0 
0 0 0 0 0 0 0 0 0 
0 0 0 0 0 0 0 0 0 
0 0 0 0 0 0 0 0 0 
0 0 0 0 0 0 0 0 0 
0 0 0 0 0 0 0 0 0 
0 0 0 0 0 0 0 0 0 
0 0 0 0 0 0 0 0 0 
0 0 0 0 0 0 0 0 0 
0 0 0 0 0 0 0 0 0 
0 0 0 0 0 0 0 0 0 
0 0 0 0 0 0 0 0 0 
0 0 0 0 0 0 0 0 0 
0 0 0 0 0 0 0 0 0 
0 0 0 0 0 0 0 0 0 
0 0 0 0 0 0 0 0 0 
0 0 0 0 0 0 0 0 0 
0 0 0 0 0 0 0 0 0 
0 0 0 0 0 0 0 0 0 
0 0 0 0 0 0 0 0 0 
0 0 0 0 0 0 0 0 0 
0 0 0 0 0 0 0 0 0 
0 0 0 0 0 0 0 0 0 
0 0 0 0 0 0 0 0 0 
0 0 0 0 0 0 0 0 0 
0 0 0 0 0 0 0 0 0 
0 0 0 0 0 0 0 0 0 
0 0 0 0 0 0 0 0 0 
0 0 0 0 0 0 0 0 0 
0 0 0 0 0 0 0 0 0 
0 0 0 0 0 0 0 0 0 
0 0 0 0 0 0 0 0 0 
0 0 0 0 0 0 0 0 0 
0 0 0 0 0 0 0 0 0 
0 0 0 0 0 0 0 0 0 
0 0 0 0 0 0 0 0 0 
0 0 0 0 0 0 0 0 0 
0 0 0 0 0 0 0 0 0 
0 0 0 0 0 0 0 0 0 
0 0 0 0 0 0 0 0 0 
0 0 0 0 0 0 0 0 0 
0 0 0 0 0 0 0 0 0 
0 0 0 0 0 0 0 0 0 
0 0 0 0 0 0 0 0 0 
0 0 0 0 0 0 0 0 0 
0 0 0 0 0 0 0 0 0 
0 0 0 0 0 0 0 0 0 
0 0 0 0 0 0 0 0 0 
0 0 0 0 0 0 0 0 0 
0 0 0 0 0 0 0 0 0 
0 0 0 0 0 0 0 0 0 
0 0 0 0 0 0 0 0 0 
0 0 0 0 0 0 0 0 0 
0 0 0 0 0 0 0 0 0 
0 0 0 0 0 0 0 0 0 
0 0 0 0 0 0 0 0 0 
0 0 0 0 0 0 0 0 0 
0 0 0 0 0 0 0 0 0 
0 0 0 0 0 0 0 0 0 
0 0 0 0 0 0 0 0 0 
0 0 0 0 0 0 0 0 0 
0 0 0 0 0 0 0 0 0 
0 0 0 0 0 0 0 0 0 
0 0 0 0 0 0 0 0 0 
0 0 0 0 0 0 0 0 0 
0 0 0 0 0 0 0 0 0 
0 0 0 0 0 0 0 0 0 
0 0 0 0 0 0 0 0 0 
0 0 0 0 0 0 0 0 0 
0 0 0 0 0 0 0 0 0 
0 0 0 0 0 0 0 0 0 
0 0 0 0 0 0 0 0 0 
0 0 0 0 0 0 0 0 0 
0 0 0 0 0 0 0 0 0 
0 0 0 0 0 0 0 0 0 
0 0 0 0 0 0 0 0 0 
0 0 0 0 0 0 0 0 0 
0 0 0 0 0 0 0 0 0 
0 0 0 0 0 0 0 0 0 
0 0 0 0 0 0 0 0 0 
0 0 0 0 0 0 0 0 0 
0 0 0 0 0 0 0 0 0 
0 0 0 0 0 0 0 0 0 
0 0 0 0 0 0 0 0 0 
0 0 0 0 0 0 0 0 0 
0 0 0 0 0 0 0 0 0 
0 0 0 0 0 0 0 0 0 
0 0 0 0 0 0 0 0 0 
0 0 0 0 0 0 0 0 0 
0 0 0 0 0 0 0 0 0 
0 0 0 0 0 0 0 0 0 
0 0 0 0 0 0 0 0 0 
0 0 0 0 0 0 0 0 0 
0 0 0 0 0 0 0 0 0 
0 0 0 0 0 0 0 0 0 
0 0 0 0 0 0 0 0 0 
0 0 0 0 0 0 0 0 0 
0 0 0 0 0 0 0 0 0 
0 0 0 0 0 0 0 0 0 
0 0 0 0 0 0 0 0 0 
0 0 0 0 0 0 0 0 0 
0 0 0 0 0 0 0 0 0 
0 0 0 0 0 0 0 0 0 
0 0 0 0 0 0 0 0 0 
0 0 0 0 0 0 0 0 0 
0 0 0 0 0 0 0 0 0 
0 0 0 0 0 0 0 0 0 
0 0 0 0 0 0 0 0 0 
0 0 0 0 0 0 0 0 0 
0 0 0 0 0 0 0 0 0 
0 0 0 0 0 0 0 0 0 
0 0 0 0 0 0 0 0 0 
0 0 0 0 0 0 0 0 0 
0 0 0 0 0 0 0 0 0 
0 0 0 0 0 0 0 0 0 
0 0 0 0 0 0 0 0 0 
0 0 0 0 0 0 0 0 0 
0 0 0 0 0 0 0 0 0 
0 0 0 0 0 0 0 0 0 
0 0 0 0 0 0 0 0 0 
0 0 0 0 0 0 0 0 0 
0 0 0 0 0 0 0 0 0 
0 0 0 0 0 0 0 0 0 
0 0 0 0 0 0 0 0 0 
0 0 0 0 0 0 0 0 0 
0 0 0 0 0 0 0 0 0 
0 0 0 0 0 0 0 0 0 
0 0 0 0 0 0 0 0 0 
0 0 0 0 0 0 0 0 0 
0 0 0 0 0 0 0 0 0 
0 0 0 0 0 0 0 0 0 
0 0 0 0 0 0 0 0 0 
0 0 0 0 0 0 0 0 0 
0 0 0 0 0 0 0 0 0 
0 0 0 0 0 0 0 0 0 
0 0 0 0 0 0 0 0 0 
0 0 0 0 0 0 0 0 0 
0 0 0 0 0 0 0 0 0 
0 0 0 0 0 0 0 0 0 
0 0 0 0 0 0 0 0 0 
0 0 0 0 0 0 0 0 0 
0 0 0 0 0 0 0 0 0 
0 0 0 0 0 0 0 0 0 
0 0 0 0 0 0 0 0 0 
0 0 0 0 0 0 0 0 0 
0 0 0 0 0 0 0 0 0 
0 0 0 0 0 0 0 0 0 
0 0 0 0 0 0 0 0 0 
0 0 0 0 0 0 0 0 0 
0 0 0 0 0 0 0 0 0 
0 0 0 0 0 0 0 0 0 
0 0 0 0 0 0 0 0 0 
0 0 0 0 0 0 0 0 0 
0 0 0 0 0 0 0 0 0 
0 0 0 0 0 0 0 0 0 
0 0 0 0 0 0 0 0 0 
0 0 0 0 0 0 0 0 0 
0 0 0 0 0 0 0 0 0 
0 0 0 0 0 0 0 0 0 
0 0 0 0 0 0 0 0 0 
0 0 0 0 0 0 0 0 0 
0 0 0 0 0 0 0 0 0 
0 0 0 0 0 0 0 0 0 
0 0 0 0 0 0 0 0 0 
0 0 0 0 0 0 0 0 0 
0 0 0 0 0 0 0 0 0 
0 0 0 0 0 0 0 0 0 
0 0 0 0 0 0 0 0 0 
0 0 0 0 0 0 0 0 0 
0 0 0 0 0 0 0 0 0 
0 0 0 0 0 0 0 0 0 
0 0 0 0 0 0 0 0 0 
0 0 0 0 0 0 0 0 0 
0 0 0 0 0 0 0 0 0 
0 0 0 0 0 0 0 0 0 
0 0 0 0 0 0 0 0 0 
0 0 0 0 0 0 0 0 0 
0 0 0 0 0 0 0 0 0 
0 0 0 0 0 0 0 0 0 
0 0 0 0 0 0 0 0 0 
0 0 0 0 0 0 0 0 0 
0 0 0 0 0 0 0 0 0 
0 0 0 0 0 0 0 0 0 
0 0 0 0 0 0 0 0 0 
0 0 0 0 0 0 0 0 0 
0 0 0 0 0 0 0 0 0 
0 0 0 0 0 0 0 0 0 
0 0 0 0 0 0 0 0 0 
0 0 0 0 0 0 0 0 0 
0 0 0 0 0 0 0 0 0 
0 0 0 0 0 0 0 0 0 
0 0 0 0 0 0 0 0 0 
0 0 0 0 0 0 0 0 0 
0 0 0 0 0 0 0 0 0 
0 0 0 0 0 0 0 0 0 
0 0 0 0 0 0 0 0 0 
0 0 0 0 0 0 0 0 0 
0 0 0 0 0 0 0 0 0 
0 0 0 0 0 0 0 0 0 
0 0 0 0 0 0 0 0 0 
0 0 0 0 0 0 0 0 0 
0 0 0 0 0 0 0 0 0 
0 0 0 0 0 0 0 0 0 
0 0 0 0 0 0 0 0 0 
0 0 0 0 0 0 0 0 0 
0 0 0 0 0 0 0 0 0 
0 0 0 0 0 0 0 0 0 
0 0 0 0 0 0 0 0 0 
0 0 0 0 0 0 0 0 0 
0 0 0 0 0 0 0 0 0 
0 0 0 0 0 0 0 0 0 
0 0 0 0 0 0 0 0 0 
0 0 0 0 0 0 0 0 0 
0 0 0 0 0 0 0 0 0 
0 0 0 0 0 0 0 0 0 
0 0 0 0 0 0 0 0 0 
0 0 0 0 0 0 0 0 0 
0 0 0 0 0 0 0 0 0 
0 0 0 0 0 0 0 0 0 
0 0 0 0 0 0 0 0 0 
0 0 0 0 0 0 0 0 0 
0 0 0 0 0 0 0 0 0 
0 0 0 0 0 0 0 0 0 
0 0 0 0 0 0 0 0 0 
0 0 0 0 0 0 0 0 0 
0 0 0 0 0 0 0 0 0 
0 0 0 0 0 0 0 0 0 
0 0 0 0 0 0 0 0 0 
0 0 0 0 0 0 0 0 0 
0 0 0 0 0 0 0 0 0 
0 0 0 0 0 0 0 0 0 
0 0 0 0 0 0 0 0 0 
0 0 0 0 0 0 0 0 0 
0 0 0 0 0 0 0 0 0 
0 0 0 0 0 0 0 0 0 
0 0 0 0 0 0 0 0 0 
0 0 0 0 0 0 0 0 0 
0 0 0 0 0 0 0 0 0 
0 0 0 0 0 0 0 0 0 
0 0 0 0 0 0 0 0 0 
0 0 0 0 0 0 0 0 0 
0 0 0 0 0 0 0 0 0 
0 0 0 0 0 0 0 0 0 
0 0 0 0 0 0 0 0 0 
0 0 0 0 0 0 0 0 0 
0 0 0 0 0 0 0 0 0 
0 0 0 0 0 0 0 0 0 
0 0 0 0 0 0 0 0 0 
0 0 0 0 0 0 0 0 0 
0 0 0 0 0 0 0 0 0 
0 0 0 0 0 0 0 0 0 
0 0 0 0 0 0 0 0 0 
0 0 0 0 0 0 0 0 0 
0 0 0 0 0 0 0 0 0 
0 0 0 0 0 0 0 0 0 
0 0 0 0 0 0 0 0 0 
0 0 0 0 0 0 0 0 0 
0 0 0 0 0 0 0 0 0 
0 0 0 0 0 0 0 0 0 
0 0 0 0 0 0 0 0 0 
0 0 0 0 0 0 0 0 0 
0 0 0 0 0 0 0 0 0 
0 0 0 0 0 0 0 0 0 
0 0 0 0 0 0 0 0 0 
0 0 0 0 0 0 0 0 0 
0 0 0 0 0 0 0 0 0 
0 0 0 0 0 0 0 0 0 
0 0 0 0 0 0 0 0 0 
0 0 0 0 0 0 0 0 0 
0 0 0 0 0 0 0 0 0 
0 0 0 0 0 0 0 0 0 
0 0 0 0 0 0 0 0 0 
0 0 0 0 0 0 0 0 0 
0 0 0 0 0 0 0 0 0 
0 0 0 0 0 0 0 0 0 
0 0 0 0 0 0 0 0 0 
0 0 0 0 0 0 
v 3 1049 double
0.0952319 -0.148483 0 0.0896018 -0.112118 0 0.066167 0.00622205 0 
0.00486143 -0.199695 0 0.0941962 -0.146506 0 0.015614 -0.23912 0 
-0.127032 -0.159889 0 0.038916 0.313966 0 0.0412767 -0.209302 0 
0.245039 -0.587357 0 -0.106376 -0.0893673 0 0.121049 -0.117499 0 
0.0914897 -0.0386648 0 0.0318936 -0.0458629 0 0.0155736 -0.0718113 0 
-0.0840925 -0.166827 0 0.180934 -0.08651 0 0.187932 -0.305855 0 
0.239602 -0.787902 0 0.100872 -0.191712 0 0.245767 -0.0412034 0 
0.0528411 -0.141764 0 -0.107635 0.776548 0 -0.118136 -0.239852 0 
-0.0653192 -0.136778 0 0.00661005 -0.00586951 0 -0.113413 -0.0318537 0 
-0.0563344 -0.244373 0 0.762562 -0.537839 0 0.724312 -0.599945 0 
0.859308 -0.702825 0 0.0573709 -0.439347 0 0.434076 -0.0421128 0 
0.935777 -0.702112 0 0.380355 -0.202499 0 0.293229 -0.190453 0 
0.366999 -0.181998 0 0.142965 0.237735 0 0.00513101 -0.13311 0 
0.0961472 0.245189 0 -0.72178 -0.615666 0 -0.977914 -0.849843 0 
0.903548 -0.704809 0 0.904524 -0.656087 0 0.952403 -0.719421 0 
-0.725957 -0.743857 0 -0.560924 -0.442826 0 -0.853611 -0.666757 0 
-0.731468 -0.520092 0 0.786922 -0.648668 0 0.797238 -0.579721 0 
0.956544 -0.876503 0 -0.8455 -0.696829 0 -0.70359 -0.566067 0 
-0.603384 -0.629005 0 0.825569 -0.666743 0 0.843371 -0.611154 0 
0.908432 -0.723859 0 -0.858334 -0.634498 0 -0.850664 -0.696788 0 
-0.959298 -0.66647 0 -0.930169 -0.73577 0 -0.829408 -0.714528 0 
-0.64559 -0.51058 0 0.858432 -0.699327 0 0.888893 -0.695277 0 
-0.830724 -0.693165 0 -0.620888 -0.462917 0 -0.66548 -0.574045 0 
0.530175 -0.431824 0 0.691569 -0.684132 0 0.740282 -0.568805 0 
-0.784722 -0.450054 0 -0.703342 -0.572516 0 -0.773148 -0.727577 0 
-0.653438 -0.5811 0 -0.768907 -0.575478 0 -0.5788 -0.537795 0 
-0.7525 -0.637386 0 0.645466 -0.637553 0 0.681402 -0.589766 0 
0.762929 -0.601698 0 0.821776 -0.614363 0 -1.00747 -0.750501 0 
-0.9418 -0.664098 0 -0.92959 -0.780034 0 -0.709274 -0.602539 0 
-0.66333 -0.595527 0 0.744561 -0.449278 0 0.774104 -0.626702 0 
-0.943479 -0.719659 0 -0.932076 -0.723016 0 -0.929753 -0.604907 0 
-0.908595 -0.832186 0 0.759568 -0.591251 0 0.636044 -0.663866 0 
0.445681 -0.737073 0 -0.54822 -0.901014 0 -0.841137 -0.718984 0 
0 0 0 0 0 0 0 0 0 
0 0 0 0 0 0 0 0 0 
0 0 0 0 0 0 0 0 0 
0 0 0 0 0 0 0 0 0 
0 0 0 0 0 0 0 0 0 
0 0 0 0 0 0 0 0 0 
0 0 0 0 0 0 0 0 0 
0 0 0 0 0 0 0 0 0 
0 0 0 0 0 0 0 0 0 
0 0 0 0 0 0 0 0 0 
0 0 0 0 0 0 0 0 0 
0 0 0 0 0 0 0 0 0 
0 0 0 0 0 0 0 0 0 
0 0 0 0 0 0 0 0 0 
0 0 0 0 0 0 0 0 0 
0 0 0 0 0 0 0 0 0 
0 0 0 0 0 0 0 0 0 
0 0 0 0 0 0 0 0 0 
0 0 0 0 0 0 0 0 0 
0 0 0 0 0 0 0 0 0 
0 0 0 0 0 0 0 0 0 
0 0 0 0 0 0 0 0 0 
0 0 0 0 0 0 0 0 0 
0 0 0 0 0 0 0 0 0 
0 0 0 0 0 0 0 0 0 
0 0 0 0 0 0 0 0 0 
0 0 0 0 0 0 0 0 0 
0 0 0 0 0 0 0 0 0 
0 0 0 0 0 0 0 0 0 
0 0 0 0 0 0 0 0 0 
0 0 0 0 0 0 0 0 0 
0 0 0 0 0 0 0 0 0 
0 0 0 0 0 0 0 0 0 
0 0 0 0 0 0 0 0 0 
0 0 0 0 0 0 0 0 0 
0 0 0 0 0 0 0 0 0 
0 0 0 0 0 0 0 0 0 
0 0 0 0 0 0 0 0 0 
0 0 0 0 0 0 0 0 0 
0 0 0 0 0 0 0 0 0 
0 0 0 0 0 0 0 0 0 
0 0 0 0 0 0 0 0 0 
0 0 0 0 0 0 0 0 0 
0 0 0 0 0 0 0 0 0 
0 0 0 0 0 0 0 0 0 
0 0 0 0 0 0 0 0 0 
0 0 0 0 0 0 0 0 0 
0 0 0 0 0 0 0 0 0 
0 0 0 0 0 0 0 0 0 
0 0 0 0 0 0 0 0 0 
0 0 0 0.0558513 -0.577092 0 0 0 0 
0.39403 -0.576451 0 0 0 0 0 0 0 
0 0 0 0.154658 0.0260741 0 0 0 0 
0 0 0 0.12705 -0.512431 0 0.053553 -0.520058 0 
0 0 0 0 0 0 0 0 0 
0 0 0 0 0 0 0 0 0 
0 0 0 0 0 0 0 0 0 
0 0 0 0 0 0 0 0 0 
0 0 0 0 0 0 0 0 0 
0 0 0 0 0 0 0 0 0 
0 0 0 0 0 0 0 0 0 
0 0 0 0 0 0 0 0 0 
0 0 0 0 0 0 0 0 0 
0 0 0 0 0 0 0 0 0 
0 0 0 0 0 0 0 0 0 
0 0 0 0 0 0 0 0 0 
0 0 0 0 0 0 0 0 0 
0 0 0 0 0 0 -0.0140892 -0.639926 0 
0.130071 -0.639867 0 -0.222237 -0.797286 0 0 0 0 
0 0 0 0 0 0 0 0 0 
0 0 0 0 0 0 0 0 0 
0 0 0 0 0 0 0 0 0 
0 0 0 0 0 0 0 0 0 
0 0 0 0 0 0 0 0 0 
0 0 0 0 0 0 0 0 0 
0 0 0 0 0 0 0 0 0 
0 0 0 0 0 0 0 0 0 
0 0 0 0 0 0 0 0 0 
0 0 0 0 0 0 0.223877 -0.703017 0 
-0.176546 -0.809032 0 -0.133144 -0.919206 0 0 0 0 
0 0 0 0 0 0 0 0 0 
0 0 0 0 0 0 0 0 0 
0 0 0 0 0 0 0 0 0 
0 0 0 0 0 0 0 0 0 
0 0 0 0 0 0 0 0 0 
0 0 0 0 0 0 0 0 0 
0 0 0 0 0 0 0 0 0 
0 0 0 0 0 0 0 0 0 
0 0 0 0 0 0 0 0 0 
0 0 0 0 0 0 0.250198 -0.849873 0 
0.190941 -0.636337 0 0 0 0 0 0 0 
0 0 0 0 0 0 0 0 0 
0 0 0 0 0 0 0 0 0 
0 0 0 0 0 0 -0.248545 -0.774182 0 
0 0 0 0 0 0 0 0 0 
0 0 0 0 0 0 0 0 0 
0 0 0 0 0 0 0 0 0 
0 0 0 0 0 0 0 0 0 
0 0 0 0 0 0 0 0 0 
0 0 0 0 0 0 0 0 0 
0 0 0 0 0 0 0.231918 -0.816828 0 
0 0 0 0 0 0 0 0 0 
0 0 0 0 0 0 0 0 0 
0 0 0 0 0 0 0 0 0 
0 0 0 -0.219381 -0.792868 0 0 0 0 
0 0 0 0 0 0 0 0 0 
0 0 0 0 0 0 0 0 0 
0 0 0 0 0 0 0 0 0 
0 0 0 0 0 0 0 0 0 
0 0 0 0 0 0 0 0 0 
0 0 0 0 0 0 0 0 0 
0 0 0 0 0 0 0 0 0 
0 0 0 0 0 0 0 0 0 
0 0 0 0 0 0 0 0 0 
0 0 0 0 0 0 -0.24054 -0.793652 0 
0 0 0 0 0 0 0 0 0 
0 0 0 0 0 0 0 0 0 
0 0 0 0 0 0 0 0 0 
0 0 0 0 0 0 0 0 0 
0 0 0 0 0 0 0 0 0 
0 0 0 0 0 0 0 0 0 
0 0 0 0 0 0 -0.111397 -0.735681 0 
0 0 0 0 0 0 0 0 0 
0 0 0 0 0 0 0 0 0 
0 0 0 0 0 0 0 0 0 
0 0 0 0 0 0 0 0 0 
0 0 0 0 0 0 0 0 0 
0 0 0 0 0 0 0 0 0 
0 0 0 0 0 0 0 0 0 
0 0 0 0 0 0 0 0 0 
0 0 0 0 0 0 0 0 0 
0 0 0 0 0 0 0 0 0 
-0.10619 -0.700733 0 0 0 0 0 0 0 
0 0 0 0 0 0 0 0 0 
0 0 0 0 0 0 0 0 0 
0 0 0 0 0 0 0 0 0 
0 0 0 0 0 0 0 0 0 
0 0 0 0 0 0 0 0 0 
0 0 0 0 0 0 0 0 0 
0 0 0 0 0 0 0 0 0 
0 0 0 0 0 0 0 0 0 
0 0 0 0 0 0 0 0 0 
0 0 0 0 0 0 0 0 0 
0 0 0 0 0 0 0 0 0 
0 0 0 0 0 0 0 0 0 
0 0 0 0 0 0 0 0 0 
0 0 0 0 0 0 0 0 0 
0 0 0 0 0 0 0 0 0 
0 0 0 0 0 0 0 0 0 
0 0 0 0 0 0 0 0 0 
0 0 0 0 0 0 0 0 0 
0 0 0 0 0 0 0 0 0 
0 0 0 0 0 0 0 0 0 
0 0 0 0 0 0 0 0 0 
0 0 0 0 0 0 0 0 0 
0 0 0 0 0 0 0 0 0 
0 0 0 0 0 0 0 0 0 
0 0 0 0 0 0 0 0 0 
0 0 0 0 0 0 0 0 0 
0 0 0 0 0 0 0 0 0 
0 0 0 0 0 0 0 0 0 
0 0 0 0 0 0 0 0 0 
0 0 0 0 0 0 0 0 0 
0 0 0 0 0 0 0 0 0 
0 0 0 0 0 0 0 0 0 
0 0 0 0 0 0 0 0 0 
0 0 0 0 0 0 0 0 0 
0 0 0 0 0 0 0 0 0 
0 0 0 0 0 0 -0.0926438 -0.717266 0 
0 0 0 0 0 0 0 0 0 
0 0 0 0 0 0 0 0 0 
0 0 0 0 0 0 0 0 0 
0 0 0 0 0 0 0 0 0 
0 0 0 0 0 0 0 0 0 
0 0 0 0 0 0 0 0 0 
0 0 0 0 0 0 0 0 0 
0 0 0 0 0 0 0 0 0 
0 0 0 0 0 0 0 0 0 
0 0 0 0 0 0 0 0 0 
0 0 0 0 0 0 0 0 0 
0 0 0 0 0 0 0 0 0 
0 0 0 0 0 0 0 0 0 
0 0 0 0 0 0 0 0 0 
0 0 0 0 0 0 0 0 0 
0 0 0 0 0 0 0 0 0 
0 0 0 0 0 0 0 0 0 
0 0 0 0 0 0 0 0 0 
0 0 0 0 0 0 0 0 0 
0 0 0 0 0 0 0 0 0 
0 0 0 0 0 0 0 0 0 
0 0 0 0 0 0 0 0 0 
0 0 0 0 0 0 0 0 0 
0 0 0 0 0 0 0 0 0 
0 0 0 0 0 0 0 0 0 
0 0 0 0 0 0 0 0 0 
0 0 0 0 0 0 0 0 0 
0 0 0 0 0 0 0 0 0 
0 0 0 0 0 0 0 0 0 
0 0 0 0 0 0 0 0 0 
0 0 0 0 0 0 0 0 0 
0 0 0 0 0 0 0 0 0 
0 0 0 0 0 0 0 0 0 
0 0 0 0 0 0 0 0 0 
0 0 0 0 0 0 0 0 0 
0 0 0 0 0 0 0 0 0 
0 0 0 0 0 0 0 0 0 
0 0 0 0 0 0 0 0 0 
0 0 0 0 0 0 0 0 0 
0 0 0 0 0 0 0 0 0 
0 0 0 0 0 0 0 0 0 
0 0 0 0 0 0 0 0 0 
0 0 0 0 0 0 0 0 0 
0 0 0 0 0 0 0 0 0 
0 0 0 0 0 0 0 0 0 
0 0 0 0 0 0 0 0 0 
0 0 0 0 0 0 0 0 0 
0 0 0 0 0 0 0 0 0 
0 0 0 0 0 0 0 0 0 
0 0 0 0 0 0 0 0 0 
0 0 0 0 0 0 0 0 0 
0 0 0 0 0 0 0 0 0 
0 0 0 0 0 0 0.49246 -0.461056 0 
0 0 0 0 0 0 0 0 0 
0 0 0 0 0 0 0 0 0 
0 0 0 0 0 0 0 0 0 
0 0 0 0 0 0 0 0 0 
0 0 0 0 0 0 0 0 0 
0 0 0 0 0 0 0 0 0 
0 0 0 0 0 0 0 0 0 
0 0 0 0 0 0 0 0 0 
0 0 0 0 0 0 0 0 0 
0 0 0 0 0 0 0 0 0 
0 0 0 0 0 0 0 0 0 
0 0 0 0 0 0 0 0 0 
0 0 0 0 0 0 0 0 0 
0 0 0 0 0 0 0 0 0 
0 0 0 0 0 0 0 0 0 
0 0 0 0 0 0 0 0 0 
0 0 0 0 0 0 0 0 0 
0 0 0 0 0 0 0 0 0 
0 0 0 0 0 0 0 0 0 
0 0 0 0 0 0 0 0 0 
0 0 0 0 0 0 0 0 0 
0 0 0 0 0 0 0 0 0 
0 0 0 0 0 0 0 0 0 
0 0 0 0 0 0 0 0 0 
0 0 0 0 0 0 0 0 0 
0 0 0 0 0 0 0 0 0 
0 0 0 0 0 0 0 0 0 
0 0 0 0 0 0 0 0 0 
0 0 0 0 0 0 0 0 0 
0 0 0 0 0 0 0 0 0 
0 0 0 0 0 0 0 0 0 
0 0 0 0 0 0 0 0 0 
0 0 0 0 0 0 0 0 0 
0 0 0 0 0 0 0 0 0 
0 0 0 0 0 0 0 0 0 
0 0 0 0 0 0 0 0 0 
0 0 0 0 0 0 0 0 0 
0 0 0 0 0 0 0 0 0 
0 0 0 0 0 0 0 0 0 
0 0 0 0 0 0 0 0 0 
0 0 0 0 0 0 0 0 0 
0 0 0 0 0 0 0 0 0 
0 0 0 0 0 0 0 0 0 
0 0 0 0 0 0 0 0 0 
0 0 0 0 0 0 0 0 0 
0 0 0 0 0 0 0 0 0 
0 0 0 0 0 0 0 0 0 
0 0 0 0 0 0 0 0 0 
0 0 0 0 0 0 0 0 0 
0 0 0 0 0 0 0 0 0 
0 0 0 0 0 0 0 0 0 
0 0 0 0 0 0 0 0 0 
0 0 0 0 0 0 0 0 0 
0 0 0 0 0 0 0 0 0 
0 0 0 0 0 0 0 0 0 
0 0 0 0 0 0 0 0 0 
0 0 0 0 0 0 0 0 0 
0 0 0 0 0 0 0 0 0 
0 0 0 0 0 0 0 0 0 
0 0 0 0 0 0 0 0 0 
0 0 0 0 0 0 0 0 0 
0 0 0 0 0 0 0 0 0 
0 0 0 0 0 0 0 0 0 
0 0 0 0 0 0 0 0 0 
0 0 0 0 0 0 0 0 0 
0 0 0 0 0 0 0 0 0 
0 0 0 0 0 0 0 0 0 
0 0 0 0 0 0 0 0 0 
0 0 0 0 0 0 0 0 0 
0 0 0 0 0 0 0 0 0 
0 0 0 0 0 0 0 0 0 
0 0 0 0 0 0 0 0 0 
0 0 0 0 0 0 0 0 0 
0 0 0 0 0 0 0 0 0 
0 0 0 0 0 0 0 0 0 
0 0 0 0 0 0 0 0 0 
0 0 0 0 0 0 0 0 0 
0 0 0 0 0 0 0 0 0 
0 0 0 0 0 0 0 0 0 
0 0 0 0 0 0 0 0 0 
0 0 0 0 0 0 0 0 0 
0 0 0 0 0 0 0 0 0 
0 0 0 0 0 0 0 0 0 
0 0 0 0 0 0 0 0 0 
0 0 0 0 0 0 0 0 0 
0 0 0 0 0 0 0 0 0 
0 0 0 0 0 0 0 0 0 
0 0 0 0 0 0 0 0 0 
0 0 0 0 0 0 0 0 0 
0 0 0 0 0 0 0 0 0 
0 0 0 0 0 0 0 0 0 
0 0 0 0 0 0 0 0 0 
0 0 0 0 0 0 0 0 0 
0 0 0 0 0 0 0 0 0 
0 0 0 0 0 0 
x 1 1049 double
-0.447742 0.708351 0.107604 -1.49042 -0.311491 -0.875571 -0.417362 -0.223043 -0.866736 
0.0547408 0.454614 0.486704 0.952867 1.46897 1.08599 -1.16634 -1.26349 -1.84492 
-0.255747 -0.599358 -0.196179 -0.713652 0.0467051 0.162908 0.559553 0.587956 0.973169 
1.43061 -3.11972 -2.44189 -2.03433 -1.63302 -1.24399 -1.43146 -0.930209 -0.300454 
-0.706306 0.162529 0.954814 0.317281 1.71229 2.30818 -3.43768 -2.72593 -2.26921 
2.20945 3.58598 3.31541 4.44936 -5.48381 -4.80725 -3.79382 3.818 4.97135 
5.31728 -6.35329 -5.82497 -5.05645 4.8595 4.55118 5.23626 5.76551 5.4043 
6.21116 -6.75803 -5.92587 6.34658 7.62159 8.27686 -9.53452 -8.55396 -7.99729 
7.54197 7.41723 8.14644 8.56113 8.7059 9.55092 9.22321 -10.6071 -10.2413 
-9.44967 -8.76083 8.05843 8.7003 9.24047 9.80595 10.6784 -10.1134 -10.7375 
9.51957 10.0859 10.6266 11.1962 -11.0772 -11.7535 -11.8696 11.8872 11.3657 
-14.4643 -15 -15 -15 -15 -14.8214 -15 -14.1071 -14.2857 
-14.6429 -13.5714 -13.9286 -13.2143 -13.3929 -13.75 -13.0357 -12.6786 -12.8571 
-12.5 -11.3214 -11.5 -11.1429 -10.9643 -10.7857 -10.6071 -10.0714 -10.4286 
-10.25 -9.7143 -9.8929 -9.1786 -9.3571 -9.5357 -9 -8.6 -8.4 
-9 -9 -8.2 -8.8 -9 -9 -7.2 -8 -7.4 
-7.8 -7.6 -6.2 -6.4 -6.8 -6.6 -7 -5.2 -5.4 
-5.6 -5.8 -6 -4.6 -5 -4.4 -4.8 -4.2 -3.2 
-4 -3.6 -3.8 -3.4 -3 -3 -2.2 -2.4 -2.8 
-3 -2.6 -3 -3 -1.2 -1.8 -1.4 -1.6 -2 
-0.8 -1 -0.4 -0.2 -0.6 0.6 0.4 0.8 0.2 
-0 1.8 1.4 1.2 1 1.6 2.4 2 2.6 
2.8 2.2 3.6 3.2 3 3.4 3 3 3.8 
3 3 4.6 4.2 4 4.4 4.8 5 5.4 
5.8 5.2 5.6 6.8 6 6.6 6.4 6.2 7.8 
7.2 7.4 7.6 7 8 8.6 8.4 8.2 8.8 
9 9 9.7143 9 9.1786 9 9.3571 9.5357 9.8929 
9 10.9643 10.25 10.0714 10.4286 10.6071 10.7857 11.5015 11.5 
11.7033 11.1429 11.3214 12.6786 12.6357 12.5 12.8571 12.07 12.2867 
13.75 13.0357 13.3929 13.5714 13.2143 13.9286 14.6429 14.1071 14.4643 
14.2857 14.8214 15 15 15 15 15 -15 -15 
-15 -15 -15 -9 -9 -9 -9 -9 -3 
-3 -3 -3 -3 3 3 3 3 3 
9 9 9 9 9 11.8599 12.6945 12.4772 15 
15 15 15 15 -15 -15 -15 -15 -15 
-9 -9 -9 -9 -9 -3 -3 -3 -3 
-3 3 3 3 3 3 9 9 9 
9 9 11.2437 12.34 12.4399 15 15 15 15 
15 -15 -15 -15 -15 -15 -9 -9 -9 
-9 -9 -3 -3 -3 -3 -3 3 3 
3 3 3 9 9 9 9 9 10.782 
11.3552 15 15 15 15 15 -15 -15 -15 
-15 -15 -10.6698 -9 -9 -9 -9 -9 -3 
-3 -3 -3 -3 3 3 3 3 3 
9 9 9 9 9 10.7957 15 15 15 
15 15 -15 -15 -15 -15 -15 -10.3664 -9 
-9 -9 -9 -9 -3 -3 -3 -3 -3 
3 3 3 3 3 9 9 9 9 
9 15 15 15 15 15 -15 -15 -15 
-15 -15 -10.1853 -9 -9 -9 -9 -9 -3 
-3 -3 -3 -3 3 3 3 3 3 
9 9 9 9 9 12.9258 15 15 15 
15 15 -15 -15 -15 -15 -15 -9 -9 
-9 -9 -9 -3 -3 -3 -3 -3 3 
3 3 3 3 9 9 9 9 9 
13.1332 15 15 15 15 15 -15 -15 -15 
-15 -15 -8.1071 -8.6429 -8.4643 -8.2857 -8.8214 -9 -7.2143 
-7.75 -7.3929 -7.0357 -7.9286 -7.5714 -6.8571 -6.6786 -6.5 -5.5 
-5.1429 -5.3214 -4.25 -4.6071 -4.9643 -4.7857 -4.4286 -4.0714 -3.5357 
-3.8929 -3.7143 -3.1786 -3.3571 -2.6429 -2.4643 -2.2857 -2.1071 -2.8214 
-3 -1.5714 -1.2143 -1.75 -1.3929 -1.0357 -1.9286 -0.5 -0.6786 
-0.8571 0.5 0.8571 0.6786 1.5714 1.2143 1.75 1.9286 1.3929 
1.0357 2.6429 2.2857 2.8214 2.4643 2.1071 3.7143 3 3.8929 
3.1786 3.5357 3.3571 4.9643 4.7857 4.4286 4.0714 4.25 4.6071 
5.1429 5.3214 5.5 6.5 6.6786 6.8571 7.75 7.3929 7.9286 
7.5714 7.0357 7.2143 8.8214 8.6429 8.1071 8.4643 8.2857 9 
9 15 15 15 15 15 -15 -15 -15 
-15 -15 13.4355 15 15 15 15 15 -14.3333 
-15 -14.8333 -14.6667 -15 -15 -14.1667 -15 -15 -14.5 
-14 -13 -12.8 -12.4 -12.2 -12.6 -12 -11.6 -11.8 
-11.4 -11.2 -10.4 -11 -10.6 -10.8 -10.2 -9.4 -9.8 
-9.2 -10 -9.6 -8.2857 -8.1071 -9 -8.6429 -8.4643 -9 
-9 -8.8214 -9 -9 -7.2143 -7.9286 -7.75 -7.3929 -7.5714 
-7.0357 -6.5 -6.8571 -6.6786 -5.1429 -5.3214 -5.5 -4.0714 -4.9643 
-4.6071 -4.4286 -4.7857 -4.25 -3.7143 -3.5357 -3.3571 -3.1786 -3.8929 
-2.2 -2.4 -2.8 -3 -3 -3 -3 -3 -2.6 
-1.4 -2 -1.2 -1.8 -1.6 -1 -0.4 -0.2 -0.6 
-0.8 0.2 -0 0.6 0.8 0.4 1.8 1.4 1.2 
1.6 1 2.4 2.2 2.6 2.8 2 3.6 3.4 
3.8 3 3.2 4.2 4 4.6 4.8 4.4 5.6 
5.2 5 5.8 5.4 6.8 6.2 6 6.4 6.6 
7.4 7.2 7.8 7 7.6 8.8 8.2 8.4 8 
8.6 9.2 9 9 9 9 9.8 9 9.4 
9.6 10.8 10.6 10.4 10.2 10 11.8 11 11.2 
11.4 11.6 12.8 12 12.4 12.2 12.6 13 13.3004 
14.6667 14.1667 14 14.5 14.8333 14.3333 15 15 15 
15 15 -15 -15 -15 -15 -15 -9 -9 
-9 -9 -9 -3 -3 -3 -3 -3 9 
9 9 9 9 15 15 15 15 15 
-15 -15 -15 -15 -15 -9 -9 -9 -9 
-9 -3 -3 -3 -3 -3 9 9 9 
9 9 15 15 15 15 15 -15 -15 
-15 -15 -15 -9 -9 -9 -9 -9 -3 
-3 -3 -3 -3 9 9 9 9 9 
15 15 15 15 15 -15 -15 -15 -15 
-15 -9 -9 -9 -9 -9 -3 -3 -3 
-3 -3 9 15 15 15 15 15 -15 
-15 -15 -15 -15 -9 -9 -9 -9 -9 
-3 -3 -3 -3 -3 9 9 9 9 
9 9 15 15 15 15 15 -14.2 -14.8 
-15 -14.4 -14.6 -13.2 -13.8 -14 -13.6 -13.4 -12.4 
-13 -12.6 -12.2 -12.8 -11.6 -11.8 -11.4 -11.2 -12 
-11 -10.2 -10.6 -10.4 -10.8 -10 -9.2 -9.6 -9.4 
-9.8 -8.2 -8.4 -9 -8.8 -8.6 -8 -7.4 -7.2 
-7.6 -7.8 -6.2 -6.4 -6.6 -7 -6.8 -5.8 -5.6 
-5.2 -6 -5.4 -5 -4.6 -4.2 -4.4 -4.8 -4 
-3.4 -3.8 -3.6 -3.2 -2.6 -2.2 -3 -2.8 -2.4 
-1.4 -1.6 -1.8 -1.2 -2 -1 -0.2 -0.8 -0.4 
-0.6 0.4 -0 0.6 0.8 0.2 1.4 1.6 1.2 
1.8 1 2.8 2 2.2 2.6 2.4 3.4 3 
3.8 3.2 3.6 4 4.2 4.4 4.6 4.8 5.8 
5 5.4 5.2 5.6 6.4 6.8 6.6 6.2 6 
7.4 7 7.6 7.8 7.2 8.6 8.8 8 8.4 
8.2 9 9.2 9.8 9.4 9.6 10 10.2 10.4 
10.6 10.8 11.4 11.8 11 11.6 11.2 12.4 12.8 
12.6 12.2 12 13.2 13 13.4 13.6 13.8 14.8 
14 14.2 14.4 14.6 15 
y 1 1049 double
-11.2584 -11.1388 -11.0639 -10.3648 -10.7741 -10.304 -10.4144 -10.0638 -10.8405 
-10.4919 -10.6912 -10.2335 -10.607 -10.4403 -10.0315 -9.89671 -9.43679 -9.44226 
-9.55749 -9.87792 -9.10117 -9.44946 -9.99948 -9.52509 -9.79443 -9.29078 -9.50514 
-9.38534 -8.43928 -8.58995 -8.21911 -8.61858 -8.92222 -8.1513 -8.43775 -8.5515 
-8.92509 -8.36374 -8.91383 -8.88838 -8.45792 -8.2041 -7.35952 -7.97156 -7.61063 
-7.52883 -7.70718 -7.12414 -7.02248 -6.2644 -6.32753 -6.48509 -6.6149 -6.75575 
-6.31537 -5.40321 -5.72022 -5.48703 -5.24447 -5.94576 -5.76025 -5.57294 -5.05568 
-5.97574 -4.50472 -4.8134 -4.70434 -4.76018 -4.25541 -3.14129 -3.1535 -3.26647 
-3.28377 -3.96342 -3.29319 -3.81043 -3.28436 -3.64228 -3.17849 -2.11439 -2.51279 
-2.19142 -2.62946 -2.68033 -2.52168 -2.4885 -2.81135 -2.10469 -1.40174 -1.51162 
-1.95239 -1.64434 -1.3659 -1.33017 -0.916103 -0.698567 -0.124082 -0.317514 -0.688996 
0 0.8 0 0.2 0.4 0 0.6 0 0 
0 0 0 0 0 0 0 0 0 
0 0 0 0 0 0 0 0 0 
0 0 0 0 0 0 0 0 0 
0.4 0.2 0 0 0.8 0.6 0 0 0 
0 0 0 0 0 0 0 0 0 
0 0 0 0 0 0 0 0 0 
0 0 0 0 0.6 0.2 0 0 0 
0 0 0.4 0.8 0 0 0 0 0 
0 0 0 0 0 0 0 0 0 
0 0 0 0 0 0 0 0 0 
0 0 0 0 0 0 0.2 0.8 0 
0.6 0.4 0 0 0 0 0 0 0 
0 0 0 0 0 0 0 0 0 
0 0 0 0 0 0 0 0 0 
0.4 0.8 0 0.6 0 0 0 0 0 
0.2 0 0 0 0 0 0 0.737405 0 
0.165938 0 0 0 0.398886 0 0 0.420471 0.900755 
0 0 0 0 0 0 0 0 0 
0 0 0.8 0 0.2 0.6 0.4 1.2 1.8 
1 1.6 1.4 1.6 1.4 1.8 1.2 1 1.2 
1.6 1.8 1.4 1 1.4 1.2 1.6 1.8 1 
1.8 1.4 1.2 1.6 1 1.26831 1.19486 1.74208 1.4 
1 1.8 1.6 1.2 2.4 2.2 2.8 2 2.6 
2 2.8 2.4 2.2 2.6 2.8 2 2.6 2.2 
2.4 2.6 2.4 2 2.8 2.2 2.2 2.4 2 
2.8 2.6 2.49349 2.38771 3.00186 2 2.4 2.6 2.8 
2.2 3 3.2 3.4 3.6 3.8 3.2 3 3.4 
3.6 3.8 3.6 3.2 3 3.4 3.8 3.4 3.2 
3.8 3 3.6 3.2 3.4 3.6 3.8 3 3.03884 
3.40551 3 3.6 3.2 3.8 3.4 4.8 4.2 4.4 
4.6 4 4.81487 4.4 4.8 4 4.6 4.2 4.8 
4.6 4 4.4 4.2 4.4 4 4.2 4.8 4.6 
4 4.6 4.8 4.2 4.4 4.06128 4.6 4.4 4.2 
4 4.8 5.2 5.8 5.6 5 5.4 5.29563 5.6 
5.4 5.8 5 5.2 5 5.8 5.6 5.2 5.4 
5.2 5.6 5 5.4 5.8 5 5.6 5.4 5.8 
5.2 5.8 5.6 5 5.2 5.4 6.4 6.6 6.2 
6.8 6 6.04083 6 6.8 6.4 6.2 6.6 6.4 
6.8 6 6.2 6.6 6.4 6.8 6 6.6 6.2 
6.8 6.2 6.4 6.6 6 6.11423 6.4 6.6 6 
6.2 6.8 7.2 7.4 7.8 7 7.6 7.8 7.4 
7.2 7.6 7 7.6 7.8 7.2 7 7.4 7.4 
7.2 7.8 7 7.6 7.6 7.8 7.4 7.2 7 
7.47819 7.8 7.4 7.6 7.2 7 8.6 8.2 8 
8.8 8.4 8 8 8 8 8 8 8 
8 8 8 8 8 8 8 8 8 
8 8 8 8 8 8 8 8 8 
8 8 8 8 8 8 8 8 8 
8 8 8 8 8 8 8 8 8 
8 8 8 8 8 8 8 8 8 
8 8 8 8 8 8 8 8 8 
8 8 8 8 8 8 8 8 8 
8 8 8 8 8 8 8 8 8 
8 8 8 8 8 8 8 8 8 
8 8.2 8.6 8 8.4 8.8 9.4 9.6 9.2 
9.8 9 9.41256 9.4 9 9.8 9.6 9.2 10 
10.8 10 10 10.2 10 10 10.6 10.4 10 
10 10 10 10 10 10 10 10 10 
10 10 10 10 10 10 10 10 10 
10 10 10 10 10 10.2 10 10 10.4 
10 10 10.8 10.6 10 10 10 10 10 
10 10 10 10 10 10 10 10 10 
10 10 10 10 10 10 10 10 10 
10 10 10 10 10.8 10.4 10.2 10.6 10 
10 10 10 10 10 10 10 10 10 
10 10 10 10 10 10 10 10 10 
10 10 10 10 10 10 10 10 10 
10 10 10 10 10 10 10 10 10 
10 10 10 10 10 10 10 10 10 
10 10 10 10 10 10 10 10 10 
10 10 10.2 10.6 10.8 10 10 10.4 10 
10 10 10 10 10 10 10 10 10 
10 10 10 10 10 10 10 10 10.305 
10 10 10 10 10 10 10.8 10.6 10.4 
10 10.2 11.4 11.8 11.2 11.6 11 11.4 11.6 
11 11.2 11.8 11.8 11 11.2 11.6 11.4 11.8 
11.4 11.2 11 11.6 11.4 11.2 11.8 11 11.6 
12 12.6 12.4 12.8 12.2 12 12.2 12.4 12.8 
12.6 12.8 12.6 12.2 12 12.4 12.6 12 12.2 
12.4 12.8 12.6 12 12.4 12.2 12.8 13 13.6 
13.4 13.2 13.8 13.4 13.2 13.6 13 13.8 13.2 
13.4 13 13.8 13.6 13.4 13.6 13.2 13 13.8 
13 13.4 13.8 13.2 13.6 14 14.2 14.6 14.8 
14.4 14.4 14.2 14 14.8 14.6 14.6 14.8 14.2 
14 14.4 14 14.6 14 14.8 14.4 14.2 15 
15.4 15.8 15.2 15.6 15.4 15.2 15 15.8 15.6 
15.2 15.8 15.4 15 15.6 15.1667 15.3333 15 15.6667 
15.5 15.8333 15.8 15 15.6 15.4 15.2 16 16 
16 16 16 16 16 16 16 16 16 
16 16 16 16 16 16 16 16 16 
16 16 16 16 16 16 16 16 16 
16 16 16 16 16 16 16 16 16 
16 16 16 16 16 16 16 16 16 
16 16 16 16 16 16 16 16 16 
16 16 16 16 16 16 16 16 16 
16 16 16 16 16 16 16 16 16 
16 16 16 16 16 16 16 16 16 
16 16 16 16 16 16 16 16 16 
16 16 16 16 16 16 16 16 16 
16 16 16 16 16 16 16 16 16 
16 16 16 16 16 16 16 16 16 
16 16 16 16 16 16 16 16 16 
16 16 16 16 16 16 16 16 16 
16 16 16 16 16 16 16 16 16 
16 16 16 16 16 
