# vtk DataFile Version 4.0
vtk output
ASCII
DATASET POLYDATA
FIELD FieldData 4
domain 1 4 string
domain_min:-40|-40
domain_max:40|40
cell_size:1|1
boundary:0|0

variables 1 5 string
T:14
dt:0.01
write_case:1
substeps:10
all_steps:1400

constants 1 17 string
L:40
c_s:1
dx:1
k:1000
d1:-13.5|10
d2:-6|10
d3:9|14.5
d4:13.5|10
d5:-6|8
d6:0|8
d7:6|8
d8:-9|9
d9:9|9
d10:-12|0
d11:12|0
d12:0|-10
R_w:0.1

equations 1 18 string
time:T=(T+dt)#true
pos_x:x=elem(r,0,0)#eq(gid,1)
pos_y:y=elem(r,1,0)#eq(gid,1)
wp_1:p0=if(and(lt(x,(-9)),gt(y,10)),d1,p0)#eq(gid,1)
wp_2:p0=if(and(and(gt(x,(-9)),lt(x,(-3))),gt(y,10)),d2,p0)#eq(gid,1)
wp_3:p0=if(and(and(gt(x,(-3)),lt(x,9)),gt(y,10)),d3,p0)#eq(gid,1)
wp_4:p0=if(and(gt(x,9),gt(y,10)),d4,p0)#eq(gid,1)
wp_5:p0=if(and(and(gt(x,(-9)),lt(x,(-3))),lt(y,8)),d5,p0)#eq(gid,1)
wp_6:p0=if(and(and(gt(x,(-3)),lt(x,3)),lt(y,8)),d6,p0)#eq(gid,1)
wp_7:p0=if(and(and(gt(x,3),lt(x,9)),lt(y,8)),d7,p0)#eq(gid,1)
wp_8:p0=if(and(and(gt(x,(-9)),lt(x,0)),and(gt(y,8),lt(y,10))),d8,p0)#eq(gid,1)
wp_9:p0=if(and(and(gt(x,0),lt(x,9)),and(gt(y,8),lt(y,10))),d9,p0)#eq(gid,1)
wp_10:p0=if(and(lt(x,(-9)),lt(y,10)),d10,p0)#eq(gid,1)
wp_11:p0=if(and(gt(x,9),lt(y,10)),d11,p0)#eq(gid,1)
wp_12:p0=if(lt(y,0),d12,p0)#eq(gid,1)
acceleration:v=sfm(v,p0,v0,m,R,A,B,k,c,tau)#eq(gid,1)
velocity:v=euler(v,a,dt)#eq(gid,1)
position:r=euler(r,v,dt)#eq(gid,1)

POINTS 1049 float
-1.13803 -9.33704 0 -0.577955 -9.33877 0 0.303279 -9.75266 0 
-1.36612 -8.76058 0 3.00018 -7.46793 0 -4.49434 -6.91597 0 
-4.29232 -6.24626 0 3.13016 -6.89204 0 3.72356 -6.70628 0 
4.39906 -6.96564 0 4.89326 -6.66285 0 4.59228 -6.03379 0 
5.85399 -6.00538 0 -6.80797 -5.23726 0 -5.6582 -5.1804 0 
-5.07584 -5.17306 0 5.2167 -5.60709 0 -6.96285 -4.3433 0 
-6.2232 -4.81016 0 6.15088 -4.96038 0 7.32116 -4.00486 0 
-8.00506 -3.51443 0 -7.48898 -3.80218 0 7.88745 -3.66333 0 
-10.1381 -2.69269 0 -9.99396 -2.04974 0 -9.35982 -2.58496 0 
-8.79889 -2.97064 0 9.23029 -2.47905 0 -10.8845 -1.66217 0 
-10.0967 -1.44551 0 -10.9089 -1.01755 0 -9.31051 -1.92264 0 
10.5413 -1.39262 0 11.0103 -1.09909 0 -12.0296 -0.51777 0 
-11.8016 -0.0525845 0 -11.6255 -0.883333 0 11.9546 -0.406992 0 
11.4209 -0.593663 0 -14.1071 0 0 -15 0.6 0 
-15 0.4 0 -14.2857 0 0 -15 0.2 0 
-14.4643 0 0 -15 0 0 -14.8214 0 0 
-14.6429 0 0 -15 0.8 0 -13.9286 0 0 
-13.2143 0 0 -13.5714 0 0 -13.0357 0 0 
-13.75 0 0 -13.3929 0 0 -12.5 0 0 
-12.3516 0.741772 0 -12.2685 0.170379 0 -12.6786 0 0 
-12.8571 0 0 -11.3214 0 0 -11.9134 0.449317 0 
-11.1429 0 0 -11.5 0 0 -11.4838 0.360495 0 
-10.6071 0 0 -10.25 0 0 -10.9643 0 0 
-10.7857 0 0 -10.0714 0 0 -10.4286 0 0 
-9.3571 0 0 -9.5357 0 0 -9.1786 0 0 
-9.8929 0 0 -9.7143 0 0 -8.6 0 0 
-8.2 0 0 -9 0.2 0 -9 0.4 0 
-9 0.8 0 -8.4 0 0 -9 0 0 
-8.8 0 0 -9 0.6 0 -7.8 0 0 
-7.4 0 0 -7.2 0 0 -8 0 0 
-7.6 0 0 -6.2 0 0 -6.8 0 0 
-6.6 0 0 -6.4 0 0 -7 0 0 
-5.4 0 0 -6 0 0 -5.2 0 0 
-5.6 0 0 -5.8 0 0 -5 0 0 
-4.4 0 0 -4.2 0 0 -4.6 0 0 
-4.8 0 0 -3.8 0 0 -3.6 0 0 
-4 0 0 -3.2 0 0 -3.4 0 0 
-3 0 0 -2.6 0 0 -3 0.2 0 
-3 0.8 0 -2.4 0 0 -3 0.6 0 
-2.2 0 0 -2.8 0 0 -3 0.4 0 
-1.4 0 0 -1.8 0 0 -1.2 0 0 
-1.6 0 0 -2 0 0 -0.4 0 0 
-1 0 0 -0.8 0 0 -0.6 0 0 
-0.2 0 0 0.8 0 0 0.2 0 0 
-0 0 0 0.4 0 0 0.6 0 0 
1.8 0 0 1.6 0 0 1.2 0 0 
1.4 0 0 1 0 0 2.2 0 0 
2 0 0 2.6 0 0 2.4 0 0 
2.8 0 0 3 0.6 0 3.8 0 0 
3.4 0 0 3.6 0 0 3.2 0 0 
3 0.4 0 3 0.8 0 3 0.2 0 
3 0 0 4 0 0 4.8 0 0 
4.6 0 0 4.4 0 0 4.2 0 0 
5.6 0 0 5.8 0 0 5.4 0 0 
5 0 0 5.2 0 0 6.8 0 0 
6.6 0 0 6.4 0 0 6.2 0 0 
6 0 0 7 0 0 7.6 0 0 
7.2 0 0 7.4 0 0 7.8 0 0 
8.6 0 0 8.2 0 0 8 0 0 
8.8 0 0 8.4 0 0 9.8929 0 0 
9.5357 0 0 9.7143 0 0 9 0.6 0 
9 0.2 0 9 0.8 0 9 0 0 
9.3571 0 0 9.1786 0 0 9 0.4 0 
10.0714 0 0 10.25 0 0 10.4286 0 0 
10.9643 0 0 10.6071 0 0 10.7857 0 0 
11.5 0 0 11.1429 0 0 11.3214 0 0 
11.6336 0.743632 0 11.6803 0.234142 0 12.1878 0.804392 0 
12.1602 0.144654 0 12.5971 0.474472 0 12.6786 0 0 
12.5 0 0 12.8571 0 0 13.2143 0 0 
13.5714 0 0 13.3929 0 0 13.0357 0 0 
13.9286 0 0 13.75 0 0 14.8214 0 0 
14.2857 0 0 14.4643 0 0 14.1071 0 0 
14.6429 0 0 15 0.2 0 15 0 0 
15 0.4 0 15 0.8 0 15 0.6 0 
-15 1.6 0 -15 1.8 0 -15 1 0 
-15 1.2 0 -15 1.4 0 -12.3348 1.43184 0 
-11.7585 1.42996 0 -11.2399 1.7509 0 -9 1 0 
-9 1.2 0 -9 1.8 0 -9 1.4 0 
-9 1.6 0 -3 1 0 -3 1.8 0 
-3 1.6 0 -3 1.2 0 -3 1.4 0 
3 1.2 0 3 1.4 0 3 1.8 0 
3 1.6 0 3 1 0 9 1.8 0 
9 1.2 0 9 1 0 9 1.6 0 
9 1.4 0 11.2479 1.57801 0 11.8116 1.29457 0 
15 1.6 0 15 1 0 15 1.4 0 
15 1.2 0 15 1.8 0 -15 2.2 0 
-15 2.4 0 -15 2 0 -15 2.6 0 
-15 2.8 0 -11.3373 2.40585 0 -10.7942 2.7861 0 
-9 2.8 0 -9 2.6 0 -9 2 0 
-9 2.4 0 -9 2.2 0 -3 2.6 0 
-3 2.2 0 -3 2.4 0 -3 2 0 
-3 2.8 0 3 2.2 0 3 2.4 0 
3 2.8 0 3 2 0 3 2.6 0 
9 2 0 9 2.2 0 9 2.6 0 
9 2.4 0 9 2.8 0 11.1597 2.30132 0 
11.6673 2.81416 0 12.2052 2.71307 0 12.5773 2.13255 0 
15 2 0 15 2.6 0 15 2.2 0 
15 2.8 0 15 2.4 0 -15 3.4 0 
-15 3.8 0 -15 3.6 0 -15 3.2 0 
-15 3 0 -12.2841 3.7163 0 -11.2823 3.53198 0 
-11.5578 3.00151 0 -10.7175 3.70915 0 -9 3.6 0 
-9 3 0 -9 3.2 0 -9 3.8 0 
-9 3.4 0 -3 3.2 0 -3 3.4 0 
-3 3.8 0 -3 3 0 -3 3.6 0 
3 3 0 3 3.4 0 3 3.8 0 
3 3.2 0 3 3.6 0 9 3.2 0 
9 3.6 0 9 3.4 0 9 3 0 
9 3.8 0 10.6197 3.14255 0 10.9326 3.66001 0 
11.1993 3.16441 0 12.6556 3.18851 0 12.2004 3.61105 0 
13.0675 3.89789 0 15 3 0 15 3.2 0 
15 3.6 0 15 3.4 0 15 3.8 0 
-15 4.6 0 -15 4.4 0 -15 4 0 
-15 4.2 0 -15 4.8 0 -11.5498 4.46958 0 
-10.3946 4.48437 0 -9 4.8 0 -9 4.2 0 
-9 4.6 0 -9 4.4 0 -9 4 0 
-3 4.4 0 -3 4 0 -3 4.2 0 
-3 4.6 0 -3 4.8 0 3 4.4 0 
3 4.2 0 3 4.6 0 3 4.8 0 
3 4 0 9 4.2 0 9 4.8 0 
9 4.6 0 9 4.4 0 9 4 0 
10.3914 4.84405 0 11.1556 4.4897 0 12.5805 4.09988 0 
15 4 0 15 4.4 0 15 4.8 0 
15 4.6 0 15 4.2 0 -15 5.8 0 
-15 5.6 0 -15 5 0 -15 5.4 0 
-15 5.2 0 -11.0437 5.0263 0 -10.5025 5.22392 0 
-10.5355 5.96882 0 -9 5.2 0 -9 5 0 
-9 5.6 0 -9 5.4 0 -9 5.8 0 
-3 5.4 0 -3 5.2 0 -3 5.6 0 
-3 5 0 -3 5.8 0 3 5.6 0 
3 5.2 0 3 5.4 0 3 5 0 
3 5.8 0 9 5.4 0 9 5.8 0 
9 5.2 0 9 5 0 9 5.6 0 
10.5852 5.96459 0 10.086 5.36343 0 10.7906 5.41613 0 
11.2281 5.06204 0 12.8671 5.68404 0 15 5.8 0 
15 5.6 0 15 5.2 0 15 5.4 0 
15 5 0 -15 6 0 -15 6.8 0 
-15 6.4 0 -15 6.2 0 -15 6.6 0 
-10.481 6.86395 0 -9.92395 6.33389 0 -9.86924 6.92273 0 
-9 6.8 0 -9 6.6 0 -9 6.4 0 
-9 6.2 0 -9 6 0 -3 6 0 
-3 6.4 0 -3 6.8 0 -3 6.6 0 
-3 6.2 0 3 6.2 0 3 6.4 0 
3 6.6 0 3 6.8 0 3 6 0 
9 6.6 0 9 6.8 0 9 6.4 0 
9 6 0 9 6.2 0 10.0354 6.18927 0 
15 6.2 0 15 6.8 0 15 6.4 0 
15 6.6 0 15 6 0 -15 7.4 0 
-15 7.2 0 -15 7 0 -15 7.8 0 
-15 7.6 0 -9.65199 7.55349 0 -9 7 0 
-9 7.6 0 -9 7.8 0 -9 7.4 0 
-9 7.2 0 -3 7.6 0 -3 7.2 0 
-3 7.4 0 -3 7.8 0 -3 7 0 
3 7 0 3 7.6 0 3 7.8 0 
3 7.2 0 3 7.4 0 9 7.4 0 
9 7.2 0 9 7.6 0 9 7 0 
9 7.8 0 9.68123 7.70111 0 12.7361 7.2416 0 
13.5451 7.37247 0 13.083 7.75028 0 15 7.6 0 
15 7.4 0 15 7.8 0 15 7 0 
15 7.2 0 -15 8 0 -15 8.6 0 
-15 8.8 0 -15 8.2 0 -15 8.4 0 
-9.9371 8.24408 0 -9.37804 8.19337 0 -9.08577 8.73635 0 
-8.6429 8 0 -8.4643 8 0 -8.2857 8 0 
-9 8 0 -8.1071 8 0 -8.8214 8 0 
-7.3929 8 0 -7.9286 8 0 -7.96485 8.98987 0 
-7.5714 8 0 -7.75 8 0 -7.2143 8 0 
-7.0357 8 0 -6.5 8 0 -6.8571 8 0 
-6.6786 8 0 -5.3214 8 0 -5.5 8 0 
-5.1429 8 0 -4.4286 8 0 -4.07831 8.93485 0 
-4.7857 8 0 -4.9643 8 0 -4.6071 8 0 
-4.25 8 0 -4.0714 8 0 -3.38988 8.85799 0 
-3.8929 8 0 -3.5357 8 0 -3.7143 8 0 
-3.1786 8 0 -3.3571 8 0 -2.1071 8 0 
-2.6429 8 0 -2.8214 8 0 -2.4643 8 0 
-2.2857 8 0 -3 8 0 -2.27101 8.76378 0 
-1.9286 8 0 -1.5714 8 0 -1.2143 8 0 
-1.75 8 0 -1.0357 8 0 -1.3929 8 0 
-0.6786 8 0 -0.8571 8 0 -0.5 8 0 
0.6786 8 0 0.5 8 0 0.8571 8 0 
1.5714 8 0 1.75 8 0 1.3929 8 0 
1.0357 8 0 1.2143 8 0 1.9286 8 0 
2.1071 8 0 2.4643 8 0 2.6429 8 0 
2.8214 8 0 2.2857 8 0 3.3571 8 0 
3.7143 8 0 3.1786 8 0 3.8929 8 0 
3 8 0 3.5357 8 0 4.12281 8.90116 0 
4.4286 8 0 4.6071 8 0 4.9643 8 0 
4.7857 8 0 4.25 8 0 4.0714 8 0 
5.5 8 0 5.3214 8 0 5.63894 8.9524 0 
5.1429 8 0 6.47115 8.9823 0 6.8571 8 0 
6.6786 8 0 6.5 8 0 7.0357 8 0 
7.3929 8 0 7.5714 8 0 7.2143 8 0 
7.9286 8 0 7.53683 8.8059 0 7.75 8 0 
8.4643 8 0 8.6429 8 0 8.1071 8 0 
8.8214 8 0 8.2857 8 0 9 8 0 
9 8 0 9.09457 8.73603 0 13.6539 8.81556 0 
13.6523 8.17371 0 13.1202 8.55337 0 15 8.8 0 
15 8.6 0 15 8 0 15 8.4 0 
15 8.2 0 -15 9 0 -15 9.2 0 
-15 9.6 0 -15 9.4 0 -15 9.8 0 
13.4818 9.4744 0 15 9.4 0 15 9.8 0 
15 9.6 0 15 9 0 15 9.2 0 
-14.8333 10 0 -15 10.8 0 -14.1667 10 0 
-14.3333 10 0 -14.6667 10 0 -15 10 0 
-14.5 10 0 -15 10.2 0 -15 10.6 0 
-15 10.4 0 -14 10 0 -12.2 10 0 
-12.6 10 0 -13 10 0 -12.8 10 0 
-12.4 10 0 -11.4 10 0 -11.6 10 0 
-11.8 10 0 -11.2 10 0 -12 10 0 
-10.8 10 0 -10.4 10 0 -10.2 10 0 
-11 10 0 -10.6 10 0 -9.8 10 0 
-10 10 0 -9.6 10 0 -9.4 10 0 
-9.2 10 0 -8.6429 10 0 -9 10.2 0 
-8.2857 10 0 -9 10 0 -8.8214 10 0 
-8.4643 10 0 -8.1071 10 0 -9 10.6 0 
-9 10.4 0 -9 10.8 0 -7.75 10 0 
-7.2143 10 0 -7.9286 10 0 -7.5714 10 0 
-7.0357 10 0 -7.3929 10 0 -6.5 10 0 
-6.6786 10 0 -6.8571 10 0 -5.3214 10 0 
-5.5 10 0 -5.1429 10 0 -4.25 10 0 
-4.7857 10 0 -4.6071 10 0 -4.0714 10 0 
-4.9643 10 0 -4.4286 10 0 -3.3571 10 0 
-3.7143 10 0 -3.8929 10 0 -3.5357 10 0 
-3.1786 10 0 -3 10.6 0 -2.8 10 0 
-2.2 10 0 -3 10.8 0 -3 10.4 0 
-3 10.2 0 -3 10 0 -2.6 10 0 
-2.4 10 0 -1.8 10 0 -1.6 10 0 
-2 10 0 -1.2 10 0 -1.4 10 0 
-1 10 0 -0.6 10 0 -0.8 10 0 
-0.2 10 0 -0.4 10 0 0.2 10 0 
0.8 10 0 0.6 10 0 0.4 10 0 
-0 10 0 1.6 10 0 1.2 10 0 
1 10 0 1.8 10 0 1.4 10 0 
2 10 0 2.8 10 0 2.4 10 0 
2.6 10 0 2.2 10 0 3.2 10 0 
3.8 10 0 3.4 10 0 3 10 0 
3.6 10 0 4 10 0 4.8 10 0 
4.2 10 0 4.6 10 0 4.4 10 0 
5.4 10 0 5.2 10 0 5.8 10 0 
5.6 10 0 5 10 0 6 10 0 
6.4 10 0 6.2 10 0 6.6 10 0 
6.8 10 0 7 10 0 7.2 10 0 
7.4 10 0 7.6 10 0 7.8 10 0 
8.2 10 0 8.6 10 0 8.4 10 0 
8 10 0 8.8 10 0 9.2 10 0 
9 10.6 0 9.6 10 0 9 10.8 0 
9.4 10 0 9 10.2 0 9 10 0 
9.8 10 0 9 10.4 0 10.6 10 0 
10.2 10 0 10 10 0 10.4 10 0 
10.8 10 0 11.2 10 0 11 10 0 
11.4 10 0 11.6 10 0 11.8 10 0 
12.2 10 0 12.6 10 0 12 10 0 
12.873 10.9091 0 12.4 10 0 12.9681 10.3628 0 
12.8 10 0 13 10 0 13.3875 10.7813 0 
13.5155 10.1008 0 14.6667 10 0 14 10 0 
14.1667 10 0 14.8333 10 0 14.5 10 0 
14.3333 10 0 15 10.4 0 15 10 0 
15 10.2 0 15 10.8 0 15 10.6 0 
-15 11 0 -15 11.8 0 -15 11.4 0 
-15 11.2 0 -15 11.6 0 -9 11.4 0 
-9 11.6 0 -9 11 0 -9 11.2 0 
-9 11.8 0 -3 11.4 0 -3 11.6 0 
-3 11.2 0 -3 11 0 -3 11.8 0 
9 11.2 0 9 11.6 0 9 11.4 0 
9 11.8 0 9 11 0 11.8306 11.5224 0 
12.4627 11.3696 0 15 11 0 15 11.2 0 
15 11.8 0 15 11.4 0 15 11.6 0 
-15 12.8 0 -15 12.2 0 -15 12 0 
-15 12.6 0 -15 12.4 0 -9 12.4 0 
-9 12.2 0 -9 12.6 0 -9 12 0 
-9 12.8 0 -3 12.4 0 -3 12.8 0 
-3 12 0 -3 12.2 0 -3 12.6 0 
9 12 0 9 12.2 0 9 12.8 0 
9 12.4 0 9 12.6 0 10.9607 12.804 0 
11.3372 12.2712 0 15 12 0 15 12.2 0 
15 12.8 0 15 12.4 0 15 12.6 0 
-15 13.6 0 -15 13.4 0 -15 13.2 0 
-15 13 0 -15 13.8 0 -9 13.4 0 
-9 13 0 -9 13.2 0 -9 13.8 0 
-9 13.6 0 -3 13.4 0 -3 13.2 0 
-3 13.8 0 -3 13.6 0 -3 13 0 
7.0801 13.8378 0 9 13.8 0 9 13 0 
9 13.6 0 9 13.2 0 9 13.4 0 
10.1618 13.5115 0 15 13.6 0 15 13 0 
15 13.8 0 15 13.2 0 15 13.4 0 
-15 14.2 0 -15 14 0 -15 14.8 0 
-15 14.4 0 -15 14.6 0 -9 14.4 0 
-9 14 0 -9 14.2 0 -9 14.6 0 
-9 14.8 0 -3 14.4 0 -3 14.2 0 
-3 14.8 0 -3 14.6 0 -3 14 0 
7.93293 14.0436 0 9.49356 14.1653 0 9 14 0 
15 14.4 0 15 14.2 0 15 14.8 0 
15 14.6 0 15 14 0 -15 15.4 0 
-15 15.2 0 -15 15 0 -15 15.8 0 
-15 15.6 0 -9 15.6 0 -9 15.8 0 
-9 15.4 0 -9 15 0 -9 15.2 0 
-3 15.8 0 -3 15.2 0 -3 15.6 0 
-3 15 0 -3 15.4 0 9 15.1667 0 
9 15.8333 0 9 15.5 0 9 15.6667 0 
9 15 0 9 15.3333 0 15 15.8 0 
15 15 0 15 15.6 0 15 15.4 0 
15 15.2 0 -14.6 16 0 -14.8 16 0 
-14.4 16 0 -14.2 16 0 -15 16 0 
-13.8 16 0 -13.6 16 0 -13.4 16 0 
-13.2 16 0 -14 16 0 -12.6 16 0 
-12.8 16 0 -12.2 16 0 -13 16 0 
-12.4 16 0 -12 16 0 -11.8 16 0 
-11.6 16 0 -11.4 16 0 -11.2 16 0 
-10.6 16 0 -10.4 16 0 -10.2 16 0 
-11 16 0 -10.8 16 0 -9.4 16 0 
-9.8 16 0 -10 16 0 -9.2 16 0 
-9.6 16 0 -9 16 0 -8.6 16 0 
-8.4 16 0 -8.2 16 0 -8.8 16 0 
-8 16 0 -7.4 16 0 -7.2 16 0 
-7.6 16 0 -7.8 16 0 -6.2 16 0 
-6.4 16 0 -7 16 0 -6.6 16 0 
-6.8 16 0 -5.2 16 0 -5.8 16 0 
-6 16 0 -5.4 16 0 -5.6 16 0 
-5 16 0 -4.6 16 0 -4.2 16 0 
-4.4 16 0 -4.8 16 0 -3.8 16 0 
-3.6 16 0 -3.4 16 0 -3.2 16 0 
-4 16 0 -3 16 0 -2.6 16 0 
-2.8 16 0 -2.4 16 0 -2.2 16 0 
-1.4 16 0 -1.6 16 0 -1.8 16 0 
-1.2 16 0 -2 16 0 -0.8 16 0 
-0.4 16 0 -0.2 16 0 -1 16 0 
-0.6 16 0 0.4 16 0 -0 16 0 
0.6 16 0 0.8 16 0 0.2 16 0 
1.2 16 0 1.4 16 0 1.8 16 0 
1 16 0 1.6 16 0 2.6 16 0 
2.4 16 0 2.2 16 0 2 16 0 
2.8 16 0 3.2 16 0 3.4 16 0 
3 16 0 3.6 16 0 3.8 16 0 
4 16 0 4.2 16 0 4.4 16 0 
4.6 16 0 4.8 16 0 5 16 0 
5.2 16 0 5.4 16 0 5.8 16 0 
5.6 16 0 6.4 16 0 6.8 16 0 
6.6 16 0 6.2 16 0 6 16 0 
7.4 16 0 7 16 0 7.6 16 0 
7.8 16 0 7.2 16 0 8.6 16 0 
8 16 0 8.4 16 0 8.2 16 0 
8.8 16 0 9 16 0 9.2 16 0 
9.8 16 0 9.4 16 0 9.6 16 0 
10 16 0 10.2 16 0 10.4 16 0 
10.6 16 0 10.8 16 0 11.4 16 0 
11.8 16 0 11 16 0 11.6 16 0 
11.2 16 0 12.4 16 0 12.8 16 0 
12.6 16 0 12.2 16 0 12 16 0 
13.8 16 0 13.2 16 0 13.4 16 0 
13.6 16 0 13 16 0 14.8 16 0 
14 16 0 14.2 16 0 14.4 16 0 
14.6 16 0 15 16 0 
VERTICES 2098 2098
1 0 
1 1 
1 2 
1 3 
1 4 
1 5 
1 6 
1 7 
1 8 
1 9 
1 10 
1 11 
1 12 
1 13 
1 14 
1 15 
1 16 
1 17 
1 18 
1 19 
1 20 
1 21 
1 22 
1 23 
1 24 
1 25 
1 26 
1 27 
1 28 
1 29 
1 30 
1 31 
1 32 
1 33 
1 34 
1 35 
1 36 
1 37 
1 38 
1 39 
1 40 
1 41 
1 42 
1 43 
1 44 
1 45 
1 46 
1 47 
1 48 
1 49 
1 50 
1 51 
1 52 
1 53 
1 54 
1 55 
1 56 
1 57 
1 58 
1 59 
1 60 
1 61 
1 62 
1 63 
1 64 
1 65 
1 66 
1 67 
1 68 
1 69 
1 70 
1 71 
1 72 
1 73 
1 74 
1 75 
1 76 
1 77 
1 78 
1 79 
1 80 
1 81 
1 82 
1 83 
1 84 
1 85 
1 86 
1 87 
1 88 
1 89 
1 90 
1 91 
1 92 
1 93 
1 94 
1 95 
1 96 
1 97 
1 98 
1 99 
1 100 
1 101 
1 102 
1 103 
1 104 
1 105 
1 106 
1 107 
1 108 
1 109 
1 110 
1 111 
1 112 
1 113 
1 114 
1 115 
1 116 
1 117 
1 118 
1 119 
1 120 
1 121 
1 122 
1 123 
1 124 
1 125 
1 126 
1 127 
1 128 
1 129 
1 130 
1 131 
1 132 
1 133 
1 134 
1 135 
1 136 
1 137 
1 138 
1 139 
1 140 
1 141 
1 142 
1 143 
1 144 
1 145 
1 146 
1 147 
1 148 
1 149 
1 150 
1 151 
1 152 
1 153 
1 154 
1 155 
1 156 
1 157 
1 158 
1 159 
1 160 
1 161 
1 162 
1 163 
1 164 
1 165 
1 166 
1 167 
1 168 
1 169 
1 170 
1 171 
1 172 
1 173 
1 174 
1 175 
1 176 
1 177 
1 178 
1 179 
1 180 
1 181 
1 182 
1 183 
1 184 
1 185 
1 186 
1 187 
1 188 
1 189 
1 190 
1 191 
1 192 
1 193 
1 194 
1 195 
1 196 
1 197 
1 198 
1 199 
1 200 
1 201 
1 202 
1 203 
1 204 
1 205 
1 206 
1 207 
1 208 
1 209 
1 210 
1 211 
1 212 
1 213 
1 214 
1 215 
1 216 
1 217 
1 218 
1 219 
1 220 
1 221 
1 222 
1 223 
1 224 
1 225 
1 226 
1 227 
1 228 
1 229 
1 230 
1 231 
1 232 
1 233 
1 234 
1 235 
1 236 
1 237 
1 238 
1 239 
1 240 
1 241 
1 242 
1 243 
1 244 
1 245 
1 246 
1 247 
1 248 
1 249 
1 250 
1 251 
1 252 
1 253 
1 254 
1 255 
1 256 
1 257 
1 258 
1 259 
1 260 
1 261 
1 262 
1 263 
1 264 
1 265 
1 266 
1 267 
1 268 
1 269 
1 270 
1 271 
1 272 
1 273 
1 274 
1 275 
1 276 
1 277 
1 278 
1 279 
1 280 
1 281 
1 282 
1 283 
1 284 
1 285 
1 286 
1 287 
1 288 
1 289 
1 290 
1 291 
1 292 
1 293 
1 294 
1 295 
1 296 
1 297 
1 298 
1 299 
1 300 
1 301 
1 302 
1 303 
1 304 
1 305 
1 306 
1 307 
1 308 
1 309 
1 310 
1 311 
1 312 
1 313 
1 314 
1 315 
1 316 
1 317 
1 318 
1 319 
1 320 
1 321 
1 322 
1 323 
1 324 
1 325 
1 326 
1 327 
1 328 
1 329 
1 330 
1 331 
1 332 
1 333 
1 334 
1 335 
1 336 
1 337 
1 338 
1 339 
1 340 
1 341 
1 342 
1 343 
1 344 
1 345 
1 346 
1 347 
1 348 
1 349 
1 350 
1 351 
1 352 
1 353 
1 354 
1 355 
1 356 
1 357 
1 358 
1 359 
1 360 
1 361 
1 362 
1 363 
1 364 
1 365 
1 366 
1 367 
1 368 
1 369 
1 370 
1 371 
1 372 
1 373 
1 374 
1 375 
1 376 
1 377 
1 378 
1 379 
1 380 
1 381 
1 382 
1 383 
1 384 
1 385 
1 386 
1 387 
1 388 
1 389 
1 390 
1 391 
1 392 
1 393 
1 394 
1 395 
1 396 
1 397 
1 398 
1 399 
1 400 
1 401 
1 402 
1 403 
1 404 
1 405 
1 406 
1 407 
1 408 
1 409 
1 410 
1 411 
1 412 
1 413 
1 414 
1 415 
1 416 
1 417 
1 418 
1 419 
1 420 
1 421 
1 422 
1 423 
1 424 
1 425 
1 426 
1 427 
1 428 
1 429 
1 430 
1 431 
1 432 
1 433 
1 434 
1 435 
1 436 
1 437 
1 438 
1 439 
1 440 
1 441 
1 442 
1 443 
1 444 
1 445 
1 446 
1 447 
1 448 
1 449 
1 450 
1 451 
1 452 
1 453 
1 454 
1 455 
1 456 
1 457 
1 458 
1 459 
1 460 
1 461 
1 462 
1 463 
1 464 
1 465 
1 466 
1 467 
1 468 
1 469 
1 470 
1 471 
1 472 
1 473 
1 474 
1 475 
1 476 
1 477 
1 478 
1 479 
1 480 
1 481 
1 482 
1 483 
1 484 
1 485 
1 486 
1 487 
1 488 
1 489 
1 490 
1 491 
1 492 
1 493 
1 494 
1 495 
1 496 
1 497 
1 498 
1 499 
1 500 
1 501 
1 502 
1 503 
1 504 
1 505 
1 506 
1 507 
1 508 
1 509 
1 510 
1 511 
1 512 
1 513 
1 514 
1 515 
1 516 
1 517 
1 518 
1 519 
1 520 
1 521 
1 522 
1 523 
1 524 
1 525 
1 526 
1 527 
1 528 
1 529 
1 530 
1 531 
1 532 
1 533 
1 534 
1 535 
1 536 
1 537 
1 538 
1 539 
1 540 
1 541 
1 542 
1 543 
1 544 
1 545 
1 546 
1 547 
1 548 
1 549 
1 550 
1 551 
1 552 
1 553 
1 554 
1 555 
1 556 
1 557 
1 558 
1 559 
1 560 
1 561 
1 562 
1 563 
1 564 
1 565 
1 566 
1 567 
1 568 
1 569 
1 570 
1 571 
1 572 
1 573 
1 574 
1 575 
1 576 
1 577 
1 578 
1 579 
1 580 
1 581 
1 582 
1 583 
1 584 
1 585 
1 586 
1 587 
1 588 
1 589 
1 590 
1 591 
1 592 
1 593 
1 594 
1 595 
1 596 
1 597 
1 598 
1 599 
1 600 
1 601 
1 602 
1 603 
1 604 
1 605 
1 606 
1 607 
1 608 
1 609 
1 610 
1 611 
1 612 
1 613 
1 614 
1 615 
1 616 
1 617 
1 618 
1 619 
1 620 
1 621 
1 622 
1 623 
1 624 
1 625 
1 626 
1 627 
1 628 
1 629 
1 630 
1 631 
1 632 
1 633 
1 634 
1 635 
1 636 
1 637 
1 638 
1 639 
1 640 
1 641 
1 642 
1 643 
1 644 
1 645 
1 646 
1 647 
1 648 
1 649 
1 650 
1 651 
1 652 
1 653 
1 654 
1 655 
1 656 
1 657 
1 658 
1 659 
1 660 
1 661 
1 662 
1 663 
1 664 
1 665 
1 666 
1 667 
1 668 
1 669 
1 670 
1 671 
1 672 
1 673 
1 674 
1 675 
1 676 
1 677 
1 678 
1 679 
1 680 
1 681 
1 682 
1 683 
1 684 
1 685 
1 686 
1 687 
1 688 
1 689 
1 690 
1 691 
1 692 
1 693 
1 694 
1 695 
1 696 
1 697 
1 698 
1 699 
1 700 
1 701 
1 702 
1 703 
1 704 
1 705 
1 706 
1 707 
1 708 
1 709 
1 710 
1 711 
1 712 
1 713 
1 714 
1 715 
1 716 
1 717 
1 718 
1 719 
1 720 
1 721 
1 722 
1 723 
1 724 
1 725 
1 726 
1 727 
1 728 
1 729 
1 730 
1 731 
1 732 
1 733 
1 734 
1 735 
1 736 
1 737 
1 738 
1 739 
1 740 
1 741 
1 742 
1 743 
1 744 
1 745 
1 746 
1 747 
1 748 
1 749 
1 750 
1 751 
1 752 
1 753 
1 754 
1 755 
1 756 
1 757 
1 758 
1 759 
1 760 
1 761 
1 762 
1 763 
1 764 
1 765 
1 766 
1 767 
1 768 
1 769 
1 770 
1 771 
1 772 
1 773 
1 774 
1 775 
1 776 
1 777 
1 778 
1 779 
1 780 
1 781 
1 782 
1 783 
1 784 
1 785 
1 786 
1 787 
1 788 
1 789 
1 790 
1 791 
1 792 
1 793 
1 794 
1 795 
1 796 
1 797 
1 798 
1 799 
1 800 
1 801 
1 802 
1 803 
1 804 
1 805 
1 806 
1 807 
1 808 
1 809 
1 810 
1 811 
1 812 
1 813 
1 814 
1 815 
1 816 
1 817 
1 818 
1 819 
1 820 
1 821 
1 822 
1 823 
1 824 
1 825 
1 826 
1 827 
1 828 
1 829 
1 830 
1 831 
1 832 
1 833 
1 834 
1 835 
1 836 
1 837 
1 838 
1 839 
1 840 
1 841 
1 842 
1 843 
1 844 
1 845 
1 846 
1 847 
1 848 
1 849 
1 850 
1 851 
1 852 
1 853 
1 854 
1 855 
1 856 
1 857 
1 858 
1 859 
1 860 
1 861 
1 862 
1 863 
1 864 
1 865 
1 866 
1 867 
1 868 
1 869 
1 870 
1 871 
1 872 
1 873 
1 874 
1 875 
1 876 
1 877 
1 878 
1 879 
1 880 
1 881 
1 882 
1 883 
1 884 
1 885 
1 886 
1 887 
1 888 
1 889 
1 890 
1 891 
1 892 
1 893 
1 894 
1 895 
1 896 
1 897 
1 898 
1 899 
1 900 
1 901 
1 902 
1 903 
1 904 
1 905 
1 906 
1 907 
1 908 
1 909 
1 910 
1 911 
1 912 
1 913 
1 914 
1 915 
1 916 
1 917 
1 918 
1 919 
1 920 
1 921 
1 922 
1 923 
1 924 
1 925 
1 926 
1 927 
1 928 
1 929 
1 930 
1 931 
1 932 
1 933 
1 934 
1 935 
1 936 
1 937 
1 938 
1 939 
1 940 
1 941 
1 942 
1 943 
1 944 
1 945 
1 946 
1 947 
1 948 
1 949 
1 950 
1 951 
1 952 
1 953 
1 954 
1 955 
1 956 
1 957 
1 958 
1 959 
1 960 
1 961 
1 962 
1 963 
1 964 
1 965 
1 966 
1 967 
1 968 
1 969 
1 970 
1 971 
1 972 
1 973 
1 974 
1 975 
1 976 
1 977 
1 978 
1 979 
1 980 
1 981 
1 982 
1 983 
1 984 
1 985 
1 986 
1 987 
1 988 
1 989 
1 990 
1 991 
1 992 
1 993 
1 994 
1 995 
1 996 
1 997 
1 998 
1 999 
1 1000 
1 1001 
1 1002 
1 1003 
1 1004 
1 1005 
1 1006 
1 1007 
1 1008 
1 1009 
1 1010 
1 1011 
1 1012 
1 1013 
1 1014 
1 1015 
1 1016 
1 1017 
1 1018 
1 1019 
1 1020 
1 1021 
1 1022 
1 1023 
1 1024 
1 1025 
1 1026 
1 1027 
1 1028 
1 1029 
1 1030 
1 1031 
1 1032 
1 1033 
1 1034 
1 1035 
1 1036 
1 1037 
1 1038 
1 1039 
1 1040 
1 1041 
1 1042 
1 1043 
1 1044 
1 1045 
1 1046 
1 1047 
1 1048 

POINT_DATA 1049
SCALARS id double
LOOKUP_TABLE default
980 1048 1027 977 964 993 1033 983 1036 
1020 951 1024 976 978 1032 968 945 1045 
966 975 955 1004 990 972 995 1005 933 
1040 941 1041 942 969 947 1016 1028 1026 
1018 954 932 987 43 389 390 42 391 
41 0 39 40 388 44 48 46 49 
45 47 1 936 1047 51 50 52 1008 
53 2 939 56 58 54 55 59 57 
63 62 64 60 61 66 68 392 393 
395 67 3 65 394 70 72 73 69 
71 78 75 76 77 74 82 79 83 
81 80 84 87 88 86 85 90 91 
89 93 92 4 95 495 492 96 493 
97 94 494 101 99 102 100 98 106 
103 104 105 107 112 109 108 110 111 
117 116 114 115 113 119 118 121 120 
122 558 126 124 125 123 559 557 560 
5 127 131 130 129 128 135 136 134 
132 133 141 140 139 138 137 142 145 
143 144 146 150 148 147 151 149 156 
154 155 589 587 590 6 153 152 588 
157 158 159 162 160 161 7 163 164 
960 930 1037 962 1009 165 8 166 168 
170 169 167 172 171 177 174 175 173 
176 178 9 179 181 180 384 383 387 
386 385 1042 1014 985 396 397 400 398 
399 491 487 488 490 489 555 554 552 
553 556 595 592 591 594 593 1022 986 
185 182 184 183 186 381 380 382 379 
378 998 989 405 404 401 403 402 483 
485 484 486 482 550 549 547 551 548 
596 597 599 598 600 973 997 1030 1011 
187 190 188 191 189 375 373 374 376 
377 967 984 965 1038 409 406 407 410 
408 480 479 477 481 478 546 544 542 
545 543 602 604 603 601 605 1029 988 
1043 946 999 1015 192 193 195 194 196 
369 370 372 371 368 952 953 415 412 
414 413 411 474 476 475 473 472 539 
540 538 537 541 607 610 609 608 606 
1025 950 929 197 199 201 200 198 363 
364 367 365 366 992 1007 1012 417 416 
419 418 420 469 470 468 471 467 533 
535 534 536 532 613 615 612 611 614 
1044 1019 979 994 934 206 205 203 204 
202 362 358 360 361 359 935 1017 1000 
425 424 423 422 421 466 464 462 463 
465 530 529 528 527 531 619 620 618 
616 617 937 208 211 209 210 207 355 
356 357 353 354 971 426 429 430 428 
427 458 460 459 457 461 526 523 522 
525 524 623 622 624 621 625 1002 943 
1013 958 215 214 216 212 213 352 349 
348 351 350 1021 1031 944 432 433 434 
10 435 431 439 436 1003 438 437 440 
441 11 442 443 444 12 445 449 1034 
447 446 448 450 451 1006 452 454 453 
456 455 500 497 496 498 499 13 963 
501 503 505 502 506 504 508 507 14 
509 15 510 514 515 513 511 512 516 
517 519 520 521 518 562 564 561 565 
16 563 1010 568 569 571 570 567 566 
17 573 981 572 1023 575 574 18 576 
578 579 577 581 974 580 584 585 582 
586 583 34 19 1001 949 940 931 221 
220 217 219 218 347 346 344 345 343 
1035 224 226 225 222 223 660 339 664 
663 661 20 662 342 340 341 21 668 
666 22 665 667 672 671 670 673 669 
675 677 678 674 676 680 679 681 682 
683 714 684 716 23 713 715 717 686 
685 687 719 722 718 720 723 721 36 
725 724 726 37 727 732 729 730 733 
728 731 737 735 734 736 738 633 739 
742 634 632 631 24 740 741 744 745 
743 747 746 748 750 749 752 751 754 
757 756 755 753 761 759 758 762 760 
763 767 765 766 764 769 772 770 768 
771 773 777 774 776 775 780 779 782 
781 778 783 785 784 786 787 788 789 
790 791 792 794 796 795 793 797 798 
819 800 820 799 817 35 801 818 805 
803 802 804 806 808 807 809 810 811 
813 815 812 956 814 957 816 25 948 
959 627 26 630 626 628 629 228 27 
227 230 229 338 334 336 337 335 690 
691 688 689 692 637 638 636 635 639 
822 824 823 825 821 1046 961 231 232 
235 233 234 329 332 333 330 331 695 
694 696 693 697 642 644 640 641 643 
826 827 830 828 829 938 1039 236 237 
240 238 239 325 326 327 328 324 700 
698 699 702 701 647 646 649 648 645 
996 835 831 834 832 833 991 244 241 
245 242 243 322 323 319 321 320 705 
703 704 706 707 652 651 654 653 650 
970 982 29 248 247 250 249 246 316 
317 318 314 315 711 712 710 708 709 
659 656 658 655 657 924 928 926 927 
28 925 255 251 254 253 252 312 313 
311 310 30 308 307 306 305 309 302 
303 300 304 301 299 298 297 296 295 
292 291 290 294 293 286 288 289 285 
287 31 283 282 281 284 280 277 276 
278 279 271 272 275 273 274 266 269 
270 267 268 265 263 261 262 264 259 
258 257 256 260 32 837 836 838 839 
843 842 841 844 840 846 848 849 845 
847 852 850 853 854 851 856 857 859 
855 858 863 862 861 860 864 866 867 
865 868 869 870 871 872 873 874 875 
876 877 879 878 882 884 883 881 880 
887 885 888 889 886 893 890 892 891 
894 38 895 898 896 897 899 900 901 
902 903 906 908 904 907 905 911 913 
912 910 909 918 915 916 917 914 923 
919 920 921 922 33 
FIELD FieldData 14
r 3 1049 double
-1.13803 -9.33704 0 -0.577955 -9.33877 0 0.303279 -9.75266 0 
-1.36612 -8.76058 0 3.00018 -7.46793 0 -4.49434 -6.91597 0 
-4.29232 -6.24626 0 3.13016 -6.89204 0 3.72356 -6.70628 0 
4.39906 -6.96564 0 4.89326 -6.66285 0 4.59228 -6.03379 0 
5.85399 -6.00538 0 -6.80797 -5.23726 0 -5.6582 -5.1804 0 
-5.07584 -5.17306 0 5.2167 -5.60709 0 -6.96285 -4.3433 0 
-6.2232 -4.81016 0 6.15088 -4.96038 0 7.32116 -4.00486 0 
-8.00506 -3.51443 0 -7.48898 -3.80218 0 7.88745 -3.66333 0 
-10.1381 -2.69269 0 -9.99396 -2.04974 0 -9.35982 -2.58496 0 
-8.79889 -2.97064 0 9.23029 -2.47905 0 -10.8845 -1.66217 0 
-10.0967 -1.44551 0 -10.9089 -1.01755 0 -9.31051 -1.92264 0 
10.5413 -1.39262 0 11.0103 -1.09909 0 -12.0296 -0.51777 0 
-11.8016 -0.0525845 0 -11.6255 -0.883333 0 11.9546 -0.406992 0 
11.4209 -0.593663 0 -14.1071 0 0 -15 0.6 0 
-15 0.4 0 -14.2857 0 0 -15 0.2 0 
-14.4643 0 0 -15 0 0 -14.8214 0 0 
-14.6429 0 0 -15 0.8 0 -13.9286 0 0 
-13.2143 0 0 -13.5714 0 0 -13.0357 0 0 
-13.75 0 0 -13.3929 0 0 -12.5 0 0 
-12.3516 0.741772 0 -12.2685 0.170379 0 -12.6786 0 0 
-12.8571 0 0 -11.3214 0 0 -11.9134 0.449317 0 
-11.1429 0 0 -11.5 0 0 -11.4838 0.360495 0 
-10.6071 0 0 -10.25 0 0 -10.9643 0 0 
-10.7857 0 0 -10.0714 0 0 -10.4286 0 0 
-9.3571 0 0 -9.5357 0 0 -9.1786 0 0 
-9.8929 0 0 -9.7143 0 0 -8.6 0 0 
-8.2 0 0 -9 0.2 0 -9 0.4 0 
-9 0.8 0 -8.4 0 0 -9 0 0 
-8.8 0 0 -9 0.6 0 -7.8 0 0 
-7.4 0 0 -7.2 0 0 -8 0 0 
-7.6 0 0 -6.2 0 0 -6.8 0 0 
-6.6 0 0 -6.4 0 0 -7 0 0 
-5.4 0 0 -6 0 0 -5.2 0 0 
-5.6 0 0 -5.8 0 0 -5 0 0 
-4.4 0 0 -4.2 0 0 -4.6 0 0 
-4.8 0 0 -3.8 0 0 -3.6 0 0 
-4 0 0 -3.2 0 0 -3.4 0 0 
-3 0 0 -2.6 0 0 -3 0.2 0 
-3 0.8 0 -2.4 0 0 -3 0.6 0 
-2.2 0 0 -2.8 0 0 -3 0.4 0 
-1.4 0 0 -1.8 0 0 -1.2 0 0 
-1.6 0 0 -2 0 0 -0.4 0 0 
-1 0 0 -0.8 0 0 -0.6 0 0 
-0.2 0 0 0.8 0 0 0.2 0 0 
-0 0 0 0.4 0 0 0.6 0 0 
1.8 0 0 1.6 0 0 1.2 0 0 
1.4 0 0 1 0 0 2.2 0 0 
2 0 0 2.6 0 0 2.4 0 0 
2.8 0 0 3 0.6 0 3.8 0 0 
3.4 0 0 3.6 0 0 3.2 0 0 
3 0.4 0 3 0.8 0 3 0.2 0 
3 0 0 4 0 0 4.8 0 0 
4.6 0 0 4.4 0 0 4.2 0 0 
5.6 0 0 5.8 0 0 5.4 0 0 
5 0 0 5.2 0 0 6.8 0 0 
6.6 0 0 6.4 0 0 6.2 0 0 
6 0 0 7 0 0 7.6 0 0 
7.2 0 0 7.4 0 0 7.8 0 0 
8.6 0 0 8.2 0 0 8 0 0 
8.8 0 0 8.4 0 0 9.8929 0 0 
9.5357 0 0 9.7143 0 0 9 0.6 0 
9 0.2 0 9 0.8 0 9 0 0 
9.3571 0 0 9.1786 0 0 9 0.4 0 
10.0714 0 0 10.25 0 0 10.4286 0 0 
10.9643 0 0 10.6071 0 0 10.7857 0 0 
11.5 0 0 11.1429 0 0 11.3214 0 0 
11.6336 0.743632 0 11.6803 0.234142 0 12.1878 0.804392 0 
12.1602 0.144654 0 12.5971 0.474471 0 12.6786 0 0 
12.5 0 0 12.8571 0 0 13.2143 0 0 
13.5714 0 0 13.3929 0 0 13.0357 0 0 
13.9286 0 0 13.75 0 0 14.8214 0 0 
14.2857 0 0 14.4643 0 0 14.1071 0 0 
14.6429 0 0 15 0.2 0 15 0 0 
15 0.4 0 15 0.8 0 15 0.6 0 
-15 1.6 0 -15 1.8 0 -15 1 0 
-15 1.2 0 -15 1.4 0 -12.3348 1.43184 0 
-11.7585 1.42996 0 -11.2399 1.7509 0 -9 1 0 
-9 1.2 0 -9 1.8 0 -9 1.4 0 
-9 1.6 0 -3 1 0 -3 1.8 0 
-3 1.6 0 -3 1.2 0 -3 1.4 0 
3 1.2 0 3 1.4 0 3 1.8 0 
3 1.6 0 3 1 0 9 1.8 0 
9 1.2 0 9 1 0 9 1.6 0 
9 1.4 0 11.2479 1.57801 0 11.8116 1.29457 0 
15 1.6 0 15 1 0 15 1.4 0 
15 1.2 0 15 1.8 0 -15 2.2 0 
-15 2.4 0 -15 2 0 -15 2.6 0 
-15 2.8 0 -11.3373 2.40585 0 -10.7942 2.7861 0 
-9 2.8 0 -9 2.6 0 -9 2 0 
-9 2.4 0 -9 2.2 0 -3 2.6 0 
-3 2.2 0 -3 2.4 0 -3 2 0 
-3 2.8 0 3 2.2 0 3 2.4 0 
3 2.8 0 3 2 0 3 2.6 0 
9 2 0 9 2.2 0 9 2.6 0 
9 2.4 0 9 2.8 0 11.1597 2.30132 0 
11.6673 2.81416 0 12.2052 2.71307 0 12.5773 2.13255 0 
15 2 0 15 2.6 0 15 2.2 0 
15 2.8 0 15 2.4 0 -15 3.4 0 
-15 3.8 0 -15 3.6 0 -15 3.2 0 
-15 3 0 -12.2841 3.7163 0 -11.2823 3.53198 0 
-11.5578 3.00151 0 -10.7175 3.70915 0 -9 3.6 0 
-9 3 0 -9 3.2 0 -9 3.8 0 
-9 3.4 0 -3 3.2 0 -3 3.4 0 
-3 3.8 0 -3 3 0 -3 3.6 0 
3 3 0 3 3.4 0 3 3.8 0 
3 3.2 0 3 3.6 0 9 3.2 0 
9 3.6 0 9 3.4 0 9 3 0 
9 3.8 0 10.6197 3.14255 0 10.9326 3.66001 0 
11.1993 3.16441 0 12.6556 3.18851 0 12.2004 3.61105 0 
13.0675 3.89789 0 15 3 0 15 3.2 0 
15 3.6 0 15 3.4 0 15 3.8 0 
-15 4.6 0 -15 4.4 0 -15 4 0 
-15 4.2 0 -15 4.8 0 -11.5498 4.46958 0 
-10.3946 4.48437 0 -9 4.8 0 -9 4.2 0 
-9 4.6 0 -9 4.4 0 -9 4 0 
-3 4.4 0 -3 4 0 -3 4.2 0 
-3 4.6 0 -3 4.8 0 3 4.4 0 
3 4.2 0 3 4.6 0 3 4.8 0 
3 4 0 9 4.2 0 9 4.8 0 
9 4.6 0 9 4.4 0 9 4 0 
10.3914 4.84405 0 11.1556 4.4897 0 12.5805 4.09988 0 
15 4 0 15 4.4 0 15 4.8 0 
15 4.6 0 15 4.2 0 -15 5.8 0 
-15 5.6 0 -15 5 0 -15 5.4 0 
-15 5.2 0 -11.0437 5.0263 0 -10.5025 5.22392 0 
-10.5355 5.96882 0 -9 5.2 0 -9 5 0 
-9 5.6 0 -9 5.4 0 -9 5.8 0 
-3 5.4 0 -3 5.2 0 -3 5.6 0 
-3 5 0 -3 5.8 0 3 5.6 0 
3 5.2 0 3 5.4 0 3 5 0 
3 5.8 0 9 5.4 0 9 5.8 0 
9 5.2 0 9 5 0 9 5.6 0 
10.5852 5.96459 0 10.086 5.36343 0 10.7906 5.41613 0 
11.2281 5.06204 0 12.8671 5.68404 0 15 5.8 0 
15 5.6 0 15 5.2 0 15 5.4 0 
15 5 0 -15 6 0 -15 6.8 0 
-15 6.4 0 -15 6.2 0 -15 6.6 0 
-10.481 6.86395 0 -9.92395 6.33389 0 -9.86924 6.92273 0 
-9 6.8 0 -9 6.6 0 -9 6.4 0 
-9 6.2 0 -9 6 0 -3 6 0 
-3 6.4 0 -3 6.8 0 -3 6.6 0 
-3 6.2 0 3 6.2 0 3 6.4 0 
3 6.6 0 3 6.8 0 3 6 0 
9 6.6 0 9 6.8 0 9 6.4 0 
9 6 0 9 6.2 0 10.0354 6.18927 0 
15 6.2 0 15 6.8 0 15 6.4 0 
15 6.6 0 15 6 0 -15 7.4 0 
-15 7.2 0 -15 7 0 -15 7.8 0 
-15 7.6 0 -9.65198 7.55349 0 -9 7 0 
-9 7.6 0 -9 7.8 0 -9 7.4 0 
-9 7.2 0 -3 7.6 0 -3 7.2 0 
-3 7.4 0 -3 7.8 0 -3 7 0 
3 7 0 3 7.6 0 3 7.8 0 
3 7.2 0 3 7.4 0 9 7.4 0 
9 7.2 0 9 7.6 0 9 7 0 
9 7.8 0 9.68123 7.70111 0 12.7361 7.2416 0 
13.5451 7.37247 0 13.083 7.75028 0 15 7.6 0 
15 7.4 0 15 7.8 0 15 7 0 
15 7.2 0 -15 8 0 -15 8.6 0 
-15 8.8 0 -15 8.2 0 -15 8.4 0 
-9.9371 8.24408 0 -9.37804 8.19337 0 -9.08577 8.73635 0 
-8.6429 8 0 -8.4643 8 0 -8.2857 8 0 
-9 8 0 -8.1071 8 0 -8.8214 8 0 
-7.3929 8 0 -7.9286 8 0 -7.96485 8.98987 0 
-7.5714 8 0 -7.75 8 0 -7.2143 8 0 
-7.0357 8 0 -6.5 8 0 -6.8571 8 0 
-6.6786 8 0 -5.3214 8 0 -5.5 8 0 
-5.1429 8 0 -4.4286 8 0 -4.07831 8.93485 0 
-4.7857 8 0 -4.9643 8 0 -4.6071 8 0 
-4.25 8 0 -4.0714 8 0 -3.38988 8.85799 0 
-3.8929 8 0 -3.5357 8 0 -3.7143 8 0 
-3.1786 8 0 -3.3571 8 0 -2.1071 8 0 
-2.6429 8 0 -2.8214 8 0 -2.4643 8 0 
-2.2857 8 0 -3 8 0 -2.27101 8.76378 0 
-1.9286 8 0 -1.5714 8 0 -1.2143 8 0 
-1.75 8 0 -1.0357 8 0 -1.3929 8 0 
-0.6786 8 0 -0.8571 8 0 -0.5 8 0 
0.6786 8 0 0.5 8 0 0.8571 8 0 
1.5714 8 0 1.75 8 0 1.3929 8 0 
1.0357 8 0 1.2143 8 0 1.9286 8 0 
2.1071 8 0 2.4643 8 0 2.6429 8 0 
2.8214 8 0 2.2857 8 0 3.3571 8 0 
3.7143 8 0 3.1786 8 0 3.8929 8 0 
3 8 0 3.5357 8 0 4.12281 8.90116 0 
4.4286 8 0 4.6071 8 0 4.9643 8 0 
4.7857 8 0 4.25 8 0 4.0714 8 0 
5.5 8 0 5.3214 8 0 5.63894 8.9524 0 
5.1429 8 0 6.47115 8.9823 0 6.8571 8 0 
6.6786 8 0 6.5 8 0 7.0357 8 0 
7.3929 8 0 7.5714 8 0 7.2143 8 0 
7.9286 8 0 7.53683 8.8059 0 7.75 8 0 
8.4643 8 0 8.6429 8 0 8.1071 8 0 
8.8214 8 0 8.2857 8 0 9 8 0 
9 8 0 9.09457 8.73603 0 13.6539 8.81556 0 
13.6523 8.1737 0 13.1202 8.55337 0 15 8.8 0 
15 8.6 0 15 8 0 15 8.4 0 
15 8.2 0 -15 9 0 -15 9.2 0 
-15 9.6 0 -15 9.4 0 -15 9.8 0 
13.4818 9.4744 0 15 9.4 0 15 9.8 0 
15 9.6 0 15 9 0 15 9.2 0 
-14.8333 10 0 -15 10.8 0 -14.1667 10 0 
-14.3333 10 0 -14.6667 10 0 -15 10 0 
-14.5 10 0 -15 10.2 0 -15 10.6 0 
-15 10.4 0 -14 10 0 -12.2 10 0 
-12.6 10 0 -13 10 0 -12.8 10 0 
-12.4 10 0 -11.4 10 0 -11.6 10 0 
-11.8 10 0 -11.2 10 0 -12 10 0 
-10.8 10 0 -10.4 10 0 -10.2 10 0 
-11 10 0 -10.6 10 0 -9.8 10 0 
-10 10 0 -9.6 10 0 -9.4 10 0 
-9.2 10 0 -8.6429 10 0 -9 10.2 0 
-8.2857 10 0 -9 10 0 -8.8214 10 0 
-8.4643 10 0 -8.1071 10 0 -9 10.6 0 
-9 10.4 0 -9 10.8 0 -7.75 10 0 
-7.2143 10 0 -7.9286 10 0 -7.5714 10 0 
-7.0357 10 0 -7.3929 10 0 -6.5 10 0 
-6.6786 10 0 -6.8571 10 0 -5.3214 10 0 
-5.5 10 0 -5.1429 10 0 -4.25 10 0 
-4.7857 10 0 -4.6071 10 0 -4.0714 10 0 
-4.9643 10 0 -4.4286 10 0 -3.3571 10 0 
-3.7143 10 0 -3.8929 10 0 -3.5357 10 0 
-3.1786 10 0 -3 10.6 0 -2.8 10 0 
-2.2 10 0 -3 10.8 0 -3 10.4 0 
-3 10.2 0 -3 10 0 -2.6 10 0 
-2.4 10 0 -1.8 10 0 -1.6 10 0 
-2 10 0 -1.2 10 0 -1.4 10 0 
-1 10 0 -0.6 10 0 -0.8 10 0 
-0.2 10 0 -0.4 10 0 0.2 10 0 
0.8 10 0 0.6 10 0 0.4 10 0 
-0 10 0 1.6 10 0 1.2 10 0 
1 10 0 1.8 10 0 1.4 10 0 
2 10 0 2.8 10 0 2.4 10 0 
2.6 10 0 2.2 10 0 3.2 10 0 
3.8 10 0 3.4 10 0 3 10 0 
3.6 10 0 4 10 0 4.8 10 0 
4.2 10 0 4.6 10 0 4.4 10 0 
5.4 10 0 5.2 10 0 5.8 10 0 
5.6 10 0 5 10 0 6 10 0 
6.4 10 0 6.2 10 0 6.6 10 0 
6.8 10 0 7 10 0 7.2 10 0 
7.4 10 0 7.6 10 0 7.8 10 0 
8.2 10 0 8.6 10 0 8.4 10 0 
8 10 0 8.8 10 0 9.2 10 0 
9 10.6 0 9.6 10 0 9 10.8 0 
9.4 10 0 9 10.2 0 9 10 0 
9.8 10 0 9 10.4 0 10.6 10 0 
10.2 10 0 10 10 0 10.4 10 0 
10.8 10 0 11.2 10 0 11 10 0 
11.4 10 0 11.6 10 0 11.8 10 0 
12.2 10 0 12.6 10 0 12 10 0 
12.873 10.9091 0 12.4 10 0 12.9681 10.3628 0 
12.8 10 0 13 10 0 13.3875 10.7813 0 
13.5155 10.1008 0 14.6667 10 0 14 10 0 
14.1667 10 0 14.8333 10 0 14.5 10 0 
14.3333 10 0 15 10.4 0 15 10 0 
15 10.2 0 15 10.8 0 15 10.6 0 
-15 11 0 -15 11.8 0 -15 11.4 0 
-15 11.2 0 -15 11.6 0 -9 11.4 0 
-9 11.6 0 -9 11 0 -9 11.2 0 
-9 11.8 0 -3 11.4 0 -3 11.6 0 
-3 11.2 0 -3 11 0 -3 11.8 0 
9 11.2 0 9 11.6 0 9 11.4 0 
9 11.8 0 9 11 0 11.8306 11.5224 0 
12.4627 11.3696 0 15 11 0 15 11.2 0 
15 11.8 0 15 11.4 0 15 11.6 0 
-15 12.8 0 -15 12.2 0 -15 12 0 
-15 12.6 0 -15 12.4 0 -9 12.4 0 
-9 12.2 0 -9 12.6 0 -9 12 0 
-9 12.8 0 -3 12.4 0 -3 12.8 0 
-3 12 0 -3 12.2 0 -3 12.6 0 
9 12 0 9 12.2 0 9 12.8 0 
9 12.4 0 9 12.6 0 10.9607 12.804 0 
11.3372 12.2712 0 15 12 0 15 12.2 0 
15 12.8 0 15 12.4 0 15 12.6 0 
-15 13.6 0 -15 13.4 0 -15 13.2 0 
-15 13 0 -15 13.8 0 -9 13.4 0 
-9 13 0 -9 13.2 0 -9 13.8 0 
-9 13.6 0 -3 13.4 0 -3 13.2 0 
-3 13.8 0 -3 13.6 0 -3 13 0 
7.0801 13.8378 0 9 13.8 0 9 13 0 
9 13.6 0 9 13.2 0 9 13.4 0 
10.1618 13.5115 0 15 13.6 0 15 13 0 
15 13.8 0 15 13.2 0 15 13.4 0 
-15 14.2 0 -15 14 0 -15 14.8 0 
-15 14.4 0 -15 14.6 0 -9 14.4 0 
-9 14 0 -9 14.2 0 -9 14.6 0 
-9 14.8 0 -3 14.4 0 -3 14.2 0 
-3 14.8 0 -3 14.6 0 -3 14 0 
7.93293 14.0436 0 9.49356 14.1653 0 9 14 0 
15 14.4 0 15 14.2 0 15 14.8 0 
15 14.6 0 15 14 0 -15 15.4 0 
-15 15.2 0 -15 15 0 -15 15.8 0 
-15 15.6 0 -9 15.6 0 -9 15.8 0 
-9 15.4 0 -9 15 0 -9 15.2 0 
-3 15.8 0 -3 15.2 0 -3 15.6 0 
-3 15 0 -3 15.4 0 9 15.1667 0 
9 15.8333 0 9 15.5 0 9 15.6667 0 
9 15 0 9 15.3333 0 15 15.8 0 
15 15 0 15 15.6 0 15 15.4 0 
15 15.2 0 -14.6 16 0 -14.8 16 0 
-14.4 16 0 -14.2 16 0 -15 16 0 
-13.8 16 0 -13.6 16 0 -13.4 16 0 
-13.2 16 0 -14 16 0 -12.6 16 0 
-12.8 16 0 -12.2 16 0 -13 16 0 
-12.4 16 0 -12 16 0 -11.8 16 0 
-11.6 16 0 -11.4 16 0 -11.2 16 0 
-10.6 16 0 -10.4 16 0 -10.2 16 0 
-11 16 0 -10.8 16 0 -9.4 16 0 
-9.8 16 0 -10 16 0 -9.2 16 0 
-9.6 16 0 -9 16 0 -8.6 16 0 
-8.4 16 0 -8.2 16 0 -8.8 16 0 
-8 16 0 -7.4 16 0 -7.2 16 0 
-7.6 16 0 -7.8 16 0 -6.2 16 0 
-6.4 16 0 -7 16 0 -6.6 16 0 
-6.8 16 0 -5.2 16 0 -5.8 16 0 
-6 16 0 -5.4 16 0 -5.6 16 0 
-5 16 0 -4.6 16 0 -4.2 16 0 
-4.4 16 0 -4.8 16 0 -3.8 16 0 
-3.6 16 0 -3.4 16 0 -3.2 16 0 
-4 16 0 -3 16 0 -2.6 16 0 
-2.8 16 0 -2.4 16 0 -2.2 16 0 
-1.4 16 0 -1.6 16 0 -1.8 16 0 
-1.2 16 0 -2 16 0 -0.8 16 0 
-0.4 16 0 -0.2 16 0 -1 16 0 
-0.6 16 0 0.4 16 0 -0 16 0 
0.6 16 0 0.8 16 0 0.2 16 0 
1.2 16 0 1.4 16 0 1.8 16 0 
1 16 0 1.6 16 0 2.6 16 0 
2.4 16 0 2.2 16 0 2 16 0 
2.8 16 0 3.2 16 0 3.4 16 0 
3 16 0 3.6 16 0 3.8 16 0 
4 16 0 4.2 16 0 4.4 16 0 
4.6 16 0 4.8 16 0 5 16 0 
5.2 16 0 5.4 16 0 5.8 16 0 
5.6 16 0 6.4 16 0 6.8 16 0 
6.6 16 0 6.2 16 0 6 16 0 
7.4 16 0 7 16 0 7.6 16 0 
7.8 16 0 7.2 16 0 8.6 16 0 
8 16 0 8.4 16 0 8.2 16 0 
8.8 16 0 9 16 0 9.2 16 0 
9.8 16 0 9.4 16 0 9.6 16 0 
10 16 0 10.2 16 0 10.4 16 0 
10.6 16 0 10.8 16 0 11.4 16 0 
11.8 16 0 11 16 0 11.6 16 0 
11.2 16 0 12.4 16 0 12.8 16 0 
12.6 16 0 12.2 16 0 12 16 0 
13.8 16 0 13.2 16 0 13.4 16 0 
13.6 16 0 13 16 0 14.8 16 0 
14 16 0 14.2 16 0 14.4 16 0 
14.6 16 0 15 16 0 
gid 1 1049 double
1 1 1 1 1 1 1 1 1 
1 1 1 1 1 1 1 1 1 
1 1 1 1 1 1 1 1 1 
1 1 1 1 1 1 1 1 1 
1 1 1 1 2 2 2 2 2 
2 2 2 2 2 2 2 2 2 
2 2 2 1 1 2 2 2 1 
2 2 1 2 2 2 2 2 2 
2 2 2 2 2 2 2 2 2 
2 2 2 2 2 2 2 2 2 
2 2 2 2 2 2 2 2 2 
2 2 2 2 2 2 2 2 2 
2 2 2 2 2 2 2 2 2 
2 2 2 2 2 2 2 2 2 
2 2 2 2 2 2 2 2 2 
2 2 2 2 2 2 2 2 2 
2 2 2 2 2 2 2 2 2 
2 2 2 2 2 2 2 2 2 
2 2 2 2 2 2 2 2 2 
2 2 2 2 2 2 2 2 2 
2 2 2 2 2 2 2 2 2 
2 2 2 2 2 2 2 2 2 
1 1 1 1 1 2 2 2 2 
2 2 2 2 2 2 2 2 2 
2 2 2 2 2 2 2 2 2 
2 2 1 1 1 2 2 2 2 
2 2 2 2 2 2 2 2 2 
2 2 2 2 2 2 2 1 1 
2 2 2 2 2 2 2 2 2 
2 1 1 2 2 2 2 2 2 
2 2 2 2 2 2 2 2 2 
2 2 2 2 2 1 1 1 1 
2 2 2 2 2 2 2 2 2 
2 1 1 1 1 2 2 2 2 
2 2 2 2 2 2 2 2 2 
2 2 2 2 2 2 2 1 1 
1 1 1 1 2 2 2 2 2 
2 2 2 2 2 1 1 2 2 
2 2 2 2 2 2 2 2 2 
2 2 2 2 2 2 2 2 2 
1 1 1 2 2 2 2 2 2 
2 2 2 2 1 1 1 2 2 
2 2 2 2 2 2 2 2 2 
2 2 2 2 2 2 2 2 2 
1 1 1 1 1 2 2 2 2 
2 2 2 2 2 2 1 1 1 
2 2 2 2 2 2 2 2 2 
2 2 2 2 2 2 2 2 2 
2 2 1 2 2 2 2 2 2 
2 2 2 2 1 2 2 2 2 
2 2 2 2 2 2 2 2 2 
2 2 2 2 2 2 2 1 1 
1 1 2 2 2 2 2 2 2 
2 2 2 1 1 1 2 2 2 
2 2 2 2 2 1 2 2 2 
2 2 2 2 2 2 2 2 1 
2 2 2 2 2 1 2 2 2 
2 2 2 2 2 2 2 2 1 
2 2 2 2 2 2 2 2 2 
2 2 2 2 2 2 2 2 2 
2 2 2 2 2 2 2 2 2 
2 2 1 2 2 2 2 2 2 
2 2 1 2 1 2 2 2 2 
2 2 2 2 1 2 2 2 2 
2 2 2 2 1 1 1 1 2 
2 2 2 2 2 2 2 2 2 
1 2 2 2 2 2 2 2 2 
2 2 2 2 2 2 2 2 2 
2 2 2 2 2 2 2 2 2 
2 2 2 2 2 2 2 2 2 
2 2 2 2 2 2 2 2 2 
2 2 2 2 2 2 2 2 2 
2 2 2 2 2 2 2 2 2 
2 2 2 2 2 2 2 2 2 
2 2 2 2 2 2 2 2 2 
2 2 2 2 2 2 2 2 2 
2 2 2 2 2 2 2 2 2 
2 2 2 2 2 2 2 2 2 
2 2 2 2 2 2 2 2 2 
2 2 2 2 2 2 2 2 2 
2 2 2 2 2 2 2 2 2 
2 2 2 2 2 2 2 2 2 
2 2 2 2 2 2 2 2 2 
2 2 2 1 2 1 2 2 1 
1 2 2 2 2 2 2 2 2 
2 2 2 2 2 2 2 2 2 
2 2 2 2 2 2 2 2 2 
2 2 2 2 2 1 1 2 2 
2 2 2 2 2 2 2 2 2 
2 2 2 2 2 2 2 2 2 
2 2 2 2 2 1 1 2 2 
2 2 2 2 2 2 2 2 2 
2 2 2 2 2 2 2 2 2 
1 2 2 2 2 2 1 2 2 
2 2 2 2 2 2 2 2 2 
2 2 2 2 2 2 2 2 2 
1 1 2 2 2 2 2 2 2 
2 2 2 2 2 2 2 2 2 
2 2 2 2 2 2 2 2 2 
2 2 2 2 2 2 2 2 2 
2 2 2 2 2 2 2 2 2 
2 2 2 2 2 2 2 2 2 
2 2 2 2 2 2 2 2 2 
2 2 2 2 2 2 2 2 2 
2 2 2 2 2 2 2 2 2 
2 2 2 2 2 2 2 2 2 
2 2 2 2 2 2 2 2 2 
2 2 2 2 2 2 2 2 2 
2 2 2 2 2 2 2 2 2 
2 2 2 2 2 2 2 2 2 
2 2 2 2 2 2 2 2 2 
2 2 2 2 2 2 2 2 2 
2 2 2 2 2 2 2 2 2 
2 2 2 2 2 2 2 2 2 
2 2 2 2 2 2 2 2 2 
2 2 2 2 2 2 2 2 2 
2 2 2 2 2 
A 1 1049 double
10 10 10 10 10 10 10 10 10 
10 10 10 10 10 10 10 10 10 
10 10 10 10 10 10 10 10 10 
10 10 10 10 10 10 10 10 10 
10 10 10 10 10 10 10 10 10 
10 10 10 10 10 10 10 10 10 
10 10 10 10 10 10 10 10 10 
10 10 10 10 10 10 10 10 10 
10 10 10 10 10 10 10 10 10 
10 10 10 10 10 10 10 10 10 
10 10 10 10 10 10 10 10 10 
10 10 10 10 10 10 10 10 10 
10 10 10 10 10 10 10 10 10 
10 10 10 10 10 10 10 10 10 
10 10 10 10 10 10 10 10 10 
10 10 10 10 10 10 10 10 10 
10 10 10 10 10 10 10 10 10 
10 10 10 10 10 10 10 10 10 
10 10 10 10 10 10 10 10 10 
10 10 10 10 10 10 10 10 10 
10 10 10 10 10 10 10 10 10 
10 10 10 10 10 10 10 10 10 
10 10 10 10 10 10 10 10 10 
10 10 10 10 10 10 10 10 10 
10 10 10 10 10 10 10 10 10 
10 10 10 10 10 10 10 10 10 
10 10 10 10 10 10 10 10 10 
10 10 10 10 10 10 10 10 10 
10 10 10 10 10 10 10 10 10 
10 10 10 10 10 10 10 10 10 
10 10 10 10 10 10 10 10 10 
10 10 10 10 10 10 10 10 10 
10 10 10 10 10 10 10 10 10 
10 10 10 10 10 10 10 10 10 
10 10 10 10 10 10 10 10 10 
10 10 10 10 10 10 10 10 10 
10 10 10 10 10 10 10 10 10 
10 10 10 10 10 10 10 10 10 
10 10 10 10 10 10 10 10 10 
10 10 10 10 10 10 10 10 10 
10 10 10 10 10 10 10 10 10 
10 10 10 10 10 10 10 10 10 
10 10 10 10 10 10 10 10 10 
10 10 10 10 10 10 10 10 10 
10 10 10 10 10 10 10 10 10 
10 10 10 10 10 10 10 10 10 
10 10 10 10 10 10 10 10 10 
10 10 10 10 10 10 10 10 10 
10 10 10 10 10 10 10 10 10 
10 10 10 10 10 10 10 10 10 
10 10 10 10 10 10 10 10 10 
10 10 10 10 10 10 10 10 10 
10 10 10 10 10 10 10 10 10 
10 10 10 10 10 10 10 10 10 
10 10 10 10 10 10 10 10 10 
10 10 10 10 10 10 10 10 10 
10 10 10 10 10 10 10 10 10 
10 10 10 10 10 10 10 10 10 
10 10 10 10 10 10 10 10 10 
10 10 10 10 10 10 10 10 10 
10 10 10 10 10 10 10 10 10 
10 10 10 10 10 10 10 10 10 
10 10 10 10 10 10 10 10 10 
10 10 10 10 10 10 10 10 10 
10 10 10 10 10 10 10 10 10 
10 10 10 10 10 10 10 10 10 
10 10 10 10 10 10 10 10 10 
10 10 10 10 10 10 10 10 10 
10 10 10 10 10 10 10 10 10 
10 10 10 10 10 10 10 10 10 
10 10 10 10 10 10 10 10 10 
10 10 10 10 10 10 10 10 10 
10 10 10 10 10 10 10 10 10 
10 10 10 10 10 10 10 10 10 
10 10 10 10 10 10 10 10 10 
10 10 10 10 10 10 10 10 10 
10 10 10 10 10 10 10 10 10 
10 10 10 10 10 10 10 10 10 
10 10 10 10 10 10 10 10 10 
10 10 10 10 10 10 10 10 10 
10 10 10 10 10 10 10 10 10 
10 10 10 10 10 10 10 10 10 
10 10 10 10 10 10 10 10 10 
10 10 10 10 10 10 10 10 10 
10 10 10 10 10 10 10 10 10 
10 10 10 10 10 10 10 10 10 
10 10 10 10 10 10 10 10 10 
10 10 10 10 10 10 10 10 10 
10 10 10 10 10 10 10 10 10 
10 10 10 10 10 10 10 10 10 
10 10 10 10 10 10 10 10 10 
10 10 10 10 10 10 10 10 10 
10 10 10 10 10 10 10 10 10 
10 10 10 10 10 10 10 10 10 
10 10 10 10 10 10 10 10 10 
10 10 10 10 10 10 10 10 10 
10 10 10 10 10 10 10 10 10 
10 10 10 10 10 10 10 10 10 
10 10 10 10 10 10 10 10 10 
10 10 10 10 10 10 10 10 10 
10 10 10 10 10 10 10 10 10 
10 10 10 10 10 10 10 10 10 
10 10 10 10 10 10 10 10 10 
10 10 10 10 10 10 10 10 10 
10 10 10 10 10 10 10 10 10 
10 10 10 10 10 10 10 10 10 
10 10 10 10 10 10 10 10 10 
10 10 10 10 10 10 10 10 10 
10 10 10 10 10 10 10 10 10 
10 10 10 10 10 10 10 10 10 
10 10 10 10 10 10 10 10 10 
10 10 10 10 10 10 10 10 10 
10 10 10 10 10 10 10 10 10 
10 10 10 10 10 10 10 10 10 
10 10 10 10 10 10 10 10 10 
10 10 10 10 10 10 10 10 10 
10 10 10 10 10 
B 1 1049 double
0.2 0.2 0.2 0.2 0.2 0.2 0.2 0.2 0.2 
0.2 0.2 0.2 0.2 0.2 0.2 0.2 0.2 0.2 
0.2 0.2 0.2 0.2 0.2 0.2 0.2 0.2 0.2 
0.2 0.2 0.2 0.2 0.2 0.2 0.2 0.2 0.2 
0.2 0.2 0.2 0.2 0.2 0.2 0.2 0.2 0.2 
0.2 0.2 0.2 0.2 0.2 0.2 0.2 0.2 0.2 
0.2 0.2 0.2 0.2 0.2 0.2 0.2 0.2 0.2 
0.2 0.2 0.2 0.2 0.2 0.2 0.2 0.2 0.2 
0.2 0.2 0.2 0.2 0.2 0.2 0.2 0.2 0.2 
0.2 0.2 0.2 0.2 0.2 0.2 0.2 0.2 0.2 
0.2 0.2 0.2 0.2 0.2 0.2 0.2 0.2 0.2 
0.2 0.2 0.2 0.2 0.2 0.2 0.2 0.2 0.2 
0.2 0.2 0.2 0.2 0.2 0.2 0.2 0.2 0.2 
0.2 0.2 0.2 0.2 0.2 0.2 0.2 0.2 0.2 
0.2 0.2 0.2 0.2 0.2 0.2 0.2 0.2 0.2 
0.2 0.2 0.2 0.2 0.2 0.2 0.2 0.2 0.2 
0.2 0.2 0.2 0.2 0.2 0.2 0.2 0.2 0.2 
0.2 0.2 0.2 0.2 0.2 0.2 0.2 0.2 0.2 
0.2 0.2 0.2 0.2 0.2 0.2 0.2 0.2 0.2 
0.2 0.2 0.2 0.2 0.2 0.2 0.2 0.2 0.2 
0.2 0.2 0.2 0.2 0.2 0.2 0.2 0.2 0.2 
0.2 0.2 0.2 0.2 0.2 0.2 0.2 0.2 0.2 
0.2 0.2 0.2 0.2 0.2 0.2 0.2 0.2 0.2 
0.2 0.2 0.2 0.2 0.2 0.2 0.2 0.2 0.2 
0.2 0.2 0.2 0.2 0.2 0.2 0.2 0.2 0.2 
0.2 0.2 0.2 0.2 0.2 0.2 0.2 0.2 0.2 
0.2 0.2 0.2 0.2 0.2 0.2 0.2 0.2 0.2 
0.2 0.2 0.2 0.2 0.2 0.2 0.2 0.2 0.2 
0.2 0.2 0.2 0.2 0.2 0.2 0.2 0.2 0.2 
0.2 0.2 0.2 0.2 0.2 0.2 0.2 0.2 0.2 
0.2 0.2 0.2 0.2 0.2 0.2 0.2 0.2 0.2 
0.2 0.2 0.2 0.2 0.2 0.2 0.2 0.2 0.2 
0.2 0.2 0.2 0.2 0.2 0.2 0.2 0.2 0.2 
0.2 0.2 0.2 0.2 0.2 0.2 0.2 0.2 0.2 
0.2 0.2 0.2 0.2 0.2 0.2 0.2 0.2 0.2 
0.2 0.2 0.2 0.2 0.2 0.2 0.2 0.2 0.2 
0.2 0.2 0.2 0.2 0.2 0.2 0.2 0.2 0.2 
0.2 0.2 0.2 0.2 0.2 0.2 0.2 0.2 0.2 
0.2 0.2 0.2 0.2 0.2 0.2 0.2 0.2 0.2 
0.2 0.2 0.2 0.2 0.2 0.2 0.2 0.2 0.2 
0.2 0.2 0.2 0.2 0.2 0.2 0.2 0.2 0.2 
0.2 0.2 0.2 0.2 0.2 0.2 0.2 0.2 0.2 
0.2 0.2 0.2 0.2 0.2 0.2 0.2 0.2 0.2 
0.2 0.2 0.2 0.2 0.2 0.2 0.2 0.2 0.2 
0.2 0.2 0.2 0.2 0.2 0.2 0.2 0.2 0.2 
0.2 0.2 0.2 0.2 0.2 0.2 0.2 0.2 0.2 
0.2 0.2 0.2 0.2 0.2 0.2 0.2 0.2 0.2 
0.2 0.2 0.2 0.2 0.2 0.2 0.2 0.2 0.2 
0.2 0.2 0.2 0.2 0.2 0.2 0.2 0.2 0.2 
0.2 0.2 0.2 0.2 0.2 0.2 0.2 0.2 0.2 
0.2 0.2 0.2 0.2 0.2 0.2 0.2 0.2 0.2 
0.2 0.2 0.2 0.2 0.2 0.2 0.2 0.2 0.2 
0.2 0.2 0.2 0.2 0.2 0.2 0.2 0.2 0.2 
0.2 0.2 0.2 0.2 0.2 0.2 0.2 0.2 0.2 
0.2 0.2 0.2 0.2 0.2 0.2 0.2 0.2 0.2 
0.2 0.2 0.2 0.2 0.2 0.2 0.2 0.2 0.2 
0.2 0.2 0.2 0.2 0.2 0.2 0.2 0.2 0.2 
0.2 0.2 0.2 0.2 0.2 0.2 0.2 0.2 0.2 
0.2 0.2 0.2 0.2 0.2 0.2 0.2 0.2 0.2 
0.2 0.2 0.2 0.2 0.2 0.2 0.2 0.2 0.2 
0.2 0.2 0.2 0.2 0.2 0.2 0.2 0.2 0.2 
0.2 0.2 0.2 0.2 0.2 0.2 0.2 0.2 0.2 
0.2 0.2 0.2 0.2 0.2 0.2 0.2 0.2 0.2 
0.2 0.2 0.2 0.2 0.2 0.2 0.2 0.2 0.2 
0.2 0.2 0.2 0.2 0.2 0.2 0.2 0.2 0.2 
0.2 0.2 0.2 0.2 0.2 0.2 0.2 0.2 0.2 
0.2 0.2 0.2 0.2 0.2 0.2 0.2 0.2 0.2 
0.2 0.2 0.2 0.2 0.2 0.2 0.2 0.2 0.2 
0.2 0.2 0.2 0.2 0.2 0.2 0.2 0.2 0.2 
0.2 0.2 0.2 0.2 0.2 0.2 0.2 0.2 0.2 
0.2 0.2 0.2 0.2 0.2 0.2 0.2 0.2 0.2 
0.2 0.2 0.2 0.2 0.2 0.2 0.2 0.2 0.2 
0.2 0.2 0.2 0.2 0.2 0.2 0.2 0.2 0.2 
0.2 0.2 0.2 0.2 0.2 0.2 0.2 0.2 0.2 
0.2 0.2 0.2 0.2 0.2 0.2 0.2 0.2 0.2 
0.2 0.2 0.2 0.2 0.2 0.2 0.2 0.2 0.2 
0.2 0.2 0.2 0.2 0.2 0.2 0.2 0.2 0.2 
0.2 0.2 0.2 0.2 0.2 0.2 0.2 0.2 0.2 
0.2 0.2 0.2 0.2 0.2 0.2 0.2 0.2 0.2 
0.2 0.2 0.2 0.2 0.2 0.2 0.2 0.2 0.2 
0.2 0.2 0.2 0.2 0.2 0.2 0.2 0.2 0.2 
0.2 0.2 0.2 0.2 0.2 0.2 0.2 0.2 0.2 
0.2 0.2 0.2 0.2 0.2 0.2 0.2 0.2 0.2 
0.2 0.2 0.2 0.2 0.2 0.2 0.2 0.2 0.2 
0.2 0.2 0.2 0.2 0.2 0.2 0.2 0.2 0.2 
0.2 0.2 0.2 0.2 0.2 0.2 0.2 0.2 0.2 
0.2 0.2 0.2 0.2 0.2 0.2 0.2 0.2 0.2 
0.2 0.2 0.2 0.2 0.2 0.2 0.2 0.2 0.2 
0.2 0.2 0.2 0.2 0.2 0.2 0.2 0.2 0.2 
0.2 0.2 0.2 0.2 0.2 0.2 0.2 0.2 0.2 
0.2 0.2 0.2 0.2 0.2 0.2 0.2 0.2 0.2 
0.2 0.2 0.2 0.2 0.2 0.2 0.2 0.2 0.2 
0.2 0.2 0.2 0.2 0.2 0.2 0.2 0.2 0.2 
0.2 0.2 0.2 0.2 0.2 0.2 0.2 0.2 0.2 
0.2 0.2 0.2 0.2 0.2 0.2 0.2 0.2 0.2 
0.2 0.2 0.2 0.2 0.2 0.2 0.2 0.2 0.2 
0.2 0.2 0.2 0.2 0.2 0.2 0.2 0.2 0.2 
0.2 0.2 0.2 0.2 0.2 0.2 0.2 0.2 0.2 
0.2 0.2 0.2 0.2 0.2 0.2 0.2 0.2 0.2 
0.2 0.2 0.2 0.2 0.2 0.2 0.2 0.2 0.2 
0.2 0.2 0.2 0.2 0.2 0.2 0.2 0.2 0.2 
0.2 0.2 0.2 0.2 0.2 0.2 0.2 0.2 0.2 
0.2 0.2 0.2 0.2 0.2 0.2 0.2 0.2 0.2 
0.2 0.2 0.2 0.2 0.2 0.2 0.2 0.2 0.2 
0.2 0.2 0.2 0.2 0.2 0.2 0.2 0.2 0.2 
0.2 0.2 0.2 0.2 0.2 0.2 0.2 0.2 0.2 
0.2 0.2 0.2 0.2 0.2 0.2 0.2 0.2 0.2 
0.2 0.2 0.2 0.2 0.2 0.2 0.2 0.2 0.2 
0.2 0.2 0.2 0.2 0.2 0.2 0.2 0.2 0.2 
0.2 0.2 0.2 0.2 0.2 0.2 0.2 0.2 0.2 
0.2 0.2 0.2 0.2 0.2 0.2 0.2 0.2 0.2 
0.2 0.2 0.2 0.2 0.2 0.2 0.2 0.2 0.2 
0.2 0.2 0.2 0.2 0.2 0.2 0.2 0.2 0.2 
0.2 0.2 0.2 0.2 0.2 0.2 0.2 0.2 0.2 
0.2 0.2 0.2 0.2 0.2 0.2 0.2 0.2 0.2 
0.2 0.2 0.2 0.2 0.2 0.2 0.2 0.2 0.2 
0.2 0.2 0.2 0.2 0.2 
c 1 1049 double
0.1 0.1 0.1 0.1 0.1 0.1 0.1 0.1 0.1 
0.1 0.1 0.1 0.1 0.1 0.1 0.1 0.1 0.1 
0.1 0.1 0.1 0.1 0.1 0.1 0.1 0.1 0.1 
0.1 0.1 0.1 0.1 0.1 0.1 0.1 0.1 0.1 
0.1 0.1 0.1 0.1 0.1 0.1 0.1 0.1 0.1 
0.1 0.1 0.1 0.1 0.1 0.1 0.1 0.1 0.1 
0.1 0.1 0.1 0.1 0.1 0.1 0.1 0.1 0.1 
0.1 0.1 0.1 0.1 0.1 0.1 0.1 0.1 0.1 
0.1 0.1 0.1 0.1 0.1 0.1 0.1 0.1 0.1 
0.1 0.1 0.1 0.1 0.1 0.1 0.1 0.1 0.1 
0.1 0.1 0.1 0.1 0.1 0.1 0.1 0.1 0.1 
0.1 0.1 0.1 0.1 0.1 0.1 0.1 0.1 0.1 
0.1 0.1 0.1 0.1 0.1 0.1 0.1 0.1 0.1 
0.1 0.1 0.1 0.1 0.1 0.1 0.1 0.1 0.1 
0.1 0.1 0.1 0.1 0.1 0.1 0.1 0.1 0.1 
0.1 0.1 0.1 0.1 0.1 0.1 0.1 0.1 0.1 
0.1 0.1 0.1 0.1 0.1 0.1 0.1 0.1 0.1 
0.1 0.1 0.1 0.1 0.1 0.1 0.1 0.1 0.1 
0.1 0.1 0.1 0.1 0.1 0.1 0.1 0.1 0.1 
0.1 0.1 0.1 0.1 0.1 0.1 0.1 0.1 0.1 
0.1 0.1 0.1 0.1 0.1 0.1 0.1 0.1 0.1 
0.1 0.1 0.1 0.1 0.1 0.1 0.1 0.1 0.1 
0.1 0.1 0.1 0.1 0.1 0.1 0.1 0.1 0.1 
0.1 0.1 0.1 0.1 0.1 0.1 0.1 0.1 0.1 
0.1 0.1 0.1 0.1 0.1 0.1 0.1 0.1 0.1 
0.1 0.1 0.1 0.1 0.1 0.1 0.1 0.1 0.1 
0.1 0.1 0.1 0.1 0.1 0.1 0.1 0.1 0.1 
0.1 0.1 0.1 0.1 0.1 0.1 0.1 0.1 0.1 
0.1 0.1 0.1 0.1 0.1 0.1 0.1 0.1 0.1 
0.1 0.1 0.1 0.1 0.1 0.1 0.1 0.1 0.1 
0.1 0.1 0.1 0.1 0.1 0.1 0.1 0.1 0.1 
0.1 0.1 0.1 0.1 0.1 0.1 0.1 0.1 0.1 
0.1 0.1 0.1 0.1 0.1 0.1 0.1 0.1 0.1 
0.1 0.1 0.1 0.1 0.1 0.1 0.1 0.1 0.1 
0.1 0.1 0.1 0.1 0.1 0.1 0.1 0.1 0.1 
0.1 0.1 0.1 0.1 0.1 0.1 0.1 0.1 0.1 
0.1 0.1 0.1 0.1 0.1 0.1 0.1 0.1 0.1 
0.1 0.1 0.1 0.1 0.1 0.1 0.1 0.1 0.1 
0.1 0.1 0.1 0.1 0.1 0.1 0.1 0.1 0.1 
0.1 0.1 0.1 0.1 0.1 0.1 0.1 0.1 0.1 
0.1 0.1 0.1 0.1 0.1 0.1 0.1 0.1 0.1 
0.1 0.1 0.1 0.1 0.1 0.1 0.1 0.1 0.1 
0.1 0.1 0.1 0.1 0.1 0.1 0.1 0.1 0.1 
0.1 0.1 0.1 0.1 0.1 0.1 0.1 0.1 0.1 
0.1 0.1 0.1 0.1 0.1 0.1 0.1 0.1 0.1 
0.1 0.1 0.1 0.1 0.1 0.1 0.1 0.1 0.1 
0.1 0.1 0.1 0.1 0.1 0.1 0.1 0.1 0.1 
0.1 0.1 0.1 0.1 0.1 0.1 0.1 0.1 0.1 
0.1 0.1 0.1 0.1 0.1 0.1 0.1 0.1 0.1 
0.1 0.1 0.1 0.1 0.1 0.1 0.1 0.1 0.1 
0.1 0.1 0.1 0.1 0.1 0.1 0.1 0.1 0.1 
0.1 0.1 0.1 0.1 0.1 0.1 0.1 0.1 0.1 
0.1 0.1 0.1 0.1 0.1 0.1 0.1 0.1 0.1 
0.1 0.1 0.1 0.1 0.1 0.1 0.1 0.1 0.1 
0.1 0.1 0.1 0.1 0.1 0.1 0.1 0.1 0.1 
0.1 0.1 0.1 0.1 0.1 0.1 0.1 0.1 0.1 
0.1 0.1 0.1 0.1 0.1 0.1 0.1 0.1 0.1 
0.1 0.1 0.1 0.1 0.1 0.1 0.1 0.1 0.1 
0.1 0.1 0.1 0.1 0.1 0.1 0.1 0.1 0.1 
0.1 0.1 0.1 0.1 0.1 0.1 0.1 0.1 0.1 
0.1 0.1 0.1 0.1 0.1 0.1 0.1 0.1 0.1 
0.1 0.1 0.1 0.1 0.1 0.1 0.1 0.1 0.1 
0.1 0.1 0.1 0.1 0.1 0.1 0.1 0.1 0.1 
0.1 0.1 0.1 0.1 0.1 0.1 0.1 0.1 0.1 
0.1 0.1 0.1 0.1 0.1 0.1 0.1 0.1 0.1 
0.1 0.1 0.1 0.1 0.1 0.1 0.1 0.1 0.1 
0.1 0.1 0.1 0.1 0.1 0.1 0.1 0.1 0.1 
0.1 0.1 0.1 0.1 0.1 0.1 0.1 0.1 0.1 
0.1 0.1 0.1 0.1 0.1 0.1 0.1 0.1 0.1 
0.1 0.1 0.1 0.1 0.1 0.1 0.1 0.1 0.1 
0.1 0.1 0.1 0.1 0.1 0.1 0.1 0.1 0.1 
0.1 0.1 0.1 0.1 0.1 0.1 0.1 0.1 0.1 
0.1 0.1 0.1 0.1 0.1 0.1 0.1 0.1 0.1 
0.1 0.1 0.1 0.1 0.1 0.1 0.1 0.1 0.1 
0.1 0.1 0.1 0.1 0.1 0.1 0.1 0.1 0.1 
0.1 0.1 0.1 0.1 0.1 0.1 0.1 0.1 0.1 
0.1 0.1 0.1 0.1 0.1 0.1 0.1 0.1 0.1 
0.1 0.1 0.1 0.1 0.1 0.1 0.1 0.1 0.1 
0.1 0.1 0.1 0.1 0.1 0.1 0.1 0.1 0.1 
0.1 0.1 0.1 0.1 0.1 0.1 0.1 0.1 0.1 
0.1 0.1 0.1 0.1 0.1 0.1 0.1 0.1 0.1 
0.1 0.1 0.1 0.1 0.1 0.1 0.1 0.1 0.1 
0.1 0.1 0.1 0.1 0.1 0.1 0.1 0.1 0.1 
0.1 0.1 0.1 0.1 0.1 0.1 0.1 0.1 0.1 
0.1 0.1 0.1 0.1 0.1 0.1 0.1 0.1 0.1 
0.1 0.1 0.1 0.1 0.1 0.1 0.1 0.1 0.1 
0.1 0.1 0.1 0.1 0.1 0.1 0.1 0.1 0.1 
0.1 0.1 0.1 0.1 0.1 0.1 0.1 0.1 0.1 
0.1 0.1 0.1 0.1 0.1 0.1 0.1 0.1 0.1 
0.1 0.1 0.1 0.1 0.1 0.1 0.1 0.1 0.1 
0.1 0.1 0.1 0.1 0.1 0.1 0.1 0.1 0.1 
0.1 0.1 0.1 0.1 0.1 0.1 0.1 0.1 0.1 
0.1 0.1 0.1 0.1 0.1 0.1 0.1 0.1 0.1 
0.1 0.1 0.1 0.1 0.1 0.1 0.1 0.1 0.1 
0.1 0.1 0.1 0.1 0.1 0.1 0.1 0.1 0.1 
0.1 0.1 0.1 0.1 0.1 0.1 0.1 0.1 0.1 
0.1 0.1 0.1 0.1 0.1 0.1 0.1 0.1 0.1 
0.1 0.1 0.1 0.1 0.1 0.1 0.1 0.1 0.1 
0.1 0.1 0.1 0.1 0.1 0.1 0.1 0.1 0.1 
0.1 0.1 0.1 0.1 0.1 0.1 0.1 0.1 0.1 
0.1 0.1 0.1 0.1 0.1 0.1 0.1 0.1 0.1 
0.1 0.1 0.1 0.1 0.1 0.1 0.1 0.1 0.1 
0.1 0.1 0.1 0.1 0.1 0.1 0.1 0.1 0.1 
0.1 0.1 0.1 0.1 0.1 0.1 0.1 0.1 0.1 
0.1 0.1 0.1 0.1 0.1 0.1 0.1 0.1 0.1 
0.1 0.1 0.1 0.1 0.1 0.1 0.1 0.1 0.1 
0.1 0.1 0.1 0.1 0.1 0.1 0.1 0.1 0.1 
0.1 0.1 0.1 0.1 0.1 0.1 0.1 0.1 0.1 
0.1 0.1 0.1 0.1 0.1 0.1 0.1 0.1 0.1 
0.1 0.1 0.1 0.1 0.1 0.1 0.1 0.1 0.1 
0.1 0.1 0.1 0.1 0.1 0.1 0.1 0.1 0.1 
0.1 0.1 0.1 0.1 0.1 0.1 0.1 0.1 0.1 
0.1 0.1 0.1 0.1 0.1 0.1 0.1 0.1 0.1 
0.1 0.1 0.1 0.1 0.1 0.1 0.1 0.1 0.1 
0.1 0.1 0.1 0.1 0.1 0.1 0.1 0.1 0.1 
0.1 0.1 0.1 0.1 0.1 0.1 0.1 0.1 0.1 
0.1 0.1 0.1 0.1 0.1 
m 1 1049 double
76.33 56.755 91.315 65.975 84.655 61.625 94.14 62.64 84.935 
75.77 65.745 99.255 90.92 83.88 94.295 53.285 95.485 97.585 
93.885 56.49 91.99 92.105 53.87 63.205 91.415 90.795 89.775 
69.85 88.61 76.76 58.915 92.83 95.63 68.31 62.455 73.95 
51.995 53.195 71.55 60.985 74.595 63.77 56.63 72.105 71.295 
86.865 96.915 90.21 81.145 59.805 68.92 91.575 75.99 71.85 
92.685 71.62 54.43 84.075 65.415 67.63 82.065 80.455 56.77 
94.9 63.885 54.265 84.31 84.98 99.78 59.365 86.405 95.85 
81.635 85.42 51.68 61.525 54.625 54.23 56.565 94.72 91.01 
67.53 58.645 84.575 82.525 66.01 80.62 97.91 52.725 79.285 
69.475 70.215 66.835 77.17 51.82 94.07 86.38 68.75 85.89 
84.04 55.435 78.94 63.255 63.77 77.015 67.92 99.66 75.3 
61.995 66.84 98.38 88.965 50.06 76.7 64.145 81.13 91.95 
92.93 88.695 58.41 52.85 87.695 57.17 53.975 90.47 50.485 
51.89 87.335 83.005 64.51 86.505 52.46 66.585 83.26 53.78 
98.445 69.325 71.43 97.205 51.4 83.095 92.22 73.645 92.2 
90.155 94.935 72.405 90.485 78.855 90.585 89.44 77.165 91.69 
91.675 53.375 89.28 72.835 94.635 53.545 84.825 76.53 72.93 
97.485 61.765 64.355 57.64 93.12 81.095 73.415 78.66 50.095 
94.145 97.515 91.35 81.7 98.54 66.84 90.745 83.575 64.23 
63.09 61.225 67.295 78.645 68.09 76.93 53.615 88.98 55.5 
67.255 64.605 67.775 88.82 61.895 87.44 52.46 91.14 99.205 
69.45 82.91 79.28 75.995 58.805 61.75 83.245 75.965 85.17 
50.62 88.82 57.5 84.935 74.57 91.825 68.715 82.455 79.28 
61.135 99.295 57.105 59.68 62.755 57.16 88.105 66.025 53.065 
62.52 97.835 88.325 59.26 97.965 83.92 60.105 97.64 64.21 
54.34 65.72 89.94 61.46 53.715 78.975 88.205 81.775 80.945 
61.37 83.1 56.165 90.125 97.19 65.37 56.94 95.075 86.39 
77.035 82.185 66.375 96.14 57.37 79.42 77.895 59.965 90.71 
59.3 91.91 98.36 52.49 99.79 75.945 99.54 94.36 89.855 
51.445 84.745 76.835 76.19 98.05 97.395 50.45 94.845 72.06 
90.785 68.405 51.79 67.465 51.35 63.675 80.635 50.185 64.86 
80.605 80.145 94.29 56.185 71.975 58.88 73.845 76.365 94.25 
86.275 50.495 51.54 80.435 82.95 81.24 90.18 94.04 66.515 
88.765 65.885 81.675 82.145 64.5 76.715 67.56 96.07 56.56 
91.775 59.43 67.085 77.845 59.195 53.495 91.815 65.86 62.775 
77.555 69.135 77.105 59.25 91.175 68.965 72.14 79.09 80.715 
55.775 79.97 51.895 90.02 88.66 54.55 52.64 98.77 60.665 
64.45 58.24 66.665 50.245 91.425 54.82 78.145 52.52 92.965 
54.285 98.155 95.4 93.135 93.97 82.155 99.235 65.865 63.11 
81.82 83.255 54.64 55.055 97.645 62.02 93.88 79.64 62.95 
91.045 96.68 92.905 94.095 75 64.785 57.705 58.73 87.835 
97.645 51.84 72.5 58.46 61.075 71.695 80.635 60.67 61.45 
84.85 63.235 95.255 94.73 96.95 78.955 83.41 87.31 71.46 
65.345 81.085 79.025 54.985 54.44 93.03 72.69 78.815 73.065 
72.215 52.62 69.49 61.49 80.95 53.565 71.125 77.41 73.465 
84.95 81.245 98.985 68.94 90.23 62.675 80.795 88.235 92.69 
75.755 77.89 82.76 74.58 74.97 67.645 80.785 92.87 57.605 
75.285 75.575 72.85 64.52 53.44 74.09 75.64 84.2 96.495 
83.2 80.21 76.925 56.11 85.085 66.515 62.485 51.265 76.815 
65.165 52.14 72.5 82.015 60.01 53.405 63.63 86.93 81.56 
71.73 75.5 64.755 59.735 96.155 57.455 75.105 62.195 61.75 
88.58 61.965 84.98 99.585 66.62 86.845 89.585 88.125 59.86 
96.46 69.25 88.36 55.865 67.685 93.285 88.43 95.625 55.76 
61.81 69.98 74.46 68.645 79.875 86.67 95.785 95.94 77.18 
62.3 50.135 67.07 69.605 52.3 93.45 81.52 83.74 54.355 
90.135 50.14 90.25 87.78 94.51 74.925 73.97 93.495 88.485 
55.195 55.215 61.305 52.845 67.705 69.13 71.16 50.295 72.76 
80.21 95.585 83.805 51.8 50.405 90.115 65.95 81.545 88.815 
77.125 69.63 94.98 53.45 58.13 71.17 81.835 73.385 72.62 
80.285 65.84 91.025 51.79 98.07 88.85 84.28 72.83 52.085 
52.7 86.42 93.81 79.245 51.185 65.295 86.025 61.3 53.03 
67.13 92.59 67.14 76.085 82.53 53.915 74.725 95.86 84.365 
54.365 88.185 92.29 52.415 96.84 71.445 63.785 96.57 83.035 
72.355 52.39 65.345 78.68 96.67 60.355 50.04 83.105 77.495 
92.45 88.715 60.915 97.35 50.42 78.15 56.98 70.405 86.345 
86.4 78.22 87.525 77.95 98.86 83.625 50.635 83.29 89.09 
87.8 69.75 76.055 76.18 62.11 69.6 96.12 76.84 56.22 
52.815 62.835 75.525 50.245 66.455 99.67 59.025 86.875 93.555 
68.07 68.84 94.965 94.775 67.945 64.025 74.59 84.41 74.11 
84.91 54.625 83.585 83.55 82.145 81.64 96.455 70.09 65.465 
70.15 57.87 84.18 85.45 86.085 84.815 69.29 75.275 56.965 
74.52 90.65 92.855 92.28 63.305 63.02 98.425 73.945 84.255 
98.165 65.365 82.515 96.25 99.025 89.34 97.425 87.58 95.03 
64.745 67.58 55.405 76.625 78.91 60.975 73.195 54.835 51.13 
55.6 88.385 83.815 52.98 54.325 69.905 95.18 87.8 88.85 
81.71 96.055 67.59 89.775 86.605 75.98 62.66 91.35 61.895 
74.92 60.2 72.135 71.17 70.86 50.36 55.315 86.99 86.415 
79.15 51.735 68.57 84.75 52.865 60.15 70.235 87.61 75.41 
84.62 80.295 97.175 96.02 56.16 64.77 52.215 59.49 77.43 
78.2 71.39 95.795 96.31 55.205 98.415 51.31 99.24 58.615 
64.03 81.36 78.985 91.62 69.795 90.835 95.61 83.64 87.285 
86.675 70.77 79.105 96.825 55.855 63.735 58.88 51.345 76.09 
58.515 99.665 93.505 59.44 73.265 83.05 54.535 57.65 56.345 
92.885 68.7 64.31 70.49 52.685 75.27 70.15 64.77 75.615 
90.695 88.345 98.93 79.92 58.525 55.635 95.75 81.14 57.43 
51.265 50.63 82.965 52.715 80.695 58.98 61.155 65.01 77.02 
85.42 76.67 56.54 63.49 93.6 86.805 94.88 90.41 92.71 
97.535 92.32 50.985 99.52 69.7 78.335 79.695 99.055 73.565 
89.07 90.895 65.37 91.885 96.09 69.85 61.69 72.9 95.105 
54.955 81.88 55.26 94.49 63.575 67.185 91.705 96.775 94.02 
68.11 81.74 93.055 56.275 74.095 72.995 88.605 76.605 85.44 
73.81 78.875 78.55 64.595 76.895 74.06 63.425 74.885 99.31 
92.06 70.05 75.855 62.53 90.945 57.795 82.225 78.73 89.14 
77.84 96.495 86.715 88.565 86.86 87.935 96.505 91.03 55.085 
83.66 51.47 51.73 51.175 70.88 99.52 96.035 67.415 57.68 
54.76 94.77 65.675 66.555 77.11 88.025 69.05 71.7 61.68 
76.05 81.71 58.295 60.045 69.715 62.865 75.765 55.685 78.455 
99.555 74.285 67.495 98.795 98.72 55.68 51.685 98.09 88.215 
70.335 56.8 56.525 59.005 74.39 68.65 78.305 66.74 60.86 
97.06 84.435 69.645 95.895 98.78 87.225 95.535 92.09 66.88 
77.71 60.45 79.68 88.42 56.7 75.42 82.33 64.63 55.475 
64.065 68.865 64.795 85.95 98.34 85.995 94.495 64.98 50.815 
89.905 99.01 79.47 94.665 74.65 93.3 69.405 50.355 87.34 
54.865 85.655 60.18 67.26 77.75 59.495 96.895 64.62 78.12 
63 88.185 60.31 66.29 67.08 67.325 83.54 91.41 93.13 
97.22 93.68 96.6 92.61 70.11 91.12 95.08 65.545 82.695 
75.265 90.545 66.89 75.405 50 56.69 97.13 90.335 95.57 
79.945 83.935 75.735 61.155 82.66 76.115 56.405 69.375 50.895 
60.61 74.25 55.655 76.75 61.27 82.95 69.065 57.47 95.905 
89.285 80.405 73.015 78.6 62.165 89.91 50.905 87.435 97.075 
96.48 94.125 93.61 77.02 51.485 95.67 50.16 52.755 84.46 
52.075 65.905 85.285 98.54 92.53 61.485 52.975 59.81 99.995 
87.415 75.055 78.88 56.545 50.77 94.885 62.935 99.66 66.91 
75.105 71.33 68.41 88.425 67.815 96.055 94.3 54.65 72.915 
79.95 71.425 95.43 59.46 57.38 70.58 79.1 86.57 87.45 
87.625 77.64 94.195 87.625 65.29 
p0 3 1049 double
0 -10 0 0 -10 0 0 -10 0 
0 -10 0 0 -10 0 0 -10 0 
0 -10 0 0 -10 0 0 -10 0 
0 -10 0 0 -10 0 0 -10 0 
0 -10 0 0 -10 0 0 -10 0 
0 -10 0 0 -10 0 0 -10 0 
0 -10 0 0 -10 0 0 -10 0 
0 -10 0 0 -10 0 0 -10 0 
0 -10 0 0 -10 0 0 -10 0 
0 -10 0 0 -10 0 0 -10 0 
0 -10 0 0 -10 0 0 -10 0 
0 -10 0 0 -10 0 0 -10 0 
0 -10 0 0 -10 0 0 -10 0 
0 -10 0 0 0 0 0 0 0 
0 0 0 0 0 0 0 0 0 
0 0 0 0 0 0 0 0 0 
0 0 0 0 0 0 0 0 0 
0 0 0 0 0 0 0 0 0 
0 0 0 0 0 0 0 0 0 
-12 0 0 -12 0 0 0 0 0 
0 0 0 0 0 0 -12 0 0 
0 0 0 0 0 0 -12 0 0 
0 0 0 0 0 0 0 0 0 
0 0 0 0 0 0 0 0 0 
0 0 0 0 0 0 0 0 0 
0 0 0 0 0 0 0 0 0 
0 0 0 0 0 0 0 0 0 
0 0 0 0 0 0 0 0 0 
0 0 0 0 0 0 0 0 0 
0 0 0 0 0 0 0 0 0 
0 0 0 0 0 0 0 0 0 
0 0 0 0 0 0 0 0 0 
0 0 0 0 0 0 0 0 0 
0 0 0 0 0 0 0 0 0 
0 0 0 0 0 0 0 0 0 
0 0 0 0 0 0 0 0 0 
0 0 0 0 0 0 0 0 0 
0 0 0 0 0 0 0 0 0 
0 0 0 0 0 0 0 0 0 
0 0 0 0 0 0 0 0 0 
0 0 0 0 0 0 0 0 0 
0 0 0 0 0 0 0 0 0 
0 0 0 0 0 0 0 0 0 
0 0 0 0 0 0 0 0 0 
0 0 0 0 0 0 0 0 0 
0 0 0 0 0 0 0 0 0 
0 0 0 0 0 0 0 0 0 
0 0 0 0 0 0 0 0 0 
0 0 0 0 0 0 0 0 0 
0 0 0 0 0 0 0 0 0 
0 0 0 0 0 0 0 0 0 
0 0 0 0 0 0 0 0 0 
0 0 0 0 0 0 0 0 0 
0 0 0 0 0 0 0 0 0 
0 0 0 0 0 0 0 0 0 
0 0 0 0 0 0 0 0 0 
0 0 0 0 0 0 0 0 0 
0 0 0 0 0 0 0 0 0 
0 0 0 0 0 0 0 0 0 
0 0 0 0 0 0 0 0 0 
0 0 0 0 0 0 0 0 0 
0 0 0 0 0 0 0 0 0 
0 0 0 0 0 0 0 0 0 
0 0 0 0 0 0 0 0 0 
0 0 0 0 0 0 0 0 0 
0 0 0 0 0 0 0 0 0 
12 0 0 12 0 0 12 0 0 
12 0 0 12 0 0 0 0 0 
0 0 0 0 0 0 0 0 0 
0 0 0 0 0 0 0 0 0 
0 0 0 0 0 0 0 0 0 
0 0 0 0 0 0 0 0 0 
0 0 0 0 0 0 0 0 0 
0 0 0 0 0 0 0 0 0 
0 0 0 0 0 0 0 0 0 
0 0 0 0 0 0 -12 0 0 
-12 0 0 -12 0 0 0 0 0 
0 0 0 0 0 0 0 0 0 
0 0 0 0 0 0 0 0 0 
0 0 0 0 0 0 0 0 0 
0 0 0 0 0 0 0 0 0 
0 0 0 0 0 0 0 0 0 
0 0 0 0 0 0 0 0 0 
0 0 0 12 0 0 12 0 0 
0 0 0 0 0 0 0 0 0 
0 0 0 0 0 0 0 0 0 
0 0 0 0 0 0 0 0 0 
0 0 0 -12 0 0 -12 0 0 
0 0 0 0 0 0 0 0 0 
0 0 0 0 0 0 0 0 0 
0 0 0 0 0 0 0 0 0 
0 0 0 0 0 0 0 0 0 
0 0 0 0 0 0 0 0 0 
0 0 0 0 0 0 0 0 0 
0 0 0 0 0 0 12 0 0 
12 0 0 12 0 0 12 0 0 
0 0 0 0 0 0 0 0 0 
0 0 0 0 0 0 0 0 0 
0 0 0 0 0 0 0 0 0 
0 0 0 -12 0 0 -12 0 0 
-12 0 0 -12 0 0 0 0 0 
0 0 0 0 0 0 0 0 0 
0 0 0 0 0 0 0 0 0 
0 0 0 0 0 0 0 0 0 
0 0 0 0 0 0 0 0 0 
0 0 0 0 0 0 0 0 0 
0 0 0 0 0 0 0 0 0 
0 0 0 12 0 0 12 0 0 
12 0 0 12 0 0 12 0 0 
12 0 0 0 0 0 0 0 0 
0 0 0 0 0 0 0 0 0 
0 0 0 0 0 0 0 0 0 
0 0 0 0 0 0 -12 0 0 
-12 0 0 0 0 0 0 0 0 
0 0 0 0 0 0 0 0 0 
0 0 0 0 0 0 0 0 0 
0 0 0 0 0 0 0 0 0 
0 0 0 0 0 0 0 0 0 
0 0 0 0 0 0 0 0 0 
0 0 0 0 0 0 0 0 0 
12 0 0 12 0 0 12 0 0 
0 0 0 0 0 0 0 0 0 
0 0 0 0 0 0 0 0 0 
0 0 0 0 0 0 0 0 0 
0 0 0 -12 0 0 -12 0 0 
-12 0 0 0 0 0 0 0 0 
0 0 0 0 0 0 0 0 0 
0 0 0 0 0 0 0 0 0 
0 0 0 0 0 0 0 0 0 
0 0 0 0 0 0 0 0 0 
0 0 0 0 0 0 0 0 0 
0 0 0 0 0 0 0 0 0 
12 0 0 12 0 0 12 0 0 
12 0 0 12 0 0 0 0 0 
0 0 0 0 0 0 0 0 0 
0 0 0 0 0 0 0 0 0 
0 0 0 0 0 0 0 0 0 
-12 0 0 -12 0 0 -12 0 0 
0 0 0 0 0 0 0 0 0 
0 0 0 0 0 0 0 0 0 
0 0 0 0 0 0 0 0 0 
0 0 0 0 0 0 0 0 0 
0 0 0 0 0 0 0 0 0 
0 0 0 0 0 0 0 0 0 
0 0 0 0 0 0 12 0 0 
0 0 0 0 0 0 0 0 0 
0 0 0 0 0 0 0 0 0 
0 0 0 0 0 0 0 0 0 
0 0 0 -12 0 0 0 0 0 
0 0 0 0 0 0 0 0 0 
0 0 0 0 0 0 0 0 0 
0 0 0 0 0 0 0 0 0 
0 0 0 0 0 0 0 0 0 
0 0 0 0 0 0 0 0 0 
0 0 0 0 0 0 0 0 0 
0 0 0 12 0 0 12 0 0 
12 0 0 12 0 0 0 0 0 
0 0 0 0 0 0 0 0 0 
0 0 0 0 0 0 0 0 0 
0 0 0 0 0 0 0 0 0 
-12 0 0 -12 0 0 -12 0 0 
0 0 0 0 0 0 0 0 0 
0 0 0 0 0 0 0 0 0 
0 0 0 0 0 0 -9 9 0 
0 0 0 0 0 0 0 0 0 
0 0 0 0 0 0 0 0 0 
0 0 0 0 0 0 0 0 0 
0 0 0 0 0 0 -9 9 0 
0 0 0 0 0 0 0 0 0 
0 0 0 0 0 0 -9 9 0 
0 0 0 0 0 0 0 0 0 
0 0 0 0 0 0 0 0 0 
0 0 0 0 0 0 0 0 0 
0 0 0 0 0 0 -9 9 0 
0 0 0 0 0 0 0 0 0 
0 0 0 0 0 0 0 0 0 
0 0 0 0 0 0 0 0 0 
0 0 0 0 0 0 0 0 0 
0 0 0 0 0 0 0 0 0 
0 0 0 0 0 0 0 0 0 
0 0 0 0 0 0 0 0 0 
0 0 0 0 0 0 0 0 0 
0 0 0 0 0 0 0 0 0 
0 0 0 0 0 0 9 9 0 
0 0 0 0 0 0 0 0 0 
0 0 0 0 0 0 0 0 0 
0 0 0 0 0 0 9 9 0 
0 0 0 9 9 0 0 0 0 
0 0 0 0 0 0 0 0 0 
0 0 0 0 0 0 0 0 0 
0 0 0 9 9 0 0 0 0 
0 0 0 0 0 0 0 0 0 
0 0 0 0 0 0 0 0 0 
0 0 0 12 0 0 12 0 0 
12 0 0 12 0 0 0 0 0 
0 0 0 0 0 0 0 0 0 
0 0 0 0 0 0 0 0 0 
0 0 0 0 0 0 0 0 0 
12 0 0 0 0 0 0 0 0 
0 0 0 0 0 0 0 0 0 
0 0 0 0 0 0 0 0 0 
0 0 0 0 0 0 0 0 0 
0 0 0 0 0 0 0 0 0 
0 0 0 0 0 0 0 0 0 
0 0 0 0 0 0 0 0 0 
0 0 0 0 0 0 0 0 0 
0 0 0 0 0 0 0 0 0 
0 0 0 0 0 0 0 0 0 
0 0 0 0 0 0 0 0 0 
0 0 0 0 0 0 0 0 0 
0 0 0 0 0 0 0 0 0 
0 0 0 0 0 0 0 0 0 
0 0 0 0 0 0 0 0 0 
0 0 0 0 0 0 0 0 0 
0 0 0 0 0 0 0 0 0 
0 0 0 0 0 0 0 0 0 
0 0 0 0 0 0 0 0 0 
0 0 0 0 0 0 0 0 0 
0 0 0 0 0 0 0 0 0 
0 0 0 0 0 0 0 0 0 
0 0 0 0 0 0 0 0 0 
0 0 0 0 0 0 0 0 0 
0 0 0 0 0 0 0 0 0 
0 0 0 0 0 0 0 0 0 
0 0 0 0 0 0 0 0 0 
0 0 0 0 0 0 0 0 0 
0 0 0 0 0 0 0 0 0 
0 0 0 0 0 0 0 0 0 
0 0 0 0 0 0 0 0 0 
0 0 0 0 0 0 0 0 0 
0 0 0 0 0 0 0 0 0 
0 0 0 0 0 0 0 0 0 
0 0 0 0 0 0 0 0 0 
0 0 0 0 0 0 0 0 0 
0 0 0 0 0 0 0 0 0 
0 0 0 0 0 0 0 0 0 
0 0 0 0 0 0 0 0 0 
0 0 0 0 0 0 0 0 0 
0 0 0 0 0 0 0 0 0 
0 0 0 0 0 0 0 0 0 
0 0 0 0 0 0 0 0 0 
0 0 0 0 0 0 0 0 0 
0 0 0 0 0 0 0 0 0 
0 0 0 0 0 0 0 0 0 
0 0 0 0 0 0 0 0 0 
0 0 0 0 0 0 0 0 0 
0 0 0 0 0 0 0 0 0 
0 0 0 0 0 0 0 0 0 
0 0 0 0 0 0 0 0 0 
0 0 0 0 0 0 0 0 0 
13.5 10 0 0 0 0 13.5 10 0 
0 0 0 0 0 0 13.5 10 0 
13.5 10 0 0 0 0 0 0 0 
0 0 0 0 0 0 0 0 0 
0 0 0 0 0 0 0 0 0 
0 0 0 0 0 0 0 0 0 
0 0 0 0 0 0 0 0 0 
0 0 0 0 0 0 0 0 0 
0 0 0 0 0 0 0 0 0 
0 0 0 0 0 0 0 0 0 
0 0 0 0 0 0 0 0 0 
0 0 0 0 0 0 0 0 0 
0 0 0 0 0 0 13.5 10 0 
13.5 10 0 0 0 0 0 0 0 
0 0 0 0 0 0 0 0 0 
0 0 0 0 0 0 0 0 0 
0 0 0 0 0 0 0 0 0 
0 0 0 0 0 0 0 0 0 
0 0 0 0 0 0 0 0 0 
0 0 0 0 0 0 0 0 0 
0 0 0 0 0 0 0 0 0 
0 0 0 0 0 0 13.5 10 0 
13.5 10 0 0 0 0 0 0 0 
0 0 0 0 0 0 0 0 0 
0 0 0 0 0 0 0 0 0 
0 0 0 0 0 0 0 0 0 
0 0 0 0 0 0 0 0 0 
0 0 0 0 0 0 0 0 0 
0 0 0 0 0 0 0 0 0 
9 14.5 0 0 0 0 0 0 0 
0 0 0 0 0 0 0 0 0 
13.5 10 0 0 0 0 0 0 0 
0 0 0 0 0 0 0 0 0 
0 0 0 0 0 0 0 0 0 
0 0 0 0 0 0 0 0 0 
0 0 0 0 0 0 0 0 0 
0 0 0 0 0 0 0 0 0 
0 0 0 0 0 0 0 0 0 
9 14.5 0 13.5 10 0 0 0 0 
0 0 0 0 0 0 0 0 0 
0 0 0 0 0 0 0 0 0 
0 0 0 0 0 0 0 0 0 
0 0 0 0 0 0 0 0 0 
0 0 0 0 0 0 0 0 0 
0 0 0 0 0 0 0 0 0 
0 0 0 0 0 0 0 0 0 
0 0 0 0 0 0 0 0 0 
0 0 0 0 0 0 0 0 0 
0 0 0 0 0 0 0 0 0 
0 0 0 0 0 0 0 0 0 
0 0 0 0 0 0 0 0 0 
0 0 0 0 0 0 0 0 0 
0 0 0 0 0 0 0 0 0 
0 0 0 0 0 0 0 0 0 
0 0 0 0 0 0 0 0 0 
0 0 0 0 0 0 0 0 0 
0 0 0 0 0 0 0 0 0 
0 0 0 0 0 0 0 0 0 
0 0 0 0 0 0 0 0 0 
0 0 0 0 0 0 0 0 0 
0 0 0 0 0 0 0 0 0 
0 0 0 0 0 0 0 0 0 
0 0 0 0 0 0 0 0 0 
0 0 0 0 0 0 0 0 0 
0 0 0 0 0 0 0 0 0 
0 0 0 0 0 0 0 0 0 
0 0 0 0 0 0 0 0 0 
0 0 0 0 0 0 0 0 0 
0 0 0 0 0 0 0 0 0 
0 0 0 0 0 0 0 0 0 
0 0 0 0 0 0 0 0 0 
0 0 0 0 0 0 0 0 0 
0 0 0 0 0 0 0 0 0 
0 0 0 0 0 0 0 0 0 
0 0 0 0 0 0 0 0 0 
0 0 0 0 0 0 0 0 0 
0 0 0 0 0 0 0 0 0 
0 0 0 0 0 0 0 0 0 
0 0 0 0 0 0 0 0 0 
0 0 0 0 0 0 0 0 0 
0 0 0 0 0 0 0 0 0 
0 0 0 0 0 0 0 0 0 
0 0 0 0 0 0 0 0 0 
0 0 0 0 0 0 0 0 0 
0 0 0 0 0 0 0 0 0 
0 0 0 0 0 0 0 0 0 
0 0 0 0 0 0 0 0 0 
0 0 0 0 0 0 0 0 0 
0 0 0 0 0 0 0 0 0 
0 0 0 0 0 0 0 0 0 
0 0 0 0 0 0 0 0 0 
0 0 0 0 0 0 0 0 0 
0 0 0 0 0 0 0 0 0 
0 0 0 0 0 0 0 0 0 
0 0 0 0 0 0 0 0 0 
0 0 0 0 0 0 0 0 0 
0 0 0 0 0 0 0 0 0 
0 0 0 0 0 0 0 0 0 
0 0 0 0 0 0 0 0 0 
0 0 0 0 0 0 
v0 1 1049 double
3.7348 3.4418 3.5598 3.908 3.1534 3.5868 2.7598 3.7604 3.8026 
2.2246 2.9072 3.447 2.7868 2.2234 3.5098 2.087 3.7132 3.1552 
3.3932 3.4192 3.5394 3.3376 2.8894 3.9438 2.959 3.7722 2.5562 
2.798 2.9348 3.3968 3.7956 3.7386 3.5338 2.7364 3.6894 2.9892 
3.7004 2.5998 2.2178 2.105 0 0 0 0 0 
0 0 0 0 0 0 0 0 0 
0 0 0 3.6034 3.4142 0 0 0 3.6802 
0 0 3.9802 0 0 0 0 0 0 
0 0 0 0 0 0 0 0 0 
0 0 0 0 0 0 0 0 0 
0 0 0 0 0 0 0 0 0 
0 0 0 0 0 0 0 0 0 
0 0 0 0 0 0 0 0 0 
0 0 0 0 0 0 0 0 0 
0 0 0 0 0 0 0 0 0 
0 0 0 0 0 0 0 0 0 
0 0 0 0 0 0 0 0 0 
0 0 0 0 0 0 0 0 0 
0 0 0 0 0 0 0 0 0 
0 0 0 0 0 0 0 0 0 
0 0 0 0 0 0 0 0 0 
0 0 0 0 0 0 0 0 0 
3.1134 3.2294 3.9752 2.6972 2.8228 0 0 0 0 
0 0 0 0 0 0 0 0 0 
0 0 0 0 0 0 0 0 0 
0 0 3.4388 3.7164 2.726 0 0 0 0 
0 0 0 0 0 0 0 0 0 
0 0 0 0 0 0 0 3.358 2.5702 
0 0 0 0 0 0 0 0 0 
0 2.9862 3.938 0 0 0 0 0 0 
0 0 0 0 0 0 0 0 0 
0 0 0 0 0 3.0734 2.227 2.3004 2.6856 
0 0 0 0 0 0 0 0 0 
0 2.0272 3.4416 3.2554 3.5126 0 0 0 0 
0 0 0 0 0 0 0 0 0 
0 0 0 0 0 0 0 3.2458 3.8484 
2.9518 2.5952 3.4702 2.325 0 0 0 0 0 
0 0 0 0 0 2.0254 3.3812 0 0 
0 0 0 0 0 0 0 0 0 
0 0 0 0 0 0 0 0 0 
2.192 2.5666 3.991 0 0 0 0 0 0 
0 0 0 0 2.5352 3.3948 2.8832 0 0 
0 0 0 0 0 0 0 0 0 
0 0 0 0 0 0 0 0 0 
3.4072 3.8554 3.219 2.8338 3.2878 0 0 0 0 
0 0 0 0 0 0 2.7916 2.2866 3.236 
0 0 0 0 0 0 0 0 0 
0 0 0 0 0 0 0 0 0 
0 0 3.5612 0 0 0 0 0 0 
0 0 0 0 2.9892 0 0 0 0 
0 0 0 0 0 0 0 0 0 
0 0 0 0 0 0 0 2.4594 3.053 
2.0104 3.3678 0 0 0 0 0 0 0 
0 0 0 2.5898 2.9256 3.4754 0 0 0 
0 0 0 0 0 3.18 0 0 0 
0 0 0 0 0 0 0 0 2.1056 
0 0 0 0 0 2.5992 0 0 0 
0 0 0 0 0 0 0 0 2.6016 
0 0 0 0 0 0 0 0 0 
0 0 0 0 0 0 0 0 0 
0 0 0 0 0 0 0 0 0 
0 0 2.6138 0 0 0 0 0 0 
0 0 2.79 0 2.0302 0 0 0 0 
0 0 0 0 2.0424 0 0 0 0 
0 0 0 0 2.264 3.8268 2.9022 3.1832 0 
0 0 0 0 0 0 0 0 0 
2.1178 0 0 0 0 0 0 0 0 
0 0 0 0 0 0 0 0 0 
0 0 0 0 0 0 0 0 0 
0 0 0 0 0 0 0 0 0 
0 0 0 0 0 0 0 0 0 
0 0 0 0 0 0 0 0 0 
0 0 0 0 0 0 0 0 0 
0 0 0 0 0 0 0 0 0 
0 0 0 0 0 0 0 0 0 
0 0 0 0 0 0 0 0 0 
0 0 0 0 0 0 0 0 0 
0 0 0 0 0 0 0 0 0 
0 0 0 0 0 0 0 0 0 
0 0 0 0 0 0 0 0 0 
0 0 0 0 0 0 0 0 0 
0 0 0 0 0 0 0 0 0 
0 0 0 0 0 0 0 0 0 
0 0 0 2.6632 0 3.852 0 0 2.4322 
3.514 0 0 0 0 0 0 0 0 
0 0 0 0 0 0 0 0 0 
0 0 0 0 0 0 0 0 0 
0 0 0 0 0 3.2768 2.5972 0 0 
0 0 0 0 0 0 0 0 0 
0 0 0 0 0 0 0 0 0 
0 0 0 0 0 3.075 2.7532 0 0 
0 0 0 0 0 0 0 0 0 
0 0 0 0 0 0 0 0 0 
2.1126 0 0 0 0 0 2.2322 0 0 
0 0 0 0 0 0 0 0 0 
0 0 0 0 0 0 0 0 0 
2.0074 2.1262 0 0 0 0 0 0 0 
0 0 0 0 0 0 0 0 0 
0 0 0 0 0 0 0 0 0 
0 0 0 0 0 0 0 0 0 
0 0 0 0 0 0 0 0 0 
0 0 0 0 0 0 0 0 0 
0 0 0 0 0 0 0 0 0 
0 0 0 0 0 0 0 0 0 
0 0 0 0 0 0 0 0 0 
0 0 0 0 0 0 0 0 0 
0 0 0 0 0 0 0 0 0 
0 0 0 0 0 0 0 0 0 
0 0 0 0 0 0 0 0 0 
0 0 0 0 0 0 0 0 0 
0 0 0 0 0 0 0 0 0 
0 0 0 0 0 0 0 0 0 
0 0 0 0 0 0 0 0 0 
0 0 0 0 0 0 0 0 0 
0 0 0 0 0 0 0 0 0 
0 0 0 0 0 0 0 0 0 
0 0 0 0 0 
tau 1 1049 double
2 2 2 2 2 2 2 2 2 
2 2 2 2 2 2 2 2 2 
2 2 2 2 2 2 2 2 2 
2 2 2 2 2 2 2 2 2 
2 2 2 2 2 2 2 2 2 
2 2 2 2 2 2 2 2 2 
2 2 2 2 2 2 2 2 2 
2 2 2 2 2 2 2 2 2 
2 2 2 2 2 2 2 2 2 
2 2 2 2 2 2 2 2 2 
2 2 2 2 2 2 2 2 2 
2 2 2 2 2 2 2 2 2 
2 2 2 2 2 2 2 2 2 
2 2 2 2 2 2 2 2 2 
2 2 2 2 2 2 2 2 2 
2 2 2 2 2 2 2 2 2 
2 2 2 2 2 2 2 2 2 
2 2 2 2 2 2 2 2 2 
2 2 2 2 2 2 2 2 2 
2 2 2 2 2 2 2 2 2 
2 2 2 2 2 2 2 2 2 
2 2 2 2 2 2 2 2 2 
2 2 2 2 2 2 2 2 2 
2 2 2 2 2 2 2 2 2 
2 2 2 2 2 2 2 2 2 
2 2 2 2 2 2 2 2 2 
2 2 2 2 2 2 2 2 2 
2 2 2 2 2 2 2 2 2 
2 2 2 2 2 2 2 2 2 
2 2 2 2 2 2 2 2 2 
2 2 2 2 2 2 2 2 2 
2 2 2 2 2 2 2 2 2 
2 2 2 2 2 2 2 2 2 
2 2 2 2 2 2 2 2 2 
2 2 2 2 2 2 2 2 2 
2 2 2 2 2 2 2 2 2 
2 2 2 2 2 2 2 2 2 
2 2 2 2 2 2 2 2 2 
2 2 2 2 2 2 2 2 2 
2 2 2 2 2 2 2 2 2 
2 2 2 2 2 2 2 2 2 
2 2 2 2 2 2 2 2 2 
2 2 2 2 2 2 2 2 2 
2 2 2 2 2 2 2 2 2 
2 2 2 2 2 2 2 2 2 
2 2 2 2 2 2 2 2 2 
2 2 2 2 2 2 2 2 2 
2 2 2 2 2 2 2 2 2 
2 2 2 2 2 2 2 2 2 
2 2 2 2 2 2 2 2 2 
2 2 2 2 2 2 2 2 2 
2 2 2 2 2 2 2 2 2 
2 2 2 2 2 2 2 2 2 
2 2 2 2 2 2 2 2 2 
2 2 2 2 2 2 2 2 2 
2 2 2 2 2 2 2 2 2 
2 2 2 2 2 2 2 2 2 
2 2 2 2 2 2 2 2 2 
2 2 2 2 2 2 2 2 2 
2 2 2 2 2 2 2 2 2 
2 2 2 2 2 2 2 2 2 
2 2 2 2 2 2 2 2 2 
2 2 2 2 2 2 2 2 2 
2 2 2 2 2 2 2 2 2 
2 2 2 2 2 2 2 2 2 
2 2 2 2 2 2 2 2 2 
2 2 2 2 2 2 2 2 2 
2 2 2 2 2 2 2 2 2 
2 2 2 2 2 2 2 2 2 
2 2 2 2 2 2 2 2 2 
2 2 2 2 2 2 2 2 2 
2 2 2 2 2 2 2 2 2 
2 2 2 2 2 2 2 2 2 
2 2 2 2 2 2 2 2 2 
2 2 2 2 2 2 2 2 2 
2 2 2 2 2 2 2 2 2 
2 2 2 2 2 2 2 2 2 
2 2 2 2 2 2 2 2 2 
2 2 2 2 2 2 2 2 2 
2 2 2 2 2 2 2 2 2 
2 2 2 2 2 2 2 2 2 
2 2 2 2 2 2 2 2 2 
2 2 2 2 2 2 2 2 2 
2 2 2 2 2 2 2 2 2 
2 2 2 2 2 2 2 2 2 
2 2 2 2 2 2 2 2 2 
2 2 2 2 2 2 2 2 2 
2 2 2 2 2 2 2 2 2 
2 2 2 2 2 2 2 2 2 
2 2 2 2 2 2 2 2 2 
2 2 2 2 2 2 2 2 2 
2 2 2 2 2 2 2 2 2 
2 2 2 2 2 2 2 2 2 
2 2 2 2 2 2 2 2 2 
2 2 2 2 2 2 2 2 2 
2 2 2 2 2 2 2 2 2 
2 2 2 2 2 2 2 2 2 
2 2 2 2 2 2 2 2 2 
2 2 2 2 2 2 2 2 2 
2 2 2 2 2 2 2 2 2 
2 2 2 2 2 2 2 2 2 
2 2 2 2 2 2 2 2 2 
2 2 2 2 2 2 2 2 2 
2 2 2 2 2 2 2 2 2 
2 2 2 2 2 2 2 2 2 
2 2 2 2 2 2 2 2 2 
2 2 2 2 2 2 2 2 2 
2 2 2 2 2 2 2 2 2 
2 2 2 2 2 2 2 2 2 
2 2 2 2 2 2 2 2 2 
2 2 2 2 2 2 2 2 2 
2 2 2 2 2 2 2 2 2 
2 2 2 2 2 2 2 2 2 
2 2 2 2 2 2 2 2 2 
2 2 2 2 2 2 2 2 2 
2 2 2 2 2 2 2 2 2 
2 2 2 2 2 
R 1 1049 double
0.30266 0.26351 0.33263 0.28195 0.31931 0.27325 0.33828 0.27528 0.31987 
0.30154 0.28149 0.34851 0.33184 0.31776 0.33859 0.25657 0.34097 0.34517 
0.33777 0.26298 0.33398 0.33421 0.25774 0.27641 0.33283 0.33159 0.32955 
0.2897 0.32722 0.30352 0.26783 0.33566 0.34126 0.28662 0.27491 0.2979 
0.25399 0.25639 0.2931 0.27197 0.1 0.1 0.1 0.1 0.1 
0.1 0.1 0.1 0.1 0.1 0.1 0.1 0.1 0.1 
0.1 0.1 0.1 0.31815 0.28083 0.1 0.1 0.1 0.26354 
0.1 0.1 0.25853 0.1 0.1 0.1 0.1 0.1 0.1 
0.1 0.1 0.1 0.1 0.1 0.1 0.1 0.1 0.1 
0.1 0.1 0.1 0.1 0.1 0.1 0.1 0.1 0.1 
0.1 0.1 0.1 0.1 0.1 0.1 0.1 0.1 0.1 
0.1 0.1 0.1 0.1 0.1 0.1 0.1 0.1 0.1 
0.1 0.1 0.1 0.1 0.1 0.1 0.1 0.1 0.1 
0.1 0.1 0.1 0.1 0.1 0.1 0.1 0.1 0.1 
0.1 0.1 0.1 0.1 0.1 0.1 0.1 0.1 0.1 
0.1 0.1 0.1 0.1 0.1 0.1 0.1 0.1 0.1 
0.1 0.1 0.1 0.1 0.1 0.1 0.1 0.1 0.1 
0.1 0.1 0.1 0.1 0.1 0.1 0.1 0.1 0.1 
0.1 0.1 0.1 0.1 0.1 0.1 0.1 0.1 0.1 
0.1 0.1 0.1 0.1 0.1 0.1 0.1 0.1 0.1 
0.1 0.1 0.1 0.1 0.1 0.1 0.1 0.1 0.1 
0.1 0.1 0.1 0.1 0.1 0.1 0.1 0.1 0.1 
0.2889 0.31582 0.30856 0.30199 0.26761 0.1 0.1 0.1 0.1 
0.1 0.1 0.1 0.1 0.1 0.1 0.1 0.1 0.1 
0.1 0.1 0.1 0.1 0.1 0.1 0.1 0.1 0.1 
0.1 0.1 0.32665 0.26852 0.34593 0.1 0.1 0.1 0.1 
0.1 0.1 0.1 0.1 0.1 0.1 0.1 0.1 0.1 
0.1 0.1 0.1 0.1 0.1 0.1 0.1 0.34015 0.32278 
0.1 0.1 0.1 0.1 0.1 0.1 0.1 0.1 0.1 
0.1 0.33382 0.34672 0.1 0.1 0.1 0.1 0.1 0.1 
0.1 0.1 0.1 0.1 0.1 0.1 0.1 0.1 0.1 
0.1 0.1 0.1 0.1 0.1 0.27735 0.31127 0.25037 0.27972 
0.1 0.1 0.1 0.1 0.1 0.1 0.1 0.1 0.1 
0.1 0.25099 0.25308 0.31087 0.3159 0.1 0.1 0.1 0.1 
0.1 0.1 0.1 0.1 0.1 0.1 0.1 0.1 0.1 
0.1 0.1 0.1 0.1 0.1 0.1 0.1 0.28172 0.27555 
0.30511 0.28827 0.30421 0.2685 0.1 0.1 0.1 0.1 0.1 
0.1 0.1 0.1 0.1 0.1 0.2591 0.25528 0.1 0.1 
0.1 0.1 0.1 0.1 0.1 0.1 0.1 0.1 0.1 
0.1 0.1 0.1 0.1 0.1 0.1 0.1 0.1 0.1 
0.31364 0.31651 0.25928 0.1 0.1 0.1 0.1 0.1 0.1 
0.1 0.1 0.1 0.1 0.3 0.27957 0.26541 0.1 0.1 
0.1 0.1 0.1 0.1 0.1 0.1 0.1 0.1 0.1 
0.1 0.1 0.1 0.1 0.1 0.1 0.1 0.1 0.1 
0.28069 0.31217 0.30805 0.25997 0.25888 0.1 0.1 0.1 0.1 
0.1 0.1 0.1 0.1 0.1 0.1 0.29225 0.30482 0.29693 
0.1 0.1 0.1 0.1 0.1 0.1 0.1 0.1 0.1 
0.1 0.1 0.1 0.1 0.1 0.1 0.1 0.1 0.1 
0.1 0.1 0.2957 0.1 0.1 0.1 0.1 0.1 0.1 
0.1 0.1 0.1 0.1 0.32017 0.1 0.1 0.1 0.1 
0.1 0.1 0.1 0.1 0.1 0.1 0.1 0.1 0.1 
0.1 0.1 0.1 0.1 0.1 0.1 0.1 0.27439 0.2735 
0.32716 0.27393 0.1 0.1 0.1 0.1 0.1 0.1 0.1 
0.1 0.1 0.1 0.26173 0.28537 0.33657 0.1 0.1 0.1 
0.1 0.1 0.1 0.1 0.1 0.32334 0.1 0.1 0.1 
0.1 0.1 0.1 0.1 0.1 0.1 0.1 0.1 0.25871 
0.1 0.1 0.1 0.1 0.1 0.29985 0.1 0.1 0.1 
0.1 0.1 0.1 0.1 0.1 0.1 0.1 0.1 0.29552 
0.1 0.1 0.1 0.1 0.1 0.1 0.1 0.1 0.1 
0.1 0.1 0.1 0.1 0.1 0.1 0.1 0.1 0.1 
0.1 0.1 0.1 0.1 0.1 0.1 0.1 0.1 0.1 
0.1 0.1 0.33762 0.1 0.1 0.1 0.1 0.1 0.1 
0.1 0.1 0.28428 0.1 0.31506 0.1 0.1 0.1 0.1 
0.1 0.1 0.1 0.1 0.34368 0.1 0.1 0.1 0.1 
0.1 0.1 0.1 0.1 0.34334 0.27071 0.25008 0.31621 0.1 
0.1 0.1 0.1 0.1 0.1 0.1 0.1 0.1 0.1 
0.3228 0.1 0.1 0.1 0.1 0.1 0.1 0.1 0.1 
0.1 0.1 0.1 0.1 0.1 0.1 0.1 0.1 0.1 
0.1 0.1 0.1 0.1 0.1 0.1 0.1 0.1 0.1 
0.1 0.1 0.1 0.1 0.1 0.1 0.1 0.1 0.1 
0.1 0.1 0.1 0.1 0.1 0.1 0.1 0.1 0.1 
0.1 0.1 0.1 0.1 0.1 0.1 0.1 0.1 0.1 
0.1 0.1 0.1 0.1 0.1 0.1 0.1 0.1 0.1 
0.1 0.1 0.1 0.1 0.1 0.1 0.1 0.1 0.1 
0.1 0.1 0.1 0.1 0.1 0.1 0.1 0.1 0.1 
0.1 0.1 0.1 0.1 0.1 0.1 0.1 0.1 0.1 
0.1 0.1 0.1 0.1 0.1 0.1 0.1 0.1 0.1 
0.1 0.1 0.1 0.1 0.1 0.1 0.1 0.1 0.1 
0.1 0.1 0.1 0.1 0.1 0.1 0.1 0.1 0.1 
0.1 0.1 0.1 0.1 0.1 0.1 0.1 0.1 0.1 
0.1 0.1 0.1 0.1 0.1 0.1 0.1 0.1 0.1 
0.1 0.1 0.1 0.1 0.1 0.1 0.1 0.1 0.1 
0.1 0.1 0.1 0.1 0.1 0.1 0.1 0.1 0.1 
0.1 0.1 0.1 0.26888 0.1 0.3161 0.1 0.1 0.26269 
0.33577 0.1 0.1 0.1 0.1 0.1 0.1 0.1 0.1 
0.1 0.1 0.1 0.1 0.1 0.1 0.1 0.1 0.1 
0.1 0.1 0.1 0.1 0.1 0.1 0.1 0.1 0.1 
0.1 0.1 0.1 0.1 0.1 0.32361 0.33976 0.1 0.1 
0.1 0.1 0.1 0.1 0.1 0.1 0.1 0.1 0.1 
0.1 0.1 0.1 0.1 0.1 0.1 0.1 0.1 0.1 
0.1 0.1 0.1 0.1 0.1 0.28437 0.33341 0.1 0.1 
0.1 0.1 0.1 0.1 0.1 0.1 0.1 0.1 0.1 
0.1 0.1 0.1 0.1 0.1 0.1 0.1 0.1 0.1 
0.33412 0.1 0.1 0.1 0.1 0.1 0.31445 0.1 0.1 
0.1 0.1 0.1 0.1 0.1 0.1 0.1 0.1 0.1 
0.1 0.1 0.1 0.1 0.1 0.1 0.1 0.1 0.1 
0.25952 0.33954 0.1 0.1 0.1 0.1 0.1 0.1 0.1 
0.1 0.1 0.1 0.1 0.1 0.1 0.1 0.1 0.1 
0.1 0.1 0.1 0.1 0.1 0.1 0.1 0.1 0.1 
0.1 0.1 0.1 0.1 0.1 0.1 0.1 0.1 0.1 
0.1 0.1 0.1 0.1 0.1 0.1 0.1 0.1 0.1 
0.1 0.1 0.1 0.1 0.1 0.1 0.1 0.1 0.1 
0.1 0.1 0.1 0.1 0.1 0.1 0.1 0.1 0.1 
0.1 0.1 0.1 0.1 0.1 0.1 0.1 0.1 0.1 
0.1 0.1 0.1 0.1 0.1 0.1 0.1 0.1 0.1 
0.1 0.1 0.1 0.1 0.1 0.1 0.1 0.1 0.1 
0.1 0.1 0.1 0.1 0.1 0.1 0.1 0.1 0.1 
0.1 0.1 0.1 0.1 0.1 0.1 0.1 0.1 0.1 
0.1 0.1 0.1 0.1 0.1 0.1 0.1 0.1 0.1 
0.1 0.1 0.1 0.1 0.1 0.1 0.1 0.1 0.1 
0.1 0.1 0.1 0.1 0.1 0.1 0.1 0.1 0.1 
0.1 0.1 0.1 0.1 0.1 0.1 0.1 0.1 0.1 
0.1 0.1 0.1 0.1 0.1 0.1 0.1 0.1 0.1 
0.1 0.1 0.1 0.1 0.1 0.1 0.1 0.1 0.1 
0.1 0.1 0.1 0.1 0.1 0.1 0.1 0.1 0.1 
0.1 0.1 0.1 0.1 0.1 0.1 0.1 0.1 0.1 
0.1 0.1 0.1 0.1 0.1 
a 3 1049 double
0 0 0 0 0 0 0 0 0 
0 0 0 0 0 0 0 0 0 
0 0 0 0 0 0 0 0 0 
0 0 0 0 0 0 0 0 0 
0 0 0 0 0 0 0 0 0 
0 0 0 0 0 0 0 0 0 
0 0 0 0 0 0 0 0 0 
0 0 0 0 0 0 0 0 0 
0 0 0 0 0 0 0 0 0 
0 0 0 0 0 0 0 0 0 
0 0 0 0 0 0 0 0 0 
0 0 0 0 0 0 0 0 0 
0 0 0 0 0 0 0 0 0 
0 0 0 0 0 0 0 0 0 
0 0 0 0 0 0 0 0 0 
0 0 0 0 0 0 0 0 0 
0 0 0 0 0 0 0 0 0 
0 0 0 0 0 0 0 0 0 
0 0 0 0 0 0 0 0 0 
0 0 0 0 0 0 0 0 0 
0 0 0 0 0 0 0 0 0 
0 0 0 0 0 0 0 0 0 
0 0 0 0 0 0 0 0 0 
0 0 0 0 0 0 0 0 0 
0 0 0 0 0 0 0 0 0 
0 0 0 0 0 0 0 0 0 
0 0 0 0 0 0 0 0 0 
0 0 0 0 0 0 0 0 0 
0 0 0 0 0 0 0 0 0 
0 0 0 0 0 0 0 0 0 
0 0 0 0 0 0 0 0 0 
0 0 0 0 0 0 0 0 0 
0 0 0 0 0 0 0 0 0 
0 0 0 0 0 0 0 0 0 
0 0 0 0 0 0 0 0 0 
0 0 0 0 0 0 0 0 0 
0 0 0 0 0 0 0 0 0 
0 0 0 0 0 0 0 0 0 
0 0 0 0 0 0 0 0 0 
0 0 0 0 0 0 0 0 0 
0 0 0 0 0 0 0 0 0 
0 0 0 0 0 0 0 0 0 
0 0 0 0 0 0 0 0 0 
0 0 0 0 0 0 0 0 0 
0 0 0 0 0 0 0 0 0 
0 0 0 0 0 0 0 0 0 
0 0 0 0 0 0 0 0 0 
0 0 0 0 0 0 0 0 0 
0 0 0 0 0 0 0 0 0 
0 0 0 0 0 0 0 0 0 
0 0 0 0 0 0 0 0 0 
0 0 0 0 0 0 0 0 0 
0 0 0 0 0 0 0 0 0 
0 0 0 0 0 0 0 0 0 
0 0 0 0 0 0 0 0 0 
0 0 0 0 0 0 0 0 0 
0 0 0 0 0 0 0 0 0 
0 0 0 0 0 0 0 0 0 
0 0 0 0 0 0 0 0 0 
0 0 0 0 0 0 0 0 0 
0 0 0 0 0 0 0 0 0 
0 0 0 0 0 0 0 0 0 
0 0 0 0 0 0 0 0 0 
0 0 0 0 0 0 0 0 0 
0 0 0 0 0 0 0 0 0 
0 0 0 0 0 0 0 0 0 
0 0 0 0 0 0 0 0 0 
0 0 0 0 0 0 0 0 0 
0 0 0 0 0 0 0 0 0 
0 0 0 0 0 0 0 0 0 
0 0 0 0 0 0 0 0 0 
0 0 0 0 0 0 0 0 0 
0 0 0 0 0 0 0 0 0 
0 0 0 0 0 0 0 0 0 
0 0 0 0 0 0 0 0 0 
0 0 0 0 0 0 0 0 0 
0 0 0 0 0 0 0 0 0 
0 0 0 0 0 0 0 0 0 
0 0 0 0 0 0 0 0 0 
0 0 0 0 0 0 0 0 0 
0 0 0 0 0 0 0 0 0 
0 0 0 0 0 0 0 0 0 
0 0 0 0 0 0 0 0 0 
0 0 0 0 0 0 0 0 0 
0 0 0 0 0 0 0 0 0 
0 0 0 0 0 0 0 0 0 
0 0 0 0 0 0 0 0 0 
0 0 0 0 0 0 0 0 0 
0 0 0 0 0 0 0 0 0 
0 0 0 0 0 0 0 0 0 
0 0 0 0 0 0 0 0 0 
0 0 0 0 0 0 0 0 0 
0 0 0 0 0 0 0 0 0 
0 0 0 0 0 0 0 0 0 
0 0 0 0 0 0 0 0 0 
0 0 0 0 0 0 0 0 0 
0 0 0 0 0 0 0 0 0 
0 0 0 0 0 0 0 0 0 
0 0 0 0 0 0 0 0 0 
0 0 0 0 0 0 0 0 0 
0 0 0 0 0 0 0 0 0 
0 0 0 0 0 0 0 0 0 
0 0 0 0 0 0 0 0 0 
0 0 0 0 0 0 0 0 0 
0 0 0 0 0 0 0 0 0 
0 0 0 0 0 0 0 0 0 
0 0 0 0 0 0 0 0 0 
0 0 0 0 0 0 0 0 0 
0 0 0 0 0 0 0 0 0 
0 0 0 0 0 0 0 0 0 
0 0 0 0 0 0 0 0 0 
0 0 0 0 0 0 0 0 0 
0 0 0 0 0 0 0 0 0 
0 0 0 0 0 0 0 0 0 
0 0 0 0 0 0 0 0 0 
0 0 0 0 0 0 0 0 0 
0 0 0 0 0 0 0 0 0 
0 0 0 0 0 0 0 0 0 
0 0 0 0 0 0 0 0 0 
0 0 0 0 0 0 0 0 0 
0 0 0 0 0 0 0 0 0 
0 0 0 0 0 0 0 0 0 
0 0 0 0 0 0 0 0 0 
0 0 0 0 0 0 0 0 0 
0 0 0 0 0 0 0 0 0 
0 0 0 0 0 0 0 0 0 
0 0 0 0 0 0 0 0 0 
0 0 0 0 0 0 0 0 0 
0 0 0 0 0 0 0 0 0 
0 0 0 0 0 0 0 0 0 
0 0 0 0 0 0 0 0 0 
0 0 0 0 0 0 0 0 0 
0 0 0 0 0 0 0 0 0 
0 0 0 0 0 0 0 0 0 
0 0 0 0 0 0 0 0 0 
0 0 0 0 0 0 0 0 0 
0 0 0 0 0 0 0 0 0 
0 0 0 0 0 0 0 0 0 
0 0 0 0 0 0 0 0 0 
0 0 0 0 0 0 0 0 0 
0 0 0 0 0 0 0 0 0 
0 0 0 0 0 0 0 0 0 
0 0 0 0 0 0 0 0 0 
0 0 0 0 0 0 0 0 0 
0 0 0 0 0 0 0 0 0 
0 0 0 0 0 0 0 0 0 
0 0 0 0 0 0 0 0 0 
0 0 0 0 0 0 0 0 0 
0 0 0 0 0 0 0 0 0 
0 0 0 0 0 0 0 0 0 
0 0 0 0 0 0 0 0 0 
0 0 0 0 0 0 0 0 0 
0 0 0 0 0 0 0 0 0 
0 0 0 0 0 0 0 0 0 
0 0 0 0 0 0 0 0 0 
0 0 0 0 0 0 0 0 0 
0 0 0 0 0 0 0 0 0 
0 0 0 0 0 0 0 0 0 
0 0 0 0 0 0 0 0 0 
0 0 0 0 0 0 0 0 0 
0 0 0 0 0 0 0 0 0 
0 0 0 0 0 0 0 0 0 
0 0 0 0 0 0 0 0 0 
0 0 0 0 0 0 0 0 0 
0 0 0 0 0 0 0 0 0 
0 0 0 0 0 0 0 0 0 
0 0 0 0 0 0 0 0 0 
0 0 0 0 0 0 0 0 0 
0 0 0 0 0 0 0 0 0 
0 0 0 0 0 0 0 0 0 
0 0 0 0 0 0 0 0 0 
0 0 0 0 0 0 0 0 0 
0 0 0 0 0 0 0 0 0 
0 0 0 0 0 0 0 0 0 
0 0 0 0 0 0 0 0 0 
0 0 0 0 0 0 0 0 0 
0 0 0 0 0 0 0 0 0 
0 0 0 0 0 0 0 0 0 
0 0 0 0 0 0 0 0 0 
0 0 0 0 0 0 0 0 0 
0 0 0 0 0 0 0 0 0 
0 0 0 0 0 0 0 0 0 
0 0 0 0 0 0 0 0 0 
0 0 0 0 0 0 0 0 0 
0 0 0 0 0 0 0 0 0 
0 0 0 0 0 0 0 0 0 
0 0 0 0 0 0 0 0 0 
0 0 0 0 0 0 0 0 0 
0 0 0 0 0 0 0 0 0 
0 0 0 0 0 0 0 0 0 
0 0 0 0 0 0 0 0 0 
0 0 0 0 0 0 0 0 0 
0 0 0 0 0 0 0 0 0 
0 0 0 0 0 0 0 0 0 
0 0 0 0 0 0 0 0 0 
0 0 0 0 0 0 0 0 0 
0 0 0 0 0 0 0 0 0 
0 0 0 0 0 0 0 0 0 
0 0 0 0 0 0 0 0 0 
0 0 0 0 0 0 0 0 0 
0 0 0 0 0 0 0 0 0 
0 0 0 0 0 0 0 0 0 
0 0 0 0 0 0 0 0 0 
0 0 0 0 0 0 0 0 0 
0 0 0 0 0 0 0 0 0 
0 0 0 0 0 0 0 0 0 
0 0 0 0 0 0 0 0 0 
0 0 0 0 0 0 0 0 0 
0 0 0 0 0 0 0 0 0 
0 0 0 0 0 0 0 0 0 
0 0 0 0 0 0 0 0 0 
0 0 0 0 0 0 0 0 0 
0 0 0 0 0 0 0 0 0 
0 0 0 0 0 0 0 0 0 
0 0 0 0 0 0 0 0 0 
0 0 0 0 0 0 0 0 0 
0 0 0 0 0 0 0 0 0 
0 0 0 0 0 0 0 0 0 
0 0 0 0 0 0 0 0 0 
0 0 0 0 0 0 0 0 0 
0 0 0 0 0 0 0 0 0 
0 0 0 0 0 0 0 0 0 
0 0 0 0 0 0 0 0 0 
0 0 0 0 0 0 0 0 0 
0 0 0 0 0 0 0 0 0 
0 0 0 0 0 0 0 0 0 
0 0 0 0 0 0 0 0 0 
0 0 0 0 0 0 0 0 0 
0 0 0 0 0 0 0 0 0 
0 0 0 0 0 0 0 0 0 
0 0 0 0 0 0 0 0 0 
0 0 0 0 0 0 0 0 0 
0 0 0 0 0 0 0 0 0 
0 0 0 0 0 0 0 0 0 
0 0 0 0 0 0 0 0 0 
0 0 0 0 0 0 0 0 0 
0 0 0 0 0 0 0 0 0 
0 0 0 0 0 0 0 0 0 
0 0 0 0 0 0 0 0 0 
0 0 0 0 0 0 0 0 0 
0 0 0 0 0 0 0 0 0 
0 0 0 0 0 0 0 0 0 
0 0 0 0 0 0 0 0 0 
0 0 0 0 0 0 0 0 0 
0 0 0 0 0 0 0 0 0 
0 0 0 0 0 0 0 0 0 
0 0 0 0 0 0 0 0 0 
0 0 0 0 0 0 0 0 0 
0 0 0 0 0 0 0 0 0 
0 0 0 0 0 0 0 0 0 
0 0 0 0 0 0 0 0 0 
0 0 0 0 0 0 0 0 0 
0 0 0 0 0 0 0 0 0 
0 0 0 0 0 0 0 0 0 
0 0 0 0 0 0 0 0 0 
0 0 0 0 0 0 0 0 0 
0 0 0 0 0 0 0 0 0 
0 0 0 0 0 0 0 0 0 
0 0 0 0 0 0 0 0 0 
0 0 0 0 0 0 0 0 0 
0 0 0 0 0 0 0 0 0 
0 0 0 0 0 0 0 0 0 
0 0 0 0 0 0 0 0 0 
0 0 0 0 0 0 0 0 0 
0 0 0 0 0 0 0 0 0 
0 0 0 0 0 0 0 0 0 
0 0 0 0 0 0 0 0 0 
0 0 0 0 0 0 0 0 0 
0 0 0 0 0 0 0 0 0 
0 0 0 0 0 0 0 0 0 
0 0 0 0 0 0 0 0 0 
0 0 0 0 0 0 0 0 0 
0 0 0 0 0 0 0 0 0 
0 0 0 0 0 0 0 0 0 
0 0 0 0 0 0 0 0 0 
0 0 0 0 0 0 0 0 0 
0 0 0 0 0 0 0 0 0 
0 0 0 0 0 0 0 0 0 
0 0 0 0 0 0 0 0 0 
0 0 0 0 0 0 0 0 0 
0 0 0 0 0 0 0 0 0 
0 0 0 0 0 0 0 0 0 
0 0 0 0 0 0 0 0 0 
0 0 0 0 0 0 0 0 0 
0 0 0 0 0 0 0 0 0 
0 0 0 0 0 0 0 0 0 
0 0 0 0 0 0 0 0 0 
0 0 0 0 0 0 0 0 0 
0 0 0 0 0 0 0 0 0 
0 0 0 0 0 0 0 0 0 
0 0 0 0 0 0 0 0 0 
0 0 0 0 0 0 0 0 0 
0 0 0 0 0 0 0 0 0 
0 0 0 0 0 0 0 0 0 
0 0 0 0 0 0 0 0 0 
0 0 0 0 0 0 0 0 0 
0 0 0 0 0 0 0 0 0 
0 0 0 0 0 0 0 0 0 
0 0 0 0 0 0 0 0 0 
0 0 0 0 0 0 0 0 0 
0 0 0 0 0 0 0 0 0 
0 0 0 0 0 0 0 0 0 
0 0 0 0 0 0 0 0 0 
0 0 0 0 0 0 0 0 0 
0 0 0 0 0 0 0 0 0 
0 0 0 0 0 0 0 0 0 
0 0 0 0 0 0 0 0 0 
0 0 0 0 0 0 0 0 0 
0 0 0 0 0 0 0 0 0 
0 0 0 0 0 0 0 0 0 
0 0 0 0 0 0 0 0 0 
0 0 0 0 0 0 0 0 0 
0 0 0 0 0 0 0 0 0 
0 0 0 0 0 0 0 0 0 
0 0 0 0 0 0 0 0 0 
0 0 0 0 0 0 0 0 0 
0 0 0 0 0 0 0 0 0 
0 0 0 0 0 0 0 0 0 
0 0 0 0 0 0 0 0 0 
0 0 0 0 0 0 0 0 0 
0 0 0 0 0 0 0 0 0 
0 0 0 0 0 0 0 0 0 
0 0 0 0 0 0 0 0 0 
0 0 0 0 0 0 0 0 0 
0 0 0 0 0 0 0 0 0 
0 0 0 0 0 0 0 0 0 
0 0 0 0 0 0 0 0 0 
0 0 0 0 0 0 0 0 0 
0 0 0 0 0 0 0 0 0 
0 0 0 0 0 0 0 0 0 
0 0 0 0 0 0 0 0 0 
0 0 0 0 0 0 0 0 0 
0 0 0 0 0 0 0 0 0 
0 0 0 0 0 0 0 0 0 
0 0 0 0 0 0 0 0 0 
0 0 0 0 0 0 0 0 0 
0 0 0 0 0 0 0 0 0 
0 0 0 0 0 0 0 0 0 
0 0 0 0 0 0 0 0 0 
0 0 0 0 0 0 0 0 0 
0 0 0 0 0 0 0 0 0 
0 0 0 0 0 0 0 0 0 
0 0 0 0 0 0 0 0 0 
0 0 0 0 0 0 0 0 0 
0 0 0 0 0 0 0 0 0 
0 0 0 0 0 0 0 0 0 
0 0 0 0 0 0 0 0 0 
0 0 0 0 0 0 0 0 0 
0 0 0 0 0 0 0 0 0 
0 0 0 0 0 0 
v 3 1049 double
0.96179 -0.694221 0 0.933565 -0.861076 0 -0.906477 -0.756177 0 
0.92565 -0.791246 0 -0.828198 -0.788083 0 0.965702 -0.742384 0 
0.705647 -0.562466 0 -0.943752 -0.761848 0 -0.927993 -0.802644 0 
-0.667065 -0.520236 0 -0.652959 -0.538721 0 -0.926106 -0.721272 0 
-0.725908 -0.549633 0 0.566119 -0.480083 0 0.789565 -0.802192 0 
0.796778 -0.476698 0 -0.945542 -0.74467 0 0.813189 -0.652942 0 
0.866733 -0.666806 0 -0.881608 -0.72233 0 -0.960296 -0.776115 0 
0.80519 -0.668619 0 0.821583 -0.639875 0 -0.955713 -0.781655 0 
0.737061 -0.693983 0 0.945019 -0.734408 0 0.676963 -0.638757 0 
0.772074 -0.612072 0 -0.758388 -0.617943 0 0.864248 -0.772487 0 
0.979002 -0.704634 0 0.981944 -0.724375 0 0.970968 -0.649915 0 
-0.860191 -0.673201 0 -0.827889 -0.716668 0 0.493382 -0.96438 0 
1.05808 -1.02368 0 0.807239 -0.726857 0 -0.510363 -0.687332 0 
-0.582421 -0.565926 0 0 0 0 0 0 0 
0 0 0 0 0 0 0 0 0 
0 0 0 0 0 0 0 0 0 
0 0 0 0 0 0 0 0 0 
0 0 0 0 0 0 0 0 0 
0 0 0 0 0 0 0 0 0 
0.0189832 -0.558798 0 0.665819 -0.704893 0 0 0 0 
0 0 0 0 0 0 0.239027 -0.25883 0 
0 0 0 0 0 0 0.104986 -0.634958 0 
0 0 0 0 0 0 0 0 0 
0 0 0 0 0 0 0 0 0 
0 0 0 0 0 0 0 0 0 
0 0 0 0 0 0 0 0 0 
0 0 0 0 0 0 0 0 0 
0 0 0 0 0 0 0 0 0 
0 0 0 0 0 0 0 0 0 
0 0 0 0 0 0 0 0 0 
0 0 0 0 0 0 0 0 0 
0 0 0 0 0 0 0 0 0 
0 0 0 0 0 0 0 0 0 
0 0 0 0 0 0 0 0 0 
0 0 0 0 0 0 0 0 0 
0 0 0 0 0 0 0 0 0 
0 0 0 0 0 0 0 0 0 
0 0 0 0 0 0 0 0 0 
0 0 0 0 0 0 0 0 0 
0 0 0 0 0 0 0 0 0 
0 0 0 0 0 0 0 0 0 
0 0 0 0 0 0 0 0 0 
0 0 0 0 0 0 0 0 0 
0 0 0 0 0 0 0 0 0 
0 0 0 0 0 0 0 0 0 
0 0 0 0 0 0 0 0 0 
0 0 0 0 0 0 0 0 0 
0 0 0 0 0 0 0 0 0 
0 0 0 0 0 0 0 0 0 
0 0 0 0 0 0 0 0 0 
0 0 0 0 0 0 0 0 0 
0 0 0 0 0 0 0 0 0 
0 0 0 0 0 0 0 0 0 
0 0 0 0 0 0 0 0 0 
0 0 0 0 0 0 0 0 0 
0 0 0 0 0 0 0 0 0 
0 0 0 0 0 0 0 0 0 
0 0 0 0 0 0 0 0 0 
0 0 0 0 0 0 0 0 0 
0 0 0 0 0 0 0 0 0 
0 0 0 0 0 0 0 0 0 
0 0 0 0 0 0 0 0 0 
0 0 0 0 0 0 0 0 0 
0 0 0 0 0 0 0 0 0 
0 0 0 0 0 0 0 0 0 
0 0 0 0 0 0 0 0 0 
-0.271332 -0.313014 0 0.5058 -0.315058 0 -0.122203 -0.9594 0 
0.0657498 -0.798691 0 0.102914 -0.613831 0 0 0 0 
0 0 0 0 0 0 0 0 0 
0 0 0 0 0 0 0 0 0 
0 0 0 0 0 0 0 0 0 
0 0 0 0 0 0 0 0 0 
0 0 0 0 0 0 0 0 0 
0 0 0 0 0 0 0 0 0 
0 0 0 0 0 0 0 0 0 
0 0 0 0 0 0 0.0387532 -1.05786 0 
0.00152142 -1.29099 0 -0.249388 -0.973084 0 0 0 0 
0 0 0 0 0 0 0 0 0 
0 0 0 0 0 0 0 0 0 
0 0 0 0 0 0 0 0 0 
0 0 0 0 0 0 0 0 0 
0 0 0 0 0 0 0 0 0 
0 0 0 0 0 0 0 0 0 
0 0 0 0.20556 -0.896888 0 0.414194 -0.526583 0 
0 0 0 0 0 0 0 0 0 
0 0 0 0 0 0 0 0 0 
0 0 0 0 0 0 0 0 0 
0 0 0 -0.412732 -1.00965 0 -0.324316 -1.1335 0 
0 0 0 0 0 0 0 0 0 
0 0 0 0 0 0 0 0 0 
0 0 0 0 0 0 0 0 0 
0 0 0 0 0 0 0 0 0 
0 0 0 0 0 0 0 0 0 
0 0 0 0 0 0 0 0 0 
0 0 0 0 0 0 0.305798 -0.965979 0 
0.193105 -0.895358 0 0.18613 -0.851801 0 -0.20942 -0.901927 0 
0 0 0 0 0 0 0 0 0 
0 0 0 0 0 0 0 0 0 
0 0 0 0 0 0 0 0 0 
0 0 0 0.0515126 -0.673767 0 -0.300353 -1.04979 0 
-0.287375 -0.969151 0 -0.321026 -1.08335 0 0 0 0 
0 0 0 0 0 0 0 0 0 
0 0 0 0 0 0 0 0 0 
0 0 0 0 0 0 0 0 0 
0 0 0 0 0 0 0 0 0 
0 0 0 0 0 0 0 0 0 
0 0 0 0 0 0 0 0 0 
0 0 0 0.222018 -1.06471 0 0.251184 -0.9191 0 
0.206807 -0.921899 0 -0.0890161 -0.901295 0 -0.164092 -1.13354 0 
-0.0622309 -0.762245 0 0 0 0 0 0 0 
0 0 0 0 0 0 0 0 0 
0 0 0 0 0 0 0 0 0 
0 0 0 0 0 0 -0.100977 -0.694446 0 
-0.339483 -1.0921 0 0 0 0 0 0 0 
0 0 0 0 0 0 0 0 0 
0 0 0 0 0 0 0 0 0 
0 0 0 0 0 0 0 0 0 
0 0 0 0 0 0 0 0 0 
0 0 0 0 0 0 0 0 0 
0 0 0 0 0 0 0 0 0 
0.298449 -0.973479 0 0.181931 -0.921082 0 -0.250669 -1.17755 0 
0 0 0 0 0 0 0 0 0 
0 0 0 0 0 0 0 0 0 
0 0 0 0 0 0 0 0 0 
0 0 0 -0.263417 -0.83439 0 -0.185478 -1.04273 0 
-0.279999 -0.940707 0 0 0 0 0 0 0 
0 0 0 0 0 0 0 0 0 
0 0 0 0 0 0 0 0 0 
0 0 0 0 0 0 0 0 0 
0 0 0 0 0 0 0 0 0 
0 0 0 0 0 0 0 0 0 
0 0 0 0 0 0 0 0 0 
0.32517 -0.983993 0 0.217672 -1.02082 0 0.254972 -1.00894 0 
0.327705 -0.925116 0 -0.165275 -1.0834 0 0 0 0 
0 0 0 0 0 0 0 0 0 
0 0 0 0 0 0 0 0 0 
0 0 0 0 0 0 0 0 0 
-0.309643 -0.873296 0 -0.211145 -0.905233 0 -0.272836 -0.902537 0 
0 0 0 0 0 0 0 0 0 
0 0 0 0 0 0 0 0 0 
0 0 0 0 0 0 0 0 0 
0 0 0 0 0 0 0 0 0 
0 0 0 0 0 0 0 0 0 
0 0 0 0 0 0 0 0 0 
0 0 0 0 0 0 0.280549 -1.0705 0 
0 0 0 0 0 0 0 0 0 
0 0 0 0 0 0 0 0 0 
0 0 0 0 0 0 0 0 0 
0 0 0 -0.379323 -0.970596 0 0 0 0 
0 0 0 0 0 0 0 0 0 
0 0 0 0 0 0 0 0 0 
0 0 0 0 0 0 0 0 0 
0 0 0 0 0 0 0 0 0 
0 0 0 0 0 0 0 0 0 
0 0 0 0 0 0 0 0 0 
0 0 0 0.339048 -0.784743 0 -0.180563 -1.08048 0 
-0.0329846 -0.743067 0 -0.266816 -1.0123 0 0 0 0 
0 0 0 0 0 0 0 0 0 
0 0 0 0 0 0 0 0 0 
0 0 0 0 0 0 0 0 0 
-0.357004 -0.787179 0 -0.419256 -0.906914 0 -0.318431 -0.956548 0 
0 0 0 0 0 0 0 0 0 
0 0 0 0 0 0 0 0 0 
0 0 0 0 0 0 -1.06007 0.0142082 0 
0 0 0 0 0 0 0 0 0 
0 0 0 0 0 0 0 0 0 
0 0 0 0 0 0 0 0 0 
0 0 0 0 0 0 -0.762147 0.030039 0 
0 0 0 0 0 0 0 0 0 
0 0 0 0 0 0 -0.819784 0.054129 0 
0 0 0 0 0 0 0 0 0 
0 0 0 0 0 0 0 0 0 
0 0 0 0 0 0 0 0 0 
0 0 0 0 0 0 -0.866032 0.0926738 0 
0 0 0 0 0 0 0 0 0 
0 0 0 0 0 0 0 0 0 
0 0 0 0 0 0 0 0 0 
0 0 0 0 0 0 0 0 0 
0 0 0 0 0 0 0 0 0 
0 0 0 0 0 0 0 0 0 
0 0 0 0 0 0 0 0 0 
0 0 0 0 0 0 0 0 0 
0 0 0 0 0 0 0 0 0 
0 0 0 0 0 0 0.871876 0.0430204 0 
0 0 0 0 0 0 0 0 0 
0 0 0 0 0 0 0 0 0 
0 0 0 0 0 0 0.900297 0.01489 0 
0 0 0 0.700739 0.00952822 0 0 0 0 
0 0 0 0 0 0 0 0 0 
0 0 0 0 0 0 0 0 0 
0 0 0 0.674147 0.138827 0 0 0 0 
0 0 0 0 0 0 0 0 0 
0 0 0 0 0 0 0 0 0 
0 0 0 0.25294 -0.661862 0 -0.122652 -1.21677 0 
-0.0758755 -0.997853 0 -0.251637 -1.04169 0 0 0 0 
0 0 0 0 0 0 0 0 0 
0 0 0 0 0 0 0 0 0 
0 0 0 0 0 0 0 0 0 
-0.135464 -1.00245 0 0 0 0 0 0 0 
0 0 0 0 0 0 0 0 0 
0 0 0 0 0 0 0 0 0 
0 0 0 0 0 0 0 0 0 
0 0 0 0 0 0 0 0 0 
0 0 0 0 0 0 0 0 0 
0 0 0 0 0 0 0 0 0 
0 0 0 0 0 0 0 0 0 
0 0 0 0 0 0 0 0 0 
0 0 0 0 0 0 0 0 0 
0 0 0 0 0 0 0 0 0 
0 0 0 0 0 0 0 0 0 
0 0 0 0 0 0 0 0 0 
0 0 0 0 0 0 0 0 0 
0 0 0 0 0 0 0 0 0 
0 0 0 0 0 0 0 0 0 
0 0 0 0 0 0 0 0 0 
0 0 0 0 0 0 0 0 0 
0 0 0 0 0 0 0 0 0 
0 0 0 0 0 0 0 0 0 
0 0 0 0 0 0 0 0 0 
0 0 0 0 0 0 0 0 0 
0 0 0 0 0 0 0 0 0 
0 0 0 0 0 0 0 0 0 
0 0 0 0 0 0 0 0 0 
0 0 0 0 0 0 0 0 0 
0 0 0 0 0 0 0 0 0 
0 0 0 0 0 0 0 0 0 
0 0 0 0 0 0 0 0 0 
0 0 0 0 0 0 0 0 0 
0 0 0 0 0 0 0 0 0 
0 0 0 0 0 0 0 0 0 
0 0 0 0 0 0 0 0 0 
0 0 0 0 0 0 0 0 0 
0 0 0 0 0 0 0 0 0 
0 0 0 0 0 0 0 0 0 
0 0 0 0 0 0 0 0 0 
0 0 0 0 0 0 0 0 0 
0 0 0 0 0 0 0 0 0 
0 0 0 0 0 0 0 0 0 
0 0 0 0 0 0 0 0 0 
0 0 0 0 0 0 0 0 0 
0 0 0 0 0 0 0 0 0 
0 0 0 0 0 0 0 0 0 
0 0 0 0 0 0 0 0 0 
0 0 0 0 0 0 0 0 0 
0 0 0 0 0 0 0 0 0 
0 0 0 0 0 0 0 0 0 
0 0 0 0 0 0 0 0 0 
0 0 0 0 0 0 0 0 0 
0 0 0 0 0 0 0 0 0 
0 0 0 0 0 0 0 0 0 
0.37094 -0.30222 0 0 0 0 0.755735 -0.146912 0 
0 0 0 0 0 0 0.315139 -0.67215 0 
0.223503 -1.04242 0 0 0 0 0 0 0 
0 0 0 0 0 0 0 0 0 
0 0 0 0 0 0 0 0 0 
0 0 0 0 0 0 0 0 0 
0 0 0 0 0 0 0 0 0 
0 0 0 0 0 0 0 0 0 
0 0 0 0 0 0 0 0 0 
0 0 0 0 0 0 0 0 0 
0 0 0 0 0 0 0 0 0 
0 0 0 0 0 0 0 0 0 
0 0 0 0 0 0 0.642636 -0.712205 0 
0.640792 -0.679951 0 0 0 0 0 0 0 
0 0 0 0 0 0 0 0 0 
0 0 0 0 0 0 0 0 0 
0 0 0 0 0 0 0 0 0 
0 0 0 0 0 0 0 0 0 
0 0 0 0 0 0 0 0 0 
0 0 0 0 0 0 0 0 0 
0 0 0 0 0 0 0 0 0 
0 0 0 0 0 0 0.640453 -0.692384 0 
0.656069 -0.696261 0 0 0 0 0 0 0 
0 0 0 0 0 0 0 0 0 
0 0 0 0 0 0 0 0 0 
0 0 0 0 0 0 0 0 0 
0 0 0 0 0 0 0 0 0 
0 0 0 0 0 0 0 0 0 
0 0 0 0 0 0 0 0 0 
0.649373 0.225667 0 0 0 0 0 0 0 
0 0 0 0 0 0 0 0 0 
0.526335 -0.552644 0 0 0 0 0 0 0 
0 0 0 0 0 0 0 0 0 
0 0 0 0 0 0 0 0 0 
0 0 0 0 0 0 0 0 0 
0 0 0 0 0 0 0 0 0 
0 0 0 0 0 0 0 0 0 
0 0 0 0 0 0 0 0 0 
0.642702 0.26975 0 0.561547 -0.454592 0 0 0 0 
0 0 0 0 0 0 0 0 0 
0 0 0 0 0 0 0 0 0 
0 0 0 0 0 0 0 0 0 
0 0 0 0 0 0 0 0 0 
0 0 0 0 0 0 0 0 0 
0 0 0 0 0 0 0 0 0 
0 0 0 0 0 0 0 0 0 
0 0 0 0 0 0 0 0 0 
0 0 0 0 0 0 0 0 0 
0 0 0 0 0 0 0 0 0 
0 0 0 0 0 0 0 0 0 
0 0 0 0 0 0 0 0 0 
0 0 0 0 0 0 0 0 0 
0 0 0 0 0 0 0 0 0 
0 0 0 0 0 0 0 0 0 
0 0 0 0 0 0 0 0 0 
0 0 0 0 0 0 0 0 0 
0 0 0 0 0 0 0 0 0 
0 0 0 0 0 0 0 0 0 
0 0 0 0 0 0 0 0 0 
0 0 0 0 0 0 0 0 0 
0 0 0 0 0 0 0 0 0 
0 0 0 0 0 0 0 0 0 
0 0 0 0 0 0 0 0 0 
0 0 0 0 0 0 0 0 0 
0 0 0 0 0 0 0 0 0 
0 0 0 0 0 0 0 0 0 
0 0 0 0 0 0 0 0 0 
0 0 0 0 0 0 0 0 0 
0 0 0 0 0 0 0 0 0 
0 0 0 0 0 0 0 0 0 
0 0 0 0 0 0 0 0 0 
0 0 0 0 0 0 0 0 0 
0 0 0 0 0 0 0 0 0 
0 0 0 0 0 0 0 0 0 
0 0 0 0 0 0 0 0 0 
0 0 0 0 0 0 0 0 0 
0 0 0 0 0 0 0 0 0 
0 0 0 0 0 0 0 0 0 
0 0 0 0 0 0 0 0 0 
0 0 0 0 0 0 0 0 0 
0 0 0 0 0 0 0 0 0 
0 0 0 0 0 0 0 0 0 
0 0 0 0 0 0 0 0 0 
0 0 0 0 0 0 0 0 0 
0 0 0 0 0 0 0 0 0 
0 0 0 0 0 0 0 0 0 
0 0 0 0 0 0 0 0 0 
0 0 0 0 0 0 0 0 0 
0 0 0 0 0 0 0 0 0 
0 0 0 0 0 0 0 0 0 
0 0 0 0 0 0 0 0 0 
0 0 0 0 0 0 0 0 0 
0 0 0 0 0 0 0 0 0 
0 0 0 0 0 0 0 0 0 
0 0 0 0 0 0 0 0 0 
0 0 0 0 0 0 0 0 0 
0 0 0 0 0 0 0 0 0 
0 0 0 0 0 0 0 0 0 
0 0 0 0 0 0 0 0 0 
0 0 0 0 0 0 
x 1 1049 double
-1.14765 -0.587291 0.312344 -1.37538 3.00846 -4.504 -4.29938 3.1396 3.73284 
4.40573 4.89979 4.60154 5.86124 -6.81363 -5.6661 -5.08381 5.22616 -6.97098 
-6.23187 6.1597 7.33076 -8.01311 -7.49719 7.89701 -10.1455 -10.0034 -9.36659 
-8.80661 9.23788 -10.8931 -10.1064 -10.9188 -9.32022 10.5499 11.0186 -12.0345 
-11.8122 -11.6336 11.9597 11.4267 -14.1071 -15 -15 -14.2857 -15 
-14.4643 -15 -14.8214 -14.6429 -15 -13.9286 -13.2143 -13.5714 -13.0357 
-13.75 -13.3929 -12.5 -12.3518 -12.2751 -12.6786 -12.8571 -11.3214 -11.9158 
-11.1429 -11.5 -11.4848 -10.6071 -10.25 -10.9643 -10.7857 -10.0714 -10.4286 
-9.3571 -9.5357 -9.1786 -9.8929 -9.7143 -8.6 -8.2 -9 -9 
-9 -8.4 -9 -8.8 -9 -7.8 -7.4 -7.2 -8 
-7.6 -6.2 -6.8 -6.6 -6.4 -7 -5.4 -6 -5.2 
-5.6 -5.8 -5 -4.4 -4.2 -4.6 -4.8 -3.8 -3.6 
-4 -3.2 -3.4 -3 -2.6 -3 -3 -2.4 -3 
-2.2 -2.8 -3 -1.4 -1.8 -1.2 -1.6 -2 -0.4 
-1 -0.8 -0.6 -0.2 0.8 0.2 -0 0.4 0.6 
1.8 1.6 1.2 1.4 1 2.2 2 2.6 2.4 
2.8 3 3.8 3.4 3.6 3.2 3 3 3 
3 4 4.8 4.6 4.4 4.2 5.6 5.8 5.4 
5 5.2 6.8 6.6 6.4 6.2 6 7 7.6 
7.2 7.4 7.8 8.6 8.2 8 8.8 8.4 9.8929 
9.5357 9.7143 9 9 9 9 9.3571 9.1786 9 
10.0714 10.25 10.4286 10.9643 10.6071 10.7857 11.5 11.1429 11.3214 
11.6364 11.6753 12.189 12.1595 12.5961 12.6786 12.5 12.8571 13.2143 
13.5714 13.3929 13.0357 13.9286 13.75 14.8214 14.2857 14.4643 14.1071 
14.6429 15 15 15 15 15 -15 -15 -15 
-15 -15 -12.3352 -11.7585 -11.2374 -9 -9 -9 -9 
-9 -3 -3 -3 -3 -3 3 3 3 
3 3 9 9 9 9 9 11.2459 11.8075 
15 15 15 15 15 -15 -15 -15 -15 
-15 -11.3332 -10.7909 -9 -9 -9 -9 -9 -3 
-3 -3 -3 -3 3 3 3 3 3 
9 9 9 9 9 11.1566 11.6654 12.2033 12.5794 
15 15 15 15 15 -15 -15 -15 -15 
-15 -12.2846 -11.2792 -11.5549 -10.7143 -9 -9 -9 -9 
-9 -3 -3 -3 -3 -3 3 3 3 
3 3 9 9 9 9 9 10.6175 10.9301 
11.1972 12.6564 12.2021 13.0682 15 15 15 15 15 
-15 -15 -15 -15 -15 -11.5487 -10.3912 -9 -9 
-9 -9 -9 -3 -3 -3 -3 -3 3 
3 3 3 3 9 9 9 9 9 
10.3884 11.1538 12.583 15 15 15 15 15 -15 
-15 -15 -15 -15 -11.0411 -10.5006 -10.5327 -9 -9 
-9 -9 -9 -3 -3 -3 -3 -3 3 
3 3 3 3 9 9 9 9 9 
10.582 10.0838 10.788 11.2248 12.8688 15 15 15 15 
15 -15 -15 -15 -15 -15 -10.4779 -9.92184 -9.86651 
-9 -9 -9 -9 -9 -3 -3 -3 -3 
-3 3 3 3 3 3 9 9 9 
9 9 10.0326 15 15 15 15 15 -15 
-15 -15 -15 -15 -9.64819 -9 -9 -9 -9 
-9 -3 -3 -3 -3 -3 3 3 3 
3 3 9 9 9 9 9 9.67784 12.7379 
13.5455 13.0856 15 15 15 15 15 -15 -15 
-15 -15 -15 -9.93353 -9.37385 -9.08259 -8.6429 -8.4643 -8.2857 
-9 -8.1071 -8.8214 -7.3929 -7.9286 -7.95425 -7.5714 -7.75 -7.2143 
-7.0357 -6.5 -6.8571 -6.6786 -5.3214 -5.5 -5.1429 -4.4286 -4.07069 
-4.7857 -4.9643 -4.6071 -4.25 -4.0714 -3.38168 -3.8929 -3.5357 -3.7143 
-3.1786 -3.3571 -2.1071 -2.6429 -2.8214 -2.4643 -2.2857 -3 -2.26235 
-1.9286 -1.5714 -1.2143 -1.75 -1.0357 -1.3929 -0.6786 -0.8571 -0.5 
0.6786 0.5 0.8571 1.5714 1.75 1.3929 1.0357 1.2143 1.9286 
2.1071 2.4643 2.6429 2.8214 2.2857 3.3571 3.7143 3.1786 3.8929 
3 3.5357 4.11409 4.4286 4.6071 4.9643 4.7857 4.25 4.0714 
5.5 5.3214 5.62994 5.1429 6.46415 6.8571 6.6786 6.5 7.0357 
7.3929 7.5714 7.2143 7.9286 7.53009 7.75 8.4643 8.6429 8.1071 
8.8214 8.2857 9 9 9.09204 13.6552 13.6531 13.1227 15 
15 15 15 15 -15 -15 -15 -15 -15 
13.4831 15 15 15 15 15 -14.8333 -15 -14.1667 
-14.3333 -14.6667 -15 -14.5 -15 -15 -15 -14 -12.2 
-12.6 -13 -12.8 -12.4 -11.4 -11.6 -11.8 -11.2 -12 
-10.8 -10.4 -10.2 -11 -10.6 -9.8 -10 -9.6 -9.4 
-9.2 -8.6429 -9 -8.2857 -9 -8.8214 -8.4643 -8.1071 -9 
-9 -9 -7.75 -7.2143 -7.9286 -7.5714 -7.0357 -7.3929 -6.5 
-6.6786 -6.8571 -5.3214 -5.5 -5.1429 -4.25 -4.7857 -4.6071 -4.0714 
-4.9643 -4.4286 -3.3571 -3.7143 -3.8929 -3.5357 -3.1786 -3 -2.8 
-2.2 -3 -3 -3 -3 -2.6 -2.4 -1.8 -1.6 
-2 -1.2 -1.4 -1 -0.6 -0.8 -0.2 -0.4 0.2 
0.8 0.6 0.4 -0 1.6 1.2 1 1.8 1.4 
2 2.8 2.4 2.6 2.2 3.2 3.8 3.4 3 
3.6 4 4.8 4.2 4.6 4.4 5.4 5.2 5.8 
5.6 5 6 6.4 6.2 6.6 6.8 7 7.2 
7.4 7.6 7.8 8.2 8.6 8.4 8 8.8 9.2 
9 9.6 9 9.4 9 9 9.8 9 10.6 
10.2 10 10.4 10.8 11.2 11 11.4 11.6 11.8 
12.2 12.6 12 12.8693 12.4 12.9605 12.8 13 13.3844 
13.5132 14.6667 14 14.1667 14.8333 14.5 14.3333 15 15 
15 15 15 -15 -15 -15 -15 -15 -9 
-9 -9 -9 -9 -3 -3 -3 -3 -3 
9 9 9 9 9 11.8242 12.4563 15 15 
15 15 15 -15 -15 -15 -15 -15 -9 
-9 -9 -9 -9 -3 -3 -3 -3 -3 
9 9 9 9 9 10.9543 11.3307 15 15 
15 15 15 -15 -15 -15 -15 -15 -9 
-9 -9 -9 -9 -3 -3 -3 -3 -3 
7.0736 9 9 9 9 9 10.1566 15 15 
15 15 15 -15 -15 -15 -15 -15 -9 
-9 -9 -9 -9 -3 -3 -3 -3 -3 
7.92651 9.48794 9 15 15 15 15 15 -15 
-15 -15 -15 -15 -9 -9 -9 -9 -9 
-3 -3 -3 -3 -3 9 9 9 9 
9 9 15 15 15 15 15 -14.6 -14.8 
-14.4 -14.2 -15 -13.8 -13.6 -13.4 -13.2 -14 -12.6 
-12.8 -12.2 -13 -12.4 -12 -11.8 -11.6 -11.4 -11.2 
-10.6 -10.4 -10.2 -11 -10.8 -9.4 -9.8 -10 -9.2 
-9.6 -9 -8.6 -8.4 -8.2 -8.8 -8 -7.4 -7.2 
-7.6 -7.8 -6.2 -6.4 -7 -6.6 -6.8 -5.2 -5.8 
-6 -5.4 -5.6 -5 -4.6 -4.2 -4.4 -4.8 -3.8 
-3.6 -3.4 -3.2 -4 -3 -2.6 -2.8 -2.4 -2.2 
-1.4 -1.6 -1.8 -1.2 -2 -0.8 -0.4 -0.2 -1 
-0.6 0.4 -0 0.6 0.8 0.2 1.2 1.4 1.8 
1 1.6 2.6 2.4 2.2 2 2.8 3.2 3.4 
3 3.6 3.8 4 4.2 4.4 4.6 4.8 5 
5.2 5.4 5.8 5.6 6.4 6.8 6.6 6.2 6 
7.4 7 7.6 7.8 7.2 8.6 8 8.4 8.2 
8.8 9 9.2 9.8 9.4 9.6 10 10.2 10.4 
10.6 10.8 11.4 11.8 11 11.6 11.2 12.4 12.8 
12.6 12.2 12 13.8 13.2 13.4 13.6 13 14.8 
14 14.2 14.4 14.6 15 
y 1 1049 double
-9.3301 -9.33015 -9.74509 -8.75267 -7.46005 -6.90854 -6.24064 -6.88442 -6.69826 
-6.96044 -6.65746 -6.02658 -5.99989 -5.23246 -5.17238 -5.16829 -5.59964 -4.33677 
-4.80349 -4.95316 -3.9971 -3.50774 -3.79578 -3.65551 -2.68575 -2.04239 -2.57857 
-2.96452 -2.47287 -1.65444 -1.43847 -1.0103 -1.91614 -1.38589 -1.09193 -0.508126 
-0.0423478 -0.876065 -0.400119 -0.588003 0 0.6 0.4 0 0.2 
0 0 0 0 0.8 0 0 0 0 
0 0 0 0.74736 0.177428 0 0 0 0.451905 
0 0 0.366845 0 0 0 0 0 0 
0 0 0 0 0 0 0 0.2 0.4 
0.8 0 0 0 0.6 0 0 0 0 
0 0 0 0 0 0 0 0 0 
0 0 0 0 0 0 0 0 0 
0 0 0 0 0 0.2 0.8 0 0.6 
0 0 0.4 0 0 0 0 0 0 
0 0 0 0 0 0 0 0 0 
0 0 0 0 0 0 0 0 0 
0 0.6 0 0 0 0 0.4 0.8 0.2 
0 0 0 0 0 0 0 0 0 
0 0 0 0 0 0 0 0 0 
0 0 0 0 0 0 0 0 0 
0 0 0.6 0.2 0.8 0 0 0 0.4 
0 0 0 0 0 0 0 0 0 
0.746762 0.237292 0.813986 0.152641 0.48061 0 0 0 0 
0 0 0 0 0 0 0 0 0 
0 0.2 0 0.4 0.8 0.6 1.6 1.8 1 
1.2 1.4 1.44241 1.44287 1.76063 1 1.2 1.8 1.4 
1.6 1 1.8 1.6 1.2 1.4 1.2 1.4 1.8 
1.6 1 1.8 1.2 1 1.6 1.4 1.58698 1.29983 
1.6 1 1.4 1.2 1.8 2.2 2.4 2 2.6 
2.8 2.41594 2.79744 2.8 2.6 2 2.4 2.2 2.6 
2.2 2.4 2 2.8 2.2 2.4 2.8 2 2.6 
2 2.2 2.6 2.4 2.8 2.31098 2.82311 2.72159 2.14157 
2 2.6 2.2 2.8 2.4 3.4 3.8 3.6 3.2 
3 3.72304 3.54248 3.0112 3.71999 3.6 3 3.2 3.8 
3.4 3.2 3.4 3.8 3 3.6 3 3.4 3.8 
3.2 3.6 3.2 3.6 3.4 3 3.8 3.15319 3.6692 
3.17363 3.19752 3.62238 3.90551 3 3.2 3.6 3.4 3.8 
4.6 4.4 4 4.2 4.8 4.47652 4.49529 4.8 4.2 
4.6 4.4 4 4.4 4 4.2 4.6 4.8 4.4 
4.2 4.6 4.8 4 4.2 4.8 4.6 4.4 4 
4.85378 4.49891 4.11165 4 4.4 4.8 4.6 4.2 5.8 
5.6 5 5.4 5.2 5.03465 5.23435 5.97823 5.2 5 
5.6 5.4 5.8 5.4 5.2 5.6 5 5.8 5.6 
5.2 5.4 5 5.8 5.4 5.8 5.2 5 5.6 
5.97443 5.37364 5.42622 5.07129 5.69488 5.8 5.6 5.2 5.4 
5 6 6.8 6.4 6.2 6.6 6.87269 6.34294 6.93175 
6.8 6.6 6.4 6.2 6 6 6.4 6.8 6.6 
6.2 6.2 6.4 6.6 6.8 6 6.6 6.8 6.4 
6 6.2 6.19998 6.2 6.8 6.4 6.6 6 7.4 
7.2 7 7.8 7.6 7.56319 7 7.6 7.8 7.4 
7.2 7.6 7.2 7.4 7.8 7 7 7.6 7.8 
7.2 7.4 7.4 7.2 7.6 7 7.8 7.70896 7.25241 
7.3799 7.7604 7.6 7.4 7.8 7 7.2 8 8.6 
8.8 8.2 8.4 8.25195 8.20243 8.74591 8 8 8 
8 8 8 8 8 8.98973 8 8 8 
8 8 8 8 8 8 8 8 8.93455 
8 8 8 8 8 8.85745 8 8 8 
8 8 8 8 8 8 8 8 8.76285 
8 8 8 8 8 8 8 8 8 
8 8 8 8 8 8 8 8 8 
8 8 8 8 8 8 8 8 8 
8 8 8.90073 8 8 8 8 8 8 
8 8 8.95225 8 8.9822 8 8 8 8 
8 8 8 8 8.80451 8 8 8 8 
8 8 8 8 8.74265 8.82773 8.18368 8.56378 8.8 
8.6 8 8.4 8.2 9 9.2 9.6 9.4 9.8 
9.48442 9.4 9.8 9.6 9 9.2 10 10.8 10 
10 10 10 10 10.2 10.6 10.4 10 10 
10 10 10 10 10 10 10 10 10 
10 10 10 10 10 10 10 10 10 
10 10 10.2 10 10 10 10 10 10.6 
10.4 10.8 10 10 10 10 10 10 10 
10 10 10 10 10 10 10 10 10 
10 10 10 10 10 10 10 10.6 10 
10 10.8 10.4 10.2 10 10 10 10 10 
10 10 10 10 10 10 10 10 10 
10 10 10 10 10 10 10 10 10 
10 10 10 10 10 10 10 10 10 
10 10 10 10 10 10 10 10 10 
10 10 10 10 10 10 10 10 10 
10 10 10 10 10 10 10 10 10 
10.6 10 10.8 10 10.2 10 10 10.4 10 
10 10 10 10 10 10 10 10 10 
10 10 10 10.9122 10 10.3643 10 10 10.788 
10.1112 10 10 10 10 10 10 10.4 10 
10.2 10.8 10.6 11 11.8 11.4 11.2 11.6 11.4 
11.6 11 11.2 11.8 11.4 11.6 11.2 11 11.8 
11.2 11.6 11.4 11.8 11 11.5295 11.3764 11 11.2 
11.8 11.4 11.6 12.8 12.2 12 12.6 12.4 12.4 
12.2 12.6 12 12.8 12.4 12.8 12 12.2 12.6 
12 12.2 12.8 12.4 12.6 12.811 12.2782 12 12.2 
12.8 12.4 12.6 13.6 13.4 13.2 13 13.8 13.4 
13 13.2 13.8 13.6 13.4 13.2 13.8 13.6 13 
13.8356 13.8 13 13.6 13.2 13.4 13.5171 13.6 13 
13.8 13.2 13.4 14.2 14 14.8 14.4 14.6 14.4 
14 14.2 14.6 14.8 14.4 14.2 14.8 14.6 14 
14.0409 14.1698 14 14.4 14.2 14.8 14.6 14 15.4 
15.2 15 15.8 15.6 15.6 15.8 15.4 15 15.2 
15.8 15.2 15.6 15 15.4 15.1667 15.8333 15.5 15.6667 
15 15.3333 15.8 15 15.6 15.4 15.2 16 16 
16 16 16 16 16 16 16 16 16 
16 16 16 16 16 16 16 16 16 
16 16 16 16 16 16 16 16 16 
16 16 16 16 16 16 16 16 16 
16 16 16 16 16 16 16 16 16 
16 16 16 16 16 16 16 16 16 
16 16 16 16 16 16 16 16 16 
16 16 16 16 16 16 16 16 16 
16 16 16 16 16 16 16 16 16 
16 16 16 16 16 16 16 16 16 
16 16 16 16 16 16 16 16 16 
16 16 16 16 16 16 16 16 16 
16 16 16 16 16 16 16 16 16 
16 16 16 16 16 16 16 16 16 
16 16 16 16 16 16 16 16 16 
16 16 16 16 16 16 16 16 16 
16 16 16 16 16 
