# vtk DataFile Version 4.0
vtk output
ASCII
DATASET POLYDATA
FIELD FieldData 4
domain 1 4 string
domain_min:-40|-40
domain_max:40|40
cell_size:1|1
boundary:0|0

variables 1 5 string
T:48.6
dt:0.01
write_case:1
substeps:10
all_steps:4860

constants 1 17 string
L:40
c_s:1
dx:1
k:1000
d1:-13.5|10
d2:-6|10
d3:9|14.5
d4:13.5|10
d5:-6|8
d6:0|8
d7:6|8
d8:-9|9
d9:9|9
d10:-12|0
d11:12|0
d12:0|-10
R_w:0.1

equations 1 18 string
time:T=(T+dt)#true
pos_x:x=elem(r,0,0)#eq(gid,1)
pos_y:y=elem(r,1,0)#eq(gid,1)
wp_1:p0=if(and(lt(x,(-9)),gt(y,10)),d1,p0)#eq(gid,1)
wp_2:p0=if(and(and(gt(x,(-9)),lt(x,(-3))),gt(y,10)),d2,p0)#eq(gid,1)
wp_3:p0=if(and(and(gt(x,(-3)),lt(x,9)),gt(y,10)),d3,p0)#eq(gid,1)
wp_4:p0=if(and(gt(x,9),gt(y,10)),d4,p0)#eq(gid,1)
wp_5:p0=if(and(and(gt(x,(-9)),lt(x,(-3))),lt(y,8)),d5,p0)#eq(gid,1)
wp_6:p0=if(and(and(gt(x,(-3)),lt(x,3)),lt(y,8)),d6,p0)#eq(gid,1)
wp_7:p0=if(and(and(gt(x,3),lt(x,9)),lt(y,8)),d7,p0)#eq(gid,1)
wp_8:p0=if(and(and(gt(x,(-9)),lt(x,0)),and(gt(y,8),lt(y,10))),d8,p0)#eq(gid,1)
wp_9:p0=if(and(and(gt(x,0),lt(x,9)),and(gt(y,8),lt(y,10))),d9,p0)#eq(gid,1)
wp_10:p0=if(and(lt(x,(-9)),lt(y,10)),d10,p0)#eq(gid,1)
wp_11:p0=if(and(gt(x,9),lt(y,10)),d11,p0)#eq(gid,1)
wp_12:p0=if(lt(y,0),d12,p0)#eq(gid,1)
acceleration:v=sfm(v,p0,v0,m,R,A,B,k,c,tau)#eq(gid,1)
velocity:v=euler(v,a,dt)#eq(gid,1)
position:r=euler(r,v,dt)#eq(gid,1)

POINTS 1049 float
-1.21495 -12.1 0 -0.567407 -12.1189 0 0.814508 -12.1938 0 
0.242228 -12.3385 0 -1.59678 -11.0266 0 -1.41051 -11.5509 0 
-1.98445 -11.455 0 -1.02605 -11.0976 0 -0.863096 -11.5982 0 
-0.0607361 -11.8953 0 -0.136755 -11.1064 0 -0.381997 -11.5569 0 
-0.539704 -11.1628 0 0.429971 -11.8102 0 0.0825586 -11.4224 0 
0.97341 -11.0709 0 0.879639 -11.6016 0 0.478996 -11.2496 0 
1.38458 -11.4057 0 1.30694 -11.9389 0 1.81265 -11.7417 0 
1.88241 -11.2282 0 2.36349 -11.0305 0 -2.34084 -10.4079 0 
-2.1384 -10.8997 0 -1.9929 -10.0301 0 -1.75923 -10.4839 0 
-1.27111 -10.6889 0 -1.25132 -10.2849 0 -0.140245 -10.6782 0 
-0.0137588 -10.0204 0 -0.42125 -10.0906 0 -0.474265 -10.3633 0 
-0.543876 -10.7948 0 -0.734349 -10.2362 0 -0.0753798 -10.3328 0 
-0.884092 -10.6239 0 0.756714 -10.5329 0 0.629852 -10.8546 0 
0.189008 -10.8104 0 0.745434 -10.1313 0 0.31264 -10.4942 0 
0.191515 -10.2232 0 1.51624 -10.4483 0 1.95182 -10.7114 0 
1.9632 -10.1655 0 1.07485 -10.2874 0 1.47906 -10.939 0 
1.08019 -10.6932 0 2.46108 -10.4662 0 -2.43443 -9.86263 0 
-2.31528 -9.35473 0 -1.86008 -9.09229 0 -1.38398 -9.30452 0 
-1.8427 -9.57996 0 -1.54682 -9.9515 0 -1.22056 -9.68779 0 
-0.096688 -9.06165 0 -0.0143714 -9.59921 0 -0.982881 -9.04112 0 
-0.886844 -9.40248 0 -0.692578 -9.72537 0 -0.219139 -9.3145 0 
-0.480723 -9.2107 0 -0.906208 -9.98783 0 -0.36604 -9.80489 0 
0.321731 -9.58857 0 0.642705 -9.47548 0 0.89764 -9.77212 0 
0.485144 -9.94367 0 0.149801 -9.22914 0 0.465577 -9.1674 0 
0.969665 -9.20242 0 1.16711 -9.98412 0 1.72687 -9.64061 0 
1.52339 -9.9718 0 1.47168 -9.26906 0 1.2466 -9.57948 0 
1.9804 -9.2278 0 2.603 -9.94823 0 2.55815 -9.36541 0 
2.17089 -9.7246 0 -2.26119 -8.84424 0 -2.57567 -8.46408 0 
-1.7732 -8.6111 0 -1.33282 -8.80798 0 -1.83546 -8.04806 0 
-1.35433 -8.26743 0 -0.572628 -8.86623 0 -0.931815 -8.53479 0 
-0.195148 -8.71671 0 -0.483208 -8.35991 0 -0.0377265 -8.2691 0 
-0.881034 -8.02642 0 0.962241 -8.01196 0 0.445831 -8.213 0 
0.85177 -8.50015 0 0.66333 -8.84961 0 0.271931 -8.62033 0 
1.57763 -8.90605 0 1.98589 -8.67745 0 1.38135 -8.40723 0 
1.8343 -8.10551 0 1.13154 -8.83728 0 2.33991 -8.22992 0 
2.6055 -8.74185 0 -2.39257 -7.93729 0 -1.34896 -7.72559 0 
-0.382623 -7.86896 0 -0.746253 -7.4882 0 0.103469 -7.78781 0 
0.586749 -7.61076 0 1.42763 -7.75711 0 2.60448 -7.54564 0 
3.36879 -7.76602 0 5.03365 -5.88042 0 5.71777 -5.46144 0 
6.43866 -4.76826 0 7.31643 -4.05768 0 8.04362 -3.47373 0 
-15 0.2 0 -14.4643 0 0 -14.1071 0 0 
-15 0.6 0 -14.2857 0 0 -14.6429 0 0 
-15 0.4 0 -15 0 0 -15 0.8 0 
-14.8214 0 0 -13.3929 0 0 -13.2143 0 0 
-13.0357 0 0 -13.5714 0 0 -13.9286 0 0 
-13.75 0 0 -12.5 0 0 -12.8571 0 0 
-12.6786 0 0 -11.3214 0 0 -11.5 0 0 
-11.1429 0 0 -10.4286 0 0 -10.9643 0 0 
-10.6071 0 0 -10.25 0 0 -10.7857 0 0 
-10.0714 0 0 -9.8929 0 0 -9.7143 0 0 
-9.5357 0 0 -9.1786 0 0 -9.3571 0 0 
-8.2 0 0 -9 0 0 -8.4 0 0 
-9 0.8 0 -8.8 0 0 -9 0.6 0 
-9 0.4 0 -9 0.2 0 -8.6 0 0 
-7.8 0 0 -7.6 0 0 -7.4 0 0 
-7.2 0 0 -8 0 0 -6.8 0 0 
-6.2 0 0 -6.4 0 0 -6.6 0 0 
-7 0 0 -5.4 0 0 -5.2 0 0 
-6 0 0 -5.8 0 0 -5.6 0 0 
-4.8 0 0 -4.6 0 0 -4.4 0 0 
-5 0 0 -4.2 0 0 -3.8 0 0 
-3.2 0 0 -4 0 0 -3.6 0 0 
-3.4 0 0 -2.4 0 0 -3 0 0 
-3 0.6 0 -3 0.4 0 -3 0.8 0 
-2.6 0 0 -2.2 0 0 -3 0.2 0 
-2.8 0 0 -1.8 0 0 -1.6 0 0 
-1.4 0 0 -2 0 0 -1.2 0 0 
-0.4 0 0 -0.6 0 0 -0.8 0 0 
-0.2 0 0 -1 0 0 -0 0 0 
0.4 0 0 0.2 0 0 0.6 0 0 
0.8 0 0 1.8 0 0 1.4 0 0 
1.2 0 0 1.6 0 0 1 0 0 
2 0 0 2.2 0 0 2.8 0 0 
2.4 0 0 2.6 0 0 3.8 0 0 
3 0.8 0 3.6 0 0 3 0 0 
3 0.4 0 3 0.2 0 3 0.6 0 
3.2 0 0 3.4 0 0 4.8 0 0 
4.6 0 0 4.4 0 0 4.2 0 0 
4 0 0 5 0 0 5.2 0 0 
5.6 0 0 5.8 0 0 5.4 0 0 
6 0 0 6.6 0 0 6.8 0 0 
6.4 0 0 6.2 0 0 7 0 0 
7.4 0 0 7.8 0 0 7.2 0 0 
7.6 0 0 8.4 0 0 8.2 0 0 
8.8 0 0 8.6 0 0 8 0 0 
9.7143 0 0 9.8929 0 0 9.1786 0 0 
9 0.2 0 9.3571 0 0 9.5357 0 0 
9 0.8 0 9 0 0 9 0.6 0 
9 0.4 0 10.0714 0 0 10.4286 0 0 
10.25 0 0 10.7857 0 0 10.6071 0 0 
10.9643 0 0 11.5 0 0 11.1429 0 0 
11.3214 0 0 12.8571 0 0 12.5 0 0 
12.6786 0 0 13.75 0 0 13.3929 0 0 
13.5714 0 0 13.2143 0 0 13.9286 0 0 
13.0357 0 0 14.4643 0 0 14.1071 0 0 
14.8214 0 0 14.2857 0 0 14.6429 0 0 
15 0 0 15 0.2 0 15 0.4 0 
15 0.8 0 15 0.6 0 -15 1.8 0 
-15 1.6 0 -15 1.2 0 -15 1.4 0 
-15 1 0 -9 1.4 0 -9 1.8 0 
-9 1 0 -9 1.6 0 -9 1.2 0 
-3 1.2 0 -3 1.6 0 -3 1.4 0 
-3 1 0 -3 1.8 0 3 1.2 0 
3 1.8 0 3 1.4 0 3 1 0 
3 1.6 0 9 1.4 0 9 1.2 0 
9 1.6 0 9 1 0 9 1.8 0 
15 1.6 0 15 1.4 0 15 1.8 0 
15 1.2 0 15 1 0 -15 2.4 0 
-15 2 0 -15 2.8 0 -15 2.2 0 
-15 2.6 0 -9 2.6 0 -9 2.2 0 
-9 2.4 0 -9 2.8 0 -9 2 0 
-3 2.2 0 -3 2.6 0 -3 2.8 0 
-3 2 0 -3 2.4 0 3 2.6 0 
3 2.4 0 3 2.8 0 3 2 0 
3 2.2 0 9 2.8 0 9 2 0 
9 2.6 0 9 2.4 0 9 2.2 0 
15 2.2 0 15 2.4 0 15 2.8 0 
15 2 0 15 2.6 0 -15 3.8 0 
-15 3.6 0 -15 3 0 -15 3.2 0 
-15 3.4 0 -9 3.4 0 -9 3.2 0 
-9 3.6 0 -9 3.8 0 -9 3 0 
-3 3 0 -3 3.6 0 -3 3.2 0 
-3 3.8 0 -3 3.4 0 3 3.2 0 
3 3.4 0 3 3.6 0 3 3 0 
3 3.8 0 9 3 0 9 3.6 0 
9 3.4 0 9 3.8 0 9 3.2 0 
15 3.8 0 15 3.4 0 15 3.2 0 
15 3.6 0 15 3 0 -15 4.4 0 
-15 4.8 0 -15 4 0 -15 4.6 0 
-15 4.2 0 -9 4.6 0 -9 4 0 
-9 4.8 0 -9 4.4 0 -9 4.2 0 
-3 4.6 0 -3 4.2 0 -3 4 0 
-3 4.4 0 -3 4.8 0 3 4 0 
3 4.6 0 3 4.8 0 3 4.4 0 
3 4.2 0 9 4 0 9 4.8 0 
9 4.6 0 9 4.4 0 9 4.2 0 
15 4.8 0 15 4 0 15 4.2 0 
15 4.4 0 15 4.6 0 -15 5.4 0 
-15 5 0 -15 5.2 0 -15 5.8 0 
-15 5.6 0 -9 5 0 -9 5.2 0 
-9 5.8 0 -9 5.6 0 -9 5.4 0 
-3 5.8 0 -3 5.2 0 -3 5 0 
-3 5.6 0 -3 5.4 0 3 5.6 0 
3 5 0 3 5.4 0 3 5.2 0 
3 5.8 0 9 5.6 0 9 5.2 0 
9 5.4 0 9 5.8 0 9 5 0 
15 5.4 0 15 5 0 15 5.8 0 
15 5.6 0 15 5.2 0 -15 6 0 
-15 6.4 0 -15 6.2 0 -15 6.6 0 
-15 6.8 0 -9 6.8 0 -9 6.6 0 
-9 6.4 0 -9 6.2 0 -9 6 0 
-3 6.6 0 -3 6.8 0 -3 6 0 
-3 6.2 0 -3 6.4 0 3 6.4 0 
3 6.8 0 3 6.6 0 3 6 0 
3 6.2 0 9 6.4 0 9 6.8 0 
9 6.6 0 9 6 0 9 6.2 0 
15 6 0 15 6.2 0 15 6.8 0 
15 6.4 0 15 6.6 0 -15 7 0 
-15 7.4 0 -15 7.2 0 -15 7.8 0 
-15 7.6 0 -9 7 0 -9 7.2 0 
-9 7.4 0 -9 7.6 0 -9 7.8 0 
-3 7.6 0 -3 7.8 0 -3 7 0 
-3 7.4 0 -3 7.2 0 3 7.2 0 
3 7.4 0 3 7.6 0 3 7.8 0 
3 7 0 9 7 0 9 7.6 0 
9 7.4 0 9 7.8 0 9 7.2 0 
15 7 0 15 7.4 0 15 7.8 0 
15 7.2 0 15 7.6 0 -15 8.6 0 
-15 8 0 -15 8.8 0 -15 8.2 0 
-15 8.4 0 -8.2857 8 0 -8.4643 8 0 
-8.8214 8 0 -8.6429 8 0 -8.1071 8 0 
-9 8 0 -7.75 8 0 -7.2143 8 0 
-7.3929 8 0 -7.0357 8 0 -7.9286 8 0 
-7.5714 8 0 -6.8571 8 0 -6.5 8 0 
-6.6786 8 0 -5.1429 8 0 -5.5 8 0 
-5.3214 8 0 -4.9643 8 0 -4.6071 8 0 
-4.25 8 0 -4.7857 8 0 -4.4286 8 0 
-4.0714 8 0 -3.8929 8 0 -3.7143 8 0 
-3.5357 8 0 -3.1786 8 0 -3.3571 8 0 
-3 8 0 -2.6429 8 0 -2.8214 8 0 
-2.2857 8 0 -2.4643 8 0 -2.1071 8 0 
-1.75 8 0 -1.2143 8 0 -1.5714 8 0 
-1.0357 8 0 -1.3929 8 0 -1.9286 8 0 
-0.5 8 0 -0.6786 8 0 -0.8571 8 0 
0.8571 8 0 0.6786 8 0 0.5 8 0 
1.5714 8 0 1.2143 8 0 1.75 8 0 
1.3929 8 0 1.0357 8 0 1.9286 8 0 
2.1071 8 0 2.2857 8 0 2.6429 8 0 
2.8214 8 0 2.4643 8 0 3.3571 8 0 
3.5357 8 0 3.7143 8 0 3.1786 8 0 
3.8929 8 0 3 8 0 4.4286 8 0 
4.6071 8 0 4.7857 8 0 4.0714 8 0 
4.25 8 0 4.9643 8 0 5.5 8 0 
5.3214 8 0 5.1429 8 0 6.5 8 0 
6.8571 8 0 6.6786 8 0 7.0357 8 0 
7.75 8 0 7.2143 8 0 7.5714 8 0 
7.9286 8 0 7.3929 8 0 8.1071 8 0 
8.2857 8 0 8.4643 8 0 8.8214 8 0 
8.6429 8 0 9 8 0 9 8 0 
15 8.4 0 15 8.8 0 15 8.6 0 
15 8.2 0 15 8 0 -15 9.6 0 
-15 9.4 0 -15 9 0 -15 9.8 0 
-15 9.2 0 15 9.2 0 15 9.6 0 
15 9.8 0 15 9 0 15 9.4 0 
-14.3333 10 0 -15 10.8 0 -15 10.4 0 
-14.6667 10 0 -15 10.2 0 -15 10 0 
-14.1667 10 0 -15 10.6 0 -14.8333 10 0 
-14.5 10 0 -14 10 0 -12.2 10 0 
-13 10 0 -12.6 10 0 -12.4 10 0 
-12.8 10 0 -11.2 10 0 -11.6 10 0 
-12 10 0 -11.4 10 0 -11.8 10 0 
-10.4 10 0 -11 10 0 -10.6 10 0 
-10.8 10 0 -10.2 10 0 -9.4 10 0 
-9.2 10 0 -9.6 10 0 -9.8 10 0 
-10 10 0 -9 10.2 0 -8.6429 10 0 
-9 10.6 0 -9 10.8 0 -8.4643 10 0 
-9 10.4 0 -9 10 0 -8.1071 10 0 
-8.2857 10 0 -8.8214 10 0 -7.75 10 0 
-7.2143 10 0 -7.9286 10 0 -7.5714 10 0 
-7.0357 10 0 -7.3929 10 0 -6.6786 10 0 
-6.5 10 0 -6.8571 10 0 -5.1429 10 0 
-5.3214 10 0 -5.5 10 0 -4.0714 10 0 
-4.9643 10 0 -4.6071 10 0 -4.4286 10 0 
-4.7857 10 0 -4.25 10 0 -3.8929 10 0 
-3.7143 10 0 -3.3571 10 0 -3.1786 10 0 
-3.5357 10 0 -2.4 10 0 -2.2 10 0 
-2.8 10 0 -3 10 0 -3 10.8 0 
-3 10.4 0 -3 10.2 0 -3 10.6 0 
-2.6 10 0 -1.8 10 0 -1.2 10 0 
-1.6 10 0 -2 10 0 -1.4 10 0 
-0.8 10 0 -1 10 0 -0.4 10 0 
-0.6 10 0 -0.2 10 0 0.2 10 0 
-0 10 0 0.6 10 0 0.4 10 0 
0.8 10 0 1 10 0 1.4 10 0 
1.6 10 0 1.2 10 0 1.8 10 0 
2.4 10 0 2.2 10 0 2.6 10 0 
2.8 10 0 2 10 0 3.4 10 0 
3.6 10 0 3.8 10 0 3 10 0 
3.2 10 0 4.2 10 0 4 10 0 
4.6 10 0 4.8 10 0 4.4 10 0 
5.4 10 0 5.8 10 0 5.6 10 0 
5 10 0 5.2 10 0 6.6 10 0 
6.2 10 0 6.4 10 0 6.8 10 0 
6 10 0 7.4 10 0 7.2 10 0 
7.8 10 0 7 10 0 7.6 10 0 
8.2 10 0 8.6 10 0 8.4 10 0 
8 10 0 8.8 10 0 9 10.4 0 
9.8 10 0 9 10.8 0 9.2 10 0 
9 10.2 0 9 10 0 9.6 10 0 
9.4 10 0 9 10.6 0 10 10 0 
10.2 10 0 10.4 10 0 10.6 10 0 
10.8 10 0 11.4 10 0 11.2 10 0 
11 10 0 11.8 10 0 11.6 10 0 
12 10 0 12.8 10 0 12.2 10 0 
12.4 10 0 12.6 10 0 13 10 0 
14.6667 10 0 14.3333 10 0 14.8333 10 0 
14.5 10 0 14 10 0 14.1667 10 0 
15 10.2 0 15 10.4 0 15 10.8 0 
15 10.6 0 15 10 0 -15 11.4 0 
-15 11.8 0 -15 11.2 0 -15 11.6 0 
-15 11 0 -9 11.4 0 -9 11.6 0 
-9 11 0 -9 11.2 0 -9 11.8 0 
-3 11 0 -3 11.8 0 -3 11.4 0 
-3 11.6 0 -3 11.2 0 9 11.8 0 
9 11.4 0 9 11.2 0 9 11 0 
9 11.6 0 15 11.4 0 15 11.2 0 
15 11.8 0 15 11 0 15 11.6 0 
-15 12 0 -15 12.6 0 -15 12.4 0 
-15 12.8 0 -15 12.2 0 -9 12 0 
-9 12.2 0 -9 12.4 0 -9 12.8 0 
-9 12.6 0 -3 12.8 0 -3 12.6 0 
-3 12.2 0 -3 12 0 -3 12.4 0 
9 12.6 0 9 12 0 9 12.2 0 
9 12.4 0 9 12.8 0 15 12.6 0 
15 12 0 15 12.4 0 15 12.2 0 
15 12.8 0 -15 13 0 -15 13.6 0 
-15 13.4 0 -15 13.2 0 -15 13.8 0 
-9 13.4 0 -9 13.2 0 -9 13.6 0 
-9 13 0 -9 13.8 0 -3 13.2 0 
-3 13.4 0 -3 13 0 -3 13.8 0 
-3 13.6 0 9 13.4 0 9 13.6 0 
9 13.2 0 9 13 0 9 13.8 0 
15 13 0 15 13.4 0 15 13.8 0 
15 13.2 0 15 13.6 0 -15 14 0 
-15 14.2 0 -15 14.6 0 -15 14.8 0 
-15 14.4 0 -9 14.4 0 -9 14.2 0 
-9 14 0 -9 14.8 0 -9 14.6 0 
-3 14.6 0 -3 14.8 0 -3 14.2 0 
-3 14 0 -3 14.4 0 9 14 0 
15 14.6 0 15 14 0 15 14.8 0 
15 14.4 0 15 14.2 0 -15 15 0 
-15 15.4 0 -15 15.8 0 -15 15.2 0 
-15 15.6 0 -9 15.4 0 -9 15.2 0 
-9 15 0 -9 15.8 0 -9 15.6 0 
-3 15.2 0 -3 15.8 0 -3 15.4 0 
-3 15 0 -3 15.6 0 9 15.1667 0 
9 15.3333 0 9 15 0 9 15.6667 0 
9 15.5 0 9 15.8333 0 15 15.8 0 
15 15 0 15 15.6 0 15 15.4 0 
15 15.2 0 -14.2 16 0 -14.8 16 0 
-15 16 0 -14.4 16 0 -14.6 16 0 
-13.2 16 0 -13.8 16 0 -14 16 0 
-13.6 16 0 -13.4 16 0 -12.4 16 0 
-13 16 0 -12.6 16 0 -12.2 16 0 
-12.8 16 0 -11.6 16 0 -11.8 16 0 
-11.4 16 0 -11.2 16 0 -12 16 0 
-11 16 0 -10.2 16 0 -10.6 16 0 
-10.4 16 0 -10.8 16 0 -10 16 0 
-9.2 16 0 -9.6 16 0 -9.4 16 0 
-9.8 16 0 -8.2 16 0 -8.4 16 0 
-9 16 0 -8.8 16 0 -8.6 16 0 
-8 16 0 -7.4 16 0 -7.2 16 0 
-7.6 16 0 -7.8 16 0 -6.2 16 0 
-6.4 16 0 -6.6 16 0 -7 16 0 
-6.8 16 0 -5.8 16 0 -5.6 16 0 
-5.2 16 0 -6 16 0 -5.4 16 0 
-5 16 0 -4.6 16 0 -4.2 16 0 
-4.4 16 0 -4.8 16 0 -4 16 0 
-3.4 16 0 -3.8 16 0 -3.6 16 0 
-3.2 16 0 -2.6 16 0 -2.2 16 0 
-3 16 0 -2.8 16 0 -2.4 16 0 
-1.4 16 0 -1.6 16 0 -1.8 16 0 
-1.2 16 0 -2 16 0 -1 16 0 
-0.2 16 0 -0.8 16 0 -0.4 16 0 
-0.6 16 0 0.4 16 0 -0 16 0 
0.6 16 0 0.8 16 0 0.2 16 0 
1.4 16 0 1.6 16 0 1.2 16 0 
1.8 16 0 1 16 0 2.8 16 0 
2 16 0 2.2 16 0 2.6 16 0 
2.4 16 0 3.4 16 0 3 16 0 
3.8 16 0 3.2 16 0 3.6 16 0 
4 16 0 4.2 16 0 4.4 16 0 
4.6 16 0 4.8 16 0 5.8 16 0 
5 16 0 5.4 16 0 5.2 16 0 
5.6 16 0 6.4 16 0 6.8 16 0 
6.6 16 0 6.2 16 0 6 16 0 
7.4 16 0 7 16 0 7.6 16 0 
7.8 16 0 7.2 16 0 8.6 16 0 
8.8 16 0 8 16 0 8.4 16 0 
8.2 16 0 9 16 0 9.2 16 0 
9.8 16 0 9.4 16 0 9.6 16 0 
10 16 0 10.2 16 0 10.4 16 0 
10.6 16 0 10.8 16 0 11.4 16 0 
11.8 16 0 11 16 0 11.6 16 0 
11.2 16 0 12.4 16 0 12.8 16 0 
12.6 16 0 12.2 16 0 12 16 0 
13.2 16 0 13 16 0 13.4 16 0 
13.6 16 0 13.8 16 0 14.8 16 0 
14 16 0 14.2 16 0 14.4 16 0 
14.6 16 0 15 16 0 
VERTICES 2098 2098
1 0 
1 1 
1 2 
1 3 
1 4 
1 5 
1 6 
1 7 
1 8 
1 9 
1 10 
1 11 
1 12 
1 13 
1 14 
1 15 
1 16 
1 17 
1 18 
1 19 
1 20 
1 21 
1 22 
1 23 
1 24 
1 25 
1 26 
1 27 
1 28 
1 29 
1 30 
1 31 
1 32 
1 33 
1 34 
1 35 
1 36 
1 37 
1 38 
1 39 
1 40 
1 41 
1 42 
1 43 
1 44 
1 45 
1 46 
1 47 
1 48 
1 49 
1 50 
1 51 
1 52 
1 53 
1 54 
1 55 
1 56 
1 57 
1 58 
1 59 
1 60 
1 61 
1 62 
1 63 
1 64 
1 65 
1 66 
1 67 
1 68 
1 69 
1 70 
1 71 
1 72 
1 73 
1 74 
1 75 
1 76 
1 77 
1 78 
1 79 
1 80 
1 81 
1 82 
1 83 
1 84 
1 85 
1 86 
1 87 
1 88 
1 89 
1 90 
1 91 
1 92 
1 93 
1 94 
1 95 
1 96 
1 97 
1 98 
1 99 
1 100 
1 101 
1 102 
1 103 
1 104 
1 105 
1 106 
1 107 
1 108 
1 109 
1 110 
1 111 
1 112 
1 113 
1 114 
1 115 
1 116 
1 117 
1 118 
1 119 
1 120 
1 121 
1 122 
1 123 
1 124 
1 125 
1 126 
1 127 
1 128 
1 129 
1 130 
1 131 
1 132 
1 133 
1 134 
1 135 
1 136 
1 137 
1 138 
1 139 
1 140 
1 141 
1 142 
1 143 
1 144 
1 145 
1 146 
1 147 
1 148 
1 149 
1 150 
1 151 
1 152 
1 153 
1 154 
1 155 
1 156 
1 157 
1 158 
1 159 
1 160 
1 161 
1 162 
1 163 
1 164 
1 165 
1 166 
1 167 
1 168 
1 169 
1 170 
1 171 
1 172 
1 173 
1 174 
1 175 
1 176 
1 177 
1 178 
1 179 
1 180 
1 181 
1 182 
1 183 
1 184 
1 185 
1 186 
1 187 
1 188 
1 189 
1 190 
1 191 
1 192 
1 193 
1 194 
1 195 
1 196 
1 197 
1 198 
1 199 
1 200 
1 201 
1 202 
1 203 
1 204 
1 205 
1 206 
1 207 
1 208 
1 209 
1 210 
1 211 
1 212 
1 213 
1 214 
1 215 
1 216 
1 217 
1 218 
1 219 
1 220 
1 221 
1 222 
1 223 
1 224 
1 225 
1 226 
1 227 
1 228 
1 229 
1 230 
1 231 
1 232 
1 233 
1 234 
1 235 
1 236 
1 237 
1 238 
1 239 
1 240 
1 241 
1 242 
1 243 
1 244 
1 245 
1 246 
1 247 
1 248 
1 249 
1 250 
1 251 
1 252 
1 253 
1 254 
1 255 
1 256 
1 257 
1 258 
1 259 
1 260 
1 261 
1 262 
1 263 
1 264 
1 265 
1 266 
1 267 
1 268 
1 269 
1 270 
1 271 
1 272 
1 273 
1 274 
1 275 
1 276 
1 277 
1 278 
1 279 
1 280 
1 281 
1 282 
1 283 
1 284 
1 285 
1 286 
1 287 
1 288 
1 289 
1 290 
1 291 
1 292 
1 293 
1 294 
1 295 
1 296 
1 297 
1 298 
1 299 
1 300 
1 301 
1 302 
1 303 
1 304 
1 305 
1 306 
1 307 
1 308 
1 309 
1 310 
1 311 
1 312 
1 313 
1 314 
1 315 
1 316 
1 317 
1 318 
1 319 
1 320 
1 321 
1 322 
1 323 
1 324 
1 325 
1 326 
1 327 
1 328 
1 329 
1 330 
1 331 
1 332 
1 333 
1 334 
1 335 
1 336 
1 337 
1 338 
1 339 
1 340 
1 341 
1 342 
1 343 
1 344 
1 345 
1 346 
1 347 
1 348 
1 349 
1 350 
1 351 
1 352 
1 353 
1 354 
1 355 
1 356 
1 357 
1 358 
1 359 
1 360 
1 361 
1 362 
1 363 
1 364 
1 365 
1 366 
1 367 
1 368 
1 369 
1 370 
1 371 
1 372 
1 373 
1 374 
1 375 
1 376 
1 377 
1 378 
1 379 
1 380 
1 381 
1 382 
1 383 
1 384 
1 385 
1 386 
1 387 
1 388 
1 389 
1 390 
1 391 
1 392 
1 393 
1 394 
1 395 
1 396 
1 397 
1 398 
1 399 
1 400 
1 401 
1 402 
1 403 
1 404 
1 405 
1 406 
1 407 
1 408 
1 409 
1 410 
1 411 
1 412 
1 413 
1 414 
1 415 
1 416 
1 417 
1 418 
1 419 
1 420 
1 421 
1 422 
1 423 
1 424 
1 425 
1 426 
1 427 
1 428 
1 429 
1 430 
1 431 
1 432 
1 433 
1 434 
1 435 
1 436 
1 437 
1 438 
1 439 
1 440 
1 441 
1 442 
1 443 
1 444 
1 445 
1 446 
1 447 
1 448 
1 449 
1 450 
1 451 
1 452 
1 453 
1 454 
1 455 
1 456 
1 457 
1 458 
1 459 
1 460 
1 461 
1 462 
1 463 
1 464 
1 465 
1 466 
1 467 
1 468 
1 469 
1 470 
1 471 
1 472 
1 473 
1 474 
1 475 
1 476 
1 477 
1 478 
1 479 
1 480 
1 481 
1 482 
1 483 
1 484 
1 485 
1 486 
1 487 
1 488 
1 489 
1 490 
1 491 
1 492 
1 493 
1 494 
1 495 
1 496 
1 497 
1 498 
1 499 
1 500 
1 501 
1 502 
1 503 
1 504 
1 505 
1 506 
1 507 
1 508 
1 509 
1 510 
1 511 
1 512 
1 513 
1 514 
1 515 
1 516 
1 517 
1 518 
1 519 
1 520 
1 521 
1 522 
1 523 
1 524 
1 525 
1 526 
1 527 
1 528 
1 529 
1 530 
1 531 
1 532 
1 533 
1 534 
1 535 
1 536 
1 537 
1 538 
1 539 
1 540 
1 541 
1 542 
1 543 
1 544 
1 545 
1 546 
1 547 
1 548 
1 549 
1 550 
1 551 
1 552 
1 553 
1 554 
1 555 
1 556 
1 557 
1 558 
1 559 
1 560 
1 561 
1 562 
1 563 
1 564 
1 565 
1 566 
1 567 
1 568 
1 569 
1 570 
1 571 
1 572 
1 573 
1 574 
1 575 
1 576 
1 577 
1 578 
1 579 
1 580 
1 581 
1 582 
1 583 
1 584 
1 585 
1 586 
1 587 
1 588 
1 589 
1 590 
1 591 
1 592 
1 593 
1 594 
1 595 
1 596 
1 597 
1 598 
1 599 
1 600 
1 601 
1 602 
1 603 
1 604 
1 605 
1 606 
1 607 
1 608 
1 609 
1 610 
1 611 
1 612 
1 613 
1 614 
1 615 
1 616 
1 617 
1 618 
1 619 
1 620 
1 621 
1 622 
1 623 
1 624 
1 625 
1 626 
1 627 
1 628 
1 629 
1 630 
1 631 
1 632 
1 633 
1 634 
1 635 
1 636 
1 637 
1 638 
1 639 
1 640 
1 641 
1 642 
1 643 
1 644 
1 645 
1 646 
1 647 
1 648 
1 649 
1 650 
1 651 
1 652 
1 653 
1 654 
1 655 
1 656 
1 657 
1 658 
1 659 
1 660 
1 661 
1 662 
1 663 
1 664 
1 665 
1 666 
1 667 
1 668 
1 669 
1 670 
1 671 
1 672 
1 673 
1 674 
1 675 
1 676 
1 677 
1 678 
1 679 
1 680 
1 681 
1 682 
1 683 
1 684 
1 685 
1 686 
1 687 
1 688 
1 689 
1 690 
1 691 
1 692 
1 693 
1 694 
1 695 
1 696 
1 697 
1 698 
1 699 
1 700 
1 701 
1 702 
1 703 
1 704 
1 705 
1 706 
1 707 
1 708 
1 709 
1 710 
1 711 
1 712 
1 713 
1 714 
1 715 
1 716 
1 717 
1 718 
1 719 
1 720 
1 721 
1 722 
1 723 
1 724 
1 725 
1 726 
1 727 
1 728 
1 729 
1 730 
1 731 
1 732 
1 733 
1 734 
1 735 
1 736 
1 737 
1 738 
1 739 
1 740 
1 741 
1 742 
1 743 
1 744 
1 745 
1 746 
1 747 
1 748 
1 749 
1 750 
1 751 
1 752 
1 753 
1 754 
1 755 
1 756 
1 757 
1 758 
1 759 
1 760 
1 761 
1 762 
1 763 
1 764 
1 765 
1 766 
1 767 
1 768 
1 769 
1 770 
1 771 
1 772 
1 773 
1 774 
1 775 
1 776 
1 777 
1 778 
1 779 
1 780 
1 781 
1 782 
1 783 
1 784 
1 785 
1 786 
1 787 
1 788 
1 789 
1 790 
1 791 
1 792 
1 793 
1 794 
1 795 
1 796 
1 797 
1 798 
1 799 
1 800 
1 801 
1 802 
1 803 
1 804 
1 805 
1 806 
1 807 
1 808 
1 809 
1 810 
1 811 
1 812 
1 813 
1 814 
1 815 
1 816 
1 817 
1 818 
1 819 
1 820 
1 821 
1 822 
1 823 
1 824 
1 825 
1 826 
1 827 
1 828 
1 829 
1 830 
1 831 
1 832 
1 833 
1 834 
1 835 
1 836 
1 837 
1 838 
1 839 
1 840 
1 841 
1 842 
1 843 
1 844 
1 845 
1 846 
1 847 
1 848 
1 849 
1 850 
1 851 
1 852 
1 853 
1 854 
1 855 
1 856 
1 857 
1 858 
1 859 
1 860 
1 861 
1 862 
1 863 
1 864 
1 865 
1 866 
1 867 
1 868 
1 869 
1 870 
1 871 
1 872 
1 873 
1 874 
1 875 
1 876 
1 877 
1 878 
1 879 
1 880 
1 881 
1 882 
1 883 
1 884 
1 885 
1 886 
1 887 
1 888 
1 889 
1 890 
1 891 
1 892 
1 893 
1 894 
1 895 
1 896 
1 897 
1 898 
1 899 
1 900 
1 901 
1 902 
1 903 
1 904 
1 905 
1 906 
1 907 
1 908 
1 909 
1 910 
1 911 
1 912 
1 913 
1 914 
1 915 
1 916 
1 917 
1 918 
1 919 
1 920 
1 921 
1 922 
1 923 
1 924 
1 925 
1 926 
1 927 
1 928 
1 929 
1 930 
1 931 
1 932 
1 933 
1 934 
1 935 
1 936 
1 937 
1 938 
1 939 
1 940 
1 941 
1 942 
1 943 
1 944 
1 945 
1 946 
1 947 
1 948 
1 949 
1 950 
1 951 
1 952 
1 953 
1 954 
1 955 
1 956 
1 957 
1 958 
1 959 
1 960 
1 961 
1 962 
1 963 
1 964 
1 965 
1 966 
1 967 
1 968 
1 969 
1 970 
1 971 
1 972 
1 973 
1 974 
1 975 
1 976 
1 977 
1 978 
1 979 
1 980 
1 981 
1 982 
1 983 
1 984 
1 985 
1 986 
1 987 
1 988 
1 989 
1 990 
1 991 
1 992 
1 993 
1 994 
1 995 
1 996 
1 997 
1 998 
1 999 
1 1000 
1 1001 
1 1002 
1 1003 
1 1004 
1 1005 
1 1006 
1 1007 
1 1008 
1 1009 
1 1010 
1 1011 
1 1012 
1 1013 
1 1014 
1 1015 
1 1016 
1 1017 
1 1018 
1 1019 
1 1020 
1 1021 
1 1022 
1 1023 
1 1024 
1 1025 
1 1026 
1 1027 
1 1028 
1 1029 
1 1030 
1 1031 
1 1032 
1 1033 
1 1034 
1 1035 
1 1036 
1 1037 
1 1038 
1 1039 
1 1040 
1 1041 
1 1042 
1 1043 
1 1044 
1 1045 
1 1046 
1 1047 
1 1048 

POINT_DATA 1049
SCALARS id double
LOOKUP_TABLE default
978 1032 1020 964 933 1040 995 1004 1045 
980 977 993 983 1048 1027 1037 976 945 
1028 951 962 987 1009 1026 954 984 998 
1008 1042 966 969 939 990 1005 1047 1036 
1041 941 972 955 999 975 1024 986 932 
979 988 960 929 997 1012 935 967 944 
992 965 1007 973 947 953 1038 985 942 
1014 936 989 1022 957 950 930 1029 949 
931 994 1011 1044 946 943 956 1030 1001 
1015 1021 1034 1003 1031 1006 952 1033 971 
1019 1018 958 1000 1035 937 934 959 1025 
1002 1039 961 938 940 948 1013 963 1017 
1043 968 1016 1046 981 1010 1023 974 991 
982 970 996 391 41 43 389 42 40 
390 0 388 39 47 48 49 46 44 
45 1 50 51 52 2 53 57 54 
56 58 55 59 60 61 62 64 63 
68 3 67 395 65 394 393 392 66 
70 71 72 73 69 75 78 77 76 
74 82 83 79 80 81 85 86 87 
84 88 90 93 89 91 92 96 4 
493 494 492 95 97 495 94 99 100 
101 98 102 106 105 104 107 103 108 
110 109 111 112 117 115 114 116 113 
118 119 122 120 121 126 557 125 5 
559 560 558 123 124 131 130 129 128 
127 132 133 135 136 134 137 140 141 
139 138 142 144 146 143 145 149 148 
151 150 147 155 156 152 587 153 154 
590 6 589 588 157 159 158 161 160 
162 7 163 164 166 8 165 171 169 
170 168 172 167 175 173 177 174 176 
9 178 179 181 180 383 384 386 385 
387 398 400 396 399 397 490 488 489 
491 487 555 552 554 556 553 593 592 
594 591 595 185 184 186 183 182 380 
382 378 381 379 404 402 403 405 401 
485 483 482 486 484 548 549 547 551 
550 600 596 599 598 597 188 189 191 
187 190 373 374 377 376 375 408 407 
409 410 406 481 478 480 477 479 545 
544 543 546 542 601 604 603 605 602 
196 194 193 195 192 370 368 372 369 
371 414 411 415 413 412 473 475 476 
474 472 541 538 537 539 540 606 610 
609 608 607 201 197 198 199 200 365 
367 366 363 364 416 417 420 419 418 
467 470 471 468 469 533 536 534 535 
532 614 612 613 615 611 204 202 206 
205 203 362 360 361 359 358 425 424 
423 422 421 463 462 466 465 464 529 
527 528 531 530 618 620 619 616 617 
207 208 211 209 210 357 355 356 353 
354 426 427 428 429 430 458 457 461 
459 460 525 524 523 522 526 621 624 
623 625 622 212 214 216 213 215 349 
352 348 351 350 434 433 431 432 435 
10 437 440 439 441 436 438 442 11 
443 445 12 444 446 448 450 447 449 
451 452 453 454 456 455 13 497 496 
499 498 500 502 505 503 506 504 501 
14 508 507 510 509 15 514 512 515 
513 511 516 517 518 520 521 519 562 
563 564 561 565 16 568 569 570 566 
567 571 17 573 572 18 575 574 576 
580 577 579 581 578 582 583 584 586 
585 19 34 219 221 220 218 217 344 
345 347 343 346 223 225 226 222 224 
663 339 341 661 342 20 664 340 660 
662 21 668 22 666 667 665 673 671 
669 672 670 677 674 676 675 678 682 
683 681 680 679 684 714 686 687 715 
685 23 717 716 713 719 722 718 720 
723 721 725 36 724 727 726 37 733 
728 730 731 729 732 734 735 737 738 
736 741 742 739 24 634 632 631 633 
740 744 747 745 743 746 749 748 751 
750 752 754 753 756 755 757 758 760 
761 759 762 765 764 766 767 763 770 
771 772 768 769 774 773 776 777 775 
780 782 781 778 779 786 784 785 787 
783 790 789 792 788 791 794 796 795 
793 797 818 801 820 798 817 35 800 
799 819 802 803 804 805 806 809 808 
807 811 810 812 816 813 814 815 25 
627 629 626 628 26 630 227 228 230 
229 27 336 334 337 335 338 690 691 
688 689 692 635 639 637 638 636 825 
823 822 821 824 233 232 235 231 234 
333 330 331 329 332 693 694 695 697 
696 644 643 641 640 642 829 826 827 
828 830 239 236 238 237 240 328 325 
326 327 324 700 699 701 698 702 646 
647 645 649 648 833 834 832 831 835 
241 243 245 242 244 323 322 320 319 
321 705 704 703 707 706 653 654 651 
650 652 29 249 246 250 248 247 318 
316 314 317 315 710 709 708 712 711 
656 659 657 655 658 924 925 28 927 
926 928 255 251 254 253 252 310 313 
30 311 312 305 308 309 307 306 301 
304 302 300 303 297 298 296 295 299 
294 290 292 291 293 289 285 287 286 
288 281 282 31 284 283 280 277 276 
278 279 271 272 273 275 274 269 268 
266 270 267 265 263 261 262 264 260 
257 259 258 256 837 839 32 836 838 
843 842 841 844 840 845 849 846 848 
847 852 850 853 854 851 857 858 856 
859 855 864 860 861 863 862 867 865 
869 866 868 870 871 872 873 874 879 
875 877 876 878 882 884 883 881 880 
887 885 888 889 886 893 894 890 892 
891 38 895 898 896 897 899 900 901 
902 903 906 908 904 907 905 911 913 
912 910 909 915 914 916 917 918 923 
919 920 921 922 33 
FIELD FieldData 14
r 3 1049 double
-1.21495 -12.1 0 -0.567407 -12.1189 0 0.814508 -12.1938 0 
0.242228 -12.3385 0 -1.59678 -11.0266 0 -1.41051 -11.5509 0 
-1.98445 -11.455 0 -1.02605 -11.0976 0 -0.863096 -11.5982 0 
-0.0607361 -11.8953 0 -0.136755 -11.1064 0 -0.381997 -11.5569 0 
-0.539704 -11.1628 0 0.429971 -11.8102 0 0.0825586 -11.4224 0 
0.97341 -11.0709 0 0.879639 -11.6016 0 0.478996 -11.2496 0 
1.38458 -11.4057 0 1.30694 -11.9389 0 1.81265 -11.7417 0 
1.88241 -11.2282 0 2.36349 -11.0305 0 -2.34084 -10.4079 0 
-2.1384 -10.8997 0 -1.9929 -10.0301 0 -1.75923 -10.4839 0 
-1.27111 -10.6889 0 -1.25132 -10.2849 0 -0.140245 -10.6782 0 
-0.0137588 -10.0204 0 -0.42125 -10.0906 0 -0.474265 -10.3633 0 
-0.543876 -10.7948 0 -0.734349 -10.2362 0 -0.0753798 -10.3328 0 
-0.884092 -10.6239 0 0.756714 -10.5329 0 0.629852 -10.8546 0 
0.189008 -10.8104 0 0.745434 -10.1313 0 0.31264 -10.4942 0 
0.191515 -10.2232 0 1.51624 -10.4483 0 1.95182 -10.7114 0 
1.9632 -10.1655 0 1.07485 -10.2874 0 1.47906 -10.939 0 
1.08019 -10.6932 0 2.46108 -10.4662 0 -2.43443 -9.86263 0 
-2.31528 -9.35473 0 -1.86008 -9.09229 0 -1.38398 -9.30452 0 
-1.8427 -9.57996 0 -1.54682 -9.9515 0 -1.22056 -9.68779 0 
-0.096688 -9.06165 0 -0.0143714 -9.59921 0 -0.982881 -9.04112 0 
-0.886844 -9.40248 0 -0.692578 -9.72537 0 -0.219139 -9.3145 0 
-0.480723 -9.2107 0 -0.906208 -9.98783 0 -0.366041 -9.80489 0 
0.321731 -9.58857 0 0.642705 -9.47548 0 0.89764 -9.77212 0 
0.485144 -9.94367 0 0.149801 -9.22914 0 0.465577 -9.1674 0 
0.969665 -9.20242 0 1.16711 -9.98412 0 1.72687 -9.64061 0 
1.52339 -9.9718 0 1.47168 -9.26906 0 1.2466 -9.57948 0 
1.9804 -9.2278 0 2.603 -9.94823 0 2.55815 -9.36541 0 
2.17089 -9.7246 0 -2.26119 -8.84424 0 -2.57567 -8.46408 0 
-1.7732 -8.6111 0 -1.33282 -8.80798 0 -1.83546 -8.04806 0 
-1.35433 -8.26743 0 -0.572628 -8.86624 0 -0.931815 -8.53479 0 
-0.195148 -8.71671 0 -0.483208 -8.35991 0 -0.0377265 -8.2691 0 
-0.881034 -8.02642 0 0.962241 -8.01196 0 0.445831 -8.213 0 
0.85177 -8.50015 0 0.66333 -8.84961 0 0.271931 -8.62033 0 
1.57763 -8.90605 0 1.98589 -8.67745 0 1.38135 -8.40723 0 
1.8343 -8.10551 0 1.13154 -8.83728 0 2.33991 -8.22992 0 
2.6055 -8.74185 0 -2.39257 -7.93729 0 -1.34896 -7.72559 0 
-0.382623 -7.86896 0 -0.746253 -7.4882 0 0.103469 -7.78781 0 
0.586749 -7.61076 0 1.42763 -7.75711 0 2.60448 -7.54564 0 
3.36879 -7.76602 0 5.03365 -5.88042 0 5.71777 -5.46144 0 
6.43866 -4.76826 0 7.31643 -4.05768 0 8.04362 -3.47373 0 
-15 0.2 0 -14.4643 0 0 -14.1071 0 0 
-15 0.6 0 -14.2857 0 0 -14.6429 0 0 
-15 0.4 0 -15 0 0 -15 0.8 0 
-14.8214 0 0 -13.3929 0 0 -13.2143 0 0 
-13.0357 0 0 -13.5714 0 0 -13.9286 0 0 
-13.75 0 0 -12.5 0 0 -12.8571 0 0 
-12.6786 0 0 -11.3214 0 0 -11.5 0 0 
-11.1429 0 0 -10.4286 0 0 -10.9643 0 0 
-10.6071 0 0 -10.25 0 0 -10.7857 0 0 
-10.0714 0 0 -9.8929 0 0 -9.7143 0 0 
-9.5357 0 0 -9.1786 0 0 -9.3571 0 0 
-8.2 0 0 -9 0 0 -8.4 0 0 
-9 0.8 0 -8.8 0 0 -9 0.6 0 
-9 0.4 0 -9 0.2 0 -8.6 0 0 
-7.8 0 0 -7.6 0 0 -7.4 0 0 
-7.2 0 0 -8 0 0 -6.8 0 0 
-6.2 0 0 -6.4 0 0 -6.6 0 0 
-7 0 0 -5.4 0 0 -5.2 0 0 
-6 0 0 -5.8 0 0 -5.6 0 0 
-4.8 0 0 -4.6 0 0 -4.4 0 0 
-5 0 0 -4.2 0 0 -3.8 0 0 
-3.2 0 0 -4 0 0 -3.6 0 0 
-3.4 0 0 -2.4 0 0 -3 0 0 
-3 0.6 0 -3 0.4 0 -3 0.8 0 
-2.6 0 0 -2.2 0 0 -3 0.2 0 
-2.8 0 0 -1.8 0 0 -1.6 0 0 
-1.4 0 0 -2 0 0 -1.2 0 0 
-0.4 0 0 -0.6 0 0 -0.8 0 0 
-0.2 0 0 -1 0 0 -0 0 0 
0.4 0 0 0.2 0 0 0.6 0 0 
0.8 0 0 1.8 0 0 1.4 0 0 
1.2 0 0 1.6 0 0 1 0 0 
2 0 0 2.2 0 0 2.8 0 0 
2.4 0 0 2.6 0 0 3.8 0 0 
3 0.8 0 3.6 0 0 3 0 0 
3 0.4 0 3 0.2 0 3 0.6 0 
3.2 0 0 3.4 0 0 4.8 0 0 
4.6 0 0 4.4 0 0 4.2 0 0 
4 0 0 5 0 0 5.2 0 0 
5.6 0 0 5.8 0 0 5.4 0 0 
6 0 0 6.6 0 0 6.8 0 0 
6.4 0 0 6.2 0 0 7 0 0 
7.4 0 0 7.8 0 0 7.2 0 0 
7.6 0 0 8.4 0 0 8.2 0 0 
8.8 0 0 8.6 0 0 8 0 0 
9.7143 0 0 9.8929 0 0 9.1786 0 0 
9 0.2 0 9.3571 0 0 9.5357 0 0 
9 0.8 0 9 0 0 9 0.6 0 
9 0.4 0 10.0714 0 0 10.4286 0 0 
10.25 0 0 10.7857 0 0 10.6071 0 0 
10.9643 0 0 11.5 0 0 11.1429 0 0 
11.3214 0 0 12.8571 0 0 12.5 0 0 
12.6786 0 0 13.75 0 0 13.3929 0 0 
13.5714 0 0 13.2143 0 0 13.9286 0 0 
13.0357 0 0 14.4643 0 0 14.1071 0 0 
14.8214 0 0 14.2857 0 0 14.6429 0 0 
15 0 0 15 0.2 0 15 0.4 0 
15 0.8 0 15 0.6 0 -15 1.8 0 
-15 1.6 0 -15 1.2 0 -15 1.4 0 
-15 1 0 -9 1.4 0 -9 1.8 0 
-9 1 0 -9 1.6 0 -9 1.2 0 
-3 1.2 0 -3 1.6 0 -3 1.4 0 
-3 1 0 -3 1.8 0 3 1.2 0 
3 1.8 0 3 1.4 0 3 1 0 
3 1.6 0 9 1.4 0 9 1.2 0 
9 1.6 0 9 1 0 9 1.8 0 
15 1.6 0 15 1.4 0 15 1.8 0 
15 1.2 0 15 1 0 -15 2.4 0 
-15 2 0 -15 2.8 0 -15 2.2 0 
-15 2.6 0 -9 2.6 0 -9 2.2 0 
-9 2.4 0 -9 2.8 0 -9 2 0 
-3 2.2 0 -3 2.6 0 -3 2.8 0 
-3 2 0 -3 2.4 0 3 2.6 0 
3 2.4 0 3 2.8 0 3 2 0 
3 2.2 0 9 2.8 0 9 2 0 
9 2.6 0 9 2.4 0 9 2.2 0 
15 2.2 0 15 2.4 0 15 2.8 0 
15 2 0 15 2.6 0 -15 3.8 0 
-15 3.6 0 -15 3 0 -15 3.2 0 
-15 3.4 0 -9 3.4 0 -9 3.2 0 
-9 3.6 0 -9 3.8 0 -9 3 0 
-3 3 0 -3 3.6 0 -3 3.2 0 
-3 3.8 0 -3 3.4 0 3 3.2 0 
3 3.4 0 3 3.6 0 3 3 0 
3 3.8 0 9 3 0 9 3.6 0 
9 3.4 0 9 3.8 0 9 3.2 0 
15 3.8 0 15 3.4 0 15 3.2 0 
15 3.6 0 15 3 0 -15 4.4 0 
-15 4.8 0 -15 4 0 -15 4.6 0 
-15 4.2 0 -9 4.6 0 -9 4 0 
-9 4.8 0 -9 4.4 0 -9 4.2 0 
-3 4.6 0 -3 4.2 0 -3 4 0 
-3 4.4 0 -3 4.8 0 3 4 0 
3 4.6 0 3 4.8 0 3 4.4 0 
3 4.2 0 9 4 0 9 4.8 0 
9 4.6 0 9 4.4 0 9 4.2 0 
15 4.8 0 15 4 0 15 4.2 0 
15 4.4 0 15 4.6 0 -15 5.4 0 
-15 5 0 -15 5.2 0 -15 5.8 0 
-15 5.6 0 -9 5 0 -9 5.2 0 
-9 5.8 0 -9 5.6 0 -9 5.4 0 
-3 5.8 0 -3 5.2 0 -3 5 0 
-3 5.6 0 -3 5.4 0 3 5.6 0 
3 5 0 3 5.4 0 3 5.2 0 
3 5.8 0 9 5.6 0 9 5.2 0 
9 5.4 0 9 5.8 0 9 5 0 
15 5.4 0 15 5 0 15 5.8 0 
15 5.6 0 15 5.2 0 -15 6 0 
-15 6.4 0 -15 6.2 0 -15 6.6 0 
-15 6.8 0 -9 6.8 0 -9 6.6 0 
-9 6.4 0 -9 6.2 0 -9 6 0 
-3 6.6 0 -3 6.8 0 -3 6 0 
-3 6.2 0 -3 6.4 0 3 6.4 0 
3 6.8 0 3 6.6 0 3 6 0 
3 6.2 0 9 6.4 0 9 6.8 0 
9 6.6 0 9 6 0 9 6.2 0 
15 6 0 15 6.2 0 15 6.8 0 
15 6.4 0 15 6.6 0 -15 7 0 
-15 7.4 0 -15 7.2 0 -15 7.8 0 
-15 7.6 0 -9 7 0 -9 7.2 0 
-9 7.4 0 -9 7.6 0 -9 7.8 0 
-3 7.6 0 -3 7.8 0 -3 7 0 
-3 7.4 0 -3 7.2 0 3 7.2 0 
3 7.4 0 3 7.6 0 3 7.8 0 
3 7 0 9 7 0 9 7.6 0 
9 7.4 0 9 7.8 0 9 7.2 0 
15 7 0 15 7.4 0 15 7.8 0 
15 7.2 0 15 7.6 0 -15 8.6 0 
-15 8 0 -15 8.8 0 -15 8.2 0 
-15 8.4 0 -8.2857 8 0 -8.4643 8 0 
-8.8214 8 0 -8.6429 8 0 -8.1071 8 0 
-9 8 0 -7.75 8 0 -7.2143 8 0 
-7.3929 8 0 -7.0357 8 0 -7.9286 8 0 
-7.5714 8 0 -6.8571 8 0 -6.5 8 0 
-6.6786 8 0 -5.1429 8 0 -5.5 8 0 
-5.3214 8 0 -4.9643 8 0 -4.6071 8 0 
-4.25 8 0 -4.7857 8 0 -4.4286 8 0 
-4.0714 8 0 -3.8929 8 0 -3.7143 8 0 
-3.5357 8 0 -3.1786 8 0 -3.3571 8 0 
-3 8 0 -2.6429 8 0 -2.8214 8 0 
-2.2857 8 0 -2.4643 8 0 -2.1071 8 0 
-1.75 8 0 -1.2143 8 0 -1.5714 8 0 
-1.0357 8 0 -1.3929 8 0 -1.9286 8 0 
-0.5 8 0 -0.6786 8 0 -0.8571 8 0 
0.8571 8 0 0.6786 8 0 0.5 8 0 
1.5714 8 0 1.2143 8 0 1.75 8 0 
1.3929 8 0 1.0357 8 0 1.9286 8 0 
2.1071 8 0 2.2857 8 0 2.6429 8 0 
2.8214 8 0 2.4643 8 0 3.3571 8 0 
3.5357 8 0 3.7143 8 0 3.1786 8 0 
3.8929 8 0 3 8 0 4.4286 8 0 
4.6071 8 0 4.7857 8 0 4.0714 8 0 
4.25 8 0 4.9643 8 0 5.5 8 0 
5.3214 8 0 5.1429 8 0 6.5 8 0 
6.8571 8 0 6.6786 8 0 7.0357 8 0 
7.75 8 0 7.2143 8 0 7.5714 8 0 
7.9286 8 0 7.3929 8 0 8.1071 8 0 
8.2857 8 0 8.4643 8 0 8.8214 8 0 
8.6429 8 0 9 8 0 9 8 0 
15 8.4 0 15 8.8 0 15 8.6 0 
15 8.2 0 15 8 0 -15 9.6 0 
-15 9.4 0 -15 9 0 -15 9.8 0 
-15 9.2 0 15 9.2 0 15 9.6 0 
15 9.8 0 15 9 0 15 9.4 0 
-14.3333 10 0 -15 10.8 0 -15 10.4 0 
-14.6667 10 0 -15 10.2 0 -15 10 0 
-14.1667 10 0 -15 10.6 0 -14.8333 10 0 
-14.5 10 0 -14 10 0 -12.2 10 0 
-13 10 0 -12.6 10 0 -12.4 10 0 
-12.8 10 0 -11.2 10 0 -11.6 10 0 
-12 10 0 -11.4 10 0 -11.8 10 0 
-10.4 10 0 -11 10 0 -10.6 10 0 
-10.8 10 0 -10.2 10 0 -9.4 10 0 
-9.2 10 0 -9.6 10 0 -9.8 10 0 
-10 10 0 -9 10.2 0 -8.6429 10 0 
-9 10.6 0 -9 10.8 0 -8.4643 10 0 
-9 10.4 0 -9 10 0 -8.1071 10 0 
-8.2857 10 0 -8.8214 10 0 -7.75 10 0 
-7.2143 10 0 -7.9286 10 0 -7.5714 10 0 
-7.0357 10 0 -7.3929 10 0 -6.6786 10 0 
-6.5 10 0 -6.8571 10 0 -5.1429 10 0 
-5.3214 10 0 -5.5 10 0 -4.0714 10 0 
-4.9643 10 0 -4.6071 10 0 -4.4286 10 0 
-4.7857 10 0 -4.25 10 0 -3.8929 10 0 
-3.7143 10 0 -3.3571 10 0 -3.1786 10 0 
-3.5357 10 0 -2.4 10 0 -2.2 10 0 
-2.8 10 0 -3 10 0 -3 10.8 0 
-3 10.4 0 -3 10.2 0 -3 10.6 0 
-2.6 10 0 -1.8 10 0 -1.2 10 0 
-1.6 10 0 -2 10 0 -1.4 10 0 
-0.8 10 0 -1 10 0 -0.4 10 0 
-0.6 10 0 -0.2 10 0 0.2 10 0 
-0 10 0 0.6 10 0 0.4 10 0 
0.8 10 0 1 10 0 1.4 10 0 
1.6 10 0 1.2 10 0 1.8 10 0 
2.4 10 0 2.2 10 0 2.6 10 0 
2.8 10 0 2 10 0 3.4 10 0 
3.6 10 0 3.8 10 0 3 10 0 
3.2 10 0 4.2 10 0 4 10 0 
4.6 10 0 4.8 10 0 4.4 10 0 
5.4 10 0 5.8 10 0 5.6 10 0 
5 10 0 5.2 10 0 6.6 10 0 
6.2 10 0 6.4 10 0 6.8 10 0 
6 10 0 7.4 10 0 7.2 10 0 
7.8 10 0 7 10 0 7.6 10 0 
8.2 10 0 8.6 10 0 8.4 10 0 
8 10 0 8.8 10 0 9 10.4 0 
9.8 10 0 9 10.8 0 9.2 10 0 
9 10.2 0 9 10 0 9.6 10 0 
9.4 10 0 9 10.6 0 10 10 0 
10.2 10 0 10.4 10 0 10.6 10 0 
10.8 10 0 11.4 10 0 11.2 10 0 
11 10 0 11.8 10 0 11.6 10 0 
12 10 0 12.8 10 0 12.2 10 0 
12.4 10 0 12.6 10 0 13 10 0 
14.6667 10 0 14.3333 10 0 14.8333 10 0 
14.5 10 0 14 10 0 14.1667 10 0 
15 10.2 0 15 10.4 0 15 10.8 0 
15 10.6 0 15 10 0 -15 11.4 0 
-15 11.8 0 -15 11.2 0 -15 11.6 0 
-15 11 0 -9 11.4 0 -9 11.6 0 
-9 11 0 -9 11.2 0 -9 11.8 0 
-3 11 0 -3 11.8 0 -3 11.4 0 
-3 11.6 0 -3 11.2 0 9 11.8 0 
9 11.4 0 9 11.2 0 9 11 0 
9 11.6 0 15 11.4 0 15 11.2 0 
15 11.8 0 15 11 0 15 11.6 0 
-15 12 0 -15 12.6 0 -15 12.4 0 
-15 12.8 0 -15 12.2 0 -9 12 0 
-9 12.2 0 -9 12.4 0 -9 12.8 0 
-9 12.6 0 -3 12.8 0 -3 12.6 0 
-3 12.2 0 -3 12 0 -3 12.4 0 
9 12.6 0 9 12 0 9 12.2 0 
9 12.4 0 9 12.8 0 15 12.6 0 
15 12 0 15 12.4 0 15 12.2 0 
15 12.8 0 -15 13 0 -15 13.6 0 
-15 13.4 0 -15 13.2 0 -15 13.8 0 
-9 13.4 0 -9 13.2 0 -9 13.6 0 
-9 13 0 -9 13.8 0 -3 13.2 0 
-3 13.4 0 -3 13 0 -3 13.8 0 
-3 13.6 0 9 13.4 0 9 13.6 0 
9 13.2 0 9 13 0 9 13.8 0 
15 13 0 15 13.4 0 15 13.8 0 
15 13.2 0 15 13.6 0 -15 14 0 
-15 14.2 0 -15 14.6 0 -15 14.8 0 
-15 14.4 0 -9 14.4 0 -9 14.2 0 
-9 14 0 -9 14.8 0 -9 14.6 0 
-3 14.6 0 -3 14.8 0 -3 14.2 0 
-3 14 0 -3 14.4 0 9 14 0 
15 14.6 0 15 14 0 15 14.8 0 
15 14.4 0 15 14.2 0 -15 15 0 
-15 15.4 0 -15 15.8 0 -15 15.2 0 
-15 15.6 0 -9 15.4 0 -9 15.2 0 
-9 15 0 -9 15.8 0 -9 15.6 0 
-3 15.2 0 -3 15.8 0 -3 15.4 0 
-3 15 0 -3 15.6 0 9 15.1667 0 
9 15.3333 0 9 15 0 9 15.6667 0 
9 15.5 0 9 15.8333 0 15 15.8 0 
15 15 0 15 15.6 0 15 15.4 0 
15 15.2 0 -14.2 16 0 -14.8 16 0 
-15 16 0 -14.4 16 0 -14.6 16 0 
-13.2 16 0 -13.8 16 0 -14 16 0 
-13.6 16 0 -13.4 16 0 -12.4 16 0 
-13 16 0 -12.6 16 0 -12.2 16 0 
-12.8 16 0 -11.6 16 0 -11.8 16 0 
-11.4 16 0 -11.2 16 0 -12 16 0 
-11 16 0 -10.2 16 0 -10.6 16 0 
-10.4 16 0 -10.8 16 0 -10 16 0 
-9.2 16 0 -9.6 16 0 -9.4 16 0 
-9.8 16 0 -8.2 16 0 -8.4 16 0 
-9 16 0 -8.8 16 0 -8.6 16 0 
-8 16 0 -7.4 16 0 -7.2 16 0 
-7.6 16 0 -7.8 16 0 -6.2 16 0 
-6.4 16 0 -6.6 16 0 -7 16 0 
-6.8 16 0 -5.8 16 0 -5.6 16 0 
-5.2 16 0 -6 16 0 -5.4 16 0 
-5 16 0 -4.6 16 0 -4.2 16 0 
-4.4 16 0 -4.8 16 0 -4 16 0 
-3.4 16 0 -3.8 16 0 -3.6 16 0 
-3.2 16 0 -2.6 16 0 -2.2 16 0 
-3 16 0 -2.8 16 0 -2.4 16 0 
-1.4 16 0 -1.6 16 0 -1.8 16 0 
-1.2 16 0 -2 16 0 -1 16 0 
-0.2 16 0 -0.8 16 0 -0.4 16 0 
-0.6 16 0 0.4 16 0 -0 16 0 
0.6 16 0 0.8 16 0 0.2 16 0 
1.4 16 0 1.6 16 0 1.2 16 0 
1.8 16 0 1 16 0 2.8 16 0 
2 16 0 2.2 16 0 2.6 16 0 
2.4 16 0 3.4 16 0 3 16 0 
3.8 16 0 3.2 16 0 3.6 16 0 
4 16 0 4.2 16 0 4.4 16 0 
4.6 16 0 4.8 16 0 5.8 16 0 
5 16 0 5.4 16 0 5.2 16 0 
5.6 16 0 6.4 16 0 6.8 16 0 
6.6 16 0 6.2 16 0 6 16 0 
7.4 16 0 7 16 0 7.6 16 0 
7.8 16 0 7.2 16 0 8.6 16 0 
8.8 16 0 8 16 0 8.4 16 0 
8.2 16 0 9 16 0 9.2 16 0 
9.8 16 0 9.4 16 0 9.6 16 0 
10 16 0 10.2 16 0 10.4 16 0 
10.6 16 0 10.8 16 0 11.4 16 0 
11.8 16 0 11 16 0 11.6 16 0 
11.2 16 0 12.4 16 0 12.8 16 0 
12.6 16 0 12.2 16 0 12 16 0 
13.2 16 0 13 16 0 13.4 16 0 
13.6 16 0 13.8 16 0 14.8 16 0 
14 16 0 14.2 16 0 14.4 16 0 
14.6 16 0 15 16 0 
gid 1 1049 double
1 1 1 1 1 1 1 1 1 
1 1 1 1 1 1 1 1 1 
1 1 1 1 1 1 1 1 1 
1 1 1 1 1 1 1 1 1 
1 1 1 1 1 1 1 1 1 
1 1 1 1 1 1 1 1 1 
1 1 1 1 1 1 1 1 1 
1 1 1 1 1 1 1 1 1 
1 1 1 1 1 1 1 1 1 
1 1 1 1 1 1 1 1 1 
1 1 1 1 1 1 1 1 1 
1 1 1 1 1 1 1 1 1 
1 1 1 1 1 1 1 1 1 
1 1 1 2 2 2 2 2 2 
2 2 2 2 2 2 2 2 2 
2 2 2 2 2 2 2 2 2 
2 2 2 2 2 2 2 2 2 
2 2 2 2 2 2 2 2 2 
2 2 2 2 2 2 2 2 2 
2 2 2 2 2 2 2 2 2 
2 2 2 2 2 2 2 2 2 
2 2 2 2 2 2 2 2 2 
2 2 2 2 2 2 2 2 2 
2 2 2 2 2 2 2 2 2 
2 2 2 2 2 2 2 2 2 
2 2 2 2 2 2 2 2 2 
2 2 2 2 2 2 2 2 2 
2 2 2 2 2 2 2 2 2 
2 2 2 2 2 2 2 2 2 
2 2 2 2 2 2 2 2 2 
2 2 2 2 2 2 2 2 2 
2 2 2 2 2 2 2 2 2 
2 2 2 2 2 2 2 2 2 
2 2 2 2 2 2 2 2 2 
2 2 2 2 2 2 2 2 2 
2 2 2 2 2 2 2 2 2 
2 2 2 2 2 2 2 2 2 
2 2 2 2 2 2 2 2 2 
2 2 2 2 2 2 2 2 2 
2 2 2 2 2 2 2 2 2 
2 2 2 2 2 2 2 2 2 
2 2 2 2 2 2 2 2 2 
2 2 2 2 2 2 2 2 2 
2 2 2 2 2 2 2 2 2 
2 2 2 2 2 2 2 2 2 
2 2 2 2 2 2 2 2 2 
2 2 2 2 2 2 2 2 2 
2 2 2 2 2 2 2 2 2 
2 2 2 2 2 2 2 2 2 
2 2 2 2 2 2 2 2 2 
2 2 2 2 2 2 2 2 2 
2 2 2 2 2 2 2 2 2 
2 2 2 2 2 2 2 2 2 
2 2 2 2 2 2 2 2 2 
2 2 2 2 2 2 2 2 2 
2 2 2 2 2 2 2 2 2 
2 2 2 2 2 2 2 2 2 
2 2 2 2 2 2 2 2 2 
2 2 2 2 2 2 2 2 2 
2 2 2 2 2 2 2 2 2 
2 2 2 2 2 2 2 2 2 
2 2 2 2 2 2 2 2 2 
2 2 2 2 2 2 2 2 2 
2 2 2 2 2 2 2 2 2 
2 2 2 2 2 2 2 2 2 
2 2 2 2 2 2 2 2 2 
2 2 2 2 2 2 2 2 2 
2 2 2 2 2 2 2 2 2 
2 2 2 2 2 2 2 2 2 
2 2 2 2 2 2 2 2 2 
2 2 2 2 2 2 2 2 2 
2 2 2 2 2 2 2 2 2 
2 2 2 2 2 2 2 2 2 
2 2 2 2 2 2 2 2 2 
2 2 2 2 2 2 2 2 2 
2 2 2 2 2 2 2 2 2 
2 2 2 2 2 2 2 2 2 
2 2 2 2 2 2 2 2 2 
2 2 2 2 2 2 2 2 2 
2 2 2 2 2 2 2 2 2 
2 2 2 2 2 2 2 2 2 
2 2 2 2 2 2 2 2 2 
2 2 2 2 2 2 2 2 2 
2 2 2 2 2 2 2 2 2 
2 2 2 2 2 2 2 2 2 
2 2 2 2 2 2 2 2 2 
2 2 2 2 2 2 2 2 2 
2 2 2 2 2 2 2 2 2 
2 2 2 2 2 2 2 2 2 
2 2 2 2 2 2 2 2 2 
2 2 2 2 2 2 2 2 2 
2 2 2 2 2 2 2 2 2 
2 2 2 2 2 2 2 2 2 
2 2 2 2 2 2 2 2 2 
2 2 2 2 2 2 2 2 2 
2 2 2 2 2 2 2 2 2 
2 2 2 2 2 2 2 2 2 
2 2 2 2 2 2 2 2 2 
2 2 2 2 2 2 2 2 2 
2 2 2 2 2 2 2 2 2 
2 2 2 2 2 2 2 2 2 
2 2 2 2 2 2 2 2 2 
2 2 2 2 2 2 2 2 2 
2 2 2 2 2 2 2 2 2 
2 2 2 2 2 2 2 2 2 
2 2 2 2 2 2 2 2 2 
2 2 2 2 2 2 2 2 2 
2 2 2 2 2 2 2 2 2 
2 2 2 2 2 2 2 2 2 
2 2 2 2 2 2 2 2 2 
2 2 2 2 2 2 2 2 2 
2 2 2 2 2 2 2 2 2 
2 2 2 2 2 2 2 2 2 
2 2 2 2 2 2 2 2 2 
2 2 2 2 2 2 2 2 2 
2 2 2 2 2 2 2 2 2 
2 2 2 2 2 
A 1 1049 double
10 10 10 10 10 10 10 10 10 
10 10 10 10 10 10 10 10 10 
10 10 10 10 10 10 10 10 10 
10 10 10 10 10 10 10 10 10 
10 10 10 10 10 10 10 10 10 
10 10 10 10 10 10 10 10 10 
10 10 10 10 10 10 10 10 10 
10 10 10 10 10 10 10 10 10 
10 10 10 10 10 10 10 10 10 
10 10 10 10 10 10 10 10 10 
10 10 10 10 10 10 10 10 10 
10 10 10 10 10 10 10 10 10 
10 10 10 10 10 10 10 10 10 
10 10 10 10 10 10 10 10 10 
10 10 10 10 10 10 10 10 10 
10 10 10 10 10 10 10 10 10 
10 10 10 10 10 10 10 10 10 
10 10 10 10 10 10 10 10 10 
10 10 10 10 10 10 10 10 10 
10 10 10 10 10 10 10 10 10 
10 10 10 10 10 10 10 10 10 
10 10 10 10 10 10 10 10 10 
10 10 10 10 10 10 10 10 10 
10 10 10 10 10 10 10 10 10 
10 10 10 10 10 10 10 10 10 
10 10 10 10 10 10 10 10 10 
10 10 10 10 10 10 10 10 10 
10 10 10 10 10 10 10 10 10 
10 10 10 10 10 10 10 10 10 
10 10 10 10 10 10 10 10 10 
10 10 10 10 10 10 10 10 10 
10 10 10 10 10 10 10 10 10 
10 10 10 10 10 10 10 10 10 
10 10 10 10 10 10 10 10 10 
10 10 10 10 10 10 10 10 10 
10 10 10 10 10 10 10 10 10 
10 10 10 10 10 10 10 10 10 
10 10 10 10 10 10 10 10 10 
10 10 10 10 10 10 10 10 10 
10 10 10 10 10 10 10 10 10 
10 10 10 10 10 10 10 10 10 
10 10 10 10 10 10 10 10 10 
10 10 10 10 10 10 10 10 10 
10 10 10 10 10 10 10 10 10 
10 10 10 10 10 10 10 10 10 
10 10 10 10 10 10 10 10 10 
10 10 10 10 10 10 10 10 10 
10 10 10 10 10 10 10 10 10 
10 10 10 10 10 10 10 10 10 
10 10 10 10 10 10 10 10 10 
10 10 10 10 10 10 10 10 10 
10 10 10 10 10 10 10 10 10 
10 10 10 10 10 10 10 10 10 
10 10 10 10 10 10 10 10 10 
10 10 10 10 10 10 10 10 10 
10 10 10 10 10 10 10 10 10 
10 10 10 10 10 10 10 10 10 
10 10 10 10 10 10 10 10 10 
10 10 10 10 10 10 10 10 10 
10 10 10 10 10 10 10 10 10 
10 10 10 10 10 10 10 10 10 
10 10 10 10 10 10 10 10 10 
10 10 10 10 10 10 10 10 10 
10 10 10 10 10 10 10 10 10 
10 10 10 10 10 10 10 10 10 
10 10 10 10 10 10 10 10 10 
10 10 10 10 10 10 10 10 10 
10 10 10 10 10 10 10 10 10 
10 10 10 10 10 10 10 10 10 
10 10 10 10 10 10 10 10 10 
10 10 10 10 10 10 10 10 10 
10 10 10 10 10 10 10 10 10 
10 10 10 10 10 10 10 10 10 
10 10 10 10 10 10 10 10 10 
10 10 10 10 10 10 10 10 10 
10 10 10 10 10 10 10 10 10 
10 10 10 10 10 10 10 10 10 
10 10 10 10 10 10 10 10 10 
10 10 10 10 10 10 10 10 10 
10 10 10 10 10 10 10 10 10 
10 10 10 10 10 10 10 10 10 
10 10 10 10 10 10 10 10 10 
10 10 10 10 10 10 10 10 10 
10 10 10 10 10 10 10 10 10 
10 10 10 10 10 10 10 10 10 
10 10 10 10 10 10 10 10 10 
10 10 10 10 10 10 10 10 10 
10 10 10 10 10 10 10 10 10 
10 10 10 10 10 10 10 10 10 
10 10 10 10 10 10 10 10 10 
10 10 10 10 10 10 10 10 10 
10 10 10 10 10 10 10 10 10 
10 10 10 10 10 10 10 10 10 
10 10 10 10 10 10 10 10 10 
10 10 10 10 10 10 10 10 10 
10 10 10 10 10 10 10 10 10 
10 10 10 10 10 10 10 10 10 
10 10 10 10 10 10 10 10 10 
10 10 10 10 10 10 10 10 10 
10 10 10 10 10 10 10 10 10 
10 10 10 10 10 10 10 10 10 
10 10 10 10 10 10 10 10 10 
10 10 10 10 10 10 10 10 10 
10 10 10 10 10 10 10 10 10 
10 10 10 10 10 10 10 10 10 
10 10 10 10 10 10 10 10 10 
10 10 10 10 10 10 10 10 10 
10 10 10 10 10 10 10 10 10 
10 10 10 10 10 10 10 10 10 
10 10 10 10 10 10 10 10 10 
10 10 10 10 10 10 10 10 10 
10 10 10 10 10 10 10 10 10 
10 10 10 10 10 10 10 10 10 
10 10 10 10 10 10 10 10 10 
10 10 10 10 10 10 10 10 10 
10 10 10 10 10 10 10 10 10 
10 10 10 10 10 
B 1 1049 double
0.2 0.2 0.2 0.2 0.2 0.2 0.2 0.2 0.2 
0.2 0.2 0.2 0.2 0.2 0.2 0.2 0.2 0.2 
0.2 0.2 0.2 0.2 0.2 0.2 0.2 0.2 0.2 
0.2 0.2 0.2 0.2 0.2 0.2 0.2 0.2 0.2 
0.2 0.2 0.2 0.2 0.2 0.2 0.2 0.2 0.2 
0.2 0.2 0.2 0.2 0.2 0.2 0.2 0.2 0.2 
0.2 0.2 0.2 0.2 0.2 0.2 0.2 0.2 0.2 
0.2 0.2 0.2 0.2 0.2 0.2 0.2 0.2 0.2 
0.2 0.2 0.2 0.2 0.2 0.2 0.2 0.2 0.2 
0.2 0.2 0.2 0.2 0.2 0.2 0.2 0.2 0.2 
0.2 0.2 0.2 0.2 0.2 0.2 0.2 0.2 0.2 
0.2 0.2 0.2 0.2 0.2 0.2 0.2 0.2 0.2 
0.2 0.2 0.2 0.2 0.2 0.2 0.2 0.2 0.2 
0.2 0.2 0.2 0.2 0.2 0.2 0.2 0.2 0.2 
0.2 0.2 0.2 0.2 0.2 0.2 0.2 0.2 0.2 
0.2 0.2 0.2 0.2 0.2 0.2 0.2 0.2 0.2 
0.2 0.2 0.2 0.2 0.2 0.2 0.2 0.2 0.2 
0.2 0.2 0.2 0.2 0.2 0.2 0.2 0.2 0.2 
0.2 0.2 0.2 0.2 0.2 0.2 0.2 0.2 0.2 
0.2 0.2 0.2 0.2 0.2 0.2 0.2 0.2 0.2 
0.2 0.2 0.2 0.2 0.2 0.2 0.2 0.2 0.2 
0.2 0.2 0.2 0.2 0.2 0.2 0.2 0.2 0.2 
0.2 0.2 0.2 0.2 0.2 0.2 0.2 0.2 0.2 
0.2 0.2 0.2 0.2 0.2 0.2 0.2 0.2 0.2 
0.2 0.2 0.2 0.2 0.2 0.2 0.2 0.2 0.2 
0.2 0.2 0.2 0.2 0.2 0.2 0.2 0.2 0.2 
0.2 0.2 0.2 0.2 0.2 0.2 0.2 0.2 0.2 
0.2 0.2 0.2 0.2 0.2 0.2 0.2 0.2 0.2 
0.2 0.2 0.2 0.2 0.2 0.2 0.2 0.2 0.2 
0.2 0.2 0.2 0.2 0.2 0.2 0.2 0.2 0.2 
0.2 0.2 0.2 0.2 0.2 0.2 0.2 0.2 0.2 
0.2 0.2 0.2 0.2 0.2 0.2 0.2 0.2 0.2 
0.2 0.2 0.2 0.2 0.2 0.2 0.2 0.2 0.2 
0.2 0.2 0.2 0.2 0.2 0.2 0.2 0.2 0.2 
0.2 0.2 0.2 0.2 0.2 0.2 0.2 0.2 0.2 
0.2 0.2 0.2 0.2 0.2 0.2 0.2 0.2 0.2 
0.2 0.2 0.2 0.2 0.2 0.2 0.2 0.2 0.2 
0.2 0.2 0.2 0.2 0.2 0.2 0.2 0.2 0.2 
0.2 0.2 0.2 0.2 0.2 0.2 0.2 0.2 0.2 
0.2 0.2 0.2 0.2 0.2 0.2 0.2 0.2 0.2 
0.2 0.2 0.2 0.2 0.2 0.2 0.2 0.2 0.2 
0.2 0.2 0.2 0.2 0.2 0.2 0.2 0.2 0.2 
0.2 0.2 0.2 0.2 0.2 0.2 0.2 0.2 0.2 
0.2 0.2 0.2 0.2 0.2 0.2 0.2 0.2 0.2 
0.2 0.2 0.2 0.2 0.2 0.2 0.2 0.2 0.2 
0.2 0.2 0.2 0.2 0.2 0.2 0.2 0.2 0.2 
0.2 0.2 0.2 0.2 0.2 0.2 0.2 0.2 0.2 
0.2 0.2 0.2 0.2 0.2 0.2 0.2 0.2 0.2 
0.2 0.2 0.2 0.2 0.2 0.2 0.2 0.2 0.2 
0.2 0.2 0.2 0.2 0.2 0.2 0.2 0.2 0.2 
0.2 0.2 0.2 0.2 0.2 0.2 0.2 0.2 0.2 
0.2 0.2 0.2 0.2 0.2 0.2 0.2 0.2 0.2 
0.2 0.2 0.2 0.2 0.2 0.2 0.2 0.2 0.2 
0.2 0.2 0.2 0.2 0.2 0.2 0.2 0.2 0.2 
0.2 0.2 0.2 0.2 0.2 0.2 0.2 0.2 0.2 
0.2 0.2 0.2 0.2 0.2 0.2 0.2 0.2 0.2 
0.2 0.2 0.2 0.2 0.2 0.2 0.2 0.2 0.2 
0.2 0.2 0.2 0.2 0.2 0.2 0.2 0.2 0.2 
0.2 0.2 0.2 0.2 0.2 0.2 0.2 0.2 0.2 
0.2 0.2 0.2 0.2 0.2 0.2 0.2 0.2 0.2 
0.2 0.2 0.2 0.2 0.2 0.2 0.2 0.2 0.2 
0.2 0.2 0.2 0.2 0.2 0.2 0.2 0.2 0.2 
0.2 0.2 0.2 0.2 0.2 0.2 0.2 0.2 0.2 
0.2 0.2 0.2 0.2 0.2 0.2 0.2 0.2 0.2 
0.2 0.2 0.2 0.2 0.2 0.2 0.2 0.2 0.2 
0.2 0.2 0.2 0.2 0.2 0.2 0.2 0.2 0.2 
0.2 0.2 0.2 0.2 0.2 0.2 0.2 0.2 0.2 
0.2 0.2 0.2 0.2 0.2 0.2 0.2 0.2 0.2 
0.2 0.2 0.2 0.2 0.2 0.2 0.2 0.2 0.2 
0.2 0.2 0.2 0.2 0.2 0.2 0.2 0.2 0.2 
0.2 0.2 0.2 0.2 0.2 0.2 0.2 0.2 0.2 
0.2 0.2 0.2 0.2 0.2 0.2 0.2 0.2 0.2 
0.2 0.2 0.2 0.2 0.2 0.2 0.2 0.2 0.2 
0.2 0.2 0.2 0.2 0.2 0.2 0.2 0.2 0.2 
0.2 0.2 0.2 0.2 0.2 0.2 0.2 0.2 0.2 
0.2 0.2 0.2 0.2 0.2 0.2 0.2 0.2 0.2 
0.2 0.2 0.2 0.2 0.2 0.2 0.2 0.2 0.2 
0.2 0.2 0.2 0.2 0.2 0.2 0.2 0.2 0.2 
0.2 0.2 0.2 0.2 0.2 0.2 0.2 0.2 0.2 
0.2 0.2 0.2 0.2 0.2 0.2 0.2 0.2 0.2 
0.2 0.2 0.2 0.2 0.2 0.2 0.2 0.2 0.2 
0.2 0.2 0.2 0.2 0.2 0.2 0.2 0.2 0.2 
0.2 0.2 0.2 0.2 0.2 0.2 0.2 0.2 0.2 
0.2 0.2 0.2 0.2 0.2 0.2 0.2 0.2 0.2 
0.2 0.2 0.2 0.2 0.2 0.2 0.2 0.2 0.2 
0.2 0.2 0.2 0.2 0.2 0.2 0.2 0.2 0.2 
0.2 0.2 0.2 0.2 0.2 0.2 0.2 0.2 0.2 
0.2 0.2 0.2 0.2 0.2 0.2 0.2 0.2 0.2 
0.2 0.2 0.2 0.2 0.2 0.2 0.2 0.2 0.2 
0.2 0.2 0.2 0.2 0.2 0.2 0.2 0.2 0.2 
0.2 0.2 0.2 0.2 0.2 0.2 0.2 0.2 0.2 
0.2 0.2 0.2 0.2 0.2 0.2 0.2 0.2 0.2 
0.2 0.2 0.2 0.2 0.2 0.2 0.2 0.2 0.2 
0.2 0.2 0.2 0.2 0.2 0.2 0.2 0.2 0.2 
0.2 0.2 0.2 0.2 0.2 0.2 0.2 0.2 0.2 
0.2 0.2 0.2 0.2 0.2 0.2 0.2 0.2 0.2 
0.2 0.2 0.2 0.2 0.2 0.2 0.2 0.2 0.2 
0.2 0.2 0.2 0.2 0.2 0.2 0.2 0.2 0.2 
0.2 0.2 0.2 0.2 0.2 0.2 0.2 0.2 0.2 
0.2 0.2 0.2 0.2 0.2 0.2 0.2 0.2 0.2 
0.2 0.2 0.2 0.2 0.2 0.2 0.2 0.2 0.2 
0.2 0.2 0.2 0.2 0.2 0.2 0.2 0.2 0.2 
0.2 0.2 0.2 0.2 0.2 0.2 0.2 0.2 0.2 
0.2 0.2 0.2 0.2 0.2 0.2 0.2 0.2 0.2 
0.2 0.2 0.2 0.2 0.2 0.2 0.2 0.2 0.2 
0.2 0.2 0.2 0.2 0.2 0.2 0.2 0.2 0.2 
0.2 0.2 0.2 0.2 0.2 0.2 0.2 0.2 0.2 
0.2 0.2 0.2 0.2 0.2 0.2 0.2 0.2 0.2 
0.2 0.2 0.2 0.2 0.2 0.2 0.2 0.2 0.2 
0.2 0.2 0.2 0.2 0.2 0.2 0.2 0.2 0.2 
0.2 0.2 0.2 0.2 0.2 0.2 0.2 0.2 0.2 
0.2 0.2 0.2 0.2 0.2 0.2 0.2 0.2 0.2 
0.2 0.2 0.2 0.2 0.2 0.2 0.2 0.2 0.2 
0.2 0.2 0.2 0.2 0.2 0.2 0.2 0.2 0.2 
0.2 0.2 0.2 0.2 0.2 0.2 0.2 0.2 0.2 
0.2 0.2 0.2 0.2 0.2 0.2 0.2 0.2 0.2 
0.2 0.2 0.2 0.2 0.2 
c 1 1049 double
0.1 0.1 0.1 0.1 0.1 0.1 0.1 0.1 0.1 
0.1 0.1 0.1 0.1 0.1 0.1 0.1 0.1 0.1 
0.1 0.1 0.1 0.1 0.1 0.1 0.1 0.1 0.1 
0.1 0.1 0.1 0.1 0.1 0.1 0.1 0.1 0.1 
0.1 0.1 0.1 0.1 0.1 0.1 0.1 0.1 0.1 
0.1 0.1 0.1 0.1 0.1 0.1 0.1 0.1 0.1 
0.1 0.1 0.1 0.1 0.1 0.1 0.1 0.1 0.1 
0.1 0.1 0.1 0.1 0.1 0.1 0.1 0.1 0.1 
0.1 0.1 0.1 0.1 0.1 0.1 0.1 0.1 0.1 
0.1 0.1 0.1 0.1 0.1 0.1 0.1 0.1 0.1 
0.1 0.1 0.1 0.1 0.1 0.1 0.1 0.1 0.1 
0.1 0.1 0.1 0.1 0.1 0.1 0.1 0.1 0.1 
0.1 0.1 0.1 0.1 0.1 0.1 0.1 0.1 0.1 
0.1 0.1 0.1 0.1 0.1 0.1 0.1 0.1 0.1 
0.1 0.1 0.1 0.1 0.1 0.1 0.1 0.1 0.1 
0.1 0.1 0.1 0.1 0.1 0.1 0.1 0.1 0.1 
0.1 0.1 0.1 0.1 0.1 0.1 0.1 0.1 0.1 
0.1 0.1 0.1 0.1 0.1 0.1 0.1 0.1 0.1 
0.1 0.1 0.1 0.1 0.1 0.1 0.1 0.1 0.1 
0.1 0.1 0.1 0.1 0.1 0.1 0.1 0.1 0.1 
0.1 0.1 0.1 0.1 0.1 0.1 0.1 0.1 0.1 
0.1 0.1 0.1 0.1 0.1 0.1 0.1 0.1 0.1 
0.1 0.1 0.1 0.1 0.1 0.1 0.1 0.1 0.1 
0.1 0.1 0.1 0.1 0.1 0.1 0.1 0.1 0.1 
0.1 0.1 0.1 0.1 0.1 0.1 0.1 0.1 0.1 
0.1 0.1 0.1 0.1 0.1 0.1 0.1 0.1 0.1 
0.1 0.1 0.1 0.1 0.1 0.1 0.1 0.1 0.1 
0.1 0.1 0.1 0.1 0.1 0.1 0.1 0.1 0.1 
0.1 0.1 0.1 0.1 0.1 0.1 0.1 0.1 0.1 
0.1 0.1 0.1 0.1 0.1 0.1 0.1 0.1 0.1 
0.1 0.1 0.1 0.1 0.1 0.1 0.1 0.1 0.1 
0.1 0.1 0.1 0.1 0.1 0.1 0.1 0.1 0.1 
0.1 0.1 0.1 0.1 0.1 0.1 0.1 0.1 0.1 
0.1 0.1 0.1 0.1 0.1 0.1 0.1 0.1 0.1 
0.1 0.1 0.1 0.1 0.1 0.1 0.1 0.1 0.1 
0.1 0.1 0.1 0.1 0.1 0.1 0.1 0.1 0.1 
0.1 0.1 0.1 0.1 0.1 0.1 0.1 0.1 0.1 
0.1 0.1 0.1 0.1 0.1 0.1 0.1 0.1 0.1 
0.1 0.1 0.1 0.1 0.1 0.1 0.1 0.1 0.1 
0.1 0.1 0.1 0.1 0.1 0.1 0.1 0.1 0.1 
0.1 0.1 0.1 0.1 0.1 0.1 0.1 0.1 0.1 
0.1 0.1 0.1 0.1 0.1 0.1 0.1 0.1 0.1 
0.1 0.1 0.1 0.1 0.1 0.1 0.1 0.1 0.1 
0.1 0.1 0.1 0.1 0.1 0.1 0.1 0.1 0.1 
0.1 0.1 0.1 0.1 0.1 0.1 0.1 0.1 0.1 
0.1 0.1 0.1 0.1 0.1 0.1 0.1 0.1 0.1 
0.1 0.1 0.1 0.1 0.1 0.1 0.1 0.1 0.1 
0.1 0.1 0.1 0.1 0.1 0.1 0.1 0.1 0.1 
0.1 0.1 0.1 0.1 0.1 0.1 0.1 0.1 0.1 
0.1 0.1 0.1 0.1 0.1 0.1 0.1 0.1 0.1 
0.1 0.1 0.1 0.1 0.1 0.1 0.1 0.1 0.1 
0.1 0.1 0.1 0.1 0.1 0.1 0.1 0.1 0.1 
0.1 0.1 0.1 0.1 0.1 0.1 0.1 0.1 0.1 
0.1 0.1 0.1 0.1 0.1 0.1 0.1 0.1 0.1 
0.1 0.1 0.1 0.1 0.1 0.1 0.1 0.1 0.1 
0.1 0.1 0.1 0.1 0.1 0.1 0.1 0.1 0.1 
0.1 0.1 0.1 0.1 0.1 0.1 0.1 0.1 0.1 
0.1 0.1 0.1 0.1 0.1 0.1 0.1 0.1 0.1 
0.1 0.1 0.1 0.1 0.1 0.1 0.1 0.1 0.1 
0.1 0.1 0.1 0.1 0.1 0.1 0.1 0.1 0.1 
0.1 0.1 0.1 0.1 0.1 0.1 0.1 0.1 0.1 
0.1 0.1 0.1 0.1 0.1 0.1 0.1 0.1 0.1 
0.1 0.1 0.1 0.1 0.1 0.1 0.1 0.1 0.1 
0.1 0.1 0.1 0.1 0.1 0.1 0.1 0.1 0.1 
0.1 0.1 0.1 0.1 0.1 0.1 0.1 0.1 0.1 
0.1 0.1 0.1 0.1 0.1 0.1 0.1 0.1 0.1 
0.1 0.1 0.1 0.1 0.1 0.1 0.1 0.1 0.1 
0.1 0.1 0.1 0.1 0.1 0.1 0.1 0.1 0.1 
0.1 0.1 0.1 0.1 0.1 0.1 0.1 0.1 0.1 
0.1 0.1 0.1 0.1 0.1 0.1 0.1 0.1 0.1 
0.1 0.1 0.1 0.1 0.1 0.1 0.1 0.1 0.1 
0.1 0.1 0.1 0.1 0.1 0.1 0.1 0.1 0.1 
0.1 0.1 0.1 0.1 0.1 0.1 0.1 0.1 0.1 
0.1 0.1 0.1 0.1 0.1 0.1 0.1 0.1 0.1 
0.1 0.1 0.1 0.1 0.1 0.1 0.1 0.1 0.1 
0.1 0.1 0.1 0.1 0.1 0.1 0.1 0.1 0.1 
0.1 0.1 0.1 0.1 0.1 0.1 0.1 0.1 0.1 
0.1 0.1 0.1 0.1 0.1 0.1 0.1 0.1 0.1 
0.1 0.1 0.1 0.1 0.1 0.1 0.1 0.1 0.1 
0.1 0.1 0.1 0.1 0.1 0.1 0.1 0.1 0.1 
0.1 0.1 0.1 0.1 0.1 0.1 0.1 0.1 0.1 
0.1 0.1 0.1 0.1 0.1 0.1 0.1 0.1 0.1 
0.1 0.1 0.1 0.1 0.1 0.1 0.1 0.1 0.1 
0.1 0.1 0.1 0.1 0.1 0.1 0.1 0.1 0.1 
0.1 0.1 0.1 0.1 0.1 0.1 0.1 0.1 0.1 
0.1 0.1 0.1 0.1 0.1 0.1 0.1 0.1 0.1 
0.1 0.1 0.1 0.1 0.1 0.1 0.1 0.1 0.1 
0.1 0.1 0.1 0.1 0.1 0.1 0.1 0.1 0.1 
0.1 0.1 0.1 0.1 0.1 0.1 0.1 0.1 0.1 
0.1 0.1 0.1 0.1 0.1 0.1 0.1 0.1 0.1 
0.1 0.1 0.1 0.1 0.1 0.1 0.1 0.1 0.1 
0.1 0.1 0.1 0.1 0.1 0.1 0.1 0.1 0.1 
0.1 0.1 0.1 0.1 0.1 0.1 0.1 0.1 0.1 
0.1 0.1 0.1 0.1 0.1 0.1 0.1 0.1 0.1 
0.1 0.1 0.1 0.1 0.1 0.1 0.1 0.1 0.1 
0.1 0.1 0.1 0.1 0.1 0.1 0.1 0.1 0.1 
0.1 0.1 0.1 0.1 0.1 0.1 0.1 0.1 0.1 
0.1 0.1 0.1 0.1 0.1 0.1 0.1 0.1 0.1 
0.1 0.1 0.1 0.1 0.1 0.1 0.1 0.1 0.1 
0.1 0.1 0.1 0.1 0.1 0.1 0.1 0.1 0.1 
0.1 0.1 0.1 0.1 0.1 0.1 0.1 0.1 0.1 
0.1 0.1 0.1 0.1 0.1 0.1 0.1 0.1 0.1 
0.1 0.1 0.1 0.1 0.1 0.1 0.1 0.1 0.1 
0.1 0.1 0.1 0.1 0.1 0.1 0.1 0.1 0.1 
0.1 0.1 0.1 0.1 0.1 0.1 0.1 0.1 0.1 
0.1 0.1 0.1 0.1 0.1 0.1 0.1 0.1 0.1 
0.1 0.1 0.1 0.1 0.1 0.1 0.1 0.1 0.1 
0.1 0.1 0.1 0.1 0.1 0.1 0.1 0.1 0.1 
0.1 0.1 0.1 0.1 0.1 0.1 0.1 0.1 0.1 
0.1 0.1 0.1 0.1 0.1 0.1 0.1 0.1 0.1 
0.1 0.1 0.1 0.1 0.1 0.1 0.1 0.1 0.1 
0.1 0.1 0.1 0.1 0.1 0.1 0.1 0.1 0.1 
0.1 0.1 0.1 0.1 0.1 0.1 0.1 0.1 0.1 
0.1 0.1 0.1 0.1 0.1 0.1 0.1 0.1 0.1 
0.1 0.1 0.1 0.1 0.1 0.1 0.1 0.1 0.1 
0.1 0.1 0.1 0.1 0.1 0.1 0.1 0.1 0.1 
0.1 0.1 0.1 0.1 0.1 
m 1 1049 double
83.88 94.295 75.77 84.655 89.775 69.85 91.415 92.105 97.585 
76.33 65.975 61.625 62.64 56.755 91.315 79.28 90.92 95.485 
62.455 65.745 75.995 60.985 58.805 73.95 53.195 51.54 91.91 
56.77 88.325 93.885 92.83 54.265 53.87 90.795 65.415 84.935 
76.76 88.61 63.205 91.99 77.105 56.49 99.255 86.39 71.55 
79.025 62.775 69.45 54.64 80.635 57.705 71.125 50.495 93.285 
75 80.435 64.785 63.675 95.63 52.64 82.95 97.965 58.915 
59.26 84.075 98.36 95.075 83.05 83.255 82.91 65.86 60.355 
83.105 54.985 64.86 65.345 69.135 61.75 59.44 50.185 96.67 
59.25 55.865 54.355 86.67 67.685 74.925 54.55 94.14 85.085 
81.085 51.995 61.965 73.465 86.4 72.85 54.44 92.885 81.82 
62.195 91.705 94.88 67.185 50.04 56.345 88.58 72.76 77.41 
77.555 53.285 68.31 86.805 67.14 93.81 82.53 96.84 82.225 
94.77 54.76 92.06 71.295 86.865 74.595 63.77 72.105 81.145 
56.63 96.915 59.805 90.21 71.62 91.575 71.85 75.99 68.92 
92.685 54.43 82.065 67.63 80.455 63.885 94.9 95.85 99.78 
84.31 84.98 59.365 86.405 61.525 54.625 85.42 51.68 81.635 
56.565 84.575 58.645 67.53 82.525 66.01 91.01 94.72 54.23 
80.62 69.475 97.91 52.725 79.285 66.835 70.215 51.82 77.17 
94.07 86.38 85.89 68.75 55.435 84.04 67.92 77.015 63.255 
78.94 63.77 99.66 66.84 61.995 75.3 98.38 81.13 88.965 
91.95 58.41 64.145 50.06 92.93 76.7 88.695 87.695 53.975 
52.85 90.47 57.17 50.485 83.005 87.335 64.51 51.89 66.585 
83.26 52.46 53.78 86.505 98.445 97.205 71.43 69.325 51.4 
92.22 83.095 90.155 92.2 73.645 72.405 77.165 78.855 91.675 
89.44 91.69 94.935 90.585 90.485 89.28 72.835 94.635 53.545 
53.375 97.485 61.765 84.825 76.53 72.93 73.415 57.64 64.355 
93.12 81.095 78.66 97.515 91.35 94.145 50.095 83.575 98.54 
90.745 81.7 66.84 61.225 64.23 88.98 78.645 53.615 63.09 
68.09 76.93 67.295 55.5 67.255 67.775 64.605 87.44 61.895 
88.82 52.46 91.14 99.205 75.965 83.245 61.75 74.57 88.82 
50.62 85.17 84.935 57.5 82.455 79.28 91.825 68.715 61.135 
57.105 99.295 59.68 62.755 57.16 66.025 88.105 62.52 97.835 
53.065 64.21 97.64 83.92 54.34 60.105 53.715 61.46 78.975 
65.72 89.94 88.205 80.945 81.775 83.1 61.37 56.94 90.125 
65.37 97.19 56.165 77.035 66.375 57.37 96.14 82.185 77.895 
59.965 59.3 79.42 90.71 99.79 94.36 99.54 52.49 75.945 
51.445 89.855 76.19 76.835 84.745 72.06 97.395 50.45 94.845 
98.05 51.35 90.785 51.79 67.465 68.405 94.29 71.975 56.185 
80.605 80.145 73.845 76.365 86.275 94.25 58.88 88.765 94.04 
81.24 66.515 90.18 64.5 76.715 65.885 82.145 81.675 91.775 
96.07 59.43 67.56 56.56 53.495 77.845 59.195 91.815 67.085 
80.715 79.09 68.965 72.14 91.175 79.97 88.66 51.895 55.775 
90.02 64.45 66.665 98.77 58.24 60.665 78.145 54.82 91.425 
50.245 52.52 93.135 98.155 95.4 92.965 54.285 63.11 82.155 
99.235 65.865 93.97 62.02 55.055 79.64 97.645 93.88 92.905 
96.68 94.095 62.95 91.045 87.835 58.73 72.5 97.645 51.84 
60.67 61.075 80.635 71.695 58.46 61.45 95.255 63.235 84.85 
94.73 71.46 83.41 96.95 78.955 87.31 73.065 72.215 93.03 
72.69 78.815 52.62 61.49 80.95 53.565 69.49 84.95 81.245 
98.985 68.94 90.23 92.69 88.235 62.675 75.755 80.795 82.76 
74.97 74.58 67.645 77.89 57.605 92.87 80.785 75.285 75.575 
84.2 64.52 53.44 74.09 75.64 80.21 96.495 83.2 76.925 
56.11 66.515 65.165 76.815 62.485 51.265 52.14 60.01 53.405 
82.015 72.5 71.73 75.5 86.93 81.56 63.63 57.455 96.155 
64.755 75.105 59.735 86.845 99.585 66.62 89.585 84.98 59.86 
88.125 96.46 69.25 88.36 55.76 95.625 74.46 88.43 69.98 
61.81 95.94 77.18 68.645 62.3 79.875 95.785 67.07 50.135 
69.605 81.52 93.45 52.3 50.14 90.25 87.78 90.135 83.74 
94.51 73.97 88.485 93.495 55.195 55.215 50.295 52.845 67.705 
71.16 69.13 61.305 51.8 83.805 95.585 50.405 90.115 80.21 
88.815 65.95 81.545 94.98 77.125 69.63 53.45 73.385 58.13 
71.17 81.835 72.62 80.285 98.07 91.025 51.79 65.84 88.85 
86.42 84.28 72.83 52.085 52.7 79.245 51.185 86.025 53.03 
61.3 65.295 67.13 92.59 76.085 95.86 53.915 74.725 84.365 
71.445 92.29 88.185 52.415 54.365 83.035 52.39 63.785 72.355 
96.57 78.68 65.345 60.915 77.495 92.45 97.35 88.715 56.98 
70.405 50.42 86.345 78.15 83.625 77.95 87.525 98.86 78.22 
87.8 83.29 96.12 69.75 62.11 76.055 89.09 69.6 50.635 
76.18 76.84 56.22 62.835 52.815 50.245 75.525 86.875 99.67 
93.555 66.455 59.025 68.84 94.775 67.945 68.07 94.965 74.11 
84.91 84.41 64.025 74.59 83.585 54.625 65.465 57.87 96.455 
70.15 82.145 70.09 83.55 81.64 84.18 85.45 86.085 84.815 
69.29 75.275 74.52 56.965 90.65 63.305 92.855 92.28 84.255 
98.165 73.945 65.365 98.425 63.02 99.025 96.25 82.515 97.425 
89.34 73.195 64.745 95.03 78.91 67.58 55.405 76.625 87.58 
60.975 54.835 88.385 51.13 55.6 83.815 69.905 52.98 87.8 
54.325 95.18 88.85 89.775 96.055 67.59 81.71 62.66 61.895 
86.605 75.98 91.35 72.135 70.86 71.17 60.2 74.92 86.99 
79.15 55.315 86.415 50.36 84.75 51.735 52.865 68.57 60.15 
70.235 75.41 84.62 80.295 87.61 64.77 56.16 96.02 52.215 
97.175 78.2 77.43 95.795 59.49 71.39 96.31 55.205 98.415 
51.31 99.24 83.64 95.61 78.985 58.615 69.795 90.835 81.36 
91.62 64.03 70.77 86.675 79.105 87.285 96.825 58.88 55.855 
63.735 76.09 51.345 93.505 54.535 58.515 73.265 99.665 57.65 
68.7 70.15 52.685 75.27 64.31 70.49 90.695 64.77 88.345 
98.93 75.615 55.635 58.525 95.75 81.14 79.92 57.43 51.265 
50.63 82.965 52.715 65.01 77.02 80.695 58.98 61.155 63.49 
56.54 85.42 93.6 76.67 92.32 92.71 97.535 90.41 50.985 
78.335 79.695 99.055 99.52 69.7 65.37 89.07 73.565 91.885 
90.895 69.85 95.105 72.9 61.69 96.09 63.575 54.955 81.88 
94.49 55.26 93.055 96.775 81.74 94.02 68.11 88.605 56.275 
74.095 72.995 76.605 85.44 78.875 64.595 73.81 78.55 74.06 
76.895 99.31 63.425 74.885 57.795 62.53 90.945 75.855 70.05 
89.14 86.715 77.84 96.495 78.73 86.86 88.565 91.03 87.935 
96.505 55.085 51.47 83.66 51.175 51.73 67.415 96.035 99.52 
57.68 70.88 65.675 69.05 71.7 88.025 66.555 77.11 81.71 
61.68 58.295 76.05 60.045 75.765 78.455 55.685 62.865 69.715 
74.285 99.555 98.72 98.795 67.495 55.68 56.8 70.335 88.215 
98.09 51.685 56.525 59.005 74.39 68.65 78.305 84.435 60.86 
69.645 97.06 66.74 95.535 95.895 92.09 98.78 87.225 88.42 
79.68 66.88 60.45 77.71 82.33 75.42 64.63 55.475 56.7 
85.95 64.795 64.065 68.865 98.34 64.98 50.815 89.905 85.995 
94.495 74.65 94.665 99.01 93.3 79.47 69.405 50.355 87.34 
54.865 85.655 60.18 67.26 59.495 77.75 96.895 78.12 60.31 
64.62 63 88.185 66.29 67.08 67.325 83.54 91.41 92.61 
93.68 93.13 97.22 96.6 91.12 82.695 70.11 95.08 65.545 
75.265 90.545 66.89 75.405 50 95.57 90.335 56.69 97.13 
79.945 83.935 75.735 61.155 82.66 76.115 69.375 74.25 56.405 
50.895 60.61 69.065 82.95 61.27 55.655 76.75 95.905 89.285 
73.015 57.47 80.405 78.6 62.165 89.91 50.905 87.435 93.61 
97.075 94.125 96.48 77.02 51.485 95.67 50.16 52.755 84.46 
52.075 65.905 85.285 98.54 92.53 61.485 87.415 52.975 59.81 
99.995 75.055 78.88 56.545 50.77 94.885 62.935 99.66 66.91 
75.105 71.33 68.41 88.425 67.815 96.055 94.3 54.65 72.915 
79.95 71.425 95.43 57.38 86.57 70.58 79.1 59.46 87.45 
87.625 77.64 94.195 87.625 65.29 
p0 3 1049 double
0 -10 0 0 -10 0 0 -10 0 
0 -10 0 0 -10 0 0 -10 0 
0 -10 0 0 -10 0 0 -10 0 
0 -10 0 0 -10 0 0 -10 0 
0 -10 0 0 -10 0 0 -10 0 
0 -10 0 0 -10 0 0 -10 0 
0 -10 0 0 -10 0 0 -10 0 
0 -10 0 0 -10 0 0 -10 0 
0 -10 0 0 -10 0 0 -10 0 
0 -10 0 0 -10 0 0 -10 0 
0 -10 0 0 -10 0 0 -10 0 
0 -10 0 0 -10 0 0 -10 0 
0 -10 0 0 -10 0 0 -10 0 
0 -10 0 0 -10 0 0 -10 0 
0 -10 0 0 -10 0 0 -10 0 
0 -10 0 0 -10 0 0 -10 0 
0 -10 0 0 -10 0 0 -10 0 
0 -10 0 0 -10 0 0 -10 0 
0 -10 0 0 -10 0 0 -10 0 
0 -10 0 0 -10 0 0 -10 0 
0 -10 0 0 -10 0 0 -10 0 
0 -10 0 0 -10 0 0 -10 0 
0 -10 0 0 -10 0 0 -10 0 
0 -10 0 0 -10 0 0 -10 0 
0 -10 0 0 -10 0 0 -10 0 
0 -10 0 0 -10 0 0 -10 0 
0 -10 0 0 -10 0 0 -10 0 
0 -10 0 0 -10 0 0 -10 0 
0 -10 0 0 -10 0 0 -10 0 
0 -10 0 0 -10 0 0 -10 0 
0 -10 0 0 -10 0 0 -10 0 
0 -10 0 0 -10 0 0 -10 0 
0 -10 0 0 -10 0 0 -10 0 
0 -10 0 0 -10 0 0 -10 0 
0 -10 0 0 -10 0 0 -10 0 
0 -10 0 0 -10 0 0 -10 0 
0 -10 0 0 -10 0 0 -10 0 
0 -10 0 0 -10 0 0 -10 0 
0 -10 0 0 -10 0 0 -10 0 
0 -10 0 0 -10 0 0 -10 0 
0 0 0 0 0 0 0 0 0 
0 0 0 0 0 0 0 0 0 
0 0 0 0 0 0 0 0 0 
0 0 0 0 0 0 0 0 0 
0 0 0 0 0 0 0 0 0 
0 0 0 0 0 0 0 0 0 
0 0 0 0 0 0 0 0 0 
0 0 0 0 0 0 0 0 0 
0 0 0 0 0 0 0 0 0 
0 0 0 0 0 0 0 0 0 
0 0 0 0 0 0 0 0 0 
0 0 0 0 0 0 0 0 0 
0 0 0 0 0 0 0 0 0 
0 0 0 0 0 0 0 0 0 
0 0 0 0 0 0 0 0 0 
0 0 0 0 0 0 0 0 0 
0 0 0 0 0 0 0 0 0 
0 0 0 0 0 0 0 0 0 
0 0 0 0 0 0 0 0 0 
0 0 0 0 0 0 0 0 0 
0 0 0 0 0 0 0 0 0 
0 0 0 0 0 0 0 0 0 
0 0 0 0 0 0 0 0 0 
0 0 0 0 0 0 0 0 0 
0 0 0 0 0 0 0 0 0 
0 0 0 0 0 0 0 0 0 
0 0 0 0 0 0 0 0 0 
0 0 0 0 0 0 0 0 0 
0 0 0 0 0 0 0 0 0 
0 0 0 0 0 0 0 0 0 
0 0 0 0 0 0 0 0 0 
0 0 0 0 0 0 0 0 0 
0 0 0 0 0 0 0 0 0 
0 0 0 0 0 0 0 0 0 
0 0 0 0 0 0 0 0 0 
0 0 0 0 0 0 0 0 0 
0 0 0 0 0 0 0 0 0 
0 0 0 0 0 0 0 0 0 
0 0 0 0 0 0 0 0 0 
0 0 0 0 0 0 0 0 0 
0 0 0 0 0 0 0 0 0 
0 0 0 0 0 0 0 0 0 
0 0 0 0 0 0 0 0 0 
0 0 0 0 0 0 0 0 0 
0 0 0 0 0 0 0 0 0 
0 0 0 0 0 0 0 0 0 
0 0 0 0 0 0 0 0 0 
0 0 0 0 0 0 0 0 0 
0 0 0 0 0 0 0 0 0 
0 0 0 0 0 0 0 0 0 
0 0 0 0 0 0 0 0 0 
0 0 0 0 0 0 0 0 0 
0 0 0 0 0 0 0 0 0 
0 0 0 0 0 0 0 0 0 
0 0 0 0 0 0 0 0 0 
0 0 0 0 0 0 0 0 0 
0 0 0 0 0 0 0 0 0 
0 0 0 0 0 0 0 0 0 
0 0 0 0 0 0 0 0 0 
0 0 0 0 0 0 0 0 0 
0 0 0 0 0 0 0 0 0 
0 0 0 0 0 0 0 0 0 
0 0 0 0 0 0 0 0 0 
0 0 0 0 0 0 0 0 0 
0 0 0 0 0 0 0 0 0 
0 0 0 0 0 0 0 0 0 
0 0 0 0 0 0 0 0 0 
0 0 0 0 0 0 0 0 0 
0 0 0 0 0 0 0 0 0 
0 0 0 0 0 0 0 0 0 
0 0 0 0 0 0 0 0 0 
0 0 0 0 0 0 0 0 0 
0 0 0 0 0 0 0 0 0 
0 0 0 0 0 0 0 0 0 
0 0 0 0 0 0 0 0 0 
0 0 0 0 0 0 0 0 0 
0 0 0 0 0 0 0 0 0 
0 0 0 0 0 0 0 0 0 
0 0 0 0 0 0 0 0 0 
0 0 0 0 0 0 0 0 0 
0 0 0 0 0 0 0 0 0 
0 0 0 0 0 0 0 0 0 
0 0 0 0 0 0 0 0 0 
0 0 0 0 0 0 0 0 0 
0 0 0 0 0 0 0 0 0 
0 0 0 0 0 0 0 0 0 
0 0 0 0 0 0 0 0 0 
0 0 0 0 0 0 0 0 0 
0 0 0 0 0 0 0 0 0 
0 0 0 0 0 0 0 0 0 
0 0 0 0 0 0 0 0 0 
0 0 0 0 0 0 0 0 0 
0 0 0 0 0 0 0 0 0 
0 0 0 0 0 0 0 0 0 
0 0 0 0 0 0 0 0 0 
0 0 0 0 0 0 0 0 0 
0 0 0 0 0 0 0 0 0 
0 0 0 0 0 0 0 0 0 
0 0 0 0 0 0 0 0 0 
0 0 0 0 0 0 0 0 0 
0 0 0 0 0 0 0 0 0 
0 0 0 0 0 0 0 0 0 
0 0 0 0 0 0 0 0 0 
0 0 0 0 0 0 0 0 0 
0 0 0 0 0 0 0 0 0 
0 0 0 0 0 0 0 0 0 
0 0 0 0 0 0 0 0 0 
0 0 0 0 0 0 0 0 0 
0 0 0 0 0 0 0 0 0 
0 0 0 0 0 0 0 0 0 
0 0 0 0 0 0 0 0 0 
0 0 0 0 0 0 0 0 0 
0 0 0 0 0 0 0 0 0 
0 0 0 0 0 0 0 0 0 
0 0 0 0 0 0 0 0 0 
0 0 0 0 0 0 0 0 0 
0 0 0 0 0 0 0 0 0 
0 0 0 0 0 0 0 0 0 
0 0 0 0 0 0 0 0 0 
0 0 0 0 0 0 0 0 0 
0 0 0 0 0 0 0 0 0 
0 0 0 0 0 0 0 0 0 
0 0 0 0 0 0 0 0 0 
0 0 0 0 0 0 0 0 0 
0 0 0 0 0 0 0 0 0 
0 0 0 0 0 0 0 0 0 
0 0 0 0 0 0 0 0 0 
0 0 0 0 0 0 0 0 0 
0 0 0 0 0 0 0 0 0 
0 0 0 0 0 0 0 0 0 
0 0 0 0 0 0 0 0 0 
0 0 0 0 0 0 0 0 0 
0 0 0 0 0 0 0 0 0 
0 0 0 0 0 0 0 0 0 
0 0 0 0 0 0 0 0 0 
0 0 0 0 0 0 0 0 0 
0 0 0 0 0 0 0 0 0 
0 0 0 0 0 0 0 0 0 
0 0 0 0 0 0 0 0 0 
0 0 0 0 0 0 0 0 0 
0 0 0 0 0 0 0 0 0 
0 0 0 0 0 0 0 0 0 
0 0 0 0 0 0 0 0 0 
0 0 0 0 0 0 0 0 0 
0 0 0 0 0 0 0 0 0 
0 0 0 0 0 0 0 0 0 
0 0 0 0 0 0 0 0 0 
0 0 0 0 0 0 0 0 0 
0 0 0 0 0 0 0 0 0 
0 0 0 0 0 0 0 0 0 
0 0 0 0 0 0 0 0 0 
0 0 0 0 0 0 0 0 0 
0 0 0 0 0 0 0 0 0 
0 0 0 0 0 0 0 0 0 
0 0 0 0 0 0 0 0 0 
0 0 0 0 0 0 0 0 0 
0 0 0 0 0 0 0 0 0 
0 0 0 0 0 0 0 0 0 
0 0 0 0 0 0 0 0 0 
0 0 0 0 0 0 0 0 0 
0 0 0 0 0 0 0 0 0 
0 0 0 0 0 0 0 0 0 
0 0 0 0 0 0 0 0 0 
0 0 0 0 0 0 0 0 0 
0 0 0 0 0 0 0 0 0 
0 0 0 0 0 0 0 0 0 
0 0 0 0 0 0 0 0 0 
0 0 0 0 0 0 0 0 0 
0 0 0 0 0 0 0 0 0 
0 0 0 0 0 0 0 0 0 
0 0 0 0 0 0 0 0 0 
0 0 0 0 0 0 0 0 0 
0 0 0 0 0 0 0 0 0 
0 0 0 0 0 0 0 0 0 
0 0 0 0 0 0 0 0 0 
0 0 0 0 0 0 0 0 0 
0 0 0 0 0 0 0 0 0 
0 0 0 0 0 0 0 0 0 
0 0 0 0 0 0 0 0 0 
0 0 0 0 0 0 0 0 0 
0 0 0 0 0 0 0 0 0 
0 0 0 0 0 0 0 0 0 
0 0 0 0 0 0 0 0 0 
0 0 0 0 0 0 0 0 0 
0 0 0 0 0 0 0 0 0 
0 0 0 0 0 0 0 0 0 
0 0 0 0 0 0 0 0 0 
0 0 0 0 0 0 0 0 0 
0 0 0 0 0 0 0 0 0 
0 0 0 0 0 0 0 0 0 
0 0 0 0 0 0 0 0 0 
0 0 0 0 0 0 0 0 0 
0 0 0 0 0 0 0 0 0 
0 0 0 0 0 0 0 0 0 
0 0 0 0 0 0 0 0 0 
0 0 0 0 0 0 0 0 0 
0 0 0 0 0 0 0 0 0 
0 0 0 0 0 0 0 0 0 
0 0 0 0 0 0 0 0 0 
0 0 0 0 0 0 0 0 0 
0 0 0 0 0 0 0 0 0 
0 0 0 0 0 0 0 0 0 
0 0 0 0 0 0 0 0 0 
0 0 0 0 0 0 0 0 0 
0 0 0 0 0 0 0 0 0 
0 0 0 0 0 0 0 0 0 
0 0 0 0 0 0 0 0 0 
0 0 0 0 0 0 0 0 0 
0 0 0 0 0 0 0 0 0 
0 0 0 0 0 0 0 0 0 
0 0 0 0 0 0 0 0 0 
0 0 0 0 0 0 0 0 0 
0 0 0 0 0 0 0 0 0 
0 0 0 0 0 0 0 0 0 
0 0 0 0 0 0 0 0 0 
0 0 0 0 0 0 0 0 0 
0 0 0 0 0 0 0 0 0 
0 0 0 0 0 0 0 0 0 
0 0 0 0 0 0 0 0 0 
0 0 0 0 0 0 0 0 0 
0 0 0 0 0 0 0 0 0 
0 0 0 0 0 0 0 0 0 
0 0 0 0 0 0 0 0 0 
0 0 0 0 0 0 0 0 0 
0 0 0 0 0 0 0 0 0 
0 0 0 0 0 0 0 0 0 
0 0 0 0 0 0 0 0 0 
0 0 0 0 0 0 0 0 0 
0 0 0 0 0 0 0 0 0 
0 0 0 0 0 0 0 0 0 
0 0 0 0 0 0 0 0 0 
0 0 0 0 0 0 0 0 0 
0 0 0 0 0 0 0 0 0 
0 0 0 0 0 0 0 0 0 
0 0 0 0 0 0 0 0 0 
0 0 0 0 0 0 0 0 0 
0 0 0 0 0 0 0 0 0 
0 0 0 0 0 0 0 0 0 
0 0 0 0 0 0 0 0 0 
0 0 0 0 0 0 0 0 0 
0 0 0 0 0 0 0 0 0 
0 0 0 0 0 0 0 0 0 
0 0 0 0 0 0 0 0 0 
0 0 0 0 0 0 0 0 0 
0 0 0 0 0 0 0 0 0 
0 0 0 0 0 0 0 0 0 
0 0 0 0 0 0 0 0 0 
0 0 0 0 0 0 0 0 0 
0 0 0 0 0 0 0 0 0 
0 0 0 0 0 0 0 0 0 
0 0 0 0 0 0 0 0 0 
0 0 0 0 0 0 0 0 0 
0 0 0 0 0 0 0 0 0 
0 0 0 0 0 0 0 0 0 
0 0 0 0 0 0 0 0 0 
0 0 0 0 0 0 0 0 0 
0 0 0 0 0 0 0 0 0 
0 0 0 0 0 0 0 0 0 
0 0 0 0 0 0 0 0 0 
0 0 0 0 0 0 0 0 0 
0 0 0 0 0 0 0 0 0 
0 0 0 0 0 0 0 0 0 
0 0 0 0 0 0 0 0 0 
0 0 0 0 0 0 0 0 0 
0 0 0 0 0 0 0 0 0 
0 0 0 0 0 0 0 0 0 
0 0 0 0 0 0 0 0 0 
0 0 0 0 0 0 0 0 0 
0 0 0 0 0 0 0 0 0 
0 0 0 0 0 0 0 0 0 
0 0 0 0 0 0 0 0 0 
0 0 0 0 0 0 0 0 0 
0 0 0 0 0 0 0 0 0 
0 0 0 0 0 0 0 0 0 
0 0 0 0 0 0 0 0 0 
0 0 0 0 0 0 0 0 0 
0 0 0 0 0 0 0 0 0 
0 0 0 0 0 0 0 0 0 
0 0 0 0 0 0 0 0 0 
0 0 0 0 0 0 0 0 0 
0 0 0 0 0 0 0 0 0 
0 0 0 0 0 0 0 0 0 
0 0 0 0 0 0 0 0 0 
0 0 0 0 0 0 0 0 0 
0 0 0 0 0 0 0 0 0 
0 0 0 0 0 0 0 0 0 
0 0 0 0 0 0 0 0 0 
0 0 0 0 0 0 0 0 0 
0 0 0 0 0 0 0 0 0 
0 0 0 0 0 0 0 0 0 
0 0 0 0 0 0 0 0 0 
0 0 0 0 0 0 0 0 0 
0 0 0 0 0 0 0 0 0 
0 0 0 0 0 0 0 0 0 
0 0 0 0 0 0 0 0 0 
0 0 0 0 0 0 0 0 0 
0 0 0 0 0 0 0 0 0 
0 0 0 0 0 0 0 0 0 
0 0 0 0 0 0 0 0 0 
0 0 0 0 0 0 0 0 0 
0 0 0 0 0 0 0 0 0 
0 0 0 0 0 0 0 0 0 
0 0 0 0 0 0 0 0 0 
0 0 0 0 0 0 0 0 0 
0 0 0 0 0 0 0 0 0 
0 0 0 0 0 0 0 0 0 
0 0 0 0 0 0 0 0 0 
0 0 0 0 0 0 0 0 0 
0 0 0 0 0 0 0 0 0 
0 0 0 0 0 0 
v0 1 1049 double
2.2234 3.5098 2.2246 3.1534 2.5562 2.798 2.959 3.3376 3.1552 
3.7348 3.908 3.5868 3.7604 3.4418 3.5598 3.9752 2.7868 3.7132 
3.6894 2.9072 2.6972 2.105 2.8228 2.9892 2.5998 3.4416 2.9862 
3.6802 3.4388 3.3932 3.7386 3.9802 2.8894 3.7722 3.4142 3.8026 
3.3968 2.9348 3.9438 3.5394 3.4702 3.4192 3.447 2.5702 2.2178 
3.219 3.8484 3.1134 3.991 2.227 2.8832 2.7916 2.0272 3.4754 
2.5352 3.2554 3.3948 3.0734 3.5338 3.3812 3.5126 2.726 3.7956 
3.7164 3.6034 3.938 3.358 3.852 2.5666 3.2294 3.2458 3.8268 
3.1832 2.8338 2.6856 3.4072 2.5952 3.053 2.6632 2.3004 2.264 
2.325 2.5898 2.1056 3.18 2.9256 2.5992 2.0254 2.7598 2.9892 
3.8554 3.7004 3.3678 3.236 2.1178 3.5612 3.2878 3.514 2.192 
2.4594 2.7532 2.5972 3.075 2.9022 2.4322 2.0104 2.6016 2.2866 
2.9518 2.087 2.7364 3.2768 2.79 2.6138 2.0302 2.0424 2.2322 
2.1262 2.0074 2.1126 0 0 0 0 0 0 
0 0 0 0 0 0 0 0 0 
0 0 0 0 0 0 0 0 0 
0 0 0 0 0 0 0 0 0 
0 0 0 0 0 0 0 0 0 
0 0 0 0 0 0 0 0 0 
0 0 0 0 0 0 0 0 0 
0 0 0 0 0 0 0 0 0 
0 0 0 0 0 0 0 0 0 
0 0 0 0 0 0 0 0 0 
0 0 0 0 0 0 0 0 0 
0 0 0 0 0 0 0 0 0 
0 0 0 0 0 0 0 0 0 
0 0 0 0 0 0 0 0 0 
0 0 0 0 0 0 0 0 0 
0 0 0 0 0 0 0 0 0 
0 0 0 0 0 0 0 0 0 
0 0 0 0 0 0 0 0 0 
0 0 0 0 0 0 0 0 0 
0 0 0 0 0 0 0 0 0 
0 0 0 0 0 0 0 0 0 
0 0 0 0 0 0 0 0 0 
0 0 0 0 0 0 0 0 0 
0 0 0 0 0 0 0 0 0 
0 0 0 0 0 0 0 0 0 
0 0 0 0 0 0 0 0 0 
0 0 0 0 0 0 0 0 0 
0 0 0 0 0 0 0 0 0 
0 0 0 0 0 0 0 0 0 
0 0 0 0 0 0 0 0 0 
0 0 0 0 0 0 0 0 0 
0 0 0 0 0 0 0 0 0 
0 0 0 0 0 0 0 0 0 
0 0 0 0 0 0 0 0 0 
0 0 0 0 0 0 0 0 0 
0 0 0 0 0 0 0 0 0 
0 0 0 0 0 0 0 0 0 
0 0 0 0 0 0 0 0 0 
0 0 0 0 0 0 0 0 0 
0 0 0 0 0 0 0 0 0 
0 0 0 0 0 0 0 0 0 
0 0 0 0 0 0 0 0 0 
0 0 0 0 0 0 0 0 0 
0 0 0 0 0 0 0 0 0 
0 0 0 0 0 0 0 0 0 
0 0 0 0 0 0 0 0 0 
0 0 0 0 0 0 0 0 0 
0 0 0 0 0 0 0 0 0 
0 0 0 0 0 0 0 0 0 
0 0 0 0 0 0 0 0 0 
0 0 0 0 0 0 0 0 0 
0 0 0 0 0 0 0 0 0 
0 0 0 0 0 0 0 0 0 
0 0 0 0 0 0 0 0 0 
0 0 0 0 0 0 0 0 0 
0 0 0 0 0 0 0 0 0 
0 0 0 0 0 0 0 0 0 
0 0 0 0 0 0 0 0 0 
0 0 0 0 0 0 0 0 0 
0 0 0 0 0 0 0 0 0 
0 0 0 0 0 0 0 0 0 
0 0 0 0 0 0 0 0 0 
0 0 0 0 0 0 0 0 0 
0 0 0 0 0 0 0 0 0 
0 0 0 0 0 0 0 0 0 
0 0 0 0 0 0 0 0 0 
0 0 0 0 0 0 0 0 0 
0 0 0 0 0 0 0 0 0 
0 0 0 0 0 0 0 0 0 
0 0 0 0 0 0 0 0 0 
0 0 0 0 0 0 0 0 0 
0 0 0 0 0 0 0 0 0 
0 0 0 0 0 0 0 0 0 
0 0 0 0 0 0 0 0 0 
0 0 0 0 0 0 0 0 0 
0 0 0 0 0 0 0 0 0 
0 0 0 0 0 0 0 0 0 
0 0 0 0 0 0 0 0 0 
0 0 0 0 0 0 0 0 0 
0 0 0 0 0 0 0 0 0 
0 0 0 0 0 0 0 0 0 
0 0 0 0 0 0 0 0 0 
0 0 0 0 0 0 0 0 0 
0 0 0 0 0 0 0 0 0 
0 0 0 0 0 0 0 0 0 
0 0 0 0 0 0 0 0 0 
0 0 0 0 0 0 0 0 0 
0 0 0 0 0 0 0 0 0 
0 0 0 0 0 0 0 0 0 
0 0 0 0 0 0 0 0 0 
0 0 0 0 0 0 0 0 0 
0 0 0 0 0 0 0 0 0 
0 0 0 0 0 0 0 0 0 
0 0 0 0 0 0 0 0 0 
0 0 0 0 0 0 0 0 0 
0 0 0 0 0 0 0 0 0 
0 0 0 0 0 0 0 0 0 
0 0 0 0 0 0 0 0 0 
0 0 0 0 0 0 0 0 0 
0 0 0 0 0 0 0 0 0 
0 0 0 0 0 0 0 0 0 
0 0 0 0 0 0 0 0 0 
0 0 0 0 0 0 0 0 0 
0 0 0 0 0 
tau 1 1049 double
2 2 2 2 2 2 2 2 2 
2 2 2 2 2 2 2 2 2 
2 2 2 2 2 2 2 2 2 
2 2 2 2 2 2 2 2 2 
2 2 2 2 2 2 2 2 2 
2 2 2 2 2 2 2 2 2 
2 2 2 2 2 2 2 2 2 
2 2 2 2 2 2 2 2 2 
2 2 2 2 2 2 2 2 2 
2 2 2 2 2 2 2 2 2 
2 2 2 2 2 2 2 2 2 
2 2 2 2 2 2 2 2 2 
2 2 2 2 2 2 2 2 2 
2 2 2 2 2 2 2 2 2 
2 2 2 2 2 2 2 2 2 
2 2 2 2 2 2 2 2 2 
2 2 2 2 2 2 2 2 2 
2 2 2 2 2 2 2 2 2 
2 2 2 2 2 2 2 2 2 
2 2 2 2 2 2 2 2 2 
2 2 2 2 2 2 2 2 2 
2 2 2 2 2 2 2 2 2 
2 2 2 2 2 2 2 2 2 
2 2 2 2 2 2 2 2 2 
2 2 2 2 2 2 2 2 2 
2 2 2 2 2 2 2 2 2 
2 2 2 2 2 2 2 2 2 
2 2 2 2 2 2 2 2 2 
2 2 2 2 2 2 2 2 2 
2 2 2 2 2 2 2 2 2 
2 2 2 2 2 2 2 2 2 
2 2 2 2 2 2 2 2 2 
2 2 2 2 2 2 2 2 2 
2 2 2 2 2 2 2 2 2 
2 2 2 2 2 2 2 2 2 
2 2 2 2 2 2 2 2 2 
2 2 2 2 2 2 2 2 2 
2 2 2 2 2 2 2 2 2 
2 2 2 2 2 2 2 2 2 
2 2 2 2 2 2 2 2 2 
2 2 2 2 2 2 2 2 2 
2 2 2 2 2 2 2 2 2 
2 2 2 2 2 2 2 2 2 
2 2 2 2 2 2 2 2 2 
2 2 2 2 2 2 2 2 2 
2 2 2 2 2 2 2 2 2 
2 2 2 2 2 2 2 2 2 
2 2 2 2 2 2 2 2 2 
2 2 2 2 2 2 2 2 2 
2 2 2 2 2 2 2 2 2 
2 2 2 2 2 2 2 2 2 
2 2 2 2 2 2 2 2 2 
2 2 2 2 2 2 2 2 2 
2 2 2 2 2 2 2 2 2 
2 2 2 2 2 2 2 2 2 
2 2 2 2 2 2 2 2 2 
2 2 2 2 2 2 2 2 2 
2 2 2 2 2 2 2 2 2 
2 2 2 2 2 2 2 2 2 
2 2 2 2 2 2 2 2 2 
2 2 2 2 2 2 2 2 2 
2 2 2 2 2 2 2 2 2 
2 2 2 2 2 2 2 2 2 
2 2 2 2 2 2 2 2 2 
2 2 2 2 2 2 2 2 2 
2 2 2 2 2 2 2 2 2 
2 2 2 2 2 2 2 2 2 
2 2 2 2 2 2 2 2 2 
2 2 2 2 2 2 2 2 2 
2 2 2 2 2 2 2 2 2 
2 2 2 2 2 2 2 2 2 
2 2 2 2 2 2 2 2 2 
2 2 2 2 2 2 2 2 2 
2 2 2 2 2 2 2 2 2 
2 2 2 2 2 2 2 2 2 
2 2 2 2 2 2 2 2 2 
2 2 2 2 2 2 2 2 2 
2 2 2 2 2 2 2 2 2 
2 2 2 2 2 2 2 2 2 
2 2 2 2 2 2 2 2 2 
2 2 2 2 2 2 2 2 2 
2 2 2 2 2 2 2 2 2 
2 2 2 2 2 2 2 2 2 
2 2 2 2 2 2 2 2 2 
2 2 2 2 2 2 2 2 2 
2 2 2 2 2 2 2 2 2 
2 2 2 2 2 2 2 2 2 
2 2 2 2 2 2 2 2 2 
2 2 2 2 2 2 2 2 2 
2 2 2 2 2 2 2 2 2 
2 2 2 2 2 2 2 2 2 
2 2 2 2 2 2 2 2 2 
2 2 2 2 2 2 2 2 2 
2 2 2 2 2 2 2 2 2 
2 2 2 2 2 2 2 2 2 
2 2 2 2 2 2 2 2 2 
2 2 2 2 2 2 2 2 2 
2 2 2 2 2 2 2 2 2 
2 2 2 2 2 2 2 2 2 
2 2 2 2 2 2 2 2 2 
2 2 2 2 2 2 2 2 2 
2 2 2 2 2 2 2 2 2 
2 2 2 2 2 2 2 2 2 
2 2 2 2 2 2 2 2 2 
2 2 2 2 2 2 2 2 2 
2 2 2 2 2 2 2 2 2 
2 2 2 2 2 2 2 2 2 
2 2 2 2 2 2 2 2 2 
2 2 2 2 2 2 2 2 2 
2 2 2 2 2 2 2 2 2 
2 2 2 2 2 2 2 2 2 
2 2 2 2 2 2 2 2 2 
2 2 2 2 2 2 2 2 2 
2 2 2 2 2 2 2 2 2 
2 2 2 2 2 2 2 2 2 
2 2 2 2 2 2 2 2 2 
2 2 2 2 2 
R 1 1049 double
0.31776 0.33859 0.30154 0.31931 0.32955 0.2897 0.33283 0.33421 0.34517 
0.30266 0.28195 0.27325 0.27528 0.26351 0.33263 0.30856 0.33184 0.34097 
0.27491 0.28149 0.30199 0.27197 0.26761 0.2979 0.25639 0.25308 0.33382 
0.26354 0.32665 0.33777 0.33566 0.25853 0.25774 0.33159 0.28083 0.31987 
0.30352 0.32722 0.27641 0.33398 0.30421 0.26298 0.34851 0.32278 0.2931 
0.30805 0.27555 0.2889 0.25928 0.31127 0.26541 0.29225 0.25099 0.33657 
0.3 0.31087 0.27957 0.27735 0.34126 0.25528 0.3159 0.34593 0.26783 
0.26852 0.31815 0.34672 0.34015 0.3161 0.31651 0.31582 0.28172 0.27071 
0.31621 0.25997 0.27972 0.28069 0.28827 0.2735 0.26888 0.25037 0.34334 
0.2685 0.26173 0.25871 0.32334 0.28537 0.29985 0.2591 0.33828 0.32017 
0.31217 0.25399 0.27393 0.29693 0.3228 0.2957 0.25888 0.33577 0.31364 
0.27439 0.33341 0.33976 0.28437 0.25008 0.26269 0.32716 0.29552 0.30482 
0.30511 0.25657 0.28662 0.32361 0.28428 0.33762 0.31506 0.34368 0.31445 
0.33954 0.25952 0.33412 0.1 0.1 0.1 0.1 0.1 0.1 
0.1 0.1 0.1 0.1 0.1 0.1 0.1 0.1 0.1 
0.1 0.1 0.1 0.1 0.1 0.1 0.1 0.1 0.1 
0.1 0.1 0.1 0.1 0.1 0.1 0.1 0.1 0.1 
0.1 0.1 0.1 0.1 0.1 0.1 0.1 0.1 0.1 
0.1 0.1 0.1 0.1 0.1 0.1 0.1 0.1 0.1 
0.1 0.1 0.1 0.1 0.1 0.1 0.1 0.1 0.1 
0.1 0.1 0.1 0.1 0.1 0.1 0.1 0.1 0.1 
0.1 0.1 0.1 0.1 0.1 0.1 0.1 0.1 0.1 
0.1 0.1 0.1 0.1 0.1 0.1 0.1 0.1 0.1 
0.1 0.1 0.1 0.1 0.1 0.1 0.1 0.1 0.1 
0.1 0.1 0.1 0.1 0.1 0.1 0.1 0.1 0.1 
0.1 0.1 0.1 0.1 0.1 0.1 0.1 0.1 0.1 
0.1 0.1 0.1 0.1 0.1 0.1 0.1 0.1 0.1 
0.1 0.1 0.1 0.1 0.1 0.1 0.1 0.1 0.1 
0.1 0.1 0.1 0.1 0.1 0.1 0.1 0.1 0.1 
0.1 0.1 0.1 0.1 0.1 0.1 0.1 0.1 0.1 
0.1 0.1 0.1 0.1 0.1 0.1 0.1 0.1 0.1 
0.1 0.1 0.1 0.1 0.1 0.1 0.1 0.1 0.1 
0.1 0.1 0.1 0.1 0.1 0.1 0.1 0.1 0.1 
0.1 0.1 0.1 0.1 0.1 0.1 0.1 0.1 0.1 
0.1 0.1 0.1 0.1 0.1 0.1 0.1 0.1 0.1 
0.1 0.1 0.1 0.1 0.1 0.1 0.1 0.1 0.1 
0.1 0.1 0.1 0.1 0.1 0.1 0.1 0.1 0.1 
0.1 0.1 0.1 0.1 0.1 0.1 0.1 0.1 0.1 
0.1 0.1 0.1 0.1 0.1 0.1 0.1 0.1 0.1 
0.1 0.1 0.1 0.1 0.1 0.1 0.1 0.1 0.1 
0.1 0.1 0.1 0.1 0.1 0.1 0.1 0.1 0.1 
0.1 0.1 0.1 0.1 0.1 0.1 0.1 0.1 0.1 
0.1 0.1 0.1 0.1 0.1 0.1 0.1 0.1 0.1 
0.1 0.1 0.1 0.1 0.1 0.1 0.1 0.1 0.1 
0.1 0.1 0.1 0.1 0.1 0.1 0.1 0.1 0.1 
0.1 0.1 0.1 0.1 0.1 0.1 0.1 0.1 0.1 
0.1 0.1 0.1 0.1 0.1 0.1 0.1 0.1 0.1 
0.1 0.1 0.1 0.1 0.1 0.1 0.1 0.1 0.1 
0.1 0.1 0.1 0.1 0.1 0.1 0.1 0.1 0.1 
0.1 0.1 0.1 0.1 0.1 0.1 0.1 0.1 0.1 
0.1 0.1 0.1 0.1 0.1 0.1 0.1 0.1 0.1 
0.1 0.1 0.1 0.1 0.1 0.1 0.1 0.1 0.1 
0.1 0.1 0.1 0.1 0.1 0.1 0.1 0.1 0.1 
0.1 0.1 0.1 0.1 0.1 0.1 0.1 0.1 0.1 
0.1 0.1 0.1 0.1 0.1 0.1 0.1 0.1 0.1 
0.1 0.1 0.1 0.1 0.1 0.1 0.1 0.1 0.1 
0.1 0.1 0.1 0.1 0.1 0.1 0.1 0.1 0.1 
0.1 0.1 0.1 0.1 0.1 0.1 0.1 0.1 0.1 
0.1 0.1 0.1 0.1 0.1 0.1 0.1 0.1 0.1 
0.1 0.1 0.1 0.1 0.1 0.1 0.1 0.1 0.1 
0.1 0.1 0.1 0.1 0.1 0.1 0.1 0.1 0.1 
0.1 0.1 0.1 0.1 0.1 0.1 0.1 0.1 0.1 
0.1 0.1 0.1 0.1 0.1 0.1 0.1 0.1 0.1 
0.1 0.1 0.1 0.1 0.1 0.1 0.1 0.1 0.1 
0.1 0.1 0.1 0.1 0.1 0.1 0.1 0.1 0.1 
0.1 0.1 0.1 0.1 0.1 0.1 0.1 0.1 0.1 
0.1 0.1 0.1 0.1 0.1 0.1 0.1 0.1 0.1 
0.1 0.1 0.1 0.1 0.1 0.1 0.1 0.1 0.1 
0.1 0.1 0.1 0.1 0.1 0.1 0.1 0.1 0.1 
0.1 0.1 0.1 0.1 0.1 0.1 0.1 0.1 0.1 
0.1 0.1 0.1 0.1 0.1 0.1 0.1 0.1 0.1 
0.1 0.1 0.1 0.1 0.1 0.1 0.1 0.1 0.1 
0.1 0.1 0.1 0.1 0.1 0.1 0.1 0.1 0.1 
0.1 0.1 0.1 0.1 0.1 0.1 0.1 0.1 0.1 
0.1 0.1 0.1 0.1 0.1 0.1 0.1 0.1 0.1 
0.1 0.1 0.1 0.1 0.1 0.1 0.1 0.1 0.1 
0.1 0.1 0.1 0.1 0.1 0.1 0.1 0.1 0.1 
0.1 0.1 0.1 0.1 0.1 0.1 0.1 0.1 0.1 
0.1 0.1 0.1 0.1 0.1 0.1 0.1 0.1 0.1 
0.1 0.1 0.1 0.1 0.1 0.1 0.1 0.1 0.1 
0.1 0.1 0.1 0.1 0.1 0.1 0.1 0.1 0.1 
0.1 0.1 0.1 0.1 0.1 0.1 0.1 0.1 0.1 
0.1 0.1 0.1 0.1 0.1 0.1 0.1 0.1 0.1 
0.1 0.1 0.1 0.1 0.1 0.1 0.1 0.1 0.1 
0.1 0.1 0.1 0.1 0.1 0.1 0.1 0.1 0.1 
0.1 0.1 0.1 0.1 0.1 0.1 0.1 0.1 0.1 
0.1 0.1 0.1 0.1 0.1 0.1 0.1 0.1 0.1 
0.1 0.1 0.1 0.1 0.1 0.1 0.1 0.1 0.1 
0.1 0.1 0.1 0.1 0.1 0.1 0.1 0.1 0.1 
0.1 0.1 0.1 0.1 0.1 0.1 0.1 0.1 0.1 
0.1 0.1 0.1 0.1 0.1 0.1 0.1 0.1 0.1 
0.1 0.1 0.1 0.1 0.1 0.1 0.1 0.1 0.1 
0.1 0.1 0.1 0.1 0.1 0.1 0.1 0.1 0.1 
0.1 0.1 0.1 0.1 0.1 0.1 0.1 0.1 0.1 
0.1 0.1 0.1 0.1 0.1 0.1 0.1 0.1 0.1 
0.1 0.1 0.1 0.1 0.1 0.1 0.1 0.1 0.1 
0.1 0.1 0.1 0.1 0.1 0.1 0.1 0.1 0.1 
0.1 0.1 0.1 0.1 0.1 0.1 0.1 0.1 0.1 
0.1 0.1 0.1 0.1 0.1 0.1 0.1 0.1 0.1 
0.1 0.1 0.1 0.1 0.1 0.1 0.1 0.1 0.1 
0.1 0.1 0.1 0.1 0.1 0.1 0.1 0.1 0.1 
0.1 0.1 0.1 0.1 0.1 0.1 0.1 0.1 0.1 
0.1 0.1 0.1 0.1 0.1 0.1 0.1 0.1 0.1 
0.1 0.1 0.1 0.1 0.1 0.1 0.1 0.1 0.1 
0.1 0.1 0.1 0.1 0.1 0.1 0.1 0.1 0.1 
0.1 0.1 0.1 0.1 0.1 0.1 0.1 0.1 0.1 
0.1 0.1 0.1 0.1 0.1 0.1 0.1 0.1 0.1 
0.1 0.1 0.1 0.1 0.1 0.1 0.1 0.1 0.1 
0.1 0.1 0.1 0.1 0.1 0.1 0.1 0.1 0.1 
0.1 0.1 0.1 0.1 0.1 0.1 0.1 0.1 0.1 
0.1 0.1 0.1 0.1 0.1 0.1 0.1 0.1 0.1 
0.1 0.1 0.1 0.1 0.1 0.1 0.1 0.1 0.1 
0.1 0.1 0.1 0.1 0.1 0.1 0.1 0.1 0.1 
0.1 0.1 0.1 0.1 0.1 0.1 0.1 0.1 0.1 
0.1 0.1 0.1 0.1 0.1 0.1 0.1 0.1 0.1 
0.1 0.1 0.1 0.1 0.1 0.1 0.1 0.1 0.1 
0.1 0.1 0.1 0.1 0.1 
a 3 1049 double
0 0 0 0 0 0 0 0 0 
0 0 0 0 0 0 0 0 0 
0 0 0 0 0 0 0 0 0 
0 0 0 0 0 0 0 0 0 
0 0 0 0 0 0 0 0 0 
0 0 0 0 0 0 0 0 0 
0 0 0 0 0 0 0 0 0 
0 0 0 0 0 0 0 0 0 
0 0 0 0 0 0 0 0 0 
0 0 0 0 0 0 0 0 0 
0 0 0 0 0 0 0 0 0 
0 0 0 0 0 0 0 0 0 
0 0 0 0 0 0 0 0 0 
0 0 0 0 0 0 0 0 0 
0 0 0 0 0 0 0 0 0 
0 0 0 0 0 0 0 0 0 
0 0 0 0 0 0 0 0 0 
0 0 0 0 0 0 0 0 0 
0 0 0 0 0 0 0 0 0 
0 0 0 0 0 0 0 0 0 
0 0 0 0 0 0 0 0 0 
0 0 0 0 0 0 0 0 0 
0 0 0 0 0 0 0 0 0 
0 0 0 0 0 0 0 0 0 
0 0 0 0 0 0 0 0 0 
0 0 0 0 0 0 0 0 0 
0 0 0 0 0 0 0 0 0 
0 0 0 0 0 0 0 0 0 
0 0 0 0 0 0 0 0 0 
0 0 0 0 0 0 0 0 0 
0 0 0 0 0 0 0 0 0 
0 0 0 0 0 0 0 0 0 
0 0 0 0 0 0 0 0 0 
0 0 0 0 0 0 0 0 0 
0 0 0 0 0 0 0 0 0 
0 0 0 0 0 0 0 0 0 
0 0 0 0 0 0 0 0 0 
0 0 0 0 0 0 0 0 0 
0 0 0 0 0 0 0 0 0 
0 0 0 0 0 0 0 0 0 
0 0 0 0 0 0 0 0 0 
0 0 0 0 0 0 0 0 0 
0 0 0 0 0 0 0 0 0 
0 0 0 0 0 0 0 0 0 
0 0 0 0 0 0 0 0 0 
0 0 0 0 0 0 0 0 0 
0 0 0 0 0 0 0 0 0 
0 0 0 0 0 0 0 0 0 
0 0 0 0 0 0 0 0 0 
0 0 0 0 0 0 0 0 0 
0 0 0 0 0 0 0 0 0 
0 0 0 0 0 0 0 0 0 
0 0 0 0 0 0 0 0 0 
0 0 0 0 0 0 0 0 0 
0 0 0 0 0 0 0 0 0 
0 0 0 0 0 0 0 0 0 
0 0 0 0 0 0 0 0 0 
0 0 0 0 0 0 0 0 0 
0 0 0 0 0 0 0 0 0 
0 0 0 0 0 0 0 0 0 
0 0 0 0 0 0 0 0 0 
0 0 0 0 0 0 0 0 0 
0 0 0 0 0 0 0 0 0 
0 0 0 0 0 0 0 0 0 
0 0 0 0 0 0 0 0 0 
0 0 0 0 0 0 0 0 0 
0 0 0 0 0 0 0 0 0 
0 0 0 0 0 0 0 0 0 
0 0 0 0 0 0 0 0 0 
0 0 0 0 0 0 0 0 0 
0 0 0 0 0 0 0 0 0 
0 0 0 0 0 0 0 0 0 
0 0 0 0 0 0 0 0 0 
0 0 0 0 0 0 0 0 0 
0 0 0 0 0 0 0 0 0 
0 0 0 0 0 0 0 0 0 
0 0 0 0 0 0 0 0 0 
0 0 0 0 0 0 0 0 0 
0 0 0 0 0 0 0 0 0 
0 0 0 0 0 0 0 0 0 
0 0 0 0 0 0 0 0 0 
0 0 0 0 0 0 0 0 0 
0 0 0 0 0 0 0 0 0 
0 0 0 0 0 0 0 0 0 
0 0 0 0 0 0 0 0 0 
0 0 0 0 0 0 0 0 0 
0 0 0 0 0 0 0 0 0 
0 0 0 0 0 0 0 0 0 
0 0 0 0 0 0 0 0 0 
0 0 0 0 0 0 0 0 0 
0 0 0 0 0 0 0 0 0 
0 0 0 0 0 0 0 0 0 
0 0 0 0 0 0 0 0 0 
0 0 0 0 0 0 0 0 0 
0 0 0 0 0 0 0 0 0 
0 0 0 0 0 0 0 0 0 
0 0 0 0 0 0 0 0 0 
0 0 0 0 0 0 0 0 0 
0 0 0 0 0 0 0 0 0 
0 0 0 0 0 0 0 0 0 
0 0 0 0 0 0 0 0 0 
0 0 0 0 0 0 0 0 0 
0 0 0 0 0 0 0 0 0 
0 0 0 0 0 0 0 0 0 
0 0 0 0 0 0 0 0 0 
0 0 0 0 0 0 0 0 0 
0 0 0 0 0 0 0 0 0 
0 0 0 0 0 0 0 0 0 
0 0 0 0 0 0 0 0 0 
0 0 0 0 0 0 0 0 0 
0 0 0 0 0 0 0 0 0 
0 0 0 0 0 0 0 0 0 
0 0 0 0 0 0 0 0 0 
0 0 0 0 0 0 0 0 0 
0 0 0 0 0 0 0 0 0 
0 0 0 0 0 0 0 0 0 
0 0 0 0 0 0 0 0 0 
0 0 0 0 0 0 0 0 0 
0 0 0 0 0 0 0 0 0 
0 0 0 0 0 0 0 0 0 
0 0 0 0 0 0 0 0 0 
0 0 0 0 0 0 0 0 0 
0 0 0 0 0 0 0 0 0 
0 0 0 0 0 0 0 0 0 
0 0 0 0 0 0 0 0 0 
0 0 0 0 0 0 0 0 0 
0 0 0 0 0 0 0 0 0 
0 0 0 0 0 0 0 0 0 
0 0 0 0 0 0 0 0 0 
0 0 0 0 0 0 0 0 0 
0 0 0 0 0 0 0 0 0 
0 0 0 0 0 0 0 0 0 
0 0 0 0 0 0 0 0 0 
0 0 0 0 0 0 0 0 0 
0 0 0 0 0 0 0 0 0 
0 0 0 0 0 0 0 0 0 
0 0 0 0 0 0 0 0 0 
0 0 0 0 0 0 0 0 0 
0 0 0 0 0 0 0 0 0 
0 0 0 0 0 0 0 0 0 
0 0 0 0 0 0 0 0 0 
0 0 0 0 0 0 0 0 0 
0 0 0 0 0 0 0 0 0 
0 0 0 0 0 0 0 0 0 
0 0 0 0 0 0 0 0 0 
0 0 0 0 0 0 0 0 0 
0 0 0 0 0 0 0 0 0 
0 0 0 0 0 0 0 0 0 
0 0 0 0 0 0 0 0 0 
0 0 0 0 0 0 0 0 0 
0 0 0 0 0 0 0 0 0 
0 0 0 0 0 0 0 0 0 
0 0 0 0 0 0 0 0 0 
0 0 0 0 0 0 0 0 0 
0 0 0 0 0 0 0 0 0 
0 0 0 0 0 0 0 0 0 
0 0 0 0 0 0 0 0 0 
0 0 0 0 0 0 0 0 0 
0 0 0 0 0 0 0 0 0 
0 0 0 0 0 0 0 0 0 
0 0 0 0 0 0 0 0 0 
0 0 0 0 0 0 0 0 0 
0 0 0 0 0 0 0 0 0 
0 0 0 0 0 0 0 0 0 
0 0 0 0 0 0 0 0 0 
0 0 0 0 0 0 0 0 0 
0 0 0 0 0 0 0 0 0 
0 0 0 0 0 0 0 0 0 
0 0 0 0 0 0 0 0 0 
0 0 0 0 0 0 0 0 0 
0 0 0 0 0 0 0 0 0 
0 0 0 0 0 0 0 0 0 
0 0 0 0 0 0 0 0 0 
0 0 0 0 0 0 0 0 0 
0 0 0 0 0 0 0 0 0 
0 0 0 0 0 0 0 0 0 
0 0 0 0 0 0 0 0 0 
0 0 0 0 0 0 0 0 0 
0 0 0 0 0 0 0 0 0 
0 0 0 0 0 0 0 0 0 
0 0 0 0 0 0 0 0 0 
0 0 0 0 0 0 0 0 0 
0 0 0 0 0 0 0 0 0 
0 0 0 0 0 0 0 0 0 
0 0 0 0 0 0 0 0 0 
0 0 0 0 0 0 0 0 0 
0 0 0 0 0 0 0 0 0 
0 0 0 0 0 0 0 0 0 
0 0 0 0 0 0 0 0 0 
0 0 0 0 0 0 0 0 0 
0 0 0 0 0 0 0 0 0 
0 0 0 0 0 0 0 0 0 
0 0 0 0 0 0 0 0 0 
0 0 0 0 0 0 0 0 0 
0 0 0 0 0 0 0 0 0 
0 0 0 0 0 0 0 0 0 
0 0 0 0 0 0 0 0 0 
0 0 0 0 0 0 0 0 0 
0 0 0 0 0 0 0 0 0 
0 0 0 0 0 0 0 0 0 
0 0 0 0 0 0 0 0 0 
0 0 0 0 0 0 0 0 0 
0 0 0 0 0 0 0 0 0 
0 0 0 0 0 0 0 0 0 
0 0 0 0 0 0 0 0 0 
0 0 0 0 0 0 0 0 0 
0 0 0 0 0 0 0 0 0 
0 0 0 0 0 0 0 0 0 
0 0 0 0 0 0 0 0 0 
0 0 0 0 0 0 0 0 0 
0 0 0 0 0 0 0 0 0 
0 0 0 0 0 0 0 0 0 
0 0 0 0 0 0 0 0 0 
0 0 0 0 0 0 0 0 0 
0 0 0 0 0 0 0 0 0 
0 0 0 0 0 0 0 0 0 
0 0 0 0 0 0 0 0 0 
0 0 0 0 0 0 0 0 0 
0 0 0 0 0 0 0 0 0 
0 0 0 0 0 0 0 0 0 
0 0 0 0 0 0 0 0 0 
0 0 0 0 0 0 0 0 0 
0 0 0 0 0 0 0 0 0 
0 0 0 0 0 0 0 0 0 
0 0 0 0 0 0 0 0 0 
0 0 0 0 0 0 0 0 0 
0 0 0 0 0 0 0 0 0 
0 0 0 0 0 0 0 0 0 
0 0 0 0 0 0 0 0 0 
0 0 0 0 0 0 0 0 0 
0 0 0 0 0 0 0 0 0 
0 0 0 0 0 0 0 0 0 
0 0 0 0 0 0 0 0 0 
0 0 0 0 0 0 0 0 0 
0 0 0 0 0 0 0 0 0 
0 0 0 0 0 0 0 0 0 
0 0 0 0 0 0 0 0 0 
0 0 0 0 0 0 0 0 0 
0 0 0 0 0 0 0 0 0 
0 0 0 0 0 0 0 0 0 
0 0 0 0 0 0 0 0 0 
0 0 0 0 0 0 0 0 0 
0 0 0 0 0 0 0 0 0 
0 0 0 0 0 0 0 0 0 
0 0 0 0 0 0 0 0 0 
0 0 0 0 0 0 0 0 0 
0 0 0 0 0 0 0 0 0 
0 0 0 0 0 0 0 0 0 
0 0 0 0 0 0 0 0 0 
0 0 0 0 0 0 0 0 0 
0 0 0 0 0 0 0 0 0 
0 0 0 0 0 0 0 0 0 
0 0 0 0 0 0 0 0 0 
0 0 0 0 0 0 0 0 0 
0 0 0 0 0 0 0 0 0 
0 0 0 0 0 0 0 0 0 
0 0 0 0 0 0 0 0 0 
0 0 0 0 0 0 0 0 0 
0 0 0 0 0 0 0 0 0 
0 0 0 0 0 0 0 0 0 
0 0 0 0 0 0 0 0 0 
0 0 0 0 0 0 0 0 0 
0 0 0 0 0 0 0 0 0 
0 0 0 0 0 0 0 0 0 
0 0 0 0 0 0 0 0 0 
0 0 0 0 0 0 0 0 0 
0 0 0 0 0 0 0 0 0 
0 0 0 0 0 0 0 0 0 
0 0 0 0 0 0 0 0 0 
0 0 0 0 0 0 0 0 0 
0 0 0 0 0 0 0 0 0 
0 0 0 0 0 0 0 0 0 
0 0 0 0 0 0 0 0 0 
0 0 0 0 0 0 0 0 0 
0 0 0 0 0 0 0 0 0 
0 0 0 0 0 0 0 0 0 
0 0 0 0 0 0 0 0 0 
0 0 0 0 0 0 0 0 0 
0 0 0 0 0 0 0 0 0 
0 0 0 0 0 0 0 0 0 
0 0 0 0 0 0 0 0 0 
0 0 0 0 0 0 0 0 0 
0 0 0 0 0 0 0 0 0 
0 0 0 0 0 0 0 0 0 
0 0 0 0 0 0 0 0 0 
0 0 0 0 0 0 0 0 0 
0 0 0 0 0 0 0 0 0 
0 0 0 0 0 0 0 0 0 
0 0 0 0 0 0 0 0 0 
0 0 0 0 0 0 0 0 0 
0 0 0 0 0 0 0 0 0 
0 0 0 0 0 0 0 0 0 
0 0 0 0 0 0 0 0 0 
0 0 0 0 0 0 0 0 0 
0 0 0 0 0 0 0 0 0 
0 0 0 0 0 0 0 0 0 
0 0 0 0 0 0 0 0 0 
0 0 0 0 0 0 0 0 0 
0 0 0 0 0 0 0 0 0 
0 0 0 0 0 0 0 0 0 
0 0 0 0 0 0 0 0 0 
0 0 0 0 0 0 0 0 0 
0 0 0 0 0 0 0 0 0 
0 0 0 0 0 0 0 0 0 
0 0 0 0 0 0 0 0 0 
0 0 0 0 0 0 0 0 0 
0 0 0 0 0 0 0 0 0 
0 0 0 0 0 0 0 0 0 
0 0 0 0 0 0 0 0 0 
0 0 0 0 0 0 0 0 0 
0 0 0 0 0 0 0 0 0 
0 0 0 0 0 0 0 0 0 
0 0 0 0 0 0 0 0 0 
0 0 0 0 0 0 0 0 0 
0 0 0 0 0 0 0 0 0 
0 0 0 0 0 0 0 0 0 
0 0 0 0 0 0 0 0 0 
0 0 0 0 0 0 0 0 0 
0 0 0 0 0 0 0 0 0 
0 0 0 0 0 0 0 0 0 
0 0 0 0 0 0 0 0 0 
0 0 0 0 0 0 0 0 0 
0 0 0 0 0 0 0 0 0 
0 0 0 0 0 0 0 0 0 
0 0 0 0 0 0 0 0 0 
0 0 0 0 0 0 0 0 0 
0 0 0 0 0 0 0 0 0 
0 0 0 0 0 0 0 0 0 
0 0 0 0 0 0 0 0 0 
0 0 0 0 0 0 0 0 0 
0 0 0 0 0 0 0 0 0 
0 0 0 0 0 0 0 0 0 
0 0 0 0 0 0 0 0 0 
0 0 0 0 0 0 0 0 0 
0 0 0 0 0 0 0 0 0 
0 0 0 0 0 0 0 0 0 
0 0 0 0 0 0 0 0 0 
0 0 0 0 0 0 0 0 0 
0 0 0 0 0 0 0 0 0 
0 0 0 0 0 0 0 0 0 
0 0 0 0 0 0 0 0 0 
0 0 0 0 0 0 0 0 0 
0 0 0 0 0 0 0 0 0 
0 0 0 0 0 0 0 0 0 
0 0 0 0 0 0 0 0 0 
0 0 0 0 0 0 0 0 0 
0 0 0 0 0 0 0 0 0 
0 0 0 0 0 0 0 0 0 
0 0 0 0 0 0 0 0 0 
0 0 0 0 0 0 
v 3 1049 double
0.0200153 -0.0172964 0 0.020702 0.0554125 0 -0.0168683 -0.0104357 0 
-0.0547184 -0.0640722 0 -0.158274 -0.127476 0 -0.141757 -0.173219 0 
0.00401946 -0.0483269 0 0.539674 0.579044 0 0.0314015 -0.0742536 0 
-0.0654496 0.203106 0 -0.150708 0.394469 0 0.0893944 -0.299611 0 
-0.530265 0.591074 0 0.0596641 0.325777 0 -0.118398 -0.615933 0 
-1.541 1.66476 0 -0.392251 -0.200141 0 0.713181 -0.536811 0 
0.921452 -0.385859 0 0.0380511 -0.0151199 0 -0.168335 0.0805831 0 
-0.502834 -0.0909108 0 0.195343 -0.0886263 0 -0.145034 -0.246592 0 
-0.0425453 -0.11277 0 1.04259 0.390108 0 0.233006 0.260422 0 
0.433083 0.325533 0 -0.807045 -1.30146 0 3.95667 0.773885 0 
-1.08444 -7.41812 0 -3.89518 2.14569 0 -1.0097 3.96928 0 
-1.06555 -2.53453 0 1.94125 5.48119 0 5.25939 0.464534 0 
-1.42269 -1.75728 0 4.2587 -1.94914 0 3.15808 -1.13207 0 
-2.12084 3.16988 0 4.81321 2.43641 0 -10.078 -0.668968 0 
-5.08494 -4.66775 0 1.50715 -0.407418 0 -0.513777 0.141431 0 
-0.238855 -0.108994 0 -2.7664 1.02994 0 1.04102 -0.355313 0 
-3.67788 -0.548086 0 0.0774735 -0.039996 0 -0.178385 0.0828322 0 
-0.0851054 -0.0758658 0 -0.550223 0.689503 0 1.18595 -0.157933 0 
-0.147722 -0.777309 0 -1.75455 -0.137913 0 1.33626 2.25055 0 
-5.44108 -5.47933 0 1.87541 4.52399 0 -2.08225 -0.638049 0 
-3.08249 -0.776811 0 -1.96592 -5.29608 0 4.48338 7.02963 0 
4.48832 5.99253 0 4.83204 1.30129 0 -3.78745 -4.51649 0 
1.52539 3.78506 0 -2.18556 0.981016 0 0.133073 -2.82758 0 
2.19781 2.29444 0 -2.97004 -5.87139 0 2.86562 -4.60394 0 
-1.10635 1.59051 0 -3.34694 0.330007 0 -0.723169 -0.115824 0 
1.34964 0.766404 0 0.921223 -0.431571 0 1.07573 -0.745375 0 
-0.804799 0.772941 0 -0.145824 0.0458874 0 0.121742 -0.0947467 0 
0.3237 -0.298062 0 0.343814 -0.296594 0 0.130084 -0.0145342 0 
-0.195593 -0.249414 0 0.29388 -0.43438 0 0.222493 0.016709 0 
0.427632 0.179637 0 2.29873 -0.533726 0 -0.194359 0.408524 0 
-2.04551 0.450244 0 0.19428 -1.02644 0 1.04611 -0.608441 0 
-0.25378 -0.0509602 0 0.348817 0.298774 0 -1.2226 -0.789746 0 
0.380149 -1.72945 0 2.56064 0.410403 0 0.64955 4.31632 0 
1.20955 -0.39176 0 -0.204028 -0.295564 0 -0.137538 0.28622 0 
-0.105361 0.040527 0 -3.12779 0.40641 0 0.00478624 0.0191892 0 
-0.0644508 -0.04912 0 0.343351 -0.387772 0 0.185689 -0.0188071 0 
-0.0795162 0.340777 0 -0.0528992 -0.129325 0 0.00522782 0.023447 0 
-0.00778954 0.197726 0 -0.0989432 -0.0324447 0 -0.644278 -0.548349 0 
-0.526666 -0.384856 0 -0.55485 -0.448321 0 -0.547995 -0.440656 0 
-0.551622 -0.448457 0 -0.535882 -0.435086 0 -0.537042 -0.435816 0 
0 0 0 0 0 0 0 0 0 
0 0 0 0 0 0 0 0 0 
0 0 0 0 0 0 0 0 0 
0 0 0 0 0 0 0 0 0 
0 0 0 0 0 0 0 0 0 
0 0 0 0 0 0 0 0 0 
0 0 0 0 0 0 0 0 0 
0 0 0 0 0 0 0 0 0 
0 0 0 0 0 0 0 0 0 
0 0 0 0 0 0 0 0 0 
0 0 0 0 0 0 0 0 0 
0 0 0 0 0 0 0 0 0 
0 0 0 0 0 0 0 0 0 
0 0 0 0 0 0 0 0 0 
0 0 0 0 0 0 0 0 0 
0 0 0 0 0 0 0 0 0 
0 0 0 0 0 0 0 0 0 
0 0 0 0 0 0 0 0 0 
0 0 0 0 0 0 0 0 0 
0 0 0 0 0 0 0 0 0 
0 0 0 0 0 0 0 0 0 
0 0 0 0 0 0 0 0 0 
0 0 0 0 0 0 0 0 0 
0 0 0 0 0 0 0 0 0 
0 0 0 0 0 0 0 0 0 
0 0 0 0 0 0 0 0 0 
0 0 0 0 0 0 0 0 0 
0 0 0 0 0 0 0 0 0 
0 0 0 0 0 0 0 0 0 
0 0 0 0 0 0 0 0 0 
0 0 0 0 0 0 0 0 0 
0 0 0 0 0 0 0 0 0 
0 0 0 0 0 0 0 0 0 
0 0 0 0 0 0 0 0 0 
0 0 0 0 0 0 0 0 0 
0 0 0 0 0 0 0 0 0 
0 0 0 0 0 0 0 0 0 
0 0 0 0 0 0 0 0 0 
0 0 0 0 0 0 0 0 0 
0 0 0 0 0 0 0 0 0 
0 0 0 0 0 0 0 0 0 
0 0 0 0 0 0 0 0 0 
0 0 0 0 0 0 0 0 0 
0 0 0 0 0 0 0 0 0 
0 0 0 0 0 0 0 0 0 
0 0 0 0 0 0 0 0 0 
0 0 0 0 0 0 0 0 0 
0 0 0 0 0 0 0 0 0 
0 0 0 0 0 0 0 0 0 
0 0 0 0 0 0 0 0 0 
0 0 0 0 0 0 0 0 0 
0 0 0 0 0 0 0 0 0 
0 0 0 0 0 0 0 0 0 
0 0 0 0 0 0 0 0 0 
0 0 0 0 0 0 0 0 0 
0 0 0 0 0 0 0 0 0 
0 0 0 0 0 0 0 0 0 
0 0 0 0 0 0 0 0 0 
0 0 0 0 0 0 0 0 0 
0 0 0 0 0 0 0 0 0 
0 0 0 0 0 0 0 0 0 
0 0 0 0 0 0 0 0 0 
0 0 0 0 0 0 0 0 0 
0 0 0 0 0 0 0 0 0 
0 0 0 0 0 0 0 0 0 
0 0 0 0 0 0 0 0 0 
0 0 0 0 0 0 0 0 0 
0 0 0 0 0 0 0 0 0 
0 0 0 0 0 0 0 0 0 
0 0 0 0 0 0 0 0 0 
0 0 0 0 0 0 0 0 0 
0 0 0 0 0 0 0 0 0 
0 0 0 0 0 0 0 0 0 
0 0 0 0 0 0 0 0 0 
0 0 0 0 0 0 0 0 0 
0 0 0 0 0 0 0 0 0 
0 0 0 0 0 0 0 0 0 
0 0 0 0 0 0 0 0 0 
0 0 0 0 0 0 0 0 0 
0 0 0 0 0 0 0 0 0 
0 0 0 0 0 0 0 0 0 
0 0 0 0 0 0 0 0 0 
0 0 0 0 0 0 0 0 0 
0 0 0 0 0 0 0 0 0 
0 0 0 0 0 0 0 0 0 
0 0 0 0 0 0 0 0 0 
0 0 0 0 0 0 0 0 0 
0 0 0 0 0 0 0 0 0 
0 0 0 0 0 0 0 0 0 
0 0 0 0 0 0 0 0 0 
0 0 0 0 0 0 0 0 0 
0 0 0 0 0 0 0 0 0 
0 0 0 0 0 0 0 0 0 
0 0 0 0 0 0 0 0 0 
0 0 0 0 0 0 0 0 0 
0 0 0 0 0 0 0 0 0 
0 0 0 0 0 0 0 0 0 
0 0 0 0 0 0 0 0 0 
0 0 0 0 0 0 0 0 0 
0 0 0 0 0 0 0 0 0 
0 0 0 0 0 0 0 0 0 
0 0 0 0 0 0 0 0 0 
0 0 0 0 0 0 0 0 0 
0 0 0 0 0 0 0 0 0 
0 0 0 0 0 0 0 0 0 
0 0 0 0 0 0 0 0 0 
0 0 0 0 0 0 0 0 0 
0 0 0 0 0 0 0 0 0 
0 0 0 0 0 0 0 0 0 
0 0 0 0 0 0 0 0 0 
0 0 0 0 0 0 0 0 0 
0 0 0 0 0 0 0 0 0 
0 0 0 0 0 0 0 0 0 
0 0 0 0 0 0 0 0 0 
0 0 0 0 0 0 0 0 0 
0 0 0 0 0 0 0 0 0 
0 0 0 0 0 0 0 0 0 
0 0 0 0 0 0 0 0 0 
0 0 0 0 0 0 0 0 0 
0 0 0 0 0 0 0 0 0 
0 0 0 0 0 0 0 0 0 
0 0 0 0 0 0 0 0 0 
0 0 0 0 0 0 0 0 0 
0 0 0 0 0 0 0 0 0 
0 0 0 0 0 0 0 0 0 
0 0 0 0 0 0 0 0 0 
0 0 0 0 0 0 0 0 0 
0 0 0 0 0 0 0 0 0 
0 0 0 0 0 0 0 0 0 
0 0 0 0 0 0 0 0 0 
0 0 0 0 0 0 0 0 0 
0 0 0 0 0 0 0 0 0 
0 0 0 0 0 0 0 0 0 
0 0 0 0 0 0 0 0 0 
0 0 0 0 0 0 0 0 0 
0 0 0 0 0 0 0 0 0 
0 0 0 0 0 0 0 0 0 
0 0 0 0 0 0 0 0 0 
0 0 0 0 0 0 0 0 0 
0 0 0 0 0 0 0 0 0 
0 0 0 0 0 0 0 0 0 
0 0 0 0 0 0 0 0 0 
0 0 0 0 0 0 0 0 0 
0 0 0 0 0 0 0 0 0 
0 0 0 0 0 0 0 0 0 
0 0 0 0 0 0 0 0 0 
0 0 0 0 0 0 0 0 0 
0 0 0 0 0 0 0 0 0 
0 0 0 0 0 0 0 0 0 
0 0 0 0 0 0 0 0 0 
0 0 0 0 0 0 0 0 0 
0 0 0 0 0 0 0 0 0 
0 0 0 0 0 0 0 0 0 
0 0 0 0 0 0 0 0 0 
0 0 0 0 0 0 0 0 0 
0 0 0 0 0 0 0 0 0 
0 0 0 0 0 0 0 0 0 
0 0 0 0 0 0 0 0 0 
0 0 0 0 0 0 0 0 0 
0 0 0 0 0 0 0 0 0 
0 0 0 0 0 0 0 0 0 
0 0 0 0 0 0 0 0 0 
0 0 0 0 0 0 0 0 0 
0 0 0 0 0 0 0 0 0 
0 0 0 0 0 0 0 0 0 
0 0 0 0 0 0 0 0 0 
0 0 0 0 0 0 0 0 0 
0 0 0 0 0 0 0 0 0 
0 0 0 0 0 0 0 0 0 
0 0 0 0 0 0 0 0 0 
0 0 0 0 0 0 0 0 0 
0 0 0 0 0 0 0 0 0 
0 0 0 0 0 0 0 0 0 
0 0 0 0 0 0 0 0 0 
0 0 0 0 0 0 0 0 0 
0 0 0 0 0 0 0 0 0 
0 0 0 0 0 0 0 0 0 
0 0 0 0 0 0 0 0 0 
0 0 0 0 0 0 0 0 0 
0 0 0 0 0 0 0 0 0 
0 0 0 0 0 0 0 0 0 
0 0 0 0 0 0 0 0 0 
0 0 0 0 0 0 0 0 0 
0 0 0 0 0 0 0 0 0 
0 0 0 0 0 0 0 0 0 
0 0 0 0 0 0 0 0 0 
0 0 0 0 0 0 0 0 0 
0 0 0 0 0 0 0 0 0 
0 0 0 0 0 0 0 0 0 
0 0 0 0 0 0 0 0 0 
0 0 0 0 0 0 0 0 0 
0 0 0 0 0 0 0 0 0 
0 0 0 0 0 0 0 0 0 
0 0 0 0 0 0 0 0 0 
0 0 0 0 0 0 0 0 0 
0 0 0 0 0 0 0 0 0 
0 0 0 0 0 0 0 0 0 
0 0 0 0 0 0 0 0 0 
0 0 0 0 0 0 0 0 0 
0 0 0 0 0 0 0 0 0 
0 0 0 0 0 0 0 0 0 
0 0 0 0 0 0 0 0 0 
0 0 0 0 0 0 0 0 0 
0 0 0 0 0 0 0 0 0 
0 0 0 0 0 0 0 0 0 
0 0 0 0 0 0 0 0 0 
0 0 0 0 0 0 0 0 0 
0 0 0 0 0 0 0 0 0 
0 0 0 0 0 0 0 0 0 
0 0 0 0 0 0 0 0 0 
0 0 0 0 0 0 0 0 0 
0 0 0 0 0 0 0 0 0 
0 0 0 0 0 0 0 0 0 
0 0 0 0 0 0 0 0 0 
0 0 0 0 0 0 0 0 0 
0 0 0 0 0 0 0 0 0 
0 0 0 0 0 0 0 0 0 
0 0 0 0 0 0 0 0 0 
0 0 0 0 0 0 0 0 0 
0 0 0 0 0 0 0 0 0 
0 0 0 0 0 0 0 0 0 
0 0 0 0 0 0 0 0 0 
0 0 0 0 0 0 0 0 0 
0 0 0 0 0 0 0 0 0 
0 0 0 0 0 0 0 0 0 
0 0 0 0 0 0 0 0 0 
0 0 0 0 0 0 0 0 0 
0 0 0 0 0 0 0 0 0 
0 0 0 0 0 0 0 0 0 
0 0 0 0 0 0 0 0 0 
0 0 0 0 0 0 0 0 0 
0 0 0 0 0 0 0 0 0 
0 0 0 0 0 0 0 0 0 
0 0 0 0 0 0 0 0 0 
0 0 0 0 0 0 0 0 0 
0 0 0 0 0 0 0 0 0 
0 0 0 0 0 0 0 0 0 
0 0 0 0 0 0 0 0 0 
0 0 0 0 0 0 0 0 0 
0 0 0 0 0 0 0 0 0 
0 0 0 0 0 0 0 0 0 
0 0 0 0 0 0 0 0 0 
0 0 0 0 0 0 0 0 0 
0 0 0 0 0 0 0 0 0 
0 0 0 0 0 0 0 0 0 
0 0 0 0 0 0 0 0 0 
0 0 0 0 0 0 0 0 0 
0 0 0 0 0 0 0 0 0 
0 0 0 0 0 0 0 0 0 
0 0 0 0 0 0 0 0 0 
0 0 0 0 0 0 0 0 0 
0 0 0 0 0 0 0 0 0 
0 0 0 0 0 0 0 0 0 
0 0 0 0 0 0 0 0 0 
0 0 0 0 0 0 0 0 0 
0 0 0 0 0 0 0 0 0 
0 0 0 0 0 0 0 0 0 
0 0 0 0 0 0 0 0 0 
0 0 0 0 0 0 0 0 0 
0 0 0 0 0 0 0 0 0 
0 0 0 0 0 0 0 0 0 
0 0 0 0 0 0 0 0 0 
0 0 0 0 0 0 0 0 0 
0 0 0 0 0 0 0 0 0 
0 0 0 0 0 0 0 0 0 
0 0 0 0 0 0 0 0 0 
0 0 0 0 0 0 0 0 0 
0 0 0 0 0 0 0 0 0 
0 0 0 0 0 0 0 0 0 
0 0 0 0 0 0 0 0 0 
0 0 0 0 0 0 0 0 0 
0 0 0 0 0 0 0 0 0 
0 0 0 0 0 0 0 0 0 
0 0 0 0 0 0 0 0 0 
0 0 0 0 0 0 0 0 0 
0 0 0 0 0 0 0 0 0 
0 0 0 0 0 0 0 0 0 
0 0 0 0 0 0 0 0 0 
0 0 0 0 0 0 0 0 0 
0 0 0 0 0 0 0 0 0 
0 0 0 0 0 0 0 0 0 
0 0 0 0 0 0 0 0 0 
0 0 0 0 0 0 0 0 0 
0 0 0 0 0 0 0 0 0 
0 0 0 0 0 0 0 0 0 
0 0 0 0 0 0 0 0 0 
0 0 0 0 0 0 0 0 0 
0 0 0 0 0 0 0 0 0 
0 0 0 0 0 0 0 0 0 
0 0 0 0 0 0 0 0 0 
0 0 0 0 0 0 0 0 0 
0 0 0 0 0 0 0 0 0 
0 0 0 0 0 0 0 0 0 
0 0 0 0 0 0 0 0 0 
0 0 0 0 0 0 0 0 0 
0 0 0 0 0 0 0 0 0 
0 0 0 0 0 0 0 0 0 
0 0 0 0 0 0 0 0 0 
0 0 0 0 0 0 0 0 0 
0 0 0 0 0 0 0 0 0 
0 0 0 0 0 0 0 0 0 
0 0 0 0 0 0 0 0 0 
0 0 0 0 0 0 0 0 0 
0 0 0 0 0 0 0 0 0 
0 0 0 0 0 0 0 0 0 
0 0 0 0 0 0 0 0 0 
0 0 0 0 0 0 0 0 0 
0 0 0 0 0 0 0 0 0 
0 0 0 0 0 0 0 0 0 
0 0 0 0 0 0 
x 1 1049 double
-1.21515 -0.567614 0.814677 0.242775 -1.59519 -1.40909 -1.98449 -1.03145 -0.86341 
-0.0600816 -0.135248 -0.382891 -0.534401 0.429374 0.0837426 0.98882 0.883561 0.471864 
1.37537 1.30656 1.81434 1.88744 2.36153 -2.33939 -2.13797 -2.00333 -1.76156 
-1.27544 -1.24325 -0.179811 -0.00291443 -0.382298 -0.464168 -0.533221 -0.753762 -0.127974 
-0.869865 0.714127 0.598271 0.210217 0.697301 0.41342 0.242364 1.50117 1.95695 
1.96558 1.10251 1.46865 1.11697 2.4603 -2.43264 -2.31443 -1.85458 -1.39584 
-1.84122 -1.52927 -1.23392 -0.0422771 -0.0331255 -0.962059 -0.856019 -0.672919 -0.263973 
-0.525607 -0.954528 -0.328166 0.306477 0.66456 0.896309 0.463166 0.179501 0.436921 
0.980729 1.20058 1.7341 1.5099 1.46247 1.23584 1.98844 2.60446 2.55693 
2.16766 -2.26463 -2.57697 -1.77125 -1.33576 -1.83769 -1.35861 -0.595616 -0.929872 
-0.174692 -0.485151 -0.0481877 -0.878496 0.958753 0.458057 0.847968 0.637723 0.265436 
1.56553 1.98793 1.38273 1.83536 1.16282 2.33986 2.60614 -2.39601 -1.35082 
-0.381828 -0.745724 0.103416 0.586827 1.42862 2.61093 3.37406 5.0392 5.72325 
6.44418 7.32179 8.04899 -15 -14.4643 -14.1071 -15 -14.2857 -14.6429 
-15 -15 -15 -14.8214 -13.3929 -13.2143 -13.0357 -13.5714 -13.9286 
-13.75 -12.5 -12.8571 -12.6786 -11.3214 -11.5 -11.1429 -10.4286 -10.9643 
-10.6071 -10.25 -10.7857 -10.0714 -9.8929 -9.7143 -9.5357 -9.1786 -9.3571 
-8.2 -9 -8.4 -9 -8.8 -9 -9 -9 -8.6 
-7.8 -7.6 -7.4 -7.2 -8 -6.8 -6.2 -6.4 -6.6 
-7 -5.4 -5.2 -6 -5.8 -5.6 -4.8 -4.6 -4.4 
-5 -4.2 -3.8 -3.2 -4 -3.6 -3.4 -2.4 -3 
-3 -3 -3 -2.6 -2.2 -3 -2.8 -1.8 -1.6 
-1.4 -2 -1.2 -0.4 -0.6 -0.8 -0.2 -1 -0 
0.4 0.2 0.6 0.8 1.8 1.4 1.2 1.6 1 
2 2.2 2.8 2.4 2.6 3.8 3 3.6 3 
3 3 3 3.2 3.4 4.8 4.6 4.4 4.2 
4 5 5.2 5.6 5.8 5.4 6 6.6 6.8 
6.4 6.2 7 7.4 7.8 7.2 7.6 8.4 8.2 
8.8 8.6 8 9.7143 9.8929 9.1786 9 9.3571 9.5357 
9 9 9 9 10.0714 10.4286 10.25 10.7857 10.6071 
10.9643 11.5 11.1429 11.3214 12.8571 12.5 12.6786 13.75 13.3929 
13.5714 13.2143 13.9286 13.0357 14.4643 14.1071 14.8214 14.2857 14.6429 
15 15 15 15 15 -15 -15 -15 -15 
-15 -9 -9 -9 -9 -9 -3 -3 -3 
-3 -3 3 3 3 3 3 9 9 
9 9 9 15 15 15 15 15 -15 
-15 -15 -15 -15 -9 -9 -9 -9 -9 
-3 -3 -3 -3 -3 3 3 3 3 
3 9 9 9 9 9 15 15 15 
15 15 -15 -15 -15 -15 -15 -9 -9 
-9 -9 -9 -3 -3 -3 -3 -3 3 
3 3 3 3 9 9 9 9 9 
15 15 15 15 15 -15 -15 -15 -15 
-15 -9 -9 -9 -9 -9 -3 -3 -3 
-3 -3 3 3 3 3 3 9 9 
9 9 9 15 15 15 15 15 -15 
-15 -15 -15 -15 -9 -9 -9 -9 -9 
-3 -3 -3 -3 -3 3 3 3 3 
3 9 9 9 9 9 15 15 15 
15 15 -15 -15 -15 -15 -15 -9 -9 
-9 -9 -9 -3 -3 -3 -3 -3 3 
3 3 3 3 9 9 9 9 9 
15 15 15 15 15 -15 -15 -15 -15 
-15 -9 -9 -9 -9 -9 -3 -3 -3 
-3 -3 3 3 3 3 3 9 9 
9 9 9 15 15 15 15 15 -15 
-15 -15 -15 -15 -8.2857 -8.4643 -8.8214 -8.6429 -8.1071 
-9 -7.75 -7.2143 -7.3929 -7.0357 -7.9286 -7.5714 -6.8571 -6.5 
-6.6786 -5.1429 -5.5 -5.3214 -4.9643 -4.6071 -4.25 -4.7857 -4.4286 
-4.0714 -3.8929 -3.7143 -3.5357 -3.1786 -3.3571 -3 -2.6429 -2.8214 
-2.2857 -2.4643 -2.1071 -1.75 -1.2143 -1.5714 -1.0357 -1.3929 -1.9286 
-0.5 -0.6786 -0.8571 0.8571 0.6786 0.5 1.5714 1.2143 1.75 
1.3929 1.0357 1.9286 2.1071 2.2857 2.6429 2.8214 2.4643 3.3571 
3.5357 3.7143 3.1786 3.8929 3 4.4286 4.6071 4.7857 4.0714 
4.25 4.9643 5.5 5.3214 5.1429 6.5 6.8571 6.6786 7.0357 
7.75 7.2143 7.5714 7.9286 7.3929 8.1071 8.2857 8.4643 8.8214 
8.6429 9 9 15 15 15 15 15 -15 
-15 -15 -15 -15 15 15 15 15 15 
-14.3333 -15 -15 -14.6667 -15 -15 -14.1667 -15 -14.8333 
-14.5 -14 -12.2 -13 -12.6 -12.4 -12.8 -11.2 -11.6 
-12 -11.4 -11.8 -10.4 -11 -10.6 -10.8 -10.2 -9.4 
-9.2 -9.6 -9.8 -10 -9 -8.6429 -9 -9 -8.4643 
-9 -9 -8.1071 -8.2857 -8.8214 -7.75 -7.2143 -7.9286 -7.5714 
-7.0357 -7.3929 -6.6786 -6.5 -6.8571 -5.1429 -5.3214 -5.5 -4.0714 
-4.9643 -4.6071 -4.4286 -4.7857 -4.25 -3.8929 -3.7143 -3.3571 -3.1786 
-3.5357 -2.4 -2.2 -2.8 -3 -3 -3 -3 -3 
-2.6 -1.8 -1.2 -1.6 -2 -1.4 -0.8 -1 -0.4 
-0.6 -0.2 0.2 -0 0.6 0.4 0.8 1 1.4 
1.6 1.2 1.8 2.4 2.2 2.6 2.8 2 3.4 
3.6 3.8 3 3.2 4.2 4 4.6 4.8 4.4 
5.4 5.8 5.6 5 5.2 6.6 6.2 6.4 6.8 
6 7.4 7.2 7.8 7 7.6 8.2 8.6 8.4 
8 8.8 9 9.8 9 9.2 9 9 9.6 
9.4 9 10 10.2 10.4 10.6 10.8 11.4 11.2 
11 11.8 11.6 12 12.8 12.2 12.4 12.6 13 
14.6667 14.3333 14.8333 14.5 14 14.1667 15 15 15 
15 15 -15 -15 -15 -15 -15 -9 -9 
-9 -9 -9 -3 -3 -3 -3 -3 9 
9 9 9 9 15 15 15 15 15 
-15 -15 -15 -15 -15 -9 -9 -9 -9 
-9 -3 -3 -3 -3 -3 9 9 9 
9 9 15 15 15 15 15 -15 -15 
-15 -15 -15 -9 -9 -9 -9 -9 -3 
-3 -3 -3 -3 9 9 9 9 9 
15 15 15 15 15 -15 -15 -15 -15 
-15 -9 -9 -9 -9 -9 -3 -3 -3 
-3 -3 9 15 15 15 15 15 -15 
-15 -15 -15 -15 -9 -9 -9 -9 -9 
-3 -3 -3 -3 -3 9 9 9 9 
9 9 15 15 15 15 15 -14.2 -14.8 
-15 -14.4 -14.6 -13.2 -13.8 -14 -13.6 -13.4 -12.4 
-13 -12.6 -12.2 -12.8 -11.6 -11.8 -11.4 -11.2 -12 
-11 -10.2 -10.6 -10.4 -10.8 -10 -9.2 -9.6 -9.4 
-9.8 -8.2 -8.4 -9 -8.8 -8.6 -8 -7.4 -7.2 
-7.6 -7.8 -6.2 -6.4 -6.6 -7 -6.8 -5.8 -5.6 
-5.2 -6 -5.4 -5 -4.6 -4.2 -4.4 -4.8 -4 
-3.4 -3.8 -3.6 -3.2 -2.6 -2.2 -3 -2.8 -2.4 
-1.4 -1.6 -1.8 -1.2 -2 -1 -0.2 -0.8 -0.4 
-0.6 0.4 -0 0.6 0.8 0.2 1.4 1.6 1.2 
1.8 1 2.8 2 2.2 2.6 2.4 3.4 3 
3.8 3.2 3.6 4 4.2 4.4 4.6 4.8 5.8 
5 5.4 5.2 5.6 6.4 6.8 6.6 6.2 6 
7.4 7 7.6 7.8 7.2 8.6 8.8 8 8.4 
8.2 9 9.2 9.8 9.4 9.6 10 10.2 10.4 
10.6 10.8 11.4 11.8 11 11.6 11.2 12.4 12.8 
12.6 12.2 12 13.2 13 13.4 13.6 13.8 14.8 
14 14.2 14.4 14.6 15 
y 1 1049 double
-12.0998 -12.1195 -12.1937 -12.3379 -11.0253 -11.5492 -11.4545 -11.1034 -11.5974 
-11.8973 -11.1103 -11.5539 -11.1687 -11.8134 -11.4162 -11.0875 -11.5996 -11.2442 
-11.4019 -11.9387 -11.7425 -11.2273 -11.0296 -10.4054 -10.8986 -10.034 -10.4865 
-10.6922 -10.2719 -10.6859 -9.94625 -10.112 -10.403 -10.7695 -10.291 -10.3374 
-10.6063 -10.5134 -10.8433 -10.8421 -10.1557 -10.4875 -10.1766 -10.4442 -10.7128 
-10.1644 -10.2977 -10.9354 -10.6877 -10.4658 -9.86346 -9.35397 -9.09918 -9.30294 
-9.57219 -9.95012 -9.71029 -9.00685 -9.64445 -9.03474 -9.39471 -9.67241 -9.38479 
-9.27063 -10.0008 -9.75973 -9.62642 -9.48529 -9.74384 -9.96662 -9.17042 -9.12136 
-9.21833 -9.98742 -9.63945 -9.97946 -9.26475 -9.57203 -9.23553 -9.94869 -9.36446 
-9.72162 -8.84127 -8.46394 -8.60861 -8.80363 -8.04823 -8.26923 -8.8609 -8.53887 
-8.72121 -8.34964 -8.26301 -8.02591 -8.01495 -8.2051 -8.48285 -8.85371 -8.6635 
-8.90213 -8.6745 -8.41009 -8.10592 -8.84134 -8.23011 -8.74136 -7.93341 -7.7254 
-7.87237 -7.48691 -7.78805 -7.61274 -7.75678 -7.54016 -7.76217 -5.87594 -5.45703 
-4.76378 -4.05333 -3.46937 0.2 0 0 0.6 0 0 
0.4 0 0.8 0 0 0 0 0 0 
0 0 0 0 0 0 0 0 0 
0 0 0 0 0 0 0 0 0 
0 0 0 0.8 0 0.6 0.4 0.2 0 
0 0 0 0 0 0 0 0 0 
0 0 0 0 0 0 0 0 0 
0 0 0 0 0 0 0 0 0 
0.6 0.4 0.8 0 0 0.2 0 0 0 
0 0 0 0 0 0 0 0 0 
0 0 0 0 0 0 0 0 0 
0 0 0 0 0 0 0.8 0 0 
0.4 0.2 0.6 0 0 0 0 0 0 
0 0 0 0 0 0 0 0 0 
0 0 0 0 0 0 0 0 0 
0 0 0 0 0 0 0.2 0 0 
0.8 0 0.6 0.4 0 0 0 0 0 
0 0 0 0 0 0 0 0 0 
0 0 0 0 0 0 0 0 0 
0 0.2 0.4 0.8 0.6 1.8 1.6 1.2 1.4 
1 1.4 1.8 1 1.6 1.2 1.2 1.6 1.4 
1 1.8 1.2 1.8 1.4 1 1.6 1.4 1.2 
1.6 1 1.8 1.6 1.4 1.8 1.2 1 2.4 
2 2.8 2.2 2.6 2.6 2.2 2.4 2.8 2 
2.2 2.6 2.8 2 2.4 2.6 2.4 2.8 2 
2.2 2.8 2 2.6 2.4 2.2 2.2 2.4 2.8 
2 2.6 3.8 3.6 3 3.2 3.4 3.4 3.2 
3.6 3.8 3 3 3.6 3.2 3.8 3.4 3.2 
3.4 3.6 3 3.8 3 3.6 3.4 3.8 3.2 
3.8 3.4 3.2 3.6 3 4.4 4.8 4 4.6 
4.2 4.6 4 4.8 4.4 4.2 4.6 4.2 4 
4.4 4.8 4 4.6 4.8 4.4 4.2 4 4.8 
4.6 4.4 4.2 4.8 4 4.2 4.4 4.6 5.4 
5 5.2 5.8 5.6 5 5.2 5.8 5.6 5.4 
5.8 5.2 5 5.6 5.4 5.6 5 5.4 5.2 
5.8 5.6 5.2 5.4 5.8 5 5.4 5 5.8 
5.6 5.2 6 6.4 6.2 6.6 6.8 6.8 6.6 
6.4 6.2 6 6.6 6.8 6 6.2 6.4 6.4 
6.8 6.6 6 6.2 6.4 6.8 6.6 6 6.2 
6 6.2 6.8 6.4 6.6 7 7.4 7.2 7.8 
7.6 7 7.2 7.4 7.6 7.8 7.6 7.8 7 
7.4 7.2 7.2 7.4 7.6 7.8 7 7 7.6 
7.4 7.8 7.2 7 7.4 7.8 7.2 7.6 8.6 
8 8.8 8.2 8.4 8 8 8 8 8 
8 8 8 8 8 8 8 8 8 
8 8 8 8 8 8 8 8 8 
8 8 8 8 8 8 8 8 8 
8 8 8 8 8 8 8 8 8 
8 8 8 8 8 8 8 8 8 
8 8 8 8 8 8 8 8 8 
8 8 8 8 8 8 8 8 8 
8 8 8 8 8 8 8 8 8 
8 8 8 8 8 8 8 8 8 
8 8 8 8.4 8.8 8.6 8.2 8 9.6 
9.4 9 9.8 9.2 9.2 9.6 9.8 9 9.4 
10 10.8 10.4 10 10.2 10 10 10.6 10 
10 10 10 10 10 10 10 10 10 
10 10 10 10 10 10 10 10 10 
10 10 10 10 10.2 10 10.6 10.8 10 
10.4 10 10 10 10 10 10 10 10 
10 10 10 10 10 10 10 10 10 
10 10 10 10 10 10 10 10 10 
10 10 10 10 10 10.8 10.4 10.2 10.6 
10 10 10 10 10 10 10 10 10 
10 10 10 10 10 10 10 10 10 
10 10 10 10 10 10 10 10 10 
10 10 10 10 10 10 10 10 10 
10 10 10 10 10 10 10 10 10 
10 10 10 10 10 10 10 10 10 
10 10 10.4 10 10.8 10 10.2 10 10 
10 10.6 10 10 10 10 10 10 10 
10 10 10 10 10 10 10 10 10 
10 10 10 10 10 10 10.2 10.4 10.8 
10.6 10 11.4 11.8 11.2 11.6 11 11.4 11.6 
11 11.2 11.8 11 11.8 11.4 11.6 11.2 11.8 
11.4 11.2 11 11.6 11.4 11.2 11.8 11 11.6 
12 12.6 12.4 12.8 12.2 12 12.2 12.4 12.8 
12.6 12.8 12.6 12.2 12 12.4 12.6 12 12.2 
12.4 12.8 12.6 12 12.4 12.2 12.8 13 13.6 
13.4 13.2 13.8 13.4 13.2 13.6 13 13.8 13.2 
13.4 13 13.8 13.6 13.4 13.6 13.2 13 13.8 
13 13.4 13.8 13.2 13.6 14 14.2 14.6 14.8 
14.4 14.4 14.2 14 14.8 14.6 14.6 14.8 14.2 
14 14.4 14 14.6 14 14.8 14.4 14.2 15 
15.4 15.8 15.2 15.6 15.4 15.2 15 15.8 15.6 
15.2 15.8 15.4 15 15.6 15.1667 15.3333 15 15.6667 
15.5 15.8333 15.8 15 15.6 15.4 15.2 16 16 
16 16 16 16 16 16 16 16 16 
16 16 16 16 16 16 16 16 16 
16 16 16 16 16 16 16 16 16 
16 16 16 16 16 16 16 16 16 
16 16 16 16 16 16 16 16 16 
16 16 16 16 16 16 16 16 16 
16 16 16 16 16 16 16 16 16 
16 16 16 16 16 16 16 16 16 
16 16 16 16 16 16 16 16 16 
16 16 16 16 16 16 16 16 16 
16 16 16 16 16 16 16 16 16 
16 16 16 16 16 16 16 16 16 
16 16 16 16 16 16 16 16 16 
16 16 16 16 16 16 16 16 16 
16 16 16 16 16 16 16 16 16 
16 16 16 16 16 16 16 16 16 
16 16 16 16 16 
