# vtk DataFile Version 4.0
vtk output
ASCII
DATASET POLYDATA
FIELD FieldData 4
domain 1 4 string
domain_min:-40|-40
domain_max:40|40
cell_size:1|1
boundary:0|0

variables 1 5 string
T:19.3
dt:0.01
write_case:1
substeps:10
all_steps:1930

constants 1 17 string
L:40
c_s:1
dx:1
k:1000
d1:-13.5|10
d2:-6|10
d3:9|14.5
d4:13.5|10
d5:-6|8
d6:0|8
d7:6|8
d8:-9|9
d9:9|9
d10:-12|0
d11:12|0
d12:0|-10
R_w:0.1

equations 1 18 string
time:T=(T+dt)#true
pos_x:x=elem(r,0,0)#eq(gid,1)
pos_y:y=elem(r,1,0)#eq(gid,1)
wp_1:p0=if(and(lt(x,(-9)),gt(y,10)),d1,p0)#eq(gid,1)
wp_2:p0=if(and(and(gt(x,(-9)),lt(x,(-3))),gt(y,10)),d2,p0)#eq(gid,1)
wp_3:p0=if(and(and(gt(x,(-3)),lt(x,9)),gt(y,10)),d3,p0)#eq(gid,1)
wp_4:p0=if(and(gt(x,9),gt(y,10)),d4,p0)#eq(gid,1)
wp_5:p0=if(and(and(gt(x,(-9)),lt(x,(-3))),lt(y,8)),d5,p0)#eq(gid,1)
wp_6:p0=if(and(and(gt(x,(-3)),lt(x,3)),lt(y,8)),d6,p0)#eq(gid,1)
wp_7:p0=if(and(and(gt(x,3),lt(x,9)),lt(y,8)),d7,p0)#eq(gid,1)
wp_8:p0=if(and(and(gt(x,(-9)),lt(x,0)),and(gt(y,8),lt(y,10))),d8,p0)#eq(gid,1)
wp_9:p0=if(and(and(gt(x,0),lt(x,9)),and(gt(y,8),lt(y,10))),d9,p0)#eq(gid,1)
wp_10:p0=if(and(lt(x,(-9)),lt(y,10)),d10,p0)#eq(gid,1)
wp_11:p0=if(and(gt(x,9),lt(y,10)),d11,p0)#eq(gid,1)
wp_12:p0=if(lt(y,0),d12,p0)#eq(gid,1)
acceleration:v=sfm(v,p0,v0,m,R,A,B,k,c,tau)#eq(gid,1)
velocity:v=euler(v,a,dt)#eq(gid,1)
position:r=euler(r,v,dt)#eq(gid,1)

POINTS 1049 float
-0.582369 -10.4927 0 -0.331809 -10.0842 0 0.595788 -10.4029 0 
0.0210436 -10.5264 0 -1.1886 -9.12672 0 -0.184134 -9.62971 0 
-0.680265 -9.78654 0 -0.561325 -9.21912 0 0.0271389 -9.9946 0 
0.405858 -9.87359 0 0.206406 -9.32247 0 0.961858 -9.75323 0 
0.773076 -9.15036 0 1.33961 -9.33499 0 -1.73597 -8.60351 0 
1.44199 -8.52606 0 1.90058 -8.90461 0 2.25737 -8.11784 0 
-3.13699 -7.09552 0 -3.6946 -7.69088 0 -3.76034 -7.03275 0 
-2.592 -7.851 0 -2.06641 -7.54078 0 2.80992 -7.78731 0 
-5.49692 -6.25846 0 -4.68419 -6.38007 0 -6.13392 -5.98827 0 
-6.34665 -5.39199 0 -5.22548 -5.6645 0 -4.88019 -5.17743 0 
-4.35706 -5.83947 0 5.21084 -5.75415 0 6.57649 -5.05067 0 
-8.20897 -4.39433 0 -7.43666 -4.29282 0 -6.55507 -4.22239 0 
-5.81715 -4.95971 0 6.18607 -4.59406 0 -8.56718 -3.62983 0 
-7.7821 -3.24666 0 -7.79161 -3.89324 0 -7.25019 -3.53671 0 
7.76538 -3.66436 0 8.20362 -3.31507 0 8.75583 -3.68336 0 
9.29422 -3.4015 0 -10.6419 -2.12909 0 -9.28515 -2.82837 0 
-9.76662 -2.03765 0 -8.43758 -2.87114 0 7.60684 -2.99245 0 
8.84348 -2.74995 0 9.26783 -2.23408 0 10.041 -2.58192 0 
-11.1269 -1.48793 0 -10.1686 -1.49656 0 9.99427 -1.53035 0 
10.5582 -1.97511 0 10.5671 -1.1283 0 11.3833 -1.678 0 
11.1652 -1.12238 0 -11.898 -0.723249 0 -11.0847 -0.862591 0 
-11.8034 -0.236 0 11.2809 -0.57939 0 11.8219 -0.822036 0 
11.7199 -0.247792 0 12.2226 -0.339181 0 -15 0.8 0 
-14.8214 0 0 -14.6429 0 0 -14.4643 0 0 
-14.2857 0 0 -15 0.4 0 -15 0.2 0 
-14.1071 0 0 -15 0 0 -15 0.6 0 
-13.9286 0 0 -13.0357 0 0 -13.75 0 0 
-13.2143 0 0 -13.3929 0 0 -13.5714 0 0 
-12.8571 0 0 -12.6786 0 0 -12.26 0.272844 0 
-12.5 0 0 -12.2998 0.780998 0 -11.7706 0.278052 0 
-11.3214 0 0 -11.1429 0 0 -11.5 0 0 
-11.7559 0.838618 0 -10.9643 0 0 -10.25 0 0 
-10.6071 0 0 -10.7857 0 0 -10.0714 0 0 
-10.4286 0 0 -9.3571 0 0 -9.1786 0 0 
-9.8929 0 0 -9.5357 0 0 -9.7143 0 0 
-8.8 0 0 -8.6 0 0 -9 0 0 
-8.2 0 0 -9 0.8 0 -9 0.6 0 
-8.4 0 0 -9 0.4 0 -9 0.2 0 
-7.8 0 0 -7.6 0 0 -7.4 0 0 
-7.2 0 0 -8 0 0 -6.4 0 0 
-6.8 0 0 -6.2 0 0 -7 0 0 
-6.6 0 0 -5.6 0 0 -5.8 0 0 
-6 0 0 -5.2 0 0 -5.4 0 0 
-4.8 0 0 -4.4 0 0 -4.6 0 0 
-4.2 0 0 -5 0 0 -3.2 0 0 
-3.8 0 0 -4 0 0 -3.4 0 0 
-3.6 0 0 -2.4 0 0 -3 0.2 0 
-3 0.8 0 -3 0.4 0 -2.2 0 0 
-2.8 0 0 -2.6 0 0 -3 0 0 
-3 0.6 0 -1.6 0 0 -1.8 0 0 
-1.4 0 0 -2 0 0 -1.2 0 0 
-0.6 0 0 -1 0 0 -0.2 0 0 
-0.8 0 0 -0.4 0 0 0.4 0 0 
0.8 0 0 0.2 0 0 -0 0 0 
0.6 0 0 1.2 0 0 1.6 0 0 
1.8 0 0 1 0 0 1.4 0 0 
2.2 0 0 2.8 0 0 2 0 0 
2.6 0 0 2.4 0 0 3 0.6 0 
3 0.4 0 3 0 0 3 0.2 0 
3.2 0 0 3.4 0 0 3.8 0 0 
3 0.8 0 3.6 0 0 4.8 0 0 
4.4 0 0 4.6 0 0 4 0 0 
4.2 0 0 5.6 0 0 5.8 0 0 
5 0 0 5.4 0 0 5.2 0 0 
6.6 0 0 6.4 0 0 6.2 0 0 
6 0 0 6.8 0 0 7.2 0 0 
7.6 0 0 7.4 0 0 7.8 0 0 
7 0 0 8.2 0 0 8.8 0 0 
8.4 0 0 8 0 0 8.6 0 0 
9 0.8 0 9 0 0 9.8929 0 0 
9 0.6 0 9 0.4 0 9.3571 0 0 
9.5357 0 0 9.7143 0 0 9 0.2 0 
9.1786 0 0 10.9643 0 0 10.4286 0 0 
10.0714 0 0 10.7857 0 0 10.25 0 0 
10.6071 0 0 11.0831 0.749707 0 11.5 0 0 
11.4339 0.321948 0 11.3214 0 0 11.6867 0.760949 0 
11.1429 0 0 12.15 0.901909 0 12.99 0.636169 0 
12.8571 0 0 12.5 0 0 12.025 0.26445 0 
12.6786 0 0 12.5732 0.276154 0 12.4655 0.662701 0 
13.2143 0 0 13.5714 0 0 13.3929 0 0 
13.0357 0 0 13.75 0 0 13.9286 0 0 
14.6429 0 0 14.4643 0 0 14.2857 0 0 
14.1071 0 0 14.8214 0 0 15 0.8 0 
15 0.2 0 15 0 0 15 0.4 0 
15 0.6 0 -15 1.4 0 -15 1 0 
-15 1.2 0 -15 1.6 0 -15 1.8 0 
-11.6499 1.3753 0 -11.4496 1.93229 0 -10.9138 1.69323 0 
-9 1.4 0 -9 1.2 0 -9 1.6 0 
-9 1 0 -9 1.8 0 -3 1.4 0 
-3 1.2 0 -3 1.8 0 -3 1 0 
-3 1.6 0 3 1.4 0 3 1.2 0 
3 1 0 3 1.6 0 3 1.8 0 
9 1.4 0 9 1.8 0 9 1 0 
9 1.2 0 9 1.6 0 11.3607 1.25199 0 
11.883 1.28568 0 12.2399 1.64294 0 12.613 1.12673 0 
15 1.6 0 15 1 0 15 1.2 0 
15 1.8 0 15 1.4 0 -15 2.4 0 
-15 2.8 0 -15 2.2 0 -15 2 0 
-15 2.6 0 -11.9898 2.13347 0 -11.2762 2.57364 0 
-10.7988 2.94328 0 -9 2.8 0 -9 2.2 0 
-9 2.6 0 -9 2 0 -9 2.4 0 
-3 2.8 0 -3 2.2 0 -3 2.4 0 
-3 2 0 -3 2.6 0 3 2.8 0 
3 2.2 0 3 2 0 3 2.4 0 
3 2.6 0 9 2.2 0 9 2.8 0 
9 2.6 0 9 2 0 9 2.4 0 
12.256 2.16787 0 12.0497 2.91529 0 15 2.2 0 
15 2.8 0 15 2.6 0 15 2 0 
15 2.4 0 -15 3.8 0 -15 3.2 0 
-15 3 0 -15 3.6 0 -15 3.4 0 
-11.4182 3.90707 0 -10.8784 3.55285 0 -9 3.8 0 
-9 3.2 0 -9 3.6 0 -9 3.4 0 
-9 3 0 -3 3.2 0 -3 3.8 0 
-3 3.4 0 -3 3 0 -3 3.6 0 
3 3.6 0 3 3.8 0 3 3.4 0 
3 3.2 0 3 3 0 9 3 0 
9 3.8 0 9 3.6 0 9 3.4 0 
9 3.2 0 10.9581 3.53302 0 12.4443 3.34019 0 
12.9355 3.01663 0 13.2609 3.48648 0 15 3.2 0 
15 3.6 0 15 3.8 0 15 3 0 
15 3.4 0 -15 4.2 0 -15 4 0 
-15 4.4 0 -15 4.6 0 -15 4.8 0 
-10.5638 4.73266 0 -9 4.6 0 -9 4.8 0 
-9 4.4 0 -9 4.2 0 -9 4 0 
-3 4.4 0 -3 4 0 -3 4.6 0 
-3 4.2 0 -3 4.8 0 3 4.8 0 
3 4.2 0 3 4 0 3 4.4 0 
3 4.6 0 9 4.2 0 9 4.4 0 
9 4.8 0 9 4 0 9 4.6 0 
12.2254 4.79556 0 12.9468 4.05577 0 12.8596 4.81067 0 
15 4.6 0 15 4.8 0 15 4 0 
15 4.4 0 15 4.2 0 -15 5.8 0 
-15 5.6 0 -15 5.2 0 -15 5 0 
-15 5.4 0 -9 5.2 0 -9 5.8 0 
-9 5.4 0 -9 5.6 0 -9 5 0 
-3 5.4 0 -3 5.2 0 -3 5.6 0 
-3 5.8 0 -3 5 0 3 5.4 0 
3 5 0 3 5.2 0 3 5.6 0 
3 5.8 0 9 5.4 0 9 5 0 
9 5.6 0 9 5.2 0 9 5.8 0 
10.5093 5.05384 0 15 5.2 0 15 5 0 
15 5.4 0 15 5.6 0 15 5.8 0 
-15 6 0 -15 6.6 0 -15 6.2 0 
-15 6.8 0 -15 6.4 0 -9 6.8 0 
-9 6 0 -9 6.6 0 -9 6.4 0 
-9 6.2 0 -3 6 0 -3 6.6 0 
-3 6.4 0 -3 6.2 0 -3 6.8 0 
3 6 0 3 6.6 0 3 6.4 0 
3 6.8 0 3 6.2 0 9 6.2 0 
9 6 0 9 6.6 0 9 6.4 0 
9 6.8 0 12.7231 6.27089 0 13.3636 6.54288 0 
15 6.6 0 15 6 0 15 6.2 0 
15 6.4 0 15 6.8 0 -15 7.4 0 
-15 7.8 0 -15 7 0 -15 7.6 0 
-15 7.2 0 -9 7 0 -9 7.6 0 
-9 7.2 0 -9 7.8 0 -9 7.4 0 
-3 7.8 0 -3 7.6 0 -3 7.2 0 
-3 7.4 0 -3 7 0 3 7 0 
3 7.6 0 3 7.4 0 3 7.8 0 
3 7.2 0 9.94529 7.0157 0 9 7 0 
9 7.2 0 9 7.4 0 9 7.6 0 
9 7.8 0 9.71049 7.78922 0 13.3362 7.14363 0 
13.0133 7.71111 0 15 7.8 0 15 7.6 0 
15 7.4 0 15 7 0 15 7.2 0 
-15 8.4 0 -15 8.2 0 -15 8.8 0 
-15 8 0 -15 8.6 0 -8.2857 8 0 
-8.8214 8 0 -8.4643 8 0 -8.1071 8 0 
-9 8 0 -8.6429 8 0 -7.75 8 0 
-7.2143 8 0 -7.68662 8.98731 0 -7.3929 8 0 
-7.5714 8 0 -7.0357 8 0 -7.9286 8 0 
-6.8571 8 0 -6.81468 8.97661 0 -6.6786 8 0 
-6.5 8 0 -5.5 8 0 -5.1429 8 0 
-5.3214 8 0 -4.7857 8 0 -4.25 8 0 
-4.4286 8 0 -4.9643 8 0 -4.6071 8 0 
-4.0714 8 0 -3.1786 8 0 -3.5357 8 0 
-3.3571 8 0 -3.7143 8 0 -3.8929 8 0 
-2.2857 8 0 -2.4643 8 0 -2.8214 8 0 
-3 8 0 -2.6429 8 0 -2.1071 8 0 
-1.5714 8 0 -1.2143 8 0 -1.9286 8 0 
-1.75 8 0 -1.0357 8 0 -1.3929 8 0 
-0.5 8 0 -0.6786 8 0 -0.8571 8 0 
0.8571 8 0 0.6786 8 0 0.5 8 0 
1.2143 8 0 1.0357 8 0 1.9286 8 0 
1.3929 8 0 1.75 8 0 1.5714 8 0 
2.6429 8 0 2.4643 8 0 2.2857 8 0 
2.8214 8 0 2.1071 8 0 3.8929 8 0 
3 8 0 3.7143 8 0 3.5357 8 0 
3.3571 8 0 3.1786 8 0 4.0714 8 0 
4.4286 8 0 4.6071 8 0 4.7857 8 0 
4.25 8 0 4.9643 8 0 5.1429 8 0 
5.3214 8 0 5.5 8 0 6.5 8 0 
6.6786 8 0 6.8571 8 0 7.75 8 0 
7.3929 8 0 7.2143 8 0 7.9286 8 0 
7.5714 8 0 7.0357 8 0 8.8214 8 0 
8.1071 8 0 8.2857 8 0 8.6429 8 0 
8.4643 8 0 9 8 0 9.32613 8.24574 0 
9 8 0 13.3034 8.44413 0 15 8 0 
15 8.8 0 15 8.4 0 15 8.6 0 
15 8.2 0 -15 9.2 0 -15 9.8 0 
-15 9 0 -15 9.4 0 -15 9.6 0 
-8.27355 9.00205 0 8.73272 9.00191 0 13.3705 9.08045 0 
15 9.2 0 15 9.6 0 15 9.8 0 
15 9.4 0 15 9 0 -15 10.4 0 
-15 10.2 0 -15 10.8 0 -15 10 0 
-14.1667 10 0 -14.6667 10 0 -14.3333 10 0 
-14.8333 10 0 -15 10.6 0 -14.5 10 0 
-14 10 0 -12.6 10 0 -12.2 10 0 
-12.8 10 0 -12.4 10 0 -13 10 0 
-11.8 10 0 -11.6 10 0 -11.2 10 0 
-12 10 0 -11.4 10 0 -10.2 10 0 
-11 10 0 -10.4 10 0 -10.6 10 0 
-10.8 10 0 -9.4 10 0 -9.6 10 0 
-9.2 10 0 -10 10 0 -9.8 10 0 
-8.1071 10 0 -9 10.6 0 -9 10.4 0 
-8.6429 10 0 -8.2857 10 0 -8.8214 10 0 
-8.4643 10 0 -9 10.2 0 -9 10 0 
-9 10.8 0 -7.3929 10 0 -7.0357 10 0 
-7.5714 10 0 -7.75 10 0 -7.9286 10 0 
-7.2143 10 0 -6.8571 10 0 -6.5 10 0 
-6.6786 10 0 -5.1429 10 0 -5.3214 10 0 
-5.5 10 0 -4.0714 10 0 -4.9643 10 0 
-4.6071 10 0 -4.4286 10 0 -4.7857 10 0 
-4.25 10 0 -3.1786 10 0 -3.7143 10 0 
-3.3571 10 0 -3.5357 10 0 -3.8929 10 0 
-2.4 10 0 -2.2 10 0 -2.8 10 0 
-3 10.6 0 -3 10 0 -2.6 10 0 
-3 10.8 0 -3 10.4 0 -3 10.2 0 
-1.4 10 0 -2 10 0 -1.2 10 0 
-1.8 10 0 -1.6 10 0 -1 10 0 
-0.4 10 0 -0.2 10 0 -0.6 10 0 
-0.8 10 0 0.2 10 0 0.8 10 0 
0.6 10 0 -0 10 0 0.4 10 0 
1.6 10 0 1 10 0 1.4 10 0 
1.2 10 0 1.8 10 0 2.4 10 0 
2 10 0 2.8 10 0 2.2 10 0 
2.6 10 0 3.6 10 0 3.4 10 0 
3 10 0 3.8 10 0 3.2 10 0 
4.2 10 0 4 10 0 4.6 10 0 
4.8 10 0 4.4 10 0 5.4 10 0 
5.2 10 0 5.8 10 0 5.6 10 0 
5 10 0 6.8 10 0 6.4 10 0 
6.2 10 0 6.6 10 0 6 10 0 
7.6 10 0 7 10 0 7.8 10 0 
7.2 10 0 7.4 10 0 8.8 10 0 
8.2 10 0 8 10 0 8.4 10 0 
8.6 10 0 9 10.4 0 9.2 10 0 
9.8 10 0 9.6 10 0 9.4 10 0 
9 10 0 9 10.2 0 9 10.6 0 
9 10.8 0 10.8 10 0 10.6 10 0 
10.4 10 0 10.2 10 0 10 10 0 
11.2 10 0 11.6 10 0 11 10 0 
11.4 10 0 11.8 10 0 12.6 10 0 
12.8 10 0 12.4 10 0 12 10 0 
12.2 10 0 12.8942 10.6602 0 13 10 0 
14.6667 10 0 14.1667 10 0 14 10 0 
14.5 10 0 14.8333 10 0 14.3333 10 0 
15 10 0 15 10.2 0 15 10.4 0 
15 10.6 0 15 10.8 0 -15 11 0 
-15 11.4 0 -15 11.2 0 -15 11.6 0 
-15 11.8 0 -9 11.4 0 -9 11.6 0 
-9 11 0 -9 11.2 0 -9 11.8 0 
-3 11.6 0 -3 11 0 -3 11.2 0 
-3 11.4 0 -3 11.8 0 9 11 0 
9 11.8 0 9 11.6 0 9 11.2 0 
9 11.4 0 12.1079 11.4672 0 15 11.2 0 
15 11 0 15 11.8 0 15 11.4 0 
15 11.6 0 -15 12 0 -15 12.8 0 
-15 12.4 0 -15 12.6 0 -15 12.2 0 
-9 12.2 0 -9 12 0 -9 12.8 0 
-9 12.4 0 -9 12.6 0 -3 12.6 0 
-3 12.4 0 -3 12 0 -3 12.2 0 
-3 12.8 0 9 12.4 0 9 12.8 0 
9 12.2 0 9 12 0 9 12.6 0 
10.8397 12.8098 0 15 12.8 0 15 12.4 0 
15 12.6 0 15 12.2 0 15 12 0 
-15 13 0 -15 13.8 0 -15 13.4 0 
-15 13.6 0 -15 13.2 0 -9 13.6 0 
-9 13 0 -9 13.8 0 -9 13.4 0 
-9 13.2 0 -3 13.4 0 -3 13.2 0 
-3 13.6 0 -3 13 0 -3 13.8 0 
9 13.8 0 9 13.2 0 9 13 0 
9 13.4 0 9 13.6 0 10.2023 13.4718 0 
15 13.2 0 15 13.8 0 15 13 0 
15 13.6 0 15 13.4 0 -15 14.8 0 
-15 14.6 0 -15 14.4 0 -15 14.2 0 
-15 14 0 -9 14.4 0 -9 14 0 
-9 14.6 0 -9 14.8 0 -9 14.2 0 
-3 14.2 0 -3 14.4 0 -3 14 0 
-3 14.8 0 -3 14.6 0 9 14 0 
15 14.4 0 15 14.8 0 15 14.2 0 
15 14 0 15 14.6 0 -15 15.4 0 
-15 15 0 -15 15.8 0 -15 15.6 0 
-15 15.2 0 -9 15.2 0 -9 15 0 
-9 15.8 0 -9 15.6 0 -9 15.4 0 
-3 15.2 0 -3 15.8 0 -3 15.4 0 
-3 15 0 -3 15.6 0 9 15.6667 0 
9 15.1667 0 9 15.5 0 9 15 0 
9 15.3333 0 9 15.8333 0 15 15.2 0 
15 15.4 0 15 15 0 15 15.8 0 
15 15.6 0 -14.2 16 0 -14.8 16 0 
-15 16 0 -14.4 16 0 -14.6 16 0 
-14 16 0 -13.4 16 0 -13.6 16 0 
-13.8 16 0 -13.2 16 0 -12.4 16 0 
-13 16 0 -12.6 16 0 -12.2 16 0 
-12.8 16 0 -12 16 0 -11.2 16 0 
-11.8 16 0 -11.6 16 0 -11.4 16 0 
-10.2 16 0 -11 16 0 -10.6 16 0 
-10.8 16 0 -10.4 16 0 -9.8 16 0 
-10 16 0 -9.2 16 0 -9.6 16 0 
-9.4 16 0 -9 16 0 -8.6 16 0 
-8.8 16 0 -8.4 16 0 -8.2 16 0 
-8 16 0 -7.4 16 0 -7.2 16 0 
-7.6 16 0 -7.8 16 0 -6.4 16 0 
-6.8 16 0 -6.6 16 0 -7 16 0 
-6.2 16 0 -5.4 16 0 -6 16 0 
-5.6 16 0 -5.8 16 0 -5.2 16 0 
-5 16 0 -4.6 16 0 -4.2 16 0 
-4.4 16 0 -4.8 16 0 -3.6 16 0 
-4 16 0 -3.2 16 0 -3.8 16 0 
-3.4 16 0 -2.4 16 0 -2.8 16 0 
-2.2 16 0 -2.6 16 0 -3 16 0 
-1.4 16 0 -1.6 16 0 -1.8 16 0 
-1.2 16 0 -2 16 0 -1 16 0 
-0.2 16 0 -0.8 16 0 -0.4 16 0 
-0.6 16 0 0.4 16 0 -0 16 0 
0.6 16 0 0.8 16 0 0.2 16 0 
1 16 0 1.8 16 0 1.6 16 0 
1.4 16 0 1.2 16 0 2 16 0 
2.8 16 0 2.2 16 0 2.4 16 0 
2.6 16 0 3.8 16 0 3.6 16 0 
3.2 16 0 3 16 0 3.4 16 0 
4 16 0 4.2 16 0 4.4 16 0 
4.6 16 0 4.8 16 0 5.8 16 0 
5.2 16 0 5.4 16 0 5.6 16 0 
5 16 0 6.4 16 0 6.8 16 0 
6.6 16 0 6.2 16 0 6 16 0 
7.4 16 0 7 16 0 7.6 16 0 
7.8 16 0 7.2 16 0 8.6 16 0 
8.4 16 0 8.8 16 0 8 16 0 
8.2 16 0 9 16 0 9.2 16 0 
9.8 16 0 9.4 16 0 9.6 16 0 
10 16 0 10.2 16 0 10.4 16 0 
10.6 16 0 10.8 16 0 11.4 16 0 
11.8 16 0 11 16 0 11.6 16 0 
11.2 16 0 12.4 16 0 12.8 16 0 
12.6 16 0 12.2 16 0 12 16 0 
13 16 0 13.8 16 0 13.4 16 0 
13.6 16 0 13.2 16 0 14.8 16 0 
14 16 0 14.2 16 0 14.4 16 0 
14.6 16 0 15 16 0 
VERTICES 2098 2098
1 0 
1 1 
1 2 
1 3 
1 4 
1 5 
1 6 
1 7 
1 8 
1 9 
1 10 
1 11 
1 12 
1 13 
1 14 
1 15 
1 16 
1 17 
1 18 
1 19 
1 20 
1 21 
1 22 
1 23 
1 24 
1 25 
1 26 
1 27 
1 28 
1 29 
1 30 
1 31 
1 32 
1 33 
1 34 
1 35 
1 36 
1 37 
1 38 
1 39 
1 40 
1 41 
1 42 
1 43 
1 44 
1 45 
1 46 
1 47 
1 48 
1 49 
1 50 
1 51 
1 52 
1 53 
1 54 
1 55 
1 56 
1 57 
1 58 
1 59 
1 60 
1 61 
1 62 
1 63 
1 64 
1 65 
1 66 
1 67 
1 68 
1 69 
1 70 
1 71 
1 72 
1 73 
1 74 
1 75 
1 76 
1 77 
1 78 
1 79 
1 80 
1 81 
1 82 
1 83 
1 84 
1 85 
1 86 
1 87 
1 88 
1 89 
1 90 
1 91 
1 92 
1 93 
1 94 
1 95 
1 96 
1 97 
1 98 
1 99 
1 100 
1 101 
1 102 
1 103 
1 104 
1 105 
1 106 
1 107 
1 108 
1 109 
1 110 
1 111 
1 112 
1 113 
1 114 
1 115 
1 116 
1 117 
1 118 
1 119 
1 120 
1 121 
1 122 
1 123 
1 124 
1 125 
1 126 
1 127 
1 128 
1 129 
1 130 
1 131 
1 132 
1 133 
1 134 
1 135 
1 136 
1 137 
1 138 
1 139 
1 140 
1 141 
1 142 
1 143 
1 144 
1 145 
1 146 
1 147 
1 148 
1 149 
1 150 
1 151 
1 152 
1 153 
1 154 
1 155 
1 156 
1 157 
1 158 
1 159 
1 160 
1 161 
1 162 
1 163 
1 164 
1 165 
1 166 
1 167 
1 168 
1 169 
1 170 
1 171 
1 172 
1 173 
1 174 
1 175 
1 176 
1 177 
1 178 
1 179 
1 180 
1 181 
1 182 
1 183 
1 184 
1 185 
1 186 
1 187 
1 188 
1 189 
1 190 
1 191 
1 192 
1 193 
1 194 
1 195 
1 196 
1 197 
1 198 
1 199 
1 200 
1 201 
1 202 
1 203 
1 204 
1 205 
1 206 
1 207 
1 208 
1 209 
1 210 
1 211 
1 212 
1 213 
1 214 
1 215 
1 216 
1 217 
1 218 
1 219 
1 220 
1 221 
1 222 
1 223 
1 224 
1 225 
1 226 
1 227 
1 228 
1 229 
1 230 
1 231 
1 232 
1 233 
1 234 
1 235 
1 236 
1 237 
1 238 
1 239 
1 240 
1 241 
1 242 
1 243 
1 244 
1 245 
1 246 
1 247 
1 248 
1 249 
1 250 
1 251 
1 252 
1 253 
1 254 
1 255 
1 256 
1 257 
1 258 
1 259 
1 260 
1 261 
1 262 
1 263 
1 264 
1 265 
1 266 
1 267 
1 268 
1 269 
1 270 
1 271 
1 272 
1 273 
1 274 
1 275 
1 276 
1 277 
1 278 
1 279 
1 280 
1 281 
1 282 
1 283 
1 284 
1 285 
1 286 
1 287 
1 288 
1 289 
1 290 
1 291 
1 292 
1 293 
1 294 
1 295 
1 296 
1 297 
1 298 
1 299 
1 300 
1 301 
1 302 
1 303 
1 304 
1 305 
1 306 
1 307 
1 308 
1 309 
1 310 
1 311 
1 312 
1 313 
1 314 
1 315 
1 316 
1 317 
1 318 
1 319 
1 320 
1 321 
1 322 
1 323 
1 324 
1 325 
1 326 
1 327 
1 328 
1 329 
1 330 
1 331 
1 332 
1 333 
1 334 
1 335 
1 336 
1 337 
1 338 
1 339 
1 340 
1 341 
1 342 
1 343 
1 344 
1 345 
1 346 
1 347 
1 348 
1 349 
1 350 
1 351 
1 352 
1 353 
1 354 
1 355 
1 356 
1 357 
1 358 
1 359 
1 360 
1 361 
1 362 
1 363 
1 364 
1 365 
1 366 
1 367 
1 368 
1 369 
1 370 
1 371 
1 372 
1 373 
1 374 
1 375 
1 376 
1 377 
1 378 
1 379 
1 380 
1 381 
1 382 
1 383 
1 384 
1 385 
1 386 
1 387 
1 388 
1 389 
1 390 
1 391 
1 392 
1 393 
1 394 
1 395 
1 396 
1 397 
1 398 
1 399 
1 400 
1 401 
1 402 
1 403 
1 404 
1 405 
1 406 
1 407 
1 408 
1 409 
1 410 
1 411 
1 412 
1 413 
1 414 
1 415 
1 416 
1 417 
1 418 
1 419 
1 420 
1 421 
1 422 
1 423 
1 424 
1 425 
1 426 
1 427 
1 428 
1 429 
1 430 
1 431 
1 432 
1 433 
1 434 
1 435 
1 436 
1 437 
1 438 
1 439 
1 440 
1 441 
1 442 
1 443 
1 444 
1 445 
1 446 
1 447 
1 448 
1 449 
1 450 
1 451 
1 452 
1 453 
1 454 
1 455 
1 456 
1 457 
1 458 
1 459 
1 460 
1 461 
1 462 
1 463 
1 464 
1 465 
1 466 
1 467 
1 468 
1 469 
1 470 
1 471 
1 472 
1 473 
1 474 
1 475 
1 476 
1 477 
1 478 
1 479 
1 480 
1 481 
1 482 
1 483 
1 484 
1 485 
1 486 
1 487 
1 488 
1 489 
1 490 
1 491 
1 492 
1 493 
1 494 
1 495 
1 496 
1 497 
1 498 
1 499 
1 500 
1 501 
1 502 
1 503 
1 504 
1 505 
1 506 
1 507 
1 508 
1 509 
1 510 
1 511 
1 512 
1 513 
1 514 
1 515 
1 516 
1 517 
1 518 
1 519 
1 520 
1 521 
1 522 
1 523 
1 524 
1 525 
1 526 
1 527 
1 528 
1 529 
1 530 
1 531 
1 532 
1 533 
1 534 
1 535 
1 536 
1 537 
1 538 
1 539 
1 540 
1 541 
1 542 
1 543 
1 544 
1 545 
1 546 
1 547 
1 548 
1 549 
1 550 
1 551 
1 552 
1 553 
1 554 
1 555 
1 556 
1 557 
1 558 
1 559 
1 560 
1 561 
1 562 
1 563 
1 564 
1 565 
1 566 
1 567 
1 568 
1 569 
1 570 
1 571 
1 572 
1 573 
1 574 
1 575 
1 576 
1 577 
1 578 
1 579 
1 580 
1 581 
1 582 
1 583 
1 584 
1 585 
1 586 
1 587 
1 588 
1 589 
1 590 
1 591 
1 592 
1 593 
1 594 
1 595 
1 596 
1 597 
1 598 
1 599 
1 600 
1 601 
1 602 
1 603 
1 604 
1 605 
1 606 
1 607 
1 608 
1 609 
1 610 
1 611 
1 612 
1 613 
1 614 
1 615 
1 616 
1 617 
1 618 
1 619 
1 620 
1 621 
1 622 
1 623 
1 624 
1 625 
1 626 
1 627 
1 628 
1 629 
1 630 
1 631 
1 632 
1 633 
1 634 
1 635 
1 636 
1 637 
1 638 
1 639 
1 640 
1 641 
1 642 
1 643 
1 644 
1 645 
1 646 
1 647 
1 648 
1 649 
1 650 
1 651 
1 652 
1 653 
1 654 
1 655 
1 656 
1 657 
1 658 
1 659 
1 660 
1 661 
1 662 
1 663 
1 664 
1 665 
1 666 
1 667 
1 668 
1 669 
1 670 
1 671 
1 672 
1 673 
1 674 
1 675 
1 676 
1 677 
1 678 
1 679 
1 680 
1 681 
1 682 
1 683 
1 684 
1 685 
1 686 
1 687 
1 688 
1 689 
1 690 
1 691 
1 692 
1 693 
1 694 
1 695 
1 696 
1 697 
1 698 
1 699 
1 700 
1 701 
1 702 
1 703 
1 704 
1 705 
1 706 
1 707 
1 708 
1 709 
1 710 
1 711 
1 712 
1 713 
1 714 
1 715 
1 716 
1 717 
1 718 
1 719 
1 720 
1 721 
1 722 
1 723 
1 724 
1 725 
1 726 
1 727 
1 728 
1 729 
1 730 
1 731 
1 732 
1 733 
1 734 
1 735 
1 736 
1 737 
1 738 
1 739 
1 740 
1 741 
1 742 
1 743 
1 744 
1 745 
1 746 
1 747 
1 748 
1 749 
1 750 
1 751 
1 752 
1 753 
1 754 
1 755 
1 756 
1 757 
1 758 
1 759 
1 760 
1 761 
1 762 
1 763 
1 764 
1 765 
1 766 
1 767 
1 768 
1 769 
1 770 
1 771 
1 772 
1 773 
1 774 
1 775 
1 776 
1 777 
1 778 
1 779 
1 780 
1 781 
1 782 
1 783 
1 784 
1 785 
1 786 
1 787 
1 788 
1 789 
1 790 
1 791 
1 792 
1 793 
1 794 
1 795 
1 796 
1 797 
1 798 
1 799 
1 800 
1 801 
1 802 
1 803 
1 804 
1 805 
1 806 
1 807 
1 808 
1 809 
1 810 
1 811 
1 812 
1 813 
1 814 
1 815 
1 816 
1 817 
1 818 
1 819 
1 820 
1 821 
1 822 
1 823 
1 824 
1 825 
1 826 
1 827 
1 828 
1 829 
1 830 
1 831 
1 832 
1 833 
1 834 
1 835 
1 836 
1 837 
1 838 
1 839 
1 840 
1 841 
1 842 
1 843 
1 844 
1 845 
1 846 
1 847 
1 848 
1 849 
1 850 
1 851 
1 852 
1 853 
1 854 
1 855 
1 856 
1 857 
1 858 
1 859 
1 860 
1 861 
1 862 
1 863 
1 864 
1 865 
1 866 
1 867 
1 868 
1 869 
1 870 
1 871 
1 872 
1 873 
1 874 
1 875 
1 876 
1 877 
1 878 
1 879 
1 880 
1 881 
1 882 
1 883 
1 884 
1 885 
1 886 
1 887 
1 888 
1 889 
1 890 
1 891 
1 892 
1 893 
1 894 
1 895 
1 896 
1 897 
1 898 
1 899 
1 900 
1 901 
1 902 
1 903 
1 904 
1 905 
1 906 
1 907 
1 908 
1 909 
1 910 
1 911 
1 912 
1 913 
1 914 
1 915 
1 916 
1 917 
1 918 
1 919 
1 920 
1 921 
1 922 
1 923 
1 924 
1 925 
1 926 
1 927 
1 928 
1 929 
1 930 
1 931 
1 932 
1 933 
1 934 
1 935 
1 936 
1 937 
1 938 
1 939 
1 940 
1 941 
1 942 
1 943 
1 944 
1 945 
1 946 
1 947 
1 948 
1 949 
1 950 
1 951 
1 952 
1 953 
1 954 
1 955 
1 956 
1 957 
1 958 
1 959 
1 960 
1 961 
1 962 
1 963 
1 964 
1 965 
1 966 
1 967 
1 968 
1 969 
1 970 
1 971 
1 972 
1 973 
1 974 
1 975 
1 976 
1 977 
1 978 
1 979 
1 980 
1 981 
1 982 
1 983 
1 984 
1 985 
1 986 
1 987 
1 988 
1 989 
1 990 
1 991 
1 992 
1 993 
1 994 
1 995 
1 996 
1 997 
1 998 
1 999 
1 1000 
1 1001 
1 1002 
1 1003 
1 1004 
1 1005 
1 1006 
1 1007 
1 1008 
1 1009 
1 1010 
1 1011 
1 1012 
1 1013 
1 1014 
1 1015 
1 1016 
1 1017 
1 1018 
1 1019 
1 1020 
1 1021 
1 1022 
1 1023 
1 1024 
1 1025 
1 1026 
1 1027 
1 1028 
1 1029 
1 1030 
1 1031 
1 1032 
1 1033 
1 1034 
1 1035 
1 1036 
1 1037 
1 1038 
1 1039 
1 1040 
1 1041 
1 1042 
1 1043 
1 1044 
1 1045 
1 1046 
1 1047 
1 1048 

POINT_DATA 1049
SCALARS id double
LOOKUP_TABLE default
980 977 964 1027 1032 983 993 1033 1048 
1036 1024 1020 945 951 966 975 976 955 
990 978 1004 1045 968 972 933 1040 995 
1041 1005 942 947 941 1028 1026 954 1018 
969 1016 936 939 1047 1008 987 1037 932 
962 998 1042 985 1014 930 960 1022 1009 
965 989 973 986 1043 997 999 984 1038 
953 988 929 1029 1030 388 39 40 41 
42 390 391 43 0 389 44 49 45 
48 47 46 50 51 967 1 952 1007 
52 53 2 992 54 58 56 55 59 
57 63 64 60 62 61 65 66 3 
68 395 394 67 393 392 70 71 72 
73 69 77 75 78 74 76 81 80 
79 83 82 85 87 86 88 84 93 
90 89 92 91 96 495 492 494 97 
94 95 4 493 100 99 101 98 102 
105 103 107 104 106 110 112 109 108 
111 114 116 117 113 115 119 122 118 
121 120 558 559 5 560 123 124 126 
557 125 131 129 130 127 128 135 136 
132 134 133 140 139 138 137 141 143 
145 144 146 142 148 151 149 147 150 
590 6 156 589 588 153 154 155 587 
152 162 159 157 161 158 160 1019 7 
1025 164 979 163 994 946 166 8 950 
165 1011 1015 168 170 169 167 171 172 
176 175 174 173 177 181 178 9 179 
180 385 387 386 384 383 1012 1000 1017 
398 397 399 396 400 489 490 487 491 
488 554 555 556 553 552 593 595 591 
592 594 937 1044 943 934 185 182 183 
186 184 380 378 381 382 379 935 971 
1031 405 402 404 401 403 482 485 484 
486 483 547 550 551 549 548 597 600 
599 596 598 958 931 188 191 190 187 
189 373 376 377 374 375 1021 944 410 
407 409 408 406 480 477 479 481 478 
543 542 544 545 546 601 605 604 603 
602 1002 949 1013 940 193 195 196 192 
194 371 372 370 369 368 1003 414 415 
413 412 411 474 476 473 475 472 537 
540 541 539 538 607 608 610 606 609 
1035 959 957 200 201 197 199 198 363 
364 366 367 365 417 420 418 419 416 
469 470 468 467 471 534 536 535 533 
532 613 611 614 612 615 1001 203 202 
204 205 206 362 359 361 358 360 425 
421 424 423 422 466 463 464 465 462 
531 528 529 527 530 617 616 619 618 
620 956 948 210 207 208 209 211 355 
353 357 354 356 426 429 427 430 428 
457 458 460 459 461 526 523 524 522 
525 974 621 622 623 624 625 1023 961 
1046 216 215 214 212 213 350 351 348 
352 349 434 431 433 435 10 432 437 
440 1006 439 438 441 436 442 963 443 
11 12 445 444 447 450 449 446 448 
451 456 454 455 453 452 499 498 496 
13 497 500 503 505 501 502 506 504 
14 508 507 510 509 15 512 511 516 
513 515 514 520 519 518 521 517 565 
16 564 563 562 561 566 568 569 570 
567 571 572 573 17 18 574 575 580 
578 577 581 579 576 586 582 583 585 
584 34 981 19 1039 217 221 219 220 
218 346 343 347 345 344 1034 1010 938 
223 225 226 224 222 341 342 339 20 
664 661 663 660 340 662 21 666 668 
665 667 22 670 671 673 669 672 678 
674 677 676 675 682 681 683 679 680 
717 686 685 714 716 713 715 684 23 
687 721 723 720 719 718 722 724 36 
725 727 726 37 733 728 730 731 729 
732 738 735 737 736 734 741 742 739 
633 24 740 634 632 631 746 743 747 
744 745 748 751 752 750 749 754 757 
756 753 755 761 758 760 759 762 765 
763 767 764 766 771 770 768 772 769 
774 773 776 777 775 780 779 782 781 
778 787 785 784 786 783 791 788 792 
789 790 797 794 793 795 796 818 798 
801 800 799 35 817 819 820 806 805 
804 803 802 808 810 807 809 811 815 
816 814 812 813 991 25 627 630 26 
628 626 629 27 227 228 229 230 338 
336 337 335 334 690 691 688 689 692 
638 635 636 637 639 821 825 824 822 
823 982 232 231 235 233 234 333 329 
331 330 332 694 693 697 695 696 643 
642 640 641 644 828 830 827 826 829 
970 240 238 239 237 236 328 324 326 
325 327 701 698 702 700 699 647 646 
648 645 649 835 832 831 833 834 996 
242 245 241 244 243 319 320 321 322 
323 705 703 706 707 704 651 652 650 
654 653 29 248 250 247 246 249 316 
318 314 315 317 709 708 712 711 710 
656 659 657 655 658 927 924 926 28 
925 928 252 253 251 255 254 310 313 
30 311 312 309 306 307 308 305 301 
304 302 300 303 299 295 298 297 296 
290 294 292 293 291 288 289 285 287 
286 31 283 284 282 281 280 277 276 
278 279 272 274 273 275 271 267 270 
268 269 266 265 263 261 262 264 258 
260 256 259 257 838 836 839 837 32 
843 842 841 844 840 845 849 846 848 
847 852 850 853 854 851 855 859 858 
857 856 860 864 861 862 863 869 868 
866 865 867 870 871 872 873 874 879 
876 877 878 875 882 884 883 881 880 
887 885 888 889 886 893 892 894 890 
891 38 895 898 896 897 899 900 901 
902 903 906 908 904 907 905 911 913 
912 910 909 914 918 916 917 915 923 
919 920 921 922 33 
FIELD FieldData 14
r 3 1049 double
-0.582369 -10.4927 0 -0.331809 -10.0842 0 0.595788 -10.4029 0 
0.0210436 -10.5264 0 -1.1886 -9.12672 0 -0.184134 -9.62971 0 
-0.680266 -9.78654 0 -0.561325 -9.21912 0 0.0271389 -9.9946 0 
0.405858 -9.87359 0 0.206406 -9.32247 0 0.961858 -9.75323 0 
0.773076 -9.15036 0 1.33961 -9.33499 0 -1.73597 -8.60351 0 
1.44199 -8.52606 0 1.90058 -8.90461 0 2.25737 -8.11784 0 
-3.13699 -7.09552 0 -3.6946 -7.69088 0 -3.76034 -7.03275 0 
-2.592 -7.851 0 -2.06641 -7.54078 0 2.80992 -7.78731 0 
-5.49692 -6.25846 0 -4.68419 -6.38007 0 -6.13392 -5.98827 0 
-6.34665 -5.39199 0 -5.22548 -5.6645 0 -4.88019 -5.17743 0 
-4.35706 -5.83947 0 5.21084 -5.75415 0 6.57649 -5.05067 0 
-8.20897 -4.39433 0 -7.43666 -4.29282 0 -6.55507 -4.22239 0 
-5.81715 -4.95971 0 6.18607 -4.59406 0 -8.56718 -3.62983 0 
-7.7821 -3.24666 0 -7.79161 -3.89324 0 -7.25019 -3.53671 0 
7.76538 -3.66436 0 8.20362 -3.31507 0 8.75583 -3.68336 0 
9.29422 -3.4015 0 -10.6419 -2.12909 0 -9.28515 -2.82837 0 
-9.76662 -2.03765 0 -8.43758 -2.87114 0 7.60684 -2.99245 0 
8.84348 -2.74995 0 9.26783 -2.23408 0 10.041 -2.58192 0 
-11.1269 -1.48793 0 -10.1686 -1.49656 0 9.99427 -1.53035 0 
10.5582 -1.97511 0 10.5671 -1.1283 0 11.3833 -1.678 0 
11.1652 -1.12238 0 -11.898 -0.723249 0 -11.0847 -0.862591 0 
-11.8034 -0.236 0 11.2809 -0.57939 0 11.8219 -0.822036 0 
11.7199 -0.247792 0 12.2226 -0.339181 0 -15 0.8 0 
-14.8214 0 0 -14.6429 0 0 -14.4643 0 0 
-14.2857 0 0 -15 0.4 0 -15 0.2 0 
-14.1071 0 0 -15 0 0 -15 0.6 0 
-13.9286 0 0 -13.0357 0 0 -13.75 0 0 
-13.2143 0 0 -13.3929 0 0 -13.5714 0 0 
-12.8571 0 0 -12.6786 0 0 -12.26 0.272844 0 
-12.5 0 0 -12.2998 0.780998 0 -11.7706 0.278052 0 
-11.3214 0 0 -11.1429 0 0 -11.5 0 0 
-11.7559 0.838618 0 -10.9643 0 0 -10.25 0 0 
-10.6071 0 0 -10.7857 0 0 -10.0714 0 0 
-10.4286 0 0 -9.3571 0 0 -9.1786 0 0 
-9.8929 0 0 -9.5357 0 0 -9.7143 0 0 
-8.8 0 0 -8.6 0 0 -9 0 0 
-8.2 0 0 -9 0.8 0 -9 0.6 0 
-8.4 0 0 -9 0.4 0 -9 0.2 0 
-7.8 0 0 -7.6 0 0 -7.4 0 0 
-7.2 0 0 -8 0 0 -6.4 0 0 
-6.8 0 0 -6.2 0 0 -7 0 0 
-6.6 0 0 -5.6 0 0 -5.8 0 0 
-6 0 0 -5.2 0 0 -5.4 0 0 
-4.8 0 0 -4.4 0 0 -4.6 0 0 
-4.2 0 0 -5 0 0 -3.2 0 0 
-3.8 0 0 -4 0 0 -3.4 0 0 
-3.6 0 0 -2.4 0 0 -3 0.2 0 
-3 0.8 0 -3 0.4 0 -2.2 0 0 
-2.8 0 0 -2.6 0 0 -3 0 0 
-3 0.6 0 -1.6 0 0 -1.8 0 0 
-1.4 0 0 -2 0 0 -1.2 0 0 
-0.6 0 0 -1 0 0 -0.2 0 0 
-0.8 0 0 -0.4 0 0 0.4 0 0 
0.8 0 0 0.2 0 0 -0 0 0 
0.6 0 0 1.2 0 0 1.6 0 0 
1.8 0 0 1 0 0 1.4 0 0 
2.2 0 0 2.8 0 0 2 0 0 
2.6 0 0 2.4 0 0 3 0.6 0 
3 0.4 0 3 0 0 3 0.2 0 
3.2 0 0 3.4 0 0 3.8 0 0 
3 0.8 0 3.6 0 0 4.8 0 0 
4.4 0 0 4.6 0 0 4 0 0 
4.2 0 0 5.6 0 0 5.8 0 0 
5 0 0 5.4 0 0 5.2 0 0 
6.6 0 0 6.4 0 0 6.2 0 0 
6 0 0 6.8 0 0 7.2 0 0 
7.6 0 0 7.4 0 0 7.8 0 0 
7 0 0 8.2 0 0 8.8 0 0 
8.4 0 0 8 0 0 8.6 0 0 
9 0.8 0 9 0 0 9.8929 0 0 
9 0.6 0 9 0.4 0 9.3571 0 0 
9.5357 0 0 9.7143 0 0 9 0.2 0 
9.1786 0 0 10.9643 0 0 10.4286 0 0 
10.0714 0 0 10.7857 0 0 10.25 0 0 
10.6071 0 0 11.0831 0.749707 0 11.5 0 0 
11.4339 0.321948 0 11.3214 0 0 11.6867 0.760949 0 
11.1429 0 0 12.15 0.901909 0 12.99 0.636169 0 
12.8571 0 0 12.5 0 0 12.025 0.26445 0 
12.6786 0 0 12.5732 0.276154 0 12.4655 0.662701 0 
13.2143 0 0 13.5714 0 0 13.3929 0 0 
13.0357 0 0 13.75 0 0 13.9286 0 0 
14.6429 0 0 14.4643 0 0 14.2857 0 0 
14.1071 0 0 14.8214 0 0 15 0.8 0 
15 0.2 0 15 0 0 15 0.4 0 
15 0.6 0 -15 1.4 0 -15 1 0 
-15 1.2 0 -15 1.6 0 -15 1.8 0 
-11.6499 1.3753 0 -11.4496 1.93229 0 -10.9138 1.69323 0 
-9 1.4 0 -9 1.2 0 -9 1.6 0 
-9 1 0 -9 1.8 0 -3 1.4 0 
-3 1.2 0 -3 1.8 0 -3 1 0 
-3 1.6 0 3 1.4 0 3 1.2 0 
3 1 0 3 1.6 0 3 1.8 0 
9 1.4 0 9 1.8 0 9 1 0 
9 1.2 0 9 1.6 0 11.3607 1.25199 0 
11.883 1.28568 0 12.2399 1.64294 0 12.613 1.12673 0 
15 1.6 0 15 1 0 15 1.2 0 
15 1.8 0 15 1.4 0 -15 2.4 0 
-15 2.8 0 -15 2.2 0 -15 2 0 
-15 2.6 0 -11.9898 2.13347 0 -11.2762 2.57364 0 
-10.7988 2.94328 0 -9 2.8 0 -9 2.2 0 
-9 2.6 0 -9 2 0 -9 2.4 0 
-3 2.8 0 -3 2.2 0 -3 2.4 0 
-3 2 0 -3 2.6 0 3 2.8 0 
3 2.2 0 3 2 0 3 2.4 0 
3 2.6 0 9 2.2 0 9 2.8 0 
9 2.6 0 9 2 0 9 2.4 0 
12.256 2.16787 0 12.0497 2.91529 0 15 2.2 0 
15 2.8 0 15 2.6 0 15 2 0 
15 2.4 0 -15 3.8 0 -15 3.2 0 
-15 3 0 -15 3.6 0 -15 3.4 0 
-11.4182 3.90707 0 -10.8784 3.55285 0 -9 3.8 0 
-9 3.2 0 -9 3.6 0 -9 3.4 0 
-9 3 0 -3 3.2 0 -3 3.8 0 
-3 3.4 0 -3 3 0 -3 3.6 0 
3 3.6 0 3 3.8 0 3 3.4 0 
3 3.2 0 3 3 0 9 3 0 
9 3.8 0 9 3.6 0 9 3.4 0 
9 3.2 0 10.9581 3.53302 0 12.4443 3.34019 0 
12.9355 3.01663 0 13.2609 3.48648 0 15 3.2 0 
15 3.6 0 15 3.8 0 15 3 0 
15 3.4 0 -15 4.2 0 -15 4 0 
-15 4.4 0 -15 4.6 0 -15 4.8 0 
-10.5638 4.73266 0 -9 4.6 0 -9 4.8 0 
-9 4.4 0 -9 4.2 0 -9 4 0 
-3 4.4 0 -3 4 0 -3 4.6 0 
-3 4.2 0 -3 4.8 0 3 4.8 0 
3 4.2 0 3 4 0 3 4.4 0 
3 4.6 0 9 4.2 0 9 4.4 0 
9 4.8 0 9 4 0 9 4.6 0 
12.2254 4.79556 0 12.9468 4.05577 0 12.8596 4.81067 0 
15 4.6 0 15 4.8 0 15 4 0 
15 4.4 0 15 4.2 0 -15 5.8 0 
-15 5.6 0 -15 5.2 0 -15 5 0 
-15 5.4 0 -9 5.2 0 -9 5.8 0 
-9 5.4 0 -9 5.6 0 -9 5 0 
-3 5.4 0 -3 5.2 0 -3 5.6 0 
-3 5.8 0 -3 5 0 3 5.4 0 
3 5 0 3 5.2 0 3 5.6 0 
3 5.8 0 9 5.4 0 9 5 0 
9 5.6 0 9 5.2 0 9 5.8 0 
10.5093 5.05384 0 15 5.2 0 15 5 0 
15 5.4 0 15 5.6 0 15 5.8 0 
-15 6 0 -15 6.6 0 -15 6.2 0 
-15 6.8 0 -15 6.4 0 -9 6.8 0 
-9 6 0 -9 6.6 0 -9 6.4 0 
-9 6.2 0 -3 6 0 -3 6.6 0 
-3 6.4 0 -3 6.2 0 -3 6.8 0 
3 6 0 3 6.6 0 3 6.4 0 
3 6.8 0 3 6.2 0 9 6.2 0 
9 6 0 9 6.6 0 9 6.4 0 
9 6.8 0 12.7231 6.27089 0 13.3636 6.54288 0 
15 6.6 0 15 6 0 15 6.2 0 
15 6.4 0 15 6.8 0 -15 7.4 0 
-15 7.8 0 -15 7 0 -15 7.6 0 
-15 7.2 0 -9 7 0 -9 7.6 0 
-9 7.2 0 -9 7.8 0 -9 7.4 0 
-3 7.8 0 -3 7.6 0 -3 7.2 0 
-3 7.4 0 -3 7 0 3 7 0 
3 7.6 0 3 7.4 0 3 7.8 0 
3 7.2 0 9.94529 7.0157 0 9 7 0 
9 7.2 0 9 7.4 0 9 7.6 0 
9 7.8 0 9.7105 7.78922 0 13.3362 7.14363 0 
13.0133 7.71111 0 15 7.8 0 15 7.6 0 
15 7.4 0 15 7 0 15 7.2 0 
-15 8.4 0 -15 8.2 0 -15 8.8 0 
-15 8 0 -15 8.6 0 -8.2857 8 0 
-8.8214 8 0 -8.4643 8 0 -8.1071 8 0 
-9 8 0 -8.6429 8 0 -7.75 8 0 
-7.2143 8 0 -7.68662 8.98731 0 -7.3929 8 0 
-7.5714 8 0 -7.0357 8 0 -7.9286 8 0 
-6.8571 8 0 -6.81468 8.97661 0 -6.6786 8 0 
-6.5 8 0 -5.5 8 0 -5.1429 8 0 
-5.3214 8 0 -4.7857 8 0 -4.25 8 0 
-4.4286 8 0 -4.9643 8 0 -4.6071 8 0 
-4.0714 8 0 -3.1786 8 0 -3.5357 8 0 
-3.3571 8 0 -3.7143 8 0 -3.8929 8 0 
-2.2857 8 0 -2.4643 8 0 -2.8214 8 0 
-3 8 0 -2.6429 8 0 -2.1071 8 0 
-1.5714 8 0 -1.2143 8 0 -1.9286 8 0 
-1.75 8 0 -1.0357 8 0 -1.3929 8 0 
-0.5 8 0 -0.6786 8 0 -0.8571 8 0 
0.8571 8 0 0.6786 8 0 0.5 8 0 
1.2143 8 0 1.0357 8 0 1.9286 8 0 
1.3929 8 0 1.75 8 0 1.5714 8 0 
2.6429 8 0 2.4643 8 0 2.2857 8 0 
2.8214 8 0 2.1071 8 0 3.8929 8 0 
3 8 0 3.7143 8 0 3.5357 8 0 
3.3571 8 0 3.1786 8 0 4.0714 8 0 
4.4286 8 0 4.6071 8 0 4.7857 8 0 
4.25 8 0 4.9643 8 0 5.1429 8 0 
5.3214 8 0 5.5 8 0 6.5 8 0 
6.6786 8 0 6.8571 8 0 7.75 8 0 
7.3929 8 0 7.2143 8 0 7.9286 8 0 
7.5714 8 0 7.0357 8 0 8.8214 8 0 
8.1071 8 0 8.2857 8 0 8.6429 8 0 
8.4643 8 0 9 8 0 9.32613 8.24574 0 
9 8 0 13.3034 8.44413 0 15 8 0 
15 8.8 0 15 8.4 0 15 8.6 0 
15 8.2 0 -15 9.2 0 -15 9.8 0 
-15 9 0 -15 9.4 0 -15 9.6 0 
-8.27355 9.00205 0 8.73272 9.00191 0 13.3705 9.08045 0 
15 9.2 0 15 9.6 0 15 9.8 0 
15 9.4 0 15 9 0 -15 10.4 0 
-15 10.2 0 -15 10.8 0 -15 10 0 
-14.1667 10 0 -14.6667 10 0 -14.3333 10 0 
-14.8333 10 0 -15 10.6 0 -14.5 10 0 
-14 10 0 -12.6 10 0 -12.2 10 0 
-12.8 10 0 -12.4 10 0 -13 10 0 
-11.8 10 0 -11.6 10 0 -11.2 10 0 
-12 10 0 -11.4 10 0 -10.2 10 0 
-11 10 0 -10.4 10 0 -10.6 10 0 
-10.8 10 0 -9.4 10 0 -9.6 10 0 
-9.2 10 0 -10 10 0 -9.8 10 0 
-8.1071 10 0 -9 10.6 0 -9 10.4 0 
-8.6429 10 0 -8.2857 10 0 -8.8214 10 0 
-8.4643 10 0 -9 10.2 0 -9 10 0 
-9 10.8 0 -7.3929 10 0 -7.0357 10 0 
-7.5714 10 0 -7.75 10 0 -7.9286 10 0 
-7.2143 10 0 -6.8571 10 0 -6.5 10 0 
-6.6786 10 0 -5.1429 10 0 -5.3214 10 0 
-5.5 10 0 -4.0714 10 0 -4.9643 10 0 
-4.6071 10 0 -4.4286 10 0 -4.7857 10 0 
-4.25 10 0 -3.1786 10 0 -3.7143 10 0 
-3.3571 10 0 -3.5357 10 0 -3.8929 10 0 
-2.4 10 0 -2.2 10 0 -2.8 10 0 
-3 10.6 0 -3 10 0 -2.6 10 0 
-3 10.8 0 -3 10.4 0 -3 10.2 0 
-1.4 10 0 -2 10 0 -1.2 10 0 
-1.8 10 0 -1.6 10 0 -1 10 0 
-0.4 10 0 -0.2 10 0 -0.6 10 0 
-0.8 10 0 0.2 10 0 0.8 10 0 
0.6 10 0 -0 10 0 0.4 10 0 
1.6 10 0 1 10 0 1.4 10 0 
1.2 10 0 1.8 10 0 2.4 10 0 
2 10 0 2.8 10 0 2.2 10 0 
2.6 10 0 3.6 10 0 3.4 10 0 
3 10 0 3.8 10 0 3.2 10 0 
4.2 10 0 4 10 0 4.6 10 0 
4.8 10 0 4.4 10 0 5.4 10 0 
5.2 10 0 5.8 10 0 5.6 10 0 
5 10 0 6.8 10 0 6.4 10 0 
6.2 10 0 6.6 10 0 6 10 0 
7.6 10 0 7 10 0 7.8 10 0 
7.2 10 0 7.4 10 0 8.8 10 0 
8.2 10 0 8 10 0 8.4 10 0 
8.6 10 0 9 10.4 0 9.2 10 0 
9.8 10 0 9.6 10 0 9.4 10 0 
9 10 0 9 10.2 0 9 10.6 0 
9 10.8 0 10.8 10 0 10.6 10 0 
10.4 10 0 10.2 10 0 10 10 0 
11.2 10 0 11.6 10 0 11 10 0 
11.4 10 0 11.8 10 0 12.6 10 0 
12.8 10 0 12.4 10 0 12 10 0 
12.2 10 0 12.8942 10.6602 0 13 10 0 
14.6667 10 0 14.1667 10 0 14 10 0 
14.5 10 0 14.8333 10 0 14.3333 10 0 
15 10 0 15 10.2 0 15 10.4 0 
15 10.6 0 15 10.8 0 -15 11 0 
-15 11.4 0 -15 11.2 0 -15 11.6 0 
-15 11.8 0 -9 11.4 0 -9 11.6 0 
-9 11 0 -9 11.2 0 -9 11.8 0 
-3 11.6 0 -3 11 0 -3 11.2 0 
-3 11.4 0 -3 11.8 0 9 11 0 
9 11.8 0 9 11.6 0 9 11.2 0 
9 11.4 0 12.1079 11.4672 0 15 11.2 0 
15 11 0 15 11.8 0 15 11.4 0 
15 11.6 0 -15 12 0 -15 12.8 0 
-15 12.4 0 -15 12.6 0 -15 12.2 0 
-9 12.2 0 -9 12 0 -9 12.8 0 
-9 12.4 0 -9 12.6 0 -3 12.6 0 
-3 12.4 0 -3 12 0 -3 12.2 0 
-3 12.8 0 9 12.4 0 9 12.8 0 
9 12.2 0 9 12 0 9 12.6 0 
10.8397 12.8098 0 15 12.8 0 15 12.4 0 
15 12.6 0 15 12.2 0 15 12 0 
-15 13 0 -15 13.8 0 -15 13.4 0 
-15 13.6 0 -15 13.2 0 -9 13.6 0 
-9 13 0 -9 13.8 0 -9 13.4 0 
-9 13.2 0 -3 13.4 0 -3 13.2 0 
-3 13.6 0 -3 13 0 -3 13.8 0 
9 13.8 0 9 13.2 0 9 13 0 
9 13.4 0 9 13.6 0 10.2023 13.4718 0 
15 13.2 0 15 13.8 0 15 13 0 
15 13.6 0 15 13.4 0 -15 14.8 0 
-15 14.6 0 -15 14.4 0 -15 14.2 0 
-15 14 0 -9 14.4 0 -9 14 0 
-9 14.6 0 -9 14.8 0 -9 14.2 0 
-3 14.2 0 -3 14.4 0 -3 14 0 
-3 14.8 0 -3 14.6 0 9 14 0 
15 14.4 0 15 14.8 0 15 14.2 0 
15 14 0 15 14.6 0 -15 15.4 0 
-15 15 0 -15 15.8 0 -15 15.6 0 
-15 15.2 0 -9 15.2 0 -9 15 0 
-9 15.8 0 -9 15.6 0 -9 15.4 0 
-3 15.2 0 -3 15.8 0 -3 15.4 0 
-3 15 0 -3 15.6 0 9 15.6667 0 
9 15.1667 0 9 15.5 0 9 15 0 
9 15.3333 0 9 15.8333 0 15 15.2 0 
15 15.4 0 15 15 0 15 15.8 0 
15 15.6 0 -14.2 16 0 -14.8 16 0 
-15 16 0 -14.4 16 0 -14.6 16 0 
-14 16 0 -13.4 16 0 -13.6 16 0 
-13.8 16 0 -13.2 16 0 -12.4 16 0 
-13 16 0 -12.6 16 0 -12.2 16 0 
-12.8 16 0 -12 16 0 -11.2 16 0 
-11.8 16 0 -11.6 16 0 -11.4 16 0 
-10.2 16 0 -11 16 0 -10.6 16 0 
-10.8 16 0 -10.4 16 0 -9.8 16 0 
-10 16 0 -9.2 16 0 -9.6 16 0 
-9.4 16 0 -9 16 0 -8.6 16 0 
-8.8 16 0 -8.4 16 0 -8.2 16 0 
-8 16 0 -7.4 16 0 -7.2 16 0 
-7.6 16 0 -7.8 16 0 -6.4 16 0 
-6.8 16 0 -6.6 16 0 -7 16 0 
-6.2 16 0 -5.4 16 0 -6 16 0 
-5.6 16 0 -5.8 16 0 -5.2 16 0 
-5 16 0 -4.6 16 0 -4.2 16 0 
-4.4 16 0 -4.8 16 0 -3.6 16 0 
-4 16 0 -3.2 16 0 -3.8 16 0 
-3.4 16 0 -2.4 16 0 -2.8 16 0 
-2.2 16 0 -2.6 16 0 -3 16 0 
-1.4 16 0 -1.6 16 0 -1.8 16 0 
-1.2 16 0 -2 16 0 -1 16 0 
-0.2 16 0 -0.8 16 0 -0.4 16 0 
-0.6 16 0 0.4 16 0 -0 16 0 
0.6 16 0 0.8 16 0 0.2 16 0 
1 16 0 1.8 16 0 1.6 16 0 
1.4 16 0 1.2 16 0 2 16 0 
2.8 16 0 2.2 16 0 2.4 16 0 
2.6 16 0 3.8 16 0 3.6 16 0 
3.2 16 0 3 16 0 3.4 16 0 
4 16 0 4.2 16 0 4.4 16 0 
4.6 16 0 4.8 16 0 5.8 16 0 
5.2 16 0 5.4 16 0 5.6 16 0 
5 16 0 6.4 16 0 6.8 16 0 
6.6 16 0 6.2 16 0 6 16 0 
7.4 16 0 7 16 0 7.6 16 0 
7.8 16 0 7.2 16 0 8.6 16 0 
8.4 16 0 8.8 16 0 8 16 0 
8.2 16 0 9 16 0 9.2 16 0 
9.8 16 0 9.4 16 0 9.6 16 0 
10 16 0 10.2 16 0 10.4 16 0 
10.6 16 0 10.8 16 0 11.4 16 0 
11.8 16 0 11 16 0 11.6 16 0 
11.2 16 0 12.4 16 0 12.8 16 0 
12.6 16 0 12.2 16 0 12 16 0 
13 16 0 13.8 16 0 13.4 16 0 
13.6 16 0 13.2 16 0 14.8 16 0 
14 16 0 14.2 16 0 14.4 16 0 
14.6 16 0 15 16 0 
gid 1 1049 double
1 1 1 1 1 1 1 1 1 
1 1 1 1 1 1 1 1 1 
1 1 1 1 1 1 1 1 1 
1 1 1 1 1 1 1 1 1 
1 1 1 1 1 1 1 1 1 
1 1 1 1 1 1 1 1 1 
1 1 1 1 1 1 1 1 1 
1 1 1 1 1 2 2 2 2 
2 2 2 2 2 2 2 2 2 
2 2 2 2 2 1 2 1 1 
2 2 2 1 2 2 2 2 2 
2 2 2 2 2 2 2 2 2 
2 2 2 2 2 2 2 2 2 
2 2 2 2 2 2 2 2 2 
2 2 2 2 2 2 2 2 2 
2 2 2 2 2 2 2 2 2 
2 2 2 2 2 2 2 2 2 
2 2 2 2 2 2 2 2 2 
2 2 2 2 2 2 2 2 2 
2 2 2 2 2 2 2 2 2 
2 2 2 2 2 2 2 2 2 
2 2 2 2 2 2 2 2 2 
2 2 2 2 2 2 2 2 2 
2 2 2 2 2 2 2 2 2 
2 2 2 2 2 2 2 1 2 
1 2 1 2 1 1 2 2 1 
2 1 1 2 2 2 2 2 2 
2 2 2 2 2 2 2 2 2 
2 2 2 2 2 2 1 1 1 
2 2 2 2 2 2 2 2 2 
2 2 2 2 2 2 2 2 2 
2 2 1 1 1 1 2 2 2 
2 2 2 2 2 2 2 1 1 
1 2 2 2 2 2 2 2 2 
2 2 2 2 2 2 2 2 2 
2 2 2 1 1 2 2 2 2 
2 2 2 2 2 2 1 1 2 
2 2 2 2 2 2 2 2 2 
2 2 2 2 2 2 2 2 2 
2 1 1 1 1 2 2 2 2 
2 2 2 2 2 2 1 2 2 
2 2 2 2 2 2 2 2 2 
2 2 2 2 2 2 2 2 2 
1 1 1 2 2 2 2 2 2 
2 2 2 2 2 2 2 2 2 
2 2 2 2 2 2 2 2 2 
2 2 2 2 2 2 1 2 2 
2 2 2 2 2 2 2 2 2 
2 2 2 2 2 2 2 2 2 
2 2 2 2 2 2 2 2 2 
2 1 1 2 2 2 2 2 2 
2 2 2 2 2 2 2 2 2 
2 2 2 2 2 2 2 2 2 
2 1 2 2 2 2 2 1 1 
1 2 2 2 2 2 2 2 2 
2 2 2 2 2 2 2 2 2 
2 1 2 2 2 2 2 1 2 
2 2 2 2 2 2 2 2 2 
2 2 2 2 2 2 2 2 2 
2 2 2 2 2 2 2 2 2 
2 2 2 2 2 2 2 2 2 
2 2 2 2 2 2 2 2 2 
2 2 2 2 2 2 2 2 2 
2 2 2 2 2 2 2 2 2 
2 2 2 2 2 2 2 2 2 
2 2 1 2 1 2 2 2 2 
2 2 2 2 2 2 1 1 1 
2 2 2 2 2 2 2 2 2 
2 2 2 2 2 2 2 2 2 
2 2 2 2 2 2 2 2 2 
2 2 2 2 2 2 2 2 2 
2 2 2 2 2 2 2 2 2 
2 2 2 2 2 2 2 2 2 
2 2 2 2 2 2 2 2 2 
2 2 2 2 2 2 2 2 2 
2 2 2 2 2 2 2 2 2 
2 2 2 2 2 2 2 2 2 
2 2 2 2 2 2 2 2 2 
2 2 2 2 2 2 2 2 2 
2 2 2 2 2 2 2 2 2 
2 2 2 2 2 2 2 2 2 
2 2 2 2 2 2 2 2 2 
2 2 2 2 2 2 2 2 2 
2 2 2 2 2 2 2 2 2 
2 2 2 2 1 2 2 2 2 
2 2 2 2 2 2 2 2 2 
2 2 2 2 2 2 2 2 2 
2 2 2 2 2 2 2 2 2 
2 1 2 2 2 2 2 2 2 
2 2 2 2 2 2 2 2 2 
2 2 2 2 2 2 2 2 2 
1 2 2 2 2 2 2 2 2 
2 2 2 2 2 2 2 2 2 
2 2 2 2 2 2 2 2 1 
2 2 2 2 2 2 2 2 2 
2 2 2 2 2 2 2 2 2 
2 2 2 2 2 2 2 2 2 
2 2 2 2 2 2 2 2 2 
2 2 2 2 2 2 2 2 2 
2 2 2 2 2 2 2 2 2 
2 2 2 2 2 2 2 2 2 
2 2 2 2 2 2 2 2 2 
2 2 2 2 2 2 2 2 2 
2 2 2 2 2 2 2 2 2 
2 2 2 2 2 2 2 2 2 
2 2 2 2 2 2 2 2 2 
2 2 2 2 2 2 2 2 2 
2 2 2 2 2 2 2 2 2 
2 2 2 2 2 2 2 2 2 
2 2 2 2 2 2 2 2 2 
2 2 2 2 2 2 2 2 2 
2 2 2 2 2 2 2 2 2 
2 2 2 2 2 2 2 2 2 
2 2 2 2 2 2 2 2 2 
2 2 2 2 2 2 2 2 2 
2 2 2 2 2 2 2 2 2 
2 2 2 2 2 
A 1 1049 double
10 10 10 10 10 10 10 10 10 
10 10 10 10 10 10 10 10 10 
10 10 10 10 10 10 10 10 10 
10 10 10 10 10 10 10 10 10 
10 10 10 10 10 10 10 10 10 
10 10 10 10 10 10 10 10 10 
10 10 10 10 10 10 10 10 10 
10 10 10 10 10 10 10 10 10 
10 10 10 10 10 10 10 10 10 
10 10 10 10 10 10 10 10 10 
10 10 10 10 10 10 10 10 10 
10 10 10 10 10 10 10 10 10 
10 10 10 10 10 10 10 10 10 
10 10 10 10 10 10 10 10 10 
10 10 10 10 10 10 10 10 10 
10 10 10 10 10 10 10 10 10 
10 10 10 10 10 10 10 10 10 
10 10 10 10 10 10 10 10 10 
10 10 10 10 10 10 10 10 10 
10 10 10 10 10 10 10 10 10 
10 10 10 10 10 10 10 10 10 
10 10 10 10 10 10 10 10 10 
10 10 10 10 10 10 10 10 10 
10 10 10 10 10 10 10 10 10 
10 10 10 10 10 10 10 10 10 
10 10 10 10 10 10 10 10 10 
10 10 10 10 10 10 10 10 10 
10 10 10 10 10 10 10 10 10 
10 10 10 10 10 10 10 10 10 
10 10 10 10 10 10 10 10 10 
10 10 10 10 10 10 10 10 10 
10 10 10 10 10 10 10 10 10 
10 10 10 10 10 10 10 10 10 
10 10 10 10 10 10 10 10 10 
10 10 10 10 10 10 10 10 10 
10 10 10 10 10 10 10 10 10 
10 10 10 10 10 10 10 10 10 
10 10 10 10 10 10 10 10 10 
10 10 10 10 10 10 10 10 10 
10 10 10 10 10 10 10 10 10 
10 10 10 10 10 10 10 10 10 
10 10 10 10 10 10 10 10 10 
10 10 10 10 10 10 10 10 10 
10 10 10 10 10 10 10 10 10 
10 10 10 10 10 10 10 10 10 
10 10 10 10 10 10 10 10 10 
10 10 10 10 10 10 10 10 10 
10 10 10 10 10 10 10 10 10 
10 10 10 10 10 10 10 10 10 
10 10 10 10 10 10 10 10 10 
10 10 10 10 10 10 10 10 10 
10 10 10 10 10 10 10 10 10 
10 10 10 10 10 10 10 10 10 
10 10 10 10 10 10 10 10 10 
10 10 10 10 10 10 10 10 10 
10 10 10 10 10 10 10 10 10 
10 10 10 10 10 10 10 10 10 
10 10 10 10 10 10 10 10 10 
10 10 10 10 10 10 10 10 10 
10 10 10 10 10 10 10 10 10 
10 10 10 10 10 10 10 10 10 
10 10 10 10 10 10 10 10 10 
10 10 10 10 10 10 10 10 10 
10 10 10 10 10 10 10 10 10 
10 10 10 10 10 10 10 10 10 
10 10 10 10 10 10 10 10 10 
10 10 10 10 10 10 10 10 10 
10 10 10 10 10 10 10 10 10 
10 10 10 10 10 10 10 10 10 
10 10 10 10 10 10 10 10 10 
10 10 10 10 10 10 10 10 10 
10 10 10 10 10 10 10 10 10 
10 10 10 10 10 10 10 10 10 
10 10 10 10 10 10 10 10 10 
10 10 10 10 10 10 10 10 10 
10 10 10 10 10 10 10 10 10 
10 10 10 10 10 10 10 10 10 
10 10 10 10 10 10 10 10 10 
10 10 10 10 10 10 10 10 10 
10 10 10 10 10 10 10 10 10 
10 10 10 10 10 10 10 10 10 
10 10 10 10 10 10 10 10 10 
10 10 10 10 10 10 10 10 10 
10 10 10 10 10 10 10 10 10 
10 10 10 10 10 10 10 10 10 
10 10 10 10 10 10 10 10 10 
10 10 10 10 10 10 10 10 10 
10 10 10 10 10 10 10 10 10 
10 10 10 10 10 10 10 10 10 
10 10 10 10 10 10 10 10 10 
10 10 10 10 10 10 10 10 10 
10 10 10 10 10 10 10 10 10 
10 10 10 10 10 10 10 10 10 
10 10 10 10 10 10 10 10 10 
10 10 10 10 10 10 10 10 10 
10 10 10 10 10 10 10 10 10 
10 10 10 10 10 10 10 10 10 
10 10 10 10 10 10 10 10 10 
10 10 10 10 10 10 10 10 10 
10 10 10 10 10 10 10 10 10 
10 10 10 10 10 10 10 10 10 
10 10 10 10 10 10 10 10 10 
10 10 10 10 10 10 10 10 10 
10 10 10 10 10 10 10 10 10 
10 10 10 10 10 10 10 10 10 
10 10 10 10 10 10 10 10 10 
10 10 10 10 10 10 10 10 10 
10 10 10 10 10 10 10 10 10 
10 10 10 10 10 10 10 10 10 
10 10 10 10 10 10 10 10 10 
10 10 10 10 10 10 10 10 10 
10 10 10 10 10 10 10 10 10 
10 10 10 10 10 10 10 10 10 
10 10 10 10 10 10 10 10 10 
10 10 10 10 10 10 10 10 10 
10 10 10 10 10 10 10 10 10 
10 10 10 10 10 
B 1 1049 double
0.2 0.2 0.2 0.2 0.2 0.2 0.2 0.2 0.2 
0.2 0.2 0.2 0.2 0.2 0.2 0.2 0.2 0.2 
0.2 0.2 0.2 0.2 0.2 0.2 0.2 0.2 0.2 
0.2 0.2 0.2 0.2 0.2 0.2 0.2 0.2 0.2 
0.2 0.2 0.2 0.2 0.2 0.2 0.2 0.2 0.2 
0.2 0.2 0.2 0.2 0.2 0.2 0.2 0.2 0.2 
0.2 0.2 0.2 0.2 0.2 0.2 0.2 0.2 0.2 
0.2 0.2 0.2 0.2 0.2 0.2 0.2 0.2 0.2 
0.2 0.2 0.2 0.2 0.2 0.2 0.2 0.2 0.2 
0.2 0.2 0.2 0.2 0.2 0.2 0.2 0.2 0.2 
0.2 0.2 0.2 0.2 0.2 0.2 0.2 0.2 0.2 
0.2 0.2 0.2 0.2 0.2 0.2 0.2 0.2 0.2 
0.2 0.2 0.2 0.2 0.2 0.2 0.2 0.2 0.2 
0.2 0.2 0.2 0.2 0.2 0.2 0.2 0.2 0.2 
0.2 0.2 0.2 0.2 0.2 0.2 0.2 0.2 0.2 
0.2 0.2 0.2 0.2 0.2 0.2 0.2 0.2 0.2 
0.2 0.2 0.2 0.2 0.2 0.2 0.2 0.2 0.2 
0.2 0.2 0.2 0.2 0.2 0.2 0.2 0.2 0.2 
0.2 0.2 0.2 0.2 0.2 0.2 0.2 0.2 0.2 
0.2 0.2 0.2 0.2 0.2 0.2 0.2 0.2 0.2 
0.2 0.2 0.2 0.2 0.2 0.2 0.2 0.2 0.2 
0.2 0.2 0.2 0.2 0.2 0.2 0.2 0.2 0.2 
0.2 0.2 0.2 0.2 0.2 0.2 0.2 0.2 0.2 
0.2 0.2 0.2 0.2 0.2 0.2 0.2 0.2 0.2 
0.2 0.2 0.2 0.2 0.2 0.2 0.2 0.2 0.2 
0.2 0.2 0.2 0.2 0.2 0.2 0.2 0.2 0.2 
0.2 0.2 0.2 0.2 0.2 0.2 0.2 0.2 0.2 
0.2 0.2 0.2 0.2 0.2 0.2 0.2 0.2 0.2 
0.2 0.2 0.2 0.2 0.2 0.2 0.2 0.2 0.2 
0.2 0.2 0.2 0.2 0.2 0.2 0.2 0.2 0.2 
0.2 0.2 0.2 0.2 0.2 0.2 0.2 0.2 0.2 
0.2 0.2 0.2 0.2 0.2 0.2 0.2 0.2 0.2 
0.2 0.2 0.2 0.2 0.2 0.2 0.2 0.2 0.2 
0.2 0.2 0.2 0.2 0.2 0.2 0.2 0.2 0.2 
0.2 0.2 0.2 0.2 0.2 0.2 0.2 0.2 0.2 
0.2 0.2 0.2 0.2 0.2 0.2 0.2 0.2 0.2 
0.2 0.2 0.2 0.2 0.2 0.2 0.2 0.2 0.2 
0.2 0.2 0.2 0.2 0.2 0.2 0.2 0.2 0.2 
0.2 0.2 0.2 0.2 0.2 0.2 0.2 0.2 0.2 
0.2 0.2 0.2 0.2 0.2 0.2 0.2 0.2 0.2 
0.2 0.2 0.2 0.2 0.2 0.2 0.2 0.2 0.2 
0.2 0.2 0.2 0.2 0.2 0.2 0.2 0.2 0.2 
0.2 0.2 0.2 0.2 0.2 0.2 0.2 0.2 0.2 
0.2 0.2 0.2 0.2 0.2 0.2 0.2 0.2 0.2 
0.2 0.2 0.2 0.2 0.2 0.2 0.2 0.2 0.2 
0.2 0.2 0.2 0.2 0.2 0.2 0.2 0.2 0.2 
0.2 0.2 0.2 0.2 0.2 0.2 0.2 0.2 0.2 
0.2 0.2 0.2 0.2 0.2 0.2 0.2 0.2 0.2 
0.2 0.2 0.2 0.2 0.2 0.2 0.2 0.2 0.2 
0.2 0.2 0.2 0.2 0.2 0.2 0.2 0.2 0.2 
0.2 0.2 0.2 0.2 0.2 0.2 0.2 0.2 0.2 
0.2 0.2 0.2 0.2 0.2 0.2 0.2 0.2 0.2 
0.2 0.2 0.2 0.2 0.2 0.2 0.2 0.2 0.2 
0.2 0.2 0.2 0.2 0.2 0.2 0.2 0.2 0.2 
0.2 0.2 0.2 0.2 0.2 0.2 0.2 0.2 0.2 
0.2 0.2 0.2 0.2 0.2 0.2 0.2 0.2 0.2 
0.2 0.2 0.2 0.2 0.2 0.2 0.2 0.2 0.2 
0.2 0.2 0.2 0.2 0.2 0.2 0.2 0.2 0.2 
0.2 0.2 0.2 0.2 0.2 0.2 0.2 0.2 0.2 
0.2 0.2 0.2 0.2 0.2 0.2 0.2 0.2 0.2 
0.2 0.2 0.2 0.2 0.2 0.2 0.2 0.2 0.2 
0.2 0.2 0.2 0.2 0.2 0.2 0.2 0.2 0.2 
0.2 0.2 0.2 0.2 0.2 0.2 0.2 0.2 0.2 
0.2 0.2 0.2 0.2 0.2 0.2 0.2 0.2 0.2 
0.2 0.2 0.2 0.2 0.2 0.2 0.2 0.2 0.2 
0.2 0.2 0.2 0.2 0.2 0.2 0.2 0.2 0.2 
0.2 0.2 0.2 0.2 0.2 0.2 0.2 0.2 0.2 
0.2 0.2 0.2 0.2 0.2 0.2 0.2 0.2 0.2 
0.2 0.2 0.2 0.2 0.2 0.2 0.2 0.2 0.2 
0.2 0.2 0.2 0.2 0.2 0.2 0.2 0.2 0.2 
0.2 0.2 0.2 0.2 0.2 0.2 0.2 0.2 0.2 
0.2 0.2 0.2 0.2 0.2 0.2 0.2 0.2 0.2 
0.2 0.2 0.2 0.2 0.2 0.2 0.2 0.2 0.2 
0.2 0.2 0.2 0.2 0.2 0.2 0.2 0.2 0.2 
0.2 0.2 0.2 0.2 0.2 0.2 0.2 0.2 0.2 
0.2 0.2 0.2 0.2 0.2 0.2 0.2 0.2 0.2 
0.2 0.2 0.2 0.2 0.2 0.2 0.2 0.2 0.2 
0.2 0.2 0.2 0.2 0.2 0.2 0.2 0.2 0.2 
0.2 0.2 0.2 0.2 0.2 0.2 0.2 0.2 0.2 
0.2 0.2 0.2 0.2 0.2 0.2 0.2 0.2 0.2 
0.2 0.2 0.2 0.2 0.2 0.2 0.2 0.2 0.2 
0.2 0.2 0.2 0.2 0.2 0.2 0.2 0.2 0.2 
0.2 0.2 0.2 0.2 0.2 0.2 0.2 0.2 0.2 
0.2 0.2 0.2 0.2 0.2 0.2 0.2 0.2 0.2 
0.2 0.2 0.2 0.2 0.2 0.2 0.2 0.2 0.2 
0.2 0.2 0.2 0.2 0.2 0.2 0.2 0.2 0.2 
0.2 0.2 0.2 0.2 0.2 0.2 0.2 0.2 0.2 
0.2 0.2 0.2 0.2 0.2 0.2 0.2 0.2 0.2 
0.2 0.2 0.2 0.2 0.2 0.2 0.2 0.2 0.2 
0.2 0.2 0.2 0.2 0.2 0.2 0.2 0.2 0.2 
0.2 0.2 0.2 0.2 0.2 0.2 0.2 0.2 0.2 
0.2 0.2 0.2 0.2 0.2 0.2 0.2 0.2 0.2 
0.2 0.2 0.2 0.2 0.2 0.2 0.2 0.2 0.2 
0.2 0.2 0.2 0.2 0.2 0.2 0.2 0.2 0.2 
0.2 0.2 0.2 0.2 0.2 0.2 0.2 0.2 0.2 
0.2 0.2 0.2 0.2 0.2 0.2 0.2 0.2 0.2 
0.2 0.2 0.2 0.2 0.2 0.2 0.2 0.2 0.2 
0.2 0.2 0.2 0.2 0.2 0.2 0.2 0.2 0.2 
0.2 0.2 0.2 0.2 0.2 0.2 0.2 0.2 0.2 
0.2 0.2 0.2 0.2 0.2 0.2 0.2 0.2 0.2 
0.2 0.2 0.2 0.2 0.2 0.2 0.2 0.2 0.2 
0.2 0.2 0.2 0.2 0.2 0.2 0.2 0.2 0.2 
0.2 0.2 0.2 0.2 0.2 0.2 0.2 0.2 0.2 
0.2 0.2 0.2 0.2 0.2 0.2 0.2 0.2 0.2 
0.2 0.2 0.2 0.2 0.2 0.2 0.2 0.2 0.2 
0.2 0.2 0.2 0.2 0.2 0.2 0.2 0.2 0.2 
0.2 0.2 0.2 0.2 0.2 0.2 0.2 0.2 0.2 
0.2 0.2 0.2 0.2 0.2 0.2 0.2 0.2 0.2 
0.2 0.2 0.2 0.2 0.2 0.2 0.2 0.2 0.2 
0.2 0.2 0.2 0.2 0.2 0.2 0.2 0.2 0.2 
0.2 0.2 0.2 0.2 0.2 0.2 0.2 0.2 0.2 
0.2 0.2 0.2 0.2 0.2 0.2 0.2 0.2 0.2 
0.2 0.2 0.2 0.2 0.2 0.2 0.2 0.2 0.2 
0.2 0.2 0.2 0.2 0.2 0.2 0.2 0.2 0.2 
0.2 0.2 0.2 0.2 0.2 0.2 0.2 0.2 0.2 
0.2 0.2 0.2 0.2 0.2 0.2 0.2 0.2 0.2 
0.2 0.2 0.2 0.2 0.2 
c 1 1049 double
0.1 0.1 0.1 0.1 0.1 0.1 0.1 0.1 0.1 
0.1 0.1 0.1 0.1 0.1 0.1 0.1 0.1 0.1 
0.1 0.1 0.1 0.1 0.1 0.1 0.1 0.1 0.1 
0.1 0.1 0.1 0.1 0.1 0.1 0.1 0.1 0.1 
0.1 0.1 0.1 0.1 0.1 0.1 0.1 0.1 0.1 
0.1 0.1 0.1 0.1 0.1 0.1 0.1 0.1 0.1 
0.1 0.1 0.1 0.1 0.1 0.1 0.1 0.1 0.1 
0.1 0.1 0.1 0.1 0.1 0.1 0.1 0.1 0.1 
0.1 0.1 0.1 0.1 0.1 0.1 0.1 0.1 0.1 
0.1 0.1 0.1 0.1 0.1 0.1 0.1 0.1 0.1 
0.1 0.1 0.1 0.1 0.1 0.1 0.1 0.1 0.1 
0.1 0.1 0.1 0.1 0.1 0.1 0.1 0.1 0.1 
0.1 0.1 0.1 0.1 0.1 0.1 0.1 0.1 0.1 
0.1 0.1 0.1 0.1 0.1 0.1 0.1 0.1 0.1 
0.1 0.1 0.1 0.1 0.1 0.1 0.1 0.1 0.1 
0.1 0.1 0.1 0.1 0.1 0.1 0.1 0.1 0.1 
0.1 0.1 0.1 0.1 0.1 0.1 0.1 0.1 0.1 
0.1 0.1 0.1 0.1 0.1 0.1 0.1 0.1 0.1 
0.1 0.1 0.1 0.1 0.1 0.1 0.1 0.1 0.1 
0.1 0.1 0.1 0.1 0.1 0.1 0.1 0.1 0.1 
0.1 0.1 0.1 0.1 0.1 0.1 0.1 0.1 0.1 
0.1 0.1 0.1 0.1 0.1 0.1 0.1 0.1 0.1 
0.1 0.1 0.1 0.1 0.1 0.1 0.1 0.1 0.1 
0.1 0.1 0.1 0.1 0.1 0.1 0.1 0.1 0.1 
0.1 0.1 0.1 0.1 0.1 0.1 0.1 0.1 0.1 
0.1 0.1 0.1 0.1 0.1 0.1 0.1 0.1 0.1 
0.1 0.1 0.1 0.1 0.1 0.1 0.1 0.1 0.1 
0.1 0.1 0.1 0.1 0.1 0.1 0.1 0.1 0.1 
0.1 0.1 0.1 0.1 0.1 0.1 0.1 0.1 0.1 
0.1 0.1 0.1 0.1 0.1 0.1 0.1 0.1 0.1 
0.1 0.1 0.1 0.1 0.1 0.1 0.1 0.1 0.1 
0.1 0.1 0.1 0.1 0.1 0.1 0.1 0.1 0.1 
0.1 0.1 0.1 0.1 0.1 0.1 0.1 0.1 0.1 
0.1 0.1 0.1 0.1 0.1 0.1 0.1 0.1 0.1 
0.1 0.1 0.1 0.1 0.1 0.1 0.1 0.1 0.1 
0.1 0.1 0.1 0.1 0.1 0.1 0.1 0.1 0.1 
0.1 0.1 0.1 0.1 0.1 0.1 0.1 0.1 0.1 
0.1 0.1 0.1 0.1 0.1 0.1 0.1 0.1 0.1 
0.1 0.1 0.1 0.1 0.1 0.1 0.1 0.1 0.1 
0.1 0.1 0.1 0.1 0.1 0.1 0.1 0.1 0.1 
0.1 0.1 0.1 0.1 0.1 0.1 0.1 0.1 0.1 
0.1 0.1 0.1 0.1 0.1 0.1 0.1 0.1 0.1 
0.1 0.1 0.1 0.1 0.1 0.1 0.1 0.1 0.1 
0.1 0.1 0.1 0.1 0.1 0.1 0.1 0.1 0.1 
0.1 0.1 0.1 0.1 0.1 0.1 0.1 0.1 0.1 
0.1 0.1 0.1 0.1 0.1 0.1 0.1 0.1 0.1 
0.1 0.1 0.1 0.1 0.1 0.1 0.1 0.1 0.1 
0.1 0.1 0.1 0.1 0.1 0.1 0.1 0.1 0.1 
0.1 0.1 0.1 0.1 0.1 0.1 0.1 0.1 0.1 
0.1 0.1 0.1 0.1 0.1 0.1 0.1 0.1 0.1 
0.1 0.1 0.1 0.1 0.1 0.1 0.1 0.1 0.1 
0.1 0.1 0.1 0.1 0.1 0.1 0.1 0.1 0.1 
0.1 0.1 0.1 0.1 0.1 0.1 0.1 0.1 0.1 
0.1 0.1 0.1 0.1 0.1 0.1 0.1 0.1 0.1 
0.1 0.1 0.1 0.1 0.1 0.1 0.1 0.1 0.1 
0.1 0.1 0.1 0.1 0.1 0.1 0.1 0.1 0.1 
0.1 0.1 0.1 0.1 0.1 0.1 0.1 0.1 0.1 
0.1 0.1 0.1 0.1 0.1 0.1 0.1 0.1 0.1 
0.1 0.1 0.1 0.1 0.1 0.1 0.1 0.1 0.1 
0.1 0.1 0.1 0.1 0.1 0.1 0.1 0.1 0.1 
0.1 0.1 0.1 0.1 0.1 0.1 0.1 0.1 0.1 
0.1 0.1 0.1 0.1 0.1 0.1 0.1 0.1 0.1 
0.1 0.1 0.1 0.1 0.1 0.1 0.1 0.1 0.1 
0.1 0.1 0.1 0.1 0.1 0.1 0.1 0.1 0.1 
0.1 0.1 0.1 0.1 0.1 0.1 0.1 0.1 0.1 
0.1 0.1 0.1 0.1 0.1 0.1 0.1 0.1 0.1 
0.1 0.1 0.1 0.1 0.1 0.1 0.1 0.1 0.1 
0.1 0.1 0.1 0.1 0.1 0.1 0.1 0.1 0.1 
0.1 0.1 0.1 0.1 0.1 0.1 0.1 0.1 0.1 
0.1 0.1 0.1 0.1 0.1 0.1 0.1 0.1 0.1 
0.1 0.1 0.1 0.1 0.1 0.1 0.1 0.1 0.1 
0.1 0.1 0.1 0.1 0.1 0.1 0.1 0.1 0.1 
0.1 0.1 0.1 0.1 0.1 0.1 0.1 0.1 0.1 
0.1 0.1 0.1 0.1 0.1 0.1 0.1 0.1 0.1 
0.1 0.1 0.1 0.1 0.1 0.1 0.1 0.1 0.1 
0.1 0.1 0.1 0.1 0.1 0.1 0.1 0.1 0.1 
0.1 0.1 0.1 0.1 0.1 0.1 0.1 0.1 0.1 
0.1 0.1 0.1 0.1 0.1 0.1 0.1 0.1 0.1 
0.1 0.1 0.1 0.1 0.1 0.1 0.1 0.1 0.1 
0.1 0.1 0.1 0.1 0.1 0.1 0.1 0.1 0.1 
0.1 0.1 0.1 0.1 0.1 0.1 0.1 0.1 0.1 
0.1 0.1 0.1 0.1 0.1 0.1 0.1 0.1 0.1 
0.1 0.1 0.1 0.1 0.1 0.1 0.1 0.1 0.1 
0.1 0.1 0.1 0.1 0.1 0.1 0.1 0.1 0.1 
0.1 0.1 0.1 0.1 0.1 0.1 0.1 0.1 0.1 
0.1 0.1 0.1 0.1 0.1 0.1 0.1 0.1 0.1 
0.1 0.1 0.1 0.1 0.1 0.1 0.1 0.1 0.1 
0.1 0.1 0.1 0.1 0.1 0.1 0.1 0.1 0.1 
0.1 0.1 0.1 0.1 0.1 0.1 0.1 0.1 0.1 
0.1 0.1 0.1 0.1 0.1 0.1 0.1 0.1 0.1 
0.1 0.1 0.1 0.1 0.1 0.1 0.1 0.1 0.1 
0.1 0.1 0.1 0.1 0.1 0.1 0.1 0.1 0.1 
0.1 0.1 0.1 0.1 0.1 0.1 0.1 0.1 0.1 
0.1 0.1 0.1 0.1 0.1 0.1 0.1 0.1 0.1 
0.1 0.1 0.1 0.1 0.1 0.1 0.1 0.1 0.1 
0.1 0.1 0.1 0.1 0.1 0.1 0.1 0.1 0.1 
0.1 0.1 0.1 0.1 0.1 0.1 0.1 0.1 0.1 
0.1 0.1 0.1 0.1 0.1 0.1 0.1 0.1 0.1 
0.1 0.1 0.1 0.1 0.1 0.1 0.1 0.1 0.1 
0.1 0.1 0.1 0.1 0.1 0.1 0.1 0.1 0.1 
0.1 0.1 0.1 0.1 0.1 0.1 0.1 0.1 0.1 
0.1 0.1 0.1 0.1 0.1 0.1 0.1 0.1 0.1 
0.1 0.1 0.1 0.1 0.1 0.1 0.1 0.1 0.1 
0.1 0.1 0.1 0.1 0.1 0.1 0.1 0.1 0.1 
0.1 0.1 0.1 0.1 0.1 0.1 0.1 0.1 0.1 
0.1 0.1 0.1 0.1 0.1 0.1 0.1 0.1 0.1 
0.1 0.1 0.1 0.1 0.1 0.1 0.1 0.1 0.1 
0.1 0.1 0.1 0.1 0.1 0.1 0.1 0.1 0.1 
0.1 0.1 0.1 0.1 0.1 0.1 0.1 0.1 0.1 
0.1 0.1 0.1 0.1 0.1 0.1 0.1 0.1 0.1 
0.1 0.1 0.1 0.1 0.1 0.1 0.1 0.1 0.1 
0.1 0.1 0.1 0.1 0.1 0.1 0.1 0.1 0.1 
0.1 0.1 0.1 0.1 0.1 0.1 0.1 0.1 0.1 
0.1 0.1 0.1 0.1 0.1 0.1 0.1 0.1 0.1 
0.1 0.1 0.1 0.1 0.1 0.1 0.1 0.1 0.1 
0.1 0.1 0.1 0.1 0.1 0.1 0.1 0.1 0.1 
0.1 0.1 0.1 0.1 0.1 
m 1 1049 double
76.33 65.975 84.655 91.315 94.295 62.64 61.625 94.14 56.755 
84.935 99.255 75.77 95.485 65.745 93.885 56.49 90.92 91.99 
53.87 83.88 92.105 97.585 53.285 63.205 89.775 69.85 91.415 
76.76 90.795 58.915 95.63 88.61 62.455 73.95 53.195 51.995 
92.83 68.31 84.075 54.265 65.415 56.77 60.985 79.28 71.55 
75.995 91.91 88.325 97.965 59.26 82.91 69.45 95.075 58.805 
80.435 98.36 63.675 86.39 77.555 80.635 77.105 51.54 82.95 
52.64 62.775 54.64 65.86 50.185 59.805 90.21 81.145 86.865 
72.105 56.63 71.295 74.595 96.915 63.77 68.92 71.85 92.685 
91.575 71.62 75.99 82.065 67.63 50.495 54.43 54.55 64.785 
80.455 94.9 63.885 75 99.78 84.98 84.31 59.365 86.405 
95.85 81.635 51.68 61.525 85.42 54.625 82.525 54.23 84.575 
56.565 67.53 66.01 58.645 91.01 94.72 80.62 69.475 97.91 
52.725 79.285 51.82 66.835 70.215 94.07 77.17 84.04 55.435 
68.75 85.89 86.38 67.92 63.255 77.015 63.77 78.94 66.84 
99.66 61.995 98.38 75.3 81.13 76.7 64.145 58.41 92.93 
88.695 50.06 88.965 91.95 53.975 87.695 52.85 90.47 57.17 
83.005 51.89 64.51 87.335 50.485 83.26 86.505 52.46 66.585 
53.78 71.43 69.325 98.445 51.4 97.205 83.095 90.155 92.22 
73.645 92.2 94.935 89.44 91.675 91.69 90.585 90.485 72.405 
77.165 78.855 89.28 94.635 72.835 53.375 53.545 84.825 76.53 
97.485 72.93 61.765 57.64 93.12 81.095 73.415 64.355 94.145 
50.095 97.515 91.35 78.66 98.54 90.745 83.575 66.84 81.7 
68.09 76.93 64.23 67.295 55.5 53.615 63.09 61.225 78.645 
88.98 88.82 67.775 67.255 87.44 64.605 61.895 81.085 52.46 
81.82 99.205 79.025 91.14 54.985 69.135 75.965 83.245 83.255 
61.75 64.86 59.25 85.17 50.62 88.82 57.5 74.57 84.935 
61.135 82.455 68.715 79.28 91.825 62.755 99.295 57.105 59.68 
57.16 97.835 53.065 62.52 88.105 66.025 57.705 73.465 77.41 
64.21 60.105 54.34 83.92 97.64 78.975 53.715 89.94 65.72 
61.46 81.775 88.205 83.1 61.37 80.945 56.94 56.165 97.19 
90.125 65.37 72.85 65.345 61.75 54.44 77.035 82.185 96.14 
57.37 66.375 77.895 59.3 79.42 59.965 90.71 71.125 85.085 
67.685 52.49 94.36 99.79 75.945 99.54 76.19 51.445 84.745 
76.835 89.855 50.45 98.05 94.845 97.395 72.06 68.405 51.35 
51.79 90.785 67.465 61.965 83.105 94.29 56.185 80.145 80.605 
71.975 73.845 94.25 86.275 76.365 58.88 55.865 93.285 66.515 
94.04 81.24 88.765 90.18 65.885 82.145 81.675 64.5 76.715 
59.43 56.56 96.07 91.775 67.56 53.495 91.815 77.845 59.195 
67.085 62.195 60.355 88.58 50.04 68.965 72.14 80.715 91.175 
79.09 90.02 51.895 79.97 55.775 88.66 86.67 64.45 98.77 
58.24 60.665 66.665 50.245 91.425 78.145 54.82 52.52 95.4 
54.285 93.135 92.965 98.155 93.97 65.865 82.155 63.11 99.235 
86.4 92.885 83.05 93.88 62.02 55.055 97.645 79.64 62.95 
91.045 94.095 96.68 92.905 58.73 72.5 51.84 97.645 87.835 
58.46 61.075 71.695 60.67 80.635 63.235 95.255 84.85 61.45 
94.73 96.95 87.31 71.46 83.41 78.955 96.67 78.815 72.215 
73.065 72.69 93.03 52.62 53.565 80.95 69.49 61.49 84.95 
90.23 81.245 98.985 68.94 62.675 92.69 80.795 75.755 88.235 
67.645 74.58 82.76 74.97 77.89 75.575 75.285 80.785 57.605 
92.87 59.44 56.345 75.64 84.2 64.52 74.09 53.44 96.495 
76.925 80.21 56.11 83.2 66.515 62.485 65.165 51.265 76.815 
60.01 52.14 72.5 82.015 53.405 63.63 86.93 75.5 81.56 
71.73 96.84 57.455 59.735 64.755 96.155 75.105 82.53 94.88 
86.805 66.62 84.98 99.585 86.845 89.585 88.36 69.25 96.46 
88.125 59.86 55.76 74.46 95.625 69.98 61.81 88.43 95.94 
77.18 74.925 68.645 95.785 62.3 79.875 67.07 72.76 69.605 
50.135 93.45 81.52 52.3 90.135 87.78 83.74 50.14 90.25 
94.51 55.195 93.495 55.215 88.485 73.97 71.16 69.13 67.705 
50.295 52.845 61.305 95.585 83.805 80.21 51.8 50.405 90.115 
88.815 65.95 81.545 94.98 77.125 69.63 73.385 81.835 72.62 
71.17 58.13 53.45 91.025 65.84 98.07 51.79 80.285 52.085 
52.7 84.28 86.42 88.85 72.83 53.03 79.245 51.185 86.025 
61.3 65.295 76.085 92.59 67.13 95.86 74.725 53.915 71.445 
54.365 92.29 52.415 88.185 84.365 72.355 83.035 52.39 96.57 
63.785 65.345 67.14 78.68 91.705 88.715 77.495 60.915 92.45 
97.35 78.15 86.345 50.42 70.405 56.98 54.355 93.81 67.185 
83.625 77.95 87.525 78.22 98.86 96.12 62.11 83.29 76.055 
89.09 69.75 87.8 50.635 69.6 76.18 76.84 52.815 56.22 
75.525 50.245 62.835 59.025 99.67 86.875 93.555 66.455 94.965 
94.775 68.84 67.945 68.07 74.11 84.41 84.91 74.59 64.025 
70.09 65.465 70.15 54.625 83.55 81.64 96.455 83.585 82.145 
57.87 75.275 69.29 84.815 84.18 86.085 85.45 90.65 56.965 
74.52 63.305 92.855 92.28 84.255 98.165 73.945 65.365 98.425 
63.02 97.425 96.25 82.515 89.34 99.025 73.195 64.745 95.03 
87.58 78.91 60.975 67.58 55.405 76.625 83.815 55.6 88.385 
54.835 51.13 52.98 87.8 95.18 54.325 69.905 88.85 81.71 
96.055 89.775 67.59 86.605 62.66 61.895 75.98 91.35 72.135 
74.92 60.2 70.86 71.17 79.15 86.99 86.415 55.315 50.36 
84.75 51.735 52.865 68.57 60.15 70.235 87.61 75.41 84.62 
80.295 52.215 96.02 56.16 64.77 97.175 71.39 59.49 95.795 
77.43 78.2 99.24 96.31 51.31 98.415 55.205 83.64 58.615 
95.61 81.36 91.62 90.835 69.795 64.03 78.985 96.825 87.285 
79.105 86.675 70.77 55.855 51.345 63.735 58.88 76.09 99.665 
54.535 73.265 93.505 58.515 82.225 57.65 68.7 70.49 64.31 
75.27 52.685 70.15 75.615 90.695 64.77 98.93 88.345 79.92 
55.635 95.75 81.14 58.525 57.43 51.265 50.63 82.965 52.715 
58.98 65.01 61.155 80.695 77.02 93.6 63.49 76.67 85.42 
56.54 94.77 92.71 90.41 97.535 92.32 50.985 78.335 99.52 
99.055 79.695 69.7 89.07 65.37 91.885 73.565 90.895 95.105 
96.09 61.69 72.9 69.85 94.49 55.26 81.88 54.955 63.575 
54.76 68.11 81.74 93.055 94.02 96.775 88.605 76.605 74.095 
56.275 72.995 64.595 73.81 78.55 85.44 78.875 76.895 74.06 
74.885 99.31 63.425 70.05 90.945 75.855 57.795 62.53 92.06 
96.495 77.84 89.14 78.73 86.715 87.935 91.03 96.505 88.565 
86.86 55.085 83.66 51.73 51.175 51.47 99.52 70.88 57.68 
96.035 67.415 65.675 66.555 88.025 77.11 71.7 69.05 61.68 
81.71 58.295 60.045 76.05 78.455 55.685 62.865 69.715 75.765 
74.285 99.555 98.72 98.795 67.495 88.215 55.68 98.09 70.335 
56.8 51.685 78.305 68.65 59.005 56.525 74.39 84.435 60.86 
69.645 97.06 66.74 92.09 87.225 98.78 95.895 95.535 88.42 
79.68 66.88 60.45 77.71 56.7 55.475 75.42 82.33 64.63 
64.795 85.95 64.065 98.34 68.865 94.495 64.98 50.815 89.905 
85.995 99.01 79.47 93.3 94.665 74.65 69.405 50.355 87.34 
54.865 85.655 67.26 96.895 59.495 77.75 60.18 88.185 63 
60.31 78.12 64.62 66.29 67.08 67.325 83.54 91.41 97.22 
92.61 96.6 93.13 93.68 65.545 95.08 82.695 91.12 70.11 
75.265 90.545 66.89 75.405 50 95.57 90.335 56.69 97.13 
79.945 83.935 75.735 61.155 82.66 76.115 60.61 50.895 74.25 
69.375 56.405 82.95 69.065 61.27 76.75 55.655 73.015 80.405 
57.47 89.285 95.905 78.6 62.165 89.91 50.905 87.435 93.61 
96.48 94.125 77.02 97.075 51.485 95.67 50.16 52.755 84.46 
52.075 65.905 85.285 98.54 92.53 61.485 59.81 87.415 52.975 
99.995 75.055 78.88 56.545 50.77 94.885 62.935 99.66 66.91 
75.105 71.33 68.41 88.425 67.815 96.055 94.3 54.65 72.915 
79.95 71.425 95.43 86.57 59.46 70.58 79.1 57.38 87.45 
87.625 77.64 94.195 87.625 65.29 
p0 3 1049 double
0 -10 0 0 -10 0 0 -10 0 
0 -10 0 0 -10 0 0 -10 0 
0 -10 0 0 -10 0 0 -10 0 
0 -10 0 0 -10 0 0 -10 0 
0 -10 0 0 -10 0 0 -10 0 
0 -10 0 0 -10 0 0 -10 0 
0 -10 0 0 -10 0 0 -10 0 
0 -10 0 0 -10 0 0 -10 0 
0 -10 0 0 -10 0 0 -10 0 
0 -10 0 0 -10 0 0 -10 0 
0 -10 0 0 -10 0 0 -10 0 
0 -10 0 0 -10 0 0 -10 0 
0 -10 0 0 -10 0 0 -10 0 
0 -10 0 0 -10 0 0 -10 0 
0 -10 0 0 -10 0 0 -10 0 
0 -10 0 0 -10 0 0 -10 0 
0 -10 0 0 -10 0 0 -10 0 
0 -10 0 0 -10 0 0 -10 0 
0 -10 0 0 -10 0 0 -10 0 
0 -10 0 0 -10 0 0 -10 0 
0 -10 0 0 -10 0 0 -10 0 
0 -10 0 0 -10 0 0 -10 0 
0 -10 0 0 -10 0 0 0 0 
0 0 0 0 0 0 0 0 0 
0 0 0 0 0 0 0 0 0 
0 0 0 0 0 0 0 0 0 
0 0 0 0 0 0 0 0 0 
0 0 0 0 0 0 0 0 0 
0 0 0 0 0 0 -12 0 0 
0 0 0 -12 0 0 -12 0 0 
0 0 0 0 0 0 0 0 0 
-12 0 0 0 0 0 0 0 0 
0 0 0 0 0 0 0 0 0 
0 0 0 0 0 0 0 0 0 
0 0 0 0 0 0 0 0 0 
0 0 0 0 0 0 0 0 0 
0 0 0 0 0 0 0 0 0 
0 0 0 0 0 0 0 0 0 
0 0 0 0 0 0 0 0 0 
0 0 0 0 0 0 0 0 0 
0 0 0 0 0 0 0 0 0 
0 0 0 0 0 0 0 0 0 
0 0 0 0 0 0 0 0 0 
0 0 0 0 0 0 0 0 0 
0 0 0 0 0 0 0 0 0 
0 0 0 0 0 0 0 0 0 
0 0 0 0 0 0 0 0 0 
0 0 0 0 0 0 0 0 0 
0 0 0 0 0 0 0 0 0 
0 0 0 0 0 0 0 0 0 
0 0 0 0 0 0 0 0 0 
0 0 0 0 0 0 0 0 0 
0 0 0 0 0 0 0 0 0 
0 0 0 0 0 0 0 0 0 
0 0 0 0 0 0 0 0 0 
0 0 0 0 0 0 0 0 0 
0 0 0 0 0 0 0 0 0 
0 0 0 0 0 0 0 0 0 
0 0 0 0 0 0 0 0 0 
0 0 0 0 0 0 0 0 0 
0 0 0 0 0 0 0 0 0 
0 0 0 0 0 0 0 0 0 
0 0 0 0 0 0 0 0 0 
0 0 0 0 0 0 0 0 0 
0 0 0 0 0 0 0 0 0 
0 0 0 0 0 0 0 0 0 
0 0 0 0 0 0 0 0 0 
0 0 0 0 0 0 0 0 0 
0 0 0 0 0 0 0 0 0 
0 0 0 0 0 0 0 0 0 
0 0 0 0 0 0 0 0 0 
0 0 0 0 0 0 0 0 0 
0 0 0 0 0 0 0 0 0 
0 0 0 0 0 0 0 0 0 
0 0 0 12 0 0 0 0 0 
12 0 0 0 0 0 12 0 0 
0 0 0 12 0 0 12 0 0 
0 0 0 0 0 0 12 0 0 
0 0 0 12 0 0 12 0 0 
0 0 0 0 0 0 0 0 0 
0 0 0 0 0 0 0 0 0 
0 0 0 0 0 0 0 0 0 
0 0 0 0 0 0 0 0 0 
0 0 0 0 0 0 0 0 0 
0 0 0 0 0 0 0 0 0 
0 0 0 0 0 0 0 0 0 
-12 0 0 -12 0 0 -12 0 0 
0 0 0 0 0 0 0 0 0 
0 0 0 0 0 0 0 0 0 
0 0 0 0 0 0 0 0 0 
0 0 0 0 0 0 0 0 0 
0 0 0 0 0 0 0 0 0 
0 0 0 0 0 0 0 0 0 
0 0 0 0 0 0 12 0 0 
12 0 0 12 0 0 12 0 0 
0 0 0 0 0 0 0 0 0 
0 0 0 0 0 0 0 0 0 
0 0 0 0 0 0 0 0 0 
0 0 0 -12 0 0 -12 0 0 
-12 0 0 0 0 0 0 0 0 
0 0 0 0 0 0 0 0 0 
0 0 0 0 0 0 0 0 0 
0 0 0 0 0 0 0 0 0 
0 0 0 0 0 0 0 0 0 
0 0 0 0 0 0 0 0 0 
0 0 0 0 0 0 0 0 0 
12 0 0 12 0 0 0 0 0 
0 0 0 0 0 0 0 0 0 
0 0 0 0 0 0 0 0 0 
0 0 0 0 0 0 0 0 0 
-12 0 0 -12 0 0 0 0 0 
0 0 0 0 0 0 0 0 0 
0 0 0 0 0 0 0 0 0 
0 0 0 0 0 0 0 0 0 
0 0 0 0 0 0 0 0 0 
0 0 0 0 0 0 0 0 0 
0 0 0 0 0 0 0 0 0 
0 0 0 12 0 0 12 0 0 
12 0 0 12 0 0 0 0 0 
0 0 0 0 0 0 0 0 0 
0 0 0 0 0 0 0 0 0 
0 0 0 0 0 0 0 0 0 
-12 0 0 0 0 0 0 0 0 
0 0 0 0 0 0 0 0 0 
0 0 0 0 0 0 0 0 0 
0 0 0 0 0 0 0 0 0 
0 0 0 0 0 0 0 0 0 
0 0 0 0 0 0 0 0 0 
0 0 0 0 0 0 0 0 0 
12 0 0 12 0 0 12 0 0 
0 0 0 0 0 0 0 0 0 
0 0 0 0 0 0 0 0 0 
0 0 0 0 0 0 0 0 0 
0 0 0 0 0 0 0 0 0 
0 0 0 0 0 0 0 0 0 
0 0 0 0 0 0 0 0 0 
0 0 0 0 0 0 0 0 0 
0 0 0 0 0 0 0 0 0 
0 0 0 0 0 0 0 0 0 
0 0 0 0 0 0 0 0 0 
12 0 0 0 0 0 0 0 0 
0 0 0 0 0 0 0 0 0 
0 0 0 0 0 0 0 0 0 
0 0 0 0 0 0 0 0 0 
0 0 0 0 0 0 0 0 0 
0 0 0 0 0 0 0 0 0 
0 0 0 0 0 0 0 0 0 
0 0 0 0 0 0 0 0 0 
0 0 0 0 0 0 0 0 0 
0 0 0 0 0 0 0 0 0 
0 0 0 12 0 0 12 0 0 
0 0 0 0 0 0 0 0 0 
0 0 0 0 0 0 0 0 0 
0 0 0 0 0 0 0 0 0 
0 0 0 0 0 0 0 0 0 
0 0 0 0 0 0 0 0 0 
0 0 0 0 0 0 0 0 0 
0 0 0 0 0 0 0 0 0 
0 0 0 0 0 0 0 0 0 
0 0 0 12 0 0 0 0 0 
0 0 0 0 0 0 0 0 0 
0 0 0 12 0 0 12 0 0 
12 0 0 0 0 0 0 0 0 
0 0 0 0 0 0 0 0 0 
0 0 0 0 0 0 0 0 0 
0 0 0 0 0 0 0 0 0 
0 0 0 0 0 0 0 0 0 
0 0 0 0 0 0 0 0 0 
0 0 0 -9 9 0 0 0 0 
0 0 0 0 0 0 0 0 0 
0 0 0 -9 9 0 0 0 0 
0 0 0 0 0 0 0 0 0 
0 0 0 0 0 0 0 0 0 
0 0 0 0 0 0 0 0 0 
0 0 0 0 0 0 0 0 0 
0 0 0 0 0 0 0 0 0 
0 0 0 0 0 0 0 0 0 
0 0 0 0 0 0 0 0 0 
0 0 0 0 0 0 0 0 0 
0 0 0 0 0 0 0 0 0 
0 0 0 0 0 0 0 0 0 
0 0 0 0 0 0 0 0 0 
0 0 0 0 0 0 0 0 0 
0 0 0 0 0 0 0 0 0 
0 0 0 0 0 0 0 0 0 
0 0 0 0 0 0 0 0 0 
0 0 0 0 0 0 0 0 0 
0 0 0 0 0 0 0 0 0 
0 0 0 0 0 0 0 0 0 
0 0 0 0 0 0 0 0 0 
0 0 0 0 0 0 0 0 0 
0 0 0 0 0 0 0 0 0 
0 0 0 0 0 0 0 0 0 
0 0 0 0 0 0 0 0 0 
0 0 0 0 0 0 0 0 0 
0 0 0 0 0 0 12 0 0 
0 0 0 12 0 0 0 0 0 
0 0 0 0 0 0 0 0 0 
0 0 0 0 0 0 0 0 0 
0 0 0 0 0 0 0 0 0 
-9 9 0 9 9 0 12 0 0 
0 0 0 0 0 0 0 0 0 
0 0 0 0 0 0 0 0 0 
0 0 0 0 0 0 0 0 0 
0 0 0 0 0 0 0 0 0 
0 0 0 0 0 0 0 0 0 
0 0 0 0 0 0 0 0 0 
0 0 0 0 0 0 0 0 0 
0 0 0 0 0 0 0 0 0 
0 0 0 0 0 0 0 0 0 
0 0 0 0 0 0 0 0 0 
0 0 0 0 0 0 0 0 0 
0 0 0 0 0 0 0 0 0 
0 0 0 0 0 0 0 0 0 
0 0 0 0 0 0 0 0 0 
0 0 0 0 0 0 0 0 0 
0 0 0 0 0 0 0 0 0 
0 0 0 0 0 0 0 0 0 
0 0 0 0 0 0 0 0 0 
0 0 0 0 0 0 0 0 0 
0 0 0 0 0 0 0 0 0 
0 0 0 0 0 0 0 0 0 
0 0 0 0 0 0 0 0 0 
0 0 0 0 0 0 0 0 0 
0 0 0 0 0 0 0 0 0 
0 0 0 0 0 0 0 0 0 
0 0 0 0 0 0 0 0 0 
0 0 0 0 0 0 0 0 0 
0 0 0 0 0 0 0 0 0 
0 0 0 0 0 0 0 0 0 
0 0 0 0 0 0 0 0 0 
0 0 0 0 0 0 0 0 0 
0 0 0 0 0 0 0 0 0 
0 0 0 0 0 0 0 0 0 
0 0 0 0 0 0 0 0 0 
0 0 0 0 0 0 0 0 0 
0 0 0 0 0 0 0 0 0 
0 0 0 0 0 0 0 0 0 
0 0 0 0 0 0 0 0 0 
0 0 0 0 0 0 0 0 0 
0 0 0 0 0 0 0 0 0 
0 0 0 0 0 0 0 0 0 
0 0 0 0 0 0 0 0 0 
0 0 0 0 0 0 0 0 0 
0 0 0 0 0 0 0 0 0 
0 0 0 0 0 0 0 0 0 
0 0 0 0 0 0 0 0 0 
0 0 0 0 0 0 0 0 0 
0 0 0 0 0 0 0 0 0 
0 0 0 0 0 0 0 0 0 
0 0 0 0 0 0 0 0 0 
0 0 0 0 0 0 0 0 0 
0 0 0 0 0 0 0 0 0 
0 0 0 13.5 10 0 0 0 0 
0 0 0 0 0 0 0 0 0 
0 0 0 0 0 0 0 0 0 
0 0 0 0 0 0 0 0 0 
0 0 0 0 0 0 0 0 0 
0 0 0 0 0 0 0 0 0 
0 0 0 0 0 0 0 0 0 
0 0 0 0 0 0 0 0 0 
0 0 0 0 0 0 0 0 0 
0 0 0 0 0 0 0 0 0 
0 0 0 0 0 0 0 0 0 
0 0 0 13.5 10 0 0 0 0 
0 0 0 0 0 0 0 0 0 
0 0 0 0 0 0 0 0 0 
0 0 0 0 0 0 0 0 0 
0 0 0 0 0 0 0 0 0 
0 0 0 0 0 0 0 0 0 
0 0 0 0 0 0 0 0 0 
0 0 0 0 0 0 0 0 0 
0 0 0 0 0 0 0 0 0 
13.5 10 0 0 0 0 0 0 0 
0 0 0 0 0 0 0 0 0 
0 0 0 0 0 0 0 0 0 
0 0 0 0 0 0 0 0 0 
0 0 0 0 0 0 0 0 0 
0 0 0 0 0 0 0 0 0 
0 0 0 0 0 0 0 0 0 
0 0 0 0 0 0 0 0 0 
0 0 0 0 0 0 13.5 10 0 
0 0 0 0 0 0 0 0 0 
0 0 0 0 0 0 0 0 0 
0 0 0 0 0 0 0 0 0 
0 0 0 0 0 0 0 0 0 
0 0 0 0 0 0 0 0 0 
0 0 0 0 0 0 0 0 0 
0 0 0 0 0 0 0 0 0 
0 0 0 0 0 0 0 0 0 
0 0 0 0 0 0 0 0 0 
0 0 0 0 0 0 0 0 0 
0 0 0 0 0 0 0 0 0 
0 0 0 0 0 0 0 0 0 
0 0 0 0 0 0 0 0 0 
0 0 0 0 0 0 0 0 0 
0 0 0 0 0 0 0 0 0 
0 0 0 0 0 0 0 0 0 
0 0 0 0 0 0 0 0 0 
0 0 0 0 0 0 0 0 0 
0 0 0 0 0 0 0 0 0 
0 0 0 0 0 0 0 0 0 
0 0 0 0 0 0 0 0 0 
0 0 0 0 0 0 0 0 0 
0 0 0 0 0 0 0 0 0 
0 0 0 0 0 0 0 0 0 
0 0 0 0 0 0 0 0 0 
0 0 0 0 0 0 0 0 0 
0 0 0 0 0 0 0 0 0 
0 0 0 0 0 0 0 0 0 
0 0 0 0 0 0 0 0 0 
0 0 0 0 0 0 0 0 0 
0 0 0 0 0 0 0 0 0 
0 0 0 0 0 0 0 0 0 
0 0 0 0 0 0 0 0 0 
0 0 0 0 0 0 0 0 0 
0 0 0 0 0 0 0 0 0 
0 0 0 0 0 0 0 0 0 
0 0 0 0 0 0 0 0 0 
0 0 0 0 0 0 0 0 0 
0 0 0 0 0 0 0 0 0 
0 0 0 0 0 0 0 0 0 
0 0 0 0 0 0 0 0 0 
0 0 0 0 0 0 0 0 0 
0 0 0 0 0 0 0 0 0 
0 0 0 0 0 0 0 0 0 
0 0 0 0 0 0 0 0 0 
0 0 0 0 0 0 0 0 0 
0 0 0 0 0 0 0 0 0 
0 0 0 0 0 0 0 0 0 
0 0 0 0 0 0 0 0 0 
0 0 0 0 0 0 0 0 0 
0 0 0 0 0 0 0 0 0 
0 0 0 0 0 0 0 0 0 
0 0 0 0 0 0 0 0 0 
0 0 0 0 0 0 0 0 0 
0 0 0 0 0 0 0 0 0 
0 0 0 0 0 0 0 0 0 
0 0 0 0 0 0 0 0 0 
0 0 0 0 0 0 0 0 0 
0 0 0 0 0 0 0 0 0 
0 0 0 0 0 0 0 0 0 
0 0 0 0 0 0 0 0 0 
0 0 0 0 0 0 0 0 0 
0 0 0 0 0 0 0 0 0 
0 0 0 0 0 0 0 0 0 
0 0 0 0 0 0 0 0 0 
0 0 0 0 0 0 0 0 0 
0 0 0 0 0 0 0 0 0 
0 0 0 0 0 0 
v0 1 1049 double
3.7348 3.908 3.1534 3.5598 3.5098 3.7604 3.5868 2.7598 3.4418 
3.8026 3.447 2.2246 3.7132 2.9072 3.3932 3.4192 2.7868 3.5394 
2.8894 2.2234 3.3376 3.1552 2.087 3.9438 2.5562 2.798 2.959 
3.3968 3.7722 3.7956 3.5338 2.9348 3.6894 2.9892 2.5998 3.7004 
3.7386 2.7364 3.6034 3.9802 3.4142 3.6802 2.105 3.9752 2.2178 
2.6972 2.9862 3.4388 2.726 3.7164 3.2294 3.1134 3.358 2.8228 
3.2554 3.938 3.0734 2.5702 2.9518 2.227 3.4702 3.4416 3.5126 
3.3812 3.8484 3.991 3.2458 2.3004 0 0 0 0 
0 0 0 0 0 0 0 0 0 
0 0 0 0 0 2.0272 0 2.0254 3.3948 
0 0 0 2.5352 0 0 0 0 0 
0 0 0 0 0 0 0 0 0 
0 0 0 0 0 0 0 0 0 
0 0 0 0 0 0 0 0 0 
0 0 0 0 0 0 0 0 0 
0 0 0 0 0 0 0 0 0 
0 0 0 0 0 0 0 0 0 
0 0 0 0 0 0 0 0 0 
0 0 0 0 0 0 0 0 0 
0 0 0 0 0 0 0 0 0 
0 0 0 0 0 0 0 0 0 
0 0 0 0 0 0 0 0 0 
0 0 0 0 0 0 0 0 0 
0 0 0 0 0 0 0 0 0 
0 0 0 0 0 0 0 3.8554 0 
2.192 0 3.219 0 2.8338 2.5952 0 0 2.5666 
0 2.6856 2.325 0 0 0 0 0 0 
0 0 0 0 0 0 0 0 0 
0 0 0 0 0 0 2.8832 3.236 2.2866 
0 0 0 0 0 0 0 0 0 
0 0 0 0 0 0 0 0 0 
0 0 3.5612 3.4072 3.053 3.2878 0 0 0 
0 0 0 0 0 0 0 2.7916 2.9892 
2.9256 0 0 0 0 0 0 0 0 
0 0 0 0 0 0 0 0 0 
0 0 0 3.3678 3.1832 0 0 0 0 
0 0 0 0 0 0 2.5898 3.4754 0 
0 0 0 0 0 0 0 0 0 
0 0 0 0 0 0 0 0 0 
0 2.4594 3.8268 2.0104 2.9022 0 0 0 0 
0 0 0 0 0 0 3.18 0 0 
0 0 0 0 0 0 0 0 0 
0 0 0 0 0 0 0 0 0 
2.1178 3.514 3.852 0 0 0 0 0 0 
0 0 0 0 0 0 0 0 0 
0 0 0 0 0 0 0 0 0 
0 0 0 0 0 0 2.264 0 0 
0 0 0 0 0 0 0 0 0 
0 0 0 0 0 0 0 0 0 
0 0 0 0 0 0 0 0 0 
0 2.6632 2.4322 0 0 0 0 0 0 
0 0 0 0 0 0 0 0 0 
0 0 0 0 0 0 0 0 0 
0 2.0424 0 0 0 0 0 2.0302 2.5972 
3.2768 0 0 0 0 0 0 0 0 
0 0 0 0 0 0 0 0 0 
0 2.5992 0 0 0 0 0 2.6016 0 
0 0 0 0 0 0 0 0 0 
0 0 0 0 0 0 0 0 0 
0 0 0 0 0 0 0 0 0 
0 0 0 0 0 0 0 0 0 
0 0 0 0 0 0 0 0 0 
0 0 0 0 0 0 0 0 0 
0 0 0 0 0 0 0 0 0 
0 0 0 0 0 0 0 0 0 
0 0 2.79 0 2.7532 0 0 0 0 
0 0 0 0 0 0 2.1056 2.6138 3.075 
0 0 0 0 0 0 0 0 0 
0 0 0 0 0 0 0 0 0 
0 0 0 0 0 0 0 0 0 
0 0 0 0 0 0 0 0 0 
0 0 0 0 0 0 0 0 0 
0 0 0 0 0 0 0 0 0 
0 0 0 0 0 0 0 0 0 
0 0 0 0 0 0 0 0 0 
0 0 0 0 0 0 0 0 0 
0 0 0 0 0 0 0 0 0 
0 0 0 0 0 0 0 0 0 
0 0 0 0 0 0 0 0 0 
0 0 0 0 0 0 0 0 0 
0 0 0 0 0 0 0 0 0 
0 0 0 0 0 0 0 0 0 
0 0 0 0 0 0 0 0 0 
0 0 0 0 0 0 0 0 0 
0 0 0 0 2.2322 0 0 0 0 
0 0 0 0 0 0 0 0 0 
0 0 0 0 0 0 0 0 0 
0 0 0 0 0 0 0 0 0 
0 2.1262 0 0 0 0 0 0 0 
0 0 0 0 0 0 0 0 0 
0 0 0 0 0 0 0 0 0 
2.0074 0 0 0 0 0 0 0 0 
0 0 0 0 0 0 0 0 0 
0 0 0 0 0 0 0 0 2.1126 
0 0 0 0 0 0 0 0 0 
0 0 0 0 0 0 0 0 0 
0 0 0 0 0 0 0 0 0 
0 0 0 0 0 0 0 0 0 
0 0 0 0 0 0 0 0 0 
0 0 0 0 0 0 0 0 0 
0 0 0 0 0 0 0 0 0 
0 0 0 0 0 0 0 0 0 
0 0 0 0 0 0 0 0 0 
0 0 0 0 0 0 0 0 0 
0 0 0 0 0 0 0 0 0 
0 0 0 0 0 0 0 0 0 
0 0 0 0 0 0 0 0 0 
0 0 0 0 0 0 0 0 0 
0 0 0 0 0 0 0 0 0 
0 0 0 0 0 0 0 0 0 
0 0 0 0 0 0 0 0 0 
0 0 0 0 0 0 0 0 0 
0 0 0 0 0 0 0 0 0 
0 0 0 0 0 0 0 0 0 
0 0 0 0 0 0 0 0 0 
0 0 0 0 0 0 0 0 0 
0 0 0 0 0 
tau 1 1049 double
2 2 2 2 2 2 2 2 2 
2 2 2 2 2 2 2 2 2 
2 2 2 2 2 2 2 2 2 
2 2 2 2 2 2 2 2 2 
2 2 2 2 2 2 2 2 2 
2 2 2 2 2 2 2 2 2 
2 2 2 2 2 2 2 2 2 
2 2 2 2 2 2 2 2 2 
2 2 2 2 2 2 2 2 2 
2 2 2 2 2 2 2 2 2 
2 2 2 2 2 2 2 2 2 
2 2 2 2 2 2 2 2 2 
2 2 2 2 2 2 2 2 2 
2 2 2 2 2 2 2 2 2 
2 2 2 2 2 2 2 2 2 
2 2 2 2 2 2 2 2 2 
2 2 2 2 2 2 2 2 2 
2 2 2 2 2 2 2 2 2 
2 2 2 2 2 2 2 2 2 
2 2 2 2 2 2 2 2 2 
2 2 2 2 2 2 2 2 2 
2 2 2 2 2 2 2 2 2 
2 2 2 2 2 2 2 2 2 
2 2 2 2 2 2 2 2 2 
2 2 2 2 2 2 2 2 2 
2 2 2 2 2 2 2 2 2 
2 2 2 2 2 2 2 2 2 
2 2 2 2 2 2 2 2 2 
2 2 2 2 2 2 2 2 2 
2 2 2 2 2 2 2 2 2 
2 2 2 2 2 2 2 2 2 
2 2 2 2 2 2 2 2 2 
2 2 2 2 2 2 2 2 2 
2 2 2 2 2 2 2 2 2 
2 2 2 2 2 2 2 2 2 
2 2 2 2 2 2 2 2 2 
2 2 2 2 2 2 2 2 2 
2 2 2 2 2 2 2 2 2 
2 2 2 2 2 2 2 2 2 
2 2 2 2 2 2 2 2 2 
2 2 2 2 2 2 2 2 2 
2 2 2 2 2 2 2 2 2 
2 2 2 2 2 2 2 2 2 
2 2 2 2 2 2 2 2 2 
2 2 2 2 2 2 2 2 2 
2 2 2 2 2 2 2 2 2 
2 2 2 2 2 2 2 2 2 
2 2 2 2 2 2 2 2 2 
2 2 2 2 2 2 2 2 2 
2 2 2 2 2 2 2 2 2 
2 2 2 2 2 2 2 2 2 
2 2 2 2 2 2 2 2 2 
2 2 2 2 2 2 2 2 2 
2 2 2 2 2 2 2 2 2 
2 2 2 2 2 2 2 2 2 
2 2 2 2 2 2 2 2 2 
2 2 2 2 2 2 2 2 2 
2 2 2 2 2 2 2 2 2 
2 2 2 2 2 2 2 2 2 
2 2 2 2 2 2 2 2 2 
2 2 2 2 2 2 2 2 2 
2 2 2 2 2 2 2 2 2 
2 2 2 2 2 2 2 2 2 
2 2 2 2 2 2 2 2 2 
2 2 2 2 2 2 2 2 2 
2 2 2 2 2 2 2 2 2 
2 2 2 2 2 2 2 2 2 
2 2 2 2 2 2 2 2 2 
2 2 2 2 2 2 2 2 2 
2 2 2 2 2 2 2 2 2 
2 2 2 2 2 2 2 2 2 
2 2 2 2 2 2 2 2 2 
2 2 2 2 2 2 2 2 2 
2 2 2 2 2 2 2 2 2 
2 2 2 2 2 2 2 2 2 
2 2 2 2 2 2 2 2 2 
2 2 2 2 2 2 2 2 2 
2 2 2 2 2 2 2 2 2 
2 2 2 2 2 2 2 2 2 
2 2 2 2 2 2 2 2 2 
2 2 2 2 2 2 2 2 2 
2 2 2 2 2 2 2 2 2 
2 2 2 2 2 2 2 2 2 
2 2 2 2 2 2 2 2 2 
2 2 2 2 2 2 2 2 2 
2 2 2 2 2 2 2 2 2 
2 2 2 2 2 2 2 2 2 
2 2 2 2 2 2 2 2 2 
2 2 2 2 2 2 2 2 2 
2 2 2 2 2 2 2 2 2 
2 2 2 2 2 2 2 2 2 
2 2 2 2 2 2 2 2 2 
2 2 2 2 2 2 2 2 2 
2 2 2 2 2 2 2 2 2 
2 2 2 2 2 2 2 2 2 
2 2 2 2 2 2 2 2 2 
2 2 2 2 2 2 2 2 2 
2 2 2 2 2 2 2 2 2 
2 2 2 2 2 2 2 2 2 
2 2 2 2 2 2 2 2 2 
2 2 2 2 2 2 2 2 2 
2 2 2 2 2 2 2 2 2 
2 2 2 2 2 2 2 2 2 
2 2 2 2 2 2 2 2 2 
2 2 2 2 2 2 2 2 2 
2 2 2 2 2 2 2 2 2 
2 2 2 2 2 2 2 2 2 
2 2 2 2 2 2 2 2 2 
2 2 2 2 2 2 2 2 2 
2 2 2 2 2 2 2 2 2 
2 2 2 2 2 2 2 2 2 
2 2 2 2 2 2 2 2 2 
2 2 2 2 2 2 2 2 2 
2 2 2 2 2 2 2 2 2 
2 2 2 2 2 2 2 2 2 
2 2 2 2 2 2 2 2 2 
2 2 2 2 2 
R 1 1049 double
0.30266 0.28195 0.31931 0.33263 0.33859 0.27528 0.27325 0.33828 0.26351 
0.31987 0.34851 0.30154 0.34097 0.28149 0.33777 0.26298 0.33184 0.33398 
0.25774 0.31776 0.33421 0.34517 0.25657 0.27641 0.32955 0.2897 0.33283 
0.30352 0.33159 0.26783 0.34126 0.32722 0.27491 0.2979 0.25639 0.25399 
0.33566 0.28662 0.31815 0.25853 0.28083 0.26354 0.27197 0.30856 0.2931 
0.30199 0.33382 0.32665 0.34593 0.26852 0.31582 0.2889 0.34015 0.26761 
0.31087 0.34672 0.27735 0.32278 0.30511 0.31127 0.30421 0.25308 0.3159 
0.25528 0.27555 0.25928 0.28172 0.25037 0.1 0.1 0.1 0.1 
0.1 0.1 0.1 0.1 0.1 0.1 0.1 0.1 0.1 
0.1 0.1 0.1 0.1 0.1 0.25099 0.1 0.2591 0.27957 
0.1 0.1 0.1 0.3 0.1 0.1 0.1 0.1 0.1 
0.1 0.1 0.1 0.1 0.1 0.1 0.1 0.1 0.1 
0.1 0.1 0.1 0.1 0.1 0.1 0.1 0.1 0.1 
0.1 0.1 0.1 0.1 0.1 0.1 0.1 0.1 0.1 
0.1 0.1 0.1 0.1 0.1 0.1 0.1 0.1 0.1 
0.1 0.1 0.1 0.1 0.1 0.1 0.1 0.1 0.1 
0.1 0.1 0.1 0.1 0.1 0.1 0.1 0.1 0.1 
0.1 0.1 0.1 0.1 0.1 0.1 0.1 0.1 0.1 
0.1 0.1 0.1 0.1 0.1 0.1 0.1 0.1 0.1 
0.1 0.1 0.1 0.1 0.1 0.1 0.1 0.1 0.1 
0.1 0.1 0.1 0.1 0.1 0.1 0.1 0.1 0.1 
0.1 0.1 0.1 0.1 0.1 0.1 0.1 0.1 0.1 
0.1 0.1 0.1 0.1 0.1 0.1 0.1 0.1 0.1 
0.1 0.1 0.1 0.1 0.1 0.1 0.1 0.1 0.1 
0.1 0.1 0.1 0.1 0.1 0.1 0.1 0.31217 0.1 
0.31364 0.1 0.30805 0.1 0.25997 0.28827 0.1 0.1 0.31651 
0.1 0.27972 0.2685 0.1 0.1 0.1 0.1 0.1 0.1 
0.1 0.1 0.1 0.1 0.1 0.1 0.1 0.1 0.1 
0.1 0.1 0.1 0.1 0.1 0.1 0.26541 0.29693 0.30482 
0.1 0.1 0.1 0.1 0.1 0.1 0.1 0.1 0.1 
0.1 0.1 0.1 0.1 0.1 0.1 0.1 0.1 0.1 
0.1 0.1 0.2957 0.28069 0.2735 0.25888 0.1 0.1 0.1 
0.1 0.1 0.1 0.1 0.1 0.1 0.1 0.29225 0.32017 
0.28537 0.1 0.1 0.1 0.1 0.1 0.1 0.1 0.1 
0.1 0.1 0.1 0.1 0.1 0.1 0.1 0.1 0.1 
0.1 0.1 0.1 0.27393 0.31621 0.1 0.1 0.1 0.1 
0.1 0.1 0.1 0.1 0.1 0.1 0.26173 0.33657 0.1 
0.1 0.1 0.1 0.1 0.1 0.1 0.1 0.1 0.1 
0.1 0.1 0.1 0.1 0.1 0.1 0.1 0.1 0.1 
0.1 0.27439 0.27071 0.32716 0.25008 0.1 0.1 0.1 0.1 
0.1 0.1 0.1 0.1 0.1 0.1 0.32334 0.1 0.1 
0.1 0.1 0.1 0.1 0.1 0.1 0.1 0.1 0.1 
0.1 0.1 0.1 0.1 0.1 0.1 0.1 0.1 0.1 
0.3228 0.33577 0.3161 0.1 0.1 0.1 0.1 0.1 0.1 
0.1 0.1 0.1 0.1 0.1 0.1 0.1 0.1 0.1 
0.1 0.1 0.1 0.1 0.1 0.1 0.1 0.1 0.1 
0.1 0.1 0.1 0.1 0.1 0.1 0.34334 0.1 0.1 
0.1 0.1 0.1 0.1 0.1 0.1 0.1 0.1 0.1 
0.1 0.1 0.1 0.1 0.1 0.1 0.1 0.1 0.1 
0.1 0.1 0.1 0.1 0.1 0.1 0.1 0.1 0.1 
0.1 0.26888 0.26269 0.1 0.1 0.1 0.1 0.1 0.1 
0.1 0.1 0.1 0.1 0.1 0.1 0.1 0.1 0.1 
0.1 0.1 0.1 0.1 0.1 0.1 0.1 0.1 0.1 
0.1 0.34368 0.1 0.1 0.1 0.1 0.1 0.31506 0.33976 
0.32361 0.1 0.1 0.1 0.1 0.1 0.1 0.1 0.1 
0.1 0.1 0.1 0.1 0.1 0.1 0.1 0.1 0.1 
0.1 0.29985 0.1 0.1 0.1 0.1 0.1 0.29552 0.1 
0.1 0.1 0.1 0.1 0.1 0.1 0.1 0.1 0.1 
0.1 0.1 0.1 0.1 0.1 0.1 0.1 0.1 0.1 
0.1 0.1 0.1 0.1 0.1 0.1 0.1 0.1 0.1 
0.1 0.1 0.1 0.1 0.1 0.1 0.1 0.1 0.1 
0.1 0.1 0.1 0.1 0.1 0.1 0.1 0.1 0.1 
0.1 0.1 0.1 0.1 0.1 0.1 0.1 0.1 0.1 
0.1 0.1 0.1 0.1 0.1 0.1 0.1 0.1 0.1 
0.1 0.1 0.1 0.1 0.1 0.1 0.1 0.1 0.1 
0.1 0.1 0.28428 0.1 0.33341 0.1 0.1 0.1 0.1 
0.1 0.1 0.1 0.1 0.1 0.1 0.25871 0.33762 0.28437 
0.1 0.1 0.1 0.1 0.1 0.1 0.1 0.1 0.1 
0.1 0.1 0.1 0.1 0.1 0.1 0.1 0.1 0.1 
0.1 0.1 0.1 0.1 0.1 0.1 0.1 0.1 0.1 
0.1 0.1 0.1 0.1 0.1 0.1 0.1 0.1 0.1 
0.1 0.1 0.1 0.1 0.1 0.1 0.1 0.1 0.1 
0.1 0.1 0.1 0.1 0.1 0.1 0.1 0.1 0.1 
0.1 0.1 0.1 0.1 0.1 0.1 0.1 0.1 0.1 
0.1 0.1 0.1 0.1 0.1 0.1 0.1 0.1 0.1 
0.1 0.1 0.1 0.1 0.1 0.1 0.1 0.1 0.1 
0.1 0.1 0.1 0.1 0.1 0.1 0.1 0.1 0.1 
0.1 0.1 0.1 0.1 0.1 0.1 0.1 0.1 0.1 
0.1 0.1 0.1 0.1 0.1 0.1 0.1 0.1 0.1 
0.1 0.1 0.1 0.1 0.1 0.1 0.1 0.1 0.1 
0.1 0.1 0.1 0.1 0.1 0.1 0.1 0.1 0.1 
0.1 0.1 0.1 0.1 0.1 0.1 0.1 0.1 0.1 
0.1 0.1 0.1 0.1 0.1 0.1 0.1 0.1 0.1 
0.1 0.1 0.1 0.1 0.1 0.1 0.1 0.1 0.1 
0.1 0.1 0.1 0.1 0.31445 0.1 0.1 0.1 0.1 
0.1 0.1 0.1 0.1 0.1 0.1 0.1 0.1 0.1 
0.1 0.1 0.1 0.1 0.1 0.1 0.1 0.1 0.1 
0.1 0.1 0.1 0.1 0.1 0.1 0.1 0.1 0.1 
0.1 0.33954 0.1 0.1 0.1 0.1 0.1 0.1 0.1 
0.1 0.1 0.1 0.1 0.1 0.1 0.1 0.1 0.1 
0.1 0.1 0.1 0.1 0.1 0.1 0.1 0.1 0.1 
0.25952 0.1 0.1 0.1 0.1 0.1 0.1 0.1 0.1 
0.1 0.1 0.1 0.1 0.1 0.1 0.1 0.1 0.1 
0.1 0.1 0.1 0.1 0.1 0.1 0.1 0.1 0.33412 
0.1 0.1 0.1 0.1 0.1 0.1 0.1 0.1 0.1 
0.1 0.1 0.1 0.1 0.1 0.1 0.1 0.1 0.1 
0.1 0.1 0.1 0.1 0.1 0.1 0.1 0.1 0.1 
0.1 0.1 0.1 0.1 0.1 0.1 0.1 0.1 0.1 
0.1 0.1 0.1 0.1 0.1 0.1 0.1 0.1 0.1 
0.1 0.1 0.1 0.1 0.1 0.1 0.1 0.1 0.1 
0.1 0.1 0.1 0.1 0.1 0.1 0.1 0.1 0.1 
0.1 0.1 0.1 0.1 0.1 0.1 0.1 0.1 0.1 
0.1 0.1 0.1 0.1 0.1 0.1 0.1 0.1 0.1 
0.1 0.1 0.1 0.1 0.1 0.1 0.1 0.1 0.1 
0.1 0.1 0.1 0.1 0.1 0.1 0.1 0.1 0.1 
0.1 0.1 0.1 0.1 0.1 0.1 0.1 0.1 0.1 
0.1 0.1 0.1 0.1 0.1 0.1 0.1 0.1 0.1 
0.1 0.1 0.1 0.1 0.1 0.1 0.1 0.1 0.1 
0.1 0.1 0.1 0.1 0.1 0.1 0.1 0.1 0.1 
0.1 0.1 0.1 0.1 0.1 0.1 0.1 0.1 0.1 
0.1 0.1 0.1 0.1 0.1 0.1 0.1 0.1 0.1 
0.1 0.1 0.1 0.1 0.1 0.1 0.1 0.1 0.1 
0.1 0.1 0.1 0.1 0.1 0.1 0.1 0.1 0.1 
0.1 0.1 0.1 0.1 0.1 0.1 0.1 0.1 0.1 
0.1 0.1 0.1 0.1 0.1 0.1 0.1 0.1 0.1 
0.1 0.1 0.1 0.1 0.1 0.1 0.1 0.1 0.1 
0.1 0.1 0.1 0.1 0.1 
a 3 1049 double
0 0 0 0 0 0 0 0 0 
0 0 0 0 0 0 0 0 0 
0 0 0 0 0 0 0 0 0 
0 0 0 0 0 0 0 0 0 
0 0 0 0 0 0 0 0 0 
0 0 0 0 0 0 0 0 0 
0 0 0 0 0 0 0 0 0 
0 0 0 0 0 0 0 0 0 
0 0 0 0 0 0 0 0 0 
0 0 0 0 0 0 0 0 0 
0 0 0 0 0 0 0 0 0 
0 0 0 0 0 0 0 0 0 
0 0 0 0 0 0 0 0 0 
0 0 0 0 0 0 0 0 0 
0 0 0 0 0 0 0 0 0 
0 0 0 0 0 0 0 0 0 
0 0 0 0 0 0 0 0 0 
0 0 0 0 0 0 0 0 0 
0 0 0 0 0 0 0 0 0 
0 0 0 0 0 0 0 0 0 
0 0 0 0 0 0 0 0 0 
0 0 0 0 0 0 0 0 0 
0 0 0 0 0 0 0 0 0 
0 0 0 0 0 0 0 0 0 
0 0 0 0 0 0 0 0 0 
0 0 0 0 0 0 0 0 0 
0 0 0 0 0 0 0 0 0 
0 0 0 0 0 0 0 0 0 
0 0 0 0 0 0 0 0 0 
0 0 0 0 0 0 0 0 0 
0 0 0 0 0 0 0 0 0 
0 0 0 0 0 0 0 0 0 
0 0 0 0 0 0 0 0 0 
0 0 0 0 0 0 0 0 0 
0 0 0 0 0 0 0 0 0 
0 0 0 0 0 0 0 0 0 
0 0 0 0 0 0 0 0 0 
0 0 0 0 0 0 0 0 0 
0 0 0 0 0 0 0 0 0 
0 0 0 0 0 0 0 0 0 
0 0 0 0 0 0 0 0 0 
0 0 0 0 0 0 0 0 0 
0 0 0 0 0 0 0 0 0 
0 0 0 0 0 0 0 0 0 
0 0 0 0 0 0 0 0 0 
0 0 0 0 0 0 0 0 0 
0 0 0 0 0 0 0 0 0 
0 0 0 0 0 0 0 0 0 
0 0 0 0 0 0 0 0 0 
0 0 0 0 0 0 0 0 0 
0 0 0 0 0 0 0 0 0 
0 0 0 0 0 0 0 0 0 
0 0 0 0 0 0 0 0 0 
0 0 0 0 0 0 0 0 0 
0 0 0 0 0 0 0 0 0 
0 0 0 0 0 0 0 0 0 
0 0 0 0 0 0 0 0 0 
0 0 0 0 0 0 0 0 0 
0 0 0 0 0 0 0 0 0 
0 0 0 0 0 0 0 0 0 
0 0 0 0 0 0 0 0 0 
0 0 0 0 0 0 0 0 0 
0 0 0 0 0 0 0 0 0 
0 0 0 0 0 0 0 0 0 
0 0 0 0 0 0 0 0 0 
0 0 0 0 0 0 0 0 0 
0 0 0 0 0 0 0 0 0 
0 0 0 0 0 0 0 0 0 
0 0 0 0 0 0 0 0 0 
0 0 0 0 0 0 0 0 0 
0 0 0 0 0 0 0 0 0 
0 0 0 0 0 0 0 0 0 
0 0 0 0 0 0 0 0 0 
0 0 0 0 0 0 0 0 0 
0 0 0 0 0 0 0 0 0 
0 0 0 0 0 0 0 0 0 
0 0 0 0 0 0 0 0 0 
0 0 0 0 0 0 0 0 0 
0 0 0 0 0 0 0 0 0 
0 0 0 0 0 0 0 0 0 
0 0 0 0 0 0 0 0 0 
0 0 0 0 0 0 0 0 0 
0 0 0 0 0 0 0 0 0 
0 0 0 0 0 0 0 0 0 
0 0 0 0 0 0 0 0 0 
0 0 0 0 0 0 0 0 0 
0 0 0 0 0 0 0 0 0 
0 0 0 0 0 0 0 0 0 
0 0 0 0 0 0 0 0 0 
0 0 0 0 0 0 0 0 0 
0 0 0 0 0 0 0 0 0 
0 0 0 0 0 0 0 0 0 
0 0 0 0 0 0 0 0 0 
0 0 0 0 0 0 0 0 0 
0 0 0 0 0 0 0 0 0 
0 0 0 0 0 0 0 0 0 
0 0 0 0 0 0 0 0 0 
0 0 0 0 0 0 0 0 0 
0 0 0 0 0 0 0 0 0 
0 0 0 0 0 0 0 0 0 
0 0 0 0 0 0 0 0 0 
0 0 0 0 0 0 0 0 0 
0 0 0 0 0 0 0 0 0 
0 0 0 0 0 0 0 0 0 
0 0 0 0 0 0 0 0 0 
0 0 0 0 0 0 0 0 0 
0 0 0 0 0 0 0 0 0 
0 0 0 0 0 0 0 0 0 
0 0 0 0 0 0 0 0 0 
0 0 0 0 0 0 0 0 0 
0 0 0 0 0 0 0 0 0 
0 0 0 0 0 0 0 0 0 
0 0 0 0 0 0 0 0 0 
0 0 0 0 0 0 0 0 0 
0 0 0 0 0 0 0 0 0 
0 0 0 0 0 0 0 0 0 
0 0 0 0 0 0 0 0 0 
0 0 0 0 0 0 0 0 0 
0 0 0 0 0 0 0 0 0 
0 0 0 0 0 0 0 0 0 
0 0 0 0 0 0 0 0 0 
0 0 0 0 0 0 0 0 0 
0 0 0 0 0 0 0 0 0 
0 0 0 0 0 0 0 0 0 
0 0 0 0 0 0 0 0 0 
0 0 0 0 0 0 0 0 0 
0 0 0 0 0 0 0 0 0 
0 0 0 0 0 0 0 0 0 
0 0 0 0 0 0 0 0 0 
0 0 0 0 0 0 0 0 0 
0 0 0 0 0 0 0 0 0 
0 0 0 0 0 0 0 0 0 
0 0 0 0 0 0 0 0 0 
0 0 0 0 0 0 0 0 0 
0 0 0 0 0 0 0 0 0 
0 0 0 0 0 0 0 0 0 
0 0 0 0 0 0 0 0 0 
0 0 0 0 0 0 0 0 0 
0 0 0 0 0 0 0 0 0 
0 0 0 0 0 0 0 0 0 
0 0 0 0 0 0 0 0 0 
0 0 0 0 0 0 0 0 0 
0 0 0 0 0 0 0 0 0 
0 0 0 0 0 0 0 0 0 
0 0 0 0 0 0 0 0 0 
0 0 0 0 0 0 0 0 0 
0 0 0 0 0 0 0 0 0 
0 0 0 0 0 0 0 0 0 
0 0 0 0 0 0 0 0 0 
0 0 0 0 0 0 0 0 0 
0 0 0 0 0 0 0 0 0 
0 0 0 0 0 0 0 0 0 
0 0 0 0 0 0 0 0 0 
0 0 0 0 0 0 0 0 0 
0 0 0 0 0 0 0 0 0 
0 0 0 0 0 0 0 0 0 
0 0 0 0 0 0 0 0 0 
0 0 0 0 0 0 0 0 0 
0 0 0 0 0 0 0 0 0 
0 0 0 0 0 0 0 0 0 
0 0 0 0 0 0 0 0 0 
0 0 0 0 0 0 0 0 0 
0 0 0 0 0 0 0 0 0 
0 0 0 0 0 0 0 0 0 
0 0 0 0 0 0 0 0 0 
0 0 0 0 0 0 0 0 0 
0 0 0 0 0 0 0 0 0 
0 0 0 0 0 0 0 0 0 
0 0 0 0 0 0 0 0 0 
0 0 0 0 0 0 0 0 0 
0 0 0 0 0 0 0 0 0 
0 0 0 0 0 0 0 0 0 
0 0 0 0 0 0 0 0 0 
0 0 0 0 0 0 0 0 0 
0 0 0 0 0 0 0 0 0 
0 0 0 0 0 0 0 0 0 
0 0 0 0 0 0 0 0 0 
0 0 0 0 0 0 0 0 0 
0 0 0 0 0 0 0 0 0 
0 0 0 0 0 0 0 0 0 
0 0 0 0 0 0 0 0 0 
0 0 0 0 0 0 0 0 0 
0 0 0 0 0 0 0 0 0 
0 0 0 0 0 0 0 0 0 
0 0 0 0 0 0 0 0 0 
0 0 0 0 0 0 0 0 0 
0 0 0 0 0 0 0 0 0 
0 0 0 0 0 0 0 0 0 
0 0 0 0 0 0 0 0 0 
0 0 0 0 0 0 0 0 0 
0 0 0 0 0 0 0 0 0 
0 0 0 0 0 0 0 0 0 
0 0 0 0 0 0 0 0 0 
0 0 0 0 0 0 0 0 0 
0 0 0 0 0 0 0 0 0 
0 0 0 0 0 0 0 0 0 
0 0 0 0 0 0 0 0 0 
0 0 0 0 0 0 0 0 0 
0 0 0 0 0 0 0 0 0 
0 0 0 0 0 0 0 0 0 
0 0 0 0 0 0 0 0 0 
0 0 0 0 0 0 0 0 0 
0 0 0 0 0 0 0 0 0 
0 0 0 0 0 0 0 0 0 
0 0 0 0 0 0 0 0 0 
0 0 0 0 0 0 0 0 0 
0 0 0 0 0 0 0 0 0 
0 0 0 0 0 0 0 0 0 
0 0 0 0 0 0 0 0 0 
0 0 0 0 0 0 0 0 0 
0 0 0 0 0 0 0 0 0 
0 0 0 0 0 0 0 0 0 
0 0 0 0 0 0 0 0 0 
0 0 0 0 0 0 0 0 0 
0 0 0 0 0 0 0 0 0 
0 0 0 0 0 0 0 0 0 
0 0 0 0 0 0 0 0 0 
0 0 0 0 0 0 0 0 0 
0 0 0 0 0 0 0 0 0 
0 0 0 0 0 0 0 0 0 
0 0 0 0 0 0 0 0 0 
0 0 0 0 0 0 0 0 0 
0 0 0 0 0 0 0 0 0 
0 0 0 0 0 0 0 0 0 
0 0 0 0 0 0 0 0 0 
0 0 0 0 0 0 0 0 0 
0 0 0 0 0 0 0 0 0 
0 0 0 0 0 0 0 0 0 
0 0 0 0 0 0 0 0 0 
0 0 0 0 0 0 0 0 0 
0 0 0 0 0 0 0 0 0 
0 0 0 0 0 0 0 0 0 
0 0 0 0 0 0 0 0 0 
0 0 0 0 0 0 0 0 0 
0 0 0 0 0 0 0 0 0 
0 0 0 0 0 0 0 0 0 
0 0 0 0 0 0 0 0 0 
0 0 0 0 0 0 0 0 0 
0 0 0 0 0 0 0 0 0 
0 0 0 0 0 0 0 0 0 
0 0 0 0 0 0 0 0 0 
0 0 0 0 0 0 0 0 0 
0 0 0 0 0 0 0 0 0 
0 0 0 0 0 0 0 0 0 
0 0 0 0 0 0 0 0 0 
0 0 0 0 0 0 0 0 0 
0 0 0 0 0 0 0 0 0 
0 0 0 0 0 0 0 0 0 
0 0 0 0 0 0 0 0 0 
0 0 0 0 0 0 0 0 0 
0 0 0 0 0 0 0 0 0 
0 0 0 0 0 0 0 0 0 
0 0 0 0 0 0 0 0 0 
0 0 0 0 0 0 0 0 0 
0 0 0 0 0 0 0 0 0 
0 0 0 0 0 0 0 0 0 
0 0 0 0 0 0 0 0 0 
0 0 0 0 0 0 0 0 0 
0 0 0 0 0 0 0 0 0 
0 0 0 0 0 0 0 0 0 
0 0 0 0 0 0 0 0 0 
0 0 0 0 0 0 0 0 0 
0 0 0 0 0 0 0 0 0 
0 0 0 0 0 0 0 0 0 
0 0 0 0 0 0 0 0 0 
0 0 0 0 0 0 0 0 0 
0 0 0 0 0 0 0 0 0 
0 0 0 0 0 0 0 0 0 
0 0 0 0 0 0 0 0 0 
0 0 0 0 0 0 0 0 0 
0 0 0 0 0 0 0 0 0 
0 0 0 0 0 0 0 0 0 
0 0 0 0 0 0 0 0 0 
0 0 0 0 0 0 0 0 0 
0 0 0 0 0 0 0 0 0 
0 0 0 0 0 0 0 0 0 
0 0 0 0 0 0 0 0 0 
0 0 0 0 0 0 0 0 0 
0 0 0 0 0 0 0 0 0 
0 0 0 0 0 0 0 0 0 
0 0 0 0 0 0 0 0 0 
0 0 0 0 0 0 0 0 0 
0 0 0 0 0 0 0 0 0 
0 0 0 0 0 0 0 0 0 
0 0 0 0 0 0 0 0 0 
0 0 0 0 0 0 0 0 0 
0 0 0 0 0 0 0 0 0 
0 0 0 0 0 0 0 0 0 
0 0 0 0 0 0 0 0 0 
0 0 0 0 0 0 0 0 0 
0 0 0 0 0 0 0 0 0 
0 0 0 0 0 0 0 0 0 
0 0 0 0 0 0 0 0 0 
0 0 0 0 0 0 0 0 0 
0 0 0 0 0 0 0 0 0 
0 0 0 0 0 0 0 0 0 
0 0 0 0 0 0 0 0 0 
0 0 0 0 0 0 0 0 0 
0 0 0 0 0 0 0 0 0 
0 0 0 0 0 0 0 0 0 
0 0 0 0 0 0 0 0 0 
0 0 0 0 0 0 0 0 0 
0 0 0 0 0 0 0 0 0 
0 0 0 0 0 0 0 0 0 
0 0 0 0 0 0 0 0 0 
0 0 0 0 0 0 0 0 0 
0 0 0 0 0 0 0 0 0 
0 0 0 0 0 0 0 0 0 
0 0 0 0 0 0 0 0 0 
0 0 0 0 0 0 0 0 0 
0 0 0 0 0 0 0 0 0 
0 0 0 0 0 0 0 0 0 
0 0 0 0 0 0 0 0 0 
0 0 0 0 0 0 0 0 0 
0 0 0 0 0 0 0 0 0 
0 0 0 0 0 0 0 0 0 
0 0 0 0 0 0 0 0 0 
0 0 0 0 0 0 0 0 0 
0 0 0 0 0 0 0 0 0 
0 0 0 0 0 0 0 0 0 
0 0 0 0 0 0 0 0 0 
0 0 0 0 0 0 0 0 0 
0 0 0 0 0 0 0 0 0 
0 0 0 0 0 0 0 0 0 
0 0 0 0 0 0 0 0 0 
0 0 0 0 0 0 0 0 0 
0 0 0 0 0 0 0 0 0 
0 0 0 0 0 0 0 0 0 
0 0 0 0 0 0 0 0 0 
0 0 0 0 0 0 0 0 0 
0 0 0 0 0 0 0 0 0 
0 0 0 0 0 0 0 0 0 
0 0 0 0 0 0 0 0 0 
0 0 0 0 0 0 0 0 0 
0 0 0 0 0 0 0 0 0 
0 0 0 0 0 0 0 0 0 
0 0 0 0 0 0 0 0 0 
0 0 0 0 0 0 0 0 0 
0 0 0 0 0 0 0 0 0 
0 0 0 0 0 0 0 0 0 
0 0 0 0 0 0 0 0 0 
0 0 0 0 0 0 0 0 0 
0 0 0 0 0 0 0 0 0 
0 0 0 0 0 0 0 0 0 
0 0 0 0 0 0 0 0 0 
0 0 0 0 0 0 0 0 0 
0 0 0 0 0 0 0 0 0 
0 0 0 0 0 0 0 0 0 
0 0 0 0 0 0 0 0 0 
0 0 0 0 0 0 
v 3 1049 double
-0.0976315 -0.18047 0 -0.584679 0.312199 0 -0.000330848 -0.0772372 0 
0.146867 -0.53594 0 0.591228 -0.650172 0 0.104246 -0.891049 0 
-0.183986 -0.30991 0 0.534398 -0.0220252 0 1.09626 2.53162 0 
-0.512258 0.0488317 0 -0.44865 -0.0978603 0 -0.147626 -0.378178 0 
-0.368142 -0.441385 0 -0.362512 -0.399913 0 0.847737 -0.676943 0 
-0.889183 -0.703966 0 -0.723068 -0.50815 0 -0.934655 -0.756588 0 
0.820524 -0.619763 0 0.620188 -0.484065 0 0.806612 -0.615489 0 
0.761137 -0.714208 0 0.54981 -0.472678 0 -0.957204 -0.768102 0 
0.679829 -0.625173 0 0.736655 -0.674228 0 0.786313 -0.612454 0 
0.824196 -0.599911 0 0.963962 -0.744797 0 0.977501 -0.75209 0 
0.923217 -0.775495 0 -0.758388 -0.617943 0 -0.925871 -0.805413 0 
0.767001 -0.638178 0 0.807212 -0.675776 0 0.952138 -0.822244 0 
0.962292 -0.762473 0 -0.738706 -0.539968 0 0.908677 -0.724473 0 
0.989982 -0.768212 0 0.834095 -0.653021 0 1.03989 -0.777139 0 
-0.806512 -0.717652 0 -0.834615 -0.685423 0 -0.611184 -0.525162 0 
-0.643255 -0.508413 0 0.768941 -0.653243 0 0.897339 -0.717216 0 
0.838545 -0.716518 0 0.954014 -0.740396 0 -0.856005 -0.654275 0 
-0.850788 -0.658019 0 -0.840391 -0.666452 0 -0.752108 -0.60262 0 
0.816725 -0.712597 0 0.925395 -0.651121 0 -0.873229 -0.659622 0 
-0.652914 -0.556825 0 -0.925174 -0.58284 0 -0.482795 -0.675427 0 
-0.911582 -0.803061 0 0.808516 -1.00668 0 0.937637 -0.711015 0 
0.779609 -0.965245 0 -1.10217 -0.674946 0 -0.932239 -0.975743 0 
-0.549972 -1.18317 0 -0.188815 -0.747178 0 0 0 0 
0 0 0 0 0 0 0 0 0 
0 0 0 0 0 0 0 0 0 
0 0 0 0 0 0 0 0 0 
0 0 0 0 0 0 0 0 0 
0 0 0 0 0 0 0 0 0 
0 0 0 0 0 0 -0.134004 -0.48423 0 
0 0 0 -0.082878 -0.49566 0 -0.247223 -0.765601 0 
0 0 0 0 0 0 0 0 0 
-0.063236 -0.744921 0 0 0 0 0 0 0 
0 0 0 0 0 0 0 0 0 
0 0 0 0 0 0 0 0 0 
0 0 0 0 0 0 0 0 0 
0 0 0 0 0 0 0 0 0 
0 0 0 0 0 0 0 0 0 
0 0 0 0 0 0 0 0 0 
0 0 0 0 0 0 0 0 0 
0 0 0 0 0 0 0 0 0 
0 0 0 0 0 0 0 0 0 
0 0 0 0 0 0 0 0 0 
0 0 0 0 0 0 0 0 0 
0 0 0 0 0 0 0 0 0 
0 0 0 0 0 0 0 0 0 
0 0 0 0 0 0 0 0 0 
0 0 0 0 0 0 0 0 0 
0 0 0 0 0 0 0 0 0 
0 0 0 0 0 0 0 0 0 
0 0 0 0 0 0 0 0 0 
0 0 0 0 0 0 0 0 0 
0 0 0 0 0 0 0 0 0 
0 0 0 0 0 0 0 0 0 
0 0 0 0 0 0 0 0 0 
0 0 0 0 0 0 0 0 0 
0 0 0 0 0 0 0 0 0 
0 0 0 0 0 0 0 0 0 
0 0 0 0 0 0 0 0 0 
0 0 0 0 0 0 0 0 0 
0 0 0 0 0 0 0 0 0 
0 0 0 0 0 0 0 0 0 
0 0 0 0 0 0 0 0 0 
0 0 0 0 0 0 0 0 0 
0 0 0 0 0 0 0 0 0 
0 0 0 0 0 0 0 0 0 
0 0 0 0 0 0 0 0 0 
0 0 0 0 0 0 0 0 0 
0 0 0 0 0 0 0 0 0 
0 0 0 0 0 0 0 0 0 
0 0 0 0 0 0 0 0 0 
0 0 0 0 0 0 0 0 0 
0 0 0 0 0 0 0 0 0 
0 0 0 0 0 0 0 0 0 
0 0 0 0 0 0 0 0 0 
0 0 0 0.133298 -0.539481 0 0 0 0 
0.296085 -0.213184 0 0 0 0 0.195631 -0.49016 0 
0 0 0 -0.0249389 -0.338922 0 -0.0544854 -0.256932 0 
0 0 0 0 0 0 -0.0670207 -1.03547 0 
0 0 0 -0.0964847 -0.0881892 0 -0.145231 -0.283005 0 
0 0 0 0 0 0 0 0 0 
0 0 0 0 0 0 0 0 0 
0 0 0 0 0 0 0 0 0 
0 0 0 0 0 0 0 0 0 
0 0 0 0 0 0 0 0 0 
0 0 0 0 0 0 0 0 0 
0 0 0 0 0 0 0 0 0 
-0.211567 -0.719683 0 -0.304024 -1.0108 0 -0.178308 -0.737403 0 
0 0 0 0 0 0 0 0 0 
0 0 0 0 0 0 0 0 0 
0 0 0 0 0 0 0 0 0 
0 0 0 0 0 0 0 0 0 
0 0 0 0 0 0 0 0 0 
0 0 0 0 0 0 0 0 0 
0 0 0 0 0 0 -0.0177619 -0.51701 0 
-0.0783532 -0.408367 0 0.291538 -0.79982 0 -0.122776 -0.237316 0 
0 0 0 0 0 0 0 0 0 
0 0 0 0 0 0 0 0 0 
0 0 0 0 0 0 0 0 0 
0 0 0 -0.243548 -0.849416 0 -0.311189 -0.930235 0 
-0.254732 -1.00267 0 0 0 0 0 0 0 
0 0 0 0 0 0 0 0 0 
0 0 0 0 0 0 0 0 0 
0 0 0 0 0 0 0 0 0 
0 0 0 0 0 0 0 0 0 
0 0 0 0 0 0 0 0 0 
0 0 0 0 0 0 0 0 0 
-0.102885 -0.784043 0 -0.143144 -1.13509 0 0 0 0 
0 0 0 0 0 0 0 0 0 
0 0 0 0 0 0 0 0 0 
0 0 0 0 0 0 0 0 0 
-0.20519 -0.802969 0 -0.318144 -1.01147 0 0 0 0 
0 0 0 0 0 0 0 0 0 
0 0 0 0 0 0 0 0 0 
0 0 0 0 0 0 0 0 0 
0 0 0 0 0 0 0 0 0 
0 0 0 0 0 0 0 0 0 
0 0 0 0 0 0 0 0 0 
0 0 0 0.231879 -0.786323 0 -0.261899 -1.02904 0 
-0.119513 -0.819842 0 -0.135679 -0.813706 0 0 0 0 
0 0 0 0 0 0 0 0 0 
0 0 0 0 0 0 0 0 0 
0 0 0 0 0 0 0 0 0 
-0.307817 -1.01432 0 0 0 0 0 0 0 
0 0 0 0 0 0 0 0 0 
0 0 0 0 0 0 0 0 0 
0 0 0 0 0 0 0 0 0 
0 0 0 0 0 0 0 0 0 
0 0 0 0 0 0 0 0 0 
0 0 0 0 0 0 0 0 0 
-0.147331 -0.708474 0 -0.275698 -1.12186 0 -0.112325 -1.21507 0 
0 0 0 0 0 0 0 0 0 
0 0 0 0 0 0 0 0 0 
0 0 0 0 0 0 0 0 0 
0 0 0 0 0 0 0 0 0 
0 0 0 0 0 0 0 0 0 
0 0 0 0 0 0 0 0 0 
0 0 0 0 0 0 0 0 0 
0 0 0 0 0 0 0 0 0 
0 0 0 0 0 0 0 0 0 
0 0 0 0 0 0 0 0 0 
0.213505 -0.723835 0 0 0 0 0 0 0 
0 0 0 0 0 0 0 0 0 
0 0 0 0 0 0 0 0 0 
0 0 0 0 0 0 0 0 0 
0 0 0 0 0 0 0 0 0 
0 0 0 0 0 0 0 0 0 
0 0 0 0 0 0 0 0 0 
0 0 0 0 0 0 0 0 0 
0 0 0 0 0 0 0 0 0 
0 0 0 0 0 0 0 0 0 
0 0 0 -0.146128 -0.90075 0 -0.112512 -0.904433 0 
0 0 0 0 0 0 0 0 0 
0 0 0 0 0 0 0 0 0 
0 0 0 0 0 0 0 0 0 
0 0 0 0 0 0 0 0 0 
0 0 0 0 0 0 0 0 0 
0 0 0 0 0 0 0 0 0 
0 0 0 0 0 0 0 0 0 
0 0 0 0 0 0 0 0 0 
0 0 0 0.21439 -0.683665 0 0 0 0 
0 0 0 0 0 0 0 0 0 
0 0 0 0.326023 -0.687444 0 -0.0902544 -0.901169 0 
-0.235942 -0.979717 0 0 0 0 0 0 0 
0 0 0 0 0 0 0 0 0 
0 0 0 0 0 0 0 0 0 
0 0 0 0 0 0 0 0 0 
0 0 0 0 0 0 0 0 0 
0 0 0 0 0 0 0 0 0 
0 0 0 -0.811689 0.0141646 0 0 0 0 
0 0 0 0 0 0 0 0 0 
0 0 0 -0.845432 0.0169558 0 0 0 0 
0 0 0 0 0 0 0 0 0 
0 0 0 0 0 0 0 0 0 
0 0 0 0 0 0 0 0 0 
0 0 0 0 0 0 0 0 0 
0 0 0 0 0 0 0 0 0 
0 0 0 0 0 0 0 0 0 
0 0 0 0 0 0 0 0 0 
0 0 0 0 0 0 0 0 0 
0 0 0 0 0 0 0 0 0 
0 0 0 0 0 0 0 0 0 
0 0 0 0 0 0 0 0 0 
0 0 0 0 0 0 0 0 0 
0 0 0 0 0 0 0 0 0 
0 0 0 0 0 0 0 0 0 
0 0 0 0 0 0 0 0 0 
0 0 0 0 0 0 0 0 0 
0 0 0 0 0 0 0 0 0 
0 0 0 0 0 0 0 0 0 
0 0 0 0 0 0 0 0 0 
0 0 0 0 0 0 0 0 0 
0 0 0 0 0 0 0 0 0 
0 0 0 0 0 0 0 0 0 
0 0 0 0 0 0 0 0 0 
0 0 0 0 0 0 0 0 0 
0 0 0 0 0 0 0.448429 -0.617163 0 
0 0 0 -0.133132 -0.936551 0 0 0 0 
0 0 0 0 0 0 0 0 0 
0 0 0 0 0 0 0 0 0 
0 0 0 0 0 0 0 0 0 
-0.806856 -0.00305548 0 0.863532 0.00374034 0 -0.142277 -0.929734 0 
0 0 0 0 0 0 0 0 0 
0 0 0 0 0 0 0 0 0 
0 0 0 0 0 0 0 0 0 
0 0 0 0 0 0 0 0 0 
0 0 0 0 0 0 0 0 0 
0 0 0 0 0 0 0 0 0 
0 0 0 0 0 0 0 0 0 
0 0 0 0 0 0 0 0 0 
0 0 0 0 0 0 0 0 0 
0 0 0 0 0 0 0 0 0 
0 0 0 0 0 0 0 0 0 
0 0 0 0 0 0 0 0 0 
0 0 0 0 0 0 0 0 0 
0 0 0 0 0 0 0 0 0 
0 0 0 0 0 0 0 0 0 
0 0 0 0 0 0 0 0 0 
0 0 0 0 0 0 0 0 0 
0 0 0 0 0 0 0 0 0 
0 0 0 0 0 0 0 0 0 
0 0 0 0 0 0 0 0 0 
0 0 0 0 0 0 0 0 0 
0 0 0 0 0 0 0 0 0 
0 0 0 0 0 0 0 0 0 
0 0 0 0 0 0 0 0 0 
0 0 0 0 0 0 0 0 0 
0 0 0 0 0 0 0 0 0 
0 0 0 0 0 0 0 0 0 
0 0 0 0 0 0 0 0 0 
0 0 0 0 0 0 0 0 0 
0 0 0 0 0 0 0 0 0 
0 0 0 0 0 0 0 0 0 
0 0 0 0 0 0 0 0 0 
0 0 0 0 0 0 0 0 0 
0 0 0 0 0 0 0 0 0 
0 0 0 0 0 0 0 0 0 
0 0 0 0 0 0 0 0 0 
0 0 0 0 0 0 0 0 0 
0 0 0 0 0 0 0 0 0 
0 0 0 0 0 0 0 0 0 
0 0 0 0 0 0 0 0 0 
0 0 0 0 0 0 0 0 0 
0 0 0 0 0 0 0 0 0 
0 0 0 0 0 0 0 0 0 
0 0 0 0 0 0 0 0 0 
0 0 0 0 0 0 0 0 0 
0 0 0 0 0 0 0 0 0 
0 0 0 0 0 0 0 0 0 
0 0 0 0 0 0 0 0 0 
0 0 0 0 0 0 0 0 0 
0 0 0 0 0 0 0 0 0 
0 0 0 0 0 0 0 0 0 
0 0 0 0 0 0 0 0 0 
0 0 0 0.518338 -0.479255 0 0 0 0 
0 0 0 0 0 0 0 0 0 
0 0 0 0 0 0 0 0 0 
0 0 0 0 0 0 0 0 0 
0 0 0 0 0 0 0 0 0 
0 0 0 0 0 0 0 0 0 
0 0 0 0 0 0 0 0 0 
0 0 0 0 0 0 0 0 0 
0 0 0 0 0 0 0 0 0 
0 0 0 0 0 0 0 0 0 
0 0 0 0 0 0 0 0 0 
0 0 0 0.487816 -0.514139 0 0 0 0 
0 0 0 0 0 0 0 0 0 
0 0 0 0 0 0 0 0 0 
0 0 0 0 0 0 0 0 0 
0 0 0 0 0 0 0 0 0 
0 0 0 0 0 0 0 0 0 
0 0 0 0 0 0 0 0 0 
0 0 0 0 0 0 0 0 0 
0 0 0 0 0 0 0 0 0 
0.4758 -0.502264 0 0 0 0 0 0 0 
0 0 0 0 0 0 0 0 0 
0 0 0 0 0 0 0 0 0 
0 0 0 0 0 0 0 0 0 
0 0 0 0 0 0 0 0 0 
0 0 0 0 0 0 0 0 0 
0 0 0 0 0 0 0 0 0 
0 0 0 0 0 0 0 0 0 
0 0 0 0 0 0 0.475607 -0.500847 0 
0 0 0 0 0 0 0 0 0 
0 0 0 0 0 0 0 0 0 
0 0 0 0 0 0 0 0 0 
0 0 0 0 0 0 0 0 0 
0 0 0 0 0 0 0 0 0 
0 0 0 0 0 0 0 0 0 
0 0 0 0 0 0 0 0 0 
0 0 0 0 0 0 0 0 0 
0 0 0 0 0 0 0 0 0 
0 0 0 0 0 0 0 0 0 
0 0 0 0 0 0 0 0 0 
0 0 0 0 0 0 0 0 0 
0 0 0 0 0 0 0 0 0 
0 0 0 0 0 0 0 0 0 
0 0 0 0 0 0 0 0 0 
0 0 0 0 0 0 0 0 0 
0 0 0 0 0 0 0 0 0 
0 0 0 0 0 0 0 0 0 
0 0 0 0 0 0 0 0 0 
0 0 0 0 0 0 0 0 0 
0 0 0 0 0 0 0 0 0 
0 0 0 0 0 0 0 0 0 
0 0 0 0 0 0 0 0 0 
0 0 0 0 0 0 0 0 0 
0 0 0 0 0 0 0 0 0 
0 0 0 0 0 0 0 0 0 
0 0 0 0 0 0 0 0 0 
0 0 0 0 0 0 0 0 0 
0 0 0 0 0 0 0 0 0 
0 0 0 0 0 0 0 0 0 
0 0 0 0 0 0 0 0 0 
0 0 0 0 0 0 0 0 0 
0 0 0 0 0 0 0 0 0 
0 0 0 0 0 0 0 0 0 
0 0 0 0 0 0 0 0 0 
0 0 0 0 0 0 0 0 0 
0 0 0 0 0 0 0 0 0 
0 0 0 0 0 0 0 0 0 
0 0 0 0 0 0 0 0 0 
0 0 0 0 0 0 0 0 0 
0 0 0 0 0 0 0 0 0 
0 0 0 0 0 0 0 0 0 
0 0 0 0 0 0 0 0 0 
0 0 0 0 0 0 0 0 0 
0 0 0 0 0 0 0 0 0 
0 0 0 0 0 0 0 0 0 
0 0 0 0 0 0 0 0 0 
0 0 0 0 0 0 0 0 0 
0 0 0 0 0 0 0 0 0 
0 0 0 0 0 0 0 0 0 
0 0 0 0 0 0 0 0 0 
0 0 0 0 0 0 0 0 0 
0 0 0 0 0 0 0 0 0 
0 0 0 0 0 0 0 0 0 
0 0 0 0 0 0 0 0 0 
0 0 0 0 0 0 0 0 0 
0 0 0 0 0 0 0 0 0 
0 0 0 0 0 0 0 0 0 
0 0 0 0 0 0 0 0 0 
0 0 0 0 0 0 0 0 0 
0 0 0 0 0 0 0 0 0 
0 0 0 0 0 0 0 0 0 
0 0 0 0 0 0 0 0 0 
0 0 0 0 0 0 0 0 0 
0 0 0 0 0 0 0 0 0 
0 0 0 0 0 0 0 0 0 
0 0 0 0 0 0 0 0 0 
0 0 0 0 0 0 
x 1 1049 double
-0.581393 -0.325962 0.595792 0.0195749 -1.19452 -0.185177 -0.678426 -0.566669 0.0161763 
0.41098 0.210892 0.963334 0.776757 1.34323 -1.74445 1.45089 1.90781 2.26671 
-3.1452 -3.7008 -3.7684 -2.59961 -2.07191 2.81949 -5.50372 -4.69155 -6.14178 
-6.35489 -5.23512 -4.88997 -4.36629 5.21842 6.58575 -8.21664 -7.44473 -6.56459 
-5.82678 6.19345 -8.57627 -7.792 -7.79996 -7.26059 7.77344 8.21197 8.76194 
9.30065 -10.6496 -9.29413 -9.77501 -8.44712 7.6154 8.85199 9.27624 10.0485 
-11.1351 -10.1779 10.003 10.5648 10.5764 11.3881 11.1744 -11.9061 -11.0941 
-11.8112 11.2919 11.8313 11.7254 12.2245 -15 -14.8214 -14.6429 -14.4643 
-14.2857 -15 -15 -14.1071 -15 -15 -13.9286 -13.0357 -13.75 
-13.2143 -13.3929 -13.5714 -12.8571 -12.6786 -12.2587 -12.5 -12.299 -11.7681 
-11.3214 -11.1429 -11.5 -11.7553 -10.9643 -10.25 -10.6071 -10.7857 -10.0714 
-10.4286 -9.3571 -9.1786 -9.8929 -9.5357 -9.7143 -8.8 -8.6 -9 
-8.2 -9 -9 -8.4 -9 -9 -7.8 -7.6 -7.4 
-7.2 -8 -6.4 -6.8 -6.2 -7 -6.6 -5.6 -5.8 
-6 -5.2 -5.4 -4.8 -4.4 -4.6 -4.2 -5 -3.2 
-3.8 -4 -3.4 -3.6 -2.4 -3 -3 -3 -2.2 
-2.8 -2.6 -3 -3 -1.6 -1.8 -1.4 -2 -1.2 
-0.6 -1 -0.2 -0.8 -0.4 0.4 0.8 0.2 -0 
0.6 1.2 1.6 1.8 1 1.4 2.2 2.8 2 
2.6 2.4 3 3 3 3 3.2 3.4 3.8 
3 3.6 4.8 4.4 4.6 4 4.2 5.6 5.8 
5 5.4 5.2 6.6 6.4 6.2 6 6.8 7.2 
7.6 7.4 7.8 7 8.2 8.8 8.4 8 8.6 
9 9 9.8929 9 9 9.3571 9.5357 9.7143 9 
9.1786 10.9643 10.4286 10.0714 10.7857 10.25 10.6071 11.0818 11.5 
11.431 11.3214 11.6848 11.1429 12.1502 12.9906 12.8571 12.5 12.0256 
12.6786 12.5742 12.467 13.2143 13.5714 13.3929 13.0357 13.75 13.9286 
14.6429 14.4643 14.2857 14.1071 14.8214 15 15 15 15 
15 -15 -15 -15 -15 -15 -11.6478 -11.4465 -10.912 
-9 -9 -9 -9 -9 -3 -3 -3 -3 
-3 3 3 3 3 3 9 9 9 
9 9 11.3609 11.8838 12.237 12.6142 15 15 15 
15 15 -15 -15 -15 -15 -15 -11.9874 -11.2731 
-10.7963 -9 -9 -9 -9 -9 -3 -3 -3 
-3 -3 3 3 3 3 3 9 9 
9 9 9 12.2571 12.0511 15 15 15 15 
15 -15 -15 -15 -15 -15 -11.4162 -10.8753 -9 
-9 -9 -9 -9 -3 -3 -3 -3 -3 
3 3 3 3 3 9 9 9 9 
9 10.9558 12.447 12.9367 13.2622 15 15 15 15 
15 -15 -15 -15 -15 -15 -10.5607 -9 -9 
-9 -9 -9 -3 -3 -3 -3 -3 3 
3 3 3 3 9 9 9 9 9 
12.2269 12.9496 12.8607 15 15 15 15 15 -15 
-15 -15 -15 -15 -9 -9 -9 -9 -9 
-3 -3 -3 -3 -3 3 3 3 3 
3 9 9 9 9 9 10.5072 15 15 
15 15 15 -15 -15 -15 -15 -15 -9 
-9 -9 -9 -9 -3 -3 -3 -3 -3 
3 3 3 3 3 9 9 9 9 
9 12.7245 13.3647 15 15 15 15 15 -15 
-15 -15 -15 -15 -9 -9 -9 -9 -9 
-3 -3 -3 -3 -3 3 3 3 3 
3 9.94314 9 9 9 9 9 9.70724 13.3371 
13.0156 15 15 15 15 15 -15 -15 -15 
-15 -15 -8.2857 -8.8214 -8.4643 -8.1071 -9 -8.6429 -7.75 
-7.2143 -7.67851 -7.3929 -7.5714 -7.0357 -7.9286 -6.8571 -6.80622 -6.6786 
-6.5 -5.5 -5.1429 -5.3214 -4.7857 -4.25 -4.4286 -4.9643 -4.6071 
-4.0714 -3.1786 -3.5357 -3.3571 -3.7143 -3.8929 -2.2857 -2.4643 -2.8214 
-3 -2.6429 -2.1071 -1.5714 -1.2143 -1.9286 -1.75 -1.0357 -1.3929 
-0.5 -0.6786 -0.8571 0.8571 0.6786 0.5 1.2143 1.0357 1.9286 
1.3929 1.75 1.5714 2.6429 2.4643 2.2857 2.8214 2.1071 3.8929 
3 3.7143 3.5357 3.3571 3.1786 4.0714 4.4286 4.6071 4.7857 
4.25 4.9643 5.1429 5.3214 5.5 6.5 6.6786 6.8571 7.75 
7.3929 7.2143 7.9286 7.5714 7.0357 8.8214 8.1071 8.2857 8.6429 
8.4643 9 9.32165 9 13.3048 15 15 15 15 
15 -15 -15 -15 -15 -15 -8.26548 8.72408 13.3719 
15 15 15 15 15 -15 -15 -15 -15 
-14.1667 -14.6667 -14.3333 -14.8333 -15 -14.5 -14 -12.6 -12.2 
-12.8 -12.4 -13 -11.8 -11.6 -11.2 -12 -11.4 -10.2 
-11 -10.4 -10.6 -10.8 -9.4 -9.6 -9.2 -10 -9.8 
-8.1071 -9 -9 -8.6429 -8.2857 -8.8214 -8.4643 -9 -9 
-9 -7.3929 -7.0357 -7.5714 -7.75 -7.9286 -7.2143 -6.8571 -6.5 
-6.6786 -5.1429 -5.3214 -5.5 -4.0714 -4.9643 -4.6071 -4.4286 -4.7857 
-4.25 -3.1786 -3.7143 -3.3571 -3.5357 -3.8929 -2.4 -2.2 -2.8 
-3 -3 -2.6 -3 -3 -3 -1.4 -2 -1.2 
-1.8 -1.6 -1 -0.4 -0.2 -0.6 -0.8 0.2 0.8 
0.6 -0 0.4 1.6 1 1.4 1.2 1.8 2.4 
2 2.8 2.2 2.6 3.6 3.4 3 3.8 3.2 
4.2 4 4.6 4.8 4.4 5.4 5.2 5.8 5.6 
5 6.8 6.4 6.2 6.6 6 7.6 7 7.8 
7.2 7.4 8.8 8.2 8 8.4 8.6 9 9.2 
9.8 9.6 9.4 9 9 9 9 10.8 10.6 
10.4 10.2 10 11.2 11.6 11 11.4 11.8 12.6 
12.8 12.4 12 12.2 12.889 13 14.6667 14.1667 14 
14.5 14.8333 14.3333 15 15 15 15 15 -15 
-15 -15 -15 -15 -9 -9 -9 -9 -9 
-3 -3 -3 -3 -3 9 9 9 9 
9 12.103 15 15 15 15 15 -15 -15 
-15 -15 -15 -9 -9 -9 -9 -9 -3 
-3 -3 -3 -3 9 9 9 9 9 
10.835 15 15 15 15 15 -15 -15 -15 
-15 -15 -9 -9 -9 -9 -9 -3 -3 
-3 -3 -3 9 9 9 9 9 10.1976 
15 15 15 15 15 -15 -15 -15 -15 
-15 -9 -9 -9 -9 -9 -3 -3 -3 
-3 -3 9 15 15 15 15 15 -15 
-15 -15 -15 -15 -9 -9 -9 -9 -9 
-3 -3 -3 -3 -3 9 9 9 9 
9 9 15 15 15 15 15 -14.2 -14.8 
-15 -14.4 -14.6 -14 -13.4 -13.6 -13.8 -13.2 -12.4 
-13 -12.6 -12.2 -12.8 -12 -11.2 -11.8 -11.6 -11.4 
-10.2 -11 -10.6 -10.8 -10.4 -9.8 -10 -9.2 -9.6 
-9.4 -9 -8.6 -8.8 -8.4 -8.2 -8 -7.4 -7.2 
-7.6 -7.8 -6.4 -6.8 -6.6 -7 -6.2 -5.4 -6 
-5.6 -5.8 -5.2 -5 -4.6 -4.2 -4.4 -4.8 -3.6 
-4 -3.2 -3.8 -3.4 -2.4 -2.8 -2.2 -2.6 -3 
-1.4 -1.6 -1.8 -1.2 -2 -1 -0.2 -0.8 -0.4 
-0.6 0.4 -0 0.6 0.8 0.2 1 1.8 1.6 
1.4 1.2 2 2.8 2.2 2.4 2.6 3.8 3.6 
3.2 3 3.4 4 4.2 4.4 4.6 4.8 5.8 
5.2 5.4 5.6 5 6.4 6.8 6.6 6.2 6 
7.4 7 7.6 7.8 7.2 8.6 8.4 8.8 8 
8.2 9 9.2 9.8 9.4 9.6 10 10.2 10.4 
10.6 10.8 11.4 11.8 11 11.6 11.2 12.4 12.8 
12.6 12.2 12 13 13.8 13.4 13.6 13.2 14.8 
14 14.2 14.4 14.6 15 
y 1 1049 double
-10.4909 -10.0873 -10.4022 -10.521 -9.12021 -9.6208 -9.78344 -9.2189 -10.0199 
-9.87408 -9.32149 -9.74945 -9.14595 -9.33099 -8.59674 -8.51902 -8.89952 -8.11028 
-7.08933 -7.68604 -7.02659 -7.84386 -7.53605 -7.77963 -6.25221 -6.37333 -5.98215 
-5.38599 -5.65705 -5.16991 -5.83172 -5.74797 -5.04262 -4.38795 -4.28606 -4.21417 
-4.95209 -4.58866 -3.62258 -3.23898 -3.88671 -3.52894 -3.65719 -3.30822 -3.67811 
-3.39641 -2.12256 -2.8212 -2.03048 -2.86374 -2.98591 -2.74336 -2.22741 -2.5759 
-1.48081 -1.49005 -1.52376 -1.96954 -1.12247 -1.67125 -1.11435 -0.713182 -0.855481 
-0.226348 -0.572641 -0.812279 -0.23596 -0.33171 0.8 0 0 0 
0 0.4 0.2 0 0 0.6 0 0 0 
0 0 0 0 0 0.277686 0 0.785954 0.285708 
0 0 0 0.846067 0 0 0 0 0 
0 0 0 0 0 0 0 0 0 
0 0.8 0.6 0 0.4 0.2 0 0 0 
0 0 0 0 0 0 0 0 0 
0 0 0 0 0 0 0 0 0 
0 0 0 0 0 0.2 0.8 0.4 0 
0 0 0 0.6 0 0 0 0 0 
0 0 0 0 0 0 0 0 0 
0 0 0 0 0 0 0 0 0 
0 0 0.6 0.4 0 0.2 0 0 0 
0.8 0 0 0 0 0 0 0 0 
0 0 0 0 0 0 0 0 0 
0 0 0 0 0 0 0 0 0 
0.8 0 0 0.6 0.4 0 0 0 0.2 
0 0 0 0 0 0 0 0.755101 0 
0.32408 0 0.765851 0 0.905298 0.638738 0 0 0.274805 
0 0.277035 0.665531 0 0 0 0 0 0 
0 0 0 0 0 0.8 0.2 0 0.4 
0.6 1.4 1 1.2 1.6 1.8 1.3825 1.9424 1.70061 
1.4 1.2 1.6 1 1.8 1.4 1.2 1.8 1 
1.6 1.4 1.2 1 1.6 1.8 1.4 1.8 1 
1.2 1.6 1.25716 1.28976 1.65093 1.1291 1.6 1 1.2 
1.8 1.4 2.4 2.8 2.2 2 2.6 2.14197 2.58294 
2.95331 2.8 2.2 2.6 2 2.4 2.8 2.2 2.4 
2 2.6 2.8 2.2 2 2.4 2.6 2.2 2.8 
2.6 2 2.4 2.17571 2.92664 2.2 2.8 2.6 2 
2.4 3.8 3.2 3 3.6 3.4 3.9151 3.56296 3.8 
3.2 3.6 3.4 3 3.2 3.8 3.4 3 3.6 
3.6 3.8 3.4 3.2 3 3 3.8 3.6 3.4 
3.2 3.54089 3.35048 3.02483 3.49462 3.2 3.6 3.8 3 
3.4 4.2 4 4.4 4.6 4.8 4.74281 4.6 4.8 
4.4 4.2 4 4.4 4 4.6 4.2 4.8 4.8 
4.2 4 4.4 4.6 4.2 4.4 4.8 4 4.6 
4.80265 4.06699 4.82282 4.6 4.8 4 4.4 4.2 5.8 
5.6 5.2 5 5.4 5.2 5.8 5.4 5.6 5 
5.4 5.2 5.6 5.8 5 5.4 5 5.2 5.6 
5.8 5.4 5 5.6 5.2 5.8 5.06108 5.2 5 
5.4 5.6 5.8 6 6.6 6.2 6.8 6.4 6.8 
6 6.6 6.4 6.2 6 6.6 6.4 6.2 6.8 
6 6.6 6.4 6.8 6.2 6.2 6 6.6 6.4 
6.8 6.2799 6.55193 6.6 6 6.2 6.4 6.8 7.4 
7.8 7 7.6 7.2 7 7.6 7.2 7.8 7.4 
7.8 7.6 7.2 7.4 7 7 7.6 7.4 7.8 
7.2 7.02254 7 7.2 7.4 7.6 7.8 7.79609 7.15264 
7.72091 7.8 7.6 7.4 7 7.2 8.4 8.2 8.8 
8 8.6 8 8 8 8 8 8 8 
8 8.98716 8 8 8 8 8 8.97644 8 
8 8 8 8 8 8 8 8 8 
8 8 8 8 8 8 8 8 8 
8 8 8 8 8 8 8 8 8 
8 8 8 8 8 8 8 8 8 
8 8 8 8 8 8 8 8 8 
8 8 8 8 8 8 8 8 8 
8 8 8 8 8 8 8 8 8 
8 8 8 8 8 8 8 8 8 
8 8 8.25191 8 8.4535 8 8.8 8.4 8.6 
8.2 9.2 9.8 9 9.4 9.6 9.00208 9.00187 9.08975 
9.2 9.6 9.8 9.4 9 10.4 10.2 10.8 10 
10 10 10 10 10.6 10 10 10 10 
10 10 10 10 10 10 10 10 10 
10 10 10 10 10 10 10 10 10 
10 10.6 10.4 10 10 10 10 10.2 10 
10.8 10 10 10 10 10 10 10 10 
10 10 10 10 10 10 10 10 10 
10 10 10 10 10 10 10 10 10 
10.6 10 10 10.8 10.4 10.2 10 10 10 
10 10 10 10 10 10 10 10 10 
10 10 10 10 10 10 10 10 10 
10 10 10 10 10 10 10 10 10 
10 10 10 10 10 10 10 10 10 
10 10 10 10 10 10 10 10 10 
10 10 10 10 10 10 10 10.4 10 
10 10 10 10 10.2 10.6 10.8 10 10 
10 10 10 10 10 10 10 10 10 
10 10 10 10 10.665 10 10 10 10 
10 10 10 10 10.2 10.4 10.6 10.8 11 
11.4 11.2 11.6 11.8 11.4 11.6 11 11.2 11.8 
11.6 11 11.2 11.4 11.8 11 11.8 11.6 11.2 
11.4 11.4723 11.2 11 11.8 11.4 11.6 12 12.8 
12.4 12.6 12.2 12.2 12 12.8 12.4 12.6 12.6 
12.4 12 12.2 12.8 12.4 12.8 12.2 12 12.6 
12.8148 12.8 12.4 12.6 12.2 12 13 13.8 13.4 
13.6 13.2 13.6 13 13.8 13.4 13.2 13.4 13.2 
13.6 13 13.8 13.8 13.2 13 13.4 13.6 13.4768 
13.2 13.8 13 13.6 13.4 14.8 14.6 14.4 14.2 
14 14.4 14 14.6 14.8 14.2 14.2 14.4 14 
14.8 14.6 14 14.4 14.8 14.2 14 14.6 15.4 
15 15.8 15.6 15.2 15.2 15 15.8 15.6 15.4 
15.2 15.8 15.4 15 15.6 15.6667 15.1667 15.5 15 
15.3333 15.8333 15.2 15.4 15 15.8 15.6 16 16 
16 16 16 16 16 16 16 16 16 
16 16 16 16 16 16 16 16 16 
16 16 16 16 16 16 16 16 16 
16 16 16 16 16 16 16 16 16 
16 16 16 16 16 16 16 16 16 
16 16 16 16 16 16 16 16 16 
16 16 16 16 16 16 16 16 16 
16 16 16 16 16 16 16 16 16 
16 16 16 16 16 16 16 16 16 
16 16 16 16 16 16 16 16 16 
16 16 16 16 16 16 16 16 16 
16 16 16 16 16 16 16 16 16 
16 16 16 16 16 16 16 16 16 
16 16 16 16 16 16 16 16 16 
16 16 16 16 16 16 16 16 16 
16 16 16 16 16 16 16 16 16 
16 16 16 16 16 
