# vtk DataFile Version 4.0
vtk output
ASCII
DATASET POLYDATA
FIELD FieldData 4
domain 1 4 string
domain_min:-40|-40
domain_max:40|40
cell_size:1|1
boundary:0|0

variables 1 5 string
T:28.9
dt:0.01
write_case:1
substeps:10
all_steps:2890

constants 1 17 string
L:40
c_s:1
dx:1
k:1000
d1:-13.5|10
d2:-6|10
d3:9|14.5
d4:13.5|10
d5:-6|8
d6:0|8
d7:6|8
d8:-9|9
d9:9|9
d10:-12|0
d11:12|0
d12:0|-10
R_w:0.1

equations 1 18 string
time:T=(T+dt)#true
pos_x:x=elem(r,0,0)#eq(gid,1)
pos_y:y=elem(r,1,0)#eq(gid,1)
wp_1:p0=if(and(lt(x,(-9)),gt(y,10)),d1,p0)#eq(gid,1)
wp_2:p0=if(and(and(gt(x,(-9)),lt(x,(-3))),gt(y,10)),d2,p0)#eq(gid,1)
wp_3:p0=if(and(and(gt(x,(-3)),lt(x,9)),gt(y,10)),d3,p0)#eq(gid,1)
wp_4:p0=if(and(gt(x,9),gt(y,10)),d4,p0)#eq(gid,1)
wp_5:p0=if(and(and(gt(x,(-9)),lt(x,(-3))),lt(y,8)),d5,p0)#eq(gid,1)
wp_6:p0=if(and(and(gt(x,(-3)),lt(x,3)),lt(y,8)),d6,p0)#eq(gid,1)
wp_7:p0=if(and(and(gt(x,3),lt(x,9)),lt(y,8)),d7,p0)#eq(gid,1)
wp_8:p0=if(and(and(gt(x,(-9)),lt(x,0)),and(gt(y,8),lt(y,10))),d8,p0)#eq(gid,1)
wp_9:p0=if(and(and(gt(x,0),lt(x,9)),and(gt(y,8),lt(y,10))),d9,p0)#eq(gid,1)
wp_10:p0=if(and(lt(x,(-9)),lt(y,10)),d10,p0)#eq(gid,1)
wp_11:p0=if(and(gt(x,9),lt(y,10)),d11,p0)#eq(gid,1)
wp_12:p0=if(lt(y,0),d12,p0)#eq(gid,1)
acceleration:v=sfm(v,p0,v0,m,R,A,B,k,c,tau)#eq(gid,1)
velocity:v=euler(v,a,dt)#eq(gid,1)
position:r=euler(r,v,dt)#eq(gid,1)

POINTS 1049 float
-0.124573 -11.5031 0 -0.683512 -11.3006 0 0.805353 -11.3417 0 
0.285578 -11.1262 0 -1.27447 -10.4309 0 -1.66801 -10.0568 0 
-1.46984 -10.9572 0 -0.111802 -10.3606 0 -0.242595 -10.9844 0 
-0.871375 -10.7787 0 -0.404645 -10.6126 0 -0.723736 -10.251 0 
0.11618 -10.7011 0 0.692307 -10.8039 0 0.405801 -10.4037 0 
0.572043 -10.0663 0 0.0270978 -10.0101 0 1.5829 -10.5203 0 
1.21906 -10.9407 0 1.44661 -10.0298 0 1.02492 -10.3984 0 
-1.9468 -9.54486 0 -1.42877 -9.52218 0 -1.0898 -9.05963 0 
-1.08919 -9.93024 0 -1.65633 -9.02134 0 -0.191856 -9.24945 0 
-0.97315 -9.49148 0 -0.420931 -9.98137 0 -0.609144 -9.63838 0 
-0.632386 -9.14609 0 -0.198418 -9.59846 0 0.837727 -9.33185 0 
0.191872 -9.77796 0 0.980806 -9.86283 0 0.264484 -9.28512 0 
0.585807 -9.64132 0 1.3356 -9.53137 0 1.55102 -9.06241 0 
2.0761 -9.07611 0 -3.02687 -8.23522 0 -2.3387 -8.28651 0 
-1.25597 -8.49497 0 -0.23391 -8.34889 0 -0.348402 -8.80043 0 
-0.723301 -8.62167 0 0.049907 -8.76745 0 0.797945 -8.32949 0 
0.261153 -8.30203 0 0.513285 -8.81798 0 1.41776 -8.46746 0 
1.04139 -8.87591 0 1.81009 -8.04824 0 2.25223 -8.55817 0 
2.83376 -8.46747 0 3.35668 -8.13988 0 -3.13805 -7.60488 0 
-3.76422 -7.47706 0 -2.29716 -7.63457 0 2.32049 -7.25533 0 
2.36476 -7.99161 0 2.89262 -7.32151 0 2.89551 -7.85408 0 
4.06879 -7.45927 0 -4.08685 -6.67098 0 -3.21032 -6.95696 0 
3.75119 -6.80891 0 5.6649 -6.26583 0 6.22727 -6.08722 0 
-6.41737 -5.25136 0 -5.73958 -5.02327 0 5.65843 -5.49468 0 
5.11603 -5.19013 0 5.12732 -5.81753 0 6.82378 -5.20033 0 
6.11103 -5.15698 0 6.48701 -5.63468 0 7.6998 -5.17753 0 
-8.18271 -4.13148 0 -7.05833 -4.0844 0 -7.77463 -4.5534 0 
-6.23171 -4.57772 0 5.35004 -4.64065 0 5.92498 -4.52564 0 
6.62231 -4.19476 0 6.44413 -4.75709 0 7.43407 -4.61275 0 
8.48977 -4.15325 0 -8.03245 -3.56014 0 -8.71011 -3.98088 0 
7.80932 -3.24651 0 7.30537 -3.91265 0 8.27562 -3.59251 0 
-9.69938 -2.711 0 -9.46257 -2.10494 0 -8.02874 -2.78048 0 
-8.7578 -2.76417 0 8.75107 -2.74471 0 9.62856 -2.55109 0 
9.93264 -1.76736 0 10.6026 -1.42809 0 11.2167 -1.56111 0 
11.8086 -0.791526 0 11.7415 -0.213876 0 11.0543 -0.860779 0 
-14.4643 0 0 -14.6429 0 0 -14.8214 0 0 
-14.1071 0 0 -14.2857 0 0 -15 0.4 0 
-15 0.6 0 -15 0 0 -15 0.8 0 
-15 0.2 0 -13.0357 0 0 -13.2143 0 0 
-13.75 0 0 -13.5714 0 0 -13.9286 0 0 
-13.3929 0 0 -12.6786 0 0 -12.5 0 0 
-12.8571 0 0 -11.3214 0 0 -11.5 0 0 
-11.1429 0 0 -10.25 0 0 -10.6071 0 0 
-10.0714 0 0 -10.7857 0 0 -10.9643 0 0 
-10.4286 0 0 -9.7143 0 0 -9.5357 0 0 
-9.8929 0 0 -9.1786 0 0 -9.3571 0 0 
-9 0.6 0 -9 0.2 0 -8.2 0 0 
-9 0 0 -9 0.4 0 -9 0.8 0 
-8.8 0 0 -8.4 0 0 -8.6 0 0 
-8 0 0 -7.6 0 0 -7.8 0 0 
-7.4 0 0 -7.2 0 0 -6.2 0 0 
-6.8 0 0 -6.4 0 0 -6.6 0 0 
-7 0 0 -6 0 0 -5.2 0 0 
-5.8 0 0 -5.6 0 0 -5.4 0 0 
-4.4 0 0 -4.2 0 0 -4.8 0 0 
-5 0 0 -4.6 0 0 -4 0 0 
-3.4 0 0 -3.2 0 0 -3.8 0 0 
-3.6 0 0 -2.6 0 0 -3 0.4 0 
-3 0.2 0 -2.2 0 0 -3 0 0 
-2.8 0 0 -3 0.8 0 -2.4 0 0 
-3 0.6 0 -2 0 0 -1.4 0 0 
-1.8 0 0 -1.2 0 0 -1.6 0 0 
-0.8 0 0 -1 0 0 -0.4 0 0 
-0.2 0 0 -0.6 0 0 0.4 0 0 
0.8 0 0 -0 0 0 0.2 0 0 
0.6 0 0 1.6 0 0 1.4 0 0 
1.2 0 0 1.8 0 0 1 0 0 
2.2 0 0 2.4 0 0 2.6 0 0 
2 0 0 2.8 0 0 3 0.6 0 
3 0 0 3.2 0 0 3.6 0 0 
3.8 0 0 3 0.2 0 3 0.8 0 
3 0.4 0 3.4 0 0 4 0 0 
4.8 0 0 4.4 0 0 4.2 0 0 
4.6 0 0 5.8 0 0 5.6 0 0 
5.2 0 0 5.4 0 0 5 0 0 
6.8 0 0 6.4 0 0 6.2 0 0 
6.6 0 0 6 0 0 7.4 0 0 
7.8 0 0 7.6 0 0 7.2 0 0 
7 0 0 8.6 0 0 8.8 0 0 
8.2 0 0 8.4 0 0 8 0 0 
9 0.8 0 9 0.6 0 9.5357 0 0 
9 0.4 0 9.1786 0 0 9 0 0 
9.7143 0 0 9 0.2 0 9.8929 0 0 
9.3571 0 0 10.0714 0 0 10.4286 0 0 
10.9643 0 0 10.7857 0 0 10.6071 0 0 
10.25 0 0 11.3214 0 0 11.1429 0 0 
11.5 0 0 11.4176 0.411178 0 11.9572 0.695513 0 
12.466 0.958488 0 12.8571 0 0 12.5 0 0 
12.7399 0.447754 0 12.6786 0 0 12.2 0.174987 0 
13.3929 0 0 13.0357 0 0 13.75 0 0 
13.9286 0 0 13.5714 0 0 13.2143 0 0 
14.4643 0 0 14.2857 0 0 14.8214 0 0 
14.1071 0 0 14.6429 0 0 15 0.2 0 
15 0.4 0 15 0 0 15 0.8 0 
15 0.6 0 -15 1.4 0 -15 1 0 
-15 1.8 0 -15 1.2 0 -15 1.6 0 
-9 1.6 0 -9 1 0 -9 1.4 0 
-9 1.2 0 -9 1.8 0 -3 1.8 0 
-3 1.6 0 -3 1.4 0 -3 1 0 
-3 1.2 0 3 1.2 0 3 1.4 0 
3 1.8 0 3 1.6 0 3 1 0 
9 1.8 0 9 1.6 0 9 1.4 0 
9 1.2 0 9 1 0 11.4391 1.01302 0 
11.9387 1.33719 0 11.4032 1.69019 0 15 1.4 0 
15 1.2 0 15 1.8 0 15 1 0 
15 1.6 0 -15 2 0 -15 2.2 0 
-15 2.6 0 -15 2.4 0 -15 2.8 0 
-11.4401 2.41782 0 -11.0477 2.82075 0 -9 2.2 0 
-9 2.4 0 -9 2.6 0 -9 2 0 
-9 2.8 0 -3 2 0 -3 2.4 0 
-3 2.6 0 -3 2.2 0 -3 2.8 0 
3 2.4 0 3 2.8 0 3 2 0 
3 2.6 0 3 2.2 0 9 2.2 0 
9 2.6 0 9 2.4 0 9 2 0 
9 2.8 0 15 2.2 0 15 2.4 0 
15 2 0 15 2.8 0 15 2.6 0 
-15 3.6 0 -15 3.2 0 -15 3.8 0 
-15 3 0 -15 3.4 0 -10.9357 3.57522 0 
-9 3.2 0 -9 3.4 0 -9 3.6 0 
-9 3 0 -9 3.8 0 -3 3.2 0 
-3 3.8 0 -3 3 0 -3 3.6 0 
-3 3.4 0 3 3.2 0 3 3 0 
3 3.6 0 3 3.8 0 3 3.4 0 
9 3.8 0 9 3.2 0 9 3 0 
9 3.6 0 9 3.4 0 12.5794 3.82627 0 
15 3.2 0 15 3.4 0 15 3.8 0 
15 3.6 0 15 3 0 -15 4.8 0 
-15 4.2 0 -15 4.4 0 -15 4 0 
-15 4.6 0 -9 4.4 0 -9 4.8 0 
-9 4 0 -9 4.6 0 -9 4.2 0 
-3 4.6 0 -3 4.2 0 -3 4 0 
-3 4.4 0 -3 4.8 0 3 4.2 0 
3 4.6 0 3 4 0 3 4.4 0 
3 4.8 0 9 4 0 9 4.8 0 
9 4.2 0 9 4.4 0 9 4.6 0 
15 4.8 0 15 4 0 15 4.4 0 
15 4.6 0 15 4.2 0 -15 5.6 0 
-15 5.8 0 -15 5.2 0 -15 5 0 
-15 5.4 0 -9 5 0 -9 5.6 0 
-9 5.2 0 -9 5.8 0 -9 5.4 0 
-3 5 0 -3 5.8 0 -3 5.6 0 
-3 5.4 0 -3 5.2 0 3 5.6 0 
3 5.4 0 3 5 0 3 5.8 0 
3 5.2 0 9 5.6 0 9 5.4 0 
9 5.8 0 9 5.2 0 9 5 0 
12.803 5.29891 0 15 5.4 0 15 5 0 
15 5.8 0 15 5.6 0 15 5.2 0 
-15 6.2 0 -15 6.8 0 -15 6.4 0 
-15 6 0 -15 6.6 0 -9 6.6 0 
-9 6.2 0 -9 6 0 -9 6.8 0 
-9 6.4 0 -3 6.4 0 -3 6.8 0 
-3 6 0 -3 6.2 0 -3 6.6 0 
3 6.4 0 3 6.8 0 3 6 0 
3 6.6 0 3 6.2 0 9 6.4 0 
9 6 0 9 6.2 0 9 6.6 0 
9 6.8 0 15 6.6 0 15 6.4 0 
15 6 0 15 6.8 0 15 6.2 0 
-15 7.8 0 -15 7.6 0 -15 7.2 0 
-15 7 0 -15 7.4 0 -9 7.8 0 
-9 7 0 -9 7.6 0 -9 7.4 0 
-9 7.2 0 -3 7.6 0 -3 7.8 0 
-3 7 0 -3 7.4 0 -3 7.2 0 
3 7 0 3 7.8 0 3 7.6 0 
3 7.2 0 3 7.4 0 9 7.4 0 
9 7 0 9 7.2 0 9 7.6 0 
9 7.8 0 13.1155 7.28464 0 15 7.2 0 
15 7.6 0 15 7.8 0 15 7.4 0 
15 7 0 -15 8.6 0 -15 8.4 0 
-15 8.2 0 -15 8.8 0 -15 8 0 
-8.4643 8 0 -8.8214 8 0 -8.2857 8 0 
-8.6429 8 0 -8.1071 8 0 -9 8 0 
-7.75 8 0 -7.2143 8 0 -7.3929 8 0 
-7.0357 8 0 -7.9286 8 0 -7.5714 8 0 
-6.8571 8 0 -6.5 8 0 -6.6786 8 0 
-5.1429 8 0 -5.3214 8 0 -5.5 8 0 
-4.9643 8 0 -4.6071 8 0 -4.25 8 0 
-4.7857 8 0 -4.4286 8 0 -4.0714 8 0 
-3.8929 8 0 -3.7143 8 0 -3.5357 8 0 
-3.1786 8 0 -3.3571 8 0 -2.6429 8 0 
-3 8 0 -2.8214 8 0 -2.1071 8 0 
-2.2857 8 0 -2.4643 8 0 -1.75 8 0 
-1.2143 8 0 -1.5714 8 0 -1.0357 8 0 
-1.3929 8 0 -1.9286 8 0 -0.5 8 0 
-0.6786 8 0 -0.8571 8 0 0.8571 8 0 
0.6786 8 0 0.5 8 0 1.5714 8 0 
1.2143 8 0 1.75 8 0 1.9286 8 0 
1.3929 8 0 1.0357 8 0 2.4643 8 0 
2.1071 8 0 2.2857 8 0 2.6429 8 0 
2.8214 8 0 3.3571 8 0 3 8 0 
3.8929 8 0 3.1786 8 0 3.7143 8 0 
3.5357 8 0 4.25 8 0 4.7857 8 0 
4.6071 8 0 4.4286 8 0 4.9643 8 0 
4.0714 8 0 5.5 8 0 5.3214 8 0 
5.1429 8 0 6.6786 8 0 6.8571 8 0 
6.5 8 0 7.0357 8 0 7.3929 8 0 
7.9286 8 0 7.5714 8 0 7.2143 8 0 
7.75 8 0 8.8214 8 0 8.6429 8 0 
8.1071 8 0 8.4643 8 0 8.2857 8 0 
9 8 0 9 8 0 13.2417 8.20415 0 
15 8.4 0 15 8.8 0 15 8.6 0 
15 8.2 0 15 8 0 -15 9.6 0 
-15 9.4 0 -15 9 0 -15 9.8 0 
-15 9.2 0 15 9.2 0 15 9.6 0 
15 9.8 0 15 9 0 15 9.4 0 
-14.3333 10 0 -15 10.8 0 -15 10.4 0 
-14.6667 10 0 -15 10.2 0 -15 10 0 
-14.1667 10 0 -15 10.6 0 -14.8333 10 0 
-14.5 10 0 -14 10 0 -12.2 10 0 
-13 10 0 -12.6 10 0 -12.4 10 0 
-12.8 10 0 -11.2 10 0 -11.6 10 0 
-12 10 0 -11.4 10 0 -11.8 10 0 
-10.4 10 0 -11 10 0 -10.6 10 0 
-10.8 10 0 -10.2 10 0 -9.2 10 0 
-9.4 10 0 -9.6 10 0 -10 10 0 
-9.8 10 0 -9 10.2 0 -8.6429 10 0 
-9 10.6 0 -9 10.8 0 -8.4643 10 0 
-9 10.4 0 -9 10 0 -8.1071 10 0 
-8.2857 10 0 -8.8214 10 0 -7.75 10 0 
-7.2143 10 0 -7.9286 10 0 -7.5714 10 0 
-7.0357 10 0 -7.3929 10 0 -6.6786 10 0 
-6.5 10 0 -6.8571 10 0 -5.1429 10 0 
-5.3214 10 0 -5.5 10 0 -4.0714 10 0 
-4.9643 10 0 -4.6071 10 0 -4.4286 10 0 
-4.7857 10 0 -4.25 10 0 -3.7143 10 0 
-3.5357 10 0 -3.3571 10 0 -3.1786 10 0 
-3.8929 10 0 -2.4 10 0 -2.2 10 0 
-2.8 10 0 -3 10 0 -3 10.8 0 
-3 10.4 0 -3 10.2 0 -3 10.6 0 
-2.6 10 0 -1.8 10 0 -1.2 10 0 
-1.6 10 0 -2 10 0 -1.4 10 0 
-0.8 10 0 -1 10 0 -0.4 10 0 
-0.6 10 0 -0.2 10 0 0.2 10 0 
-0 10 0 0.6 10 0 0.4 10 0 
0.8 10 0 1 10 0 1.4 10 0 
1.6 10 0 1.2 10 0 1.8 10 0 
2.4 10 0 2.2 10 0 2.6 10 0 
2.8 10 0 2 10 0 3.4 10 0 
3.6 10 0 3.8 10 0 3 10 0 
3.2 10 0 4.2 10 0 4 10 0 
4.6 10 0 4.8 10 0 4.4 10 0 
5.4 10 0 5.8 10 0 5.6 10 0 
5 10 0 5.2 10 0 6.6 10 0 
6.2 10 0 6.4 10 0 6.8 10 0 
6 10 0 7.4 10 0 7.2 10 0 
7.8 10 0 7 10 0 7.6 10 0 
8.2 10 0 8.6 10 0 8.4 10 0 
8 10 0 8.8 10 0 9 10.4 0 
9.8 10 0 9 10.8 0 9.2 10 0 
9 10.2 0 9 10 0 9.6 10 0 
9.4 10 0 9 10.6 0 10 10 0 
10.2 10 0 10.4 10 0 10.6 10 0 
10.8 10 0 11.4 10 0 11.2 10 0 
11 10 0 11.8 10 0 11.6 10 0 
12 10 0 12.8 10 0 12.2 10 0 
12.4 10 0 12.6 10 0 13 10 0 
14.6667 10 0 14.3333 10 0 14.8333 10 0 
14.5 10 0 14 10 0 14.1667 10 0 
15 10.2 0 15 10.4 0 15 10.8 0 
15 10.6 0 15 10 0 -15 11.4 0 
-15 11.8 0 -15 11.2 0 -15 11.6 0 
-15 11 0 -9 11.4 0 -9 11.6 0 
-9 11 0 -9 11.2 0 -9 11.8 0 
-3 11 0 -3 11.8 0 -3 11.2 0 
-3 11.4 0 -3 11.6 0 9 11.8 0 
9 11.4 0 9 11.2 0 9 11 0 
9 11.6 0 15 11.2 0 15 11.4 0 
15 11.8 0 15 11.6 0 15 11 0 
-15 12 0 -15 12.6 0 -15 12.4 0 
-15 12.8 0 -15 12.2 0 -9 12 0 
-9 12.2 0 -9 12.4 0 -9 12.8 0 
-9 12.6 0 -3 12.8 0 -3 12.6 0 
-3 12.2 0 -3 12 0 -3 12.4 0 
9 12.6 0 9 12 0 9 12.2 0 
9 12.4 0 9 12.8 0 15 12.6 0 
15 12.4 0 15 12 0 15 12.8 0 
15 12.2 0 -15 13 0 -15 13.6 0 
-15 13.4 0 -15 13.2 0 -15 13.8 0 
-9 13.4 0 -9 13.2 0 -9 13.6 0 
-9 13 0 -9 13.8 0 -3 13.2 0 
-3 13.4 0 -3 13 0 -3 13.8 0 
-3 13.6 0 9 13.4 0 9 13.6 0 
9 13.2 0 9 13 0 9 13.8 0 
15 13 0 15 13.4 0 15 13.8 0 
15 13.2 0 15 13.6 0 -15 14 0 
-15 14.2 0 -15 14.6 0 -15 14.8 0 
-15 14.4 0 -9 14.4 0 -9 14.2 0 
-9 14 0 -9 14.8 0 -9 14.6 0 
-3 14.6 0 -3 14.8 0 -3 14.2 0 
-3 14 0 -3 14.4 0 9 14 0 
15 14.6 0 15 14 0 15 14.8 0 
15 14.4 0 15 14.2 0 -15 15 0 
-15 15.4 0 -15 15.8 0 -15 15.2 0 
-15 15.6 0 -9 15.4 0 -9 15.2 0 
-9 15 0 -9 15.8 0 -9 15.6 0 
-3 15.2 0 -3 15.8 0 -3 15.4 0 
-3 15 0 -3 15.6 0 9 15.1667 0 
9 15.3333 0 9 15 0 9 15.6667 0 
9 15.5 0 9 15.8333 0 15 15.8 0 
15 15 0 15 15.6 0 15 15.4 0 
15 15.2 0 -14.2 16 0 -14.8 16 0 
-15 16 0 -14.4 16 0 -14.6 16 0 
-13.2 16 0 -13.8 16 0 -14 16 0 
-13.6 16 0 -13.4 16 0 -12.4 16 0 
-13 16 0 -12.6 16 0 -12.2 16 0 
-12.8 16 0 -11.6 16 0 -11.8 16 0 
-11.4 16 0 -11.2 16 0 -12 16 0 
-10.6 16 0 -10.2 16 0 -11 16 0 
-10.8 16 0 -10.4 16 0 -10 16 0 
-9.2 16 0 -9.6 16 0 -9.4 16 0 
-9.8 16 0 -8.2 16 0 -8.4 16 0 
-9 16 0 -8.8 16 0 -8.6 16 0 
-8 16 0 -7.4 16 0 -7.2 16 0 
-7.6 16 0 -7.8 16 0 -6.4 16 0 
-6.8 16 0 -6.6 16 0 -7 16 0 
-6.2 16 0 -5.8 16 0 -5.6 16 0 
-5.2 16 0 -6 16 0 -5.4 16 0 
-5 16 0 -4.6 16 0 -4.2 16 0 
-4.4 16 0 -4.8 16 0 -4 16 0 
-3.4 16 0 -3.8 16 0 -3.6 16 0 
-3.2 16 0 -2.6 16 0 -2.2 16 0 
-3 16 0 -2.8 16 0 -2.4 16 0 
-1.4 16 0 -1.6 16 0 -1.8 16 0 
-1.2 16 0 -2 16 0 -0.2 16 0 
-1 16 0 -0.8 16 0 -0.6 16 0 
-0.4 16 0 0.4 16 0 -0 16 0 
0.6 16 0 0.8 16 0 0.2 16 0 
1.4 16 0 1.6 16 0 1.2 16 0 
1.8 16 0 1 16 0 2 16 0 
2.8 16 0 2.2 16 0 2.4 16 0 
2.6 16 0 3.4 16 0 3 16 0 
3.8 16 0 3.2 16 0 3.6 16 0 
4 16 0 4.2 16 0 4.4 16 0 
4.6 16 0 4.8 16 0 5.8 16 0 
5 16 0 5.4 16 0 5.2 16 0 
5.6 16 0 6.4 16 0 6.8 16 0 
6.6 16 0 6.2 16 0 6 16 0 
7.4 16 0 7 16 0 7.6 16 0 
7.8 16 0 7.2 16 0 8.6 16 0 
8.8 16 0 8 16 0 8.4 16 0 
8.2 16 0 9 16 0 9.2 16 0 
9.8 16 0 9.4 16 0 9.6 16 0 
10 16 0 10.2 16 0 10.4 16 0 
10.6 16 0 10.8 16 0 11.4 16 0 
11.8 16 0 11 16 0 11.6 16 0 
11.2 16 0 12.4 16 0 12.8 16 0 
12.6 16 0 12.2 16 0 12 16 0 
13 16 0 13.8 16 0 13.4 16 0 
13.6 16 0 13.2 16 0 14.8 16 0 
14 16 0 14.2 16 0 14.4 16 0 
14.6 16 0 15 16 0 
VERTICES 2098 2098
1 0 
1 1 
1 2 
1 3 
1 4 
1 5 
1 6 
1 7 
1 8 
1 9 
1 10 
1 11 
1 12 
1 13 
1 14 
1 15 
1 16 
1 17 
1 18 
1 19 
1 20 
1 21 
1 22 
1 23 
1 24 
1 25 
1 26 
1 27 
1 28 
1 29 
1 30 
1 31 
1 32 
1 33 
1 34 
1 35 
1 36 
1 37 
1 38 
1 39 
1 40 
1 41 
1 42 
1 43 
1 44 
1 45 
1 46 
1 47 
1 48 
1 49 
1 50 
1 51 
1 52 
1 53 
1 54 
1 55 
1 56 
1 57 
1 58 
1 59 
1 60 
1 61 
1 62 
1 63 
1 64 
1 65 
1 66 
1 67 
1 68 
1 69 
1 70 
1 71 
1 72 
1 73 
1 74 
1 75 
1 76 
1 77 
1 78 
1 79 
1 80 
1 81 
1 82 
1 83 
1 84 
1 85 
1 86 
1 87 
1 88 
1 89 
1 90 
1 91 
1 92 
1 93 
1 94 
1 95 
1 96 
1 97 
1 98 
1 99 
1 100 
1 101 
1 102 
1 103 
1 104 
1 105 
1 106 
1 107 
1 108 
1 109 
1 110 
1 111 
1 112 
1 113 
1 114 
1 115 
1 116 
1 117 
1 118 
1 119 
1 120 
1 121 
1 122 
1 123 
1 124 
1 125 
1 126 
1 127 
1 128 
1 129 
1 130 
1 131 
1 132 
1 133 
1 134 
1 135 
1 136 
1 137 
1 138 
1 139 
1 140 
1 141 
1 142 
1 143 
1 144 
1 145 
1 146 
1 147 
1 148 
1 149 
1 150 
1 151 
1 152 
1 153 
1 154 
1 155 
1 156 
1 157 
1 158 
1 159 
1 160 
1 161 
1 162 
1 163 
1 164 
1 165 
1 166 
1 167 
1 168 
1 169 
1 170 
1 171 
1 172 
1 173 
1 174 
1 175 
1 176 
1 177 
1 178 
1 179 
1 180 
1 181 
1 182 
1 183 
1 184 
1 185 
1 186 
1 187 
1 188 
1 189 
1 190 
1 191 
1 192 
1 193 
1 194 
1 195 
1 196 
1 197 
1 198 
1 199 
1 200 
1 201 
1 202 
1 203 
1 204 
1 205 
1 206 
1 207 
1 208 
1 209 
1 210 
1 211 
1 212 
1 213 
1 214 
1 215 
1 216 
1 217 
1 218 
1 219 
1 220 
1 221 
1 222 
1 223 
1 224 
1 225 
1 226 
1 227 
1 228 
1 229 
1 230 
1 231 
1 232 
1 233 
1 234 
1 235 
1 236 
1 237 
1 238 
1 239 
1 240 
1 241 
1 242 
1 243 
1 244 
1 245 
1 246 
1 247 
1 248 
1 249 
1 250 
1 251 
1 252 
1 253 
1 254 
1 255 
1 256 
1 257 
1 258 
1 259 
1 260 
1 261 
1 262 
1 263 
1 264 
1 265 
1 266 
1 267 
1 268 
1 269 
1 270 
1 271 
1 272 
1 273 
1 274 
1 275 
1 276 
1 277 
1 278 
1 279 
1 280 
1 281 
1 282 
1 283 
1 284 
1 285 
1 286 
1 287 
1 288 
1 289 
1 290 
1 291 
1 292 
1 293 
1 294 
1 295 
1 296 
1 297 
1 298 
1 299 
1 300 
1 301 
1 302 
1 303 
1 304 
1 305 
1 306 
1 307 
1 308 
1 309 
1 310 
1 311 
1 312 
1 313 
1 314 
1 315 
1 316 
1 317 
1 318 
1 319 
1 320 
1 321 
1 322 
1 323 
1 324 
1 325 
1 326 
1 327 
1 328 
1 329 
1 330 
1 331 
1 332 
1 333 
1 334 
1 335 
1 336 
1 337 
1 338 
1 339 
1 340 
1 341 
1 342 
1 343 
1 344 
1 345 
1 346 
1 347 
1 348 
1 349 
1 350 
1 351 
1 352 
1 353 
1 354 
1 355 
1 356 
1 357 
1 358 
1 359 
1 360 
1 361 
1 362 
1 363 
1 364 
1 365 
1 366 
1 367 
1 368 
1 369 
1 370 
1 371 
1 372 
1 373 
1 374 
1 375 
1 376 
1 377 
1 378 
1 379 
1 380 
1 381 
1 382 
1 383 
1 384 
1 385 
1 386 
1 387 
1 388 
1 389 
1 390 
1 391 
1 392 
1 393 
1 394 
1 395 
1 396 
1 397 
1 398 
1 399 
1 400 
1 401 
1 402 
1 403 
1 404 
1 405 
1 406 
1 407 
1 408 
1 409 
1 410 
1 411 
1 412 
1 413 
1 414 
1 415 
1 416 
1 417 
1 418 
1 419 
1 420 
1 421 
1 422 
1 423 
1 424 
1 425 
1 426 
1 427 
1 428 
1 429 
1 430 
1 431 
1 432 
1 433 
1 434 
1 435 
1 436 
1 437 
1 438 
1 439 
1 440 
1 441 
1 442 
1 443 
1 444 
1 445 
1 446 
1 447 
1 448 
1 449 
1 450 
1 451 
1 452 
1 453 
1 454 
1 455 
1 456 
1 457 
1 458 
1 459 
1 460 
1 461 
1 462 
1 463 
1 464 
1 465 
1 466 
1 467 
1 468 
1 469 
1 470 
1 471 
1 472 
1 473 
1 474 
1 475 
1 476 
1 477 
1 478 
1 479 
1 480 
1 481 
1 482 
1 483 
1 484 
1 485 
1 486 
1 487 
1 488 
1 489 
1 490 
1 491 
1 492 
1 493 
1 494 
1 495 
1 496 
1 497 
1 498 
1 499 
1 500 
1 501 
1 502 
1 503 
1 504 
1 505 
1 506 
1 507 
1 508 
1 509 
1 510 
1 511 
1 512 
1 513 
1 514 
1 515 
1 516 
1 517 
1 518 
1 519 
1 520 
1 521 
1 522 
1 523 
1 524 
1 525 
1 526 
1 527 
1 528 
1 529 
1 530 
1 531 
1 532 
1 533 
1 534 
1 535 
1 536 
1 537 
1 538 
1 539 
1 540 
1 541 
1 542 
1 543 
1 544 
1 545 
1 546 
1 547 
1 548 
1 549 
1 550 
1 551 
1 552 
1 553 
1 554 
1 555 
1 556 
1 557 
1 558 
1 559 
1 560 
1 561 
1 562 
1 563 
1 564 
1 565 
1 566 
1 567 
1 568 
1 569 
1 570 
1 571 
1 572 
1 573 
1 574 
1 575 
1 576 
1 577 
1 578 
1 579 
1 580 
1 581 
1 582 
1 583 
1 584 
1 585 
1 586 
1 587 
1 588 
1 589 
1 590 
1 591 
1 592 
1 593 
1 594 
1 595 
1 596 
1 597 
1 598 
1 599 
1 600 
1 601 
1 602 
1 603 
1 604 
1 605 
1 606 
1 607 
1 608 
1 609 
1 610 
1 611 
1 612 
1 613 
1 614 
1 615 
1 616 
1 617 
1 618 
1 619 
1 620 
1 621 
1 622 
1 623 
1 624 
1 625 
1 626 
1 627 
1 628 
1 629 
1 630 
1 631 
1 632 
1 633 
1 634 
1 635 
1 636 
1 637 
1 638 
1 639 
1 640 
1 641 
1 642 
1 643 
1 644 
1 645 
1 646 
1 647 
1 648 
1 649 
1 650 
1 651 
1 652 
1 653 
1 654 
1 655 
1 656 
1 657 
1 658 
1 659 
1 660 
1 661 
1 662 
1 663 
1 664 
1 665 
1 666 
1 667 
1 668 
1 669 
1 670 
1 671 
1 672 
1 673 
1 674 
1 675 
1 676 
1 677 
1 678 
1 679 
1 680 
1 681 
1 682 
1 683 
1 684 
1 685 
1 686 
1 687 
1 688 
1 689 
1 690 
1 691 
1 692 
1 693 
1 694 
1 695 
1 696 
1 697 
1 698 
1 699 
1 700 
1 701 
1 702 
1 703 
1 704 
1 705 
1 706 
1 707 
1 708 
1 709 
1 710 
1 711 
1 712 
1 713 
1 714 
1 715 
1 716 
1 717 
1 718 
1 719 
1 720 
1 721 
1 722 
1 723 
1 724 
1 725 
1 726 
1 727 
1 728 
1 729 
1 730 
1 731 
1 732 
1 733 
1 734 
1 735 
1 736 
1 737 
1 738 
1 739 
1 740 
1 741 
1 742 
1 743 
1 744 
1 745 
1 746 
1 747 
1 748 
1 749 
1 750 
1 751 
1 752 
1 753 
1 754 
1 755 
1 756 
1 757 
1 758 
1 759 
1 760 
1 761 
1 762 
1 763 
1 764 
1 765 
1 766 
1 767 
1 768 
1 769 
1 770 
1 771 
1 772 
1 773 
1 774 
1 775 
1 776 
1 777 
1 778 
1 779 
1 780 
1 781 
1 782 
1 783 
1 784 
1 785 
1 786 
1 787 
1 788 
1 789 
1 790 
1 791 
1 792 
1 793 
1 794 
1 795 
1 796 
1 797 
1 798 
1 799 
1 800 
1 801 
1 802 
1 803 
1 804 
1 805 
1 806 
1 807 
1 808 
1 809 
1 810 
1 811 
1 812 
1 813 
1 814 
1 815 
1 816 
1 817 
1 818 
1 819 
1 820 
1 821 
1 822 
1 823 
1 824 
1 825 
1 826 
1 827 
1 828 
1 829 
1 830 
1 831 
1 832 
1 833 
1 834 
1 835 
1 836 
1 837 
1 838 
1 839 
1 840 
1 841 
1 842 
1 843 
1 844 
1 845 
1 846 
1 847 
1 848 
1 849 
1 850 
1 851 
1 852 
1 853 
1 854 
1 855 
1 856 
1 857 
1 858 
1 859 
1 860 
1 861 
1 862 
1 863 
1 864 
1 865 
1 866 
1 867 
1 868 
1 869 
1 870 
1 871 
1 872 
1 873 
1 874 
1 875 
1 876 
1 877 
1 878 
1 879 
1 880 
1 881 
1 882 
1 883 
1 884 
1 885 
1 886 
1 887 
1 888 
1 889 
1 890 
1 891 
1 892 
1 893 
1 894 
1 895 
1 896 
1 897 
1 898 
1 899 
1 900 
1 901 
1 902 
1 903 
1 904 
1 905 
1 906 
1 907 
1 908 
1 909 
1 910 
1 911 
1 912 
1 913 
1 914 
1 915 
1 916 
1 917 
1 918 
1 919 
1 920 
1 921 
1 922 
1 923 
1 924 
1 925 
1 926 
1 927 
1 928 
1 929 
1 930 
1 931 
1 932 
1 933 
1 934 
1 935 
1 936 
1 937 
1 938 
1 939 
1 940 
1 941 
1 942 
1 943 
1 944 
1 945 
1 946 
1 947 
1 948 
1 949 
1 950 
1 951 
1 952 
1 953 
1 954 
1 955 
1 956 
1 957 
1 958 
1 959 
1 960 
1 961 
1 962 
1 963 
1 964 
1 965 
1 966 
1 967 
1 968 
1 969 
1 970 
1 971 
1 972 
1 973 
1 974 
1 975 
1 976 
1 977 
1 978 
1 979 
1 980 
1 981 
1 982 
1 983 
1 984 
1 985 
1 986 
1 987 
1 988 
1 989 
1 990 
1 991 
1 992 
1 993 
1 994 
1 995 
1 996 
1 997 
1 998 
1 999 
1 1000 
1 1001 
1 1002 
1 1003 
1 1004 
1 1005 
1 1006 
1 1007 
1 1008 
1 1009 
1 1010 
1 1011 
1 1012 
1 1013 
1 1014 
1 1015 
1 1016 
1 1017 
1 1018 
1 1019 
1 1020 
1 1021 
1 1022 
1 1023 
1 1024 
1 1025 
1 1026 
1 1027 
1 1028 
1 1029 
1 1030 
1 1031 
1 1032 
1 1033 
1 1034 
1 1035 
1 1036 
1 1037 
1 1038 
1 1039 
1 1040 
1 1041 
1 1042 
1 1043 
1 1044 
1 1045 
1 1046 
1 1047 
1 1048 

POINT_DATA 1049
SCALARS id double
LOOKUP_TABLE default
980 1032 964 1027 1040 995 978 966 993 
1045 983 1004 977 1048 945 955 1036 951 
1020 1028 976 1026 954 936 933 1042 969 
1008 1005 1041 1047 990 941 1024 972 947 
975 1037 960 987 998 985 989 1018 939 
1014 942 1016 968 1033 1022 930 973 932 
962 1009 965 984 1038 1043 999 988 929 
986 1007 953 1029 997 1030 1012 992 979 
1025 950 1044 994 1011 1015 952 971 967 
1000 1019 958 937 949 943 946 944 935 
934 959 957 1021 1003 1017 1031 931 940 
1002 1035 956 1013 1046 1001 41 40 39 
43 42 390 389 0 388 391 49 48 
45 46 44 47 51 1 50 52 2 
53 58 56 59 55 54 57 61 62 
60 64 63 394 392 68 3 393 395 
65 67 66 69 71 70 72 73 78 
75 77 76 74 79 83 80 81 82 
87 88 85 84 86 89 92 93 90 
91 95 494 495 97 4 94 492 96 
493 98 101 99 102 100 104 103 106 
107 105 110 112 108 109 111 116 115 
114 117 113 119 120 121 118 122 558 
5 123 125 126 560 557 559 124 127 
131 129 128 130 136 135 133 134 132 
141 139 138 140 137 144 146 145 143 
142 150 151 148 149 147 590 589 154 
588 152 6 155 587 156 153 157 159 
162 161 160 158 164 163 7 974 1039 
938 166 8 948 165 961 169 167 171 
172 170 168 175 174 177 173 176 178 
179 9 181 180 385 387 383 386 384 
399 396 398 397 400 487 488 489 491 
490 555 554 552 553 556 595 594 593 
592 591 981 1023 1010 184 183 186 182 
185 382 381 379 380 378 1034 1006 402 
403 404 401 405 486 484 483 485 482 
549 547 551 548 550 597 599 598 596 
600 188 189 187 191 190 374 376 373 
377 375 963 407 408 409 406 410 480 
477 481 478 479 545 546 543 542 544 
605 602 601 604 603 991 193 194 196 
195 192 368 371 370 372 369 413 415 
411 414 412 473 475 476 474 472 540 
538 541 539 537 606 610 607 608 609 
201 197 199 200 198 364 363 366 367 
365 416 419 417 420 418 471 467 468 
469 470 533 534 536 532 535 614 613 
615 612 611 982 204 202 206 205 203 
361 358 360 362 359 424 422 421 425 
423 464 462 466 465 463 529 527 531 
528 530 618 616 617 619 620 210 209 
207 211 208 353 354 356 357 355 430 
426 429 428 427 458 457 461 459 460 
526 522 523 525 524 623 621 622 624 
625 970 213 215 216 214 212 349 350 
351 348 352 433 431 434 432 435 10 
437 440 439 441 436 438 442 11 443 
445 444 12 446 448 450 447 449 451 
452 453 454 456 455 497 13 496 500 
499 498 502 505 503 506 504 501 14 
508 507 510 509 15 514 512 515 516 
513 511 519 517 518 520 521 562 16 
565 561 564 563 567 570 569 568 571 
566 17 573 572 574 575 18 576 578 
581 579 577 580 586 585 582 584 583 
19 34 996 219 221 220 218 217 344 
345 347 343 346 223 225 226 222 224 
663 339 341 661 342 20 664 340 660 
662 21 668 22 666 667 665 673 671 
669 672 670 677 674 676 675 678 683 
682 681 679 680 684 714 686 687 715 
685 23 717 716 713 719 722 718 720 
723 721 725 36 724 727 726 37 733 
728 730 731 729 732 735 736 737 738 
734 741 742 739 24 634 632 631 633 
740 744 747 745 743 746 749 748 751 
750 752 754 753 756 755 757 758 760 
761 759 762 765 764 766 767 763 770 
771 772 768 769 774 773 776 777 775 
780 782 781 778 779 786 784 785 787 
783 790 789 792 788 791 794 796 795 
793 797 818 801 820 798 817 35 800 
799 819 802 803 804 805 806 809 808 
807 811 810 812 816 813 814 815 25 
627 629 626 628 26 630 227 228 230 
229 27 336 334 337 335 338 690 691 
688 689 692 635 639 636 637 638 825 
823 822 821 824 232 233 235 234 231 
333 330 331 329 332 693 694 695 697 
696 644 643 641 640 642 829 826 827 
828 830 239 238 236 240 237 328 325 
326 327 324 700 699 701 698 702 646 
647 645 649 648 833 834 832 831 835 
241 243 245 242 244 323 322 320 319 
321 705 704 703 707 706 653 654 651 
650 652 29 249 246 250 248 247 318 
316 314 317 315 710 709 708 712 711 
656 659 657 655 658 924 925 28 927 
926 928 255 251 254 253 252 310 313 
30 311 312 305 308 309 307 306 301 
304 302 300 303 297 298 296 295 299 
292 290 294 293 291 289 285 287 286 
288 281 282 31 284 283 280 277 276 
278 279 272 274 273 275 271 269 268 
266 270 267 265 263 261 262 264 260 
257 259 258 256 837 839 32 836 838 
843 842 841 844 840 849 845 846 847 
848 852 850 853 854 851 857 858 856 
859 855 860 864 861 862 863 867 865 
869 866 868 870 871 872 873 874 879 
875 877 876 878 882 884 883 881 880 
887 885 888 889 886 893 894 890 892 
891 38 895 898 896 897 899 900 901 
902 903 906 908 904 907 905 911 913 
912 910 909 914 918 916 917 915 923 
919 920 921 922 33 
FIELD FieldData 14
r 3 1049 double
-0.124573 -11.5031 0 -0.683512 -11.3006 0 0.805353 -11.3417 0 
0.285578 -11.1262 0 -1.27447 -10.4309 0 -1.66801 -10.0568 0 
-1.46984 -10.9572 0 -0.111802 -10.3606 0 -0.242595 -10.9844 0 
-0.871375 -10.7787 0 -0.404645 -10.6126 0 -0.723736 -10.251 0 
0.11618 -10.7011 0 0.692307 -10.8039 0 0.405801 -10.4037 0 
0.572043 -10.0663 0 0.0270978 -10.0101 0 1.5829 -10.5203 0 
1.21906 -10.9407 0 1.44661 -10.0298 0 1.02492 -10.3984 0 
-1.9468 -9.54486 0 -1.42877 -9.52218 0 -1.0898 -9.05963 0 
-1.08919 -9.93024 0 -1.65633 -9.02134 0 -0.191856 -9.24945 0 
-0.97315 -9.49148 0 -0.420931 -9.98137 0 -0.609144 -9.63838 0 
-0.632386 -9.14609 0 -0.198418 -9.59846 0 0.837727 -9.33185 0 
0.191872 -9.77796 0 0.980806 -9.86283 0 0.264484 -9.28512 0 
0.585807 -9.64133 0 1.3356 -9.53137 0 1.55102 -9.06241 0 
2.0761 -9.07611 0 -3.02687 -8.23522 0 -2.3387 -8.28651 0 
-1.25597 -8.49497 0 -0.23391 -8.34889 0 -0.348402 -8.80043 0 
-0.723301 -8.62167 0 0.049907 -8.76745 0 0.797945 -8.32949 0 
0.261153 -8.30203 0 0.513285 -8.81798 0 1.41776 -8.46746 0 
1.04139 -8.87591 0 1.81009 -8.04824 0 2.25223 -8.55817 0 
2.83376 -8.46747 0 3.35668 -8.13988 0 -3.13805 -7.60488 0 
-3.76422 -7.47706 0 -2.29716 -7.63457 0 2.32049 -7.25533 0 
2.36476 -7.99161 0 2.89262 -7.32151 0 2.89551 -7.85408 0 
4.06879 -7.45927 0 -4.08685 -6.67098 0 -3.21032 -6.95696 0 
3.75119 -6.80891 0 5.6649 -6.26583 0 6.22727 -6.08722 0 
-6.41736 -5.25136 0 -5.73958 -5.02327 0 5.65843 -5.49468 0 
5.11603 -5.19013 0 5.12732 -5.81753 0 6.82378 -5.20033 0 
6.11103 -5.15698 0 6.48701 -5.63468 0 7.6998 -5.17753 0 
-8.18271 -4.13148 0 -7.05833 -4.0844 0 -7.77463 -4.5534 0 
-6.23171 -4.57772 0 5.35004 -4.64065 0 5.92498 -4.52564 0 
6.62231 -4.19476 0 6.44413 -4.75709 0 7.43407 -4.61275 0 
8.48977 -4.15325 0 -8.03245 -3.56014 0 -8.71011 -3.98088 0 
7.80932 -3.24651 0 7.30537 -3.91265 0 8.27562 -3.59251 0 
-9.69938 -2.711 0 -9.46257 -2.10494 0 -8.02874 -2.78048 0 
-8.75781 -2.76417 0 8.75107 -2.74471 0 9.62856 -2.55109 0 
9.93264 -1.76736 0 10.6026 -1.42809 0 11.2167 -1.56111 0 
11.8086 -0.791526 0 11.7415 -0.213876 0 11.0543 -0.860779 0 
-14.4643 0 0 -14.6429 0 0 -14.8214 0 0 
-14.1071 0 0 -14.2857 0 0 -15 0.4 0 
-15 0.6 0 -15 0 0 -15 0.8 0 
-15 0.2 0 -13.0357 0 0 -13.2143 0 0 
-13.75 0 0 -13.5714 0 0 -13.9286 0 0 
-13.3929 0 0 -12.6786 0 0 -12.5 0 0 
-12.8571 0 0 -11.3214 0 0 -11.5 0 0 
-11.1429 0 0 -10.25 0 0 -10.6071 0 0 
-10.0714 0 0 -10.7857 0 0 -10.9643 0 0 
-10.4286 0 0 -9.7143 0 0 -9.5357 0 0 
-9.8929 0 0 -9.1786 0 0 -9.3571 0 0 
-9 0.6 0 -9 0.2 0 -8.2 0 0 
-9 0 0 -9 0.4 0 -9 0.8 0 
-8.8 0 0 -8.4 0 0 -8.6 0 0 
-8 0 0 -7.6 0 0 -7.8 0 0 
-7.4 0 0 -7.2 0 0 -6.2 0 0 
-6.8 0 0 -6.4 0 0 -6.6 0 0 
-7 0 0 -6 0 0 -5.2 0 0 
-5.8 0 0 -5.6 0 0 -5.4 0 0 
-4.4 0 0 -4.2 0 0 -4.8 0 0 
-5 0 0 -4.6 0 0 -4 0 0 
-3.4 0 0 -3.2 0 0 -3.8 0 0 
-3.6 0 0 -2.6 0 0 -3 0.4 0 
-3 0.2 0 -2.2 0 0 -3 0 0 
-2.8 0 0 -3 0.8 0 -2.4 0 0 
-3 0.6 0 -2 0 0 -1.4 0 0 
-1.8 0 0 -1.2 0 0 -1.6 0 0 
-0.8 0 0 -1 0 0 -0.4 0 0 
-0.2 0 0 -0.6 0 0 0.4 0 0 
0.8 0 0 -0 0 0 0.2 0 0 
0.6 0 0 1.6 0 0 1.4 0 0 
1.2 0 0 1.8 0 0 1 0 0 
2.2 0 0 2.4 0 0 2.6 0 0 
2 0 0 2.8 0 0 3 0.6 0 
3 0 0 3.2 0 0 3.6 0 0 
3.8 0 0 3 0.2 0 3 0.8 0 
3 0.4 0 3.4 0 0 4 0 0 
4.8 0 0 4.4 0 0 4.2 0 0 
4.6 0 0 5.8 0 0 5.6 0 0 
5.2 0 0 5.4 0 0 5 0 0 
6.8 0 0 6.4 0 0 6.2 0 0 
6.6 0 0 6 0 0 7.4 0 0 
7.8 0 0 7.6 0 0 7.2 0 0 
7 0 0 8.6 0 0 8.8 0 0 
8.2 0 0 8.4 0 0 8 0 0 
9 0.8 0 9 0.6 0 9.5357 0 0 
9 0.4 0 9.1786 0 0 9 0 0 
9.7143 0 0 9 0.2 0 9.8929 0 0 
9.3571 0 0 10.0714 0 0 10.4286 0 0 
10.9643 0 0 10.7857 0 0 10.6071 0 0 
10.25 0 0 11.3214 0 0 11.1429 0 0 
11.5 0 0 11.4176 0.411178 0 11.9572 0.695513 0 
12.466 0.958488 0 12.8571 0 0 12.5 0 0 
12.7399 0.447754 0 12.6786 0 0 12.2 0.174987 0 
13.3929 0 0 13.0357 0 0 13.75 0 0 
13.9286 0 0 13.5714 0 0 13.2143 0 0 
14.4643 0 0 14.2857 0 0 14.8214 0 0 
14.1071 0 0 14.6429 0 0 15 0.2 0 
15 0.4 0 15 0 0 15 0.8 0 
15 0.6 0 -15 1.4 0 -15 1 0 
-15 1.8 0 -15 1.2 0 -15 1.6 0 
-9 1.6 0 -9 1 0 -9 1.4 0 
-9 1.2 0 -9 1.8 0 -3 1.8 0 
-3 1.6 0 -3 1.4 0 -3 1 0 
-3 1.2 0 3 1.2 0 3 1.4 0 
3 1.8 0 3 1.6 0 3 1 0 
9 1.8 0 9 1.6 0 9 1.4 0 
9 1.2 0 9 1 0 11.4391 1.01301 0 
11.9387 1.33719 0 11.4032 1.69019 0 15 1.4 0 
15 1.2 0 15 1.8 0 15 1 0 
15 1.6 0 -15 2 0 -15 2.2 0 
-15 2.6 0 -15 2.4 0 -15 2.8 0 
-11.4401 2.41782 0 -11.0477 2.82075 0 -9 2.2 0 
-9 2.4 0 -9 2.6 0 -9 2 0 
-9 2.8 0 -3 2 0 -3 2.4 0 
-3 2.6 0 -3 2.2 0 -3 2.8 0 
3 2.4 0 3 2.8 0 3 2 0 
3 2.6 0 3 2.2 0 9 2.2 0 
9 2.6 0 9 2.4 0 9 2 0 
9 2.8 0 15 2.2 0 15 2.4 0 
15 2 0 15 2.8 0 15 2.6 0 
-15 3.6 0 -15 3.2 0 -15 3.8 0 
-15 3 0 -15 3.4 0 -10.9357 3.57522 0 
-9 3.2 0 -9 3.4 0 -9 3.6 0 
-9 3 0 -9 3.8 0 -3 3.2 0 
-3 3.8 0 -3 3 0 -3 3.6 0 
-3 3.4 0 3 3.2 0 3 3 0 
3 3.6 0 3 3.8 0 3 3.4 0 
9 3.8 0 9 3.2 0 9 3 0 
9 3.6 0 9 3.4 0 12.5794 3.82627 0 
15 3.2 0 15 3.4 0 15 3.8 0 
15 3.6 0 15 3 0 -15 4.8 0 
-15 4.2 0 -15 4.4 0 -15 4 0 
-15 4.6 0 -9 4.4 0 -9 4.8 0 
-9 4 0 -9 4.6 0 -9 4.2 0 
-3 4.6 0 -3 4.2 0 -3 4 0 
-3 4.4 0 -3 4.8 0 3 4.2 0 
3 4.6 0 3 4 0 3 4.4 0 
3 4.8 0 9 4 0 9 4.8 0 
9 4.2 0 9 4.4 0 9 4.6 0 
15 4.8 0 15 4 0 15 4.4 0 
15 4.6 0 15 4.2 0 -15 5.6 0 
-15 5.8 0 -15 5.2 0 -15 5 0 
-15 5.4 0 -9 5 0 -9 5.6 0 
-9 5.2 0 -9 5.8 0 -9 5.4 0 
-3 5 0 -3 5.8 0 -3 5.6 0 
-3 5.4 0 -3 5.2 0 3 5.6 0 
3 5.4 0 3 5 0 3 5.8 0 
3 5.2 0 9 5.6 0 9 5.4 0 
9 5.8 0 9 5.2 0 9 5 0 
12.803 5.29891 0 15 5.4 0 15 5 0 
15 5.8 0 15 5.6 0 15 5.2 0 
-15 6.2 0 -15 6.8 0 -15 6.4 0 
-15 6 0 -15 6.6 0 -9 6.6 0 
-9 6.2 0 -9 6 0 -9 6.8 0 
-9 6.4 0 -3 6.4 0 -3 6.8 0 
-3 6 0 -3 6.2 0 -3 6.6 0 
3 6.4 0 3 6.8 0 3 6 0 
3 6.6 0 3 6.2 0 9 6.4 0 
9 6 0 9 6.2 0 9 6.6 0 
9 6.8 0 15 6.6 0 15 6.4 0 
15 6 0 15 6.8 0 15 6.2 0 
-15 7.8 0 -15 7.6 0 -15 7.2 0 
-15 7 0 -15 7.4 0 -9 7.8 0 
-9 7 0 -9 7.6 0 -9 7.4 0 
-9 7.2 0 -3 7.6 0 -3 7.8 0 
-3 7 0 -3 7.4 0 -3 7.2 0 
3 7 0 3 7.8 0 3 7.6 0 
3 7.2 0 3 7.4 0 9 7.4 0 
9 7 0 9 7.2 0 9 7.6 0 
9 7.8 0 13.1155 7.28464 0 15 7.2 0 
15 7.6 0 15 7.8 0 15 7.4 0 
15 7 0 -15 8.6 0 -15 8.4 0 
-15 8.2 0 -15 8.8 0 -15 8 0 
-8.4643 8 0 -8.8214 8 0 -8.2857 8 0 
-8.6429 8 0 -8.1071 8 0 -9 8 0 
-7.75 8 0 -7.2143 8 0 -7.3929 8 0 
-7.0357 8 0 -7.9286 8 0 -7.5714 8 0 
-6.8571 8 0 -6.5 8 0 -6.6786 8 0 
-5.1429 8 0 -5.3214 8 0 -5.5 8 0 
-4.9643 8 0 -4.6071 8 0 -4.25 8 0 
-4.7857 8 0 -4.4286 8 0 -4.0714 8 0 
-3.8929 8 0 -3.7143 8 0 -3.5357 8 0 
-3.1786 8 0 -3.3571 8 0 -2.6429 8 0 
-3 8 0 -2.8214 8 0 -2.1071 8 0 
-2.2857 8 0 -2.4643 8 0 -1.75 8 0 
-1.2143 8 0 -1.5714 8 0 -1.0357 8 0 
-1.3929 8 0 -1.9286 8 0 -0.5 8 0 
-0.6786 8 0 -0.8571 8 0 0.8571 8 0 
0.6786 8 0 0.5 8 0 1.5714 8 0 
1.2143 8 0 1.75 8 0 1.9286 8 0 
1.3929 8 0 1.0357 8 0 2.4643 8 0 
2.1071 8 0 2.2857 8 0 2.6429 8 0 
2.8214 8 0 3.3571 8 0 3 8 0 
3.8929 8 0 3.1786 8 0 3.7143 8 0 
3.5357 8 0 4.25 8 0 4.7857 8 0 
4.6071 8 0 4.4286 8 0 4.9643 8 0 
4.0714 8 0 5.5 8 0 5.3214 8 0 
5.1429 8 0 6.6786 8 0 6.8571 8 0 
6.5 8 0 7.0357 8 0 7.3929 8 0 
7.9286 8 0 7.5714 8 0 7.2143 8 0 
7.75 8 0 8.8214 8 0 8.6429 8 0 
8.1071 8 0 8.4643 8 0 8.2857 8 0 
9 8 0 9 8 0 13.2417 8.20415 0 
15 8.4 0 15 8.8 0 15 8.6 0 
15 8.2 0 15 8 0 -15 9.6 0 
-15 9.4 0 -15 9 0 -15 9.8 0 
-15 9.2 0 15 9.2 0 15 9.6 0 
15 9.8 0 15 9 0 15 9.4 0 
-14.3333 10 0 -15 10.8 0 -15 10.4 0 
-14.6667 10 0 -15 10.2 0 -15 10 0 
-14.1667 10 0 -15 10.6 0 -14.8333 10 0 
-14.5 10 0 -14 10 0 -12.2 10 0 
-13 10 0 -12.6 10 0 -12.4 10 0 
-12.8 10 0 -11.2 10 0 -11.6 10 0 
-12 10 0 -11.4 10 0 -11.8 10 0 
-10.4 10 0 -11 10 0 -10.6 10 0 
-10.8 10 0 -10.2 10 0 -9.2 10 0 
-9.4 10 0 -9.6 10 0 -10 10 0 
-9.8 10 0 -9 10.2 0 -8.6429 10 0 
-9 10.6 0 -9 10.8 0 -8.4643 10 0 
-9 10.4 0 -9 10 0 -8.1071 10 0 
-8.2857 10 0 -8.8214 10 0 -7.75 10 0 
-7.2143 10 0 -7.9286 10 0 -7.5714 10 0 
-7.0357 10 0 -7.3929 10 0 -6.6786 10 0 
-6.5 10 0 -6.8571 10 0 -5.1429 10 0 
-5.3214 10 0 -5.5 10 0 -4.0714 10 0 
-4.9643 10 0 -4.6071 10 0 -4.4286 10 0 
-4.7857 10 0 -4.25 10 0 -3.7143 10 0 
-3.5357 10 0 -3.3571 10 0 -3.1786 10 0 
-3.8929 10 0 -2.4 10 0 -2.2 10 0 
-2.8 10 0 -3 10 0 -3 10.8 0 
-3 10.4 0 -3 10.2 0 -3 10.6 0 
-2.6 10 0 -1.8 10 0 -1.2 10 0 
-1.6 10 0 -2 10 0 -1.4 10 0 
-0.8 10 0 -1 10 0 -0.4 10 0 
-0.6 10 0 -0.2 10 0 0.2 10 0 
-0 10 0 0.6 10 0 0.4 10 0 
0.8 10 0 1 10 0 1.4 10 0 
1.6 10 0 1.2 10 0 1.8 10 0 
2.4 10 0 2.2 10 0 2.6 10 0 
2.8 10 0 2 10 0 3.4 10 0 
3.6 10 0 3.8 10 0 3 10 0 
3.2 10 0 4.2 10 0 4 10 0 
4.6 10 0 4.8 10 0 4.4 10 0 
5.4 10 0 5.8 10 0 5.6 10 0 
5 10 0 5.2 10 0 6.6 10 0 
6.2 10 0 6.4 10 0 6.8 10 0 
6 10 0 7.4 10 0 7.2 10 0 
7.8 10 0 7 10 0 7.6 10 0 
8.2 10 0 8.6 10 0 8.4 10 0 
8 10 0 8.8 10 0 9 10.4 0 
9.8 10 0 9 10.8 0 9.2 10 0 
9 10.2 0 9 10 0 9.6 10 0 
9.4 10 0 9 10.6 0 10 10 0 
10.2 10 0 10.4 10 0 10.6 10 0 
10.8 10 0 11.4 10 0 11.2 10 0 
11 10 0 11.8 10 0 11.6 10 0 
12 10 0 12.8 10 0 12.2 10 0 
12.4 10 0 12.6 10 0 13 10 0 
14.6667 10 0 14.3333 10 0 14.8333 10 0 
14.5 10 0 14 10 0 14.1667 10 0 
15 10.2 0 15 10.4 0 15 10.8 0 
15 10.6 0 15 10 0 -15 11.4 0 
-15 11.8 0 -15 11.2 0 -15 11.6 0 
-15 11 0 -9 11.4 0 -9 11.6 0 
-9 11 0 -9 11.2 0 -9 11.8 0 
-3 11 0 -3 11.8 0 -3 11.2 0 
-3 11.4 0 -3 11.6 0 9 11.8 0 
9 11.4 0 9 11.2 0 9 11 0 
9 11.6 0 15 11.2 0 15 11.4 0 
15 11.8 0 15 11.6 0 15 11 0 
-15 12 0 -15 12.6 0 -15 12.4 0 
-15 12.8 0 -15 12.2 0 -9 12 0 
-9 12.2 0 -9 12.4 0 -9 12.8 0 
-9 12.6 0 -3 12.8 0 -3 12.6 0 
-3 12.2 0 -3 12 0 -3 12.4 0 
9 12.6 0 9 12 0 9 12.2 0 
9 12.4 0 9 12.8 0 15 12.6 0 
15 12.4 0 15 12 0 15 12.8 0 
15 12.2 0 -15 13 0 -15 13.6 0 
-15 13.4 0 -15 13.2 0 -15 13.8 0 
-9 13.4 0 -9 13.2 0 -9 13.6 0 
-9 13 0 -9 13.8 0 -3 13.2 0 
-3 13.4 0 -3 13 0 -3 13.8 0 
-3 13.6 0 9 13.4 0 9 13.6 0 
9 13.2 0 9 13 0 9 13.8 0 
15 13 0 15 13.4 0 15 13.8 0 
15 13.2 0 15 13.6 0 -15 14 0 
-15 14.2 0 -15 14.6 0 -15 14.8 0 
-15 14.4 0 -9 14.4 0 -9 14.2 0 
-9 14 0 -9 14.8 0 -9 14.6 0 
-3 14.6 0 -3 14.8 0 -3 14.2 0 
-3 14 0 -3 14.4 0 9 14 0 
15 14.6 0 15 14 0 15 14.8 0 
15 14.4 0 15 14.2 0 -15 15 0 
-15 15.4 0 -15 15.8 0 -15 15.2 0 
-15 15.6 0 -9 15.4 0 -9 15.2 0 
-9 15 0 -9 15.8 0 -9 15.6 0 
-3 15.2 0 -3 15.8 0 -3 15.4 0 
-3 15 0 -3 15.6 0 9 15.1667 0 
9 15.3333 0 9 15 0 9 15.6667 0 
9 15.5 0 9 15.8333 0 15 15.8 0 
15 15 0 15 15.6 0 15 15.4 0 
15 15.2 0 -14.2 16 0 -14.8 16 0 
-15 16 0 -14.4 16 0 -14.6 16 0 
-13.2 16 0 -13.8 16 0 -14 16 0 
-13.6 16 0 -13.4 16 0 -12.4 16 0 
-13 16 0 -12.6 16 0 -12.2 16 0 
-12.8 16 0 -11.6 16 0 -11.8 16 0 
-11.4 16 0 -11.2 16 0 -12 16 0 
-10.6 16 0 -10.2 16 0 -11 16 0 
-10.8 16 0 -10.4 16 0 -10 16 0 
-9.2 16 0 -9.6 16 0 -9.4 16 0 
-9.8 16 0 -8.2 16 0 -8.4 16 0 
-9 16 0 -8.8 16 0 -8.6 16 0 
-8 16 0 -7.4 16 0 -7.2 16 0 
-7.6 16 0 -7.8 16 0 -6.4 16 0 
-6.8 16 0 -6.6 16 0 -7 16 0 
-6.2 16 0 -5.8 16 0 -5.6 16 0 
-5.2 16 0 -6 16 0 -5.4 16 0 
-5 16 0 -4.6 16 0 -4.2 16 0 
-4.4 16 0 -4.8 16 0 -4 16 0 
-3.4 16 0 -3.8 16 0 -3.6 16 0 
-3.2 16 0 -2.6 16 0 -2.2 16 0 
-3 16 0 -2.8 16 0 -2.4 16 0 
-1.4 16 0 -1.6 16 0 -1.8 16 0 
-1.2 16 0 -2 16 0 -0.2 16 0 
-1 16 0 -0.8 16 0 -0.6 16 0 
-0.4 16 0 0.4 16 0 -0 16 0 
0.6 16 0 0.8 16 0 0.2 16 0 
1.4 16 0 1.6 16 0 1.2 16 0 
1.8 16 0 1 16 0 2 16 0 
2.8 16 0 2.2 16 0 2.4 16 0 
2.6 16 0 3.4 16 0 3 16 0 
3.8 16 0 3.2 16 0 3.6 16 0 
4 16 0 4.2 16 0 4.4 16 0 
4.6 16 0 4.8 16 0 5.8 16 0 
5 16 0 5.4 16 0 5.2 16 0 
5.6 16 0 6.4 16 0 6.8 16 0 
6.6 16 0 6.2 16 0 6 16 0 
7.4 16 0 7 16 0 7.6 16 0 
7.8 16 0 7.2 16 0 8.6 16 0 
8.8 16 0 8 16 0 8.4 16 0 
8.2 16 0 9 16 0 9.2 16 0 
9.8 16 0 9.4 16 0 9.6 16 0 
10 16 0 10.2 16 0 10.4 16 0 
10.6 16 0 10.8 16 0 11.4 16 0 
11.8 16 0 11 16 0 11.6 16 0 
11.2 16 0 12.4 16 0 12.8 16 0 
12.6 16 0 12.2 16 0 12 16 0 
13 16 0 13.8 16 0 13.4 16 0 
13.6 16 0 13.2 16 0 14.8 16 0 
14 16 0 14.2 16 0 14.4 16 0 
14.6 16 0 15 16 0 
gid 1 1049 double
1 1 1 1 1 1 1 1 1 
1 1 1 1 1 1 1 1 1 
1 1 1 1 1 1 1 1 1 
1 1 1 1 1 1 1 1 1 
1 1 1 1 1 1 1 1 1 
1 1 1 1 1 1 1 1 1 
1 1 1 1 1 1 1 1 1 
1 1 1 1 1 1 1 1 1 
1 1 1 1 1 1 1 1 1 
1 1 1 1 1 1 1 1 1 
1 1 1 1 1 1 1 1 1 
1 1 1 1 1 1 2 2 2 
2 2 2 2 2 2 2 2 2 
2 2 2 2 2 2 2 2 2 
2 2 2 2 2 2 2 2 2 
2 2 2 2 2 2 2 2 2 
2 2 2 2 2 2 2 2 2 
2 2 2 2 2 2 2 2 2 
2 2 2 2 2 2 2 2 2 
2 2 2 2 2 2 2 2 2 
2 2 2 2 2 2 2 2 2 
2 2 2 2 2 2 2 2 2 
2 2 2 2 2 2 2 2 2 
2 2 2 2 2 2 2 2 2 
2 2 2 2 2 2 2 2 2 
2 2 2 2 2 2 2 2 2 
2 2 2 2 2 2 2 2 2 
2 2 2 2 2 2 2 2 2 
2 2 2 2 2 2 2 1 1 
1 2 2 1 2 1 2 2 2 
2 2 2 2 2 2 2 2 2 
2 2 2 2 2 2 2 2 2 
2 2 2 2 2 2 2 2 2 
2 2 2 2 2 2 2 2 2 
2 2 1 1 1 2 2 2 2 
2 2 2 2 2 2 1 1 2 
2 2 2 2 2 2 2 2 2 
2 2 2 2 2 2 2 2 2 
2 2 2 2 2 2 2 2 2 
2 2 1 2 2 2 2 2 2 
2 2 2 2 2 2 2 2 2 
2 2 2 2 2 1 2 2 2 
2 2 2 2 2 2 2 2 2 
2 2 2 2 2 2 2 2 2 
2 2 2 2 2 2 2 2 2 
2 2 2 2 2 2 2 2 2 
2 2 2 2 2 2 2 2 2 
2 2 2 2 2 2 2 2 2 
2 2 2 1 2 2 2 2 2 
2 2 2 2 2 2 2 2 2 
2 2 2 2 2 2 2 2 2 
2 2 2 2 2 2 2 2 2 
2 2 2 2 2 2 2 2 2 
2 2 2 2 2 2 2 2 2 
2 2 2 2 2 2 2 2 2 
2 1 2 2 2 2 2 2 2 
2 2 2 2 2 2 2 2 2 
2 2 2 2 2 2 2 2 2 
2 2 2 2 2 2 2 2 2 
2 2 2 2 2 2 2 2 2 
2 2 2 2 2 2 2 2 2 
2 2 2 2 2 2 2 2 2 
2 2 2 2 2 2 2 2 2 
2 2 2 2 2 2 2 2 2 
2 2 2 2 2 2 2 2 2 
2 2 2 2 2 2 2 2 2 
2 2 1 2 2 2 2 2 2 
2 2 2 2 2 2 2 2 2 
2 2 2 2 2 2 2 2 2 
2 2 2 2 2 2 2 2 2 
2 2 2 2 2 2 2 2 2 
2 2 2 2 2 2 2 2 2 
2 2 2 2 2 2 2 2 2 
2 2 2 2 2 2 2 2 2 
2 2 2 2 2 2 2 2 2 
2 2 2 2 2 2 2 2 2 
2 2 2 2 2 2 2 2 2 
2 2 2 2 2 2 2 2 2 
2 2 2 2 2 2 2 2 2 
2 2 2 2 2 2 2 2 2 
2 2 2 2 2 2 2 2 2 
2 2 2 2 2 2 2 2 2 
2 2 2 2 2 2 2 2 2 
2 2 2 2 2 2 2 2 2 
2 2 2 2 2 2 2 2 2 
2 2 2 2 2 2 2 2 2 
2 2 2 2 2 2 2 2 2 
2 2 2 2 2 2 2 2 2 
2 2 2 2 2 2 2 2 2 
2 2 2 2 2 2 2 2 2 
2 2 2 2 2 2 2 2 2 
2 2 2 2 2 2 2 2 2 
2 2 2 2 2 2 2 2 2 
2 2 2 2 2 2 2 2 2 
2 2 2 2 2 2 2 2 2 
2 2 2 2 2 2 2 2 2 
2 2 2 2 2 2 2 2 2 
2 2 2 2 2 2 2 2 2 
2 2 2 2 2 2 2 2 2 
2 2 2 2 2 2 2 2 2 
2 2 2 2 2 2 2 2 2 
2 2 2 2 2 2 2 2 2 
2 2 2 2 2 2 2 2 2 
2 2 2 2 2 2 2 2 2 
2 2 2 2 2 2 2 2 2 
2 2 2 2 2 2 2 2 2 
2 2 2 2 2 2 2 2 2 
2 2 2 2 2 2 2 2 2 
2 2 2 2 2 2 2 2 2 
2 2 2 2 2 2 2 2 2 
2 2 2 2 2 2 2 2 2 
2 2 2 2 2 2 2 2 2 
2 2 2 2 2 2 2 2 2 
2 2 2 2 2 2 2 2 2 
2 2 2 2 2 2 2 2 2 
2 2 2 2 2 2 2 2 2 
2 2 2 2 2 
A 1 1049 double
10 10 10 10 10 10 10 10 10 
10 10 10 10 10 10 10 10 10 
10 10 10 10 10 10 10 10 10 
10 10 10 10 10 10 10 10 10 
10 10 10 10 10 10 10 10 10 
10 10 10 10 10 10 10 10 10 
10 10 10 10 10 10 10 10 10 
10 10 10 10 10 10 10 10 10 
10 10 10 10 10 10 10 10 10 
10 10 10 10 10 10 10 10 10 
10 10 10 10 10 10 10 10 10 
10 10 10 10 10 10 10 10 10 
10 10 10 10 10 10 10 10 10 
10 10 10 10 10 10 10 10 10 
10 10 10 10 10 10 10 10 10 
10 10 10 10 10 10 10 10 10 
10 10 10 10 10 10 10 10 10 
10 10 10 10 10 10 10 10 10 
10 10 10 10 10 10 10 10 10 
10 10 10 10 10 10 10 10 10 
10 10 10 10 10 10 10 10 10 
10 10 10 10 10 10 10 10 10 
10 10 10 10 10 10 10 10 10 
10 10 10 10 10 10 10 10 10 
10 10 10 10 10 10 10 10 10 
10 10 10 10 10 10 10 10 10 
10 10 10 10 10 10 10 10 10 
10 10 10 10 10 10 10 10 10 
10 10 10 10 10 10 10 10 10 
10 10 10 10 10 10 10 10 10 
10 10 10 10 10 10 10 10 10 
10 10 10 10 10 10 10 10 10 
10 10 10 10 10 10 10 10 10 
10 10 10 10 10 10 10 10 10 
10 10 10 10 10 10 10 10 10 
10 10 10 10 10 10 10 10 10 
10 10 10 10 10 10 10 10 10 
10 10 10 10 10 10 10 10 10 
10 10 10 10 10 10 10 10 10 
10 10 10 10 10 10 10 10 10 
10 10 10 10 10 10 10 10 10 
10 10 10 10 10 10 10 10 10 
10 10 10 10 10 10 10 10 10 
10 10 10 10 10 10 10 10 10 
10 10 10 10 10 10 10 10 10 
10 10 10 10 10 10 10 10 10 
10 10 10 10 10 10 10 10 10 
10 10 10 10 10 10 10 10 10 
10 10 10 10 10 10 10 10 10 
10 10 10 10 10 10 10 10 10 
10 10 10 10 10 10 10 10 10 
10 10 10 10 10 10 10 10 10 
10 10 10 10 10 10 10 10 10 
10 10 10 10 10 10 10 10 10 
10 10 10 10 10 10 10 10 10 
10 10 10 10 10 10 10 10 10 
10 10 10 10 10 10 10 10 10 
10 10 10 10 10 10 10 10 10 
10 10 10 10 10 10 10 10 10 
10 10 10 10 10 10 10 10 10 
10 10 10 10 10 10 10 10 10 
10 10 10 10 10 10 10 10 10 
10 10 10 10 10 10 10 10 10 
10 10 10 10 10 10 10 10 10 
10 10 10 10 10 10 10 10 10 
10 10 10 10 10 10 10 10 10 
10 10 10 10 10 10 10 10 10 
10 10 10 10 10 10 10 10 10 
10 10 10 10 10 10 10 10 10 
10 10 10 10 10 10 10 10 10 
10 10 10 10 10 10 10 10 10 
10 10 10 10 10 10 10 10 10 
10 10 10 10 10 10 10 10 10 
10 10 10 10 10 10 10 10 10 
10 10 10 10 10 10 10 10 10 
10 10 10 10 10 10 10 10 10 
10 10 10 10 10 10 10 10 10 
10 10 10 10 10 10 10 10 10 
10 10 10 10 10 10 10 10 10 
10 10 10 10 10 10 10 10 10 
10 10 10 10 10 10 10 10 10 
10 10 10 10 10 10 10 10 10 
10 10 10 10 10 10 10 10 10 
10 10 10 10 10 10 10 10 10 
10 10 10 10 10 10 10 10 10 
10 10 10 10 10 10 10 10 10 
10 10 10 10 10 10 10 10 10 
10 10 10 10 10 10 10 10 10 
10 10 10 10 10 10 10 10 10 
10 10 10 10 10 10 10 10 10 
10 10 10 10 10 10 10 10 10 
10 10 10 10 10 10 10 10 10 
10 10 10 10 10 10 10 10 10 
10 10 10 10 10 10 10 10 10 
10 10 10 10 10 10 10 10 10 
10 10 10 10 10 10 10 10 10 
10 10 10 10 10 10 10 10 10 
10 10 10 10 10 10 10 10 10 
10 10 10 10 10 10 10 10 10 
10 10 10 10 10 10 10 10 10 
10 10 10 10 10 10 10 10 10 
10 10 10 10 10 10 10 10 10 
10 10 10 10 10 10 10 10 10 
10 10 10 10 10 10 10 10 10 
10 10 10 10 10 10 10 10 10 
10 10 10 10 10 10 10 10 10 
10 10 10 10 10 10 10 10 10 
10 10 10 10 10 10 10 10 10 
10 10 10 10 10 10 10 10 10 
10 10 10 10 10 10 10 10 10 
10 10 10 10 10 10 10 10 10 
10 10 10 10 10 10 10 10 10 
10 10 10 10 10 10 10 10 10 
10 10 10 10 10 10 10 10 10 
10 10 10 10 10 10 10 10 10 
10 10 10 10 10 10 10 10 10 
10 10 10 10 10 
B 1 1049 double
0.2 0.2 0.2 0.2 0.2 0.2 0.2 0.2 0.2 
0.2 0.2 0.2 0.2 0.2 0.2 0.2 0.2 0.2 
0.2 0.2 0.2 0.2 0.2 0.2 0.2 0.2 0.2 
0.2 0.2 0.2 0.2 0.2 0.2 0.2 0.2 0.2 
0.2 0.2 0.2 0.2 0.2 0.2 0.2 0.2 0.2 
0.2 0.2 0.2 0.2 0.2 0.2 0.2 0.2 0.2 
0.2 0.2 0.2 0.2 0.2 0.2 0.2 0.2 0.2 
0.2 0.2 0.2 0.2 0.2 0.2 0.2 0.2 0.2 
0.2 0.2 0.2 0.2 0.2 0.2 0.2 0.2 0.2 
0.2 0.2 0.2 0.2 0.2 0.2 0.2 0.2 0.2 
0.2 0.2 0.2 0.2 0.2 0.2 0.2 0.2 0.2 
0.2 0.2 0.2 0.2 0.2 0.2 0.2 0.2 0.2 
0.2 0.2 0.2 0.2 0.2 0.2 0.2 0.2 0.2 
0.2 0.2 0.2 0.2 0.2 0.2 0.2 0.2 0.2 
0.2 0.2 0.2 0.2 0.2 0.2 0.2 0.2 0.2 
0.2 0.2 0.2 0.2 0.2 0.2 0.2 0.2 0.2 
0.2 0.2 0.2 0.2 0.2 0.2 0.2 0.2 0.2 
0.2 0.2 0.2 0.2 0.2 0.2 0.2 0.2 0.2 
0.2 0.2 0.2 0.2 0.2 0.2 0.2 0.2 0.2 
0.2 0.2 0.2 0.2 0.2 0.2 0.2 0.2 0.2 
0.2 0.2 0.2 0.2 0.2 0.2 0.2 0.2 0.2 
0.2 0.2 0.2 0.2 0.2 0.2 0.2 0.2 0.2 
0.2 0.2 0.2 0.2 0.2 0.2 0.2 0.2 0.2 
0.2 0.2 0.2 0.2 0.2 0.2 0.2 0.2 0.2 
0.2 0.2 0.2 0.2 0.2 0.2 0.2 0.2 0.2 
0.2 0.2 0.2 0.2 0.2 0.2 0.2 0.2 0.2 
0.2 0.2 0.2 0.2 0.2 0.2 0.2 0.2 0.2 
0.2 0.2 0.2 0.2 0.2 0.2 0.2 0.2 0.2 
0.2 0.2 0.2 0.2 0.2 0.2 0.2 0.2 0.2 
0.2 0.2 0.2 0.2 0.2 0.2 0.2 0.2 0.2 
0.2 0.2 0.2 0.2 0.2 0.2 0.2 0.2 0.2 
0.2 0.2 0.2 0.2 0.2 0.2 0.2 0.2 0.2 
0.2 0.2 0.2 0.2 0.2 0.2 0.2 0.2 0.2 
0.2 0.2 0.2 0.2 0.2 0.2 0.2 0.2 0.2 
0.2 0.2 0.2 0.2 0.2 0.2 0.2 0.2 0.2 
0.2 0.2 0.2 0.2 0.2 0.2 0.2 0.2 0.2 
0.2 0.2 0.2 0.2 0.2 0.2 0.2 0.2 0.2 
0.2 0.2 0.2 0.2 0.2 0.2 0.2 0.2 0.2 
0.2 0.2 0.2 0.2 0.2 0.2 0.2 0.2 0.2 
0.2 0.2 0.2 0.2 0.2 0.2 0.2 0.2 0.2 
0.2 0.2 0.2 0.2 0.2 0.2 0.2 0.2 0.2 
0.2 0.2 0.2 0.2 0.2 0.2 0.2 0.2 0.2 
0.2 0.2 0.2 0.2 0.2 0.2 0.2 0.2 0.2 
0.2 0.2 0.2 0.2 0.2 0.2 0.2 0.2 0.2 
0.2 0.2 0.2 0.2 0.2 0.2 0.2 0.2 0.2 
0.2 0.2 0.2 0.2 0.2 0.2 0.2 0.2 0.2 
0.2 0.2 0.2 0.2 0.2 0.2 0.2 0.2 0.2 
0.2 0.2 0.2 0.2 0.2 0.2 0.2 0.2 0.2 
0.2 0.2 0.2 0.2 0.2 0.2 0.2 0.2 0.2 
0.2 0.2 0.2 0.2 0.2 0.2 0.2 0.2 0.2 
0.2 0.2 0.2 0.2 0.2 0.2 0.2 0.2 0.2 
0.2 0.2 0.2 0.2 0.2 0.2 0.2 0.2 0.2 
0.2 0.2 0.2 0.2 0.2 0.2 0.2 0.2 0.2 
0.2 0.2 0.2 0.2 0.2 0.2 0.2 0.2 0.2 
0.2 0.2 0.2 0.2 0.2 0.2 0.2 0.2 0.2 
0.2 0.2 0.2 0.2 0.2 0.2 0.2 0.2 0.2 
0.2 0.2 0.2 0.2 0.2 0.2 0.2 0.2 0.2 
0.2 0.2 0.2 0.2 0.2 0.2 0.2 0.2 0.2 
0.2 0.2 0.2 0.2 0.2 0.2 0.2 0.2 0.2 
0.2 0.2 0.2 0.2 0.2 0.2 0.2 0.2 0.2 
0.2 0.2 0.2 0.2 0.2 0.2 0.2 0.2 0.2 
0.2 0.2 0.2 0.2 0.2 0.2 0.2 0.2 0.2 
0.2 0.2 0.2 0.2 0.2 0.2 0.2 0.2 0.2 
0.2 0.2 0.2 0.2 0.2 0.2 0.2 0.2 0.2 
0.2 0.2 0.2 0.2 0.2 0.2 0.2 0.2 0.2 
0.2 0.2 0.2 0.2 0.2 0.2 0.2 0.2 0.2 
0.2 0.2 0.2 0.2 0.2 0.2 0.2 0.2 0.2 
0.2 0.2 0.2 0.2 0.2 0.2 0.2 0.2 0.2 
0.2 0.2 0.2 0.2 0.2 0.2 0.2 0.2 0.2 
0.2 0.2 0.2 0.2 0.2 0.2 0.2 0.2 0.2 
0.2 0.2 0.2 0.2 0.2 0.2 0.2 0.2 0.2 
0.2 0.2 0.2 0.2 0.2 0.2 0.2 0.2 0.2 
0.2 0.2 0.2 0.2 0.2 0.2 0.2 0.2 0.2 
0.2 0.2 0.2 0.2 0.2 0.2 0.2 0.2 0.2 
0.2 0.2 0.2 0.2 0.2 0.2 0.2 0.2 0.2 
0.2 0.2 0.2 0.2 0.2 0.2 0.2 0.2 0.2 
0.2 0.2 0.2 0.2 0.2 0.2 0.2 0.2 0.2 
0.2 0.2 0.2 0.2 0.2 0.2 0.2 0.2 0.2 
0.2 0.2 0.2 0.2 0.2 0.2 0.2 0.2 0.2 
0.2 0.2 0.2 0.2 0.2 0.2 0.2 0.2 0.2 
0.2 0.2 0.2 0.2 0.2 0.2 0.2 0.2 0.2 
0.2 0.2 0.2 0.2 0.2 0.2 0.2 0.2 0.2 
0.2 0.2 0.2 0.2 0.2 0.2 0.2 0.2 0.2 
0.2 0.2 0.2 0.2 0.2 0.2 0.2 0.2 0.2 
0.2 0.2 0.2 0.2 0.2 0.2 0.2 0.2 0.2 
0.2 0.2 0.2 0.2 0.2 0.2 0.2 0.2 0.2 
0.2 0.2 0.2 0.2 0.2 0.2 0.2 0.2 0.2 
0.2 0.2 0.2 0.2 0.2 0.2 0.2 0.2 0.2 
0.2 0.2 0.2 0.2 0.2 0.2 0.2 0.2 0.2 
0.2 0.2 0.2 0.2 0.2 0.2 0.2 0.2 0.2 
0.2 0.2 0.2 0.2 0.2 0.2 0.2 0.2 0.2 
0.2 0.2 0.2 0.2 0.2 0.2 0.2 0.2 0.2 
0.2 0.2 0.2 0.2 0.2 0.2 0.2 0.2 0.2 
0.2 0.2 0.2 0.2 0.2 0.2 0.2 0.2 0.2 
0.2 0.2 0.2 0.2 0.2 0.2 0.2 0.2 0.2 
0.2 0.2 0.2 0.2 0.2 0.2 0.2 0.2 0.2 
0.2 0.2 0.2 0.2 0.2 0.2 0.2 0.2 0.2 
0.2 0.2 0.2 0.2 0.2 0.2 0.2 0.2 0.2 
0.2 0.2 0.2 0.2 0.2 0.2 0.2 0.2 0.2 
0.2 0.2 0.2 0.2 0.2 0.2 0.2 0.2 0.2 
0.2 0.2 0.2 0.2 0.2 0.2 0.2 0.2 0.2 
0.2 0.2 0.2 0.2 0.2 0.2 0.2 0.2 0.2 
0.2 0.2 0.2 0.2 0.2 0.2 0.2 0.2 0.2 
0.2 0.2 0.2 0.2 0.2 0.2 0.2 0.2 0.2 
0.2 0.2 0.2 0.2 0.2 0.2 0.2 0.2 0.2 
0.2 0.2 0.2 0.2 0.2 0.2 0.2 0.2 0.2 
0.2 0.2 0.2 0.2 0.2 0.2 0.2 0.2 0.2 
0.2 0.2 0.2 0.2 0.2 0.2 0.2 0.2 0.2 
0.2 0.2 0.2 0.2 0.2 0.2 0.2 0.2 0.2 
0.2 0.2 0.2 0.2 0.2 0.2 0.2 0.2 0.2 
0.2 0.2 0.2 0.2 0.2 0.2 0.2 0.2 0.2 
0.2 0.2 0.2 0.2 0.2 0.2 0.2 0.2 0.2 
0.2 0.2 0.2 0.2 0.2 0.2 0.2 0.2 0.2 
0.2 0.2 0.2 0.2 0.2 0.2 0.2 0.2 0.2 
0.2 0.2 0.2 0.2 0.2 0.2 0.2 0.2 0.2 
0.2 0.2 0.2 0.2 0.2 0.2 0.2 0.2 0.2 
0.2 0.2 0.2 0.2 0.2 
c 1 1049 double
0.1 0.1 0.1 0.1 0.1 0.1 0.1 0.1 0.1 
0.1 0.1 0.1 0.1 0.1 0.1 0.1 0.1 0.1 
0.1 0.1 0.1 0.1 0.1 0.1 0.1 0.1 0.1 
0.1 0.1 0.1 0.1 0.1 0.1 0.1 0.1 0.1 
0.1 0.1 0.1 0.1 0.1 0.1 0.1 0.1 0.1 
0.1 0.1 0.1 0.1 0.1 0.1 0.1 0.1 0.1 
0.1 0.1 0.1 0.1 0.1 0.1 0.1 0.1 0.1 
0.1 0.1 0.1 0.1 0.1 0.1 0.1 0.1 0.1 
0.1 0.1 0.1 0.1 0.1 0.1 0.1 0.1 0.1 
0.1 0.1 0.1 0.1 0.1 0.1 0.1 0.1 0.1 
0.1 0.1 0.1 0.1 0.1 0.1 0.1 0.1 0.1 
0.1 0.1 0.1 0.1 0.1 0.1 0.1 0.1 0.1 
0.1 0.1 0.1 0.1 0.1 0.1 0.1 0.1 0.1 
0.1 0.1 0.1 0.1 0.1 0.1 0.1 0.1 0.1 
0.1 0.1 0.1 0.1 0.1 0.1 0.1 0.1 0.1 
0.1 0.1 0.1 0.1 0.1 0.1 0.1 0.1 0.1 
0.1 0.1 0.1 0.1 0.1 0.1 0.1 0.1 0.1 
0.1 0.1 0.1 0.1 0.1 0.1 0.1 0.1 0.1 
0.1 0.1 0.1 0.1 0.1 0.1 0.1 0.1 0.1 
0.1 0.1 0.1 0.1 0.1 0.1 0.1 0.1 0.1 
0.1 0.1 0.1 0.1 0.1 0.1 0.1 0.1 0.1 
0.1 0.1 0.1 0.1 0.1 0.1 0.1 0.1 0.1 
0.1 0.1 0.1 0.1 0.1 0.1 0.1 0.1 0.1 
0.1 0.1 0.1 0.1 0.1 0.1 0.1 0.1 0.1 
0.1 0.1 0.1 0.1 0.1 0.1 0.1 0.1 0.1 
0.1 0.1 0.1 0.1 0.1 0.1 0.1 0.1 0.1 
0.1 0.1 0.1 0.1 0.1 0.1 0.1 0.1 0.1 
0.1 0.1 0.1 0.1 0.1 0.1 0.1 0.1 0.1 
0.1 0.1 0.1 0.1 0.1 0.1 0.1 0.1 0.1 
0.1 0.1 0.1 0.1 0.1 0.1 0.1 0.1 0.1 
0.1 0.1 0.1 0.1 0.1 0.1 0.1 0.1 0.1 
0.1 0.1 0.1 0.1 0.1 0.1 0.1 0.1 0.1 
0.1 0.1 0.1 0.1 0.1 0.1 0.1 0.1 0.1 
0.1 0.1 0.1 0.1 0.1 0.1 0.1 0.1 0.1 
0.1 0.1 0.1 0.1 0.1 0.1 0.1 0.1 0.1 
0.1 0.1 0.1 0.1 0.1 0.1 0.1 0.1 0.1 
0.1 0.1 0.1 0.1 0.1 0.1 0.1 0.1 0.1 
0.1 0.1 0.1 0.1 0.1 0.1 0.1 0.1 0.1 
0.1 0.1 0.1 0.1 0.1 0.1 0.1 0.1 0.1 
0.1 0.1 0.1 0.1 0.1 0.1 0.1 0.1 0.1 
0.1 0.1 0.1 0.1 0.1 0.1 0.1 0.1 0.1 
0.1 0.1 0.1 0.1 0.1 0.1 0.1 0.1 0.1 
0.1 0.1 0.1 0.1 0.1 0.1 0.1 0.1 0.1 
0.1 0.1 0.1 0.1 0.1 0.1 0.1 0.1 0.1 
0.1 0.1 0.1 0.1 0.1 0.1 0.1 0.1 0.1 
0.1 0.1 0.1 0.1 0.1 0.1 0.1 0.1 0.1 
0.1 0.1 0.1 0.1 0.1 0.1 0.1 0.1 0.1 
0.1 0.1 0.1 0.1 0.1 0.1 0.1 0.1 0.1 
0.1 0.1 0.1 0.1 0.1 0.1 0.1 0.1 0.1 
0.1 0.1 0.1 0.1 0.1 0.1 0.1 0.1 0.1 
0.1 0.1 0.1 0.1 0.1 0.1 0.1 0.1 0.1 
0.1 0.1 0.1 0.1 0.1 0.1 0.1 0.1 0.1 
0.1 0.1 0.1 0.1 0.1 0.1 0.1 0.1 0.1 
0.1 0.1 0.1 0.1 0.1 0.1 0.1 0.1 0.1 
0.1 0.1 0.1 0.1 0.1 0.1 0.1 0.1 0.1 
0.1 0.1 0.1 0.1 0.1 0.1 0.1 0.1 0.1 
0.1 0.1 0.1 0.1 0.1 0.1 0.1 0.1 0.1 
0.1 0.1 0.1 0.1 0.1 0.1 0.1 0.1 0.1 
0.1 0.1 0.1 0.1 0.1 0.1 0.1 0.1 0.1 
0.1 0.1 0.1 0.1 0.1 0.1 0.1 0.1 0.1 
0.1 0.1 0.1 0.1 0.1 0.1 0.1 0.1 0.1 
0.1 0.1 0.1 0.1 0.1 0.1 0.1 0.1 0.1 
0.1 0.1 0.1 0.1 0.1 0.1 0.1 0.1 0.1 
0.1 0.1 0.1 0.1 0.1 0.1 0.1 0.1 0.1 
0.1 0.1 0.1 0.1 0.1 0.1 0.1 0.1 0.1 
0.1 0.1 0.1 0.1 0.1 0.1 0.1 0.1 0.1 
0.1 0.1 0.1 0.1 0.1 0.1 0.1 0.1 0.1 
0.1 0.1 0.1 0.1 0.1 0.1 0.1 0.1 0.1 
0.1 0.1 0.1 0.1 0.1 0.1 0.1 0.1 0.1 
0.1 0.1 0.1 0.1 0.1 0.1 0.1 0.1 0.1 
0.1 0.1 0.1 0.1 0.1 0.1 0.1 0.1 0.1 
0.1 0.1 0.1 0.1 0.1 0.1 0.1 0.1 0.1 
0.1 0.1 0.1 0.1 0.1 0.1 0.1 0.1 0.1 
0.1 0.1 0.1 0.1 0.1 0.1 0.1 0.1 0.1 
0.1 0.1 0.1 0.1 0.1 0.1 0.1 0.1 0.1 
0.1 0.1 0.1 0.1 0.1 0.1 0.1 0.1 0.1 
0.1 0.1 0.1 0.1 0.1 0.1 0.1 0.1 0.1 
0.1 0.1 0.1 0.1 0.1 0.1 0.1 0.1 0.1 
0.1 0.1 0.1 0.1 0.1 0.1 0.1 0.1 0.1 
0.1 0.1 0.1 0.1 0.1 0.1 0.1 0.1 0.1 
0.1 0.1 0.1 0.1 0.1 0.1 0.1 0.1 0.1 
0.1 0.1 0.1 0.1 0.1 0.1 0.1 0.1 0.1 
0.1 0.1 0.1 0.1 0.1 0.1 0.1 0.1 0.1 
0.1 0.1 0.1 0.1 0.1 0.1 0.1 0.1 0.1 
0.1 0.1 0.1 0.1 0.1 0.1 0.1 0.1 0.1 
0.1 0.1 0.1 0.1 0.1 0.1 0.1 0.1 0.1 
0.1 0.1 0.1 0.1 0.1 0.1 0.1 0.1 0.1 
0.1 0.1 0.1 0.1 0.1 0.1 0.1 0.1 0.1 
0.1 0.1 0.1 0.1 0.1 0.1 0.1 0.1 0.1 
0.1 0.1 0.1 0.1 0.1 0.1 0.1 0.1 0.1 
0.1 0.1 0.1 0.1 0.1 0.1 0.1 0.1 0.1 
0.1 0.1 0.1 0.1 0.1 0.1 0.1 0.1 0.1 
0.1 0.1 0.1 0.1 0.1 0.1 0.1 0.1 0.1 
0.1 0.1 0.1 0.1 0.1 0.1 0.1 0.1 0.1 
0.1 0.1 0.1 0.1 0.1 0.1 0.1 0.1 0.1 
0.1 0.1 0.1 0.1 0.1 0.1 0.1 0.1 0.1 
0.1 0.1 0.1 0.1 0.1 0.1 0.1 0.1 0.1 
0.1 0.1 0.1 0.1 0.1 0.1 0.1 0.1 0.1 
0.1 0.1 0.1 0.1 0.1 0.1 0.1 0.1 0.1 
0.1 0.1 0.1 0.1 0.1 0.1 0.1 0.1 0.1 
0.1 0.1 0.1 0.1 0.1 0.1 0.1 0.1 0.1 
0.1 0.1 0.1 0.1 0.1 0.1 0.1 0.1 0.1 
0.1 0.1 0.1 0.1 0.1 0.1 0.1 0.1 0.1 
0.1 0.1 0.1 0.1 0.1 0.1 0.1 0.1 0.1 
0.1 0.1 0.1 0.1 0.1 0.1 0.1 0.1 0.1 
0.1 0.1 0.1 0.1 0.1 0.1 0.1 0.1 0.1 
0.1 0.1 0.1 0.1 0.1 0.1 0.1 0.1 0.1 
0.1 0.1 0.1 0.1 0.1 0.1 0.1 0.1 0.1 
0.1 0.1 0.1 0.1 0.1 0.1 0.1 0.1 0.1 
0.1 0.1 0.1 0.1 0.1 0.1 0.1 0.1 0.1 
0.1 0.1 0.1 0.1 0.1 0.1 0.1 0.1 0.1 
0.1 0.1 0.1 0.1 0.1 0.1 0.1 0.1 0.1 
0.1 0.1 0.1 0.1 0.1 0.1 0.1 0.1 0.1 
0.1 0.1 0.1 0.1 0.1 0.1 0.1 0.1 0.1 
0.1 0.1 0.1 0.1 0.1 0.1 0.1 0.1 0.1 
0.1 0.1 0.1 0.1 0.1 0.1 0.1 0.1 0.1 
0.1 0.1 0.1 0.1 0.1 
m 1 1049 double
76.33 94.295 84.655 91.315 69.85 91.415 83.88 93.885 61.625 
97.585 62.64 92.105 65.975 56.755 95.485 91.99 84.935 65.745 
75.77 62.455 90.92 73.95 53.195 84.075 89.775 88.325 92.83 
56.77 90.795 76.76 65.415 53.87 88.61 99.255 63.205 95.63 
56.49 79.28 69.45 60.985 91.91 97.965 98.36 51.995 54.265 
59.26 58.915 68.31 53.285 94.14 95.075 82.91 63.675 71.55 
75.995 58.805 80.435 51.54 82.95 77.555 77.105 62.775 54.64 
86.39 64.785 52.64 65.86 80.635 50.185 57.705 75 79.025 
81.82 83.255 65.345 54.985 64.86 59.25 54.55 85.085 50.495 
73.465 81.085 61.965 72.85 60.355 61.75 69.135 93.285 71.125 
54.44 92.885 83.05 55.865 86.67 77.41 67.685 83.105 50.04 
62.195 86.4 59.44 88.58 86.805 96.67 86.865 81.145 90.21 
74.595 72.105 56.63 63.77 96.915 59.805 71.295 71.85 91.575 
92.685 75.99 68.92 71.62 67.63 54.43 82.065 80.455 63.885 
94.9 84.98 84.31 86.405 59.365 99.78 95.85 54.625 85.42 
61.525 51.68 81.635 66.01 94.72 56.565 84.575 91.01 67.53 
82.525 58.645 54.23 79.285 69.475 80.62 97.91 52.725 70.215 
66.835 51.82 77.17 94.07 68.75 85.89 55.435 84.04 86.38 
63.255 63.77 67.92 78.94 77.015 61.995 98.38 66.84 99.66 
75.3 50.06 58.41 76.7 92.93 88.965 88.695 64.145 81.13 
91.95 90.47 52.85 87.695 57.17 53.975 87.335 51.89 50.485 
64.51 83.005 83.26 86.505 66.585 52.46 53.78 69.325 97.205 
71.43 98.445 51.4 83.095 92.2 73.645 92.22 90.155 94.935 
91.675 90.585 78.855 72.405 91.69 77.165 89.44 90.485 53.375 
89.28 94.635 53.545 72.835 76.53 84.825 61.765 72.93 97.485 
64.355 93.12 81.095 57.64 73.415 97.515 91.35 50.095 94.145 
78.66 81.7 90.745 98.54 83.575 66.84 68.09 67.295 63.09 
55.5 88.98 76.93 61.225 78.645 64.23 53.615 67.255 67.775 
88.82 87.44 61.895 64.605 99.205 91.14 52.46 96.84 91.705 
67.185 75.965 83.245 56.345 61.75 94.88 88.82 57.5 74.57 
84.935 50.62 85.17 82.455 68.715 91.825 79.28 61.135 99.295 
59.68 57.105 62.755 57.16 97.835 53.065 66.025 62.52 88.105 
54.34 83.92 64.21 60.105 97.64 89.94 61.46 78.975 65.72 
53.715 88.205 81.775 80.945 61.37 83.1 56.165 65.37 56.94 
90.125 97.19 67.14 82.53 93.81 66.375 96.14 57.37 82.185 
77.035 59.965 79.42 90.71 77.895 59.3 54.355 74.925 94.36 
99.54 99.79 75.945 52.49 76.835 84.745 89.855 51.445 76.19 
97.395 50.45 94.845 72.06 98.05 68.405 51.79 67.465 90.785 
51.35 94.29 71.975 80.605 56.185 80.145 76.365 94.25 73.845 
86.275 58.88 72.76 94.04 88.765 81.24 90.18 66.515 65.885 
82.145 64.5 76.715 81.675 91.775 67.56 59.43 56.56 96.07 
91.815 67.085 53.495 77.845 59.195 82.225 68.965 79.09 80.715 
72.14 91.175 88.66 90.02 79.97 51.895 55.775 58.24 98.77 
66.665 64.45 60.665 78.145 54.82 91.425 50.245 52.52 54.285 
98.155 93.135 92.965 95.4 63.11 82.155 93.97 65.865 99.235 
62.02 55.055 97.645 93.88 79.64 91.045 62.95 94.095 96.68 
92.905 87.835 97.645 58.73 72.5 51.84 80.635 60.67 71.695 
58.46 61.075 61.45 63.235 95.255 94.73 84.85 71.46 96.95 
78.955 83.41 87.31 94.77 73.065 72.215 93.03 72.69 78.815 
80.95 69.49 61.49 52.62 53.565 81.245 68.94 90.23 84.95 
98.985 80.795 88.235 62.675 75.755 92.69 82.76 74.97 67.645 
74.58 77.89 57.605 75.285 75.575 80.785 92.87 75.64 74.09 
84.2 53.44 64.52 76.925 56.11 83.2 80.21 96.495 51.265 
66.515 62.485 76.815 65.165 52.14 60.01 53.405 82.015 72.5 
63.63 81.56 86.93 71.73 75.5 64.755 57.455 59.735 96.155 
75.105 54.76 89.585 84.98 66.62 99.585 86.845 59.86 88.36 
69.25 96.46 88.125 95.625 74.46 55.76 88.43 69.98 61.81 
95.94 77.18 68.645 62.3 79.875 95.785 67.07 50.135 69.605 
81.52 52.3 93.45 50.14 90.25 87.78 90.135 83.74 94.51 
73.97 88.485 93.495 55.195 55.215 52.845 50.295 67.705 61.305 
71.16 69.13 51.8 83.805 95.585 50.405 90.115 80.21 88.815 
65.95 81.545 94.98 77.125 69.63 53.45 73.385 58.13 72.62 
71.17 81.835 65.84 80.285 98.07 91.025 51.79 88.85 52.7 
52.085 72.83 84.28 86.42 61.3 86.025 51.185 79.245 65.295 
53.03 67.13 92.59 76.085 74.725 53.915 95.86 84.365 54.365 
52.415 88.185 92.29 71.445 72.355 96.57 83.035 63.785 52.39 
78.68 65.345 92.06 60.915 77.495 92.45 97.35 88.715 56.98 
70.405 50.42 86.345 78.15 83.625 77.95 87.525 98.86 78.22 
87.8 83.29 96.12 69.75 62.11 76.055 89.09 69.6 50.635 
76.18 76.84 56.22 62.835 52.815 50.245 75.525 86.875 99.67 
93.555 66.455 59.025 68.84 94.775 67.945 68.07 94.965 84.91 
74.11 84.41 74.59 64.025 83.585 54.625 65.465 57.87 96.455 
70.15 82.145 70.09 83.55 81.64 84.18 85.45 86.085 84.815 
69.29 75.275 74.52 56.965 90.65 63.305 92.855 92.28 84.255 
98.165 73.945 65.365 98.425 63.02 96.25 89.34 82.515 97.425 
99.025 73.195 64.745 95.03 78.91 67.58 55.405 76.625 87.58 
60.975 54.835 88.385 51.13 55.6 83.815 69.905 52.98 87.8 
54.325 95.18 88.85 89.775 96.055 67.59 81.71 62.66 61.895 
86.605 75.98 91.35 72.135 70.86 71.17 60.2 74.92 86.99 
79.15 55.315 86.415 50.36 84.75 51.735 52.865 68.57 60.15 
70.235 75.41 84.62 80.295 87.61 64.77 56.16 96.02 52.215 
97.175 78.2 77.43 95.795 59.49 71.39 96.31 55.205 98.415 
51.31 99.24 83.64 95.61 78.985 58.615 69.795 90.835 81.36 
91.62 64.03 70.77 86.675 79.105 87.285 96.825 58.88 55.855 
63.735 76.09 51.345 93.505 54.535 58.515 73.265 99.665 57.65 
68.7 70.15 52.685 75.27 64.31 70.49 90.695 64.77 88.345 
98.93 75.615 55.635 58.525 95.75 81.14 79.92 57.43 51.265 
50.63 82.965 52.715 65.01 77.02 61.155 80.695 58.98 63.49 
56.54 85.42 93.6 76.67 92.71 92.32 97.535 50.985 90.41 
78.335 79.695 99.055 99.52 69.7 65.37 89.07 73.565 91.885 
90.895 69.85 95.105 72.9 61.69 96.09 63.575 54.955 81.88 
94.49 55.26 93.055 81.74 96.775 68.11 94.02 88.605 56.275 
74.095 72.995 76.605 85.44 78.875 64.595 73.81 78.55 74.06 
76.895 99.31 63.425 74.885 57.795 62.53 90.945 75.855 70.05 
89.14 86.715 77.84 96.495 78.73 86.86 88.565 91.03 87.935 
96.505 55.085 51.47 83.66 51.175 51.73 67.415 96.035 99.52 
57.68 70.88 65.675 69.05 71.7 88.025 66.555 77.11 81.71 
61.68 58.295 76.05 60.045 75.765 78.455 55.685 62.865 69.715 
74.285 99.555 98.72 98.795 67.495 55.68 56.8 70.335 88.215 
98.09 51.685 56.525 59.005 74.39 68.65 78.305 84.435 60.86 
69.645 97.06 66.74 95.535 95.895 92.09 98.78 87.225 88.42 
79.68 66.88 60.45 77.71 82.33 75.42 64.63 55.475 56.7 
64.065 64.795 85.95 98.34 68.865 64.98 50.815 89.905 85.995 
94.495 74.65 94.665 99.01 93.3 79.47 69.405 50.355 87.34 
54.865 85.655 67.26 96.895 59.495 77.75 60.18 78.12 60.31 
64.62 63 88.185 66.29 67.08 67.325 83.54 91.41 92.61 
93.68 93.13 97.22 96.6 91.12 82.695 70.11 95.08 65.545 
75.265 90.545 66.89 75.405 50 90.335 95.57 56.69 79.945 
97.13 83.935 75.735 61.155 82.66 76.115 69.375 74.25 56.405 
50.895 60.61 82.95 69.065 61.27 76.75 55.655 95.905 89.285 
73.015 57.47 80.405 78.6 62.165 89.91 50.905 87.435 93.61 
97.075 94.125 96.48 77.02 51.485 95.67 50.16 52.755 84.46 
52.075 65.905 85.285 98.54 92.53 61.485 87.415 52.975 59.81 
99.995 75.055 78.88 56.545 50.77 94.885 62.935 99.66 66.91 
75.105 71.33 68.41 88.425 67.815 96.055 94.3 54.65 72.915 
79.95 71.425 95.43 86.57 59.46 70.58 79.1 57.38 87.45 
87.625 77.64 94.195 87.625 65.29 
p0 3 1049 double
0 -10 0 0 -10 0 0 -10 0 
0 -10 0 0 -10 0 0 -10 0 
0 -10 0 0 -10 0 0 -10 0 
0 -10 0 0 -10 0 0 -10 0 
0 -10 0 0 -10 0 0 -10 0 
0 -10 0 0 -10 0 0 -10 0 
0 -10 0 0 -10 0 0 -10 0 
0 -10 0 0 -10 0 0 -10 0 
0 -10 0 0 -10 0 0 -10 0 
0 -10 0 0 -10 0 0 -10 0 
0 -10 0 0 -10 0 0 -10 0 
0 -10 0 0 -10 0 0 -10 0 
0 -10 0 0 -10 0 0 -10 0 
0 -10 0 0 -10 0 0 -10 0 
0 -10 0 0 -10 0 0 -10 0 
0 -10 0 0 -10 0 0 -10 0 
0 -10 0 0 -10 0 0 -10 0 
0 -10 0 0 -10 0 0 -10 0 
0 -10 0 0 -10 0 0 -10 0 
0 -10 0 0 -10 0 0 -10 0 
0 -10 0 0 -10 0 0 -10 0 
0 -10 0 0 -10 0 0 -10 0 
0 -10 0 0 -10 0 0 -10 0 
0 -10 0 0 -10 0 0 -10 0 
0 -10 0 0 -10 0 0 -10 0 
0 -10 0 0 -10 0 0 -10 0 
0 -10 0 0 -10 0 0 -10 0 
0 -10 0 0 -10 0 0 -10 0 
0 -10 0 0 -10 0 0 -10 0 
0 -10 0 0 -10 0 0 -10 0 
0 -10 0 0 -10 0 0 -10 0 
0 -10 0 0 -10 0 0 -10 0 
0 -10 0 0 -10 0 0 -10 0 
0 -10 0 0 -10 0 0 -10 0 
0 -10 0 0 -10 0 0 -10 0 
0 0 0 0 0 0 0 0 0 
0 0 0 0 0 0 0 0 0 
0 0 0 0 0 0 0 0 0 
0 0 0 0 0 0 0 0 0 
0 0 0 0 0 0 0 0 0 
0 0 0 0 0 0 0 0 0 
0 0 0 0 0 0 0 0 0 
0 0 0 0 0 0 0 0 0 
0 0 0 0 0 0 0 0 0 
0 0 0 0 0 0 0 0 0 
0 0 0 0 0 0 0 0 0 
0 0 0 0 0 0 0 0 0 
0 0 0 0 0 0 0 0 0 
0 0 0 0 0 0 0 0 0 
0 0 0 0 0 0 0 0 0 
0 0 0 0 0 0 0 0 0 
0 0 0 0 0 0 0 0 0 
0 0 0 0 0 0 0 0 0 
0 0 0 0 0 0 0 0 0 
0 0 0 0 0 0 0 0 0 
0 0 0 0 0 0 0 0 0 
0 0 0 0 0 0 0 0 0 
0 0 0 0 0 0 0 0 0 
0 0 0 0 0 0 0 0 0 
0 0 0 0 0 0 0 0 0 
0 0 0 0 0 0 0 0 0 
0 0 0 0 0 0 0 0 0 
0 0 0 0 0 0 0 0 0 
0 0 0 0 0 0 0 0 0 
0 0 0 0 0 0 0 0 0 
0 0 0 0 0 0 0 0 0 
0 0 0 0 0 0 0 0 0 
0 0 0 0 0 0 0 0 0 
0 0 0 0 0 0 0 0 0 
0 0 0 0 0 0 0 0 0 
0 0 0 0 0 0 0 0 0 
0 0 0 0 0 0 0 0 0 
0 0 0 0 0 0 0 0 0 
0 0 0 0 0 0 0 0 0 
0 0 0 0 0 0 0 0 0 
0 0 0 0 0 0 0 0 0 
0 0 0 0 0 0 0 0 0 
0 0 0 0 0 0 0 0 0 
0 0 0 0 0 0 0 0 0 
0 0 0 0 0 0 0 0 0 
0 0 0 0 0 0 0 0 0 
0 0 0 0 0 0 0 0 0 
0 0 0 0 0 0 0 0 0 
0 0 0 0 0 0 0 0 0 
0 0 0 0 0 0 0 0 0 
0 0 0 0 0 0 0 0 0 
0 0 0 12 0 0 12 0 0 
12 0 0 0 0 0 0 0 0 
12 0 0 0 0 0 12 0 0 
0 0 0 0 0 0 0 0 0 
0 0 0 0 0 0 0 0 0 
0 0 0 0 0 0 0 0 0 
0 0 0 0 0 0 0 0 0 
0 0 0 0 0 0 0 0 0 
0 0 0 0 0 0 0 0 0 
0 0 0 0 0 0 0 0 0 
0 0 0 0 0 0 0 0 0 
0 0 0 0 0 0 0 0 0 
0 0 0 0 0 0 0 0 0 
0 0 0 0 0 0 0 0 0 
0 0 0 0 0 0 0 0 0 
0 0 0 0 0 0 0 0 0 
0 0 0 0 0 0 12 0 0 
12 0 0 12 0 0 0 0 0 
0 0 0 0 0 0 0 0 0 
0 0 0 0 0 0 0 0 0 
0 0 0 0 0 0 0 0 0 
-12 0 0 -12 0 0 0 0 0 
0 0 0 0 0 0 0 0 0 
0 0 0 0 0 0 0 0 0 
0 0 0 0 0 0 0 0 0 
0 0 0 0 0 0 0 0 0 
0 0 0 0 0 0 0 0 0 
0 0 0 0 0 0 0 0 0 
0 0 0 0 0 0 0 0 0 
0 0 0 0 0 0 0 0 0 
0 0 0 0 0 0 0 0 0 
0 0 0 0 0 0 -12 0 0 
0 0 0 0 0 0 0 0 0 
0 0 0 0 0 0 0 0 0 
0 0 0 0 0 0 0 0 0 
0 0 0 0 0 0 0 0 0 
0 0 0 0 0 0 0 0 0 
0 0 0 0 0 0 0 0 0 
0 0 0 0 0 0 12 0 0 
0 0 0 0 0 0 0 0 0 
0 0 0 0 0 0 0 0 0 
0 0 0 0 0 0 0 0 0 
0 0 0 0 0 0 0 0 0 
0 0 0 0 0 0 0 0 0 
0 0 0 0 0 0 0 0 0 
0 0 0 0 0 0 0 0 0 
0 0 0 0 0 0 0 0 0 
0 0 0 0 0 0 0 0 0 
0 0 0 0 0 0 0 0 0 
0 0 0 0 0 0 0 0 0 
0 0 0 0 0 0 0 0 0 
0 0 0 0 0 0 0 0 0 
0 0 0 0 0 0 0 0 0 
0 0 0 0 0 0 0 0 0 
0 0 0 0 0 0 0 0 0 
0 0 0 0 0 0 0 0 0 
0 0 0 0 0 0 0 0 0 
0 0 0 0 0 0 0 0 0 
0 0 0 0 0 0 0 0 0 
12 0 0 0 0 0 0 0 0 
0 0 0 0 0 0 0 0 0 
0 0 0 0 0 0 0 0 0 
0 0 0 0 0 0 0 0 0 
0 0 0 0 0 0 0 0 0 
0 0 0 0 0 0 0 0 0 
0 0 0 0 0 0 0 0 0 
0 0 0 0 0 0 0 0 0 
0 0 0 0 0 0 0 0 0 
0 0 0 0 0 0 0 0 0 
0 0 0 0 0 0 0 0 0 
0 0 0 0 0 0 0 0 0 
0 0 0 0 0 0 0 0 0 
0 0 0 0 0 0 0 0 0 
0 0 0 0 0 0 0 0 0 
0 0 0 0 0 0 0 0 0 
0 0 0 0 0 0 0 0 0 
0 0 0 0 0 0 0 0 0 
0 0 0 0 0 0 0 0 0 
0 0 0 0 0 0 0 0 0 
0 0 0 12 0 0 0 0 0 
0 0 0 0 0 0 0 0 0 
0 0 0 0 0 0 0 0 0 
0 0 0 0 0 0 0 0 0 
0 0 0 0 0 0 0 0 0 
0 0 0 0 0 0 0 0 0 
0 0 0 0 0 0 0 0 0 
0 0 0 0 0 0 0 0 0 
0 0 0 0 0 0 0 0 0 
0 0 0 0 0 0 0 0 0 
0 0 0 0 0 0 0 0 0 
0 0 0 0 0 0 0 0 0 
0 0 0 0 0 0 0 0 0 
0 0 0 0 0 0 0 0 0 
0 0 0 0 0 0 0 0 0 
0 0 0 0 0 0 0 0 0 
0 0 0 0 0 0 0 0 0 
0 0 0 0 0 0 0 0 0 
0 0 0 0 0 0 0 0 0 
0 0 0 0 0 0 0 0 0 
0 0 0 0 0 0 0 0 0 
0 0 0 0 0 0 0 0 0 
0 0 0 0 0 0 0 0 0 
0 0 0 0 0 0 0 0 0 
0 0 0 0 0 0 0 0 0 
0 0 0 0 0 0 0 0 0 
0 0 0 0 0 0 0 0 0 
0 0 0 0 0 0 0 0 0 
0 0 0 0 0 0 0 0 0 
0 0 0 0 0 0 0 0 0 
0 0 0 0 0 0 0 0 0 
0 0 0 0 0 0 0 0 0 
0 0 0 0 0 0 0 0 0 
0 0 0 0 0 0 12 0 0 
0 0 0 0 0 0 0 0 0 
0 0 0 0 0 0 0 0 0 
0 0 0 0 0 0 0 0 0 
0 0 0 0 0 0 0 0 0 
0 0 0 0 0 0 0 0 0 
0 0 0 0 0 0 0 0 0 
0 0 0 0 0 0 0 0 0 
0 0 0 0 0 0 0 0 0 
0 0 0 0 0 0 0 0 0 
0 0 0 0 0 0 0 0 0 
0 0 0 0 0 0 0 0 0 
0 0 0 0 0 0 0 0 0 
0 0 0 0 0 0 0 0 0 
0 0 0 0 0 0 0 0 0 
0 0 0 0 0 0 0 0 0 
0 0 0 0 0 0 0 0 0 
0 0 0 0 0 0 0 0 0 
0 0 0 0 0 0 0 0 0 
0 0 0 0 0 0 0 0 0 
0 0 0 0 0 0 0 0 0 
0 0 0 0 0 0 0 0 0 
0 0 0 0 0 0 0 0 0 
0 0 0 0 0 0 0 0 0 
0 0 0 0 0 0 0 0 0 
0 0 0 0 0 0 0 0 0 
0 0 0 0 0 0 0 0 0 
0 0 0 0 0 0 0 0 0 
0 0 0 0 0 0 0 0 0 
0 0 0 0 0 0 0 0 0 
0 0 0 0 0 0 0 0 0 
0 0 0 0 0 0 0 0 0 
0 0 0 0 0 0 0 0 0 
0 0 0 0 0 0 0 0 0 
0 0 0 0 0 0 0 0 0 
0 0 0 0 0 0 0 0 0 
0 0 0 0 0 0 0 0 0 
0 0 0 0 0 0 0 0 0 
0 0 0 0 0 0 0 0 0 
0 0 0 0 0 0 0 0 0 
0 0 0 0 0 0 0 0 0 
0 0 0 0 0 0 0 0 0 
0 0 0 0 0 0 0 0 0 
0 0 0 0 0 0 0 0 0 
0 0 0 0 0 0 0 0 0 
0 0 0 0 0 0 0 0 0 
0 0 0 0 0 0 0 0 0 
0 0 0 0 0 0 0 0 0 
0 0 0 0 0 0 0 0 0 
0 0 0 0 0 0 0 0 0 
0 0 0 0 0 0 0 0 0 
0 0 0 0 0 0 0 0 0 
0 0 0 0 0 0 0 0 0 
0 0 0 0 0 0 0 0 0 
0 0 0 0 0 0 0 0 0 
0 0 0 0 0 0 0 0 0 
0 0 0 0 0 0 0 0 0 
0 0 0 0 0 0 0 0 0 
0 0 0 0 0 0 0 0 0 
0 0 0 0 0 0 0 0 0 
0 0 0 0 0 0 0 0 0 
0 0 0 0 0 0 0 0 0 
0 0 0 0 0 0 0 0 0 
0 0 0 0 0 0 0 0 0 
0 0 0 0 0 0 0 0 0 
0 0 0 0 0 0 0 0 0 
0 0 0 0 0 0 0 0 0 
0 0 0 0 0 0 0 0 0 
0 0 0 0 0 0 0 0 0 
0 0 0 0 0 0 0 0 0 
0 0 0 0 0 0 0 0 0 
0 0 0 0 0 0 0 0 0 
0 0 0 0 0 0 0 0 0 
0 0 0 0 0 0 0 0 0 
0 0 0 0 0 0 0 0 0 
0 0 0 0 0 0 0 0 0 
0 0 0 0 0 0 0 0 0 
0 0 0 0 0 0 0 0 0 
0 0 0 0 0 0 0 0 0 
0 0 0 0 0 0 0 0 0 
0 0 0 0 0 0 0 0 0 
0 0 0 0 0 0 0 0 0 
0 0 0 0 0 0 0 0 0 
0 0 0 0 0 0 0 0 0 
0 0 0 0 0 0 0 0 0 
0 0 0 0 0 0 0 0 0 
0 0 0 0 0 0 0 0 0 
0 0 0 0 0 0 0 0 0 
0 0 0 0 0 0 0 0 0 
0 0 0 0 0 0 0 0 0 
0 0 0 0 0 0 0 0 0 
0 0 0 0 0 0 0 0 0 
0 0 0 0 0 0 0 0 0 
0 0 0 0 0 0 0 0 0 
0 0 0 0 0 0 0 0 0 
0 0 0 0 0 0 0 0 0 
0 0 0 0 0 0 0 0 0 
0 0 0 0 0 0 0 0 0 
0 0 0 0 0 0 0 0 0 
0 0 0 0 0 0 0 0 0 
0 0 0 0 0 0 0 0 0 
0 0 0 0 0 0 0 0 0 
0 0 0 0 0 0 0 0 0 
0 0 0 0 0 0 0 0 0 
0 0 0 0 0 0 0 0 0 
0 0 0 0 0 0 0 0 0 
0 0 0 0 0 0 0 0 0 
0 0 0 0 0 0 0 0 0 
0 0 0 0 0 0 0 0 0 
0 0 0 0 0 0 0 0 0 
0 0 0 0 0 0 0 0 0 
0 0 0 0 0 0 0 0 0 
0 0 0 0 0 0 0 0 0 
0 0 0 0 0 0 0 0 0 
0 0 0 0 0 0 0 0 0 
0 0 0 0 0 0 0 0 0 
0 0 0 0 0 0 0 0 0 
0 0 0 0 0 0 0 0 0 
0 0 0 0 0 0 0 0 0 
0 0 0 0 0 0 0 0 0 
0 0 0 0 0 0 0 0 0 
0 0 0 0 0 0 0 0 0 
0 0 0 0 0 0 0 0 0 
0 0 0 0 0 0 0 0 0 
0 0 0 0 0 0 0 0 0 
0 0 0 0 0 0 0 0 0 
0 0 0 0 0 0 0 0 0 
0 0 0 0 0 0 0 0 0 
0 0 0 0 0 0 0 0 0 
0 0 0 0 0 0 0 0 0 
0 0 0 0 0 0 0 0 0 
0 0 0 0 0 0 0 0 0 
0 0 0 0 0 0 0 0 0 
0 0 0 0 0 0 0 0 0 
0 0 0 0 0 0 0 0 0 
0 0 0 0 0 0 0 0 0 
0 0 0 0 0 0 0 0 0 
0 0 0 0 0 0 0 0 0 
0 0 0 0 0 0 0 0 0 
0 0 0 0 0 0 0 0 0 
0 0 0 0 0 0 0 0 0 
0 0 0 0 0 0 0 0 0 
0 0 0 0 0 0 0 0 0 
0 0 0 0 0 0 0 0 0 
0 0 0 0 0 0 0 0 0 
0 0 0 0 0 0 0 0 0 
0 0 0 0 0 0 0 0 0 
0 0 0 0 0 0 0 0 0 
0 0 0 0 0 0 0 0 0 
0 0 0 0 0 0 0 0 0 
0 0 0 0 0 0 0 0 0 
0 0 0 0 0 0 
v0 1 1049 double
3.7348 3.5098 3.1534 3.5598 2.798 2.959 2.2234 3.3932 3.5868 
3.1552 3.7604 3.3376 3.908 3.4418 3.7132 3.5394 3.8026 2.9072 
2.2246 3.6894 2.7868 2.9892 2.5998 3.6034 2.5562 3.4388 3.7386 
3.6802 3.7722 3.3968 3.4142 2.8894 2.9348 3.447 3.9438 3.5338 
3.4192 3.9752 3.1134 2.105 2.9862 2.726 3.938 3.7004 3.9802 
3.7164 3.7956 2.7364 2.087 2.7598 3.358 3.2294 3.0734 2.2178 
2.6972 2.8228 3.2554 3.4416 3.5126 2.9518 3.4702 3.8484 3.991 
2.5702 3.3948 3.3812 3.2458 2.227 2.3004 2.8832 2.5352 3.219 
2.192 2.5666 3.4072 2.8338 2.6856 2.325 2.0254 2.9892 2.0272 
3.236 3.8554 3.3678 3.5612 3.8268 3.053 2.5952 3.4754 2.7916 
3.2878 3.514 3.852 2.5898 3.18 2.2866 2.9256 3.1832 2.9022 
2.4594 2.1178 2.6632 2.0104 3.2768 2.264 0 0 0 
0 0 0 0 0 0 0 0 0 
0 0 0 0 0 0 0 0 0 
0 0 0 0 0 0 0 0 0 
0 0 0 0 0 0 0 0 0 
0 0 0 0 0 0 0 0 0 
0 0 0 0 0 0 0 0 0 
0 0 0 0 0 0 0 0 0 
0 0 0 0 0 0 0 0 0 
0 0 0 0 0 0 0 0 0 
0 0 0 0 0 0 0 0 0 
0 0 0 0 0 0 0 0 0 
0 0 0 0 0 0 0 0 0 
0 0 0 0 0 0 0 0 0 
0 0 0 0 0 0 0 0 0 
0 0 0 0 0 0 0 0 0 
0 0 0 0 0 0 0 0 0 
0 0 0 0 0 0 0 2.0424 2.7532 
3.075 0 0 2.4322 0 2.5972 0 0 0 
0 0 0 0 0 0 0 0 0 
0 0 0 0 0 0 0 0 0 
0 0 0 0 0 0 0 0 0 
0 0 0 0 0 0 0 0 0 
0 0 2.79 2.0302 2.6138 0 0 0 0 
0 0 0 0 0 0 2.1056 2.5992 0 
0 0 0 0 0 0 0 0 0 
0 0 0 0 0 0 0 0 0 
0 0 0 0 0 0 0 0 0 
0 0 2.6016 0 0 0 0 0 0 
0 0 0 0 0 0 0 0 0 
0 0 0 0 0 2.2322 0 0 0 
0 0 0 0 0 0 0 0 0 
0 0 0 0 0 0 0 0 0 
0 0 0 0 0 0 0 0 0 
0 0 0 0 0 0 0 0 0 
0 0 0 0 0 0 0 0 0 
0 0 0 0 0 0 0 0 0 
0 0 0 2.1262 0 0 0 0 0 
0 0 0 0 0 0 0 0 0 
0 0 0 0 0 0 0 0 0 
0 0 0 0 0 0 0 0 0 
0 0 0 0 0 0 0 0 0 
0 0 0 0 0 0 0 0 0 
0 0 0 0 0 0 0 0 0 
0 2.0074 0 0 0 0 0 0 0 
0 0 0 0 0 0 0 0 0 
0 0 0 0 0 0 0 0 0 
0 0 0 0 0 0 0 0 0 
0 0 0 0 0 0 0 0 0 
0 0 0 0 0 0 0 0 0 
0 0 0 0 0 0 0 0 0 
0 0 0 0 0 0 0 0 0 
0 0 0 0 0 0 0 0 0 
0 0 0 0 0 0 0 0 0 
0 0 0 0 0 0 0 0 0 
0 0 2.1126 0 0 0 0 0 0 
0 0 0 0 0 0 0 0 0 
0 0 0 0 0 0 0 0 0 
0 0 0 0 0 0 0 0 0 
0 0 0 0 0 0 0 0 0 
0 0 0 0 0 0 0 0 0 
0 0 0 0 0 0 0 0 0 
0 0 0 0 0 0 0 0 0 
0 0 0 0 0 0 0 0 0 
0 0 0 0 0 0 0 0 0 
0 0 0 0 0 0 0 0 0 
0 0 0 0 0 0 0 0 0 
0 0 0 0 0 0 0 0 0 
0 0 0 0 0 0 0 0 0 
0 0 0 0 0 0 0 0 0 
0 0 0 0 0 0 0 0 0 
0 0 0 0 0 0 0 0 0 
0 0 0 0 0 0 0 0 0 
0 0 0 0 0 0 0 0 0 
0 0 0 0 0 0 0 0 0 
0 0 0 0 0 0 0 0 0 
0 0 0 0 0 0 0 0 0 
0 0 0 0 0 0 0 0 0 
0 0 0 0 0 0 0 0 0 
0 0 0 0 0 0 0 0 0 
0 0 0 0 0 0 0 0 0 
0 0 0 0 0 0 0 0 0 
0 0 0 0 0 0 0 0 0 
0 0 0 0 0 0 0 0 0 
0 0 0 0 0 0 0 0 0 
0 0 0 0 0 0 0 0 0 
0 0 0 0 0 0 0 0 0 
0 0 0 0 0 0 0 0 0 
0 0 0 0 0 0 0 0 0 
0 0 0 0 0 0 0 0 0 
0 0 0 0 0 0 0 0 0 
0 0 0 0 0 0 0 0 0 
0 0 0 0 0 0 0 0 0 
0 0 0 0 0 0 0 0 0 
0 0 0 0 0 0 0 0 0 
0 0 0 0 0 0 0 0 0 
0 0 0 0 0 0 0 0 0 
0 0 0 0 0 0 0 0 0 
0 0 0 0 0 0 0 0 0 
0 0 0 0 0 0 0 0 0 
0 0 0 0 0 0 0 0 0 
0 0 0 0 0 0 0 0 0 
0 0 0 0 0 0 0 0 0 
0 0 0 0 0 0 0 0 0 
0 0 0 0 0 0 0 0 0 
0 0 0 0 0 
tau 1 1049 double
2 2 2 2 2 2 2 2 2 
2 2 2 2 2 2 2 2 2 
2 2 2 2 2 2 2 2 2 
2 2 2 2 2 2 2 2 2 
2 2 2 2 2 2 2 2 2 
2 2 2 2 2 2 2 2 2 
2 2 2 2 2 2 2 2 2 
2 2 2 2 2 2 2 2 2 
2 2 2 2 2 2 2 2 2 
2 2 2 2 2 2 2 2 2 
2 2 2 2 2 2 2 2 2 
2 2 2 2 2 2 2 2 2 
2 2 2 2 2 2 2 2 2 
2 2 2 2 2 2 2 2 2 
2 2 2 2 2 2 2 2 2 
2 2 2 2 2 2 2 2 2 
2 2 2 2 2 2 2 2 2 
2 2 2 2 2 2 2 2 2 
2 2 2 2 2 2 2 2 2 
2 2 2 2 2 2 2 2 2 
2 2 2 2 2 2 2 2 2 
2 2 2 2 2 2 2 2 2 
2 2 2 2 2 2 2 2 2 
2 2 2 2 2 2 2 2 2 
2 2 2 2 2 2 2 2 2 
2 2 2 2 2 2 2 2 2 
2 2 2 2 2 2 2 2 2 
2 2 2 2 2 2 2 2 2 
2 2 2 2 2 2 2 2 2 
2 2 2 2 2 2 2 2 2 
2 2 2 2 2 2 2 2 2 
2 2 2 2 2 2 2 2 2 
2 2 2 2 2 2 2 2 2 
2 2 2 2 2 2 2 2 2 
2 2 2 2 2 2 2 2 2 
2 2 2 2 2 2 2 2 2 
2 2 2 2 2 2 2 2 2 
2 2 2 2 2 2 2 2 2 
2 2 2 2 2 2 2 2 2 
2 2 2 2 2 2 2 2 2 
2 2 2 2 2 2 2 2 2 
2 2 2 2 2 2 2 2 2 
2 2 2 2 2 2 2 2 2 
2 2 2 2 2 2 2 2 2 
2 2 2 2 2 2 2 2 2 
2 2 2 2 2 2 2 2 2 
2 2 2 2 2 2 2 2 2 
2 2 2 2 2 2 2 2 2 
2 2 2 2 2 2 2 2 2 
2 2 2 2 2 2 2 2 2 
2 2 2 2 2 2 2 2 2 
2 2 2 2 2 2 2 2 2 
2 2 2 2 2 2 2 2 2 
2 2 2 2 2 2 2 2 2 
2 2 2 2 2 2 2 2 2 
2 2 2 2 2 2 2 2 2 
2 2 2 2 2 2 2 2 2 
2 2 2 2 2 2 2 2 2 
2 2 2 2 2 2 2 2 2 
2 2 2 2 2 2 2 2 2 
2 2 2 2 2 2 2 2 2 
2 2 2 2 2 2 2 2 2 
2 2 2 2 2 2 2 2 2 
2 2 2 2 2 2 2 2 2 
2 2 2 2 2 2 2 2 2 
2 2 2 2 2 2 2 2 2 
2 2 2 2 2 2 2 2 2 
2 2 2 2 2 2 2 2 2 
2 2 2 2 2 2 2 2 2 
2 2 2 2 2 2 2 2 2 
2 2 2 2 2 2 2 2 2 
2 2 2 2 2 2 2 2 2 
2 2 2 2 2 2 2 2 2 
2 2 2 2 2 2 2 2 2 
2 2 2 2 2 2 2 2 2 
2 2 2 2 2 2 2 2 2 
2 2 2 2 2 2 2 2 2 
2 2 2 2 2 2 2 2 2 
2 2 2 2 2 2 2 2 2 
2 2 2 2 2 2 2 2 2 
2 2 2 2 2 2 2 2 2 
2 2 2 2 2 2 2 2 2 
2 2 2 2 2 2 2 2 2 
2 2 2 2 2 2 2 2 2 
2 2 2 2 2 2 2 2 2 
2 2 2 2 2 2 2 2 2 
2 2 2 2 2 2 2 2 2 
2 2 2 2 2 2 2 2 2 
2 2 2 2 2 2 2 2 2 
2 2 2 2 2 2 2 2 2 
2 2 2 2 2 2 2 2 2 
2 2 2 2 2 2 2 2 2 
2 2 2 2 2 2 2 2 2 
2 2 2 2 2 2 2 2 2 
2 2 2 2 2 2 2 2 2 
2 2 2 2 2 2 2 2 2 
2 2 2 2 2 2 2 2 2 
2 2 2 2 2 2 2 2 2 
2 2 2 2 2 2 2 2 2 
2 2 2 2 2 2 2 2 2 
2 2 2 2 2 2 2 2 2 
2 2 2 2 2 2 2 2 2 
2 2 2 2 2 2 2 2 2 
2 2 2 2 2 2 2 2 2 
2 2 2 2 2 2 2 2 2 
2 2 2 2 2 2 2 2 2 
2 2 2 2 2 2 2 2 2 
2 2 2 2 2 2 2 2 2 
2 2 2 2 2 2 2 2 2 
2 2 2 2 2 2 2 2 2 
2 2 2 2 2 2 2 2 2 
2 2 2 2 2 2 2 2 2 
2 2 2 2 2 2 2 2 2 
2 2 2 2 2 2 2 2 2 
2 2 2 2 2 2 2 2 2 
2 2 2 2 2 2 2 2 2 
2 2 2 2 2 
R 1 1049 double
0.30266 0.33859 0.31931 0.33263 0.2897 0.33283 0.31776 0.33777 0.27325 
0.34517 0.27528 0.33421 0.28195 0.26351 0.34097 0.33398 0.31987 0.28149 
0.30154 0.27491 0.33184 0.2979 0.25639 0.31815 0.32955 0.32665 0.33566 
0.26354 0.33159 0.30352 0.28083 0.25774 0.32722 0.34851 0.27641 0.34126 
0.26298 0.30856 0.2889 0.27197 0.33382 0.34593 0.34672 0.25399 0.25853 
0.26852 0.26783 0.28662 0.25657 0.33828 0.34015 0.31582 0.27735 0.2931 
0.30199 0.26761 0.31087 0.25308 0.3159 0.30511 0.30421 0.27555 0.25928 
0.32278 0.27957 0.25528 0.28172 0.31127 0.25037 0.26541 0.3 0.30805 
0.31364 0.31651 0.28069 0.25997 0.27972 0.2685 0.2591 0.32017 0.25099 
0.29693 0.31217 0.27393 0.2957 0.27071 0.2735 0.28827 0.33657 0.29225 
0.25888 0.33577 0.3161 0.26173 0.32334 0.30482 0.28537 0.31621 0.25008 
0.27439 0.3228 0.26888 0.32716 0.32361 0.34334 0.1 0.1 0.1 
0.1 0.1 0.1 0.1 0.1 0.1 0.1 0.1 0.1 
0.1 0.1 0.1 0.1 0.1 0.1 0.1 0.1 0.1 
0.1 0.1 0.1 0.1 0.1 0.1 0.1 0.1 0.1 
0.1 0.1 0.1 0.1 0.1 0.1 0.1 0.1 0.1 
0.1 0.1 0.1 0.1 0.1 0.1 0.1 0.1 0.1 
0.1 0.1 0.1 0.1 0.1 0.1 0.1 0.1 0.1 
0.1 0.1 0.1 0.1 0.1 0.1 0.1 0.1 0.1 
0.1 0.1 0.1 0.1 0.1 0.1 0.1 0.1 0.1 
0.1 0.1 0.1 0.1 0.1 0.1 0.1 0.1 0.1 
0.1 0.1 0.1 0.1 0.1 0.1 0.1 0.1 0.1 
0.1 0.1 0.1 0.1 0.1 0.1 0.1 0.1 0.1 
0.1 0.1 0.1 0.1 0.1 0.1 0.1 0.1 0.1 
0.1 0.1 0.1 0.1 0.1 0.1 0.1 0.1 0.1 
0.1 0.1 0.1 0.1 0.1 0.1 0.1 0.1 0.1 
0.1 0.1 0.1 0.1 0.1 0.1 0.1 0.1 0.1 
0.1 0.1 0.1 0.1 0.1 0.1 0.1 0.1 0.1 
0.1 0.1 0.1 0.1 0.1 0.1 0.1 0.34368 0.33341 
0.28437 0.1 0.1 0.26269 0.1 0.33976 0.1 0.1 0.1 
0.1 0.1 0.1 0.1 0.1 0.1 0.1 0.1 0.1 
0.1 0.1 0.1 0.1 0.1 0.1 0.1 0.1 0.1 
0.1 0.1 0.1 0.1 0.1 0.1 0.1 0.1 0.1 
0.1 0.1 0.1 0.1 0.1 0.1 0.1 0.1 0.1 
0.1 0.1 0.28428 0.31506 0.33762 0.1 0.1 0.1 0.1 
0.1 0.1 0.1 0.1 0.1 0.1 0.25871 0.29985 0.1 
0.1 0.1 0.1 0.1 0.1 0.1 0.1 0.1 0.1 
0.1 0.1 0.1 0.1 0.1 0.1 0.1 0.1 0.1 
0.1 0.1 0.1 0.1 0.1 0.1 0.1 0.1 0.1 
0.1 0.1 0.29552 0.1 0.1 0.1 0.1 0.1 0.1 
0.1 0.1 0.1 0.1 0.1 0.1 0.1 0.1 0.1 
0.1 0.1 0.1 0.1 0.1 0.31445 0.1 0.1 0.1 
0.1 0.1 0.1 0.1 0.1 0.1 0.1 0.1 0.1 
0.1 0.1 0.1 0.1 0.1 0.1 0.1 0.1 0.1 
0.1 0.1 0.1 0.1 0.1 0.1 0.1 0.1 0.1 
0.1 0.1 0.1 0.1 0.1 0.1 0.1 0.1 0.1 
0.1 0.1 0.1 0.1 0.1 0.1 0.1 0.1 0.1 
0.1 0.1 0.1 0.1 0.1 0.1 0.1 0.1 0.1 
0.1 0.1 0.1 0.33954 0.1 0.1 0.1 0.1 0.1 
0.1 0.1 0.1 0.1 0.1 0.1 0.1 0.1 0.1 
0.1 0.1 0.1 0.1 0.1 0.1 0.1 0.1 0.1 
0.1 0.1 0.1 0.1 0.1 0.1 0.1 0.1 0.1 
0.1 0.1 0.1 0.1 0.1 0.1 0.1 0.1 0.1 
0.1 0.1 0.1 0.1 0.1 0.1 0.1 0.1 0.1 
0.1 0.1 0.1 0.1 0.1 0.1 0.1 0.1 0.1 
0.1 0.25952 0.1 0.1 0.1 0.1 0.1 0.1 0.1 
0.1 0.1 0.1 0.1 0.1 0.1 0.1 0.1 0.1 
0.1 0.1 0.1 0.1 0.1 0.1 0.1 0.1 0.1 
0.1 0.1 0.1 0.1 0.1 0.1 0.1 0.1 0.1 
0.1 0.1 0.1 0.1 0.1 0.1 0.1 0.1 0.1 
0.1 0.1 0.1 0.1 0.1 0.1 0.1 0.1 0.1 
0.1 0.1 0.1 0.1 0.1 0.1 0.1 0.1 0.1 
0.1 0.1 0.1 0.1 0.1 0.1 0.1 0.1 0.1 
0.1 0.1 0.1 0.1 0.1 0.1 0.1 0.1 0.1 
0.1 0.1 0.1 0.1 0.1 0.1 0.1 0.1 0.1 
0.1 0.1 0.1 0.1 0.1 0.1 0.1 0.1 0.1 
0.1 0.1 0.33412 0.1 0.1 0.1 0.1 0.1 0.1 
0.1 0.1 0.1 0.1 0.1 0.1 0.1 0.1 0.1 
0.1 0.1 0.1 0.1 0.1 0.1 0.1 0.1 0.1 
0.1 0.1 0.1 0.1 0.1 0.1 0.1 0.1 0.1 
0.1 0.1 0.1 0.1 0.1 0.1 0.1 0.1 0.1 
0.1 0.1 0.1 0.1 0.1 0.1 0.1 0.1 0.1 
0.1 0.1 0.1 0.1 0.1 0.1 0.1 0.1 0.1 
0.1 0.1 0.1 0.1 0.1 0.1 0.1 0.1 0.1 
0.1 0.1 0.1 0.1 0.1 0.1 0.1 0.1 0.1 
0.1 0.1 0.1 0.1 0.1 0.1 0.1 0.1 0.1 
0.1 0.1 0.1 0.1 0.1 0.1 0.1 0.1 0.1 
0.1 0.1 0.1 0.1 0.1 0.1 0.1 0.1 0.1 
0.1 0.1 0.1 0.1 0.1 0.1 0.1 0.1 0.1 
0.1 0.1 0.1 0.1 0.1 0.1 0.1 0.1 0.1 
0.1 0.1 0.1 0.1 0.1 0.1 0.1 0.1 0.1 
0.1 0.1 0.1 0.1 0.1 0.1 0.1 0.1 0.1 
0.1 0.1 0.1 0.1 0.1 0.1 0.1 0.1 0.1 
0.1 0.1 0.1 0.1 0.1 0.1 0.1 0.1 0.1 
0.1 0.1 0.1 0.1 0.1 0.1 0.1 0.1 0.1 
0.1 0.1 0.1 0.1 0.1 0.1 0.1 0.1 0.1 
0.1 0.1 0.1 0.1 0.1 0.1 0.1 0.1 0.1 
0.1 0.1 0.1 0.1 0.1 0.1 0.1 0.1 0.1 
0.1 0.1 0.1 0.1 0.1 0.1 0.1 0.1 0.1 
0.1 0.1 0.1 0.1 0.1 0.1 0.1 0.1 0.1 
0.1 0.1 0.1 0.1 0.1 0.1 0.1 0.1 0.1 
0.1 0.1 0.1 0.1 0.1 0.1 0.1 0.1 0.1 
0.1 0.1 0.1 0.1 0.1 0.1 0.1 0.1 0.1 
0.1 0.1 0.1 0.1 0.1 0.1 0.1 0.1 0.1 
0.1 0.1 0.1 0.1 0.1 0.1 0.1 0.1 0.1 
0.1 0.1 0.1 0.1 0.1 0.1 0.1 0.1 0.1 
0.1 0.1 0.1 0.1 0.1 0.1 0.1 0.1 0.1 
0.1 0.1 0.1 0.1 0.1 0.1 0.1 0.1 0.1 
0.1 0.1 0.1 0.1 0.1 0.1 0.1 0.1 0.1 
0.1 0.1 0.1 0.1 0.1 0.1 0.1 0.1 0.1 
0.1 0.1 0.1 0.1 0.1 0.1 0.1 0.1 0.1 
0.1 0.1 0.1 0.1 0.1 0.1 0.1 0.1 0.1 
0.1 0.1 0.1 0.1 0.1 0.1 0.1 0.1 0.1 
0.1 0.1 0.1 0.1 0.1 0.1 0.1 0.1 0.1 
0.1 0.1 0.1 0.1 0.1 0.1 0.1 0.1 0.1 
0.1 0.1 0.1 0.1 0.1 0.1 0.1 0.1 0.1 
0.1 0.1 0.1 0.1 0.1 0.1 0.1 0.1 0.1 
0.1 0.1 0.1 0.1 0.1 0.1 0.1 0.1 0.1 
0.1 0.1 0.1 0.1 0.1 0.1 0.1 0.1 0.1 
0.1 0.1 0.1 0.1 0.1 0.1 0.1 0.1 0.1 
0.1 0.1 0.1 0.1 0.1 0.1 0.1 0.1 0.1 
0.1 0.1 0.1 0.1 0.1 0.1 0.1 0.1 0.1 
0.1 0.1 0.1 0.1 0.1 0.1 0.1 0.1 0.1 
0.1 0.1 0.1 0.1 0.1 0.1 0.1 0.1 0.1 
0.1 0.1 0.1 0.1 0.1 0.1 0.1 0.1 0.1 
0.1 0.1 0.1 0.1 0.1 0.1 0.1 0.1 0.1 
0.1 0.1 0.1 0.1 0.1 
a 3 1049 double
0 0 0 0 0 0 0 0 0 
0 0 0 0 0 0 0 0 0 
0 0 0 0 0 0 0 0 0 
0 0 0 0 0 0 0 0 0 
0 0 0 0 0 0 0 0 0 
0 0 0 0 0 0 0 0 0 
0 0 0 0 0 0 0 0 0 
0 0 0 0 0 0 0 0 0 
0 0 0 0 0 0 0 0 0 
0 0 0 0 0 0 0 0 0 
0 0 0 0 0 0 0 0 0 
0 0 0 0 0 0 0 0 0 
0 0 0 0 0 0 0 0 0 
0 0 0 0 0 0 0 0 0 
0 0 0 0 0 0 0 0 0 
0 0 0 0 0 0 0 0 0 
0 0 0 0 0 0 0 0 0 
0 0 0 0 0 0 0 0 0 
0 0 0 0 0 0 0 0 0 
0 0 0 0 0 0 0 0 0 
0 0 0 0 0 0 0 0 0 
0 0 0 0 0 0 0 0 0 
0 0 0 0 0 0 0 0 0 
0 0 0 0 0 0 0 0 0 
0 0 0 0 0 0 0 0 0 
0 0 0 0 0 0 0 0 0 
0 0 0 0 0 0 0 0 0 
0 0 0 0 0 0 0 0 0 
0 0 0 0 0 0 0 0 0 
0 0 0 0 0 0 0 0 0 
0 0 0 0 0 0 0 0 0 
0 0 0 0 0 0 0 0 0 
0 0 0 0 0 0 0 0 0 
0 0 0 0 0 0 0 0 0 
0 0 0 0 0 0 0 0 0 
0 0 0 0 0 0 0 0 0 
0 0 0 0 0 0 0 0 0 
0 0 0 0 0 0 0 0 0 
0 0 0 0 0 0 0 0 0 
0 0 0 0 0 0 0 0 0 
0 0 0 0 0 0 0 0 0 
0 0 0 0 0 0 0 0 0 
0 0 0 0 0 0 0 0 0 
0 0 0 0 0 0 0 0 0 
0 0 0 0 0 0 0 0 0 
0 0 0 0 0 0 0 0 0 
0 0 0 0 0 0 0 0 0 
0 0 0 0 0 0 0 0 0 
0 0 0 0 0 0 0 0 0 
0 0 0 0 0 0 0 0 0 
0 0 0 0 0 0 0 0 0 
0 0 0 0 0 0 0 0 0 
0 0 0 0 0 0 0 0 0 
0 0 0 0 0 0 0 0 0 
0 0 0 0 0 0 0 0 0 
0 0 0 0 0 0 0 0 0 
0 0 0 0 0 0 0 0 0 
0 0 0 0 0 0 0 0 0 
0 0 0 0 0 0 0 0 0 
0 0 0 0 0 0 0 0 0 
0 0 0 0 0 0 0 0 0 
0 0 0 0 0 0 0 0 0 
0 0 0 0 0 0 0 0 0 
0 0 0 0 0 0 0 0 0 
0 0 0 0 0 0 0 0 0 
0 0 0 0 0 0 0 0 0 
0 0 0 0 0 0 0 0 0 
0 0 0 0 0 0 0 0 0 
0 0 0 0 0 0 0 0 0 
0 0 0 0 0 0 0 0 0 
0 0 0 0 0 0 0 0 0 
0 0 0 0 0 0 0 0 0 
0 0 0 0 0 0 0 0 0 
0 0 0 0 0 0 0 0 0 
0 0 0 0 0 0 0 0 0 
0 0 0 0 0 0 0 0 0 
0 0 0 0 0 0 0 0 0 
0 0 0 0 0 0 0 0 0 
0 0 0 0 0 0 0 0 0 
0 0 0 0 0 0 0 0 0 
0 0 0 0 0 0 0 0 0 
0 0 0 0 0 0 0 0 0 
0 0 0 0 0 0 0 0 0 
0 0 0 0 0 0 0 0 0 
0 0 0 0 0 0 0 0 0 
0 0 0 0 0 0 0 0 0 
0 0 0 0 0 0 0 0 0 
0 0 0 0 0 0 0 0 0 
0 0 0 0 0 0 0 0 0 
0 0 0 0 0 0 0 0 0 
0 0 0 0 0 0 0 0 0 
0 0 0 0 0 0 0 0 0 
0 0 0 0 0 0 0 0 0 
0 0 0 0 0 0 0 0 0 
0 0 0 0 0 0 0 0 0 
0 0 0 0 0 0 0 0 0 
0 0 0 0 0 0 0 0 0 
0 0 0 0 0 0 0 0 0 
0 0 0 0 0 0 0 0 0 
0 0 0 0 0 0 0 0 0 
0 0 0 0 0 0 0 0 0 
0 0 0 0 0 0 0 0 0 
0 0 0 0 0 0 0 0 0 
0 0 0 0 0 0 0 0 0 
0 0 0 0 0 0 0 0 0 
0 0 0 0 0 0 0 0 0 
0 0 0 0 0 0 0 0 0 
0 0 0 0 0 0 0 0 0 
0 0 0 0 0 0 0 0 0 
0 0 0 0 0 0 0 0 0 
0 0 0 0 0 0 0 0 0 
0 0 0 0 0 0 0 0 0 
0 0 0 0 0 0 0 0 0 
0 0 0 0 0 0 0 0 0 
0 0 0 0 0 0 0 0 0 
0 0 0 0 0 0 0 0 0 
0 0 0 0 0 0 0 0 0 
0 0 0 0 0 0 0 0 0 
0 0 0 0 0 0 0 0 0 
0 0 0 0 0 0 0 0 0 
0 0 0 0 0 0 0 0 0 
0 0 0 0 0 0 0 0 0 
0 0 0 0 0 0 0 0 0 
0 0 0 0 0 0 0 0 0 
0 0 0 0 0 0 0 0 0 
0 0 0 0 0 0 0 0 0 
0 0 0 0 0 0 0 0 0 
0 0 0 0 0 0 0 0 0 
0 0 0 0 0 0 0 0 0 
0 0 0 0 0 0 0 0 0 
0 0 0 0 0 0 0 0 0 
0 0 0 0 0 0 0 0 0 
0 0 0 0 0 0 0 0 0 
0 0 0 0 0 0 0 0 0 
0 0 0 0 0 0 0 0 0 
0 0 0 0 0 0 0 0 0 
0 0 0 0 0 0 0 0 0 
0 0 0 0 0 0 0 0 0 
0 0 0 0 0 0 0 0 0 
0 0 0 0 0 0 0 0 0 
0 0 0 0 0 0 0 0 0 
0 0 0 0 0 0 0 0 0 
0 0 0 0 0 0 0 0 0 
0 0 0 0 0 0 0 0 0 
0 0 0 0 0 0 0 0 0 
0 0 0 0 0 0 0 0 0 
0 0 0 0 0 0 0 0 0 
0 0 0 0 0 0 0 0 0 
0 0 0 0 0 0 0 0 0 
0 0 0 0 0 0 0 0 0 
0 0 0 0 0 0 0 0 0 
0 0 0 0 0 0 0 0 0 
0 0 0 0 0 0 0 0 0 
0 0 0 0 0 0 0 0 0 
0 0 0 0 0 0 0 0 0 
0 0 0 0 0 0 0 0 0 
0 0 0 0 0 0 0 0 0 
0 0 0 0 0 0 0 0 0 
0 0 0 0 0 0 0 0 0 
0 0 0 0 0 0 0 0 0 
0 0 0 0 0 0 0 0 0 
0 0 0 0 0 0 0 0 0 
0 0 0 0 0 0 0 0 0 
0 0 0 0 0 0 0 0 0 
0 0 0 0 0 0 0 0 0 
0 0 0 0 0 0 0 0 0 
0 0 0 0 0 0 0 0 0 
0 0 0 0 0 0 0 0 0 
0 0 0 0 0 0 0 0 0 
0 0 0 0 0 0 0 0 0 
0 0 0 0 0 0 0 0 0 
0 0 0 0 0 0 0 0 0 
0 0 0 0 0 0 0 0 0 
0 0 0 0 0 0 0 0 0 
0 0 0 0 0 0 0 0 0 
0 0 0 0 0 0 0 0 0 
0 0 0 0 0 0 0 0 0 
0 0 0 0 0 0 0 0 0 
0 0 0 0 0 0 0 0 0 
0 0 0 0 0 0 0 0 0 
0 0 0 0 0 0 0 0 0 
0 0 0 0 0 0 0 0 0 
0 0 0 0 0 0 0 0 0 
0 0 0 0 0 0 0 0 0 
0 0 0 0 0 0 0 0 0 
0 0 0 0 0 0 0 0 0 
0 0 0 0 0 0 0 0 0 
0 0 0 0 0 0 0 0 0 
0 0 0 0 0 0 0 0 0 
0 0 0 0 0 0 0 0 0 
0 0 0 0 0 0 0 0 0 
0 0 0 0 0 0 0 0 0 
0 0 0 0 0 0 0 0 0 
0 0 0 0 0 0 0 0 0 
0 0 0 0 0 0 0 0 0 
0 0 0 0 0 0 0 0 0 
0 0 0 0 0 0 0 0 0 
0 0 0 0 0 0 0 0 0 
0 0 0 0 0 0 0 0 0 
0 0 0 0 0 0 0 0 0 
0 0 0 0 0 0 0 0 0 
0 0 0 0 0 0 0 0 0 
0 0 0 0 0 0 0 0 0 
0 0 0 0 0 0 0 0 0 
0 0 0 0 0 0 0 0 0 
0 0 0 0 0 0 0 0 0 
0 0 0 0 0 0 0 0 0 
0 0 0 0 0 0 0 0 0 
0 0 0 0 0 0 0 0 0 
0 0 0 0 0 0 0 0 0 
0 0 0 0 0 0 0 0 0 
0 0 0 0 0 0 0 0 0 
0 0 0 0 0 0 0 0 0 
0 0 0 0 0 0 0 0 0 
0 0 0 0 0 0 0 0 0 
0 0 0 0 0 0 0 0 0 
0 0 0 0 0 0 0 0 0 
0 0 0 0 0 0 0 0 0 
0 0 0 0 0 0 0 0 0 
0 0 0 0 0 0 0 0 0 
0 0 0 0 0 0 0 0 0 
0 0 0 0 0 0 0 0 0 
0 0 0 0 0 0 0 0 0 
0 0 0 0 0 0 0 0 0 
0 0 0 0 0 0 0 0 0 
0 0 0 0 0 0 0 0 0 
0 0 0 0 0 0 0 0 0 
0 0 0 0 0 0 0 0 0 
0 0 0 0 0 0 0 0 0 
0 0 0 0 0 0 0 0 0 
0 0 0 0 0 0 0 0 0 
0 0 0 0 0 0 0 0 0 
0 0 0 0 0 0 0 0 0 
0 0 0 0 0 0 0 0 0 
0 0 0 0 0 0 0 0 0 
0 0 0 0 0 0 0 0 0 
0 0 0 0 0 0 0 0 0 
0 0 0 0 0 0 0 0 0 
0 0 0 0 0 0 0 0 0 
0 0 0 0 0 0 0 0 0 
0 0 0 0 0 0 0 0 0 
0 0 0 0 0 0 0 0 0 
0 0 0 0 0 0 0 0 0 
0 0 0 0 0 0 0 0 0 
0 0 0 0 0 0 0 0 0 
0 0 0 0 0 0 0 0 0 
0 0 0 0 0 0 0 0 0 
0 0 0 0 0 0 0 0 0 
0 0 0 0 0 0 0 0 0 
0 0 0 0 0 0 0 0 0 
0 0 0 0 0 0 0 0 0 
0 0 0 0 0 0 0 0 0 
0 0 0 0 0 0 0 0 0 
0 0 0 0 0 0 0 0 0 
0 0 0 0 0 0 0 0 0 
0 0 0 0 0 0 0 0 0 
0 0 0 0 0 0 0 0 0 
0 0 0 0 0 0 0 0 0 
0 0 0 0 0 0 0 0 0 
0 0 0 0 0 0 0 0 0 
0 0 0 0 0 0 0 0 0 
0 0 0 0 0 0 0 0 0 
0 0 0 0 0 0 0 0 0 
0 0 0 0 0 0 0 0 0 
0 0 0 0 0 0 0 0 0 
0 0 0 0 0 0 0 0 0 
0 0 0 0 0 0 0 0 0 
0 0 0 0 0 0 0 0 0 
0 0 0 0 0 0 0 0 0 
0 0 0 0 0 0 0 0 0 
0 0 0 0 0 0 0 0 0 
0 0 0 0 0 0 0 0 0 
0 0 0 0 0 0 0 0 0 
0 0 0 0 0 0 0 0 0 
0 0 0 0 0 0 0 0 0 
0 0 0 0 0 0 0 0 0 
0 0 0 0 0 0 0 0 0 
0 0 0 0 0 0 0 0 0 
0 0 0 0 0 0 0 0 0 
0 0 0 0 0 0 0 0 0 
0 0 0 0 0 0 0 0 0 
0 0 0 0 0 0 0 0 0 
0 0 0 0 0 0 0 0 0 
0 0 0 0 0 0 0 0 0 
0 0 0 0 0 0 0 0 0 
0 0 0 0 0 0 0 0 0 
0 0 0 0 0 0 0 0 0 
0 0 0 0 0 0 0 0 0 
0 0 0 0 0 0 0 0 0 
0 0 0 0 0 0 0 0 0 
0 0 0 0 0 0 0 0 0 
0 0 0 0 0 0 0 0 0 
0 0 0 0 0 0 0 0 0 
0 0 0 0 0 0 0 0 0 
0 0 0 0 0 0 0 0 0 
0 0 0 0 0 0 0 0 0 
0 0 0 0 0 0 0 0 0 
0 0 0 0 0 0 0 0 0 
0 0 0 0 0 0 0 0 0 
0 0 0 0 0 0 0 0 0 
0 0 0 0 0 0 0 0 0 
0 0 0 0 0 0 0 0 0 
0 0 0 0 0 0 0 0 0 
0 0 0 0 0 0 0 0 0 
0 0 0 0 0 0 0 0 0 
0 0 0 0 0 0 0 0 0 
0 0 0 0 0 0 0 0 0 
0 0 0 0 0 0 0 0 0 
0 0 0 0 0 0 0 0 0 
0 0 0 0 0 0 0 0 0 
0 0 0 0 0 0 0 0 0 
0 0 0 0 0 0 0 0 0 
0 0 0 0 0 0 0 0 0 
0 0 0 0 0 0 0 0 0 
0 0 0 0 0 0 0 0 0 
0 0 0 0 0 0 0 0 0 
0 0 0 0 0 0 0 0 0 
0 0 0 0 0 0 0 0 0 
0 0 0 0 0 0 0 0 0 
0 0 0 0 0 0 0 0 0 
0 0 0 0 0 0 0 0 0 
0 0 0 0 0 0 0 0 0 
0 0 0 0 0 0 0 0 0 
0 0 0 0 0 0 0 0 0 
0 0 0 0 0 0 0 0 0 
0 0 0 0 0 0 0 0 0 
0 0 0 0 0 0 0 0 0 
0 0 0 0 0 0 0 0 0 
0 0 0 0 0 0 0 0 0 
0 0 0 0 0 0 0 0 0 
0 0 0 0 0 0 0 0 0 
0 0 0 0 0 0 0 0 0 
0 0 0 0 0 0 0 0 0 
0 0 0 0 0 0 0 0 0 
0 0 0 0 0 0 0 0 0 
0 0 0 0 0 0 0 0 0 
0 0 0 0 0 0 0 0 0 
0 0 0 0 0 0 0 0 0 
0 0 0 0 0 0 0 0 0 
0 0 0 0 0 0 0 0 0 
0 0 0 0 0 0 0 0 0 
0 0 0 0 0 0 0 0 0 
0 0 0 0 0 0 0 0 0 
0 0 0 0 0 0 0 0 0 
0 0 0 0 0 0 0 0 0 
0 0 0 0 0 0 0 0 0 
0 0 0 0 0 0 0 0 0 
0 0 0 0 0 0 0 0 0 
0 0 0 0 0 0 0 0 0 
0 0 0 0 0 0 
v 3 1049 double
0.0911037 -0.0323171 0 0.0196502 -0.183139 0 -0.035706 -0.0121428 0 
0.0546988 -0.0351111 0 0.0141421 -0.141107 0 0.014546 -0.0958517 0 
0.0622007 -0.153638 0 0.849516 -0.739107 0 -0.144972 0.089795 0 
0.0362043 -0.202266 0 0.356729 -0.136403 0 -0.250561 0.152615 0 
-0.406679 0.219441 0 0.249044 -0.437055 0 -0.65417 0.670045 0 
-1.19993 0.0978145 0 4.94676 0.928216 0 -0.036646 -0.0949885 0 
-0.0144178 -0.0530892 0 -0.0147975 -0.139153 0 0.355053 -0.251149 0 
0.0744766 -0.0615484 0 0.103107 -0.0787339 0 0.155265 -0.135782 0 
0.0704197 -0.125835 0 0.180214 -0.110448 0 -0.00362903 0.0621299 0 
0.0283133 -0.205151 0 -1.03783 0.0670114 0 0.0764336 -0.332753 0 
0.258968 -0.0849666 0 -0.320095 0.646535 0 0.00902145 -0.10513 0 
0.578829 -1.31469 0 0.145348 0.0658833 0 0.116474 0.14478 0 
-0.0709597 -0.434837 0 -0.13319 -0.229321 0 -0.18008 -0.184834 0 
-0.195646 -0.604663 0 0.798256 -0.611849 0 0.788584 -0.670159 0 
0.199103 -0.157263 0 -0.0793557 -0.0367095 0 0.0437107 -0.286125 0 
0.171906 -0.179218 0 0.0831855 -0.0973652 0 -0.00935909 -0.0443905 0 
-0.0333258 0.0483311 0 -0.0912673 -0.0209831 0 -0.47351 -0.295145 0 
-0.198671 -0.231223 0 -0.715042 -0.341185 0 -0.667573 -0.487263 0 
-0.656638 -0.544988 0 -0.660484 -0.487328 0 0.874689 -0.601057 0 
0.849693 -0.666745 0 0.865704 -0.677971 0 -0.772598 -0.665692 0 
-0.805582 -0.534088 0 -0.785789 -0.733829 0 -0.820234 -0.723797 0 
-0.701281 -0.484375 0 0.85748 -0.693511 0 0.850634 -0.676217 0 
-0.839094 -0.646584 0 -0.643407 -0.504246 0 -0.638656 -0.627144 0 
0.706553 -0.644063 0 0.723924 -0.582445 0 -0.794729 -0.679293 0 
-0.742063 -0.658106 0 -0.792043 -0.660996 0 -0.733566 -0.56604 0 
-0.826209 -0.671492 0 -0.707969 -0.586639 0 -0.604798 -0.477432 0 
0.596769 -0.556683 0 0.767502 -0.623337 0 0.589328 -0.468036 0 
0.791442 -0.629559 0 -0.876002 -0.597335 0 -0.856956 -0.664162 0 
-0.901523 -0.705017 0 -0.840767 -0.670577 0 -0.814036 -0.588194 0 
-0.663734 -0.619718 0 0.956324 -0.639237 0 0.615851 -0.516995 0 
-0.902213 -0.618402 0 -0.881967 -0.709306 0 -1.00053 -0.736742 0 
0.644032 -0.596921 0 0.82487 -0.619756 0 0.60903 -0.468098 0 
0.727849 -0.631348 0 -0.824166 -0.668162 0 -0.751142 -0.611198 0 
-0.66706 -0.525506 0 -0.615092 -0.458977 0 -0.614047 -0.629195 0 
-0.397171 -1.02907 0 -0.549066 -1.15176 0 -0.614873 -0.453187 0 
0 0 0 0 0 0 0 0 0 
0 0 0 0 0 0 0 0 0 
0 0 0 0 0 0 0 0 0 
0 0 0 0 0 0 0 0 0 
0 0 0 0 0 0 0 0 0 
0 0 0 0 0 0 0 0 0 
0 0 0 0 0 0 0 0 0 
0 0 0 0 0 0 0 0 0 
0 0 0 0 0 0 0 0 0 
0 0 0 0 0 0 0 0 0 
0 0 0 0 0 0 0 0 0 
0 0 0 0 0 0 0 0 0 
0 0 0 0 0 0 0 0 0 
0 0 0 0 0 0 0 0 0 
0 0 0 0 0 0 0 0 0 
0 0 0 0 0 0 0 0 0 
0 0 0 0 0 0 0 0 0 
0 0 0 0 0 0 0 0 0 
0 0 0 0 0 0 0 0 0 
0 0 0 0 0 0 0 0 0 
0 0 0 0 0 0 0 0 0 
0 0 0 0 0 0 0 0 0 
0 0 0 0 0 0 0 0 0 
0 0 0 0 0 0 0 0 0 
0 0 0 0 0 0 0 0 0 
0 0 0 0 0 0 0 0 0 
0 0 0 0 0 0 0 0 0 
0 0 0 0 0 0 0 0 0 
0 0 0 0 0 0 0 0 0 
0 0 0 0 0 0 0 0 0 
0 0 0 0 0 0 0 0 0 
0 0 0 0 0 0 0 0 0 
0 0 0 0 0 0 0 0 0 
0 0 0 0 0 0 0 0 0 
0 0 0 0 0 0 0 0 0 
0 0 0 0 0 0 0 0 0 
0 0 0 0 0 0 0 0 0 
0 0 0 0 0 0 0 0 0 
0 0 0 0 0 0 0 0 0 
0 0 0 0 0 0 0 0 0 
0 0 0 0 0 0 0 0 0 
0 0 0 0 0 0 0 0 0 
0 0 0 0 0 0 0 0 0 
0 0 0 0 0 0 0 0 0 
0 0 0 0 0 0 0 0 0 
0 0 0 0 0 0 0 0 0 
0 0 0 0 0 0 0 0 0 
0 0 0 0 0 0 0 0 0 
0 0 0 0 0 0 0 0 0 
0 0 0 0 0 0 0 0 0 
0 0 0 0 0 0 0 0 0 
0 0 0 0.0640502 -0.34135 0 -0.0450946 -0.214963 0 
0.0891892 -0.591065 0 0 0 0 0 0 0 
-0.557464 -0.208212 0 0 0 0 -0.62954 -0.584125 0 
0 0 0 0 0 0 0 0 0 
0 0 0 0 0 0 0 0 0 
0 0 0 0 0 0 0 0 0 
0 0 0 0 0 0 0 0 0 
0 0 0 0 0 0 0 0 0 
0 0 0 0 0 0 0 0 0 
0 0 0 0 0 0 0 0 0 
0 0 0 0 0 0 0 0 0 
0 0 0 0 0 0 0 0 0 
0 0 0 0 0 0 0 0 0 
0 0 0 0 0 0 0 0 0 
0 0 0 0 0 0 0 0 0 
0 0 0 0 0 0 0 0 0 
0 0 0 0 0 0 0.189274 -0.506543 0 
0.216918 -0.555699 0 0.159545 -0.684767 0 0 0 0 
0 0 0 0 0 0 0 0 0 
0 0 0 0 0 0 0 0 0 
0 0 0 0 0 0 0 0 0 
-0.241482 -0.769074 0 -0.222349 -0.796245 0 0 0 0 
0 0 0 0 0 0 0 0 0 
0 0 0 0 0 0 0 0 0 
0 0 0 0 0 0 0 0 0 
0 0 0 0 0 0 0 0 0 
0 0 0 0 0 0 0 0 0 
0 0 0 0 0 0 0 0 0 
0 0 0 0 0 0 0 0 0 
0 0 0 0 0 0 0 0 0 
0 0 0 0 0 0 0 0 0 
0 0 0 0 0 0 -0.241735 -0.792807 0 
0 0 0 0 0 0 0 0 0 
0 0 0 0 0 0 0 0 0 
0 0 0 0 0 0 0 0 0 
0 0 0 0 0 0 0 0 0 
0 0 0 0 0 0 0 0 0 
0 0 0 0 0 0 0 0 0 
0 0 0 0 0 0 -0.111397 -0.735681 0 
0 0 0 0 0 0 0 0 0 
0 0 0 0 0 0 0 0 0 
0 0 0 0 0 0 0 0 0 
0 0 0 0 0 0 0 0 0 
0 0 0 0 0 0 0 0 0 
0 0 0 0 0 0 0 0 0 
0 0 0 0 0 0 0 0 0 
0 0 0 0 0 0 0 0 0 
0 0 0 0 0 0 0 0 0 
0 0 0 0 0 0 0 0 0 
0 0 0 0 0 0 0 0 0 
0 0 0 0 0 0 0 0 0 
0 0 0 0 0 0 0 0 0 
0 0 0 0 0 0 0 0 0 
0 0 0 0 0 0 0 0 0 
0 0 0 0 0 0 0 0 0 
0 0 0 0 0 0 0 0 0 
0 0 0 0 0 0 0 0 0 
0 0 0 0 0 0 0 0 0 
0 0 0 0 0 0 0 0 0 
-0.10619 -0.700733 0 0 0 0 0 0 0 
0 0 0 0 0 0 0 0 0 
0 0 0 0 0 0 0 0 0 
0 0 0 0 0 0 0 0 0 
0 0 0 0 0 0 0 0 0 
0 0 0 0 0 0 0 0 0 
0 0 0 0 0 0 0 0 0 
0 0 0 0 0 0 0 0 0 
0 0 0 0 0 0 0 0 0 
0 0 0 0 0 0 0 0 0 
0 0 0 0 0 0 0 0 0 
0 0 0 0 0 0 0 0 0 
0 0 0 0 0 0 0 0 0 
0 0 0 0 0 0 0 0 0 
0 0 0 0 0 0 0 0 0 
0 0 0 0 0 0 0 0 0 
0 0 0 0 0 0 0 0 0 
0 0 0 0 0 0 0 0 0 
0 0 0 0 0 0 0 0 0 
0 0 0 0 0 0 0 0 0 
0 0 0 -0.104224 -0.682867 0 0 0 0 
0 0 0 0 0 0 0 0 0 
0 0 0 0 0 0 0 0 0 
0 0 0 0 0 0 0 0 0 
0 0 0 0 0 0 0 0 0 
0 0 0 0 0 0 0 0 0 
0 0 0 0 0 0 0 0 0 
0 0 0 0 0 0 0 0 0 
0 0 0 0 0 0 0 0 0 
0 0 0 0 0 0 0 0 0 
0 0 0 0 0 0 0 0 0 
0 0 0 0 0 0 0 0 0 
0 0 0 0 0 0 0 0 0 
0 0 0 0 0 0 0 0 0 
0 0 0 0 0 0 0 0 0 
0 0 0 0 0 0 0 0 0 
0 0 0 0 0 0 0 0 0 
0 0 0 0 0 0 0 0 0 
0 0 0 0 0 0 0 0 0 
0 0 0 0 0 0 0 0 0 
0 0 0 0 0 0 0 0 0 
0 0 0 0 0 0 0 0 0 
0 0 0 0 0 0 0 0 0 
0 0 0 0 0 0 0 0 0 
0 0 0 0 0 0 0 0 0 
0 0 0 0 0 0 0 0 0 
0 0 0 0 0 0 0 0 0 
0 0 0 0 0 0 0 0 0 
0 0 0 0 0 0 0 0 0 
0 0 0 0 0 0 0 0 0 
0 0 0 0 0 0 0 0 0 
0 0 0 0 0 0 0 0 0 
0 0 0 0 0 0 0 0 0 
0 0 0 0 0 0 -0.103629 -0.683516 0 
0 0 0 0 0 0 0 0 0 
0 0 0 0 0 0 0 0 0 
0 0 0 0 0 0 0 0 0 
0 0 0 0 0 0 0 0 0 
0 0 0 0 0 0 0 0 0 
0 0 0 0 0 0 0 0 0 
0 0 0 0 0 0 0 0 0 
0 0 0 0 0 0 0 0 0 
0 0 0 0 0 0 0 0 0 
0 0 0 0 0 0 0 0 0 
0 0 0 0 0 0 0 0 0 
0 0 0 0 0 0 0 0 0 
0 0 0 0 0 0 0 0 0 
0 0 0 0 0 0 0 0 0 
0 0 0 0 0 0 0 0 0 
0 0 0 0 0 0 0 0 0 
0 0 0 0 0 0 0 0 0 
0 0 0 0 0 0 0 0 0 
0 0 0 0 0 0 0 0 0 
0 0 0 0 0 0 0 0 0 
0 0 0 0 0 0 0 0 0 
0 0 0 0 0 0 0 0 0 
0 0 0 0 0 0 0 0 0 
0 0 0 0 0 0 0 0 0 
0 0 0 0 0 0 0 0 0 
0 0 0 0 0 0 0 0 0 
0 0 0 0 0 0 0 0 0 
0 0 0 0 0 0 0 0 0 
0 0 0 0 0 0 0 0 0 
0 0 0 0 0 0 0 0 0 
0 0 0 0 0 0 0 0 0 
0 0 0 0 0 0 0 0 0 
0 0 0 0 0 0 0 0 0 
0 0 0 0 0 0 0 0 0 
0 0 0 0 0 0 0 0 0 
0 0 0 0 0 0 0 0 0 
0 0 0 0 0 0 0 0 0 
0 0 0 0 0 0 0 0 0 
0 0 0 0 0 0 0 0 0 
0 0 0 0 0 0 0 0 0 
0 0 0 0 0 0 0 0 0 
0 0 0 0 0 0 0 0 0 
0 0 0 0 0 0 0 0 0 
0 0 0 0 0 0 0 0 0 
0 0 0 0 0 0 0 0 0 
0 0 0 0 0 0 0 0 0 
0 0 0 0 0 0 0 0 0 
0 0 0 0 0 0 0 0 0 
0 0 0 0 0 0 0 0 0 
0 0 0 0 0 0 0 0 0 
0 0 0 0 0 0 0 0 0 
0 0 0 0 0 0 0 0 0 
0 0 0 0 0 0 0 0 0 
0 0 0 0 0 0 0 0 0 
0 0 0 0 0 0 0 0 0 
0 0 0 0 0 0 0 0 0 
0 0 0 0 0 0 0 0 0 
0 0 0 0 0 0 0 0 0 
0 0 0 0 0 0 0 0 0 
0 0 0 0 0 0 0 0 0 
0 0 0 0 0 0 0 0 0 
0 0 0 0 0 0 0 0 0 
0 0 0 0 0 0 0 0 0 
0 0 0 0 0 0 0 0 0 
0 0 0 0 0 0 0 0 0 
0 0 0 0 0 0 0 0 0 
0 0 0 0 0 0 0 0 0 
0 0 0 0 0 0 0 0 0 
0 0 0 0 0 0 0 0 0 
0 0 0 0 0 0 0 0 0 
0 0 0 0 0 0 0 0 0 
0 0 0 0 0 0 0 0 0 
0 0 0 0 0 0 0 0 0 
0 0 0 0 0 0 0 0 0 
0 0 0 0 0 0 0 0 0 
0 0 0 0 0 0 0 0 0 
0 0 0 0 0 0 0 0 0 
0 0 0 0 0 0 0 0 0 
0 0 0 0 0 0 0 0 0 
0 0 0 0 0 0 0 0 0 
0 0 0 0 0 0 0 0 0 
0 0 0 0 0 0 0 0 0 
0 0 0 0 0 0 0 0 0 
0 0 0 0 0 0 0 0 0 
0 0 0 0 0 0 0 0 0 
0 0 0 0 0 0 0 0 0 
0 0 0 0 0 0 0 0 0 
0 0 0 0 0 0 0 0 0 
0 0 0 0 0 0 0 0 0 
0 0 0 0 0 0 0 0 0 
0 0 0 0 0 0 0 0 0 
0 0 0 0 0 0 0 0 0 
0 0 0 0 0 0 0 0 0 
0 0 0 0 0 0 0 0 0 
0 0 0 0 0 0 0 0 0 
0 0 0 0 0 0 0 0 0 
0 0 0 0 0 0 0 0 0 
0 0 0 0 0 0 0 0 0 
0 0 0 0 0 0 0 0 0 
0 0 0 0 0 0 0 0 0 
0 0 0 0 0 0 0 0 0 
0 0 0 0 0 0 0 0 0 
0 0 0 0 0 0 0 0 0 
0 0 0 0 0 0 0 0 0 
0 0 0 0 0 0 0 0 0 
0 0 0 0 0 0 0 0 0 
0 0 0 0 0 0 0 0 0 
0 0 0 0 0 0 0 0 0 
0 0 0 0 0 0 0 0 0 
0 0 0 0 0 0 0 0 0 
0 0 0 0 0 0 0 0 0 
0 0 0 0 0 0 0 0 0 
0 0 0 0 0 0 0 0 0 
0 0 0 0 0 0 0 0 0 
0 0 0 0 0 0 0 0 0 
0 0 0 0 0 0 0 0 0 
0 0 0 0 0 0 0 0 0 
0 0 0 0 0 0 0 0 0 
0 0 0 0 0 0 0 0 0 
0 0 0 0 0 0 0 0 0 
0 0 0 0 0 0 0 0 0 
0 0 0 0 0 0 0 0 0 
0 0 0 0 0 0 0 0 0 
0 0 0 0 0 0 0 0 0 
0 0 0 0 0 0 0 0 0 
0 0 0 0 0 0 0 0 0 
0 0 0 0 0 0 0 0 0 
0 0 0 0 0 0 0 0 0 
0 0 0 0 0 0 0 0 0 
0 0 0 0 0 0 0 0 0 
0 0 0 0 0 0 0 0 0 
0 0 0 0 0 0 0 0 0 
0 0 0 0 0 0 0 0 0 
0 0 0 0 0 0 0 0 0 
0 0 0 0 0 0 0 0 0 
0 0 0 0 0 0 0 0 0 
0 0 0 0 0 0 0 0 0 
0 0 0 0 0 0 0 0 0 
0 0 0 0 0 0 0 0 0 
0 0 0 0 0 0 0 0 0 
0 0 0 0 0 0 0 0 0 
0 0 0 0 0 0 0 0 0 
0 0 0 0 0 0 0 0 0 
0 0 0 0 0 0 0 0 0 
0 0 0 0 0 0 0 0 0 
0 0 0 0 0 0 0 0 0 
0 0 0 0 0 0 0 0 0 
0 0 0 0 0 0 0 0 0 
0 0 0 0 0 0 0 0 0 
0 0 0 0 0 0 0 0 0 
0 0 0 0 0 0 
x 1 1049 double
-0.125484 -0.683709 0.80571 0.285031 -1.27461 -1.66815 -1.47046 -0.120297 -0.241145 
-0.871737 -0.408212 -0.721231 0.120247 0.689816 0.412342 0.584042 -0.0223698 1.58326 
1.2192 1.44676 1.02136 -1.94754 -1.4298 -1.09136 -1.08989 -1.65813 -0.19182 
-0.973434 -0.410552 -0.609909 -0.634976 -0.195217 0.837636 0.186084 0.979353 0.26332 
0.586517 1.33693 1.55282 2.07806 -3.03485 -2.34659 -1.25796 -0.233117 -0.348839 
-0.72502 0.0490751 0.798039 0.261486 0.514197 1.42249 1.04337 1.81725 2.25891 
2.84032 3.36328 -3.14679 -3.77271 -2.30582 2.32822 2.37281 2.90047 2.90372 
4.07581 -4.09542 -3.21882 3.75958 5.67134 6.23366 -6.42443 -5.74682 5.66638 
5.12345 5.13524 6.83112 6.11929 6.49409 7.70585 -8.18868 -7.06601 -7.78053 
-6.23962 5.3588 5.93355 6.63132 6.45254 7.44221 8.49641 -8.04202 -8.71627 
7.81834 7.31419 8.28562 -9.70582 -9.47082 -8.03483 -8.76508 8.75931 9.63607 
9.93932 10.6088 11.2229 11.8126 11.747 11.0604 -14.4643 -14.6429 -14.8214 
-14.1071 -14.2857 -15 -15 -15 -15 -15 -13.0357 -13.2143 
-13.75 -13.5714 -13.9286 -13.3929 -12.6786 -12.5 -12.8571 -11.3214 -11.5 
-11.1429 -10.25 -10.6071 -10.0714 -10.7857 -10.9643 -10.4286 -9.7143 -9.5357 
-9.8929 -9.1786 -9.3571 -9 -9 -8.2 -9 -9 -9 
-8.8 -8.4 -8.6 -8 -7.6 -7.8 -7.4 -7.2 -6.2 
-6.8 -6.4 -6.6 -7 -6 -5.2 -5.8 -5.6 -5.4 
-4.4 -4.2 -4.8 -5 -4.6 -4 -3.4 -3.2 -3.8 
-3.6 -2.6 -3 -3 -2.2 -3 -2.8 -3 -2.4 
-3 -2 -1.4 -1.8 -1.2 -1.6 -0.8 -1 -0.4 
-0.2 -0.6 0.4 0.8 -0 0.2 0.6 1.6 1.4 
1.2 1.8 1 2.2 2.4 2.6 2 2.8 3 
3 3.2 3.6 3.8 3 3 3 3.4 4 
4.8 4.4 4.2 4.6 5.8 5.6 5.2 5.4 5 
6.8 6.4 6.2 6.6 6 7.4 7.8 7.6 7.2 
7 8.6 8.8 8.2 8.4 8 9 9 9.5357 
9 9.1786 9 9.7143 9 9.8929 9.3571 10.0714 10.4286 
10.9643 10.7857 10.6071 10.25 11.3214 11.1429 11.5 11.417 11.9577 
12.4651 12.8571 12.5 12.7455 12.6786 12.2063 13.3929 13.0357 13.75 
13.9286 13.5714 13.2143 14.4643 14.2857 14.8214 14.1071 14.6429 15 
15 15 15 15 -15 -15 -15 -15 -15 
-9 -9 -9 -9 -9 -3 -3 -3 -3 
-3 3 3 3 3 3 9 9 9 
9 9 11.4372 11.9366 11.4016 15 15 15 15 
15 -15 -15 -15 -15 -15 -11.4377 -11.0455 -9 
-9 -9 -9 -9 -3 -3 -3 -3 -3 
3 3 3 3 3 9 9 9 9 
9 15 15 15 15 15 -15 -15 -15 
-15 -15 -10.9333 -9 -9 -9 -9 -9 -3 
-3 -3 -3 -3 3 3 3 3 3 
9 9 9 9 9 12.5805 15 15 15 
15 15 -15 -15 -15 -15 -15 -9 -9 
-9 -9 -9 -3 -3 -3 -3 -3 3 
3 3 3 3 9 9 9 9 9 
15 15 15 15 15 -15 -15 -15 -15 
-15 -9 -9 -9 -9 -9 -3 -3 -3 
-3 -3 3 3 3 3 3 9 9 
9 9 9 12.8041 15 15 15 15 15 
-15 -15 -15 -15 -15 -9 -9 -9 -9 
-9 -3 -3 -3 -3 -3 3 3 3 
3 3 9 9 9 9 9 15 15 
15 15 15 -15 -15 -15 -15 -15 -9 
-9 -9 -9 -9 -3 -3 -3 -3 -3 
3 3 3 3 3 9 9 9 9 
9 13.1165 15 15 15 15 15 -15 -15 
-15 -15 -15 -8.4643 -8.8214 -8.2857 -8.6429 -8.1071 -9 
-7.75 -7.2143 -7.3929 -7.0357 -7.9286 -7.5714 -6.8571 -6.5 -6.6786 
-5.1429 -5.3214 -5.5 -4.9643 -4.6071 -4.25 -4.7857 -4.4286 -4.0714 
-3.8929 -3.7143 -3.5357 -3.1786 -3.3571 -2.6429 -3 -2.8214 -2.1071 
-2.2857 -2.4643 -1.75 -1.2143 -1.5714 -1.0357 -1.3929 -1.9286 -0.5 
-0.6786 -0.8571 0.8571 0.6786 0.5 1.5714 1.2143 1.75 1.9286 
1.3929 1.0357 2.4643 2.1071 2.2857 2.6429 2.8214 3.3571 3 
3.8929 3.1786 3.7143 3.5357 4.25 4.7857 4.6071 4.4286 4.9643 
4.0714 5.5 5.3214 5.1429 6.6786 6.8571 6.5 7.0357 7.3929 
7.9286 7.5714 7.2143 7.75 8.8214 8.6429 8.1071 8.4643 8.2857 
9 9 13.2427 15 15 15 15 15 -15 
-15 -15 -15 -15 15 15 15 15 15 
-14.3333 -15 -15 -14.6667 -15 -15 -14.1667 -15 -14.8333 
-14.5 -14 -12.2 -13 -12.6 -12.4 -12.8 -11.2 -11.6 
-12 -11.4 -11.8 -10.4 -11 -10.6 -10.8 -10.2 -9.2 
-9.4 -9.6 -10 -9.8 -9 -8.6429 -9 -9 -8.4643 
-9 -9 -8.1071 -8.2857 -8.8214 -7.75 -7.2143 -7.9286 -7.5714 
-7.0357 -7.3929 -6.6786 -6.5 -6.8571 -5.1429 -5.3214 -5.5 -4.0714 
-4.9643 -4.6071 -4.4286 -4.7857 -4.25 -3.7143 -3.5357 -3.3571 -3.1786 
-3.8929 -2.4 -2.2 -2.8 -3 -3 -3 -3 -3 
-2.6 -1.8 -1.2 -1.6 -2 -1.4 -0.8 -1 -0.4 
-0.6 -0.2 0.2 -0 0.6 0.4 0.8 1 1.4 
1.6 1.2 1.8 2.4 2.2 2.6 2.8 2 3.4 
3.6 3.8 3 3.2 4.2 4 4.6 4.8 4.4 
5.4 5.8 5.6 5 5.2 6.6 6.2 6.4 6.8 
6 7.4 7.2 7.8 7 7.6 8.2 8.6 8.4 
8 8.8 9 9.8 9 9.2 9 9 9.6 
9.4 9 10 10.2 10.4 10.6 10.8 11.4 11.2 
11 11.8 11.6 12 12.8 12.2 12.4 12.6 13 
14.6667 14.3333 14.8333 14.5 14 14.1667 15 15 15 
15 15 -15 -15 -15 -15 -15 -9 -9 
-9 -9 -9 -3 -3 -3 -3 -3 9 
9 9 9 9 15 15 15 15 15 
-15 -15 -15 -15 -15 -9 -9 -9 -9 
-9 -3 -3 -3 -3 -3 9 9 9 
9 9 15 15 15 15 15 -15 -15 
-15 -15 -15 -9 -9 -9 -9 -9 -3 
-3 -3 -3 -3 9 9 9 9 9 
15 15 15 15 15 -15 -15 -15 -15 
-15 -9 -9 -9 -9 -9 -3 -3 -3 
-3 -3 9 15 15 15 15 15 -15 
-15 -15 -15 -15 -9 -9 -9 -9 -9 
-3 -3 -3 -3 -3 9 9 9 9 
9 9 15 15 15 15 15 -14.2 -14.8 
-15 -14.4 -14.6 -13.2 -13.8 -14 -13.6 -13.4 -12.4 
-13 -12.6 -12.2 -12.8 -11.6 -11.8 -11.4 -11.2 -12 
-10.6 -10.2 -11 -10.8 -10.4 -10 -9.2 -9.6 -9.4 
-9.8 -8.2 -8.4 -9 -8.8 -8.6 -8 -7.4 -7.2 
-7.6 -7.8 -6.4 -6.8 -6.6 -7 -6.2 -5.8 -5.6 
-5.2 -6 -5.4 -5 -4.6 -4.2 -4.4 -4.8 -4 
-3.4 -3.8 -3.6 -3.2 -2.6 -2.2 -3 -2.8 -2.4 
-1.4 -1.6 -1.8 -1.2 -2 -0.2 -1 -0.8 -0.6 
-0.4 0.4 -0 0.6 0.8 0.2 1.4 1.6 1.2 
1.8 1 2 2.8 2.2 2.4 2.6 3.4 3 
3.8 3.2 3.6 4 4.2 4.4 4.6 4.8 5.8 
5 5.4 5.2 5.6 6.4 6.8 6.6 6.2 6 
7.4 7 7.6 7.8 7.2 8.6 8.8 8 8.4 
8.2 9 9.2 9.8 9.4 9.6 10 10.2 10.4 
10.6 10.8 11.4 11.8 11 11.6 11.2 12.4 12.8 
12.6 12.2 12 13 13.8 13.4 13.6 13.2 14.8 
14 14.2 14.4 14.6 15 
y 1 1049 double
-11.5028 -11.2988 -11.3416 -11.1258 -10.4295 -10.0559 -10.9557 -10.3532 -10.9853 
-10.7766 -10.6112 -10.2526 -10.7033 -10.7996 -10.4104 -10.0673 -10.0193 -10.5194 
-10.9402 -10.0284 -10.3959 -9.54424 -9.52139 -9.05827 -9.92898 -9.02024 -9.25007 
-9.48943 -9.98204 -9.63505 -9.14524 -9.60492 -9.3308 -9.76481 -9.86349 -9.28657 
-9.63698 -9.52908 -9.06056 -9.07007 -8.2291 -8.27981 -8.4934 -8.34852 -8.79757 
-8.61988 -8.76647 -8.32905 -8.30252 -8.81777 -8.46451 -8.8736 -8.04483 -8.5533 
-8.46202 -8.135 -7.59887 -7.47039 -7.62779 -7.24867 -7.98627 -7.31417 -7.84685 
-7.45442 -6.66404 -6.9502 -6.80244 -6.26079 -6.08095 -5.24492 -5.01745 -5.48789 
-5.18354 -5.81092 -5.19467 -5.15027 -5.62881 -5.17275 -4.12591 -4.07817 -4.54872 
-4.57143 -4.63468 -4.519 -4.18771 -4.75039 -4.60687 -4.14706 -3.55375 -3.97571 
-3.24032 -3.90555 -3.58514 -2.70503 -2.09874 -2.7758 -2.75786 -2.73803 -2.54498 
-1.7621 -1.4235 -1.55481 -0.781235 -0.202358 -0.856247 0 0 0 
0 0 0.4 0.6 0 0.8 0.2 0 0 
0 0 0 0 0 0 0 0 0 
0 0 0 0 0 0 0 0 0 
0 0 0 0.6 0.2 0 0 0.4 0.8 
0 0 0 0 0 0 0 0 0 
0 0 0 0 0 0 0 0 0 
0 0 0 0 0 0 0 0 0 
0 0 0.4 0.2 0 0 0 0.8 0 
0.6 0 0 0 0 0 0 0 0 
0 0 0 0 0 0 0 0 0 
0 0 0 0 0 0 0 0 0.6 
0 0 0 0 0.2 0.8 0.4 0 0 
0 0 0 0 0 0 0 0 0 
0 0 0 0 0 0 0 0 0 
0 0 0 0 0 0 0.8 0.6 0 
0.4 0 0 0 0.2 0 0 0 0 
0 0 0 0 0 0 0 0.414592 0.697663 
0.964398 0 0 0.449836 0 0.180828 0 0 0 
0 0 0 0 0 0 0 0 0.2 
0.4 0 0.8 0.6 1.4 1 1.8 1.2 1.6 
1.6 1 1.4 1.2 1.8 1.8 1.6 1.4 1 
1.2 1.2 1.4 1.8 1.6 1 1.8 1.6 1.4 
1.2 1 1.01808 1.34274 1.69704 1.4 1.2 1.8 1 
1.6 2 2.2 2.6 2.4 2.8 2.42551 2.82871 2.2 
2.4 2.6 2 2.8 2 2.4 2.6 2.2 2.8 
2.4 2.8 2 2.6 2.2 2.2 2.6 2.4 2 
2.8 2.2 2.4 2 2.8 2.6 3.6 3.2 3.8 
3 3.4 3.58314 3.2 3.4 3.6 3 3.8 3.2 
3.8 3 3.6 3.4 3.2 3 3.6 3.8 3.4 
3.8 3.2 3 3.6 3.4 3.83362 3.2 3.4 3.8 
3.6 3 4.8 4.2 4.4 4 4.6 4.4 4.8 
4 4.6 4.2 4.6 4.2 4 4.4 4.8 4.2 
4.6 4 4.4 4.8 4 4.8 4.2 4.4 4.6 
4.8 4 4.4 4.6 4.2 5.6 5.8 5.2 5 
5.4 5 5.6 5.2 5.8 5.4 5 5.8 5.6 
5.4 5.2 5.6 5.4 5 5.8 5.2 5.6 5.4 
5.8 5.2 5 5.30591 5.4 5 5.8 5.6 5.2 
6.2 6.8 6.4 6 6.6 6.6 6.2 6 6.8 
6.4 6.4 6.8 6 6.2 6.6 6.4 6.8 6 
6.6 6.2 6.4 6 6.2 6.6 6.8 6.6 6.4 
6 6.8 6.2 7.8 7.6 7.2 7 7.4 7.8 
7 7.6 7.4 7.2 7.6 7.8 7 7.4 7.2 
7 7.8 7.6 7.2 7.4 7.4 7 7.2 7.6 
7.8 7.29147 7.2 7.6 7.8 7.4 7 8.6 8.4 
8.2 8.8 8 8 8 8 8 8 8 
8 8 8 8 8 8 8 8 8 
8 8 8 8 8 8 8 8 8 
8 8 8 8 8 8 8 8 8 
8 8 8 8 8 8 8 8 8 
8 8 8 8 8 8 8 8 8 
8 8 8 8 8 8 8 8 8 
8 8 8 8 8 8 8 8 8 
8 8 8 8 8 8 8 8 8 
8 8 8 8 8 8 8 8 8 
8 8 8.21098 8.4 8.8 8.6 8.2 8 9.6 
9.4 9 9.8 9.2 9.2 9.6 9.8 9 9.4 
10 10.8 10.4 10 10.2 10 10 10.6 10 
10 10 10 10 10 10 10 10 10 
10 10 10 10 10 10 10 10 10 
10 10 10 10 10.2 10 10.6 10.8 10 
10.4 10 10 10 10 10 10 10 10 
10 10 10 10 10 10 10 10 10 
10 10 10 10 10 10 10 10 10 
10 10 10 10 10 10.8 10.4 10.2 10.6 
10 10 10 10 10 10 10 10 10 
10 10 10 10 10 10 10 10 10 
10 10 10 10 10 10 10 10 10 
10 10 10 10 10 10 10 10 10 
10 10 10 10 10 10 10 10 10 
10 10 10 10 10 10 10 10 10 
10 10 10.4 10 10.8 10 10.2 10 10 
10 10.6 10 10 10 10 10 10 10 
10 10 10 10 10 10 10 10 10 
10 10 10 10 10 10 10.2 10.4 10.8 
10.6 10 11.4 11.8 11.2 11.6 11 11.4 11.6 
11 11.2 11.8 11 11.8 11.2 11.4 11.6 11.8 
11.4 11.2 11 11.6 11.2 11.4 11.8 11.6 11 
12 12.6 12.4 12.8 12.2 12 12.2 12.4 12.8 
12.6 12.8 12.6 12.2 12 12.4 12.6 12 12.2 
12.4 12.8 12.6 12.4 12 12.8 12.2 13 13.6 
13.4 13.2 13.8 13.4 13.2 13.6 13 13.8 13.2 
13.4 13 13.8 13.6 13.4 13.6 13.2 13 13.8 
13 13.4 13.8 13.2 13.6 14 14.2 14.6 14.8 
14.4 14.4 14.2 14 14.8 14.6 14.6 14.8 14.2 
14 14.4 14 14.6 14 14.8 14.4 14.2 15 
15.4 15.8 15.2 15.6 15.4 15.2 15 15.8 15.6 
15.2 15.8 15.4 15 15.6 15.1667 15.3333 15 15.6667 
15.5 15.8333 15.8 15 15.6 15.4 15.2 16 16 
16 16 16 16 16 16 16 16 16 
16 16 16 16 16 16 16 16 16 
16 16 16 16 16 16 16 16 16 
16 16 16 16 16 16 16 16 16 
16 16 16 16 16 16 16 16 16 
16 16 16 16 16 16 16 16 16 
16 16 16 16 16 16 16 16 16 
16 16 16 16 16 16 16 16 16 
16 16 16 16 16 16 16 16 16 
16 16 16 16 16 16 16 16 16 
16 16 16 16 16 16 16 16 16 
16 16 16 16 16 16 16 16 16 
16 16 16 16 16 16 16 16 16 
16 16 16 16 16 16 16 16 16 
16 16 16 16 16 16 16 16 16 
16 16 16 16 16 16 16 16 16 
16 16 16 16 16 
