# vtk DataFile Version 4.0
vtk output
ASCII
DATASET POLYDATA
FIELD FieldData 4
domain 1 4 string
domain_min:-40|-40
domain_max:40|40
cell_size:1|1
boundary:0|0

variables 1 5 string
T:8.9
dt:0.01
write_case:1
substeps:10
all_steps:890

constants 1 17 string
L:40
c_s:1
dx:1
k:1000
d1:-13.5|10
d2:-6|10
d3:9|14.5
d4:13.5|10
d5:-6|8
d6:0|8
d7:6|8
d8:-9|9
d9:9|9
d10:-12|0
d11:12|0
d12:0|-10
R_w:0.1

equations 1 18 string
time:T=(T+dt)#true
pos_x:x=elem(r,0,0)#eq(gid,1)
pos_y:y=elem(r,1,0)#eq(gid,1)
wp_1:p0=if(and(lt(x,(-9)),gt(y,10)),d1,p0)#eq(gid,1)
wp_2:p0=if(and(and(gt(x,(-9)),lt(x,(-3))),gt(y,10)),d2,p0)#eq(gid,1)
wp_3:p0=if(and(and(gt(x,(-3)),lt(x,9)),gt(y,10)),d3,p0)#eq(gid,1)
wp_4:p0=if(and(gt(x,9),gt(y,10)),d4,p0)#eq(gid,1)
wp_5:p0=if(and(and(gt(x,(-9)),lt(x,(-3))),lt(y,8)),d5,p0)#eq(gid,1)
wp_6:p0=if(and(and(gt(x,(-3)),lt(x,3)),lt(y,8)),d6,p0)#eq(gid,1)
wp_7:p0=if(and(and(gt(x,3),lt(x,9)),lt(y,8)),d7,p0)#eq(gid,1)
wp_8:p0=if(and(and(gt(x,(-9)),lt(x,0)),and(gt(y,8),lt(y,10))),d8,p0)#eq(gid,1)
wp_9:p0=if(and(and(gt(x,0),lt(x,9)),and(gt(y,8),lt(y,10))),d9,p0)#eq(gid,1)
wp_10:p0=if(and(lt(x,(-9)),lt(y,10)),d10,p0)#eq(gid,1)
wp_11:p0=if(and(gt(x,9),lt(y,10)),d11,p0)#eq(gid,1)
wp_12:p0=if(lt(y,0),d12,p0)#eq(gid,1)
acceleration:v=sfm(v,p0,v0,m,R,A,B,k,c,tau)#eq(gid,1)
velocity:v=euler(v,a,dt)#eq(gid,1)
position:r=euler(r,v,dt)#eq(gid,1)

POINTS 1049 float
-6.05029 -5.39616 0 -5.40194 -5.41466 0 4.99164 -5.92628 0 
-6.27879 -4.73669 0 7.49006 -4.22308 0 -8.92785 -3.13943 0 
-8.20433 -3.33827 0 7.47711 -3.61315 0 7.86392 -3.17513 0 
8.47461 -3.71777 0 -9.70633 -2.34783 0 -8.88957 -2.32958 0 
8.49143 -2.85763 0 9.54177 -2.9617 0 9.38927 -2.28803 0 
-10.5367 -1.45961 0 -9.92858 -1.75125 0 9.95603 -1.88832 0 
10.6175 -1.30279 0 -11.6872 -0.368552 0 -11.1395 -0.936401 0 
-15 0 0 -14.6429 0 0 -15 0.2 0 
-14.8214 0 0 -15 0.4 0 -14.1071 0 0 
-15 0.6 0 -15 0.8 0 -14.4643 0 0 
-14.2857 0 0 -13.3929 0 0 -13.5714 0 0 
-13.75 0 0 -13.2143 0 0 -13.0357 0 0 
-13.9286 0 0 -12.8571 0 0 -12.0738 0.0657582 0 
-12.5 0 0 -12.6786 0 0 -11.5 0 0 
-11.1429 0 0 -11.8374 0.582389 0 -11.3214 0 0 
-10.0714 0 0 -10.9643 0 0 -10.4286 0 0 
-10.25 0 0 -10.7857 0 0 -10.6071 0 0 
-9.5357 0 0 -9.8929 0 0 -9.1786 0 0 
-9.7143 0 0 -9.3571 0 0 -9 0.6 0 
-9 0.2 0 -8.2 0 0 -8.4 0 0 
-9 0.4 0 -9 0.8 0 -8.8 0 0 
-8.6 0 0 -9 0 0 -8 0 0 
-7.2 0 0 -7.4 0 0 -7.6 0 0 
-7.8 0 0 -6.2 0 0 -6.8 0 0 
-6.6 0 0 -7 0 0 -6.4 0 0 
-5.2 0 0 -5.6 0 0 -6 0 0 
-5.4 0 0 -5.8 0 0 -4.6 0 0 
-5 0 0 -4.8 0 0 -4.4 0 0 
-4.2 0 0 -3.8 0 0 -3.6 0 0 
-3.4 0 0 -3.2 0 0 -4 0 0 
-3 0.6 0 -3 0.4 0 -2.4 0 0 
-2.8 0 0 -2.6 0 0 -2.2 0 0 
-3 0.2 0 -3 0 0 -3 0.8 0 
-1.2 0 0 -1.4 0 0 -2 0 0 
-1.8 0 0 -1.6 0 0 -0.4 0 0 
-0.2 0 0 -0.6 0 0 -0.8 0 0 
-1 0 0 0.8 0 0 0.4 0 0 
0.2 0 0 0.6 0 0 -0 0 0 
1.4 0 0 1.6 0 0 1 0 0 
1.2 0 0 1.8 0 0 2.6 0 0 
2.8 0 0 2.4 0 0 2.2 0 0 
2 0 0 3 0.4 0 3 0 0 
3.6 0 0 3.2 0 0 3.4 0 0 
3 0.6 0 3 0.2 0 3 0.8 0 
3.8 0 0 4.2 0 0 4.6 0 0 
4.8 0 0 4 0 0 4.4 0 0 
5.4 0 0 5 0 0 5.6 0 0 
5.2 0 0 5.8 0 0 6.6 0 0 
6 0 0 6.4 0 0 6.8 0 0 
6.2 0 0 7.6 0 0 7.2 0 0 
7.8 0 0 7.4 0 0 7 0 0 
8.2 0 0 8 0 0 8.6 0 0 
8.4 0 0 8.8 0 0 9 0.6 0 
9.8929 0 0 9 0.8 0 9.1786 0 0 
9 0.4 0 9.5357 0 0 9 0 0 
9.3571 0 0 9.7143 0 0 9 0.2 0 
10.7857 0 0 10.9643 0 0 10.25 0 0 
10.6071 0 0 10.0714 0 0 10.4286 0 0 
11.3214 0 0 11.1429 0 0 11.5 0 0 
11.5062 0.687819 0 12.6786 0 0 12.5 0 0 
12.0779 0.757156 0 12.8571 0 0 12.0337 0.139029 0 
13.3929 0 0 13.75 0 0 13.9286 0 0 
13.5714 0 0 13.2143 0 0 13.0357 0 0 
14.1071 0 0 14.2857 0 0 14.8214 0 0 
14.4643 0 0 14.6429 0 0 15 0 0 
15 0.6 0 15 0.2 0 15 0.8 0 
15 0.4 0 -15 1.6 0 -15 1.4 0 
-15 1.2 0 -15 1 0 -15 1.8 0 
-11.5564 1.09455 0 -11.1727 1.85039 0 -11.8119 1.68392 0 
-9 1.6 0 -9 1 0 -9 1.8 0 
-9 1.2 0 -9 1.4 0 -3 1.2 0 
-3 1 0 -3 1.6 0 -3 1.4 0 
-3 1.8 0 3 1.6 0 3 1.2 0 
3 1 0 3 1.8 0 3 1.4 0 
9 1.4 0 9 1.8 0 9 1 0 
9 1.6 0 9 1.2 0 15 1 0 
15 1.4 0 15 1.8 0 15 1.6 0 
15 1.2 0 -15 2.4 0 -15 2 0 
-15 2.8 0 -15 2.2 0 -15 2.6 0 
-12.348 2.24516 0 -11.302 2.50608 0 -9 2.4 0 
-9 2.2 0 -9 2.6 0 -9 2 0 
-9 2.8 0 -3 2.2 0 -3 2 0 
-3 2.8 0 -3 2.4 0 -3 2.6 0 
3 2.8 0 3 2 0 3 2.2 0 
3 2.4 0 3 2.6 0 9 2.2 0 
9 2.8 0 9 2.6 0 9 2 0 
9 2.4 0 11.176 2.84875 0 15 2.4 0 
15 2.8 0 15 2 0 15 2.6 0 
15 2.2 0 -15 3.4 0 -15 3.2 0 
-15 3 0 -15 3.8 0 -15 3.6 0 
-11.0174 3.19659 0 -9 3.2 0 -9 3.8 0 
-9 3.4 0 -9 3.6 0 -9 3 0 
-3 3 0 -3 3.2 0 -3 3.6 0 
-3 3.4 0 -3 3.8 0 3 3.4 0 
3 3 0 3 3.6 0 3 3.2 0 
3 3.8 0 9 3.2 0 9 3.4 0 
9 3.6 0 9 3 0 9 3.8 0 
10.6681 3.68215 0 12.6136 3.53147 0 15 3.4 0 
15 3.2 0 15 3.6 0 15 3 0 
15 3.8 0 -15 4.4 0 -15 4.2 0 
-15 4.8 0 -15 4 0 -15 4.6 0 
-13.11 4.60613 0 -12.3986 4.46908 0 -12.7442 4.01539 0 
-10.5193 4.90639 0 -10.7457 4.12415 0 -9 4 0 
-9 4.4 0 -9 4.8 0 -9 4.6 0 
-9 4.2 0 -3 4 0 -3 4.8 0 
-3 4.6 0 -3 4.2 0 -3 4.4 0 
3 4.8 0 3 4.6 0 3 4.2 0 
3 4 0 3 4.4 0 9 4 0 
9 4.2 0 9 4.8 0 9 4.4 0 
9 4.6 0 10.6208 4.88112 0 10.5172 4.23863 0 
11.2298 4.22412 0 12.5338 4.08022 0 15 4.8 0 
15 4.4 0 15 4 0 15 4.2 0 
15 4.6 0 -15 5.8 0 -15 5.2 0 
-15 5.4 0 -15 5 0 -15 5.6 0 
-12.5242 5.01095 0 -12.8966 5.55973 0 -10.3076 5.51304 0 
-9 5.2 0 -9 5.8 0 -9 5.6 0 
-9 5.4 0 -9 5 0 -3 5.8 0 
-3 5 0 -3 5.2 0 -3 5.6 0 
-3 5.4 0 3 5 0 3 5.4 0 
3 5.8 0 3 5.2 0 3 5.6 0 
9 5.8 0 9 5 0 9 5.4 0 
9 5.6 0 9 5.2 0 10.2383 5.83871 0 
12.8591 5.67843 0 15 5.8 0 15 5.6 0 
15 5.2 0 15 5 0 15 5.4 0 
-15 6.4 0 -15 6.2 0 -15 6 0 
-15 6.6 0 -15 6.8 0 -9.88435 6.96281 0 
-9 6 0 -9 6.4 0 -9 6.2 0 
-9 6.6 0 -9 6.8 0 -3 6.6 0 
-3 6.2 0 -3 6.8 0 -3 6.4 0 
-3 6 0 3 6 0 3 6.2 0 
3 6.4 0 3 6.8 0 3 6.6 0 
6.41449 6.60872 0 9.82761 6.68458 0 9 6.6 0 
9 6.8 0 9 6.2 0 9 6.4 0 
9 6 0 10.4734 6.65128 0 12.9675 6.55054 0 
12.4097 6.59589 0 13.5649 6.56285 0 15 6 0 
15 6.8 0 15 6.4 0 15 6.6 0 
15 6.2 0 -15 7.2 0 -15 7.6 0 
-15 7.4 0 -15 7 0 -15 7.8 0 
-13.252 7.19676 0 -12.6818 7.10716 0 -10.1258 7.55884 0 
-10.6157 7.7814 0 -9.53914 7.69794 0 -9 7.4 0 
-9 7 0 -9 7.2 0 -9 7.6 0 
-9 7.8 0 -3 7 0 -3 7.4 0 
-3 7.8 0 -3 7.2 0 -3 7.6 0 
-0.34271 7.54444 0 0.0423674 7.99062 0 0.198187 7.35455 0 
3 7.6 0 3 7.4 0 3 7.8 0 
3 7 0 3 7.2 0 5.98516 7.92057 0 
9 7.6 0 9.60336 7.96463 0 9.88027 7.39648 0 
9 7.2 0 9 7.8 0 9 7.4 0 
9 7 0 13.3966 7.979 0 15 7 0 
15 7.2 0 15 7.8 0 15 7.6 0 
15 7.4 0 -15 8.6 0 -15 8.4 0 
-15 8 0 -15 8.8 0 -15 8.2 0 
-9.87796 8.28785 0 -9.23641 8.3231 0 -9.50146 8.91337 0 
-8.73516 8.76554 0 -8.18472 8.7705 0 -9 8 0 
-8.1071 8 0 -8.6429 8 0 -8.2857 8 0 
-8.4643 8 0 -8.8214 8 0 -7.75 8 0 
-7.2143 8 0 -7.0357 8 0 -7.5714 8 0 
-7.3929 8 0 -7.9286 8 0 -7.54006 8.76958 0 
-6.97886 8.60463 0 -6.27056 8.29076 0 -6.5 8 0 
-6.8571 8 0 -6.6786 8 0 -5.5 8 0 
-5.1429 8 0 -5.3214 8 0 -4.0714 8 0 
-4.9643 8 0 -4.4286 8 0 -4.7857 8 0 
-4.92319 8.92619 0 -4.25 8 0 -4.6071 8 0 
-4.11779 8.86877 0 -3.7143 8 0 -3.8929 8 0 
-3.5357 8 0 -3.3571 8 0 -3.1786 8 0 
-2.55997 8.7671 0 -3 8 0 -2.6429 8 0 
-2.8214 8 0 -2.2857 8 0 -2.1071 8 0 
-2.4643 8 0 -1.75 8 0 -1.9286 8 0 
-1.2143 8 0 -1.5714 8 0 -1.0357 8 0 
-1.3929 8 0 -0.5 8 0 -0.8571 8 0 
-0.6786 8 0 -0.418919 8.35961 0 0.5 8 0 
0.6786 8 0 0.8571 8 0 0.914917 8.5367 0 
1.2143 8 0 1.9286 8 0 1.3929 8 0 
1.75 8 0 1.5714 8 0 1.0357 8 0 
2.4643 8 0 2.6429 8 0 2.2857 8 0 
2.1071 8 0 2.8214 8 0 3.00749 8.86583 0 
3.5357 8 0 3.1786 8 0 3.3571 8 0 
3 8 0 3.7143 8 0 3.8929 8 0 
4.4286 8 0 4.25 8 0 4.7857 8 0 
4.6071 8 0 4.9643 8 0 4.0714 8 0 
5.5 8 0 5.1429 8 0 5.3214 8 0 
6.6786 8 0 6.4759 8.41532 0 6.5 8 0 
6.8571 8 0 7.36842 8.71417 0 7.3929 8 0 
7.96568 8.60162 0 7.0357 8 0 7.2143 8 0 
7.5714 8 0 7.9286 8 0 7.75 8 0 
8.63419 8.60672 0 8.4643 8 0 8.1071 8 0 
8.2857 8 0 8.8214 8 0 8.6429 8 0 
9 8 0 9.50327 8.98526 0 9 8 0 
9.20479 8.40726 0 13.3304 8.5319 0 15 8.4 0 
15 8 0 15 8.6 0 15 8.8 0 
15 8.2 0 -15 9.8 0 -15 9 0 
-15 9.6 0 -15 9.4 0 -15 9.2 0 
-9.00187 9.22713 0 -8.44444 9.25506 0 -7.91234 9.20315 0 
-7.37155 9.33049 0 -6.57728 9.54527 0 7.73163 9.14812 0 
8.96051 9.04306 0 8.2959 9.07001 0 8.6136 9.46424 0 
13.3571 9.08881 0 13.4905 9.92771 0 15 9.2 0 
15 9.8 0 15 9.4 0 15 9 0 
15 9.6 0 -15 10.6 0 -15 10.4 0 
-14.6667 10 0 -15 10.2 0 -14.1667 10 0 
-14.3333 10 0 -15 10.8 0 -14.5 10 0 
-15 10 0 -14.8333 10 0 -14 10 0 
-12.8 10 0 -12.4 10 0 -13 10 0 
-12.6 10 0 -12.2 10 0 -11.2 10 0 
-12 10 0 -11.8 10 0 -11.4 10 0 
-11.6 10 0 -10.6 10 0 -10.4 10 0 
-10.2 10 0 -11 10 0 -10.8 10 0 
-9.2 10 0 -9.8 10 0 -9.4 10 0 
-9.6 10 0 -10 10 0 -8.1071 10 0 
-9 10 0 -9 10.8 0 -9 10.6 0 
-9 10.4 0 -8.4643 10 0 -8.8214 10 0 
-8.2857 10 0 -8.6429 10 0 -9 10.2 0 
-7.0357 10 0 -7.3929 10 0 -7.5714 10 0 
-7.2143 10 0 -7.9286 10 0 -7.75 10 0 
-6.8571 10 0 -6.6786 10 0 -6.5 10 0 
-5.1429 10 0 -5.3214 10 0 -5.5 10 0 
-4.25 10 0 -4.6071 10 0 -4.0714 10 0 
-4.9643 10 0 -4.7857 10 0 -4.4286 10 0 
-3.1786 10 0 -3.7143 10 0 -3.8929 10 0 
-3.5357 10 0 -3.3571 10 0 -3 10.6 0 
-3 10.2 0 -2.2 10 0 -2.8 10 0 
-3 10 0 -3 10.8 0 -3 10.4 0 
-2.4 10 0 -2.6 10 0 -1.6 10 0 
-1.4 10 0 -2 10 0 -1.8 10 0 
-1.2 10 0 -0.4 10 0 -1 10 0 
-0.6 10 0 -0.8 10 0 -0.2 10 0 
0.6 10 0 -0 10 0 0.4 10 0 
0.2 10 0 0.8 10 0 1.8 10 0 
1.4 10 0 1 10 0 1.6 10 0 
1.2 10 0 2.4 10 0 2.2 10 0 
2.8 10 0 2.6 10 0 2 10 0 
3.4 10 0 3.8 10 0 3.2 10 0 
3 10 0 3.6 10 0 4.6 10 0 
4 10 0 4.2 10 0 4.8 10 0 
4.4 10 0 5.2 10 0 5.6 10 0 
5.4 10 0 5 10 0 5.8 10 0 
6.4 10 0 6.6 10 0 6 10 0 
6.2 10 0 6.8 10 0 7.8 10 0 
7.4 10 0 7.6 10 0 7.2 10 0 
7 10 0 8.8 10 0 8.2 10 0 
8.6 10 0 8.4 10 0 8 10 0 
9 10.4 0 9 10.6 0 9 10.2 0 
9.4 10 0 9.2 10 0 9 10 0 
9 10.8 0 9.6 10 0 9.8 10 0 
10.6 10 0 10.8 10 0 10 10 0 
10.2 10 0 10.4 10 0 11.4 10 0 
11.2 10 0 11.6 10 0 11 10 0 
11.8 10 0 12.2796 10.6393 0 12.8 10 0 
12 10 0 12.6 10 0 12.4 10 0 
12.2 10 0 13 10 0 14.5 10 0 
14.3333 10 0 14.8333 10 0 14.6667 10 0 
14.1667 10 0 14 10 0 15 10.8 0 
15 10.6 0 15 10.2 0 15 10.4 0 
15 10 0 -15 11.6 0 -15 11.2 0 
-15 11.4 0 -15 11.8 0 -15 11 0 
-9 11.6 0 -9 11.8 0 -9 11 0 
-9 11.4 0 -9 11.2 0 -3 11.4 0 
-3 11.2 0 -3 11.6 0 -3 11.8 0 
-3 11 0 9 11.4 0 9 11.2 0 
9 11 0 9 11.8 0 9 11.6 0 
11.901 11.2839 0 11.4749 11.8335 0 12.1118 11.8367 0 
12.6072 11.6842 0 12.5852 11.1213 0 15 11.4 0 
15 11.8 0 15 11.6 0 15 11.2 0 
15 11 0 -15 12.4 0 -15 12 0 
-15 12.6 0 -15 12.8 0 -15 12.2 0 
-9 12.2 0 -9 12.6 0 -9 12 0 
-9 12.4 0 -9 12.8 0 -3 12.6 0 
-3 12.4 0 -3 12 0 -3 12.8 0 
-3 12.2 0 3.77631 12.6704 0 4.6359 12.707 0 
9 12.2 0 9 12.8 0 9 12.4 0 
9 12.6 0 9 12 0 11.5979 12.403 0 
15 12.6 0 15 12.4 0 15 12.8 0 
15 12.2 0 15 12 0 -15 13.8 0 
-15 13.2 0 -15 13.4 0 -15 13.6 0 
-15 13 0 -9 13.8 0 -9 13 0 
-9 13.4 0 -9 13.2 0 -9 13.6 0 
-3 13.4 0 -3 13 0 -3 13.2 0 
-3 13.6 0 -3 13.8 0 6.56487 13.2974 0 
8.64301 13.8314 0 9 13.4 0 9 13.8 0 
9 13.2 0 9 13 0 9 13.6 0 
10.4373 13.0957 0 10.6735 13.7308 0 10.0865 13.6294 0 
15 13.2 0 15 13.8 0 15 13.4 0 
15 13 0 15 13.6 0 -15 14.2 0 
-15 14 0 -15 14.6 0 -15 14.4 0 
-15 14.8 0 -9 14.6 0 -9 14 0 
-9 14.4 0 -9 14.2 0 -9 14.8 0 
-3 14 0 -3 14.8 0 -3 14.6 0 
-3 14.4 0 -3 14.2 0 7.58364 14.4082 0 
8.72136 14.78 0 8.1076 14.8239 0 8.33539 14.2748 0 
9.17725 14.3312 0 9 14 0 9.6432 14.025 0 
15 14.8 0 15 14.2 0 15 14 0 
15 14.4 0 15 14.6 0 -15 15.6 0 
-15 15.8 0 -15 15.2 0 -15 15.4 0 
-15 15 0 -9 15.4 0 -9 15.2 0 
-9 15 0 -9 15.8 0 -9 15.6 0 
-3 15.2 0 -3 15.8 0 -3 15.6 0 
-3 15.4 0 -3 15 0 9 15 0 
9 15.6667 0 9 15.8333 0 9 15.5 0 
9 15.1667 0 9 15.3333 0 15 15.8 0 
15 15 0 15 15.6 0 15 15.4 0 
15 15.2 0 -14.6 16 0 -14.8 16 0 
-14.2 16 0 -15 16 0 -14.4 16 0 
-13.2 16 0 -14 16 0 -13.4 16 0 
-13.8 16 0 -13.6 16 0 -12.6 16 0 
-12.8 16 0 -13 16 0 -12.2 16 0 
-12.4 16 0 -11.4 16 0 -11.2 16 0 
-11.8 16 0 -11.6 16 0 -12 16 0 
-10.4 16 0 -10.6 16 0 -11 16 0 
-10.8 16 0 -10.2 16 0 -9.8 16 0 
-9.6 16 0 -9.4 16 0 -9.2 16 0 
-10 16 0 -8.2 16 0 -8.8 16 0 
-8.6 16 0 -8.4 16 0 -9 16 0 
-8 16 0 -7.8 16 0 -7.6 16 0 
-7.2 16 0 -7.4 16 0 -6.8 16 0 
-6.4 16 0 -6.6 16 0 -6.2 16 0 
-7 16 0 -5.6 16 0 -5.4 16 0 
-5.8 16 0 -5.2 16 0 -6 16 0 
-4.8 16 0 -5 16 0 -4.6 16 0 
-4.2 16 0 -4.4 16 0 -3.6 16 0 
-4 16 0 -3.2 16 0 -3.8 16 0 
-3.4 16 0 -2.2 16 0 -2.8 16 0 
-3 16 0 -2.6 16 0 -2.4 16 0 
-2 16 0 -1.2 16 0 -1.4 16 0 
-1.8 16 0 -1.6 16 0 -0.6 16 0 
-0.8 16 0 -0.2 16 0 -1 16 0 
-0.4 16 0 0.8 16 0 0.2 16 0 
0.6 16 0 -0 16 0 0.4 16 0 
1.2 16 0 1.4 16 0 1.8 16 0 
1 16 0 1.6 16 0 2 16 0 
2.8 16 0 2.2 16 0 2.4 16 0 
2.6 16 0 3.2 16 0 3.4 16 0 
3 16 0 3.6 16 0 3.8 16 0 
4 16 0 4.8 16 0 4.6 16 0 
4.4 16 0 4.2 16 0 5.2 16 0 
5 16 0 5.6 16 0 5.8 16 0 
5.4 16 0 6.4 16 0 6.8 16 0 
6.6 16 0 6.2 16 0 6 16 0 
7.8 16 0 7.6 16 0 7.2 16 0 
7 16 0 7.4 16 0 8.2 16 0 
8.6 16 0 8.4 16 0 8.8 16 0 
8 16 0 9.6 16 0 9.4 16 0 
9 16 0 9.8 16 0 9.2 16 0 
10 16 0 10.2 16 0 10.4 16 0 
10.6 16 0 10.8 16 0 11.8 16 0 
11 16 0 11.4 16 0 11.6 16 0 
11.2 16 0 12.4 16 0 12.8 16 0 
12.6 16 0 12.2 16 0 12 16 0 
13.8 16 0 13.2 16 0 13 16 0 
13.6 16 0 13.4 16 0 14.8 16 0 
14 16 0 14.2 16 0 14.4 16 0 
14.6 16 0 15 16 0 
VERTICES 2098 2098
1 0 
1 1 
1 2 
1 3 
1 4 
1 5 
1 6 
1 7 
1 8 
1 9 
1 10 
1 11 
1 12 
1 13 
1 14 
1 15 
1 16 
1 17 
1 18 
1 19 
1 20 
1 21 
1 22 
1 23 
1 24 
1 25 
1 26 
1 27 
1 28 
1 29 
1 30 
1 31 
1 32 
1 33 
1 34 
1 35 
1 36 
1 37 
1 38 
1 39 
1 40 
1 41 
1 42 
1 43 
1 44 
1 45 
1 46 
1 47 
1 48 
1 49 
1 50 
1 51 
1 52 
1 53 
1 54 
1 55 
1 56 
1 57 
1 58 
1 59 
1 60 
1 61 
1 62 
1 63 
1 64 
1 65 
1 66 
1 67 
1 68 
1 69 
1 70 
1 71 
1 72 
1 73 
1 74 
1 75 
1 76 
1 77 
1 78 
1 79 
1 80 
1 81 
1 82 
1 83 
1 84 
1 85 
1 86 
1 87 
1 88 
1 89 
1 90 
1 91 
1 92 
1 93 
1 94 
1 95 
1 96 
1 97 
1 98 
1 99 
1 100 
1 101 
1 102 
1 103 
1 104 
1 105 
1 106 
1 107 
1 108 
1 109 
1 110 
1 111 
1 112 
1 113 
1 114 
1 115 
1 116 
1 117 
1 118 
1 119 
1 120 
1 121 
1 122 
1 123 
1 124 
1 125 
1 126 
1 127 
1 128 
1 129 
1 130 
1 131 
1 132 
1 133 
1 134 
1 135 
1 136 
1 137 
1 138 
1 139 
1 140 
1 141 
1 142 
1 143 
1 144 
1 145 
1 146 
1 147 
1 148 
1 149 
1 150 
1 151 
1 152 
1 153 
1 154 
1 155 
1 156 
1 157 
1 158 
1 159 
1 160 
1 161 
1 162 
1 163 
1 164 
1 165 
1 166 
1 167 
1 168 
1 169 
1 170 
1 171 
1 172 
1 173 
1 174 
1 175 
1 176 
1 177 
1 178 
1 179 
1 180 
1 181 
1 182 
1 183 
1 184 
1 185 
1 186 
1 187 
1 188 
1 189 
1 190 
1 191 
1 192 
1 193 
1 194 
1 195 
1 196 
1 197 
1 198 
1 199 
1 200 
1 201 
1 202 
1 203 
1 204 
1 205 
1 206 
1 207 
1 208 
1 209 
1 210 
1 211 
1 212 
1 213 
1 214 
1 215 
1 216 
1 217 
1 218 
1 219 
1 220 
1 221 
1 222 
1 223 
1 224 
1 225 
1 226 
1 227 
1 228 
1 229 
1 230 
1 231 
1 232 
1 233 
1 234 
1 235 
1 236 
1 237 
1 238 
1 239 
1 240 
1 241 
1 242 
1 243 
1 244 
1 245 
1 246 
1 247 
1 248 
1 249 
1 250 
1 251 
1 252 
1 253 
1 254 
1 255 
1 256 
1 257 
1 258 
1 259 
1 260 
1 261 
1 262 
1 263 
1 264 
1 265 
1 266 
1 267 
1 268 
1 269 
1 270 
1 271 
1 272 
1 273 
1 274 
1 275 
1 276 
1 277 
1 278 
1 279 
1 280 
1 281 
1 282 
1 283 
1 284 
1 285 
1 286 
1 287 
1 288 
1 289 
1 290 
1 291 
1 292 
1 293 
1 294 
1 295 
1 296 
1 297 
1 298 
1 299 
1 300 
1 301 
1 302 
1 303 
1 304 
1 305 
1 306 
1 307 
1 308 
1 309 
1 310 
1 311 
1 312 
1 313 
1 314 
1 315 
1 316 
1 317 
1 318 
1 319 
1 320 
1 321 
1 322 
1 323 
1 324 
1 325 
1 326 
1 327 
1 328 
1 329 
1 330 
1 331 
1 332 
1 333 
1 334 
1 335 
1 336 
1 337 
1 338 
1 339 
1 340 
1 341 
1 342 
1 343 
1 344 
1 345 
1 346 
1 347 
1 348 
1 349 
1 350 
1 351 
1 352 
1 353 
1 354 
1 355 
1 356 
1 357 
1 358 
1 359 
1 360 
1 361 
1 362 
1 363 
1 364 
1 365 
1 366 
1 367 
1 368 
1 369 
1 370 
1 371 
1 372 
1 373 
1 374 
1 375 
1 376 
1 377 
1 378 
1 379 
1 380 
1 381 
1 382 
1 383 
1 384 
1 385 
1 386 
1 387 
1 388 
1 389 
1 390 
1 391 
1 392 
1 393 
1 394 
1 395 
1 396 
1 397 
1 398 
1 399 
1 400 
1 401 
1 402 
1 403 
1 404 
1 405 
1 406 
1 407 
1 408 
1 409 
1 410 
1 411 
1 412 
1 413 
1 414 
1 415 
1 416 
1 417 
1 418 
1 419 
1 420 
1 421 
1 422 
1 423 
1 424 
1 425 
1 426 
1 427 
1 428 
1 429 
1 430 
1 431 
1 432 
1 433 
1 434 
1 435 
1 436 
1 437 
1 438 
1 439 
1 440 
1 441 
1 442 
1 443 
1 444 
1 445 
1 446 
1 447 
1 448 
1 449 
1 450 
1 451 
1 452 
1 453 
1 454 
1 455 
1 456 
1 457 
1 458 
1 459 
1 460 
1 461 
1 462 
1 463 
1 464 
1 465 
1 466 
1 467 
1 468 
1 469 
1 470 
1 471 
1 472 
1 473 
1 474 
1 475 
1 476 
1 477 
1 478 
1 479 
1 480 
1 481 
1 482 
1 483 
1 484 
1 485 
1 486 
1 487 
1 488 
1 489 
1 490 
1 491 
1 492 
1 493 
1 494 
1 495 
1 496 
1 497 
1 498 
1 499 
1 500 
1 501 
1 502 
1 503 
1 504 
1 505 
1 506 
1 507 
1 508 
1 509 
1 510 
1 511 
1 512 
1 513 
1 514 
1 515 
1 516 
1 517 
1 518 
1 519 
1 520 
1 521 
1 522 
1 523 
1 524 
1 525 
1 526 
1 527 
1 528 
1 529 
1 530 
1 531 
1 532 
1 533 
1 534 
1 535 
1 536 
1 537 
1 538 
1 539 
1 540 
1 541 
1 542 
1 543 
1 544 
1 545 
1 546 
1 547 
1 548 
1 549 
1 550 
1 551 
1 552 
1 553 
1 554 
1 555 
1 556 
1 557 
1 558 
1 559 
1 560 
1 561 
1 562 
1 563 
1 564 
1 565 
1 566 
1 567 
1 568 
1 569 
1 570 
1 571 
1 572 
1 573 
1 574 
1 575 
1 576 
1 577 
1 578 
1 579 
1 580 
1 581 
1 582 
1 583 
1 584 
1 585 
1 586 
1 587 
1 588 
1 589 
1 590 
1 591 
1 592 
1 593 
1 594 
1 595 
1 596 
1 597 
1 598 
1 599 
1 600 
1 601 
1 602 
1 603 
1 604 
1 605 
1 606 
1 607 
1 608 
1 609 
1 610 
1 611 
1 612 
1 613 
1 614 
1 615 
1 616 
1 617 
1 618 
1 619 
1 620 
1 621 
1 622 
1 623 
1 624 
1 625 
1 626 
1 627 
1 628 
1 629 
1 630 
1 631 
1 632 
1 633 
1 634 
1 635 
1 636 
1 637 
1 638 
1 639 
1 640 
1 641 
1 642 
1 643 
1 644 
1 645 
1 646 
1 647 
1 648 
1 649 
1 650 
1 651 
1 652 
1 653 
1 654 
1 655 
1 656 
1 657 
1 658 
1 659 
1 660 
1 661 
1 662 
1 663 
1 664 
1 665 
1 666 
1 667 
1 668 
1 669 
1 670 
1 671 
1 672 
1 673 
1 674 
1 675 
1 676 
1 677 
1 678 
1 679 
1 680 
1 681 
1 682 
1 683 
1 684 
1 685 
1 686 
1 687 
1 688 
1 689 
1 690 
1 691 
1 692 
1 693 
1 694 
1 695 
1 696 
1 697 
1 698 
1 699 
1 700 
1 701 
1 702 
1 703 
1 704 
1 705 
1 706 
1 707 
1 708 
1 709 
1 710 
1 711 
1 712 
1 713 
1 714 
1 715 
1 716 
1 717 
1 718 
1 719 
1 720 
1 721 
1 722 
1 723 
1 724 
1 725 
1 726 
1 727 
1 728 
1 729 
1 730 
1 731 
1 732 
1 733 
1 734 
1 735 
1 736 
1 737 
1 738 
1 739 
1 740 
1 741 
1 742 
1 743 
1 744 
1 745 
1 746 
1 747 
1 748 
1 749 
1 750 
1 751 
1 752 
1 753 
1 754 
1 755 
1 756 
1 757 
1 758 
1 759 
1 760 
1 761 
1 762 
1 763 
1 764 
1 765 
1 766 
1 767 
1 768 
1 769 
1 770 
1 771 
1 772 
1 773 
1 774 
1 775 
1 776 
1 777 
1 778 
1 779 
1 780 
1 781 
1 782 
1 783 
1 784 
1 785 
1 786 
1 787 
1 788 
1 789 
1 790 
1 791 
1 792 
1 793 
1 794 
1 795 
1 796 
1 797 
1 798 
1 799 
1 800 
1 801 
1 802 
1 803 
1 804 
1 805 
1 806 
1 807 
1 808 
1 809 
1 810 
1 811 
1 812 
1 813 
1 814 
1 815 
1 816 
1 817 
1 818 
1 819 
1 820 
1 821 
1 822 
1 823 
1 824 
1 825 
1 826 
1 827 
1 828 
1 829 
1 830 
1 831 
1 832 
1 833 
1 834 
1 835 
1 836 
1 837 
1 838 
1 839 
1 840 
1 841 
1 842 
1 843 
1 844 
1 845 
1 846 
1 847 
1 848 
1 849 
1 850 
1 851 
1 852 
1 853 
1 854 
1 855 
1 856 
1 857 
1 858 
1 859 
1 860 
1 861 
1 862 
1 863 
1 864 
1 865 
1 866 
1 867 
1 868 
1 869 
1 870 
1 871 
1 872 
1 873 
1 874 
1 875 
1 876 
1 877 
1 878 
1 879 
1 880 
1 881 
1 882 
1 883 
1 884 
1 885 
1 886 
1 887 
1 888 
1 889 
1 890 
1 891 
1 892 
1 893 
1 894 
1 895 
1 896 
1 897 
1 898 
1 899 
1 900 
1 901 
1 902 
1 903 
1 904 
1 905 
1 906 
1 907 
1 908 
1 909 
1 910 
1 911 
1 912 
1 913 
1 914 
1 915 
1 916 
1 917 
1 918 
1 919 
1 920 
1 921 
1 922 
1 923 
1 924 
1 925 
1 926 
1 927 
1 928 
1 929 
1 930 
1 931 
1 932 
1 933 
1 934 
1 935 
1 936 
1 937 
1 938 
1 939 
1 940 
1 941 
1 942 
1 943 
1 944 
1 945 
1 946 
1 947 
1 948 
1 949 
1 950 
1 951 
1 952 
1 953 
1 954 
1 955 
1 956 
1 957 
1 958 
1 959 
1 960 
1 961 
1 962 
1 963 
1 964 
1 965 
1 966 
1 967 
1 968 
1 969 
1 970 
1 971 
1 972 
1 973 
1 974 
1 975 
1 976 
1 977 
1 978 
1 979 
1 980 
1 981 
1 982 
1 983 
1 984 
1 985 
1 986 
1 987 
1 988 
1 989 
1 990 
1 991 
1 992 
1 993 
1 994 
1 995 
1 996 
1 997 
1 998 
1 999 
1 1000 
1 1001 
1 1002 
1 1003 
1 1004 
1 1005 
1 1006 
1 1007 
1 1008 
1 1009 
1 1010 
1 1011 
1 1012 
1 1013 
1 1014 
1 1015 
1 1016 
1 1017 
1 1018 
1 1019 
1 1020 
1 1021 
1 1022 
1 1023 
1 1024 
1 1025 
1 1026 
1 1027 
1 1028 
1 1029 
1 1030 
1 1031 
1 1032 
1 1033 
1 1034 
1 1035 
1 1036 
1 1037 
1 1038 
1 1039 
1 1040 
1 1041 
1 1042 
1 1043 
1 1044 
1 1045 
1 1046 
1 1047 
1 1048 

POINT_DATA 1049
SCALARS id double
LOOKUP_TABLE default
980 1048 1027 977 1020 993 1033 964 983 
951 978 968 1036 976 1024 966 1032 945 
975 990 1045 0 40 391 39 390 43 
389 388 41 42 47 46 45 48 49 
44 50 1004 1 51 2 53 1040 52 
59 54 57 58 55 56 62 60 64 
61 63 394 392 68 67 393 395 65 
66 3 69 73 72 71 70 78 75 
76 74 77 83 81 79 82 80 86 
84 85 87 88 90 91 92 93 89 
493 494 96 94 95 97 495 4 492 
102 101 98 99 100 106 107 105 104 
103 112 110 109 111 108 115 116 113 
114 117 121 122 120 119 118 559 5 
125 123 124 558 560 557 126 128 130 
131 127 129 134 132 135 133 136 140 
137 139 141 138 145 143 146 144 142 
148 147 150 149 151 589 156 590 152 
588 154 6 153 155 587 161 162 158 
160 157 159 164 163 7 941 165 8 
972 166 955 169 171 172 170 168 167 
173 174 177 175 176 9 180 178 181 
179 384 385 386 387 383 933 947 995 
399 396 400 397 398 490 491 488 489 
487 553 555 556 552 554 593 595 591 
594 592 182 184 186 185 183 380 382 
378 381 379 1041 1005 403 402 404 401 
405 485 486 482 484 483 547 551 550 
549 548 597 600 599 596 598 1016 189 
191 187 190 188 375 376 377 373 374 
942 407 410 408 409 406 481 480 478 
479 477 544 546 543 545 542 602 603 
604 601 605 987 932 194 193 195 192 
196 370 371 368 372 369 1047 1026 954 
1018 969 411 413 415 414 412 476 472 
473 475 474 537 538 540 541 539 606 
607 610 608 609 960 930 962 1028 201 
199 197 198 200 363 366 365 367 364 
1008 936 939 417 420 419 418 416 467 
471 470 468 469 536 534 532 535 533 
615 611 613 614 612 986 1009 206 205 
203 202 204 360 361 362 359 358 985 
421 423 422 424 425 463 465 462 464 
466 531 530 529 527 528 974 1022 619 
620 617 618 616 997 1037 1030 1011 207 
211 209 210 208 356 354 355 357 353 
1042 967 1014 952 998 428 426 427 429 
430 461 459 457 460 458 1006 1010 963 
523 524 522 526 525 1001 624 1043 973 
622 625 623 621 946 212 213 216 215 
214 349 350 352 348 351 965 989 984 
1038 953 10 435 432 434 433 431 437 
440 441 438 439 436 1017 1000 971 11 
442 443 12 445 444 451 446 449 447 
1031 450 448 944 453 452 454 455 456 
1003 13 497 496 499 500 498 502 501 
505 503 506 504 14 507 508 1034 15 
509 510 981 512 516 513 515 514 511 
519 520 518 517 521 1023 563 561 562 
16 564 565 568 567 570 569 571 566 
17 572 573 574 1002 18 575 937 578 
1019 576 577 579 581 580 1025 584 582 
583 586 585 19 950 34 1029 1015 219 
217 220 221 218 343 347 344 345 346 
992 1007 1012 935 1021 1044 988 979 994 
999 929 223 226 224 222 225 340 341 
661 342 664 663 339 662 20 660 21 
665 667 22 666 668 673 669 670 672 
671 676 677 678 674 675 683 680 682 
681 679 717 23 687 686 685 715 713 
716 714 684 723 721 720 722 718 719 
724 725 36 727 726 37 732 730 733 
728 729 731 738 735 734 736 737 633 
631 742 739 24 634 632 741 740 745 
746 743 744 747 751 748 750 749 752 
756 753 755 754 757 762 760 758 761 
759 765 764 767 766 763 770 772 769 
768 771 776 773 774 777 775 779 781 
780 778 782 785 786 783 784 787 792 
790 791 789 788 797 794 796 795 793 
818 819 817 799 798 35 820 800 801 
805 806 802 803 804 809 808 810 807 
811 934 816 812 815 814 813 25 628 
629 626 627 630 26 230 229 227 228 
27 335 337 336 334 338 691 692 688 
690 689 637 636 638 639 635 823 822 
821 825 824 943 931 958 940 1013 233 
235 234 232 231 331 333 330 329 332 
694 696 693 695 697 643 642 640 644 
641 996 970 827 830 828 829 826 949 
239 238 240 237 236 324 327 326 325 
328 702 698 700 699 701 647 645 646 
648 649 982 991 833 835 832 831 834 
1035 948 959 242 245 243 241 244 322 
323 320 321 319 706 703 705 704 707 
650 654 653 652 651 938 961 1039 1046 
957 29 956 250 247 246 248 249 315 
314 317 316 318 710 709 708 712 711 
656 659 658 657 655 28 927 928 926 
924 925 255 251 254 253 252 312 313 
310 30 311 305 309 306 308 307 302 
303 304 300 301 296 295 298 297 299 
291 292 294 293 290 288 287 286 285 
289 281 284 283 282 31 280 279 278 
276 277 274 272 273 271 275 268 267 
269 266 270 264 265 263 261 262 258 
260 256 259 257 839 836 32 837 838 
840 844 843 841 842 847 846 849 845 
848 854 851 853 850 852 856 857 859 
855 858 860 864 861 862 863 866 867 
865 868 869 870 874 873 872 871 876 
875 878 879 877 882 884 883 881 880 
889 888 886 885 887 891 893 892 894 
890 897 896 38 898 895 899 900 901 
902 903 908 904 906 907 905 911 913 
912 910 909 918 915 914 917 916 923 
919 920 921 922 33 
FIELD FieldData 14
r 3 1049 double
-6.05029 -5.39616 0 -5.40194 -5.41466 0 4.99164 -5.92628 0 
-6.27879 -4.73669 0 7.49006 -4.22308 0 -8.92785 -3.13943 0 
-8.20433 -3.33827 0 7.47711 -3.61315 0 7.86392 -3.17513 0 
8.47461 -3.71777 0 -9.70633 -2.34783 0 -8.88957 -2.32958 0 
8.49143 -2.85763 0 9.54177 -2.9617 0 9.38927 -2.28803 0 
-10.5367 -1.45961 0 -9.92858 -1.75125 0 9.95603 -1.88832 0 
10.6175 -1.30279 0 -11.6872 -0.368552 0 -11.1395 -0.936401 0 
-15 0 0 -14.6429 0 0 -15 0.2 0 
-14.8214 0 0 -15 0.4 0 -14.1071 0 0 
-15 0.6 0 -15 0.8 0 -14.4643 0 0 
-14.2857 0 0 -13.3929 0 0 -13.5714 0 0 
-13.75 0 0 -13.2143 0 0 -13.0357 0 0 
-13.9286 0 0 -12.8571 0 0 -12.0738 0.0657582 0 
-12.5 0 0 -12.6786 0 0 -11.5 0 0 
-11.1429 0 0 -11.8374 0.582389 0 -11.3214 0 0 
-10.0714 0 0 -10.9643 0 0 -10.4286 0 0 
-10.25 0 0 -10.7857 0 0 -10.6071 0 0 
-9.5357 0 0 -9.8929 0 0 -9.1786 0 0 
-9.7143 0 0 -9.3571 0 0 -9 0.6 0 
-9 0.2 0 -8.2 0 0 -8.4 0 0 
-9 0.4 0 -9 0.8 0 -8.8 0 0 
-8.6 0 0 -9 0 0 -8 0 0 
-7.2 0 0 -7.4 0 0 -7.6 0 0 
-7.8 0 0 -6.2 0 0 -6.8 0 0 
-6.6 0 0 -7 0 0 -6.4 0 0 
-5.2 0 0 -5.6 0 0 -6 0 0 
-5.4 0 0 -5.8 0 0 -4.6 0 0 
-5 0 0 -4.8 0 0 -4.4 0 0 
-4.2 0 0 -3.8 0 0 -3.6 0 0 
-3.4 0 0 -3.2 0 0 -4 0 0 
-3 0.6 0 -3 0.4 0 -2.4 0 0 
-2.8 0 0 -2.6 0 0 -2.2 0 0 
-3 0.2 0 -3 0 0 -3 0.8 0 
-1.2 0 0 -1.4 0 0 -2 0 0 
-1.8 0 0 -1.6 0 0 -0.4 0 0 
-0.2 0 0 -0.6 0 0 -0.8 0 0 
-1 0 0 0.8 0 0 0.4 0 0 
0.2 0 0 0.6 0 0 -0 0 0 
1.4 0 0 1.6 0 0 1 0 0 
1.2 0 0 1.8 0 0 2.6 0 0 
2.8 0 0 2.4 0 0 2.2 0 0 
2 0 0 3 0.4 0 3 0 0 
3.6 0 0 3.2 0 0 3.4 0 0 
3 0.6 0 3 0.2 0 3 0.8 0 
3.8 0 0 4.2 0 0 4.6 0 0 
4.8 0 0 4 0 0 4.4 0 0 
5.4 0 0 5 0 0 5.6 0 0 
5.2 0 0 5.8 0 0 6.6 0 0 
6 0 0 6.4 0 0 6.8 0 0 
6.2 0 0 7.6 0 0 7.2 0 0 
7.8 0 0 7.4 0 0 7 0 0 
8.2 0 0 8 0 0 8.6 0 0 
8.4 0 0 8.8 0 0 9 0.6 0 
9.8929 0 0 9 0.8 0 9.1786 0 0 
9 0.4 0 9.5357 0 0 9 0 0 
9.3571 0 0 9.7143 0 0 9 0.2 0 
10.7857 0 0 10.9643 0 0 10.25 0 0 
10.6071 0 0 10.0714 0 0 10.4286 0 0 
11.3214 0 0 11.1429 0 0 11.5 0 0 
11.5062 0.687819 0 12.6786 0 0 12.5 0 0 
12.0779 0.757156 0 12.8571 0 0 12.0337 0.139029 0 
13.3929 0 0 13.75 0 0 13.9286 0 0 
13.5714 0 0 13.2143 0 0 13.0357 0 0 
14.1071 0 0 14.2857 0 0 14.8214 0 0 
14.4643 0 0 14.6429 0 0 15 0 0 
15 0.6 0 15 0.2 0 15 0.8 0 
15 0.4 0 -15 1.6 0 -15 1.4 0 
-15 1.2 0 -15 1 0 -15 1.8 0 
-11.5564 1.09455 0 -11.1727 1.85039 0 -11.8119 1.68392 0 
-9 1.6 0 -9 1 0 -9 1.8 0 
-9 1.2 0 -9 1.4 0 -3 1.2 0 
-3 1 0 -3 1.6 0 -3 1.4 0 
-3 1.8 0 3 1.6 0 3 1.2 0 
3 1 0 3 1.8 0 3 1.4 0 
9 1.4 0 9 1.8 0 9 1 0 
9 1.6 0 9 1.2 0 15 1 0 
15 1.4 0 15 1.8 0 15 1.6 0 
15 1.2 0 -15 2.4 0 -15 2 0 
-15 2.8 0 -15 2.2 0 -15 2.6 0 
-12.348 2.24516 0 -11.302 2.50608 0 -9 2.4 0 
-9 2.2 0 -9 2.6 0 -9 2 0 
-9 2.8 0 -3 2.2 0 -3 2 0 
-3 2.8 0 -3 2.4 0 -3 2.6 0 
3 2.8 0 3 2 0 3 2.2 0 
3 2.4 0 3 2.6 0 9 2.2 0 
9 2.8 0 9 2.6 0 9 2 0 
9 2.4 0 11.176 2.84875 0 15 2.4 0 
15 2.8 0 15 2 0 15 2.6 0 
15 2.2 0 -15 3.4 0 -15 3.2 0 
-15 3 0 -15 3.8 0 -15 3.6 0 
-11.0174 3.19659 0 -9 3.2 0 -9 3.8 0 
-9 3.4 0 -9 3.6 0 -9 3 0 
-3 3 0 -3 3.2 0 -3 3.6 0 
-3 3.4 0 -3 3.8 0 3 3.4 0 
3 3 0 3 3.6 0 3 3.2 0 
3 3.8 0 9 3.2 0 9 3.4 0 
9 3.6 0 9 3 0 9 3.8 0 
10.6681 3.68215 0 12.6136 3.53147 0 15 3.4 0 
15 3.2 0 15 3.6 0 15 3 0 
15 3.8 0 -15 4.4 0 -15 4.2 0 
-15 4.8 0 -15 4 0 -15 4.6 0 
-13.11 4.60613 0 -12.3986 4.46908 0 -12.7442 4.01539 0 
-10.5193 4.90639 0 -10.7457 4.12415 0 -9 4 0 
-9 4.4 0 -9 4.8 0 -9 4.6 0 
-9 4.2 0 -3 4 0 -3 4.8 0 
-3 4.6 0 -3 4.2 0 -3 4.4 0 
3 4.8 0 3 4.6 0 3 4.2 0 
3 4 0 3 4.4 0 9 4 0 
9 4.2 0 9 4.8 0 9 4.4 0 
9 4.6 0 10.6208 4.88113 0 10.5172 4.23863 0 
11.2298 4.22412 0 12.5338 4.08022 0 15 4.8 0 
15 4.4 0 15 4 0 15 4.2 0 
15 4.6 0 -15 5.8 0 -15 5.2 0 
-15 5.4 0 -15 5 0 -15 5.6 0 
-12.5242 5.01095 0 -12.8966 5.55973 0 -10.3076 5.51304 0 
-9 5.2 0 -9 5.8 0 -9 5.6 0 
-9 5.4 0 -9 5 0 -3 5.8 0 
-3 5 0 -3 5.2 0 -3 5.6 0 
-3 5.4 0 3 5 0 3 5.4 0 
3 5.8 0 3 5.2 0 3 5.6 0 
9 5.8 0 9 5 0 9 5.4 0 
9 5.6 0 9 5.2 0 10.2383 5.83871 0 
12.8591 5.67843 0 15 5.8 0 15 5.6 0 
15 5.2 0 15 5 0 15 5.4 0 
-15 6.4 0 -15 6.2 0 -15 6 0 
-15 6.6 0 -15 6.8 0 -9.88435 6.96281 0 
-9 6 0 -9 6.4 0 -9 6.2 0 
-9 6.6 0 -9 6.8 0 -3 6.6 0 
-3 6.2 0 -3 6.8 0 -3 6.4 0 
-3 6 0 3 6 0 3 6.2 0 
3 6.4 0 3 6.8 0 3 6.6 0 
6.41449 6.60872 0 9.82761 6.68458 0 9 6.6 0 
9 6.8 0 9 6.2 0 9 6.4 0 
9 6 0 10.4734 6.65128 0 12.9675 6.55054 0 
12.4097 6.59589 0 13.5649 6.56285 0 15 6 0 
15 6.8 0 15 6.4 0 15 6.6 0 
15 6.2 0 -15 7.2 0 -15 7.6 0 
-15 7.4 0 -15 7 0 -15 7.8 0 
-13.252 7.19676 0 -12.6818 7.10716 0 -10.1258 7.55884 0 
-10.6157 7.7814 0 -9.53914 7.69794 0 -9 7.4 0 
-9 7 0 -9 7.2 0 -9 7.6 0 
-9 7.8 0 -3 7 0 -3 7.4 0 
-3 7.8 0 -3 7.2 0 -3 7.6 0 
-0.34271 7.54444 0 0.0423674 7.99062 0 0.198187 7.35455 0 
3 7.6 0 3 7.4 0 3 7.8 0 
3 7 0 3 7.2 0 5.98516 7.92057 0 
9 7.6 0 9.60336 7.96463 0 9.88027 7.39648 0 
9 7.2 0 9 7.8 0 9 7.4 0 
9 7 0 13.3966 7.979 0 15 7 0 
15 7.2 0 15 7.8 0 15 7.6 0 
15 7.4 0 -15 8.6 0 -15 8.4 0 
-15 8 0 -15 8.8 0 -15 8.2 0 
-9.87796 8.28785 0 -9.23641 8.3231 0 -9.50146 8.91337 0 
-8.73516 8.76554 0 -8.18472 8.7705 0 -9 8 0 
-8.1071 8 0 -8.6429 8 0 -8.2857 8 0 
-8.4643 8 0 -8.8214 8 0 -7.75 8 0 
-7.2143 8 0 -7.0357 8 0 -7.5714 8 0 
-7.3929 8 0 -7.9286 8 0 -7.54006 8.76958 0 
-6.97886 8.60463 0 -6.27056 8.29076 0 -6.5 8 0 
-6.8571 8 0 -6.6786 8 0 -5.5 8 0 
-5.1429 8 0 -5.3214 8 0 -4.0714 8 0 
-4.9643 8 0 -4.4286 8 0 -4.7857 8 0 
-4.92319 8.92619 0 -4.25 8 0 -4.6071 8 0 
-4.11779 8.86877 0 -3.7143 8 0 -3.8929 8 0 
-3.5357 8 0 -3.3571 8 0 -3.1786 8 0 
-2.55997 8.7671 0 -3 8 0 -2.6429 8 0 
-2.8214 8 0 -2.2857 8 0 -2.1071 8 0 
-2.4643 8 0 -1.75 8 0 -1.9286 8 0 
-1.2143 8 0 -1.5714 8 0 -1.0357 8 0 
-1.3929 8 0 -0.5 8 0 -0.8571 8 0 
-0.6786 8 0 -0.418919 8.35961 0 0.5 8 0 
0.6786 8 0 0.8571 8 0 0.914916 8.5367 0 
1.2143 8 0 1.9286 8 0 1.3929 8 0 
1.75 8 0 1.5714 8 0 1.0357 8 0 
2.4643 8 0 2.6429 8 0 2.2857 8 0 
2.1071 8 0 2.8214 8 0 3.00749 8.86583 0 
3.5357 8 0 3.1786 8 0 3.3571 8 0 
3 8 0 3.7143 8 0 3.8929 8 0 
4.4286 8 0 4.25 8 0 4.7857 8 0 
4.6071 8 0 4.9643 8 0 4.0714 8 0 
5.5 8 0 5.1429 8 0 5.3214 8 0 
6.6786 8 0 6.4759 8.41532 0 6.5 8 0 
6.8571 8 0 7.36842 8.71417 0 7.3929 8 0 
7.96568 8.60162 0 7.0357 8 0 7.2143 8 0 
7.5714 8 0 7.9286 8 0 7.75 8 0 
8.63419 8.60672 0 8.4643 8 0 8.1071 8 0 
8.2857 8 0 8.8214 8 0 8.6429 8 0 
9 8 0 9.50327 8.98526 0 9 8 0 
9.20479 8.40726 0 13.3304 8.5319 0 15 8.4 0 
15 8 0 15 8.6 0 15 8.8 0 
15 8.2 0 -15 9.8 0 -15 9 0 
-15 9.6 0 -15 9.4 0 -15 9.2 0 
-9.00187 9.22713 0 -8.44444 9.25506 0 -7.91234 9.20315 0 
-7.37155 9.33049 0 -6.57728 9.54527 0 7.73163 9.14812 0 
8.96051 9.04306 0 8.2959 9.07001 0 8.6136 9.46424 0 
13.3571 9.08881 0 13.4905 9.92771 0 15 9.2 0 
15 9.8 0 15 9.4 0 15 9 0 
15 9.6 0 -15 10.6 0 -15 10.4 0 
-14.6667 10 0 -15 10.2 0 -14.1667 10 0 
-14.3333 10 0 -15 10.8 0 -14.5 10 0 
-15 10 0 -14.8333 10 0 -14 10 0 
-12.8 10 0 -12.4 10 0 -13 10 0 
-12.6 10 0 -12.2 10 0 -11.2 10 0 
-12 10 0 -11.8 10 0 -11.4 10 0 
-11.6 10 0 -10.6 10 0 -10.4 10 0 
-10.2 10 0 -11 10 0 -10.8 10 0 
-9.2 10 0 -9.8 10 0 -9.4 10 0 
-9.6 10 0 -10 10 0 -8.1071 10 0 
-9 10 0 -9 10.8 0 -9 10.6 0 
-9 10.4 0 -8.4643 10 0 -8.8214 10 0 
-8.2857 10 0 -8.6429 10 0 -9 10.2 0 
-7.0357 10 0 -7.3929 10 0 -7.5714 10 0 
-7.2143 10 0 -7.9286 10 0 -7.75 10 0 
-6.8571 10 0 -6.6786 10 0 -6.5 10 0 
-5.1429 10 0 -5.3214 10 0 -5.5 10 0 
-4.25 10 0 -4.6071 10 0 -4.0714 10 0 
-4.9643 10 0 -4.7857 10 0 -4.4286 10 0 
-3.1786 10 0 -3.7143 10 0 -3.8929 10 0 
-3.5357 10 0 -3.3571 10 0 -3 10.6 0 
-3 10.2 0 -2.2 10 0 -2.8 10 0 
-3 10 0 -3 10.8 0 -3 10.4 0 
-2.4 10 0 -2.6 10 0 -1.6 10 0 
-1.4 10 0 -2 10 0 -1.8 10 0 
-1.2 10 0 -0.4 10 0 -1 10 0 
-0.6 10 0 -0.8 10 0 -0.2 10 0 
0.6 10 0 -0 10 0 0.4 10 0 
0.2 10 0 0.8 10 0 1.8 10 0 
1.4 10 0 1 10 0 1.6 10 0 
1.2 10 0 2.4 10 0 2.2 10 0 
2.8 10 0 2.6 10 0 2 10 0 
3.4 10 0 3.8 10 0 3.2 10 0 
3 10 0 3.6 10 0 4.6 10 0 
4 10 0 4.2 10 0 4.8 10 0 
4.4 10 0 5.2 10 0 5.6 10 0 
5.4 10 0 5 10 0 5.8 10 0 
6.4 10 0 6.6 10 0 6 10 0 
6.2 10 0 6.8 10 0 7.8 10 0 
7.4 10 0 7.6 10 0 7.2 10 0 
7 10 0 8.8 10 0 8.2 10 0 
8.6 10 0 8.4 10 0 8 10 0 
9 10.4 0 9 10.6 0 9 10.2 0 
9.4 10 0 9.2 10 0 9 10 0 
9 10.8 0 9.6 10 0 9.8 10 0 
10.6 10 0 10.8 10 0 10 10 0 
10.2 10 0 10.4 10 0 11.4 10 0 
11.2 10 0 11.6 10 0 11 10 0 
11.8 10 0 12.2796 10.6393 0 12.8 10 0 
12 10 0 12.6 10 0 12.4 10 0 
12.2 10 0 13 10 0 14.5 10 0 
14.3333 10 0 14.8333 10 0 14.6667 10 0 
14.1667 10 0 14 10 0 15 10.8 0 
15 10.6 0 15 10.2 0 15 10.4 0 
15 10 0 -15 11.6 0 -15 11.2 0 
-15 11.4 0 -15 11.8 0 -15 11 0 
-9 11.6 0 -9 11.8 0 -9 11 0 
-9 11.4 0 -9 11.2 0 -3 11.4 0 
-3 11.2 0 -3 11.6 0 -3 11.8 0 
-3 11 0 9 11.4 0 9 11.2 0 
9 11 0 9 11.8 0 9 11.6 0 
11.901 11.2839 0 11.4749 11.8335 0 12.1118 11.8367 0 
12.6072 11.6842 0 12.5852 11.1213 0 15 11.4 0 
15 11.8 0 15 11.6 0 15 11.2 0 
15 11 0 -15 12.4 0 -15 12 0 
-15 12.6 0 -15 12.8 0 -15 12.2 0 
-9 12.2 0 -9 12.6 0 -9 12 0 
-9 12.4 0 -9 12.8 0 -3 12.6 0 
-3 12.4 0 -3 12 0 -3 12.8 0 
-3 12.2 0 3.77631 12.6704 0 4.6359 12.707 0 
9 12.2 0 9 12.8 0 9 12.4 0 
9 12.6 0 9 12 0 11.5979 12.403 0 
15 12.6 0 15 12.4 0 15 12.8 0 
15 12.2 0 15 12 0 -15 13.8 0 
-15 13.2 0 -15 13.4 0 -15 13.6 0 
-15 13 0 -9 13.8 0 -9 13 0 
-9 13.4 0 -9 13.2 0 -9 13.6 0 
-3 13.4 0 -3 13 0 -3 13.2 0 
-3 13.6 0 -3 13.8 0 6.56487 13.2974 0 
8.64301 13.8314 0 9 13.4 0 9 13.8 0 
9 13.2 0 9 13 0 9 13.6 0 
10.4373 13.0957 0 10.6735 13.7308 0 10.0865 13.6294 0 
15 13.2 0 15 13.8 0 15 13.4 0 
15 13 0 15 13.6 0 -15 14.2 0 
-15 14 0 -15 14.6 0 -15 14.4 0 
-15 14.8 0 -9 14.6 0 -9 14 0 
-9 14.4 0 -9 14.2 0 -9 14.8 0 
-3 14 0 -3 14.8 0 -3 14.6 0 
-3 14.4 0 -3 14.2 0 7.58364 14.4082 0 
8.72136 14.78 0 8.1076 14.8239 0 8.33539 14.2748 0 
9.17725 14.3312 0 9 14 0 9.6432 14.025 0 
15 14.8 0 15 14.2 0 15 14 0 
15 14.4 0 15 14.6 0 -15 15.6 0 
-15 15.8 0 -15 15.2 0 -15 15.4 0 
-15 15 0 -9 15.4 0 -9 15.2 0 
-9 15 0 -9 15.8 0 -9 15.6 0 
-3 15.2 0 -3 15.8 0 -3 15.6 0 
-3 15.4 0 -3 15 0 9 15 0 
9 15.6667 0 9 15.8333 0 9 15.5 0 
9 15.1667 0 9 15.3333 0 15 15.8 0 
15 15 0 15 15.6 0 15 15.4 0 
15 15.2 0 -14.6 16 0 -14.8 16 0 
-14.2 16 0 -15 16 0 -14.4 16 0 
-13.2 16 0 -14 16 0 -13.4 16 0 
-13.8 16 0 -13.6 16 0 -12.6 16 0 
-12.8 16 0 -13 16 0 -12.2 16 0 
-12.4 16 0 -11.4 16 0 -11.2 16 0 
-11.8 16 0 -11.6 16 0 -12 16 0 
-10.4 16 0 -10.6 16 0 -11 16 0 
-10.8 16 0 -10.2 16 0 -9.8 16 0 
-9.6 16 0 -9.4 16 0 -9.2 16 0 
-10 16 0 -8.2 16 0 -8.8 16 0 
-8.6 16 0 -8.4 16 0 -9 16 0 
-8 16 0 -7.8 16 0 -7.6 16 0 
-7.2 16 0 -7.4 16 0 -6.8 16 0 
-6.4 16 0 -6.6 16 0 -6.2 16 0 
-7 16 0 -5.6 16 0 -5.4 16 0 
-5.8 16 0 -5.2 16 0 -6 16 0 
-4.8 16 0 -5 16 0 -4.6 16 0 
-4.2 16 0 -4.4 16 0 -3.6 16 0 
-4 16 0 -3.2 16 0 -3.8 16 0 
-3.4 16 0 -2.2 16 0 -2.8 16 0 
-3 16 0 -2.6 16 0 -2.4 16 0 
-2 16 0 -1.2 16 0 -1.4 16 0 
-1.8 16 0 -1.6 16 0 -0.6 16 0 
-0.8 16 0 -0.2 16 0 -1 16 0 
-0.4 16 0 0.8 16 0 0.2 16 0 
0.6 16 0 -0 16 0 0.4 16 0 
1.2 16 0 1.4 16 0 1.8 16 0 
1 16 0 1.6 16 0 2 16 0 
2.8 16 0 2.2 16 0 2.4 16 0 
2.6 16 0 3.2 16 0 3.4 16 0 
3 16 0 3.6 16 0 3.8 16 0 
4 16 0 4.8 16 0 4.6 16 0 
4.4 16 0 4.2 16 0 5.2 16 0 
5 16 0 5.6 16 0 5.8 16 0 
5.4 16 0 6.4 16 0 6.8 16 0 
6.6 16 0 6.2 16 0 6 16 0 
7.8 16 0 7.6 16 0 7.2 16 0 
7 16 0 7.4 16 0 8.2 16 0 
8.6 16 0 8.4 16 0 8.8 16 0 
8 16 0 9.6 16 0 9.4 16 0 
9 16 0 9.8 16 0 9.2 16 0 
10 16 0 10.2 16 0 10.4 16 0 
10.6 16 0 10.8 16 0 11.8 16 0 
11 16 0 11.4 16 0 11.6 16 0 
11.2 16 0 12.4 16 0 12.8 16 0 
12.6 16 0 12.2 16 0 12 16 0 
13.8 16 0 13.2 16 0 13 16 0 
13.6 16 0 13.4 16 0 14.8 16 0 
14 16 0 14.2 16 0 14.4 16 0 
14.6 16 0 15 16 0 
gid 1 1049 double
1 1 1 1 1 1 1 1 1 
1 1 1 1 1 1 1 1 1 
1 1 1 2 2 2 2 2 2 
2 2 2 2 2 2 2 2 2 
2 2 1 2 2 2 2 1 2 
2 2 2 2 2 2 2 2 2 
2 2 2 2 2 2 2 2 2 
2 2 2 2 2 2 2 2 2 
2 2 2 2 2 2 2 2 2 
2 2 2 2 2 2 2 2 2 
2 2 2 2 2 2 2 2 2 
2 2 2 2 2 2 2 2 2 
2 2 2 2 2 2 2 2 2 
2 2 2 2 2 2 2 2 2 
2 2 2 2 2 2 2 2 2 
2 2 2 2 2 2 2 2 2 
2 2 2 2 2 2 2 2 2 
2 2 2 2 2 2 2 2 2 
2 2 2 2 2 2 2 2 2 
2 2 2 2 2 2 1 2 2 
1 2 1 2 2 2 2 2 2 
2 2 2 2 2 2 2 2 2 
2 2 2 2 2 2 1 1 1 
2 2 2 2 2 2 2 2 2 
2 2 2 2 2 2 2 2 2 
2 2 2 2 2 2 2 2 2 
2 2 2 1 1 2 2 2 2 
2 2 2 2 2 2 2 2 2 
2 2 2 2 2 2 2 1 2 
2 2 2 2 2 2 2 2 2 
1 2 2 2 2 2 2 2 2 
2 2 2 2 2 2 2 2 2 
2 2 2 1 1 2 2 2 2 
2 2 2 2 2 2 1 1 1 
1 1 2 2 2 2 2 2 2 
2 2 2 2 2 2 2 2 2 
2 2 2 2 1 1 1 1 2 
2 2 2 2 2 2 2 2 2 
1 1 1 2 2 2 2 2 2 
2 2 2 2 2 2 2 2 2 
2 2 2 2 2 1 1 2 2 
2 2 2 2 2 2 2 2 1 
2 2 2 2 2 2 2 2 2 
2 2 2 2 2 2 1 1 2 
2 2 2 2 1 1 1 1 2 
2 2 2 2 2 2 2 2 2 
1 1 1 1 1 2 2 2 2 
2 2 2 2 2 2 1 1 1 
2 2 2 2 2 1 2 1 1 
2 2 2 2 1 2 2 2 2 
2 2 2 2 2 2 1 1 1 
1 1 2 2 2 2 2 2 2 
2 2 2 2 2 1 1 1 2 
2 2 2 2 2 2 2 2 2 
1 2 2 1 2 2 2 2 2 
1 2 2 2 2 2 2 2 2 
2 2 2 2 2 2 2 1 2 
2 2 1 2 2 2 2 2 2 
2 2 2 2 2 1 2 2 2 
2 2 2 2 2 2 2 2 2 
2 2 2 2 1 2 2 1 2 
1 2 2 2 2 2 1 2 2 
2 2 2 2 1 2 1 1 2 
2 2 2 2 2 2 2 2 2 
1 1 1 1 1 1 1 1 1 
1 1 2 2 2 2 2 2 2 
2 2 2 2 2 2 2 2 2 
2 2 2 2 2 2 2 2 2 
2 2 2 2 2 2 2 2 2 
2 2 2 2 2 2 2 2 2 
2 2 2 2 2 2 2 2 2 
2 2 2 2 2 2 2 2 2 
2 2 2 2 2 2 2 2 2 
2 2 2 2 2 2 2 2 2 
2 2 2 2 2 2 2 2 2 
2 2 2 2 2 2 2 2 2 
2 2 2 2 2 2 2 2 2 
2 2 2 2 2 2 2 2 2 
2 2 2 2 2 2 2 2 2 
2 2 2 2 2 2 2 2 2 
2 2 2 2 2 2 2 2 2 
2 2 2 2 2 2 2 2 2 
2 1 2 2 2 2 2 2 2 
2 2 2 2 2 2 2 2 2 
2 2 2 2 2 2 2 2 2 
2 2 2 2 2 2 2 2 2 
2 2 2 1 1 1 1 1 2 
2 2 2 2 2 2 2 2 2 
2 2 2 2 2 2 2 2 2 
2 1 1 2 2 2 2 2 1 
2 2 2 2 2 2 2 2 2 
2 2 2 2 2 2 2 2 2 
2 2 1 1 2 2 2 2 2 
1 1 1 2 2 2 2 2 2 
2 2 2 2 2 2 2 2 2 
2 2 2 2 2 1 1 1 1 
1 2 1 2 2 2 2 2 2 
2 2 2 2 2 2 2 2 2 
2 2 2 2 2 2 2 2 2 
2 2 2 2 2 2 2 2 2 
2 2 2 2 2 2 2 2 2 
2 2 2 2 2 2 2 2 2 
2 2 2 2 2 2 2 2 2 
2 2 2 2 2 2 2 2 2 
2 2 2 2 2 2 2 2 2 
2 2 2 2 2 2 2 2 2 
2 2 2 2 2 2 2 2 2 
2 2 2 2 2 2 2 2 2 
2 2 2 2 2 2 2 2 2 
2 2 2 2 2 2 2 2 2 
2 2 2 2 2 2 2 2 2 
2 2 2 2 2 2 2 2 2 
2 2 2 2 2 2 2 2 2 
2 2 2 2 2 2 2 2 2 
2 2 2 2 2 2 2 2 2 
2 2 2 2 2 2 2 2 2 
2 2 2 2 2 
A 1 1049 double
10 10 10 10 10 10 10 10 10 
10 10 10 10 10 10 10 10 10 
10 10 10 10 10 10 10 10 10 
10 10 10 10 10 10 10 10 10 
10 10 10 10 10 10 10 10 10 
10 10 10 10 10 10 10 10 10 
10 10 10 10 10 10 10 10 10 
10 10 10 10 10 10 10 10 10 
10 10 10 10 10 10 10 10 10 
10 10 10 10 10 10 10 10 10 
10 10 10 10 10 10 10 10 10 
10 10 10 10 10 10 10 10 10 
10 10 10 10 10 10 10 10 10 
10 10 10 10 10 10 10 10 10 
10 10 10 10 10 10 10 10 10 
10 10 10 10 10 10 10 10 10 
10 10 10 10 10 10 10 10 10 
10 10 10 10 10 10 10 10 10 
10 10 10 10 10 10 10 10 10 
10 10 10 10 10 10 10 10 10 
10 10 10 10 10 10 10 10 10 
10 10 10 10 10 10 10 10 10 
10 10 10 10 10 10 10 10 10 
10 10 10 10 10 10 10 10 10 
10 10 10 10 10 10 10 10 10 
10 10 10 10 10 10 10 10 10 
10 10 10 10 10 10 10 10 10 
10 10 10 10 10 10 10 10 10 
10 10 10 10 10 10 10 10 10 
10 10 10 10 10 10 10 10 10 
10 10 10 10 10 10 10 10 10 
10 10 10 10 10 10 10 10 10 
10 10 10 10 10 10 10 10 10 
10 10 10 10 10 10 10 10 10 
10 10 10 10 10 10 10 10 10 
10 10 10 10 10 10 10 10 10 
10 10 10 10 10 10 10 10 10 
10 10 10 10 10 10 10 10 10 
10 10 10 10 10 10 10 10 10 
10 10 10 10 10 10 10 10 10 
10 10 10 10 10 10 10 10 10 
10 10 10 10 10 10 10 10 10 
10 10 10 10 10 10 10 10 10 
10 10 10 10 10 10 10 10 10 
10 10 10 10 10 10 10 10 10 
10 10 10 10 10 10 10 10 10 
10 10 10 10 10 10 10 10 10 
10 10 10 10 10 10 10 10 10 
10 10 10 10 10 10 10 10 10 
10 10 10 10 10 10 10 10 10 
10 10 10 10 10 10 10 10 10 
10 10 10 10 10 10 10 10 10 
10 10 10 10 10 10 10 10 10 
10 10 10 10 10 10 10 10 10 
10 10 10 10 10 10 10 10 10 
10 10 10 10 10 10 10 10 10 
10 10 10 10 10 10 10 10 10 
10 10 10 10 10 10 10 10 10 
10 10 10 10 10 10 10 10 10 
10 10 10 10 10 10 10 10 10 
10 10 10 10 10 10 10 10 10 
10 10 10 10 10 10 10 10 10 
10 10 10 10 10 10 10 10 10 
10 10 10 10 10 10 10 10 10 
10 10 10 10 10 10 10 10 10 
10 10 10 10 10 10 10 10 10 
10 10 10 10 10 10 10 10 10 
10 10 10 10 10 10 10 10 10 
10 10 10 10 10 10 10 10 10 
10 10 10 10 10 10 10 10 10 
10 10 10 10 10 10 10 10 10 
10 10 10 10 10 10 10 10 10 
10 10 10 10 10 10 10 10 10 
10 10 10 10 10 10 10 10 10 
10 10 10 10 10 10 10 10 10 
10 10 10 10 10 10 10 10 10 
10 10 10 10 10 10 10 10 10 
10 10 10 10 10 10 10 10 10 
10 10 10 10 10 10 10 10 10 
10 10 10 10 10 10 10 10 10 
10 10 10 10 10 10 10 10 10 
10 10 10 10 10 10 10 10 10 
10 10 10 10 10 10 10 10 10 
10 10 10 10 10 10 10 10 10 
10 10 10 10 10 10 10 10 10 
10 10 10 10 10 10 10 10 10 
10 10 10 10 10 10 10 10 10 
10 10 10 10 10 10 10 10 10 
10 10 10 10 10 10 10 10 10 
10 10 10 10 10 10 10 10 10 
10 10 10 10 10 10 10 10 10 
10 10 10 10 10 10 10 10 10 
10 10 10 10 10 10 10 10 10 
10 10 10 10 10 10 10 10 10 
10 10 10 10 10 10 10 10 10 
10 10 10 10 10 10 10 10 10 
10 10 10 10 10 10 10 10 10 
10 10 10 10 10 10 10 10 10 
10 10 10 10 10 10 10 10 10 
10 10 10 10 10 10 10 10 10 
10 10 10 10 10 10 10 10 10 
10 10 10 10 10 10 10 10 10 
10 10 10 10 10 10 10 10 10 
10 10 10 10 10 10 10 10 10 
10 10 10 10 10 10 10 10 10 
10 10 10 10 10 10 10 10 10 
10 10 10 10 10 10 10 10 10 
10 10 10 10 10 10 10 10 10 
10 10 10 10 10 10 10 10 10 
10 10 10 10 10 10 10 10 10 
10 10 10 10 10 10 10 10 10 
10 10 10 10 10 10 10 10 10 
10 10 10 10 10 10 10 10 10 
10 10 10 10 10 10 10 10 10 
10 10 10 10 10 10 10 10 10 
10 10 10 10 10 10 10 10 10 
10 10 10 10 10 
B 1 1049 double
0.2 0.2 0.2 0.2 0.2 0.2 0.2 0.2 0.2 
0.2 0.2 0.2 0.2 0.2 0.2 0.2 0.2 0.2 
0.2 0.2 0.2 0.2 0.2 0.2 0.2 0.2 0.2 
0.2 0.2 0.2 0.2 0.2 0.2 0.2 0.2 0.2 
0.2 0.2 0.2 0.2 0.2 0.2 0.2 0.2 0.2 
0.2 0.2 0.2 0.2 0.2 0.2 0.2 0.2 0.2 
0.2 0.2 0.2 0.2 0.2 0.2 0.2 0.2 0.2 
0.2 0.2 0.2 0.2 0.2 0.2 0.2 0.2 0.2 
0.2 0.2 0.2 0.2 0.2 0.2 0.2 0.2 0.2 
0.2 0.2 0.2 0.2 0.2 0.2 0.2 0.2 0.2 
0.2 0.2 0.2 0.2 0.2 0.2 0.2 0.2 0.2 
0.2 0.2 0.2 0.2 0.2 0.2 0.2 0.2 0.2 
0.2 0.2 0.2 0.2 0.2 0.2 0.2 0.2 0.2 
0.2 0.2 0.2 0.2 0.2 0.2 0.2 0.2 0.2 
0.2 0.2 0.2 0.2 0.2 0.2 0.2 0.2 0.2 
0.2 0.2 0.2 0.2 0.2 0.2 0.2 0.2 0.2 
0.2 0.2 0.2 0.2 0.2 0.2 0.2 0.2 0.2 
0.2 0.2 0.2 0.2 0.2 0.2 0.2 0.2 0.2 
0.2 0.2 0.2 0.2 0.2 0.2 0.2 0.2 0.2 
0.2 0.2 0.2 0.2 0.2 0.2 0.2 0.2 0.2 
0.2 0.2 0.2 0.2 0.2 0.2 0.2 0.2 0.2 
0.2 0.2 0.2 0.2 0.2 0.2 0.2 0.2 0.2 
0.2 0.2 0.2 0.2 0.2 0.2 0.2 0.2 0.2 
0.2 0.2 0.2 0.2 0.2 0.2 0.2 0.2 0.2 
0.2 0.2 0.2 0.2 0.2 0.2 0.2 0.2 0.2 
0.2 0.2 0.2 0.2 0.2 0.2 0.2 0.2 0.2 
0.2 0.2 0.2 0.2 0.2 0.2 0.2 0.2 0.2 
0.2 0.2 0.2 0.2 0.2 0.2 0.2 0.2 0.2 
0.2 0.2 0.2 0.2 0.2 0.2 0.2 0.2 0.2 
0.2 0.2 0.2 0.2 0.2 0.2 0.2 0.2 0.2 
0.2 0.2 0.2 0.2 0.2 0.2 0.2 0.2 0.2 
0.2 0.2 0.2 0.2 0.2 0.2 0.2 0.2 0.2 
0.2 0.2 0.2 0.2 0.2 0.2 0.2 0.2 0.2 
0.2 0.2 0.2 0.2 0.2 0.2 0.2 0.2 0.2 
0.2 0.2 0.2 0.2 0.2 0.2 0.2 0.2 0.2 
0.2 0.2 0.2 0.2 0.2 0.2 0.2 0.2 0.2 
0.2 0.2 0.2 0.2 0.2 0.2 0.2 0.2 0.2 
0.2 0.2 0.2 0.2 0.2 0.2 0.2 0.2 0.2 
0.2 0.2 0.2 0.2 0.2 0.2 0.2 0.2 0.2 
0.2 0.2 0.2 0.2 0.2 0.2 0.2 0.2 0.2 
0.2 0.2 0.2 0.2 0.2 0.2 0.2 0.2 0.2 
0.2 0.2 0.2 0.2 0.2 0.2 0.2 0.2 0.2 
0.2 0.2 0.2 0.2 0.2 0.2 0.2 0.2 0.2 
0.2 0.2 0.2 0.2 0.2 0.2 0.2 0.2 0.2 
0.2 0.2 0.2 0.2 0.2 0.2 0.2 0.2 0.2 
0.2 0.2 0.2 0.2 0.2 0.2 0.2 0.2 0.2 
0.2 0.2 0.2 0.2 0.2 0.2 0.2 0.2 0.2 
0.2 0.2 0.2 0.2 0.2 0.2 0.2 0.2 0.2 
0.2 0.2 0.2 0.2 0.2 0.2 0.2 0.2 0.2 
0.2 0.2 0.2 0.2 0.2 0.2 0.2 0.2 0.2 
0.2 0.2 0.2 0.2 0.2 0.2 0.2 0.2 0.2 
0.2 0.2 0.2 0.2 0.2 0.2 0.2 0.2 0.2 
0.2 0.2 0.2 0.2 0.2 0.2 0.2 0.2 0.2 
0.2 0.2 0.2 0.2 0.2 0.2 0.2 0.2 0.2 
0.2 0.2 0.2 0.2 0.2 0.2 0.2 0.2 0.2 
0.2 0.2 0.2 0.2 0.2 0.2 0.2 0.2 0.2 
0.2 0.2 0.2 0.2 0.2 0.2 0.2 0.2 0.2 
0.2 0.2 0.2 0.2 0.2 0.2 0.2 0.2 0.2 
0.2 0.2 0.2 0.2 0.2 0.2 0.2 0.2 0.2 
0.2 0.2 0.2 0.2 0.2 0.2 0.2 0.2 0.2 
0.2 0.2 0.2 0.2 0.2 0.2 0.2 0.2 0.2 
0.2 0.2 0.2 0.2 0.2 0.2 0.2 0.2 0.2 
0.2 0.2 0.2 0.2 0.2 0.2 0.2 0.2 0.2 
0.2 0.2 0.2 0.2 0.2 0.2 0.2 0.2 0.2 
0.2 0.2 0.2 0.2 0.2 0.2 0.2 0.2 0.2 
0.2 0.2 0.2 0.2 0.2 0.2 0.2 0.2 0.2 
0.2 0.2 0.2 0.2 0.2 0.2 0.2 0.2 0.2 
0.2 0.2 0.2 0.2 0.2 0.2 0.2 0.2 0.2 
0.2 0.2 0.2 0.2 0.2 0.2 0.2 0.2 0.2 
0.2 0.2 0.2 0.2 0.2 0.2 0.2 0.2 0.2 
0.2 0.2 0.2 0.2 0.2 0.2 0.2 0.2 0.2 
0.2 0.2 0.2 0.2 0.2 0.2 0.2 0.2 0.2 
0.2 0.2 0.2 0.2 0.2 0.2 0.2 0.2 0.2 
0.2 0.2 0.2 0.2 0.2 0.2 0.2 0.2 0.2 
0.2 0.2 0.2 0.2 0.2 0.2 0.2 0.2 0.2 
0.2 0.2 0.2 0.2 0.2 0.2 0.2 0.2 0.2 
0.2 0.2 0.2 0.2 0.2 0.2 0.2 0.2 0.2 
0.2 0.2 0.2 0.2 0.2 0.2 0.2 0.2 0.2 
0.2 0.2 0.2 0.2 0.2 0.2 0.2 0.2 0.2 
0.2 0.2 0.2 0.2 0.2 0.2 0.2 0.2 0.2 
0.2 0.2 0.2 0.2 0.2 0.2 0.2 0.2 0.2 
0.2 0.2 0.2 0.2 0.2 0.2 0.2 0.2 0.2 
0.2 0.2 0.2 0.2 0.2 0.2 0.2 0.2 0.2 
0.2 0.2 0.2 0.2 0.2 0.2 0.2 0.2 0.2 
0.2 0.2 0.2 0.2 0.2 0.2 0.2 0.2 0.2 
0.2 0.2 0.2 0.2 0.2 0.2 0.2 0.2 0.2 
0.2 0.2 0.2 0.2 0.2 0.2 0.2 0.2 0.2 
0.2 0.2 0.2 0.2 0.2 0.2 0.2 0.2 0.2 
0.2 0.2 0.2 0.2 0.2 0.2 0.2 0.2 0.2 
0.2 0.2 0.2 0.2 0.2 0.2 0.2 0.2 0.2 
0.2 0.2 0.2 0.2 0.2 0.2 0.2 0.2 0.2 
0.2 0.2 0.2 0.2 0.2 0.2 0.2 0.2 0.2 
0.2 0.2 0.2 0.2 0.2 0.2 0.2 0.2 0.2 
0.2 0.2 0.2 0.2 0.2 0.2 0.2 0.2 0.2 
0.2 0.2 0.2 0.2 0.2 0.2 0.2 0.2 0.2 
0.2 0.2 0.2 0.2 0.2 0.2 0.2 0.2 0.2 
0.2 0.2 0.2 0.2 0.2 0.2 0.2 0.2 0.2 
0.2 0.2 0.2 0.2 0.2 0.2 0.2 0.2 0.2 
0.2 0.2 0.2 0.2 0.2 0.2 0.2 0.2 0.2 
0.2 0.2 0.2 0.2 0.2 0.2 0.2 0.2 0.2 
0.2 0.2 0.2 0.2 0.2 0.2 0.2 0.2 0.2 
0.2 0.2 0.2 0.2 0.2 0.2 0.2 0.2 0.2 
0.2 0.2 0.2 0.2 0.2 0.2 0.2 0.2 0.2 
0.2 0.2 0.2 0.2 0.2 0.2 0.2 0.2 0.2 
0.2 0.2 0.2 0.2 0.2 0.2 0.2 0.2 0.2 
0.2 0.2 0.2 0.2 0.2 0.2 0.2 0.2 0.2 
0.2 0.2 0.2 0.2 0.2 0.2 0.2 0.2 0.2 
0.2 0.2 0.2 0.2 0.2 0.2 0.2 0.2 0.2 
0.2 0.2 0.2 0.2 0.2 0.2 0.2 0.2 0.2 
0.2 0.2 0.2 0.2 0.2 0.2 0.2 0.2 0.2 
0.2 0.2 0.2 0.2 0.2 0.2 0.2 0.2 0.2 
0.2 0.2 0.2 0.2 0.2 0.2 0.2 0.2 0.2 
0.2 0.2 0.2 0.2 0.2 0.2 0.2 0.2 0.2 
0.2 0.2 0.2 0.2 0.2 0.2 0.2 0.2 0.2 
0.2 0.2 0.2 0.2 0.2 0.2 0.2 0.2 0.2 
0.2 0.2 0.2 0.2 0.2 0.2 0.2 0.2 0.2 
0.2 0.2 0.2 0.2 0.2 
c 1 1049 double
0.1 0.1 0.1 0.1 0.1 0.1 0.1 0.1 0.1 
0.1 0.1 0.1 0.1 0.1 0.1 0.1 0.1 0.1 
0.1 0.1 0.1 0.1 0.1 0.1 0.1 0.1 0.1 
0.1 0.1 0.1 0.1 0.1 0.1 0.1 0.1 0.1 
0.1 0.1 0.1 0.1 0.1 0.1 0.1 0.1 0.1 
0.1 0.1 0.1 0.1 0.1 0.1 0.1 0.1 0.1 
0.1 0.1 0.1 0.1 0.1 0.1 0.1 0.1 0.1 
0.1 0.1 0.1 0.1 0.1 0.1 0.1 0.1 0.1 
0.1 0.1 0.1 0.1 0.1 0.1 0.1 0.1 0.1 
0.1 0.1 0.1 0.1 0.1 0.1 0.1 0.1 0.1 
0.1 0.1 0.1 0.1 0.1 0.1 0.1 0.1 0.1 
0.1 0.1 0.1 0.1 0.1 0.1 0.1 0.1 0.1 
0.1 0.1 0.1 0.1 0.1 0.1 0.1 0.1 0.1 
0.1 0.1 0.1 0.1 0.1 0.1 0.1 0.1 0.1 
0.1 0.1 0.1 0.1 0.1 0.1 0.1 0.1 0.1 
0.1 0.1 0.1 0.1 0.1 0.1 0.1 0.1 0.1 
0.1 0.1 0.1 0.1 0.1 0.1 0.1 0.1 0.1 
0.1 0.1 0.1 0.1 0.1 0.1 0.1 0.1 0.1 
0.1 0.1 0.1 0.1 0.1 0.1 0.1 0.1 0.1 
0.1 0.1 0.1 0.1 0.1 0.1 0.1 0.1 0.1 
0.1 0.1 0.1 0.1 0.1 0.1 0.1 0.1 0.1 
0.1 0.1 0.1 0.1 0.1 0.1 0.1 0.1 0.1 
0.1 0.1 0.1 0.1 0.1 0.1 0.1 0.1 0.1 
0.1 0.1 0.1 0.1 0.1 0.1 0.1 0.1 0.1 
0.1 0.1 0.1 0.1 0.1 0.1 0.1 0.1 0.1 
0.1 0.1 0.1 0.1 0.1 0.1 0.1 0.1 0.1 
0.1 0.1 0.1 0.1 0.1 0.1 0.1 0.1 0.1 
0.1 0.1 0.1 0.1 0.1 0.1 0.1 0.1 0.1 
0.1 0.1 0.1 0.1 0.1 0.1 0.1 0.1 0.1 
0.1 0.1 0.1 0.1 0.1 0.1 0.1 0.1 0.1 
0.1 0.1 0.1 0.1 0.1 0.1 0.1 0.1 0.1 
0.1 0.1 0.1 0.1 0.1 0.1 0.1 0.1 0.1 
0.1 0.1 0.1 0.1 0.1 0.1 0.1 0.1 0.1 
0.1 0.1 0.1 0.1 0.1 0.1 0.1 0.1 0.1 
0.1 0.1 0.1 0.1 0.1 0.1 0.1 0.1 0.1 
0.1 0.1 0.1 0.1 0.1 0.1 0.1 0.1 0.1 
0.1 0.1 0.1 0.1 0.1 0.1 0.1 0.1 0.1 
0.1 0.1 0.1 0.1 0.1 0.1 0.1 0.1 0.1 
0.1 0.1 0.1 0.1 0.1 0.1 0.1 0.1 0.1 
0.1 0.1 0.1 0.1 0.1 0.1 0.1 0.1 0.1 
0.1 0.1 0.1 0.1 0.1 0.1 0.1 0.1 0.1 
0.1 0.1 0.1 0.1 0.1 0.1 0.1 0.1 0.1 
0.1 0.1 0.1 0.1 0.1 0.1 0.1 0.1 0.1 
0.1 0.1 0.1 0.1 0.1 0.1 0.1 0.1 0.1 
0.1 0.1 0.1 0.1 0.1 0.1 0.1 0.1 0.1 
0.1 0.1 0.1 0.1 0.1 0.1 0.1 0.1 0.1 
0.1 0.1 0.1 0.1 0.1 0.1 0.1 0.1 0.1 
0.1 0.1 0.1 0.1 0.1 0.1 0.1 0.1 0.1 
0.1 0.1 0.1 0.1 0.1 0.1 0.1 0.1 0.1 
0.1 0.1 0.1 0.1 0.1 0.1 0.1 0.1 0.1 
0.1 0.1 0.1 0.1 0.1 0.1 0.1 0.1 0.1 
0.1 0.1 0.1 0.1 0.1 0.1 0.1 0.1 0.1 
0.1 0.1 0.1 0.1 0.1 0.1 0.1 0.1 0.1 
0.1 0.1 0.1 0.1 0.1 0.1 0.1 0.1 0.1 
0.1 0.1 0.1 0.1 0.1 0.1 0.1 0.1 0.1 
0.1 0.1 0.1 0.1 0.1 0.1 0.1 0.1 0.1 
0.1 0.1 0.1 0.1 0.1 0.1 0.1 0.1 0.1 
0.1 0.1 0.1 0.1 0.1 0.1 0.1 0.1 0.1 
0.1 0.1 0.1 0.1 0.1 0.1 0.1 0.1 0.1 
0.1 0.1 0.1 0.1 0.1 0.1 0.1 0.1 0.1 
0.1 0.1 0.1 0.1 0.1 0.1 0.1 0.1 0.1 
0.1 0.1 0.1 0.1 0.1 0.1 0.1 0.1 0.1 
0.1 0.1 0.1 0.1 0.1 0.1 0.1 0.1 0.1 
0.1 0.1 0.1 0.1 0.1 0.1 0.1 0.1 0.1 
0.1 0.1 0.1 0.1 0.1 0.1 0.1 0.1 0.1 
0.1 0.1 0.1 0.1 0.1 0.1 0.1 0.1 0.1 
0.1 0.1 0.1 0.1 0.1 0.1 0.1 0.1 0.1 
0.1 0.1 0.1 0.1 0.1 0.1 0.1 0.1 0.1 
0.1 0.1 0.1 0.1 0.1 0.1 0.1 0.1 0.1 
0.1 0.1 0.1 0.1 0.1 0.1 0.1 0.1 0.1 
0.1 0.1 0.1 0.1 0.1 0.1 0.1 0.1 0.1 
0.1 0.1 0.1 0.1 0.1 0.1 0.1 0.1 0.1 
0.1 0.1 0.1 0.1 0.1 0.1 0.1 0.1 0.1 
0.1 0.1 0.1 0.1 0.1 0.1 0.1 0.1 0.1 
0.1 0.1 0.1 0.1 0.1 0.1 0.1 0.1 0.1 
0.1 0.1 0.1 0.1 0.1 0.1 0.1 0.1 0.1 
0.1 0.1 0.1 0.1 0.1 0.1 0.1 0.1 0.1 
0.1 0.1 0.1 0.1 0.1 0.1 0.1 0.1 0.1 
0.1 0.1 0.1 0.1 0.1 0.1 0.1 0.1 0.1 
0.1 0.1 0.1 0.1 0.1 0.1 0.1 0.1 0.1 
0.1 0.1 0.1 0.1 0.1 0.1 0.1 0.1 0.1 
0.1 0.1 0.1 0.1 0.1 0.1 0.1 0.1 0.1 
0.1 0.1 0.1 0.1 0.1 0.1 0.1 0.1 0.1 
0.1 0.1 0.1 0.1 0.1 0.1 0.1 0.1 0.1 
0.1 0.1 0.1 0.1 0.1 0.1 0.1 0.1 0.1 
0.1 0.1 0.1 0.1 0.1 0.1 0.1 0.1 0.1 
0.1 0.1 0.1 0.1 0.1 0.1 0.1 0.1 0.1 
0.1 0.1 0.1 0.1 0.1 0.1 0.1 0.1 0.1 
0.1 0.1 0.1 0.1 0.1 0.1 0.1 0.1 0.1 
0.1 0.1 0.1 0.1 0.1 0.1 0.1 0.1 0.1 
0.1 0.1 0.1 0.1 0.1 0.1 0.1 0.1 0.1 
0.1 0.1 0.1 0.1 0.1 0.1 0.1 0.1 0.1 
0.1 0.1 0.1 0.1 0.1 0.1 0.1 0.1 0.1 
0.1 0.1 0.1 0.1 0.1 0.1 0.1 0.1 0.1 
0.1 0.1 0.1 0.1 0.1 0.1 0.1 0.1 0.1 
0.1 0.1 0.1 0.1 0.1 0.1 0.1 0.1 0.1 
0.1 0.1 0.1 0.1 0.1 0.1 0.1 0.1 0.1 
0.1 0.1 0.1 0.1 0.1 0.1 0.1 0.1 0.1 
0.1 0.1 0.1 0.1 0.1 0.1 0.1 0.1 0.1 
0.1 0.1 0.1 0.1 0.1 0.1 0.1 0.1 0.1 
0.1 0.1 0.1 0.1 0.1 0.1 0.1 0.1 0.1 
0.1 0.1 0.1 0.1 0.1 0.1 0.1 0.1 0.1 
0.1 0.1 0.1 0.1 0.1 0.1 0.1 0.1 0.1 
0.1 0.1 0.1 0.1 0.1 0.1 0.1 0.1 0.1 
0.1 0.1 0.1 0.1 0.1 0.1 0.1 0.1 0.1 
0.1 0.1 0.1 0.1 0.1 0.1 0.1 0.1 0.1 
0.1 0.1 0.1 0.1 0.1 0.1 0.1 0.1 0.1 
0.1 0.1 0.1 0.1 0.1 0.1 0.1 0.1 0.1 
0.1 0.1 0.1 0.1 0.1 0.1 0.1 0.1 0.1 
0.1 0.1 0.1 0.1 0.1 0.1 0.1 0.1 0.1 
0.1 0.1 0.1 0.1 0.1 0.1 0.1 0.1 0.1 
0.1 0.1 0.1 0.1 0.1 0.1 0.1 0.1 0.1 
0.1 0.1 0.1 0.1 0.1 0.1 0.1 0.1 0.1 
0.1 0.1 0.1 0.1 0.1 0.1 0.1 0.1 0.1 
0.1 0.1 0.1 0.1 0.1 0.1 0.1 0.1 0.1 
0.1 0.1 0.1 0.1 0.1 0.1 0.1 0.1 0.1 
0.1 0.1 0.1 0.1 0.1 
m 1 1049 double
76.33 56.755 91.315 65.975 75.77 61.625 94.14 84.655 62.64 
65.745 83.88 53.285 84.935 90.92 99.255 93.885 94.295 95.485 
56.49 53.87 97.585 96.915 81.145 71.295 90.21 56.63 74.595 
63.77 59.805 86.865 72.105 71.62 75.99 92.685 91.575 71.85 
68.92 82.065 92.105 54.43 67.63 63.885 94.9 69.85 80.455 
86.405 99.78 95.85 84.98 59.365 84.31 85.42 61.525 51.68 
54.625 81.635 66.01 94.72 56.565 58.645 91.01 67.53 82.525 
54.23 84.575 79.285 52.725 97.91 69.475 80.62 70.215 66.835 
77.17 94.07 51.82 85.89 84.04 68.75 86.38 55.435 77.015 
78.94 67.92 63.255 63.77 99.66 75.3 98.38 66.84 61.995 
91.95 58.41 81.13 88.695 50.06 92.93 76.7 88.965 64.145 
57.17 52.85 90.47 87.695 53.975 50.485 64.51 83.005 87.335 
51.89 86.505 83.26 52.46 53.78 66.585 97.205 69.325 51.4 
71.43 98.445 73.645 90.155 92.2 83.095 92.22 89.44 91.675 
78.855 90.585 90.485 94.935 91.69 77.165 72.405 53.545 72.835 
89.28 53.375 94.635 72.93 97.485 84.825 61.765 76.53 57.64 
73.415 93.12 64.355 81.095 50.095 94.145 91.35 97.515 78.66 
98.54 66.84 81.7 83.575 90.745 67.295 64.23 68.09 88.98 
55.5 63.09 76.93 53.615 61.225 78.645 87.44 88.82 64.605 
61.895 67.255 67.775 99.205 91.14 52.46 88.61 61.75 83.245 
63.205 75.965 91.99 88.82 74.57 84.935 50.62 85.17 57.5 
79.28 68.715 91.825 82.455 61.135 57.105 57.16 99.295 62.755 
59.68 88.105 97.835 62.52 53.065 66.025 89.775 95.63 91.415 
54.34 83.92 97.64 60.105 64.21 53.715 65.72 61.46 78.975 
89.94 61.37 88.205 83.1 80.945 81.775 56.94 56.165 97.19 
65.37 90.125 82.185 66.375 57.37 77.035 96.14 77.895 59.965 
59.3 79.42 90.71 76.76 90.795 99.54 94.36 99.79 75.945 
52.49 51.445 76.835 76.19 84.745 89.855 50.45 94.845 98.05 
97.395 72.06 68.405 51.35 51.79 90.785 67.465 68.31 71.975 
56.185 80.605 80.145 94.29 58.88 94.25 86.275 73.845 76.365 
58.915 94.04 66.515 88.765 81.24 90.18 64.5 65.885 76.715 
81.675 82.145 96.07 67.56 59.43 91.775 56.56 67.085 59.195 
77.845 53.495 91.815 60.985 71.55 79.09 68.965 72.14 91.175 
80.715 79.97 90.02 88.66 51.895 55.775 65.415 73.95 53.195 
51.995 92.83 66.665 58.24 98.77 64.45 60.665 91.425 52.52 
78.145 54.82 50.245 95.4 98.155 54.285 93.135 92.965 63.11 
93.97 82.155 65.865 99.235 69.45 82.91 75.995 62.455 62.02 
97.645 55.055 79.64 93.88 62.95 94.095 92.905 96.68 91.045 
56.77 84.075 54.265 58.73 72.5 97.645 51.84 87.835 60.67 
80.635 61.075 71.695 58.46 95.255 63.235 94.73 84.85 61.45 
78.955 87.31 96.95 71.46 83.41 86.39 58.805 93.03 72.69 
78.815 72.215 73.065 61.49 80.95 52.62 53.565 69.49 97.965 
90.23 98.985 68.94 81.245 84.95 92.69 75.755 88.235 80.795 
62.675 67.645 77.89 82.76 74.97 74.58 96.84 95.075 80.785 
92.87 75.575 57.605 75.285 80.635 79.28 50.185 64.86 84.2 
53.44 74.09 75.64 64.52 83.2 56.11 96.495 80.21 76.925 
88.325 50.495 59.26 54.55 91.91 76.815 66.515 65.165 62.485 
51.265 53.405 82.015 60.01 72.5 52.14 74.925 93.81 72.76 
86.93 75.5 81.56 63.63 71.73 96.67 96.155 77.555 63.675 
59.735 75.105 64.755 57.455 69.135 86.845 89.585 66.62 84.98 
99.585 59.86 88.36 88.125 96.46 69.25 80.435 98.36 51.54 
82.95 52.64 61.81 69.98 88.43 55.76 95.625 74.46 95.94 
77.18 62.3 95.785 68.645 79.875 77.41 73.465 85.085 50.135 
67.07 69.605 93.45 81.52 52.3 94.51 50.14 83.74 90.135 
67.685 87.78 90.25 93.285 88.485 73.97 93.495 55.215 55.195 
86.67 50.295 52.845 67.705 71.16 61.305 69.13 51.8 80.21 
83.805 95.585 50.405 90.115 88.815 81.545 65.95 54.355 69.63 
77.125 94.98 67.14 73.385 72.62 71.17 58.13 53.45 81.835 
65.84 91.025 98.07 80.285 51.79 82.53 86.42 72.83 88.85 
52.7 84.28 52.085 79.245 61.3 86.025 51.185 65.295 53.03 
67.13 76.085 92.59 74.725 62.195 95.86 53.915 72.85 54.365 
81.085 84.365 92.29 88.185 52.415 71.445 81.82 63.785 83.035 
52.39 72.355 96.57 78.68 83.255 65.345 65.86 59.25 60.915 
88.715 92.45 77.495 97.35 86.345 50.42 56.98 70.405 78.15 
75 64.785 57.705 71.125 55.865 65.345 62.775 79.025 54.985 
77.105 54.64 83.625 87.525 78.22 98.86 77.95 69.6 96.12 
69.75 62.11 89.09 87.8 83.29 76.18 76.055 50.635 76.84 
75.525 50.245 62.835 52.815 56.22 86.875 93.555 59.025 66.455 
99.67 67.945 68.84 94.965 94.775 68.07 84.91 64.025 74.11 
84.41 74.59 70.09 82.145 57.87 65.465 70.15 96.455 81.64 
83.55 54.625 83.585 69.29 75.275 84.815 85.45 86.085 84.18 
90.65 74.52 56.965 63.305 92.855 92.28 63.02 73.945 84.255 
98.165 98.425 65.365 97.425 96.25 99.025 89.34 82.515 87.58 
76.625 64.745 95.03 78.91 67.58 55.405 73.195 60.975 51.13 
83.815 55.6 54.835 88.385 87.8 52.98 54.325 69.905 95.18 
96.055 89.775 67.59 88.85 81.71 91.35 61.895 62.66 86.605 
75.98 72.135 70.86 60.2 71.17 74.92 86.99 55.315 50.36 
86.415 79.15 52.865 51.735 84.75 68.57 60.15 87.61 84.62 
70.235 80.295 75.41 96.02 64.77 97.175 56.16 52.215 95.795 
78.2 71.39 77.43 59.49 99.24 96.31 55.205 98.415 51.31 
83.64 64.03 69.795 91.62 58.615 90.835 78.985 81.36 95.61 
87.285 96.825 70.77 86.675 79.105 58.88 55.855 51.345 63.735 
76.09 54.44 54.535 93.505 99.665 73.265 58.515 57.65 75.27 
70.15 52.685 68.7 70.49 64.31 88.345 98.93 90.695 64.77 
75.615 81.14 95.75 55.635 58.525 79.92 51.265 52.715 50.63 
57.43 82.965 80.695 61.155 58.98 77.02 65.01 56.54 85.42 
93.6 63.49 76.67 61.75 83.105 61.965 50.04 88.58 92.32 
97.535 50.985 92.71 90.41 99.055 78.335 79.695 99.52 69.7 
89.07 90.895 65.37 73.565 91.885 95.105 96.09 61.69 69.85 
72.9 92.06 54.76 81.88 55.26 94.49 63.575 54.955 60.355 
93.055 81.74 68.11 94.02 96.775 76.605 72.995 74.095 56.275 
88.605 78.55 73.81 85.44 78.875 64.595 76.895 99.31 74.06 
74.885 63.425 94.77 82.225 57.795 70.05 90.945 75.855 62.53 
86.4 56.345 92.885 96.495 77.84 86.715 89.14 78.73 88.565 
86.86 91.03 96.505 87.935 51.73 83.66 55.085 51.47 51.175 
57.68 96.035 67.415 70.88 99.52 67.185 94.88 91.705 86.805 
83.05 65.675 59.44 88.025 77.11 71.7 66.555 69.05 60.045 
58.295 76.05 61.68 81.71 75.765 78.455 55.685 62.865 69.715 
74.285 99.555 67.495 98.72 98.795 70.335 88.215 51.685 98.09 
55.68 56.8 56.525 59.005 74.39 68.65 78.305 66.74 60.86 
84.435 69.645 97.06 95.535 92.09 87.225 95.895 98.78 66.88 
77.71 79.68 60.45 88.42 64.63 55.475 75.42 82.33 56.7 
68.865 64.065 85.95 98.34 64.795 94.495 89.905 85.995 50.815 
64.98 74.65 93.3 79.47 94.665 99.01 69.405 85.655 54.865 
87.34 50.355 96.895 67.26 59.495 60.18 77.75 60.31 88.185 
78.12 64.62 63 91.41 66.29 67.08 67.325 83.54 97.22 
92.61 96.6 93.13 93.68 82.695 95.08 70.11 91.12 65.545 
50 75.405 75.265 66.89 90.545 79.945 56.69 90.335 95.57 
97.13 82.66 76.115 61.155 75.735 83.935 56.405 69.375 50.895 
60.61 74.25 82.95 69.065 61.27 76.75 55.655 57.47 95.905 
89.285 80.405 73.015 78.6 87.435 50.905 89.91 62.165 96.48 
97.075 77.02 93.61 94.125 51.485 95.67 50.16 52.755 84.46 
98.54 85.285 92.53 65.905 52.075 99.995 61.485 59.81 87.415 
52.975 94.885 50.77 75.055 56.545 78.88 62.935 99.66 66.91 
75.105 71.33 88.425 67.815 68.41 96.055 94.3 54.65 72.915 
79.95 71.425 95.43 59.46 57.38 86.57 79.1 70.58 87.45 
87.625 77.64 94.195 87.625 65.29 
p0 3 1049 double
0 -10 0 0 -10 0 0 -10 0 
0 -10 0 0 -10 0 0 -10 0 
0 -10 0 0 -10 0 0 -10 0 
0 -10 0 0 -10 0 0 -10 0 
0 -10 0 0 -10 0 0 -10 0 
0 -10 0 0 -10 0 0 -10 0 
0 -10 0 0 -10 0 0 -10 0 
0 0 0 0 0 0 0 0 0 
0 0 0 0 0 0 0 0 0 
0 0 0 0 0 0 0 0 0 
0 0 0 0 0 0 0 0 0 
0 0 0 0 0 0 0 0 0 
0 0 0 0 0 0 -12 0 0 
0 0 0 0 0 0 0 0 0 
0 0 0 -12 0 0 0 0 0 
0 0 0 0 0 0 0 0 0 
0 0 0 0 0 0 0 0 0 
0 0 0 0 0 0 0 0 0 
0 0 0 0 0 0 0 0 0 
0 0 0 0 0 0 0 0 0 
0 0 0 0 0 0 0 0 0 
0 0 0 0 0 0 0 0 0 
0 0 0 0 0 0 0 0 0 
0 0 0 0 0 0 0 0 0 
0 0 0 0 0 0 0 0 0 
0 0 0 0 0 0 0 0 0 
0 0 0 0 0 0 0 0 0 
0 0 0 0 0 0 0 0 0 
0 0 0 0 0 0 0 0 0 
0 0 0 0 0 0 0 0 0 
0 0 0 0 0 0 0 0 0 
0 0 0 0 0 0 0 0 0 
0 0 0 0 0 0 0 0 0 
0 0 0 0 0 0 0 0 0 
0 0 0 0 0 0 0 0 0 
0 0 0 0 0 0 0 0 0 
0 0 0 0 0 0 0 0 0 
0 0 0 0 0 0 0 0 0 
0 0 0 0 0 0 0 0 0 
0 0 0 0 0 0 0 0 0 
0 0 0 0 0 0 0 0 0 
0 0 0 0 0 0 0 0 0 
0 0 0 0 0 0 0 0 0 
0 0 0 0 0 0 0 0 0 
0 0 0 0 0 0 0 0 0 
0 0 0 0 0 0 0 0 0 
0 0 0 0 0 0 0 0 0 
0 0 0 0 0 0 0 0 0 
0 0 0 0 0 0 0 0 0 
0 0 0 0 0 0 0 0 0 
0 0 0 0 0 0 0 0 0 
0 0 0 0 0 0 0 0 0 
0 0 0 0 0 0 0 0 0 
0 0 0 0 0 0 0 0 0 
0 0 0 0 0 0 0 0 0 
0 0 0 0 0 0 0 0 0 
0 0 0 0 0 0 0 0 0 
0 0 0 0 0 0 0 0 0 
0 0 0 0 0 0 0 0 0 
12 0 0 0 0 0 0 0 0 
12 0 0 0 0 0 12 0 0 
0 0 0 0 0 0 0 0 0 
0 0 0 0 0 0 0 0 0 
0 0 0 0 0 0 0 0 0 
0 0 0 0 0 0 0 0 0 
0 0 0 0 0 0 0 0 0 
0 0 0 0 0 0 0 0 0 
0 0 0 0 0 0 0 0 0 
-12 0 0 -12 0 0 -12 0 0 
0 0 0 0 0 0 0 0 0 
0 0 0 0 0 0 0 0 0 
0 0 0 0 0 0 0 0 0 
0 0 0 0 0 0 0 0 0 
0 0 0 0 0 0 0 0 0 
0 0 0 0 0 0 0 0 0 
0 0 0 0 0 0 0 0 0 
0 0 0 0 0 0 0 0 0 
0 0 0 0 0 0 0 0 0 
0 0 0 0 0 0 0 0 0 
-12 0 0 -12 0 0 0 0 0 
0 0 0 0 0 0 0 0 0 
0 0 0 0 0 0 0 0 0 
0 0 0 0 0 0 0 0 0 
0 0 0 0 0 0 0 0 0 
0 0 0 0 0 0 0 0 0 
0 0 0 0 0 0 0 0 0 
0 0 0 12 0 0 0 0 0 
0 0 0 0 0 0 0 0 0 
0 0 0 0 0 0 0 0 0 
0 0 0 0 0 0 0 0 0 
-12 0 0 0 0 0 0 0 0 
0 0 0 0 0 0 0 0 0 
0 0 0 0 0 0 0 0 0 
0 0 0 0 0 0 0 0 0 
0 0 0 0 0 0 0 0 0 
0 0 0 0 0 0 0 0 0 
0 0 0 0 0 0 0 0 0 
12 0 0 12 0 0 0 0 0 
0 0 0 0 0 0 0 0 0 
0 0 0 0 0 0 0 0 0 
0 0 0 0 0 0 0 0 0 
-12 0 0 -12 0 0 -12 0 0 
-12 0 0 -12 0 0 0 0 0 
0 0 0 0 0 0 0 0 0 
0 0 0 0 0 0 0 0 0 
0 0 0 0 0 0 0 0 0 
0 0 0 0 0 0 0 0 0 
0 0 0 0 0 0 0 0 0 
0 0 0 0 0 0 0 0 0 
0 0 0 12 0 0 12 0 0 
12 0 0 12 0 0 0 0 0 
0 0 0 0 0 0 0 0 0 
0 0 0 0 0 0 0 0 0 
0 0 0 0 0 0 0 0 0 
-12 0 0 -12 0 0 -12 0 0 
0 0 0 0 0 0 0 0 0 
0 0 0 0 0 0 0 0 0 
0 0 0 0 0 0 0 0 0 
0 0 0 0 0 0 0 0 0 
0 0 0 0 0 0 0 0 0 
0 0 0 0 0 0 0 0 0 
0 0 0 0 0 0 12 0 0 
12 0 0 0 0 0 0 0 0 
0 0 0 0 0 0 0 0 0 
0 0 0 0 0 0 0 0 0 
0 0 0 0 0 0 -12 0 0 
0 0 0 0 0 0 0 0 0 
0 0 0 0 0 0 0 0 0 
0 0 0 0 0 0 0 0 0 
0 0 0 0 0 0 0 0 0 
0 0 0 0 0 0 0 0 0 
6 8 0 12 0 0 0 0 0 
0 0 0 0 0 0 0 0 0 
0 0 0 12 0 0 12 0 0 
12 0 0 12 0 0 0 0 0 
0 0 0 0 0 0 0 0 0 
0 0 0 0 0 0 0 0 0 
0 0 0 0 0 0 0 0 0 
-12 0 0 -12 0 0 -12 0 0 
-12 0 0 -12 0 0 0 0 0 
0 0 0 0 0 0 0 0 0 
0 0 0 0 0 0 0 0 0 
0 0 0 0 0 0 0 0 0 
0 8 0 0 8 0 0 8 0 
0 0 0 0 0 0 0 0 0 
0 0 0 0 0 0 6 8 0 
0 0 0 12 0 0 12 0 0 
0 0 0 0 0 0 0 0 0 
0 0 0 12 0 0 0 0 0 
0 0 0 0 0 0 0 0 0 
0 0 0 0 0 0 0 0 0 
0 0 0 0 0 0 0 0 0 
-12 0 0 -12 0 0 -12 0 0 
-9 9 0 -9 9 0 0 0 0 
0 0 0 0 0 0 0 0 0 
0 0 0 0 0 0 0 0 0 
0 0 0 0 0 0 0 0 0 
0 0 0 0 0 0 -9 9 0 
-9 9 0 -9 9 0 0 0 0 
0 0 0 0 0 0 0 0 0 
0 0 0 0 0 0 0 0 0 
0 0 0 0 0 0 0 0 0 
-9 9 0 0 0 0 0 0 0 
-9 9 0 0 0 0 0 0 0 
0 0 0 0 0 0 0 0 0 
-9 9 0 0 0 0 0 0 0 
0 0 0 0 0 0 0 0 0 
0 0 0 0 0 0 0 0 0 
0 0 0 0 0 0 0 0 0 
0 0 0 0 0 0 0 0 0 
0 0 0 -9 9 0 0 0 0 
0 0 0 0 0 0 9 9 0 
0 0 0 0 0 0 0 0 0 
0 0 0 0 0 0 0 0 0 
0 0 0 0 0 0 0 0 0 
0 0 0 0 0 0 9 9 0 
0 0 0 0 0 0 0 0 0 
0 0 0 0 0 0 0 0 0 
0 0 0 0 0 0 0 0 0 
0 0 0 0 0 0 0 0 0 
0 0 0 0 0 0 0 0 0 
0 0 0 9 9 0 0 0 0 
0 0 0 9 9 0 0 0 0 
9 9 0 0 0 0 0 0 0 
0 0 0 0 0 0 0 0 0 
9 9 0 0 0 0 0 0 0 
0 0 0 0 0 0 0 0 0 
0 0 0 12 0 0 0 0 0 
12 0 0 12 0 0 0 0 0 
0 0 0 0 0 0 0 0 0 
0 0 0 0 0 0 0 0 0 
0 0 0 0 0 0 0 0 0 
-9 9 0 -9 9 0 -9 9 0 
-9 9 0 -9 9 0 9 9 0 
9 9 0 9 9 0 9 9 0 
12 0 0 12 0 0 0 0 0 
0 0 0 0 0 0 0 0 0 
0 0 0 0 0 0 0 0 0 
0 0 0 0 0 0 0 0 0 
0 0 0 0 0 0 0 0 0 
0 0 0 0 0 0 0 0 0 
0 0 0 0 0 0 0 0 0 
0 0 0 0 0 0 0 0 0 
0 0 0 0 0 0 0 0 0 
0 0 0 0 0 0 0 0 0 
0 0 0 0 0 0 0 0 0 
0 0 0 0 0 0 0 0 0 
0 0 0 0 0 0 0 0 0 
0 0 0 0 0 0 0 0 0 
0 0 0 0 0 0 0 0 0 
0 0 0 0 0 0 0 0 0 
0 0 0 0 0 0 0 0 0 
0 0 0 0 0 0 0 0 0 
0 0 0 0 0 0 0 0 0 
0 0 0 0 0 0 0 0 0 
0 0 0 0 0 0 0 0 0 
0 0 0 0 0 0 0 0 0 
0 0 0 0 0 0 0 0 0 
0 0 0 0 0 0 0 0 0 
0 0 0 0 0 0 0 0 0 
0 0 0 0 0 0 0 0 0 
0 0 0 0 0 0 0 0 0 
0 0 0 0 0 0 0 0 0 
0 0 0 0 0 0 0 0 0 
0 0 0 0 0 0 0 0 0 
0 0 0 0 0 0 0 0 0 
0 0 0 0 0 0 0 0 0 
0 0 0 0 0 0 0 0 0 
0 0 0 0 0 0 0 0 0 
0 0 0 0 0 0 0 0 0 
0 0 0 0 0 0 0 0 0 
0 0 0 0 0 0 0 0 0 
0 0 0 0 0 0 0 0 0 
0 0 0 0 0 0 0 0 0 
0 0 0 0 0 0 0 0 0 
0 0 0 0 0 0 0 0 0 
0 0 0 0 0 0 0 0 0 
0 0 0 0 0 0 0 0 0 
0 0 0 0 0 0 0 0 0 
0 0 0 0 0 0 0 0 0 
0 0 0 0 0 0 0 0 0 
0 0 0 0 0 0 0 0 0 
0 0 0 0 0 0 0 0 0 
0 0 0 0 0 0 0 0 0 
0 0 0 0 0 0 0 0 0 
0 0 0 0 0 0 0 0 0 
0 0 0 13.5 10 0 0 0 0 
0 0 0 0 0 0 0 0 0 
0 0 0 0 0 0 0 0 0 
0 0 0 0 0 0 0 0 0 
0 0 0 0 0 0 0 0 0 
0 0 0 0 0 0 0 0 0 
0 0 0 0 0 0 0 0 0 
0 0 0 0 0 0 0 0 0 
0 0 0 0 0 0 0 0 0 
0 0 0 0 0 0 0 0 0 
0 0 0 0 0 0 0 0 0 
0 0 0 0 0 0 0 0 0 
0 0 0 0 0 0 0 0 0 
13.5 10 0 13.5 10 0 13.5 10 0 
13.5 10 0 13.5 10 0 0 0 0 
0 0 0 0 0 0 0 0 0 
0 0 0 0 0 0 0 0 0 
0 0 0 0 0 0 0 0 0 
0 0 0 0 0 0 0 0 0 
0 0 0 0 0 0 0 0 0 
0 0 0 0 0 0 0 0 0 
0 0 0 9 14.5 0 9 14.5 0 
0 0 0 0 0 0 0 0 0 
0 0 0 0 0 0 13.5 10 0 
0 0 0 0 0 0 0 0 0 
0 0 0 0 0 0 0 0 0 
0 0 0 0 0 0 0 0 0 
0 0 0 0 0 0 0 0 0 
0 0 0 0 0 0 0 0 0 
0 0 0 0 0 0 0 0 0 
0 0 0 0 0 0 9 14.5 0 
9 14.5 0 0 0 0 0 0 0 
0 0 0 0 0 0 0 0 0 
13.5 10 0 13.5 10 0 13.5 10 0 
0 0 0 0 0 0 0 0 0 
0 0 0 0 0 0 0 0 0 
0 0 0 0 0 0 0 0 0 
0 0 0 0 0 0 0 0 0 
0 0 0 0 0 0 0 0 0 
0 0 0 0 0 0 0 0 0 
0 0 0 0 0 0 9 14.5 0 
9 14.5 0 9 14.5 0 9 14.5 0 
13.5 10 0 0 0 0 13.5 10 0 
0 0 0 0 0 0 0 0 0 
0 0 0 0 0 0 0 0 0 
0 0 0 0 0 0 0 0 0 
0 0 0 0 0 0 0 0 0 
0 0 0 0 0 0 0 0 0 
0 0 0 0 0 0 0 0 0 
0 0 0 0 0 0 0 0 0 
0 0 0 0 0 0 0 0 0 
0 0 0 0 0 0 0 0 0 
0 0 0 0 0 0 0 0 0 
0 0 0 0 0 0 0 0 0 
0 0 0 0 0 0 0 0 0 
0 0 0 0 0 0 0 0 0 
0 0 0 0 0 0 0 0 0 
0 0 0 0 0 0 0 0 0 
0 0 0 0 0 0 0 0 0 
0 0 0 0 0 0 0 0 0 
0 0 0 0 0 0 0 0 0 
0 0 0 0 0 0 0 0 0 
0 0 0 0 0 0 0 0 0 
0 0 0 0 0 0 0 0 0 
0 0 0 0 0 0 0 0 0 
0 0 0 0 0 0 0 0 0 
0 0 0 0 0 0 0 0 0 
0 0 0 0 0 0 0 0 0 
0 0 0 0 0 0 0 0 0 
0 0 0 0 0 0 0 0 0 
0 0 0 0 0 0 0 0 0 
0 0 0 0 0 0 0 0 0 
0 0 0 0 0 0 0 0 0 
0 0 0 0 0 0 0 0 0 
0 0 0 0 0 0 0 0 0 
0 0 0 0 0 0 0 0 0 
0 0 0 0 0 0 0 0 0 
0 0 0 0 0 0 0 0 0 
0 0 0 0 0 0 0 0 0 
0 0 0 0 0 0 0 0 0 
0 0 0 0 0 0 0 0 0 
0 0 0 0 0 0 0 0 0 
0 0 0 0 0 0 0 0 0 
0 0 0 0 0 0 0 0 0 
0 0 0 0 0 0 0 0 0 
0 0 0 0 0 0 0 0 0 
0 0 0 0 0 0 0 0 0 
0 0 0 0 0 0 0 0 0 
0 0 0 0 0 0 0 0 0 
0 0 0 0 0 0 0 0 0 
0 0 0 0 0 0 0 0 0 
0 0 0 0 0 0 0 0 0 
0 0 0 0 0 0 0 0 0 
0 0 0 0 0 0 0 0 0 
0 0 0 0 0 0 0 0 0 
0 0 0 0 0 0 0 0 0 
0 0 0 0 0 0 0 0 0 
0 0 0 0 0 0 0 0 0 
0 0 0 0 0 0 0 0 0 
0 0 0 0 0 0 0 0 0 
0 0 0 0 0 0 0 0 0 
0 0 0 0 0 0 0 0 0 
0 0 0 0 0 0 0 0 0 
0 0 0 0 0 0 
v0 1 1049 double
3.7348 3.4418 3.5598 3.908 2.2246 3.5868 2.7598 3.1534 3.7604 
2.9072 2.2234 2.087 3.8026 2.7868 3.447 3.3932 3.5098 3.7132 
3.4192 2.8894 3.1552 0 0 0 0 0 0 
0 0 0 0 0 0 0 0 0 
0 0 3.3376 0 0 0 0 2.798 0 
0 0 0 0 0 0 0 0 0 
0 0 0 0 0 0 0 0 0 
0 0 0 0 0 0 0 0 0 
0 0 0 0 0 0 0 0 0 
0 0 0 0 0 0 0 0 0 
0 0 0 0 0 0 0 0 0 
0 0 0 0 0 0 0 0 0 
0 0 0 0 0 0 0 0 0 
0 0 0 0 0 0 0 0 0 
0 0 0 0 0 0 0 0 0 
0 0 0 0 0 0 0 0 0 
0 0 0 0 0 0 0 0 0 
0 0 0 0 0 0 0 0 0 
0 0 0 0 0 0 0 0 0 
0 0 0 0 0 0 2.9348 0 0 
3.9438 0 3.5394 0 0 0 0 0 0 
0 0 0 0 0 0 0 0 0 
0 0 0 0 0 0 2.5562 3.5338 2.959 
0 0 0 0 0 0 0 0 0 
0 0 0 0 0 0 0 0 0 
0 0 0 0 0 0 0 0 0 
0 0 0 3.3968 3.7722 0 0 0 0 
0 0 0 0 0 0 0 0 0 
0 0 0 0 0 0 0 2.7364 0 
0 0 0 0 0 0 0 0 0 
3.7956 0 0 0 0 0 0 0 0 
0 0 0 0 0 0 0 0 0 
0 0 0 2.105 2.2178 0 0 0 0 
0 0 0 0 0 0 3.4142 2.9892 2.5998 
3.7004 3.7386 0 0 0 0 0 0 0 
0 0 0 0 0 0 0 0 0 
0 0 0 0 3.1134 3.2294 2.6972 3.6894 0 
0 0 0 0 0 0 0 0 0 
3.6802 3.6034 3.9802 0 0 0 0 0 0 
0 0 0 0 0 0 0 0 0 
0 0 0 0 0 2.5702 2.8228 0 0 
0 0 0 0 0 0 0 0 2.726 
0 0 0 0 0 0 0 0 0 
0 0 0 0 0 0 2.0424 3.358 0 
0 0 0 0 2.227 3.9752 2.3004 2.6856 0 
0 0 0 0 0 0 0 0 0 
3.4388 2.0272 3.7164 2.0254 2.9862 0 0 0 0 
0 0 0 0 0 0 2.5992 2.6138 2.6016 
0 0 0 0 0 2.264 0 2.9518 3.0734 
0 0 0 0 2.5952 0 0 0 0 
0 0 0 0 0 0 3.2554 3.938 3.4416 
3.5126 3.3812 0 0 0 0 0 0 0 
0 0 0 0 0 2.2866 3.236 2.9892 0 
0 0 0 0 0 0 0 0 0 
2.9256 0 0 3.4754 0 0 0 0 0 
3.18 0 0 0 0 0 0 0 0 
0 0 0 0 0 0 0 2.1056 0 
0 0 2.79 0 0 0 0 0 0 
0 0 0 0 0 2.0302 0 0 0 
0 0 0 0 0 0 0 0 0 
0 0 0 0 2.4594 0 0 3.5612 0 
3.8554 0 0 0 0 0 2.192 0 0 
0 0 0 0 2.5666 0 3.2458 2.325 0 
0 0 0 0 0 0 0 0 0 
2.5352 3.3948 2.8832 2.7916 2.5898 3.4072 3.8484 3.219 2.8338 
3.4702 3.991 0 0 0 0 0 0 0 
0 0 0 0 0 0 0 0 0 
0 0 0 0 0 0 0 0 0 
0 0 0 0 0 0 0 0 0 
0 0 0 0 0 0 0 0 0 
0 0 0 0 0 0 0 0 0 
0 0 0 0 0 0 0 0 0 
0 0 0 0 0 0 0 0 0 
0 0 0 0 0 0 0 0 0 
0 0 0 0 0 0 0 0 0 
0 0 0 0 0 0 0 0 0 
0 0 0 0 0 0 0 0 0 
0 0 0 0 0 0 0 0 0 
0 0 0 0 0 0 0 0 0 
0 0 0 0 0 0 0 0 0 
0 0 0 0 0 0 0 0 0 
0 0 0 0 0 0 0 0 0 
0 3.2878 0 0 0 0 0 0 0 
0 0 0 0 0 0 0 0 0 
0 0 0 0 0 0 0 0 0 
0 0 0 0 0 0 0 0 0 
0 0 0 3.053 3.1832 3.3678 2.9022 2.0104 0 
0 0 0 0 0 0 0 0 0 
0 0 0 0 0 0 0 0 0 
0 2.1126 2.0074 0 0 0 0 0 3.8268 
0 0 0 0 0 0 0 0 0 
0 0 0 0 0 0 0 0 0 
0 0 2.1262 2.2322 0 0 0 0 0 
2.1178 2.4322 3.514 0 0 0 0 0 0 
0 0 0 0 0 0 0 0 0 
0 0 0 0 0 3.075 2.5972 2.7532 3.2768 
3.852 0 2.6632 0 0 0 0 0 0 
0 0 0 0 0 0 0 0 0 
0 0 0 0 0 0 0 0 0 
0 0 0 0 0 0 0 0 0 
0 0 0 0 0 0 0 0 0 
0 0 0 0 0 0 0 0 0 
0 0 0 0 0 0 0 0 0 
0 0 0 0 0 0 0 0 0 
0 0 0 0 0 0 0 0 0 
0 0 0 0 0 0 0 0 0 
0 0 0 0 0 0 0 0 0 
0 0 0 0 0 0 0 0 0 
0 0 0 0 0 0 0 0 0 
0 0 0 0 0 0 0 0 0 
0 0 0 0 0 0 0 0 0 
0 0 0 0 0 0 0 0 0 
0 0 0 0 0 0 0 0 0 
0 0 0 0 0 0 0 0 0 
0 0 0 0 0 0 0 0 0 
0 0 0 0 0 0 0 0 0 
0 0 0 0 0 
tau 1 1049 double
2 2 2 2 2 2 2 2 2 
2 2 2 2 2 2 2 2 2 
2 2 2 2 2 2 2 2 2 
2 2 2 2 2 2 2 2 2 
2 2 2 2 2 2 2 2 2 
2 2 2 2 2 2 2 2 2 
2 2 2 2 2 2 2 2 2 
2 2 2 2 2 2 2 2 2 
2 2 2 2 2 2 2 2 2 
2 2 2 2 2 2 2 2 2 
2 2 2 2 2 2 2 2 2 
2 2 2 2 2 2 2 2 2 
2 2 2 2 2 2 2 2 2 
2 2 2 2 2 2 2 2 2 
2 2 2 2 2 2 2 2 2 
2 2 2 2 2 2 2 2 2 
2 2 2 2 2 2 2 2 2 
2 2 2 2 2 2 2 2 2 
2 2 2 2 2 2 2 2 2 
2 2 2 2 2 2 2 2 2 
2 2 2 2 2 2 2 2 2 
2 2 2 2 2 2 2 2 2 
2 2 2 2 2 2 2 2 2 
2 2 2 2 2 2 2 2 2 
2 2 2 2 2 2 2 2 2 
2 2 2 2 2 2 2 2 2 
2 2 2 2 2 2 2 2 2 
2 2 2 2 2 2 2 2 2 
2 2 2 2 2 2 2 2 2 
2 2 2 2 2 2 2 2 2 
2 2 2 2 2 2 2 2 2 
2 2 2 2 2 2 2 2 2 
2 2 2 2 2 2 2 2 2 
2 2 2 2 2 2 2 2 2 
2 2 2 2 2 2 2 2 2 
2 2 2 2 2 2 2 2 2 
2 2 2 2 2 2 2 2 2 
2 2 2 2 2 2 2 2 2 
2 2 2 2 2 2 2 2 2 
2 2 2 2 2 2 2 2 2 
2 2 2 2 2 2 2 2 2 
2 2 2 2 2 2 2 2 2 
2 2 2 2 2 2 2 2 2 
2 2 2 2 2 2 2 2 2 
2 2 2 2 2 2 2 2 2 
2 2 2 2 2 2 2 2 2 
2 2 2 2 2 2 2 2 2 
2 2 2 2 2 2 2 2 2 
2 2 2 2 2 2 2 2 2 
2 2 2 2 2 2 2 2 2 
2 2 2 2 2 2 2 2 2 
2 2 2 2 2 2 2 2 2 
2 2 2 2 2 2 2 2 2 
2 2 2 2 2 2 2 2 2 
2 2 2 2 2 2 2 2 2 
2 2 2 2 2 2 2 2 2 
2 2 2 2 2 2 2 2 2 
2 2 2 2 2 2 2 2 2 
2 2 2 2 2 2 2 2 2 
2 2 2 2 2 2 2 2 2 
2 2 2 2 2 2 2 2 2 
2 2 2 2 2 2 2 2 2 
2 2 2 2 2 2 2 2 2 
2 2 2 2 2 2 2 2 2 
2 2 2 2 2 2 2 2 2 
2 2 2 2 2 2 2 2 2 
2 2 2 2 2 2 2 2 2 
2 2 2 2 2 2 2 2 2 
2 2 2 2 2 2 2 2 2 
2 2 2 2 2 2 2 2 2 
2 2 2 2 2 2 2 2 2 
2 2 2 2 2 2 2 2 2 
2 2 2 2 2 2 2 2 2 
2 2 2 2 2 2 2 2 2 
2 2 2 2 2 2 2 2 2 
2 2 2 2 2 2 2 2 2 
2 2 2 2 2 2 2 2 2 
2 2 2 2 2 2 2 2 2 
2 2 2 2 2 2 2 2 2 
2 2 2 2 2 2 2 2 2 
2 2 2 2 2 2 2 2 2 
2 2 2 2 2 2 2 2 2 
2 2 2 2 2 2 2 2 2 
2 2 2 2 2 2 2 2 2 
2 2 2 2 2 2 2 2 2 
2 2 2 2 2 2 2 2 2 
2 2 2 2 2 2 2 2 2 
2 2 2 2 2 2 2 2 2 
2 2 2 2 2 2 2 2 2 
2 2 2 2 2 2 2 2 2 
2 2 2 2 2 2 2 2 2 
2 2 2 2 2 2 2 2 2 
2 2 2 2 2 2 2 2 2 
2 2 2 2 2 2 2 2 2 
2 2 2 2 2 2 2 2 2 
2 2 2 2 2 2 2 2 2 
2 2 2 2 2 2 2 2 2 
2 2 2 2 2 2 2 2 2 
2 2 2 2 2 2 2 2 2 
2 2 2 2 2 2 2 2 2 
2 2 2 2 2 2 2 2 2 
2 2 2 2 2 2 2 2 2 
2 2 2 2 2 2 2 2 2 
2 2 2 2 2 2 2 2 2 
2 2 2 2 2 2 2 2 2 
2 2 2 2 2 2 2 2 2 
2 2 2 2 2 2 2 2 2 
2 2 2 2 2 2 2 2 2 
2 2 2 2 2 2 2 2 2 
2 2 2 2 2 2 2 2 2 
2 2 2 2 2 2 2 2 2 
2 2 2 2 2 2 2 2 2 
2 2 2 2 2 2 2 2 2 
2 2 2 2 2 2 2 2 2 
2 2 2 2 2 2 2 2 2 
2 2 2 2 2 2 2 2 2 
2 2 2 2 2 
R 1 1049 double
0.30266 0.26351 0.33263 0.28195 0.30154 0.27325 0.33828 0.31931 0.27528 
0.28149 0.31776 0.25657 0.31987 0.33184 0.34851 0.33777 0.33859 0.34097 
0.26298 0.25774 0.34517 0.1 0.1 0.1 0.1 0.1 0.1 
0.1 0.1 0.1 0.1 0.1 0.1 0.1 0.1 0.1 
0.1 0.1 0.33421 0.1 0.1 0.1 0.1 0.2897 0.1 
0.1 0.1 0.1 0.1 0.1 0.1 0.1 0.1 0.1 
0.1 0.1 0.1 0.1 0.1 0.1 0.1 0.1 0.1 
0.1 0.1 0.1 0.1 0.1 0.1 0.1 0.1 0.1 
0.1 0.1 0.1 0.1 0.1 0.1 0.1 0.1 0.1 
0.1 0.1 0.1 0.1 0.1 0.1 0.1 0.1 0.1 
0.1 0.1 0.1 0.1 0.1 0.1 0.1 0.1 0.1 
0.1 0.1 0.1 0.1 0.1 0.1 0.1 0.1 0.1 
0.1 0.1 0.1 0.1 0.1 0.1 0.1 0.1 0.1 
0.1 0.1 0.1 0.1 0.1 0.1 0.1 0.1 0.1 
0.1 0.1 0.1 0.1 0.1 0.1 0.1 0.1 0.1 
0.1 0.1 0.1 0.1 0.1 0.1 0.1 0.1 0.1 
0.1 0.1 0.1 0.1 0.1 0.1 0.1 0.1 0.1 
0.1 0.1 0.1 0.1 0.1 0.1 0.1 0.1 0.1 
0.1 0.1 0.1 0.1 0.1 0.1 0.1 0.1 0.1 
0.1 0.1 0.1 0.1 0.1 0.1 0.32722 0.1 0.1 
0.27641 0.1 0.33398 0.1 0.1 0.1 0.1 0.1 0.1 
0.1 0.1 0.1 0.1 0.1 0.1 0.1 0.1 0.1 
0.1 0.1 0.1 0.1 0.1 0.1 0.32955 0.34126 0.33283 
0.1 0.1 0.1 0.1 0.1 0.1 0.1 0.1 0.1 
0.1 0.1 0.1 0.1 0.1 0.1 0.1 0.1 0.1 
0.1 0.1 0.1 0.1 0.1 0.1 0.1 0.1 0.1 
0.1 0.1 0.1 0.30352 0.33159 0.1 0.1 0.1 0.1 
0.1 0.1 0.1 0.1 0.1 0.1 0.1 0.1 0.1 
0.1 0.1 0.1 0.1 0.1 0.1 0.1 0.28662 0.1 
0.1 0.1 0.1 0.1 0.1 0.1 0.1 0.1 0.1 
0.26783 0.1 0.1 0.1 0.1 0.1 0.1 0.1 0.1 
0.1 0.1 0.1 0.1 0.1 0.1 0.1 0.1 0.1 
0.1 0.1 0.1 0.27197 0.2931 0.1 0.1 0.1 0.1 
0.1 0.1 0.1 0.1 0.1 0.1 0.28083 0.2979 0.25639 
0.25399 0.33566 0.1 0.1 0.1 0.1 0.1 0.1 0.1 
0.1 0.1 0.1 0.1 0.1 0.1 0.1 0.1 0.1 
0.1 0.1 0.1 0.1 0.2889 0.31582 0.30199 0.27491 0.1 
0.1 0.1 0.1 0.1 0.1 0.1 0.1 0.1 0.1 
0.26354 0.31815 0.25853 0.1 0.1 0.1 0.1 0.1 0.1 
0.1 0.1 0.1 0.1 0.1 0.1 0.1 0.1 0.1 
0.1 0.1 0.1 0.1 0.1 0.32278 0.26761 0.1 0.1 
0.1 0.1 0.1 0.1 0.1 0.1 0.1 0.1 0.34593 
0.1 0.1 0.1 0.1 0.1 0.1 0.1 0.1 0.1 
0.1 0.1 0.1 0.1 0.1 0.1 0.34368 0.34015 0.1 
0.1 0.1 0.1 0.1 0.31127 0.30856 0.25037 0.27972 0.1 
0.1 0.1 0.1 0.1 0.1 0.1 0.1 0.1 0.1 
0.32665 0.25099 0.26852 0.2591 0.33382 0.1 0.1 0.1 0.1 
0.1 0.1 0.1 0.1 0.1 0.1 0.29985 0.33762 0.29552 
0.1 0.1 0.1 0.1 0.1 0.34334 0.1 0.30511 0.27735 
0.1 0.1 0.1 0.1 0.28827 0.1 0.1 0.1 0.1 
0.1 0.1 0.1 0.1 0.1 0.1 0.31087 0.34672 0.25308 
0.3159 0.25528 0.1 0.1 0.1 0.1 0.1 0.1 0.1 
0.1 0.1 0.1 0.1 0.1 0.30482 0.29693 0.32017 0.1 
0.1 0.1 0.1 0.1 0.1 0.1 0.1 0.1 0.1 
0.28537 0.1 0.1 0.33657 0.1 0.1 0.1 0.1 0.1 
0.32334 0.1 0.1 0.1 0.1 0.1 0.1 0.1 0.1 
0.1 0.1 0.1 0.1 0.1 0.1 0.1 0.25871 0.1 
0.1 0.1 0.28428 0.1 0.1 0.1 0.1 0.1 0.1 
0.1 0.1 0.1 0.1 0.1 0.31506 0.1 0.1 0.1 
0.1 0.1 0.1 0.1 0.1 0.1 0.1 0.1 0.1 
0.1 0.1 0.1 0.1 0.27439 0.1 0.1 0.2957 0.1 
0.31217 0.1 0.1 0.1 0.1 0.1 0.31364 0.1 0.1 
0.1 0.1 0.1 0.1 0.31651 0.1 0.28172 0.2685 0.1 
0.1 0.1 0.1 0.1 0.1 0.1 0.1 0.1 0.1 
0.3 0.27957 0.26541 0.29225 0.26173 0.28069 0.27555 0.30805 0.25997 
0.30421 0.25928 0.1 0.1 0.1 0.1 0.1 0.1 0.1 
0.1 0.1 0.1 0.1 0.1 0.1 0.1 0.1 0.1 
0.1 0.1 0.1 0.1 0.1 0.1 0.1 0.1 0.1 
0.1 0.1 0.1 0.1 0.1 0.1 0.1 0.1 0.1 
0.1 0.1 0.1 0.1 0.1 0.1 0.1 0.1 0.1 
0.1 0.1 0.1 0.1 0.1 0.1 0.1 0.1 0.1 
0.1 0.1 0.1 0.1 0.1 0.1 0.1 0.1 0.1 
0.1 0.1 0.1 0.1 0.1 0.1 0.1 0.1 0.1 
0.1 0.1 0.1 0.1 0.1 0.1 0.1 0.1 0.1 
0.1 0.1 0.1 0.1 0.1 0.1 0.1 0.1 0.1 
0.1 0.1 0.1 0.1 0.1 0.1 0.1 0.1 0.1 
0.1 0.1 0.1 0.1 0.1 0.1 0.1 0.1 0.1 
0.1 0.1 0.1 0.1 0.1 0.1 0.1 0.1 0.1 
0.1 0.1 0.1 0.1 0.1 0.1 0.1 0.1 0.1 
0.1 0.1 0.1 0.1 0.1 0.1 0.1 0.1 0.1 
0.1 0.1 0.1 0.1 0.1 0.1 0.1 0.1 0.1 
0.1 0.1 0.1 0.1 0.1 0.1 0.1 0.1 0.1 
0.1 0.25888 0.1 0.1 0.1 0.1 0.1 0.1 0.1 
0.1 0.1 0.1 0.1 0.1 0.1 0.1 0.1 0.1 
0.1 0.1 0.1 0.1 0.1 0.1 0.1 0.1 0.1 
0.1 0.1 0.1 0.1 0.1 0.1 0.1 0.1 0.1 
0.1 0.1 0.1 0.2735 0.31621 0.27393 0.25008 0.32716 0.1 
0.1 0.1 0.1 0.1 0.1 0.1 0.1 0.1 0.1 
0.1 0.1 0.1 0.1 0.1 0.1 0.1 0.1 0.1 
0.1 0.33412 0.25952 0.1 0.1 0.1 0.1 0.1 0.27071 
0.1 0.1 0.1 0.1 0.1 0.1 0.1 0.1 0.1 
0.1 0.1 0.1 0.1 0.1 0.1 0.1 0.1 0.1 
0.1 0.1 0.33954 0.31445 0.1 0.1 0.1 0.1 0.1 
0.3228 0.26269 0.33577 0.1 0.1 0.1 0.1 0.1 0.1 
0.1 0.1 0.1 0.1 0.1 0.1 0.1 0.1 0.1 
0.1 0.1 0.1 0.1 0.1 0.28437 0.33976 0.33341 0.32361 
0.3161 0.1 0.26888 0.1 0.1 0.1 0.1 0.1 0.1 
0.1 0.1 0.1 0.1 0.1 0.1 0.1 0.1 0.1 
0.1 0.1 0.1 0.1 0.1 0.1 0.1 0.1 0.1 
0.1 0.1 0.1 0.1 0.1 0.1 0.1 0.1 0.1 
0.1 0.1 0.1 0.1 0.1 0.1 0.1 0.1 0.1 
0.1 0.1 0.1 0.1 0.1 0.1 0.1 0.1 0.1 
0.1 0.1 0.1 0.1 0.1 0.1 0.1 0.1 0.1 
0.1 0.1 0.1 0.1 0.1 0.1 0.1 0.1 0.1 
0.1 0.1 0.1 0.1 0.1 0.1 0.1 0.1 0.1 
0.1 0.1 0.1 0.1 0.1 0.1 0.1 0.1 0.1 
0.1 0.1 0.1 0.1 0.1 0.1 0.1 0.1 0.1 
0.1 0.1 0.1 0.1 0.1 0.1 0.1 0.1 0.1 
0.1 0.1 0.1 0.1 0.1 0.1 0.1 0.1 0.1 
0.1 0.1 0.1 0.1 0.1 0.1 0.1 0.1 0.1 
0.1 0.1 0.1 0.1 0.1 0.1 0.1 0.1 0.1 
0.1 0.1 0.1 0.1 0.1 0.1 0.1 0.1 0.1 
0.1 0.1 0.1 0.1 0.1 0.1 0.1 0.1 0.1 
0.1 0.1 0.1 0.1 0.1 0.1 0.1 0.1 0.1 
0.1 0.1 0.1 0.1 0.1 0.1 0.1 0.1 0.1 
0.1 0.1 0.1 0.1 0.1 0.1 0.1 0.1 0.1 
0.1 0.1 0.1 0.1 0.1 
a 3 1049 double
0 0 0 0 0 0 0 0 0 
0 0 0 0 0 0 0 0 0 
0 0 0 0 0 0 0 0 0 
0 0 0 0 0 0 0 0 0 
0 0 0 0 0 0 0 0 0 
0 0 0 0 0 0 0 0 0 
0 0 0 0 0 0 0 0 0 
0 0 0 0 0 0 0 0 0 
0 0 0 0 0 0 0 0 0 
0 0 0 0 0 0 0 0 0 
0 0 0 0 0 0 0 0 0 
0 0 0 0 0 0 0 0 0 
0 0 0 0 0 0 0 0 0 
0 0 0 0 0 0 0 0 0 
0 0 0 0 0 0 0 0 0 
0 0 0 0 0 0 0 0 0 
0 0 0 0 0 0 0 0 0 
0 0 0 0 0 0 0 0 0 
0 0 0 0 0 0 0 0 0 
0 0 0 0 0 0 0 0 0 
0 0 0 0 0 0 0 0 0 
0 0 0 0 0 0 0 0 0 
0 0 0 0 0 0 0 0 0 
0 0 0 0 0 0 0 0 0 
0 0 0 0 0 0 0 0 0 
0 0 0 0 0 0 0 0 0 
0 0 0 0 0 0 0 0 0 
0 0 0 0 0 0 0 0 0 
0 0 0 0 0 0 0 0 0 
0 0 0 0 0 0 0 0 0 
0 0 0 0 0 0 0 0 0 
0 0 0 0 0 0 0 0 0 
0 0 0 0 0 0 0 0 0 
0 0 0 0 0 0 0 0 0 
0 0 0 0 0 0 0 0 0 
0 0 0 0 0 0 0 0 0 
0 0 0 0 0 0 0 0 0 
0 0 0 0 0 0 0 0 0 
0 0 0 0 0 0 0 0 0 
0 0 0 0 0 0 0 0 0 
0 0 0 0 0 0 0 0 0 
0 0 0 0 0 0 0 0 0 
0 0 0 0 0 0 0 0 0 
0 0 0 0 0 0 0 0 0 
0 0 0 0 0 0 0 0 0 
0 0 0 0 0 0 0 0 0 
0 0 0 0 0 0 0 0 0 
0 0 0 0 0 0 0 0 0 
0 0 0 0 0 0 0 0 0 
0 0 0 0 0 0 0 0 0 
0 0 0 0 0 0 0 0 0 
0 0 0 0 0 0 0 0 0 
0 0 0 0 0 0 0 0 0 
0 0 0 0 0 0 0 0 0 
0 0 0 0 0 0 0 0 0 
0 0 0 0 0 0 0 0 0 
0 0 0 0 0 0 0 0 0 
0 0 0 0 0 0 0 0 0 
0 0 0 0 0 0 0 0 0 
0 0 0 0 0 0 0 0 0 
0 0 0 0 0 0 0 0 0 
0 0 0 0 0 0 0 0 0 
0 0 0 0 0 0 0 0 0 
0 0 0 0 0 0 0 0 0 
0 0 0 0 0 0 0 0 0 
0 0 0 0 0 0 0 0 0 
0 0 0 0 0 0 0 0 0 
0 0 0 0 0 0 0 0 0 
0 0 0 0 0 0 0 0 0 
0 0 0 0 0 0 0 0 0 
0 0 0 0 0 0 0 0 0 
0 0 0 0 0 0 0 0 0 
0 0 0 0 0 0 0 0 0 
0 0 0 0 0 0 0 0 0 
0 0 0 0 0 0 0 0 0 
0 0 0 0 0 0 0 0 0 
0 0 0 0 0 0 0 0 0 
0 0 0 0 0 0 0 0 0 
0 0 0 0 0 0 0 0 0 
0 0 0 0 0 0 0 0 0 
0 0 0 0 0 0 0 0 0 
0 0 0 0 0 0 0 0 0 
0 0 0 0 0 0 0 0 0 
0 0 0 0 0 0 0 0 0 
0 0 0 0 0 0 0 0 0 
0 0 0 0 0 0 0 0 0 
0 0 0 0 0 0 0 0 0 
0 0 0 0 0 0 0 0 0 
0 0 0 0 0 0 0 0 0 
0 0 0 0 0 0 0 0 0 
0 0 0 0 0 0 0 0 0 
0 0 0 0 0 0 0 0 0 
0 0 0 0 0 0 0 0 0 
0 0 0 0 0 0 0 0 0 
0 0 0 0 0 0 0 0 0 
0 0 0 0 0 0 0 0 0 
0 0 0 0 0 0 0 0 0 
0 0 0 0 0 0 0 0 0 
0 0 0 0 0 0 0 0 0 
0 0 0 0 0 0 0 0 0 
0 0 0 0 0 0 0 0 0 
0 0 0 0 0 0 0 0 0 
0 0 0 0 0 0 0 0 0 
0 0 0 0 0 0 0 0 0 
0 0 0 0 0 0 0 0 0 
0 0 0 0 0 0 0 0 0 
0 0 0 0 0 0 0 0 0 
0 0 0 0 0 0 0 0 0 
0 0 0 0 0 0 0 0 0 
0 0 0 0 0 0 0 0 0 
0 0 0 0 0 0 0 0 0 
0 0 0 0 0 0 0 0 0 
0 0 0 0 0 0 0 0 0 
0 0 0 0 0 0 0 0 0 
0 0 0 0 0 0 0 0 0 
0 0 0 0 0 0 0 0 0 
0 0 0 0 0 0 0 0 0 
0 0 0 0 0 0 0 0 0 
0 0 0 0 0 0 0 0 0 
0 0 0 0 0 0 0 0 0 
0 0 0 0 0 0 0 0 0 
0 0 0 0 0 0 0 0 0 
0 0 0 0 0 0 0 0 0 
0 0 0 0 0 0 0 0 0 
0 0 0 0 0 0 0 0 0 
0 0 0 0 0 0 0 0 0 
0 0 0 0 0 0 0 0 0 
0 0 0 0 0 0 0 0 0 
0 0 0 0 0 0 0 0 0 
0 0 0 0 0 0 0 0 0 
0 0 0 0 0 0 0 0 0 
0 0 0 0 0 0 0 0 0 
0 0 0 0 0 0 0 0 0 
0 0 0 0 0 0 0 0 0 
0 0 0 0 0 0 0 0 0 
0 0 0 0 0 0 0 0 0 
0 0 0 0 0 0 0 0 0 
0 0 0 0 0 0 0 0 0 
0 0 0 0 0 0 0 0 0 
0 0 0 0 0 0 0 0 0 
0 0 0 0 0 0 0 0 0 
0 0 0 0 0 0 0 0 0 
0 0 0 0 0 0 0 0 0 
0 0 0 0 0 0 0 0 0 
0 0 0 0 0 0 0 0 0 
0 0 0 0 0 0 0 0 0 
0 0 0 0 0 0 0 0 0 
0 0 0 0 0 0 0 0 0 
0 0 0 0 0 0 0 0 0 
0 0 0 0 0 0 0 0 0 
0 0 0 0 0 0 0 0 0 
0 0 0 0 0 0 0 0 0 
0 0 0 0 0 0 0 0 0 
0 0 0 0 0 0 0 0 0 
0 0 0 0 0 0 0 0 0 
0 0 0 0 0 0 0 0 0 
0 0 0 0 0 0 0 0 0 
0 0 0 0 0 0 0 0 0 
0 0 0 0 0 0 0 0 0 
0 0 0 0 0 0 0 0 0 
0 0 0 0 0 0 0 0 0 
0 0 0 0 0 0 0 0 0 
0 0 0 0 0 0 0 0 0 
0 0 0 0 0 0 0 0 0 
0 0 0 0 0 0 0 0 0 
0 0 0 0 0 0 0 0 0 
0 0 0 0 0 0 0 0 0 
0 0 0 0 0 0 0 0 0 
0 0 0 0 0 0 0 0 0 
0 0 0 0 0 0 0 0 0 
0 0 0 0 0 0 0 0 0 
0 0 0 0 0 0 0 0 0 
0 0 0 0 0 0 0 0 0 
0 0 0 0 0 0 0 0 0 
0 0 0 0 0 0 0 0 0 
0 0 0 0 0 0 0 0 0 
0 0 0 0 0 0 0 0 0 
0 0 0 0 0 0 0 0 0 
0 0 0 0 0 0 0 0 0 
0 0 0 0 0 0 0 0 0 
0 0 0 0 0 0 0 0 0 
0 0 0 0 0 0 0 0 0 
0 0 0 0 0 0 0 0 0 
0 0 0 0 0 0 0 0 0 
0 0 0 0 0 0 0 0 0 
0 0 0 0 0 0 0 0 0 
0 0 0 0 0 0 0 0 0 
0 0 0 0 0 0 0 0 0 
0 0 0 0 0 0 0 0 0 
0 0 0 0 0 0 0 0 0 
0 0 0 0 0 0 0 0 0 
0 0 0 0 0 0 0 0 0 
0 0 0 0 0 0 0 0 0 
0 0 0 0 0 0 0 0 0 
0 0 0 0 0 0 0 0 0 
0 0 0 0 0 0 0 0 0 
0 0 0 0 0 0 0 0 0 
0 0 0 0 0 0 0 0 0 
0 0 0 0 0 0 0 0 0 
0 0 0 0 0 0 0 0 0 
0 0 0 0 0 0 0 0 0 
0 0 0 0 0 0 0 0 0 
0 0 0 0 0 0 0 0 0 
0 0 0 0 0 0 0 0 0 
0 0 0 0 0 0 0 0 0 
0 0 0 0 0 0 0 0 0 
0 0 0 0 0 0 0 0 0 
0 0 0 0 0 0 0 0 0 
0 0 0 0 0 0 0 0 0 
0 0 0 0 0 0 0 0 0 
0 0 0 0 0 0 0 0 0 
0 0 0 0 0 0 0 0 0 
0 0 0 0 0 0 0 0 0 
0 0 0 0 0 0 0 0 0 
0 0 0 0 0 0 0 0 0 
0 0 0 0 0 0 0 0 0 
0 0 0 0 0 0 0 0 0 
0 0 0 0 0 0 0 0 0 
0 0 0 0 0 0 0 0 0 
0 0 0 0 0 0 0 0 0 
0 0 0 0 0 0 0 0 0 
0 0 0 0 0 0 0 0 0 
0 0 0 0 0 0 0 0 0 
0 0 0 0 0 0 0 0 0 
0 0 0 0 0 0 0 0 0 
0 0 0 0 0 0 0 0 0 
0 0 0 0 0 0 0 0 0 
0 0 0 0 0 0 0 0 0 
0 0 0 0 0 0 0 0 0 
0 0 0 0 0 0 0 0 0 
0 0 0 0 0 0 0 0 0 
0 0 0 0 0 0 0 0 0 
0 0 0 0 0 0 0 0 0 
0 0 0 0 0 0 0 0 0 
0 0 0 0 0 0 0 0 0 
0 0 0 0 0 0 0 0 0 
0 0 0 0 0 0 0 0 0 
0 0 0 0 0 0 0 0 0 
0 0 0 0 0 0 0 0 0 
0 0 0 0 0 0 0 0 0 
0 0 0 0 0 0 0 0 0 
0 0 0 0 0 0 0 0 0 
0 0 0 0 0 0 0 0 0 
0 0 0 0 0 0 0 0 0 
0 0 0 0 0 0 0 0 0 
0 0 0 0 0 0 0 0 0 
0 0 0 0 0 0 0 0 0 
0 0 0 0 0 0 0 0 0 
0 0 0 0 0 0 0 0 0 
0 0 0 0 0 0 0 0 0 
0 0 0 0 0 0 0 0 0 
0 0 0 0 0 0 0 0 0 
0 0 0 0 0 0 0 0 0 
0 0 0 0 0 0 0 0 0 
0 0 0 0 0 0 0 0 0 
0 0 0 0 0 0 0 0 0 
0 0 0 0 0 0 0 0 0 
0 0 0 0 0 0 0 0 0 
0 0 0 0 0 0 0 0 0 
0 0 0 0 0 0 0 0 0 
0 0 0 0 0 0 0 0 0 
0 0 0 0 0 0 0 0 0 
0 0 0 0 0 0 0 0 0 
0 0 0 0 0 0 0 0 0 
0 0 0 0 0 0 0 0 0 
0 0 0 0 0 0 0 0 0 
0 0 0 0 0 0 0 0 0 
0 0 0 0 0 0 0 0 0 
0 0 0 0 0 0 0 0 0 
0 0 0 0 0 0 0 0 0 
0 0 0 0 0 0 0 0 0 
0 0 0 0 0 0 0 0 0 
0 0 0 0 0 0 0 0 0 
0 0 0 0 0 0 0 0 0 
0 0 0 0 0 0 0 0 0 
0 0 0 0 0 0 0 0 0 
0 0 0 0 0 0 0 0 0 
0 0 0 0 0 0 0 0 0 
0 0 0 0 0 0 0 0 0 
0 0 0 0 0 0 0 0 0 
0 0 0 0 0 0 0 0 0 
0 0 0 0 0 0 0 0 0 
0 0 0 0 0 0 0 0 0 
0 0 0 0 0 0 0 0 0 
0 0 0 0 0 0 0 0 0 
0 0 0 0 0 0 0 0 0 
0 0 0 0 0 0 0 0 0 
0 0 0 0 0 0 0 0 0 
0 0 0 0 0 0 0 0 0 
0 0 0 0 0 0 0 0 0 
0 0 0 0 0 0 0 0 0 
0 0 0 0 0 0 0 0 0 
0 0 0 0 0 0 0 0 0 
0 0 0 0 0 0 0 0 0 
0 0 0 0 0 0 0 0 0 
0 0 0 0 0 0 0 0 0 
0 0 0 0 0 0 0 0 0 
0 0 0 0 0 0 0 0 0 
0 0 0 0 0 0 0 0 0 
0 0 0 0 0 0 0 0 0 
0 0 0 0 0 0 0 0 0 
0 0 0 0 0 0 0 0 0 
0 0 0 0 0 0 0 0 0 
0 0 0 0 0 0 0 0 0 
0 0 0 0 0 0 0 0 0 
0 0 0 0 0 0 0 0 0 
0 0 0 0 0 0 0 0 0 
0 0 0 0 0 0 0 0 0 
0 0 0 0 0 0 0 0 0 
0 0 0 0 0 0 0 0 0 
0 0 0 0 0 0 0 0 0 
0 0 0 0 0 0 0 0 0 
0 0 0 0 0 0 0 0 0 
0 0 0 0 0 0 0 0 0 
0 0 0 0 0 0 0 0 0 
0 0 0 0 0 0 0 0 0 
0 0 0 0 0 0 0 0 0 
0 0 0 0 0 0 0 0 0 
0 0 0 0 0 0 0 0 0 
0 0 0 0 0 0 0 0 0 
0 0 0 0 0 0 0 0 0 
0 0 0 0 0 0 0 0 0 
0 0 0 0 0 0 0 0 0 
0 0 0 0 0 0 0 0 0 
0 0 0 0 0 0 0 0 0 
0 0 0 0 0 0 0 0 0 
0 0 0 0 0 0 0 0 0 
0 0 0 0 0 0 0 0 0 
0 0 0 0 0 0 0 0 0 
0 0 0 0 0 0 0 0 0 
0 0 0 0 0 0 0 0 0 
0 0 0 0 0 0 0 0 0 
0 0 0 0 0 0 0 0 0 
0 0 0 0 0 0 0 0 0 
0 0 0 0 0 0 0 0 0 
0 0 0 0 0 0 0 0 0 
0 0 0 0 0 0 0 0 0 
0 0 0 0 0 0 0 0 0 
0 0 0 0 0 0 0 0 0 
0 0 0 0 0 0 0 0 0 
0 0 0 0 0 0 0 0 0 
0 0 0 0 0 0 0 0 0 
0 0 0 0 0 0 0 0 0 
0 0 0 0 0 0 0 0 0 
0 0 0 0 0 0 0 0 0 
0 0 0 0 0 0 0 0 0 
0 0 0 0 0 0 0 0 0 
0 0 0 0 0 0 0 0 0 
0 0 0 0 0 0 0 0 0 
0 0 0 0 0 0 
v 3 1049 double
0.949707 -0.798272 0 0.951258 -0.74462 0 -0.919311 -0.750258 0 
0.979868 -0.783601 0 -0.583836 -0.640475 0 0.895981 -0.740235 0 
0.747372 -0.589033 0 -0.912587 -0.63682 0 -0.875992 -0.665114 0 
-0.755925 -0.621807 0 0.645153 -0.688009 0 0.564042 -0.424002 0 
-0.929645 -0.775055 0 -0.732503 -0.618593 0 -0.954916 -0.70533 0 
0.83142 -0.70093 0 0.900036 -0.581008 0 -0.916673 -0.753749 0 
-0.860672 -0.70362 0 0.773319 -0.933192 0 0.805366 -0.679419 0 
0 0 0 0 0 0 0 0 0 
0 0 0 0 0 0 0 0 0 
0 0 0 0 0 0 0 0 0 
0 0 0 0 0 0 0 0 0 
0 0 0 0 0 0 0 0 0 
0 0 0 0 0 0 0.605479 -1.06955 0 
0 0 0 0 0 0 0 0 0 
0 0 0 -0.204922 -0.645681 0 0 0 0 
0 0 0 0 0 0 0 0 0 
0 0 0 0 0 0 0 0 0 
0 0 0 0 0 0 0 0 0 
0 0 0 0 0 0 0 0 0 
0 0 0 0 0 0 0 0 0 
0 0 0 0 0 0 0 0 0 
0 0 0 0 0 0 0 0 0 
0 0 0 0 0 0 0 0 0 
0 0 0 0 0 0 0 0 0 
0 0 0 0 0 0 0 0 0 
0 0 0 0 0 0 0 0 0 
0 0 0 0 0 0 0 0 0 
0 0 0 0 0 0 0 0 0 
0 0 0 0 0 0 0 0 0 
0 0 0 0 0 0 0 0 0 
0 0 0 0 0 0 0 0 0 
0 0 0 0 0 0 0 0 0 
0 0 0 0 0 0 0 0 0 
0 0 0 0 0 0 0 0 0 
0 0 0 0 0 0 0 0 0 
0 0 0 0 0 0 0 0 0 
0 0 0 0 0 0 0 0 0 
0 0 0 0 0 0 0 0 0 
0 0 0 0 0 0 0 0 0 
0 0 0 0 0 0 0 0 0 
0 0 0 0 0 0 0 0 0 
0 0 0 0 0 0 0 0 0 
0 0 0 0 0 0 0 0 0 
0 0 0 0 0 0 0 0 0 
0 0 0 0 0 0 0 0 0 
0 0 0 0 0 0 0 0 0 
0 0 0 0 0 0 0 0 0 
0 0 0 0 0 0 0 0 0 
0 0 0 0 0 0 0 0 0 
0 0 0 0 0 0 0 0 0 
0 0 0 0 0 0 0 0 0 
0 0 0 0 0 0 0 0 0 
0 0 0 0 0 0 0 0 0 
0 0 0 0 0 0 0 0 0 
0 0 0 0 0 0 0 0 0 
0 0 0 0 0 0 0 0 0 
0 0 0 0 0 0 0 0 0 
0 0 0 0 0 0 0 0 0 
0 0 0 0 0 0 0 0 0 
0.266221 -0.744468 0 0 0 0 0 0 0 
0.279051 -1.14303 0 0 0 0 -0.27601 -1.20854 0 
0 0 0 0 0 0 0 0 0 
0 0 0 0 0 0 0 0 0 
0 0 0 0 0 0 0 0 0 
0 0 0 0 0 0 0 0 0 
0 0 0 0 0 0 0 0 0 
0 0 0 0 0 0 0 0 0 
0 0 0 0 0 0 0 0 0 
-0.074895 -0.721555 0 -0.28443 -1.10822 0 -0.354291 -0.856112 0 
0 0 0 0 0 0 0 0 0 
0 0 0 0 0 0 0 0 0 
0 0 0 0 0 0 0 0 0 
0 0 0 0 0 0 0 0 0 
0 0 0 0 0 0 0 0 0 
0 0 0 0 0 0 0 0 0 
0 0 0 0 0 0 0 0 0 
0 0 0 0 0 0 0 0 0 
0 0 0 0 0 0 0 0 0 
0 0 0 0 0 0 0 0 0 
0.144598 -1.08891 0 -0.36329 -1.12441 0 0 0 0 
0 0 0 0 0 0 0 0 0 
0 0 0 0 0 0 0 0 0 
0 0 0 0 0 0 0 0 0 
0 0 0 0 0 0 0 0 0 
0 0 0 0 0 0 0 0 0 
0 0 0 0 0 0 0 0 0 
0 0 0 0.259254 -0.88571 0 0 0 0 
0 0 0 0 0 0 0 0 0 
0 0 0 0 0 0 0 0 0 
0 0 0 0 0 0 0 0 0 
-0.356428 -1.177 0 0 0 0 0 0 0 
0 0 0 0 0 0 0 0 0 
0 0 0 0 0 0 0 0 0 
0 0 0 0 0 0 0 0 0 
0 0 0 0 0 0 0 0 0 
0 0 0 0 0 0 0 0 0 
0 0 0 0 0 0 0 0 0 
0.266927 -0.904487 0 -0.0944246 -0.950546 0 0 0 0 
0 0 0 0 0 0 0 0 0 
0 0 0 0 0 0 0 0 0 
0 0 0 0 0 0 0 0 0 
0.156769 -1.09739 0 0.211559 -1.06992 0 0.11787 -0.990413 0 
-0.366766 -1.20402 0 -0.36583 -1.2035 0 0 0 0 
0 0 0 0 0 0 0 0 0 
0 0 0 0 0 0 0 0 0 
0 0 0 0 0 0 0 0 0 
0 0 0 0 0 0 0 0 0 
0 0 0 0 0 0 0 0 0 
0 0 0 0 0 0 0 0 0 
0 0 0 0.280645 -0.909756 0 0.250486 -0.908917 0 
0.249315 -0.877838 0 -0.196378 -0.964859 0 0 0 0 
0 0 0 0 0 0 0 0 0 
0 0 0 0 0 0 0 0 0 
0 0 0 0 0 0 0 0 0 
0.171048 -1.07971 0 0.164518 -1.13197 0 -0.36862 -1.20894 0 
0 0 0 0 0 0 0 0 0 
0 0 0 0 0 0 0 0 0 
0 0 0 0 0 0 0 0 0 
0 0 0 0 0 0 0 0 0 
0 0 0 0 0 0 0 0 0 
0 0 0 0 0 0 0 0 0 
0 0 0 0 0 0 0.248231 -0.861845 0 
-0.143655 -0.953702 0 0 0 0 0 0 0 
0 0 0 0 0 0 0 0 0 
0 0 0 0 0 0 0 0 0 
0 0 0 0 0 0 -0.283975 -0.954664 0 
0 0 0 0 0 0 0 0 0 
0 0 0 0 0 0 0 0 0 
0 0 0 0 0 0 0 0 0 
0 0 0 0 0 0 0 0 0 
0 0 0 0 0 0 0 0 0 
-0.194381 0.652461 0 0.269046 -1.0865 0 0 0 0 
0 0 0 0 0 0 0 0 0 
0 0 0 0.306143 -0.713278 0 -0.188178 -1.30098 0 
-0.178625 -0.755529 0 -0.110208 -0.869266 0 0 0 0 
0 0 0 0 0 0 0 0 0 
0 0 0 0 0 0 0 0 0 
0 0 0 0 0 0 0 0 0 
0.118894 -1.11675 0 0.200164 -0.694625 0 -0.359424 -1.22252 0 
-0.24216 -0.630535 0 -0.378488 -1.00081 0 0 0 0 
0 0 0 0 0 0 0 0 0 
0 0 0 0 0 0 0 0 0 
0 0 0 0 0 0 0 0 0 
-0.0404437 0.260385 0 -0.527794 0.538688 0 0.0353833 0.617873 0 
0 0 0 0 0 0 0 0 0 
0 0 0 0 0 0 0.117773 0.685997 0 
0 0 0 0.440447 -0.91969 0 0.3412 -0.981202 0 
0 0 0 0 0 0 0 0 0 
0 0 0 -0.137785 -0.946873 0 0 0 0 
0 0 0 0 0 0 0 0 0 
0 0 0 0 0 0 0 0 0 
0 0 0 0 0 0 0 0 0 
-0.514721 -0.99306 0 -0.549903 -0.887 0 -0.456011 -1.01369 0 
-0.830955 -0.0737307 0 -0.843766 0.0427719 0 0 0 0 
0 0 0 0 0 0 0 0 0 
0 0 0 0 0 0 0 0 0 
0 0 0 0 0 0 0 0 0 
0 0 0 0 0 0 -0.924129 0.00138431 0 
-0.834564 0.264104 0 -0.553109 0.673792 0 0 0 0 
0 0 0 0 0 0 0 0 0 
0 0 0 0 0 0 0 0 0 
0 0 0 0 0 0 0 0 0 
-1.0134 0.0397914 0 0 0 0 0 0 0 
-1.13149 0.0593927 0 0 0 0 0 0 0 
0 0 0 0 0 0 0 0 0 
-1.05986 0.0999313 0 0 0 0 0 0 0 
0 0 0 0 0 0 0 0 0 
0 0 0 0 0 0 0 0 0 
0 0 0 0 0 0 0 0 0 
0 0 0 0 0 0 0 0 0 
0 0 0 -0.733204 0.428414 0 0 0 0 
0 0 0 0 0 0 0.915809 0.239582 0 
0 0 0 0 0 0 0 0 0 
0 0 0 0 0 0 0 0 0 
0 0 0 0 0 0 0 0 0 
0 0 0 0 0 0 0.676572 0.0458975 0 
0 0 0 0 0 0 0 0 0 
0 0 0 0 0 0 0 0 0 
0 0 0 0 0 0 0 0 0 
0 0 0 0 0 0 0 0 0 
0 0 0 0 0 0 0 0 0 
0 0 0 0.745568 0.424922 0 0 0 0 
0 0 0 0.961066 0.160042 0 0 0 0 
0.966334 0.107872 0 0 0 0 0 0 0 
0 0 0 0 0 0 0 0 0 
0.498001 -0.0846693 0 0 0 0 0 0 0 
0 0 0 0 0 0 0 0 0 
0 0 0 0.742582 -0.813198 0 0 0 0 
0.473736 -0.904845 0 -0.146653 -0.945659 0 0 0 0 
0 0 0 0 0 0 0 0 0 
0 0 0 0 0 0 0 0 0 
0 0 0 0 0 0 0 0 0 
-0.667597 -0.109456 0 -0.759127 -0.0875053 0 -0.779105 0.00179961 0 
-0.773369 -0.0404558 0 -0.747258 -0.393202 0 0.909493 0.129131 0 
0.731926 -0.42127 0 0.863495 0.179021 0 1.11279 -0.0861187 0 
-0.16164 -0.944 0 -0.21535 -1.31062 0 0 0 0 
0 0 0 0 0 0 0 0 0 
0 0 0 0 0 0 0 0 0 
0 0 0 0 0 0 0 0 0 
0 0 0 0 0 0 0 0 0 
0 0 0 0 0 0 0 0 0 
0 0 0 0 0 0 0 0 0 
0 0 0 0 0 0 0 0 0 
0 0 0 0 0 0 0 0 0 
0 0 0 0 0 0 0 0 0 
0 0 0 0 0 0 0 0 0 
0 0 0 0 0 0 0 0 0 
0 0 0 0 0 0 0 0 0 
0 0 0 0 0 0 0 0 0 
0 0 0 0 0 0 0 0 0 
0 0 0 0 0 0 0 0 0 
0 0 0 0 0 0 0 0 0 
0 0 0 0 0 0 0 0 0 
0 0 0 0 0 0 0 0 0 
0 0 0 0 0 0 0 0 0 
0 0 0 0 0 0 0 0 0 
0 0 0 0 0 0 0 0 0 
0 0 0 0 0 0 0 0 0 
0 0 0 0 0 0 0 0 0 
0 0 0 0 0 0 0 0 0 
0 0 0 0 0 0 0 0 0 
0 0 0 0 0 0 0 0 0 
0 0 0 0 0 0 0 0 0 
0 0 0 0 0 0 0 0 0 
0 0 0 0 0 0 0 0 0 
0 0 0 0 0 0 0 0 0 
0 0 0 0 0 0 0 0 0 
0 0 0 0 0 0 0 0 0 
0 0 0 0 0 0 0 0 0 
0 0 0 0 0 0 0 0 0 
0 0 0 0 0 0 0 0 0 
0 0 0 0 0 0 0 0 0 
0 0 0 0 0 0 0 0 0 
0 0 0 0 0 0 0 0 0 
0 0 0 0 0 0 0 0 0 
0 0 0 0 0 0 0 0 0 
0 0 0 0 0 0 0 0 0 
0 0 0 0 0 0 0 0 0 
0 0 0 0 0 0 0 0 0 
0 0 0 0 0 0 0 0 0 
0 0 0 0 0 0 0 0 0 
0 0 0 0 0 0 0 0 0 
0 0 0 0 0 0 0 0 0 
0 0 0 0 0 0 0 0 0 
0 0 0 0 0 0 0 0 0 
0 0 0 0 0 0 0 0 0 
0 0 0 0.819231 -0.697152 0 0 0 0 
0 0 0 0 0 0 0 0 0 
0 0 0 0 0 0 0 0 0 
0 0 0 0 0 0 0 0 0 
0 0 0 0 0 0 0 0 0 
0 0 0 0 0 0 0 0 0 
0 0 0 0 0 0 0 0 0 
0 0 0 0 0 0 0 0 0 
0 0 0 0 0 0 0 0 0 
0 0 0 0 0 0 0 0 0 
0 0 0 0 0 0 0 0 0 
0 0 0 0 0 0 0 0 0 
0 0 0 0 0 0 0 0 0 
0.700163 -0.733082 0 0.671098 -0.788877 0 0.635576 -0.766752 0 
0.694886 -0.575792 0 0.575569 -0.566142 0 0 0 0 
0 0 0 0 0 0 0 0 0 
0 0 0 0 0 0 0 0 0 
0 0 0 0 0 0 0 0 0 
0 0 0 0 0 0 0 0 0 
0 0 0 0 0 0 0 0 0 
0 0 0 0 0 0 0 0 0 
0 0 0 0.646265 0.23201 0 0.649778 0.255588 0 
0 0 0 0 0 0 0 0 0 
0 0 0 0 0 0 0.80143 -0.818304 0 
0 0 0 0 0 0 0 0 0 
0 0 0 0 0 0 0 0 0 
0 0 0 0 0 0 0 0 0 
0 0 0 0 0 0 0 0 0 
0 0 0 0 0 0 0 0 0 
0 0 0 0 0 0 0 0 0 
0 0 0 0 0 0 0.635461 0.313835 0 
-0.0400302 -0.12066 0 0 0 0 0 0 0 
0 0 0 0 0 0 0 0 0 
0.608127 -0.74243 0 0.664886 -0.551363 0 0.702245 -0.784694 0 
0 0 0 0 0 0 0 0 0 
0 0 0 0 0 0 0 0 0 
0 0 0 0 0 0 0 0 0 
0 0 0 0 0 0 0 0 0 
0 0 0 0 0 0 0 0 0 
0 0 0 0 0 0 0 0 0 
0 0 0 0 0 0 0.920691 0.0278603 0 
0.508274 -0.818295 0 0.146578 0.269527 0 0.575415 0.328862 0 
1.08958 -0.456343 0 0 0 0 0.871893 -0.700461 0 
0 0 0 0 0 0 0 0 0 
0 0 0 0 0 0 0 0 0 
0 0 0 0 0 0 0 0 0 
0 0 0 0 0 0 0 0 0 
0 0 0 0 0 0 0 0 0 
0 0 0 0 0 0 0 0 0 
0 0 0 0 0 0 0 0 0 
0 0 0 0 0 0 0 0 0 
0 0 0 0 0 0 0 0 0 
0 0 0 0 0 0 0 0 0 
0 0 0 0 0 0 0 0 0 
0 0 0 0 0 0 0 0 0 
0 0 0 0 0 0 0 0 0 
0 0 0 0 0 0 0 0 0 
0 0 0 0 0 0 0 0 0 
0 0 0 0 0 0 0 0 0 
0 0 0 0 0 0 0 0 0 
0 0 0 0 0 0 0 0 0 
0 0 0 0 0 0 0 0 0 
0 0 0 0 0 0 0 0 0 
0 0 0 0 0 0 0 0 0 
0 0 0 0 0 0 0 0 0 
0 0 0 0 0 0 0 0 0 
0 0 0 0 0 0 0 0 0 
0 0 0 0 0 0 0 0 0 
0 0 0 0 0 0 0 0 0 
0 0 0 0 0 0 0 0 0 
0 0 0 0 0 0 0 0 0 
0 0 0 0 0 0 0 0 0 
0 0 0 0 0 0 0 0 0 
0 0 0 0 0 0 0 0 0 
0 0 0 0 0 0 0 0 0 
0 0 0 0 0 0 0 0 0 
0 0 0 0 0 0 0 0 0 
0 0 0 0 0 0 0 0 0 
0 0 0 0 0 0 0 0 0 
0 0 0 0 0 0 0 0 0 
0 0 0 0 0 0 0 0 0 
0 0 0 0 0 0 0 0 0 
0 0 0 0 0 0 0 0 0 
0 0 0 0 0 0 0 0 0 
0 0 0 0 0 0 0 0 0 
0 0 0 0 0 0 0 0 0 
0 0 0 0 0 0 0 0 0 
0 0 0 0 0 0 0 0 0 
0 0 0 0 0 0 0 0 0 
0 0 0 0 0 0 0 0 0 
0 0 0 0 0 0 0 0 0 
0 0 0 0 0 0 0 0 0 
0 0 0 0 0 0 0 0 0 
0 0 0 0 0 0 0 0 0 
0 0 0 0 0 0 0 0 0 
0 0 0 0 0 0 0 0 0 
0 0 0 0 0 0 0 0 0 
0 0 0 0 0 0 0 0 0 
0 0 0 0 0 0 0 0 0 
0 0 0 0 0 0 0 0 0 
0 0 0 0 0 0 0 0 0 
0 0 0 0 0 0 0 0 0 
0 0 0 0 0 0 0 0 0 
0 0 0 0 0 0 
x 1 1049 double
-6.05979 -5.41145 5.00083 -6.28859 7.4959 -8.93681 -8.2118 7.48624 7.87268 
8.48217 -9.71278 -8.89521 8.50073 9.5491 9.39882 -10.545 -9.93758 9.96519 
10.6261 -11.695 -11.1475 -15 -14.6429 -15 -14.8214 -15 -14.1071 
-15 -15 -14.4643 -14.2857 -13.3929 -13.5714 -13.75 -13.2143 -13.0357 
-13.9286 -12.8571 -12.0798 -12.5 -12.6786 -11.5 -11.1429 -11.8353 -11.3214 
-10.0714 -10.9643 -10.4286 -10.25 -10.7857 -10.6071 -9.5357 -9.8929 -9.1786 
-9.7143 -9.3571 -9 -9 -8.2 -8.4 -9 -9 -8.8 
-8.6 -9 -8 -7.2 -7.4 -7.6 -7.8 -6.2 -6.8 
-6.6 -7 -6.4 -5.2 -5.6 -6 -5.4 -5.8 -4.6 
-5 -4.8 -4.4 -4.2 -3.8 -3.6 -3.4 -3.2 -4 
-3 -3 -2.4 -2.8 -2.6 -2.2 -3 -3 -3 
-1.2 -1.4 -2 -1.8 -1.6 -0.4 -0.2 -0.6 -0.8 
-1 0.8 0.4 0.2 0.6 -0 1.4 1.6 1 
1.2 1.8 2.6 2.8 2.4 2.2 2 3 3 
3.6 3.2 3.4 3 3 3 3.8 4.2 4.6 
4.8 4 4.4 5.4 5 5.6 5.2 5.8 6.6 
6 6.4 6.8 6.2 7.6 7.2 7.8 7.4 7 
8.2 8 8.6 8.4 8.8 9 9.8929 9 9.1786 
9 9.5357 9 9.3571 9.7143 9 10.7857 10.9643 10.25 
10.6071 10.0714 10.4286 11.3214 11.1429 11.5 11.5036 12.6786 12.5 
12.0751 12.8571 12.0365 13.3929 13.75 13.9286 13.5714 13.2143 13.0357 
14.1071 14.2857 14.8214 14.4643 14.6429 15 15 15 15 
15 -15 -15 -15 -15 -15 -11.5557 -11.1699 -11.8083 
-9 -9 -9 -9 -9 -3 -3 -3 -3 
-3 3 3 3 3 3 9 9 9 
9 9 15 15 15 15 15 -15 -15 
-15 -15 -15 -12.3495 -11.2984 -9 -9 -9 -9 
-9 -3 -3 -3 -3 -3 3 3 3 
3 3 9 9 9 9 9 11.1734 15 
15 15 15 15 -15 -15 -15 -15 -15 
-11.0138 -9 -9 -9 -9 -9 -3 -3 -3 
-3 -3 3 3 3 3 3 9 9 
9 9 9 10.6654 12.6146 15 15 15 15 
15 -15 -15 -15 -15 -15 -13.1116 -12.4007 -12.7454 
-10.5157 -10.742 -9 -9 -9 -9 -9 -3 -3 
-3 -3 -3 3 3 3 3 3 9 
9 9 9 9 10.618 10.5147 11.2273 12.5358 15 
15 15 15 15 -15 -15 -15 -15 -15 
-12.5259 -12.8982 -10.3039 -9 -9 -9 -9 -9 -3 
-3 -3 -3 -3 3 3 3 3 3 
9 9 9 9 9 10.2358 12.8605 15 15 
15 15 15 -15 -15 -15 -15 -15 -9.88151 
-9 -9 -9 -9 -9 -3 -3 -3 -3 
-3 3 3 3 3 3 6.41643 9.82492 9 
9 9 9 9 10.4703 12.9694 12.4115 13.566 15 
15 15 15 15 -15 -15 -15 -15 -15 
-13.2532 -12.6838 -10.1222 -10.6133 -9.53536 -9 -9 -9 -9 
-9 -3 -3 -3 -3 -3 -0.342305 0.0476453 0.197833 
3 3 3 3 3 5.98398 9 9.59895 9.87686 
9 9 9 9 13.398 15 15 15 15 
15 -15 -15 -15 -15 -15 -9.87281 -9.23091 -9.4969 
-8.72685 -8.17628 -9 -8.1071 -8.6429 -8.2857 -8.4643 -8.8214 -7.75 
-7.2143 -7.0357 -7.5714 -7.3929 -7.9286 -7.53081 -6.97052 -6.26503 -6.5 
-6.8571 -6.6786 -5.5 -5.1429 -5.3214 -4.0714 -4.9643 -4.4286 -4.7857 
-4.91305 -4.25 -4.6071 -4.10647 -3.7143 -3.8929 -3.5357 -3.3571 -3.1786 
-2.54937 -3 -2.6429 -2.8214 -2.2857 -2.1071 -2.4643 -1.75 -1.9286 
-1.2143 -1.5714 -1.0357 -1.3929 -0.5 -0.8571 -0.6786 -0.411587 0.5 
0.6786 0.8571 0.905758 1.2143 1.9286 1.3929 1.75 1.5714 1.0357 
2.4643 2.6429 2.2857 2.1071 2.8214 3.00073 3.5357 3.1786 3.3571 
3 3.7143 3.8929 4.4286 4.25 4.7857 4.6071 4.9643 4.0714 
5.5 5.1429 5.3214 6.6786 6.46844 6.5 6.8571 7.35881 7.3929 
7.95601 7.0357 7.2143 7.5714 7.9286 7.75 8.62921 8.4643 8.1071 
8.2857 8.8214 8.6429 9 9.49584 9 9.20006 13.3318 15 
15 15 15 15 -15 -15 -15 -15 -15 
-8.9952 -8.43685 -7.90455 -7.36382 -6.56981 7.72254 8.95319 8.28727 8.60248 
13.3587 13.4926 15 15 15 15 15 -15 -15 
-14.6667 -15 -14.1667 -14.3333 -15 -14.5 -15 -14.8333 -14 
-12.8 -12.4 -13 -12.6 -12.2 -11.2 -12 -11.8 -11.4 
-11.6 -10.6 -10.4 -10.2 -11 -10.8 -9.2 -9.8 -9.4 
-9.6 -10 -8.1071 -9 -9 -9 -9 -8.4643 -8.8214 
-8.2857 -8.6429 -9 -7.0357 -7.3929 -7.5714 -7.2143 -7.9286 -7.75 
-6.8571 -6.6786 -6.5 -5.1429 -5.3214 -5.5 -4.25 -4.6071 -4.0714 
-4.9643 -4.7857 -4.4286 -3.1786 -3.7143 -3.8929 -3.5357 -3.3571 -3 
-3 -2.2 -2.8 -3 -3 -3 -2.4 -2.6 -1.6 
-1.4 -2 -1.8 -1.2 -0.4 -1 -0.6 -0.8 -0.2 
0.6 -0 0.4 0.2 0.8 1.8 1.4 1 1.6 
1.2 2.4 2.2 2.8 2.6 2 3.4 3.8 3.2 
3 3.6 4.6 4 4.2 4.8 4.4 5.2 5.6 
5.4 5 5.8 6.4 6.6 6 6.2 6.8 7.8 
7.4 7.6 7.2 7 8.8 8.2 8.6 8.4 8 
9 9 9 9.4 9.2 9 9 9.6 9.8 
10.6 10.8 10 10.2 10.4 11.4 11.2 11.6 11 
11.8 12.2714 12.8 12 12.6 12.4 12.2 13 14.5 
14.3333 14.8333 14.6667 14.1667 14 15 15 15 15 
15 -15 -15 -15 -15 -15 -9 -9 -9 
-9 -9 -3 -3 -3 -3 -3 9 9 
9 9 9 11.894 11.4682 12.1054 12.6002 12.5794 15 
15 15 15 15 -15 -15 -15 -15 -15 
-9 -9 -9 -9 -9 -3 -3 -3 -3 
-3 3.76985 4.6294 9 9 9 9 9 11.5899 
15 15 15 15 15 -15 -15 -15 -15 
-15 -9 -9 -9 -9 -9 -3 -3 -3 
-3 -3 6.55851 8.64341 9 9 9 9 9 
10.4312 10.6669 10.0795 15 15 15 15 15 -15 
-15 -15 -15 -15 -9 -9 -9 -9 -9 
-3 -3 -3 -3 -3 7.57444 8.71628 8.10614 8.32963 
9.16635 9 9.63449 15 15 15 15 15 -15 
-15 -15 -15 -15 -9 -9 -9 -9 -9 
-3 -3 -3 -3 -3 9 9 9 9 
9 9 15 15 15 15 15 -14.6 -14.8 
-14.2 -15 -14.4 -13.2 -14 -13.4 -13.8 -13.6 -12.6 
-12.8 -13 -12.2 -12.4 -11.4 -11.2 -11.8 -11.6 -12 
-10.4 -10.6 -11 -10.8 -10.2 -9.8 -9.6 -9.4 -9.2 
-10 -8.2 -8.8 -8.6 -8.4 -9 -8 -7.8 -7.6 
-7.2 -7.4 -6.8 -6.4 -6.6 -6.2 -7 -5.6 -5.4 
-5.8 -5.2 -6 -4.8 -5 -4.6 -4.2 -4.4 -3.6 
-4 -3.2 -3.8 -3.4 -2.2 -2.8 -3 -2.6 -2.4 
-2 -1.2 -1.4 -1.8 -1.6 -0.6 -0.8 -0.2 -1 
-0.4 0.8 0.2 0.6 -0 0.4 1.2 1.4 1.8 
1 1.6 2 2.8 2.2 2.4 2.6 3.2 3.4 
3 3.6 3.8 4 4.8 4.6 4.4 4.2 5.2 
5 5.6 5.8 5.4 6.4 6.8 6.6 6.2 6 
7.8 7.6 7.2 7 7.4 8.2 8.6 8.4 8.8 
8 9.6 9.4 9 9.8 9.2 10 10.2 10.4 
10.6 10.8 11.8 11 11.4 11.6 11.2 12.4 12.8 
12.6 12.2 12 13.8 13.2 13 13.6 13.4 14.8 
14 14.2 14.4 14.6 15 
y 1 1049 double
-5.38818 -5.40722 -5.91878 -4.72886 -4.21667 -3.13203 -3.33238 -3.60679 -3.16848 
-3.71155 -2.34095 -2.32534 -2.84988 -2.95551 -2.28097 -1.4526 -1.74544 -1.88078 
-1.29575 -0.359221 -0.929607 0 0 0.2 0 0.4 0 
0.6 0.8 0 0 0 0 0 0 0 
0 0 0.0764537 0 0 0 0 0.588846 0 
0 0 0 0 0 0 0 0 0 
0 0 0.6 0.2 0 0 0.4 0.8 0 
0 0 0 0 0 0 0 0 0 
0 0 0 0 0 0 0 0 0 
0 0 0 0 0 0 0 0 0 
0.6 0.4 0 0 0 0 0.2 0 0.8 
0 0 0 0 0 0 0 0 0 
0 0 0 0 0 0 0 0 0 
0 0 0 0 0 0 0 0.4 0 
0 0 0 0.6 0.2 0.8 0 0 0 
0 0 0 0 0 0 0 0 0 
0 0 0 0 0 0 0 0 0 
0 0 0 0 0 0.6 0 0.8 0 
0.4 0 0 0 0 0.2 0 0 0 
0 0 0 0 0 0 0.695264 0 0 
0.768587 0 0.151115 0 0 0 0 0 0 
0 0 0 0 0 0 0.6 0.2 0.8 
0.4 1.6 1.4 1.2 1 1.8 1.10177 1.86147 1.69249 
1.6 1 1.8 1.2 1.4 1.2 1 1.6 1.4 
1.8 1.6 1.2 1 1.8 1.4 1.4 1.8 1 
1.6 1.2 1 1.4 1.8 1.6 1.2 2.4 2 
2.8 2.2 2.6 2.25605 2.51732 2.4 2.2 2.6 2 
2.8 2.2 2 2.8 2.4 2.6 2.8 2 2.2 
2.4 2.6 2.2 2.8 2.6 2 2.4 2.8576 2.4 
2.8 2 2.6 2.2 3.4 3.2 3 3.8 3.6 
3.20836 3.2 3.8 3.4 3.6 3 3 3.2 3.6 
3.4 3.8 3.4 3 3.6 3.2 3.8 3.2 3.4 
3.6 3 3.8 3.69119 3.54098 3.4 3.2 3.6 3 
3.8 4.4 4.2 4.8 4 4.6 4.6171 4.47978 4.02529 
4.91843 4.13618 4 4.4 4.8 4.6 4.2 4 4.8 
4.6 4.2 4.4 4.8 4.6 4.2 4 4.4 4 
4.2 4.8 4.4 4.6 4.89022 4.24771 4.2329 4.08987 4.8 
4.4 4 4.2 4.6 5.8 5.2 5.4 5 5.6 
5.02174 5.57105 5.52513 5.2 5.8 5.6 5.4 5 5.8 
5 5.2 5.6 5.4 5 5.4 5.8 5.2 5.6 
5.8 5 5.4 5.6 5.2 5.84732 5.68797 5.8 5.6 
5.2 5 5.4 6.4 6.2 6 6.6 6.8 6.97236 
6 6.4 6.2 6.6 6.8 6.6 6.2 6.8 6.4 
6 6 6.2 6.4 6.8 6.6 6.6022 6.69545 6.6 
6.8 6.2 6.4 6 6.65841 6.56355 6.60345 6.57154 6 
6.8 6.4 6.6 6.2 7.2 7.6 7.4 7 7.8 
7.20793 7.1141 7.57106 7.78771 7.70795 7.4 7 7.2 7.6 
7.8 7 7.4 7.8 7.2 7.6 7.54183 7.98524 7.34837 
7.6 7.4 7.8 7 7.2 7.91371 7.6 7.97383 7.4063 
7.2 7.8 7.4 7 7.98847 7 7.2 7.8 7.6 
7.4 8.6 8.4 8 8.8 8.2 8.29778 8.33197 8.92351 
8.76628 8.77008 8 8 8 8 8 8 8 
8 8 8 8 8 8.76956 8.60199 8.28402 8 
8 8 8 8 8 8 8 8 8 
8.92579 8 8 8.86817 8 8 8 8 8 
8.7661 8 8 8 8 8 8 8 8 
8 8 8 8 8 8 8 8.35532 8 
8 8 8.5343 8 8 8 8 8 8 
8 8 8 8 8 8.86537 8 8 8 
8 8 8 8 8 8 8 8 8 
8 8 8 8 8.41107 8 8 8.71257 8 
8.60054 8 8 8 8 8 8.60757 8 8 
8 8 8 8 8.99339 8 8.41631 8.54135 8.4 
8 8.6 8.8 8.2 9.8 9 9.6 9.4 9.2 
9.22823 9.25593 9.20313 9.33089 9.5492 9.14682 9.04728 9.06822 9.4651 
9.09825 9.94082 9.2 9.8 9.4 9 9.6 10.6 10.4 
10 10.2 10 10 10.8 10 10 10 10 
10 10 10 10 10 10 10 10 10 
10 10 10 10 10 10 10 10 10 
10 10 10 10 10.8 10.6 10.4 10 10 
10 10 10.2 10 10 10 10 10 10 
10 10 10 10 10 10 10 10 10 
10 10 10 10 10 10 10 10 10.6 
10.2 10 10 10 10.8 10.4 10 10 10 
10 10 10 10 10 10 10 10 10 
10 10 10 10 10 10 10 10 10 
10 10 10 10 10 10 10 10 10 
10 10 10 10 10 10 10 10 10 
10 10 10 10 10 10 10 10 10 
10 10 10 10 10 10 10 10 10 
10.4 10.6 10.2 10 10 10 10.8 10 10 
10 10 10 10 10 10 10 10 10 
10 10.6463 10 10 10 10 10 10 10 
10 10 10 10 10 10.8 10.6 10.2 10.4 
10 11.6 11.2 11.4 11.8 11 11.6 11.8 11 
11.4 11.2 11.4 11.2 11.6 11.8 11 11.4 11.2 
11 11.8 11.6 11.2912 11.8414 11.8444 11.69 11.127 11.4 
11.8 11.6 11.2 11 12.4 12 12.6 12.8 12.2 
12.2 12.6 12 12.4 12.8 12.6 12.4 12 12.8 
12.2 12.6681 12.7045 12.2 12.8 12.4 12.6 12 12.4112 
12.6 12.4 12.8 12.2 12 13.8 13.2 13.4 13.6 
13 13.8 13 13.4 13.2 13.6 13.4 13 13.2 
13.6 13.8 13.2942 13.8326 13.4 13.8 13.2 13 13.6 
13.1032 13.7363 13.6372 13.2 13.8 13.4 13 13.6 14.2 
14 14.6 14.4 14.8 14.6 14 14.4 14.2 14.8 
14 14.8 14.6 14.4 14.2 14.4079 14.7882 14.8212 14.2715 
14.3357 14 14.032 14.8 14.2 14 14.4 14.6 15.6 
15.8 15.2 15.4 15 15.4 15.2 15 15.8 15.6 
15.2 15.8 15.6 15.4 15 15 15.6667 15.8333 15.5 
15.1667 15.3333 15.8 15 15.6 15.4 15.2 16 16 
16 16 16 16 16 16 16 16 16 
16 16 16 16 16 16 16 16 16 
16 16 16 16 16 16 16 16 16 
16 16 16 16 16 16 16 16 16 
16 16 16 16 16 16 16 16 16 
16 16 16 16 16 16 16 16 16 
16 16 16 16 16 16 16 16 16 
16 16 16 16 16 16 16 16 16 
16 16 16 16 16 16 16 16 16 
16 16 16 16 16 16 16 16 16 
16 16 16 16 16 16 16 16 16 
16 16 16 16 16 16 16 16 16 
16 16 16 16 16 16 16 16 16 
16 16 16 16 16 16 16 16 16 
16 16 16 16 16 16 16 16 16 
16 16 16 16 16 16 16 16 16 
16 16 16 16 16 
