# vtk DataFile Version 4.0
vtk output
ASCII
DATASET POLYDATA
FIELD FieldData 4
domain 1 4 string
domain_min:-40|-40
domain_max:40|40
cell_size:1|1
boundary:0|0

variables 1 5 string
T:29.5
dt:0.01
write_case:1
substeps:10
all_steps:2950

constants 1 17 string
L:40
c_s:1
dx:1
k:1000
d1:-13.5|10
d2:-6|10
d3:9|14.5
d4:13.5|10
d5:-6|8
d6:0|8
d7:6|8
d8:-9|9
d9:9|9
d10:-12|0
d11:12|0
d12:0|-10
R_w:0.1

equations 1 18 string
time:T=(T+dt)#true
pos_x:x=elem(r,0,0)#eq(gid,1)
pos_y:y=elem(r,1,0)#eq(gid,1)
wp_1:p0=if(and(lt(x,(-9)),gt(y,10)),d1,p0)#eq(gid,1)
wp_2:p0=if(and(and(gt(x,(-9)),lt(x,(-3))),gt(y,10)),d2,p0)#eq(gid,1)
wp_3:p0=if(and(and(gt(x,(-3)),lt(x,9)),gt(y,10)),d3,p0)#eq(gid,1)
wp_4:p0=if(and(gt(x,9),gt(y,10)),d4,p0)#eq(gid,1)
wp_5:p0=if(and(and(gt(x,(-9)),lt(x,(-3))),lt(y,8)),d5,p0)#eq(gid,1)
wp_6:p0=if(and(and(gt(x,(-3)),lt(x,3)),lt(y,8)),d6,p0)#eq(gid,1)
wp_7:p0=if(and(and(gt(x,3),lt(x,9)),lt(y,8)),d7,p0)#eq(gid,1)
wp_8:p0=if(and(and(gt(x,(-9)),lt(x,0)),and(gt(y,8),lt(y,10))),d8,p0)#eq(gid,1)
wp_9:p0=if(and(and(gt(x,0),lt(x,9)),and(gt(y,8),lt(y,10))),d9,p0)#eq(gid,1)
wp_10:p0=if(and(lt(x,(-9)),lt(y,10)),d10,p0)#eq(gid,1)
wp_11:p0=if(and(gt(x,9),lt(y,10)),d11,p0)#eq(gid,1)
wp_12:p0=if(lt(y,0),d12,p0)#eq(gid,1)
acceleration:v=sfm(v,p0,v0,m,R,A,B,k,c,tau)#eq(gid,1)
velocity:v=euler(v,a,dt)#eq(gid,1)
position:r=euler(r,v,dt)#eq(gid,1)

POINTS 1049 float
-1.42702 -11.0506 0 -0.0808365 -11.515 0 -0.67872 -11.4126 0 
-0.286556 -11.0327 0 0.287465 -11.1117 0 0.786485 -11.3986 0 
1.24776 -11.0153 0 -1.08434 -10.0003 0 -1.27394 -10.5109 0 
-1.66041 -10.1102 0 -0.0547796 -10.3467 0 -0.394635 -10.6044 0 
-0.408516 -10.048 0 -0.73103 -10.3114 0 -0.835763 -10.8541 0 
0.0422534 -10.0032 0 0.040136 -10.7372 0 0.418456 -10.5048 0 
0.527405 -10.1546 0 0.742966 -10.8667 0 1.4616 -10.0816 0 
1.04163 -10.4578 0 1.59643 -10.5764 0 -1.90512 -9.57334 0 
-1.53518 -9.10703 0 -1.39165 -9.59782 0 -0.999083 -9.13532 0 
-0.12727 -9.28714 0 -0.939574 -9.57137 0 -0.583355 -9.7155 0 
-0.566238 -9.25327 0 -0.225673 -9.60614 0 0.300992 -9.29767 0 
0.970832 -9.96648 0 0.589136 -9.76572 0 0.203098 -9.76831 0 
0.77247 -9.44313 0 0.963723 -9.06532 0 1.47591 -9.16963 0 
1.26991 -9.61342 0 1.94759 -9.43096 0 -2.56921 -8.59864 0 
-1.91625 -8.64081 0 -1.16115 -8.56401 0 -1.78051 -8.02306 0 
-0.272935 -8.40421 0 -0.312491 -8.88651 0 -0.659607 -8.71567 0 
0.0576117 -8.77572 0 0.517958 -8.80502 0 0.73238 -8.29446 0 
0.209564 -8.30164 0 1.8876 -8.86581 0 1.89907 -8.31055 0 
1.38731 -8.07417 0 1.24075 -8.6181 0 2.4494 -8.81374 0 
2.96006 -8.42374 0 2.44455 -8.26742 0 -3.25202 -7.87602 0 
-3.57289 -7.08674 0 -2.70437 -7.36045 0 -2.61308 -7.96271 0 
1.8654 -7.64432 0 2.42941 -7.74284 0 3.65095 -7.7498 0 
3.2446 -7.19669 0 4.64492 -6.21244 0 5.27689 -6.57054 0 
5.85325 -6.46281 0 -5.99095 -5.63416 0 -5.30372 -5.37648 0 
4.67055 -5.58334 0 4.81608 -5.00254 0 5.94078 -5.15429 0 
5.62283 -5.56064 0 5.18924 -5.91477 0 6.05993 -5.98266 0 
6.38378 -5.53898 0 7.33841 -5.46027 0 -8.34429 -4.2813 0 
-7.82156 -4.43735 0 -7.41561 -4.8435 0 -6.59827 -4.4601 0 
-5.76072 -4.95432 0 5.41127 -4.92983 0 6.08398 -4.60891 0 
6.76991 -4.3361 0 6.94813 -4.97092 0 7.67848 -4.04866 0 
8.09397 -4.50132 0 -9.31339 -3.06341 0 -8.32642 -3.14596 0 
-7.45858 -3.95576 0 -7.66133 -3.06657 0 7.2728 -3.61691 0 
8.25482 -3.15091 0 -8.96719 -2.47978 0 9.17652 -2.91539 0 
9.53506 -2.08363 0 10.2345 -1.70189 0 10.6849 -1.12733 0 
10.8408 -1.93135 0 11.5641 -1.22499 0 11.2068 -0.681595 0 
11.8308 -0.312642 0 -14.2857 0 0 -15 0.4 0 
-14.6429 0 0 -14.8214 0 0 -14.1071 0 0 
-15 0.8 0 -15 0.2 0 -14.4643 0 0 
-15 0.6 0 -15 0 0 -13.75 0 0 
-13.2143 0 0 -13.3929 0 0 -13.9286 0 0 
-13.0357 0 0 -13.5714 0 0 -12.6786 0 0 
-12.5 0 0 -12.8571 0 0 -11.3214 0 0 
-11.5 0 0 -11.1429 0 0 -10.4286 0 0 
-10.0714 0 0 -10.7857 0 0 -10.6071 0 0 
-10.25 0 0 -10.9643 0 0 -9.8929 0 0 
-9.3571 0 0 -9.7143 0 0 -9.1786 0 0 
-9.5357 0 0 -9 0.8 0 -8.6 0 0 
-9 0.2 0 -9 0.6 0 -8.2 0 0 
-8.8 0 0 -9 0.4 0 -9 0 0 
-8.4 0 0 -8 0 0 -7.6 0 0 
-7.8 0 0 -7.4 0 0 -7.2 0 0 
-7 0 0 -6.2 0 0 -6.4 0 0 
-6.6 0 0 -6.8 0 0 -6 0 0 
-5.6 0 0 -5.2 0 0 -5.8 0 0 
-5.4 0 0 -4.4 0 0 -4.2 0 0 
-4.8 0 0 -5 0 0 -4.6 0 0 
-4 0 0 -3.6 0 0 -3.2 0 0 
-3.8 0 0 -3.4 0 0 -2.6 0 0 
-3 0.4 0 -3 0.2 0 -2.2 0 0 
-3 0 0 -2.8 0 0 -3 0.8 0 
-2.4 0 0 -3 0.6 0 -2 0 0 
-1.4 0 0 -1.8 0 0 -1.2 0 0 
-1.6 0 0 -0.8 0 0 -1 0 0 
-0.4 0 0 -0.2 0 0 -0.6 0 0 
0.4 0 0 0.8 0 0 -0 0 0 
0.2 0 0 0.6 0 0 1 0 0 
1.2 0 0 1.4 0 0 1.6 0 0 
1.8 0 0 2.6 0 0 2 0 0 
2.8 0 0 2.2 0 0 2.4 0 0 
3.6 0 0 3 0.4 0 3 0.8 0 
3.2 0 0 3.4 0 0 3.8 0 0 
3 0.6 0 3 0 0 3 0.2 0 
4.4 0 0 4 0 0 4.8 0 0 
4.2 0 0 4.6 0 0 5.8 0 0 
5.6 0 0 5.2 0 0 5.4 0 0 
5 0 0 6.8 0 0 6 0 0 
6.4 0 0 6.6 0 0 6.2 0 0 
7 0 0 7.4 0 0 7.6 0 0 
7.2 0 0 7.8 0 0 8.8 0 0 
8 0 0 8.2 0 0 8.4 0 0 
8.6 0 0 9.8929 0 0 9.3571 0 0 
9.1786 0 0 9 0.6 0 9.5357 0 0 
9 0.2 0 9 0 0 9 0.8 0 
9 0.4 0 9.7143 0 0 10.4286 0 0 
10.0714 0 0 10.9643 0 0 10.7857 0 0 
10.6071 0 0 10.25 0 0 11.3214 0 0 
11.1429 0 0 11.5 0 0 11.3835 0.364892 0 
11.6023 0.820735 0 12.6786 0 0 12.8571 0 0 
12.4831 0.761212 0 12.5472 0.297464 0 12.01 0.331573 0 
12.5 0 0 13.2143 0 0 13.5714 0 0 
13.9286 0 0 13.75 0 0 13.0357 0 0 
13.3929 0 0 14.1071 0 0 14.2857 0 0 
14.6429 0 0 14.4643 0 0 14.8214 0 0 
15 0.4 0 15 0.8 0 15 0.2 0 
15 0 0 15 0.6 0 -15 1.4 0 
-15 1.6 0 -15 1.2 0 -15 1.8 0 
-15 1 0 -11.5832 1.95559 0 -9 1.6 0 
-9 1 0 -9 1.4 0 -9 1.2 0 
-9 1.8 0 -3 1.6 0 -3 1.8 0 
-3 1 0 -3 1.4 0 -3 1.2 0 
3 1.2 0 3 1.6 0 3 1.4 0 
3 1.8 0 3 1 0 9 1.2 0 
9 1.4 0 9 1 0 9 1.6 0 
9 1.8 0 11.484 1.38935 0 12.0627 1.11386 0 
15 1 0 15 1.6 0 15 1.8 0 
15 1.2 0 15 1.4 0 -15 2 0 
-15 2.8 0 -15 2.4 0 -15 2.6 0 
-15 2.2 0 -11.1822 2.34381 0 -9 2.2 0 
-9 2.4 0 -9 2.6 0 -9 2 0 
-9 2.8 0 -3 2 0 -3 2.2 0 
-3 2.4 0 -3 2.6 0 -3 2.8 0 
3 2.2 0 3 2.8 0 3 2 0 
3 2.4 0 3 2.6 0 9 2.6 0 
9 2.2 0 9 2.4 0 9 2.8 0 
9 2 0 15 2.4 0 15 2 0 
15 2.8 0 15 2.6 0 15 2.2 0 
-15 3.6 0 -15 3.2 0 -15 3.8 0 
-15 3 0 -15 3.4 0 -11.0807 3.09948 0 
-9 3.2 0 -9 3.4 0 -9 3.6 0 
-9 3 0 -9 3.8 0 -3 3.4 0 
-3 3.2 0 -3 3.8 0 -3 3 0 
-3 3.6 0 3 3.2 0 3 3.6 0 
3 3 0 3 3.4 0 3 3.8 0 
9 3.8 0 9 3.2 0 9 3 0 
9 3.6 0 9 3.4 0 12.5125 3.38486 0 
15 3 0 15 3.4 0 15 3.2 0 
15 3.6 0 15 3.8 0 -15 4.8 0 
-15 4.2 0 -15 4.4 0 -15 4 0 
-15 4.6 0 -9 4.4 0 -9 4.8 0 
-9 4 0 -9 4.6 0 -9 4.2 0 
-3 4.4 0 -3 4 0 -3 4.8 0 
-3 4.6 0 -3 4.2 0 3 4.2 0 
3 4.6 0 3 4.8 0 3 4 0 
3 4.4 0 9 4.4 0 9 4.6 0 
9 4.2 0 9 4.8 0 9 4 0 
12.7393 4.87847 0 15 4 0 15 4.6 0 
15 4.2 0 15 4.8 0 15 4.4 0 
-15 5.4 0 -15 5.8 0 -15 5.2 0 
-15 5 0 -15 5.6 0 -9 5 0 
-9 5.6 0 -9 5.2 0 -9 5.8 0 
-9 5.4 0 -3 5 0 -3 5.8 0 
-3 5.6 0 -3 5.4 0 -3 5.2 0 
3 5.2 0 3 5 0 3 5.4 0 
3 5.6 0 3 5.8 0 9 5.4 0 
9 5.2 0 9 5.6 0 9 5 0 
9 5.8 0 15 5.4 0 15 5 0 
15 5.8 0 15 5.6 0 15 5.2 0 
-15 6.2 0 -15 6.8 0 -15 6.4 0 
-15 6 0 -15 6.6 0 -9 6.6 0 
-9 6.8 0 -9 6.4 0 -9 6 0 
-9 6.2 0 -3 6.4 0 -3 6.8 0 
-3 6 0 -3 6.2 0 -3 6.6 0 
3 6 0 3 6.4 0 3 6.6 0 
3 6.2 0 3 6.8 0 9 6 0 
9 6.6 0 9 6.2 0 9 6.4 0 
9 6.8 0 13.0529 6.87491 0 15 6 0 
15 6.2 0 15 6.8 0 15 6.4 0 
15 6.6 0 -15 7.8 0 -15 7.6 0 
-15 7.2 0 -15 7 0 -15 7.4 0 
-9 7.8 0 -9 7 0 -9 7.6 0 
-9 7.2 0 -9 7.4 0 -3 7.6 0 
-3 7.8 0 -3 7 0 -3 7.4 0 
-3 7.2 0 3 7 0 3 7.8 0 
3 7.6 0 3 7.2 0 3 7.4 0 
9 7.4 0 9 7 0 9 7.8 0 
9 7.2 0 9 7.6 0 13.1795 7.79404 0 
15 7.2 0 15 7.6 0 15 7.8 0 
15 7.4 0 15 7 0 -15 8.6 0 
-15 8 0 -15 8.8 0 -15 8.2 0 
-15 8.4 0 -8.1071 8 0 -8.2857 8 0 
-9 8 0 -8.6429 8 0 -8.8214 8 0 
-8.4643 8 0 -7.75 8 0 -7.2143 8 0 
-7.3929 8 0 -7.0357 8 0 -7.9286 8 0 
-7.5714 8 0 -6.8571 8 0 -6.5 8 0 
-6.6786 8 0 -5.1429 8 0 -5.5 8 0 
-5.3214 8 0 -4.9643 8 0 -4.6071 8 0 
-4.25 8 0 -4.7857 8 0 -4.4286 8 0 
-4.0714 8 0 -3.8929 8 0 -3.7143 8 0 
-3.5357 8 0 -3.1786 8 0 -3.3571 8 0 
-2.6429 8 0 -3 8 0 -2.8214 8 0 
-2.2857 8 0 -2.1071 8 0 -2.4643 8 0 
-1.75 8 0 -1.2143 8 0 -1.5714 8 0 
-1.0357 8 0 -1.3929 8 0 -1.9286 8 0 
-0.5 8 0 -0.6786 8 0 -0.8571 8 0 
0.8571 8 0 0.6786 8 0 0.5 8 0 
1.75 8 0 1.2143 8 0 1.5714 8 0 
1.0357 8 0 1.3929 8 0 1.9286 8 0 
2.1071 8 0 2.2857 8 0 2.6429 8 0 
2.8214 8 0 2.4643 8 0 3.3571 8 0 
3.5357 8 0 3.7143 8 0 3.1786 8 0 
3.8929 8 0 3 8 0 4.6071 8 0 
4.7857 8 0 4.4286 8 0 4.9643 8 0 
4.0714 8 0 4.25 8 0 5.5 8 0 
5.3214 8 0 5.1429 8 0 6.5 8 0 
6.8571 8 0 6.6786 8 0 7.0357 8 0 
7.75 8 0 7.2143 8 0 7.5714 8 0 
7.9286 8 0 7.3929 8 0 8.1071 8 0 
8.2857 8 0 8.4643 8 0 8.8214 8 0 
8.6429 8 0 9 8 0 9 8 0 
15 8.4 0 15 8.8 0 15 8.6 0 
15 8.2 0 15 8 0 -15 9.6 0 
-15 9.4 0 -15 9 0 -15 9.8 0 
-15 9.2 0 15 9.2 0 15 9.6 0 
15 9.8 0 15 9 0 15 9.4 0 
-14.3333 10 0 -15 10.8 0 -15 10.4 0 
-14.6667 10 0 -15 10.2 0 -15 10 0 
-14.1667 10 0 -15 10.6 0 -14.8333 10 0 
-14.5 10 0 -14 10 0 -12.2 10 0 
-13 10 0 -12.6 10 0 -12.4 10 0 
-12.8 10 0 -11.2 10 0 -11.6 10 0 
-12 10 0 -11.4 10 0 -11.8 10 0 
-10.4 10 0 -11 10 0 -10.6 10 0 
-10.8 10 0 -10.2 10 0 -9.2 10 0 
-9.4 10 0 -9.6 10 0 -10 10 0 
-9.8 10 0 -9 10.2 0 -8.6429 10 0 
-9 10.6 0 -9 10.8 0 -8.4643 10 0 
-9 10.4 0 -9 10 0 -8.1071 10 0 
-8.2857 10 0 -8.8214 10 0 -7.75 10 0 
-7.2143 10 0 -7.9286 10 0 -7.5714 10 0 
-7.0357 10 0 -7.3929 10 0 -6.6786 10 0 
-6.5 10 0 -6.8571 10 0 -5.1429 10 0 
-5.3214 10 0 -5.5 10 0 -4.0714 10 0 
-4.9643 10 0 -4.6071 10 0 -4.4286 10 0 
-4.7857 10 0 -4.25 10 0 -3.7143 10 0 
-3.5357 10 0 -3.3571 10 0 -3.1786 10 0 
-3.8929 10 0 -2.4 10 0 -2.2 10 0 
-2.8 10 0 -3 10 0 -3 10.8 0 
-3 10.4 0 -3 10.2 0 -3 10.6 0 
-2.6 10 0 -1.8 10 0 -1.2 10 0 
-1.6 10 0 -2 10 0 -1.4 10 0 
-1 10 0 -0.8 10 0 -0.4 10 0 
-0.2 10 0 -0.6 10 0 0.2 10 0 
-0 10 0 0.6 10 0 0.4 10 0 
0.8 10 0 1 10 0 1.4 10 0 
1.6 10 0 1.2 10 0 1.8 10 0 
2.2 10 0 2.4 10 0 2.6 10 0 
2 10 0 2.8 10 0 3.4 10 0 
3.6 10 0 3.8 10 0 3 10 0 
3.2 10 0 4.2 10 0 4 10 0 
4.6 10 0 4.8 10 0 4.4 10 0 
5.8 10 0 5.4 10 0 5.6 10 0 
5.2 10 0 5 10 0 6.6 10 0 
6.2 10 0 6.4 10 0 6.8 10 0 
6 10 0 7.4 10 0 7.2 10 0 
7.8 10 0 7 10 0 7.6 10 0 
8.2 10 0 8.6 10 0 8.4 10 0 
8 10 0 8.8 10 0 9 10.4 0 
9.8 10 0 9 10.8 0 9.2 10 0 
9 10.2 0 9 10 0 9.6 10 0 
9.4 10 0 9 10.6 0 10 10 0 
10.2 10 0 10.4 10 0 10.6 10 0 
10.8 10 0 11 10 0 11.2 10 0 
11.4 10 0 11.6 10 0 11.8 10 0 
12 10 0 12.8 10 0 12.2 10 0 
12.4 10 0 12.6 10 0 13 10 0 
14.6667 10 0 14.3333 10 0 14.8333 10 0 
14.5 10 0 14 10 0 14.1667 10 0 
15 10.2 0 15 10.4 0 15 10.8 0 
15 10.6 0 15 10 0 -15 11.4 0 
-15 11.8 0 -15 11.2 0 -15 11.6 0 
-15 11 0 -9 11.4 0 -9 11.6 0 
-9 11 0 -9 11.2 0 -9 11.8 0 
-3 11 0 -3 11.2 0 -3 11.8 0 
-3 11.6 0 -3 11.4 0 9 11.8 0 
9 11.4 0 9 11.2 0 9 11 0 
9 11.6 0 15 11.2 0 15 11.4 0 
15 11.8 0 15 11.6 0 15 11 0 
-15 12 0 -15 12.6 0 -15 12.4 0 
-15 12.8 0 -15 12.2 0 -9 12 0 
-9 12.2 0 -9 12.4 0 -9 12.8 0 
-9 12.6 0 -3 12.8 0 -3 12.6 0 
-3 12.2 0 -3 12 0 -3 12.4 0 
9 12.6 0 9 12 0 9 12.2 0 
9 12.4 0 9 12.8 0 15 12.6 0 
15 12.4 0 15 12 0 15 12.8 0 
15 12.2 0 -15 13 0 -15 13.6 0 
-15 13.4 0 -15 13.2 0 -15 13.8 0 
-9 13.4 0 -9 13.2 0 -9 13.6 0 
-9 13 0 -9 13.8 0 -3 13.2 0 
-3 13.4 0 -3 13 0 -3 13.8 0 
-3 13.6 0 9 13.4 0 9 13.6 0 
9 13.2 0 9 13 0 9 13.8 0 
15 13 0 15 13.4 0 15 13.8 0 
15 13.2 0 15 13.6 0 -15 14 0 
-15 14.2 0 -15 14.6 0 -15 14.8 0 
-15 14.4 0 -9 14.4 0 -9 14.2 0 
-9 14 0 -9 14.8 0 -9 14.6 0 
-3 14.6 0 -3 14.8 0 -3 14.2 0 
-3 14 0 -3 14.4 0 9 14 0 
15 14.6 0 15 14 0 15 14.8 0 
15 14.4 0 15 14.2 0 -15 15 0 
-15 15.4 0 -15 15.8 0 -15 15.2 0 
-15 15.6 0 -9 15.4 0 -9 15.2 0 
-9 15 0 -9 15.8 0 -9 15.6 0 
-3 15.2 0 -3 15.8 0 -3 15.4 0 
-3 15 0 -3 15.6 0 9 15.1667 0 
9 15.3333 0 9 15 0 9 15.6667 0 
9 15.5 0 9 15.8333 0 15 15.8 0 
15 15 0 15 15.6 0 15 15.4 0 
15 15.2 0 -14.2 16 0 -14.8 16 0 
-15 16 0 -14.4 16 0 -14.6 16 0 
-13.2 16 0 -13.8 16 0 -14 16 0 
-13.6 16 0 -13.4 16 0 -12.4 16 0 
-13 16 0 -12.6 16 0 -12.2 16 0 
-12.8 16 0 -11.6 16 0 -11.8 16 0 
-11.4 16 0 -11.2 16 0 -12 16 0 
-10.6 16 0 -10.2 16 0 -11 16 0 
-10.8 16 0 -10.4 16 0 -10 16 0 
-9.2 16 0 -9.6 16 0 -9.4 16 0 
-9.8 16 0 -8.2 16 0 -8.4 16 0 
-9 16 0 -8.8 16 0 -8.6 16 0 
-8 16 0 -7.4 16 0 -7.2 16 0 
-7.6 16 0 -7.8 16 0 -6.4 16 0 
-6.8 16 0 -6.6 16 0 -7 16 0 
-6.2 16 0 -5.8 16 0 -5.6 16 0 
-5.2 16 0 -6 16 0 -5.4 16 0 
-5 16 0 -4.6 16 0 -4.2 16 0 
-4.4 16 0 -4.8 16 0 -4 16 0 
-3.4 16 0 -3.8 16 0 -3.6 16 0 
-3.2 16 0 -2.6 16 0 -2.2 16 0 
-3 16 0 -2.8 16 0 -2.4 16 0 
-1.4 16 0 -1.6 16 0 -1.8 16 0 
-1.2 16 0 -2 16 0 -0.2 16 0 
-1 16 0 -0.8 16 0 -0.6 16 0 
-0.4 16 0 0.4 16 0 -0 16 0 
0.6 16 0 0.8 16 0 0.2 16 0 
1.4 16 0 1.6 16 0 1.2 16 0 
1.8 16 0 1 16 0 2 16 0 
2.8 16 0 2.2 16 0 2.4 16 0 
2.6 16 0 3.4 16 0 3 16 0 
3.8 16 0 3.2 16 0 3.6 16 0 
4 16 0 4.2 16 0 4.4 16 0 
4.6 16 0 4.8 16 0 5.8 16 0 
5 16 0 5.4 16 0 5.2 16 0 
5.6 16 0 6.4 16 0 6.8 16 0 
6.6 16 0 6.2 16 0 6 16 0 
7.4 16 0 7 16 0 7.6 16 0 
7.8 16 0 7.2 16 0 8.6 16 0 
8.8 16 0 8 16 0 8.4 16 0 
8.2 16 0 9 16 0 9.2 16 0 
9.8 16 0 9.4 16 0 9.6 16 0 
10 16 0 10.2 16 0 10.4 16 0 
10.6 16 0 10.8 16 0 11.4 16 0 
11.8 16 0 11 16 0 11.6 16 0 
11.2 16 0 12.4 16 0 12.8 16 0 
12.6 16 0 12.2 16 0 12 16 0 
13 16 0 13.8 16 0 13.4 16 0 
13.6 16 0 13.2 16 0 14.8 16 0 
14 16 0 14.2 16 0 14.4 16 0 
14.6 16 0 15 16 0 
VERTICES 2098 2098
1 0 
1 1 
1 2 
1 3 
1 4 
1 5 
1 6 
1 7 
1 8 
1 9 
1 10 
1 11 
1 12 
1 13 
1 14 
1 15 
1 16 
1 17 
1 18 
1 19 
1 20 
1 21 
1 22 
1 23 
1 24 
1 25 
1 26 
1 27 
1 28 
1 29 
1 30 
1 31 
1 32 
1 33 
1 34 
1 35 
1 36 
1 37 
1 38 
1 39 
1 40 
1 41 
1 42 
1 43 
1 44 
1 45 
1 46 
1 47 
1 48 
1 49 
1 50 
1 51 
1 52 
1 53 
1 54 
1 55 
1 56 
1 57 
1 58 
1 59 
1 60 
1 61 
1 62 
1 63 
1 64 
1 65 
1 66 
1 67 
1 68 
1 69 
1 70 
1 71 
1 72 
1 73 
1 74 
1 75 
1 76 
1 77 
1 78 
1 79 
1 80 
1 81 
1 82 
1 83 
1 84 
1 85 
1 86 
1 87 
1 88 
1 89 
1 90 
1 91 
1 92 
1 93 
1 94 
1 95 
1 96 
1 97 
1 98 
1 99 
1 100 
1 101 
1 102 
1 103 
1 104 
1 105 
1 106 
1 107 
1 108 
1 109 
1 110 
1 111 
1 112 
1 113 
1 114 
1 115 
1 116 
1 117 
1 118 
1 119 
1 120 
1 121 
1 122 
1 123 
1 124 
1 125 
1 126 
1 127 
1 128 
1 129 
1 130 
1 131 
1 132 
1 133 
1 134 
1 135 
1 136 
1 137 
1 138 
1 139 
1 140 
1 141 
1 142 
1 143 
1 144 
1 145 
1 146 
1 147 
1 148 
1 149 
1 150 
1 151 
1 152 
1 153 
1 154 
1 155 
1 156 
1 157 
1 158 
1 159 
1 160 
1 161 
1 162 
1 163 
1 164 
1 165 
1 166 
1 167 
1 168 
1 169 
1 170 
1 171 
1 172 
1 173 
1 174 
1 175 
1 176 
1 177 
1 178 
1 179 
1 180 
1 181 
1 182 
1 183 
1 184 
1 185 
1 186 
1 187 
1 188 
1 189 
1 190 
1 191 
1 192 
1 193 
1 194 
1 195 
1 196 
1 197 
1 198 
1 199 
1 200 
1 201 
1 202 
1 203 
1 204 
1 205 
1 206 
1 207 
1 208 
1 209 
1 210 
1 211 
1 212 
1 213 
1 214 
1 215 
1 216 
1 217 
1 218 
1 219 
1 220 
1 221 
1 222 
1 223 
1 224 
1 225 
1 226 
1 227 
1 228 
1 229 
1 230 
1 231 
1 232 
1 233 
1 234 
1 235 
1 236 
1 237 
1 238 
1 239 
1 240 
1 241 
1 242 
1 243 
1 244 
1 245 
1 246 
1 247 
1 248 
1 249 
1 250 
1 251 
1 252 
1 253 
1 254 
1 255 
1 256 
1 257 
1 258 
1 259 
1 260 
1 261 
1 262 
1 263 
1 264 
1 265 
1 266 
1 267 
1 268 
1 269 
1 270 
1 271 
1 272 
1 273 
1 274 
1 275 
1 276 
1 277 
1 278 
1 279 
1 280 
1 281 
1 282 
1 283 
1 284 
1 285 
1 286 
1 287 
1 288 
1 289 
1 290 
1 291 
1 292 
1 293 
1 294 
1 295 
1 296 
1 297 
1 298 
1 299 
1 300 
1 301 
1 302 
1 303 
1 304 
1 305 
1 306 
1 307 
1 308 
1 309 
1 310 
1 311 
1 312 
1 313 
1 314 
1 315 
1 316 
1 317 
1 318 
1 319 
1 320 
1 321 
1 322 
1 323 
1 324 
1 325 
1 326 
1 327 
1 328 
1 329 
1 330 
1 331 
1 332 
1 333 
1 334 
1 335 
1 336 
1 337 
1 338 
1 339 
1 340 
1 341 
1 342 
1 343 
1 344 
1 345 
1 346 
1 347 
1 348 
1 349 
1 350 
1 351 
1 352 
1 353 
1 354 
1 355 
1 356 
1 357 
1 358 
1 359 
1 360 
1 361 
1 362 
1 363 
1 364 
1 365 
1 366 
1 367 
1 368 
1 369 
1 370 
1 371 
1 372 
1 373 
1 374 
1 375 
1 376 
1 377 
1 378 
1 379 
1 380 
1 381 
1 382 
1 383 
1 384 
1 385 
1 386 
1 387 
1 388 
1 389 
1 390 
1 391 
1 392 
1 393 
1 394 
1 395 
1 396 
1 397 
1 398 
1 399 
1 400 
1 401 
1 402 
1 403 
1 404 
1 405 
1 406 
1 407 
1 408 
1 409 
1 410 
1 411 
1 412 
1 413 
1 414 
1 415 
1 416 
1 417 
1 418 
1 419 
1 420 
1 421 
1 422 
1 423 
1 424 
1 425 
1 426 
1 427 
1 428 
1 429 
1 430 
1 431 
1 432 
1 433 
1 434 
1 435 
1 436 
1 437 
1 438 
1 439 
1 440 
1 441 
1 442 
1 443 
1 444 
1 445 
1 446 
1 447 
1 448 
1 449 
1 450 
1 451 
1 452 
1 453 
1 454 
1 455 
1 456 
1 457 
1 458 
1 459 
1 460 
1 461 
1 462 
1 463 
1 464 
1 465 
1 466 
1 467 
1 468 
1 469 
1 470 
1 471 
1 472 
1 473 
1 474 
1 475 
1 476 
1 477 
1 478 
1 479 
1 480 
1 481 
1 482 
1 483 
1 484 
1 485 
1 486 
1 487 
1 488 
1 489 
1 490 
1 491 
1 492 
1 493 
1 494 
1 495 
1 496 
1 497 
1 498 
1 499 
1 500 
1 501 
1 502 
1 503 
1 504 
1 505 
1 506 
1 507 
1 508 
1 509 
1 510 
1 511 
1 512 
1 513 
1 514 
1 515 
1 516 
1 517 
1 518 
1 519 
1 520 
1 521 
1 522 
1 523 
1 524 
1 525 
1 526 
1 527 
1 528 
1 529 
1 530 
1 531 
1 532 
1 533 
1 534 
1 535 
1 536 
1 537 
1 538 
1 539 
1 540 
1 541 
1 542 
1 543 
1 544 
1 545 
1 546 
1 547 
1 548 
1 549 
1 550 
1 551 
1 552 
1 553 
1 554 
1 555 
1 556 
1 557 
1 558 
1 559 
1 560 
1 561 
1 562 
1 563 
1 564 
1 565 
1 566 
1 567 
1 568 
1 569 
1 570 
1 571 
1 572 
1 573 
1 574 
1 575 
1 576 
1 577 
1 578 
1 579 
1 580 
1 581 
1 582 
1 583 
1 584 
1 585 
1 586 
1 587 
1 588 
1 589 
1 590 
1 591 
1 592 
1 593 
1 594 
1 595 
1 596 
1 597 
1 598 
1 599 
1 600 
1 601 
1 602 
1 603 
1 604 
1 605 
1 606 
1 607 
1 608 
1 609 
1 610 
1 611 
1 612 
1 613 
1 614 
1 615 
1 616 
1 617 
1 618 
1 619 
1 620 
1 621 
1 622 
1 623 
1 624 
1 625 
1 626 
1 627 
1 628 
1 629 
1 630 
1 631 
1 632 
1 633 
1 634 
1 635 
1 636 
1 637 
1 638 
1 639 
1 640 
1 641 
1 642 
1 643 
1 644 
1 645 
1 646 
1 647 
1 648 
1 649 
1 650 
1 651 
1 652 
1 653 
1 654 
1 655 
1 656 
1 657 
1 658 
1 659 
1 660 
1 661 
1 662 
1 663 
1 664 
1 665 
1 666 
1 667 
1 668 
1 669 
1 670 
1 671 
1 672 
1 673 
1 674 
1 675 
1 676 
1 677 
1 678 
1 679 
1 680 
1 681 
1 682 
1 683 
1 684 
1 685 
1 686 
1 687 
1 688 
1 689 
1 690 
1 691 
1 692 
1 693 
1 694 
1 695 
1 696 
1 697 
1 698 
1 699 
1 700 
1 701 
1 702 
1 703 
1 704 
1 705 
1 706 
1 707 
1 708 
1 709 
1 710 
1 711 
1 712 
1 713 
1 714 
1 715 
1 716 
1 717 
1 718 
1 719 
1 720 
1 721 
1 722 
1 723 
1 724 
1 725 
1 726 
1 727 
1 728 
1 729 
1 730 
1 731 
1 732 
1 733 
1 734 
1 735 
1 736 
1 737 
1 738 
1 739 
1 740 
1 741 
1 742 
1 743 
1 744 
1 745 
1 746 
1 747 
1 748 
1 749 
1 750 
1 751 
1 752 
1 753 
1 754 
1 755 
1 756 
1 757 
1 758 
1 759 
1 760 
1 761 
1 762 
1 763 
1 764 
1 765 
1 766 
1 767 
1 768 
1 769 
1 770 
1 771 
1 772 
1 773 
1 774 
1 775 
1 776 
1 777 
1 778 
1 779 
1 780 
1 781 
1 782 
1 783 
1 784 
1 785 
1 786 
1 787 
1 788 
1 789 
1 790 
1 791 
1 792 
1 793 
1 794 
1 795 
1 796 
1 797 
1 798 
1 799 
1 800 
1 801 
1 802 
1 803 
1 804 
1 805 
1 806 
1 807 
1 808 
1 809 
1 810 
1 811 
1 812 
1 813 
1 814 
1 815 
1 816 
1 817 
1 818 
1 819 
1 820 
1 821 
1 822 
1 823 
1 824 
1 825 
1 826 
1 827 
1 828 
1 829 
1 830 
1 831 
1 832 
1 833 
1 834 
1 835 
1 836 
1 837 
1 838 
1 839 
1 840 
1 841 
1 842 
1 843 
1 844 
1 845 
1 846 
1 847 
1 848 
1 849 
1 850 
1 851 
1 852 
1 853 
1 854 
1 855 
1 856 
1 857 
1 858 
1 859 
1 860 
1 861 
1 862 
1 863 
1 864 
1 865 
1 866 
1 867 
1 868 
1 869 
1 870 
1 871 
1 872 
1 873 
1 874 
1 875 
1 876 
1 877 
1 878 
1 879 
1 880 
1 881 
1 882 
1 883 
1 884 
1 885 
1 886 
1 887 
1 888 
1 889 
1 890 
1 891 
1 892 
1 893 
1 894 
1 895 
1 896 
1 897 
1 898 
1 899 
1 900 
1 901 
1 902 
1 903 
1 904 
1 905 
1 906 
1 907 
1 908 
1 909 
1 910 
1 911 
1 912 
1 913 
1 914 
1 915 
1 916 
1 917 
1 918 
1 919 
1 920 
1 921 
1 922 
1 923 
1 924 
1 925 
1 926 
1 927 
1 928 
1 929 
1 930 
1 931 
1 932 
1 933 
1 934 
1 935 
1 936 
1 937 
1 938 
1 939 
1 940 
1 941 
1 942 
1 943 
1 944 
1 945 
1 946 
1 947 
1 948 
1 949 
1 950 
1 951 
1 952 
1 953 
1 954 
1 955 
1 956 
1 957 
1 958 
1 959 
1 960 
1 961 
1 962 
1 963 
1 964 
1 965 
1 966 
1 967 
1 968 
1 969 
1 970 
1 971 
1 972 
1 973 
1 974 
1 975 
1 976 
1 977 
1 978 
1 979 
1 980 
1 981 
1 982 
1 983 
1 984 
1 985 
1 986 
1 987 
1 988 
1 989 
1 990 
1 991 
1 992 
1 993 
1 994 
1 995 
1 996 
1 997 
1 998 
1 999 
1 1000 
1 1001 
1 1002 
1 1003 
1 1004 
1 1005 
1 1006 
1 1007 
1 1008 
1 1009 
1 1010 
1 1011 
1 1012 
1 1013 
1 1014 
1 1015 
1 1016 
1 1017 
1 1018 
1 1019 
1 1020 
1 1021 
1 1022 
1 1023 
1 1024 
1 1025 
1 1026 
1 1027 
1 1028 
1 1029 
1 1030 
1 1031 
1 1032 
1 1033 
1 1034 
1 1035 
1 1036 
1 1037 
1 1038 
1 1039 
1 1040 
1 1041 
1 1042 
1 1043 
1 1044 
1 1045 
1 1046 
1 1047 
1 1048 

POINT_DATA 1049
SCALARS id double
LOOKUP_TABLE default
978 980 1032 993 1027 964 1020 933 1040 
995 966 983 1005 1004 1045 1036 977 945 
955 1048 1028 976 951 1026 1042 954 936 
969 1008 1041 1047 990 947 972 975 1024 
941 930 960 1037 987 998 985 989 1038 
1018 939 1014 942 1033 1016 968 932 999 
973 1022 962 1009 929 984 1007 953 965 
1043 988 986 1029 950 997 1030 1012 992 
1025 1019 949 994 979 1011 1044 1015 935 
952 967 971 1000 958 937 959 943 957 
946 1021 1031 944 1017 934 931 1003 940 
1002 1035 1001 956 1013 1046 961 42 390 
40 39 43 388 391 41 389 0 45 
48 47 44 49 46 51 1 50 52 
2 53 57 59 55 56 58 54 60 
63 61 64 62 395 66 392 394 68 
65 393 3 67 69 71 70 72 73 
74 78 77 76 75 79 81 83 80 
82 87 88 85 84 86 89 91 93 
90 92 95 494 495 97 4 94 492 
96 493 98 101 99 102 100 104 103 
106 107 105 110 112 108 109 111 113 
114 115 116 117 121 118 122 119 120 
125 559 557 123 124 126 558 5 560 
129 127 131 128 130 136 135 133 134 
132 141 137 139 140 138 142 144 145 
143 146 151 147 148 149 150 156 153 
152 589 154 587 6 590 588 155 159 
157 162 161 160 158 164 163 7 974 
981 165 166 938 948 1039 8 168 170 
172 171 167 169 173 174 176 175 177 
179 181 178 9 180 385 384 386 383 
387 1034 399 396 398 397 400 488 487 
491 489 490 555 553 554 552 556 592 
593 591 594 595 1010 1023 182 185 186 
183 184 382 378 380 379 381 1006 402 
403 404 401 405 486 485 484 483 482 
550 547 551 549 548 599 597 598 600 
596 189 187 191 190 188 374 376 373 
377 375 963 407 408 409 406 410 479 
480 477 481 478 545 543 546 544 542 
605 602 601 604 603 991 192 194 193 
195 196 368 371 370 372 369 413 415 
411 414 412 474 476 472 473 475 540 
538 537 541 539 608 609 607 610 606 
982 197 200 198 201 199 365 363 366 
367 364 416 419 417 420 418 471 467 
468 469 470 535 536 534 533 532 613 
612 614 611 615 204 202 206 205 203 
361 358 360 362 359 424 425 423 421 
422 464 462 466 465 463 531 529 528 
530 527 616 619 617 618 620 970 207 
208 211 209 210 353 354 356 357 355 
430 426 429 427 428 458 457 461 459 
460 526 522 523 525 524 623 621 625 
622 624 996 213 215 216 214 212 349 
352 348 351 350 435 434 10 432 431 
433 437 440 439 441 436 438 442 11 
443 445 12 444 446 448 450 447 449 
451 452 453 454 456 455 497 13 496 
499 500 498 502 505 503 506 504 501 
14 508 507 510 509 15 515 512 514 
511 513 516 517 518 520 521 519 562 
563 564 561 565 16 569 570 568 571 
566 567 17 573 572 18 575 574 576 
580 577 579 581 578 582 583 584 586 
585 19 34 219 221 220 218 217 344 
345 347 343 346 223 225 226 222 224 
663 339 341 661 342 20 664 340 660 
662 21 668 22 666 667 665 673 671 
669 672 670 677 674 676 675 678 683 
682 681 679 680 684 714 686 687 715 
685 23 717 716 713 719 722 718 720 
723 721 725 36 724 727 726 37 733 
728 730 731 729 732 735 736 737 738 
734 741 742 739 24 634 632 631 633 
740 744 747 745 743 746 748 749 751 
752 750 754 753 756 755 757 758 760 
761 759 762 764 765 766 763 767 770 
771 772 768 769 774 773 776 777 775 
782 780 781 779 778 786 784 785 787 
783 790 789 792 788 791 794 796 795 
793 797 818 801 820 798 817 35 800 
799 819 802 803 804 805 806 807 808 
809 810 811 812 816 813 814 815 25 
627 629 626 628 26 630 227 228 230 
229 27 336 334 337 335 338 690 691 
688 689 692 635 636 639 638 637 825 
823 822 821 824 232 233 235 234 231 
333 330 331 329 332 693 694 695 697 
696 644 643 641 640 642 829 826 827 
828 830 239 238 236 240 237 328 325 
326 327 324 700 699 701 698 702 646 
647 645 649 648 833 834 832 831 835 
241 243 245 242 244 323 322 320 319 
321 705 704 703 707 706 653 654 651 
650 652 29 249 246 250 248 247 318 
316 314 317 315 710 709 708 712 711 
656 659 657 655 658 924 925 28 927 
926 928 255 251 254 253 252 310 313 
30 311 312 305 308 309 307 306 301 
304 302 300 303 297 298 296 295 299 
292 290 294 293 291 289 285 287 286 
288 281 282 31 284 283 280 277 276 
278 279 272 274 273 275 271 269 268 
266 270 267 265 263 261 262 264 260 
257 259 258 256 837 839 32 836 838 
843 842 841 844 840 849 845 846 847 
848 852 850 853 854 851 857 858 856 
859 855 860 864 861 862 863 867 865 
869 866 868 870 871 872 873 874 879 
875 877 876 878 882 884 883 881 880 
887 885 888 889 886 893 894 890 892 
891 38 895 898 896 897 899 900 901 
902 903 906 908 904 907 905 911 913 
912 910 909 914 918 916 917 915 923 
919 920 921 922 33 
FIELD FieldData 14
r 3 1049 double
-1.42702 -11.0506 0 -0.0808365 -11.515 0 -0.67872 -11.4126 0 
-0.286556 -11.0327 0 0.287465 -11.1117 0 0.786485 -11.3986 0 
1.24776 -11.0153 0 -1.08434 -10.0003 0 -1.27394 -10.5109 0 
-1.66041 -10.1102 0 -0.0547796 -10.3467 0 -0.394635 -10.6044 0 
-0.408516 -10.048 0 -0.73103 -10.3114 0 -0.835763 -10.8541 0 
0.0422534 -10.0032 0 0.040136 -10.7372 0 0.418456 -10.5048 0 
0.527405 -10.1546 0 0.742966 -10.8667 0 1.4616 -10.0816 0 
1.04163 -10.4578 0 1.59643 -10.5764 0 -1.90512 -9.57334 0 
-1.53518 -9.10703 0 -1.39165 -9.59782 0 -0.999082 -9.13532 0 
-0.12727 -9.28714 0 -0.939574 -9.57137 0 -0.583355 -9.7155 0 
-0.566238 -9.25327 0 -0.225673 -9.60614 0 0.300992 -9.29767 0 
0.970832 -9.96648 0 0.589136 -9.76572 0 0.203098 -9.76831 0 
0.77247 -9.44313 0 0.963724 -9.06532 0 1.47591 -9.16963 0 
1.26991 -9.61342 0 1.94759 -9.43096 0 -2.56921 -8.59864 0 
-1.91625 -8.64081 0 -1.16115 -8.56401 0 -1.78051 -8.02306 0 
-0.272935 -8.40421 0 -0.312491 -8.88651 0 -0.659607 -8.71567 0 
0.0576117 -8.77572 0 0.517958 -8.80502 0 0.73238 -8.29446 0 
0.209564 -8.30164 0 1.8876 -8.86581 0 1.89906 -8.31055 0 
1.38731 -8.07417 0 1.24075 -8.6181 0 2.4494 -8.81374 0 
2.96006 -8.42374 0 2.44455 -8.26742 0 -3.25202 -7.87602 0 
-3.57289 -7.08674 0 -2.70437 -7.36045 0 -2.61308 -7.96271 0 
1.8654 -7.64432 0 2.42941 -7.74284 0 3.65095 -7.7498 0 
3.2446 -7.19669 0 4.64492 -6.21244 0 5.27689 -6.57054 0 
5.85325 -6.46281 0 -5.99095 -5.63416 0 -5.30372 -5.37648 0 
4.67055 -5.58334 0 4.81608 -5.00254 0 5.94078 -5.15429 0 
5.62283 -5.56064 0 5.18924 -5.91477 0 6.05993 -5.98266 0 
6.38378 -5.53898 0 7.33841 -5.46027 0 -8.34429 -4.2813 0 
-7.82156 -4.43735 0 -7.41561 -4.8435 0 -6.59827 -4.4601 0 
-5.76072 -4.95432 0 5.41127 -4.92983 0 6.08398 -4.60891 0 
6.76991 -4.3361 0 6.94813 -4.97092 0 7.67848 -4.04866 0 
8.09397 -4.50132 0 -9.31339 -3.06341 0 -8.32642 -3.14596 0 
-7.45858 -3.95576 0 -7.66133 -3.06657 0 7.2728 -3.61691 0 
8.25482 -3.15091 0 -8.96719 -2.47978 0 9.17652 -2.91539 0 
9.53506 -2.08363 0 10.2345 -1.70189 0 10.6849 -1.12733 0 
10.8408 -1.93135 0 11.5641 -1.22499 0 11.2068 -0.681595 0 
11.8308 -0.312642 0 -14.2857 0 0 -15 0.4 0 
-14.6429 0 0 -14.8214 0 0 -14.1071 0 0 
-15 0.8 0 -15 0.2 0 -14.4643 0 0 
-15 0.6 0 -15 0 0 -13.75 0 0 
-13.2143 0 0 -13.3929 0 0 -13.9286 0 0 
-13.0357 0 0 -13.5714 0 0 -12.6786 0 0 
-12.5 0 0 -12.8571 0 0 -11.3214 0 0 
-11.5 0 0 -11.1429 0 0 -10.4286 0 0 
-10.0714 0 0 -10.7857 0 0 -10.6071 0 0 
-10.25 0 0 -10.9643 0 0 -9.8929 0 0 
-9.3571 0 0 -9.7143 0 0 -9.1786 0 0 
-9.5357 0 0 -9 0.8 0 -8.6 0 0 
-9 0.2 0 -9 0.6 0 -8.2 0 0 
-8.8 0 0 -9 0.4 0 -9 0 0 
-8.4 0 0 -8 0 0 -7.6 0 0 
-7.8 0 0 -7.4 0 0 -7.2 0 0 
-7 0 0 -6.2 0 0 -6.4 0 0 
-6.6 0 0 -6.8 0 0 -6 0 0 
-5.6 0 0 -5.2 0 0 -5.8 0 0 
-5.4 0 0 -4.4 0 0 -4.2 0 0 
-4.8 0 0 -5 0 0 -4.6 0 0 
-4 0 0 -3.6 0 0 -3.2 0 0 
-3.8 0 0 -3.4 0 0 -2.6 0 0 
-3 0.4 0 -3 0.2 0 -2.2 0 0 
-3 0 0 -2.8 0 0 -3 0.8 0 
-2.4 0 0 -3 0.6 0 -2 0 0 
-1.4 0 0 -1.8 0 0 -1.2 0 0 
-1.6 0 0 -0.8 0 0 -1 0 0 
-0.4 0 0 -0.2 0 0 -0.6 0 0 
0.4 0 0 0.8 0 0 -0 0 0 
0.2 0 0 0.6 0 0 1 0 0 
1.2 0 0 1.4 0 0 1.6 0 0 
1.8 0 0 2.6 0 0 2 0 0 
2.8 0 0 2.2 0 0 2.4 0 0 
3.6 0 0 3 0.4 0 3 0.8 0 
3.2 0 0 3.4 0 0 3.8 0 0 
3 0.6 0 3 0 0 3 0.2 0 
4.4 0 0 4 0 0 4.8 0 0 
4.2 0 0 4.6 0 0 5.8 0 0 
5.6 0 0 5.2 0 0 5.4 0 0 
5 0 0 6.8 0 0 6 0 0 
6.4 0 0 6.6 0 0 6.2 0 0 
7 0 0 7.4 0 0 7.6 0 0 
7.2 0 0 7.8 0 0 8.8 0 0 
8 0 0 8.2 0 0 8.4 0 0 
8.6 0 0 9.8929 0 0 9.3571 0 0 
9.1786 0 0 9 0.6 0 9.5357 0 0 
9 0.2 0 9 0 0 9 0.8 0 
9 0.4 0 9.7143 0 0 10.4286 0 0 
10.0714 0 0 10.9643 0 0 10.7857 0 0 
10.6071 0 0 10.25 0 0 11.3214 0 0 
11.1429 0 0 11.5 0 0 11.3835 0.364892 0 
11.6023 0.820735 0 12.6786 0 0 12.8571 0 0 
12.4831 0.761212 0 12.5472 0.297464 0 12.01 0.331573 0 
12.5 0 0 13.2143 0 0 13.5714 0 0 
13.9286 0 0 13.75 0 0 13.0357 0 0 
13.3929 0 0 14.1071 0 0 14.2857 0 0 
14.6429 0 0 14.4643 0 0 14.8214 0 0 
15 0.4 0 15 0.8 0 15 0.2 0 
15 0 0 15 0.6 0 -15 1.4 0 
-15 1.6 0 -15 1.2 0 -15 1.8 0 
-15 1 0 -11.5832 1.95559 0 -9 1.6 0 
-9 1 0 -9 1.4 0 -9 1.2 0 
-9 1.8 0 -3 1.6 0 -3 1.8 0 
-3 1 0 -3 1.4 0 -3 1.2 0 
3 1.2 0 3 1.6 0 3 1.4 0 
3 1.8 0 3 1 0 9 1.2 0 
9 1.4 0 9 1 0 9 1.6 0 
9 1.8 0 11.484 1.38935 0 12.0627 1.11386 0 
15 1 0 15 1.6 0 15 1.8 0 
15 1.2 0 15 1.4 0 -15 2 0 
-15 2.8 0 -15 2.4 0 -15 2.6 0 
-15 2.2 0 -11.1822 2.34381 0 -9 2.2 0 
-9 2.4 0 -9 2.6 0 -9 2 0 
-9 2.8 0 -3 2 0 -3 2.2 0 
-3 2.4 0 -3 2.6 0 -3 2.8 0 
3 2.2 0 3 2.8 0 3 2 0 
3 2.4 0 3 2.6 0 9 2.6 0 
9 2.2 0 9 2.4 0 9 2.8 0 
9 2 0 15 2.4 0 15 2 0 
15 2.8 0 15 2.6 0 15 2.2 0 
-15 3.6 0 -15 3.2 0 -15 3.8 0 
-15 3 0 -15 3.4 0 -11.0807 3.09948 0 
-9 3.2 0 -9 3.4 0 -9 3.6 0 
-9 3 0 -9 3.8 0 -3 3.4 0 
-3 3.2 0 -3 3.8 0 -3 3 0 
-3 3.6 0 3 3.2 0 3 3.6 0 
3 3 0 3 3.4 0 3 3.8 0 
9 3.8 0 9 3.2 0 9 3 0 
9 3.6 0 9 3.4 0 12.5125 3.38486 0 
15 3 0 15 3.4 0 15 3.2 0 
15 3.6 0 15 3.8 0 -15 4.8 0 
-15 4.2 0 -15 4.4 0 -15 4 0 
-15 4.6 0 -9 4.4 0 -9 4.8 0 
-9 4 0 -9 4.6 0 -9 4.2 0 
-3 4.4 0 -3 4 0 -3 4.8 0 
-3 4.6 0 -3 4.2 0 3 4.2 0 
3 4.6 0 3 4.8 0 3 4 0 
3 4.4 0 9 4.4 0 9 4.6 0 
9 4.2 0 9 4.8 0 9 4 0 
12.7393 4.87847 0 15 4 0 15 4.6 0 
15 4.2 0 15 4.8 0 15 4.4 0 
-15 5.4 0 -15 5.8 0 -15 5.2 0 
-15 5 0 -15 5.6 0 -9 5 0 
-9 5.6 0 -9 5.2 0 -9 5.8 0 
-9 5.4 0 -3 5 0 -3 5.8 0 
-3 5.6 0 -3 5.4 0 -3 5.2 0 
3 5.2 0 3 5 0 3 5.4 0 
3 5.6 0 3 5.8 0 9 5.4 0 
9 5.2 0 9 5.6 0 9 5 0 
9 5.8 0 15 5.4 0 15 5 0 
15 5.8 0 15 5.6 0 15 5.2 0 
-15 6.2 0 -15 6.8 0 -15 6.4 0 
-15 6 0 -15 6.6 0 -9 6.6 0 
-9 6.8 0 -9 6.4 0 -9 6 0 
-9 6.2 0 -3 6.4 0 -3 6.8 0 
-3 6 0 -3 6.2 0 -3 6.6 0 
3 6 0 3 6.4 0 3 6.6 0 
3 6.2 0 3 6.8 0 9 6 0 
9 6.6 0 9 6.2 0 9 6.4 0 
9 6.8 0 13.0529 6.87491 0 15 6 0 
15 6.2 0 15 6.8 0 15 6.4 0 
15 6.6 0 -15 7.8 0 -15 7.6 0 
-15 7.2 0 -15 7 0 -15 7.4 0 
-9 7.8 0 -9 7 0 -9 7.6 0 
-9 7.2 0 -9 7.4 0 -3 7.6 0 
-3 7.8 0 -3 7 0 -3 7.4 0 
-3 7.2 0 3 7 0 3 7.8 0 
3 7.6 0 3 7.2 0 3 7.4 0 
9 7.4 0 9 7 0 9 7.8 0 
9 7.2 0 9 7.6 0 13.1795 7.79404 0 
15 7.2 0 15 7.6 0 15 7.8 0 
15 7.4 0 15 7 0 -15 8.6 0 
-15 8 0 -15 8.8 0 -15 8.2 0 
-15 8.4 0 -8.1071 8 0 -8.2857 8 0 
-9 8 0 -8.6429 8 0 -8.8214 8 0 
-8.4643 8 0 -7.75 8 0 -7.2143 8 0 
-7.3929 8 0 -7.0357 8 0 -7.9286 8 0 
-7.5714 8 0 -6.8571 8 0 -6.5 8 0 
-6.6786 8 0 -5.1429 8 0 -5.5 8 0 
-5.3214 8 0 -4.9643 8 0 -4.6071 8 0 
-4.25 8 0 -4.7857 8 0 -4.4286 8 0 
-4.0714 8 0 -3.8929 8 0 -3.7143 8 0 
-3.5357 8 0 -3.1786 8 0 -3.3571 8 0 
-2.6429 8 0 -3 8 0 -2.8214 8 0 
-2.2857 8 0 -2.1071 8 0 -2.4643 8 0 
-1.75 8 0 -1.2143 8 0 -1.5714 8 0 
-1.0357 8 0 -1.3929 8 0 -1.9286 8 0 
-0.5 8 0 -0.6786 8 0 -0.8571 8 0 
0.8571 8 0 0.6786 8 0 0.5 8 0 
1.75 8 0 1.2143 8 0 1.5714 8 0 
1.0357 8 0 1.3929 8 0 1.9286 8 0 
2.1071 8 0 2.2857 8 0 2.6429 8 0 
2.8214 8 0 2.4643 8 0 3.3571 8 0 
3.5357 8 0 3.7143 8 0 3.1786 8 0 
3.8929 8 0 3 8 0 4.6071 8 0 
4.7857 8 0 4.4286 8 0 4.9643 8 0 
4.0714 8 0 4.25 8 0 5.5 8 0 
5.3214 8 0 5.1429 8 0 6.5 8 0 
6.8571 8 0 6.6786 8 0 7.0357 8 0 
7.75 8 0 7.2143 8 0 7.5714 8 0 
7.9286 8 0 7.3929 8 0 8.1071 8 0 
8.2857 8 0 8.4643 8 0 8.8214 8 0 
8.6429 8 0 9 8 0 9 8 0 
15 8.4 0 15 8.8 0 15 8.6 0 
15 8.2 0 15 8 0 -15 9.6 0 
-15 9.4 0 -15 9 0 -15 9.8 0 
-15 9.2 0 15 9.2 0 15 9.6 0 
15 9.8 0 15 9 0 15 9.4 0 
-14.3333 10 0 -15 10.8 0 -15 10.4 0 
-14.6667 10 0 -15 10.2 0 -15 10 0 
-14.1667 10 0 -15 10.6 0 -14.8333 10 0 
-14.5 10 0 -14 10 0 -12.2 10 0 
-13 10 0 -12.6 10 0 -12.4 10 0 
-12.8 10 0 -11.2 10 0 -11.6 10 0 
-12 10 0 -11.4 10 0 -11.8 10 0 
-10.4 10 0 -11 10 0 -10.6 10 0 
-10.8 10 0 -10.2 10 0 -9.2 10 0 
-9.4 10 0 -9.6 10 0 -10 10 0 
-9.8 10 0 -9 10.2 0 -8.6429 10 0 
-9 10.6 0 -9 10.8 0 -8.4643 10 0 
-9 10.4 0 -9 10 0 -8.1071 10 0 
-8.2857 10 0 -8.8214 10 0 -7.75 10 0 
-7.2143 10 0 -7.9286 10 0 -7.5714 10 0 
-7.0357 10 0 -7.3929 10 0 -6.6786 10 0 
-6.5 10 0 -6.8571 10 0 -5.1429 10 0 
-5.3214 10 0 -5.5 10 0 -4.0714 10 0 
-4.9643 10 0 -4.6071 10 0 -4.4286 10 0 
-4.7857 10 0 -4.25 10 0 -3.7143 10 0 
-3.5357 10 0 -3.3571 10 0 -3.1786 10 0 
-3.8929 10 0 -2.4 10 0 -2.2 10 0 
-2.8 10 0 -3 10 0 -3 10.8 0 
-3 10.4 0 -3 10.2 0 -3 10.6 0 
-2.6 10 0 -1.8 10 0 -1.2 10 0 
-1.6 10 0 -2 10 0 -1.4 10 0 
-1 10 0 -0.8 10 0 -0.4 10 0 
-0.2 10 0 -0.6 10 0 0.2 10 0 
-0 10 0 0.6 10 0 0.4 10 0 
0.8 10 0 1 10 0 1.4 10 0 
1.6 10 0 1.2 10 0 1.8 10 0 
2.2 10 0 2.4 10 0 2.6 10 0 
2 10 0 2.8 10 0 3.4 10 0 
3.6 10 0 3.8 10 0 3 10 0 
3.2 10 0 4.2 10 0 4 10 0 
4.6 10 0 4.8 10 0 4.4 10 0 
5.8 10 0 5.4 10 0 5.6 10 0 
5.2 10 0 5 10 0 6.6 10 0 
6.2 10 0 6.4 10 0 6.8 10 0 
6 10 0 7.4 10 0 7.2 10 0 
7.8 10 0 7 10 0 7.6 10 0 
8.2 10 0 8.6 10 0 8.4 10 0 
8 10 0 8.8 10 0 9 10.4 0 
9.8 10 0 9 10.8 0 9.2 10 0 
9 10.2 0 9 10 0 9.6 10 0 
9.4 10 0 9 10.6 0 10 10 0 
10.2 10 0 10.4 10 0 10.6 10 0 
10.8 10 0 11 10 0 11.2 10 0 
11.4 10 0 11.6 10 0 11.8 10 0 
12 10 0 12.8 10 0 12.2 10 0 
12.4 10 0 12.6 10 0 13 10 0 
14.6667 10 0 14.3333 10 0 14.8333 10 0 
14.5 10 0 14 10 0 14.1667 10 0 
15 10.2 0 15 10.4 0 15 10.8 0 
15 10.6 0 15 10 0 -15 11.4 0 
-15 11.8 0 -15 11.2 0 -15 11.6 0 
-15 11 0 -9 11.4 0 -9 11.6 0 
-9 11 0 -9 11.2 0 -9 11.8 0 
-3 11 0 -3 11.2 0 -3 11.8 0 
-3 11.6 0 -3 11.4 0 9 11.8 0 
9 11.4 0 9 11.2 0 9 11 0 
9 11.6 0 15 11.2 0 15 11.4 0 
15 11.8 0 15 11.6 0 15 11 0 
-15 12 0 -15 12.6 0 -15 12.4 0 
-15 12.8 0 -15 12.2 0 -9 12 0 
-9 12.2 0 -9 12.4 0 -9 12.8 0 
-9 12.6 0 -3 12.8 0 -3 12.6 0 
-3 12.2 0 -3 12 0 -3 12.4 0 
9 12.6 0 9 12 0 9 12.2 0 
9 12.4 0 9 12.8 0 15 12.6 0 
15 12.4 0 15 12 0 15 12.8 0 
15 12.2 0 -15 13 0 -15 13.6 0 
-15 13.4 0 -15 13.2 0 -15 13.8 0 
-9 13.4 0 -9 13.2 0 -9 13.6 0 
-9 13 0 -9 13.8 0 -3 13.2 0 
-3 13.4 0 -3 13 0 -3 13.8 0 
-3 13.6 0 9 13.4 0 9 13.6 0 
9 13.2 0 9 13 0 9 13.8 0 
15 13 0 15 13.4 0 15 13.8 0 
15 13.2 0 15 13.6 0 -15 14 0 
-15 14.2 0 -15 14.6 0 -15 14.8 0 
-15 14.4 0 -9 14.4 0 -9 14.2 0 
-9 14 0 -9 14.8 0 -9 14.6 0 
-3 14.6 0 -3 14.8 0 -3 14.2 0 
-3 14 0 -3 14.4 0 9 14 0 
15 14.6 0 15 14 0 15 14.8 0 
15 14.4 0 15 14.2 0 -15 15 0 
-15 15.4 0 -15 15.8 0 -15 15.2 0 
-15 15.6 0 -9 15.4 0 -9 15.2 0 
-9 15 0 -9 15.8 0 -9 15.6 0 
-3 15.2 0 -3 15.8 0 -3 15.4 0 
-3 15 0 -3 15.6 0 9 15.1667 0 
9 15.3333 0 9 15 0 9 15.6667 0 
9 15.5 0 9 15.8333 0 15 15.8 0 
15 15 0 15 15.6 0 15 15.4 0 
15 15.2 0 -14.2 16 0 -14.8 16 0 
-15 16 0 -14.4 16 0 -14.6 16 0 
-13.2 16 0 -13.8 16 0 -14 16 0 
-13.6 16 0 -13.4 16 0 -12.4 16 0 
-13 16 0 -12.6 16 0 -12.2 16 0 
-12.8 16 0 -11.6 16 0 -11.8 16 0 
-11.4 16 0 -11.2 16 0 -12 16 0 
-10.6 16 0 -10.2 16 0 -11 16 0 
-10.8 16 0 -10.4 16 0 -10 16 0 
-9.2 16 0 -9.6 16 0 -9.4 16 0 
-9.8 16 0 -8.2 16 0 -8.4 16 0 
-9 16 0 -8.8 16 0 -8.6 16 0 
-8 16 0 -7.4 16 0 -7.2 16 0 
-7.6 16 0 -7.8 16 0 -6.4 16 0 
-6.8 16 0 -6.6 16 0 -7 16 0 
-6.2 16 0 -5.8 16 0 -5.6 16 0 
-5.2 16 0 -6 16 0 -5.4 16 0 
-5 16 0 -4.6 16 0 -4.2 16 0 
-4.4 16 0 -4.8 16 0 -4 16 0 
-3.4 16 0 -3.8 16 0 -3.6 16 0 
-3.2 16 0 -2.6 16 0 -2.2 16 0 
-3 16 0 -2.8 16 0 -2.4 16 0 
-1.4 16 0 -1.6 16 0 -1.8 16 0 
-1.2 16 0 -2 16 0 -0.2 16 0 
-1 16 0 -0.8 16 0 -0.6 16 0 
-0.4 16 0 0.4 16 0 -0 16 0 
0.6 16 0 0.8 16 0 0.2 16 0 
1.4 16 0 1.6 16 0 1.2 16 0 
1.8 16 0 1 16 0 2 16 0 
2.8 16 0 2.2 16 0 2.4 16 0 
2.6 16 0 3.4 16 0 3 16 0 
3.8 16 0 3.2 16 0 3.6 16 0 
4 16 0 4.2 16 0 4.4 16 0 
4.6 16 0 4.8 16 0 5.8 16 0 
5 16 0 5.4 16 0 5.2 16 0 
5.6 16 0 6.4 16 0 6.8 16 0 
6.6 16 0 6.2 16 0 6 16 0 
7.4 16 0 7 16 0 7.6 16 0 
7.8 16 0 7.2 16 0 8.6 16 0 
8.8 16 0 8 16 0 8.4 16 0 
8.2 16 0 9 16 0 9.2 16 0 
9.8 16 0 9.4 16 0 9.6 16 0 
10 16 0 10.2 16 0 10.4 16 0 
10.6 16 0 10.8 16 0 11.4 16 0 
11.8 16 0 11 16 0 11.6 16 0 
11.2 16 0 12.4 16 0 12.8 16 0 
12.6 16 0 12.2 16 0 12 16 0 
13 16 0 13.8 16 0 13.4 16 0 
13.6 16 0 13.2 16 0 14.8 16 0 
14 16 0 14.2 16 0 14.4 16 0 
14.6 16 0 15 16 0 
gid 1 1049 double
1 1 1 1 1 1 1 1 1 
1 1 1 1 1 1 1 1 1 
1 1 1 1 1 1 1 1 1 
1 1 1 1 1 1 1 1 1 
1 1 1 1 1 1 1 1 1 
1 1 1 1 1 1 1 1 1 
1 1 1 1 1 1 1 1 1 
1 1 1 1 1 1 1 1 1 
1 1 1 1 1 1 1 1 1 
1 1 1 1 1 1 1 1 1 
1 1 1 1 1 1 1 1 1 
1 1 1 1 1 1 1 2 2 
2 2 2 2 2 2 2 2 2 
2 2 2 2 2 2 2 2 2 
2 2 2 2 2 2 2 2 2 
2 2 2 2 2 2 2 2 2 
2 2 2 2 2 2 2 2 2 
2 2 2 2 2 2 2 2 2 
2 2 2 2 2 2 2 2 2 
2 2 2 2 2 2 2 2 2 
2 2 2 2 2 2 2 2 2 
2 2 2 2 2 2 2 2 2 
2 2 2 2 2 2 2 2 2 
2 2 2 2 2 2 2 2 2 
2 2 2 2 2 2 2 2 2 
2 2 2 2 2 2 2 2 2 
2 2 2 2 2 2 2 2 2 
2 2 2 2 2 2 2 2 2 
2 2 2 2 2 2 2 2 1 
1 2 2 1 1 1 2 2 2 
2 2 2 2 2 2 2 2 2 
2 2 2 2 2 2 2 2 2 
2 1 2 2 2 2 2 2 2 
2 2 2 2 2 2 2 2 2 
2 2 2 2 1 1 2 2 2 
2 2 2 2 2 2 2 1 2 
2 2 2 2 2 2 2 2 2 
2 2 2 2 2 2 2 2 2 
2 2 2 2 2 2 2 2 2 
2 2 1 2 2 2 2 2 2 
2 2 2 2 2 2 2 2 2 
2 2 2 2 2 1 2 2 2 
2 2 2 2 2 2 2 2 2 
2 2 2 2 2 2 2 2 2 
2 2 2 2 2 2 2 2 2 
1 2 2 2 2 2 2 2 2 
2 2 2 2 2 2 2 2 2 
2 2 2 2 2 2 2 2 2 
2 2 2 2 2 2 2 2 2 
2 2 2 2 2 2 2 2 2 
2 2 2 2 2 2 2 2 2 
2 2 2 2 2 2 2 1 2 
2 2 2 2 2 2 2 2 2 
2 2 2 2 2 2 2 2 2 
2 2 2 2 2 2 2 2 2 
2 2 1 2 2 2 2 2 2 
2 2 2 2 2 2 2 2 2 
2 2 2 2 2 2 2 2 2 
2 2 2 2 2 2 2 2 2 
2 2 2 2 2 2 2 2 2 
2 2 2 2 2 2 2 2 2 
2 2 2 2 2 2 2 2 2 
2 2 2 2 2 2 2 2 2 
2 2 2 2 2 2 2 2 2 
2 2 2 2 2 2 2 2 2 
2 2 2 2 2 2 2 2 2 
2 2 2 2 2 2 2 2 2 
2 2 2 2 2 2 2 2 2 
2 2 2 2 2 2 2 2 2 
2 2 2 2 2 2 2 2 2 
2 2 2 2 2 2 2 2 2 
2 2 2 2 2 2 2 2 2 
2 2 2 2 2 2 2 2 2 
2 2 2 2 2 2 2 2 2 
2 2 2 2 2 2 2 2 2 
2 2 2 2 2 2 2 2 2 
2 2 2 2 2 2 2 2 2 
2 2 2 2 2 2 2 2 2 
2 2 2 2 2 2 2 2 2 
2 2 2 2 2 2 2 2 2 
2 2 2 2 2 2 2 2 2 
2 2 2 2 2 2 2 2 2 
2 2 2 2 2 2 2 2 2 
2 2 2 2 2 2 2 2 2 
2 2 2 2 2 2 2 2 2 
2 2 2 2 2 2 2 2 2 
2 2 2 2 2 2 2 2 2 
2 2 2 2 2 2 2 2 2 
2 2 2 2 2 2 2 2 2 
2 2 2 2 2 2 2 2 2 
2 2 2 2 2 2 2 2 2 
2 2 2 2 2 2 2 2 2 
2 2 2 2 2 2 2 2 2 
2 2 2 2 2 2 2 2 2 
2 2 2 2 2 2 2 2 2 
2 2 2 2 2 2 2 2 2 
2 2 2 2 2 2 2 2 2 
2 2 2 2 2 2 2 2 2 
2 2 2 2 2 2 2 2 2 
2 2 2 2 2 2 2 2 2 
2 2 2 2 2 2 2 2 2 
2 2 2 2 2 2 2 2 2 
2 2 2 2 2 2 2 2 2 
2 2 2 2 2 2 2 2 2 
2 2 2 2 2 2 2 2 2 
2 2 2 2 2 2 2 2 2 
2 2 2 2 2 2 2 2 2 
2 2 2 2 2 2 2 2 2 
2 2 2 2 2 2 2 2 2 
2 2 2 2 2 2 2 2 2 
2 2 2 2 2 2 2 2 2 
2 2 2 2 2 2 2 2 2 
2 2 2 2 2 2 2 2 2 
2 2 2 2 2 2 2 2 2 
2 2 2 2 2 2 2 2 2 
2 2 2 2 2 2 2 2 2 
2 2 2 2 2 
A 1 1049 double
10 10 10 10 10 10 10 10 10 
10 10 10 10 10 10 10 10 10 
10 10 10 10 10 10 10 10 10 
10 10 10 10 10 10 10 10 10 
10 10 10 10 10 10 10 10 10 
10 10 10 10 10 10 10 10 10 
10 10 10 10 10 10 10 10 10 
10 10 10 10 10 10 10 10 10 
10 10 10 10 10 10 10 10 10 
10 10 10 10 10 10 10 10 10 
10 10 10 10 10 10 10 10 10 
10 10 10 10 10 10 10 10 10 
10 10 10 10 10 10 10 10 10 
10 10 10 10 10 10 10 10 10 
10 10 10 10 10 10 10 10 10 
10 10 10 10 10 10 10 10 10 
10 10 10 10 10 10 10 10 10 
10 10 10 10 10 10 10 10 10 
10 10 10 10 10 10 10 10 10 
10 10 10 10 10 10 10 10 10 
10 10 10 10 10 10 10 10 10 
10 10 10 10 10 10 10 10 10 
10 10 10 10 10 10 10 10 10 
10 10 10 10 10 10 10 10 10 
10 10 10 10 10 10 10 10 10 
10 10 10 10 10 10 10 10 10 
10 10 10 10 10 10 10 10 10 
10 10 10 10 10 10 10 10 10 
10 10 10 10 10 10 10 10 10 
10 10 10 10 10 10 10 10 10 
10 10 10 10 10 10 10 10 10 
10 10 10 10 10 10 10 10 10 
10 10 10 10 10 10 10 10 10 
10 10 10 10 10 10 10 10 10 
10 10 10 10 10 10 10 10 10 
10 10 10 10 10 10 10 10 10 
10 10 10 10 10 10 10 10 10 
10 10 10 10 10 10 10 10 10 
10 10 10 10 10 10 10 10 10 
10 10 10 10 10 10 10 10 10 
10 10 10 10 10 10 10 10 10 
10 10 10 10 10 10 10 10 10 
10 10 10 10 10 10 10 10 10 
10 10 10 10 10 10 10 10 10 
10 10 10 10 10 10 10 10 10 
10 10 10 10 10 10 10 10 10 
10 10 10 10 10 10 10 10 10 
10 10 10 10 10 10 10 10 10 
10 10 10 10 10 10 10 10 10 
10 10 10 10 10 10 10 10 10 
10 10 10 10 10 10 10 10 10 
10 10 10 10 10 10 10 10 10 
10 10 10 10 10 10 10 10 10 
10 10 10 10 10 10 10 10 10 
10 10 10 10 10 10 10 10 10 
10 10 10 10 10 10 10 10 10 
10 10 10 10 10 10 10 10 10 
10 10 10 10 10 10 10 10 10 
10 10 10 10 10 10 10 10 10 
10 10 10 10 10 10 10 10 10 
10 10 10 10 10 10 10 10 10 
10 10 10 10 10 10 10 10 10 
10 10 10 10 10 10 10 10 10 
10 10 10 10 10 10 10 10 10 
10 10 10 10 10 10 10 10 10 
10 10 10 10 10 10 10 10 10 
10 10 10 10 10 10 10 10 10 
10 10 10 10 10 10 10 10 10 
10 10 10 10 10 10 10 10 10 
10 10 10 10 10 10 10 10 10 
10 10 10 10 10 10 10 10 10 
10 10 10 10 10 10 10 10 10 
10 10 10 10 10 10 10 10 10 
10 10 10 10 10 10 10 10 10 
10 10 10 10 10 10 10 10 10 
10 10 10 10 10 10 10 10 10 
10 10 10 10 10 10 10 10 10 
10 10 10 10 10 10 10 10 10 
10 10 10 10 10 10 10 10 10 
10 10 10 10 10 10 10 10 10 
10 10 10 10 10 10 10 10 10 
10 10 10 10 10 10 10 10 10 
10 10 10 10 10 10 10 10 10 
10 10 10 10 10 10 10 10 10 
10 10 10 10 10 10 10 10 10 
10 10 10 10 10 10 10 10 10 
10 10 10 10 10 10 10 10 10 
10 10 10 10 10 10 10 10 10 
10 10 10 10 10 10 10 10 10 
10 10 10 10 10 10 10 10 10 
10 10 10 10 10 10 10 10 10 
10 10 10 10 10 10 10 10 10 
10 10 10 10 10 10 10 10 10 
10 10 10 10 10 10 10 10 10 
10 10 10 10 10 10 10 10 10 
10 10 10 10 10 10 10 10 10 
10 10 10 10 10 10 10 10 10 
10 10 10 10 10 10 10 10 10 
10 10 10 10 10 10 10 10 10 
10 10 10 10 10 10 10 10 10 
10 10 10 10 10 10 10 10 10 
10 10 10 10 10 10 10 10 10 
10 10 10 10 10 10 10 10 10 
10 10 10 10 10 10 10 10 10 
10 10 10 10 10 10 10 10 10 
10 10 10 10 10 10 10 10 10 
10 10 10 10 10 10 10 10 10 
10 10 10 10 10 10 10 10 10 
10 10 10 10 10 10 10 10 10 
10 10 10 10 10 10 10 10 10 
10 10 10 10 10 10 10 10 10 
10 10 10 10 10 10 10 10 10 
10 10 10 10 10 10 10 10 10 
10 10 10 10 10 10 10 10 10 
10 10 10 10 10 10 10 10 10 
10 10 10 10 10 10 10 10 10 
10 10 10 10 10 
B 1 1049 double
0.2 0.2 0.2 0.2 0.2 0.2 0.2 0.2 0.2 
0.2 0.2 0.2 0.2 0.2 0.2 0.2 0.2 0.2 
0.2 0.2 0.2 0.2 0.2 0.2 0.2 0.2 0.2 
0.2 0.2 0.2 0.2 0.2 0.2 0.2 0.2 0.2 
0.2 0.2 0.2 0.2 0.2 0.2 0.2 0.2 0.2 
0.2 0.2 0.2 0.2 0.2 0.2 0.2 0.2 0.2 
0.2 0.2 0.2 0.2 0.2 0.2 0.2 0.2 0.2 
0.2 0.2 0.2 0.2 0.2 0.2 0.2 0.2 0.2 
0.2 0.2 0.2 0.2 0.2 0.2 0.2 0.2 0.2 
0.2 0.2 0.2 0.2 0.2 0.2 0.2 0.2 0.2 
0.2 0.2 0.2 0.2 0.2 0.2 0.2 0.2 0.2 
0.2 0.2 0.2 0.2 0.2 0.2 0.2 0.2 0.2 
0.2 0.2 0.2 0.2 0.2 0.2 0.2 0.2 0.2 
0.2 0.2 0.2 0.2 0.2 0.2 0.2 0.2 0.2 
0.2 0.2 0.2 0.2 0.2 0.2 0.2 0.2 0.2 
0.2 0.2 0.2 0.2 0.2 0.2 0.2 0.2 0.2 
0.2 0.2 0.2 0.2 0.2 0.2 0.2 0.2 0.2 
0.2 0.2 0.2 0.2 0.2 0.2 0.2 0.2 0.2 
0.2 0.2 0.2 0.2 0.2 0.2 0.2 0.2 0.2 
0.2 0.2 0.2 0.2 0.2 0.2 0.2 0.2 0.2 
0.2 0.2 0.2 0.2 0.2 0.2 0.2 0.2 0.2 
0.2 0.2 0.2 0.2 0.2 0.2 0.2 0.2 0.2 
0.2 0.2 0.2 0.2 0.2 0.2 0.2 0.2 0.2 
0.2 0.2 0.2 0.2 0.2 0.2 0.2 0.2 0.2 
0.2 0.2 0.2 0.2 0.2 0.2 0.2 0.2 0.2 
0.2 0.2 0.2 0.2 0.2 0.2 0.2 0.2 0.2 
0.2 0.2 0.2 0.2 0.2 0.2 0.2 0.2 0.2 
0.2 0.2 0.2 0.2 0.2 0.2 0.2 0.2 0.2 
0.2 0.2 0.2 0.2 0.2 0.2 0.2 0.2 0.2 
0.2 0.2 0.2 0.2 0.2 0.2 0.2 0.2 0.2 
0.2 0.2 0.2 0.2 0.2 0.2 0.2 0.2 0.2 
0.2 0.2 0.2 0.2 0.2 0.2 0.2 0.2 0.2 
0.2 0.2 0.2 0.2 0.2 0.2 0.2 0.2 0.2 
0.2 0.2 0.2 0.2 0.2 0.2 0.2 0.2 0.2 
0.2 0.2 0.2 0.2 0.2 0.2 0.2 0.2 0.2 
0.2 0.2 0.2 0.2 0.2 0.2 0.2 0.2 0.2 
0.2 0.2 0.2 0.2 0.2 0.2 0.2 0.2 0.2 
0.2 0.2 0.2 0.2 0.2 0.2 0.2 0.2 0.2 
0.2 0.2 0.2 0.2 0.2 0.2 0.2 0.2 0.2 
0.2 0.2 0.2 0.2 0.2 0.2 0.2 0.2 0.2 
0.2 0.2 0.2 0.2 0.2 0.2 0.2 0.2 0.2 
0.2 0.2 0.2 0.2 0.2 0.2 0.2 0.2 0.2 
0.2 0.2 0.2 0.2 0.2 0.2 0.2 0.2 0.2 
0.2 0.2 0.2 0.2 0.2 0.2 0.2 0.2 0.2 
0.2 0.2 0.2 0.2 0.2 0.2 0.2 0.2 0.2 
0.2 0.2 0.2 0.2 0.2 0.2 0.2 0.2 0.2 
0.2 0.2 0.2 0.2 0.2 0.2 0.2 0.2 0.2 
0.2 0.2 0.2 0.2 0.2 0.2 0.2 0.2 0.2 
0.2 0.2 0.2 0.2 0.2 0.2 0.2 0.2 0.2 
0.2 0.2 0.2 0.2 0.2 0.2 0.2 0.2 0.2 
0.2 0.2 0.2 0.2 0.2 0.2 0.2 0.2 0.2 
0.2 0.2 0.2 0.2 0.2 0.2 0.2 0.2 0.2 
0.2 0.2 0.2 0.2 0.2 0.2 0.2 0.2 0.2 
0.2 0.2 0.2 0.2 0.2 0.2 0.2 0.2 0.2 
0.2 0.2 0.2 0.2 0.2 0.2 0.2 0.2 0.2 
0.2 0.2 0.2 0.2 0.2 0.2 0.2 0.2 0.2 
0.2 0.2 0.2 0.2 0.2 0.2 0.2 0.2 0.2 
0.2 0.2 0.2 0.2 0.2 0.2 0.2 0.2 0.2 
0.2 0.2 0.2 0.2 0.2 0.2 0.2 0.2 0.2 
0.2 0.2 0.2 0.2 0.2 0.2 0.2 0.2 0.2 
0.2 0.2 0.2 0.2 0.2 0.2 0.2 0.2 0.2 
0.2 0.2 0.2 0.2 0.2 0.2 0.2 0.2 0.2 
0.2 0.2 0.2 0.2 0.2 0.2 0.2 0.2 0.2 
0.2 0.2 0.2 0.2 0.2 0.2 0.2 0.2 0.2 
0.2 0.2 0.2 0.2 0.2 0.2 0.2 0.2 0.2 
0.2 0.2 0.2 0.2 0.2 0.2 0.2 0.2 0.2 
0.2 0.2 0.2 0.2 0.2 0.2 0.2 0.2 0.2 
0.2 0.2 0.2 0.2 0.2 0.2 0.2 0.2 0.2 
0.2 0.2 0.2 0.2 0.2 0.2 0.2 0.2 0.2 
0.2 0.2 0.2 0.2 0.2 0.2 0.2 0.2 0.2 
0.2 0.2 0.2 0.2 0.2 0.2 0.2 0.2 0.2 
0.2 0.2 0.2 0.2 0.2 0.2 0.2 0.2 0.2 
0.2 0.2 0.2 0.2 0.2 0.2 0.2 0.2 0.2 
0.2 0.2 0.2 0.2 0.2 0.2 0.2 0.2 0.2 
0.2 0.2 0.2 0.2 0.2 0.2 0.2 0.2 0.2 
0.2 0.2 0.2 0.2 0.2 0.2 0.2 0.2 0.2 
0.2 0.2 0.2 0.2 0.2 0.2 0.2 0.2 0.2 
0.2 0.2 0.2 0.2 0.2 0.2 0.2 0.2 0.2 
0.2 0.2 0.2 0.2 0.2 0.2 0.2 0.2 0.2 
0.2 0.2 0.2 0.2 0.2 0.2 0.2 0.2 0.2 
0.2 0.2 0.2 0.2 0.2 0.2 0.2 0.2 0.2 
0.2 0.2 0.2 0.2 0.2 0.2 0.2 0.2 0.2 
0.2 0.2 0.2 0.2 0.2 0.2 0.2 0.2 0.2 
0.2 0.2 0.2 0.2 0.2 0.2 0.2 0.2 0.2 
0.2 0.2 0.2 0.2 0.2 0.2 0.2 0.2 0.2 
0.2 0.2 0.2 0.2 0.2 0.2 0.2 0.2 0.2 
0.2 0.2 0.2 0.2 0.2 0.2 0.2 0.2 0.2 
0.2 0.2 0.2 0.2 0.2 0.2 0.2 0.2 0.2 
0.2 0.2 0.2 0.2 0.2 0.2 0.2 0.2 0.2 
0.2 0.2 0.2 0.2 0.2 0.2 0.2 0.2 0.2 
0.2 0.2 0.2 0.2 0.2 0.2 0.2 0.2 0.2 
0.2 0.2 0.2 0.2 0.2 0.2 0.2 0.2 0.2 
0.2 0.2 0.2 0.2 0.2 0.2 0.2 0.2 0.2 
0.2 0.2 0.2 0.2 0.2 0.2 0.2 0.2 0.2 
0.2 0.2 0.2 0.2 0.2 0.2 0.2 0.2 0.2 
0.2 0.2 0.2 0.2 0.2 0.2 0.2 0.2 0.2 
0.2 0.2 0.2 0.2 0.2 0.2 0.2 0.2 0.2 
0.2 0.2 0.2 0.2 0.2 0.2 0.2 0.2 0.2 
0.2 0.2 0.2 0.2 0.2 0.2 0.2 0.2 0.2 
0.2 0.2 0.2 0.2 0.2 0.2 0.2 0.2 0.2 
0.2 0.2 0.2 0.2 0.2 0.2 0.2 0.2 0.2 
0.2 0.2 0.2 0.2 0.2 0.2 0.2 0.2 0.2 
0.2 0.2 0.2 0.2 0.2 0.2 0.2 0.2 0.2 
0.2 0.2 0.2 0.2 0.2 0.2 0.2 0.2 0.2 
0.2 0.2 0.2 0.2 0.2 0.2 0.2 0.2 0.2 
0.2 0.2 0.2 0.2 0.2 0.2 0.2 0.2 0.2 
0.2 0.2 0.2 0.2 0.2 0.2 0.2 0.2 0.2 
0.2 0.2 0.2 0.2 0.2 0.2 0.2 0.2 0.2 
0.2 0.2 0.2 0.2 0.2 0.2 0.2 0.2 0.2 
0.2 0.2 0.2 0.2 0.2 0.2 0.2 0.2 0.2 
0.2 0.2 0.2 0.2 0.2 0.2 0.2 0.2 0.2 
0.2 0.2 0.2 0.2 0.2 0.2 0.2 0.2 0.2 
0.2 0.2 0.2 0.2 0.2 0.2 0.2 0.2 0.2 
0.2 0.2 0.2 0.2 0.2 0.2 0.2 0.2 0.2 
0.2 0.2 0.2 0.2 0.2 0.2 0.2 0.2 0.2 
0.2 0.2 0.2 0.2 0.2 0.2 0.2 0.2 0.2 
0.2 0.2 0.2 0.2 0.2 
c 1 1049 double
0.1 0.1 0.1 0.1 0.1 0.1 0.1 0.1 0.1 
0.1 0.1 0.1 0.1 0.1 0.1 0.1 0.1 0.1 
0.1 0.1 0.1 0.1 0.1 0.1 0.1 0.1 0.1 
0.1 0.1 0.1 0.1 0.1 0.1 0.1 0.1 0.1 
0.1 0.1 0.1 0.1 0.1 0.1 0.1 0.1 0.1 
0.1 0.1 0.1 0.1 0.1 0.1 0.1 0.1 0.1 
0.1 0.1 0.1 0.1 0.1 0.1 0.1 0.1 0.1 
0.1 0.1 0.1 0.1 0.1 0.1 0.1 0.1 0.1 
0.1 0.1 0.1 0.1 0.1 0.1 0.1 0.1 0.1 
0.1 0.1 0.1 0.1 0.1 0.1 0.1 0.1 0.1 
0.1 0.1 0.1 0.1 0.1 0.1 0.1 0.1 0.1 
0.1 0.1 0.1 0.1 0.1 0.1 0.1 0.1 0.1 
0.1 0.1 0.1 0.1 0.1 0.1 0.1 0.1 0.1 
0.1 0.1 0.1 0.1 0.1 0.1 0.1 0.1 0.1 
0.1 0.1 0.1 0.1 0.1 0.1 0.1 0.1 0.1 
0.1 0.1 0.1 0.1 0.1 0.1 0.1 0.1 0.1 
0.1 0.1 0.1 0.1 0.1 0.1 0.1 0.1 0.1 
0.1 0.1 0.1 0.1 0.1 0.1 0.1 0.1 0.1 
0.1 0.1 0.1 0.1 0.1 0.1 0.1 0.1 0.1 
0.1 0.1 0.1 0.1 0.1 0.1 0.1 0.1 0.1 
0.1 0.1 0.1 0.1 0.1 0.1 0.1 0.1 0.1 
0.1 0.1 0.1 0.1 0.1 0.1 0.1 0.1 0.1 
0.1 0.1 0.1 0.1 0.1 0.1 0.1 0.1 0.1 
0.1 0.1 0.1 0.1 0.1 0.1 0.1 0.1 0.1 
0.1 0.1 0.1 0.1 0.1 0.1 0.1 0.1 0.1 
0.1 0.1 0.1 0.1 0.1 0.1 0.1 0.1 0.1 
0.1 0.1 0.1 0.1 0.1 0.1 0.1 0.1 0.1 
0.1 0.1 0.1 0.1 0.1 0.1 0.1 0.1 0.1 
0.1 0.1 0.1 0.1 0.1 0.1 0.1 0.1 0.1 
0.1 0.1 0.1 0.1 0.1 0.1 0.1 0.1 0.1 
0.1 0.1 0.1 0.1 0.1 0.1 0.1 0.1 0.1 
0.1 0.1 0.1 0.1 0.1 0.1 0.1 0.1 0.1 
0.1 0.1 0.1 0.1 0.1 0.1 0.1 0.1 0.1 
0.1 0.1 0.1 0.1 0.1 0.1 0.1 0.1 0.1 
0.1 0.1 0.1 0.1 0.1 0.1 0.1 0.1 0.1 
0.1 0.1 0.1 0.1 0.1 0.1 0.1 0.1 0.1 
0.1 0.1 0.1 0.1 0.1 0.1 0.1 0.1 0.1 
0.1 0.1 0.1 0.1 0.1 0.1 0.1 0.1 0.1 
0.1 0.1 0.1 0.1 0.1 0.1 0.1 0.1 0.1 
0.1 0.1 0.1 0.1 0.1 0.1 0.1 0.1 0.1 
0.1 0.1 0.1 0.1 0.1 0.1 0.1 0.1 0.1 
0.1 0.1 0.1 0.1 0.1 0.1 0.1 0.1 0.1 
0.1 0.1 0.1 0.1 0.1 0.1 0.1 0.1 0.1 
0.1 0.1 0.1 0.1 0.1 0.1 0.1 0.1 0.1 
0.1 0.1 0.1 0.1 0.1 0.1 0.1 0.1 0.1 
0.1 0.1 0.1 0.1 0.1 0.1 0.1 0.1 0.1 
0.1 0.1 0.1 0.1 0.1 0.1 0.1 0.1 0.1 
0.1 0.1 0.1 0.1 0.1 0.1 0.1 0.1 0.1 
0.1 0.1 0.1 0.1 0.1 0.1 0.1 0.1 0.1 
0.1 0.1 0.1 0.1 0.1 0.1 0.1 0.1 0.1 
0.1 0.1 0.1 0.1 0.1 0.1 0.1 0.1 0.1 
0.1 0.1 0.1 0.1 0.1 0.1 0.1 0.1 0.1 
0.1 0.1 0.1 0.1 0.1 0.1 0.1 0.1 0.1 
0.1 0.1 0.1 0.1 0.1 0.1 0.1 0.1 0.1 
0.1 0.1 0.1 0.1 0.1 0.1 0.1 0.1 0.1 
0.1 0.1 0.1 0.1 0.1 0.1 0.1 0.1 0.1 
0.1 0.1 0.1 0.1 0.1 0.1 0.1 0.1 0.1 
0.1 0.1 0.1 0.1 0.1 0.1 0.1 0.1 0.1 
0.1 0.1 0.1 0.1 0.1 0.1 0.1 0.1 0.1 
0.1 0.1 0.1 0.1 0.1 0.1 0.1 0.1 0.1 
0.1 0.1 0.1 0.1 0.1 0.1 0.1 0.1 0.1 
0.1 0.1 0.1 0.1 0.1 0.1 0.1 0.1 0.1 
0.1 0.1 0.1 0.1 0.1 0.1 0.1 0.1 0.1 
0.1 0.1 0.1 0.1 0.1 0.1 0.1 0.1 0.1 
0.1 0.1 0.1 0.1 0.1 0.1 0.1 0.1 0.1 
0.1 0.1 0.1 0.1 0.1 0.1 0.1 0.1 0.1 
0.1 0.1 0.1 0.1 0.1 0.1 0.1 0.1 0.1 
0.1 0.1 0.1 0.1 0.1 0.1 0.1 0.1 0.1 
0.1 0.1 0.1 0.1 0.1 0.1 0.1 0.1 0.1 
0.1 0.1 0.1 0.1 0.1 0.1 0.1 0.1 0.1 
0.1 0.1 0.1 0.1 0.1 0.1 0.1 0.1 0.1 
0.1 0.1 0.1 0.1 0.1 0.1 0.1 0.1 0.1 
0.1 0.1 0.1 0.1 0.1 0.1 0.1 0.1 0.1 
0.1 0.1 0.1 0.1 0.1 0.1 0.1 0.1 0.1 
0.1 0.1 0.1 0.1 0.1 0.1 0.1 0.1 0.1 
0.1 0.1 0.1 0.1 0.1 0.1 0.1 0.1 0.1 
0.1 0.1 0.1 0.1 0.1 0.1 0.1 0.1 0.1 
0.1 0.1 0.1 0.1 0.1 0.1 0.1 0.1 0.1 
0.1 0.1 0.1 0.1 0.1 0.1 0.1 0.1 0.1 
0.1 0.1 0.1 0.1 0.1 0.1 0.1 0.1 0.1 
0.1 0.1 0.1 0.1 0.1 0.1 0.1 0.1 0.1 
0.1 0.1 0.1 0.1 0.1 0.1 0.1 0.1 0.1 
0.1 0.1 0.1 0.1 0.1 0.1 0.1 0.1 0.1 
0.1 0.1 0.1 0.1 0.1 0.1 0.1 0.1 0.1 
0.1 0.1 0.1 0.1 0.1 0.1 0.1 0.1 0.1 
0.1 0.1 0.1 0.1 0.1 0.1 0.1 0.1 0.1 
0.1 0.1 0.1 0.1 0.1 0.1 0.1 0.1 0.1 
0.1 0.1 0.1 0.1 0.1 0.1 0.1 0.1 0.1 
0.1 0.1 0.1 0.1 0.1 0.1 0.1 0.1 0.1 
0.1 0.1 0.1 0.1 0.1 0.1 0.1 0.1 0.1 
0.1 0.1 0.1 0.1 0.1 0.1 0.1 0.1 0.1 
0.1 0.1 0.1 0.1 0.1 0.1 0.1 0.1 0.1 
0.1 0.1 0.1 0.1 0.1 0.1 0.1 0.1 0.1 
0.1 0.1 0.1 0.1 0.1 0.1 0.1 0.1 0.1 
0.1 0.1 0.1 0.1 0.1 0.1 0.1 0.1 0.1 
0.1 0.1 0.1 0.1 0.1 0.1 0.1 0.1 0.1 
0.1 0.1 0.1 0.1 0.1 0.1 0.1 0.1 0.1 
0.1 0.1 0.1 0.1 0.1 0.1 0.1 0.1 0.1 
0.1 0.1 0.1 0.1 0.1 0.1 0.1 0.1 0.1 
0.1 0.1 0.1 0.1 0.1 0.1 0.1 0.1 0.1 
0.1 0.1 0.1 0.1 0.1 0.1 0.1 0.1 0.1 
0.1 0.1 0.1 0.1 0.1 0.1 0.1 0.1 0.1 
0.1 0.1 0.1 0.1 0.1 0.1 0.1 0.1 0.1 
0.1 0.1 0.1 0.1 0.1 0.1 0.1 0.1 0.1 
0.1 0.1 0.1 0.1 0.1 0.1 0.1 0.1 0.1 
0.1 0.1 0.1 0.1 0.1 0.1 0.1 0.1 0.1 
0.1 0.1 0.1 0.1 0.1 0.1 0.1 0.1 0.1 
0.1 0.1 0.1 0.1 0.1 0.1 0.1 0.1 0.1 
0.1 0.1 0.1 0.1 0.1 0.1 0.1 0.1 0.1 
0.1 0.1 0.1 0.1 0.1 0.1 0.1 0.1 0.1 
0.1 0.1 0.1 0.1 0.1 0.1 0.1 0.1 0.1 
0.1 0.1 0.1 0.1 0.1 0.1 0.1 0.1 0.1 
0.1 0.1 0.1 0.1 0.1 0.1 0.1 0.1 0.1 
0.1 0.1 0.1 0.1 0.1 0.1 0.1 0.1 0.1 
0.1 0.1 0.1 0.1 0.1 0.1 0.1 0.1 0.1 
0.1 0.1 0.1 0.1 0.1 0.1 0.1 0.1 0.1 
0.1 0.1 0.1 0.1 0.1 
m 1 1049 double
83.88 76.33 94.295 61.625 91.315 84.655 75.77 89.775 69.85 
91.415 93.885 62.64 90.795 92.105 97.585 84.935 65.975 95.485 
91.99 56.755 62.455 90.92 65.745 73.95 88.325 53.195 84.075 
92.83 56.77 76.76 65.415 53.87 95.63 63.205 56.49 99.255 
88.61 82.91 69.45 79.28 60.985 91.91 97.965 98.36 82.95 
51.995 54.265 59.26 58.915 94.14 68.31 53.285 71.55 77.105 
63.675 95.075 75.995 58.805 54.64 51.54 64.785 52.64 80.435 
77.555 62.775 86.39 65.86 83.255 80.635 50.185 57.705 75 
81.82 81.085 60.355 54.985 79.025 64.86 65.345 59.25 71.125 
54.55 50.495 85.085 73.465 61.965 72.85 92.885 61.75 83.05 
69.135 55.865 67.685 93.285 77.41 54.44 83.105 86.67 50.04 
62.195 86.4 96.67 59.44 88.58 86.805 94.88 72.105 56.63 
81.145 90.21 74.595 59.805 71.295 86.865 63.77 96.915 92.685 
91.575 71.62 68.92 71.85 75.99 67.63 54.43 82.065 80.455 
63.885 94.9 95.85 86.405 59.365 84.31 84.98 99.78 61.525 
81.635 54.625 51.68 85.42 67.53 54.23 94.72 66.01 56.565 
82.525 91.01 84.575 58.645 79.285 69.475 80.62 97.91 52.725 
94.07 70.215 51.82 77.17 66.835 68.75 84.04 85.89 55.435 
86.38 63.255 63.77 67.92 78.94 77.015 61.995 75.3 66.84 
99.66 98.38 50.06 58.41 76.7 92.93 88.965 88.695 64.145 
81.13 91.95 90.47 52.85 87.695 57.17 53.975 87.335 51.89 
50.485 64.51 83.005 83.26 86.505 66.585 52.46 53.78 51.4 
71.43 97.205 69.325 98.445 73.645 92.22 90.155 83.095 92.2 
78.855 89.44 77.165 90.585 90.485 72.405 94.935 91.675 91.69 
94.635 53.375 89.28 53.545 72.835 76.53 84.825 61.765 72.93 
97.485 64.355 73.415 93.12 57.64 81.095 78.66 97.515 50.095 
94.145 91.35 90.745 66.84 98.54 83.575 81.7 64.23 53.615 
88.98 67.295 63.09 78.645 76.93 68.09 55.5 61.225 67.775 
67.255 88.82 87.44 61.895 64.605 99.205 91.14 52.46 96.84 
67.14 61.75 75.965 67.185 56.345 91.705 83.245 85.17 50.62 
84.935 74.57 57.5 88.82 79.28 68.715 61.135 82.455 91.825 
59.68 62.755 99.295 57.105 57.16 97.835 88.105 62.52 66.025 
53.065 54.355 54.34 83.92 64.21 60.105 97.64 61.46 89.94 
65.72 78.975 53.715 88.205 61.37 81.775 80.945 83.1 90.125 
56.94 97.19 65.37 56.165 93.81 82.53 82.185 77.035 57.37 
96.14 66.375 59.965 59.3 77.895 90.71 79.42 74.925 94.36 
99.54 99.79 75.945 52.49 76.835 51.445 84.745 89.855 76.19 
98.05 50.45 94.845 97.395 72.06 51.79 68.405 67.465 51.35 
90.785 71.975 80.605 56.185 80.145 94.29 76.365 94.25 73.845 
86.275 58.88 72.76 94.04 88.765 81.24 90.18 66.515 81.675 
65.885 82.145 64.5 76.715 91.775 59.43 67.56 96.07 56.56 
91.815 67.085 53.495 77.845 59.195 82.225 91.175 79.09 68.965 
72.14 80.715 88.66 90.02 79.97 51.895 55.775 58.24 98.77 
66.665 64.45 60.665 50.245 91.425 52.52 78.145 54.82 54.285 
98.155 95.4 93.135 92.965 65.865 99.235 93.97 82.155 63.11 
94.77 55.055 93.88 79.64 62.02 97.645 92.905 62.95 94.095 
96.68 91.045 87.835 97.645 58.73 72.5 51.84 80.635 60.67 
71.695 58.46 61.075 84.85 95.255 63.235 61.45 94.73 96.95 
83.41 71.46 87.31 78.955 73.065 72.215 93.03 72.69 78.815 
80.95 69.49 61.49 52.62 53.565 81.245 84.95 98.985 90.23 
68.94 80.795 88.235 62.675 75.755 92.69 67.645 82.76 74.58 
77.89 74.97 75.285 80.785 75.575 57.605 92.87 54.76 84.2 
64.52 53.44 74.09 75.64 76.925 56.11 83.2 80.21 96.495 
51.265 66.515 62.485 65.165 76.815 52.14 60.01 53.405 82.015 
72.5 63.63 81.56 86.93 71.73 75.5 64.755 57.455 75.105 
59.735 96.155 92.06 89.585 84.98 66.62 99.585 86.845 59.86 
88.125 96.46 69.25 88.36 69.98 55.76 61.81 88.43 74.46 
95.625 95.94 77.18 68.645 62.3 79.875 95.785 67.07 50.135 
69.605 81.52 93.45 52.3 50.14 90.25 87.78 90.135 83.74 
94.51 73.97 88.485 93.495 55.195 55.215 52.845 50.295 67.705 
71.16 61.305 69.13 51.8 83.805 95.585 50.405 90.115 80.21 
88.815 65.95 81.545 94.98 77.125 69.63 58.13 73.385 53.45 
81.835 71.17 72.62 80.285 98.07 91.025 51.79 65.84 88.85 
86.42 84.28 72.83 52.085 52.7 51.185 86.025 79.245 65.295 
53.03 61.3 67.13 92.59 76.085 95.86 53.915 74.725 84.365 
71.445 92.29 88.185 52.415 54.365 83.035 52.39 63.785 72.355 
96.57 78.68 65.345 60.915 77.495 92.45 97.35 88.715 56.98 
70.405 50.42 86.345 78.15 83.625 77.95 87.525 98.86 78.22 
87.8 83.29 96.12 69.75 62.11 76.055 89.09 69.6 50.635 
76.18 76.84 56.22 62.835 52.815 50.245 75.525 86.875 99.67 
93.555 66.455 59.025 68.84 94.775 67.945 68.07 94.965 84.91 
74.11 84.41 74.59 64.025 83.585 54.625 65.465 57.87 96.455 
70.15 82.145 70.09 83.55 81.64 84.18 85.45 86.085 84.815 
69.29 75.275 74.52 56.965 90.65 63.305 92.855 92.28 84.255 
98.165 73.945 65.365 98.425 63.02 96.25 89.34 82.515 97.425 
99.025 73.195 64.745 95.03 78.91 67.58 55.405 76.625 87.58 
60.975 54.835 88.385 51.13 55.6 83.815 52.98 69.905 87.8 
95.18 54.325 88.85 89.775 96.055 67.59 81.71 62.66 61.895 
86.605 75.98 91.35 70.86 72.135 71.17 74.92 60.2 86.99 
79.15 55.315 86.415 50.36 84.75 51.735 52.865 68.57 60.15 
75.41 70.235 84.62 87.61 80.295 64.77 56.16 96.02 52.215 
97.175 78.2 77.43 95.795 59.49 71.39 96.31 55.205 98.415 
51.31 99.24 83.64 95.61 78.985 58.615 69.795 90.835 81.36 
91.62 64.03 70.77 86.675 79.105 87.285 96.825 63.735 55.855 
58.88 51.345 76.09 93.505 54.535 58.515 73.265 99.665 57.65 
68.7 70.15 52.685 75.27 64.31 70.49 90.695 64.77 88.345 
98.93 75.615 55.635 58.525 95.75 81.14 79.92 57.43 51.265 
50.63 82.965 52.715 65.01 61.155 77.02 58.98 80.695 63.49 
56.54 85.42 93.6 76.67 92.71 92.32 97.535 50.985 90.41 
78.335 79.695 99.055 99.52 69.7 65.37 89.07 73.565 91.885 
90.895 69.85 95.105 72.9 61.69 96.09 63.575 54.955 81.88 
94.49 55.26 93.055 81.74 96.775 68.11 94.02 88.605 56.275 
74.095 72.995 76.605 85.44 78.875 64.595 73.81 78.55 74.06 
76.895 99.31 63.425 74.885 57.795 62.53 90.945 75.855 70.05 
89.14 86.715 77.84 96.495 78.73 86.86 88.565 91.03 87.935 
96.505 55.085 51.47 83.66 51.175 51.73 67.415 96.035 99.52 
57.68 70.88 65.675 69.05 71.7 88.025 66.555 77.11 81.71 
61.68 58.295 76.05 60.045 75.765 78.455 55.685 62.865 69.715 
74.285 99.555 98.72 98.795 67.495 55.68 56.8 70.335 88.215 
98.09 51.685 56.525 59.005 74.39 68.65 78.305 84.435 60.86 
69.645 97.06 66.74 95.535 95.895 92.09 98.78 87.225 88.42 
79.68 66.88 60.45 77.71 82.33 75.42 64.63 55.475 56.7 
64.065 64.795 85.95 98.34 68.865 64.98 50.815 89.905 85.995 
94.495 74.65 94.665 99.01 93.3 79.47 69.405 50.355 87.34 
54.865 85.655 67.26 96.895 59.495 77.75 60.18 78.12 60.31 
64.62 63 88.185 66.29 67.08 67.325 83.54 91.41 92.61 
93.68 93.13 97.22 96.6 91.12 82.695 70.11 95.08 65.545 
75.265 90.545 66.89 75.405 50 90.335 95.57 56.69 79.945 
97.13 83.935 75.735 61.155 82.66 76.115 69.375 74.25 56.405 
50.895 60.61 82.95 69.065 61.27 76.75 55.655 95.905 89.285 
73.015 57.47 80.405 78.6 62.165 89.91 50.905 87.435 93.61 
97.075 94.125 96.48 77.02 51.485 95.67 50.16 52.755 84.46 
52.075 65.905 85.285 98.54 92.53 61.485 87.415 52.975 59.81 
99.995 75.055 78.88 56.545 50.77 94.885 62.935 99.66 66.91 
75.105 71.33 68.41 88.425 67.815 96.055 94.3 54.65 72.915 
79.95 71.425 95.43 86.57 59.46 70.58 79.1 57.38 87.45 
87.625 77.64 94.195 87.625 65.29 
p0 3 1049 double
0 -10 0 0 -10 0 0 -10 0 
0 -10 0 0 -10 0 0 -10 0 
0 -10 0 0 -10 0 0 -10 0 
0 -10 0 0 -10 0 0 -10 0 
0 -10 0 0 -10 0 0 -10 0 
0 -10 0 0 -10 0 0 -10 0 
0 -10 0 0 -10 0 0 -10 0 
0 -10 0 0 -10 0 0 -10 0 
0 -10 0 0 -10 0 0 -10 0 
0 -10 0 0 -10 0 0 -10 0 
0 -10 0 0 -10 0 0 -10 0 
0 -10 0 0 -10 0 0 -10 0 
0 -10 0 0 -10 0 0 -10 0 
0 -10 0 0 -10 0 0 -10 0 
0 -10 0 0 -10 0 0 -10 0 
0 -10 0 0 -10 0 0 -10 0 
0 -10 0 0 -10 0 0 -10 0 
0 -10 0 0 -10 0 0 -10 0 
0 -10 0 0 -10 0 0 -10 0 
0 -10 0 0 -10 0 0 -10 0 
0 -10 0 0 -10 0 0 -10 0 
0 -10 0 0 -10 0 0 -10 0 
0 -10 0 0 -10 0 0 -10 0 
0 -10 0 0 -10 0 0 -10 0 
0 -10 0 0 -10 0 0 -10 0 
0 -10 0 0 -10 0 0 -10 0 
0 -10 0 0 -10 0 0 -10 0 
0 -10 0 0 -10 0 0 -10 0 
0 -10 0 0 -10 0 0 -10 0 
0 -10 0 0 -10 0 0 -10 0 
0 -10 0 0 -10 0 0 -10 0 
0 -10 0 0 -10 0 0 -10 0 
0 -10 0 0 -10 0 0 -10 0 
0 -10 0 0 -10 0 0 -10 0 
0 -10 0 0 -10 0 0 -10 0 
0 -10 0 0 0 0 0 0 0 
0 0 0 0 0 0 0 0 0 
0 0 0 0 0 0 0 0 0 
0 0 0 0 0 0 0 0 0 
0 0 0 0 0 0 0 0 0 
0 0 0 0 0 0 0 0 0 
0 0 0 0 0 0 0 0 0 
0 0 0 0 0 0 0 0 0 
0 0 0 0 0 0 0 0 0 
0 0 0 0 0 0 0 0 0 
0 0 0 0 0 0 0 0 0 
0 0 0 0 0 0 0 0 0 
0 0 0 0 0 0 0 0 0 
0 0 0 0 0 0 0 0 0 
0 0 0 0 0 0 0 0 0 
0 0 0 0 0 0 0 0 0 
0 0 0 0 0 0 0 0 0 
0 0 0 0 0 0 0 0 0 
0 0 0 0 0 0 0 0 0 
0 0 0 0 0 0 0 0 0 
0 0 0 0 0 0 0 0 0 
0 0 0 0 0 0 0 0 0 
0 0 0 0 0 0 0 0 0 
0 0 0 0 0 0 0 0 0 
0 0 0 0 0 0 0 0 0 
0 0 0 0 0 0 0 0 0 
0 0 0 0 0 0 0 0 0 
0 0 0 0 0 0 0 0 0 
0 0 0 0 0 0 0 0 0 
0 0 0 0 0 0 0 0 0 
0 0 0 0 0 0 0 0 0 
0 0 0 0 0 0 0 0 0 
0 0 0 0 0 0 0 0 0 
0 0 0 0 0 0 0 0 0 
0 0 0 0 0 0 0 0 0 
0 0 0 0 0 0 0 0 0 
0 0 0 0 0 0 0 0 0 
0 0 0 0 0 0 0 0 0 
0 0 0 0 0 0 0 0 0 
0 0 0 0 0 0 0 0 0 
0 0 0 0 0 0 0 0 0 
0 0 0 0 0 0 0 0 0 
0 0 0 0 0 0 0 0 0 
0 0 0 0 0 0 0 0 0 
0 0 0 0 0 0 0 0 0 
0 0 0 0 0 0 0 0 0 
0 0 0 0 0 0 0 0 0 
0 0 0 0 0 0 0 0 0 
0 0 0 0 0 0 0 0 0 
0 0 0 0 0 0 0 0 0 
0 0 0 0 0 0 0 0 0 
0 0 0 0 0 0 12 0 0 
12 0 0 0 0 0 0 0 0 
12 0 0 12 0 0 12 0 0 
0 0 0 0 0 0 0 0 0 
0 0 0 0 0 0 0 0 0 
0 0 0 0 0 0 0 0 0 
0 0 0 0 0 0 0 0 0 
0 0 0 0 0 0 0 0 0 
0 0 0 0 0 0 0 0 0 
0 0 0 0 0 0 0 0 0 
0 0 0 -12 0 0 0 0 0 
0 0 0 0 0 0 0 0 0 
0 0 0 0 0 0 0 0 0 
0 0 0 0 0 0 0 0 0 
0 0 0 0 0 0 0 0 0 
0 0 0 0 0 0 0 0 0 
0 0 0 0 0 0 0 0 0 
0 0 0 12 0 0 12 0 0 
0 0 0 0 0 0 0 0 0 
0 0 0 0 0 0 0 0 0 
0 0 0 0 0 0 0 0 0 
0 0 0 -12 0 0 0 0 0 
0 0 0 0 0 0 0 0 0 
0 0 0 0 0 0 0 0 0 
0 0 0 0 0 0 0 0 0 
0 0 0 0 0 0 0 0 0 
0 0 0 0 0 0 0 0 0 
0 0 0 0 0 0 0 0 0 
0 0 0 0 0 0 0 0 0 
0 0 0 0 0 0 0 0 0 
0 0 0 0 0 0 0 0 0 
0 0 0 0 0 0 -12 0 0 
0 0 0 0 0 0 0 0 0 
0 0 0 0 0 0 0 0 0 
0 0 0 0 0 0 0 0 0 
0 0 0 0 0 0 0 0 0 
0 0 0 0 0 0 0 0 0 
0 0 0 0 0 0 0 0 0 
0 0 0 0 0 0 12 0 0 
0 0 0 0 0 0 0 0 0 
0 0 0 0 0 0 0 0 0 
0 0 0 0 0 0 0 0 0 
0 0 0 0 0 0 0 0 0 
0 0 0 0 0 0 0 0 0 
0 0 0 0 0 0 0 0 0 
0 0 0 0 0 0 0 0 0 
0 0 0 0 0 0 0 0 0 
0 0 0 0 0 0 0 0 0 
0 0 0 0 0 0 0 0 0 
12 0 0 0 0 0 0 0 0 
0 0 0 0 0 0 0 0 0 
0 0 0 0 0 0 0 0 0 
0 0 0 0 0 0 0 0 0 
0 0 0 0 0 0 0 0 0 
0 0 0 0 0 0 0 0 0 
0 0 0 0 0 0 0 0 0 
0 0 0 0 0 0 0 0 0 
0 0 0 0 0 0 0 0 0 
0 0 0 0 0 0 0 0 0 
0 0 0 0 0 0 0 0 0 
0 0 0 0 0 0 0 0 0 
0 0 0 0 0 0 0 0 0 
0 0 0 0 0 0 0 0 0 
0 0 0 0 0 0 0 0 0 
0 0 0 0 0 0 0 0 0 
0 0 0 0 0 0 0 0 0 
0 0 0 0 0 0 0 0 0 
0 0 0 0 0 0 0 0 0 
0 0 0 0 0 0 0 0 0 
0 0 0 12 0 0 0 0 0 
0 0 0 0 0 0 0 0 0 
0 0 0 0 0 0 0 0 0 
0 0 0 0 0 0 0 0 0 
0 0 0 0 0 0 0 0 0 
0 0 0 0 0 0 0 0 0 
0 0 0 0 0 0 0 0 0 
0 0 0 0 0 0 0 0 0 
0 0 0 0 0 0 0 0 0 
0 0 0 0 0 0 0 0 0 
0 0 0 0 0 0 12 0 0 
0 0 0 0 0 0 0 0 0 
0 0 0 0 0 0 0 0 0 
0 0 0 0 0 0 0 0 0 
0 0 0 0 0 0 0 0 0 
0 0 0 0 0 0 0 0 0 
0 0 0 0 0 0 0 0 0 
0 0 0 0 0 0 0 0 0 
0 0 0 0 0 0 0 0 0 
0 0 0 0 0 0 0 0 0 
0 0 0 0 0 0 0 0 0 
0 0 0 0 0 0 0 0 0 
0 0 0 0 0 0 0 0 0 
0 0 0 0 0 0 0 0 0 
0 0 0 0 0 0 0 0 0 
0 0 0 0 0 0 0 0 0 
0 0 0 0 0 0 0 0 0 
0 0 0 0 0 0 0 0 0 
0 0 0 0 0 0 0 0 0 
0 0 0 0 0 0 0 0 0 
0 0 0 0 0 0 0 0 0 
0 0 0 0 0 0 0 0 0 
0 0 0 0 0 0 0 0 0 
0 0 0 0 0 0 0 0 0 
0 0 0 0 0 0 0 0 0 
0 0 0 0 0 0 0 0 0 
0 0 0 0 0 0 0 0 0 
0 0 0 0 0 0 0 0 0 
0 0 0 0 0 0 0 0 0 
0 0 0 0 0 0 0 0 0 
0 0 0 0 0 0 0 0 0 
0 0 0 0 0 0 0 0 0 
0 0 0 0 0 0 0 0 0 
0 0 0 0 0 0 0 0 0 
0 0 0 0 0 0 0 0 0 
0 0 0 0 0 0 0 0 0 
0 0 0 0 0 0 0 0 0 
0 0 0 0 0 0 0 0 0 
0 0 0 0 0 0 0 0 0 
0 0 0 0 0 0 0 0 0 
0 0 0 0 0 0 0 0 0 
0 0 0 0 0 0 0 0 0 
0 0 0 0 0 0 0 0 0 
0 0 0 0 0 0 0 0 0 
0 0 0 0 0 0 0 0 0 
0 0 0 0 0 0 0 0 0 
0 0 0 0 0 0 0 0 0 
0 0 0 0 0 0 0 0 0 
0 0 0 0 0 0 0 0 0 
0 0 0 0 0 0 0 0 0 
0 0 0 0 0 0 0 0 0 
0 0 0 0 0 0 0 0 0 
0 0 0 0 0 0 0 0 0 
0 0 0 0 0 0 0 0 0 
0 0 0 0 0 0 0 0 0 
0 0 0 0 0 0 0 0 0 
0 0 0 0 0 0 0 0 0 
0 0 0 0 0 0 0 0 0 
0 0 0 0 0 0 0 0 0 
0 0 0 0 0 0 0 0 0 
0 0 0 0 0 0 0 0 0 
0 0 0 0 0 0 0 0 0 
0 0 0 0 0 0 0 0 0 
0 0 0 0 0 0 0 0 0 
0 0 0 0 0 0 0 0 0 
0 0 0 0 0 0 0 0 0 
0 0 0 0 0 0 0 0 0 
0 0 0 0 0 0 0 0 0 
0 0 0 0 0 0 0 0 0 
0 0 0 0 0 0 0 0 0 
0 0 0 0 0 0 0 0 0 
0 0 0 0 0 0 0 0 0 
0 0 0 0 0 0 0 0 0 
0 0 0 0 0 0 0 0 0 
0 0 0 0 0 0 0 0 0 
0 0 0 0 0 0 0 0 0 
0 0 0 0 0 0 0 0 0 
0 0 0 0 0 0 0 0 0 
0 0 0 0 0 0 0 0 0 
0 0 0 0 0 0 0 0 0 
0 0 0 0 0 0 0 0 0 
0 0 0 0 0 0 0 0 0 
0 0 0 0 0 0 0 0 0 
0 0 0 0 0 0 0 0 0 
0 0 0 0 0 0 0 0 0 
0 0 0 0 0 0 0 0 0 
0 0 0 0 0 0 0 0 0 
0 0 0 0 0 0 0 0 0 
0 0 0 0 0 0 0 0 0 
0 0 0 0 0 0 0 0 0 
0 0 0 0 0 0 0 0 0 
0 0 0 0 0 0 0 0 0 
0 0 0 0 0 0 0 0 0 
0 0 0 0 0 0 0 0 0 
0 0 0 0 0 0 0 0 0 
0 0 0 0 0 0 0 0 0 
0 0 0 0 0 0 0 0 0 
0 0 0 0 0 0 0 0 0 
0 0 0 0 0 0 0 0 0 
0 0 0 0 0 0 0 0 0 
0 0 0 0 0 0 0 0 0 
0 0 0 0 0 0 0 0 0 
0 0 0 0 0 0 0 0 0 
0 0 0 0 0 0 0 0 0 
0 0 0 0 0 0 0 0 0 
0 0 0 0 0 0 0 0 0 
0 0 0 0 0 0 0 0 0 
0 0 0 0 0 0 0 0 0 
0 0 0 0 0 0 0 0 0 
0 0 0 0 0 0 0 0 0 
0 0 0 0 0 0 0 0 0 
0 0 0 0 0 0 0 0 0 
0 0 0 0 0 0 0 0 0 
0 0 0 0 0 0 0 0 0 
0 0 0 0 0 0 0 0 0 
0 0 0 0 0 0 0 0 0 
0 0 0 0 0 0 0 0 0 
0 0 0 0 0 0 0 0 0 
0 0 0 0 0 0 0 0 0 
0 0 0 0 0 0 0 0 0 
0 0 0 0 0 0 0 0 0 
0 0 0 0 0 0 0 0 0 
0 0 0 0 0 0 0 0 0 
0 0 0 0 0 0 0 0 0 
0 0 0 0 0 0 0 0 0 
0 0 0 0 0 0 0 0 0 
0 0 0 0 0 0 0 0 0 
0 0 0 0 0 0 0 0 0 
0 0 0 0 0 0 0 0 0 
0 0 0 0 0 0 0 0 0 
0 0 0 0 0 0 0 0 0 
0 0 0 0 0 0 0 0 0 
0 0 0 0 0 0 0 0 0 
0 0 0 0 0 0 0 0 0 
0 0 0 0 0 0 0 0 0 
0 0 0 0 0 0 0 0 0 
0 0 0 0 0 0 0 0 0 
0 0 0 0 0 0 0 0 0 
0 0 0 0 0 0 0 0 0 
0 0 0 0 0 0 0 0 0 
0 0 0 0 0 0 0 0 0 
0 0 0 0 0 0 0 0 0 
0 0 0 0 0 0 0 0 0 
0 0 0 0 0 0 0 0 0 
0 0 0 0 0 0 0 0 0 
0 0 0 0 0 0 0 0 0 
0 0 0 0 0 0 0 0 0 
0 0 0 0 0 0 0 0 0 
0 0 0 0 0 0 0 0 0 
0 0 0 0 0 0 0 0 0 
0 0 0 0 0 0 0 0 0 
0 0 0 0 0 0 0 0 0 
0 0 0 0 0 0 0 0 0 
0 0 0 0 0 0 0 0 0 
0 0 0 0 0 0 0 0 0 
0 0 0 0 0 0 0 0 0 
0 0 0 0 0 0 0 0 0 
0 0 0 0 0 0 0 0 0 
0 0 0 0 0 0 0 0 0 
0 0 0 0 0 0 0 0 0 
0 0 0 0 0 0 0 0 0 
0 0 0 0 0 0 0 0 0 
0 0 0 0 0 0 0 0 0 
0 0 0 0 0 0 0 0 0 
0 0 0 0 0 0 0 0 0 
0 0 0 0 0 0 0 0 0 
0 0 0 0 0 0 0 0 0 
0 0 0 0 0 0 0 0 0 
0 0 0 0 0 0 0 0 0 
0 0 0 0 0 0 0 0 0 
0 0 0 0 0 0 0 0 0 
0 0 0 0 0 0 0 0 0 
0 0 0 0 0 0 0 0 0 
0 0 0 0 0 0 0 0 0 
0 0 0 0 0 0 0 0 0 
0 0 0 0 0 0 0 0 0 
0 0 0 0 0 0 0 0 0 
0 0 0 0 0 0 0 0 0 
0 0 0 0 0 0 0 0 0 
0 0 0 0 0 0 0 0 0 
0 0 0 0 0 0 0 0 0 
0 0 0 0 0 0 0 0 0 
0 0 0 0 0 0 0 0 0 
0 0 0 0 0 0 0 0 0 
0 0 0 0 0 0 
v0 1 1049 double
2.2234 3.7348 3.5098 3.5868 3.5598 3.1534 2.2246 2.5562 2.798 
2.959 3.3932 3.7604 3.7722 3.3376 3.1552 3.8026 3.908 3.7132 
3.5394 3.4418 3.6894 2.7868 2.9072 2.9892 3.4388 2.5998 3.6034 
3.7386 3.6802 3.3968 3.4142 2.8894 3.5338 3.9438 3.4192 3.447 
2.9348 3.2294 3.1134 3.9752 2.105 2.9862 2.726 3.938 3.5126 
3.7004 3.9802 3.7164 3.7956 2.7598 2.7364 2.087 2.2178 3.4702 
3.0734 3.358 2.6972 2.8228 3.991 3.4416 3.3948 3.3812 3.2554 
2.9518 3.8484 2.5702 3.2458 2.5666 2.227 2.3004 2.8832 2.5352 
2.192 3.8554 3.8268 2.8338 3.219 2.6856 3.4072 2.325 2.7916 
2.0254 2.0272 2.9892 3.236 3.3678 3.5612 3.514 3.053 3.852 
2.5952 2.5898 2.9256 3.4754 2.2866 3.2878 3.1832 3.18 2.9022 
2.4594 2.1178 2.264 2.6632 2.0104 3.2768 2.5972 0 0 
0 0 0 0 0 0 0 0 0 
0 0 0 0 0 0 0 0 0 
0 0 0 0 0 0 0 0 0 
0 0 0 0 0 0 0 0 0 
0 0 0 0 0 0 0 0 0 
0 0 0 0 0 0 0 0 0 
0 0 0 0 0 0 0 0 0 
0 0 0 0 0 0 0 0 0 
0 0 0 0 0 0 0 0 0 
0 0 0 0 0 0 0 0 0 
0 0 0 0 0 0 0 0 0 
0 0 0 0 0 0 0 0 0 
0 0 0 0 0 0 0 0 0 
0 0 0 0 0 0 0 0 0 
0 0 0 0 0 0 0 0 0 
0 0 0 0 0 0 0 0 0 
0 0 0 0 0 0 0 0 2.0424 
2.79 0 0 3.075 2.4322 2.7532 0 0 0 
0 0 0 0 0 0 0 0 0 
0 0 0 0 0 0 0 0 0 
0 2.1056 0 0 0 0 0 0 0 
0 0 0 0 0 0 0 0 0 
0 0 0 0 2.6138 2.0302 0 0 0 
0 0 0 0 0 0 0 2.5992 0 
0 0 0 0 0 0 0 0 0 
0 0 0 0 0 0 0 0 0 
0 0 0 0 0 0 0 0 0 
0 0 2.6016 0 0 0 0 0 0 
0 0 0 0 0 0 0 0 0 
0 0 0 0 0 2.2322 0 0 0 
0 0 0 0 0 0 0 0 0 
0 0 0 0 0 0 0 0 0 
0 0 0 0 0 0 0 0 0 
2.1262 0 0 0 0 0 0 0 0 
0 0 0 0 0 0 0 0 0 
0 0 0 0 0 0 0 0 0 
0 0 0 0 0 0 0 0 0 
0 0 0 0 0 0 0 0 0 
0 0 0 0 0 0 0 0 0 
0 0 0 0 0 0 0 2.0074 0 
0 0 0 0 0 0 0 0 0 
0 0 0 0 0 0 0 0 0 
0 0 0 0 0 0 0 0 0 
0 0 2.1126 0 0 0 0 0 0 
0 0 0 0 0 0 0 0 0 
0 0 0 0 0 0 0 0 0 
0 0 0 0 0 0 0 0 0 
0 0 0 0 0 0 0 0 0 
0 0 0 0 0 0 0 0 0 
0 0 0 0 0 0 0 0 0 
0 0 0 0 0 0 0 0 0 
0 0 0 0 0 0 0 0 0 
0 0 0 0 0 0 0 0 0 
0 0 0 0 0 0 0 0 0 
0 0 0 0 0 0 0 0 0 
0 0 0 0 0 0 0 0 0 
0 0 0 0 0 0 0 0 0 
0 0 0 0 0 0 0 0 0 
0 0 0 0 0 0 0 0 0 
0 0 0 0 0 0 0 0 0 
0 0 0 0 0 0 0 0 0 
0 0 0 0 0 0 0 0 0 
0 0 0 0 0 0 0 0 0 
0 0 0 0 0 0 0 0 0 
0 0 0 0 0 0 0 0 0 
0 0 0 0 0 0 0 0 0 
0 0 0 0 0 0 0 0 0 
0 0 0 0 0 0 0 0 0 
0 0 0 0 0 0 0 0 0 
0 0 0 0 0 0 0 0 0 
0 0 0 0 0 0 0 0 0 
0 0 0 0 0 0 0 0 0 
0 0 0 0 0 0 0 0 0 
0 0 0 0 0 0 0 0 0 
0 0 0 0 0 0 0 0 0 
0 0 0 0 0 0 0 0 0 
0 0 0 0 0 0 0 0 0 
0 0 0 0 0 0 0 0 0 
0 0 0 0 0 0 0 0 0 
0 0 0 0 0 0 0 0 0 
0 0 0 0 0 0 0 0 0 
0 0 0 0 0 0 0 0 0 
0 0 0 0 0 0 0 0 0 
0 0 0 0 0 0 0 0 0 
0 0 0 0 0 0 0 0 0 
0 0 0 0 0 0 0 0 0 
0 0 0 0 0 0 0 0 0 
0 0 0 0 0 0 0 0 0 
0 0 0 0 0 0 0 0 0 
0 0 0 0 0 0 0 0 0 
0 0 0 0 0 0 0 0 0 
0 0 0 0 0 0 0 0 0 
0 0 0 0 0 0 0 0 0 
0 0 0 0 0 0 0 0 0 
0 0 0 0 0 0 0 0 0 
0 0 0 0 0 0 0 0 0 
0 0 0 0 0 0 0 0 0 
0 0 0 0 0 0 0 0 0 
0 0 0 0 0 0 0 0 0 
0 0 0 0 0 0 0 0 0 
0 0 0 0 0 0 0 0 0 
0 0 0 0 0 0 0 0 0 
0 0 0 0 0 0 0 0 0 
0 0 0 0 0 0 0 0 0 
0 0 0 0 0 
tau 1 1049 double
2 2 2 2 2 2 2 2 2 
2 2 2 2 2 2 2 2 2 
2 2 2 2 2 2 2 2 2 
2 2 2 2 2 2 2 2 2 
2 2 2 2 2 2 2 2 2 
2 2 2 2 2 2 2 2 2 
2 2 2 2 2 2 2 2 2 
2 2 2 2 2 2 2 2 2 
2 2 2 2 2 2 2 2 2 
2 2 2 2 2 2 2 2 2 
2 2 2 2 2 2 2 2 2 
2 2 2 2 2 2 2 2 2 
2 2 2 2 2 2 2 2 2 
2 2 2 2 2 2 2 2 2 
2 2 2 2 2 2 2 2 2 
2 2 2 2 2 2 2 2 2 
2 2 2 2 2 2 2 2 2 
2 2 2 2 2 2 2 2 2 
2 2 2 2 2 2 2 2 2 
2 2 2 2 2 2 2 2 2 
2 2 2 2 2 2 2 2 2 
2 2 2 2 2 2 2 2 2 
2 2 2 2 2 2 2 2 2 
2 2 2 2 2 2 2 2 2 
2 2 2 2 2 2 2 2 2 
2 2 2 2 2 2 2 2 2 
2 2 2 2 2 2 2 2 2 
2 2 2 2 2 2 2 2 2 
2 2 2 2 2 2 2 2 2 
2 2 2 2 2 2 2 2 2 
2 2 2 2 2 2 2 2 2 
2 2 2 2 2 2 2 2 2 
2 2 2 2 2 2 2 2 2 
2 2 2 2 2 2 2 2 2 
2 2 2 2 2 2 2 2 2 
2 2 2 2 2 2 2 2 2 
2 2 2 2 2 2 2 2 2 
2 2 2 2 2 2 2 2 2 
2 2 2 2 2 2 2 2 2 
2 2 2 2 2 2 2 2 2 
2 2 2 2 2 2 2 2 2 
2 2 2 2 2 2 2 2 2 
2 2 2 2 2 2 2 2 2 
2 2 2 2 2 2 2 2 2 
2 2 2 2 2 2 2 2 2 
2 2 2 2 2 2 2 2 2 
2 2 2 2 2 2 2 2 2 
2 2 2 2 2 2 2 2 2 
2 2 2 2 2 2 2 2 2 
2 2 2 2 2 2 2 2 2 
2 2 2 2 2 2 2 2 2 
2 2 2 2 2 2 2 2 2 
2 2 2 2 2 2 2 2 2 
2 2 2 2 2 2 2 2 2 
2 2 2 2 2 2 2 2 2 
2 2 2 2 2 2 2 2 2 
2 2 2 2 2 2 2 2 2 
2 2 2 2 2 2 2 2 2 
2 2 2 2 2 2 2 2 2 
2 2 2 2 2 2 2 2 2 
2 2 2 2 2 2 2 2 2 
2 2 2 2 2 2 2 2 2 
2 2 2 2 2 2 2 2 2 
2 2 2 2 2 2 2 2 2 
2 2 2 2 2 2 2 2 2 
2 2 2 2 2 2 2 2 2 
2 2 2 2 2 2 2 2 2 
2 2 2 2 2 2 2 2 2 
2 2 2 2 2 2 2 2 2 
2 2 2 2 2 2 2 2 2 
2 2 2 2 2 2 2 2 2 
2 2 2 2 2 2 2 2 2 
2 2 2 2 2 2 2 2 2 
2 2 2 2 2 2 2 2 2 
2 2 2 2 2 2 2 2 2 
2 2 2 2 2 2 2 2 2 
2 2 2 2 2 2 2 2 2 
2 2 2 2 2 2 2 2 2 
2 2 2 2 2 2 2 2 2 
2 2 2 2 2 2 2 2 2 
2 2 2 2 2 2 2 2 2 
2 2 2 2 2 2 2 2 2 
2 2 2 2 2 2 2 2 2 
2 2 2 2 2 2 2 2 2 
2 2 2 2 2 2 2 2 2 
2 2 2 2 2 2 2 2 2 
2 2 2 2 2 2 2 2 2 
2 2 2 2 2 2 2 2 2 
2 2 2 2 2 2 2 2 2 
2 2 2 2 2 2 2 2 2 
2 2 2 2 2 2 2 2 2 
2 2 2 2 2 2 2 2 2 
2 2 2 2 2 2 2 2 2 
2 2 2 2 2 2 2 2 2 
2 2 2 2 2 2 2 2 2 
2 2 2 2 2 2 2 2 2 
2 2 2 2 2 2 2 2 2 
2 2 2 2 2 2 2 2 2 
2 2 2 2 2 2 2 2 2 
2 2 2 2 2 2 2 2 2 
2 2 2 2 2 2 2 2 2 
2 2 2 2 2 2 2 2 2 
2 2 2 2 2 2 2 2 2 
2 2 2 2 2 2 2 2 2 
2 2 2 2 2 2 2 2 2 
2 2 2 2 2 2 2 2 2 
2 2 2 2 2 2 2 2 2 
2 2 2 2 2 2 2 2 2 
2 2 2 2 2 2 2 2 2 
2 2 2 2 2 2 2 2 2 
2 2 2 2 2 2 2 2 2 
2 2 2 2 2 2 2 2 2 
2 2 2 2 2 2 2 2 2 
2 2 2 2 2 2 2 2 2 
2 2 2 2 2 2 2 2 2 
2 2 2 2 2 2 2 2 2 
2 2 2 2 2 
R 1 1049 double
0.31776 0.30266 0.33859 0.27325 0.33263 0.31931 0.30154 0.32955 0.2897 
0.33283 0.33777 0.27528 0.33159 0.33421 0.34517 0.31987 0.28195 0.34097 
0.33398 0.26351 0.27491 0.33184 0.28149 0.2979 0.32665 0.25639 0.31815 
0.33566 0.26354 0.30352 0.28083 0.25774 0.34126 0.27641 0.26298 0.34851 
0.32722 0.31582 0.2889 0.30856 0.27197 0.33382 0.34593 0.34672 0.3159 
0.25399 0.25853 0.26852 0.26783 0.33828 0.28662 0.25657 0.2931 0.30421 
0.27735 0.34015 0.30199 0.26761 0.25928 0.25308 0.27957 0.25528 0.31087 
0.30511 0.27555 0.32278 0.28172 0.31651 0.31127 0.25037 0.26541 0.3 
0.31364 0.31217 0.27071 0.25997 0.30805 0.27972 0.28069 0.2685 0.29225 
0.2591 0.25099 0.32017 0.29693 0.27393 0.2957 0.33577 0.2735 0.3161 
0.28827 0.26173 0.28537 0.33657 0.30482 0.25888 0.31621 0.32334 0.25008 
0.27439 0.3228 0.34334 0.26888 0.32716 0.32361 0.33976 0.1 0.1 
0.1 0.1 0.1 0.1 0.1 0.1 0.1 0.1 0.1 
0.1 0.1 0.1 0.1 0.1 0.1 0.1 0.1 0.1 
0.1 0.1 0.1 0.1 0.1 0.1 0.1 0.1 0.1 
0.1 0.1 0.1 0.1 0.1 0.1 0.1 0.1 0.1 
0.1 0.1 0.1 0.1 0.1 0.1 0.1 0.1 0.1 
0.1 0.1 0.1 0.1 0.1 0.1 0.1 0.1 0.1 
0.1 0.1 0.1 0.1 0.1 0.1 0.1 0.1 0.1 
0.1 0.1 0.1 0.1 0.1 0.1 0.1 0.1 0.1 
0.1 0.1 0.1 0.1 0.1 0.1 0.1 0.1 0.1 
0.1 0.1 0.1 0.1 0.1 0.1 0.1 0.1 0.1 
0.1 0.1 0.1 0.1 0.1 0.1 0.1 0.1 0.1 
0.1 0.1 0.1 0.1 0.1 0.1 0.1 0.1 0.1 
0.1 0.1 0.1 0.1 0.1 0.1 0.1 0.1 0.1 
0.1 0.1 0.1 0.1 0.1 0.1 0.1 0.1 0.1 
0.1 0.1 0.1 0.1 0.1 0.1 0.1 0.1 0.1 
0.1 0.1 0.1 0.1 0.1 0.1 0.1 0.1 0.1 
0.1 0.1 0.1 0.1 0.1 0.1 0.1 0.1 0.34368 
0.28428 0.1 0.1 0.28437 0.26269 0.33341 0.1 0.1 0.1 
0.1 0.1 0.1 0.1 0.1 0.1 0.1 0.1 0.1 
0.1 0.1 0.1 0.1 0.1 0.1 0.1 0.1 0.1 
0.1 0.25871 0.1 0.1 0.1 0.1 0.1 0.1 0.1 
0.1 0.1 0.1 0.1 0.1 0.1 0.1 0.1 0.1 
0.1 0.1 0.1 0.1 0.33762 0.31506 0.1 0.1 0.1 
0.1 0.1 0.1 0.1 0.1 0.1 0.1 0.29985 0.1 
0.1 0.1 0.1 0.1 0.1 0.1 0.1 0.1 0.1 
0.1 0.1 0.1 0.1 0.1 0.1 0.1 0.1 0.1 
0.1 0.1 0.1 0.1 0.1 0.1 0.1 0.1 0.1 
0.1 0.1 0.29552 0.1 0.1 0.1 0.1 0.1 0.1 
0.1 0.1 0.1 0.1 0.1 0.1 0.1 0.1 0.1 
0.1 0.1 0.1 0.1 0.1 0.31445 0.1 0.1 0.1 
0.1 0.1 0.1 0.1 0.1 0.1 0.1 0.1 0.1 
0.1 0.1 0.1 0.1 0.1 0.1 0.1 0.1 0.1 
0.1 0.1 0.1 0.1 0.1 0.1 0.1 0.1 0.1 
0.33954 0.1 0.1 0.1 0.1 0.1 0.1 0.1 0.1 
0.1 0.1 0.1 0.1 0.1 0.1 0.1 0.1 0.1 
0.1 0.1 0.1 0.1 0.1 0.1 0.1 0.1 0.1 
0.1 0.1 0.1 0.1 0.1 0.1 0.1 0.1 0.1 
0.1 0.1 0.1 0.1 0.1 0.1 0.1 0.1 0.1 
0.1 0.1 0.1 0.1 0.1 0.1 0.1 0.1 0.1 
0.1 0.1 0.1 0.1 0.1 0.1 0.1 0.25952 0.1 
0.1 0.1 0.1 0.1 0.1 0.1 0.1 0.1 0.1 
0.1 0.1 0.1 0.1 0.1 0.1 0.1 0.1 0.1 
0.1 0.1 0.1 0.1 0.1 0.1 0.1 0.1 0.1 
0.1 0.1 0.33412 0.1 0.1 0.1 0.1 0.1 0.1 
0.1 0.1 0.1 0.1 0.1 0.1 0.1 0.1 0.1 
0.1 0.1 0.1 0.1 0.1 0.1 0.1 0.1 0.1 
0.1 0.1 0.1 0.1 0.1 0.1 0.1 0.1 0.1 
0.1 0.1 0.1 0.1 0.1 0.1 0.1 0.1 0.1 
0.1 0.1 0.1 0.1 0.1 0.1 0.1 0.1 0.1 
0.1 0.1 0.1 0.1 0.1 0.1 0.1 0.1 0.1 
0.1 0.1 0.1 0.1 0.1 0.1 0.1 0.1 0.1 
0.1 0.1 0.1 0.1 0.1 0.1 0.1 0.1 0.1 
0.1 0.1 0.1 0.1 0.1 0.1 0.1 0.1 0.1 
0.1 0.1 0.1 0.1 0.1 0.1 0.1 0.1 0.1 
0.1 0.1 0.1 0.1 0.1 0.1 0.1 0.1 0.1 
0.1 0.1 0.1 0.1 0.1 0.1 0.1 0.1 0.1 
0.1 0.1 0.1 0.1 0.1 0.1 0.1 0.1 0.1 
0.1 0.1 0.1 0.1 0.1 0.1 0.1 0.1 0.1 
0.1 0.1 0.1 0.1 0.1 0.1 0.1 0.1 0.1 
0.1 0.1 0.1 0.1 0.1 0.1 0.1 0.1 0.1 
0.1 0.1 0.1 0.1 0.1 0.1 0.1 0.1 0.1 
0.1 0.1 0.1 0.1 0.1 0.1 0.1 0.1 0.1 
0.1 0.1 0.1 0.1 0.1 0.1 0.1 0.1 0.1 
0.1 0.1 0.1 0.1 0.1 0.1 0.1 0.1 0.1 
0.1 0.1 0.1 0.1 0.1 0.1 0.1 0.1 0.1 
0.1 0.1 0.1 0.1 0.1 0.1 0.1 0.1 0.1 
0.1 0.1 0.1 0.1 0.1 0.1 0.1 0.1 0.1 
0.1 0.1 0.1 0.1 0.1 0.1 0.1 0.1 0.1 
0.1 0.1 0.1 0.1 0.1 0.1 0.1 0.1 0.1 
0.1 0.1 0.1 0.1 0.1 0.1 0.1 0.1 0.1 
0.1 0.1 0.1 0.1 0.1 0.1 0.1 0.1 0.1 
0.1 0.1 0.1 0.1 0.1 0.1 0.1 0.1 0.1 
0.1 0.1 0.1 0.1 0.1 0.1 0.1 0.1 0.1 
0.1 0.1 0.1 0.1 0.1 0.1 0.1 0.1 0.1 
0.1 0.1 0.1 0.1 0.1 0.1 0.1 0.1 0.1 
0.1 0.1 0.1 0.1 0.1 0.1 0.1 0.1 0.1 
0.1 0.1 0.1 0.1 0.1 0.1 0.1 0.1 0.1 
0.1 0.1 0.1 0.1 0.1 0.1 0.1 0.1 0.1 
0.1 0.1 0.1 0.1 0.1 0.1 0.1 0.1 0.1 
0.1 0.1 0.1 0.1 0.1 0.1 0.1 0.1 0.1 
0.1 0.1 0.1 0.1 0.1 0.1 0.1 0.1 0.1 
0.1 0.1 0.1 0.1 0.1 0.1 0.1 0.1 0.1 
0.1 0.1 0.1 0.1 0.1 0.1 0.1 0.1 0.1 
0.1 0.1 0.1 0.1 0.1 0.1 0.1 0.1 0.1 
0.1 0.1 0.1 0.1 0.1 0.1 0.1 0.1 0.1 
0.1 0.1 0.1 0.1 0.1 0.1 0.1 0.1 0.1 
0.1 0.1 0.1 0.1 0.1 0.1 0.1 0.1 0.1 
0.1 0.1 0.1 0.1 0.1 0.1 0.1 0.1 0.1 
0.1 0.1 0.1 0.1 0.1 0.1 0.1 0.1 0.1 
0.1 0.1 0.1 0.1 0.1 0.1 0.1 0.1 0.1 
0.1 0.1 0.1 0.1 0.1 0.1 0.1 0.1 0.1 
0.1 0.1 0.1 0.1 0.1 0.1 0.1 0.1 0.1 
0.1 0.1 0.1 0.1 0.1 0.1 0.1 0.1 0.1 
0.1 0.1 0.1 0.1 0.1 0.1 0.1 0.1 0.1 
0.1 0.1 0.1 0.1 0.1 0.1 0.1 0.1 0.1 
0.1 0.1 0.1 0.1 0.1 0.1 0.1 0.1 0.1 
0.1 0.1 0.1 0.1 0.1 0.1 0.1 0.1 0.1 
0.1 0.1 0.1 0.1 0.1 0.1 0.1 0.1 0.1 
0.1 0.1 0.1 0.1 0.1 0.1 0.1 0.1 0.1 
0.1 0.1 0.1 0.1 0.1 0.1 0.1 0.1 0.1 
0.1 0.1 0.1 0.1 0.1 0.1 0.1 0.1 0.1 
0.1 0.1 0.1 0.1 0.1 0.1 0.1 0.1 0.1 
0.1 0.1 0.1 0.1 0.1 0.1 0.1 0.1 0.1 
0.1 0.1 0.1 0.1 0.1 0.1 0.1 0.1 0.1 
0.1 0.1 0.1 0.1 0.1 
a 3 1049 double
0 0 0 0 0 0 0 0 0 
0 0 0 0 0 0 0 0 0 
0 0 0 0 0 0 0 0 0 
0 0 0 0 0 0 0 0 0 
0 0 0 0 0 0 0 0 0 
0 0 0 0 0 0 0 0 0 
0 0 0 0 0 0 0 0 0 
0 0 0 0 0 0 0 0 0 
0 0 0 0 0 0 0 0 0 
0 0 0 0 0 0 0 0 0 
0 0 0 0 0 0 0 0 0 
0 0 0 0 0 0 0 0 0 
0 0 0 0 0 0 0 0 0 
0 0 0 0 0 0 0 0 0 
0 0 0 0 0 0 0 0 0 
0 0 0 0 0 0 0 0 0 
0 0 0 0 0 0 0 0 0 
0 0 0 0 0 0 0 0 0 
0 0 0 0 0 0 0 0 0 
0 0 0 0 0 0 0 0 0 
0 0 0 0 0 0 0 0 0 
0 0 0 0 0 0 0 0 0 
0 0 0 0 0 0 0 0 0 
0 0 0 0 0 0 0 0 0 
0 0 0 0 0 0 0 0 0 
0 0 0 0 0 0 0 0 0 
0 0 0 0 0 0 0 0 0 
0 0 0 0 0 0 0 0 0 
0 0 0 0 0 0 0 0 0 
0 0 0 0 0 0 0 0 0 
0 0 0 0 0 0 0 0 0 
0 0 0 0 0 0 0 0 0 
0 0 0 0 0 0 0 0 0 
0 0 0 0 0 0 0 0 0 
0 0 0 0 0 0 0 0 0 
0 0 0 0 0 0 0 0 0 
0 0 0 0 0 0 0 0 0 
0 0 0 0 0 0 0 0 0 
0 0 0 0 0 0 0 0 0 
0 0 0 0 0 0 0 0 0 
0 0 0 0 0 0 0 0 0 
0 0 0 0 0 0 0 0 0 
0 0 0 0 0 0 0 0 0 
0 0 0 0 0 0 0 0 0 
0 0 0 0 0 0 0 0 0 
0 0 0 0 0 0 0 0 0 
0 0 0 0 0 0 0 0 0 
0 0 0 0 0 0 0 0 0 
0 0 0 0 0 0 0 0 0 
0 0 0 0 0 0 0 0 0 
0 0 0 0 0 0 0 0 0 
0 0 0 0 0 0 0 0 0 
0 0 0 0 0 0 0 0 0 
0 0 0 0 0 0 0 0 0 
0 0 0 0 0 0 0 0 0 
0 0 0 0 0 0 0 0 0 
0 0 0 0 0 0 0 0 0 
0 0 0 0 0 0 0 0 0 
0 0 0 0 0 0 0 0 0 
0 0 0 0 0 0 0 0 0 
0 0 0 0 0 0 0 0 0 
0 0 0 0 0 0 0 0 0 
0 0 0 0 0 0 0 0 0 
0 0 0 0 0 0 0 0 0 
0 0 0 0 0 0 0 0 0 
0 0 0 0 0 0 0 0 0 
0 0 0 0 0 0 0 0 0 
0 0 0 0 0 0 0 0 0 
0 0 0 0 0 0 0 0 0 
0 0 0 0 0 0 0 0 0 
0 0 0 0 0 0 0 0 0 
0 0 0 0 0 0 0 0 0 
0 0 0 0 0 0 0 0 0 
0 0 0 0 0 0 0 0 0 
0 0 0 0 0 0 0 0 0 
0 0 0 0 0 0 0 0 0 
0 0 0 0 0 0 0 0 0 
0 0 0 0 0 0 0 0 0 
0 0 0 0 0 0 0 0 0 
0 0 0 0 0 0 0 0 0 
0 0 0 0 0 0 0 0 0 
0 0 0 0 0 0 0 0 0 
0 0 0 0 0 0 0 0 0 
0 0 0 0 0 0 0 0 0 
0 0 0 0 0 0 0 0 0 
0 0 0 0 0 0 0 0 0 
0 0 0 0 0 0 0 0 0 
0 0 0 0 0 0 0 0 0 
0 0 0 0 0 0 0 0 0 
0 0 0 0 0 0 0 0 0 
0 0 0 0 0 0 0 0 0 
0 0 0 0 0 0 0 0 0 
0 0 0 0 0 0 0 0 0 
0 0 0 0 0 0 0 0 0 
0 0 0 0 0 0 0 0 0 
0 0 0 0 0 0 0 0 0 
0 0 0 0 0 0 0 0 0 
0 0 0 0 0 0 0 0 0 
0 0 0 0 0 0 0 0 0 
0 0 0 0 0 0 0 0 0 
0 0 0 0 0 0 0 0 0 
0 0 0 0 0 0 0 0 0 
0 0 0 0 0 0 0 0 0 
0 0 0 0 0 0 0 0 0 
0 0 0 0 0 0 0 0 0 
0 0 0 0 0 0 0 0 0 
0 0 0 0 0 0 0 0 0 
0 0 0 0 0 0 0 0 0 
0 0 0 0 0 0 0 0 0 
0 0 0 0 0 0 0 0 0 
0 0 0 0 0 0 0 0 0 
0 0 0 0 0 0 0 0 0 
0 0 0 0 0 0 0 0 0 
0 0 0 0 0 0 0 0 0 
0 0 0 0 0 0 0 0 0 
0 0 0 0 0 0 0 0 0 
0 0 0 0 0 0 0 0 0 
0 0 0 0 0 0 0 0 0 
0 0 0 0 0 0 0 0 0 
0 0 0 0 0 0 0 0 0 
0 0 0 0 0 0 0 0 0 
0 0 0 0 0 0 0 0 0 
0 0 0 0 0 0 0 0 0 
0 0 0 0 0 0 0 0 0 
0 0 0 0 0 0 0 0 0 
0 0 0 0 0 0 0 0 0 
0 0 0 0 0 0 0 0 0 
0 0 0 0 0 0 0 0 0 
0 0 0 0 0 0 0 0 0 
0 0 0 0 0 0 0 0 0 
0 0 0 0 0 0 0 0 0 
0 0 0 0 0 0 0 0 0 
0 0 0 0 0 0 0 0 0 
0 0 0 0 0 0 0 0 0 
0 0 0 0 0 0 0 0 0 
0 0 0 0 0 0 0 0 0 
0 0 0 0 0 0 0 0 0 
0 0 0 0 0 0 0 0 0 
0 0 0 0 0 0 0 0 0 
0 0 0 0 0 0 0 0 0 
0 0 0 0 0 0 0 0 0 
0 0 0 0 0 0 0 0 0 
0 0 0 0 0 0 0 0 0 
0 0 0 0 0 0 0 0 0 
0 0 0 0 0 0 0 0 0 
0 0 0 0 0 0 0 0 0 
0 0 0 0 0 0 0 0 0 
0 0 0 0 0 0 0 0 0 
0 0 0 0 0 0 0 0 0 
0 0 0 0 0 0 0 0 0 
0 0 0 0 0 0 0 0 0 
0 0 0 0 0 0 0 0 0 
0 0 0 0 0 0 0 0 0 
0 0 0 0 0 0 0 0 0 
0 0 0 0 0 0 0 0 0 
0 0 0 0 0 0 0 0 0 
0 0 0 0 0 0 0 0 0 
0 0 0 0 0 0 0 0 0 
0 0 0 0 0 0 0 0 0 
0 0 0 0 0 0 0 0 0 
0 0 0 0 0 0 0 0 0 
0 0 0 0 0 0 0 0 0 
0 0 0 0 0 0 0 0 0 
0 0 0 0 0 0 0 0 0 
0 0 0 0 0 0 0 0 0 
0 0 0 0 0 0 0 0 0 
0 0 0 0 0 0 0 0 0 
0 0 0 0 0 0 0 0 0 
0 0 0 0 0 0 0 0 0 
0 0 0 0 0 0 0 0 0 
0 0 0 0 0 0 0 0 0 
0 0 0 0 0 0 0 0 0 
0 0 0 0 0 0 0 0 0 
0 0 0 0 0 0 0 0 0 
0 0 0 0 0 0 0 0 0 
0 0 0 0 0 0 0 0 0 
0 0 0 0 0 0 0 0 0 
0 0 0 0 0 0 0 0 0 
0 0 0 0 0 0 0 0 0 
0 0 0 0 0 0 0 0 0 
0 0 0 0 0 0 0 0 0 
0 0 0 0 0 0 0 0 0 
0 0 0 0 0 0 0 0 0 
0 0 0 0 0 0 0 0 0 
0 0 0 0 0 0 0 0 0 
0 0 0 0 0 0 0 0 0 
0 0 0 0 0 0 0 0 0 
0 0 0 0 0 0 0 0 0 
0 0 0 0 0 0 0 0 0 
0 0 0 0 0 0 0 0 0 
0 0 0 0 0 0 0 0 0 
0 0 0 0 0 0 0 0 0 
0 0 0 0 0 0 0 0 0 
0 0 0 0 0 0 0 0 0 
0 0 0 0 0 0 0 0 0 
0 0 0 0 0 0 0 0 0 
0 0 0 0 0 0 0 0 0 
0 0 0 0 0 0 0 0 0 
0 0 0 0 0 0 0 0 0 
0 0 0 0 0 0 0 0 0 
0 0 0 0 0 0 0 0 0 
0 0 0 0 0 0 0 0 0 
0 0 0 0 0 0 0 0 0 
0 0 0 0 0 0 0 0 0 
0 0 0 0 0 0 0 0 0 
0 0 0 0 0 0 0 0 0 
0 0 0 0 0 0 0 0 0 
0 0 0 0 0 0 0 0 0 
0 0 0 0 0 0 0 0 0 
0 0 0 0 0 0 0 0 0 
0 0 0 0 0 0 0 0 0 
0 0 0 0 0 0 0 0 0 
0 0 0 0 0 0 0 0 0 
0 0 0 0 0 0 0 0 0 
0 0 0 0 0 0 0 0 0 
0 0 0 0 0 0 0 0 0 
0 0 0 0 0 0 0 0 0 
0 0 0 0 0 0 0 0 0 
0 0 0 0 0 0 0 0 0 
0 0 0 0 0 0 0 0 0 
0 0 0 0 0 0 0 0 0 
0 0 0 0 0 0 0 0 0 
0 0 0 0 0 0 0 0 0 
0 0 0 0 0 0 0 0 0 
0 0 0 0 0 0 0 0 0 
0 0 0 0 0 0 0 0 0 
0 0 0 0 0 0 0 0 0 
0 0 0 0 0 0 0 0 0 
0 0 0 0 0 0 0 0 0 
0 0 0 0 0 0 0 0 0 
0 0 0 0 0 0 0 0 0 
0 0 0 0 0 0 0 0 0 
0 0 0 0 0 0 0 0 0 
0 0 0 0 0 0 0 0 0 
0 0 0 0 0 0 0 0 0 
0 0 0 0 0 0 0 0 0 
0 0 0 0 0 0 0 0 0 
0 0 0 0 0 0 0 0 0 
0 0 0 0 0 0 0 0 0 
0 0 0 0 0 0 0 0 0 
0 0 0 0 0 0 0 0 0 
0 0 0 0 0 0 0 0 0 
0 0 0 0 0 0 0 0 0 
0 0 0 0 0 0 0 0 0 
0 0 0 0 0 0 0 0 0 
0 0 0 0 0 0 0 0 0 
0 0 0 0 0 0 0 0 0 
0 0 0 0 0 0 0 0 0 
0 0 0 0 0 0 0 0 0 
0 0 0 0 0 0 0 0 0 
0 0 0 0 0 0 0 0 0 
0 0 0 0 0 0 0 0 0 
0 0 0 0 0 0 0 0 0 
0 0 0 0 0 0 0 0 0 
0 0 0 0 0 0 0 0 0 
0 0 0 0 0 0 0 0 0 
0 0 0 0 0 0 0 0 0 
0 0 0 0 0 0 0 0 0 
0 0 0 0 0 0 0 0 0 
0 0 0 0 0 0 0 0 0 
0 0 0 0 0 0 0 0 0 
0 0 0 0 0 0 0 0 0 
0 0 0 0 0 0 0 0 0 
0 0 0 0 0 0 0 0 0 
0 0 0 0 0 0 0 0 0 
0 0 0 0 0 0 0 0 0 
0 0 0 0 0 0 0 0 0 
0 0 0 0 0 0 0 0 0 
0 0 0 0 0 0 0 0 0 
0 0 0 0 0 0 0 0 0 
0 0 0 0 0 0 0 0 0 
0 0 0 0 0 0 0 0 0 
0 0 0 0 0 0 0 0 0 
0 0 0 0 0 0 0 0 0 
0 0 0 0 0 0 0 0 0 
0 0 0 0 0 0 0 0 0 
0 0 0 0 0 0 0 0 0 
0 0 0 0 0 0 0 0 0 
0 0 0 0 0 0 0 0 0 
0 0 0 0 0 0 0 0 0 
0 0 0 0 0 0 0 0 0 
0 0 0 0 0 0 0 0 0 
0 0 0 0 0 0 0 0 0 
0 0 0 0 0 0 0 0 0 
0 0 0 0 0 0 0 0 0 
0 0 0 0 0 0 0 0 0 
0 0 0 0 0 0 0 0 0 
0 0 0 0 0 0 0 0 0 
0 0 0 0 0 0 0 0 0 
0 0 0 0 0 0 0 0 0 
0 0 0 0 0 0 0 0 0 
0 0 0 0 0 0 0 0 0 
0 0 0 0 0 0 0 0 0 
0 0 0 0 0 0 0 0 0 
0 0 0 0 0 0 0 0 0 
0 0 0 0 0 0 0 0 0 
0 0 0 0 0 0 0 0 0 
0 0 0 0 0 0 0 0 0 
0 0 0 0 0 0 0 0 0 
0 0 0 0 0 0 0 0 0 
0 0 0 0 0 0 0 0 0 
0 0 0 0 0 0 0 0 0 
0 0 0 0 0 0 0 0 0 
0 0 0 0 0 0 0 0 0 
0 0 0 0 0 0 0 0 0 
0 0 0 0 0 0 0 0 0 
0 0 0 0 0 0 0 0 0 
0 0 0 0 0 0 0 0 0 
0 0 0 0 0 0 0 0 0 
0 0 0 0 0 0 0 0 0 
0 0 0 0 0 0 0 0 0 
0 0 0 0 0 0 0 0 0 
0 0 0 0 0 0 0 0 0 
0 0 0 0 0 0 0 0 0 
0 0 0 0 0 0 0 0 0 
0 0 0 0 0 0 0 0 0 
0 0 0 0 0 0 0 0 0 
0 0 0 0 0 0 0 0 0 
0 0 0 0 0 0 0 0 0 
0 0 0 0 0 0 0 0 0 
0 0 0 0 0 0 0 0 0 
0 0 0 0 0 0 0 0 0 
0 0 0 0 0 0 0 0 0 
0 0 0 0 0 0 0 0 0 
0 0 0 0 0 0 0 0 0 
0 0 0 0 0 0 0 0 0 
0 0 0 0 0 0 0 0 0 
0 0 0 0 0 0 0 0 0 
0 0 0 0 0 0 0 0 0 
0 0 0 0 0 0 0 0 0 
0 0 0 0 0 0 0 0 0 
0 0 0 0 0 0 0 0 0 
0 0 0 0 0 0 0 0 0 
0 0 0 0 0 0 0 0 0 
0 0 0 0 0 0 0 0 0 
0 0 0 0 0 0 0 0 0 
0 0 0 0 0 0 0 0 0 
0 0 0 0 0 0 0 0 0 
0 0 0 0 0 0 0 0 0 
0 0 0 0 0 0 0 0 0 
0 0 0 0 0 0 0 0 0 
0 0 0 0 0 0 0 0 0 
0 0 0 0 0 0 0 0 0 
0 0 0 0 0 0 0 0 0 
0 0 0 0 0 0 0 0 0 
0 0 0 0 0 0 0 0 0 
0 0 0 0 0 0 0 0 0 
0 0 0 0 0 0 0 0 0 
0 0 0 0 0 0 0 0 0 
0 0 0 0 0 0 
v 3 1049 double
0.0410316 -0.150853 0 0.059935 -0.0812705 0 0.0302207 -0.115633 0 
-0.19839 -0.0766637 0 0.0510168 -0.125494 0 -0.0395037 -0.0275395 0 
-0.0201375 -0.0569757 0 0.0601345 -0.155132 0 -0.00380048 -0.0999667 0 
-0.012899 -0.120667 0 1.35491 -0.412082 0 -0.113715 -0.334986 0 
-1.26159 -0.354129 0 -0.064634 0.0638597 0 0.0816175 -0.121222 0 
5.60261 0.303717 0 0.0518473 0.355468 0 -0.853639 0.412851 0 
-1.54635 0.282008 0 0.281148 -0.494897 0 -0.101434 -0.0723825 0 
0.545972 -0.248249 0 -0.0885715 -0.0625338 0 0.054873 -0.0618579 0 
0.342006 -0.299863 0 0.0038945 -0.219016 0 0.027667 -0.0785277 0 
-0.537675 -0.151821 0 0.0839989 -0.180109 0 -0.065894 0.18851 0 
0.79362 -0.733742 0 -0.913532 2.09264 0 0.303297 0.131145 0 
0.459973 -0.0206221 0 -0.677536 -0.414827 0 0.939976 -1.11769 0 
-0.183521 -0.17718 0 -0.139949 -0.372822 0 -0.195912 -0.240882 0 
-0.216531 -0.245352 0 -0.296864 -0.465808 0 0.618579 -0.601981 0 
0.528531 -0.367962 0 0.118485 -0.130205 0 0.866098 -0.523846 0 
-0.0130806 -0.0593616 0 0.128533 -0.211046 0 0.0272314 0.0544977 0 
0.0470103 0.104143 0 0.107744 0.0934908 0 -0.0558584 0.150255 0 
-0.0823567 -0.0249922 0 -0.344676 -0.411204 0 -0.853184 -0.448192 0 
-0.701228 -0.0426339 0 -0.255626 -0.229601 0 -0.441784 -0.625477 0 
-0.665738 -0.455132 0 -0.817692 -0.644505 0 0.84664 -0.651683 0 
0.855573 -0.692356 0 0.835218 -0.668268 0 0.869344 -0.580828 0 
-0.73749 -0.625047 0 -0.750113 -0.652583 0 -0.691621 -0.482541 0 
-0.848567 -0.647697 0 -0.808518 -0.655561 0 -0.650373 -0.514314 0 
-0.609747 -0.622564 0 0.714469 -0.632405 0 0.728856 -0.594619 0 
-0.735264 -0.655675 0 -0.903006 -0.611061 0 -0.837417 -0.67131 0 
-0.812322 -0.680677 0 -0.779129 -0.710965 0 -0.715399 -0.574601 0 
-0.732891 -0.560708 0 -0.600287 -0.46376 0 0.606347 -0.489624 0 
0.60581 -0.478942 0 0.601355 -0.490563 0 0.782547 -0.638451 0 
0.778977 -0.625765 0 -0.851106 -0.677672 0 -0.890941 -0.663762 0 
-0.898859 -0.701617 0 -0.809324 -0.606374 0 -0.99965 -0.778459 0 
-0.654335 -0.553429 0 0.64303 -0.578149 0 0.711478 -0.642103 0 
0.94166 -0.662885 0 0.61684 -0.483736 0 -0.883619 -0.618585 0 
-0.827184 -0.68023 0 0.825918 -0.629362 0 -0.755476 -0.603729 0 
-0.658675 -0.528409 0 -0.611873 -0.454551 0 -0.624126 -0.456918 0 
-0.626226 -0.597453 0 -0.470159 -0.491842 0 -0.87248 -0.69767 0 
-0.565068 -0.719337 0 0 0 0 0 0 0 
0 0 0 0 0 0 0 0 0 
0 0 0 0 0 0 0 0 0 
0 0 0 0 0 0 0 0 0 
0 0 0 0 0 0 0 0 0 
0 0 0 0 0 0 0 0 0 
0 0 0 0 0 0 0 0 0 
0 0 0 0 0 0 0 0 0 
0 0 0 0 0 0 0 0 0 
0 0 0 0 0 0 0 0 0 
0 0 0 0 0 0 0 0 0 
0 0 0 0 0 0 0 0 0 
0 0 0 0 0 0 0 0 0 
0 0 0 0 0 0 0 0 0 
0 0 0 0 0 0 0 0 0 
0 0 0 0 0 0 0 0 0 
0 0 0 0 0 0 0 0 0 
0 0 0 0 0 0 0 0 0 
0 0 0 0 0 0 0 0 0 
0 0 0 0 0 0 0 0 0 
0 0 0 0 0 0 0 0 0 
0 0 0 0 0 0 0 0 0 
0 0 0 0 0 0 0 0 0 
0 0 0 0 0 0 0 0 0 
0 0 0 0 0 0 0 0 0 
0 0 0 0 0 0 0 0 0 
0 0 0 0 0 0 0 0 0 
0 0 0 0 0 0 0 0 0 
0 0 0 0 0 0 0 0 0 
0 0 0 0 0 0 0 0 0 
0 0 0 0 0 0 0 0 0 
0 0 0 0 0 0 0 0 0 
0 0 0 0 0 0 0 0 0 
0 0 0 0 0 0 0 0 0 
0 0 0 0 0 0 0 0 0 
0 0 0 0 0 0 0 0 0 
0 0 0 0 0 0 0 0 0 
0 0 0 0 0 0 0 0 0 
0 0 0 0 0 0 0 0 0 
0 0 0 0 0 0 0 0 0 
0 0 0 0 0 0 0 0 0 
0 0 0 0 0 0 0 0 0 
0 0 0 0 0 0 0 0 0 
0 0 0 0 0 0 0 0 0 
0 0 0 0 0 0 0 0 0 
0 0 0 0 0 0 0 0 0 
0 0 0 0 0 0 0 0 0 
0 0 0 0 0 0 0 0 0 
0 0 0 0 0 0 0 0 0 
0 0 0 0 0 0 0 0 0 
0 0 0 0 0 0 0 0 0 
0 0 0 0 0 0 -0.219546 0.0457257 0 
0.480169 -0.353034 0 0 0 0 0 0 0 
-0.117955 -0.259633 0 0.0916149 -0.0415644 0 -0.0701857 -0.878018 0 
0 0 0 0 0 0 0 0 0 
0 0 0 0 0 0 0 0 0 
0 0 0 0 0 0 0 0 0 
0 0 0 0 0 0 0 0 0 
0 0 0 0 0 0 0 0 0 
0 0 0 0 0 0 0 0 0 
0 0 0 0 0 0 0 0 0 
0 0 0 -0.237672 -0.774753 0 0 0 0 
0 0 0 0 0 0 0 0 0 
0 0 0 0 0 0 0 0 0 
0 0 0 0 0 0 0 0 0 
0 0 0 0 0 0 0 0 0 
0 0 0 0 0 0 0 0 0 
0 0 0 0 0 0 0 0 0 
0 0 0 0.0859921 -0.37496 0 0.179575 -0.0948501 0 
0 0 0 0 0 0 0 0 0 
0 0 0 0 0 0 0 0 0 
0 0 0 0 0 0 0 0 0 
0 0 0 -0.224186 -0.79134 0 0 0 0 
0 0 0 0 0 0 0 0 0 
0 0 0 0 0 0 0 0 0 
0 0 0 0 0 0 0 0 0 
0 0 0 0 0 0 0 0 0 
0 0 0 0 0 0 0 0 0 
0 0 0 0 0 0 0 0 0 
0 0 0 0 0 0 0 0 0 
0 0 0 0 0 0 0 0 0 
0 0 0 0 0 0 0 0 0 
0 0 0 0 0 0 -0.241438 -0.792928 0 
0 0 0 0 0 0 0 0 0 
0 0 0 0 0 0 0 0 0 
0 0 0 0 0 0 0 0 0 
0 0 0 0 0 0 0 0 0 
0 0 0 0 0 0 0 0 0 
0 0 0 0 0 0 0 0 0 
0 0 0 0 0 0 -0.111397 -0.735681 0 
0 0 0 0 0 0 0 0 0 
0 0 0 0 0 0 0 0 0 
0 0 0 0 0 0 0 0 0 
0 0 0 0 0 0 0 0 0 
0 0 0 0 0 0 0 0 0 
0 0 0 0 0 0 0 0 0 
0 0 0 0 0 0 0 0 0 
0 0 0 0 0 0 0 0 0 
0 0 0 0 0 0 0 0 0 
0 0 0 0 0 0 0 0 0 
-0.10619 -0.700733 0 0 0 0 0 0 0 
0 0 0 0 0 0 0 0 0 
0 0 0 0 0 0 0 0 0 
0 0 0 0 0 0 0 0 0 
0 0 0 0 0 0 0 0 0 
0 0 0 0 0 0 0 0 0 
0 0 0 0 0 0 0 0 0 
0 0 0 0 0 0 0 0 0 
0 0 0 0 0 0 0 0 0 
0 0 0 0 0 0 0 0 0 
0 0 0 0 0 0 0 0 0 
0 0 0 0 0 0 0 0 0 
0 0 0 0 0 0 0 0 0 
0 0 0 0 0 0 0 0 0 
0 0 0 0 0 0 0 0 0 
0 0 0 0 0 0 0 0 0 
0 0 0 0 0 0 0 0 0 
0 0 0 0 0 0 0 0 0 
0 0 0 0 0 0 0 0 0 
0 0 0 0 0 0 0 0 0 
0 0 0 -0.104257 -0.682899 0 0 0 0 
0 0 0 0 0 0 0 0 0 
0 0 0 0 0 0 0 0 0 
0 0 0 0 0 0 0 0 0 
0 0 0 0 0 0 0 0 0 
0 0 0 0 0 0 0 0 0 
0 0 0 0 0 0 0 0 0 
0 0 0 0 0 0 0 0 0 
0 0 0 0 0 0 0 0 0 
0 0 0 0 0 0 0 0 0 
0 0 0 0 0 0 -0.103611 -0.683496 0 
0 0 0 0 0 0 0 0 0 
0 0 0 0 0 0 0 0 0 
0 0 0 0 0 0 0 0 0 
0 0 0 0 0 0 0 0 0 
0 0 0 0 0 0 0 0 0 
0 0 0 0 0 0 0 0 0 
0 0 0 0 0 0 0 0 0 
0 0 0 0 0 0 0 0 0 
0 0 0 0 0 0 0 0 0 
0 0 0 0 0 0 0 0 0 
0 0 0 0 0 0 0 0 0 
0 0 0 0 0 0 0 0 0 
0 0 0 0 0 0 0 0 0 
0 0 0 0 0 0 0 0 0 
0 0 0 0 0 0 0 0 0 
0 0 0 0 0 0 0 0 0 
0 0 0 0 0 0 0 0 0 
0 0 0 0 0 0 0 0 0 
0 0 0 0 0 0 0 0 0 
0 0 0 0 0 0 0 0 0 
0 0 0 0 0 0 0 0 0 
0 0 0 0 0 0 0 0 0 
0 0 0 0 0 0 0 0 0 
0 0 0 0 0 0 0 0 0 
0 0 0 0 0 0 0 0 0 
0 0 0 0 0 0 0 0 0 
0 0 0 0 0 0 0 0 0 
0 0 0 0 0 0 0 0 0 
0 0 0 0 0 0 0 0 0 
0 0 0 0 0 0 0 0 0 
0 0 0 0 0 0 0 0 0 
0 0 0 0 0 0 0 0 0 
0 0 0 0 0 0 0 0 0 
0 0 0 0 0 0 0 0 0 
0 0 0 0 0 0 0 0 0 
0 0 0 0 0 0 0 0 0 
0 0 0 0 0 0 0 0 0 
0 0 0 0 0 0 0 0 0 
0 0 0 0 0 0 0 0 0 
0 0 0 0 0 0 0 0 0 
0 0 0 0 0 0 0 0 0 
0 0 0 0 0 0 0 0 0 
0 0 0 0 0 0 0 0 0 
0 0 0 0 0 0 0 0 0 
0 0 0 0 0 0 0 0 0 
0 0 0 0 0 0 0 0 0 
0 0 0 0 0 0 0 0 0 
0 0 0 0 0 0 0 0 0 
0 0 0 0 0 0 0 0 0 
0 0 0 0 0 0 0 0 0 
0 0 0 0 0 0 0 0 0 
0 0 0 0 0 0 0 0 0 
0 0 0 0 0 0 0 0 0 
0 0 0 0 0 0 0 0 0 
0 0 0 0 0 0 0 0 0 
0 0 0 0 0 0 0 0 0 
0 0 0 0 0 0 0 0 0 
0 0 0 0 0 0 0 0 0 
0 0 0 0 0 0 0 0 0 
0 0 0 0 0 0 0 0 0 
0 0 0 0 0 0 0 0 0 
0 0 0 0 0 0 0 0 0 
0 0 0 0 0 0 0 0 0 
0 0 0 0 0 0 0 0 0 
0 0 0 0 0 0 0 0 0 
0 0 0 0 0 0 0 0 0 
0 0 0 0 0 0 0 0 0 
0 0 0 0 0 0 0 0 0 
0 0 0 0 0 0 0 0 0 
0 0 0 0 0 0 0 0 0 
0 0 0 0 0 0 0 0 0 
0 0 0 0 0 0 0 0 0 
0 0 0 0 0 0 0 0 0 
0 0 0 0 0 0 0 0 0 
0 0 0 0 0 0 0 0 0 
0 0 0 0 0 0 0 0 0 
0 0 0 0 0 0 0 0 0 
0 0 0 0 0 0 0 0 0 
0 0 0 0 0 0 0 0 0 
0 0 0 0 0 0 0 0 0 
0 0 0 0 0 0 0 0 0 
0 0 0 0 0 0 0 0 0 
0 0 0 0 0 0 0 0 0 
0 0 0 0 0 0 0 0 0 
0 0 0 0 0 0 0 0 0 
0 0 0 0 0 0 0 0 0 
0 0 0 0 0 0 0 0 0 
0 0 0 0 0 0 0 0 0 
0 0 0 0 0 0 0 0 0 
0 0 0 0 0 0 0 0 0 
0 0 0 0 0 0 0 0 0 
0 0 0 0 0 0 0 0 0 
0 0 0 0 0 0 0 0 0 
0 0 0 0 0 0 0 0 0 
0 0 0 0 0 0 0 0 0 
0 0 0 0 0 0 0 0 0 
0 0 0 0 0 0 0 0 0 
0 0 0 0 0 0 0 0 0 
0 0 0 0 0 0 0 0 0 
0 0 0 0 0 0 0 0 0 
0 0 0 0 0 0 0 0 0 
0 0 0 0 0 0 0 0 0 
0 0 0 0 0 0 0 0 0 
0 0 0 0 0 0 0 0 0 
0 0 0 0 0 0 0 0 0 
0 0 0 0 0 0 0 0 0 
0 0 0 0 0 0 0 0 0 
0 0 0 0 0 0 0 0 0 
0 0 0 0 0 0 0 0 0 
0 0 0 0 0 0 0 0 0 
0 0 0 0 0 0 0 0 0 
0 0 0 0 0 0 0 0 0 
0 0 0 0 0 0 0 0 0 
0 0 0 0 0 0 0 0 0 
0 0 0 0 0 0 0 0 0 
0 0 0 0 0 0 0 0 0 
0 0 0 0 0 0 0 0 0 
0 0 0 0 0 0 0 0 0 
0 0 0 0 0 0 0 0 0 
0 0 0 0 0 0 0 0 0 
0 0 0 0 0 0 0 0 0 
0 0 0 0 0 0 0 0 0 
0 0 0 0 0 0 0 0 0 
0 0 0 0 0 0 0 0 0 
0 0 0 0 0 0 0 0 0 
0 0 0 0 0 0 0 0 0 
0 0 0 0 0 0 0 0 0 
0 0 0 0 0 0 0 0 0 
0 0 0 0 0 0 0 0 0 
0 0 0 0 0 0 0 0 0 
0 0 0 0 0 0 0 0 0 
0 0 0 0 0 0 0 0 0 
0 0 0 0 0 0 0 0 0 
0 0 0 0 0 0 0 0 0 
0 0 0 0 0 0 0 0 0 
0 0 0 0 0 0 0 0 0 
0 0 0 0 0 0 0 0 0 
0 0 0 0 0 0 0 0 0 
0 0 0 0 0 0 0 0 0 
0 0 0 0 0 0 0 0 0 
0 0 0 0 0 0 0 0 0 
0 0 0 0 0 0 0 0 0 
0 0 0 0 0 0 0 0 0 
0 0 0 0 0 0 0 0 0 
0 0 0 0 0 0 0 0 0 
0 0 0 0 0 0 0 0 0 
0 0 0 0 0 0 0 0 0 
0 0 0 0 0 0 0 0 0 
0 0 0 0 0 0 0 0 0 
0 0 0 0 0 0 0 0 0 
0 0 0 0 0 0 0 0 0 
0 0 0 0 0 0 0 0 0 
0 0 0 0 0 0 0 0 0 
0 0 0 0 0 0 0 0 0 
0 0 0 0 0 0 0 0 0 
0 0 0 0 0 0 0 0 0 
0 0 0 0 0 0 0 0 0 
0 0 0 0 0 0 0 0 0 
0 0 0 0 0 0 0 0 0 
0 0 0 0 0 0 0 0 0 
0 0 0 0 0 0 0 0 0 
0 0 0 0 0 0 0 0 0 
0 0 0 0 0 0 0 0 0 
0 0 0 0 0 0 0 0 0 
0 0 0 0 0 0 0 0 0 
0 0 0 0 0 0 0 0 0 
0 0 0 0 0 0 0 0 0 
0 0 0 0 0 0 0 0 0 
0 0 0 0 0 0 0 0 0 
0 0 0 0 0 0 0 0 0 
0 0 0 0 0 0 0 0 0 
0 0 0 0 0 0 0 0 0 
0 0 0 0 0 0 0 0 0 
0 0 0 0 0 0 0 0 0 
0 0 0 0 0 0 0 0 0 
0 0 0 0 0 0 0 0 0 
0 0 0 0 0 0 0 0 0 
0 0 0 0 0 0 0 0 0 
0 0 0 0 0 0 0 0 0 
0 0 0 0 0 0 0 0 0 
0 0 0 0 0 0 0 0 0 
0 0 0 0 0 0 0 0 0 
0 0 0 0 0 0 0 0 0 
0 0 0 0 0 0 
x 1 1049 double
-1.42743 -0.0814358 -0.679023 -0.284572 0.286955 0.78688 1.24796 -1.08495 -1.2739 
-1.66028 -0.0683288 -0.393498 -0.3959 -0.730384 -0.836579 -0.0137727 0.0396176 0.426992 
0.542869 0.740155 1.46261 1.03617 1.59731 -1.90567 -1.5386 -1.39169 -0.999359 
-0.121893 -0.940414 -0.582696 -0.574174 -0.216538 0.297959 0.966232 0.595911 0.193699 
0.774306 0.965123 1.47787 1.27207 1.95056 -2.57539 -1.92154 -1.16234 -1.78917 
-0.272804 -0.313777 -0.65988 0.0571416 0.516881 0.732939 0.210388 1.89105 1.9076 
1.39433 1.24331 2.45382 2.96672 2.45273 -3.26049 -3.58145 -2.71272 -2.62177 
1.87277 2.43692 3.65786 3.25309 4.653 5.28339 5.85935 -5.9981 -5.31101 
4.6779 4.82511 5.94916 5.63095 5.19703 6.06708 6.39111 7.34441 -8.35035 
-7.82762 -7.42162 -6.60609 -5.76851 5.41978 6.09289 6.7789 6.95623 7.68848 
8.10051 -9.31982 -8.33354 -7.468 -7.6675 7.28164 8.2631 -8.97545 9.18407 
9.54165 10.2407 10.6911 10.8471 11.5688 11.2155 11.8364 -14.2857 -15 
-14.6429 -14.8214 -14.1071 -15 -15 -14.4643 -15 -15 -13.75 
-13.2143 -13.3929 -13.9286 -13.0357 -13.5714 -12.6786 -12.5 -12.8571 -11.3214 
-11.5 -11.1429 -10.4286 -10.0714 -10.7857 -10.6071 -10.25 -10.9643 -9.8929 
-9.3571 -9.7143 -9.1786 -9.5357 -9 -8.6 -9 -9 -8.2 
-8.8 -9 -9 -8.4 -8 -7.6 -7.8 -7.4 -7.2 
-7 -6.2 -6.4 -6.6 -6.8 -6 -5.6 -5.2 -5.8 
-5.4 -4.4 -4.2 -4.8 -5 -4.6 -4 -3.6 -3.2 
-3.8 -3.4 -2.6 -3 -3 -2.2 -3 -2.8 -3 
-2.4 -3 -2 -1.4 -1.8 -1.2 -1.6 -0.8 -1 
-0.4 -0.2 -0.6 0.4 0.8 -0 0.2 0.6 1 
1.2 1.4 1.6 1.8 2.6 2 2.8 2.2 2.4 
3.6 3 3 3.2 3.4 3.8 3 3 3 
4.4 4 4.8 4.2 4.6 5.8 5.6 5.2 5.4 
5 6.8 6 6.4 6.6 6.2 7 7.4 7.6 
7.2 7.8 8.8 8 8.2 8.4 8.6 9.8929 9.3571 
9.1786 9 9.5357 9 9 9 9 9.7143 10.4286 
10.0714 10.9643 10.7857 10.6071 10.25 11.3214 11.1429 11.5 11.3857 
11.5975 12.6786 12.8571 12.4842 12.5463 12.0107 12.5 13.2143 13.5714 
13.9286 13.75 13.0357 13.3929 14.1071 14.2857 14.6429 14.4643 14.8214 
15 15 15 15 15 -15 -15 -15 -15 
-15 -11.5808 -9 -9 -9 -9 -9 -3 -3 
-3 -3 -3 3 3 3 3 3 9 
9 9 9 9 11.4832 12.0609 15 15 15 
15 15 -15 -15 -15 -15 -15 -11.18 -9 
-9 -9 -9 -9 -3 -3 -3 -3 -3 
3 3 3 3 3 9 9 9 9 
9 15 15 15 15 15 -15 -15 -15 
-15 -15 -11.0782 -9 -9 -9 -9 -9 -3 
-3 -3 -3 -3 3 3 3 3 3 
9 9 9 9 9 12.5137 15 15 15 
15 15 -15 -15 -15 -15 -15 -9 -9 
-9 -9 -9 -3 -3 -3 -3 -3 3 
3 3 3 3 9 9 9 9 9 
12.7403 15 15 15 15 15 -15 -15 -15 
-15 -15 -9 -9 -9 -9 -9 -3 -3 
-3 -3 -3 3 3 3 3 3 9 
9 9 9 9 15 15 15 15 15 
-15 -15 -15 -15 -15 -9 -9 -9 -9 
-9 -3 -3 -3 -3 -3 3 3 3 
3 3 9 9 9 9 9 13.054 15 
15 15 15 15 -15 -15 -15 -15 -15 
-9 -9 -9 -9 -9 -3 -3 -3 -3 
-3 3 3 3 3 3 9 9 9 
9 9 13.1805 15 15 15 15 15 -15 
-15 -15 -15 -15 -8.1071 -8.2857 -9 -8.6429 -8.8214 
-8.4643 -7.75 -7.2143 -7.3929 -7.0357 -7.9286 -7.5714 -6.8571 -6.5 
-6.6786 -5.1429 -5.5 -5.3214 -4.9643 -4.6071 -4.25 -4.7857 -4.4286 
-4.0714 -3.8929 -3.7143 -3.5357 -3.1786 -3.3571 -2.6429 -3 -2.8214 
-2.2857 -2.1071 -2.4643 -1.75 -1.2143 -1.5714 -1.0357 -1.3929 -1.9286 
-0.5 -0.6786 -0.8571 0.8571 0.6786 0.5 1.75 1.2143 1.5714 
1.0357 1.3929 1.9286 2.1071 2.2857 2.6429 2.8214 2.4643 3.3571 
3.5357 3.7143 3.1786 3.8929 3 4.6071 4.7857 4.4286 4.9643 
4.0714 4.25 5.5 5.3214 5.1429 6.5 6.8571 6.6786 7.0357 
7.75 7.2143 7.5714 7.9286 7.3929 8.1071 8.2857 8.4643 8.8214 
8.6429 9 9 15 15 15 15 15 -15 
-15 -15 -15 -15 15 15 15 15 15 
-14.3333 -15 -15 -14.6667 -15 -15 -14.1667 -15 -14.8333 
-14.5 -14 -12.2 -13 -12.6 -12.4 -12.8 -11.2 -11.6 
-12 -11.4 -11.8 -10.4 -11 -10.6 -10.8 -10.2 -9.2 
-9.4 -9.6 -10 -9.8 -9 -8.6429 -9 -9 -8.4643 
-9 -9 -8.1071 -8.2857 -8.8214 -7.75 -7.2143 -7.9286 -7.5714 
-7.0357 -7.3929 -6.6786 -6.5 -6.8571 -5.1429 -5.3214 -5.5 -4.0714 
-4.9643 -4.6071 -4.4286 -4.7857 -4.25 -3.7143 -3.5357 -3.3571 -3.1786 
-3.8929 -2.4 -2.2 -2.8 -3 -3 -3 -3 -3 
-2.6 -1.8 -1.2 -1.6 -2 -1.4 -1 -0.8 -0.4 
-0.2 -0.6 0.2 -0 0.6 0.4 0.8 1 1.4 
1.6 1.2 1.8 2.2 2.4 2.6 2 2.8 3.4 
3.6 3.8 3 3.2 4.2 4 4.6 4.8 4.4 
5.8 5.4 5.6 5.2 5 6.6 6.2 6.4 6.8 
6 7.4 7.2 7.8 7 7.6 8.2 8.6 8.4 
8 8.8 9 9.8 9 9.2 9 9 9.6 
9.4 9 10 10.2 10.4 10.6 10.8 11 11.2 
11.4 11.6 11.8 12 12.8 12.2 12.4 12.6 13 
14.6667 14.3333 14.8333 14.5 14 14.1667 15 15 15 
15 15 -15 -15 -15 -15 -15 -9 -9 
-9 -9 -9 -3 -3 -3 -3 -3 9 
9 9 9 9 15 15 15 15 15 
-15 -15 -15 -15 -15 -9 -9 -9 -9 
-9 -3 -3 -3 -3 -3 9 9 9 
9 9 15 15 15 15 15 -15 -15 
-15 -15 -15 -9 -9 -9 -9 -9 -3 
-3 -3 -3 -3 9 9 9 9 9 
15 15 15 15 15 -15 -15 -15 -15 
-15 -9 -9 -9 -9 -9 -3 -3 -3 
-3 -3 9 15 15 15 15 15 -15 
-15 -15 -15 -15 -9 -9 -9 -9 -9 
-3 -3 -3 -3 -3 9 9 9 9 
9 9 15 15 15 15 15 -14.2 -14.8 
-15 -14.4 -14.6 -13.2 -13.8 -14 -13.6 -13.4 -12.4 
-13 -12.6 -12.2 -12.8 -11.6 -11.8 -11.4 -11.2 -12 
-10.6 -10.2 -11 -10.8 -10.4 -10 -9.2 -9.6 -9.4 
-9.8 -8.2 -8.4 -9 -8.8 -8.6 -8 -7.4 -7.2 
-7.6 -7.8 -6.4 -6.8 -6.6 -7 -6.2 -5.8 -5.6 
-5.2 -6 -5.4 -5 -4.6 -4.2 -4.4 -4.8 -4 
-3.4 -3.8 -3.6 -3.2 -2.6 -2.2 -3 -2.8 -2.4 
-1.4 -1.6 -1.8 -1.2 -2 -0.2 -1 -0.8 -0.6 
-0.4 0.4 -0 0.6 0.8 0.2 1.4 1.6 1.2 
1.8 1 2 2.8 2.2 2.4 2.6 3.4 3 
3.8 3.2 3.6 4 4.2 4.4 4.6 4.8 5.8 
5 5.4 5.2 5.6 6.4 6.8 6.6 6.2 6 
7.4 7 7.6 7.8 7.2 8.6 8.8 8 8.4 
8.2 9 9.2 9.8 9.4 9.6 10 10.2 10.4 
10.6 10.8 11.4 11.8 11 11.6 11.2 12.4 12.8 
12.6 12.2 12 13 13.8 13.4 13.6 13.2 14.8 
14 14.2 14.4 14.6 15 
y 1 1049 double
-11.0491 -11.5142 -11.4115 -11.0319 -11.1104 -11.3983 -11.0147 -9.99877 -10.5099 
-10.109 -10.3426 -10.6011 -10.0445 -10.3121 -10.8529 -10.0062 -10.7408 -10.509 
-10.1574 -10.8618 -10.0809 -10.4553 -10.5757 -9.57272 -9.10403 -9.59563 -9.13453 
-9.28562 -9.56957 -9.71739 -9.24593 -9.62707 -9.29898 -9.96627 -9.76157 -9.75714 
-9.44136 -9.06159 -9.16722 -9.61096 -9.4263 -8.59262 -8.63713 -8.56271 -8.01782 
-8.40362 -8.8844 -8.71621 -8.77676 -8.80596 -8.29596 -8.30139 -8.8617 -8.30607 
-8.07375 -8.61581 -8.80749 -8.41919 -8.26098 -7.8695 -7.07982 -7.35377 -7.9569 
-7.63807 -7.73632 -7.74497 -7.19021 -6.20588 -6.5654 -6.45658 -5.62784 -5.37053 
-5.57678 -4.99643 -5.14758 -5.55383 -5.90766 -5.97691 -5.53338 -5.45563 -4.2764 
-4.43256 -4.83859 -4.45371 -4.94806 -4.92305 -4.60227 -4.32908 -4.96486 -4.04088 
-4.49579 -3.05763 -3.13953 -3.94913 -3.06173 -3.61072 -3.14411 -2.47348 -2.90936 
-2.07835 -1.69734 -1.12276 -1.92537 -1.22008 -0.674619 -0.305449 0 0.4 
0 0 0 0.8 0.2 0 0.6 0 0 
0 0 0 0 0 0 0 0 0 
0 0 0 0 0 0 0 0 0 
0 0 0 0 0.8 0 0.2 0.6 0 
0 0.4 0 0 0 0 0 0 0 
0 0 0 0 0 0 0 0 0 
0 0 0 0 0 0 0 0 0 
0 0 0 0.4 0.2 0 0 0 0.8 
0 0.6 0 0 0 0 0 0 0 
0 0 0 0 0 0 0 0 0 
0 0 0 0 0 0 0 0 0 
0 0.4 0.8 0 0 0 0.6 0 0.2 
0 0 0 0 0 0 0 0 0 
0 0 0 0 0 0 0 0 0 
0 0 0 0 0 0 0 0 0 
0 0.6 0 0.2 0 0.8 0.4 0 0 
0 0 0 0 0 0 0 0 0.364435 
0.824265 0 0 0.763809 0.297879 0.340353 0 0 0 
0 0 0 0 0 0 0 0 0 
0.4 0.8 0.2 0 0.6 1.4 1.6 1.2 1.8 
1 1.96334 1.6 1 1.4 1.2 1.8 1.6 1.8 
1 1.4 1.2 1.2 1.6 1.4 1.8 1 1.2 
1.4 1 1.6 1.8 1.3931 1.1148 1 1.6 1.8 
1.2 1.4 2 2.8 2.4 2.6 2.2 2.35172 2.2 
2.4 2.6 2 2.8 2 2.2 2.4 2.6 2.8 
2.2 2.8 2 2.4 2.6 2.6 2.2 2.4 2.8 
2 2.4 2 2.8 2.6 2.2 3.6 3.2 3.8 
3 3.4 3.10741 3.2 3.4 3.6 3 3.8 3.4 
3.2 3.8 3 3.6 3.2 3.6 3 3.4 3.8 
3.8 3.2 3 3.6 3.4 3.39222 3 3.4 3.2 
3.6 3.8 4.8 4.2 4.4 4 4.6 4.4 4.8 
4 4.6 4.2 4.4 4 4.8 4.6 4.2 4.2 
4.6 4.8 4 4.4 4.4 4.6 4.2 4.8 4 
4.88547 4 4.6 4.2 4.8 4.4 5.4 5.8 5.2 
5 5.6 5 5.6 5.2 5.8 5.4 5 5.8 
5.6 5.4 5.2 5.2 5 5.4 5.6 5.8 5.4 
5.2 5.6 5 5.8 5.4 5 5.8 5.6 5.2 
6.2 6.8 6.4 6 6.6 6.6 6.8 6.4 6 
6.2 6.4 6.8 6 6.2 6.6 6 6.4 6.6 
6.2 6.8 6 6.6 6.2 6.4 6.8 6.88174 6 
6.2 6.8 6.4 6.6 7.8 7.6 7.2 7 7.4 
7.8 7 7.6 7.2 7.4 7.6 7.8 7 7.4 
7.2 7 7.8 7.6 7.2 7.4 7.4 7 7.8 
7.2 7.6 7.80088 7.2 7.6 7.8 7.4 7 8.6 
8 8.8 8.2 8.4 8 8 8 8 8 
8 8 8 8 8 8 8 8 8 
8 8 8 8 8 8 8 8 8 
8 8 8 8 8 8 8 8 8 
8 8 8 8 8 8 8 8 8 
8 8 8 8 8 8 8 8 8 
8 8 8 8 8 8 8 8 8 
8 8 8 8 8 8 8 8 8 
8 8 8 8 8 8 8 8 8 
8 8 8 8 8 8 8 8 8 
8 8 8 8.4 8.8 8.6 8.2 8 9.6 
9.4 9 9.8 9.2 9.2 9.6 9.8 9 9.4 
10 10.8 10.4 10 10.2 10 10 10.6 10 
10 10 10 10 10 10 10 10 10 
10 10 10 10 10 10 10 10 10 
10 10 10 10 10.2 10 10.6 10.8 10 
10.4 10 10 10 10 10 10 10 10 
10 10 10 10 10 10 10 10 10 
10 10 10 10 10 10 10 10 10 
10 10 10 10 10 10.8 10.4 10.2 10.6 
10 10 10 10 10 10 10 10 10 
10 10 10 10 10 10 10 10 10 
10 10 10 10 10 10 10 10 10 
10 10 10 10 10 10 10 10 10 
10 10 10 10 10 10 10 10 10 
10 10 10 10 10 10 10 10 10 
10 10 10.4 10 10.8 10 10.2 10 10 
10 10.6 10 10 10 10 10 10 10 
10 10 10 10 10 10 10 10 10 
10 10 10 10 10 10 10.2 10.4 10.8 
10.6 10 11.4 11.8 11.2 11.6 11 11.4 11.6 
11 11.2 11.8 11 11.2 11.8 11.6 11.4 11.8 
11.4 11.2 11 11.6 11.2 11.4 11.8 11.6 11 
12 12.6 12.4 12.8 12.2 12 12.2 12.4 12.8 
12.6 12.8 12.6 12.2 12 12.4 12.6 12 12.2 
12.4 12.8 12.6 12.4 12 12.8 12.2 13 13.6 
13.4 13.2 13.8 13.4 13.2 13.6 13 13.8 13.2 
13.4 13 13.8 13.6 13.4 13.6 13.2 13 13.8 
13 13.4 13.8 13.2 13.6 14 14.2 14.6 14.8 
14.4 14.4 14.2 14 14.8 14.6 14.6 14.8 14.2 
14 14.4 14 14.6 14 14.8 14.4 14.2 15 
15.4 15.8 15.2 15.6 15.4 15.2 15 15.8 15.6 
15.2 15.8 15.4 15 15.6 15.1667 15.3333 15 15.6667 
15.5 15.8333 15.8 15 15.6 15.4 15.2 16 16 
16 16 16 16 16 16 16 16 16 
16 16 16 16 16 16 16 16 16 
16 16 16 16 16 16 16 16 16 
16 16 16 16 16 16 16 16 16 
16 16 16 16 16 16 16 16 16 
16 16 16 16 16 16 16 16 16 
16 16 16 16 16 16 16 16 16 
16 16 16 16 16 16 16 16 16 
16 16 16 16 16 16 16 16 16 
16 16 16 16 16 16 16 16 16 
16 16 16 16 16 16 16 16 16 
16 16 16 16 16 16 16 16 16 
16 16 16 16 16 16 16 16 16 
16 16 16 16 16 16 16 16 16 
16 16 16 16 16 16 16 16 16 
16 16 16 16 16 16 16 16 16 
16 16 16 16 16 
