# vtk DataFile Version 4.0
vtk output
ASCII
DATASET POLYDATA
FIELD FieldData 4
domain 1 4 string
domain_min:-40|-40
domain_max:40|40
cell_size:1|1
boundary:0|0

variables 1 5 string
T:5.3
dt:0.01
write_case:1
substeps:10
all_steps:530

constants 1 17 string
L:40
c_s:1
dx:1
k:1000
d1:-13.5|10
d2:-6|10
d3:9|14.5
d4:13.5|10
d5:-6|8
d6:0|8
d7:6|8
d8:-9|9
d9:9|9
d10:-12|0
d11:12|0
d12:0|-10
R_w:0.1

equations 1 18 string
time:T=(T+dt)#true
pos_x:x=elem(r,0,0)#eq(gid,1)
pos_y:y=elem(r,1,0)#eq(gid,1)
wp_1:p0=if(and(lt(x,(-9)),gt(y,10)),d1,p0)#eq(gid,1)
wp_2:p0=if(and(and(gt(x,(-9)),lt(x,(-3))),gt(y,10)),d2,p0)#eq(gid,1)
wp_3:p0=if(and(and(gt(x,(-3)),lt(x,9)),gt(y,10)),d3,p0)#eq(gid,1)
wp_4:p0=if(and(gt(x,9),gt(y,10)),d4,p0)#eq(gid,1)
wp_5:p0=if(and(and(gt(x,(-9)),lt(x,(-3))),lt(y,8)),d5,p0)#eq(gid,1)
wp_6:p0=if(and(and(gt(x,(-3)),lt(x,3)),lt(y,8)),d6,p0)#eq(gid,1)
wp_7:p0=if(and(and(gt(x,3),lt(x,9)),lt(y,8)),d7,p0)#eq(gid,1)
wp_8:p0=if(and(and(gt(x,(-9)),lt(x,0)),and(gt(y,8),lt(y,10))),d8,p0)#eq(gid,1)
wp_9:p0=if(and(and(gt(x,0),lt(x,9)),and(gt(y,8),lt(y,10))),d9,p0)#eq(gid,1)
wp_10:p0=if(and(lt(x,(-9)),lt(y,10)),d10,p0)#eq(gid,1)
wp_11:p0=if(and(gt(x,9),lt(y,10)),d11,p0)#eq(gid,1)
wp_12:p0=if(lt(y,0),d12,p0)#eq(gid,1)
acceleration:v=sfm(v,p0,v0,m,R,A,B,k,c,tau)#eq(gid,1)
velocity:v=euler(v,a,dt)#eq(gid,1)
position:r=euler(r,v,dt)#eq(gid,1)

POINTS 1049 float
8.30116 -3.22535 0 -9.46392 -2.509 0 -8.84684 -2.72041 0 
-10.8595 -1.17773 0 -9.79621 -1.94099 0 9.96136 -1.90249 0 
10.4148 -1.49753 0 11.0044 -1.37631 0 -11.7714 -0.435344 0 
-11.3583 -0.740996 0 11.1157 -0.836123 0 12.0804 -0.530188 0 
-14.6429 0 0 -15 0.4 0 -15 0 0 
-14.1071 0 0 -14.2857 0 0 -14.8214 0 0 
-15 0.8 0 -15 0.6 0 -14.4643 0 0 
-15 0.2 0 -13.3929 0 0 -13.75 0 0 
-13.2143 0 0 -13.5714 0 0 -13.9286 0 0 
-13.0357 0 0 -12.5 0 0 -12.6786 0 0 
-12.8571 0 0 -11.3214 0 0 -11.9208 0.192607 0 
-11.5 0 0 -11.1429 0 0 -10.0714 0 0 
-10.25 0 0 -10.9643 0 0 -10.4286 0 0 
-10.7857 0 0 -10.6071 0 0 -9.5357 0 0 
-9.8929 0 0 -9.3571 0 0 -9.1786 0 0 
-9.7143 0 0 -8.4 0 0 -9 0.2 0 
-8.6 0 0 -9 0.6 0 -9 0 0 
-9 0.4 0 -8.8 0 0 -9 0.8 0 
-8.2 0 0 -8 0 0 -7.6 0 0 
-7.8 0 0 -7.2 0 0 -7.4 0 0 
-6.8 0 0 -7 0 0 -6.2 0 0 
-6.4 0 0 -6.6 0 0 -5.8 0 0 
-6 0 0 -5.4 0 0 -5.6 0 0 
-5.2 0 0 -4.2 0 0 -4.8 0 0 
-4.4 0 0 -5 0 0 -4.6 0 0 
-3.6 0 0 -3.8 0 0 -3.2 0 0 
-4 0 0 -3.4 0 0 -3 0.4 0 
-3 0.6 0 -2.6 0 0 -2.8 0 0 
-3 0 0 -2.4 0 0 -3 0.8 0 
-3 0.2 0 -2.2 0 0 -1.8 0 0 
-1.6 0 0 -1.2 0 0 -1.4 0 0 
-2 0 0 -0.4 0 0 -1 0 0 
-0.2 0 0 -0.6 0 0 -0.8 0 0 
0.4 0 0 0.6 0 0 -0 0 0 
0.8 0 0 0.2 0 0 1.8 0 0 
1.2 0 0 1 0 0 1.6 0 0 
1.4 0 0 2.6 0 0 2.8 0 0 
2.2 0 0 2.4 0 0 2 0 0 
3.4 0 0 3.8 0 0 3 0.8 0 
3 0.2 0 3 0.6 0 3.2 0 0 
3.6 0 0 3 0.4 0 3 0 0 
4 0 0 4.8 0 0 4.2 0 0 
4.4 0 0 4.6 0 0 5.4 0 0 
5.2 0 0 5.6 0 0 5 0 0 
5.8 0 0 6.6 0 0 6 0 0 
6.4 0 0 6.8 0 0 6.2 0 0 
7.4 0 0 7 0 0 7.8 0 0 
7.2 0 0 7.6 0 0 8.4 0 0 
8.6 0 0 8 0 0 8.2 0 0 
8.8 0 0 9.5357 0 0 9 0.8 0 
9 0.6 0 9.7143 0 0 9 0 0 
9.8929 0 0 9.3571 0 0 9 0.2 0 
9 0.4 0 9.1786 0 0 10.6071 0 0 
10.0714 0 0 10.7857 0 0 10.4286 0 0 
10.25 0 0 10.9643 0 0 11.5 0 0 
11.3214 0 0 11.1429 0 0 11.9277 0.021536 0 
12.8571 0 0 12.5 0 0 12.1143 0.550362 0 
12.6786 0 0 13.9286 0 0 13.0357 0 0 
13.3929 0 0 13.75 0 0 13.2143 0 0 
13.5714 0 0 14.8214 0 0 14.4643 0 0 
14.6429 0 0 14.2857 0 0 14.1071 0 0 
15 0 0 15 0.8 0 15 0.6 0 
15 0.2 0 15 0.4 0 -15 1.6 0 
-15 1 0 -15 1.4 0 -15 1.2 0 
-15 1.8 0 -11.7513 1.00862 0 -11.9916 1.7937 0 
-9 1.4 0 -9 1 0 -9 1.8 0 
-9 1.2 0 -9 1.6 0 -3 1.8 0 
-3 1 0 -3 1.2 0 -3 1.4 0 
-3 1.6 0 3 1.8 0 3 1.6 0 
3 1.4 0 3 1.2 0 3 1 0 
9 1.4 0 9 1.2 0 9 1 0 
9 1.6 0 9 1.8 0 11.6422 1.55001 0 
12.2624 1.85008 0 15 1.2 0 15 1.8 0 
15 1.4 0 15 1 0 15 1.6 0 
-15 2 0 -15 2.2 0 -15 2.8 0 
-15 2.6 0 -15 2.4 0 -11.2351 2.13149 0 
-11.4988 2.9539 0 -9 2.4 0 -9 2.2 0 
-9 2.8 0 -9 2.6 0 -9 2 0 
-3 2 0 -3 2.6 0 -3 2.8 0 
-3 2.2 0 -3 2.4 0 3 2.2 0 
3 2.8 0 3 2.6 0 3 2 0 
3 2.4 0 9 2 0 9 2.6 0 
9 2.4 0 9 2.2 0 9 2.8 0 
15 2.2 0 15 2.4 0 15 2.8 0 
15 2 0 15 2.6 0 -15 3.2 0 
-15 3.8 0 -15 3.4 0 -15 3.6 0 
-15 3 0 -12.9572 3.9066 0 -12.1199 3.69504 0 
-9 3.8 0 -9 3.4 0 -9 3.6 0 
-9 3.2 0 -9 3 0 -3 3 0 
-3 3.2 0 -3 3.6 0 -3 3.8 0 
-3 3.4 0 3 3.2 0 3 3.4 0 
3 3.8 0 3 3 0 3 3.6 0 
9 3.2 0 9 3.4 0 9 3 0 
9 3.6 0 9 3.8 0 15 3.6 0 
15 3 0 15 3.4 0 15 3.8 0 
15 3.2 0 -15 4.8 0 -15 4.6 0 
-15 4.4 0 -15 4.2 0 -15 4 0 
-10.6874 4.48458 0 -9 4.4 0 -9 4 0 
-9 4.8 0 -9 4.2 0 -9 4.6 0 
-3 4.4 0 -3 4.2 0 -3 4 0 
-3 4.6 0 -3 4.8 0 -1.03369 4.87655 0 
0.249202 4.7974 0 3 4.2 0 3 4.8 0 
3 4 0 3 4.6 0 3 4.4 0 
7.11426 4.25987 0 9 4.8 0 9 4.4 0 
9 4 0 9 4.2 0 9 4.6 0 
10.5866 4.23261 0 10.791 4.79258 0 12.6666 4.4142 0 
15 4.6 0 15 4.8 0 15 4.4 0 
15 4.2 0 15 4 0 -15 5.6 0 
-15 5.4 0 -15 5 0 -15 5.2 0 
-15 5.8 0 -10.5134 5.11171 0 -10.2366 5.709 0 
-9 5.4 0 -9 5 0 -9 5.6 0 
-9 5.8 0 -9 5.2 0 -5.37632 5.56425 0 
-3 5.2 0 -3 5.8 0 -3 5.4 0 
-3 5.6 0 -3 5 0 -0.615655 5.67769 0 
0.259664 5.87151 0 3 5 0 3 5.4 0 
3 5.8 0 3 5.6 0 3 5.2 0 
5.83031 5.59543 0 9 5.2 0 9 5.8 0 
9 5.4 0 9 5 0 9 5.6 0 
15 5 0 15 5.6 0 15 5.4 0 
15 5.2 0 15 5.8 0 -15 6.2 0 
-15 6.8 0 -15 6.6 0 -15 6 0 
-15 6.4 0 -12.9544 6.26728 0 -10.0123 6.51186 0 
-9 6.6 0 -9 6.4 0 -9 6.8 0 
-9 6 0 -9 6.2 0 -5.4842 6.32126 0 
-5.28826 6.87668 0 -3 6 0 -3 6.2 0 
-3 6.6 0 -3 6.8 0 -3 6.4 0 
-0.932899 6.24113 0 3 6.8 0 3 6.4 0 
3 6 0 3 6.6 0 3 6.2 0 
5.38593 6.30008 0 6.12802 6.55624 0 9 6.2 0 
9 6.4 0 9 6.8 0 9 6.6 0 
9 6 0 9.85968 6.83377 0 10.2488 6.02379 0 
13.0615 6.97666 0 15 6.8 0 15 6 0 
15 6.2 0 15 6.4 0 15 6.6 0 
-15 7.6 0 -15 7 0 -15 7.2 0 
-15 7.4 0 -15 7.8 0 -13.1745 7.56664 0 
-9.68074 7.47426 0 -9 7.2 0 -9 7 0 
-9 7.6 0 -9 7.4 0 -9 7.8 0 
-6.13891 7.55518 0 -5.94341 7.04616 0 -3 7.8 0 
-3 7.6 0 -3 7.4 0 -3 7.2 0 
-3 7 0 -0.068914 7.49508 0 3 7.8 0 
3 7.6 0 3 7.2 0 3 7.4 0 
3 7 0 5.7387 7.55685 0 6.15141 7.93361 0 
6.313 7.39058 0 9 7 0 9 7.6 0 
9 7.8 0 9 7.4 0 9 7.2 0 
9.60042 7.62726 0 10.1355 7.33781 0 13.1314 7.52632 0 
15 7.6 0 15 7.4 0 15 7.2 0 
15 7 0 15 7.8 0 -15 8.6 0 
-15 8.4 0 -15 8.2 0 -15 8 0 
-15 8.8 0 -13.4616 8.61352 0 -13.1894 8.1162 0 
-9.26679 8.44104 0 -8.8214 8 0 -8.4643 8 0 
-8.1071 8 0 -8.90034 8.99282 0 -8.2857 8 0 
-9 8 0 -8.6429 8 0 -8.13057 8.7854 0 
-7.2143 8 0 -7.75 8 0 -7.5714 8 0 
-7.9286 8 0 -7.0357 8 0 -7.3929 8 0 
-6.6786 8 0 -6.8571 8 0 -6.5 8 0 
-6.71408 8.50891 0 -6.14612 8.16322 0 -5.1429 8 0 
-5.5 8 0 -5.3214 8 0 -4.0714 8 0 
-4.6071 8 0 -4.25 8 0 -4.4286 8 0 
-4.7857 8 0 -4.9643 8 0 -3.7143 8 0 
-3.1786 8 0 -3.8929 8 0 -3.5357 8 0 
-3.3571 8 0 -2.4643 8 0 -3 8 0 
-2.2857 8 0 -2.1071 8 0 -2.6429 8 0 
-2.8214 8 0 -1.5714 8 0 -1.3929 8 0 
-1.0357 8 0 -1.2143 8 0 -1.75 8 0 
-1.38102 8.62981 0 -1.9286 8 0 -0.168709 8.11128 0 
-0.6786 8 0 -0.5 8 0 -0.8571 8 0 
0.6786 8 0 0.583885 8.48106 0 0.8571 8 0 
0.5 8 0 1.5714 8 0 1.75 8 0 
1.3929 8 0 1.0357 8 0 1.9286 8 0 
1.2143 8 0 2.4643 8 0 2.2857 8 0 
2.6429 8 0 2.1071 8 0 2.8214 8 0 
3.83668 8.85473 0 3.7143 8 0 3.8929 8 0 
3 8 0 3.3571 8 0 3.1786 8 0 
3.5357 8 0 4.6071 8 0 4.9643 8 0 
4.4286 8 0 4.7857 8 0 4.0714 8 0 
4.25 8 0 5.79874 8.25743 0 5.79759 8.81069 0 
5.3214 8 0 5.5 8 0 5.1429 8 0 
5.26321 8.93867 0 6.60476 8.53109 0 6.6786 8 0 
6.5 8 0 6.8571 8 0 7.3929 8 0 
7.0357 8 0 7.97635 8.81106 0 7.5714 8 0 
7.75 8 0 7.9286 8 0 7.2143 8 0 
7.36944 8.74142 0 8.1071 8 0 8.8214 8 0 
8.6429 8 0 8.4643 8 0 8.2857 8 0 
9 8 0 9 8 0 9.44642 8.24657 0 
9.09807 8.843 0 15 8.6 0 15 8.4 0 
15 8.8 0 15 8.2 0 15 8 0 
-15 9 0 -15 9.4 0 -15 9.6 0 
-15 9.2 0 -15 9.8 0 -13.3502 9.13644 0 
-13.4748 9.69999 0 -8.25293 9.2715 0 -7.65992 9.2284 0 
-7.07642 9.31399 0 -6.4649 9.01795 0 -6.52077 9.56412 0 
-5.99509 9.87361 0 6.23037 9.20456 0 8.53188 9.06296 0 
13.326 9.72085 0 13.3442 9.14726 0 15 9.4 0 
15 9.2 0 15 9 0 15 9.8 0 
15 9.6 0 -14.3333 10 0 -14.1667 10 0 
-15 10.2 0 -15 10 0 -14.5 10 0 
-15 10.8 0 -14.6667 10 0 -14.8333 10 0 
-15 10.6 0 -15 10.4 0 -13.3566 10.676 0 
-13.1279 10.242 0 -14 10 0 -12.4 10 0 
-13 10 0 -12.2 10 0 -12.6 10 0 
-12.8 10 0 -11.6 10 0 -12 10 0 
-11.4 10 0 -11.8 10 0 -11.2 10 0 
-10.4 10 0 -10.6 10 0 -10.2 10 0 
-11 10 0 -10.8 10 0 -9.6 10 0 
-9.2 10 0 -9.4 10 0 -9.8 10 0 
-10 10 0 -9 10.4 0 -9 10.6 0 
-8.6429 10 0 -8.2857 10 0 -8.1071 10 0 
-9 10 0 -8.8214 10 0 -9 10.2 0 
-9 10.8 0 -8.4643 10 0 -7.75 10 0 
-7.9286 10 0 -7.5714 10 0 -7.2143 10 0 
-7.0357 10 0 -7.3929 10 0 -6.8571 10 0 
-6.6786 10 0 -6.5 10 0 -6.48859 10.3496 0 
-5.98914 10.4062 0 -5.51357 10.5476 0 -5.1429 10 0 
-5.5 10 0 -5.3214 10 0 -5.93734 10.9374 0 
-4.6071 10 0 -4.0714 10 0 -4.25 10 0 
-4.9643 10 0 -4.7857 10 0 -4.4286 10 0 
-3.7143 10 0 -3.1786 10 0 -3.8929 10 0 
-3.3571 10 0 -3.5357 10 0 -2.8 10 0 
-3 10.8 0 -3 10.2 0 -3 10.6 0 
-2.6 10 0 -2.2 10 0 -2.4 10 0 
-3 10 0 -3 10.4 0 -1.4 10 0 
-2 10 0 -1.8 10 0 -1.2 10 0 
-1.6 10 0 -1 10 0 -0.4 10 0 
-0.6 10 0 -0.8 10 0 -0.2 10 0 
0.2 10 0 -0 10 0 0.4 10 0 
0.6 10 0 0.8 10 0 1.8 10 0 
1.4 10 0 1 10 0 1.6 10 0 
1.2 10 0 2 10 0 2.4 10 0 
2.2 10 0 2.8 10 0 2.6 10 0 
3 10 0 3.8 10 0 3.4 10 0 
3.6 10 0 3.2 10 0 4.8 10 0 
4.6 10 0 4 10 0 4.4 10 0 
4.2 10 0 5.4 10 0 5.2 10 0 
5 10 0 5.6 10 0 5.8 10 0 
6.8 10 0 6.6 10 0 6.4 10 0 
6.2 10 0 6 10 0 7.8 10 0 
7.4 10 0 7.6 10 0 7.2 10 0 
7 10 0 8.4 10 0 8.2 10 0 
8.8 10 0 8 10 0 8.6 10 0 
9 10 0 9 10.6 0 9 10.2 0 
9 10.8 0 9.4 10 0 9 10.4 0 
9.6 10 0 9.2 10 0 9.8 10 0 
10.8 10 0 10.6 10 0 10.2 10 0 
10.4 10 0 10 10 0 11.2 10 0 
11.4 10 0 11 10 0 11.6 10 0 
11.8 10 0 12.907 10.9509 0 12.8 10 0 
12.4 10 0 12 10 0 12.6191 10.4533 0 
12.2 10 0 12.6 10 0 13 10 0 
13.6889 10.1426 0 13.2266 10.3089 0 14.1667 10 0 
14 10 0 14.6667 10 0 14.8333 10 0 
14.5 10 0 14.3333 10 0 15 10.4 0 
15 10.6 0 15 10.2 0 15 10.8 0 
15 10 0 -15 11 0 -15 11.8 0 
-15 11.6 0 -15 11.4 0 -15 11.2 0 
-9 11.4 0 -9 11.6 0 -9 11 0 
-9 11.2 0 -9 11.8 0 -3 11 0 
-3 11.2 0 -3 11.4 0 -3 11.8 0 
-3 11.6 0 1.45556 11.8282 0 2.28592 11.8001 0 
9 11.2 0 9 11.4 0 9 11.8 0 
9 11.6 0 9 11 0 11.7628 11.7985 0 
15 11.8 0 15 11 0 15 11.2 0 
15 11.6 0 15 11.4 0 -15 12 0 
-15 12.6 0 -15 12.8 0 -15 12.4 0 
-15 12.2 0 -9 12.2 0 -9 12.8 0 
-9 12.4 0 -9 12 0 -9 12.6 0 
-3 12.2 0 -3 12.6 0 -3 12 0 
-3 12.4 0 -3 12.8 0 4.27721 12.1676 0 
9 12.2 0 9 12.4 0 9 12.6 0 
9 12.8 0 9 12 0 15 12.6 0 
15 12.4 0 15 12 0 15 12.8 0 
15 12.2 0 -15 13.8 0 -15 13 0 
-15 13.4 0 -15 13.2 0 -15 13.6 0 
-9 13.8 0 -9 13.6 0 -9 13.2 0 
-9 13 0 -9 13.4 0 -3 13.2 0 
-3 13 0 -3 13.8 0 -3 13.4 0 
-3 13.6 0 5.45972 13.5999 0 7.30477 13.9023 0 
8.63025 13.8796 0 8.09196 13.8857 0 9 13.8 0 
9 13.2 0 9 13 0 9 13.4 0 
9 13.6 0 9.95545 13.4214 0 10.4824 13.1922 0 
10.6653 13.7385 0 15 13 0 15 13.6 0 
15 13.8 0 15 13.2 0 15 13.4 0 
-15 14.8 0 -15 14.4 0 -15 14.2 0 
-15 14.6 0 -15 14 0 -9 14.2 0 
-9 14.6 0 -9 14.4 0 -9 14.8 0 
-9 14 0 -3 14 0 -3 14.6 0 
-3 14.8 0 -3 14.2 0 -3 14.4 0 
3.9279 14.1841 0 5.83902 14.2461 0 6.56048 14.136 0 
6.27446 14.7195 0 7.62536 14.3914 0 8.23535 14.411 0 
8.7917 14.486 0 9.34634 14.5453 0 9.9968 14.1202 0 
9 14 0 9.4854 14.0177 0 15 14.4 0 
15 14 0 15 14.8 0 15 14.2 0 
15 14.6 0 -15 15.4 0 -15 15 0 
-15 15.2 0 -15 15.8 0 -15 15.6 0 
-9 15.2 0 -9 15.8 0 -9 15.4 0 
-9 15.6 0 -9 15 0 -3 15 0 
-3 15.4 0 -3 15.8 0 -3 15.6 0 
-3 15.2 0 5.65528 15.0132 0 9 15.8333 0 
9 15.5 0 9 15.6667 0 9 15.1667 0 
9 15 0 9 15.3333 0 15 15.4 0 
15 15.6 0 15 15.2 0 15 15 0 
15 15.8 0 -14.8 16 0 -14.2 16 0 
-14.6 16 0 -15 16 0 -14.4 16 0 
-14 16 0 -13.6 16 0 -13.2 16 0 
-13.4 16 0 -13.8 16 0 -12.2 16 0 
-12.6 16 0 -12.8 16 0 -12.4 16 0 
-13 16 0 -12 16 0 -11.2 16 0 
-11.4 16 0 -11.8 16 0 -11.6 16 0 
-10.6 16 0 -10.2 16 0 -11 16 0 
-10.4 16 0 -10.8 16 0 -10 16 0 
-9.8 16 0 -9.6 16 0 -9.4 16 0 
-9.2 16 0 -8.6 16 0 -8.2 16 0 
-8.8 16 0 -8.4 16 0 -9 16 0 
-8 16 0 -7.8 16 0 -7.6 16 0 
-7.2 16 0 -7.4 16 0 -6.4 16 0 
-7 16 0 -6.2 16 0 -6.6 16 0 
-6.8 16 0 -6 16 0 -5.2 16 0 
-5.4 16 0 -5.6 16 0 -5.8 16 0 
-4.8 16 0 -5 16 0 -4.6 16 0 
-4.2 16 0 -4.4 16 0 -3.8 16 0 
-3.6 16 0 -3.4 16 0 -3.2 16 0 
-4 16 0 -2.4 16 0 -2.6 16 0 
-2.8 16 0 -2.2 16 0 -3 16 0 
-2 16 0 -1.2 16 0 -1.4 16 0 
-1.8 16 0 -1.6 16 0 -0.4 16 0 
-0.8 16 0 -0.6 16 0 -0.2 16 0 
-1 16 0 0.8 16 0 0.2 16 0 
0.6 16 0 -0 16 0 0.4 16 0 
1.6 16 0 1 16 0 1.4 16 0 
1.2 16 0 1.8 16 0 2.4 16 0 
2.6 16 0 2.2 16 0 2.8 16 0 
2 16 0 3 16 0 3.8 16 0 
3.6 16 0 3.4 16 0 3.2 16 0 
4 16 0 4.8 16 0 4.6 16 0 
4.4 16 0 4.2 16 0 5.2 16 0 
5.6 16 0 5.4 16 0 5.8 16 0 
5 16 0 6.4 16 0 6.8 16 0 
6.6 16 0 6.2 16 0 6 16 0 
7.8 16 0 7.6 16 0 7.2 16 0 
7 16 0 7.4 16 0 8.6 16 0 
8.8 16 0 8.2 16 0 8.4 16 0 
8 16 0 9.6 16 0 9.4 16 0 
9 16 0 9.8 16 0 9.2 16 0 
10 16 0 10.2 16 0 10.4 16 0 
10.6 16 0 10.8 16 0 11.8 16 0 
11 16 0 11.4 16 0 11.6 16 0 
11.2 16 0 12.4 16 0 12.8 16 0 
12.6 16 0 12.2 16 0 12 16 0 
13.8 16 0 13.2 16 0 13 16 0 
13.6 16 0 13.4 16 0 14.8 16 0 
14 16 0 14.2 16 0 14.4 16 0 
14.6 16 0 15 16 0 
VERTICES 2098 2098
1 0 
1 1 
1 2 
1 3 
1 4 
1 5 
1 6 
1 7 
1 8 
1 9 
1 10 
1 11 
1 12 
1 13 
1 14 
1 15 
1 16 
1 17 
1 18 
1 19 
1 20 
1 21 
1 22 
1 23 
1 24 
1 25 
1 26 
1 27 
1 28 
1 29 
1 30 
1 31 
1 32 
1 33 
1 34 
1 35 
1 36 
1 37 
1 38 
1 39 
1 40 
1 41 
1 42 
1 43 
1 44 
1 45 
1 46 
1 47 
1 48 
1 49 
1 50 
1 51 
1 52 
1 53 
1 54 
1 55 
1 56 
1 57 
1 58 
1 59 
1 60 
1 61 
1 62 
1 63 
1 64 
1 65 
1 66 
1 67 
1 68 
1 69 
1 70 
1 71 
1 72 
1 73 
1 74 
1 75 
1 76 
1 77 
1 78 
1 79 
1 80 
1 81 
1 82 
1 83 
1 84 
1 85 
1 86 
1 87 
1 88 
1 89 
1 90 
1 91 
1 92 
1 93 
1 94 
1 95 
1 96 
1 97 
1 98 
1 99 
1 100 
1 101 
1 102 
1 103 
1 104 
1 105 
1 106 
1 107 
1 108 
1 109 
1 110 
1 111 
1 112 
1 113 
1 114 
1 115 
1 116 
1 117 
1 118 
1 119 
1 120 
1 121 
1 122 
1 123 
1 124 
1 125 
1 126 
1 127 
1 128 
1 129 
1 130 
1 131 
1 132 
1 133 
1 134 
1 135 
1 136 
1 137 
1 138 
1 139 
1 140 
1 141 
1 142 
1 143 
1 144 
1 145 
1 146 
1 147 
1 148 
1 149 
1 150 
1 151 
1 152 
1 153 
1 154 
1 155 
1 156 
1 157 
1 158 
1 159 
1 160 
1 161 
1 162 
1 163 
1 164 
1 165 
1 166 
1 167 
1 168 
1 169 
1 170 
1 171 
1 172 
1 173 
1 174 
1 175 
1 176 
1 177 
1 178 
1 179 
1 180 
1 181 
1 182 
1 183 
1 184 
1 185 
1 186 
1 187 
1 188 
1 189 
1 190 
1 191 
1 192 
1 193 
1 194 
1 195 
1 196 
1 197 
1 198 
1 199 
1 200 
1 201 
1 202 
1 203 
1 204 
1 205 
1 206 
1 207 
1 208 
1 209 
1 210 
1 211 
1 212 
1 213 
1 214 
1 215 
1 216 
1 217 
1 218 
1 219 
1 220 
1 221 
1 222 
1 223 
1 224 
1 225 
1 226 
1 227 
1 228 
1 229 
1 230 
1 231 
1 232 
1 233 
1 234 
1 235 
1 236 
1 237 
1 238 
1 239 
1 240 
1 241 
1 242 
1 243 
1 244 
1 245 
1 246 
1 247 
1 248 
1 249 
1 250 
1 251 
1 252 
1 253 
1 254 
1 255 
1 256 
1 257 
1 258 
1 259 
1 260 
1 261 
1 262 
1 263 
1 264 
1 265 
1 266 
1 267 
1 268 
1 269 
1 270 
1 271 
1 272 
1 273 
1 274 
1 275 
1 276 
1 277 
1 278 
1 279 
1 280 
1 281 
1 282 
1 283 
1 284 
1 285 
1 286 
1 287 
1 288 
1 289 
1 290 
1 291 
1 292 
1 293 
1 294 
1 295 
1 296 
1 297 
1 298 
1 299 
1 300 
1 301 
1 302 
1 303 
1 304 
1 305 
1 306 
1 307 
1 308 
1 309 
1 310 
1 311 
1 312 
1 313 
1 314 
1 315 
1 316 
1 317 
1 318 
1 319 
1 320 
1 321 
1 322 
1 323 
1 324 
1 325 
1 326 
1 327 
1 328 
1 329 
1 330 
1 331 
1 332 
1 333 
1 334 
1 335 
1 336 
1 337 
1 338 
1 339 
1 340 
1 341 
1 342 
1 343 
1 344 
1 345 
1 346 
1 347 
1 348 
1 349 
1 350 
1 351 
1 352 
1 353 
1 354 
1 355 
1 356 
1 357 
1 358 
1 359 
1 360 
1 361 
1 362 
1 363 
1 364 
1 365 
1 366 
1 367 
1 368 
1 369 
1 370 
1 371 
1 372 
1 373 
1 374 
1 375 
1 376 
1 377 
1 378 
1 379 
1 380 
1 381 
1 382 
1 383 
1 384 
1 385 
1 386 
1 387 
1 388 
1 389 
1 390 
1 391 
1 392 
1 393 
1 394 
1 395 
1 396 
1 397 
1 398 
1 399 
1 400 
1 401 
1 402 
1 403 
1 404 
1 405 
1 406 
1 407 
1 408 
1 409 
1 410 
1 411 
1 412 
1 413 
1 414 
1 415 
1 416 
1 417 
1 418 
1 419 
1 420 
1 421 
1 422 
1 423 
1 424 
1 425 
1 426 
1 427 
1 428 
1 429 
1 430 
1 431 
1 432 
1 433 
1 434 
1 435 
1 436 
1 437 
1 438 
1 439 
1 440 
1 441 
1 442 
1 443 
1 444 
1 445 
1 446 
1 447 
1 448 
1 449 
1 450 
1 451 
1 452 
1 453 
1 454 
1 455 
1 456 
1 457 
1 458 
1 459 
1 460 
1 461 
1 462 
1 463 
1 464 
1 465 
1 466 
1 467 
1 468 
1 469 
1 470 
1 471 
1 472 
1 473 
1 474 
1 475 
1 476 
1 477 
1 478 
1 479 
1 480 
1 481 
1 482 
1 483 
1 484 
1 485 
1 486 
1 487 
1 488 
1 489 
1 490 
1 491 
1 492 
1 493 
1 494 
1 495 
1 496 
1 497 
1 498 
1 499 
1 500 
1 501 
1 502 
1 503 
1 504 
1 505 
1 506 
1 507 
1 508 
1 509 
1 510 
1 511 
1 512 
1 513 
1 514 
1 515 
1 516 
1 517 
1 518 
1 519 
1 520 
1 521 
1 522 
1 523 
1 524 
1 525 
1 526 
1 527 
1 528 
1 529 
1 530 
1 531 
1 532 
1 533 
1 534 
1 535 
1 536 
1 537 
1 538 
1 539 
1 540 
1 541 
1 542 
1 543 
1 544 
1 545 
1 546 
1 547 
1 548 
1 549 
1 550 
1 551 
1 552 
1 553 
1 554 
1 555 
1 556 
1 557 
1 558 
1 559 
1 560 
1 561 
1 562 
1 563 
1 564 
1 565 
1 566 
1 567 
1 568 
1 569 
1 570 
1 571 
1 572 
1 573 
1 574 
1 575 
1 576 
1 577 
1 578 
1 579 
1 580 
1 581 
1 582 
1 583 
1 584 
1 585 
1 586 
1 587 
1 588 
1 589 
1 590 
1 591 
1 592 
1 593 
1 594 
1 595 
1 596 
1 597 
1 598 
1 599 
1 600 
1 601 
1 602 
1 603 
1 604 
1 605 
1 606 
1 607 
1 608 
1 609 
1 610 
1 611 
1 612 
1 613 
1 614 
1 615 
1 616 
1 617 
1 618 
1 619 
1 620 
1 621 
1 622 
1 623 
1 624 
1 625 
1 626 
1 627 
1 628 
1 629 
1 630 
1 631 
1 632 
1 633 
1 634 
1 635 
1 636 
1 637 
1 638 
1 639 
1 640 
1 641 
1 642 
1 643 
1 644 
1 645 
1 646 
1 647 
1 648 
1 649 
1 650 
1 651 
1 652 
1 653 
1 654 
1 655 
1 656 
1 657 
1 658 
1 659 
1 660 
1 661 
1 662 
1 663 
1 664 
1 665 
1 666 
1 667 
1 668 
1 669 
1 670 
1 671 
1 672 
1 673 
1 674 
1 675 
1 676 
1 677 
1 678 
1 679 
1 680 
1 681 
1 682 
1 683 
1 684 
1 685 
1 686 
1 687 
1 688 
1 689 
1 690 
1 691 
1 692 
1 693 
1 694 
1 695 
1 696 
1 697 
1 698 
1 699 
1 700 
1 701 
1 702 
1 703 
1 704 
1 705 
1 706 
1 707 
1 708 
1 709 
1 710 
1 711 
1 712 
1 713 
1 714 
1 715 
1 716 
1 717 
1 718 
1 719 
1 720 
1 721 
1 722 
1 723 
1 724 
1 725 
1 726 
1 727 
1 728 
1 729 
1 730 
1 731 
1 732 
1 733 
1 734 
1 735 
1 736 
1 737 
1 738 
1 739 
1 740 
1 741 
1 742 
1 743 
1 744 
1 745 
1 746 
1 747 
1 748 
1 749 
1 750 
1 751 
1 752 
1 753 
1 754 
1 755 
1 756 
1 757 
1 758 
1 759 
1 760 
1 761 
1 762 
1 763 
1 764 
1 765 
1 766 
1 767 
1 768 
1 769 
1 770 
1 771 
1 772 
1 773 
1 774 
1 775 
1 776 
1 777 
1 778 
1 779 
1 780 
1 781 
1 782 
1 783 
1 784 
1 785 
1 786 
1 787 
1 788 
1 789 
1 790 
1 791 
1 792 
1 793 
1 794 
1 795 
1 796 
1 797 
1 798 
1 799 
1 800 
1 801 
1 802 
1 803 
1 804 
1 805 
1 806 
1 807 
1 808 
1 809 
1 810 
1 811 
1 812 
1 813 
1 814 
1 815 
1 816 
1 817 
1 818 
1 819 
1 820 
1 821 
1 822 
1 823 
1 824 
1 825 
1 826 
1 827 
1 828 
1 829 
1 830 
1 831 
1 832 
1 833 
1 834 
1 835 
1 836 
1 837 
1 838 
1 839 
1 840 
1 841 
1 842 
1 843 
1 844 
1 845 
1 846 
1 847 
1 848 
1 849 
1 850 
1 851 
1 852 
1 853 
1 854 
1 855 
1 856 
1 857 
1 858 
1 859 
1 860 
1 861 
1 862 
1 863 
1 864 
1 865 
1 866 
1 867 
1 868 
1 869 
1 870 
1 871 
1 872 
1 873 
1 874 
1 875 
1 876 
1 877 
1 878 
1 879 
1 880 
1 881 
1 882 
1 883 
1 884 
1 885 
1 886 
1 887 
1 888 
1 889 
1 890 
1 891 
1 892 
1 893 
1 894 
1 895 
1 896 
1 897 
1 898 
1 899 
1 900 
1 901 
1 902 
1 903 
1 904 
1 905 
1 906 
1 907 
1 908 
1 909 
1 910 
1 911 
1 912 
1 913 
1 914 
1 915 
1 916 
1 917 
1 918 
1 919 
1 920 
1 921 
1 922 
1 923 
1 924 
1 925 
1 926 
1 927 
1 928 
1 929 
1 930 
1 931 
1 932 
1 933 
1 934 
1 935 
1 936 
1 937 
1 938 
1 939 
1 940 
1 941 
1 942 
1 943 
1 944 
1 945 
1 946 
1 947 
1 948 
1 949 
1 950 
1 951 
1 952 
1 953 
1 954 
1 955 
1 956 
1 957 
1 958 
1 959 
1 960 
1 961 
1 962 
1 963 
1 964 
1 965 
1 966 
1 967 
1 968 
1 969 
1 970 
1 971 
1 972 
1 973 
1 974 
1 975 
1 976 
1 977 
1 978 
1 979 
1 980 
1 981 
1 982 
1 983 
1 984 
1 985 
1 986 
1 987 
1 988 
1 989 
1 990 
1 991 
1 992 
1 993 
1 994 
1 995 
1 996 
1 997 
1 998 
1 999 
1 1000 
1 1001 
1 1002 
1 1003 
1 1004 
1 1005 
1 1006 
1 1007 
1 1008 
1 1009 
1 1010 
1 1011 
1 1012 
1 1013 
1 1014 
1 1015 
1 1016 
1 1017 
1 1018 
1 1019 
1 1020 
1 1021 
1 1022 
1 1023 
1 1024 
1 1025 
1 1026 
1 1027 
1 1028 
1 1029 
1 1030 
1 1031 
1 1032 
1 1033 
1 1034 
1 1035 
1 1036 
1 1037 
1 1038 
1 1039 
1 1040 
1 1041 
1 1042 
1 1043 
1 1044 
1 1045 
1 1046 
1 1047 
1 1048 

POINT_DATA 1049
SCALARS id double
LOOKUP_TABLE default
1027 980 1048 1033 977 1020 964 951 993 
968 983 976 40 390 0 43 42 39 
388 389 41 391 47 45 48 46 44 
49 1 51 50 52 978 2 53 59 
58 54 57 55 56 62 60 63 64 
61 67 392 66 394 3 393 65 395 
68 69 71 70 73 72 75 74 78 
77 76 80 79 82 81 83 88 85 
87 84 86 91 90 93 89 92 494 
493 95 94 4 96 492 495 97 99 
100 102 101 98 106 103 107 105 104 
110 111 108 112 109 117 114 113 116 
115 121 122 119 120 118 124 126 557 
560 558 123 125 559 5 127 131 128 
129 130 134 133 135 132 136 140 137 
139 141 138 144 142 146 143 145 149 
150 147 148 151 154 590 589 155 6 
156 153 587 588 152 160 157 161 159 
158 162 7 164 163 1036 166 8 1024 
165 172 167 169 171 168 170 177 175 
176 174 173 9 181 180 178 179 384 
387 385 386 383 1032 966 398 396 400 
397 399 487 491 490 489 488 552 553 
554 555 556 593 592 591 594 595 945 
975 183 186 184 182 185 382 381 378 
379 380 1045 990 403 402 405 404 401 
486 483 482 485 484 550 547 548 551 
549 596 599 598 597 600 188 189 191 
187 190 376 373 375 374 377 1004 1040 
410 408 409 407 406 481 480 478 477 
479 545 544 542 546 543 602 603 601 
604 605 195 192 194 196 193 368 369 
370 371 372 933 413 411 415 412 414 
474 475 476 473 472 1006 963 540 537 
541 538 539 974 610 608 606 607 609 
941 972 955 200 201 199 198 197 364 
365 367 366 363 995 947 418 416 419 
420 417 971 470 467 469 468 471 1010 
981 536 534 532 533 535 1001 612 615 
613 611 614 202 205 204 203 206 361 
358 359 362 360 1041 1005 424 423 425 
421 422 1000 1017 466 465 463 462 464 
1034 527 529 531 528 530 937 1002 617 
618 620 619 616 987 1016 932 211 207 
208 209 210 354 357 356 355 353 954 
942 427 426 429 428 430 1038 953 457 
458 459 460 461 1003 522 523 525 524 
526 979 1025 1019 621 624 625 623 622 
930 962 1028 215 214 213 212 216 349 
350 351 352 348 1047 1026 969 431 433 
435 1018 434 10 432 939 440 437 438 
436 441 439 443 442 11 998 989 445 
12 444 451 448 450 449 447 446 453 
456 452 454 455 498 13 499 500 497 
496 503 504 506 505 502 1031 501 944 
508 14 507 509 1023 510 15 514 515 
513 511 516 512 519 518 520 517 521 
1044 564 565 16 562 561 563 569 571 
568 570 566 567 994 1029 573 17 572 
988 1043 574 18 575 578 576 1022 579 
580 581 577 973 582 586 585 584 583 
19 34 960 986 220 219 221 218 217 
347 345 344 346 343 1008 936 952 985 
1014 984 965 992 950 997 1030 1009 224 
223 222 226 225 663 664 342 20 662 
339 661 660 340 341 1042 967 21 667 
22 668 666 665 671 669 672 670 673 
677 676 678 674 675 681 683 682 680 
679 685 686 714 716 717 23 713 684 
687 715 719 718 720 722 723 721 724 
725 36 935 1007 1012 727 37 726 1021 
730 733 732 728 729 731 735 738 734 
737 736 739 634 631 633 740 742 741 
24 632 746 743 744 747 745 748 751 
750 749 752 754 753 755 756 757 762 
760 758 761 759 763 765 764 767 766 
768 772 770 771 769 777 776 773 775 
774 780 779 778 781 782 787 786 785 
784 783 792 790 791 789 788 795 794 
797 793 796 35 819 817 820 799 818 
800 798 801 806 805 803 804 802 808 
809 807 810 811 946 816 814 812 1015 
813 815 25 1011 1037 630 26 627 626 
628 629 228 229 227 230 27 338 334 
335 336 337 690 691 688 689 692 635 
636 637 639 638 996 970 822 823 825 
824 821 999 235 231 232 234 233 333 
330 329 331 332 694 697 695 693 696 
641 643 640 642 644 982 827 828 829 
830 826 239 238 236 240 237 324 328 
326 327 325 702 701 699 698 700 646 
645 649 647 648 1046 959 1035 956 835 
832 831 833 834 934 1013 929 241 244 
245 242 243 319 321 322 320 323 704 
706 705 707 703 650 653 654 651 652 
938 957 991 961 948 949 931 958 940 
29 943 248 246 250 247 249 316 318 
317 314 315 709 712 710 711 708 655 
657 659 658 656 1039 928 926 927 924 
28 925 253 254 252 251 255 313 310 
312 30 311 309 307 305 306 308 300 
302 303 301 304 299 295 296 298 297 
292 290 294 291 293 289 288 287 286 
285 283 281 284 282 31 280 279 278 
276 277 272 275 271 273 274 270 266 
267 268 269 264 265 263 261 262 259 
258 257 256 260 838 837 836 839 32 
840 844 843 841 842 848 846 847 849 
845 854 851 853 850 852 858 855 857 
856 859 862 863 861 864 860 865 869 
868 867 866 870 874 873 872 871 876 
878 877 879 875 882 884 883 881 880 
889 888 886 885 887 893 894 891 892 
890 897 896 38 898 895 899 900 901 
902 903 908 904 906 907 905 911 913 
912 910 909 918 915 914 917 916 923 
919 920 921 922 33 
FIELD FieldData 14
r 3 1049 double
8.30115 -3.22535 0 -9.46392 -2.509 0 -8.84684 -2.72041 0 
-10.8595 -1.17773 0 -9.79621 -1.94099 0 9.96136 -1.90249 0 
10.4147 -1.49753 0 11.0044 -1.37631 0 -11.7714 -0.435344 0 
-11.3583 -0.740996 0 11.1157 -0.836123 0 12.0804 -0.530188 0 
-14.6429 0 0 -15 0.4 0 -15 0 0 
-14.1071 0 0 -14.2857 0 0 -14.8214 0 0 
-15 0.8 0 -15 0.6 0 -14.4643 0 0 
-15 0.2 0 -13.3929 0 0 -13.75 0 0 
-13.2143 0 0 -13.5714 0 0 -13.9286 0 0 
-13.0357 0 0 -12.5 0 0 -12.6786 0 0 
-12.8571 0 0 -11.3214 0 0 -11.9208 0.192607 0 
-11.5 0 0 -11.1429 0 0 -10.0714 0 0 
-10.25 0 0 -10.9643 0 0 -10.4286 0 0 
-10.7857 0 0 -10.6071 0 0 -9.5357 0 0 
-9.8929 0 0 -9.3571 0 0 -9.1786 0 0 
-9.7143 0 0 -8.4 0 0 -9 0.2 0 
-8.6 0 0 -9 0.6 0 -9 0 0 
-9 0.4 0 -8.8 0 0 -9 0.8 0 
-8.2 0 0 -8 0 0 -7.6 0 0 
-7.8 0 0 -7.2 0 0 -7.4 0 0 
-6.8 0 0 -7 0 0 -6.2 0 0 
-6.4 0 0 -6.6 0 0 -5.8 0 0 
-6 0 0 -5.4 0 0 -5.6 0 0 
-5.2 0 0 -4.2 0 0 -4.8 0 0 
-4.4 0 0 -5 0 0 -4.6 0 0 
-3.6 0 0 -3.8 0 0 -3.2 0 0 
-4 0 0 -3.4 0 0 -3 0.4 0 
-3 0.6 0 -2.6 0 0 -2.8 0 0 
-3 0 0 -2.4 0 0 -3 0.8 0 
-3 0.2 0 -2.2 0 0 -1.8 0 0 
-1.6 0 0 -1.2 0 0 -1.4 0 0 
-2 0 0 -0.4 0 0 -1 0 0 
-0.2 0 0 -0.6 0 0 -0.8 0 0 
0.4 0 0 0.6 0 0 -0 0 0 
0.8 0 0 0.2 0 0 1.8 0 0 
1.2 0 0 1 0 0 1.6 0 0 
1.4 0 0 2.6 0 0 2.8 0 0 
2.2 0 0 2.4 0 0 2 0 0 
3.4 0 0 3.8 0 0 3 0.8 0 
3 0.2 0 3 0.6 0 3.2 0 0 
3.6 0 0 3 0.4 0 3 0 0 
4 0 0 4.8 0 0 4.2 0 0 
4.4 0 0 4.6 0 0 5.4 0 0 
5.2 0 0 5.6 0 0 5 0 0 
5.8 0 0 6.6 0 0 6 0 0 
6.4 0 0 6.8 0 0 6.2 0 0 
7.4 0 0 7 0 0 7.8 0 0 
7.2 0 0 7.6 0 0 8.4 0 0 
8.6 0 0 8 0 0 8.2 0 0 
8.8 0 0 9.5357 0 0 9 0.8 0 
9 0.6 0 9.7143 0 0 9 0 0 
9.8929 0 0 9.3571 0 0 9 0.2 0 
9 0.4 0 9.1786 0 0 10.6071 0 0 
10.0714 0 0 10.7857 0 0 10.4286 0 0 
10.25 0 0 10.9643 0 0 11.5 0 0 
11.3214 0 0 11.1429 0 0 11.9277 0.021536 0 
12.8571 0 0 12.5 0 0 12.1143 0.550362 0 
12.6786 0 0 13.9286 0 0 13.0357 0 0 
13.3929 0 0 13.75 0 0 13.2143 0 0 
13.5714 0 0 14.8214 0 0 14.4643 0 0 
14.6429 0 0 14.2857 0 0 14.1071 0 0 
15 0 0 15 0.8 0 15 0.6 0 
15 0.2 0 15 0.4 0 -15 1.6 0 
-15 1 0 -15 1.4 0 -15 1.2 0 
-15 1.8 0 -11.7513 1.00862 0 -11.9916 1.7937 0 
-9 1.4 0 -9 1 0 -9 1.8 0 
-9 1.2 0 -9 1.6 0 -3 1.8 0 
-3 1 0 -3 1.2 0 -3 1.4 0 
-3 1.6 0 3 1.8 0 3 1.6 0 
3 1.4 0 3 1.2 0 3 1 0 
9 1.4 0 9 1.2 0 9 1 0 
9 1.6 0 9 1.8 0 11.6422 1.55001 0 
12.2624 1.85008 0 15 1.2 0 15 1.8 0 
15 1.4 0 15 1 0 15 1.6 0 
-15 2 0 -15 2.2 0 -15 2.8 0 
-15 2.6 0 -15 2.4 0 -11.2351 2.13149 0 
-11.4988 2.9539 0 -9 2.4 0 -9 2.2 0 
-9 2.8 0 -9 2.6 0 -9 2 0 
-3 2 0 -3 2.6 0 -3 2.8 0 
-3 2.2 0 -3 2.4 0 3 2.2 0 
3 2.8 0 3 2.6 0 3 2 0 
3 2.4 0 9 2 0 9 2.6 0 
9 2.4 0 9 2.2 0 9 2.8 0 
15 2.2 0 15 2.4 0 15 2.8 0 
15 2 0 15 2.6 0 -15 3.2 0 
-15 3.8 0 -15 3.4 0 -15 3.6 0 
-15 3 0 -12.9572 3.9066 0 -12.1199 3.69504 0 
-9 3.8 0 -9 3.4 0 -9 3.6 0 
-9 3.2 0 -9 3 0 -3 3 0 
-3 3.2 0 -3 3.6 0 -3 3.8 0 
-3 3.4 0 3 3.2 0 3 3.4 0 
3 3.8 0 3 3 0 3 3.6 0 
9 3.2 0 9 3.4 0 9 3 0 
9 3.6 0 9 3.8 0 15 3.6 0 
15 3 0 15 3.4 0 15 3.8 0 
15 3.2 0 -15 4.8 0 -15 4.6 0 
-15 4.4 0 -15 4.2 0 -15 4 0 
-10.6874 4.48458 0 -9 4.4 0 -9 4 0 
-9 4.8 0 -9 4.2 0 -9 4.6 0 
-3 4.4 0 -3 4.2 0 -3 4 0 
-3 4.6 0 -3 4.8 0 -1.03369 4.87655 0 
0.249202 4.7974 0 3 4.2 0 3 4.8 0 
3 4 0 3 4.6 0 3 4.4 0 
7.11426 4.25987 0 9 4.8 0 9 4.4 0 
9 4 0 9 4.2 0 9 4.6 0 
10.5866 4.23261 0 10.791 4.79258 0 12.6666 4.4142 0 
15 4.6 0 15 4.8 0 15 4.4 0 
15 4.2 0 15 4 0 -15 5.6 0 
-15 5.4 0 -15 5 0 -15 5.2 0 
-15 5.8 0 -10.5134 5.11171 0 -10.2366 5.709 0 
-9 5.4 0 -9 5 0 -9 5.6 0 
-9 5.8 0 -9 5.2 0 -5.37632 5.56425 0 
-3 5.2 0 -3 5.8 0 -3 5.4 0 
-3 5.6 0 -3 5 0 -0.615655 5.67769 0 
0.259664 5.87151 0 3 5 0 3 5.4 0 
3 5.8 0 3 5.6 0 3 5.2 0 
5.83031 5.59543 0 9 5.2 0 9 5.8 0 
9 5.4 0 9 5 0 9 5.6 0 
15 5 0 15 5.6 0 15 5.4 0 
15 5.2 0 15 5.8 0 -15 6.2 0 
-15 6.8 0 -15 6.6 0 -15 6 0 
-15 6.4 0 -12.9544 6.26728 0 -10.0123 6.51186 0 
-9 6.6 0 -9 6.4 0 -9 6.8 0 
-9 6 0 -9 6.2 0 -5.4842 6.32126 0 
-5.28826 6.87668 0 -3 6 0 -3 6.2 0 
-3 6.6 0 -3 6.8 0 -3 6.4 0 
-0.932899 6.24113 0 3 6.8 0 3 6.4 0 
3 6 0 3 6.6 0 3 6.2 0 
5.38593 6.30008 0 6.12802 6.55624 0 9 6.2 0 
9 6.4 0 9 6.8 0 9 6.6 0 
9 6 0 9.85968 6.83377 0 10.2488 6.02379 0 
13.0615 6.97666 0 15 6.8 0 15 6 0 
15 6.2 0 15 6.4 0 15 6.6 0 
-15 7.6 0 -15 7 0 -15 7.2 0 
-15 7.4 0 -15 7.8 0 -13.1745 7.56664 0 
-9.68074 7.47426 0 -9 7.2 0 -9 7 0 
-9 7.6 0 -9 7.4 0 -9 7.8 0 
-6.13891 7.55518 0 -5.94341 7.04616 0 -3 7.8 0 
-3 7.6 0 -3 7.4 0 -3 7.2 0 
-3 7 0 -0.068914 7.49508 0 3 7.8 0 
3 7.6 0 3 7.2 0 3 7.4 0 
3 7 0 5.7387 7.55685 0 6.15141 7.93361 0 
6.313 7.39058 0 9 7 0 9 7.6 0 
9 7.8 0 9 7.4 0 9 7.2 0 
9.60042 7.62726 0 10.1355 7.33781 0 13.1314 7.52632 0 
15 7.6 0 15 7.4 0 15 7.2 0 
15 7 0 15 7.8 0 -15 8.6 0 
-15 8.4 0 -15 8.2 0 -15 8 0 
-15 8.8 0 -13.4616 8.61352 0 -13.1894 8.1162 0 
-9.26679 8.44104 0 -8.8214 8 0 -8.4643 8 0 
-8.1071 8 0 -8.90034 8.99282 0 -8.2857 8 0 
-9 8 0 -8.6429 8 0 -8.13057 8.7854 0 
-7.2143 8 0 -7.75 8 0 -7.5714 8 0 
-7.9286 8 0 -7.0357 8 0 -7.3929 8 0 
-6.6786 8 0 -6.8571 8 0 -6.5 8 0 
-6.71408 8.50891 0 -6.14612 8.16322 0 -5.1429 8 0 
-5.5 8 0 -5.3214 8 0 -4.0714 8 0 
-4.6071 8 0 -4.25 8 0 -4.4286 8 0 
-4.7857 8 0 -4.9643 8 0 -3.7143 8 0 
-3.1786 8 0 -3.8929 8 0 -3.5357 8 0 
-3.3571 8 0 -2.4643 8 0 -3 8 0 
-2.2857 8 0 -2.1071 8 0 -2.6429 8 0 
-2.8214 8 0 -1.5714 8 0 -1.3929 8 0 
-1.0357 8 0 -1.2143 8 0 -1.75 8 0 
-1.38102 8.62981 0 -1.9286 8 0 -0.168709 8.11128 0 
-0.6786 8 0 -0.5 8 0 -0.8571 8 0 
0.6786 8 0 0.583885 8.48106 0 0.8571 8 0 
0.5 8 0 1.5714 8 0 1.75 8 0 
1.3929 8 0 1.0357 8 0 1.9286 8 0 
1.2143 8 0 2.4643 8 0 2.2857 8 0 
2.6429 8 0 2.1071 8 0 2.8214 8 0 
3.83668 8.85473 0 3.7143 8 0 3.8929 8 0 
3 8 0 3.3571 8 0 3.1786 8 0 
3.5357 8 0 4.6071 8 0 4.9643 8 0 
4.4286 8 0 4.7857 8 0 4.0714 8 0 
4.25 8 0 5.79874 8.25743 0 5.79759 8.81069 0 
5.3214 8 0 5.5 8 0 5.1429 8 0 
5.26321 8.93867 0 6.60476 8.53109 0 6.6786 8 0 
6.5 8 0 6.8571 8 0 7.3929 8 0 
7.0357 8 0 7.97635 8.81106 0 7.5714 8 0 
7.75 8 0 7.9286 8 0 7.2143 8 0 
7.36944 8.74142 0 8.1071 8 0 8.8214 8 0 
8.6429 8 0 8.4643 8 0 8.2857 8 0 
9 8 0 9 8 0 9.44642 8.24657 0 
9.09807 8.843 0 15 8.6 0 15 8.4 0 
15 8.8 0 15 8.2 0 15 8 0 
-15 9 0 -15 9.4 0 -15 9.6 0 
-15 9.2 0 -15 9.8 0 -13.3502 9.13644 0 
-13.4748 9.69999 0 -8.25293 9.2715 0 -7.65992 9.2284 0 
-7.07642 9.31399 0 -6.4649 9.01795 0 -6.52077 9.56412 0 
-5.99509 9.87361 0 6.23037 9.20456 0 8.53188 9.06296 0 
13.326 9.72086 0 13.3442 9.14726 0 15 9.4 0 
15 9.2 0 15 9 0 15 9.8 0 
15 9.6 0 -14.3333 10 0 -14.1667 10 0 
-15 10.2 0 -15 10 0 -14.5 10 0 
-15 10.8 0 -14.6667 10 0 -14.8333 10 0 
-15 10.6 0 -15 10.4 0 -13.3566 10.676 0 
-13.1279 10.242 0 -14 10 0 -12.4 10 0 
-13 10 0 -12.2 10 0 -12.6 10 0 
-12.8 10 0 -11.6 10 0 -12 10 0 
-11.4 10 0 -11.8 10 0 -11.2 10 0 
-10.4 10 0 -10.6 10 0 -10.2 10 0 
-11 10 0 -10.8 10 0 -9.6 10 0 
-9.2 10 0 -9.4 10 0 -9.8 10 0 
-10 10 0 -9 10.4 0 -9 10.6 0 
-8.6429 10 0 -8.2857 10 0 -8.1071 10 0 
-9 10 0 -8.8214 10 0 -9 10.2 0 
-9 10.8 0 -8.4643 10 0 -7.75 10 0 
-7.9286 10 0 -7.5714 10 0 -7.2143 10 0 
-7.0357 10 0 -7.3929 10 0 -6.8571 10 0 
-6.6786 10 0 -6.5 10 0 -6.48859 10.3496 0 
-5.98914 10.4062 0 -5.51357 10.5476 0 -5.1429 10 0 
-5.5 10 0 -5.3214 10 0 -5.93734 10.9374 0 
-4.6071 10 0 -4.0714 10 0 -4.25 10 0 
-4.9643 10 0 -4.7857 10 0 -4.4286 10 0 
-3.7143 10 0 -3.1786 10 0 -3.8929 10 0 
-3.3571 10 0 -3.5357 10 0 -2.8 10 0 
-3 10.8 0 -3 10.2 0 -3 10.6 0 
-2.6 10 0 -2.2 10 0 -2.4 10 0 
-3 10 0 -3 10.4 0 -1.4 10 0 
-2 10 0 -1.8 10 0 -1.2 10 0 
-1.6 10 0 -1 10 0 -0.4 10 0 
-0.6 10 0 -0.8 10 0 -0.2 10 0 
0.2 10 0 -0 10 0 0.4 10 0 
0.6 10 0 0.8 10 0 1.8 10 0 
1.4 10 0 1 10 0 1.6 10 0 
1.2 10 0 2 10 0 2.4 10 0 
2.2 10 0 2.8 10 0 2.6 10 0 
3 10 0 3.8 10 0 3.4 10 0 
3.6 10 0 3.2 10 0 4.8 10 0 
4.6 10 0 4 10 0 4.4 10 0 
4.2 10 0 5.4 10 0 5.2 10 0 
5 10 0 5.6 10 0 5.8 10 0 
6.8 10 0 6.6 10 0 6.4 10 0 
6.2 10 0 6 10 0 7.8 10 0 
7.4 10 0 7.6 10 0 7.2 10 0 
7 10 0 8.4 10 0 8.2 10 0 
8.8 10 0 8 10 0 8.6 10 0 
9 10 0 9 10.6 0 9 10.2 0 
9 10.8 0 9.4 10 0 9 10.4 0 
9.6 10 0 9.2 10 0 9.8 10 0 
10.8 10 0 10.6 10 0 10.2 10 0 
10.4 10 0 10 10 0 11.2 10 0 
11.4 10 0 11 10 0 11.6 10 0 
11.8 10 0 12.907 10.9509 0 12.8 10 0 
12.4 10 0 12 10 0 12.6191 10.4533 0 
12.2 10 0 12.6 10 0 13 10 0 
13.6889 10.1426 0 13.2266 10.3089 0 14.1667 10 0 
14 10 0 14.6667 10 0 14.8333 10 0 
14.5 10 0 14.3333 10 0 15 10.4 0 
15 10.6 0 15 10.2 0 15 10.8 0 
15 10 0 -15 11 0 -15 11.8 0 
-15 11.6 0 -15 11.4 0 -15 11.2 0 
-9 11.4 0 -9 11.6 0 -9 11 0 
-9 11.2 0 -9 11.8 0 -3 11 0 
-3 11.2 0 -3 11.4 0 -3 11.8 0 
-3 11.6 0 1.45556 11.8282 0 2.28592 11.8001 0 
9 11.2 0 9 11.4 0 9 11.8 0 
9 11.6 0 9 11 0 11.7628 11.7985 0 
15 11.8 0 15 11 0 15 11.2 0 
15 11.6 0 15 11.4 0 -15 12 0 
-15 12.6 0 -15 12.8 0 -15 12.4 0 
-15 12.2 0 -9 12.2 0 -9 12.8 0 
-9 12.4 0 -9 12 0 -9 12.6 0 
-3 12.2 0 -3 12.6 0 -3 12 0 
-3 12.4 0 -3 12.8 0 4.27721 12.1676 0 
9 12.2 0 9 12.4 0 9 12.6 0 
9 12.8 0 9 12 0 15 12.6 0 
15 12.4 0 15 12 0 15 12.8 0 
15 12.2 0 -15 13.8 0 -15 13 0 
-15 13.4 0 -15 13.2 0 -15 13.6 0 
-9 13.8 0 -9 13.6 0 -9 13.2 0 
-9 13 0 -9 13.4 0 -3 13.2 0 
-3 13 0 -3 13.8 0 -3 13.4 0 
-3 13.6 0 5.45972 13.5999 0 7.30477 13.9023 0 
8.63025 13.8796 0 8.09196 13.8857 0 9 13.8 0 
9 13.2 0 9 13 0 9 13.4 0 
9 13.6 0 9.95545 13.4214 0 10.4824 13.1922 0 
10.6653 13.7385 0 15 13 0 15 13.6 0 
15 13.8 0 15 13.2 0 15 13.4 0 
-15 14.8 0 -15 14.4 0 -15 14.2 0 
-15 14.6 0 -15 14 0 -9 14.2 0 
-9 14.6 0 -9 14.4 0 -9 14.8 0 
-9 14 0 -3 14 0 -3 14.6 0 
-3 14.8 0 -3 14.2 0 -3 14.4 0 
3.9279 14.1841 0 5.83902 14.2461 0 6.56048 14.136 0 
6.27446 14.7195 0 7.62536 14.3914 0 8.23535 14.411 0 
8.7917 14.486 0 9.34634 14.5453 0 9.9968 14.1202 0 
9 14 0 9.4854 14.0177 0 15 14.4 0 
15 14 0 15 14.8 0 15 14.2 0 
15 14.6 0 -15 15.4 0 -15 15 0 
-15 15.2 0 -15 15.8 0 -15 15.6 0 
-9 15.2 0 -9 15.8 0 -9 15.4 0 
-9 15.6 0 -9 15 0 -3 15 0 
-3 15.4 0 -3 15.8 0 -3 15.6 0 
-3 15.2 0 5.65528 15.0132 0 9 15.8333 0 
9 15.5 0 9 15.6667 0 9 15.1667 0 
9 15 0 9 15.3333 0 15 15.4 0 
15 15.6 0 15 15.2 0 15 15 0 
15 15.8 0 -14.8 16 0 -14.2 16 0 
-14.6 16 0 -15 16 0 -14.4 16 0 
-14 16 0 -13.6 16 0 -13.2 16 0 
-13.4 16 0 -13.8 16 0 -12.2 16 0 
-12.6 16 0 -12.8 16 0 -12.4 16 0 
-13 16 0 -12 16 0 -11.2 16 0 
-11.4 16 0 -11.8 16 0 -11.6 16 0 
-10.6 16 0 -10.2 16 0 -11 16 0 
-10.4 16 0 -10.8 16 0 -10 16 0 
-9.8 16 0 -9.6 16 0 -9.4 16 0 
-9.2 16 0 -8.6 16 0 -8.2 16 0 
-8.8 16 0 -8.4 16 0 -9 16 0 
-8 16 0 -7.8 16 0 -7.6 16 0 
-7.2 16 0 -7.4 16 0 -6.4 16 0 
-7 16 0 -6.2 16 0 -6.6 16 0 
-6.8 16 0 -6 16 0 -5.2 16 0 
-5.4 16 0 -5.6 16 0 -5.8 16 0 
-4.8 16 0 -5 16 0 -4.6 16 0 
-4.2 16 0 -4.4 16 0 -3.8 16 0 
-3.6 16 0 -3.4 16 0 -3.2 16 0 
-4 16 0 -2.4 16 0 -2.6 16 0 
-2.8 16 0 -2.2 16 0 -3 16 0 
-2 16 0 -1.2 16 0 -1.4 16 0 
-1.8 16 0 -1.6 16 0 -0.4 16 0 
-0.8 16 0 -0.6 16 0 -0.2 16 0 
-1 16 0 0.8 16 0 0.2 16 0 
0.6 16 0 -0 16 0 0.4 16 0 
1.6 16 0 1 16 0 1.4 16 0 
1.2 16 0 1.8 16 0 2.4 16 0 
2.6 16 0 2.2 16 0 2.8 16 0 
2 16 0 3 16 0 3.8 16 0 
3.6 16 0 3.4 16 0 3.2 16 0 
4 16 0 4.8 16 0 4.6 16 0 
4.4 16 0 4.2 16 0 5.2 16 0 
5.6 16 0 5.4 16 0 5.8 16 0 
5 16 0 6.4 16 0 6.8 16 0 
6.6 16 0 6.2 16 0 6 16 0 
7.8 16 0 7.6 16 0 7.2 16 0 
7 16 0 7.4 16 0 8.6 16 0 
8.8 16 0 8.2 16 0 8.4 16 0 
8 16 0 9.6 16 0 9.4 16 0 
9 16 0 9.8 16 0 9.2 16 0 
10 16 0 10.2 16 0 10.4 16 0 
10.6 16 0 10.8 16 0 11.8 16 0 
11 16 0 11.4 16 0 11.6 16 0 
11.2 16 0 12.4 16 0 12.8 16 0 
12.6 16 0 12.2 16 0 12 16 0 
13.8 16 0 13.2 16 0 13 16 0 
13.6 16 0 13.4 16 0 14.8 16 0 
14 16 0 14.2 16 0 14.4 16 0 
14.6 16 0 15 16 0 
gid 1 1049 double
1 1 1 1 1 1 1 1 1 
1 1 1 2 2 2 2 2 2 
2 2 2 2 2 2 2 2 2 
2 2 2 2 2 1 2 2 2 
2 2 2 2 2 2 2 2 2 
2 2 2 2 2 2 2 2 2 
2 2 2 2 2 2 2 2 2 
2 2 2 2 2 2 2 2 2 
2 2 2 2 2 2 2 2 2 
2 2 2 2 2 2 2 2 2 
2 2 2 2 2 2 2 2 2 
2 2 2 2 2 2 2 2 2 
2 2 2 2 2 2 2 2 2 
2 2 2 2 2 2 2 2 2 
2 2 2 2 2 2 2 2 2 
2 2 2 2 2 2 2 2 2 
2 2 2 2 2 2 2 2 2 
2 2 2 2 2 2 2 2 2 
2 2 2 2 2 1 2 2 1 
2 2 2 2 2 2 2 2 2 
2 2 2 2 2 2 2 2 2 
2 2 2 2 1 1 2 2 2 
2 2 2 2 2 2 2 2 2 
2 2 2 2 2 2 2 2 1 
1 2 2 2 2 2 2 2 2 
2 2 1 1 2 2 2 2 2 
2 2 2 2 2 2 2 2 2 
2 2 2 2 2 2 2 2 2 
2 2 2 2 2 2 2 1 1 
2 2 2 2 2 2 2 2 2 
2 2 2 2 2 2 2 2 2 
2 2 2 2 2 2 2 2 2 
2 2 2 1 2 2 2 2 2 
2 2 2 2 2 1 1 2 2 
2 2 2 1 2 2 2 2 2 
1 1 1 2 2 2 2 2 2 
2 2 2 2 1 1 2 2 2 
2 2 1 2 2 2 2 2 1 
1 2 2 2 2 2 1 2 2 
2 2 2 2 2 2 2 2 2 
2 2 2 2 1 1 2 2 2 
2 2 1 1 2 2 2 2 2 
1 2 2 2 2 2 1 1 2 
2 2 2 2 1 1 1 2 2 
2 2 2 2 2 2 2 2 1 
1 2 2 2 2 2 1 1 2 
2 2 2 2 1 2 2 2 2 
2 1 1 1 2 2 2 2 2 
1 1 1 2 2 2 2 2 2 
2 2 2 2 1 1 1 2 2 
2 1 2 2 2 1 2 2 2 
2 2 2 2 2 2 1 1 2 
2 2 2 2 2 2 2 2 2 
2 2 2 2 2 2 2 2 2 
2 2 2 2 2 2 1 2 1 
2 2 2 2 1 2 2 2 2 
2 2 2 2 2 2 2 2 2 
1 2 2 2 2 2 2 2 2 
2 2 2 2 1 1 2 2 2 
1 1 2 2 2 2 2 1 2 
2 2 2 1 2 2 2 2 2 
2 2 1 1 2 2 2 2 2 
2 2 2 2 2 1 1 1 1 
1 1 1 1 1 1 1 1 2 
2 2 2 2 2 2 2 2 2 
2 2 2 2 2 1 1 2 2 
2 2 2 2 2 2 2 2 2 
2 2 2 2 2 2 2 2 2 
2 2 2 2 2 2 2 2 2 
2 2 2 2 2 2 2 2 2 
2 2 1 1 1 2 2 2 1 
2 2 2 2 2 2 2 2 2 
2 2 2 2 2 2 2 2 2 
2 2 2 2 2 2 2 2 2 
2 2 2 2 2 2 2 2 2 
2 2 2 2 2 2 2 2 2 
2 2 2 2 2 2 2 2 2 
2 2 2 2 2 2 2 2 2 
2 2 2 2 2 2 2 2 2 
2 2 2 2 2 2 2 2 2 
2 2 2 2 2 2 2 2 2 
2 2 2 2 1 2 2 2 1 
2 2 2 1 1 2 2 2 2 
2 2 2 2 2 2 2 2 2 
2 2 2 2 2 2 2 2 2 
2 2 2 2 1 1 2 2 2 
2 2 1 2 2 2 2 2 2 
2 2 2 2 2 2 2 2 2 
2 2 2 2 2 1 2 2 2 
2 2 2 2 2 2 2 2 2 
2 2 2 2 2 2 2 2 2 
2 2 2 2 1 1 1 1 2 
2 2 2 2 1 1 1 2 2 
2 2 2 2 2 2 2 2 2 
2 2 2 2 2 2 2 2 2 
1 1 1 1 1 1 1 1 1 
2 1 2 2 2 2 2 2 2 
2 2 2 2 2 2 2 2 2 
2 2 2 2 1 2 2 2 2 
2 2 2 2 2 2 2 2 2 
2 2 2 2 2 2 2 2 2 
2 2 2 2 2 2 2 2 2 
2 2 2 2 2 2 2 2 2 
2 2 2 2 2 2 2 2 2 
2 2 2 2 2 2 2 2 2 
2 2 2 2 2 2 2 2 2 
2 2 2 2 2 2 2 2 2 
2 2 2 2 2 2 2 2 2 
2 2 2 2 2 2 2 2 2 
2 2 2 2 2 2 2 2 2 
2 2 2 2 2 2 2 2 2 
2 2 2 2 2 2 2 2 2 
2 2 2 2 2 2 2 2 2 
2 2 2 2 2 2 2 2 2 
2 2 2 2 2 2 2 2 2 
2 2 2 2 2 2 2 2 2 
2 2 2 2 2 
A 1 1049 double
10 10 10 10 10 10 10 10 10 
10 10 10 10 10 10 10 10 10 
10 10 10 10 10 10 10 10 10 
10 10 10 10 10 10 10 10 10 
10 10 10 10 10 10 10 10 10 
10 10 10 10 10 10 10 10 10 
10 10 10 10 10 10 10 10 10 
10 10 10 10 10 10 10 10 10 
10 10 10 10 10 10 10 10 10 
10 10 10 10 10 10 10 10 10 
10 10 10 10 10 10 10 10 10 
10 10 10 10 10 10 10 10 10 
10 10 10 10 10 10 10 10 10 
10 10 10 10 10 10 10 10 10 
10 10 10 10 10 10 10 10 10 
10 10 10 10 10 10 10 10 10 
10 10 10 10 10 10 10 10 10 
10 10 10 10 10 10 10 10 10 
10 10 10 10 10 10 10 10 10 
10 10 10 10 10 10 10 10 10 
10 10 10 10 10 10 10 10 10 
10 10 10 10 10 10 10 10 10 
10 10 10 10 10 10 10 10 10 
10 10 10 10 10 10 10 10 10 
10 10 10 10 10 10 10 10 10 
10 10 10 10 10 10 10 10 10 
10 10 10 10 10 10 10 10 10 
10 10 10 10 10 10 10 10 10 
10 10 10 10 10 10 10 10 10 
10 10 10 10 10 10 10 10 10 
10 10 10 10 10 10 10 10 10 
10 10 10 10 10 10 10 10 10 
10 10 10 10 10 10 10 10 10 
10 10 10 10 10 10 10 10 10 
10 10 10 10 10 10 10 10 10 
10 10 10 10 10 10 10 10 10 
10 10 10 10 10 10 10 10 10 
10 10 10 10 10 10 10 10 10 
10 10 10 10 10 10 10 10 10 
10 10 10 10 10 10 10 10 10 
10 10 10 10 10 10 10 10 10 
10 10 10 10 10 10 10 10 10 
10 10 10 10 10 10 10 10 10 
10 10 10 10 10 10 10 10 10 
10 10 10 10 10 10 10 10 10 
10 10 10 10 10 10 10 10 10 
10 10 10 10 10 10 10 10 10 
10 10 10 10 10 10 10 10 10 
10 10 10 10 10 10 10 10 10 
10 10 10 10 10 10 10 10 10 
10 10 10 10 10 10 10 10 10 
10 10 10 10 10 10 10 10 10 
10 10 10 10 10 10 10 10 10 
10 10 10 10 10 10 10 10 10 
10 10 10 10 10 10 10 10 10 
10 10 10 10 10 10 10 10 10 
10 10 10 10 10 10 10 10 10 
10 10 10 10 10 10 10 10 10 
10 10 10 10 10 10 10 10 10 
10 10 10 10 10 10 10 10 10 
10 10 10 10 10 10 10 10 10 
10 10 10 10 10 10 10 10 10 
10 10 10 10 10 10 10 10 10 
10 10 10 10 10 10 10 10 10 
10 10 10 10 10 10 10 10 10 
10 10 10 10 10 10 10 10 10 
10 10 10 10 10 10 10 10 10 
10 10 10 10 10 10 10 10 10 
10 10 10 10 10 10 10 10 10 
10 10 10 10 10 10 10 10 10 
10 10 10 10 10 10 10 10 10 
10 10 10 10 10 10 10 10 10 
10 10 10 10 10 10 10 10 10 
10 10 10 10 10 10 10 10 10 
10 10 10 10 10 10 10 10 10 
10 10 10 10 10 10 10 10 10 
10 10 10 10 10 10 10 10 10 
10 10 10 10 10 10 10 10 10 
10 10 10 10 10 10 10 10 10 
10 10 10 10 10 10 10 10 10 
10 10 10 10 10 10 10 10 10 
10 10 10 10 10 10 10 10 10 
10 10 10 10 10 10 10 10 10 
10 10 10 10 10 10 10 10 10 
10 10 10 10 10 10 10 10 10 
10 10 10 10 10 10 10 10 10 
10 10 10 10 10 10 10 10 10 
10 10 10 10 10 10 10 10 10 
10 10 10 10 10 10 10 10 10 
10 10 10 10 10 10 10 10 10 
10 10 10 10 10 10 10 10 10 
10 10 10 10 10 10 10 10 10 
10 10 10 10 10 10 10 10 10 
10 10 10 10 10 10 10 10 10 
10 10 10 10 10 10 10 10 10 
10 10 10 10 10 10 10 10 10 
10 10 10 10 10 10 10 10 10 
10 10 10 10 10 10 10 10 10 
10 10 10 10 10 10 10 10 10 
10 10 10 10 10 10 10 10 10 
10 10 10 10 10 10 10 10 10 
10 10 10 10 10 10 10 10 10 
10 10 10 10 10 10 10 10 10 
10 10 10 10 10 10 10 10 10 
10 10 10 10 10 10 10 10 10 
10 10 10 10 10 10 10 10 10 
10 10 10 10 10 10 10 10 10 
10 10 10 10 10 10 10 10 10 
10 10 10 10 10 10 10 10 10 
10 10 10 10 10 10 10 10 10 
10 10 10 10 10 10 10 10 10 
10 10 10 10 10 10 10 10 10 
10 10 10 10 10 10 10 10 10 
10 10 10 10 10 10 10 10 10 
10 10 10 10 10 10 10 10 10 
10 10 10 10 10 10 10 10 10 
10 10 10 10 10 
B 1 1049 double
0.2 0.2 0.2 0.2 0.2 0.2 0.2 0.2 0.2 
0.2 0.2 0.2 0.2 0.2 0.2 0.2 0.2 0.2 
0.2 0.2 0.2 0.2 0.2 0.2 0.2 0.2 0.2 
0.2 0.2 0.2 0.2 0.2 0.2 0.2 0.2 0.2 
0.2 0.2 0.2 0.2 0.2 0.2 0.2 0.2 0.2 
0.2 0.2 0.2 0.2 0.2 0.2 0.2 0.2 0.2 
0.2 0.2 0.2 0.2 0.2 0.2 0.2 0.2 0.2 
0.2 0.2 0.2 0.2 0.2 0.2 0.2 0.2 0.2 
0.2 0.2 0.2 0.2 0.2 0.2 0.2 0.2 0.2 
0.2 0.2 0.2 0.2 0.2 0.2 0.2 0.2 0.2 
0.2 0.2 0.2 0.2 0.2 0.2 0.2 0.2 0.2 
0.2 0.2 0.2 0.2 0.2 0.2 0.2 0.2 0.2 
0.2 0.2 0.2 0.2 0.2 0.2 0.2 0.2 0.2 
0.2 0.2 0.2 0.2 0.2 0.2 0.2 0.2 0.2 
0.2 0.2 0.2 0.2 0.2 0.2 0.2 0.2 0.2 
0.2 0.2 0.2 0.2 0.2 0.2 0.2 0.2 0.2 
0.2 0.2 0.2 0.2 0.2 0.2 0.2 0.2 0.2 
0.2 0.2 0.2 0.2 0.2 0.2 0.2 0.2 0.2 
0.2 0.2 0.2 0.2 0.2 0.2 0.2 0.2 0.2 
0.2 0.2 0.2 0.2 0.2 0.2 0.2 0.2 0.2 
0.2 0.2 0.2 0.2 0.2 0.2 0.2 0.2 0.2 
0.2 0.2 0.2 0.2 0.2 0.2 0.2 0.2 0.2 
0.2 0.2 0.2 0.2 0.2 0.2 0.2 0.2 0.2 
0.2 0.2 0.2 0.2 0.2 0.2 0.2 0.2 0.2 
0.2 0.2 0.2 0.2 0.2 0.2 0.2 0.2 0.2 
0.2 0.2 0.2 0.2 0.2 0.2 0.2 0.2 0.2 
0.2 0.2 0.2 0.2 0.2 0.2 0.2 0.2 0.2 
0.2 0.2 0.2 0.2 0.2 0.2 0.2 0.2 0.2 
0.2 0.2 0.2 0.2 0.2 0.2 0.2 0.2 0.2 
0.2 0.2 0.2 0.2 0.2 0.2 0.2 0.2 0.2 
0.2 0.2 0.2 0.2 0.2 0.2 0.2 0.2 0.2 
0.2 0.2 0.2 0.2 0.2 0.2 0.2 0.2 0.2 
0.2 0.2 0.2 0.2 0.2 0.2 0.2 0.2 0.2 
0.2 0.2 0.2 0.2 0.2 0.2 0.2 0.2 0.2 
0.2 0.2 0.2 0.2 0.2 0.2 0.2 0.2 0.2 
0.2 0.2 0.2 0.2 0.2 0.2 0.2 0.2 0.2 
0.2 0.2 0.2 0.2 0.2 0.2 0.2 0.2 0.2 
0.2 0.2 0.2 0.2 0.2 0.2 0.2 0.2 0.2 
0.2 0.2 0.2 0.2 0.2 0.2 0.2 0.2 0.2 
0.2 0.2 0.2 0.2 0.2 0.2 0.2 0.2 0.2 
0.2 0.2 0.2 0.2 0.2 0.2 0.2 0.2 0.2 
0.2 0.2 0.2 0.2 0.2 0.2 0.2 0.2 0.2 
0.2 0.2 0.2 0.2 0.2 0.2 0.2 0.2 0.2 
0.2 0.2 0.2 0.2 0.2 0.2 0.2 0.2 0.2 
0.2 0.2 0.2 0.2 0.2 0.2 0.2 0.2 0.2 
0.2 0.2 0.2 0.2 0.2 0.2 0.2 0.2 0.2 
0.2 0.2 0.2 0.2 0.2 0.2 0.2 0.2 0.2 
0.2 0.2 0.2 0.2 0.2 0.2 0.2 0.2 0.2 
0.2 0.2 0.2 0.2 0.2 0.2 0.2 0.2 0.2 
0.2 0.2 0.2 0.2 0.2 0.2 0.2 0.2 0.2 
0.2 0.2 0.2 0.2 0.2 0.2 0.2 0.2 0.2 
0.2 0.2 0.2 0.2 0.2 0.2 0.2 0.2 0.2 
0.2 0.2 0.2 0.2 0.2 0.2 0.2 0.2 0.2 
0.2 0.2 0.2 0.2 0.2 0.2 0.2 0.2 0.2 
0.2 0.2 0.2 0.2 0.2 0.2 0.2 0.2 0.2 
0.2 0.2 0.2 0.2 0.2 0.2 0.2 0.2 0.2 
0.2 0.2 0.2 0.2 0.2 0.2 0.2 0.2 0.2 
0.2 0.2 0.2 0.2 0.2 0.2 0.2 0.2 0.2 
0.2 0.2 0.2 0.2 0.2 0.2 0.2 0.2 0.2 
0.2 0.2 0.2 0.2 0.2 0.2 0.2 0.2 0.2 
0.2 0.2 0.2 0.2 0.2 0.2 0.2 0.2 0.2 
0.2 0.2 0.2 0.2 0.2 0.2 0.2 0.2 0.2 
0.2 0.2 0.2 0.2 0.2 0.2 0.2 0.2 0.2 
0.2 0.2 0.2 0.2 0.2 0.2 0.2 0.2 0.2 
0.2 0.2 0.2 0.2 0.2 0.2 0.2 0.2 0.2 
0.2 0.2 0.2 0.2 0.2 0.2 0.2 0.2 0.2 
0.2 0.2 0.2 0.2 0.2 0.2 0.2 0.2 0.2 
0.2 0.2 0.2 0.2 0.2 0.2 0.2 0.2 0.2 
0.2 0.2 0.2 0.2 0.2 0.2 0.2 0.2 0.2 
0.2 0.2 0.2 0.2 0.2 0.2 0.2 0.2 0.2 
0.2 0.2 0.2 0.2 0.2 0.2 0.2 0.2 0.2 
0.2 0.2 0.2 0.2 0.2 0.2 0.2 0.2 0.2 
0.2 0.2 0.2 0.2 0.2 0.2 0.2 0.2 0.2 
0.2 0.2 0.2 0.2 0.2 0.2 0.2 0.2 0.2 
0.2 0.2 0.2 0.2 0.2 0.2 0.2 0.2 0.2 
0.2 0.2 0.2 0.2 0.2 0.2 0.2 0.2 0.2 
0.2 0.2 0.2 0.2 0.2 0.2 0.2 0.2 0.2 
0.2 0.2 0.2 0.2 0.2 0.2 0.2 0.2 0.2 
0.2 0.2 0.2 0.2 0.2 0.2 0.2 0.2 0.2 
0.2 0.2 0.2 0.2 0.2 0.2 0.2 0.2 0.2 
0.2 0.2 0.2 0.2 0.2 0.2 0.2 0.2 0.2 
0.2 0.2 0.2 0.2 0.2 0.2 0.2 0.2 0.2 
0.2 0.2 0.2 0.2 0.2 0.2 0.2 0.2 0.2 
0.2 0.2 0.2 0.2 0.2 0.2 0.2 0.2 0.2 
0.2 0.2 0.2 0.2 0.2 0.2 0.2 0.2 0.2 
0.2 0.2 0.2 0.2 0.2 0.2 0.2 0.2 0.2 
0.2 0.2 0.2 0.2 0.2 0.2 0.2 0.2 0.2 
0.2 0.2 0.2 0.2 0.2 0.2 0.2 0.2 0.2 
0.2 0.2 0.2 0.2 0.2 0.2 0.2 0.2 0.2 
0.2 0.2 0.2 0.2 0.2 0.2 0.2 0.2 0.2 
0.2 0.2 0.2 0.2 0.2 0.2 0.2 0.2 0.2 
0.2 0.2 0.2 0.2 0.2 0.2 0.2 0.2 0.2 
0.2 0.2 0.2 0.2 0.2 0.2 0.2 0.2 0.2 
0.2 0.2 0.2 0.2 0.2 0.2 0.2 0.2 0.2 
0.2 0.2 0.2 0.2 0.2 0.2 0.2 0.2 0.2 
0.2 0.2 0.2 0.2 0.2 0.2 0.2 0.2 0.2 
0.2 0.2 0.2 0.2 0.2 0.2 0.2 0.2 0.2 
0.2 0.2 0.2 0.2 0.2 0.2 0.2 0.2 0.2 
0.2 0.2 0.2 0.2 0.2 0.2 0.2 0.2 0.2 
0.2 0.2 0.2 0.2 0.2 0.2 0.2 0.2 0.2 
0.2 0.2 0.2 0.2 0.2 0.2 0.2 0.2 0.2 
0.2 0.2 0.2 0.2 0.2 0.2 0.2 0.2 0.2 
0.2 0.2 0.2 0.2 0.2 0.2 0.2 0.2 0.2 
0.2 0.2 0.2 0.2 0.2 0.2 0.2 0.2 0.2 
0.2 0.2 0.2 0.2 0.2 0.2 0.2 0.2 0.2 
0.2 0.2 0.2 0.2 0.2 0.2 0.2 0.2 0.2 
0.2 0.2 0.2 0.2 0.2 0.2 0.2 0.2 0.2 
0.2 0.2 0.2 0.2 0.2 0.2 0.2 0.2 0.2 
0.2 0.2 0.2 0.2 0.2 0.2 0.2 0.2 0.2 
0.2 0.2 0.2 0.2 0.2 0.2 0.2 0.2 0.2 
0.2 0.2 0.2 0.2 0.2 0.2 0.2 0.2 0.2 
0.2 0.2 0.2 0.2 0.2 0.2 0.2 0.2 0.2 
0.2 0.2 0.2 0.2 0.2 0.2 0.2 0.2 0.2 
0.2 0.2 0.2 0.2 0.2 0.2 0.2 0.2 0.2 
0.2 0.2 0.2 0.2 0.2 0.2 0.2 0.2 0.2 
0.2 0.2 0.2 0.2 0.2 0.2 0.2 0.2 0.2 
0.2 0.2 0.2 0.2 0.2 
c 1 1049 double
0.1 0.1 0.1 0.1 0.1 0.1 0.1 0.1 0.1 
0.1 0.1 0.1 0.1 0.1 0.1 0.1 0.1 0.1 
0.1 0.1 0.1 0.1 0.1 0.1 0.1 0.1 0.1 
0.1 0.1 0.1 0.1 0.1 0.1 0.1 0.1 0.1 
0.1 0.1 0.1 0.1 0.1 0.1 0.1 0.1 0.1 
0.1 0.1 0.1 0.1 0.1 0.1 0.1 0.1 0.1 
0.1 0.1 0.1 0.1 0.1 0.1 0.1 0.1 0.1 
0.1 0.1 0.1 0.1 0.1 0.1 0.1 0.1 0.1 
0.1 0.1 0.1 0.1 0.1 0.1 0.1 0.1 0.1 
0.1 0.1 0.1 0.1 0.1 0.1 0.1 0.1 0.1 
0.1 0.1 0.1 0.1 0.1 0.1 0.1 0.1 0.1 
0.1 0.1 0.1 0.1 0.1 0.1 0.1 0.1 0.1 
0.1 0.1 0.1 0.1 0.1 0.1 0.1 0.1 0.1 
0.1 0.1 0.1 0.1 0.1 0.1 0.1 0.1 0.1 
0.1 0.1 0.1 0.1 0.1 0.1 0.1 0.1 0.1 
0.1 0.1 0.1 0.1 0.1 0.1 0.1 0.1 0.1 
0.1 0.1 0.1 0.1 0.1 0.1 0.1 0.1 0.1 
0.1 0.1 0.1 0.1 0.1 0.1 0.1 0.1 0.1 
0.1 0.1 0.1 0.1 0.1 0.1 0.1 0.1 0.1 
0.1 0.1 0.1 0.1 0.1 0.1 0.1 0.1 0.1 
0.1 0.1 0.1 0.1 0.1 0.1 0.1 0.1 0.1 
0.1 0.1 0.1 0.1 0.1 0.1 0.1 0.1 0.1 
0.1 0.1 0.1 0.1 0.1 0.1 0.1 0.1 0.1 
0.1 0.1 0.1 0.1 0.1 0.1 0.1 0.1 0.1 
0.1 0.1 0.1 0.1 0.1 0.1 0.1 0.1 0.1 
0.1 0.1 0.1 0.1 0.1 0.1 0.1 0.1 0.1 
0.1 0.1 0.1 0.1 0.1 0.1 0.1 0.1 0.1 
0.1 0.1 0.1 0.1 0.1 0.1 0.1 0.1 0.1 
0.1 0.1 0.1 0.1 0.1 0.1 0.1 0.1 0.1 
0.1 0.1 0.1 0.1 0.1 0.1 0.1 0.1 0.1 
0.1 0.1 0.1 0.1 0.1 0.1 0.1 0.1 0.1 
0.1 0.1 0.1 0.1 0.1 0.1 0.1 0.1 0.1 
0.1 0.1 0.1 0.1 0.1 0.1 0.1 0.1 0.1 
0.1 0.1 0.1 0.1 0.1 0.1 0.1 0.1 0.1 
0.1 0.1 0.1 0.1 0.1 0.1 0.1 0.1 0.1 
0.1 0.1 0.1 0.1 0.1 0.1 0.1 0.1 0.1 
0.1 0.1 0.1 0.1 0.1 0.1 0.1 0.1 0.1 
0.1 0.1 0.1 0.1 0.1 0.1 0.1 0.1 0.1 
0.1 0.1 0.1 0.1 0.1 0.1 0.1 0.1 0.1 
0.1 0.1 0.1 0.1 0.1 0.1 0.1 0.1 0.1 
0.1 0.1 0.1 0.1 0.1 0.1 0.1 0.1 0.1 
0.1 0.1 0.1 0.1 0.1 0.1 0.1 0.1 0.1 
0.1 0.1 0.1 0.1 0.1 0.1 0.1 0.1 0.1 
0.1 0.1 0.1 0.1 0.1 0.1 0.1 0.1 0.1 
0.1 0.1 0.1 0.1 0.1 0.1 0.1 0.1 0.1 
0.1 0.1 0.1 0.1 0.1 0.1 0.1 0.1 0.1 
0.1 0.1 0.1 0.1 0.1 0.1 0.1 0.1 0.1 
0.1 0.1 0.1 0.1 0.1 0.1 0.1 0.1 0.1 
0.1 0.1 0.1 0.1 0.1 0.1 0.1 0.1 0.1 
0.1 0.1 0.1 0.1 0.1 0.1 0.1 0.1 0.1 
0.1 0.1 0.1 0.1 0.1 0.1 0.1 0.1 0.1 
0.1 0.1 0.1 0.1 0.1 0.1 0.1 0.1 0.1 
0.1 0.1 0.1 0.1 0.1 0.1 0.1 0.1 0.1 
0.1 0.1 0.1 0.1 0.1 0.1 0.1 0.1 0.1 
0.1 0.1 0.1 0.1 0.1 0.1 0.1 0.1 0.1 
0.1 0.1 0.1 0.1 0.1 0.1 0.1 0.1 0.1 
0.1 0.1 0.1 0.1 0.1 0.1 0.1 0.1 0.1 
0.1 0.1 0.1 0.1 0.1 0.1 0.1 0.1 0.1 
0.1 0.1 0.1 0.1 0.1 0.1 0.1 0.1 0.1 
0.1 0.1 0.1 0.1 0.1 0.1 0.1 0.1 0.1 
0.1 0.1 0.1 0.1 0.1 0.1 0.1 0.1 0.1 
0.1 0.1 0.1 0.1 0.1 0.1 0.1 0.1 0.1 
0.1 0.1 0.1 0.1 0.1 0.1 0.1 0.1 0.1 
0.1 0.1 0.1 0.1 0.1 0.1 0.1 0.1 0.1 
0.1 0.1 0.1 0.1 0.1 0.1 0.1 0.1 0.1 
0.1 0.1 0.1 0.1 0.1 0.1 0.1 0.1 0.1 
0.1 0.1 0.1 0.1 0.1 0.1 0.1 0.1 0.1 
0.1 0.1 0.1 0.1 0.1 0.1 0.1 0.1 0.1 
0.1 0.1 0.1 0.1 0.1 0.1 0.1 0.1 0.1 
0.1 0.1 0.1 0.1 0.1 0.1 0.1 0.1 0.1 
0.1 0.1 0.1 0.1 0.1 0.1 0.1 0.1 0.1 
0.1 0.1 0.1 0.1 0.1 0.1 0.1 0.1 0.1 
0.1 0.1 0.1 0.1 0.1 0.1 0.1 0.1 0.1 
0.1 0.1 0.1 0.1 0.1 0.1 0.1 0.1 0.1 
0.1 0.1 0.1 0.1 0.1 0.1 0.1 0.1 0.1 
0.1 0.1 0.1 0.1 0.1 0.1 0.1 0.1 0.1 
0.1 0.1 0.1 0.1 0.1 0.1 0.1 0.1 0.1 
0.1 0.1 0.1 0.1 0.1 0.1 0.1 0.1 0.1 
0.1 0.1 0.1 0.1 0.1 0.1 0.1 0.1 0.1 
0.1 0.1 0.1 0.1 0.1 0.1 0.1 0.1 0.1 
0.1 0.1 0.1 0.1 0.1 0.1 0.1 0.1 0.1 
0.1 0.1 0.1 0.1 0.1 0.1 0.1 0.1 0.1 
0.1 0.1 0.1 0.1 0.1 0.1 0.1 0.1 0.1 
0.1 0.1 0.1 0.1 0.1 0.1 0.1 0.1 0.1 
0.1 0.1 0.1 0.1 0.1 0.1 0.1 0.1 0.1 
0.1 0.1 0.1 0.1 0.1 0.1 0.1 0.1 0.1 
0.1 0.1 0.1 0.1 0.1 0.1 0.1 0.1 0.1 
0.1 0.1 0.1 0.1 0.1 0.1 0.1 0.1 0.1 
0.1 0.1 0.1 0.1 0.1 0.1 0.1 0.1 0.1 
0.1 0.1 0.1 0.1 0.1 0.1 0.1 0.1 0.1 
0.1 0.1 0.1 0.1 0.1 0.1 0.1 0.1 0.1 
0.1 0.1 0.1 0.1 0.1 0.1 0.1 0.1 0.1 
0.1 0.1 0.1 0.1 0.1 0.1 0.1 0.1 0.1 
0.1 0.1 0.1 0.1 0.1 0.1 0.1 0.1 0.1 
0.1 0.1 0.1 0.1 0.1 0.1 0.1 0.1 0.1 
0.1 0.1 0.1 0.1 0.1 0.1 0.1 0.1 0.1 
0.1 0.1 0.1 0.1 0.1 0.1 0.1 0.1 0.1 
0.1 0.1 0.1 0.1 0.1 0.1 0.1 0.1 0.1 
0.1 0.1 0.1 0.1 0.1 0.1 0.1 0.1 0.1 
0.1 0.1 0.1 0.1 0.1 0.1 0.1 0.1 0.1 
0.1 0.1 0.1 0.1 0.1 0.1 0.1 0.1 0.1 
0.1 0.1 0.1 0.1 0.1 0.1 0.1 0.1 0.1 
0.1 0.1 0.1 0.1 0.1 0.1 0.1 0.1 0.1 
0.1 0.1 0.1 0.1 0.1 0.1 0.1 0.1 0.1 
0.1 0.1 0.1 0.1 0.1 0.1 0.1 0.1 0.1 
0.1 0.1 0.1 0.1 0.1 0.1 0.1 0.1 0.1 
0.1 0.1 0.1 0.1 0.1 0.1 0.1 0.1 0.1 
0.1 0.1 0.1 0.1 0.1 0.1 0.1 0.1 0.1 
0.1 0.1 0.1 0.1 0.1 0.1 0.1 0.1 0.1 
0.1 0.1 0.1 0.1 0.1 0.1 0.1 0.1 0.1 
0.1 0.1 0.1 0.1 0.1 0.1 0.1 0.1 0.1 
0.1 0.1 0.1 0.1 0.1 0.1 0.1 0.1 0.1 
0.1 0.1 0.1 0.1 0.1 0.1 0.1 0.1 0.1 
0.1 0.1 0.1 0.1 0.1 0.1 0.1 0.1 0.1 
0.1 0.1 0.1 0.1 0.1 0.1 0.1 0.1 0.1 
0.1 0.1 0.1 0.1 0.1 0.1 0.1 0.1 0.1 
0.1 0.1 0.1 0.1 0.1 
m 1 1049 double
91.315 76.33 56.755 94.14 65.975 75.77 84.655 65.745 61.625 
53.285 62.64 90.92 81.145 56.63 96.915 74.595 72.105 90.21 
59.805 63.77 86.865 71.295 71.62 92.685 91.575 75.99 68.92 
71.85 54.43 67.63 82.065 80.455 83.88 63.885 94.9 86.405 
84.98 99.78 95.85 59.365 84.31 85.42 61.525 81.635 51.68 
54.625 58.645 94.72 54.23 66.01 84.575 91.01 82.525 67.53 
56.565 79.285 69.475 80.62 52.725 97.91 66.835 94.07 70.215 
51.82 77.17 55.435 68.75 86.38 84.04 85.89 63.77 67.92 
63.255 78.94 77.015 75.3 99.66 66.84 61.995 98.38 58.41 
91.95 50.06 88.695 88.965 81.13 64.145 76.7 92.93 87.695 
53.975 57.17 52.85 90.47 50.485 51.89 64.51 83.005 87.335 
83.26 53.78 66.585 86.505 52.46 98.445 71.43 51.4 69.325 
97.205 73.645 90.155 83.095 92.2 92.22 90.485 72.405 77.165 
91.69 94.935 90.585 78.855 89.44 91.675 53.375 89.28 53.545 
94.635 72.835 72.93 61.765 84.825 97.485 76.53 57.64 73.415 
93.12 64.355 81.095 97.515 78.66 91.35 94.145 50.095 83.575 
81.7 66.84 98.54 90.745 63.09 68.09 67.295 61.225 76.93 
64.23 53.615 78.645 55.5 88.98 61.895 67.255 87.44 67.775 
64.605 88.82 52.46 99.205 91.14 84.935 75.965 83.245 99.255 
61.75 84.935 57.5 88.82 74.57 85.17 50.62 91.825 82.455 
61.135 68.715 79.28 57.105 62.755 57.16 99.295 59.68 88.105 
53.065 97.835 62.52 66.025 94.295 93.885 64.21 83.92 97.64 
60.105 54.34 89.94 65.72 53.715 78.975 61.46 80.945 61.37 
81.775 88.205 83.1 56.94 90.125 97.19 65.37 56.165 95.485 
56.49 96.14 57.37 66.375 82.185 77.035 59.965 79.42 59.3 
90.71 77.895 97.585 53.87 99.54 94.36 52.49 99.79 75.945 
76.835 89.855 76.19 51.445 84.745 98.05 50.45 72.06 94.845 
97.395 90.785 51.79 67.465 68.405 51.35 94.29 71.975 56.185 
80.605 80.145 94.25 73.845 58.88 76.365 86.275 92.105 69.85 
66.515 88.765 81.24 94.04 90.18 64.5 65.885 76.715 82.145 
81.675 91.775 96.07 56.56 67.56 59.43 67.085 59.195 53.495 
77.845 91.815 72.14 91.175 79.09 80.715 68.965 88.66 55.775 
79.97 90.02 51.895 89.775 58.24 66.665 98.77 60.665 64.45 
50.245 54.82 91.425 78.145 52.52 74.925 72.76 54.285 95.4 
93.135 98.155 92.965 96.84 82.155 65.865 63.11 93.97 99.235 
88.61 63.205 91.99 93.88 62.02 97.645 79.64 55.055 91.045 
92.905 96.68 94.095 62.95 91.415 95.63 51.84 87.835 97.645 
72.5 58.73 85.085 61.075 60.67 58.46 71.695 80.635 93.81 
67.14 95.255 63.235 94.73 61.45 84.85 96.67 83.41 78.955 
96.95 87.31 71.46 72.215 72.69 73.065 78.815 93.03 80.95 
69.49 53.565 52.62 61.49 76.76 90.795 81.245 98.985 84.95 
90.23 68.94 73.465 77.41 62.675 75.755 92.69 88.235 80.795 
54.355 74.97 82.76 67.645 74.58 77.89 72.85 62.195 75.575 
57.605 92.87 80.785 75.285 60.985 68.31 71.55 53.44 84.2 
64.52 74.09 75.64 56.11 80.21 83.2 96.495 76.925 53.195 
58.915 65.165 66.515 62.485 76.815 51.265 82.95 52.64 60.01 
52.14 82.015 72.5 53.405 86.67 81.56 86.93 71.73 75.5 
63.63 79.025 81.82 81.085 57.455 96.155 75.105 64.755 59.735 
82.91 75.995 62.455 84.98 99.585 89.585 86.845 66.62 59.86 
88.36 69.25 88.125 96.46 65.415 73.95 92.83 74.46 95.625 
69.98 51.995 55.76 61.81 88.43 54.265 77.18 95.94 95.785 
79.875 62.3 68.645 69.605 67.07 50.135 91.91 98.36 81.52 
93.45 52.3 94.51 90.25 87.78 83.74 90.135 50.14 88.485 
55.195 73.97 93.495 55.215 69.13 50.295 71.16 61.305 52.845 
67.705 95.585 90.115 50.405 83.805 51.8 67.685 80.21 93.285 
65.95 88.815 81.545 77.125 82.53 94.98 69.63 53.45 58.13 
71.17 81.835 72.62 73.385 65.84 98.07 91.025 80.285 51.79 
65.345 84.28 52.085 52.7 88.85 72.83 86.42 51.185 65.295 
79.245 86.025 53.03 61.3 54.985 65.86 92.59 67.13 76.085 
62.775 77.555 74.725 95.86 53.915 54.365 84.365 95.075 88.185 
71.445 52.415 92.29 63.675 83.035 72.355 96.57 63.785 52.39 
78.68 65.345 69.45 86.39 92.45 60.915 77.495 97.35 88.715 
50.42 70.405 56.98 78.15 86.345 56.77 84.075 54.55 97.965 
59.26 51.54 80.435 75 83.255 80.635 50.185 58.805 78.22 
83.625 98.86 87.525 77.95 87.8 89.09 62.11 76.055 76.18 
83.29 69.75 50.635 69.6 96.12 88.325 50.495 76.84 50.245 
62.835 56.22 52.815 75.525 99.67 93.555 66.455 59.025 86.875 
68.84 67.945 94.965 94.775 68.07 84.41 84.91 74.11 64.025 
74.59 70.15 65.465 54.625 83.55 70.09 82.145 81.64 83.585 
57.87 96.455 84.18 86.085 84.815 85.45 69.29 75.275 90.65 
74.52 56.965 71.125 64.785 57.705 63.305 92.28 92.855 55.865 
73.945 84.255 63.02 98.165 98.425 65.365 96.25 97.425 99.025 
82.515 89.34 95.03 67.58 76.625 87.58 60.975 64.745 73.195 
78.91 55.405 83.815 55.6 54.835 88.385 51.13 52.98 87.8 
54.325 69.905 95.18 88.85 89.775 67.59 96.055 81.71 91.35 
61.895 62.66 86.605 75.98 74.92 72.135 70.86 60.2 71.17 
86.415 55.315 86.99 79.15 50.36 68.57 52.865 51.735 60.15 
84.75 70.235 87.61 80.295 84.62 75.41 52.215 64.77 96.02 
56.16 97.175 95.795 78.2 71.39 77.43 59.49 98.415 96.31 
99.24 51.31 55.205 90.835 64.03 69.795 78.985 91.62 83.64 
81.36 58.615 95.61 96.825 87.285 86.675 79.105 70.77 55.855 
58.88 63.735 51.345 76.09 69.135 54.535 73.265 93.505 59.25 
58.515 99.665 57.65 64.86 79.28 70.49 64.31 68.7 52.685 
75.27 70.15 64.77 98.93 90.695 88.345 75.615 79.92 58.525 
81.14 55.635 95.75 57.43 51.265 50.63 82.965 52.715 65.01 
61.155 80.695 77.02 58.98 92.06 54.76 85.42 56.54 63.49 
76.67 93.6 77.105 97.535 90.41 92.71 50.985 92.32 78.335 
79.695 99.52 99.055 69.7 89.07 91.885 73.565 65.37 90.895 
72.9 95.105 61.69 96.09 69.85 94.77 81.88 94.49 63.575 
55.26 54.955 93.055 81.74 96.775 68.11 94.02 76.605 88.605 
74.095 72.995 56.275 78.55 64.595 78.875 73.81 85.44 74.06 
99.31 63.425 76.895 74.885 86.805 92.885 86.4 59.44 70.05 
90.945 75.855 57.795 62.53 54.44 88.58 54.64 89.14 78.73 
77.84 96.495 86.715 87.935 96.505 88.565 91.03 86.86 51.47 
51.73 55.085 51.175 83.66 57.68 67.415 96.035 99.52 70.88 
67.185 83.05 82.225 94.88 56.345 60.355 83.105 61.965 50.04 
65.675 61.75 66.555 71.7 88.025 77.11 69.05 61.68 81.71 
76.05 58.295 60.045 78.455 62.865 75.765 69.715 55.685 98.795 
98.72 99.555 67.495 74.285 91.705 51.685 98.09 88.215 55.68 
70.335 56.8 68.65 74.39 78.305 59.005 56.525 60.86 84.435 
66.74 69.645 97.06 92.09 98.78 95.535 87.225 95.895 60.45 
66.88 77.71 88.42 79.68 56.7 55.475 64.63 75.42 82.33 
64.065 64.795 85.95 68.865 98.34 64.98 94.495 89.905 85.995 
50.815 79.47 74.65 93.3 94.665 99.01 69.405 85.655 54.865 
87.34 50.355 67.26 77.75 60.18 59.495 96.895 63 64.62 
88.185 60.31 78.12 91.41 66.29 67.08 67.325 83.54 93.13 
97.22 93.68 96.6 92.61 65.545 91.12 95.08 82.695 70.11 
50 75.405 75.265 66.89 90.545 97.13 56.69 79.945 90.335 
95.57 82.66 76.115 61.155 75.735 83.935 74.25 60.61 69.375 
56.405 50.895 76.75 55.655 61.27 69.065 82.95 89.285 73.015 
80.405 95.905 57.47 78.6 87.435 50.905 89.91 62.165 96.48 
77.02 94.125 93.61 97.075 51.485 95.67 50.16 52.755 84.46 
98.54 85.285 92.53 65.905 52.075 61.485 87.415 99.995 59.81 
52.975 94.885 50.77 75.055 56.545 78.88 62.935 99.66 66.91 
75.105 71.33 88.425 67.815 68.41 96.055 94.3 54.65 72.915 
79.95 71.425 95.43 59.46 57.38 86.57 79.1 70.58 87.45 
87.625 77.64 94.195 87.625 65.29 
p0 3 1049 double
0 -10 0 0 -10 0 0 -10 0 
0 -10 0 0 -10 0 0 -10 0 
0 -10 0 0 -10 0 0 -10 0 
0 -10 0 0 -10 0 0 -10 0 
0 0 0 0 0 0 0 0 0 
0 0 0 0 0 0 0 0 0 
0 0 0 0 0 0 0 0 0 
0 0 0 0 0 0 0 0 0 
0 0 0 0 0 0 0 0 0 
0 0 0 0 0 0 0 0 0 
0 0 0 0 0 0 -12 0 0 
0 0 0 0 0 0 0 0 0 
0 0 0 0 0 0 0 0 0 
0 0 0 0 0 0 0 0 0 
0 0 0 0 0 0 0 0 0 
0 0 0 0 0 0 0 0 0 
0 0 0 0 0 0 0 0 0 
0 0 0 0 0 0 0 0 0 
0 0 0 0 0 0 0 0 0 
0 0 0 0 0 0 0 0 0 
0 0 0 0 0 0 0 0 0 
0 0 0 0 0 0 0 0 0 
0 0 0 0 0 0 0 0 0 
0 0 0 0 0 0 0 0 0 
0 0 0 0 0 0 0 0 0 
0 0 0 0 0 0 0 0 0 
0 0 0 0 0 0 0 0 0 
0 0 0 0 0 0 0 0 0 
0 0 0 0 0 0 0 0 0 
0 0 0 0 0 0 0 0 0 
0 0 0 0 0 0 0 0 0 
0 0 0 0 0 0 0 0 0 
0 0 0 0 0 0 0 0 0 
0 0 0 0 0 0 0 0 0 
0 0 0 0 0 0 0 0 0 
0 0 0 0 0 0 0 0 0 
0 0 0 0 0 0 0 0 0 
0 0 0 0 0 0 0 0 0 
0 0 0 0 0 0 0 0 0 
0 0 0 0 0 0 0 0 0 
0 0 0 0 0 0 0 0 0 
0 0 0 0 0 0 0 0 0 
0 0 0 0 0 0 0 0 0 
0 0 0 0 0 0 0 0 0 
0 0 0 0 0 0 0 0 0 
0 0 0 0 0 0 0 0 0 
0 0 0 0 0 0 0 0 0 
0 0 0 0 0 0 0 0 0 
0 0 0 0 0 0 0 0 0 
0 0 0 0 0 0 0 0 0 
0 0 0 0 0 0 0 0 0 
0 0 0 0 0 0 0 0 0 
0 0 0 0 0 0 0 0 0 
0 0 0 0 0 0 0 0 0 
0 0 0 0 0 0 0 0 0 
0 0 0 0 0 0 12 0 0 
0 0 0 0 0 0 12 0 0 
0 0 0 0 0 0 0 0 0 
0 0 0 0 0 0 0 0 0 
0 0 0 0 0 0 0 0 0 
0 0 0 0 0 0 0 0 0 
0 0 0 0 0 0 0 0 0 
0 0 0 0 0 0 0 0 0 
0 0 0 0 0 0 0 0 0 
0 0 0 -12 0 0 -12 0 0 
0 0 0 0 0 0 0 0 0 
0 0 0 0 0 0 0 0 0 
0 0 0 0 0 0 0 0 0 
0 0 0 0 0 0 0 0 0 
0 0 0 0 0 0 0 0 0 
0 0 0 0 0 0 0 0 0 
0 0 0 0 0 0 12 0 0 
12 0 0 0 0 0 0 0 0 
0 0 0 0 0 0 0 0 0 
0 0 0 0 0 0 0 0 0 
0 0 0 0 0 0 -12 0 0 
-12 0 0 0 0 0 0 0 0 
0 0 0 0 0 0 0 0 0 
0 0 0 0 0 0 0 0 0 
0 0 0 0 0 0 0 0 0 
0 0 0 0 0 0 0 0 0 
0 0 0 0 0 0 0 0 0 
0 0 0 0 0 0 0 0 0 
0 0 0 0 0 0 0 0 0 
0 0 0 0 0 0 0 0 0 
0 0 0 0 0 0 0 0 0 
0 0 0 -12 0 0 -12 0 0 
0 0 0 0 0 0 0 0 0 
0 0 0 0 0 0 0 0 0 
0 0 0 0 0 0 0 0 0 
0 0 0 0 0 0 0 0 0 
0 0 0 0 0 0 0 0 0 
0 0 0 0 0 0 0 0 0 
0 0 0 0 0 0 0 0 0 
0 0 0 0 0 0 0 0 0 
0 0 0 0 0 0 0 0 0 
0 0 0 0 0 0 0 0 0 
-12 0 0 0 0 0 0 0 0 
0 0 0 0 0 0 0 0 0 
0 0 0 0 0 0 0 0 0 
0 0 0 0 0 0 0 8 0 
0 8 0 0 0 0 0 0 0 
0 0 0 0 0 0 0 0 0 
6 8 0 0 0 0 0 0 0 
0 0 0 0 0 0 0 0 0 
12 0 0 12 0 0 12 0 0 
0 0 0 0 0 0 0 0 0 
0 0 0 0 0 0 0 0 0 
0 0 0 0 0 0 0 0 0 
0 0 0 -12 0 0 -12 0 0 
0 0 0 0 0 0 0 0 0 
0 0 0 0 0 0 -6 8 0 
0 0 0 0 0 0 0 0 0 
0 0 0 0 0 0 0 8 0 
0 8 0 0 0 0 0 0 0 
0 0 0 0 0 0 0 0 0 
6 8 0 0 0 0 0 0 0 
0 0 0 0 0 0 0 0 0 
0 0 0 0 0 0 0 0 0 
0 0 0 0 0 0 0 0 0 
0 0 0 0 0 0 0 0 0 
0 0 0 -12 0 0 -12 0 0 
0 0 0 0 0 0 0 0 0 
0 0 0 0 0 0 -6 8 0 
-6 8 0 0 0 0 0 0 0 
0 0 0 0 0 0 0 0 0 
0 8 0 0 0 0 0 0 0 
0 0 0 0 0 0 0 0 0 
6 8 0 6 8 0 0 0 0 
0 0 0 0 0 0 0 0 0 
0 0 0 12 0 0 12 0 0 
12 0 0 0 0 0 0 0 0 
0 0 0 0 0 0 0 0 0 
0 0 0 0 0 0 0 0 0 
0 0 0 0 0 0 -12 0 0 
-12 0 0 0 0 0 0 0 0 
0 0 0 0 0 0 0 0 0 
-6 8 0 -6 8 0 0 0 0 
0 0 0 0 0 0 0 0 0 
0 0 0 0 8 0 0 0 0 
0 0 0 0 0 0 0 0 0 
0 0 0 6 8 0 6 8 0 
6 8 0 0 0 0 0 0 0 
0 0 0 0 0 0 0 0 0 
12 0 0 12 0 0 12 0 0 
0 0 0 0 0 0 0 0 0 
0 0 0 0 0 0 0 0 0 
0 0 0 0 0 0 0 0 0 
0 0 0 -12 0 0 -12 0 0 
-12 0 0 0 0 0 0 0 0 
0 0 0 -9 9 0 0 0 0 
0 0 0 0 0 0 -9 9 0 
0 0 0 0 0 0 0 0 0 
0 0 0 0 0 0 0 0 0 
0 0 0 0 0 0 0 0 0 
-9 9 0 -9 9 0 0 0 0 
0 0 0 0 0 0 0 0 0 
0 0 0 0 0 0 0 0 0 
0 0 0 0 0 0 0 0 0 
0 0 0 0 0 0 0 0 0 
0 0 0 0 0 0 0 0 0 
0 0 0 0 0 0 0 0 0 
0 0 0 0 0 0 0 0 0 
0 0 0 0 0 0 0 0 0 
-9 9 0 0 0 0 -9 9 0 
0 0 0 0 0 0 0 0 0 
0 0 0 9 9 0 0 0 0 
0 0 0 0 0 0 0 0 0 
0 0 0 0 0 0 0 0 0 
0 0 0 0 0 0 0 0 0 
0 0 0 0 0 0 0 0 0 
9 9 0 0 0 0 0 0 0 
0 0 0 0 0 0 0 0 0 
0 0 0 0 0 0 0 0 0 
0 0 0 0 0 0 0 0 0 
0 0 0 9 9 0 9 9 0 
0 0 0 0 0 0 0 0 0 
9 9 0 9 9 0 0 0 0 
0 0 0 0 0 0 0 0 0 
0 0 0 9 9 0 0 0 0 
0 0 0 0 0 0 0 0 0 
9 9 0 0 0 0 0 0 0 
0 0 0 0 0 0 0 0 0 
0 0 0 0 0 0 12 0 0 
12 0 0 0 0 0 0 0 0 
0 0 0 0 0 0 0 0 0 
0 0 0 0 0 0 0 0 0 
0 0 0 0 0 0 -12 0 0 
-12 0 0 -9 9 0 -9 9 0 
-9 9 0 -9 9 0 -9 9 0 
-9 9 0 9 9 0 9 9 0 
12 0 0 12 0 0 0 0 0 
0 0 0 0 0 0 0 0 0 
0 0 0 0 0 0 0 0 0 
0 0 0 0 0 0 0 0 0 
0 0 0 0 0 0 0 0 0 
0 0 0 0 0 0 -13.5 10 0 
-13.5 10 0 0 0 0 0 0 0 
0 0 0 0 0 0 0 0 0 
0 0 0 0 0 0 0 0 0 
0 0 0 0 0 0 0 0 0 
0 0 0 0 0 0 0 0 0 
0 0 0 0 0 0 0 0 0 
0 0 0 0 0 0 0 0 0 
0 0 0 0 0 0 0 0 0 
0 0 0 0 0 0 0 0 0 
0 0 0 0 0 0 0 0 0 
0 0 0 0 0 0 0 0 0 
0 0 0 0 0 0 0 0 0 
0 0 0 0 0 0 0 0 0 
0 0 0 0 0 0 -6 10 0 
-6 10 0 -6 10 0 0 0 0 
0 0 0 0 0 0 -6 10 0 
0 0 0 0 0 0 0 0 0 
0 0 0 0 0 0 0 0 0 
0 0 0 0 0 0 0 0 0 
0 0 0 0 0 0 0 0 0 
0 0 0 0 0 0 0 0 0 
0 0 0 0 0 0 0 0 0 
0 0 0 0 0 0 0 0 0 
0 0 0 0 0 0 0 0 0 
0 0 0 0 0 0 0 0 0 
0 0 0 0 0 0 0 0 0 
0 0 0 0 0 0 0 0 0 
0 0 0 0 0 0 0 0 0 
0 0 0 0 0 0 0 0 0 
0 0 0 0 0 0 0 0 0 
0 0 0 0 0 0 0 0 0 
0 0 0 0 0 0 0 0 0 
0 0 0 0 0 0 0 0 0 
0 0 0 0 0 0 0 0 0 
0 0 0 0 0 0 0 0 0 
0 0 0 0 0 0 0 0 0 
0 0 0 0 0 0 0 0 0 
0 0 0 0 0 0 0 0 0 
0 0 0 0 0 0 0 0 0 
0 0 0 0 0 0 0 0 0 
0 0 0 0 0 0 0 0 0 
0 0 0 0 0 0 0 0 0 
0 0 0 0 0 0 0 0 0 
0 0 0 0 0 0 0 0 0 
0 0 0 0 0 0 0 0 0 
0 0 0 0 0 0 0 0 0 
0 0 0 0 0 0 0 0 0 
0 0 0 13.5 10 0 0 0 0 
0 0 0 0 0 0 13.5 10 0 
0 0 0 0 0 0 0 0 0 
13.5 10 0 13.5 10 0 0 0 0 
0 0 0 0 0 0 0 0 0 
0 0 0 0 0 0 0 0 0 
0 0 0 0 0 0 0 0 0 
0 0 0 0 0 0 0 0 0 
0 0 0 0 0 0 0 0 0 
0 0 0 0 0 0 0 0 0 
0 0 0 0 0 0 0 0 0 
0 0 0 0 0 0 0 0 0 
0 0 0 9 14.5 0 9 14.5 0 
0 0 0 0 0 0 0 0 0 
0 0 0 0 0 0 13.5 10 0 
0 0 0 0 0 0 0 0 0 
0 0 0 0 0 0 0 0 0 
0 0 0 0 0 0 0 0 0 
0 0 0 0 0 0 0 0 0 
0 0 0 0 0 0 0 0 0 
0 0 0 0 0 0 0 0 0 
0 0 0 0 0 0 9 14.5 0 
0 0 0 0 0 0 0 0 0 
0 0 0 0 0 0 0 0 0 
0 0 0 0 0 0 0 0 0 
0 0 0 0 0 0 0 0 0 
0 0 0 0 0 0 0 0 0 
0 0 0 0 0 0 0 0 0 
0 0 0 0 0 0 0 0 0 
0 0 0 0 0 0 0 0 0 
0 0 0 9 14.5 0 9 14.5 0 
9 14.5 0 9 14.5 0 0 0 0 
0 0 0 0 0 0 0 0 0 
0 0 0 13.5 10 0 13.5 10 0 
13.5 10 0 0 0 0 0 0 0 
0 0 0 0 0 0 0 0 0 
0 0 0 0 0 0 0 0 0 
0 0 0 0 0 0 0 0 0 
0 0 0 0 0 0 0 0 0 
0 0 0 0 0 0 0 0 0 
0 0 0 0 0 0 0 0 0 
9 14.5 0 9 14.5 0 9 14.5 0 
9 14.5 0 9 14.5 0 9 14.5 0 
9 14.5 0 13.5 10 0 13.5 10 0 
0 0 0 13.5 10 0 0 0 0 
0 0 0 0 0 0 0 0 0 
0 0 0 0 0 0 0 0 0 
0 0 0 0 0 0 0 0 0 
0 0 0 0 0 0 0 0 0 
0 0 0 0 0 0 0 0 0 
0 0 0 0 0 0 0 0 0 
0 0 0 9 14.5 0 0 0 0 
0 0 0 0 0 0 0 0 0 
0 0 0 0 0 0 0 0 0 
0 0 0 0 0 0 0 0 0 
0 0 0 0 0 0 0 0 0 
0 0 0 0 0 0 0 0 0 
0 0 0 0 0 0 0 0 0 
0 0 0 0 0 0 0 0 0 
0 0 0 0 0 0 0 0 0 
0 0 0 0 0 0 0 0 0 
0 0 0 0 0 0 0 0 0 
0 0 0 0 0 0 0 0 0 
0 0 0 0 0 0 0 0 0 
0 0 0 0 0 0 0 0 0 
0 0 0 0 0 0 0 0 0 
0 0 0 0 0 0 0 0 0 
0 0 0 0 0 0 0 0 0 
0 0 0 0 0 0 0 0 0 
0 0 0 0 0 0 0 0 0 
0 0 0 0 0 0 0 0 0 
0 0 0 0 0 0 0 0 0 
0 0 0 0 0 0 0 0 0 
0 0 0 0 0 0 0 0 0 
0 0 0 0 0 0 0 0 0 
0 0 0 0 0 0 0 0 0 
0 0 0 0 0 0 0 0 0 
0 0 0 0 0 0 0 0 0 
0 0 0 0 0 0 0 0 0 
0 0 0 0 0 0 0 0 0 
0 0 0 0 0 0 0 0 0 
0 0 0 0 0 0 0 0 0 
0 0 0 0 0 0 0 0 0 
0 0 0 0 0 0 0 0 0 
0 0 0 0 0 0 0 0 0 
0 0 0 0 0 0 0 0 0 
0 0 0 0 0 0 0 0 0 
0 0 0 0 0 0 0 0 0 
0 0 0 0 0 0 0 0 0 
0 0 0 0 0 0 0 0 0 
0 0 0 0 0 0 0 0 0 
0 0 0 0 0 0 0 0 0 
0 0 0 0 0 0 0 0 0 
0 0 0 0 0 0 0 0 0 
0 0 0 0 0 0 0 0 0 
0 0 0 0 0 0 0 0 0 
0 0 0 0 0 0 0 0 0 
0 0 0 0 0 0 0 0 0 
0 0 0 0 0 0 0 0 0 
0 0 0 0 0 0 0 0 0 
0 0 0 0 0 0 0 0 0 
0 0 0 0 0 0 0 0 0 
0 0 0 0 0 0 0 0 0 
0 0 0 0 0 0 0 0 0 
0 0 0 0 0 0 0 0 0 
0 0 0 0 0 0 
v0 1 1049 double
3.5598 3.7348 3.4418 2.7598 3.908 2.2246 3.1534 2.9072 3.5868 
2.087 3.7604 2.7868 0 0 0 0 0 0 
0 0 0 0 0 0 0 0 0 
0 0 0 0 0 2.2234 0 0 0 
0 0 0 0 0 0 0 0 0 
0 0 0 0 0 0 0 0 0 
0 0 0 0 0 0 0 0 0 
0 0 0 0 0 0 0 0 0 
0 0 0 0 0 0 0 0 0 
0 0 0 0 0 0 0 0 0 
0 0 0 0 0 0 0 0 0 
0 0 0 0 0 0 0 0 0 
0 0 0 0 0 0 0 0 0 
0 0 0 0 0 0 0 0 0 
0 0 0 0 0 0 0 0 0 
0 0 0 0 0 0 0 0 0 
0 0 0 0 0 0 0 0 0 
0 0 0 0 0 0 0 0 0 
0 0 0 0 0 3.8026 0 0 3.447 
0 0 0 0 0 0 0 0 0 
0 0 0 0 0 0 0 0 0 
0 0 0 0 3.5098 3.3932 0 0 0 
0 0 0 0 0 0 0 0 0 
0 0 0 0 0 0 0 0 3.7132 
3.4192 0 0 0 0 0 0 0 0 
0 0 3.1552 2.8894 0 0 0 0 0 
0 0 0 0 0 0 0 0 0 
0 0 0 0 0 0 0 0 0 
0 0 0 0 0 0 0 3.3376 2.798 
0 0 0 0 0 0 0 0 0 
0 0 0 0 0 0 0 0 0 
0 0 0 0 0 0 0 0 0 
0 0 0 2.5562 0 0 0 0 0 
0 0 0 0 0 2.5992 2.6016 0 0 
0 0 0 2.0424 0 0 0 0 0 
2.9348 3.9438 3.5394 0 0 0 0 0 0 
0 0 0 0 2.959 3.5338 0 0 0 
0 0 2.9892 0 0 0 0 0 2.6138 
2.79 0 0 0 0 0 2.264 0 0 
0 0 0 0 0 0 0 0 0 
0 0 0 0 3.3968 3.7722 0 0 0 
0 0 3.236 2.2866 0 0 0 0 0 
2.1056 0 0 0 0 0 3.5612 2.4594 0 
0 0 0 0 2.105 2.7364 2.2178 0 0 
0 0 0 0 0 0 0 0 2.5998 
3.7956 0 0 0 0 0 3.5126 3.3812 0 
0 0 0 0 3.18 0 0 0 0 
0 3.219 2.192 3.8554 0 0 0 0 0 
3.2294 2.6972 3.6894 0 0 0 0 0 0 
0 0 0 0 3.4142 2.9892 3.7386 0 0 
0 3.7004 0 0 0 3.9802 0 0 0 
0 0 0 0 0 0 2.9862 3.938 0 
0 0 0 0 0 0 0 0 0 
0 0 0 0 0 0 0 0 0 
0 0 0 0 0 0 2.9256 0 3.4754 
0 0 0 0 2.0302 0 0 0 0 
0 0 0 0 0 0 0 0 0 
3.4072 0 0 0 0 0 0 0 0 
0 0 0 0 2.8338 3.2458 0 0 0 
3.8484 2.9518 0 0 0 0 0 3.358 0 
0 0 0 3.0734 0 0 0 0 0 
0 0 3.1134 2.5702 0 0 0 0 0 
0 0 0 0 0 3.6802 3.6034 2.0254 2.726 
3.7164 3.4416 3.2554 2.5352 2.5666 2.227 2.3004 2.8228 0 
0 0 0 0 0 0 0 0 0 
0 0 0 0 0 3.4388 2.0272 0 0 
0 0 0 0 0 0 0 0 0 
0 0 0 0 0 0 0 0 0 
0 0 0 0 0 0 0 0 0 
0 0 0 0 0 0 0 0 0 
0 0 2.7916 3.3948 2.8832 0 0 0 2.5898 
0 0 0 0 0 0 0 0 0 
0 0 0 0 0 0 0 0 0 
0 0 0 0 0 0 0 0 0 
0 0 0 0 0 0 0 0 0 
0 0 0 0 0 0 0 0 0 
0 0 0 0 0 0 0 0 0 
0 0 0 0 0 0 0 0 0 
0 0 0 0 0 0 0 0 0 
0 0 0 0 0 0 0 0 0 
0 0 0 0 0 0 0 0 0 
0 0 0 0 2.5952 0 0 0 2.325 
0 0 0 2.6856 3.9752 0 0 0 0 
0 0 0 0 0 0 0 0 0 
0 0 0 0 0 0 0 0 0 
0 0 0 0 2.1126 2.0074 0 0 0 
0 0 3.4702 0 0 0 0 0 0 
0 0 0 0 0 0 0 0 0 
0 0 0 0 0 2.1262 0 0 0 
0 0 0 0 0 0 0 0 0 
0 0 0 0 0 0 0 0 0 
0 0 0 0 3.2768 3.514 2.1178 2.6632 0 
0 0 0 0 3.2878 2.0104 3.991 0 0 
0 0 0 0 0 0 0 0 0 
0 0 0 0 0 0 0 0 0 
3.075 3.852 2.2322 2.5972 2.4322 3.8268 3.1832 3.3678 2.9022 
0 3.053 0 0 0 0 0 0 0 
0 0 0 0 0 0 0 0 0 
0 0 0 0 2.7532 0 0 0 0 
0 0 0 0 0 0 0 0 0 
0 0 0 0 0 0 0 0 0 
0 0 0 0 0 0 0 0 0 
0 0 0 0 0 0 0 0 0 
0 0 0 0 0 0 0 0 0 
0 0 0 0 0 0 0 0 0 
0 0 0 0 0 0 0 0 0 
0 0 0 0 0 0 0 0 0 
0 0 0 0 0 0 0 0 0 
0 0 0 0 0 0 0 0 0 
0 0 0 0 0 0 0 0 0 
0 0 0 0 0 0 0 0 0 
0 0 0 0 0 0 0 0 0 
0 0 0 0 0 0 0 0 0 
0 0 0 0 0 0 0 0 0 
0 0 0 0 0 0 0 0 0 
0 0 0 0 0 0 0 0 0 
0 0 0 0 0 
tau 1 1049 double
2 2 2 2 2 2 2 2 2 
2 2 2 2 2 2 2 2 2 
2 2 2 2 2 2 2 2 2 
2 2 2 2 2 2 2 2 2 
2 2 2 2 2 2 2 2 2 
2 2 2 2 2 2 2 2 2 
2 2 2 2 2 2 2 2 2 
2 2 2 2 2 2 2 2 2 
2 2 2 2 2 2 2 2 2 
2 2 2 2 2 2 2 2 2 
2 2 2 2 2 2 2 2 2 
2 2 2 2 2 2 2 2 2 
2 2 2 2 2 2 2 2 2 
2 2 2 2 2 2 2 2 2 
2 2 2 2 2 2 2 2 2 
2 2 2 2 2 2 2 2 2 
2 2 2 2 2 2 2 2 2 
2 2 2 2 2 2 2 2 2 
2 2 2 2 2 2 2 2 2 
2 2 2 2 2 2 2 2 2 
2 2 2 2 2 2 2 2 2 
2 2 2 2 2 2 2 2 2 
2 2 2 2 2 2 2 2 2 
2 2 2 2 2 2 2 2 2 
2 2 2 2 2 2 2 2 2 
2 2 2 2 2 2 2 2 2 
2 2 2 2 2 2 2 2 2 
2 2 2 2 2 2 2 2 2 
2 2 2 2 2 2 2 2 2 
2 2 2 2 2 2 2 2 2 
2 2 2 2 2 2 2 2 2 
2 2 2 2 2 2 2 2 2 
2 2 2 2 2 2 2 2 2 
2 2 2 2 2 2 2 2 2 
2 2 2 2 2 2 2 2 2 
2 2 2 2 2 2 2 2 2 
2 2 2 2 2 2 2 2 2 
2 2 2 2 2 2 2 2 2 
2 2 2 2 2 2 2 2 2 
2 2 2 2 2 2 2 2 2 
2 2 2 2 2 2 2 2 2 
2 2 2 2 2 2 2 2 2 
2 2 2 2 2 2 2 2 2 
2 2 2 2 2 2 2 2 2 
2 2 2 2 2 2 2 2 2 
2 2 2 2 2 2 2 2 2 
2 2 2 2 2 2 2 2 2 
2 2 2 2 2 2 2 2 2 
2 2 2 2 2 2 2 2 2 
2 2 2 2 2 2 2 2 2 
2 2 2 2 2 2 2 2 2 
2 2 2 2 2 2 2 2 2 
2 2 2 2 2 2 2 2 2 
2 2 2 2 2 2 2 2 2 
2 2 2 2 2 2 2 2 2 
2 2 2 2 2 2 2 2 2 
2 2 2 2 2 2 2 2 2 
2 2 2 2 2 2 2 2 2 
2 2 2 2 2 2 2 2 2 
2 2 2 2 2 2 2 2 2 
2 2 2 2 2 2 2 2 2 
2 2 2 2 2 2 2 2 2 
2 2 2 2 2 2 2 2 2 
2 2 2 2 2 2 2 2 2 
2 2 2 2 2 2 2 2 2 
2 2 2 2 2 2 2 2 2 
2 2 2 2 2 2 2 2 2 
2 2 2 2 2 2 2 2 2 
2 2 2 2 2 2 2 2 2 
2 2 2 2 2 2 2 2 2 
2 2 2 2 2 2 2 2 2 
2 2 2 2 2 2 2 2 2 
2 2 2 2 2 2 2 2 2 
2 2 2 2 2 2 2 2 2 
2 2 2 2 2 2 2 2 2 
2 2 2 2 2 2 2 2 2 
2 2 2 2 2 2 2 2 2 
2 2 2 2 2 2 2 2 2 
2 2 2 2 2 2 2 2 2 
2 2 2 2 2 2 2 2 2 
2 2 2 2 2 2 2 2 2 
2 2 2 2 2 2 2 2 2 
2 2 2 2 2 2 2 2 2 
2 2 2 2 2 2 2 2 2 
2 2 2 2 2 2 2 2 2 
2 2 2 2 2 2 2 2 2 
2 2 2 2 2 2 2 2 2 
2 2 2 2 2 2 2 2 2 
2 2 2 2 2 2 2 2 2 
2 2 2 2 2 2 2 2 2 
2 2 2 2 2 2 2 2 2 
2 2 2 2 2 2 2 2 2 
2 2 2 2 2 2 2 2 2 
2 2 2 2 2 2 2 2 2 
2 2 2 2 2 2 2 2 2 
2 2 2 2 2 2 2 2 2 
2 2 2 2 2 2 2 2 2 
2 2 2 2 2 2 2 2 2 
2 2 2 2 2 2 2 2 2 
2 2 2 2 2 2 2 2 2 
2 2 2 2 2 2 2 2 2 
2 2 2 2 2 2 2 2 2 
2 2 2 2 2 2 2 2 2 
2 2 2 2 2 2 2 2 2 
2 2 2 2 2 2 2 2 2 
2 2 2 2 2 2 2 2 2 
2 2 2 2 2 2 2 2 2 
2 2 2 2 2 2 2 2 2 
2 2 2 2 2 2 2 2 2 
2 2 2 2 2 2 2 2 2 
2 2 2 2 2 2 2 2 2 
2 2 2 2 2 2 2 2 2 
2 2 2 2 2 2 2 2 2 
2 2 2 2 2 2 2 2 2 
2 2 2 2 2 2 2 2 2 
2 2 2 2 2 2 2 2 2 
2 2 2 2 2 
R 1 1049 double
0.33263 0.30266 0.26351 0.33828 0.28195 0.30154 0.31931 0.28149 0.27325 
0.25657 0.27528 0.33184 0.1 0.1 0.1 0.1 0.1 0.1 
0.1 0.1 0.1 0.1 0.1 0.1 0.1 0.1 0.1 
0.1 0.1 0.1 0.1 0.1 0.31776 0.1 0.1 0.1 
0.1 0.1 0.1 0.1 0.1 0.1 0.1 0.1 0.1 
0.1 0.1 0.1 0.1 0.1 0.1 0.1 0.1 0.1 
0.1 0.1 0.1 0.1 0.1 0.1 0.1 0.1 0.1 
0.1 0.1 0.1 0.1 0.1 0.1 0.1 0.1 0.1 
0.1 0.1 0.1 0.1 0.1 0.1 0.1 0.1 0.1 
0.1 0.1 0.1 0.1 0.1 0.1 0.1 0.1 0.1 
0.1 0.1 0.1 0.1 0.1 0.1 0.1 0.1 0.1 
0.1 0.1 0.1 0.1 0.1 0.1 0.1 0.1 0.1 
0.1 0.1 0.1 0.1 0.1 0.1 0.1 0.1 0.1 
0.1 0.1 0.1 0.1 0.1 0.1 0.1 0.1 0.1 
0.1 0.1 0.1 0.1 0.1 0.1 0.1 0.1 0.1 
0.1 0.1 0.1 0.1 0.1 0.1 0.1 0.1 0.1 
0.1 0.1 0.1 0.1 0.1 0.1 0.1 0.1 0.1 
0.1 0.1 0.1 0.1 0.1 0.1 0.1 0.1 0.1 
0.1 0.1 0.1 0.1 0.1 0.31987 0.1 0.1 0.34851 
0.1 0.1 0.1 0.1 0.1 0.1 0.1 0.1 0.1 
0.1 0.1 0.1 0.1 0.1 0.1 0.1 0.1 0.1 
0.1 0.1 0.1 0.1 0.33859 0.33777 0.1 0.1 0.1 
0.1 0.1 0.1 0.1 0.1 0.1 0.1 0.1 0.1 
0.1 0.1 0.1 0.1 0.1 0.1 0.1 0.1 0.34097 
0.26298 0.1 0.1 0.1 0.1 0.1 0.1 0.1 0.1 
0.1 0.1 0.34517 0.25774 0.1 0.1 0.1 0.1 0.1 
0.1 0.1 0.1 0.1 0.1 0.1 0.1 0.1 0.1 
0.1 0.1 0.1 0.1 0.1 0.1 0.1 0.1 0.1 
0.1 0.1 0.1 0.1 0.1 0.1 0.1 0.33421 0.2897 
0.1 0.1 0.1 0.1 0.1 0.1 0.1 0.1 0.1 
0.1 0.1 0.1 0.1 0.1 0.1 0.1 0.1 0.1 
0.1 0.1 0.1 0.1 0.1 0.1 0.1 0.1 0.1 
0.1 0.1 0.1 0.32955 0.1 0.1 0.1 0.1 0.1 
0.1 0.1 0.1 0.1 0.1 0.29985 0.29552 0.1 0.1 
0.1 0.1 0.1 0.34368 0.1 0.1 0.1 0.1 0.1 
0.32722 0.27641 0.33398 0.1 0.1 0.1 0.1 0.1 0.1 
0.1 0.1 0.1 0.1 0.33283 0.34126 0.1 0.1 0.1 
0.1 0.1 0.32017 0.1 0.1 0.1 0.1 0.1 0.33762 
0.28428 0.1 0.1 0.1 0.1 0.1 0.34334 0.1 0.1 
0.1 0.1 0.1 0.1 0.1 0.1 0.1 0.1 0.1 
0.1 0.1 0.1 0.1 0.30352 0.33159 0.1 0.1 0.1 
0.1 0.1 0.29693 0.30482 0.1 0.1 0.1 0.1 0.1 
0.25871 0.1 0.1 0.1 0.1 0.1 0.2957 0.27439 0.1 
0.1 0.1 0.1 0.1 0.27197 0.28662 0.2931 0.1 0.1 
0.1 0.1 0.1 0.1 0.1 0.1 0.1 0.1 0.25639 
0.26783 0.1 0.1 0.1 0.1 0.1 0.3159 0.25528 0.1 
0.1 0.1 0.1 0.1 0.32334 0.1 0.1 0.1 0.1 
0.1 0.30805 0.31364 0.31217 0.1 0.1 0.1 0.1 0.1 
0.31582 0.30199 0.27491 0.1 0.1 0.1 0.1 0.1 0.1 
0.1 0.1 0.1 0.1 0.28083 0.2979 0.33566 0.1 0.1 
0.1 0.25399 0.1 0.1 0.1 0.25853 0.1 0.1 0.1 
0.1 0.1 0.1 0.1 0.1 0.1 0.33382 0.34672 0.1 
0.1 0.1 0.1 0.1 0.1 0.1 0.1 0.1 0.1 
0.1 0.1 0.1 0.1 0.1 0.1 0.1 0.1 0.1 
0.1 0.1 0.1 0.1 0.1 0.1 0.28537 0.1 0.33657 
0.1 0.1 0.1 0.1 0.31506 0.1 0.1 0.1 0.1 
0.1 0.1 0.1 0.1 0.1 0.1 0.1 0.1 0.1 
0.28069 0.1 0.1 0.1 0.1 0.1 0.1 0.1 0.1 
0.1 0.1 0.1 0.1 0.25997 0.28172 0.1 0.1 0.1 
0.27555 0.30511 0.1 0.1 0.1 0.1 0.1 0.34015 0.1 
0.1 0.1 0.1 0.27735 0.1 0.1 0.1 0.1 0.1 
0.1 0.1 0.2889 0.32278 0.1 0.1 0.1 0.1 0.1 
0.1 0.1 0.1 0.1 0.1 0.26354 0.31815 0.2591 0.34593 
0.26852 0.25308 0.31087 0.3 0.31651 0.31127 0.25037 0.26761 0.1 
0.1 0.1 0.1 0.1 0.1 0.1 0.1 0.1 0.1 
0.1 0.1 0.1 0.1 0.1 0.32665 0.25099 0.1 0.1 
0.1 0.1 0.1 0.1 0.1 0.1 0.1 0.1 0.1 
0.1 0.1 0.1 0.1 0.1 0.1 0.1 0.1 0.1 
0.1 0.1 0.1 0.1 0.1 0.1 0.1 0.1 0.1 
0.1 0.1 0.1 0.1 0.1 0.1 0.1 0.1 0.1 
0.1 0.1 0.29225 0.27957 0.26541 0.1 0.1 0.1 0.26173 
0.1 0.1 0.1 0.1 0.1 0.1 0.1 0.1 0.1 
0.1 0.1 0.1 0.1 0.1 0.1 0.1 0.1 0.1 
0.1 0.1 0.1 0.1 0.1 0.1 0.1 0.1 0.1 
0.1 0.1 0.1 0.1 0.1 0.1 0.1 0.1 0.1 
0.1 0.1 0.1 0.1 0.1 0.1 0.1 0.1 0.1 
0.1 0.1 0.1 0.1 0.1 0.1 0.1 0.1 0.1 
0.1 0.1 0.1 0.1 0.1 0.1 0.1 0.1 0.1 
0.1 0.1 0.1 0.1 0.1 0.1 0.1 0.1 0.1 
0.1 0.1 0.1 0.1 0.1 0.1 0.1 0.1 0.1 
0.1 0.1 0.1 0.1 0.1 0.1 0.1 0.1 0.1 
0.1 0.1 0.1 0.1 0.28827 0.1 0.1 0.1 0.2685 
0.1 0.1 0.1 0.27972 0.30856 0.1 0.1 0.1 0.1 
0.1 0.1 0.1 0.1 0.1 0.1 0.1 0.1 0.1 
0.1 0.1 0.1 0.1 0.1 0.1 0.1 0.1 0.1 
0.1 0.1 0.1 0.1 0.33412 0.25952 0.1 0.1 0.1 
0.1 0.1 0.30421 0.1 0.1 0.1 0.1 0.1 0.1 
0.1 0.1 0.1 0.1 0.1 0.1 0.1 0.1 0.1 
0.1 0.1 0.1 0.1 0.1 0.33954 0.1 0.1 0.1 
0.1 0.1 0.1 0.1 0.1 0.1 0.1 0.1 0.1 
0.1 0.1 0.1 0.1 0.1 0.1 0.1 0.1 0.1 
0.1 0.1 0.1 0.1 0.32361 0.33577 0.3228 0.26888 0.1 
0.1 0.1 0.1 0.1 0.25888 0.32716 0.25928 0.1 0.1 
0.1 0.1 0.1 0.1 0.1 0.1 0.1 0.1 0.1 
0.1 0.1 0.1 0.1 0.1 0.1 0.1 0.1 0.1 
0.28437 0.3161 0.31445 0.33976 0.26269 0.27071 0.31621 0.27393 0.25008 
0.1 0.2735 0.1 0.1 0.1 0.1 0.1 0.1 0.1 
0.1 0.1 0.1 0.1 0.1 0.1 0.1 0.1 0.1 
0.1 0.1 0.1 0.1 0.33341 0.1 0.1 0.1 0.1 
0.1 0.1 0.1 0.1 0.1 0.1 0.1 0.1 0.1 
0.1 0.1 0.1 0.1 0.1 0.1 0.1 0.1 0.1 
0.1 0.1 0.1 0.1 0.1 0.1 0.1 0.1 0.1 
0.1 0.1 0.1 0.1 0.1 0.1 0.1 0.1 0.1 
0.1 0.1 0.1 0.1 0.1 0.1 0.1 0.1 0.1 
0.1 0.1 0.1 0.1 0.1 0.1 0.1 0.1 0.1 
0.1 0.1 0.1 0.1 0.1 0.1 0.1 0.1 0.1 
0.1 0.1 0.1 0.1 0.1 0.1 0.1 0.1 0.1 
0.1 0.1 0.1 0.1 0.1 0.1 0.1 0.1 0.1 
0.1 0.1 0.1 0.1 0.1 0.1 0.1 0.1 0.1 
0.1 0.1 0.1 0.1 0.1 0.1 0.1 0.1 0.1 
0.1 0.1 0.1 0.1 0.1 0.1 0.1 0.1 0.1 
0.1 0.1 0.1 0.1 0.1 0.1 0.1 0.1 0.1 
0.1 0.1 0.1 0.1 0.1 0.1 0.1 0.1 0.1 
0.1 0.1 0.1 0.1 0.1 0.1 0.1 0.1 0.1 
0.1 0.1 0.1 0.1 0.1 0.1 0.1 0.1 0.1 
0.1 0.1 0.1 0.1 0.1 0.1 0.1 0.1 0.1 
0.1 0.1 0.1 0.1 0.1 
a 3 1049 double
0 0 0 0 0 0 0 0 0 
0 0 0 0 0 0 0 0 0 
0 0 0 0 0 0 0 0 0 
0 0 0 0 0 0 0 0 0 
0 0 0 0 0 0 0 0 0 
0 0 0 0 0 0 0 0 0 
0 0 0 0 0 0 0 0 0 
0 0 0 0 0 0 0 0 0 
0 0 0 0 0 0 0 0 0 
0 0 0 0 0 0 0 0 0 
0 0 0 0 0 0 0 0 0 
0 0 0 0 0 0 0 0 0 
0 0 0 0 0 0 0 0 0 
0 0 0 0 0 0 0 0 0 
0 0 0 0 0 0 0 0 0 
0 0 0 0 0 0 0 0 0 
0 0 0 0 0 0 0 0 0 
0 0 0 0 0 0 0 0 0 
0 0 0 0 0 0 0 0 0 
0 0 0 0 0 0 0 0 0 
0 0 0 0 0 0 0 0 0 
0 0 0 0 0 0 0 0 0 
0 0 0 0 0 0 0 0 0 
0 0 0 0 0 0 0 0 0 
0 0 0 0 0 0 0 0 0 
0 0 0 0 0 0 0 0 0 
0 0 0 0 0 0 0 0 0 
0 0 0 0 0 0 0 0 0 
0 0 0 0 0 0 0 0 0 
0 0 0 0 0 0 0 0 0 
0 0 0 0 0 0 0 0 0 
0 0 0 0 0 0 0 0 0 
0 0 0 0 0 0 0 0 0 
0 0 0 0 0 0 0 0 0 
0 0 0 0 0 0 0 0 0 
0 0 0 0 0 0 0 0 0 
0 0 0 0 0 0 0 0 0 
0 0 0 0 0 0 0 0 0 
0 0 0 0 0 0 0 0 0 
0 0 0 0 0 0 0 0 0 
0 0 0 0 0 0 0 0 0 
0 0 0 0 0 0 0 0 0 
0 0 0 0 0 0 0 0 0 
0 0 0 0 0 0 0 0 0 
0 0 0 0 0 0 0 0 0 
0 0 0 0 0 0 0 0 0 
0 0 0 0 0 0 0 0 0 
0 0 0 0 0 0 0 0 0 
0 0 0 0 0 0 0 0 0 
0 0 0 0 0 0 0 0 0 
0 0 0 0 0 0 0 0 0 
0 0 0 0 0 0 0 0 0 
0 0 0 0 0 0 0 0 0 
0 0 0 0 0 0 0 0 0 
0 0 0 0 0 0 0 0 0 
0 0 0 0 0 0 0 0 0 
0 0 0 0 0 0 0 0 0 
0 0 0 0 0 0 0 0 0 
0 0 0 0 0 0 0 0 0 
0 0 0 0 0 0 0 0 0 
0 0 0 0 0 0 0 0 0 
0 0 0 0 0 0 0 0 0 
0 0 0 0 0 0 0 0 0 
0 0 0 0 0 0 0 0 0 
0 0 0 0 0 0 0 0 0 
0 0 0 0 0 0 0 0 0 
0 0 0 0 0 0 0 0 0 
0 0 0 0 0 0 0 0 0 
0 0 0 0 0 0 0 0 0 
0 0 0 0 0 0 0 0 0 
0 0 0 0 0 0 0 0 0 
0 0 0 0 0 0 0 0 0 
0 0 0 0 0 0 0 0 0 
0 0 0 0 0 0 0 0 0 
0 0 0 0 0 0 0 0 0 
0 0 0 0 0 0 0 0 0 
0 0 0 0 0 0 0 0 0 
0 0 0 0 0 0 0 0 0 
0 0 0 0 0 0 0 0 0 
0 0 0 0 0 0 0 0 0 
0 0 0 0 0 0 0 0 0 
0 0 0 0 0 0 0 0 0 
0 0 0 0 0 0 0 0 0 
0 0 0 0 0 0 0 0 0 
0 0 0 0 0 0 0 0 0 
0 0 0 0 0 0 0 0 0 
0 0 0 0 0 0 0 0 0 
0 0 0 0 0 0 0 0 0 
0 0 0 0 0 0 0 0 0 
0 0 0 0 0 0 0 0 0 
0 0 0 0 0 0 0 0 0 
0 0 0 0 0 0 0 0 0 
0 0 0 0 0 0 0 0 0 
0 0 0 0 0 0 0 0 0 
0 0 0 0 0 0 0 0 0 
0 0 0 0 0 0 0 0 0 
0 0 0 0 0 0 0 0 0 
0 0 0 0 0 0 0 0 0 
0 0 0 0 0 0 0 0 0 
0 0 0 0 0 0 0 0 0 
0 0 0 0 0 0 0 0 0 
0 0 0 0 0 0 0 0 0 
0 0 0 0 0 0 0 0 0 
0 0 0 0 0 0 0 0 0 
0 0 0 0 0 0 0 0 0 
0 0 0 0 0 0 0 0 0 
0 0 0 0 0 0 0 0 0 
0 0 0 0 0 0 0 0 0 
0 0 0 0 0 0 0 0 0 
0 0 0 0 0 0 0 0 0 
0 0 0 0 0 0 0 0 0 
0 0 0 0 0 0 0 0 0 
0 0 0 0 0 0 0 0 0 
0 0 0 0 0 0 0 0 0 
0 0 0 0 0 0 0 0 0 
0 0 0 0 0 0 0 0 0 
0 0 0 0 0 0 0 0 0 
0 0 0 0 0 0 0 0 0 
0 0 0 0 0 0 0 0 0 
0 0 0 0 0 0 0 0 0 
0 0 0 0 0 0 0 0 0 
0 0 0 0 0 0 0 0 0 
0 0 0 0 0 0 0 0 0 
0 0 0 0 0 0 0 0 0 
0 0 0 0 0 0 0 0 0 
0 0 0 0 0 0 0 0 0 
0 0 0 0 0 0 0 0 0 
0 0 0 0 0 0 0 0 0 
0 0 0 0 0 0 0 0 0 
0 0 0 0 0 0 0 0 0 
0 0 0 0 0 0 0 0 0 
0 0 0 0 0 0 0 0 0 
0 0 0 0 0 0 0 0 0 
0 0 0 0 0 0 0 0 0 
0 0 0 0 0 0 0 0 0 
0 0 0 0 0 0 0 0 0 
0 0 0 0 0 0 0 0 0 
0 0 0 0 0 0 0 0 0 
0 0 0 0 0 0 0 0 0 
0 0 0 0 0 0 0 0 0 
0 0 0 0 0 0 0 0 0 
0 0 0 0 0 0 0 0 0 
0 0 0 0 0 0 0 0 0 
0 0 0 0 0 0 0 0 0 
0 0 0 0 0 0 0 0 0 
0 0 0 0 0 0 0 0 0 
0 0 0 0 0 0 0 0 0 
0 0 0 0 0 0 0 0 0 
0 0 0 0 0 0 0 0 0 
0 0 0 0 0 0 0 0 0 
0 0 0 0 0 0 0 0 0 
0 0 0 0 0 0 0 0 0 
0 0 0 0 0 0 0 0 0 
0 0 0 0 0 0 0 0 0 
0 0 0 0 0 0 0 0 0 
0 0 0 0 0 0 0 0 0 
0 0 0 0 0 0 0 0 0 
0 0 0 0 0 0 0 0 0 
0 0 0 0 0 0 0 0 0 
0 0 0 0 0 0 0 0 0 
0 0 0 0 0 0 0 0 0 
0 0 0 0 0 0 0 0 0 
0 0 0 0 0 0 0 0 0 
0 0 0 0 0 0 0 0 0 
0 0 0 0 0 0 0 0 0 
0 0 0 0 0 0 0 0 0 
0 0 0 0 0 0 0 0 0 
0 0 0 0 0 0 0 0 0 
0 0 0 0 0 0 0 0 0 
0 0 0 0 0 0 0 0 0 
0 0 0 0 0 0 0 0 0 
0 0 0 0 0 0 0 0 0 
0 0 0 0 0 0 0 0 0 
0 0 0 0 0 0 0 0 0 
0 0 0 0 0 0 0 0 0 
0 0 0 0 0 0 0 0 0 
0 0 0 0 0 0 0 0 0 
0 0 0 0 0 0 0 0 0 
0 0 0 0 0 0 0 0 0 
0 0 0 0 0 0 0 0 0 
0 0 0 0 0 0 0 0 0 
0 0 0 0 0 0 0 0 0 
0 0 0 0 0 0 0 0 0 
0 0 0 0 0 0 0 0 0 
0 0 0 0 0 0 0 0 0 
0 0 0 0 0 0 0 0 0 
0 0 0 0 0 0 0 0 0 
0 0 0 0 0 0 0 0 0 
0 0 0 0 0 0 0 0 0 
0 0 0 0 0 0 0 0 0 
0 0 0 0 0 0 0 0 0 
0 0 0 0 0 0 0 0 0 
0 0 0 0 0 0 0 0 0 
0 0 0 0 0 0 0 0 0 
0 0 0 0 0 0 0 0 0 
0 0 0 0 0 0 0 0 0 
0 0 0 0 0 0 0 0 0 
0 0 0 0 0 0 0 0 0 
0 0 0 0 0 0 0 0 0 
0 0 0 0 0 0 0 0 0 
0 0 0 0 0 0 0 0 0 
0 0 0 0 0 0 0 0 0 
0 0 0 0 0 0 0 0 0 
0 0 0 0 0 0 0 0 0 
0 0 0 0 0 0 0 0 0 
0 0 0 0 0 0 0 0 0 
0 0 0 0 0 0 0 0 0 
0 0 0 0 0 0 0 0 0 
0 0 0 0 0 0 0 0 0 
0 0 0 0 0 0 0 0 0 
0 0 0 0 0 0 0 0 0 
0 0 0 0 0 0 0 0 0 
0 0 0 0 0 0 0 0 0 
0 0 0 0 0 0 0 0 0 
0 0 0 0 0 0 0 0 0 
0 0 0 0 0 0 0 0 0 
0 0 0 0 0 0 0 0 0 
0 0 0 0 0 0 0 0 0 
0 0 0 0 0 0 0 0 0 
0 0 0 0 0 0 0 0 0 
0 0 0 0 0 0 0 0 0 
0 0 0 0 0 0 0 0 0 
0 0 0 0 0 0 0 0 0 
0 0 0 0 0 0 0 0 0 
0 0 0 0 0 0 0 0 0 
0 0 0 0 0 0 0 0 0 
0 0 0 0 0 0 0 0 0 
0 0 0 0 0 0 0 0 0 
0 0 0 0 0 0 0 0 0 
0 0 0 0 0 0 0 0 0 
0 0 0 0 0 0 0 0 0 
0 0 0 0 0 0 0 0 0 
0 0 0 0 0 0 0 0 0 
0 0 0 0 0 0 0 0 0 
0 0 0 0 0 0 0 0 0 
0 0 0 0 0 0 0 0 0 
0 0 0 0 0 0 0 0 0 
0 0 0 0 0 0 0 0 0 
0 0 0 0 0 0 0 0 0 
0 0 0 0 0 0 0 0 0 
0 0 0 0 0 0 0 0 0 
0 0 0 0 0 0 0 0 0 
0 0 0 0 0 0 0 0 0 
0 0 0 0 0 0 0 0 0 
0 0 0 0 0 0 0 0 0 
0 0 0 0 0 0 0 0 0 
0 0 0 0 0 0 0 0 0 
0 0 0 0 0 0 0 0 0 
0 0 0 0 0 0 0 0 0 
0 0 0 0 0 0 0 0 0 
0 0 0 0 0 0 0 0 0 
0 0 0 0 0 0 0 0 0 
0 0 0 0 0 0 0 0 0 
0 0 0 0 0 0 0 0 0 
0 0 0 0 0 0 0 0 0 
0 0 0 0 0 0 0 0 0 
0 0 0 0 0 0 0 0 0 
0 0 0 0 0 0 0 0 0 
0 0 0 0 0 0 0 0 0 
0 0 0 0 0 0 0 0 0 
0 0 0 0 0 0 0 0 0 
0 0 0 0 0 0 0 0 0 
0 0 0 0 0 0 0 0 0 
0 0 0 0 0 0 0 0 0 
0 0 0 0 0 0 0 0 0 
0 0 0 0 0 0 0 0 0 
0 0 0 0 0 0 0 0 0 
0 0 0 0 0 0 0 0 0 
0 0 0 0 0 0 0 0 0 
0 0 0 0 0 0 0 0 0 
0 0 0 0 0 0 0 0 0 
0 0 0 0 0 0 0 0 0 
0 0 0 0 0 0 0 0 0 
0 0 0 0 0 0 0 0 0 
0 0 0 0 0 0 0 0 0 
0 0 0 0 0 0 0 0 0 
0 0 0 0 0 0 0 0 0 
0 0 0 0 0 0 0 0 0 
0 0 0 0 0 0 0 0 0 
0 0 0 0 0 0 0 0 0 
0 0 0 0 0 0 0 0 0 
0 0 0 0 0 0 0 0 0 
0 0 0 0 0 0 0 0 0 
0 0 0 0 0 0 0 0 0 
0 0 0 0 0 0 0 0 0 
0 0 0 0 0 0 0 0 0 
0 0 0 0 0 0 0 0 0 
0 0 0 0 0 0 0 0 0 
0 0 0 0 0 0 0 0 0 
0 0 0 0 0 0 0 0 0 
0 0 0 0 0 0 0 0 0 
0 0 0 0 0 0 0 0 0 
0 0 0 0 0 0 0 0 0 
0 0 0 0 0 0 0 0 0 
0 0 0 0 0 0 0 0 0 
0 0 0 0 0 0 0 0 0 
0 0 0 0 0 0 0 0 0 
0 0 0 0 0 0 0 0 0 
0 0 0 0 0 0 0 0 0 
0 0 0 0 0 0 0 0 0 
0 0 0 0 0 0 0 0 0 
0 0 0 0 0 0 0 0 0 
0 0 0 0 0 0 0 0 0 
0 0 0 0 0 0 0 0 0 
0 0 0 0 0 0 0 0 0 
0 0 0 0 0 0 0 0 0 
0 0 0 0 0 0 0 0 0 
0 0 0 0 0 0 0 0 0 
0 0 0 0 0 0 0 0 0 
0 0 0 0 0 0 0 0 0 
0 0 0 0 0 0 0 0 0 
0 0 0 0 0 0 0 0 0 
0 0 0 0 0 0 0 0 0 
0 0 0 0 0 0 0 0 0 
0 0 0 0 0 0 0 0 0 
0 0 0 0 0 0 0 0 0 
0 0 0 0 0 0 0 0 0 
0 0 0 0 0 0 0 0 0 
0 0 0 0 0 0 0 0 0 
0 0 0 0 0 0 0 0 0 
0 0 0 0 0 0 0 0 0 
0 0 0 0 0 0 0 0 0 
0 0 0 0 0 0 0 0 0 
0 0 0 0 0 0 0 0 0 
0 0 0 0 0 0 0 0 0 
0 0 0 0 0 0 0 0 0 
0 0 0 0 0 0 0 0 0 
0 0 0 0 0 0 0 0 0 
0 0 0 0 0 0 0 0 0 
0 0 0 0 0 0 0 0 0 
0 0 0 0 0 0 0 0 0 
0 0 0 0 0 0 0 0 0 
0 0 0 0 0 0 0 0 0 
0 0 0 0 0 0 0 0 0 
0 0 0 0 0 0 0 0 0 
0 0 0 0 0 0 0 0 0 
0 0 0 0 0 0 0 0 0 
0 0 0 0 0 0 0 0 0 
0 0 0 0 0 0 0 0 0 
0 0 0 0 0 0 0 0 0 
0 0 0 0 0 0 0 0 0 
0 0 0 0 0 0 0 0 0 
0 0 0 0 0 0 0 0 0 
0 0 0 0 0 0 0 0 0 
0 0 0 0 0 0 0 0 0 
0 0 0 0 0 0 0 0 0 
0 0 0 0 0 0 0 0 0 
0 0 0 0 0 0 0 0 0 
0 0 0 0 0 0 0 0 0 
0 0 0 0 0 0 
v 3 1049 double
-0.919311 -0.750258 0 0.953419 -0.806026 0 0.957006 -0.753347 0 
0.751355 -0.612784 0 0.971127 -0.768013 0 -0.729942 -0.605623 0 
-0.760304 -0.56502 0 -0.697059 -0.731225 0 0.658451 -0.744356 0 
0.730813 -0.64144 0 -0.920691 -0.667725 0 -0.544248 -1.28979 0 
0 0 0 0 0 0 0 0 0 
0 0 0 0 0 0 0 0 0 
0 0 0 0 0 0 0 0 0 
0 0 0 0 0 0 0 0 0 
0 0 0 0 0 0 0 0 0 
0 0 0 0 0 0 0 0 0 
0 0 0 0 0 0 -0.357393 -0.604575 0 
0 0 0 0 0 0 0 0 0 
0 0 0 0 0 0 0 0 0 
0 0 0 0 0 0 0 0 0 
0 0 0 0 0 0 0 0 0 
0 0 0 0 0 0 0 0 0 
0 0 0 0 0 0 0 0 0 
0 0 0 0 0 0 0 0 0 
0 0 0 0 0 0 0 0 0 
0 0 0 0 0 0 0 0 0 
0 0 0 0 0 0 0 0 0 
0 0 0 0 0 0 0 0 0 
0 0 0 0 0 0 0 0 0 
0 0 0 0 0 0 0 0 0 
0 0 0 0 0 0 0 0 0 
0 0 0 0 0 0 0 0 0 
0 0 0 0 0 0 0 0 0 
0 0 0 0 0 0 0 0 0 
0 0 0 0 0 0 0 0 0 
0 0 0 0 0 0 0 0 0 
0 0 0 0 0 0 0 0 0 
0 0 0 0 0 0 0 0 0 
0 0 0 0 0 0 0 0 0 
0 0 0 0 0 0 0 0 0 
0 0 0 0 0 0 0 0 0 
0 0 0 0 0 0 0 0 0 
0 0 0 0 0 0 0 0 0 
0 0 0 0 0 0 0 0 0 
0 0 0 0 0 0 0 0 0 
0 0 0 0 0 0 0 0 0 
0 0 0 0 0 0 0 0 0 
0 0 0 0 0 0 0 0 0 
0 0 0 0 0 0 0 0 0 
0 0 0 0 0 0 0 0 0 
0 0 0 0 0 0 0 0 0 
0 0 0 0 0 0 0 0 0 
0 0 0 0 0 0 0 0 0 
0 0 0 0 0 0 0 0 0 
0 0 0 0 0 0 0 0 0 
0 0 0 0 0 0 0 0 0 
0 0 0 0 0 0 0 0 0 
0 0 0 0 0 0 0 0 0 
0 0 0 0 0 0 0 0 0 
0 0 0 0 0 0 0 0 0 
0 0 0 0 0 0 0 0 0 
0 0 0 0 0 0 0.71466 -0.584898 0 
0 0 0 0 0 0 0.03959 -0.29963 0 
0 0 0 0 0 0 0 0 0 
0 0 0 0 0 0 0 0 0 
0 0 0 0 0 0 0 0 0 
0 0 0 0 0 0 0 0 0 
0 0 0 0 0 0 0 0 0 
0 0 0 0 0 0 0 0 0 
0 0 0 0 0 0 0 0 0 
0 0 0 -0.264491 -1.14059 0 -0.0458491 -1.1124 0 
0 0 0 0 0 0 0 0 0 
0 0 0 0 0 0 0 0 0 
0 0 0 0 0 0 0 0 0 
0 0 0 0 0 0 0 0 0 
0 0 0 0 0 0 0 0 0 
0 0 0 0 0 0 0 0 0 
0 0 0 0 0 0 0.238043 -1.22537 0 
-0.0919111 -1.09584 0 0 0 0 0 0 0 
0 0 0 0 0 0 0 0 0 
0 0 0 0 0 0 0 0 0 
0 0 0 0 0 0 -0.320336 -0.993943 0 
-0.16213 -0.929367 0 0 0 0 0 0 0 
0 0 0 0 0 0 0 0 0 
0 0 0 0 0 0 0 0 0 
0 0 0 0 0 0 0 0 0 
0 0 0 0 0 0 0 0 0 
0 0 0 0 0 0 0 0 0 
0 0 0 0 0 0 0 0 0 
0 0 0 0 0 0 0 0 0 
0 0 0 0 0 0 0 0 0 
0 0 0 0 0 0 0 0 0 
0 0 0 0.244413 -1.07543 0 0.0501702 -0.930764 0 
0 0 0 0 0 0 0 0 0 
0 0 0 0 0 0 0 0 0 
0 0 0 0 0 0 0 0 0 
0 0 0 0 0 0 0 0 0 
0 0 0 0 0 0 0 0 0 
0 0 0 0 0 0 0 0 0 
0 0 0 0 0 0 0 0 0 
0 0 0 0 0 0 0 0 0 
0 0 0 0 0 0 0 0 0 
0 0 0 0 0 0 0 0 0 
-0.283158 -0.97543 0 0 0 0 0 0 0 
0 0 0 0 0 0 0 0 0 
0 0 0 0 0 0 0 0 0 
0 0 0 0 0 0 0.261738 0.802479 0 
-0.0672755 0.864587 0 0 0 0 0 0 0 
0 0 0 0 0 0 0 0 0 
-0.194381 0.652461 0 0 0 0 0 0 0 
0 0 0 0 0 0 0 0 0 
0.263989 -1.05385 0 0.385877 -1.0981 0 -0.176171 -1.16657 0 
0 0 0 0 0 0 0 0 0 
0 0 0 0 0 0 0 0 0 
0 0 0 0 0 0 0 0 0 
0 0 0 -0.313728 -0.967834 0 -0.278075 -0.986802 0 
0 0 0 0 0 0 0 0 0 
0 0 0 0 0 0 -0.242049 0.928998 0 
0 0 0 0 0 0 0 0 0 
0 0 0 0 0 0 0.24163 0.807131 0 
-0.0891973 0.928301 0 0 0 0 0 0 0 
0 0 0 0 0 0 0 0 0 
0.0668974 0.731179 0 0 0 0 0 0 0 
0 0 0 0 0 0 0 0 0 
0 0 0 0 0 0 0 0 0 
0 0 0 0 0 0 0 0 0 
0 0 0 0 0 0 0 0 0 
0 0 0 0.170458 -1.11936 0 -0.358073 -1.17187 0 
0 0 0 0 0 0 0 0 0 
0 0 0 0 0 0 -0.383376 0.8578 0 
-0.295575 0.821877 0 0 0 0 0 0 0 
0 0 0 0 0 0 0 0 0 
0.282697 0.701882 0 0 0 0 0 0 0 
0 0 0 0 0 0 0 0 0 
0.356696 1.13544 0 -0.0451044 0.802023 0 0 0 0 
0 0 0 0 0 0 0 0 0 
0 0 0 0.191442 -0.775462 0 0.261956 -0.891135 0 
-0.140089 -0.957602 0 0 0 0 0 0 0 
0 0 0 0 0 0 0 0 0 
0 0 0 0 0 0 0 0 0 
0 0 0 0 0 0 0.138127 -1.0406 0 
-0.4702 -1.20765 0 0 0 0 0 0 0 
0 0 0 0 0 0 0 0 0 
0.271858 0.789836 0 0.0229809 0.726857 0 0 0 0 
0 0 0 0 0 0 0 0 0 
0 0 0 0.214437 0.641247 0 0 0 0 
0 0 0 0 0 0 0 0 0 
0 0 0 -0.147842 0.450075 0 -0.347649 0.50192 0 
-0.179132 0.465222 0 0 0 0 0 0 0 
0 0 0 0 0 0 0 0 0 
0.329591 -0.999498 0 0.416674 -0.878716 0 -0.149723 -0.956369 0 
0 0 0 0 0 0 0 0 0 
0 0 0 0 0 0 0 0 0 
0 0 0 0 0 0 0 0 0 
0 0 0 0.0387985 -1.12274 0 0.237348 -1.03083 0 
-0.478964 -1.1343 0 0 0 0 0 0 0 
0 0 0 -1.25199 0.164331 0 0 0 0 
0 0 0 0 0 0 -1.25098 -0.0210935 0 
0 0 0 0 0 0 0 0 0 
0 0 0 0 0 0 0 0 0 
0 0 0 0 0 0 0 0 0 
-1.1997 0.271764 0 -0.645765 0.93639 0 0 0 0 
0 0 0 0 0 0 0 0 0 
0 0 0 0 0 0 0 0 0 
0 0 0 0 0 0 0 0 0 
0 0 0 0 0 0 0 0 0 
0 0 0 0 0 0 0 0 0 
0 0 0 0 0 0 0 0 0 
0 0 0 0 0 0 0 0 0 
0 0 0 0 0 0 0 0 0 
-0.973583 0.17465 0 0 0 0 -0.504842 0.682971 0 
0 0 0 0 0 0 0 0 0 
0 0 0 0.653279 0.224646 0 0 0 0 
0 0 0 0 0 0 0 0 0 
0 0 0 0 0 0 0 0 0 
0 0 0 0 0 0 0 0 0 
0 0 0 0 0 0 0 0 0 
1.1358 0.0693907 0 0 0 0 0 0 0 
0 0 0 0 0 0 0 0 0 
0 0 0 0 0 0 0 0 0 
0 0 0 0 0 0 0 0 0 
0 0 0 0.0345187 1.14937 0 1.05592 -0.0113823 0 
0 0 0 0 0 0 0 0 0 
1.08534 0.0983255 0 0.984831 0.323554 0 0 0 0 
0 0 0 0 0 0 0 0 0 
0 0 0 0.875959 0.109236 0 0 0 0 
0 0 0 0 0 0 0 0 0 
0.868773 0.220843 0 0 0 0 0 0 0 
0 0 0 0 0 0 0 0 0 
0 0 0 0 0 0 0.466628 -0.872607 0 
0.525088 -0.847485 0 0 0 0 0 0 0 
0 0 0 0 0 0 0 0 0 
0 0 0 0 0 0 0 0 0 
0 0 0 0 0 0 0.262407 -1.15639 0 
0.11769 -1.18397 0 -0.930761 0.0435737 0 -0.954264 -0.223104 0 
-0.964636 -0.235259 0 -0.910449 0.0164703 0 -1.02464 -0.285703 0 
-0.704166 -0.801079 0 0.972875 0.0492957 0 0.843161 0.181438 0 
-0.0677483 -0.948488 0 -0.13269 -1.01993 0 0 0 0 
0 0 0 0 0 0 0 0 0 
0 0 0 0 0 0 0 0 0 
0 0 0 0 0 0 0 0 0 
0 0 0 0 0 0 0 0 0 
0 0 0 0 0 0 -0.607709 -0.40339 0 
-0.56698 -0.321375 0 0 0 0 0 0 0 
0 0 0 0 0 0 0 0 0 
0 0 0 0 0 0 0 0 0 
0 0 0 0 0 0 0 0 0 
0 0 0 0 0 0 0 0 0 
0 0 0 0 0 0 0 0 0 
0 0 0 0 0 0 0 0 0 
0 0 0 0 0 0 0 0 0 
0 0 0 0 0 0 0 0 0 
0 0 0 0 0 0 0 0 0 
0 0 0 0 0 0 0 0 0 
0 0 0 0 0 0 0 0 0 
0 0 0 0 0 0 0 0 0 
0 0 0 0 0 0 0.0432914 0.0711529 0 
0.207593 -0.717475 0 0.0971546 -0.440787 0 0 0 0 
0 0 0 0 0 0 -0.0812466 -0.55103 0 
0 0 0 0 0 0 0 0 0 
0 0 0 0 0 0 0 0 0 
0 0 0 0 0 0 0 0 0 
0 0 0 0 0 0 0 0 0 
0 0 0 0 0 0 0 0 0 
0 0 0 0 0 0 0 0 0 
0 0 0 0 0 0 0 0 0 
0 0 0 0 0 0 0 0 0 
0 0 0 0 0 0 0 0 0 
0 0 0 0 0 0 0 0 0 
0 0 0 0 0 0 0 0 0 
0 0 0 0 0 0 0 0 0 
0 0 0 0 0 0 0 0 0 
0 0 0 0 0 0 0 0 0 
0 0 0 0 0 0 0 0 0 
0 0 0 0 0 0 0 0 0 
0 0 0 0 0 0 0 0 0 
0 0 0 0 0 0 0 0 0 
0 0 0 0 0 0 0 0 0 
0 0 0 0 0 0 0 0 0 
0 0 0 0 0 0 0 0 0 
0 0 0 0 0 0 0 0 0 
0 0 0 0 0 0 0 0 0 
0 0 0 0 0 0 0 0 0 
0 0 0 0 0 0 0 0 0 
0 0 0 0 0 0 0 0 0 
0 0 0 0 0 0 0 0 0 
0 0 0 0 0 0 0 0 0 
0 0 0 0 0 0 0 0 0 
0 0 0 0 0 0 0 0 0 
0 0 0 0 0 0 0 0 0 
0 0 0 0.478146 -0.604346 0 0 0 0 
0 0 0 0 0 0 0.573558 -0.181412 0 
0 0 0 0 0 0 0 0 0 
-0.0869545 -0.620057 0 0.294627 -0.380312 0 0 0 0 
0 0 0 0 0 0 0 0 0 
0 0 0 0 0 0 0 0 0 
0 0 0 0 0 0 0 0 0 
0 0 0 0 0 0 0 0 0 
0 0 0 0 0 0 0 0 0 
0 0 0 0 0 0 0 0 0 
0 0 0 0 0 0 0 0 0 
0 0 0 0 0 0 0 0 0 
0 0 0 0.642409 0.23581 0 0.656787 0.248417 0 
0 0 0 0 0 0 0 0 0 
0 0 0 0 0 0 0.803624 -0.831998 0 
0 0 0 0 0 0 0 0 0 
0 0 0 0 0 0 0 0 0 
0 0 0 0 0 0 0 0 0 
0 0 0 0 0 0 0 0 0 
0 0 0 0 0 0 0 0 0 
0 0 0 0 0 0 0 0 0 
0 0 0 0 0 0 0.635461 0.313835 0 
0 0 0 0 0 0 0 0 0 
0 0 0 0 0 0 0 0 0 
0 0 0 0 0 0 0 0 0 
0 0 0 0 0 0 0 0 0 
0 0 0 0 0 0 0 0 0 
0 0 0 0 0 0 0 0 0 
0 0 0 0 0 0 0 0 0 
0 0 0 0 0 0 0 0 0 
0 0 0 1.03671 0.231635 0 1.01745 0.23343 0 
-0.00809611 0.436942 0 0.00802932 0.353796 0 0 0 0 
0 0 0 0 0 0 0 0 0 
0 0 0 0.546608 -0.742651 0 0.562401 -0.70223 0 
0.941604 -0.820348 0 0 0 0 0 0 0 
0 0 0 0 0 0 0 0 0 
0 0 0 0 0 0 0 0 0 
0 0 0 0 0 0 0 0 0 
0 0 0 0 0 0 0 0 0 
0 0 0 0 0 0 0 0 0 
0 0 0 0 0 0 0 0 0 
1.02302 0.0637081 0 1.13852 -0.0261088 0 0.795733 0.00918954 0 
0.987505 0.114065 0 0.850738 0.339283 0 0.8993 0.264538 0 
0.987154 0.277818 0 1.24674 -0.643777 0 0.792566 -0.656802 0 
0 0 0 0.792563 -0.801818 0 0 0 0 
0 0 0 0 0 0 0 0 0 
0 0 0 0 0 0 0 0 0 
0 0 0 0 0 0 0 0 0 
0 0 0 0 0 0 0 0 0 
0 0 0 0 0 0 0 0 0 
0 0 0 0 0 0 0 0 0 
0 0 0 0.83744 -0.0824801 0 0 0 0 
0 0 0 0 0 0 0 0 0 
0 0 0 0 0 0 0 0 0 
0 0 0 0 0 0 0 0 0 
0 0 0 0 0 0 0 0 0 
0 0 0 0 0 0 0 0 0 
0 0 0 0 0 0 0 0 0 
0 0 0 0 0 0 0 0 0 
0 0 0 0 0 0 0 0 0 
0 0 0 0 0 0 0 0 0 
0 0 0 0 0 0 0 0 0 
0 0 0 0 0 0 0 0 0 
0 0 0 0 0 0 0 0 0 
0 0 0 0 0 0 0 0 0 
0 0 0 0 0 0 0 0 0 
0 0 0 0 0 0 0 0 0 
0 0 0 0 0 0 0 0 0 
0 0 0 0 0 0 0 0 0 
0 0 0 0 0 0 0 0 0 
0 0 0 0 0 0 0 0 0 
0 0 0 0 0 0 0 0 0 
0 0 0 0 0 0 0 0 0 
0 0 0 0 0 0 0 0 0 
0 0 0 0 0 0 0 0 0 
0 0 0 0 0 0 0 0 0 
0 0 0 0 0 0 0 0 0 
0 0 0 0 0 0 0 0 0 
0 0 0 0 0 0 0 0 0 
0 0 0 0 0 0 0 0 0 
0 0 0 0 0 0 0 0 0 
0 0 0 0 0 0 0 0 0 
0 0 0 0 0 0 0 0 0 
0 0 0 0 0 0 0 0 0 
0 0 0 0 0 0 0 0 0 
0 0 0 0 0 0 0 0 0 
0 0 0 0 0 0 0 0 0 
0 0 0 0 0 0 0 0 0 
0 0 0 0 0 0 0 0 0 
0 0 0 0 0 0 0 0 0 
0 0 0 0 0 0 0 0 0 
0 0 0 0 0 0 0 0 0 
0 0 0 0 0 0 0 0 0 
0 0 0 0 0 0 0 0 0 
0 0 0 0 0 0 0 0 0 
0 0 0 0 0 0 0 0 0 
0 0 0 0 0 0 0 0 0 
0 0 0 0 0 0 0 0 0 
0 0 0 0 0 0 0 0 0 
0 0 0 0 0 0 0 0 0 
0 0 0 0 0 0 0 0 0 
0 0 0 0 0 0 0 0 0 
0 0 0 0 0 0 0 0 0 
0 0 0 0 0 0 0 0 0 
0 0 0 0 0 0 0 0 0 
0 0 0 0 0 0 
x 1 1049 double
8.31035 -9.47345 -8.85641 -10.867 -9.80592 9.96866 10.4224 11.0113 -11.778 
-11.3656 11.1249 12.0858 -14.6429 -15 -15 -14.1071 -14.2857 -14.8214 
-15 -15 -14.4643 -15 -13.3929 -13.75 -13.2143 -13.5714 -13.9286 
-13.0357 -12.5 -12.6786 -12.8571 -11.3214 -11.9172 -11.5 -11.1429 -10.0714 
-10.25 -10.9643 -10.4286 -10.7857 -10.6071 -9.5357 -9.8929 -9.3571 -9.1786 
-9.7143 -8.4 -9 -8.6 -9 -9 -9 -8.8 -9 
-8.2 -8 -7.6 -7.8 -7.2 -7.4 -6.8 -7 -6.2 
-6.4 -6.6 -5.8 -6 -5.4 -5.6 -5.2 -4.2 -4.8 
-4.4 -5 -4.6 -3.6 -3.8 -3.2 -4 -3.4 -3 
-3 -2.6 -2.8 -3 -2.4 -3 -3 -2.2 -1.8 
-1.6 -1.2 -1.4 -2 -0.4 -1 -0.2 -0.6 -0.8 
0.4 0.6 -0 0.8 0.2 1.8 1.2 1 1.6 
1.4 2.6 2.8 2.2 2.4 2 3.4 3.8 3 
3 3 3.2 3.6 3 3 4 4.8 4.2 
4.4 4.6 5.4 5.2 5.6 5 5.8 6.6 6 
6.4 6.8 6.2 7.4 7 7.8 7.2 7.6 8.4 
8.6 8 8.2 8.8 9.5357 9 9 9.7143 9 
9.8929 9.3571 9 9 9.1786 10.6071 10.0714 10.7857 10.4286 
10.25 10.9643 11.5 11.3214 11.1429 11.9205 12.8571 12.5 12.1139 
12.6786 13.9286 13.0357 13.3929 13.75 13.2143 13.5714 14.8214 14.4643 
14.6429 14.2857 14.1071 15 15 15 15 15 -15 
-15 -15 -15 -15 -11.7486 -11.9912 -9 -9 -9 
-9 -9 -3 -3 -3 -3 -3 3 3 
3 3 3 9 9 9 9 9 11.6398 
12.2633 15 15 15 15 15 -15 -15 -15 
-15 -15 -11.2319 -11.4972 -9 -9 -9 -9 -9 
-3 -3 -3 -3 -3 3 3 3 3 
3 9 9 9 9 9 15 15 15 
15 15 -15 -15 -15 -15 -15 -12.9596 -12.1204 
-9 -9 -9 -9 -9 -3 -3 -3 -3 
-3 3 3 3 3 3 9 9 9 
9 9 15 15 15 15 15 -15 -15 
-15 -15 -15 -10.6845 -9 -9 -9 -9 -9 
-3 -3 -3 -3 -3 -1.0363 0.249875 3 3 
3 3 3 7.1162 9 9 9 9 9 
10.584 10.7871 12.6684 15 15 15 15 15 -15 
-15 -15 -15 -15 -10.5102 -10.2339 -9 -9 -9 
-9 -9 -5.3739 -3 -3 -3 -3 -3 -0.618071 
0.260556 3 3 3 3 3 5.82964 9 9 
9 9 9 15 15 15 15 15 -15 
-15 -15 -15 -15 -12.9561 -10.0087 -9 -9 -9 
-9 -9 -5.48036 -5.2853 -3 -3 -3 -3 -3 
-0.935726 3 3 3 3 3 5.38236 6.12848 9 
9 9 9 9 9.85777 10.2462 13.0629 15 15 
15 15 15 -15 -15 -15 -15 -15 -13.1759 
-9.67604 -9 -9 -9 -9 -9 -6.14163 -5.94364 -3 
-3 -3 -3 -3 -0.0710583 3 3 3 3 
3 5.74018 6.15488 6.3148 9 9 9 9 9 
9.59713 10.1314 13.1329 15 15 15 15 15 -15 
-15 -15 -15 -15 -13.462 -13.1918 -9.262 -8.8214 -8.4643 
-8.1071 -8.88782 -8.2857 -9 -8.6429 -8.11806 -7.2143 -7.75 -7.5714 
-7.9286 -7.0357 -7.3929 -6.6786 -6.8571 -6.5 -6.70208 -6.13966 -5.1429 
-5.5 -5.3214 -4.0714 -4.6071 -4.25 -4.4286 -4.7857 -4.9643 -3.7143 
-3.1786 -3.8929 -3.5357 -3.3571 -2.4643 -3 -2.2857 -2.1071 -2.6429 
-2.8214 -1.5714 -1.3929 -1.0357 -1.2143 -1.75 -1.37129 -1.9286 -0.163661 
-0.6786 -0.5 -0.8571 0.6786 0.577352 0.8571 0.5 1.5714 1.75 
1.3929 1.0357 1.9286 1.2143 2.4643 2.2857 2.6429 2.1071 2.8214 
3.82532 3.7143 3.8929 3 3.3571 3.1786 3.5357 4.6071 4.9643 
4.4286 4.7857 4.0714 4.25 5.79839 5.78703 5.3214 5.5 5.1429 
5.25236 6.59491 6.6786 6.5 6.8571 7.3929 7.0357 7.96759 7.5714 
7.75 7.9286 7.2143 7.36075 8.1071 8.8214 8.6429 8.4643 8.2857 
9 9 9.44175 9.09282 15 15 15 15 15 
-15 -15 -15 -15 -15 -13.3528 -13.476 -8.24362 -7.65038 
-7.06678 -6.4558 -6.51053 -5.98805 6.22065 8.52345 13.3266 13.3455 15 
15 15 15 15 -14.3333 -14.1667 -15 -15 -14.5 
-15 -14.6667 -14.8333 -15 -15 -13.3505 -13.1222 -14 -12.4 
-13 -12.2 -12.6 -12.8 -11.6 -12 -11.4 -11.8 -11.2 
-10.4 -10.6 -10.2 -11 -10.8 -9.6 -9.2 -9.4 -9.8 
-10 -9 -9 -8.6429 -8.2857 -8.1071 -9 -8.8214 -9 
-9 -8.4643 -7.75 -7.9286 -7.5714 -7.2143 -7.0357 -7.3929 -6.8571 
-6.6786 -6.5 -6.48902 -5.99122 -5.51454 -5.1429 -5.5 -5.3214 -5.93653 
-4.6071 -4.0714 -4.25 -4.9643 -4.7857 -4.4286 -3.7143 -3.1786 -3.8929 
-3.3571 -3.5357 -2.8 -3 -3 -3 -2.6 -2.2 -2.4 
-3 -3 -1.4 -2 -1.8 -1.2 -1.6 -1 -0.4 
-0.6 -0.8 -0.2 0.2 -0 0.4 0.6 0.8 1.8 
1.4 1 1.6 1.2 2 2.4 2.2 2.8 2.6 
3 3.8 3.4 3.6 3.2 4.8 4.6 4 4.4 
4.2 5.4 5.2 5 5.6 5.8 6.8 6.6 6.4 
6.2 6 7.8 7.4 7.6 7.2 7 8.4 8.2 
8.8 8 8.6 9 9 9 9 9.4 9 
9.6 9.2 9.8 10.8 10.6 10.2 10.4 10 11.2 
11.4 11 11.6 11.8 12.9023 12.8 12.4 12 12.6134 
12.2 12.6 13 13.6898 13.2236 14.1667 14 14.6667 14.8333 
14.5 14.3333 15 15 15 15 15 -15 -15 
-15 -15 -15 -9 -9 -9 -9 -9 -3 
-3 -3 -3 -3 1.44914 2.27935 9 9 9 
9 9 11.7548 15 15 15 15 15 -15 
-15 -15 -15 -15 -9 -9 -9 -9 -9 
-3 -3 -3 -3 -3 4.27085 9 9 9 
9 9 15 15 15 15 15 -15 -15 
-15 -15 -15 -9 -9 -9 -9 -9 -3 
-3 -3 -3 -3 5.44936 7.29459 8.63033 8.09188 9 
9 9 9 9 9.94998 10.4768 10.6558 15 15 
15 15 15 -15 -15 -15 -15 -15 -9 
-9 -9 -9 -9 -3 -3 -3 -3 -3 
3.91767 5.82764 6.55253 6.26459 7.61685 8.22636 8.78183 9.33388 9.98887 
9 9.47747 15 15 15 15 15 -15 -15 
-15 -15 -15 -9 -9 -9 -9 -9 -3 
-3 -3 -3 -3 5.6469 9 9 9 9 
9 9 15 15 15 15 15 -14.8 -14.2 
-14.6 -15 -14.4 -14 -13.6 -13.2 -13.4 -13.8 -12.2 
-12.6 -12.8 -12.4 -13 -12 -11.2 -11.4 -11.8 -11.6 
-10.6 -10.2 -11 -10.4 -10.8 -10 -9.8 -9.6 -9.4 
-9.2 -8.6 -8.2 -8.8 -8.4 -9 -8 -7.8 -7.6 
-7.2 -7.4 -6.4 -7 -6.2 -6.6 -6.8 -6 -5.2 
-5.4 -5.6 -5.8 -4.8 -5 -4.6 -4.2 -4.4 -3.8 
-3.6 -3.4 -3.2 -4 -2.4 -2.6 -2.8 -2.2 -3 
-2 -1.2 -1.4 -1.8 -1.6 -0.4 -0.8 -0.6 -0.2 
-1 0.8 0.2 0.6 -0 0.4 1.6 1 1.4 
1.2 1.8 2.4 2.6 2.2 2.8 2 3 3.8 
3.6 3.4 3.2 4 4.8 4.6 4.4 4.2 5.2 
5.6 5.4 5.8 5 6.4 6.8 6.6 6.2 6 
7.8 7.6 7.2 7 7.4 8.6 8.8 8.2 8.4 
8 9.6 9.4 9 9.8 9.2 10 10.2 10.4 
10.6 10.8 11.8 11 11.4 11.6 11.2 12.4 12.8 
12.6 12.2 12 13.8 13.2 13 13.6 13.4 14.8 
14 14.2 14.4 14.6 15 
y 1 1049 double
-3.21785 -2.50094 -2.71287 -1.17161 -1.93331 -1.89644 -1.49188 -1.369 -0.427901 
-0.734581 -0.829446 -0.51729 0 0.4 0 0 0 0 
0.8 0.6 0 0.2 0 0 0 0 0 
0 0 0 0 0 0.198653 0 0 0 
0 0 0 0 0 0 0 0 0 
0 0 0.2 0 0.6 0 0.4 0 0.8 
0 0 0 0 0 0 0 0 0 
0 0 0 0 0 0 0 0 0 
0 0 0 0 0 0 0 0 0.4 
0.6 0 0 0 0 0.8 0.2 0 0 
0 0 0 0 0 0 0 0 0 
0 0 0 0 0 0 0 0 0 
0 0 0 0 0 0 0 0 0.8 
0.2 0.6 0 0 0.4 0 0 0 0 
0 0 0 0 0 0 0 0 0 
0 0 0 0 0 0 0 0 0 
0 0 0 0 0 0.8 0.6 0 0 
0 0 0.2 0.4 0 0 0 0 0 
0 0 0 0 0 0.027385 0 0 0.553358 
0 0 0 0 0 0 0 0 0 
0 0 0 0 0.8 0.6 0.2 0.4 1.6 
1 1.4 1.2 1.8 1.02003 1.80482 1.4 1 1.8 
1.2 1.6 1.8 1 1.2 1.4 1.6 1.8 1.6 
1.4 1.2 1 1.4 1.2 1 1.6 1.8 1.56226 
1.86104 1.2 1.8 1.4 1 1.6 2 2.2 2.8 
2.6 2.4 2.14143 2.96319 2.4 2.2 2.8 2.6 2 
2 2.6 2.8 2.2 2.4 2.2 2.8 2.6 2 
2.4 2 2.6 2.4 2.2 2.8 2.2 2.4 2.8 
2 2.6 3.2 3.8 3.4 3.6 3 3.91735 3.70435 
3.8 3.4 3.6 3.2 3 3 3.2 3.6 3.8 
3.4 3.2 3.4 3.8 3 3.6 3.2 3.4 3 
3.6 3.8 3.6 3 3.4 3.8 3.2 4.8 4.6 
4.4 4.2 4 4.49433 4.4 4 4.8 4.2 4.6 
4.4 4.2 4 4.6 4.8 4.86852 4.78875 4.2 4.8 
4 4.6 4.4 4.25334 4.8 4.4 4 4.2 4.6 
4.24315 4.80356 4.42587 4.6 4.8 4.4 4.2 4 5.6 
5.4 5 5.2 5.8 5.12139 5.71886 5.4 5 5.6 
5.8 5.2 5.55496 5.2 5.8 5.4 5.6 5 5.66962 
5.86223 5 5.4 5.8 5.6 5.2 5.58812 5.2 5.8 
5.4 5 5.6 5 5.6 5.4 5.2 5.8 6.2 
6.8 6.6 6 6.4 6.27847 6.52358 6.6 6.4 6.8 
6 6.2 6.31268 6.86847 6 6.2 6.6 6.8 6.4 
6.23411 6.8 6.4 6 6.6 6.2 6.28872 6.54822 6.2 
6.4 6.8 6.6 6 6.84152 6.0327 6.98623 6.8 6 
6.2 6.4 6.6 7.6 7 7.2 7.4 7.8 7.57705 
7.48634 7.2 7 7.6 7.4 7.8 7.54728 7.03889 7.8 
7.6 7.4 7.2 7 7.48867 7.8 7.6 7.2 7.4 
7 7.55235 7.92859 7.38593 7 7.6 7.8 7.4 7.2 
7.63725 7.3466 7.53588 7.6 7.4 7.2 7 7.8 8.6 
8.4 8.2 8 8.8 8.62475 8.12651 8.45239 8 8 
8 8.99118 8 8 8 8.78561 8 8 8 
8 8 8 8 8 8 8.50619 8.15386 8 
8 8 8 8 8 8 8 8 8 
8 8 8 8 8 8 8 8 8 
8 8 8 8 8 8 8.62806 8 8.10445 
8 8 8 8 8.47881 8 8 8 8 
8 8 8 8 8 8 8 8 8 
8.85403 8 8 8 8 8 8 8 8 
8 8 8 8 8.24594 8.8108 8 8 8 
8.93768 8.52786 8 8 8 8 8 8.80997 8 
8 8 8 8.73921 8 8 8 8 8 
8 8 8.2553 8.85147 8.6 8.4 8.8 8.2 8 
9 9.4 9.6 9.2 9.8 9.148 9.71183 9.27106 9.23063 
9.31634 9.01778 9.56698 9.88162 9.20407 9.06115 9.73034 9.15746 9.4 
9.2 9 9.8 9.6 10 10 10.2 10 10 
10.8 10 10 10.6 10.4 10.68 10.2452 10 10 
10 10 10 10 10 10 10 10 10 
10 10 10 10 10 10 10 10 10 
10 10.4 10.6 10 10 10 10 10 10.2 
10.8 10 10 10 10 10 10 10 10 
10 10 10.3489 10.4133 10.552 10 10 10 10.9429 
10 10 10 10 10 10 10 10 10 
10 10 10 10.8 10.2 10.6 10 10 10 
10 10.4 10 10 10 10 10 10 10 
10 10 10 10 10 10 10 10 10 
10 10 10 10 10 10 10 10 10 
10 10 10 10 10 10 10 10 10 
10 10 10 10 10 10 10 10 10 
10 10 10 10 10 10 10 10 10 
10 10 10 10 10.6 10.2 10.8 10 10.4 
10 10 10 10 10 10 10 10 10 
10 10 10 10 10.9569 10 10 10 10.4551 
10 10 10 10.1488 10.3127 10 10 10 10 
10 10 10.4 10.6 10.2 10.8 10 11 11.8 
11.6 11.4 11.2 11.4 11.6 11 11.2 11.8 11 
11.2 11.4 11.8 11.6 11.8259 11.7976 11.2 11.4 11.8 
11.6 11 11.8068 11.8 11 11.2 11.6 11.4 12 
12.6 12.8 12.4 12.2 12.2 12.8 12.4 12 12.6 
12.2 12.6 12 12.4 12.8 12.1644 12.2 12.4 12.6 
12.8 12 12.6 12.4 12 12.8 12.2 13.8 13 
13.4 13.2 13.6 13.8 13.6 13.2 13 13.4 13.2 
13 13.8 13.4 13.6 13.5976 13.8999 13.8752 13.8822 13.8 
13.2 13 13.4 13.6 13.4288 13.1993 13.7467 13 13.6 
13.8 13.2 13.4 14.8 14.4 14.2 14.6 14 14.2 
14.6 14.4 14.8 14 14 14.6 14.8 14.2 14.4 
14.1835 14.2463 14.1359 14.7184 14.388 14.4083 14.4832 14.5517 14.1268 
14 14.0257 14.4 14 14.8 14.2 14.6 15.4 15 
15.2 15.8 15.6 15.2 15.8 15.4 15.6 15 15 
15.4 15.8 15.6 15.2 15.014 15.8333 15.5 15.6667 15.1667 
15 15.3333 15.4 15.6 15.2 15 15.8 16 16 
16 16 16 16 16 16 16 16 16 
16 16 16 16 16 16 16 16 16 
16 16 16 16 16 16 16 16 16 
16 16 16 16 16 16 16 16 16 
16 16 16 16 16 16 16 16 16 
16 16 16 16 16 16 16 16 16 
16 16 16 16 16 16 16 16 16 
16 16 16 16 16 16 16 16 16 
16 16 16 16 16 16 16 16 16 
16 16 16 16 16 16 16 16 16 
16 16 16 16 16 16 16 16 16 
16 16 16 16 16 16 16 16 16 
16 16 16 16 16 16 16 16 16 
16 16 16 16 16 16 16 16 16 
16 16 16 16 16 16 16 16 16 
16 16 16 16 16 16 16 16 16 
16 16 16 16 16 
