# vtk DataFile Version 4.0
vtk output
ASCII
DATASET POLYDATA
FIELD FieldData 4
domain 1 4 string
domain_min:-40|-40
domain_max:40|40
cell_size:1|1
boundary:0|0

variables 1 5 string
T:35
dt:0.01
write_case:1
substeps:10
all_steps:3500

constants 1 17 string
L:40
c_s:1
dx:1
k:1000
d1:-13.5|10
d2:-6|10
d3:9|14.5
d4:13.5|10
d5:-6|8
d6:0|8
d7:6|8
d8:-9|9
d9:9|9
d10:-12|0
d11:12|0
d12:0|-10
R_w:0.1

equations 1 18 string
time:T=(T+dt)#true
pos_x:x=elem(r,0,0)#eq(gid,1)
pos_y:y=elem(r,1,0)#eq(gid,1)
wp_1:p0=if(and(lt(x,(-9)),gt(y,10)),d1,p0)#eq(gid,1)
wp_2:p0=if(and(and(gt(x,(-9)),lt(x,(-3))),gt(y,10)),d2,p0)#eq(gid,1)
wp_3:p0=if(and(and(gt(x,(-3)),lt(x,9)),gt(y,10)),d3,p0)#eq(gid,1)
wp_4:p0=if(and(gt(x,9),gt(y,10)),d4,p0)#eq(gid,1)
wp_5:p0=if(and(and(gt(x,(-9)),lt(x,(-3))),lt(y,8)),d5,p0)#eq(gid,1)
wp_6:p0=if(and(and(gt(x,(-3)),lt(x,3)),lt(y,8)),d6,p0)#eq(gid,1)
wp_7:p0=if(and(and(gt(x,3),lt(x,9)),lt(y,8)),d7,p0)#eq(gid,1)
wp_8:p0=if(and(and(gt(x,(-9)),lt(x,0)),and(gt(y,8),lt(y,10))),d8,p0)#eq(gid,1)
wp_9:p0=if(and(and(gt(x,0),lt(x,9)),and(gt(y,8),lt(y,10))),d9,p0)#eq(gid,1)
wp_10:p0=if(and(lt(x,(-9)),lt(y,10)),d10,p0)#eq(gid,1)
wp_11:p0=if(and(gt(x,9),lt(y,10)),d11,p0)#eq(gid,1)
wp_12:p0=if(lt(y,0),d12,p0)#eq(gid,1)
acceleration:v=sfm(v,p0,v0,m,R,A,B,k,c,tau)#eq(gid,1)
velocity:v=euler(v,a,dt)#eq(gid,1)
position:r=euler(r,v,dt)#eq(gid,1)

POINTS 1049 float
-1.37216 -11.0578 0 -1.24799 -11.6298 0 -0.799824 -11.2213 0 
-0.250156 -11.3058 0 -0.56934 -11.7647 0 0.0226698 -11.7753 0 
0.773392 -11.2877 0 0.616089 -11.7792 0 0.259262 -11.2869 0 
1.65579 -11.1989 0 1.21951 -11.5628 0 -1.88467 -10.7204 0 
-1.77634 -10.1568 0 -1.36848 -10.5052 0 -0.306828 -10.0517 0 
-0.924267 -10.252 0 -0.567354 -10.2543 0 -0.410946 -10.9108 0 
-0.886931 -10.7264 0 -0.358645 -10.4952 0 0.0498448 -10.1005 0 
0.00755156 -10.4344 0 0.0178478 -10.908 0 0.828697 -10.0783 0 
0.816876 -10.5349 0 0.33122 -10.4571 0 0.441633 -10.1273 0 
0.534479 -10.8626 0 1.62905 -10.6917 0 1.21188 -10.4374 0 
1.13286 -10.9539 0 1.69625 -10.2101 0 2.13783 -10.477 0 
-2.15462 -9.81318 0 -1.33877 -9.06179 0 -1.62453 -9.59245 0 
-1.8224 -9.12634 0 -1.27799 -9.9801 0 -1.05346 -9.43393 0 
-0.836643 -9.82117 0 -0.0334142 -9.51808 0 -0.553175 -9.30684 0 
-0.566436 -9.90377 0 -0.352176 -9.56355 0 0.244677 -9.88259 0 
0.771498 -9.71368 0 0.850105 -9.28732 0 0.0116952 -9.15101 0 
0.44619 -9.61247 0 0.42578 -9.19645 0 1.13066 -9.61394 0 
1.60563 -9.72826 0 1.92365 -9.40586 0 1.2528 -9.99328 0 
1.36004 -9.24037 0 2.48646 -9.51833 0 2.09896 -9.92364 0 
2.78822 -9.03098 0 -2.2702 -8.95538 0 -2.25642 -8.14601 0 
-1.31217 -8.5709 0 -1.84005 -8.60491 0 -1.62286 -8.06912 0 
-0.915149 -8.39072 0 -0.332202 -8.94321 0 -0.209768 -8.08961 0 
-0.470885 -8.51403 0 -0.828101 -8.88156 0 -0.660346 -8.04171 0 
0.48013 -8.76058 0 0.463791 -8.25562 0 0.031333 -8.57135 0 
0.908058 -8.45034 0 0.908862 -8.91684 0 1.413 -8.18243 0 
1.78919 -8.96246 0 1.36222 -8.72339 0 1.84115 -8.51682 0 
2.33303 -8.46615 0 2.27692 -8.98067 0 2.87296 -8.51901 0 
-4.11496 -7.41271 0 -4.69179 -7.18492 0 -2.73579 -7.71036 0 
0.201337 -7.82048 0 0.903512 -7.90507 0 1.97861 -7.96128 0 
1.41433 -7.64806 0 2.79975 -7.34364 0 2.61298 -7.97941 0 
3.79931 -7.80175 0 4.31239 -7.22443 0 -4.47982 -6.49856 0 
-4.04869 -6.81401 0 3.71795 -6.80566 0 4.96578 -6.17266 0 
-5.64834 -5.9611 0 -4.75814 -5.96482 0 -4.17445 -5.73686 0 
5.92192 -5.04587 0 7.21568 -5.06032 0 6.97414 -4.09358 0 
6.6719 -4.67487 0 7.25943 -3.51705 0 7.98116 -3.45262 0 
8.7849 -3.76939 0 9.49968 -3.01924 0 8.48373 -2.99071 0 
8.8612 -2.42385 0 9.50041 -2.30517 0 -10.2312 -1.78074 0 
-10.5934 -1.3532 0 10.9645 -1.23673 0 -11.1616 -0.898001 0 
11.4178 -0.754291 0 -15 0 0 -14.2857 0 0 
-14.8214 0 0 -15 0.2 0 -15 0.8 0 
-15 0.6 0 -14.6429 0 0 -14.4643 0 0 
-15 0.4 0 -14.1071 0 0 -13.5714 0 0 
-13.75 0 0 -13.2143 0 0 -13.0357 0 0 
-13.9286 0 0 -13.3929 0 0 -12.8571 0 0 
-12.6786 0 0 -12.5 0 0 -11.3214 0 0 
-11.1429 0 0 -11.5 0 0 -10.4286 0 0 
-10.0714 0 0 -10.6071 0 0 -10.7857 0 0 
-10.25 0 0 -10.9643 0 0 -9.7143 0 0 
-9.3571 0 0 -9.1786 0 0 -9.5357 0 0 
-9.8929 0 0 -9 0.8 0 -9 0 0 
-8.4 0 0 -8.2 0 0 -9 0.4 0 
-9 0.6 0 -8.6 0 0 -9 0.2 0 
-8.8 0 0 -7.4 0 0 -7.2 0 0 
-7.8 0 0 -8 0 0 -7.6 0 0 
-7 0 0 -6.6 0 0 -6.8 0 0 
-6.2 0 0 -6.4 0 0 -6 0 0 
-5.6 0 0 -5.4 0 0 -5.8 0 0 
-5.2 0 0 -4.6 0 0 -4.2 0 0 
-4.8 0 0 -4.4 0 0 -5 0 0 
-3.8 0 0 -3.2 0 0 -3.6 0 0 
-3.4 0 0 -4 0 0 -2.8 0 0 
-3 0 0 -3 0.6 0 -2.2 0 0 
-2.6 0 0 -3 0.8 0 -2.4 0 0 
-3 0.2 0 -3 0.4 0 -2 0 0 
-1.4 0 0 -1.6 0 0 -1.2 0 0 
-1.8 0 0 -0.6 0 0 -1 0 0 
-0.2 0 0 -0.4 0 0 -0.8 0 0 
-0 0 0 0.4 0 0 0.2 0 0 
0.6 0 0 0.8 0 0 1 0 0 
1.6 0 0 1.4 0 0 1.2 0 0 
1.8 0 0 2.4 0 0 2.8 0 0 
2.6 0 0 2.2 0 0 2 0 0 
3.6 0 0 3 0.8 0 3 0 0 
3 0.6 0 3 0.2 0 3 0.4 0 
3.8 0 0 3.2 0 0 3.4 0 0 
4.8 0 0 4.6 0 0 4.4 0 0 
4.2 0 0 4 0 0 5.2 0 0 
5.4 0 0 5.8 0 0 5.6 0 0 
5 0 0 6.2 0 0 6.8 0 0 
6.4 0 0 6 0 0 6.6 0 0 
7 0 0 7.4 0 0 7.8 0 0 
7.2 0 0 7.6 0 0 8 0 0 
8.6 0 0 8.4 0 0 8.8 0 0 
8.2 0 0 9 0.6 0 9 0.8 0 
9.5357 0 0 9 0.4 0 9.7143 0 0 
9 0 0 9.3571 0 0 9 0.2 0 
9.1786 0 0 9.8929 0 0 10.0714 0 0 
10.25 0 0 10.4286 0 0 10.9643 0 0 
10.6071 0 0 10.7857 0 0 11.5 0 0 
11.7446 0.291096 0 11.1429 0 0 11.3214 0 0 
12.3058 0.30171 0 12.8571 0 0 12.5 0 0 
12.6786 0 0 13.75 0 0 13.0357 0 0 
13.9286 0 0 13.2143 0 0 13.5714 0 0 
13.3929 0 0 14.4643 0 0 14.6429 0 0 
14.1071 0 0 14.8214 0 0 14.2857 0 0 
15 0.8 0 15 0 0 15 0.2 0 
15 0.6 0 15 0.4 0 -15 1.4 0 
-15 1 0 -15 1.2 0 -15 1.8 0 
-15 1.6 0 -9 1 0 -9 1.2 0 
-9 1.4 0 -9 1.8 0 -9 1.6 0 
-3 1 0 -3 1.4 0 -3 1.2 0 
-3 1.6 0 -3 1.8 0 3 1.2 0 
3 1.4 0 3 1 0 3 1.8 0 
3 1.6 0 9 1.4 0 9 1.2 0 
9 1.6 0 9 1 0 9 1.8 0 
12.1562 1.04169 0 15 1.4 0 15 1.6 0 
15 1.8 0 15 1 0 15 1.2 0 
-15 2 0 -15 2.8 0 -15 2.4 0 
-15 2.6 0 -15 2.2 0 -9 2.4 0 
-9 2.6 0 -9 2.2 0 -9 2 0 
-9 2.8 0 -3 2.4 0 -3 2.8 0 
-3 2 0 -3 2.2 0 -3 2.6 0 
3 2.6 0 3 2.2 0 3 2.8 0 
3 2.4 0 3 2 0 9 2.2 0 
9 2.4 0 9 2.8 0 9 2 0 
9 2.6 0 15 2 0 15 2.8 0 
15 2.6 0 15 2.4 0 15 2.2 0 
-15 3.8 0 -15 3.6 0 -15 3 0 
-15 3.2 0 -15 3.4 0 -9 3.4 0 
-9 3.8 0 -9 3.2 0 -9 3.6 0 
-9 3 0 -3 3 0 -3 3.6 0 
-3 3.4 0 -3 3.2 0 -3 3.8 0 
3 3 0 3 3.2 0 3 3.4 0 
3 3.8 0 3 3.6 0 9 3.8 0 
9 3.4 0 9 3.6 0 9 3 0 
9 3.2 0 12.4786 3.11845 0 15 3.2 0 
15 3.8 0 15 3 0 15 3.4 0 
15 3.6 0 -15 4.8 0 -15 4.2 0 
-15 4.6 0 -15 4 0 -15 4.4 0 
-9 4.8 0 -9 4.2 0 -9 4.6 0 
-9 4 0 -9 4.4 0 -3 4.6 0 
-3 4 0 -3 4.2 0 -3 4.8 0 
-3 4.4 0 3 4.6 0 3 4 0 
3 4.2 0 3 4.4 0 3 4.8 0 
9 4.8 0 9 4.2 0 9 4.4 0 
9 4.6 0 9 4 0 12.6101 4.03513 0 
15 4.8 0 15 4 0 15 4.2 0 
15 4.4 0 15 4.6 0 -15 5.6 0 
-15 5.4 0 -15 5.8 0 -15 5.2 0 
-15 5 0 -9 5.8 0 -9 5 0 
-9 5.6 0 -9 5.4 0 -9 5.2 0 
-3 5.8 0 -3 5.2 0 -3 5 0 
-3 5.6 0 -3 5.4 0 3 5.4 0 
3 5.2 0 3 5 0 3 5.8 0 
3 5.6 0 9 5.4 0 9 5.6 0 
9 5.8 0 9 5 0 9 5.2 0 
15 5.4 0 15 5 0 15 5.8 0 
15 5.6 0 15 5.2 0 -15 6.2 0 
-15 6 0 -15 6.6 0 -15 6.4 0 
-15 6.8 0 -9 6.8 0 -9 6.6 0 
-9 6.4 0 -9 6.2 0 -9 6 0 
-3 6.4 0 -3 6.8 0 -3 6 0 
-3 6.2 0 -3 6.6 0 3 6 0 
3 6.2 0 3 6.6 0 3 6.8 0 
3 6.4 0 9 6 0 9 6.2 0 
9 6.6 0 9 6.8 0 9 6.4 0 
15 6.6 0 15 6.4 0 15 6.8 0 
15 6 0 15 6.2 0 -15 7 0 
-15 7.4 0 -15 7.8 0 -15 7.2 0 
-15 7.6 0 -9 7 0 -9 7.8 0 
-9 7.6 0 -9 7.4 0 -9 7.2 0 
-3 7.6 0 -3 7.8 0 -3 7 0 
-3 7.4 0 -3 7.2 0 3 7 0 
3 7.8 0 3 7.6 0 3 7.2 0 
3 7.4 0 9 7 0 9 7.8 0 
9 7.2 0 9 7.4 0 9 7.6 0 
15 7.2 0 15 7.6 0 15 7.8 0 
15 7.4 0 15 7 0 -15 8.6 0 
-15 8 0 -15 8.8 0 -15 8.2 0 
-15 8.4 0 -8.1071 8 0 -8.2857 8 0 
-9 8 0 -8.6429 8 0 -8.8214 8 0 
-8.4643 8 0 -7.75 8 0 -7.2143 8 0 
-7.3929 8 0 -7.0357 8 0 -7.9286 8 0 
-7.5714 8 0 -6.8571 8 0 -6.5 8 0 
-6.6786 8 0 -5.1429 8 0 -5.5 8 0 
-5.3214 8 0 -4.9643 8 0 -4.6071 8 0 
-4.25 8 0 -4.7857 8 0 -4.4286 8 0 
-4.0714 8 0 -3.8929 8 0 -3.7143 8 0 
-3.5357 8 0 -3.1786 8 0 -3.3571 8 0 
-3 8 0 -2.6429 8 0 -2.8214 8 0 
-2.2857 8 0 -2.4643 8 0 -2.1071 8 0 
-1.75 8 0 -1.2143 8 0 -1.5714 8 0 
-1.0357 8 0 -1.3929 8 0 -1.9286 8 0 
-0.5 8 0 -0.6786 8 0 -0.8571 8 0 
0.8571 8 0 0.6786 8 0 0.5 8 0 
1.5714 8 0 1.2143 8 0 1.75 8 0 
1.3929 8 0 1.0357 8 0 1.9286 8 0 
2.1071 8 0 2.2857 8 0 2.6429 8 0 
2.8214 8 0 2.4643 8 0 3.3571 8 0 
3.5357 8 0 3.7143 8 0 3.1786 8 0 
3.8929 8 0 3 8 0 4.7857 8 0 
4.4286 8 0 4.6071 8 0 4.25 8 0 
4.9643 8 0 4.0714 8 0 5.5 8 0 
5.3214 8 0 5.1429 8 0 6.5 8 0 
6.8571 8 0 6.6786 8 0 7.0357 8 0 
7.75 8 0 7.2143 8 0 7.5714 8 0 
7.9286 8 0 7.3929 8 0 8.1071 8 0 
8.2857 8 0 8.4643 8 0 8.8214 8 0 
8.6429 8 0 9 8 0 9 8 0 
15 8.4 0 15 8.8 0 15 8.6 0 
15 8.2 0 15 8 0 -15 9.6 0 
-15 9.4 0 -15 9 0 -15 9.8 0 
-15 9.2 0 15 9.2 0 15 9.6 0 
15 9.8 0 15 9 0 15 9.4 0 
-14.3333 10 0 -15 10.8 0 -15 10.4 0 
-14.6667 10 0 -15 10.2 0 -15 10 0 
-14.1667 10 0 -15 10.6 0 -14.8333 10 0 
-14.5 10 0 -14 10 0 -12.2 10 0 
-13 10 0 -12.6 10 0 -12.4 10 0 
-12.8 10 0 -11.2 10 0 -11.6 10 0 
-12 10 0 -11.4 10 0 -11.8 10 0 
-10.4 10 0 -11 10 0 -10.6 10 0 
-10.8 10 0 -10.2 10 0 -9.4 10 0 
-9.2 10 0 -9.6 10 0 -9.8 10 0 
-10 10 0 -9 10.2 0 -8.6429 10 0 
-9 10.6 0 -9 10.8 0 -8.4643 10 0 
-9 10.4 0 -9 10 0 -8.1071 10 0 
-8.2857 10 0 -8.8214 10 0 -7.75 10 0 
-7.2143 10 0 -7.9286 10 0 -7.5714 10 0 
-7.0357 10 0 -7.3929 10 0 -6.6786 10 0 
-6.5 10 0 -6.8571 10 0 -5.1429 10 0 
-5.3214 10 0 -5.5 10 0 -4.0714 10 0 
-4.9643 10 0 -4.6071 10 0 -4.4286 10 0 
-4.7857 10 0 -4.25 10 0 -3.5357 10 0 
-3.8929 10 0 -3.3571 10 0 -3.1786 10 0 
-3.7143 10 0 -2.4 10 0 -2.2 10 0 
-2.8 10 0 -3 10 0 -3 10.8 0 
-3 10.4 0 -3 10.2 0 -3 10.6 0 
-2.6 10 0 -1.8 10 0 -1.2 10 0 
-1.6 10 0 -2 10 0 -1.4 10 0 
-0.8 10 0 -1 10 0 -0.4 10 0 
-0.6 10 0 -0.2 10 0 0.2 10 0 
-0 10 0 0.6 10 0 0.4 10 0 
0.8 10 0 1 10 0 1.4 10 0 
1.6 10 0 1.2 10 0 1.8 10 0 
2.4 10 0 2.2 10 0 2.6 10 0 
2.8 10 0 2 10 0 3.4 10 0 
3.6 10 0 3.8 10 0 3 10 0 
3.2 10 0 4.2 10 0 4 10 0 
4.6 10 0 4.8 10 0 4.4 10 0 
5.4 10 0 5.8 10 0 5.6 10 0 
5 10 0 5.2 10 0 6.6 10 0 
6.2 10 0 6.4 10 0 6.8 10 0 
6 10 0 7.4 10 0 7.2 10 0 
7.8 10 0 7 10 0 7.6 10 0 
8.2 10 0 8.6 10 0 8.4 10 0 
8 10 0 8.8 10 0 9 10.4 0 
9.8 10 0 9 10.8 0 9.2 10 0 
9 10.2 0 9 10 0 9.6 10 0 
9.4 10 0 9 10.6 0 10 10 0 
10.2 10 0 10.4 10 0 10.6 10 0 
10.8 10 0 11.4 10 0 11.2 10 0 
11 10 0 11.8 10 0 11.6 10 0 
12 10 0 12.8 10 0 12.2 10 0 
12.4 10 0 12.6 10 0 13 10 0 
14.6667 10 0 14.3333 10 0 14.8333 10 0 
14.5 10 0 14 10 0 14.1667 10 0 
15 10.2 0 15 10.4 0 15 10.8 0 
15 10.6 0 15 10 0 -15 11.4 0 
-15 11.8 0 -15 11.2 0 -15 11.6 0 
-15 11 0 -9 11.4 0 -9 11.6 0 
-9 11 0 -9 11.2 0 -9 11.8 0 
-3 11 0 -3 11.4 0 -3 11.2 0 
-3 11.6 0 -3 11.8 0 9 11.8 0 
9 11.4 0 9 11.2 0 9 11 0 
9 11.6 0 15 11.4 0 15 11.2 0 
15 11.8 0 15 11 0 15 11.6 0 
-15 12 0 -15 12.6 0 -15 12.4 0 
-15 12.8 0 -15 12.2 0 -9 12 0 
-9 12.2 0 -9 12.4 0 -9 12.8 0 
-9 12.6 0 -3 12.8 0 -3 12.6 0 
-3 12.2 0 -3 12 0 -3 12.4 0 
9 12.6 0 9 12 0 9 12.2 0 
9 12.4 0 9 12.8 0 15 12.6 0 
15 12 0 15 12.4 0 15 12.2 0 
15 12.8 0 -15 13 0 -15 13.6 0 
-15 13.4 0 -15 13.2 0 -15 13.8 0 
-9 13.4 0 -9 13.2 0 -9 13.6 0 
-9 13 0 -9 13.8 0 -3 13.2 0 
-3 13.4 0 -3 13 0 -3 13.8 0 
-3 13.6 0 9 13.4 0 9 13.6 0 
9 13.2 0 9 13 0 9 13.8 0 
15 13 0 15 13.4 0 15 13.8 0 
15 13.2 0 15 13.6 0 -15 14 0 
-15 14.2 0 -15 14.6 0 -15 14.8 0 
-15 14.4 0 -9 14.4 0 -9 14.2 0 
-9 14 0 -9 14.8 0 -9 14.6 0 
-3 14.6 0 -3 14.8 0 -3 14.2 0 
-3 14 0 -3 14.4 0 9 14 0 
15 14.6 0 15 14 0 15 14.8 0 
15 14.4 0 15 14.2 0 -15 15 0 
-15 15.4 0 -15 15.8 0 -15 15.2 0 
-15 15.6 0 -9 15.4 0 -9 15.2 0 
-9 15 0 -9 15.8 0 -9 15.6 0 
-3 15.2 0 -3 15.8 0 -3 15.4 0 
-3 15 0 -3 15.6 0 9 15.1667 0 
9 15.3333 0 9 15 0 9 15.6667 0 
9 15.5 0 9 15.8333 0 15 15.8 0 
15 15 0 15 15.6 0 15 15.4 0 
15 15.2 0 -14.2 16 0 -14.8 16 0 
-15 16 0 -14.4 16 0 -14.6 16 0 
-13.2 16 0 -13.8 16 0 -14 16 0 
-13.6 16 0 -13.4 16 0 -12.4 16 0 
-13 16 0 -12.6 16 0 -12.2 16 0 
-12.8 16 0 -11.6 16 0 -11.8 16 0 
-11.4 16 0 -11.2 16 0 -12 16 0 
-11 16 0 -10.2 16 0 -10.6 16 0 
-10.4 16 0 -10.8 16 0 -10 16 0 
-9.2 16 0 -9.6 16 0 -9.4 16 0 
-9.8 16 0 -8.2 16 0 -8.4 16 0 
-9 16 0 -8.8 16 0 -8.6 16 0 
-8 16 0 -7.4 16 0 -7.2 16 0 
-7.6 16 0 -7.8 16 0 -6.8 16 0 
-6.2 16 0 -6.6 16 0 -7 16 0 
-6.4 16 0 -5.8 16 0 -5.6 16 0 
-5.2 16 0 -6 16 0 -5.4 16 0 
-5 16 0 -4.6 16 0 -4.2 16 0 
-4.4 16 0 -4.8 16 0 -4 16 0 
-3.4 16 0 -3.8 16 0 -3.6 16 0 
-3.2 16 0 -2.6 16 0 -2.2 16 0 
-3 16 0 -2.8 16 0 -2.4 16 0 
-1.4 16 0 -1.6 16 0 -1.8 16 0 
-1.2 16 0 -2 16 0 -1 16 0 
-0.2 16 0 -0.8 16 0 -0.4 16 0 
-0.6 16 0 0.4 16 0 -0 16 0 
0.6 16 0 0.8 16 0 0.2 16 0 
1.4 16 0 1.6 16 0 1.2 16 0 
1.8 16 0 1 16 0 2.8 16 0 
2 16 0 2.2 16 0 2.6 16 0 
2.4 16 0 3.4 16 0 3 16 0 
3.8 16 0 3.2 16 0 3.6 16 0 
4 16 0 4.2 16 0 4.4 16 0 
4.6 16 0 4.8 16 0 5.8 16 0 
5 16 0 5.4 16 0 5.2 16 0 
5.6 16 0 6.4 16 0 6.8 16 0 
6.6 16 0 6.2 16 0 6 16 0 
7.4 16 0 7 16 0 7.6 16 0 
7.8 16 0 7.2 16 0 8.6 16 0 
8.8 16 0 8 16 0 8.4 16 0 
8.2 16 0 9 16 0 9.2 16 0 
9.8 16 0 9.4 16 0 9.6 16 0 
10 16 0 10.2 16 0 10.4 16 0 
10.6 16 0 10.8 16 0 11.4 16 0 
11.8 16 0 11 16 0 11.6 16 0 
11.2 16 0 12.4 16 0 12.8 16 0 
12.6 16 0 12.2 16 0 12 16 0 
13.8 16 0 13.2 16 0 13.4 16 0 
13.6 16 0 13 16 0 14.8 16 0 
14 16 0 14.2 16 0 14.4 16 0 
14.6 16 0 15 16 0 
VERTICES 2098 2098
1 0 
1 1 
1 2 
1 3 
1 4 
1 5 
1 6 
1 7 
1 8 
1 9 
1 10 
1 11 
1 12 
1 13 
1 14 
1 15 
1 16 
1 17 
1 18 
1 19 
1 20 
1 21 
1 22 
1 23 
1 24 
1 25 
1 26 
1 27 
1 28 
1 29 
1 30 
1 31 
1 32 
1 33 
1 34 
1 35 
1 36 
1 37 
1 38 
1 39 
1 40 
1 41 
1 42 
1 43 
1 44 
1 45 
1 46 
1 47 
1 48 
1 49 
1 50 
1 51 
1 52 
1 53 
1 54 
1 55 
1 56 
1 57 
1 58 
1 59 
1 60 
1 61 
1 62 
1 63 
1 64 
1 65 
1 66 
1 67 
1 68 
1 69 
1 70 
1 71 
1 72 
1 73 
1 74 
1 75 
1 76 
1 77 
1 78 
1 79 
1 80 
1 81 
1 82 
1 83 
1 84 
1 85 
1 86 
1 87 
1 88 
1 89 
1 90 
1 91 
1 92 
1 93 
1 94 
1 95 
1 96 
1 97 
1 98 
1 99 
1 100 
1 101 
1 102 
1 103 
1 104 
1 105 
1 106 
1 107 
1 108 
1 109 
1 110 
1 111 
1 112 
1 113 
1 114 
1 115 
1 116 
1 117 
1 118 
1 119 
1 120 
1 121 
1 122 
1 123 
1 124 
1 125 
1 126 
1 127 
1 128 
1 129 
1 130 
1 131 
1 132 
1 133 
1 134 
1 135 
1 136 
1 137 
1 138 
1 139 
1 140 
1 141 
1 142 
1 143 
1 144 
1 145 
1 146 
1 147 
1 148 
1 149 
1 150 
1 151 
1 152 
1 153 
1 154 
1 155 
1 156 
1 157 
1 158 
1 159 
1 160 
1 161 
1 162 
1 163 
1 164 
1 165 
1 166 
1 167 
1 168 
1 169 
1 170 
1 171 
1 172 
1 173 
1 174 
1 175 
1 176 
1 177 
1 178 
1 179 
1 180 
1 181 
1 182 
1 183 
1 184 
1 185 
1 186 
1 187 
1 188 
1 189 
1 190 
1 191 
1 192 
1 193 
1 194 
1 195 
1 196 
1 197 
1 198 
1 199 
1 200 
1 201 
1 202 
1 203 
1 204 
1 205 
1 206 
1 207 
1 208 
1 209 
1 210 
1 211 
1 212 
1 213 
1 214 
1 215 
1 216 
1 217 
1 218 
1 219 
1 220 
1 221 
1 222 
1 223 
1 224 
1 225 
1 226 
1 227 
1 228 
1 229 
1 230 
1 231 
1 232 
1 233 
1 234 
1 235 
1 236 
1 237 
1 238 
1 239 
1 240 
1 241 
1 242 
1 243 
1 244 
1 245 
1 246 
1 247 
1 248 
1 249 
1 250 
1 251 
1 252 
1 253 
1 254 
1 255 
1 256 
1 257 
1 258 
1 259 
1 260 
1 261 
1 262 
1 263 
1 264 
1 265 
1 266 
1 267 
1 268 
1 269 
1 270 
1 271 
1 272 
1 273 
1 274 
1 275 
1 276 
1 277 
1 278 
1 279 
1 280 
1 281 
1 282 
1 283 
1 284 
1 285 
1 286 
1 287 
1 288 
1 289 
1 290 
1 291 
1 292 
1 293 
1 294 
1 295 
1 296 
1 297 
1 298 
1 299 
1 300 
1 301 
1 302 
1 303 
1 304 
1 305 
1 306 
1 307 
1 308 
1 309 
1 310 
1 311 
1 312 
1 313 
1 314 
1 315 
1 316 
1 317 
1 318 
1 319 
1 320 
1 321 
1 322 
1 323 
1 324 
1 325 
1 326 
1 327 
1 328 
1 329 
1 330 
1 331 
1 332 
1 333 
1 334 
1 335 
1 336 
1 337 
1 338 
1 339 
1 340 
1 341 
1 342 
1 343 
1 344 
1 345 
1 346 
1 347 
1 348 
1 349 
1 350 
1 351 
1 352 
1 353 
1 354 
1 355 
1 356 
1 357 
1 358 
1 359 
1 360 
1 361 
1 362 
1 363 
1 364 
1 365 
1 366 
1 367 
1 368 
1 369 
1 370 
1 371 
1 372 
1 373 
1 374 
1 375 
1 376 
1 377 
1 378 
1 379 
1 380 
1 381 
1 382 
1 383 
1 384 
1 385 
1 386 
1 387 
1 388 
1 389 
1 390 
1 391 
1 392 
1 393 
1 394 
1 395 
1 396 
1 397 
1 398 
1 399 
1 400 
1 401 
1 402 
1 403 
1 404 
1 405 
1 406 
1 407 
1 408 
1 409 
1 410 
1 411 
1 412 
1 413 
1 414 
1 415 
1 416 
1 417 
1 418 
1 419 
1 420 
1 421 
1 422 
1 423 
1 424 
1 425 
1 426 
1 427 
1 428 
1 429 
1 430 
1 431 
1 432 
1 433 
1 434 
1 435 
1 436 
1 437 
1 438 
1 439 
1 440 
1 441 
1 442 
1 443 
1 444 
1 445 
1 446 
1 447 
1 448 
1 449 
1 450 
1 451 
1 452 
1 453 
1 454 
1 455 
1 456 
1 457 
1 458 
1 459 
1 460 
1 461 
1 462 
1 463 
1 464 
1 465 
1 466 
1 467 
1 468 
1 469 
1 470 
1 471 
1 472 
1 473 
1 474 
1 475 
1 476 
1 477 
1 478 
1 479 
1 480 
1 481 
1 482 
1 483 
1 484 
1 485 
1 486 
1 487 
1 488 
1 489 
1 490 
1 491 
1 492 
1 493 
1 494 
1 495 
1 496 
1 497 
1 498 
1 499 
1 500 
1 501 
1 502 
1 503 
1 504 
1 505 
1 506 
1 507 
1 508 
1 509 
1 510 
1 511 
1 512 
1 513 
1 514 
1 515 
1 516 
1 517 
1 518 
1 519 
1 520 
1 521 
1 522 
1 523 
1 524 
1 525 
1 526 
1 527 
1 528 
1 529 
1 530 
1 531 
1 532 
1 533 
1 534 
1 535 
1 536 
1 537 
1 538 
1 539 
1 540 
1 541 
1 542 
1 543 
1 544 
1 545 
1 546 
1 547 
1 548 
1 549 
1 550 
1 551 
1 552 
1 553 
1 554 
1 555 
1 556 
1 557 
1 558 
1 559 
1 560 
1 561 
1 562 
1 563 
1 564 
1 565 
1 566 
1 567 
1 568 
1 569 
1 570 
1 571 
1 572 
1 573 
1 574 
1 575 
1 576 
1 577 
1 578 
1 579 
1 580 
1 581 
1 582 
1 583 
1 584 
1 585 
1 586 
1 587 
1 588 
1 589 
1 590 
1 591 
1 592 
1 593 
1 594 
1 595 
1 596 
1 597 
1 598 
1 599 
1 600 
1 601 
1 602 
1 603 
1 604 
1 605 
1 606 
1 607 
1 608 
1 609 
1 610 
1 611 
1 612 
1 613 
1 614 
1 615 
1 616 
1 617 
1 618 
1 619 
1 620 
1 621 
1 622 
1 623 
1 624 
1 625 
1 626 
1 627 
1 628 
1 629 
1 630 
1 631 
1 632 
1 633 
1 634 
1 635 
1 636 
1 637 
1 638 
1 639 
1 640 
1 641 
1 642 
1 643 
1 644 
1 645 
1 646 
1 647 
1 648 
1 649 
1 650 
1 651 
1 652 
1 653 
1 654 
1 655 
1 656 
1 657 
1 658 
1 659 
1 660 
1 661 
1 662 
1 663 
1 664 
1 665 
1 666 
1 667 
1 668 
1 669 
1 670 
1 671 
1 672 
1 673 
1 674 
1 675 
1 676 
1 677 
1 678 
1 679 
1 680 
1 681 
1 682 
1 683 
1 684 
1 685 
1 686 
1 687 
1 688 
1 689 
1 690 
1 691 
1 692 
1 693 
1 694 
1 695 
1 696 
1 697 
1 698 
1 699 
1 700 
1 701 
1 702 
1 703 
1 704 
1 705 
1 706 
1 707 
1 708 
1 709 
1 710 
1 711 
1 712 
1 713 
1 714 
1 715 
1 716 
1 717 
1 718 
1 719 
1 720 
1 721 
1 722 
1 723 
1 724 
1 725 
1 726 
1 727 
1 728 
1 729 
1 730 
1 731 
1 732 
1 733 
1 734 
1 735 
1 736 
1 737 
1 738 
1 739 
1 740 
1 741 
1 742 
1 743 
1 744 
1 745 
1 746 
1 747 
1 748 
1 749 
1 750 
1 751 
1 752 
1 753 
1 754 
1 755 
1 756 
1 757 
1 758 
1 759 
1 760 
1 761 
1 762 
1 763 
1 764 
1 765 
1 766 
1 767 
1 768 
1 769 
1 770 
1 771 
1 772 
1 773 
1 774 
1 775 
1 776 
1 777 
1 778 
1 779 
1 780 
1 781 
1 782 
1 783 
1 784 
1 785 
1 786 
1 787 
1 788 
1 789 
1 790 
1 791 
1 792 
1 793 
1 794 
1 795 
1 796 
1 797 
1 798 
1 799 
1 800 
1 801 
1 802 
1 803 
1 804 
1 805 
1 806 
1 807 
1 808 
1 809 
1 810 
1 811 
1 812 
1 813 
1 814 
1 815 
1 816 
1 817 
1 818 
1 819 
1 820 
1 821 
1 822 
1 823 
1 824 
1 825 
1 826 
1 827 
1 828 
1 829 
1 830 
1 831 
1 832 
1 833 
1 834 
1 835 
1 836 
1 837 
1 838 
1 839 
1 840 
1 841 
1 842 
1 843 
1 844 
1 845 
1 846 
1 847 
1 848 
1 849 
1 850 
1 851 
1 852 
1 853 
1 854 
1 855 
1 856 
1 857 
1 858 
1 859 
1 860 
1 861 
1 862 
1 863 
1 864 
1 865 
1 866 
1 867 
1 868 
1 869 
1 870 
1 871 
1 872 
1 873 
1 874 
1 875 
1 876 
1 877 
1 878 
1 879 
1 880 
1 881 
1 882 
1 883 
1 884 
1 885 
1 886 
1 887 
1 888 
1 889 
1 890 
1 891 
1 892 
1 893 
1 894 
1 895 
1 896 
1 897 
1 898 
1 899 
1 900 
1 901 
1 902 
1 903 
1 904 
1 905 
1 906 
1 907 
1 908 
1 909 
1 910 
1 911 
1 912 
1 913 
1 914 
1 915 
1 916 
1 917 
1 918 
1 919 
1 920 
1 921 
1 922 
1 923 
1 924 
1 925 
1 926 
1 927 
1 928 
1 929 
1 930 
1 931 
1 932 
1 933 
1 934 
1 935 
1 936 
1 937 
1 938 
1 939 
1 940 
1 941 
1 942 
1 943 
1 944 
1 945 
1 946 
1 947 
1 948 
1 949 
1 950 
1 951 
1 952 
1 953 
1 954 
1 955 
1 956 
1 957 
1 958 
1 959 
1 960 
1 961 
1 962 
1 963 
1 964 
1 965 
1 966 
1 967 
1 968 
1 969 
1 970 
1 971 
1 972 
1 973 
1 974 
1 975 
1 976 
1 977 
1 978 
1 979 
1 980 
1 981 
1 982 
1 983 
1 984 
1 985 
1 986 
1 987 
1 988 
1 989 
1 990 
1 991 
1 992 
1 993 
1 994 
1 995 
1 996 
1 997 
1 998 
1 999 
1 1000 
1 1001 
1 1002 
1 1003 
1 1004 
1 1005 
1 1006 
1 1007 
1 1008 
1 1009 
1 1010 
1 1011 
1 1012 
1 1013 
1 1014 
1 1015 
1 1016 
1 1017 
1 1018 
1 1019 
1 1020 
1 1021 
1 1022 
1 1023 
1 1024 
1 1025 
1 1026 
1 1027 
1 1028 
1 1029 
1 1030 
1 1031 
1 1032 
1 1033 
1 1034 
1 1035 
1 1036 
1 1037 
1 1038 
1 1039 
1 1040 
1 1041 
1 1042 
1 1043 
1 1044 
1 1045 
1 1046 
1 1047 
1 1048 

POINT_DATA 1049
SCALARS id double
LOOKUP_TABLE default
1040 978 1045 993 1032 980 1048 964 1027 
951 1020 995 954 933 990 1008 1041 983 
1004 1005 1036 966 977 941 972 955 975 
945 1028 1037 976 987 962 1026 965 998 
984 1042 985 936 969 989 1047 939 1024 
999 988 947 930 1022 929 932 979 960 
986 997 1009 1030 1012 971 1007 992 1000 
953 942 968 1014 1038 1018 973 1043 1033 
1019 1029 1025 994 950 949 1044 1011 943 
967 935 944 1016 958 959 937 934 957 
1015 946 1031 952 931 940 1021 1003 1017 
1002 956 1001 1035 1046 961 1013 948 1039 
981 938 1034 1006 1023 963 1010 0 42 
39 391 388 389 40 41 390 43 46 
45 48 49 44 47 50 51 1 52 
53 2 57 59 56 55 58 54 61 
63 64 62 60 395 3 67 68 393 
394 66 392 65 72 73 70 69 71 
74 76 75 78 77 79 81 82 80 
83 86 88 85 87 84 90 93 91 
92 89 94 4 493 97 95 492 96 
495 494 98 101 100 102 99 105 103 
107 106 104 108 110 109 111 112 113 
116 115 114 117 120 122 121 119 118 
125 557 5 558 560 559 126 123 124 
131 130 129 128 127 133 134 136 135 
132 138 141 139 137 140 142 144 146 
143 145 147 150 149 151 148 589 590 
154 588 155 6 153 587 152 156 157 
158 159 162 160 161 7 974 163 164 
991 166 8 165 171 167 172 168 170 
169 175 176 173 177 174 181 9 178 
180 179 385 387 386 383 384 396 397 
398 400 399 491 489 490 488 487 555 
554 556 552 553 593 592 594 591 595 
982 184 185 186 182 183 382 378 380 
379 381 403 404 402 401 405 484 482 
486 485 483 548 550 547 549 551 597 
598 600 596 599 187 191 190 189 188 
373 374 377 376 375 408 410 407 409 
406 481 478 479 480 477 546 545 544 
542 543 605 603 604 601 602 970 193 
196 192 194 195 368 371 369 372 370 
415 412 414 411 413 473 476 475 472 
474 538 541 540 539 537 610 607 608 
609 606 996 201 197 198 199 200 364 
365 363 366 367 420 416 419 418 417 
467 470 471 468 469 534 535 536 532 
533 613 614 615 611 612 204 202 206 
205 203 361 362 359 360 358 425 424 
423 422 421 464 462 466 465 463 531 
530 528 527 529 616 617 619 620 618 
210 209 211 207 208 357 355 353 356 
354 426 430 429 428 427 458 457 461 
459 460 526 522 523 525 524 621 625 
622 623 624 213 215 216 214 212 349 
352 348 351 350 435 434 10 432 431 
433 437 440 439 441 436 438 442 11 
443 445 12 444 446 448 450 447 449 
451 452 453 454 456 455 13 497 496 
499 498 500 502 505 503 506 504 501 
14 508 507 510 509 15 514 512 515 
513 511 516 517 518 520 521 519 562 
563 564 561 565 16 570 568 569 567 
571 566 17 573 572 18 575 574 576 
580 577 579 581 578 582 583 584 586 
585 19 34 219 221 220 218 217 344 
345 347 343 346 223 225 226 222 224 
663 339 341 661 342 20 664 340 660 
662 21 668 22 666 667 665 673 671 
669 672 670 677 674 676 675 678 682 
683 681 680 679 684 714 686 687 715 
685 23 717 716 713 719 722 718 720 
723 721 725 36 724 727 726 37 733 
728 730 731 729 732 736 734 737 738 
735 741 742 739 24 634 632 631 633 
740 744 747 745 743 746 749 748 751 
750 752 754 753 756 755 757 758 760 
761 759 762 765 764 766 767 763 770 
771 772 768 769 774 773 776 777 775 
780 782 781 778 779 786 784 785 787 
783 790 789 792 788 791 794 796 795 
793 797 818 801 820 798 817 35 800 
799 819 802 803 804 805 806 809 808 
807 811 810 812 816 813 814 815 25 
627 629 626 628 26 630 227 228 230 
229 27 336 334 337 335 338 690 691 
688 689 692 635 637 636 638 639 825 
823 822 821 824 233 232 235 231 234 
333 330 331 329 332 693 694 695 697 
696 644 643 641 640 642 829 826 827 
828 830 239 236 238 237 240 328 325 
326 327 324 700 699 701 698 702 646 
647 645 649 648 833 834 832 831 835 
241 243 245 242 244 323 322 320 319 
321 705 704 703 707 706 653 654 651 
650 652 29 249 246 250 248 247 318 
316 314 317 315 710 709 708 712 711 
656 659 657 655 658 924 925 28 927 
926 928 255 251 254 253 252 310 313 
30 311 312 305 308 309 307 306 301 
304 302 300 303 297 298 296 295 299 
294 290 292 291 293 289 285 287 286 
288 281 282 31 284 283 280 277 276 
278 279 274 271 273 275 272 269 268 
266 270 267 265 263 261 262 264 260 
257 259 258 256 837 839 32 836 838 
843 842 841 844 840 845 849 846 848 
847 852 850 853 854 851 857 858 856 
859 855 864 860 861 863 862 867 865 
869 866 868 870 871 872 873 874 879 
875 877 876 878 882 884 883 881 880 
887 885 888 889 886 893 894 890 892 
891 38 895 898 896 897 899 900 901 
902 903 906 908 904 907 905 911 913 
912 910 909 918 915 916 917 914 923 
919 920 921 922 33 
FIELD FieldData 14
r 3 1049 double
-1.37216 -11.0578 0 -1.24799 -11.6298 0 -0.799824 -11.2213 0 
-0.250156 -11.3058 0 -0.56934 -11.7647 0 0.0226698 -11.7753 0 
0.773392 -11.2877 0 0.616089 -11.7792 0 0.259262 -11.2869 0 
1.65579 -11.1989 0 1.21951 -11.5628 0 -1.88467 -10.7204 0 
-1.77634 -10.1568 0 -1.36848 -10.5052 0 -0.306828 -10.0517 0 
-0.924267 -10.252 0 -0.567354 -10.2543 0 -0.410946 -10.9108 0 
-0.886931 -10.7264 0 -0.358645 -10.4952 0 0.0498448 -10.1005 0 
0.00755156 -10.4344 0 0.0178478 -10.908 0 0.828697 -10.0783 0 
0.816876 -10.5349 0 0.33122 -10.4571 0 0.441633 -10.1273 0 
0.534479 -10.8626 0 1.62905 -10.6917 0 1.21188 -10.4374 0 
1.13286 -10.9539 0 1.69625 -10.2101 0 2.13783 -10.477 0 
-2.15462 -9.81318 0 -1.33877 -9.06179 0 -1.62453 -9.59245 0 
-1.8224 -9.12634 0 -1.27799 -9.9801 0 -1.05346 -9.43393 0 
-0.836643 -9.82117 0 -0.0334142 -9.51808 0 -0.553175 -9.30684 0 
-0.566436 -9.90377 0 -0.352176 -9.56355 0 0.244677 -9.88259 0 
0.771498 -9.71368 0 0.850105 -9.28732 0 0.0116952 -9.15101 0 
0.44619 -9.61247 0 0.42578 -9.19645 0 1.13066 -9.61394 0 
1.60563 -9.72826 0 1.92365 -9.40586 0 1.2528 -9.99328 0 
1.36004 -9.24037 0 2.48646 -9.51833 0 2.09896 -9.92364 0 
2.78822 -9.03098 0 -2.2702 -8.95538 0 -2.25642 -8.14601 0 
-1.31217 -8.5709 0 -1.84005 -8.60491 0 -1.62286 -8.06912 0 
-0.915149 -8.39072 0 -0.332202 -8.94321 0 -0.209768 -8.08961 0 
-0.470885 -8.51403 0 -0.828101 -8.88156 0 -0.660346 -8.04171 0 
0.48013 -8.76059 0 0.463791 -8.25562 0 0.031333 -8.57135 0 
0.908058 -8.45034 0 0.908862 -8.91684 0 1.413 -8.18243 0 
1.78919 -8.96246 0 1.36222 -8.72339 0 1.84115 -8.51682 0 
2.33303 -8.46615 0 2.27692 -8.98067 0 2.87296 -8.51901 0 
-4.11496 -7.41271 0 -4.69179 -7.18492 0 -2.73579 -7.71036 0 
0.201337 -7.82048 0 0.903512 -7.90507 0 1.97861 -7.96128 0 
1.41433 -7.64806 0 2.79975 -7.34364 0 2.61298 -7.97941 0 
3.79931 -7.80175 0 4.31239 -7.22443 0 -4.47982 -6.49856 0 
-4.04869 -6.81401 0 3.71795 -6.80566 0 4.96578 -6.17266 0 
-5.64834 -5.9611 0 -4.75814 -5.96482 0 -4.17445 -5.73686 0 
5.92192 -5.04587 0 7.21568 -5.06032 0 6.97414 -4.09358 0 
6.6719 -4.67487 0 7.25943 -3.51705 0 7.98116 -3.45261 0 
8.7849 -3.76939 0 9.49968 -3.01924 0 8.48373 -2.99071 0 
8.8612 -2.42385 0 9.50041 -2.30517 0 -10.2312 -1.78074 0 
-10.5934 -1.3532 0 10.9645 -1.23673 0 -11.1616 -0.898001 0 
11.4178 -0.754291 0 -15 0 0 -14.2857 0 0 
-14.8214 0 0 -15 0.2 0 -15 0.8 0 
-15 0.6 0 -14.6429 0 0 -14.4643 0 0 
-15 0.4 0 -14.1071 0 0 -13.5714 0 0 
-13.75 0 0 -13.2143 0 0 -13.0357 0 0 
-13.9286 0 0 -13.3929 0 0 -12.8571 0 0 
-12.6786 0 0 -12.5 0 0 -11.3214 0 0 
-11.1429 0 0 -11.5 0 0 -10.4286 0 0 
-10.0714 0 0 -10.6071 0 0 -10.7857 0 0 
-10.25 0 0 -10.9643 0 0 -9.7143 0 0 
-9.3571 0 0 -9.1786 0 0 -9.5357 0 0 
-9.8929 0 0 -9 0.8 0 -9 0 0 
-8.4 0 0 -8.2 0 0 -9 0.4 0 
-9 0.6 0 -8.6 0 0 -9 0.2 0 
-8.8 0 0 -7.4 0 0 -7.2 0 0 
-7.8 0 0 -8 0 0 -7.6 0 0 
-7 0 0 -6.6 0 0 -6.8 0 0 
-6.2 0 0 -6.4 0 0 -6 0 0 
-5.6 0 0 -5.4 0 0 -5.8 0 0 
-5.2 0 0 -4.6 0 0 -4.2 0 0 
-4.8 0 0 -4.4 0 0 -5 0 0 
-3.8 0 0 -3.2 0 0 -3.6 0 0 
-3.4 0 0 -4 0 0 -2.8 0 0 
-3 0 0 -3 0.6 0 -2.2 0 0 
-2.6 0 0 -3 0.8 0 -2.4 0 0 
-3 0.2 0 -3 0.4 0 -2 0 0 
-1.4 0 0 -1.6 0 0 -1.2 0 0 
-1.8 0 0 -0.6 0 0 -1 0 0 
-0.2 0 0 -0.4 0 0 -0.8 0 0 
-0 0 0 0.4 0 0 0.2 0 0 
0.6 0 0 0.8 0 0 1 0 0 
1.6 0 0 1.4 0 0 1.2 0 0 
1.8 0 0 2.4 0 0 2.8 0 0 
2.6 0 0 2.2 0 0 2 0 0 
3.6 0 0 3 0.8 0 3 0 0 
3 0.6 0 3 0.2 0 3 0.4 0 
3.8 0 0 3.2 0 0 3.4 0 0 
4.8 0 0 4.6 0 0 4.4 0 0 
4.2 0 0 4 0 0 5.2 0 0 
5.4 0 0 5.8 0 0 5.6 0 0 
5 0 0 6.2 0 0 6.8 0 0 
6.4 0 0 6 0 0 6.6 0 0 
7 0 0 7.4 0 0 7.8 0 0 
7.2 0 0 7.6 0 0 8 0 0 
8.6 0 0 8.4 0 0 8.8 0 0 
8.2 0 0 9 0.6 0 9 0.8 0 
9.5357 0 0 9 0.4 0 9.7143 0 0 
9 0 0 9.3571 0 0 9 0.2 0 
9.1786 0 0 9.8929 0 0 10.0714 0 0 
10.25 0 0 10.4286 0 0 10.9643 0 0 
10.6071 0 0 10.7857 0 0 11.5 0 0 
11.7446 0.291096 0 11.1429 0 0 11.3214 0 0 
12.3058 0.30171 0 12.8571 0 0 12.5 0 0 
12.6786 0 0 13.75 0 0 13.0357 0 0 
13.9286 0 0 13.2143 0 0 13.5714 0 0 
13.3929 0 0 14.4643 0 0 14.6429 0 0 
14.1071 0 0 14.8214 0 0 14.2857 0 0 
15 0.8 0 15 0 0 15 0.2 0 
15 0.6 0 15 0.4 0 -15 1.4 0 
-15 1 0 -15 1.2 0 -15 1.8 0 
-15 1.6 0 -9 1 0 -9 1.2 0 
-9 1.4 0 -9 1.8 0 -9 1.6 0 
-3 1 0 -3 1.4 0 -3 1.2 0 
-3 1.6 0 -3 1.8 0 3 1.2 0 
3 1.4 0 3 1 0 3 1.8 0 
3 1.6 0 9 1.4 0 9 1.2 0 
9 1.6 0 9 1 0 9 1.8 0 
12.1562 1.04169 0 15 1.4 0 15 1.6 0 
15 1.8 0 15 1 0 15 1.2 0 
-15 2 0 -15 2.8 0 -15 2.4 0 
-15 2.6 0 -15 2.2 0 -9 2.4 0 
-9 2.6 0 -9 2.2 0 -9 2 0 
-9 2.8 0 -3 2.4 0 -3 2.8 0 
-3 2 0 -3 2.2 0 -3 2.6 0 
3 2.6 0 3 2.2 0 3 2.8 0 
3 2.4 0 3 2 0 9 2.2 0 
9 2.4 0 9 2.8 0 9 2 0 
9 2.6 0 15 2 0 15 2.8 0 
15 2.6 0 15 2.4 0 15 2.2 0 
-15 3.8 0 -15 3.6 0 -15 3 0 
-15 3.2 0 -15 3.4 0 -9 3.4 0 
-9 3.8 0 -9 3.2 0 -9 3.6 0 
-9 3 0 -3 3 0 -3 3.6 0 
-3 3.4 0 -3 3.2 0 -3 3.8 0 
3 3 0 3 3.2 0 3 3.4 0 
3 3.8 0 3 3.6 0 9 3.8 0 
9 3.4 0 9 3.6 0 9 3 0 
9 3.2 0 12.4786 3.11845 0 15 3.2 0 
15 3.8 0 15 3 0 15 3.4 0 
15 3.6 0 -15 4.8 0 -15 4.2 0 
-15 4.6 0 -15 4 0 -15 4.4 0 
-9 4.8 0 -9 4.2 0 -9 4.6 0 
-9 4 0 -9 4.4 0 -3 4.6 0 
-3 4 0 -3 4.2 0 -3 4.8 0 
-3 4.4 0 3 4.6 0 3 4 0 
3 4.2 0 3 4.4 0 3 4.8 0 
9 4.8 0 9 4.2 0 9 4.4 0 
9 4.6 0 9 4 0 12.6101 4.03513 0 
15 4.8 0 15 4 0 15 4.2 0 
15 4.4 0 15 4.6 0 -15 5.6 0 
-15 5.4 0 -15 5.8 0 -15 5.2 0 
-15 5 0 -9 5.8 0 -9 5 0 
-9 5.6 0 -9 5.4 0 -9 5.2 0 
-3 5.8 0 -3 5.2 0 -3 5 0 
-3 5.6 0 -3 5.4 0 3 5.4 0 
3 5.2 0 3 5 0 3 5.8 0 
3 5.6 0 9 5.4 0 9 5.6 0 
9 5.8 0 9 5 0 9 5.2 0 
15 5.4 0 15 5 0 15 5.8 0 
15 5.6 0 15 5.2 0 -15 6.2 0 
-15 6 0 -15 6.6 0 -15 6.4 0 
-15 6.8 0 -9 6.8 0 -9 6.6 0 
-9 6.4 0 -9 6.2 0 -9 6 0 
-3 6.4 0 -3 6.8 0 -3 6 0 
-3 6.2 0 -3 6.6 0 3 6 0 
3 6.2 0 3 6.6 0 3 6.8 0 
3 6.4 0 9 6 0 9 6.2 0 
9 6.6 0 9 6.8 0 9 6.4 0 
15 6.6 0 15 6.4 0 15 6.8 0 
15 6 0 15 6.2 0 -15 7 0 
-15 7.4 0 -15 7.8 0 -15 7.2 0 
-15 7.6 0 -9 7 0 -9 7.8 0 
-9 7.6 0 -9 7.4 0 -9 7.2 0 
-3 7.6 0 -3 7.8 0 -3 7 0 
-3 7.4 0 -3 7.2 0 3 7 0 
3 7.8 0 3 7.6 0 3 7.2 0 
3 7.4 0 9 7 0 9 7.8 0 
9 7.2 0 9 7.4 0 9 7.6 0 
15 7.2 0 15 7.6 0 15 7.8 0 
15 7.4 0 15 7 0 -15 8.6 0 
-15 8 0 -15 8.8 0 -15 8.2 0 
-15 8.4 0 -8.1071 8 0 -8.2857 8 0 
-9 8 0 -8.6429 8 0 -8.8214 8 0 
-8.4643 8 0 -7.75 8 0 -7.2143 8 0 
-7.3929 8 0 -7.0357 8 0 -7.9286 8 0 
-7.5714 8 0 -6.8571 8 0 -6.5 8 0 
-6.6786 8 0 -5.1429 8 0 -5.5 8 0 
-5.3214 8 0 -4.9643 8 0 -4.6071 8 0 
-4.25 8 0 -4.7857 8 0 -4.4286 8 0 
-4.0714 8 0 -3.8929 8 0 -3.7143 8 0 
-3.5357 8 0 -3.1786 8 0 -3.3571 8 0 
-3 8 0 -2.6429 8 0 -2.8214 8 0 
-2.2857 8 0 -2.4643 8 0 -2.1071 8 0 
-1.75 8 0 -1.2143 8 0 -1.5714 8 0 
-1.0357 8 0 -1.3929 8 0 -1.9286 8 0 
-0.5 8 0 -0.6786 8 0 -0.8571 8 0 
0.8571 8 0 0.6786 8 0 0.5 8 0 
1.5714 8 0 1.2143 8 0 1.75 8 0 
1.3929 8 0 1.0357 8 0 1.9286 8 0 
2.1071 8 0 2.2857 8 0 2.6429 8 0 
2.8214 8 0 2.4643 8 0 3.3571 8 0 
3.5357 8 0 3.7143 8 0 3.1786 8 0 
3.8929 8 0 3 8 0 4.7857 8 0 
4.4286 8 0 4.6071 8 0 4.25 8 0 
4.9643 8 0 4.0714 8 0 5.5 8 0 
5.3214 8 0 5.1429 8 0 6.5 8 0 
6.8571 8 0 6.6786 8 0 7.0357 8 0 
7.75 8 0 7.2143 8 0 7.5714 8 0 
7.9286 8 0 7.3929 8 0 8.1071 8 0 
8.2857 8 0 8.4643 8 0 8.8214 8 0 
8.6429 8 0 9 8 0 9 8 0 
15 8.4 0 15 8.8 0 15 8.6 0 
15 8.2 0 15 8 0 -15 9.6 0 
-15 9.4 0 -15 9 0 -15 9.8 0 
-15 9.2 0 15 9.2 0 15 9.6 0 
15 9.8 0 15 9 0 15 9.4 0 
-14.3333 10 0 -15 10.8 0 -15 10.4 0 
-14.6667 10 0 -15 10.2 0 -15 10 0 
-14.1667 10 0 -15 10.6 0 -14.8333 10 0 
-14.5 10 0 -14 10 0 -12.2 10 0 
-13 10 0 -12.6 10 0 -12.4 10 0 
-12.8 10 0 -11.2 10 0 -11.6 10 0 
-12 10 0 -11.4 10 0 -11.8 10 0 
-10.4 10 0 -11 10 0 -10.6 10 0 
-10.8 10 0 -10.2 10 0 -9.4 10 0 
-9.2 10 0 -9.6 10 0 -9.8 10 0 
-10 10 0 -9 10.2 0 -8.6429 10 0 
-9 10.6 0 -9 10.8 0 -8.4643 10 0 
-9 10.4 0 -9 10 0 -8.1071 10 0 
-8.2857 10 0 -8.8214 10 0 -7.75 10 0 
-7.2143 10 0 -7.9286 10 0 -7.5714 10 0 
-7.0357 10 0 -7.3929 10 0 -6.6786 10 0 
-6.5 10 0 -6.8571 10 0 -5.1429 10 0 
-5.3214 10 0 -5.5 10 0 -4.0714 10 0 
-4.9643 10 0 -4.6071 10 0 -4.4286 10 0 
-4.7857 10 0 -4.25 10 0 -3.5357 10 0 
-3.8929 10 0 -3.3571 10 0 -3.1786 10 0 
-3.7143 10 0 -2.4 10 0 -2.2 10 0 
-2.8 10 0 -3 10 0 -3 10.8 0 
-3 10.4 0 -3 10.2 0 -3 10.6 0 
-2.6 10 0 -1.8 10 0 -1.2 10 0 
-1.6 10 0 -2 10 0 -1.4 10 0 
-0.8 10 0 -1 10 0 -0.4 10 0 
-0.6 10 0 -0.2 10 0 0.2 10 0 
-0 10 0 0.6 10 0 0.4 10 0 
0.8 10 0 1 10 0 1.4 10 0 
1.6 10 0 1.2 10 0 1.8 10 0 
2.4 10 0 2.2 10 0 2.6 10 0 
2.8 10 0 2 10 0 3.4 10 0 
3.6 10 0 3.8 10 0 3 10 0 
3.2 10 0 4.2 10 0 4 10 0 
4.6 10 0 4.8 10 0 4.4 10 0 
5.4 10 0 5.8 10 0 5.6 10 0 
5 10 0 5.2 10 0 6.6 10 0 
6.2 10 0 6.4 10 0 6.8 10 0 
6 10 0 7.4 10 0 7.2 10 0 
7.8 10 0 7 10 0 7.6 10 0 
8.2 10 0 8.6 10 0 8.4 10 0 
8 10 0 8.8 10 0 9 10.4 0 
9.8 10 0 9 10.8 0 9.2 10 0 
9 10.2 0 9 10 0 9.6 10 0 
9.4 10 0 9 10.6 0 10 10 0 
10.2 10 0 10.4 10 0 10.6 10 0 
10.8 10 0 11.4 10 0 11.2 10 0 
11 10 0 11.8 10 0 11.6 10 0 
12 10 0 12.8 10 0 12.2 10 0 
12.4 10 0 12.6 10 0 13 10 0 
14.6667 10 0 14.3333 10 0 14.8333 10 0 
14.5 10 0 14 10 0 14.1667 10 0 
15 10.2 0 15 10.4 0 15 10.8 0 
15 10.6 0 15 10 0 -15 11.4 0 
-15 11.8 0 -15 11.2 0 -15 11.6 0 
-15 11 0 -9 11.4 0 -9 11.6 0 
-9 11 0 -9 11.2 0 -9 11.8 0 
-3 11 0 -3 11.4 0 -3 11.2 0 
-3 11.6 0 -3 11.8 0 9 11.8 0 
9 11.4 0 9 11.2 0 9 11 0 
9 11.6 0 15 11.4 0 15 11.2 0 
15 11.8 0 15 11 0 15 11.6 0 
-15 12 0 -15 12.6 0 -15 12.4 0 
-15 12.8 0 -15 12.2 0 -9 12 0 
-9 12.2 0 -9 12.4 0 -9 12.8 0 
-9 12.6 0 -3 12.8 0 -3 12.6 0 
-3 12.2 0 -3 12 0 -3 12.4 0 
9 12.6 0 9 12 0 9 12.2 0 
9 12.4 0 9 12.8 0 15 12.6 0 
15 12 0 15 12.4 0 15 12.2 0 
15 12.8 0 -15 13 0 -15 13.6 0 
-15 13.4 0 -15 13.2 0 -15 13.8 0 
-9 13.4 0 -9 13.2 0 -9 13.6 0 
-9 13 0 -9 13.8 0 -3 13.2 0 
-3 13.4 0 -3 13 0 -3 13.8 0 
-3 13.6 0 9 13.4 0 9 13.6 0 
9 13.2 0 9 13 0 9 13.8 0 
15 13 0 15 13.4 0 15 13.8 0 
15 13.2 0 15 13.6 0 -15 14 0 
-15 14.2 0 -15 14.6 0 -15 14.8 0 
-15 14.4 0 -9 14.4 0 -9 14.2 0 
-9 14 0 -9 14.8 0 -9 14.6 0 
-3 14.6 0 -3 14.8 0 -3 14.2 0 
-3 14 0 -3 14.4 0 9 14 0 
15 14.6 0 15 14 0 15 14.8 0 
15 14.4 0 15 14.2 0 -15 15 0 
-15 15.4 0 -15 15.8 0 -15 15.2 0 
-15 15.6 0 -9 15.4 0 -9 15.2 0 
-9 15 0 -9 15.8 0 -9 15.6 0 
-3 15.2 0 -3 15.8 0 -3 15.4 0 
-3 15 0 -3 15.6 0 9 15.1667 0 
9 15.3333 0 9 15 0 9 15.6667 0 
9 15.5 0 9 15.8333 0 15 15.8 0 
15 15 0 15 15.6 0 15 15.4 0 
15 15.2 0 -14.2 16 0 -14.8 16 0 
-15 16 0 -14.4 16 0 -14.6 16 0 
-13.2 16 0 -13.8 16 0 -14 16 0 
-13.6 16 0 -13.4 16 0 -12.4 16 0 
-13 16 0 -12.6 16 0 -12.2 16 0 
-12.8 16 0 -11.6 16 0 -11.8 16 0 
-11.4 16 0 -11.2 16 0 -12 16 0 
-11 16 0 -10.2 16 0 -10.6 16 0 
-10.4 16 0 -10.8 16 0 -10 16 0 
-9.2 16 0 -9.6 16 0 -9.4 16 0 
-9.8 16 0 -8.2 16 0 -8.4 16 0 
-9 16 0 -8.8 16 0 -8.6 16 0 
-8 16 0 -7.4 16 0 -7.2 16 0 
-7.6 16 0 -7.8 16 0 -6.8 16 0 
-6.2 16 0 -6.6 16 0 -7 16 0 
-6.4 16 0 -5.8 16 0 -5.6 16 0 
-5.2 16 0 -6 16 0 -5.4 16 0 
-5 16 0 -4.6 16 0 -4.2 16 0 
-4.4 16 0 -4.8 16 0 -4 16 0 
-3.4 16 0 -3.8 16 0 -3.6 16 0 
-3.2 16 0 -2.6 16 0 -2.2 16 0 
-3 16 0 -2.8 16 0 -2.4 16 0 
-1.4 16 0 -1.6 16 0 -1.8 16 0 
-1.2 16 0 -2 16 0 -1 16 0 
-0.2 16 0 -0.8 16 0 -0.4 16 0 
-0.6 16 0 0.4 16 0 -0 16 0 
0.6 16 0 0.8 16 0 0.2 16 0 
1.4 16 0 1.6 16 0 1.2 16 0 
1.8 16 0 1 16 0 2.8 16 0 
2 16 0 2.2 16 0 2.6 16 0 
2.4 16 0 3.4 16 0 3 16 0 
3.8 16 0 3.2 16 0 3.6 16 0 
4 16 0 4.2 16 0 4.4 16 0 
4.6 16 0 4.8 16 0 5.8 16 0 
5 16 0 5.4 16 0 5.2 16 0 
5.6 16 0 6.4 16 0 6.8 16 0 
6.6 16 0 6.2 16 0 6 16 0 
7.4 16 0 7 16 0 7.6 16 0 
7.8 16 0 7.2 16 0 8.6 16 0 
8.8 16 0 8 16 0 8.4 16 0 
8.2 16 0 9 16 0 9.2 16 0 
9.8 16 0 9.4 16 0 9.6 16 0 
10 16 0 10.2 16 0 10.4 16 0 
10.6 16 0 10.8 16 0 11.4 16 0 
11.8 16 0 11 16 0 11.6 16 0 
11.2 16 0 12.4 16 0 12.8 16 0 
12.6 16 0 12.2 16 0 12 16 0 
13.8 16 0 13.2 16 0 13.4 16 0 
13.6 16 0 13 16 0 14.8 16 0 
14 16 0 14.2 16 0 14.4 16 0 
14.6 16 0 15 16 0 
gid 1 1049 double
1 1 1 1 1 1 1 1 1 
1 1 1 1 1 1 1 1 1 
1 1 1 1 1 1 1 1 1 
1 1 1 1 1 1 1 1 1 
1 1 1 1 1 1 1 1 1 
1 1 1 1 1 1 1 1 1 
1 1 1 1 1 1 1 1 1 
1 1 1 1 1 1 1 1 1 
1 1 1 1 1 1 1 1 1 
1 1 1 1 1 1 1 1 1 
1 1 1 1 1 1 1 1 1 
1 1 1 1 1 1 1 1 1 
1 1 1 1 1 1 1 2 2 
2 2 2 2 2 2 2 2 2 
2 2 2 2 2 2 2 2 2 
2 2 2 2 2 2 2 2 2 
2 2 2 2 2 2 2 2 2 
2 2 2 2 2 2 2 2 2 
2 2 2 2 2 2 2 2 2 
2 2 2 2 2 2 2 2 2 
2 2 2 2 2 2 2 2 2 
2 2 2 2 2 2 2 2 2 
2 2 2 2 2 2 2 2 2 
2 2 2 2 2 2 2 2 2 
2 2 2 2 2 2 2 2 2 
2 2 2 2 2 2 2 2 2 
2 2 2 2 2 2 2 2 2 
2 2 2 2 2 2 2 2 2 
2 2 2 2 2 2 2 2 2 
2 2 2 2 2 2 1 2 2 
1 2 2 2 2 2 2 2 2 
2 2 2 2 2 2 2 2 2 
2 2 2 2 2 2 2 2 2 
2 2 2 2 2 2 2 2 2 
2 2 2 2 2 2 2 2 2 
1 2 2 2 2 2 2 2 2 
2 2 2 2 2 2 2 2 2 
2 2 2 2 2 2 2 2 2 
2 2 2 2 2 2 2 2 2 
2 2 2 2 2 2 2 2 2 
2 2 2 2 2 2 2 2 2 
2 2 2 2 2 2 2 1 2 
2 2 2 2 2 2 2 2 2 
2 2 2 2 2 2 2 2 2 
2 2 2 2 2 2 2 2 2 
2 2 1 2 2 2 2 2 2 
2 2 2 2 2 2 2 2 2 
2 2 2 2 2 2 2 2 2 
2 2 2 2 2 2 2 2 2 
2 2 2 2 2 2 2 2 2 
2 2 2 2 2 2 2 2 2 
2 2 2 2 2 2 2 2 2 
2 2 2 2 2 2 2 2 2 
2 2 2 2 2 2 2 2 2 
2 2 2 2 2 2 2 2 2 
2 2 2 2 2 2 2 2 2 
2 2 2 2 2 2 2 2 2 
2 2 2 2 2 2 2 2 2 
2 2 2 2 2 2 2 2 2 
2 2 2 2 2 2 2 2 2 
2 2 2 2 2 2 2 2 2 
2 2 2 2 2 2 2 2 2 
2 2 2 2 2 2 2 2 2 
2 2 2 2 2 2 2 2 2 
2 2 2 2 2 2 2 2 2 
2 2 2 2 2 2 2 2 2 
2 2 2 2 2 2 2 2 2 
2 2 2 2 2 2 2 2 2 
2 2 2 2 2 2 2 2 2 
2 2 2 2 2 2 2 2 2 
2 2 2 2 2 2 2 2 2 
2 2 2 2 2 2 2 2 2 
2 2 2 2 2 2 2 2 2 
2 2 2 2 2 2 2 2 2 
2 2 2 2 2 2 2 2 2 
2 2 2 2 2 2 2 2 2 
2 2 2 2 2 2 2 2 2 
2 2 2 2 2 2 2 2 2 
2 2 2 2 2 2 2 2 2 
2 2 2 2 2 2 2 2 2 
2 2 2 2 2 2 2 2 2 
2 2 2 2 2 2 2 2 2 
2 2 2 2 2 2 2 2 2 
2 2 2 2 2 2 2 2 2 
2 2 2 2 2 2 2 2 2 
2 2 2 2 2 2 2 2 2 
2 2 2 2 2 2 2 2 2 
2 2 2 2 2 2 2 2 2 
2 2 2 2 2 2 2 2 2 
2 2 2 2 2 2 2 2 2 
2 2 2 2 2 2 2 2 2 
2 2 2 2 2 2 2 2 2 
2 2 2 2 2 2 2 2 2 
2 2 2 2 2 2 2 2 2 
2 2 2 2 2 2 2 2 2 
2 2 2 2 2 2 2 2 2 
2 2 2 2 2 2 2 2 2 
2 2 2 2 2 2 2 2 2 
2 2 2 2 2 2 2 2 2 
2 2 2 2 2 2 2 2 2 
2 2 2 2 2 2 2 2 2 
2 2 2 2 2 2 2 2 2 
2 2 2 2 2 2 2 2 2 
2 2 2 2 2 2 2 2 2 
2 2 2 2 2 2 2 2 2 
2 2 2 2 2 2 2 2 2 
2 2 2 2 2 2 2 2 2 
2 2 2 2 2 2 2 2 2 
2 2 2 2 2 2 2 2 2 
2 2 2 2 2 2 2 2 2 
2 2 2 2 2 2 2 2 2 
2 2 2 2 2 2 2 2 2 
2 2 2 2 2 2 2 2 2 
2 2 2 2 2 2 2 2 2 
2 2 2 2 2 2 2 2 2 
2 2 2 2 2 2 2 2 2 
2 2 2 2 2 
A 1 1049 double
10 10 10 10 10 10 10 10 10 
10 10 10 10 10 10 10 10 10 
10 10 10 10 10 10 10 10 10 
10 10 10 10 10 10 10 10 10 
10 10 10 10 10 10 10 10 10 
10 10 10 10 10 10 10 10 10 
10 10 10 10 10 10 10 10 10 
10 10 10 10 10 10 10 10 10 
10 10 10 10 10 10 10 10 10 
10 10 10 10 10 10 10 10 10 
10 10 10 10 10 10 10 10 10 
10 10 10 10 10 10 10 10 10 
10 10 10 10 10 10 10 10 10 
10 10 10 10 10 10 10 10 10 
10 10 10 10 10 10 10 10 10 
10 10 10 10 10 10 10 10 10 
10 10 10 10 10 10 10 10 10 
10 10 10 10 10 10 10 10 10 
10 10 10 10 10 10 10 10 10 
10 10 10 10 10 10 10 10 10 
10 10 10 10 10 10 10 10 10 
10 10 10 10 10 10 10 10 10 
10 10 10 10 10 10 10 10 10 
10 10 10 10 10 10 10 10 10 
10 10 10 10 10 10 10 10 10 
10 10 10 10 10 10 10 10 10 
10 10 10 10 10 10 10 10 10 
10 10 10 10 10 10 10 10 10 
10 10 10 10 10 10 10 10 10 
10 10 10 10 10 10 10 10 10 
10 10 10 10 10 10 10 10 10 
10 10 10 10 10 10 10 10 10 
10 10 10 10 10 10 10 10 10 
10 10 10 10 10 10 10 10 10 
10 10 10 10 10 10 10 10 10 
10 10 10 10 10 10 10 10 10 
10 10 10 10 10 10 10 10 10 
10 10 10 10 10 10 10 10 10 
10 10 10 10 10 10 10 10 10 
10 10 10 10 10 10 10 10 10 
10 10 10 10 10 10 10 10 10 
10 10 10 10 10 10 10 10 10 
10 10 10 10 10 10 10 10 10 
10 10 10 10 10 10 10 10 10 
10 10 10 10 10 10 10 10 10 
10 10 10 10 10 10 10 10 10 
10 10 10 10 10 10 10 10 10 
10 10 10 10 10 10 10 10 10 
10 10 10 10 10 10 10 10 10 
10 10 10 10 10 10 10 10 10 
10 10 10 10 10 10 10 10 10 
10 10 10 10 10 10 10 10 10 
10 10 10 10 10 10 10 10 10 
10 10 10 10 10 10 10 10 10 
10 10 10 10 10 10 10 10 10 
10 10 10 10 10 10 10 10 10 
10 10 10 10 10 10 10 10 10 
10 10 10 10 10 10 10 10 10 
10 10 10 10 10 10 10 10 10 
10 10 10 10 10 10 10 10 10 
10 10 10 10 10 10 10 10 10 
10 10 10 10 10 10 10 10 10 
10 10 10 10 10 10 10 10 10 
10 10 10 10 10 10 10 10 10 
10 10 10 10 10 10 10 10 10 
10 10 10 10 10 10 10 10 10 
10 10 10 10 10 10 10 10 10 
10 10 10 10 10 10 10 10 10 
10 10 10 10 10 10 10 10 10 
10 10 10 10 10 10 10 10 10 
10 10 10 10 10 10 10 10 10 
10 10 10 10 10 10 10 10 10 
10 10 10 10 10 10 10 10 10 
10 10 10 10 10 10 10 10 10 
10 10 10 10 10 10 10 10 10 
10 10 10 10 10 10 10 10 10 
10 10 10 10 10 10 10 10 10 
10 10 10 10 10 10 10 10 10 
10 10 10 10 10 10 10 10 10 
10 10 10 10 10 10 10 10 10 
10 10 10 10 10 10 10 10 10 
10 10 10 10 10 10 10 10 10 
10 10 10 10 10 10 10 10 10 
10 10 10 10 10 10 10 10 10 
10 10 10 10 10 10 10 10 10 
10 10 10 10 10 10 10 10 10 
10 10 10 10 10 10 10 10 10 
10 10 10 10 10 10 10 10 10 
10 10 10 10 10 10 10 10 10 
10 10 10 10 10 10 10 10 10 
10 10 10 10 10 10 10 10 10 
10 10 10 10 10 10 10 10 10 
10 10 10 10 10 10 10 10 10 
10 10 10 10 10 10 10 10 10 
10 10 10 10 10 10 10 10 10 
10 10 10 10 10 10 10 10 10 
10 10 10 10 10 10 10 10 10 
10 10 10 10 10 10 10 10 10 
10 10 10 10 10 10 10 10 10 
10 10 10 10 10 10 10 10 10 
10 10 10 10 10 10 10 10 10 
10 10 10 10 10 10 10 10 10 
10 10 10 10 10 10 10 10 10 
10 10 10 10 10 10 10 10 10 
10 10 10 10 10 10 10 10 10 
10 10 10 10 10 10 10 10 10 
10 10 10 10 10 10 10 10 10 
10 10 10 10 10 10 10 10 10 
10 10 10 10 10 10 10 10 10 
10 10 10 10 10 10 10 10 10 
10 10 10 10 10 10 10 10 10 
10 10 10 10 10 10 10 10 10 
10 10 10 10 10 10 10 10 10 
10 10 10 10 10 10 10 10 10 
10 10 10 10 10 10 10 10 10 
10 10 10 10 10 10 10 10 10 
10 10 10 10 10 
B 1 1049 double
0.2 0.2 0.2 0.2 0.2 0.2 0.2 0.2 0.2 
0.2 0.2 0.2 0.2 0.2 0.2 0.2 0.2 0.2 
0.2 0.2 0.2 0.2 0.2 0.2 0.2 0.2 0.2 
0.2 0.2 0.2 0.2 0.2 0.2 0.2 0.2 0.2 
0.2 0.2 0.2 0.2 0.2 0.2 0.2 0.2 0.2 
0.2 0.2 0.2 0.2 0.2 0.2 0.2 0.2 0.2 
0.2 0.2 0.2 0.2 0.2 0.2 0.2 0.2 0.2 
0.2 0.2 0.2 0.2 0.2 0.2 0.2 0.2 0.2 
0.2 0.2 0.2 0.2 0.2 0.2 0.2 0.2 0.2 
0.2 0.2 0.2 0.2 0.2 0.2 0.2 0.2 0.2 
0.2 0.2 0.2 0.2 0.2 0.2 0.2 0.2 0.2 
0.2 0.2 0.2 0.2 0.2 0.2 0.2 0.2 0.2 
0.2 0.2 0.2 0.2 0.2 0.2 0.2 0.2 0.2 
0.2 0.2 0.2 0.2 0.2 0.2 0.2 0.2 0.2 
0.2 0.2 0.2 0.2 0.2 0.2 0.2 0.2 0.2 
0.2 0.2 0.2 0.2 0.2 0.2 0.2 0.2 0.2 
0.2 0.2 0.2 0.2 0.2 0.2 0.2 0.2 0.2 
0.2 0.2 0.2 0.2 0.2 0.2 0.2 0.2 0.2 
0.2 0.2 0.2 0.2 0.2 0.2 0.2 0.2 0.2 
0.2 0.2 0.2 0.2 0.2 0.2 0.2 0.2 0.2 
0.2 0.2 0.2 0.2 0.2 0.2 0.2 0.2 0.2 
0.2 0.2 0.2 0.2 0.2 0.2 0.2 0.2 0.2 
0.2 0.2 0.2 0.2 0.2 0.2 0.2 0.2 0.2 
0.2 0.2 0.2 0.2 0.2 0.2 0.2 0.2 0.2 
0.2 0.2 0.2 0.2 0.2 0.2 0.2 0.2 0.2 
0.2 0.2 0.2 0.2 0.2 0.2 0.2 0.2 0.2 
0.2 0.2 0.2 0.2 0.2 0.2 0.2 0.2 0.2 
0.2 0.2 0.2 0.2 0.2 0.2 0.2 0.2 0.2 
0.2 0.2 0.2 0.2 0.2 0.2 0.2 0.2 0.2 
0.2 0.2 0.2 0.2 0.2 0.2 0.2 0.2 0.2 
0.2 0.2 0.2 0.2 0.2 0.2 0.2 0.2 0.2 
0.2 0.2 0.2 0.2 0.2 0.2 0.2 0.2 0.2 
0.2 0.2 0.2 0.2 0.2 0.2 0.2 0.2 0.2 
0.2 0.2 0.2 0.2 0.2 0.2 0.2 0.2 0.2 
0.2 0.2 0.2 0.2 0.2 0.2 0.2 0.2 0.2 
0.2 0.2 0.2 0.2 0.2 0.2 0.2 0.2 0.2 
0.2 0.2 0.2 0.2 0.2 0.2 0.2 0.2 0.2 
0.2 0.2 0.2 0.2 0.2 0.2 0.2 0.2 0.2 
0.2 0.2 0.2 0.2 0.2 0.2 0.2 0.2 0.2 
0.2 0.2 0.2 0.2 0.2 0.2 0.2 0.2 0.2 
0.2 0.2 0.2 0.2 0.2 0.2 0.2 0.2 0.2 
0.2 0.2 0.2 0.2 0.2 0.2 0.2 0.2 0.2 
0.2 0.2 0.2 0.2 0.2 0.2 0.2 0.2 0.2 
0.2 0.2 0.2 0.2 0.2 0.2 0.2 0.2 0.2 
0.2 0.2 0.2 0.2 0.2 0.2 0.2 0.2 0.2 
0.2 0.2 0.2 0.2 0.2 0.2 0.2 0.2 0.2 
0.2 0.2 0.2 0.2 0.2 0.2 0.2 0.2 0.2 
0.2 0.2 0.2 0.2 0.2 0.2 0.2 0.2 0.2 
0.2 0.2 0.2 0.2 0.2 0.2 0.2 0.2 0.2 
0.2 0.2 0.2 0.2 0.2 0.2 0.2 0.2 0.2 
0.2 0.2 0.2 0.2 0.2 0.2 0.2 0.2 0.2 
0.2 0.2 0.2 0.2 0.2 0.2 0.2 0.2 0.2 
0.2 0.2 0.2 0.2 0.2 0.2 0.2 0.2 0.2 
0.2 0.2 0.2 0.2 0.2 0.2 0.2 0.2 0.2 
0.2 0.2 0.2 0.2 0.2 0.2 0.2 0.2 0.2 
0.2 0.2 0.2 0.2 0.2 0.2 0.2 0.2 0.2 
0.2 0.2 0.2 0.2 0.2 0.2 0.2 0.2 0.2 
0.2 0.2 0.2 0.2 0.2 0.2 0.2 0.2 0.2 
0.2 0.2 0.2 0.2 0.2 0.2 0.2 0.2 0.2 
0.2 0.2 0.2 0.2 0.2 0.2 0.2 0.2 0.2 
0.2 0.2 0.2 0.2 0.2 0.2 0.2 0.2 0.2 
0.2 0.2 0.2 0.2 0.2 0.2 0.2 0.2 0.2 
0.2 0.2 0.2 0.2 0.2 0.2 0.2 0.2 0.2 
0.2 0.2 0.2 0.2 0.2 0.2 0.2 0.2 0.2 
0.2 0.2 0.2 0.2 0.2 0.2 0.2 0.2 0.2 
0.2 0.2 0.2 0.2 0.2 0.2 0.2 0.2 0.2 
0.2 0.2 0.2 0.2 0.2 0.2 0.2 0.2 0.2 
0.2 0.2 0.2 0.2 0.2 0.2 0.2 0.2 0.2 
0.2 0.2 0.2 0.2 0.2 0.2 0.2 0.2 0.2 
0.2 0.2 0.2 0.2 0.2 0.2 0.2 0.2 0.2 
0.2 0.2 0.2 0.2 0.2 0.2 0.2 0.2 0.2 
0.2 0.2 0.2 0.2 0.2 0.2 0.2 0.2 0.2 
0.2 0.2 0.2 0.2 0.2 0.2 0.2 0.2 0.2 
0.2 0.2 0.2 0.2 0.2 0.2 0.2 0.2 0.2 
0.2 0.2 0.2 0.2 0.2 0.2 0.2 0.2 0.2 
0.2 0.2 0.2 0.2 0.2 0.2 0.2 0.2 0.2 
0.2 0.2 0.2 0.2 0.2 0.2 0.2 0.2 0.2 
0.2 0.2 0.2 0.2 0.2 0.2 0.2 0.2 0.2 
0.2 0.2 0.2 0.2 0.2 0.2 0.2 0.2 0.2 
0.2 0.2 0.2 0.2 0.2 0.2 0.2 0.2 0.2 
0.2 0.2 0.2 0.2 0.2 0.2 0.2 0.2 0.2 
0.2 0.2 0.2 0.2 0.2 0.2 0.2 0.2 0.2 
0.2 0.2 0.2 0.2 0.2 0.2 0.2 0.2 0.2 
0.2 0.2 0.2 0.2 0.2 0.2 0.2 0.2 0.2 
0.2 0.2 0.2 0.2 0.2 0.2 0.2 0.2 0.2 
0.2 0.2 0.2 0.2 0.2 0.2 0.2 0.2 0.2 
0.2 0.2 0.2 0.2 0.2 0.2 0.2 0.2 0.2 
0.2 0.2 0.2 0.2 0.2 0.2 0.2 0.2 0.2 
0.2 0.2 0.2 0.2 0.2 0.2 0.2 0.2 0.2 
0.2 0.2 0.2 0.2 0.2 0.2 0.2 0.2 0.2 
0.2 0.2 0.2 0.2 0.2 0.2 0.2 0.2 0.2 
0.2 0.2 0.2 0.2 0.2 0.2 0.2 0.2 0.2 
0.2 0.2 0.2 0.2 0.2 0.2 0.2 0.2 0.2 
0.2 0.2 0.2 0.2 0.2 0.2 0.2 0.2 0.2 
0.2 0.2 0.2 0.2 0.2 0.2 0.2 0.2 0.2 
0.2 0.2 0.2 0.2 0.2 0.2 0.2 0.2 0.2 
0.2 0.2 0.2 0.2 0.2 0.2 0.2 0.2 0.2 
0.2 0.2 0.2 0.2 0.2 0.2 0.2 0.2 0.2 
0.2 0.2 0.2 0.2 0.2 0.2 0.2 0.2 0.2 
0.2 0.2 0.2 0.2 0.2 0.2 0.2 0.2 0.2 
0.2 0.2 0.2 0.2 0.2 0.2 0.2 0.2 0.2 
0.2 0.2 0.2 0.2 0.2 0.2 0.2 0.2 0.2 
0.2 0.2 0.2 0.2 0.2 0.2 0.2 0.2 0.2 
0.2 0.2 0.2 0.2 0.2 0.2 0.2 0.2 0.2 
0.2 0.2 0.2 0.2 0.2 0.2 0.2 0.2 0.2 
0.2 0.2 0.2 0.2 0.2 0.2 0.2 0.2 0.2 
0.2 0.2 0.2 0.2 0.2 0.2 0.2 0.2 0.2 
0.2 0.2 0.2 0.2 0.2 0.2 0.2 0.2 0.2 
0.2 0.2 0.2 0.2 0.2 0.2 0.2 0.2 0.2 
0.2 0.2 0.2 0.2 0.2 0.2 0.2 0.2 0.2 
0.2 0.2 0.2 0.2 0.2 0.2 0.2 0.2 0.2 
0.2 0.2 0.2 0.2 0.2 0.2 0.2 0.2 0.2 
0.2 0.2 0.2 0.2 0.2 0.2 0.2 0.2 0.2 
0.2 0.2 0.2 0.2 0.2 0.2 0.2 0.2 0.2 
0.2 0.2 0.2 0.2 0.2 0.2 0.2 0.2 0.2 
0.2 0.2 0.2 0.2 0.2 0.2 0.2 0.2 0.2 
0.2 0.2 0.2 0.2 0.2 
c 1 1049 double
0.1 0.1 0.1 0.1 0.1 0.1 0.1 0.1 0.1 
0.1 0.1 0.1 0.1 0.1 0.1 0.1 0.1 0.1 
0.1 0.1 0.1 0.1 0.1 0.1 0.1 0.1 0.1 
0.1 0.1 0.1 0.1 0.1 0.1 0.1 0.1 0.1 
0.1 0.1 0.1 0.1 0.1 0.1 0.1 0.1 0.1 
0.1 0.1 0.1 0.1 0.1 0.1 0.1 0.1 0.1 
0.1 0.1 0.1 0.1 0.1 0.1 0.1 0.1 0.1 
0.1 0.1 0.1 0.1 0.1 0.1 0.1 0.1 0.1 
0.1 0.1 0.1 0.1 0.1 0.1 0.1 0.1 0.1 
0.1 0.1 0.1 0.1 0.1 0.1 0.1 0.1 0.1 
0.1 0.1 0.1 0.1 0.1 0.1 0.1 0.1 0.1 
0.1 0.1 0.1 0.1 0.1 0.1 0.1 0.1 0.1 
0.1 0.1 0.1 0.1 0.1 0.1 0.1 0.1 0.1 
0.1 0.1 0.1 0.1 0.1 0.1 0.1 0.1 0.1 
0.1 0.1 0.1 0.1 0.1 0.1 0.1 0.1 0.1 
0.1 0.1 0.1 0.1 0.1 0.1 0.1 0.1 0.1 
0.1 0.1 0.1 0.1 0.1 0.1 0.1 0.1 0.1 
0.1 0.1 0.1 0.1 0.1 0.1 0.1 0.1 0.1 
0.1 0.1 0.1 0.1 0.1 0.1 0.1 0.1 0.1 
0.1 0.1 0.1 0.1 0.1 0.1 0.1 0.1 0.1 
0.1 0.1 0.1 0.1 0.1 0.1 0.1 0.1 0.1 
0.1 0.1 0.1 0.1 0.1 0.1 0.1 0.1 0.1 
0.1 0.1 0.1 0.1 0.1 0.1 0.1 0.1 0.1 
0.1 0.1 0.1 0.1 0.1 0.1 0.1 0.1 0.1 
0.1 0.1 0.1 0.1 0.1 0.1 0.1 0.1 0.1 
0.1 0.1 0.1 0.1 0.1 0.1 0.1 0.1 0.1 
0.1 0.1 0.1 0.1 0.1 0.1 0.1 0.1 0.1 
0.1 0.1 0.1 0.1 0.1 0.1 0.1 0.1 0.1 
0.1 0.1 0.1 0.1 0.1 0.1 0.1 0.1 0.1 
0.1 0.1 0.1 0.1 0.1 0.1 0.1 0.1 0.1 
0.1 0.1 0.1 0.1 0.1 0.1 0.1 0.1 0.1 
0.1 0.1 0.1 0.1 0.1 0.1 0.1 0.1 0.1 
0.1 0.1 0.1 0.1 0.1 0.1 0.1 0.1 0.1 
0.1 0.1 0.1 0.1 0.1 0.1 0.1 0.1 0.1 
0.1 0.1 0.1 0.1 0.1 0.1 0.1 0.1 0.1 
0.1 0.1 0.1 0.1 0.1 0.1 0.1 0.1 0.1 
0.1 0.1 0.1 0.1 0.1 0.1 0.1 0.1 0.1 
0.1 0.1 0.1 0.1 0.1 0.1 0.1 0.1 0.1 
0.1 0.1 0.1 0.1 0.1 0.1 0.1 0.1 0.1 
0.1 0.1 0.1 0.1 0.1 0.1 0.1 0.1 0.1 
0.1 0.1 0.1 0.1 0.1 0.1 0.1 0.1 0.1 
0.1 0.1 0.1 0.1 0.1 0.1 0.1 0.1 0.1 
0.1 0.1 0.1 0.1 0.1 0.1 0.1 0.1 0.1 
0.1 0.1 0.1 0.1 0.1 0.1 0.1 0.1 0.1 
0.1 0.1 0.1 0.1 0.1 0.1 0.1 0.1 0.1 
0.1 0.1 0.1 0.1 0.1 0.1 0.1 0.1 0.1 
0.1 0.1 0.1 0.1 0.1 0.1 0.1 0.1 0.1 
0.1 0.1 0.1 0.1 0.1 0.1 0.1 0.1 0.1 
0.1 0.1 0.1 0.1 0.1 0.1 0.1 0.1 0.1 
0.1 0.1 0.1 0.1 0.1 0.1 0.1 0.1 0.1 
0.1 0.1 0.1 0.1 0.1 0.1 0.1 0.1 0.1 
0.1 0.1 0.1 0.1 0.1 0.1 0.1 0.1 0.1 
0.1 0.1 0.1 0.1 0.1 0.1 0.1 0.1 0.1 
0.1 0.1 0.1 0.1 0.1 0.1 0.1 0.1 0.1 
0.1 0.1 0.1 0.1 0.1 0.1 0.1 0.1 0.1 
0.1 0.1 0.1 0.1 0.1 0.1 0.1 0.1 0.1 
0.1 0.1 0.1 0.1 0.1 0.1 0.1 0.1 0.1 
0.1 0.1 0.1 0.1 0.1 0.1 0.1 0.1 0.1 
0.1 0.1 0.1 0.1 0.1 0.1 0.1 0.1 0.1 
0.1 0.1 0.1 0.1 0.1 0.1 0.1 0.1 0.1 
0.1 0.1 0.1 0.1 0.1 0.1 0.1 0.1 0.1 
0.1 0.1 0.1 0.1 0.1 0.1 0.1 0.1 0.1 
0.1 0.1 0.1 0.1 0.1 0.1 0.1 0.1 0.1 
0.1 0.1 0.1 0.1 0.1 0.1 0.1 0.1 0.1 
0.1 0.1 0.1 0.1 0.1 0.1 0.1 0.1 0.1 
0.1 0.1 0.1 0.1 0.1 0.1 0.1 0.1 0.1 
0.1 0.1 0.1 0.1 0.1 0.1 0.1 0.1 0.1 
0.1 0.1 0.1 0.1 0.1 0.1 0.1 0.1 0.1 
0.1 0.1 0.1 0.1 0.1 0.1 0.1 0.1 0.1 
0.1 0.1 0.1 0.1 0.1 0.1 0.1 0.1 0.1 
0.1 0.1 0.1 0.1 0.1 0.1 0.1 0.1 0.1 
0.1 0.1 0.1 0.1 0.1 0.1 0.1 0.1 0.1 
0.1 0.1 0.1 0.1 0.1 0.1 0.1 0.1 0.1 
0.1 0.1 0.1 0.1 0.1 0.1 0.1 0.1 0.1 
0.1 0.1 0.1 0.1 0.1 0.1 0.1 0.1 0.1 
0.1 0.1 0.1 0.1 0.1 0.1 0.1 0.1 0.1 
0.1 0.1 0.1 0.1 0.1 0.1 0.1 0.1 0.1 
0.1 0.1 0.1 0.1 0.1 0.1 0.1 0.1 0.1 
0.1 0.1 0.1 0.1 0.1 0.1 0.1 0.1 0.1 
0.1 0.1 0.1 0.1 0.1 0.1 0.1 0.1 0.1 
0.1 0.1 0.1 0.1 0.1 0.1 0.1 0.1 0.1 
0.1 0.1 0.1 0.1 0.1 0.1 0.1 0.1 0.1 
0.1 0.1 0.1 0.1 0.1 0.1 0.1 0.1 0.1 
0.1 0.1 0.1 0.1 0.1 0.1 0.1 0.1 0.1 
0.1 0.1 0.1 0.1 0.1 0.1 0.1 0.1 0.1 
0.1 0.1 0.1 0.1 0.1 0.1 0.1 0.1 0.1 
0.1 0.1 0.1 0.1 0.1 0.1 0.1 0.1 0.1 
0.1 0.1 0.1 0.1 0.1 0.1 0.1 0.1 0.1 
0.1 0.1 0.1 0.1 0.1 0.1 0.1 0.1 0.1 
0.1 0.1 0.1 0.1 0.1 0.1 0.1 0.1 0.1 
0.1 0.1 0.1 0.1 0.1 0.1 0.1 0.1 0.1 
0.1 0.1 0.1 0.1 0.1 0.1 0.1 0.1 0.1 
0.1 0.1 0.1 0.1 0.1 0.1 0.1 0.1 0.1 
0.1 0.1 0.1 0.1 0.1 0.1 0.1 0.1 0.1 
0.1 0.1 0.1 0.1 0.1 0.1 0.1 0.1 0.1 
0.1 0.1 0.1 0.1 0.1 0.1 0.1 0.1 0.1 
0.1 0.1 0.1 0.1 0.1 0.1 0.1 0.1 0.1 
0.1 0.1 0.1 0.1 0.1 0.1 0.1 0.1 0.1 
0.1 0.1 0.1 0.1 0.1 0.1 0.1 0.1 0.1 
0.1 0.1 0.1 0.1 0.1 0.1 0.1 0.1 0.1 
0.1 0.1 0.1 0.1 0.1 0.1 0.1 0.1 0.1 
0.1 0.1 0.1 0.1 0.1 0.1 0.1 0.1 0.1 
0.1 0.1 0.1 0.1 0.1 0.1 0.1 0.1 0.1 
0.1 0.1 0.1 0.1 0.1 0.1 0.1 0.1 0.1 
0.1 0.1 0.1 0.1 0.1 0.1 0.1 0.1 0.1 
0.1 0.1 0.1 0.1 0.1 0.1 0.1 0.1 0.1 
0.1 0.1 0.1 0.1 0.1 0.1 0.1 0.1 0.1 
0.1 0.1 0.1 0.1 0.1 0.1 0.1 0.1 0.1 
0.1 0.1 0.1 0.1 0.1 0.1 0.1 0.1 0.1 
0.1 0.1 0.1 0.1 0.1 0.1 0.1 0.1 0.1 
0.1 0.1 0.1 0.1 0.1 0.1 0.1 0.1 0.1 
0.1 0.1 0.1 0.1 0.1 0.1 0.1 0.1 0.1 
0.1 0.1 0.1 0.1 0.1 0.1 0.1 0.1 0.1 
0.1 0.1 0.1 0.1 0.1 0.1 0.1 0.1 0.1 
0.1 0.1 0.1 0.1 0.1 0.1 0.1 0.1 0.1 
0.1 0.1 0.1 0.1 0.1 0.1 0.1 0.1 0.1 
0.1 0.1 0.1 0.1 0.1 
m 1 1049 double
69.85 83.88 97.585 61.625 94.295 76.33 56.755 84.655 91.315 
65.745 75.77 91.415 53.195 89.775 53.87 56.77 76.76 62.64 
92.105 90.795 84.935 93.885 65.975 88.61 63.205 91.99 56.49 
95.485 62.455 79.28 90.92 60.985 75.995 73.95 80.435 91.91 
51.54 88.325 97.965 84.075 92.83 98.36 65.415 54.265 99.255 
77.105 62.775 95.63 82.91 95.075 54.64 71.55 79.025 69.45 
86.39 80.635 58.805 50.185 57.705 85.085 64.785 75 73.465 
52.64 58.915 53.285 59.26 82.95 51.995 63.675 77.555 94.14 
81.085 65.86 81.82 54.985 83.255 60.355 65.345 64.86 61.75 
50.495 71.125 93.285 68.31 61.965 92.885 72.85 54.44 83.05 
59.25 69.135 67.685 54.55 83.105 50.04 55.865 86.67 77.41 
62.195 59.44 96.67 86.4 86.805 94.88 88.58 56.345 91.705 
67.14 67.185 54.355 74.925 82.53 72.76 93.81 96.915 72.105 
90.21 71.295 59.805 63.77 81.145 86.865 56.63 74.595 75.99 
92.685 91.575 71.85 68.92 71.62 82.065 67.63 54.43 80.455 
94.9 63.885 95.85 86.405 84.31 59.365 84.98 99.78 54.625 
81.635 51.68 85.42 61.525 67.53 84.575 58.645 56.565 91.01 
66.01 54.23 94.72 82.525 97.91 52.725 80.62 79.285 69.475 
94.07 77.17 66.835 70.215 51.82 68.75 84.04 86.38 55.435 
85.89 77.015 63.77 67.92 63.255 78.94 99.66 66.84 75.3 
98.38 61.995 88.695 88.965 91.95 92.93 50.06 64.145 81.13 
76.7 58.41 90.47 52.85 53.975 57.17 87.695 83.005 51.89 
64.51 50.485 87.335 66.585 83.26 52.46 53.78 86.505 51.4 
69.325 97.205 71.43 98.445 92.2 90.155 73.645 83.095 92.22 
78.855 77.165 91.675 94.935 91.69 89.44 72.405 90.585 90.485 
89.28 72.835 94.635 53.545 53.375 61.765 72.93 76.53 84.825 
97.485 81.095 64.355 93.12 73.415 57.64 78.66 97.515 91.35 
94.145 50.095 66.84 81.7 83.575 90.745 98.54 67.295 68.09 
63.09 55.5 61.225 76.93 53.615 78.645 88.98 64.23 67.255 
64.605 67.775 88.82 61.895 87.44 52.46 96.84 91.14 99.205 
82.225 75.965 83.245 61.75 74.57 57.5 84.935 85.17 50.62 
88.82 82.455 61.135 79.28 91.825 68.715 62.755 57.105 99.295 
57.16 59.68 97.835 53.065 62.52 66.025 88.105 83.92 60.105 
64.21 97.64 54.34 65.72 78.975 53.715 61.46 89.94 88.205 
81.775 83.1 80.945 61.37 56.94 90.125 65.37 97.19 56.165 
94.77 66.375 77.035 57.37 82.185 96.14 59.965 59.3 77.895 
90.71 79.42 99.54 99.79 94.36 75.945 52.49 84.745 76.19 
76.835 51.445 89.855 72.06 98.05 50.45 97.395 94.845 68.405 
67.465 51.35 90.785 51.79 80.605 56.185 80.145 71.975 94.29 
73.845 76.365 86.275 94.25 58.88 88.765 66.515 94.04 81.24 
90.18 64.5 76.715 81.675 65.885 82.145 67.56 91.775 96.07 
56.56 59.43 91.815 59.195 77.845 53.495 67.085 54.76 68.965 
80.715 91.175 79.09 72.14 88.66 90.02 55.775 51.895 79.97 
98.77 60.665 64.45 66.665 58.24 78.145 91.425 54.82 52.52 
50.245 98.155 93.135 54.285 92.965 95.4 82.155 93.97 65.865 
99.235 63.11 92.06 62.02 55.055 79.64 97.645 93.88 91.045 
92.905 62.95 94.095 96.68 72.5 87.835 97.645 51.84 58.73 
60.67 61.075 80.635 71.695 58.46 63.235 84.85 95.255 94.73 
61.45 96.95 71.46 78.955 87.31 83.41 73.065 72.215 93.03 
72.69 78.815 80.95 52.62 53.565 61.49 69.49 84.95 81.245 
98.985 68.94 90.23 80.795 88.235 62.675 75.755 92.69 67.645 
77.89 74.58 74.97 82.76 75.285 75.575 80.785 92.87 57.605 
75.64 74.09 53.44 84.2 64.52 80.21 96.495 76.925 83.2 
56.11 66.515 51.265 62.485 76.815 65.165 52.14 60.01 53.405 
82.015 72.5 63.63 81.56 86.93 71.73 75.5 57.455 75.105 
59.735 64.755 96.155 89.585 84.98 66.62 99.585 86.845 59.86 
88.125 96.46 69.25 88.36 69.98 55.76 61.81 88.43 74.46 
95.625 95.94 77.18 68.645 62.3 79.875 95.785 67.07 50.135 
69.605 81.52 93.45 52.3 50.14 90.25 87.78 90.135 83.74 
94.51 73.97 88.485 93.495 55.195 55.215 50.295 52.845 67.705 
71.16 69.13 61.305 51.8 83.805 95.585 50.405 90.115 80.21 
88.815 65.95 81.545 94.98 77.125 69.63 53.45 73.385 58.13 
71.17 81.835 72.62 80.285 98.07 91.025 51.79 65.84 88.85 
86.42 84.28 72.83 52.085 52.7 86.025 79.245 51.185 61.3 
65.295 53.03 67.13 92.59 76.085 95.86 53.915 74.725 84.365 
71.445 92.29 88.185 52.415 54.365 83.035 52.39 63.785 72.355 
96.57 78.68 65.345 60.915 77.495 92.45 97.35 88.715 56.98 
70.405 50.42 86.345 78.15 83.625 77.95 87.525 98.86 78.22 
87.8 83.29 96.12 69.75 62.11 76.055 89.09 69.6 50.635 
76.18 76.84 56.22 62.835 52.815 50.245 75.525 86.875 99.67 
93.555 66.455 59.025 68.84 94.775 67.945 68.07 94.965 74.11 
84.91 84.41 64.025 74.59 83.585 54.625 65.465 57.87 96.455 
70.15 82.145 70.09 83.55 81.64 84.18 85.45 86.085 84.815 
69.29 75.275 74.52 56.965 90.65 63.305 92.855 92.28 84.255 
98.165 73.945 65.365 98.425 63.02 89.34 99.025 82.515 97.425 
96.25 73.195 64.745 95.03 78.91 67.58 55.405 76.625 87.58 
60.975 54.835 88.385 51.13 55.6 83.815 69.905 52.98 87.8 
54.325 95.18 88.85 89.775 96.055 67.59 81.71 62.66 61.895 
86.605 75.98 91.35 72.135 70.86 71.17 60.2 74.92 86.99 
79.15 55.315 86.415 50.36 84.75 51.735 52.865 68.57 60.15 
70.235 75.41 84.62 80.295 87.61 64.77 56.16 96.02 52.215 
97.175 78.2 77.43 95.795 59.49 71.39 96.31 55.205 98.415 
51.31 99.24 83.64 95.61 78.985 58.615 69.795 90.835 81.36 
91.62 64.03 70.77 86.675 79.105 87.285 96.825 58.88 55.855 
63.735 76.09 51.345 93.505 54.535 58.515 73.265 99.665 57.65 
68.7 70.15 52.685 75.27 64.31 70.49 90.695 64.77 88.345 
98.93 75.615 55.635 58.525 95.75 81.14 79.92 57.43 51.265 
50.63 82.965 52.715 65.01 80.695 61.155 58.98 77.02 63.49 
56.54 85.42 93.6 76.67 92.32 92.71 97.535 90.41 50.985 
78.335 79.695 99.055 99.52 69.7 65.37 89.07 73.565 91.885 
90.895 69.85 95.105 72.9 61.69 96.09 63.575 54.955 81.88 
94.49 55.26 93.055 96.775 81.74 94.02 68.11 88.605 56.275 
74.095 72.995 76.605 85.44 78.875 64.595 73.81 78.55 74.06 
76.895 99.31 63.425 74.885 57.795 62.53 90.945 75.855 70.05 
89.14 86.715 77.84 96.495 78.73 86.86 88.565 91.03 87.935 
96.505 55.085 51.47 83.66 51.175 51.73 67.415 96.035 99.52 
57.68 70.88 65.675 69.05 71.7 88.025 66.555 77.11 81.71 
61.68 58.295 76.05 60.045 75.765 78.455 55.685 62.865 69.715 
74.285 99.555 98.72 98.795 67.495 55.68 56.8 70.335 88.215 
98.09 51.685 56.525 59.005 74.39 68.65 78.305 84.435 60.86 
69.645 97.06 66.74 95.535 95.895 92.09 98.78 87.225 88.42 
79.68 66.88 60.45 77.71 82.33 75.42 64.63 55.475 56.7 
85.95 64.795 64.065 68.865 98.34 64.98 50.815 89.905 85.995 
94.495 74.65 94.665 99.01 93.3 79.47 69.405 50.355 87.34 
54.865 85.655 96.895 60.18 59.495 77.75 67.26 78.12 60.31 
64.62 63 88.185 66.29 67.08 67.325 83.54 91.41 92.61 
93.68 93.13 97.22 96.6 91.12 82.695 70.11 95.08 65.545 
75.265 90.545 66.89 75.405 50 95.57 90.335 56.69 97.13 
79.945 83.935 75.735 61.155 82.66 76.115 69.375 74.25 56.405 
50.895 60.61 69.065 82.95 61.27 55.655 76.75 95.905 89.285 
73.015 57.47 80.405 78.6 62.165 89.91 50.905 87.435 93.61 
97.075 94.125 96.48 77.02 51.485 95.67 50.16 52.755 84.46 
52.075 65.905 85.285 98.54 92.53 61.485 87.415 52.975 59.81 
99.995 75.055 78.88 56.545 50.77 94.885 62.935 99.66 66.91 
75.105 71.33 68.41 88.425 67.815 96.055 94.3 54.65 72.915 
79.95 71.425 95.43 59.46 57.38 70.58 79.1 86.57 87.45 
87.625 77.64 94.195 87.625 65.29 
p0 3 1049 double
0 -10 0 0 -10 0 0 -10 0 
0 -10 0 0 -10 0 0 -10 0 
0 -10 0 0 -10 0 0 -10 0 
0 -10 0 0 -10 0 0 -10 0 
0 -10 0 0 -10 0 0 -10 0 
0 -10 0 0 -10 0 0 -10 0 
0 -10 0 0 -10 0 0 -10 0 
0 -10 0 0 -10 0 0 -10 0 
0 -10 0 0 -10 0 0 -10 0 
0 -10 0 0 -10 0 0 -10 0 
0 -10 0 0 -10 0 0 -10 0 
0 -10 0 0 -10 0 0 -10 0 
0 -10 0 0 -10 0 0 -10 0 
0 -10 0 0 -10 0 0 -10 0 
0 -10 0 0 -10 0 0 -10 0 
0 -10 0 0 -10 0 0 -10 0 
0 -10 0 0 -10 0 0 -10 0 
0 -10 0 0 -10 0 0 -10 0 
0 -10 0 0 -10 0 0 -10 0 
0 -10 0 0 -10 0 0 -10 0 
0 -10 0 0 -10 0 0 -10 0 
0 -10 0 0 -10 0 0 -10 0 
0 -10 0 0 -10 0 0 -10 0 
0 -10 0 0 -10 0 0 -10 0 
0 -10 0 0 -10 0 0 -10 0 
0 -10 0 0 -10 0 0 -10 0 
0 -10 0 0 -10 0 0 -10 0 
0 -10 0 0 -10 0 0 -10 0 
0 -10 0 0 -10 0 0 -10 0 
0 -10 0 0 -10 0 0 -10 0 
0 -10 0 0 -10 0 0 -10 0 
0 -10 0 0 -10 0 0 -10 0 
0 -10 0 0 -10 0 0 -10 0 
0 -10 0 0 -10 0 0 -10 0 
0 -10 0 0 -10 0 0 -10 0 
0 -10 0 0 -10 0 0 -10 0 
0 -10 0 0 -10 0 0 -10 0 
0 -10 0 0 -10 0 0 -10 0 
0 -10 0 0 0 0 0 0 0 
0 0 0 0 0 0 0 0 0 
0 0 0 0 0 0 0 0 0 
0 0 0 0 0 0 0 0 0 
0 0 0 0 0 0 0 0 0 
0 0 0 0 0 0 0 0 0 
0 0 0 0 0 0 0 0 0 
0 0 0 0 0 0 0 0 0 
0 0 0 0 0 0 0 0 0 
0 0 0 0 0 0 0 0 0 
0 0 0 0 0 0 0 0 0 
0 0 0 0 0 0 0 0 0 
0 0 0 0 0 0 0 0 0 
0 0 0 0 0 0 0 0 0 
0 0 0 0 0 0 0 0 0 
0 0 0 0 0 0 0 0 0 
0 0 0 0 0 0 0 0 0 
0 0 0 0 0 0 0 0 0 
0 0 0 0 0 0 0 0 0 
0 0 0 0 0 0 0 0 0 
0 0 0 0 0 0 0 0 0 
0 0 0 0 0 0 0 0 0 
0 0 0 0 0 0 0 0 0 
0 0 0 0 0 0 0 0 0 
0 0 0 0 0 0 0 0 0 
0 0 0 0 0 0 0 0 0 
0 0 0 0 0 0 0 0 0 
0 0 0 0 0 0 0 0 0 
0 0 0 0 0 0 0 0 0 
0 0 0 0 0 0 0 0 0 
0 0 0 0 0 0 0 0 0 
0 0 0 0 0 0 0 0 0 
0 0 0 0 0 0 0 0 0 
0 0 0 0 0 0 0 0 0 
0 0 0 0 0 0 0 0 0 
0 0 0 0 0 0 0 0 0 
0 0 0 0 0 0 0 0 0 
0 0 0 0 0 0 0 0 0 
0 0 0 0 0 0 0 0 0 
0 0 0 0 0 0 0 0 0 
0 0 0 0 0 0 0 0 0 
0 0 0 0 0 0 0 0 0 
0 0 0 0 0 0 0 0 0 
0 0 0 0 0 0 0 0 0 
0 0 0 0 0 0 0 0 0 
0 0 0 0 0 0 0 0 0 
0 0 0 0 0 0 0 0 0 
0 0 0 0 0 0 0 0 0 
0 0 0 0 0 0 0 0 0 
0 0 0 0 0 0 0 0 0 
0 0 0 0 0 0 0 0 0 
12 0 0 0 0 0 0 0 0 
12 0 0 0 0 0 0 0 0 
0 0 0 0 0 0 0 0 0 
0 0 0 0 0 0 0 0 0 
0 0 0 0 0 0 0 0 0 
0 0 0 0 0 0 0 0 0 
0 0 0 0 0 0 0 0 0 
0 0 0 0 0 0 0 0 0 
0 0 0 0 0 0 0 0 0 
0 0 0 0 0 0 0 0 0 
0 0 0 0 0 0 0 0 0 
0 0 0 0 0 0 0 0 0 
0 0 0 0 0 0 0 0 0 
0 0 0 0 0 0 0 0 0 
0 0 0 0 0 0 0 0 0 
0 0 0 0 0 0 0 0 0 
12 0 0 0 0 0 0 0 0 
0 0 0 0 0 0 0 0 0 
0 0 0 0 0 0 0 0 0 
0 0 0 0 0 0 0 0 0 
0 0 0 0 0 0 0 0 0 
0 0 0 0 0 0 0 0 0 
0 0 0 0 0 0 0 0 0 
0 0 0 0 0 0 0 0 0 
0 0 0 0 0 0 0 0 0 
0 0 0 0 0 0 0 0 0 
0 0 0 0 0 0 0 0 0 
0 0 0 0 0 0 0 0 0 
0 0 0 0 0 0 0 0 0 
0 0 0 0 0 0 0 0 0 
0 0 0 0 0 0 0 0 0 
0 0 0 0 0 0 0 0 0 
0 0 0 0 0 0 0 0 0 
0 0 0 0 0 0 0 0 0 
0 0 0 0 0 0 0 0 0 
0 0 0 0 0 0 0 0 0 
0 0 0 12 0 0 0 0 0 
0 0 0 0 0 0 0 0 0 
0 0 0 0 0 0 0 0 0 
0 0 0 0 0 0 0 0 0 
0 0 0 0 0 0 0 0 0 
0 0 0 0 0 0 0 0 0 
0 0 0 0 0 0 0 0 0 
0 0 0 0 0 0 0 0 0 
0 0 0 0 0 0 0 0 0 
0 0 0 0 0 0 0 0 0 
0 0 0 0 0 0 12 0 0 
0 0 0 0 0 0 0 0 0 
0 0 0 0 0 0 0 0 0 
0 0 0 0 0 0 0 0 0 
0 0 0 0 0 0 0 0 0 
0 0 0 0 0 0 0 0 0 
0 0 0 0 0 0 0 0 0 
0 0 0 0 0 0 0 0 0 
0 0 0 0 0 0 0 0 0 
0 0 0 0 0 0 0 0 0 
0 0 0 0 0 0 0 0 0 
0 0 0 0 0 0 0 0 0 
0 0 0 0 0 0 0 0 0 
0 0 0 0 0 0 0 0 0 
0 0 0 0 0 0 0 0 0 
0 0 0 0 0 0 0 0 0 
0 0 0 0 0 0 0 0 0 
0 0 0 0 0 0 0 0 0 
0 0 0 0 0 0 0 0 0 
0 0 0 0 0 0 0 0 0 
0 0 0 0 0 0 0 0 0 
0 0 0 0 0 0 0 0 0 
0 0 0 0 0 0 0 0 0 
0 0 0 0 0 0 0 0 0 
0 0 0 0 0 0 0 0 0 
0 0 0 0 0 0 0 0 0 
0 0 0 0 0 0 0 0 0 
0 0 0 0 0 0 0 0 0 
0 0 0 0 0 0 0 0 0 
0 0 0 0 0 0 0 0 0 
0 0 0 0 0 0 0 0 0 
0 0 0 0 0 0 0 0 0 
0 0 0 0 0 0 0 0 0 
0 0 0 0 0 0 0 0 0 
0 0 0 0 0 0 0 0 0 
0 0 0 0 0 0 0 0 0 
0 0 0 0 0 0 0 0 0 
0 0 0 0 0 0 0 0 0 
0 0 0 0 0 0 0 0 0 
0 0 0 0 0 0 0 0 0 
0 0 0 0 0 0 0 0 0 
0 0 0 0 0 0 0 0 0 
0 0 0 0 0 0 0 0 0 
0 0 0 0 0 0 0 0 0 
0 0 0 0 0 0 0 0 0 
0 0 0 0 0 0 0 0 0 
0 0 0 0 0 0 0 0 0 
0 0 0 0 0 0 0 0 0 
0 0 0 0 0 0 0 0 0 
0 0 0 0 0 0 0 0 0 
0 0 0 0 0 0 0 0 0 
0 0 0 0 0 0 0 0 0 
0 0 0 0 0 0 0 0 0 
0 0 0 0 0 0 0 0 0 
0 0 0 0 0 0 0 0 0 
0 0 0 0 0 0 0 0 0 
0 0 0 0 0 0 0 0 0 
0 0 0 0 0 0 0 0 0 
0 0 0 0 0 0 0 0 0 
0 0 0 0 0 0 0 0 0 
0 0 0 0 0 0 0 0 0 
0 0 0 0 0 0 0 0 0 
0 0 0 0 0 0 0 0 0 
0 0 0 0 0 0 0 0 0 
0 0 0 0 0 0 0 0 0 
0 0 0 0 0 0 0 0 0 
0 0 0 0 0 0 0 0 0 
0 0 0 0 0 0 0 0 0 
0 0 0 0 0 0 0 0 0 
0 0 0 0 0 0 0 0 0 
0 0 0 0 0 0 0 0 0 
0 0 0 0 0 0 0 0 0 
0 0 0 0 0 0 0 0 0 
0 0 0 0 0 0 0 0 0 
0 0 0 0 0 0 0 0 0 
0 0 0 0 0 0 0 0 0 
0 0 0 0 0 0 0 0 0 
0 0 0 0 0 0 0 0 0 
0 0 0 0 0 0 0 0 0 
0 0 0 0 0 0 0 0 0 
0 0 0 0 0 0 0 0 0 
0 0 0 0 0 0 0 0 0 
0 0 0 0 0 0 0 0 0 
0 0 0 0 0 0 0 0 0 
0 0 0 0 0 0 0 0 0 
0 0 0 0 0 0 0 0 0 
0 0 0 0 0 0 0 0 0 
0 0 0 0 0 0 0 0 0 
0 0 0 0 0 0 0 0 0 
0 0 0 0 0 0 0 0 0 
0 0 0 0 0 0 0 0 0 
0 0 0 0 0 0 0 0 0 
0 0 0 0 0 0 0 0 0 
0 0 0 0 0 0 0 0 0 
0 0 0 0 0 0 0 0 0 
0 0 0 0 0 0 0 0 0 
0 0 0 0 0 0 0 0 0 
0 0 0 0 0 0 0 0 0 
0 0 0 0 0 0 0 0 0 
0 0 0 0 0 0 0 0 0 
0 0 0 0 0 0 0 0 0 
0 0 0 0 0 0 0 0 0 
0 0 0 0 0 0 0 0 0 
0 0 0 0 0 0 0 0 0 
0 0 0 0 0 0 0 0 0 
0 0 0 0 0 0 0 0 0 
0 0 0 0 0 0 0 0 0 
0 0 0 0 0 0 0 0 0 
0 0 0 0 0 0 0 0 0 
0 0 0 0 0 0 0 0 0 
0 0 0 0 0 0 0 0 0 
0 0 0 0 0 0 0 0 0 
0 0 0 0 0 0 0 0 0 
0 0 0 0 0 0 0 0 0 
0 0 0 0 0 0 0 0 0 
0 0 0 0 0 0 0 0 0 
0 0 0 0 0 0 0 0 0 
0 0 0 0 0 0 0 0 0 
0 0 0 0 0 0 0 0 0 
0 0 0 0 0 0 0 0 0 
0 0 0 0 0 0 0 0 0 
0 0 0 0 0 0 0 0 0 
0 0 0 0 0 0 0 0 0 
0 0 0 0 0 0 0 0 0 
0 0 0 0 0 0 0 0 0 
0 0 0 0 0 0 0 0 0 
0 0 0 0 0 0 0 0 0 
0 0 0 0 0 0 0 0 0 
0 0 0 0 0 0 0 0 0 
0 0 0 0 0 0 0 0 0 
0 0 0 0 0 0 0 0 0 
0 0 0 0 0 0 0 0 0 
0 0 0 0 0 0 0 0 0 
0 0 0 0 0 0 0 0 0 
0 0 0 0 0 0 0 0 0 
0 0 0 0 0 0 0 0 0 
0 0 0 0 0 0 0 0 0 
0 0 0 0 0 0 0 0 0 
0 0 0 0 0 0 0 0 0 
0 0 0 0 0 0 0 0 0 
0 0 0 0 0 0 0 0 0 
0 0 0 0 0 0 0 0 0 
0 0 0 0 0 0 0 0 0 
0 0 0 0 0 0 0 0 0 
0 0 0 0 0 0 0 0 0 
0 0 0 0 0 0 0 0 0 
0 0 0 0 0 0 0 0 0 
0 0 0 0 0 0 0 0 0 
0 0 0 0 0 0 0 0 0 
0 0 0 0 0 0 0 0 0 
0 0 0 0 0 0 0 0 0 
0 0 0 0 0 0 0 0 0 
0 0 0 0 0 0 0 0 0 
0 0 0 0 0 0 0 0 0 
0 0 0 0 0 0 0 0 0 
0 0 0 0 0 0 0 0 0 
0 0 0 0 0 0 0 0 0 
0 0 0 0 0 0 0 0 0 
0 0 0 0 0 0 0 0 0 
0 0 0 0 0 0 0 0 0 
0 0 0 0 0 0 0 0 0 
0 0 0 0 0 0 0 0 0 
0 0 0 0 0 0 0 0 0 
0 0 0 0 0 0 0 0 0 
0 0 0 0 0 0 0 0 0 
0 0 0 0 0 0 0 0 0 
0 0 0 0 0 0 0 0 0 
0 0 0 0 0 0 0 0 0 
0 0 0 0 0 0 0 0 0 
0 0 0 0 0 0 0 0 0 
0 0 0 0 0 0 0 0 0 
0 0 0 0 0 0 0 0 0 
0 0 0 0 0 0 0 0 0 
0 0 0 0 0 0 0 0 0 
0 0 0 0 0 0 0 0 0 
0 0 0 0 0 0 0 0 0 
0 0 0 0 0 0 0 0 0 
0 0 0 0 0 0 0 0 0 
0 0 0 0 0 0 0 0 0 
0 0 0 0 0 0 0 0 0 
0 0 0 0 0 0 0 0 0 
0 0 0 0 0 0 0 0 0 
0 0 0 0 0 0 0 0 0 
0 0 0 0 0 0 0 0 0 
0 0 0 0 0 0 0 0 0 
0 0 0 0 0 0 0 0 0 
0 0 0 0 0 0 0 0 0 
0 0 0 0 0 0 0 0 0 
0 0 0 0 0 0 0 0 0 
0 0 0 0 0 0 0 0 0 
0 0 0 0 0 0 0 0 0 
0 0 0 0 0 0 0 0 0 
0 0 0 0 0 0 0 0 0 
0 0 0 0 0 0 0 0 0 
0 0 0 0 0 0 0 0 0 
0 0 0 0 0 0 0 0 0 
0 0 0 0 0 0 0 0 0 
0 0 0 0 0 0 0 0 0 
0 0 0 0 0 0 0 0 0 
0 0 0 0 0 0 0 0 0 
0 0 0 0 0 0 0 0 0 
0 0 0 0 0 0 0 0 0 
0 0 0 0 0 0 0 0 0 
0 0 0 0 0 0 0 0 0 
0 0 0 0 0 0 0 0 0 
0 0 0 0 0 0 0 0 0 
0 0 0 0 0 0 0 0 0 
0 0 0 0 0 0 0 0 0 
0 0 0 0 0 0 0 0 0 
0 0 0 0 0 0 0 0 0 
0 0 0 0 0 0 0 0 0 
0 0 0 0 0 0 0 0 0 
0 0 0 0 0 0 0 0 0 
0 0 0 0 0 0 0 0 0 
0 0 0 0 0 0 
v0 1 1049 double
2.798 2.2234 3.1552 3.5868 3.5098 3.7348 3.4418 3.1534 3.5598 
2.9072 2.2246 2.959 2.5998 2.5562 2.8894 3.6802 3.3968 3.7604 
3.3376 3.7722 3.8026 3.3932 3.908 2.9348 3.9438 3.5394 3.4192 
3.7132 3.6894 3.9752 2.7868 2.105 2.6972 2.9892 3.2554 2.9862 
3.4416 3.4388 2.726 3.6034 3.7386 3.938 3.4142 3.9802 3.447 
3.4702 3.8484 3.5338 3.2294 3.358 3.991 2.2178 3.219 3.1134 
2.5702 2.227 2.8228 2.3004 2.8832 2.9892 3.3948 2.5352 3.236 
3.3812 3.7956 2.087 3.7164 3.5126 3.7004 3.0734 2.9518 2.7598 
3.8554 3.2458 2.192 2.8338 2.5666 3.8268 3.4072 2.6856 3.053 
2.0272 2.7916 3.4754 2.7364 3.3678 3.514 3.5612 3.2878 3.852 
2.325 2.5952 2.9256 2.0254 3.1832 2.9022 2.5898 3.18 2.2866 
2.4594 2.6632 2.264 2.1178 3.2768 2.5972 2.0104 2.4322 2.7532 
2.79 3.075 2.1056 2.5992 2.0302 2.6016 2.6138 0 0 
0 0 0 0 0 0 0 0 0 
0 0 0 0 0 0 0 0 0 
0 0 0 0 0 0 0 0 0 
0 0 0 0 0 0 0 0 0 
0 0 0 0 0 0 0 0 0 
0 0 0 0 0 0 0 0 0 
0 0 0 0 0 0 0 0 0 
0 0 0 0 0 0 0 0 0 
0 0 0 0 0 0 0 0 0 
0 0 0 0 0 0 0 0 0 
0 0 0 0 0 0 0 0 0 
0 0 0 0 0 0 0 0 0 
0 0 0 0 0 0 0 0 0 
0 0 0 0 0 0 0 0 0 
0 0 0 0 0 0 0 0 0 
0 0 0 0 0 0 0 0 0 
0 0 0 0 0 0 2.0424 0 0 
2.2322 0 0 0 0 0 0 0 0 
0 0 0 0 0 0 0 0 0 
0 0 0 0 0 0 0 0 0 
0 0 0 0 0 0 0 0 0 
0 0 0 0 0 0 0 0 0 
2.1262 0 0 0 0 0 0 0 0 
0 0 0 0 0 0 0 0 0 
0 0 0 0 0 0 0 0 0 
0 0 0 0 0 0 0 0 0 
0 0 0 0 0 0 0 0 0 
0 0 0 0 0 0 0 0 0 
0 0 0 0 0 0 0 2.0074 0 
0 0 0 0 0 0 0 0 0 
0 0 0 0 0 0 0 0 0 
0 0 0 0 0 0 0 0 0 
0 0 2.1126 0 0 0 0 0 0 
0 0 0 0 0 0 0 0 0 
0 0 0 0 0 0 0 0 0 
0 0 0 0 0 0 0 0 0 
0 0 0 0 0 0 0 0 0 
0 0 0 0 0 0 0 0 0 
0 0 0 0 0 0 0 0 0 
0 0 0 0 0 0 0 0 0 
0 0 0 0 0 0 0 0 0 
0 0 0 0 0 0 0 0 0 
0 0 0 0 0 0 0 0 0 
0 0 0 0 0 0 0 0 0 
0 0 0 0 0 0 0 0 0 
0 0 0 0 0 0 0 0 0 
0 0 0 0 0 0 0 0 0 
0 0 0 0 0 0 0 0 0 
0 0 0 0 0 0 0 0 0 
0 0 0 0 0 0 0 0 0 
0 0 0 0 0 0 0 0 0 
0 0 0 0 0 0 0 0 0 
0 0 0 0 0 0 0 0 0 
0 0 0 0 0 0 0 0 0 
0 0 0 0 0 0 0 0 0 
0 0 0 0 0 0 0 0 0 
0 0 0 0 0 0 0 0 0 
0 0 0 0 0 0 0 0 0 
0 0 0 0 0 0 0 0 0 
0 0 0 0 0 0 0 0 0 
0 0 0 0 0 0 0 0 0 
0 0 0 0 0 0 0 0 0 
0 0 0 0 0 0 0 0 0 
0 0 0 0 0 0 0 0 0 
0 0 0 0 0 0 0 0 0 
0 0 0 0 0 0 0 0 0 
0 0 0 0 0 0 0 0 0 
0 0 0 0 0 0 0 0 0 
0 0 0 0 0 0 0 0 0 
0 0 0 0 0 0 0 0 0 
0 0 0 0 0 0 0 0 0 
0 0 0 0 0 0 0 0 0 
0 0 0 0 0 0 0 0 0 
0 0 0 0 0 0 0 0 0 
0 0 0 0 0 0 0 0 0 
0 0 0 0 0 0 0 0 0 
0 0 0 0 0 0 0 0 0 
0 0 0 0 0 0 0 0 0 
0 0 0 0 0 0 0 0 0 
0 0 0 0 0 0 0 0 0 
0 0 0 0 0 0 0 0 0 
0 0 0 0 0 0 0 0 0 
0 0 0 0 0 0 0 0 0 
0 0 0 0 0 0 0 0 0 
0 0 0 0 0 0 0 0 0 
0 0 0 0 0 0 0 0 0 
0 0 0 0 0 0 0 0 0 
0 0 0 0 0 0 0 0 0 
0 0 0 0 0 0 0 0 0 
0 0 0 0 0 0 0 0 0 
0 0 0 0 0 0 0 0 0 
0 0 0 0 0 0 0 0 0 
0 0 0 0 0 0 0 0 0 
0 0 0 0 0 0 0 0 0 
0 0 0 0 0 0 0 0 0 
0 0 0 0 0 0 0 0 0 
0 0 0 0 0 0 0 0 0 
0 0 0 0 0 0 0 0 0 
0 0 0 0 0 0 0 0 0 
0 0 0 0 0 0 0 0 0 
0 0 0 0 0 0 0 0 0 
0 0 0 0 0 0 0 0 0 
0 0 0 0 0 0 0 0 0 
0 0 0 0 0 
tau 1 1049 double
2 2 2 2 2 2 2 2 2 
2 2 2 2 2 2 2 2 2 
2 2 2 2 2 2 2 2 2 
2 2 2 2 2 2 2 2 2 
2 2 2 2 2 2 2 2 2 
2 2 2 2 2 2 2 2 2 
2 2 2 2 2 2 2 2 2 
2 2 2 2 2 2 2 2 2 
2 2 2 2 2 2 2 2 2 
2 2 2 2 2 2 2 2 2 
2 2 2 2 2 2 2 2 2 
2 2 2 2 2 2 2 2 2 
2 2 2 2 2 2 2 2 2 
2 2 2 2 2 2 2 2 2 
2 2 2 2 2 2 2 2 2 
2 2 2 2 2 2 2 2 2 
2 2 2 2 2 2 2 2 2 
2 2 2 2 2 2 2 2 2 
2 2 2 2 2 2 2 2 2 
2 2 2 2 2 2 2 2 2 
2 2 2 2 2 2 2 2 2 
2 2 2 2 2 2 2 2 2 
2 2 2 2 2 2 2 2 2 
2 2 2 2 2 2 2 2 2 
2 2 2 2 2 2 2 2 2 
2 2 2 2 2 2 2 2 2 
2 2 2 2 2 2 2 2 2 
2 2 2 2 2 2 2 2 2 
2 2 2 2 2 2 2 2 2 
2 2 2 2 2 2 2 2 2 
2 2 2 2 2 2 2 2 2 
2 2 2 2 2 2 2 2 2 
2 2 2 2 2 2 2 2 2 
2 2 2 2 2 2 2 2 2 
2 2 2 2 2 2 2 2 2 
2 2 2 2 2 2 2 2 2 
2 2 2 2 2 2 2 2 2 
2 2 2 2 2 2 2 2 2 
2 2 2 2 2 2 2 2 2 
2 2 2 2 2 2 2 2 2 
2 2 2 2 2 2 2 2 2 
2 2 2 2 2 2 2 2 2 
2 2 2 2 2 2 2 2 2 
2 2 2 2 2 2 2 2 2 
2 2 2 2 2 2 2 2 2 
2 2 2 2 2 2 2 2 2 
2 2 2 2 2 2 2 2 2 
2 2 2 2 2 2 2 2 2 
2 2 2 2 2 2 2 2 2 
2 2 2 2 2 2 2 2 2 
2 2 2 2 2 2 2 2 2 
2 2 2 2 2 2 2 2 2 
2 2 2 2 2 2 2 2 2 
2 2 2 2 2 2 2 2 2 
2 2 2 2 2 2 2 2 2 
2 2 2 2 2 2 2 2 2 
2 2 2 2 2 2 2 2 2 
2 2 2 2 2 2 2 2 2 
2 2 2 2 2 2 2 2 2 
2 2 2 2 2 2 2 2 2 
2 2 2 2 2 2 2 2 2 
2 2 2 2 2 2 2 2 2 
2 2 2 2 2 2 2 2 2 
2 2 2 2 2 2 2 2 2 
2 2 2 2 2 2 2 2 2 
2 2 2 2 2 2 2 2 2 
2 2 2 2 2 2 2 2 2 
2 2 2 2 2 2 2 2 2 
2 2 2 2 2 2 2 2 2 
2 2 2 2 2 2 2 2 2 
2 2 2 2 2 2 2 2 2 
2 2 2 2 2 2 2 2 2 
2 2 2 2 2 2 2 2 2 
2 2 2 2 2 2 2 2 2 
2 2 2 2 2 2 2 2 2 
2 2 2 2 2 2 2 2 2 
2 2 2 2 2 2 2 2 2 
2 2 2 2 2 2 2 2 2 
2 2 2 2 2 2 2 2 2 
2 2 2 2 2 2 2 2 2 
2 2 2 2 2 2 2 2 2 
2 2 2 2 2 2 2 2 2 
2 2 2 2 2 2 2 2 2 
2 2 2 2 2 2 2 2 2 
2 2 2 2 2 2 2 2 2 
2 2 2 2 2 2 2 2 2 
2 2 2 2 2 2 2 2 2 
2 2 2 2 2 2 2 2 2 
2 2 2 2 2 2 2 2 2 
2 2 2 2 2 2 2 2 2 
2 2 2 2 2 2 2 2 2 
2 2 2 2 2 2 2 2 2 
2 2 2 2 2 2 2 2 2 
2 2 2 2 2 2 2 2 2 
2 2 2 2 2 2 2 2 2 
2 2 2 2 2 2 2 2 2 
2 2 2 2 2 2 2 2 2 
2 2 2 2 2 2 2 2 2 
2 2 2 2 2 2 2 2 2 
2 2 2 2 2 2 2 2 2 
2 2 2 2 2 2 2 2 2 
2 2 2 2 2 2 2 2 2 
2 2 2 2 2 2 2 2 2 
2 2 2 2 2 2 2 2 2 
2 2 2 2 2 2 2 2 2 
2 2 2 2 2 2 2 2 2 
2 2 2 2 2 2 2 2 2 
2 2 2 2 2 2 2 2 2 
2 2 2 2 2 2 2 2 2 
2 2 2 2 2 2 2 2 2 
2 2 2 2 2 2 2 2 2 
2 2 2 2 2 2 2 2 2 
2 2 2 2 2 2 2 2 2 
2 2 2 2 2 2 2 2 2 
2 2 2 2 2 2 2 2 2 
2 2 2 2 2 2 2 2 2 
2 2 2 2 2 
R 1 1049 double
0.2897 0.31776 0.34517 0.27325 0.33859 0.30266 0.26351 0.31931 0.33263 
0.28149 0.30154 0.33283 0.25639 0.32955 0.25774 0.26354 0.30352 0.27528 
0.33421 0.33159 0.31987 0.33777 0.28195 0.32722 0.27641 0.33398 0.26298 
0.34097 0.27491 0.30856 0.33184 0.27197 0.30199 0.2979 0.31087 0.33382 
0.25308 0.32665 0.34593 0.31815 0.33566 0.34672 0.28083 0.25853 0.34851 
0.30421 0.27555 0.34126 0.31582 0.34015 0.25928 0.2931 0.30805 0.2889 
0.32278 0.31127 0.26761 0.25037 0.26541 0.32017 0.27957 0.3 0.29693 
0.25528 0.26783 0.25657 0.26852 0.3159 0.25399 0.27735 0.30511 0.33828 
0.31217 0.28172 0.31364 0.25997 0.31651 0.27071 0.28069 0.27972 0.2735 
0.25099 0.29225 0.33657 0.28662 0.27393 0.33577 0.2957 0.25888 0.3161 
0.2685 0.28827 0.28537 0.2591 0.31621 0.25008 0.26173 0.32334 0.30482 
0.27439 0.26888 0.34334 0.3228 0.32361 0.33976 0.32716 0.26269 0.33341 
0.28428 0.28437 0.25871 0.29985 0.31506 0.29552 0.33762 0.1 0.1 
0.1 0.1 0.1 0.1 0.1 0.1 0.1 0.1 0.1 
0.1 0.1 0.1 0.1 0.1 0.1 0.1 0.1 0.1 
0.1 0.1 0.1 0.1 0.1 0.1 0.1 0.1 0.1 
0.1 0.1 0.1 0.1 0.1 0.1 0.1 0.1 0.1 
0.1 0.1 0.1 0.1 0.1 0.1 0.1 0.1 0.1 
0.1 0.1 0.1 0.1 0.1 0.1 0.1 0.1 0.1 
0.1 0.1 0.1 0.1 0.1 0.1 0.1 0.1 0.1 
0.1 0.1 0.1 0.1 0.1 0.1 0.1 0.1 0.1 
0.1 0.1 0.1 0.1 0.1 0.1 0.1 0.1 0.1 
0.1 0.1 0.1 0.1 0.1 0.1 0.1 0.1 0.1 
0.1 0.1 0.1 0.1 0.1 0.1 0.1 0.1 0.1 
0.1 0.1 0.1 0.1 0.1 0.1 0.1 0.1 0.1 
0.1 0.1 0.1 0.1 0.1 0.1 0.1 0.1 0.1 
0.1 0.1 0.1 0.1 0.1 0.1 0.1 0.1 0.1 
0.1 0.1 0.1 0.1 0.1 0.1 0.1 0.1 0.1 
0.1 0.1 0.1 0.1 0.1 0.1 0.1 0.1 0.1 
0.1 0.1 0.1 0.1 0.1 0.1 0.34368 0.1 0.1 
0.31445 0.1 0.1 0.1 0.1 0.1 0.1 0.1 0.1 
0.1 0.1 0.1 0.1 0.1 0.1 0.1 0.1 0.1 
0.1 0.1 0.1 0.1 0.1 0.1 0.1 0.1 0.1 
0.1 0.1 0.1 0.1 0.1 0.1 0.1 0.1 0.1 
0.1 0.1 0.1 0.1 0.1 0.1 0.1 0.1 0.1 
0.33954 0.1 0.1 0.1 0.1 0.1 0.1 0.1 0.1 
0.1 0.1 0.1 0.1 0.1 0.1 0.1 0.1 0.1 
0.1 0.1 0.1 0.1 0.1 0.1 0.1 0.1 0.1 
0.1 0.1 0.1 0.1 0.1 0.1 0.1 0.1 0.1 
0.1 0.1 0.1 0.1 0.1 0.1 0.1 0.1 0.1 
0.1 0.1 0.1 0.1 0.1 0.1 0.1 0.1 0.1 
0.1 0.1 0.1 0.1 0.1 0.1 0.1 0.25952 0.1 
0.1 0.1 0.1 0.1 0.1 0.1 0.1 0.1 0.1 
0.1 0.1 0.1 0.1 0.1 0.1 0.1 0.1 0.1 
0.1 0.1 0.1 0.1 0.1 0.1 0.1 0.1 0.1 
0.1 0.1 0.33412 0.1 0.1 0.1 0.1 0.1 0.1 
0.1 0.1 0.1 0.1 0.1 0.1 0.1 0.1 0.1 
0.1 0.1 0.1 0.1 0.1 0.1 0.1 0.1 0.1 
0.1 0.1 0.1 0.1 0.1 0.1 0.1 0.1 0.1 
0.1 0.1 0.1 0.1 0.1 0.1 0.1 0.1 0.1 
0.1 0.1 0.1 0.1 0.1 0.1 0.1 0.1 0.1 
0.1 0.1 0.1 0.1 0.1 0.1 0.1 0.1 0.1 
0.1 0.1 0.1 0.1 0.1 0.1 0.1 0.1 0.1 
0.1 0.1 0.1 0.1 0.1 0.1 0.1 0.1 0.1 
0.1 0.1 0.1 0.1 0.1 0.1 0.1 0.1 0.1 
0.1 0.1 0.1 0.1 0.1 0.1 0.1 0.1 0.1 
0.1 0.1 0.1 0.1 0.1 0.1 0.1 0.1 0.1 
0.1 0.1 0.1 0.1 0.1 0.1 0.1 0.1 0.1 
0.1 0.1 0.1 0.1 0.1 0.1 0.1 0.1 0.1 
0.1 0.1 0.1 0.1 0.1 0.1 0.1 0.1 0.1 
0.1 0.1 0.1 0.1 0.1 0.1 0.1 0.1 0.1 
0.1 0.1 0.1 0.1 0.1 0.1 0.1 0.1 0.1 
0.1 0.1 0.1 0.1 0.1 0.1 0.1 0.1 0.1 
0.1 0.1 0.1 0.1 0.1 0.1 0.1 0.1 0.1 
0.1 0.1 0.1 0.1 0.1 0.1 0.1 0.1 0.1 
0.1 0.1 0.1 0.1 0.1 0.1 0.1 0.1 0.1 
0.1 0.1 0.1 0.1 0.1 0.1 0.1 0.1 0.1 
0.1 0.1 0.1 0.1 0.1 0.1 0.1 0.1 0.1 
0.1 0.1 0.1 0.1 0.1 0.1 0.1 0.1 0.1 
0.1 0.1 0.1 0.1 0.1 0.1 0.1 0.1 0.1 
0.1 0.1 0.1 0.1 0.1 0.1 0.1 0.1 0.1 
0.1 0.1 0.1 0.1 0.1 0.1 0.1 0.1 0.1 
0.1 0.1 0.1 0.1 0.1 0.1 0.1 0.1 0.1 
0.1 0.1 0.1 0.1 0.1 0.1 0.1 0.1 0.1 
0.1 0.1 0.1 0.1 0.1 0.1 0.1 0.1 0.1 
0.1 0.1 0.1 0.1 0.1 0.1 0.1 0.1 0.1 
0.1 0.1 0.1 0.1 0.1 0.1 0.1 0.1 0.1 
0.1 0.1 0.1 0.1 0.1 0.1 0.1 0.1 0.1 
0.1 0.1 0.1 0.1 0.1 0.1 0.1 0.1 0.1 
0.1 0.1 0.1 0.1 0.1 0.1 0.1 0.1 0.1 
0.1 0.1 0.1 0.1 0.1 0.1 0.1 0.1 0.1 
0.1 0.1 0.1 0.1 0.1 0.1 0.1 0.1 0.1 
0.1 0.1 0.1 0.1 0.1 0.1 0.1 0.1 0.1 
0.1 0.1 0.1 0.1 0.1 0.1 0.1 0.1 0.1 
0.1 0.1 0.1 0.1 0.1 0.1 0.1 0.1 0.1 
0.1 0.1 0.1 0.1 0.1 0.1 0.1 0.1 0.1 
0.1 0.1 0.1 0.1 0.1 0.1 0.1 0.1 0.1 
0.1 0.1 0.1 0.1 0.1 0.1 0.1 0.1 0.1 
0.1 0.1 0.1 0.1 0.1 0.1 0.1 0.1 0.1 
0.1 0.1 0.1 0.1 0.1 0.1 0.1 0.1 0.1 
0.1 0.1 0.1 0.1 0.1 0.1 0.1 0.1 0.1 
0.1 0.1 0.1 0.1 0.1 0.1 0.1 0.1 0.1 
0.1 0.1 0.1 0.1 0.1 0.1 0.1 0.1 0.1 
0.1 0.1 0.1 0.1 0.1 0.1 0.1 0.1 0.1 
0.1 0.1 0.1 0.1 0.1 0.1 0.1 0.1 0.1 
0.1 0.1 0.1 0.1 0.1 0.1 0.1 0.1 0.1 
0.1 0.1 0.1 0.1 0.1 0.1 0.1 0.1 0.1 
0.1 0.1 0.1 0.1 0.1 0.1 0.1 0.1 0.1 
0.1 0.1 0.1 0.1 0.1 0.1 0.1 0.1 0.1 
0.1 0.1 0.1 0.1 0.1 0.1 0.1 0.1 0.1 
0.1 0.1 0.1 0.1 0.1 0.1 0.1 0.1 0.1 
0.1 0.1 0.1 0.1 0.1 0.1 0.1 0.1 0.1 
0.1 0.1 0.1 0.1 0.1 0.1 0.1 0.1 0.1 
0.1 0.1 0.1 0.1 0.1 0.1 0.1 0.1 0.1 
0.1 0.1 0.1 0.1 0.1 0.1 0.1 0.1 0.1 
0.1 0.1 0.1 0.1 0.1 0.1 0.1 0.1 0.1 
0.1 0.1 0.1 0.1 0.1 0.1 0.1 0.1 0.1 
0.1 0.1 0.1 0.1 0.1 0.1 0.1 0.1 0.1 
0.1 0.1 0.1 0.1 0.1 0.1 0.1 0.1 0.1 
0.1 0.1 0.1 0.1 0.1 0.1 0.1 0.1 0.1 
0.1 0.1 0.1 0.1 0.1 0.1 0.1 0.1 0.1 
0.1 0.1 0.1 0.1 0.1 0.1 0.1 0.1 0.1 
0.1 0.1 0.1 0.1 0.1 0.1 0.1 0.1 0.1 
0.1 0.1 0.1 0.1 0.1 0.1 0.1 0.1 0.1 
0.1 0.1 0.1 0.1 0.1 0.1 0.1 0.1 0.1 
0.1 0.1 0.1 0.1 0.1 0.1 0.1 0.1 0.1 
0.1 0.1 0.1 0.1 0.1 
a 3 1049 double
0 0 0 0 0 0 0 0 0 
0 0 0 0 0 0 0 0 0 
0 0 0 0 0 0 0 0 0 
0 0 0 0 0 0 0 0 0 
0 0 0 0 0 0 0 0 0 
0 0 0 0 0 0 0 0 0 
0 0 0 0 0 0 0 0 0 
0 0 0 0 0 0 0 0 0 
0 0 0 0 0 0 0 0 0 
0 0 0 0 0 0 0 0 0 
0 0 0 0 0 0 0 0 0 
0 0 0 0 0 0 0 0 0 
0 0 0 0 0 0 0 0 0 
0 0 0 0 0 0 0 0 0 
0 0 0 0 0 0 0 0 0 
0 0 0 0 0 0 0 0 0 
0 0 0 0 0 0 0 0 0 
0 0 0 0 0 0 0 0 0 
0 0 0 0 0 0 0 0 0 
0 0 0 0 0 0 0 0 0 
0 0 0 0 0 0 0 0 0 
0 0 0 0 0 0 0 0 0 
0 0 0 0 0 0 0 0 0 
0 0 0 0 0 0 0 0 0 
0 0 0 0 0 0 0 0 0 
0 0 0 0 0 0 0 0 0 
0 0 0 0 0 0 0 0 0 
0 0 0 0 0 0 0 0 0 
0 0 0 0 0 0 0 0 0 
0 0 0 0 0 0 0 0 0 
0 0 0 0 0 0 0 0 0 
0 0 0 0 0 0 0 0 0 
0 0 0 0 0 0 0 0 0 
0 0 0 0 0 0 0 0 0 
0 0 0 0 0 0 0 0 0 
0 0 0 0 0 0 0 0 0 
0 0 0 0 0 0 0 0 0 
0 0 0 0 0 0 0 0 0 
0 0 0 0 0 0 0 0 0 
0 0 0 0 0 0 0 0 0 
0 0 0 0 0 0 0 0 0 
0 0 0 0 0 0 0 0 0 
0 0 0 0 0 0 0 0 0 
0 0 0 0 0 0 0 0 0 
0 0 0 0 0 0 0 0 0 
0 0 0 0 0 0 0 0 0 
0 0 0 0 0 0 0 0 0 
0 0 0 0 0 0 0 0 0 
0 0 0 0 0 0 0 0 0 
0 0 0 0 0 0 0 0 0 
0 0 0 0 0 0 0 0 0 
0 0 0 0 0 0 0 0 0 
0 0 0 0 0 0 0 0 0 
0 0 0 0 0 0 0 0 0 
0 0 0 0 0 0 0 0 0 
0 0 0 0 0 0 0 0 0 
0 0 0 0 0 0 0 0 0 
0 0 0 0 0 0 0 0 0 
0 0 0 0 0 0 0 0 0 
0 0 0 0 0 0 0 0 0 
0 0 0 0 0 0 0 0 0 
0 0 0 0 0 0 0 0 0 
0 0 0 0 0 0 0 0 0 
0 0 0 0 0 0 0 0 0 
0 0 0 0 0 0 0 0 0 
0 0 0 0 0 0 0 0 0 
0 0 0 0 0 0 0 0 0 
0 0 0 0 0 0 0 0 0 
0 0 0 0 0 0 0 0 0 
0 0 0 0 0 0 0 0 0 
0 0 0 0 0 0 0 0 0 
0 0 0 0 0 0 0 0 0 
0 0 0 0 0 0 0 0 0 
0 0 0 0 0 0 0 0 0 
0 0 0 0 0 0 0 0 0 
0 0 0 0 0 0 0 0 0 
0 0 0 0 0 0 0 0 0 
0 0 0 0 0 0 0 0 0 
0 0 0 0 0 0 0 0 0 
0 0 0 0 0 0 0 0 0 
0 0 0 0 0 0 0 0 0 
0 0 0 0 0 0 0 0 0 
0 0 0 0 0 0 0 0 0 
0 0 0 0 0 0 0 0 0 
0 0 0 0 0 0 0 0 0 
0 0 0 0 0 0 0 0 0 
0 0 0 0 0 0 0 0 0 
0 0 0 0 0 0 0 0 0 
0 0 0 0 0 0 0 0 0 
0 0 0 0 0 0 0 0 0 
0 0 0 0 0 0 0 0 0 
0 0 0 0 0 0 0 0 0 
0 0 0 0 0 0 0 0 0 
0 0 0 0 0 0 0 0 0 
0 0 0 0 0 0 0 0 0 
0 0 0 0 0 0 0 0 0 
0 0 0 0 0 0 0 0 0 
0 0 0 0 0 0 0 0 0 
0 0 0 0 0 0 0 0 0 
0 0 0 0 0 0 0 0 0 
0 0 0 0 0 0 0 0 0 
0 0 0 0 0 0 0 0 0 
0 0 0 0 0 0 0 0 0 
0 0 0 0 0 0 0 0 0 
0 0 0 0 0 0 0 0 0 
0 0 0 0 0 0 0 0 0 
0 0 0 0 0 0 0 0 0 
0 0 0 0 0 0 0 0 0 
0 0 0 0 0 0 0 0 0 
0 0 0 0 0 0 0 0 0 
0 0 0 0 0 0 0 0 0 
0 0 0 0 0 0 0 0 0 
0 0 0 0 0 0 0 0 0 
0 0 0 0 0 0 0 0 0 
0 0 0 0 0 0 0 0 0 
0 0 0 0 0 0 0 0 0 
0 0 0 0 0 0 0 0 0 
0 0 0 0 0 0 0 0 0 
0 0 0 0 0 0 0 0 0 
0 0 0 0 0 0 0 0 0 
0 0 0 0 0 0 0 0 0 
0 0 0 0 0 0 0 0 0 
0 0 0 0 0 0 0 0 0 
0 0 0 0 0 0 0 0 0 
0 0 0 0 0 0 0 0 0 
0 0 0 0 0 0 0 0 0 
0 0 0 0 0 0 0 0 0 
0 0 0 0 0 0 0 0 0 
0 0 0 0 0 0 0 0 0 
0 0 0 0 0 0 0 0 0 
0 0 0 0 0 0 0 0 0 
0 0 0 0 0 0 0 0 0 
0 0 0 0 0 0 0 0 0 
0 0 0 0 0 0 0 0 0 
0 0 0 0 0 0 0 0 0 
0 0 0 0 0 0 0 0 0 
0 0 0 0 0 0 0 0 0 
0 0 0 0 0 0 0 0 0 
0 0 0 0 0 0 0 0 0 
0 0 0 0 0 0 0 0 0 
0 0 0 0 0 0 0 0 0 
0 0 0 0 0 0 0 0 0 
0 0 0 0 0 0 0 0 0 
0 0 0 0 0 0 0 0 0 
0 0 0 0 0 0 0 0 0 
0 0 0 0 0 0 0 0 0 
0 0 0 0 0 0 0 0 0 
0 0 0 0 0 0 0 0 0 
0 0 0 0 0 0 0 0 0 
0 0 0 0 0 0 0 0 0 
0 0 0 0 0 0 0 0 0 
0 0 0 0 0 0 0 0 0 
0 0 0 0 0 0 0 0 0 
0 0 0 0 0 0 0 0 0 
0 0 0 0 0 0 0 0 0 
0 0 0 0 0 0 0 0 0 
0 0 0 0 0 0 0 0 0 
0 0 0 0 0 0 0 0 0 
0 0 0 0 0 0 0 0 0 
0 0 0 0 0 0 0 0 0 
0 0 0 0 0 0 0 0 0 
0 0 0 0 0 0 0 0 0 
0 0 0 0 0 0 0 0 0 
0 0 0 0 0 0 0 0 0 
0 0 0 0 0 0 0 0 0 
0 0 0 0 0 0 0 0 0 
0 0 0 0 0 0 0 0 0 
0 0 0 0 0 0 0 0 0 
0 0 0 0 0 0 0 0 0 
0 0 0 0 0 0 0 0 0 
0 0 0 0 0 0 0 0 0 
0 0 0 0 0 0 0 0 0 
0 0 0 0 0 0 0 0 0 
0 0 0 0 0 0 0 0 0 
0 0 0 0 0 0 0 0 0 
0 0 0 0 0 0 0 0 0 
0 0 0 0 0 0 0 0 0 
0 0 0 0 0 0 0 0 0 
0 0 0 0 0 0 0 0 0 
0 0 0 0 0 0 0 0 0 
0 0 0 0 0 0 0 0 0 
0 0 0 0 0 0 0 0 0 
0 0 0 0 0 0 0 0 0 
0 0 0 0 0 0 0 0 0 
0 0 0 0 0 0 0 0 0 
0 0 0 0 0 0 0 0 0 
0 0 0 0 0 0 0 0 0 
0 0 0 0 0 0 0 0 0 
0 0 0 0 0 0 0 0 0 
0 0 0 0 0 0 0 0 0 
0 0 0 0 0 0 0 0 0 
0 0 0 0 0 0 0 0 0 
0 0 0 0 0 0 0 0 0 
0 0 0 0 0 0 0 0 0 
0 0 0 0 0 0 0 0 0 
0 0 0 0 0 0 0 0 0 
0 0 0 0 0 0 0 0 0 
0 0 0 0 0 0 0 0 0 
0 0 0 0 0 0 0 0 0 
0 0 0 0 0 0 0 0 0 
0 0 0 0 0 0 0 0 0 
0 0 0 0 0 0 0 0 0 
0 0 0 0 0 0 0 0 0 
0 0 0 0 0 0 0 0 0 
0 0 0 0 0 0 0 0 0 
0 0 0 0 0 0 0 0 0 
0 0 0 0 0 0 0 0 0 
0 0 0 0 0 0 0 0 0 
0 0 0 0 0 0 0 0 0 
0 0 0 0 0 0 0 0 0 
0 0 0 0 0 0 0 0 0 
0 0 0 0 0 0 0 0 0 
0 0 0 0 0 0 0 0 0 
0 0 0 0 0 0 0 0 0 
0 0 0 0 0 0 0 0 0 
0 0 0 0 0 0 0 0 0 
0 0 0 0 0 0 0 0 0 
0 0 0 0 0 0 0 0 0 
0 0 0 0 0 0 0 0 0 
0 0 0 0 0 0 0 0 0 
0 0 0 0 0 0 0 0 0 
0 0 0 0 0 0 0 0 0 
0 0 0 0 0 0 0 0 0 
0 0 0 0 0 0 0 0 0 
0 0 0 0 0 0 0 0 0 
0 0 0 0 0 0 0 0 0 
0 0 0 0 0 0 0 0 0 
0 0 0 0 0 0 0 0 0 
0 0 0 0 0 0 0 0 0 
0 0 0 0 0 0 0 0 0 
0 0 0 0 0 0 0 0 0 
0 0 0 0 0 0 0 0 0 
0 0 0 0 0 0 0 0 0 
0 0 0 0 0 0 0 0 0 
0 0 0 0 0 0 0 0 0 
0 0 0 0 0 0 0 0 0 
0 0 0 0 0 0 0 0 0 
0 0 0 0 0 0 0 0 0 
0 0 0 0 0 0 0 0 0 
0 0 0 0 0 0 0 0 0 
0 0 0 0 0 0 0 0 0 
0 0 0 0 0 0 0 0 0 
0 0 0 0 0 0 0 0 0 
0 0 0 0 0 0 0 0 0 
0 0 0 0 0 0 0 0 0 
0 0 0 0 0 0 0 0 0 
0 0 0 0 0 0 0 0 0 
0 0 0 0 0 0 0 0 0 
0 0 0 0 0 0 0 0 0 
0 0 0 0 0 0 0 0 0 
0 0 0 0 0 0 0 0 0 
0 0 0 0 0 0 0 0 0 
0 0 0 0 0 0 0 0 0 
0 0 0 0 0 0 0 0 0 
0 0 0 0 0 0 0 0 0 
0 0 0 0 0 0 0 0 0 
0 0 0 0 0 0 0 0 0 
0 0 0 0 0 0 0 0 0 
0 0 0 0 0 0 0 0 0 
0 0 0 0 0 0 0 0 0 
0 0 0 0 0 0 0 0 0 
0 0 0 0 0 0 0 0 0 
0 0 0 0 0 0 0 0 0 
0 0 0 0 0 0 0 0 0 
0 0 0 0 0 0 0 0 0 
0 0 0 0 0 0 0 0 0 
0 0 0 0 0 0 0 0 0 
0 0 0 0 0 0 0 0 0 
0 0 0 0 0 0 0 0 0 
0 0 0 0 0 0 0 0 0 
0 0 0 0 0 0 0 0 0 
0 0 0 0 0 0 0 0 0 
0 0 0 0 0 0 0 0 0 
0 0 0 0 0 0 0 0 0 
0 0 0 0 0 0 0 0 0 
0 0 0 0 0 0 0 0 0 
0 0 0 0 0 0 0 0 0 
0 0 0 0 0 0 0 0 0 
0 0 0 0 0 0 0 0 0 
0 0 0 0 0 0 0 0 0 
0 0 0 0 0 0 0 0 0 
0 0 0 0 0 0 0 0 0 
0 0 0 0 0 0 0 0 0 
0 0 0 0 0 0 0 0 0 
0 0 0 0 0 0 0 0 0 
0 0 0 0 0 0 0 0 0 
0 0 0 0 0 0 0 0 0 
0 0 0 0 0 0 0 0 0 
0 0 0 0 0 0 0 0 0 
0 0 0 0 0 0 0 0 0 
0 0 0 0 0 0 0 0 0 
0 0 0 0 0 0 0 0 0 
0 0 0 0 0 0 0 0 0 
0 0 0 0 0 0 0 0 0 
0 0 0 0 0 0 0 0 0 
0 0 0 0 0 0 0 0 0 
0 0 0 0 0 0 0 0 0 
0 0 0 0 0 0 0 0 0 
0 0 0 0 0 0 0 0 0 
0 0 0 0 0 0 0 0 0 
0 0 0 0 0 0 0 0 0 
0 0 0 0 0 0 0 0 0 
0 0 0 0 0 0 0 0 0 
0 0 0 0 0 0 0 0 0 
0 0 0 0 0 0 0 0 0 
0 0 0 0 0 0 0 0 0 
0 0 0 0 0 0 0 0 0 
0 0 0 0 0 0 0 0 0 
0 0 0 0 0 0 0 0 0 
0 0 0 0 0 0 0 0 0 
0 0 0 0 0 0 0 0 0 
0 0 0 0 0 0 0 0 0 
0 0 0 0 0 0 0 0 0 
0 0 0 0 0 0 0 0 0 
0 0 0 0 0 0 0 0 0 
0 0 0 0 0 0 0 0 0 
0 0 0 0 0 0 0 0 0 
0 0 0 0 0 0 0 0 0 
0 0 0 0 0 0 0 0 0 
0 0 0 0 0 0 0 0 0 
0 0 0 0 0 0 0 0 0 
0 0 0 0 0 0 0 0 0 
0 0 0 0 0 0 0 0 0 
0 0 0 0 0 0 0 0 0 
0 0 0 0 0 0 0 0 0 
0 0 0 0 0 0 0 0 0 
0 0 0 0 0 0 0 0 0 
0 0 0 0 0 0 0 0 0 
0 0 0 0 0 0 0 0 0 
0 0 0 0 0 0 0 0 0 
0 0 0 0 0 0 0 0 0 
0 0 0 0 0 0 0 0 0 
0 0 0 0 0 0 0 0 0 
0 0 0 0 0 0 0 0 0 
0 0 0 0 0 0 0 0 0 
0 0 0 0 0 0 0 0 0 
0 0 0 0 0 0 0 0 0 
0 0 0 0 0 0 0 0 0 
0 0 0 0 0 0 0 0 0 
0 0 0 0 0 0 0 0 0 
0 0 0 0 0 0 0 0 0 
0 0 0 0 0 0 0 0 0 
0 0 0 0 0 0 0 0 0 
0 0 0 0 0 0 0 0 0 
0 0 0 0 0 0 0 0 0 
0 0 0 0 0 0 0 0 0 
0 0 0 0 0 0 0 0 0 
0 0 0 0 0 0 0 0 0 
0 0 0 0 0 0 0 0 0 
0 0 0 0 0 0 
v 3 1049 double
0.113392 0.127864 0 -0.0186471 -0.125894 0 0.20294 0.283034 0 
-0.0793859 0.708582 0 -0.0516867 -0.115 0 0.0247007 -0.18123 0 
-0.35504 0.373613 0 -0.0290529 -0.13469 0 -0.0427237 0.29798 0 
0.0910999 -0.212217 0 0.00382382 -0.288928 0 0.0621834 -0.0492713 0 
-0.114926 -0.313416 0 -0.415898 -0.275248 0 -7.28321 -9.78173 0 
0.846808 2.54905 0 0.935935 3.36838 0 -0.97343 -1.96586 0 
-0.497035 -1.12121 0 0.161461 2.71947 0 8.14146 -7.42334 0 
2.2365 3.91881 0 0.574387 -2.02528 0 0.428795 2.14972 0 
2.53771 -1.98153 0 -3.17122 3.63059 0 -8.61208 2.67394 0 
0.549858 -1.27301 0 -0.00244744 -0.13778 0 -0.25018 -0.731135 0 
-0.540315 0.515907 0 0.322134 -0.238835 0 -0.0713013 -0.163995 0 
-0.0596403 -0.0161423 0 -0.124294 -0.146234 0 0.134558 -0.00726949 0 
0.0666035 -0.361041 0 0.46007 -0.151199 0 -0.602083 0.113998 0 
0.105022 -2.61484 0 0.751594 6.17852 0 1.92505 0.570932 0 
-5.32749 -4.78561 0 -0.884289 8.13807 0 4.71224 -4.12905 0 
-0.658928 -0.632914 0 -0.0349409 -0.177797 0 -1.37286 -1.5698 0 
1.00044 -1.53646 0 -0.44688 -0.445606 0 -0.189359 -1.09507 0 
-0.0885194 -0.170473 0 -0.103849 -0.260328 0 -0.482477 0.297093 0 
0.0315759 -0.111407 0 -0.00773175 -0.309363 0 -0.102267 -0.342488 0 
-0.294913 -0.408593 0 0.0678619 -0.342253 0 0.761265 -0.661622 0 
0.100169 0.0509354 0 0.163686 -0.294448 0 0.795262 -0.484336 0 
0.287274 0.081836 0 -0.415451 -0.96398 0 0.0914865 -0.121511 0 
-0.302964 0.398583 0 0.0858146 0.0863551 0 0.0928701 0.070282 0 
0.38586 0.676431 0 -0.341926 -0.0459986 0 0.0394195 0.304298 0 
-0.490845 -0.415115 0 -0.0355183 -0.0801664 0 -0.459238 -0.111115 0 
-0.251143 -0.301438 0 -0.327318 -0.235535 0 -0.500477 -0.221018 0 
-0.574092 -0.417548 0 -0.2214 -0.387722 0 -0.563275 -0.399963 0 
0.65002 -0.485507 0 0.695622 -0.516685 0 0.786528 -0.650972 0 
-0.08847 0.374533 0 -0.430595 -0.154879 0 -0.562216 -0.352781 0 
-0.599763 -0.0963656 0 -0.773315 -0.680331 0 -0.643419 -0.438984 0 
-0.695455 -0.415906 0 -0.664388 -0.474079 0 0.680689 -0.602086 0 
0.782551 -0.468842 0 -0.839696 -0.666757 0 -0.766224 -0.590562 0 
0.677443 -0.502048 0 0.681407 -0.601805 0 0.635559 -0.484065 0 
-0.656833 -0.539897 0 -0.666768 -0.560296 0 -0.616993 -0.562768 0 
-0.650493 -0.547009 0 -0.751233 -0.492607 0 -0.691113 -0.579956 0 
-0.510054 -0.426434 0 -0.637267 -0.545223 0 -0.696533 -0.553866 0 
-0.744855 -0.544279 0 -0.732492 -0.591235 0 0.624992 -0.53137 0 
0.649794 -0.509363 0 -0.580732 -0.477973 0 0.63555 -0.545787 0 
-0.620879 -0.546038 0 0 0 0 0 0 0 
0 0 0 0 0 0 0 0 0 
0 0 0 0 0 0 0 0 0 
0 0 0 0 0 0 0 0 0 
0 0 0 0 0 0 0 0 0 
0 0 0 0 0 0 0 0 0 
0 0 0 0 0 0 0 0 0 
0 0 0 0 0 0 0 0 0 
0 0 0 0 0 0 0 0 0 
0 0 0 0 0 0 0 0 0 
0 0 0 0 0 0 0 0 0 
0 0 0 0 0 0 0 0 0 
0 0 0 0 0 0 0 0 0 
0 0 0 0 0 0 0 0 0 
0 0 0 0 0 0 0 0 0 
0 0 0 0 0 0 0 0 0 
0 0 0 0 0 0 0 0 0 
0 0 0 0 0 0 0 0 0 
0 0 0 0 0 0 0 0 0 
0 0 0 0 0 0 0 0 0 
0 0 0 0 0 0 0 0 0 
0 0 0 0 0 0 0 0 0 
0 0 0 0 0 0 0 0 0 
0 0 0 0 0 0 0 0 0 
0 0 0 0 0 0 0 0 0 
0 0 0 0 0 0 0 0 0 
0 0 0 0 0 0 0 0 0 
0 0 0 0 0 0 0 0 0 
0 0 0 0 0 0 0 0 0 
0 0 0 0 0 0 0 0 0 
0 0 0 0 0 0 0 0 0 
0 0 0 0 0 0 0 0 0 
0 0 0 0 0 0 0 0 0 
0 0 0 0 0 0 0 0 0 
0 0 0 0 0 0 0 0 0 
0 0 0 0 0 0 0 0 0 
0 0 0 0 0 0 0 0 0 
0 0 0 0 0 0 0 0 0 
0 0 0 0 0 0 0 0 0 
0 0 0 0 0 0 0 0 0 
0 0 0 0 0 0 0 0 0 
0 0 0 0 0 0 0 0 0 
0 0 0 0 0 0 0 0 0 
0 0 0 0 0 0 0 0 0 
0 0 0 0 0 0 0 0 0 
0 0 0 0 0 0 0 0 0 
0 0 0 0 0 0 0 0 0 
0 0 0 0 0 0 0 0 0 
0 0 0 0 0 0 0 0 0 
0 0 0 0 0 0 0 0 0 
0 0 0 0 0 0 0 0 0 
0.0532446 -0.0999879 0 0 0 0 0 0 0 
0.0165361 -0.0276775 0 0 0 0 0 0 0 
0 0 0 0 0 0 0 0 0 
0 0 0 0 0 0 0 0 0 
0 0 0 0 0 0 0 0 0 
0 0 0 0 0 0 0 0 0 
0 0 0 0 0 0 0 0 0 
0 0 0 0 0 0 0 0 0 
0 0 0 0 0 0 0 0 0 
0 0 0 0 0 0 0 0 0 
0 0 0 0 0 0 0 0 0 
0 0 0 0 0 0 0 0 0 
0 0 0 0 0 0 0 0 0 
0 0 0 0 0 0 0 0 0 
0 0 0 0 0 0 0 0 0 
0 0 0 0 0 0 0 0 0 
-0.0995185 -0.635816 0 0 0 0 0 0 0 
0 0 0 0 0 0 0 0 0 
0 0 0 0 0 0 0 0 0 
0 0 0 0 0 0 0 0 0 
0 0 0 0 0 0 0 0 0 
0 0 0 0 0 0 0 0 0 
0 0 0 0 0 0 0 0 0 
0 0 0 0 0 0 0 0 0 
0 0 0 0 0 0 0 0 0 
0 0 0 0 0 0 0 0 0 
0 0 0 0 0 0 0 0 0 
0 0 0 0 0 0 0 0 0 
0 0 0 0 0 0 0 0 0 
0 0 0 0 0 0 0 0 0 
0 0 0 0 0 0 0 0 0 
0 0 0 0 0 0 0 0 0 
0 0 0 0 0 0 0 0 0 
0 0 0 0 0 0 0 0 0 
0 0 0 0 0 0 0 0 0 
0 0 0 0 0 0 0 0 0 
0 0 0 -0.10461 -0.683049 0 0 0 0 
0 0 0 0 0 0 0 0 0 
0 0 0 0 0 0 0 0 0 
0 0 0 0 0 0 0 0 0 
0 0 0 0 0 0 0 0 0 
0 0 0 0 0 0 0 0 0 
0 0 0 0 0 0 0 0 0 
0 0 0 0 0 0 0 0 0 
0 0 0 0 0 0 0 0 0 
0 0 0 0 0 0 0 0 0 
0 0 0 0 0 0 -0.103433 -0.683402 0 
0 0 0 0 0 0 0 0 0 
0 0 0 0 0 0 0 0 0 
0 0 0 0 0 0 0 0 0 
0 0 0 0 0 0 0 0 0 
0 0 0 0 0 0 0 0 0 
0 0 0 0 0 0 0 0 0 
0 0 0 0 0 0 0 0 0 
0 0 0 0 0 0 0 0 0 
0 0 0 0 0 0 0 0 0 
0 0 0 0 0 0 0 0 0 
0 0 0 0 0 0 0 0 0 
0 0 0 0 0 0 0 0 0 
0 0 0 0 0 0 0 0 0 
0 0 0 0 0 0 0 0 0 
0 0 0 0 0 0 0 0 0 
0 0 0 0 0 0 0 0 0 
0 0 0 0 0 0 0 0 0 
0 0 0 0 0 0 0 0 0 
0 0 0 0 0 0 0 0 0 
0 0 0 0 0 0 0 0 0 
0 0 0 0 0 0 0 0 0 
0 0 0 0 0 0 0 0 0 
0 0 0 0 0 0 0 0 0 
0 0 0 0 0 0 0 0 0 
0 0 0 0 0 0 0 0 0 
0 0 0 0 0 0 0 0 0 
0 0 0 0 0 0 0 0 0 
0 0 0 0 0 0 0 0 0 
0 0 0 0 0 0 0 0 0 
0 0 0 0 0 0 0 0 0 
0 0 0 0 0 0 0 0 0 
0 0 0 0 0 0 0 0 0 
0 0 0 0 0 0 0 0 0 
0 0 0 0 0 0 0 0 0 
0 0 0 0 0 0 0 0 0 
0 0 0 0 0 0 0 0 0 
0 0 0 0 0 0 0 0 0 
0 0 0 0 0 0 0 0 0 
0 0 0 0 0 0 0 0 0 
0 0 0 0 0 0 0 0 0 
0 0 0 0 0 0 0 0 0 
0 0 0 0 0 0 0 0 0 
0 0 0 0 0 0 0 0 0 
0 0 0 0 0 0 0 0 0 
0 0 0 0 0 0 0 0 0 
0 0 0 0 0 0 0 0 0 
0 0 0 0 0 0 0 0 0 
0 0 0 0 0 0 0 0 0 
0 0 0 0 0 0 0 0 0 
0 0 0 0 0 0 0 0 0 
0 0 0 0 0 0 0 0 0 
0 0 0 0 0 0 0 0 0 
0 0 0 0 0 0 0 0 0 
0 0 0 0 0 0 0 0 0 
0 0 0 0 0 0 0 0 0 
0 0 0 0 0 0 0 0 0 
0 0 0 0 0 0 0 0 0 
0 0 0 0 0 0 0 0 0 
0 0 0 0 0 0 0 0 0 
0 0 0 0 0 0 0 0 0 
0 0 0 0 0 0 0 0 0 
0 0 0 0 0 0 0 0 0 
0 0 0 0 0 0 0 0 0 
0 0 0 0 0 0 0 0 0 
0 0 0 0 0 0 0 0 0 
0 0 0 0 0 0 0 0 0 
0 0 0 0 0 0 0 0 0 
0 0 0 0 0 0 0 0 0 
0 0 0 0 0 0 0 0 0 
0 0 0 0 0 0 0 0 0 
0 0 0 0 0 0 0 0 0 
0 0 0 0 0 0 0 0 0 
0 0 0 0 0 0 0 0 0 
0 0 0 0 0 0 0 0 0 
0 0 0 0 0 0 0 0 0 
0 0 0 0 0 0 0 0 0 
0 0 0 0 0 0 0 0 0 
0 0 0 0 0 0 0 0 0 
0 0 0 0 0 0 0 0 0 
0 0 0 0 0 0 0 0 0 
0 0 0 0 0 0 0 0 0 
0 0 0 0 0 0 0 0 0 
0 0 0 0 0 0 0 0 0 
0 0 0 0 0 0 0 0 0 
0 0 0 0 0 0 0 0 0 
0 0 0 0 0 0 0 0 0 
0 0 0 0 0 0 0 0 0 
0 0 0 0 0 0 0 0 0 
0 0 0 0 0 0 0 0 0 
0 0 0 0 0 0 0 0 0 
0 0 0 0 0 0 0 0 0 
0 0 0 0 0 0 0 0 0 
0 0 0 0 0 0 0 0 0 
0 0 0 0 0 0 0 0 0 
0 0 0 0 0 0 0 0 0 
0 0 0 0 0 0 0 0 0 
0 0 0 0 0 0 0 0 0 
0 0 0 0 0 0 0 0 0 
0 0 0 0 0 0 0 0 0 
0 0 0 0 0 0 0 0 0 
0 0 0 0 0 0 0 0 0 
0 0 0 0 0 0 0 0 0 
0 0 0 0 0 0 0 0 0 
0 0 0 0 0 0 0 0 0 
0 0 0 0 0 0 0 0 0 
0 0 0 0 0 0 0 0 0 
0 0 0 0 0 0 0 0 0 
0 0 0 0 0 0 0 0 0 
0 0 0 0 0 0 0 0 0 
0 0 0 0 0 0 0 0 0 
0 0 0 0 0 0 0 0 0 
0 0 0 0 0 0 0 0 0 
0 0 0 0 0 0 0 0 0 
0 0 0 0 0 0 0 0 0 
0 0 0 0 0 0 0 0 0 
0 0 0 0 0 0 0 0 0 
0 0 0 0 0 0 0 0 0 
0 0 0 0 0 0 0 0 0 
0 0 0 0 0 0 0 0 0 
0 0 0 0 0 0 0 0 0 
0 0 0 0 0 0 0 0 0 
0 0 0 0 0 0 0 0 0 
0 0 0 0 0 0 0 0 0 
0 0 0 0 0 0 0 0 0 
0 0 0 0 0 0 0 0 0 
0 0 0 0 0 0 0 0 0 
0 0 0 0 0 0 0 0 0 
0 0 0 0 0 0 0 0 0 
0 0 0 0 0 0 0 0 0 
0 0 0 0 0 0 0 0 0 
0 0 0 0 0 0 0 0 0 
0 0 0 0 0 0 0 0 0 
0 0 0 0 0 0 0 0 0 
0 0 0 0 0 0 0 0 0 
0 0 0 0 0 0 0 0 0 
0 0 0 0 0 0 0 0 0 
0 0 0 0 0 0 0 0 0 
0 0 0 0 0 0 0 0 0 
0 0 0 0 0 0 0 0 0 
0 0 0 0 0 0 0 0 0 
0 0 0 0 0 0 0 0 0 
0 0 0 0 0 0 0 0 0 
0 0 0 0 0 0 0 0 0 
0 0 0 0 0 0 0 0 0 
0 0 0 0 0 0 0 0 0 
0 0 0 0 0 0 0 0 0 
0 0 0 0 0 0 0 0 0 
0 0 0 0 0 0 0 0 0 
0 0 0 0 0 0 0 0 0 
0 0 0 0 0 0 0 0 0 
0 0 0 0 0 0 0 0 0 
0 0 0 0 0 0 0 0 0 
0 0 0 0 0 0 0 0 0 
0 0 0 0 0 0 0 0 0 
0 0 0 0 0 0 0 0 0 
0 0 0 0 0 0 0 0 0 
0 0 0 0 0 0 0 0 0 
0 0 0 0 0 0 0 0 0 
0 0 0 0 0 0 0 0 0 
0 0 0 0 0 0 0 0 0 
0 0 0 0 0 0 0 0 0 
0 0 0 0 0 0 0 0 0 
0 0 0 0 0 0 0 0 0 
0 0 0 0 0 0 0 0 0 
0 0 0 0 0 0 0 0 0 
0 0 0 0 0 0 0 0 0 
0 0 0 0 0 0 0 0 0 
0 0 0 0 0 0 0 0 0 
0 0 0 0 0 0 0 0 0 
0 0 0 0 0 0 0 0 0 
0 0 0 0 0 0 0 0 0 
0 0 0 0 0 0 0 0 0 
0 0 0 0 0 0 0 0 0 
0 0 0 0 0 0 0 0 0 
0 0 0 0 0 0 0 0 0 
0 0 0 0 0 0 0 0 0 
0 0 0 0 0 0 0 0 0 
0 0 0 0 0 0 0 0 0 
0 0 0 0 0 0 0 0 0 
0 0 0 0 0 0 0 0 0 
0 0 0 0 0 0 0 0 0 
0 0 0 0 0 0 0 0 0 
0 0 0 0 0 0 0 0 0 
0 0 0 0 0 0 0 0 0 
0 0 0 0 0 0 0 0 0 
0 0 0 0 0 0 0 0 0 
0 0 0 0 0 0 0 0 0 
0 0 0 0 0 0 0 0 0 
0 0 0 0 0 0 0 0 0 
0 0 0 0 0 0 0 0 0 
0 0 0 0 0 0 0 0 0 
0 0 0 0 0 0 0 0 0 
0 0 0 0 0 0 0 0 0 
0 0 0 0 0 0 0 0 0 
0 0 0 0 0 0 0 0 0 
0 0 0 0 0 0 0 0 0 
0 0 0 0 0 0 0 0 0 
0 0 0 0 0 0 0 0 0 
0 0 0 0 0 0 0 0 0 
0 0 0 0 0 0 0 0 0 
0 0 0 0 0 0 0 0 0 
0 0 0 0 0 0 0 0 0 
0 0 0 0 0 0 0 0 0 
0 0 0 0 0 0 0 0 0 
0 0 0 0 0 0 0 0 0 
0 0 0 0 0 0 0 0 0 
0 0 0 0 0 0 0 0 0 
0 0 0 0 0 0 0 0 0 
0 0 0 0 0 0 0 0 0 
0 0 0 0 0 0 0 0 0 
0 0 0 0 0 0 0 0 0 
0 0 0 0 0 0 0 0 0 
0 0 0 0 0 0 0 0 0 
0 0 0 0 0 0 
x 1 1049 double
-1.37329 -1.2478 -0.801854 -0.249362 -0.568823 0.0224228 0.776942 0.61638 0.259689 
1.65488 1.21947 -1.88529 -1.77519 -1.36433 -0.233996 -0.932735 -0.576713 -0.401212 
-0.881961 -0.360259 -0.0315698 -0.0148135 0.0121039 0.824409 0.791499 0.362932 0.527754 
0.52898 1.62908 1.21439 1.13826 1.69303 2.13854 -2.15402 -1.33753 -1.62588 
-1.82306 -1.28259 -1.04744 -0.837693 -0.0409301 -0.572426 -0.513161 -0.343333 0.197554 
0.778087 0.850455 0.0254238 0.436185 0.430248 1.13256 1.60652 1.92469 1.25763 
1.35973 2.48654 2.09999 2.79117 -2.27087 -2.26403 -1.31317 -1.84169 -1.63081 
-0.918021 -0.328048 -0.210683 -0.467855 -0.828959 -0.661274 0.476271 0.46721 0.0309388 
0.912967 0.909217 1.41759 1.7917 1.36549 1.84616 2.33877 2.27914 2.87859 
-4.12146 -4.69874 -2.74366 0.202222 0.907818 1.98424 1.42032 2.80748 2.61941 
3.80626 4.31903 -4.48663 -4.05651 3.72635 4.97344 -5.65511 -4.76495 -4.1808 
5.92849 7.22235 6.98031 6.67841 7.26694 7.98807 8.79 9.50605 8.4907 
8.86864 9.50774 -10.2375 -10.5999 10.9703 -11.168 11.424 -15 -14.2857 
-14.8214 -15 -15 -15 -14.6429 -14.4643 -15 -14.1071 -13.5714 
-13.75 -13.2143 -13.0357 -13.9286 -13.3929 -12.8571 -12.6786 -12.5 -11.3214 
-11.1429 -11.5 -10.4286 -10.0714 -10.6071 -10.7857 -10.25 -10.9643 -9.7143 
-9.3571 -9.1786 -9.5357 -9.8929 -9 -9 -8.4 -8.2 -9 
-9 -8.6 -9 -8.8 -7.4 -7.2 -7.8 -8 -7.6 
-7 -6.6 -6.8 -6.2 -6.4 -6 -5.6 -5.4 -5.8 
-5.2 -4.6 -4.2 -4.8 -4.4 -5 -3.8 -3.2 -3.6 
-3.4 -4 -2.8 -3 -3 -2.2 -2.6 -3 -2.4 
-3 -3 -2 -1.4 -1.6 -1.2 -1.8 -0.6 -1 
-0.2 -0.4 -0.8 -0 0.4 0.2 0.6 0.8 1 
1.6 1.4 1.2 1.8 2.4 2.8 2.6 2.2 2 
3.6 3 3 3 3 3 3.8 3.2 3.4 
4.8 4.6 4.4 4.2 4 5.2 5.4 5.8 5.6 
5 6.2 6.8 6.4 6 6.6 7 7.4 7.8 
7.2 7.6 8 8.6 8.4 8.8 8.2 9 9 
9.5357 9 9.7143 9 9.3571 9 9.1786 9.8929 10.0714 
10.25 10.4286 10.9643 10.6071 10.7857 11.5 11.744 11.1429 11.3214 
12.3056 12.8571 12.5 12.6786 13.75 13.0357 13.9286 13.2143 13.5714 
13.3929 14.4643 14.6429 14.1071 14.8214 14.2857 15 15 15 
15 15 -15 -15 -15 -15 -15 -9 -9 
-9 -9 -9 -3 -3 -3 -3 -3 3 
3 3 3 3 9 9 9 9 9 
12.1572 15 15 15 15 15 -15 -15 -15 
-15 -15 -9 -9 -9 -9 -9 -3 -3 
-3 -3 -3 3 3 3 3 3 9 
9 9 9 9 15 15 15 15 15 
-15 -15 -15 -15 -15 -9 -9 -9 -9 
-9 -3 -3 -3 -3 -3 3 3 3 
3 3 9 9 9 9 9 12.4796 15 
15 15 15 15 -15 -15 -15 -15 -15 
-9 -9 -9 -9 -9 -3 -3 -3 -3 
-3 3 3 3 3 3 9 9 9 
9 9 12.6112 15 15 15 15 15 -15 
-15 -15 -15 -15 -9 -9 -9 -9 -9 
-3 -3 -3 -3 -3 3 3 3 3 
3 9 9 9 9 9 15 15 15 
15 15 -15 -15 -15 -15 -15 -9 -9 
-9 -9 -9 -3 -3 -3 -3 -3 3 
3 3 3 3 9 9 9 9 9 
15 15 15 15 15 -15 -15 -15 -15 
-15 -9 -9 -9 -9 -9 -3 -3 -3 
-3 -3 3 3 3 3 3 9 9 
9 9 9 15 15 15 15 15 -15 
-15 -15 -15 -15 -8.1071 -8.2857 -9 -8.6429 -8.8214 
-8.4643 -7.75 -7.2143 -7.3929 -7.0357 -7.9286 -7.5714 -6.8571 -6.5 
-6.6786 -5.1429 -5.5 -5.3214 -4.9643 -4.6071 -4.25 -4.7857 -4.4286 
-4.0714 -3.8929 -3.7143 -3.5357 -3.1786 -3.3571 -3 -2.6429 -2.8214 
-2.2857 -2.4643 -2.1071 -1.75 -1.2143 -1.5714 -1.0357 -1.3929 -1.9286 
-0.5 -0.6786 -0.8571 0.8571 0.6786 0.5 1.5714 1.2143 1.75 
1.3929 1.0357 1.9286 2.1071 2.2857 2.6429 2.8214 2.4643 3.3571 
3.5357 3.7143 3.1786 3.8929 3 4.7857 4.4286 4.6071 4.25 
4.9643 4.0714 5.5 5.3214 5.1429 6.5 6.8571 6.6786 7.0357 
7.75 7.2143 7.5714 7.9286 7.3929 8.1071 8.2857 8.4643 8.8214 
8.6429 9 9 15 15 15 15 15 -15 
-15 -15 -15 -15 15 15 15 15 15 
-14.3333 -15 -15 -14.6667 -15 -15 -14.1667 -15 -14.8333 
-14.5 -14 -12.2 -13 -12.6 -12.4 -12.8 -11.2 -11.6 
-12 -11.4 -11.8 -10.4 -11 -10.6 -10.8 -10.2 -9.4 
-9.2 -9.6 -9.8 -10 -9 -8.6429 -9 -9 -8.4643 
-9 -9 -8.1071 -8.2857 -8.8214 -7.75 -7.2143 -7.9286 -7.5714 
-7.0357 -7.3929 -6.6786 -6.5 -6.8571 -5.1429 -5.3214 -5.5 -4.0714 
-4.9643 -4.6071 -4.4286 -4.7857 -4.25 -3.5357 -3.8929 -3.3571 -3.1786 
-3.7143 -2.4 -2.2 -2.8 -3 -3 -3 -3 -3 
-2.6 -1.8 -1.2 -1.6 -2 -1.4 -0.8 -1 -0.4 
-0.6 -0.2 0.2 -0 0.6 0.4 0.8 1 1.4 
1.6 1.2 1.8 2.4 2.2 2.6 2.8 2 3.4 
3.6 3.8 3 3.2 4.2 4 4.6 4.8 4.4 
5.4 5.8 5.6 5 5.2 6.6 6.2 6.4 6.8 
6 7.4 7.2 7.8 7 7.6 8.2 8.6 8.4 
8 8.8 9 9.8 9 9.2 9 9 9.6 
9.4 9 10 10.2 10.4 10.6 10.8 11.4 11.2 
11 11.8 11.6 12 12.8 12.2 12.4 12.6 13 
14.6667 14.3333 14.8333 14.5 14 14.1667 15 15 15 
15 15 -15 -15 -15 -15 -15 -9 -9 
-9 -9 -9 -3 -3 -3 -3 -3 9 
9 9 9 9 15 15 15 15 15 
-15 -15 -15 -15 -15 -9 -9 -9 -9 
-9 -3 -3 -3 -3 -3 9 9 9 
9 9 15 15 15 15 15 -15 -15 
-15 -15 -15 -9 -9 -9 -9 -9 -3 
-3 -3 -3 -3 9 9 9 9 9 
15 15 15 15 15 -15 -15 -15 -15 
-15 -9 -9 -9 -9 -9 -3 -3 -3 
-3 -3 9 15 15 15 15 15 -15 
-15 -15 -15 -15 -9 -9 -9 -9 -9 
-3 -3 -3 -3 -3 9 9 9 9 
9 9 15 15 15 15 15 -14.2 -14.8 
-15 -14.4 -14.6 -13.2 -13.8 -14 -13.6 -13.4 -12.4 
-13 -12.6 -12.2 -12.8 -11.6 -11.8 -11.4 -11.2 -12 
-11 -10.2 -10.6 -10.4 -10.8 -10 -9.2 -9.6 -9.4 
-9.8 -8.2 -8.4 -9 -8.8 -8.6 -8 -7.4 -7.2 
-7.6 -7.8 -6.8 -6.2 -6.6 -7 -6.4 -5.8 -5.6 
-5.2 -6 -5.4 -5 -4.6 -4.2 -4.4 -4.8 -4 
-3.4 -3.8 -3.6 -3.2 -2.6 -2.2 -3 -2.8 -2.4 
-1.4 -1.6 -1.8 -1.2 -2 -1 -0.2 -0.8 -0.4 
-0.6 0.4 -0 0.6 0.8 0.2 1.4 1.6 1.2 
1.8 1 2.8 2 2.2 2.6 2.4 3.4 3 
3.8 3.2 3.6 4 4.2 4.4 4.6 4.8 5.8 
5 5.4 5.2 5.6 6.4 6.8 6.6 6.2 6 
7.4 7 7.6 7.8 7.2 8.6 8.8 8 8.4 
8.2 9 9.2 9.8 9.4 9.6 10 10.2 10.4 
10.6 10.8 11.4 11.8 11 11.6 11.2 12.4 12.8 
12.6 12.2 12 13.8 13.2 13.4 13.6 13 14.8 
14 14.2 14.4 14.6 15 
y 1 1049 double
-11.0591 -11.6285 -11.2241 -11.3129 -11.7636 -11.7735 -11.2914 -11.7779 -11.2898 
-11.1968 -11.5599 -10.7199 -10.1537 -10.5024 -9.95393 -10.2775 -10.288 -10.8912 
-10.7152 -10.5224 -10.0262 -10.4736 -10.8878 -10.0998 -10.5151 -10.4934 -10.1541 
-10.8499 -10.6903 -10.43 -10.959 -10.2077 -10.4753 -9.81302 -9.06033 -9.59238 
-9.12273 -9.97859 -9.43507 -9.79503 -9.57987 -9.31255 -9.85591 -9.64493 -9.8413 
-9.70735 -9.28555 -9.13531 -9.59711 -9.19199 -9.60299 -9.72655 -9.40325 -9.99625 
-9.23926 -9.51523 -9.92022 -9.02689 -8.95196 -8.1394 -8.57141 -8.60197 -8.06427 
-8.39154 -8.93357 -8.0884 -8.51802 -8.88242 -8.04242 -8.76735 -8.25516 -8.57439 
-8.44619 -8.91604 -8.18132 -8.95945 -8.72104 -8.51461 -8.46198 -8.97679 -8.51501 
-7.40786 -7.17975 -7.70385 -7.82422 -7.90352 -7.95776 -7.6471 -7.33684 -7.97502 
-7.79759 -7.21969 -6.49254 -6.80933 -6.79899 -6.16675 -5.95608 -5.9588 -5.73202 
-5.04047 -5.05472 -4.08795 -4.6694 -3.51213 -3.44682 -3.76513 -3.01379 -2.98517 
-2.4184 -2.29926 -1.77542 -1.3481 -1.23195 -0.892543 -0.74883 0 0 
0 0.2 0.8 0.6 0 0 0.4 0 0 
0 0 0 0 0 0 0 0 0 
0 0 0 0 0 0 0 0 0 
0 0 0 0 0.8 0 0 0 0.4 
0.6 0 0.2 0 0 0 0 0 0 
0 0 0 0 0 0 0 0 0 
0 0 0 0 0 0 0 0 0 
0 0 0 0 0.6 0 0 0.8 0 
0.2 0.4 0 0 0 0 0 0 0 
0 0 0 0 0 0 0 0 0 
0 0 0 0 0 0 0 0 0 
0 0.8 0 0.6 0.2 0.4 0 0 0 
0 0 0 0 0 0 0 0 0 
0 0 0 0 0 0 0 0 0 
0 0 0 0 0 0 0 0.6 0.8 
0 0.4 0 0 0 0.2 0 0 0 
0 0 0 0 0 0 0.292096 0 0 
0.301986 0 0 0 0 0 0 0 0 
0 0 0 0 0 0 0.8 0 0.2 
0.6 0.4 1.4 1 1.2 1.8 1.6 1 1.2 
1.4 1.8 1.6 1 1.4 1.2 1.6 1.8 1.2 
1.4 1 1.8 1.6 1.4 1.2 1.6 1 1.8 
1.04804 1.4 1.6 1.8 1 1.2 2 2.8 2.4 
2.6 2.2 2.4 2.6 2.2 2 2.8 2.4 2.8 
2 2.2 2.6 2.6 2.2 2.8 2.4 2 2.2 
2.4 2.8 2 2.6 2 2.8 2.6 2.4 2.2 
3.8 3.6 3 3.2 3.4 3.4 3.8 3.2 3.6 
3 3 3.6 3.4 3.2 3.8 3 3.2 3.4 
3.8 3.6 3.8 3.4 3.6 3 3.2 3.12528 3.2 
3.8 3 3.4 3.6 4.8 4.2 4.6 4 4.4 
4.8 4.2 4.6 4 4.4 4.6 4 4.2 4.8 
4.4 4.6 4 4.2 4.4 4.8 4.8 4.2 4.4 
4.6 4 4.04197 4.8 4 4.2 4.4 4.6 5.6 
5.4 5.8 5.2 5 5.8 5 5.6 5.4 5.2 
5.8 5.2 5 5.6 5.4 5.4 5.2 5 5.8 
5.6 5.4 5.6 5.8 5 5.2 5.4 5 5.8 
5.6 5.2 6.2 6 6.6 6.4 6.8 6.8 6.6 
6.4 6.2 6 6.4 6.8 6 6.2 6.6 6 
6.2 6.6 6.8 6.4 6 6.2 6.6 6.8 6.4 
6.6 6.4 6.8 6 6.2 7 7.4 7.8 7.2 
7.6 7 7.8 7.6 7.4 7.2 7.6 7.8 7 
7.4 7.2 7 7.8 7.6 7.2 7.4 7 7.8 
7.2 7.4 7.6 7.2 7.6 7.8 7.4 7 8.6 
8 8.8 8.2 8.4 8 8 8 8 8 
8 8 8 8 8 8 8 8 8 
8 8 8 8 8 8 8 8 8 
8 8 8 8 8 8 8 8 8 
8 8 8 8 8 8 8 8 8 
8 8 8 8 8 8 8 8 8 
8 8 8 8 8 8 8 8 8 
8 8 8 8 8 8 8 8 8 
8 8 8 8 8 8 8 8 8 
8 8 8 8 8 8 8 8 8 
8 8 8 8.4 8.8 8.6 8.2 8 9.6 
9.4 9 9.8 9.2 9.2 9.6 9.8 9 9.4 
10 10.8 10.4 10 10.2 10 10 10.6 10 
10 10 10 10 10 10 10 10 10 
10 10 10 10 10 10 10 10 10 
10 10 10 10 10.2 10 10.6 10.8 10 
10.4 10 10 10 10 10 10 10 10 
10 10 10 10 10 10 10 10 10 
10 10 10 10 10 10 10 10 10 
10 10 10 10 10 10.8 10.4 10.2 10.6 
10 10 10 10 10 10 10 10 10 
10 10 10 10 10 10 10 10 10 
10 10 10 10 10 10 10 10 10 
10 10 10 10 10 10 10 10 10 
10 10 10 10 10 10 10 10 10 
10 10 10 10 10 10 10 10 10 
10 10 10.4 10 10.8 10 10.2 10 10 
10 10.6 10 10 10 10 10 10 10 
10 10 10 10 10 10 10 10 10 
10 10 10 10 10 10 10.2 10.4 10.8 
10.6 10 11.4 11.8 11.2 11.6 11 11.4 11.6 
11 11.2 11.8 11 11.4 11.2 11.6 11.8 11.8 
11.4 11.2 11 11.6 11.4 11.2 11.8 11 11.6 
12 12.6 12.4 12.8 12.2 12 12.2 12.4 12.8 
12.6 12.8 12.6 12.2 12 12.4 12.6 12 12.2 
12.4 12.8 12.6 12 12.4 12.2 12.8 13 13.6 
13.4 13.2 13.8 13.4 13.2 13.6 13 13.8 13.2 
13.4 13 13.8 13.6 13.4 13.6 13.2 13 13.8 
13 13.4 13.8 13.2 13.6 14 14.2 14.6 14.8 
14.4 14.4 14.2 14 14.8 14.6 14.6 14.8 14.2 
14 14.4 14 14.6 14 14.8 14.4 14.2 15 
15.4 15.8 15.2 15.6 15.4 15.2 15 15.8 15.6 
15.2 15.8 15.4 15 15.6 15.1667 15.3333 15 15.6667 
15.5 15.8333 15.8 15 15.6 15.4 15.2 16 16 
16 16 16 16 16 16 16 16 16 
16 16 16 16 16 16 16 16 16 
16 16 16 16 16 16 16 16 16 
16 16 16 16 16 16 16 16 16 
16 16 16 16 16 16 16 16 16 
16 16 16 16 16 16 16 16 16 
16 16 16 16 16 16 16 16 16 
16 16 16 16 16 16 16 16 16 
16 16 16 16 16 16 16 16 16 
16 16 16 16 16 16 16 16 16 
16 16 16 16 16 16 16 16 16 
16 16 16 16 16 16 16 16 16 
16 16 16 16 16 16 16 16 16 
16 16 16 16 16 16 16 16 16 
16 16 16 16 16 16 16 16 16 
16 16 16 16 16 16 16 16 16 
16 16 16 16 16 
