# vtk DataFile Version 4.0
vtk output
ASCII
DATASET POLYDATA
FIELD FieldData 4
domain 1 4 string
domain_min:-40|-40
domain_max:40|40
cell_size:1|1
boundary:0|0

variables 1 5 string
T:26
dt:0.01
write_case:1
substeps:10
all_steps:2600

constants 1 17 string
L:40
c_s:1
dx:1
k:1000
d1:-13.5|10
d2:-6|10
d3:9|14.5
d4:13.5|10
d5:-6|8
d6:0|8
d7:6|8
d8:-9|9
d9:9|9
d10:-12|0
d11:12|0
d12:0|-10
R_w:0.1

equations 1 18 string
time:T=(T+dt)#true
pos_x:x=elem(r,0,0)#eq(gid,1)
pos_y:y=elem(r,1,0)#eq(gid,1)
wp_1:p0=if(and(lt(x,(-9)),gt(y,10)),d1,p0)#eq(gid,1)
wp_2:p0=if(and(and(gt(x,(-9)),lt(x,(-3))),gt(y,10)),d2,p0)#eq(gid,1)
wp_3:p0=if(and(and(gt(x,(-3)),lt(x,9)),gt(y,10)),d3,p0)#eq(gid,1)
wp_4:p0=if(and(gt(x,9),gt(y,10)),d4,p0)#eq(gid,1)
wp_5:p0=if(and(and(gt(x,(-9)),lt(x,(-3))),lt(y,8)),d5,p0)#eq(gid,1)
wp_6:p0=if(and(and(gt(x,(-3)),lt(x,3)),lt(y,8)),d6,p0)#eq(gid,1)
wp_7:p0=if(and(and(gt(x,3),lt(x,9)),lt(y,8)),d7,p0)#eq(gid,1)
wp_8:p0=if(and(and(gt(x,(-9)),lt(x,0)),and(gt(y,8),lt(y,10))),d8,p0)#eq(gid,1)
wp_9:p0=if(and(and(gt(x,0),lt(x,9)),and(gt(y,8),lt(y,10))),d9,p0)#eq(gid,1)
wp_10:p0=if(and(lt(x,(-9)),lt(y,10)),d10,p0)#eq(gid,1)
wp_11:p0=if(and(gt(x,9),lt(y,10)),d11,p0)#eq(gid,1)
wp_12:p0=if(lt(y,0),d12,p0)#eq(gid,1)
acceleration:v=sfm(v,p0,v0,m,R,A,B,k,c,tau)#eq(gid,1)
velocity:v=euler(v,a,dt)#eq(gid,1)
position:r=euler(r,v,dt)#eq(gid,1)

POINTS 1049 float
-0.426779 -11.2878 0 0.725214 -11.1564 0 0.12192 -11.0807 0 
-1.49159 -10.4071 0 -0.856763 -10.882 0 -0.302918 -10.7971 0 
-0.880128 -10.3446 0 -0.413816 -10.4354 0 -0.204825 -10.084 0 
0.964596 -10.6199 0 0.0634979 -10.5113 0 0.4652 -10.7112 0 
0.492587 -10.2544 0 1.47752 -10.4467 0 1.08966 -10.0402 0 
-1.18353 -9.92926 0 -1.22931 -9.44608 0 -1.80527 -9.51076 0 
-0.610733 -9.91691 0 -0.256585 -9.59354 0 -0.689028 -9.47553 0 
-0.148525 -9.1358 0 0.0536964 -9.99305 0 0.170313 -9.53107 0 
0.557493 -9.81412 0 0.571073 -9.29065 0 0.950396 -9.51632 0 
1.41856 -9.44253 0 -2.95984 -8.55064 0 -2.29207 -8.714 0 
-2.53676 -8.109 0 -1.8858 -8.32641 0 -1.59522 -8.74649 0 
-1.14581 -8.92998 0 -1.27846 -8.30727 0 -0.629527 -8.96635 0 
-0.823556 -8.47922 0 -0.235099 -8.58449 0 0.190012 -8.31863 0 
0.962501 -8.93613 0 0.332919 -8.85628 0 1.55881 -8.58647 0 
2.10622 -8.38021 0 -3.2478 -7.50782 0 -2.0701 -7.76121 0 
2.05772 -7.68561 0 3.46906 -7.79999 0 3.13535 -7.26437 0 
4.29644 -7.13071 0 -5.31843 -6.40047 0 -4.64006 -6.44959 0 
-3.59311 -6.66886 0 3.64053 -6.76156 0 4.82385 -6.87318 0 
4.3725 -6.09242 0 5.19071 -6.44631 0 6.07347 -6.08137 0 
-6.18003 -5.54315 0 -5.64737 -5.84859 0 -4.86593 -5.63887 0 
4.67963 -5.37748 0 5.03603 -5.90343 0 5.56998 -5.72904 0 
5.23035 -5.20603 0 -6.57773 -4.65155 0 -5.73936 -4.95941 0 
6.17213 -4.84991 0 7.49111 -4.85771 0 7.26953 -4.08297 0 
8.13729 -4.37578 0 -9.42168 -3.23222 0 -8.41004 -3.29759 0 
-7.84199 -3.3856 0 7.37893 -3.37831 0 7.98287 -3.44699 0 
8.42464 -3.93275 0 8.5428 -3.40327 0 9.42947 -3.75455 0 
9.06436 -3.3139 0 -10.4729 -2.24922 0 -10.0967 -2.63682 0 
-9.28939 -2.3178 0 -8.58817 -2.75855 0 7.84822 -2.83868 0 
8.50287 -2.66048 0 9.04484 -2.65226 0 9.6564 -2.93698 0 
9.32125 -2.10378 0 10.5386 -2.22951 0 -10.5744 -1.64225 0 
-10.9178 -1.03781 0 -9.95768 -1.49573 0 9.89091 -1.79681 0 
10.4324 -1.49168 0 11.0044 -1.50431 0 -11.775 -0.290183 0 
-11.6151 -0.846007 0 11.7614 -0.528631 0 11.1879 -0.835574 0 
11.7895 -0.0347681 0 -15 0.2 0 -14.2857 0 0 
-15 0.6 0 -14.8214 0 0 -14.1071 0 0 
-14.6429 0 0 -14.4643 0 0 -15 0 0 
-15 0.8 0 -15 0.4 0 -13.5714 0 0 
-13.2143 0 0 -13.9286 0 0 -13.0357 0 0 
-13.75 0 0 -13.3929 0 0 -12.6786 0 0 
-12.5 0 0 -12.8571 0 0 -11.5 0 0 
-11.1429 0 0 -11.3214 0 0 -10.9643 0 0 
-10.25 0 0 -10.4286 0 0 -10.0714 0 0 
-10.6071 0 0 -10.7857 0 0 -9.3571 0 0 
-9.5357 0 0 -9.1786 0 0 -9.8929 0 0 
-9.7143 0 0 -9 0.2 0 -9 0 0 
-8.6 0 0 -8.4 0 0 -8.2 0 0 
-8.8 0 0 -9 0.8 0 -9 0.4 0 
-9 0.6 0 -7.2 0 0 -8 0 0 
-7.4 0 0 -7.8 0 0 -7.6 0 0 
-6.2 0 0 -6.4 0 0 -6.8 0 0 
-6.6 0 0 -7 0 0 -6 0 0 
-5.6 0 0 -5.4 0 0 -5.8 0 0 
-5.2 0 0 -4.6 0 0 -5 0 0 
-4.4 0 0 -4.8 0 0 -4.2 0 0 
-3.6 0 0 -4 0 0 -3.4 0 0 
-3.2 0 0 -3.8 0 0 -3 0.6 0 
-2.4 0 0 -3 0.2 0 -2.2 0 0 
-2.8 0 0 -2.6 0 0 -3 0.4 0 
-3 0 0 -3 0.8 0 -1.2 0 0 
-1.8 0 0 -1.4 0 0 -1.6 0 0 
-2 0 0 -0.6 0 0 -0.8 0 0 
-0.4 0 0 -0.2 0 0 -1 0 0 
0.8 0 0 0.4 0 0 0.2 0 0 
-0 0 0 0.6 0 0 1.8 0 0 
1.4 0 0 1.2 0 0 1 0 0 
1.6 0 0 2.4 0 0 2.8 0 0 
2 0 0 2.2 0 0 2.6 0 0 
3.6 0 0 3.4 0 0 3.2 0 0 
3 0 0 3 0.8 0 3 0.2 0 
3 0.6 0 3.8 0 0 3 0.4 0 
4.8 0 0 4.4 0 0 4 0 0 
4.2 0 0 4.6 0 0 5.6 0 0 
5 0 0 5.8 0 0 5.2 0 0 
5.4 0 0 6 0 0 6.8 0 0 
6.6 0 0 6.4 0 0 6.2 0 0 
7.8 0 0 7.2 0 0 7.4 0 0 
7.6 0 0 7 0 0 8 0 0 
8.2 0 0 8.4 0 0 8.8 0 0 
8.6 0 0 9.1786 0 0 9 0.6 0 
9 0.8 0 9.7143 0 0 9 0.4 0 
9 0 0 9.3571 0 0 9.8929 0 0 
9.5357 0 0 9 0.2 0 10.0714 0 0 
10.9643 0 0 10.25 0 0 10.6071 0 0 
10.7857 0 0 10.4286 0 0 11.1429 0 0 
11.5 0 0 11.5171 0.604524 0 11.3214 0 0 
12.6786 0 0 12.6723 0.396864 0 12.5 0 0 
12.8571 0 0 12.0912 0.325465 0 12.2846 0.816293 0 
13.2143 0 0 13.0357 0 0 13.75 0 0 
13.5714 0 0 13.3929 0 0 13.9286 0 0 
14.6429 0 0 14.8214 0 0 14.2857 0 0 
14.1071 0 0 14.4643 0 0 15 0.4 0 
15 0.6 0 15 0.8 0 15 0.2 0 
15 0 0 -15 1.8 0 -15 1.2 0 
-15 1 0 -15 1.4 0 -15 1.6 0 
-9 1.4 0 -9 1 0 -9 1.2 0 
-9 1.8 0 -9 1.6 0 -3 1.6 0 
-3 1.8 0 -3 1 0 -3 1.2 0 
-3 1.4 0 3 1 0 3 1.8 0 
3 1.2 0 3 1.4 0 3 1.6 0 
9 1.2 0 9 1 0 9 1.6 0 
9 1.4 0 9 1.8 0 11.8492 1.14551 0 
12.4296 1.57275 0 12.7238 1.06353 0 15 1.2 0 
15 1.6 0 15 1.8 0 15 1 0 
15 1.4 0 -15 2.4 0 -15 2.2 0 
-15 2.8 0 -15 2 0 -15 2.6 0 
-9 2.4 0 -9 2 0 -9 2.2 0 
-9 2.6 0 -9 2.8 0 -3 2.8 0 
-3 2 0 -3 2.6 0 -3 2.2 0 
-3 2.4 0 3 2.4 0 3 2.6 0 
3 2 0 3 2.2 0 3 2.8 0 
9 2 0 9 2.4 0 9 2.8 0 
9 2.2 0 9 2.6 0 10.8349 2.86104 0 
11.2912 2.34555 0 12.3018 2.21562 0 12.4135 2.81657 0 
15 2 0 15 2.4 0 15 2.6 0 
15 2.8 0 15 2.2 0 -15 3.4 0 
-15 3 0 -15 3.2 0 -15 3.8 0 
-15 3.6 0 -9 3.2 0 -9 3 0 
-9 3.4 0 -9 3.6 0 -9 3.8 0 
-3 3.6 0 -3 3.2 0 -3 3 0 
-3 3.4 0 -3 3.8 0 3 3 0 
3 3.6 0 3 3.2 0 3 3.8 0 
3 3.4 0 9 3.4 0 9 3.6 0 
9 3.8 0 9 3 0 9 3.2 0 
10.8441 3.89006 0 11.3949 3.27142 0 15 3 0 
15 3.6 0 15 3.2 0 15 3.8 0 
15 3.4 0 -15 4.6 0 -15 4.2 0 
-15 4.8 0 -15 4 0 -15 4.4 0 
-10.722 4.65235 0 -9 4.4 0 -9 4.8 0 
-9 4 0 -9 4.6 0 -9 4.2 0 
-3 4.8 0 -3 4.6 0 -3 4 0 
-3 4.4 0 -3 4.2 0 3 4.4 0 
3 4 0 3 4.2 0 3 4.8 0 
3 4.6 0 9 4 0 9 4.6 0 
9 4.8 0 9 4.2 0 9 4.4 0 
15 4.6 0 15 4.4 0 15 4.2 0 
15 4 0 15 4.8 0 -15 5.4 0 
-15 5.6 0 -15 5 0 -15 5.2 0 
-15 5.8 0 -10.4124 5.12907 0 -10.2358 5.87419 0 
-9 5.6 0 -9 5.4 0 -9 5.8 0 
-9 5 0 -9 5.2 0 -3 5 0 
-3 5.8 0 -3 5.6 0 -3 5.2 0 
-3 5.4 0 3 5.8 0 3 5.6 0 
3 5.4 0 3 5.2 0 3 5 0 
9 5.6 0 9 5.2 0 9 5.4 0 
9 5 0 9 5.8 0 12.9024 5.95974 0 
15 5.2 0 15 5.6 0 15 5.4 0 
15 5.8 0 15 5 0 -15 6.6 0 
-15 6 0 -15 6.2 0 -15 6.4 0 
-15 6.8 0 -9 6.6 0 -9 6.2 0 
-9 6.4 0 -9 6.8 0 -9 6 0 
-3 6.4 0 -3 6.8 0 -3 6 0 
-3 6.2 0 -3 6.6 0 3 6.6 0 
3 6 0 3 6.2 0 3 6.4 0 
3 6.8 0 9 6.2 0 9 6.8 0 
9 6.6 0 9 6 0 9 6.4 0 
15 6.4 0 15 6.6 0 15 6 0 
15 6.2 0 15 6.8 0 -15 7.2 0 
-15 7.4 0 -15 7.8 0 -15 7 0 
-15 7.6 0 -9 7 0 -9 7.4 0 
-9 7.8 0 -9 7.2 0 -9 7.6 0 
-3 7.6 0 -3 7.8 0 -3 7.2 0 
-3 7 0 -3 7.4 0 3 7.4 0 
3 7.2 0 3 7.8 0 3 7 0 
3 7.6 0 9 7.6 0 9 7.8 0 
9 7.2 0 9 7 0 9 7.4 0 
13.111 7.33103 0 15 7.8 0 15 7.4 0 
15 7.6 0 15 7.2 0 15 7 0 
-15 8.6 0 -15 8.2 0 -15 8 0 
-15 8.8 0 -15 8.4 0 -8.1071 8 0 
-8.6429 8 0 -8.2857 8 0 -9 8 0 
-8.4643 8 0 -8.8214 8 0 -7.2143 8 0 
-7.75 8 0 -7.3929 8 0 -7.0357 8 0 
-7.9286 8 0 -7.5714 8 0 -6.8571 8 0 
-6.6786 8 0 -6.5 8 0 -5.5 8 0 
-5.1429 8 0 -5.3214 8 0 -4.25 8 0 
-4.6071 8 0 -4.9643 8 0 -4.7857 8 0 
-4.4286 8 0 -4.0714 8 0 -3.5357 8 0 
-3.8929 8 0 -3.7143 8 0 -3.1786 8 0 
-3.3571 8 0 -2.6429 8 0 -2.4643 8 0 
-2.2857 8 0 -2.1071 8 0 -2.8214 8 0 
-3 8 0 -1.9286 8 0 -1.5714 8 0 
-1.75 8 0 -1.3929 8 0 -1.0357 8 0 
-1.2143 8 0 -0.5 8 0 -0.6786 8 0 
-0.8571 8 0 0.5 8 0 0.8571 8 0 
0.6786 8 0 1.5714 8 0 1.2143 8 0 
1.75 8 0 1.9286 8 0 1.3929 8 0 
1.0357 8 0 2.6429 8 0 2.2857 8 0 
2.8214 8 0 2.4643 8 0 2.1071 8 0 
3.3571 8 0 3.1786 8 0 3.7143 8 0 
3.5357 8 0 3 8 0 3.8929 8 0 
4.9643 8 0 4.7857 8 0 4.4286 8 0 
4.0714 8 0 4.25 8 0 4.6071 8 0 
5.1429 8 0 5.3214 8 0 5.5 8 0 
6.5 8 0 6.6786 8 0 6.8571 8 0 
7.75 8 0 7.3929 8 0 7.9286 8 0 
7.5714 8 0 7.0357 8 0 7.2143 8 0 
8.8214 8 0 8.6429 8 0 8.1071 8 0 
8.4643 8 0 8.2857 8 0 9 8 0 
9 8 0 15 8.2 0 15 8.6 0 
15 8 0 15 8.4 0 15 8.8 0 
-15 9.4 0 -15 9.6 0 -15 9.2 0 
-15 9.8 0 -15 9 0 13.4157 9.26392 0 
15 9.4 0 15 9 0 15 9.8 0 
15 9.6 0 15 9.2 0 -14.1667 10 0 
-14.3333 10 0 -15 10.8 0 -14.8333 10 0 
-14.6667 10 0 -15 10 0 -15 10.6 0 
-15 10.4 0 -14.5 10 0 -15 10.2 0 
-14 10 0 -13 10 0 -12.8 10 0 
-12.4 10 0 -12.2 10 0 -12.6 10 0 
-12 10 0 -11.6 10 0 -11.8 10 0 
-11.4 10 0 -11.2 10 0 -10.4 10 0 
-11 10 0 -10.6 10 0 -10.8 10 0 
-10.2 10 0 -9.6 10 0 -9.4 10 0 
-9.2 10 0 -10 10 0 -9.8 10 0 
-9 10.6 0 -9 10.8 0 -8.8214 10 0 
-8.2857 10 0 -8.4643 10 0 -9 10.4 0 
-9 10 0 -8.6429 10 0 -9 10.2 0 
-8.1071 10 0 -7.2143 10 0 -7.9286 10 0 
-7.75 10 0 -7.3929 10 0 -7.5714 10 0 
-7.0357 10 0 -6.5 10 0 -6.8571 10 0 
-6.6786 10 0 -5.1429 10 0 -5.3214 10 0 
-5.5 10 0 -4.0714 10 0 -4.9643 10 0 
-4.6071 10 0 -4.4286 10 0 -4.7857 10 0 
-4.25 10 0 -3.7143 10 0 -3.5357 10 0 
-3.3571 10 0 -3.1786 10 0 -3.8929 10 0 
-2.2 10 0 -2.4 10 0 -2.8 10 0 
-3 10 0 -3 10.8 0 -3 10.4 0 
-3 10.2 0 -3 10.6 0 -2.6 10 0 
-1.4 10 0 -2 10 0 -1.2 10 0 
-1.8 10 0 -1.6 10 0 -1 10 0 
-0.4 10 0 -0.2 10 0 -0.6 10 0 
-0.8 10 0 0.2 10 0 -0 10 0 
0.6 10 0 0.8 10 0 0.4 10 0 
1.8 10 0 1.4 10 0 1.2 10 0 
1.6 10 0 1 10 0 2.4 10 0 
2.2 10 0 2.6 10 0 2.8 10 0 
2 10 0 3.6 10 0 3.4 10 0 
3.8 10 0 3 10 0 3.2 10 0 
4.2 10 0 4 10 0 4.6 10 0 
4.8 10 0 4.4 10 0 5.6 10 0 
5.2 10 0 5 10 0 5.8 10 0 
5.4 10 0 6.8 10 0 6.2 10 0 
6 10 0 6.4 10 0 6.6 10 0 
7.4 10 0 7.2 10 0 7.8 10 0 
7 10 0 7.6 10 0 8.8 10 0 
8.2 10 0 8.4 10 0 8 10 0 
8.6 10 0 9 10.6 0 9 10.8 0 
9.2 10 0 9 10.2 0 9 10 0 
9.4 10 0 9.6 10 0 9.8 10 0 
9 10.4 0 10.8 10 0 10.6 10 0 
10.4 10 0 10.2 10 0 10 10 0 
11.8 10 0 11 10 0 11.2 10 0 
11.4 10 0 11.6 10 0 12.8 10 0 
12 10 0 12.4 10 0 12.2 10 0 
12.6 10 0 13 10 0 13.3934 10.1976 0 
14.6667 10 0 14.1667 10 0 14 10 0 
14.5 10 0 14.8333 10 0 14.3333 10 0 
15 10.8 0 15 10.6 0 15 10.4 0 
15 10 0 15 10.2 0 -15 11.4 0 
-15 11.8 0 -15 11.2 0 -15 11.6 0 
-15 11 0 -9 11.4 0 -9 11.6 0 
-9 11 0 -9 11.2 0 -9 11.8 0 
-3 11.8 0 -3 11 0 -3 11.2 0 
-3 11.6 0 -3 11.4 0 9 11.8 0 
9 11.4 0 9 11.2 0 9 11 0 
9 11.6 0 15 11.4 0 15 11.2 0 
15 11.8 0 15 11 0 15 11.6 0 
-15 12 0 -15 12.6 0 -15 12.4 0 
-15 12.8 0 -15 12.2 0 -9 12 0 
-9 12.2 0 -9 12.4 0 -9 12.8 0 
-9 12.6 0 -3 12.8 0 -3 12.6 0 
-3 12.2 0 -3 12 0 -3 12.4 0 
9 12.6 0 9 12 0 9 12.2 0 
9 12.4 0 9 12.8 0 15 12.6 0 
15 12 0 15 12.4 0 15 12.2 0 
15 12.8 0 -15 13 0 -15 13.6 0 
-15 13.4 0 -15 13.2 0 -15 13.8 0 
-9 13.4 0 -9 13.2 0 -9 13.6 0 
-9 13 0 -9 13.8 0 -3 13.2 0 
-3 13.4 0 -3 13 0 -3 13.8 0 
-3 13.6 0 9 13.4 0 9 13.6 0 
9 13.2 0 9 13 0 9 13.8 0 
15 13 0 15 13.4 0 15 13.8 0 
15 13.2 0 15 13.6 0 -15 14 0 
-15 14.2 0 -15 14.6 0 -15 14.8 0 
-15 14.4 0 -9 14.4 0 -9 14.2 0 
-9 14 0 -9 14.8 0 -9 14.6 0 
-3 14.6 0 -3 14.8 0 -3 14.2 0 
-3 14 0 -3 14.4 0 9 14 0 
15 14.6 0 15 14 0 15 14.8 0 
15 14.4 0 15 14.2 0 -15 15 0 
-15 15.4 0 -15 15.8 0 -15 15.2 0 
-15 15.6 0 -9 15.4 0 -9 15.2 0 
-9 15 0 -9 15.8 0 -9 15.6 0 
-3 15.2 0 -3 15.8 0 -3 15.4 0 
-3 15 0 -3 15.6 0 9 15.1667 0 
9 15.3333 0 9 15 0 9 15.6667 0 
9 15.5 0 9 15.8333 0 15 15.8 0 
15 15 0 15 15.6 0 15 15.4 0 
15 15.2 0 -14.2 16 0 -14.8 16 0 
-15 16 0 -14.4 16 0 -14.6 16 0 
-13.2 16 0 -13.8 16 0 -14 16 0 
-13.6 16 0 -13.4 16 0 -12.4 16 0 
-13 16 0 -12.6 16 0 -12.2 16 0 
-12.8 16 0 -11.6 16 0 -11.8 16 0 
-11.4 16 0 -11.2 16 0 -12 16 0 
-11 16 0 -10.2 16 0 -10.6 16 0 
-10.4 16 0 -10.8 16 0 -10 16 0 
-9.2 16 0 -9.6 16 0 -9.4 16 0 
-9.8 16 0 -8.2 16 0 -8.4 16 0 
-9 16 0 -8.8 16 0 -8.6 16 0 
-8 16 0 -7.4 16 0 -7.2 16 0 
-7.6 16 0 -7.8 16 0 -6.8 16 0 
-6.2 16 0 -6.6 16 0 -7 16 0 
-6.4 16 0 -5.8 16 0 -5.6 16 0 
-5.2 16 0 -6 16 0 -5.4 16 0 
-5 16 0 -4.6 16 0 -4.2 16 0 
-4.4 16 0 -4.8 16 0 -4 16 0 
-3.4 16 0 -3.8 16 0 -3.6 16 0 
-3.2 16 0 -2.6 16 0 -2.2 16 0 
-3 16 0 -2.8 16 0 -2.4 16 0 
-1.4 16 0 -1.6 16 0 -1.8 16 0 
-1.2 16 0 -2 16 0 -1 16 0 
-0.2 16 0 -0.8 16 0 -0.4 16 0 
-0.6 16 0 0.4 16 0 -0 16 0 
0.6 16 0 0.8 16 0 0.2 16 0 
1.4 16 0 1.6 16 0 1.2 16 0 
1.8 16 0 1 16 0 2.8 16 0 
2 16 0 2.2 16 0 2.6 16 0 
2.4 16 0 3.4 16 0 3 16 0 
3.8 16 0 3.2 16 0 3.6 16 0 
4 16 0 4.2 16 0 4.4 16 0 
4.6 16 0 4.8 16 0 5.8 16 0 
5 16 0 5.4 16 0 5.2 16 0 
5.6 16 0 6.4 16 0 6.8 16 0 
6.6 16 0 6.2 16 0 6 16 0 
7.4 16 0 7 16 0 7.6 16 0 
7.8 16 0 7.2 16 0 8.6 16 0 
8.8 16 0 8 16 0 8.4 16 0 
8.2 16 0 9 16 0 9.2 16 0 
9.8 16 0 9.4 16 0 9.6 16 0 
10 16 0 10.2 16 0 10.4 16 0 
10.6 16 0 10.8 16 0 11.4 16 0 
11.8 16 0 11 16 0 11.6 16 0 
11.2 16 0 12.4 16 0 12.8 16 0 
12.6 16 0 12.2 16 0 12 16 0 
13.8 16 0 13.2 16 0 13.4 16 0 
13.6 16 0 13 16 0 14.8 16 0 
14 16 0 14.2 16 0 14.4 16 0 
14.6 16 0 15 16 0 
VERTICES 2098 2098
1 0 
1 1 
1 2 
1 3 
1 4 
1 5 
1 6 
1 7 
1 8 
1 9 
1 10 
1 11 
1 12 
1 13 
1 14 
1 15 
1 16 
1 17 
1 18 
1 19 
1 20 
1 21 
1 22 
1 23 
1 24 
1 25 
1 26 
1 27 
1 28 
1 29 
1 30 
1 31 
1 32 
1 33 
1 34 
1 35 
1 36 
1 37 
1 38 
1 39 
1 40 
1 41 
1 42 
1 43 
1 44 
1 45 
1 46 
1 47 
1 48 
1 49 
1 50 
1 51 
1 52 
1 53 
1 54 
1 55 
1 56 
1 57 
1 58 
1 59 
1 60 
1 61 
1 62 
1 63 
1 64 
1 65 
1 66 
1 67 
1 68 
1 69 
1 70 
1 71 
1 72 
1 73 
1 74 
1 75 
1 76 
1 77 
1 78 
1 79 
1 80 
1 81 
1 82 
1 83 
1 84 
1 85 
1 86 
1 87 
1 88 
1 89 
1 90 
1 91 
1 92 
1 93 
1 94 
1 95 
1 96 
1 97 
1 98 
1 99 
1 100 
1 101 
1 102 
1 103 
1 104 
1 105 
1 106 
1 107 
1 108 
1 109 
1 110 
1 111 
1 112 
1 113 
1 114 
1 115 
1 116 
1 117 
1 118 
1 119 
1 120 
1 121 
1 122 
1 123 
1 124 
1 125 
1 126 
1 127 
1 128 
1 129 
1 130 
1 131 
1 132 
1 133 
1 134 
1 135 
1 136 
1 137 
1 138 
1 139 
1 140 
1 141 
1 142 
1 143 
1 144 
1 145 
1 146 
1 147 
1 148 
1 149 
1 150 
1 151 
1 152 
1 153 
1 154 
1 155 
1 156 
1 157 
1 158 
1 159 
1 160 
1 161 
1 162 
1 163 
1 164 
1 165 
1 166 
1 167 
1 168 
1 169 
1 170 
1 171 
1 172 
1 173 
1 174 
1 175 
1 176 
1 177 
1 178 
1 179 
1 180 
1 181 
1 182 
1 183 
1 184 
1 185 
1 186 
1 187 
1 188 
1 189 
1 190 
1 191 
1 192 
1 193 
1 194 
1 195 
1 196 
1 197 
1 198 
1 199 
1 200 
1 201 
1 202 
1 203 
1 204 
1 205 
1 206 
1 207 
1 208 
1 209 
1 210 
1 211 
1 212 
1 213 
1 214 
1 215 
1 216 
1 217 
1 218 
1 219 
1 220 
1 221 
1 222 
1 223 
1 224 
1 225 
1 226 
1 227 
1 228 
1 229 
1 230 
1 231 
1 232 
1 233 
1 234 
1 235 
1 236 
1 237 
1 238 
1 239 
1 240 
1 241 
1 242 
1 243 
1 244 
1 245 
1 246 
1 247 
1 248 
1 249 
1 250 
1 251 
1 252 
1 253 
1 254 
1 255 
1 256 
1 257 
1 258 
1 259 
1 260 
1 261 
1 262 
1 263 
1 264 
1 265 
1 266 
1 267 
1 268 
1 269 
1 270 
1 271 
1 272 
1 273 
1 274 
1 275 
1 276 
1 277 
1 278 
1 279 
1 280 
1 281 
1 282 
1 283 
1 284 
1 285 
1 286 
1 287 
1 288 
1 289 
1 290 
1 291 
1 292 
1 293 
1 294 
1 295 
1 296 
1 297 
1 298 
1 299 
1 300 
1 301 
1 302 
1 303 
1 304 
1 305 
1 306 
1 307 
1 308 
1 309 
1 310 
1 311 
1 312 
1 313 
1 314 
1 315 
1 316 
1 317 
1 318 
1 319 
1 320 
1 321 
1 322 
1 323 
1 324 
1 325 
1 326 
1 327 
1 328 
1 329 
1 330 
1 331 
1 332 
1 333 
1 334 
1 335 
1 336 
1 337 
1 338 
1 339 
1 340 
1 341 
1 342 
1 343 
1 344 
1 345 
1 346 
1 347 
1 348 
1 349 
1 350 
1 351 
1 352 
1 353 
1 354 
1 355 
1 356 
1 357 
1 358 
1 359 
1 360 
1 361 
1 362 
1 363 
1 364 
1 365 
1 366 
1 367 
1 368 
1 369 
1 370 
1 371 
1 372 
1 373 
1 374 
1 375 
1 376 
1 377 
1 378 
1 379 
1 380 
1 381 
1 382 
1 383 
1 384 
1 385 
1 386 
1 387 
1 388 
1 389 
1 390 
1 391 
1 392 
1 393 
1 394 
1 395 
1 396 
1 397 
1 398 
1 399 
1 400 
1 401 
1 402 
1 403 
1 404 
1 405 
1 406 
1 407 
1 408 
1 409 
1 410 
1 411 
1 412 
1 413 
1 414 
1 415 
1 416 
1 417 
1 418 
1 419 
1 420 
1 421 
1 422 
1 423 
1 424 
1 425 
1 426 
1 427 
1 428 
1 429 
1 430 
1 431 
1 432 
1 433 
1 434 
1 435 
1 436 
1 437 
1 438 
1 439 
1 440 
1 441 
1 442 
1 443 
1 444 
1 445 
1 446 
1 447 
1 448 
1 449 
1 450 
1 451 
1 452 
1 453 
1 454 
1 455 
1 456 
1 457 
1 458 
1 459 
1 460 
1 461 
1 462 
1 463 
1 464 
1 465 
1 466 
1 467 
1 468 
1 469 
1 470 
1 471 
1 472 
1 473 
1 474 
1 475 
1 476 
1 477 
1 478 
1 479 
1 480 
1 481 
1 482 
1 483 
1 484 
1 485 
1 486 
1 487 
1 488 
1 489 
1 490 
1 491 
1 492 
1 493 
1 494 
1 495 
1 496 
1 497 
1 498 
1 499 
1 500 
1 501 
1 502 
1 503 
1 504 
1 505 
1 506 
1 507 
1 508 
1 509 
1 510 
1 511 
1 512 
1 513 
1 514 
1 515 
1 516 
1 517 
1 518 
1 519 
1 520 
1 521 
1 522 
1 523 
1 524 
1 525 
1 526 
1 527 
1 528 
1 529 
1 530 
1 531 
1 532 
1 533 
1 534 
1 535 
1 536 
1 537 
1 538 
1 539 
1 540 
1 541 
1 542 
1 543 
1 544 
1 545 
1 546 
1 547 
1 548 
1 549 
1 550 
1 551 
1 552 
1 553 
1 554 
1 555 
1 556 
1 557 
1 558 
1 559 
1 560 
1 561 
1 562 
1 563 
1 564 
1 565 
1 566 
1 567 
1 568 
1 569 
1 570 
1 571 
1 572 
1 573 
1 574 
1 575 
1 576 
1 577 
1 578 
1 579 
1 580 
1 581 
1 582 
1 583 
1 584 
1 585 
1 586 
1 587 
1 588 
1 589 
1 590 
1 591 
1 592 
1 593 
1 594 
1 595 
1 596 
1 597 
1 598 
1 599 
1 600 
1 601 
1 602 
1 603 
1 604 
1 605 
1 606 
1 607 
1 608 
1 609 
1 610 
1 611 
1 612 
1 613 
1 614 
1 615 
1 616 
1 617 
1 618 
1 619 
1 620 
1 621 
1 622 
1 623 
1 624 
1 625 
1 626 
1 627 
1 628 
1 629 
1 630 
1 631 
1 632 
1 633 
1 634 
1 635 
1 636 
1 637 
1 638 
1 639 
1 640 
1 641 
1 642 
1 643 
1 644 
1 645 
1 646 
1 647 
1 648 
1 649 
1 650 
1 651 
1 652 
1 653 
1 654 
1 655 
1 656 
1 657 
1 658 
1 659 
1 660 
1 661 
1 662 
1 663 
1 664 
1 665 
1 666 
1 667 
1 668 
1 669 
1 670 
1 671 
1 672 
1 673 
1 674 
1 675 
1 676 
1 677 
1 678 
1 679 
1 680 
1 681 
1 682 
1 683 
1 684 
1 685 
1 686 
1 687 
1 688 
1 689 
1 690 
1 691 
1 692 
1 693 
1 694 
1 695 
1 696 
1 697 
1 698 
1 699 
1 700 
1 701 
1 702 
1 703 
1 704 
1 705 
1 706 
1 707 
1 708 
1 709 
1 710 
1 711 
1 712 
1 713 
1 714 
1 715 
1 716 
1 717 
1 718 
1 719 
1 720 
1 721 
1 722 
1 723 
1 724 
1 725 
1 726 
1 727 
1 728 
1 729 
1 730 
1 731 
1 732 
1 733 
1 734 
1 735 
1 736 
1 737 
1 738 
1 739 
1 740 
1 741 
1 742 
1 743 
1 744 
1 745 
1 746 
1 747 
1 748 
1 749 
1 750 
1 751 
1 752 
1 753 
1 754 
1 755 
1 756 
1 757 
1 758 
1 759 
1 760 
1 761 
1 762 
1 763 
1 764 
1 765 
1 766 
1 767 
1 768 
1 769 
1 770 
1 771 
1 772 
1 773 
1 774 
1 775 
1 776 
1 777 
1 778 
1 779 
1 780 
1 781 
1 782 
1 783 
1 784 
1 785 
1 786 
1 787 
1 788 
1 789 
1 790 
1 791 
1 792 
1 793 
1 794 
1 795 
1 796 
1 797 
1 798 
1 799 
1 800 
1 801 
1 802 
1 803 
1 804 
1 805 
1 806 
1 807 
1 808 
1 809 
1 810 
1 811 
1 812 
1 813 
1 814 
1 815 
1 816 
1 817 
1 818 
1 819 
1 820 
1 821 
1 822 
1 823 
1 824 
1 825 
1 826 
1 827 
1 828 
1 829 
1 830 
1 831 
1 832 
1 833 
1 834 
1 835 
1 836 
1 837 
1 838 
1 839 
1 840 
1 841 
1 842 
1 843 
1 844 
1 845 
1 846 
1 847 
1 848 
1 849 
1 850 
1 851 
1 852 
1 853 
1 854 
1 855 
1 856 
1 857 
1 858 
1 859 
1 860 
1 861 
1 862 
1 863 
1 864 
1 865 
1 866 
1 867 
1 868 
1 869 
1 870 
1 871 
1 872 
1 873 
1 874 
1 875 
1 876 
1 877 
1 878 
1 879 
1 880 
1 881 
1 882 
1 883 
1 884 
1 885 
1 886 
1 887 
1 888 
1 889 
1 890 
1 891 
1 892 
1 893 
1 894 
1 895 
1 896 
1 897 
1 898 
1 899 
1 900 
1 901 
1 902 
1 903 
1 904 
1 905 
1 906 
1 907 
1 908 
1 909 
1 910 
1 911 
1 912 
1 913 
1 914 
1 915 
1 916 
1 917 
1 918 
1 919 
1 920 
1 921 
1 922 
1 923 
1 924 
1 925 
1 926 
1 927 
1 928 
1 929 
1 930 
1 931 
1 932 
1 933 
1 934 
1 935 
1 936 
1 937 
1 938 
1 939 
1 940 
1 941 
1 942 
1 943 
1 944 
1 945 
1 946 
1 947 
1 948 
1 949 
1 950 
1 951 
1 952 
1 953 
1 954 
1 955 
1 956 
1 957 
1 958 
1 959 
1 960 
1 961 
1 962 
1 963 
1 964 
1 965 
1 966 
1 967 
1 968 
1 969 
1 970 
1 971 
1 972 
1 973 
1 974 
1 975 
1 976 
1 977 
1 978 
1 979 
1 980 
1 981 
1 982 
1 983 
1 984 
1 985 
1 986 
1 987 
1 988 
1 989 
1 990 
1 991 
1 992 
1 993 
1 994 
1 995 
1 996 
1 997 
1 998 
1 999 
1 1000 
1 1001 
1 1002 
1 1003 
1 1004 
1 1005 
1 1006 
1 1007 
1 1008 
1 1009 
1 1010 
1 1011 
1 1012 
1 1013 
1 1014 
1 1015 
1 1016 
1 1017 
1 1018 
1 1019 
1 1020 
1 1021 
1 1022 
1 1023 
1 1024 
1 1025 
1 1026 
1 1027 
1 1028 
1 1029 
1 1030 
1 1031 
1 1032 
1 1033 
1 1034 
1 1035 
1 1036 
1 1037 
1 1038 
1 1039 
1 1040 
1 1041 
1 1042 
1 1043 
1 1044 
1 1045 
1 1046 
1 1047 
1 1048 

POINT_DATA 1049
SCALARS id double
LOOKUP_TABLE default
980 964 1027 978 1032 993 1045 983 966 
1020 977 1048 945 951 976 1040 933 995 
1004 990 1005 947 1036 1024 955 975 972 
1028 1026 954 936 1047 1008 1041 939 969 
1018 942 968 941 1033 1016 1037 1042 1014 
930 987 960 932 998 985 989 1022 962 
973 1009 986 984 965 1038 1043 999 929 
988 1007 953 1029 997 950 1030 967 1012 
992 1025 979 1011 994 1015 1044 935 952 
971 1000 1019 958 949 943 937 946 944 
1031 1017 959 934 957 1003 1021 940 931 
1002 391 42 389 39 43 40 41 0 
388 390 46 48 44 49 45 47 51 
1 50 2 53 52 54 58 57 59 
56 55 63 62 64 60 61 392 3 
66 67 68 65 395 393 394 73 69 
72 70 71 78 77 75 76 74 79 
81 82 80 83 86 84 87 85 88 
91 89 92 93 90 493 96 495 97 
94 95 494 4 492 102 99 101 100 
98 105 104 106 107 103 112 110 109 
108 111 117 115 114 113 116 120 122 
118 119 121 125 124 123 5 557 560 
558 126 559 131 129 127 128 130 135 
132 136 133 134 137 141 140 139 138 
146 143 144 145 142 147 148 149 151 
150 152 589 590 155 588 6 153 156 
154 587 157 162 158 160 161 159 163 
7 1001 164 165 1013 8 166 1035 956 
168 167 171 170 169 172 176 177 174 
173 175 179 180 181 178 9 383 386 
387 385 384 398 396 397 400 399 488 
487 491 490 489 556 552 555 554 553 
592 591 594 593 595 1046 961 948 183 
185 186 182 184 380 381 378 382 379 
403 401 402 404 405 482 486 483 485 
484 549 548 551 550 547 596 598 600 
597 599 981 974 1039 938 187 189 190 
191 188 375 377 376 373 374 407 406 
408 409 410 478 480 481 479 477 546 
543 545 542 544 603 604 605 601 602 
1010 1023 192 195 193 196 194 369 371 
368 372 370 1034 413 415 411 414 412 
472 473 476 474 475 539 541 540 537 
538 606 609 610 607 608 200 199 198 
197 201 365 364 367 366 363 1006 963 
419 418 420 416 417 471 467 468 470 
469 532 533 534 535 536 614 612 613 
611 615 991 203 205 204 206 202 359 
362 361 360 358 424 422 423 425 421 
464 462 466 465 463 528 531 530 529 
527 617 620 619 616 618 209 210 207 
208 211 356 355 353 357 354 426 428 
430 427 429 458 457 460 461 459 524 
525 522 526 523 624 625 622 621 623 
982 216 214 215 213 212 349 351 352 
348 350 435 432 434 10 433 431 440 
437 439 441 436 438 442 443 11 12 
445 444 450 448 446 447 449 451 454 
452 453 456 455 497 498 499 500 496 
13 501 503 502 504 506 505 14 508 
507 15 510 509 514 512 515 516 513 
511 520 518 521 519 517 562 561 564 
563 16 565 571 570 568 566 567 569 
572 573 17 18 574 575 580 578 581 
579 576 577 586 585 582 584 583 19 
34 218 220 217 219 221 345 344 346 
343 347 970 224 222 226 225 223 664 
663 339 660 661 20 340 341 662 342 
21 22 665 667 668 666 669 671 670 
672 673 677 674 676 675 678 681 682 
683 679 680 686 687 713 716 715 685 
23 714 684 717 722 718 719 721 720 
723 36 724 725 727 726 37 733 728 
730 731 729 732 735 736 737 738 734 
742 741 739 24 634 632 631 633 740 
746 743 747 744 745 748 751 752 750 
749 754 753 756 757 755 762 760 759 
761 758 765 764 766 767 763 771 770 
772 768 769 774 773 776 777 775 781 
779 778 782 780 787 784 783 785 786 
790 789 792 788 791 797 794 795 793 
796 819 820 798 817 35 799 800 801 
818 806 805 804 803 802 811 807 808 
809 810 816 812 814 813 815 25 996 
627 630 26 628 626 629 230 229 228 
27 227 336 334 337 335 338 690 691 
688 689 692 639 635 636 638 637 825 
823 822 821 824 233 232 235 231 234 
333 330 331 329 332 693 694 695 697 
696 644 643 641 640 642 829 826 827 
828 830 239 236 238 237 240 328 325 
326 327 324 700 699 701 698 702 646 
647 645 649 648 833 834 832 831 835 
241 243 245 242 244 323 322 320 319 
321 705 704 703 707 706 653 654 651 
650 652 29 249 246 250 248 247 318 
316 314 317 315 710 709 708 712 711 
656 659 657 655 658 924 925 28 927 
926 928 255 251 254 253 252 310 313 
30 311 312 305 308 309 307 306 301 
304 302 300 303 297 298 296 295 299 
294 290 292 291 293 289 285 287 286 
288 281 282 31 284 283 280 277 276 
278 279 274 271 273 275 272 269 268 
266 270 267 265 263 261 262 264 260 
257 259 258 256 837 839 32 836 838 
843 842 841 844 840 845 849 846 848 
847 852 850 853 854 851 857 858 856 
859 855 864 860 861 863 862 867 865 
869 866 868 870 871 872 873 874 879 
875 877 876 878 882 884 883 881 880 
887 885 888 889 886 893 894 890 892 
891 38 895 898 896 897 899 900 901 
902 903 906 908 904 907 905 911 913 
912 910 909 918 915 916 917 914 923 
919 920 921 922 33 
FIELD FieldData 14
r 3 1049 double
-0.426779 -11.2878 0 0.725214 -11.1564 0 0.12192 -11.0807 0 
-1.49159 -10.4071 0 -0.856763 -10.882 0 -0.302918 -10.7971 0 
-0.880128 -10.3446 0 -0.413816 -10.4354 0 -0.204825 -10.084 0 
0.964596 -10.6199 0 0.0634979 -10.5113 0 0.4652 -10.7112 0 
0.492587 -10.2544 0 1.47752 -10.4467 0 1.08966 -10.0402 0 
-1.18353 -9.92926 0 -1.22931 -9.44608 0 -1.80527 -9.51076 0 
-0.610733 -9.91691 0 -0.256585 -9.59355 0 -0.689028 -9.47553 0 
-0.148525 -9.1358 0 0.0536964 -9.99305 0 0.170313 -9.53107 0 
0.557493 -9.81412 0 0.571073 -9.29065 0 0.950396 -9.51632 0 
1.41856 -9.44253 0 -2.95984 -8.55064 0 -2.29207 -8.714 0 
-2.53676 -8.109 0 -1.8858 -8.32641 0 -1.59522 -8.74649 0 
-1.14581 -8.92998 0 -1.27845 -8.30727 0 -0.629527 -8.96635 0 
-0.823556 -8.47922 0 -0.235099 -8.58449 0 0.190012 -8.31863 0 
0.962501 -8.93613 0 0.332919 -8.85628 0 1.55881 -8.58647 0 
2.10622 -8.38021 0 -3.2478 -7.50782 0 -2.0701 -7.76121 0 
2.05772 -7.68561 0 3.46906 -7.79999 0 3.13535 -7.26437 0 
4.29644 -7.13071 0 -5.31843 -6.40047 0 -4.64006 -6.44959 0 
-3.59311 -6.66886 0 3.64053 -6.76156 0 4.82385 -6.87318 0 
4.3725 -6.09242 0 5.19071 -6.44631 0 6.07347 -6.08137 0 
-6.18003 -5.54315 0 -5.64737 -5.84859 0 -4.86593 -5.63887 0 
4.67963 -5.37748 0 5.03603 -5.90343 0 5.56998 -5.72904 0 
5.23035 -5.20603 0 -6.57773 -4.65155 0 -5.73936 -4.95941 0 
6.17213 -4.84991 0 7.49111 -4.85771 0 7.26953 -4.08297 0 
8.13729 -4.37578 0 -9.42168 -3.23222 0 -8.41004 -3.29759 0 
-7.84199 -3.3856 0 7.37893 -3.37831 0 7.98287 -3.44699 0 
8.42464 -3.93275 0 8.5428 -3.40327 0 9.42948 -3.75455 0 
9.06436 -3.3139 0 -10.4729 -2.24922 0 -10.0967 -2.63682 0 
-9.28939 -2.3178 0 -8.58817 -2.75855 0 7.84821 -2.83868 0 
8.50287 -2.66048 0 9.04484 -2.65226 0 9.6564 -2.93698 0 
9.32125 -2.10378 0 10.5386 -2.22951 0 -10.5744 -1.64225 0 
-10.9178 -1.03781 0 -9.95768 -1.49573 0 9.89091 -1.79681 0 
10.4324 -1.49168 0 11.0044 -1.50431 0 -11.775 -0.290183 0 
-11.6151 -0.846007 0 11.7614 -0.528631 0 11.1879 -0.835574 0 
11.7895 -0.0347681 0 -15 0.2 0 -14.2857 0 0 
-15 0.6 0 -14.8214 0 0 -14.1071 0 0 
-14.6429 0 0 -14.4643 0 0 -15 0 0 
-15 0.8 0 -15 0.4 0 -13.5714 0 0 
-13.2143 0 0 -13.9286 0 0 -13.0357 0 0 
-13.75 0 0 -13.3929 0 0 -12.6786 0 0 
-12.5 0 0 -12.8571 0 0 -11.5 0 0 
-11.1429 0 0 -11.3214 0 0 -10.9643 0 0 
-10.25 0 0 -10.4286 0 0 -10.0714 0 0 
-10.6071 0 0 -10.7857 0 0 -9.3571 0 0 
-9.5357 0 0 -9.1786 0 0 -9.8929 0 0 
-9.7143 0 0 -9 0.2 0 -9 0 0 
-8.6 0 0 -8.4 0 0 -8.2 0 0 
-8.8 0 0 -9 0.8 0 -9 0.4 0 
-9 0.6 0 -7.2 0 0 -8 0 0 
-7.4 0 0 -7.8 0 0 -7.6 0 0 
-6.2 0 0 -6.4 0 0 -6.8 0 0 
-6.6 0 0 -7 0 0 -6 0 0 
-5.6 0 0 -5.4 0 0 -5.8 0 0 
-5.2 0 0 -4.6 0 0 -5 0 0 
-4.4 0 0 -4.8 0 0 -4.2 0 0 
-3.6 0 0 -4 0 0 -3.4 0 0 
-3.2 0 0 -3.8 0 0 -3 0.6 0 
-2.4 0 0 -3 0.2 0 -2.2 0 0 
-2.8 0 0 -2.6 0 0 -3 0.4 0 
-3 0 0 -3 0.8 0 -1.2 0 0 
-1.8 0 0 -1.4 0 0 -1.6 0 0 
-2 0 0 -0.6 0 0 -0.8 0 0 
-0.4 0 0 -0.2 0 0 -1 0 0 
0.8 0 0 0.4 0 0 0.2 0 0 
-0 0 0 0.6 0 0 1.8 0 0 
1.4 0 0 1.2 0 0 1 0 0 
1.6 0 0 2.4 0 0 2.8 0 0 
2 0 0 2.2 0 0 2.6 0 0 
3.6 0 0 3.4 0 0 3.2 0 0 
3 0 0 3 0.8 0 3 0.2 0 
3 0.6 0 3.8 0 0 3 0.4 0 
4.8 0 0 4.4 0 0 4 0 0 
4.2 0 0 4.6 0 0 5.6 0 0 
5 0 0 5.8 0 0 5.2 0 0 
5.4 0 0 6 0 0 6.8 0 0 
6.6 0 0 6.4 0 0 6.2 0 0 
7.8 0 0 7.2 0 0 7.4 0 0 
7.6 0 0 7 0 0 8 0 0 
8.2 0 0 8.4 0 0 8.8 0 0 
8.6 0 0 9.1786 0 0 9 0.6 0 
9 0.8 0 9.7143 0 0 9 0.4 0 
9 0 0 9.3571 0 0 9.8929 0 0 
9.5357 0 0 9 0.2 0 10.0714 0 0 
10.9643 0 0 10.25 0 0 10.6071 0 0 
10.7857 0 0 10.4286 0 0 11.1429 0 0 
11.5 0 0 11.5171 0.604524 0 11.3214 0 0 
12.6786 0 0 12.6723 0.396864 0 12.5 0 0 
12.8571 0 0 12.0912 0.325465 0 12.2846 0.816293 0 
13.2143 0 0 13.0357 0 0 13.75 0 0 
13.5714 0 0 13.3929 0 0 13.9286 0 0 
14.6429 0 0 14.8214 0 0 14.2857 0 0 
14.1071 0 0 14.4643 0 0 15 0.4 0 
15 0.6 0 15 0.8 0 15 0.2 0 
15 0 0 -15 1.8 0 -15 1.2 0 
-15 1 0 -15 1.4 0 -15 1.6 0 
-9 1.4 0 -9 1 0 -9 1.2 0 
-9 1.8 0 -9 1.6 0 -3 1.6 0 
-3 1.8 0 -3 1 0 -3 1.2 0 
-3 1.4 0 3 1 0 3 1.8 0 
3 1.2 0 3 1.4 0 3 1.6 0 
9 1.2 0 9 1 0 9 1.6 0 
9 1.4 0 9 1.8 0 11.8492 1.14551 0 
12.4296 1.57275 0 12.7238 1.06353 0 15 1.2 0 
15 1.6 0 15 1.8 0 15 1 0 
15 1.4 0 -15 2.4 0 -15 2.2 0 
-15 2.8 0 -15 2 0 -15 2.6 0 
-9 2.4 0 -9 2 0 -9 2.2 0 
-9 2.6 0 -9 2.8 0 -3 2.8 0 
-3 2 0 -3 2.6 0 -3 2.2 0 
-3 2.4 0 3 2.4 0 3 2.6 0 
3 2 0 3 2.2 0 3 2.8 0 
9 2 0 9 2.4 0 9 2.8 0 
9 2.2 0 9 2.6 0 10.8349 2.86104 0 
11.2912 2.34555 0 12.3018 2.21562 0 12.4135 2.81657 0 
15 2 0 15 2.4 0 15 2.6 0 
15 2.8 0 15 2.2 0 -15 3.4 0 
-15 3 0 -15 3.2 0 -15 3.8 0 
-15 3.6 0 -9 3.2 0 -9 3 0 
-9 3.4 0 -9 3.6 0 -9 3.8 0 
-3 3.6 0 -3 3.2 0 -3 3 0 
-3 3.4 0 -3 3.8 0 3 3 0 
3 3.6 0 3 3.2 0 3 3.8 0 
3 3.4 0 9 3.4 0 9 3.6 0 
9 3.8 0 9 3 0 9 3.2 0 
10.8441 3.89006 0 11.3949 3.27142 0 15 3 0 
15 3.6 0 15 3.2 0 15 3.8 0 
15 3.4 0 -15 4.6 0 -15 4.2 0 
-15 4.8 0 -15 4 0 -15 4.4 0 
-10.722 4.65235 0 -9 4.4 0 -9 4.8 0 
-9 4 0 -9 4.6 0 -9 4.2 0 
-3 4.8 0 -3 4.6 0 -3 4 0 
-3 4.4 0 -3 4.2 0 3 4.4 0 
3 4 0 3 4.2 0 3 4.8 0 
3 4.6 0 9 4 0 9 4.6 0 
9 4.8 0 9 4.2 0 9 4.4 0 
15 4.6 0 15 4.4 0 15 4.2 0 
15 4 0 15 4.8 0 -15 5.4 0 
-15 5.6 0 -15 5 0 -15 5.2 0 
-15 5.8 0 -10.4124 5.12907 0 -10.2358 5.87419 0 
-9 5.6 0 -9 5.4 0 -9 5.8 0 
-9 5 0 -9 5.2 0 -3 5 0 
-3 5.8 0 -3 5.6 0 -3 5.2 0 
-3 5.4 0 3 5.8 0 3 5.6 0 
3 5.4 0 3 5.2 0 3 5 0 
9 5.6 0 9 5.2 0 9 5.4 0 
9 5 0 9 5.8 0 12.9024 5.95974 0 
15 5.2 0 15 5.6 0 15 5.4 0 
15 5.8 0 15 5 0 -15 6.6 0 
-15 6 0 -15 6.2 0 -15 6.4 0 
-15 6.8 0 -9 6.6 0 -9 6.2 0 
-9 6.4 0 -9 6.8 0 -9 6 0 
-3 6.4 0 -3 6.8 0 -3 6 0 
-3 6.2 0 -3 6.6 0 3 6.6 0 
3 6 0 3 6.2 0 3 6.4 0 
3 6.8 0 9 6.2 0 9 6.8 0 
9 6.6 0 9 6 0 9 6.4 0 
15 6.4 0 15 6.6 0 15 6 0 
15 6.2 0 15 6.8 0 -15 7.2 0 
-15 7.4 0 -15 7.8 0 -15 7 0 
-15 7.6 0 -9 7 0 -9 7.4 0 
-9 7.8 0 -9 7.2 0 -9 7.6 0 
-3 7.6 0 -3 7.8 0 -3 7.2 0 
-3 7 0 -3 7.4 0 3 7.4 0 
3 7.2 0 3 7.8 0 3 7 0 
3 7.6 0 9 7.6 0 9 7.8 0 
9 7.2 0 9 7 0 9 7.4 0 
13.111 7.33103 0 15 7.8 0 15 7.4 0 
15 7.6 0 15 7.2 0 15 7 0 
-15 8.6 0 -15 8.2 0 -15 8 0 
-15 8.8 0 -15 8.4 0 -8.1071 8 0 
-8.6429 8 0 -8.2857 8 0 -9 8 0 
-8.4643 8 0 -8.8214 8 0 -7.2143 8 0 
-7.75 8 0 -7.3929 8 0 -7.0357 8 0 
-7.9286 8 0 -7.5714 8 0 -6.8571 8 0 
-6.6786 8 0 -6.5 8 0 -5.5 8 0 
-5.1429 8 0 -5.3214 8 0 -4.25 8 0 
-4.6071 8 0 -4.9643 8 0 -4.7857 8 0 
-4.4286 8 0 -4.0714 8 0 -3.5357 8 0 
-3.8929 8 0 -3.7143 8 0 -3.1786 8 0 
-3.3571 8 0 -2.6429 8 0 -2.4643 8 0 
-2.2857 8 0 -2.1071 8 0 -2.8214 8 0 
-3 8 0 -1.9286 8 0 -1.5714 8 0 
-1.75 8 0 -1.3929 8 0 -1.0357 8 0 
-1.2143 8 0 -0.5 8 0 -0.6786 8 0 
-0.8571 8 0 0.5 8 0 0.8571 8 0 
0.6786 8 0 1.5714 8 0 1.2143 8 0 
1.75 8 0 1.9286 8 0 1.3929 8 0 
1.0357 8 0 2.6429 8 0 2.2857 8 0 
2.8214 8 0 2.4643 8 0 2.1071 8 0 
3.3571 8 0 3.1786 8 0 3.7143 8 0 
3.5357 8 0 3 8 0 3.8929 8 0 
4.9643 8 0 4.7857 8 0 4.4286 8 0 
4.0714 8 0 4.25 8 0 4.6071 8 0 
5.1429 8 0 5.3214 8 0 5.5 8 0 
6.5 8 0 6.6786 8 0 6.8571 8 0 
7.75 8 0 7.3929 8 0 7.9286 8 0 
7.5714 8 0 7.0357 8 0 7.2143 8 0 
8.8214 8 0 8.6429 8 0 8.1071 8 0 
8.4643 8 0 8.2857 8 0 9 8 0 
9 8 0 15 8.2 0 15 8.6 0 
15 8 0 15 8.4 0 15 8.8 0 
-15 9.4 0 -15 9.6 0 -15 9.2 0 
-15 9.8 0 -15 9 0 13.4157 9.26392 0 
15 9.4 0 15 9 0 15 9.8 0 
15 9.6 0 15 9.2 0 -14.1667 10 0 
-14.3333 10 0 -15 10.8 0 -14.8333 10 0 
-14.6667 10 0 -15 10 0 -15 10.6 0 
-15 10.4 0 -14.5 10 0 -15 10.2 0 
-14 10 0 -13 10 0 -12.8 10 0 
-12.4 10 0 -12.2 10 0 -12.6 10 0 
-12 10 0 -11.6 10 0 -11.8 10 0 
-11.4 10 0 -11.2 10 0 -10.4 10 0 
-11 10 0 -10.6 10 0 -10.8 10 0 
-10.2 10 0 -9.6 10 0 -9.4 10 0 
-9.2 10 0 -10 10 0 -9.8 10 0 
-9 10.6 0 -9 10.8 0 -8.8214 10 0 
-8.2857 10 0 -8.4643 10 0 -9 10.4 0 
-9 10 0 -8.6429 10 0 -9 10.2 0 
-8.1071 10 0 -7.2143 10 0 -7.9286 10 0 
-7.75 10 0 -7.3929 10 0 -7.5714 10 0 
-7.0357 10 0 -6.5 10 0 -6.8571 10 0 
-6.6786 10 0 -5.1429 10 0 -5.3214 10 0 
-5.5 10 0 -4.0714 10 0 -4.9643 10 0 
-4.6071 10 0 -4.4286 10 0 -4.7857 10 0 
-4.25 10 0 -3.7143 10 0 -3.5357 10 0 
-3.3571 10 0 -3.1786 10 0 -3.8929 10 0 
-2.2 10 0 -2.4 10 0 -2.8 10 0 
-3 10 0 -3 10.8 0 -3 10.4 0 
-3 10.2 0 -3 10.6 0 -2.6 10 0 
-1.4 10 0 -2 10 0 -1.2 10 0 
-1.8 10 0 -1.6 10 0 -1 10 0 
-0.4 10 0 -0.2 10 0 -0.6 10 0 
-0.8 10 0 0.2 10 0 -0 10 0 
0.6 10 0 0.8 10 0 0.4 10 0 
1.8 10 0 1.4 10 0 1.2 10 0 
1.6 10 0 1 10 0 2.4 10 0 
2.2 10 0 2.6 10 0 2.8 10 0 
2 10 0 3.6 10 0 3.4 10 0 
3.8 10 0 3 10 0 3.2 10 0 
4.2 10 0 4 10 0 4.6 10 0 
4.8 10 0 4.4 10 0 5.6 10 0 
5.2 10 0 5 10 0 5.8 10 0 
5.4 10 0 6.8 10 0 6.2 10 0 
6 10 0 6.4 10 0 6.6 10 0 
7.4 10 0 7.2 10 0 7.8 10 0 
7 10 0 7.6 10 0 8.8 10 0 
8.2 10 0 8.4 10 0 8 10 0 
8.6 10 0 9 10.6 0 9 10.8 0 
9.2 10 0 9 10.2 0 9 10 0 
9.4 10 0 9.6 10 0 9.8 10 0 
9 10.4 0 10.8 10 0 10.6 10 0 
10.4 10 0 10.2 10 0 10 10 0 
11.8 10 0 11 10 0 11.2 10 0 
11.4 10 0 11.6 10 0 12.8 10 0 
12 10 0 12.4 10 0 12.2 10 0 
12.6 10 0 13 10 0 13.3934 10.1976 0 
14.6667 10 0 14.1667 10 0 14 10 0 
14.5 10 0 14.8333 10 0 14.3333 10 0 
15 10.8 0 15 10.6 0 15 10.4 0 
15 10 0 15 10.2 0 -15 11.4 0 
-15 11.8 0 -15 11.2 0 -15 11.6 0 
-15 11 0 -9 11.4 0 -9 11.6 0 
-9 11 0 -9 11.2 0 -9 11.8 0 
-3 11.8 0 -3 11 0 -3 11.2 0 
-3 11.6 0 -3 11.4 0 9 11.8 0 
9 11.4 0 9 11.2 0 9 11 0 
9 11.6 0 15 11.4 0 15 11.2 0 
15 11.8 0 15 11 0 15 11.6 0 
-15 12 0 -15 12.6 0 -15 12.4 0 
-15 12.8 0 -15 12.2 0 -9 12 0 
-9 12.2 0 -9 12.4 0 -9 12.8 0 
-9 12.6 0 -3 12.8 0 -3 12.6 0 
-3 12.2 0 -3 12 0 -3 12.4 0 
9 12.6 0 9 12 0 9 12.2 0 
9 12.4 0 9 12.8 0 15 12.6 0 
15 12 0 15 12.4 0 15 12.2 0 
15 12.8 0 -15 13 0 -15 13.6 0 
-15 13.4 0 -15 13.2 0 -15 13.8 0 
-9 13.4 0 -9 13.2 0 -9 13.6 0 
-9 13 0 -9 13.8 0 -3 13.2 0 
-3 13.4 0 -3 13 0 -3 13.8 0 
-3 13.6 0 9 13.4 0 9 13.6 0 
9 13.2 0 9 13 0 9 13.8 0 
15 13 0 15 13.4 0 15 13.8 0 
15 13.2 0 15 13.6 0 -15 14 0 
-15 14.2 0 -15 14.6 0 -15 14.8 0 
-15 14.4 0 -9 14.4 0 -9 14.2 0 
-9 14 0 -9 14.8 0 -9 14.6 0 
-3 14.6 0 -3 14.8 0 -3 14.2 0 
-3 14 0 -3 14.4 0 9 14 0 
15 14.6 0 15 14 0 15 14.8 0 
15 14.4 0 15 14.2 0 -15 15 0 
-15 15.4 0 -15 15.8 0 -15 15.2 0 
-15 15.6 0 -9 15.4 0 -9 15.2 0 
-9 15 0 -9 15.8 0 -9 15.6 0 
-3 15.2 0 -3 15.8 0 -3 15.4 0 
-3 15 0 -3 15.6 0 9 15.1667 0 
9 15.3333 0 9 15 0 9 15.6667 0 
9 15.5 0 9 15.8333 0 15 15.8 0 
15 15 0 15 15.6 0 15 15.4 0 
15 15.2 0 -14.2 16 0 -14.8 16 0 
-15 16 0 -14.4 16 0 -14.6 16 0 
-13.2 16 0 -13.8 16 0 -14 16 0 
-13.6 16 0 -13.4 16 0 -12.4 16 0 
-13 16 0 -12.6 16 0 -12.2 16 0 
-12.8 16 0 -11.6 16 0 -11.8 16 0 
-11.4 16 0 -11.2 16 0 -12 16 0 
-11 16 0 -10.2 16 0 -10.6 16 0 
-10.4 16 0 -10.8 16 0 -10 16 0 
-9.2 16 0 -9.6 16 0 -9.4 16 0 
-9.8 16 0 -8.2 16 0 -8.4 16 0 
-9 16 0 -8.8 16 0 -8.6 16 0 
-8 16 0 -7.4 16 0 -7.2 16 0 
-7.6 16 0 -7.8 16 0 -6.8 16 0 
-6.2 16 0 -6.6 16 0 -7 16 0 
-6.4 16 0 -5.8 16 0 -5.6 16 0 
-5.2 16 0 -6 16 0 -5.4 16 0 
-5 16 0 -4.6 16 0 -4.2 16 0 
-4.4 16 0 -4.8 16 0 -4 16 0 
-3.4 16 0 -3.8 16 0 -3.6 16 0 
-3.2 16 0 -2.6 16 0 -2.2 16 0 
-3 16 0 -2.8 16 0 -2.4 16 0 
-1.4 16 0 -1.6 16 0 -1.8 16 0 
-1.2 16 0 -2 16 0 -1 16 0 
-0.2 16 0 -0.8 16 0 -0.4 16 0 
-0.6 16 0 0.4 16 0 -0 16 0 
0.6 16 0 0.8 16 0 0.2 16 0 
1.4 16 0 1.6 16 0 1.2 16 0 
1.8 16 0 1 16 0 2.8 16 0 
2 16 0 2.2 16 0 2.6 16 0 
2.4 16 0 3.4 16 0 3 16 0 
3.8 16 0 3.2 16 0 3.6 16 0 
4 16 0 4.2 16 0 4.4 16 0 
4.6 16 0 4.8 16 0 5.8 16 0 
5 16 0 5.4 16 0 5.2 16 0 
5.6 16 0 6.4 16 0 6.8 16 0 
6.6 16 0 6.2 16 0 6 16 0 
7.4 16 0 7 16 0 7.6 16 0 
7.8 16 0 7.2 16 0 8.6 16 0 
8.8 16 0 8 16 0 8.4 16 0 
8.2 16 0 9 16 0 9.2 16 0 
9.8 16 0 9.4 16 0 9.6 16 0 
10 16 0 10.2 16 0 10.4 16 0 
10.6 16 0 10.8 16 0 11.4 16 0 
11.8 16 0 11 16 0 11.6 16 0 
11.2 16 0 12.4 16 0 12.8 16 0 
12.6 16 0 12.2 16 0 12 16 0 
13.8 16 0 13.2 16 0 13.4 16 0 
13.6 16 0 13 16 0 14.8 16 0 
14 16 0 14.2 16 0 14.4 16 0 
14.6 16 0 15 16 0 
gid 1 1049 double
1 1 1 1 1 1 1 1 1 
1 1 1 1 1 1 1 1 1 
1 1 1 1 1 1 1 1 1 
1 1 1 1 1 1 1 1 1 
1 1 1 1 1 1 1 1 1 
1 1 1 1 1 1 1 1 1 
1 1 1 1 1 1 1 1 1 
1 1 1 1 1 1 1 1 1 
1 1 1 1 1 1 1 1 1 
1 1 1 1 1 1 1 1 1 
1 1 1 1 1 1 1 1 1 
1 2 2 2 2 2 2 2 2 
2 2 2 2 2 2 2 2 2 
2 2 2 2 2 2 2 2 2 
2 2 2 2 2 2 2 2 2 
2 2 2 2 2 2 2 2 2 
2 2 2 2 2 2 2 2 2 
2 2 2 2 2 2 2 2 2 
2 2 2 2 2 2 2 2 2 
2 2 2 2 2 2 2 2 2 
2 2 2 2 2 2 2 2 2 
2 2 2 2 2 2 2 2 2 
2 2 2 2 2 2 2 2 2 
2 2 2 2 2 2 2 2 2 
2 2 2 2 2 2 2 2 2 
2 2 2 2 2 2 2 2 2 
2 2 2 2 2 2 2 2 2 
2 2 2 2 2 2 2 2 2 
2 1 2 2 1 2 2 1 1 
2 2 2 2 2 2 2 2 2 
2 2 2 2 2 2 2 2 2 
2 2 2 2 2 2 2 2 2 
2 2 2 2 2 2 2 2 2 
2 2 2 2 2 1 1 1 2 
2 2 2 2 2 2 2 2 2 
2 2 2 2 2 2 2 2 2 
2 2 2 2 2 2 2 2 2 
2 2 1 1 1 1 2 2 2 
2 2 2 2 2 2 2 2 2 
2 2 2 2 2 2 2 2 2 
2 2 2 2 2 2 2 2 2 
1 1 2 2 2 2 2 2 2 
2 2 2 1 2 2 2 2 2 
2 2 2 2 2 2 2 2 2 
2 2 2 2 2 2 2 2 2 
2 2 2 2 2 2 2 1 1 
2 2 2 2 2 2 2 2 2 
2 2 2 2 2 2 2 2 2 
2 2 1 2 2 2 2 2 2 
2 2 2 2 2 2 2 2 2 
2 2 2 2 2 2 2 2 2 
2 2 2 2 2 2 2 2 2 
2 2 2 2 2 2 2 2 2 
2 2 2 2 2 2 2 2 2 
2 2 2 2 2 2 2 2 2 
1 2 2 2 2 2 2 2 2 
2 2 2 2 2 2 2 2 2 
2 2 2 2 2 2 2 2 2 
2 2 2 2 2 2 2 2 2 
2 2 2 2 2 2 2 2 2 
2 2 2 2 2 2 2 2 2 
2 2 2 2 2 2 2 2 2 
2 2 2 2 2 2 2 2 2 
2 2 2 2 2 2 2 2 2 
2 2 2 2 2 2 2 2 2 
2 2 2 2 2 2 2 2 2 
2 2 2 2 2 2 2 2 2 
2 2 1 2 2 2 2 2 2 
2 2 2 2 2 2 2 2 2 
2 2 2 2 2 2 2 2 2 
2 2 2 2 2 2 2 2 2 
2 2 2 2 2 2 2 2 2 
2 2 2 2 2 2 2 2 2 
2 2 2 2 2 2 2 2 2 
2 2 2 2 2 2 2 2 2 
2 2 2 2 2 2 2 2 2 
2 2 2 2 2 2 2 2 2 
2 2 2 2 2 2 2 2 2 
2 2 2 2 2 2 2 2 2 
2 2 2 2 2 2 2 2 2 
2 2 2 2 2 2 2 2 2 
2 2 2 2 2 2 2 2 2 
2 2 2 2 2 2 2 2 2 
2 2 2 2 2 2 2 2 2 
2 2 2 2 2 2 2 2 1 
2 2 2 2 2 2 2 2 2 
2 2 2 2 2 2 2 2 2 
2 2 2 2 2 2 2 2 2 
2 2 2 2 2 2 2 2 2 
2 2 2 2 2 2 2 2 2 
2 2 2 2 2 2 2 2 2 
2 2 2 2 2 2 2 2 2 
2 2 2 2 2 2 2 2 2 
2 2 2 2 2 2 2 2 2 
2 2 2 2 2 2 2 2 2 
2 2 2 2 2 2 2 2 2 
2 2 2 2 2 2 2 2 2 
2 2 2 2 2 2 2 2 2 
2 2 2 2 2 2 2 2 2 
2 2 2 2 2 2 2 2 2 
2 2 2 2 2 2 2 2 2 
2 2 2 2 2 2 2 2 2 
2 2 2 2 2 2 2 2 2 
2 2 2 2 2 2 2 2 2 
2 2 2 2 2 2 2 2 2 
2 2 2 2 2 2 2 2 2 
2 2 2 2 2 2 2 2 2 
2 2 2 2 2 2 2 2 2 
2 2 2 2 2 2 2 2 2 
2 2 2 2 2 2 2 2 2 
2 2 2 2 2 2 2 2 2 
2 2 2 2 2 2 2 2 2 
2 2 2 2 2 2 2 2 2 
2 2 2 2 2 2 2 2 2 
2 2 2 2 2 2 2 2 2 
2 2 2 2 2 2 2 2 2 
2 2 2 2 2 
A 1 1049 double
10 10 10 10 10 10 10 10 10 
10 10 10 10 10 10 10 10 10 
10 10 10 10 10 10 10 10 10 
10 10 10 10 10 10 10 10 10 
10 10 10 10 10 10 10 10 10 
10 10 10 10 10 10 10 10 10 
10 10 10 10 10 10 10 10 10 
10 10 10 10 10 10 10 10 10 
10 10 10 10 10 10 10 10 10 
10 10 10 10 10 10 10 10 10 
10 10 10 10 10 10 10 10 10 
10 10 10 10 10 10 10 10 10 
10 10 10 10 10 10 10 10 10 
10 10 10 10 10 10 10 10 10 
10 10 10 10 10 10 10 10 10 
10 10 10 10 10 10 10 10 10 
10 10 10 10 10 10 10 10 10 
10 10 10 10 10 10 10 10 10 
10 10 10 10 10 10 10 10 10 
10 10 10 10 10 10 10 10 10 
10 10 10 10 10 10 10 10 10 
10 10 10 10 10 10 10 10 10 
10 10 10 10 10 10 10 10 10 
10 10 10 10 10 10 10 10 10 
10 10 10 10 10 10 10 10 10 
10 10 10 10 10 10 10 10 10 
10 10 10 10 10 10 10 10 10 
10 10 10 10 10 10 10 10 10 
10 10 10 10 10 10 10 10 10 
10 10 10 10 10 10 10 10 10 
10 10 10 10 10 10 10 10 10 
10 10 10 10 10 10 10 10 10 
10 10 10 10 10 10 10 10 10 
10 10 10 10 10 10 10 10 10 
10 10 10 10 10 10 10 10 10 
10 10 10 10 10 10 10 10 10 
10 10 10 10 10 10 10 10 10 
10 10 10 10 10 10 10 10 10 
10 10 10 10 10 10 10 10 10 
10 10 10 10 10 10 10 10 10 
10 10 10 10 10 10 10 10 10 
10 10 10 10 10 10 10 10 10 
10 10 10 10 10 10 10 10 10 
10 10 10 10 10 10 10 10 10 
10 10 10 10 10 10 10 10 10 
10 10 10 10 10 10 10 10 10 
10 10 10 10 10 10 10 10 10 
10 10 10 10 10 10 10 10 10 
10 10 10 10 10 10 10 10 10 
10 10 10 10 10 10 10 10 10 
10 10 10 10 10 10 10 10 10 
10 10 10 10 10 10 10 10 10 
10 10 10 10 10 10 10 10 10 
10 10 10 10 10 10 10 10 10 
10 10 10 10 10 10 10 10 10 
10 10 10 10 10 10 10 10 10 
10 10 10 10 10 10 10 10 10 
10 10 10 10 10 10 10 10 10 
10 10 10 10 10 10 10 10 10 
10 10 10 10 10 10 10 10 10 
10 10 10 10 10 10 10 10 10 
10 10 10 10 10 10 10 10 10 
10 10 10 10 10 10 10 10 10 
10 10 10 10 10 10 10 10 10 
10 10 10 10 10 10 10 10 10 
10 10 10 10 10 10 10 10 10 
10 10 10 10 10 10 10 10 10 
10 10 10 10 10 10 10 10 10 
10 10 10 10 10 10 10 10 10 
10 10 10 10 10 10 10 10 10 
10 10 10 10 10 10 10 10 10 
10 10 10 10 10 10 10 10 10 
10 10 10 10 10 10 10 10 10 
10 10 10 10 10 10 10 10 10 
10 10 10 10 10 10 10 10 10 
10 10 10 10 10 10 10 10 10 
10 10 10 10 10 10 10 10 10 
10 10 10 10 10 10 10 10 10 
10 10 10 10 10 10 10 10 10 
10 10 10 10 10 10 10 10 10 
10 10 10 10 10 10 10 10 10 
10 10 10 10 10 10 10 10 10 
10 10 10 10 10 10 10 10 10 
10 10 10 10 10 10 10 10 10 
10 10 10 10 10 10 10 10 10 
10 10 10 10 10 10 10 10 10 
10 10 10 10 10 10 10 10 10 
10 10 10 10 10 10 10 10 10 
10 10 10 10 10 10 10 10 10 
10 10 10 10 10 10 10 10 10 
10 10 10 10 10 10 10 10 10 
10 10 10 10 10 10 10 10 10 
10 10 10 10 10 10 10 10 10 
10 10 10 10 10 10 10 10 10 
10 10 10 10 10 10 10 10 10 
10 10 10 10 10 10 10 10 10 
10 10 10 10 10 10 10 10 10 
10 10 10 10 10 10 10 10 10 
10 10 10 10 10 10 10 10 10 
10 10 10 10 10 10 10 10 10 
10 10 10 10 10 10 10 10 10 
10 10 10 10 10 10 10 10 10 
10 10 10 10 10 10 10 10 10 
10 10 10 10 10 10 10 10 10 
10 10 10 10 10 10 10 10 10 
10 10 10 10 10 10 10 10 10 
10 10 10 10 10 10 10 10 10 
10 10 10 10 10 10 10 10 10 
10 10 10 10 10 10 10 10 10 
10 10 10 10 10 10 10 10 10 
10 10 10 10 10 10 10 10 10 
10 10 10 10 10 10 10 10 10 
10 10 10 10 10 10 10 10 10 
10 10 10 10 10 10 10 10 10 
10 10 10 10 10 10 10 10 10 
10 10 10 10 10 10 10 10 10 
10 10 10 10 10 
B 1 1049 double
0.2 0.2 0.2 0.2 0.2 0.2 0.2 0.2 0.2 
0.2 0.2 0.2 0.2 0.2 0.2 0.2 0.2 0.2 
0.2 0.2 0.2 0.2 0.2 0.2 0.2 0.2 0.2 
0.2 0.2 0.2 0.2 0.2 0.2 0.2 0.2 0.2 
0.2 0.2 0.2 0.2 0.2 0.2 0.2 0.2 0.2 
0.2 0.2 0.2 0.2 0.2 0.2 0.2 0.2 0.2 
0.2 0.2 0.2 0.2 0.2 0.2 0.2 0.2 0.2 
0.2 0.2 0.2 0.2 0.2 0.2 0.2 0.2 0.2 
0.2 0.2 0.2 0.2 0.2 0.2 0.2 0.2 0.2 
0.2 0.2 0.2 0.2 0.2 0.2 0.2 0.2 0.2 
0.2 0.2 0.2 0.2 0.2 0.2 0.2 0.2 0.2 
0.2 0.2 0.2 0.2 0.2 0.2 0.2 0.2 0.2 
0.2 0.2 0.2 0.2 0.2 0.2 0.2 0.2 0.2 
0.2 0.2 0.2 0.2 0.2 0.2 0.2 0.2 0.2 
0.2 0.2 0.2 0.2 0.2 0.2 0.2 0.2 0.2 
0.2 0.2 0.2 0.2 0.2 0.2 0.2 0.2 0.2 
0.2 0.2 0.2 0.2 0.2 0.2 0.2 0.2 0.2 
0.2 0.2 0.2 0.2 0.2 0.2 0.2 0.2 0.2 
0.2 0.2 0.2 0.2 0.2 0.2 0.2 0.2 0.2 
0.2 0.2 0.2 0.2 0.2 0.2 0.2 0.2 0.2 
0.2 0.2 0.2 0.2 0.2 0.2 0.2 0.2 0.2 
0.2 0.2 0.2 0.2 0.2 0.2 0.2 0.2 0.2 
0.2 0.2 0.2 0.2 0.2 0.2 0.2 0.2 0.2 
0.2 0.2 0.2 0.2 0.2 0.2 0.2 0.2 0.2 
0.2 0.2 0.2 0.2 0.2 0.2 0.2 0.2 0.2 
0.2 0.2 0.2 0.2 0.2 0.2 0.2 0.2 0.2 
0.2 0.2 0.2 0.2 0.2 0.2 0.2 0.2 0.2 
0.2 0.2 0.2 0.2 0.2 0.2 0.2 0.2 0.2 
0.2 0.2 0.2 0.2 0.2 0.2 0.2 0.2 0.2 
0.2 0.2 0.2 0.2 0.2 0.2 0.2 0.2 0.2 
0.2 0.2 0.2 0.2 0.2 0.2 0.2 0.2 0.2 
0.2 0.2 0.2 0.2 0.2 0.2 0.2 0.2 0.2 
0.2 0.2 0.2 0.2 0.2 0.2 0.2 0.2 0.2 
0.2 0.2 0.2 0.2 0.2 0.2 0.2 0.2 0.2 
0.2 0.2 0.2 0.2 0.2 0.2 0.2 0.2 0.2 
0.2 0.2 0.2 0.2 0.2 0.2 0.2 0.2 0.2 
0.2 0.2 0.2 0.2 0.2 0.2 0.2 0.2 0.2 
0.2 0.2 0.2 0.2 0.2 0.2 0.2 0.2 0.2 
0.2 0.2 0.2 0.2 0.2 0.2 0.2 0.2 0.2 
0.2 0.2 0.2 0.2 0.2 0.2 0.2 0.2 0.2 
0.2 0.2 0.2 0.2 0.2 0.2 0.2 0.2 0.2 
0.2 0.2 0.2 0.2 0.2 0.2 0.2 0.2 0.2 
0.2 0.2 0.2 0.2 0.2 0.2 0.2 0.2 0.2 
0.2 0.2 0.2 0.2 0.2 0.2 0.2 0.2 0.2 
0.2 0.2 0.2 0.2 0.2 0.2 0.2 0.2 0.2 
0.2 0.2 0.2 0.2 0.2 0.2 0.2 0.2 0.2 
0.2 0.2 0.2 0.2 0.2 0.2 0.2 0.2 0.2 
0.2 0.2 0.2 0.2 0.2 0.2 0.2 0.2 0.2 
0.2 0.2 0.2 0.2 0.2 0.2 0.2 0.2 0.2 
0.2 0.2 0.2 0.2 0.2 0.2 0.2 0.2 0.2 
0.2 0.2 0.2 0.2 0.2 0.2 0.2 0.2 0.2 
0.2 0.2 0.2 0.2 0.2 0.2 0.2 0.2 0.2 
0.2 0.2 0.2 0.2 0.2 0.2 0.2 0.2 0.2 
0.2 0.2 0.2 0.2 0.2 0.2 0.2 0.2 0.2 
0.2 0.2 0.2 0.2 0.2 0.2 0.2 0.2 0.2 
0.2 0.2 0.2 0.2 0.2 0.2 0.2 0.2 0.2 
0.2 0.2 0.2 0.2 0.2 0.2 0.2 0.2 0.2 
0.2 0.2 0.2 0.2 0.2 0.2 0.2 0.2 0.2 
0.2 0.2 0.2 0.2 0.2 0.2 0.2 0.2 0.2 
0.2 0.2 0.2 0.2 0.2 0.2 0.2 0.2 0.2 
0.2 0.2 0.2 0.2 0.2 0.2 0.2 0.2 0.2 
0.2 0.2 0.2 0.2 0.2 0.2 0.2 0.2 0.2 
0.2 0.2 0.2 0.2 0.2 0.2 0.2 0.2 0.2 
0.2 0.2 0.2 0.2 0.2 0.2 0.2 0.2 0.2 
0.2 0.2 0.2 0.2 0.2 0.2 0.2 0.2 0.2 
0.2 0.2 0.2 0.2 0.2 0.2 0.2 0.2 0.2 
0.2 0.2 0.2 0.2 0.2 0.2 0.2 0.2 0.2 
0.2 0.2 0.2 0.2 0.2 0.2 0.2 0.2 0.2 
0.2 0.2 0.2 0.2 0.2 0.2 0.2 0.2 0.2 
0.2 0.2 0.2 0.2 0.2 0.2 0.2 0.2 0.2 
0.2 0.2 0.2 0.2 0.2 0.2 0.2 0.2 0.2 
0.2 0.2 0.2 0.2 0.2 0.2 0.2 0.2 0.2 
0.2 0.2 0.2 0.2 0.2 0.2 0.2 0.2 0.2 
0.2 0.2 0.2 0.2 0.2 0.2 0.2 0.2 0.2 
0.2 0.2 0.2 0.2 0.2 0.2 0.2 0.2 0.2 
0.2 0.2 0.2 0.2 0.2 0.2 0.2 0.2 0.2 
0.2 0.2 0.2 0.2 0.2 0.2 0.2 0.2 0.2 
0.2 0.2 0.2 0.2 0.2 0.2 0.2 0.2 0.2 
0.2 0.2 0.2 0.2 0.2 0.2 0.2 0.2 0.2 
0.2 0.2 0.2 0.2 0.2 0.2 0.2 0.2 0.2 
0.2 0.2 0.2 0.2 0.2 0.2 0.2 0.2 0.2 
0.2 0.2 0.2 0.2 0.2 0.2 0.2 0.2 0.2 
0.2 0.2 0.2 0.2 0.2 0.2 0.2 0.2 0.2 
0.2 0.2 0.2 0.2 0.2 0.2 0.2 0.2 0.2 
0.2 0.2 0.2 0.2 0.2 0.2 0.2 0.2 0.2 
0.2 0.2 0.2 0.2 0.2 0.2 0.2 0.2 0.2 
0.2 0.2 0.2 0.2 0.2 0.2 0.2 0.2 0.2 
0.2 0.2 0.2 0.2 0.2 0.2 0.2 0.2 0.2 
0.2 0.2 0.2 0.2 0.2 0.2 0.2 0.2 0.2 
0.2 0.2 0.2 0.2 0.2 0.2 0.2 0.2 0.2 
0.2 0.2 0.2 0.2 0.2 0.2 0.2 0.2 0.2 
0.2 0.2 0.2 0.2 0.2 0.2 0.2 0.2 0.2 
0.2 0.2 0.2 0.2 0.2 0.2 0.2 0.2 0.2 
0.2 0.2 0.2 0.2 0.2 0.2 0.2 0.2 0.2 
0.2 0.2 0.2 0.2 0.2 0.2 0.2 0.2 0.2 
0.2 0.2 0.2 0.2 0.2 0.2 0.2 0.2 0.2 
0.2 0.2 0.2 0.2 0.2 0.2 0.2 0.2 0.2 
0.2 0.2 0.2 0.2 0.2 0.2 0.2 0.2 0.2 
0.2 0.2 0.2 0.2 0.2 0.2 0.2 0.2 0.2 
0.2 0.2 0.2 0.2 0.2 0.2 0.2 0.2 0.2 
0.2 0.2 0.2 0.2 0.2 0.2 0.2 0.2 0.2 
0.2 0.2 0.2 0.2 0.2 0.2 0.2 0.2 0.2 
0.2 0.2 0.2 0.2 0.2 0.2 0.2 0.2 0.2 
0.2 0.2 0.2 0.2 0.2 0.2 0.2 0.2 0.2 
0.2 0.2 0.2 0.2 0.2 0.2 0.2 0.2 0.2 
0.2 0.2 0.2 0.2 0.2 0.2 0.2 0.2 0.2 
0.2 0.2 0.2 0.2 0.2 0.2 0.2 0.2 0.2 
0.2 0.2 0.2 0.2 0.2 0.2 0.2 0.2 0.2 
0.2 0.2 0.2 0.2 0.2 0.2 0.2 0.2 0.2 
0.2 0.2 0.2 0.2 0.2 0.2 0.2 0.2 0.2 
0.2 0.2 0.2 0.2 0.2 0.2 0.2 0.2 0.2 
0.2 0.2 0.2 0.2 0.2 0.2 0.2 0.2 0.2 
0.2 0.2 0.2 0.2 0.2 0.2 0.2 0.2 0.2 
0.2 0.2 0.2 0.2 0.2 0.2 0.2 0.2 0.2 
0.2 0.2 0.2 0.2 0.2 0.2 0.2 0.2 0.2 
0.2 0.2 0.2 0.2 0.2 0.2 0.2 0.2 0.2 
0.2 0.2 0.2 0.2 0.2 
c 1 1049 double
0.1 0.1 0.1 0.1 0.1 0.1 0.1 0.1 0.1 
0.1 0.1 0.1 0.1 0.1 0.1 0.1 0.1 0.1 
0.1 0.1 0.1 0.1 0.1 0.1 0.1 0.1 0.1 
0.1 0.1 0.1 0.1 0.1 0.1 0.1 0.1 0.1 
0.1 0.1 0.1 0.1 0.1 0.1 0.1 0.1 0.1 
0.1 0.1 0.1 0.1 0.1 0.1 0.1 0.1 0.1 
0.1 0.1 0.1 0.1 0.1 0.1 0.1 0.1 0.1 
0.1 0.1 0.1 0.1 0.1 0.1 0.1 0.1 0.1 
0.1 0.1 0.1 0.1 0.1 0.1 0.1 0.1 0.1 
0.1 0.1 0.1 0.1 0.1 0.1 0.1 0.1 0.1 
0.1 0.1 0.1 0.1 0.1 0.1 0.1 0.1 0.1 
0.1 0.1 0.1 0.1 0.1 0.1 0.1 0.1 0.1 
0.1 0.1 0.1 0.1 0.1 0.1 0.1 0.1 0.1 
0.1 0.1 0.1 0.1 0.1 0.1 0.1 0.1 0.1 
0.1 0.1 0.1 0.1 0.1 0.1 0.1 0.1 0.1 
0.1 0.1 0.1 0.1 0.1 0.1 0.1 0.1 0.1 
0.1 0.1 0.1 0.1 0.1 0.1 0.1 0.1 0.1 
0.1 0.1 0.1 0.1 0.1 0.1 0.1 0.1 0.1 
0.1 0.1 0.1 0.1 0.1 0.1 0.1 0.1 0.1 
0.1 0.1 0.1 0.1 0.1 0.1 0.1 0.1 0.1 
0.1 0.1 0.1 0.1 0.1 0.1 0.1 0.1 0.1 
0.1 0.1 0.1 0.1 0.1 0.1 0.1 0.1 0.1 
0.1 0.1 0.1 0.1 0.1 0.1 0.1 0.1 0.1 
0.1 0.1 0.1 0.1 0.1 0.1 0.1 0.1 0.1 
0.1 0.1 0.1 0.1 0.1 0.1 0.1 0.1 0.1 
0.1 0.1 0.1 0.1 0.1 0.1 0.1 0.1 0.1 
0.1 0.1 0.1 0.1 0.1 0.1 0.1 0.1 0.1 
0.1 0.1 0.1 0.1 0.1 0.1 0.1 0.1 0.1 
0.1 0.1 0.1 0.1 0.1 0.1 0.1 0.1 0.1 
0.1 0.1 0.1 0.1 0.1 0.1 0.1 0.1 0.1 
0.1 0.1 0.1 0.1 0.1 0.1 0.1 0.1 0.1 
0.1 0.1 0.1 0.1 0.1 0.1 0.1 0.1 0.1 
0.1 0.1 0.1 0.1 0.1 0.1 0.1 0.1 0.1 
0.1 0.1 0.1 0.1 0.1 0.1 0.1 0.1 0.1 
0.1 0.1 0.1 0.1 0.1 0.1 0.1 0.1 0.1 
0.1 0.1 0.1 0.1 0.1 0.1 0.1 0.1 0.1 
0.1 0.1 0.1 0.1 0.1 0.1 0.1 0.1 0.1 
0.1 0.1 0.1 0.1 0.1 0.1 0.1 0.1 0.1 
0.1 0.1 0.1 0.1 0.1 0.1 0.1 0.1 0.1 
0.1 0.1 0.1 0.1 0.1 0.1 0.1 0.1 0.1 
0.1 0.1 0.1 0.1 0.1 0.1 0.1 0.1 0.1 
0.1 0.1 0.1 0.1 0.1 0.1 0.1 0.1 0.1 
0.1 0.1 0.1 0.1 0.1 0.1 0.1 0.1 0.1 
0.1 0.1 0.1 0.1 0.1 0.1 0.1 0.1 0.1 
0.1 0.1 0.1 0.1 0.1 0.1 0.1 0.1 0.1 
0.1 0.1 0.1 0.1 0.1 0.1 0.1 0.1 0.1 
0.1 0.1 0.1 0.1 0.1 0.1 0.1 0.1 0.1 
0.1 0.1 0.1 0.1 0.1 0.1 0.1 0.1 0.1 
0.1 0.1 0.1 0.1 0.1 0.1 0.1 0.1 0.1 
0.1 0.1 0.1 0.1 0.1 0.1 0.1 0.1 0.1 
0.1 0.1 0.1 0.1 0.1 0.1 0.1 0.1 0.1 
0.1 0.1 0.1 0.1 0.1 0.1 0.1 0.1 0.1 
0.1 0.1 0.1 0.1 0.1 0.1 0.1 0.1 0.1 
0.1 0.1 0.1 0.1 0.1 0.1 0.1 0.1 0.1 
0.1 0.1 0.1 0.1 0.1 0.1 0.1 0.1 0.1 
0.1 0.1 0.1 0.1 0.1 0.1 0.1 0.1 0.1 
0.1 0.1 0.1 0.1 0.1 0.1 0.1 0.1 0.1 
0.1 0.1 0.1 0.1 0.1 0.1 0.1 0.1 0.1 
0.1 0.1 0.1 0.1 0.1 0.1 0.1 0.1 0.1 
0.1 0.1 0.1 0.1 0.1 0.1 0.1 0.1 0.1 
0.1 0.1 0.1 0.1 0.1 0.1 0.1 0.1 0.1 
0.1 0.1 0.1 0.1 0.1 0.1 0.1 0.1 0.1 
0.1 0.1 0.1 0.1 0.1 0.1 0.1 0.1 0.1 
0.1 0.1 0.1 0.1 0.1 0.1 0.1 0.1 0.1 
0.1 0.1 0.1 0.1 0.1 0.1 0.1 0.1 0.1 
0.1 0.1 0.1 0.1 0.1 0.1 0.1 0.1 0.1 
0.1 0.1 0.1 0.1 0.1 0.1 0.1 0.1 0.1 
0.1 0.1 0.1 0.1 0.1 0.1 0.1 0.1 0.1 
0.1 0.1 0.1 0.1 0.1 0.1 0.1 0.1 0.1 
0.1 0.1 0.1 0.1 0.1 0.1 0.1 0.1 0.1 
0.1 0.1 0.1 0.1 0.1 0.1 0.1 0.1 0.1 
0.1 0.1 0.1 0.1 0.1 0.1 0.1 0.1 0.1 
0.1 0.1 0.1 0.1 0.1 0.1 0.1 0.1 0.1 
0.1 0.1 0.1 0.1 0.1 0.1 0.1 0.1 0.1 
0.1 0.1 0.1 0.1 0.1 0.1 0.1 0.1 0.1 
0.1 0.1 0.1 0.1 0.1 0.1 0.1 0.1 0.1 
0.1 0.1 0.1 0.1 0.1 0.1 0.1 0.1 0.1 
0.1 0.1 0.1 0.1 0.1 0.1 0.1 0.1 0.1 
0.1 0.1 0.1 0.1 0.1 0.1 0.1 0.1 0.1 
0.1 0.1 0.1 0.1 0.1 0.1 0.1 0.1 0.1 
0.1 0.1 0.1 0.1 0.1 0.1 0.1 0.1 0.1 
0.1 0.1 0.1 0.1 0.1 0.1 0.1 0.1 0.1 
0.1 0.1 0.1 0.1 0.1 0.1 0.1 0.1 0.1 
0.1 0.1 0.1 0.1 0.1 0.1 0.1 0.1 0.1 
0.1 0.1 0.1 0.1 0.1 0.1 0.1 0.1 0.1 
0.1 0.1 0.1 0.1 0.1 0.1 0.1 0.1 0.1 
0.1 0.1 0.1 0.1 0.1 0.1 0.1 0.1 0.1 
0.1 0.1 0.1 0.1 0.1 0.1 0.1 0.1 0.1 
0.1 0.1 0.1 0.1 0.1 0.1 0.1 0.1 0.1 
0.1 0.1 0.1 0.1 0.1 0.1 0.1 0.1 0.1 
0.1 0.1 0.1 0.1 0.1 0.1 0.1 0.1 0.1 
0.1 0.1 0.1 0.1 0.1 0.1 0.1 0.1 0.1 
0.1 0.1 0.1 0.1 0.1 0.1 0.1 0.1 0.1 
0.1 0.1 0.1 0.1 0.1 0.1 0.1 0.1 0.1 
0.1 0.1 0.1 0.1 0.1 0.1 0.1 0.1 0.1 
0.1 0.1 0.1 0.1 0.1 0.1 0.1 0.1 0.1 
0.1 0.1 0.1 0.1 0.1 0.1 0.1 0.1 0.1 
0.1 0.1 0.1 0.1 0.1 0.1 0.1 0.1 0.1 
0.1 0.1 0.1 0.1 0.1 0.1 0.1 0.1 0.1 
0.1 0.1 0.1 0.1 0.1 0.1 0.1 0.1 0.1 
0.1 0.1 0.1 0.1 0.1 0.1 0.1 0.1 0.1 
0.1 0.1 0.1 0.1 0.1 0.1 0.1 0.1 0.1 
0.1 0.1 0.1 0.1 0.1 0.1 0.1 0.1 0.1 
0.1 0.1 0.1 0.1 0.1 0.1 0.1 0.1 0.1 
0.1 0.1 0.1 0.1 0.1 0.1 0.1 0.1 0.1 
0.1 0.1 0.1 0.1 0.1 0.1 0.1 0.1 0.1 
0.1 0.1 0.1 0.1 0.1 0.1 0.1 0.1 0.1 
0.1 0.1 0.1 0.1 0.1 0.1 0.1 0.1 0.1 
0.1 0.1 0.1 0.1 0.1 0.1 0.1 0.1 0.1 
0.1 0.1 0.1 0.1 0.1 0.1 0.1 0.1 0.1 
0.1 0.1 0.1 0.1 0.1 0.1 0.1 0.1 0.1 
0.1 0.1 0.1 0.1 0.1 0.1 0.1 0.1 0.1 
0.1 0.1 0.1 0.1 0.1 0.1 0.1 0.1 0.1 
0.1 0.1 0.1 0.1 0.1 0.1 0.1 0.1 0.1 
0.1 0.1 0.1 0.1 0.1 0.1 0.1 0.1 0.1 
0.1 0.1 0.1 0.1 0.1 0.1 0.1 0.1 0.1 
0.1 0.1 0.1 0.1 0.1 
m 1 1049 double
76.33 84.655 91.315 83.88 94.295 61.625 97.585 62.64 93.885 
75.77 65.975 56.755 95.485 65.745 90.92 69.85 89.775 91.415 
92.105 53.87 90.795 95.63 84.935 99.255 91.99 56.49 63.205 
62.455 73.95 53.195 84.075 65.415 56.77 76.76 54.265 92.83 
51.995 58.915 53.285 88.61 94.14 68.31 79.28 88.325 59.26 
82.91 60.985 69.45 71.55 91.91 97.965 98.36 95.075 75.995 
63.675 58.805 86.39 51.54 80.435 82.95 77.555 77.105 54.64 
62.775 64.785 52.64 65.86 80.635 83.255 50.185 50.495 57.705 
75 81.82 79.025 64.86 54.985 59.25 65.345 71.125 54.55 
85.085 73.465 81.085 61.965 60.355 61.75 72.85 69.135 93.285 
67.685 77.41 92.885 54.44 83.05 86.67 55.865 50.04 83.105 
62.195 71.295 72.105 63.77 90.21 74.595 81.145 86.865 96.915 
59.805 56.63 75.99 91.575 68.92 71.85 92.685 71.62 67.63 
54.43 82.065 63.885 94.9 80.455 99.78 84.98 95.85 86.405 
84.31 59.365 81.635 85.42 51.68 61.525 54.625 94.72 84.575 
54.23 58.645 56.565 82.525 67.53 91.01 66.01 52.725 79.285 
97.91 80.62 69.475 70.215 51.82 66.835 77.17 94.07 68.75 
84.04 86.38 55.435 85.89 77.015 78.94 63.255 67.92 63.77 
75.3 61.995 98.38 66.84 99.66 91.95 81.13 76.7 92.93 
88.695 50.06 58.41 88.965 64.145 57.17 87.695 52.85 53.975 
90.47 83.005 87.335 50.485 64.51 51.89 86.505 83.26 52.46 
66.585 53.78 98.445 97.205 71.43 51.4 69.325 92.2 90.155 
92.22 83.095 73.645 78.855 90.485 90.585 91.675 77.165 91.69 
94.935 72.405 89.44 89.28 94.635 53.375 53.545 72.835 84.825 
97.485 76.53 61.765 72.93 73.415 64.355 57.64 93.12 81.095 
91.35 94.145 97.515 50.095 78.66 66.84 98.54 83.575 90.745 
81.7 88.98 67.295 68.09 61.225 55.5 76.93 53.615 64.23 
63.09 78.645 67.255 88.82 64.605 61.895 87.44 67.775 91.14 
52.46 96.67 99.205 61.75 88.58 83.245 75.965 86.4 59.44 
85.17 57.5 74.57 50.62 88.82 84.935 61.135 91.825 68.715 
79.28 82.455 59.68 57.16 62.755 99.295 57.105 66.025 62.52 
53.065 97.835 88.105 64.21 83.92 60.105 97.64 54.34 61.46 
89.94 65.72 53.715 78.975 83.1 80.945 88.205 81.775 61.37 
90.125 97.19 65.37 56.94 56.165 86.805 94.88 56.345 96.14 
77.035 57.37 82.185 66.375 77.895 79.42 59.3 59.965 90.71 
99.54 75.945 94.36 99.79 52.49 76.19 76.835 89.855 51.445 
84.745 97.395 72.06 94.845 98.05 50.45 90.785 67.465 51.35 
68.405 51.79 67.14 96.84 91.705 67.185 80.605 71.975 80.145 
56.185 94.29 58.88 86.275 94.25 73.845 76.365 94.04 90.18 
88.765 81.24 66.515 76.715 65.885 64.5 81.675 82.145 67.56 
59.43 91.775 56.56 96.07 59.195 77.845 91.815 53.495 67.085 
93.81 82.53 91.175 72.14 68.965 80.715 79.09 55.775 90.02 
88.66 51.895 79.97 54.355 58.24 98.77 66.665 64.45 60.665 
52.52 78.145 91.425 50.245 54.82 92.965 93.135 54.285 95.4 
98.155 63.11 99.235 82.155 93.97 65.865 93.88 97.645 79.64 
55.055 62.02 92.905 91.045 96.68 94.095 62.95 74.925 72.76 
97.645 51.84 72.5 87.835 58.73 80.635 60.67 71.695 61.075 
58.46 94.73 61.45 63.235 84.85 95.255 71.46 83.41 96.95 
87.31 78.955 82.225 78.815 72.69 73.065 93.03 72.215 53.565 
52.62 80.95 61.49 69.49 81.245 68.94 98.985 84.95 90.23 
80.795 88.235 62.675 75.755 92.69 74.58 67.645 77.89 82.76 
74.97 75.575 92.87 80.785 75.285 57.605 74.09 75.64 84.2 
64.52 53.44 83.2 96.495 76.925 80.21 56.11 66.515 76.815 
51.265 65.165 62.485 52.14 60.01 72.5 53.405 82.015 75.5 
71.73 81.56 63.63 86.93 96.155 75.105 59.735 57.455 64.755 
94.77 66.62 99.585 84.98 89.585 86.845 59.86 69.25 88.125 
96.46 88.36 69.98 88.43 55.76 61.81 95.625 74.46 77.18 
95.94 68.645 62.3 79.875 95.785 67.07 69.605 50.135 93.45 
81.52 52.3 87.78 90.25 50.14 90.135 83.74 94.51 93.495 
73.97 88.485 55.195 55.215 52.845 69.13 71.16 61.305 67.705 
50.295 80.21 95.585 51.8 90.115 50.405 83.805 88.815 65.95 
81.545 69.63 94.98 77.125 53.45 73.385 58.13 72.62 71.17 
81.835 91.025 98.07 51.79 65.84 80.285 88.85 72.83 84.28 
86.42 52.7 52.085 65.295 86.025 79.245 53.03 61.3 51.185 
76.085 92.59 67.13 95.86 74.725 53.915 71.445 54.365 52.415 
88.185 84.365 92.29 72.355 96.57 83.035 63.785 52.39 78.68 
65.345 97.35 92.45 88.715 60.915 77.495 70.405 56.98 78.15 
86.345 50.42 54.76 78.22 98.86 87.525 77.95 83.625 89.09 
87.8 83.29 50.635 69.75 76.055 69.6 96.12 76.18 62.11 
76.84 62.835 75.525 50.245 56.22 52.815 93.555 99.67 59.025 
66.455 86.875 68.84 94.775 67.945 68.07 94.965 84.41 74.11 
84.91 74.59 64.025 65.465 57.87 81.64 83.55 96.455 70.15 
82.145 54.625 83.585 70.09 85.45 86.085 84.18 75.275 84.815 
69.29 56.965 90.65 74.52 63.305 92.855 92.28 84.255 98.165 
73.945 65.365 98.425 63.02 96.25 89.34 82.515 97.425 99.025 
64.745 73.195 95.03 78.91 67.58 55.405 76.625 87.58 60.975 
83.815 55.6 88.385 54.835 51.13 52.98 87.8 95.18 54.325 
69.905 88.85 89.775 96.055 81.71 67.59 91.35 61.895 75.98 
86.605 62.66 72.135 70.86 71.17 60.2 74.92 79.15 86.99 
55.315 86.415 50.36 84.75 51.735 52.865 68.57 60.15 84.62 
87.61 80.295 75.41 70.235 52.215 56.16 97.175 96.02 64.77 
78.2 77.43 95.795 59.49 71.39 99.24 96.31 98.415 51.31 
55.205 64.03 78.985 58.615 69.795 90.835 91.62 81.36 95.61 
83.64 96.825 87.285 79.105 86.675 70.77 76.09 63.735 55.855 
58.88 51.345 54.535 93.505 73.265 58.515 99.665 57.65 92.06 
68.7 70.49 64.31 75.27 52.685 70.15 88.345 98.93 64.77 
75.615 90.695 55.635 58.525 95.75 81.14 79.92 57.43 51.265 
50.63 82.965 52.715 77.02 65.01 61.155 58.98 80.695 63.49 
56.54 85.42 93.6 76.67 92.32 92.71 97.535 90.41 50.985 
78.335 79.695 99.055 99.52 69.7 65.37 89.07 73.565 91.885 
90.895 69.85 95.105 72.9 61.69 96.09 63.575 54.955 81.88 
94.49 55.26 93.055 96.775 81.74 94.02 68.11 88.605 56.275 
74.095 72.995 76.605 85.44 78.875 64.595 73.81 78.55 74.06 
76.895 99.31 63.425 74.885 57.795 62.53 90.945 75.855 70.05 
89.14 86.715 77.84 96.495 78.73 86.86 88.565 91.03 87.935 
96.505 55.085 51.47 83.66 51.175 51.73 67.415 96.035 99.52 
57.68 70.88 65.675 69.05 71.7 88.025 66.555 77.11 81.71 
61.68 58.295 76.05 60.045 75.765 78.455 55.685 62.865 69.715 
74.285 99.555 98.72 98.795 67.495 55.68 56.8 70.335 88.215 
98.09 51.685 56.525 59.005 74.39 68.65 78.305 84.435 60.86 
69.645 97.06 66.74 95.535 95.895 92.09 98.78 87.225 88.42 
79.68 66.88 60.45 77.71 82.33 75.42 64.63 55.475 56.7 
85.95 64.795 64.065 68.865 98.34 64.98 50.815 89.905 85.995 
94.495 74.65 94.665 99.01 93.3 79.47 69.405 50.355 87.34 
54.865 85.655 96.895 60.18 59.495 77.75 67.26 78.12 60.31 
64.62 63 88.185 66.29 67.08 67.325 83.54 91.41 92.61 
93.68 93.13 97.22 96.6 91.12 82.695 70.11 95.08 65.545 
75.265 90.545 66.89 75.405 50 95.57 90.335 56.69 97.13 
79.945 83.935 75.735 61.155 82.66 76.115 69.375 74.25 56.405 
50.895 60.61 69.065 82.95 61.27 55.655 76.75 95.905 89.285 
73.015 57.47 80.405 78.6 62.165 89.91 50.905 87.435 93.61 
97.075 94.125 96.48 77.02 51.485 95.67 50.16 52.755 84.46 
52.075 65.905 85.285 98.54 92.53 61.485 87.415 52.975 59.81 
99.995 75.055 78.88 56.545 50.77 94.885 62.935 99.66 66.91 
75.105 71.33 68.41 88.425 67.815 96.055 94.3 54.65 72.915 
79.95 71.425 95.43 59.46 57.38 70.58 79.1 86.57 87.45 
87.625 77.64 94.195 87.625 65.29 
p0 3 1049 double
0 -10 0 0 -10 0 0 -10 0 
0 -10 0 0 -10 0 0 -10 0 
0 -10 0 0 -10 0 0 -10 0 
0 -10 0 0 -10 0 0 -10 0 
0 -10 0 0 -10 0 0 -10 0 
0 -10 0 0 -10 0 0 -10 0 
0 -10 0 0 -10 0 0 -10 0 
0 -10 0 0 -10 0 0 -10 0 
0 -10 0 0 -10 0 0 -10 0 
0 -10 0 0 -10 0 0 -10 0 
0 -10 0 0 -10 0 0 -10 0 
0 -10 0 0 -10 0 0 -10 0 
0 -10 0 0 -10 0 0 -10 0 
0 -10 0 0 -10 0 0 -10 0 
0 -10 0 0 -10 0 0 -10 0 
0 -10 0 0 -10 0 0 -10 0 
0 -10 0 0 -10 0 0 -10 0 
0 -10 0 0 -10 0 0 -10 0 
0 -10 0 0 -10 0 0 -10 0 
0 -10 0 0 -10 0 0 -10 0 
0 -10 0 0 -10 0 0 -10 0 
0 -10 0 0 -10 0 0 -10 0 
0 -10 0 0 -10 0 0 -10 0 
0 -10 0 0 -10 0 0 -10 0 
0 -10 0 0 -10 0 0 -10 0 
0 -10 0 0 -10 0 0 -10 0 
0 -10 0 0 -10 0 0 -10 0 
0 -10 0 0 -10 0 0 -10 0 
0 -10 0 0 -10 0 0 -10 0 
0 -10 0 0 -10 0 0 -10 0 
0 -10 0 0 -10 0 0 -10 0 
0 -10 0 0 -10 0 0 -10 0 
0 -10 0 0 -10 0 0 -10 0 
0 -10 0 0 0 0 0 0 0 
0 0 0 0 0 0 0 0 0 
0 0 0 0 0 0 0 0 0 
0 0 0 0 0 0 0 0 0 
0 0 0 0 0 0 0 0 0 
0 0 0 0 0 0 0 0 0 
0 0 0 0 0 0 0 0 0 
0 0 0 0 0 0 0 0 0 
0 0 0 0 0 0 0 0 0 
0 0 0 0 0 0 0 0 0 
0 0 0 0 0 0 0 0 0 
0 0 0 0 0 0 0 0 0 
0 0 0 0 0 0 0 0 0 
0 0 0 0 0 0 0 0 0 
0 0 0 0 0 0 0 0 0 
0 0 0 0 0 0 0 0 0 
0 0 0 0 0 0 0 0 0 
0 0 0 0 0 0 0 0 0 
0 0 0 0 0 0 0 0 0 
0 0 0 0 0 0 0 0 0 
0 0 0 0 0 0 0 0 0 
0 0 0 0 0 0 0 0 0 
0 0 0 0 0 0 0 0 0 
0 0 0 0 0 0 0 0 0 
0 0 0 0 0 0 0 0 0 
0 0 0 0 0 0 0 0 0 
0 0 0 0 0 0 0 0 0 
0 0 0 0 0 0 0 0 0 
0 0 0 0 0 0 0 0 0 
0 0 0 0 0 0 0 0 0 
0 0 0 0 0 0 0 0 0 
0 0 0 0 0 0 0 0 0 
0 0 0 0 0 0 0 0 0 
0 0 0 0 0 0 0 0 0 
0 0 0 0 0 0 0 0 0 
0 0 0 0 0 0 0 0 0 
0 0 0 0 0 0 0 0 0 
0 0 0 0 0 0 0 0 0 
0 0 0 0 0 0 0 0 0 
0 0 0 0 0 0 0 0 0 
0 0 0 0 0 0 0 0 0 
0 0 0 0 0 0 0 0 0 
0 0 0 0 0 0 0 0 0 
0 0 0 0 0 0 0 0 0 
0 0 0 0 0 0 0 0 0 
0 0 0 0 0 0 0 0 0 
0 0 0 0 0 0 0 0 0 
0 0 0 0 0 0 0 0 0 
0 0 0 0 0 0 0 0 0 
0 0 0 0 0 0 0 0 0 
0 0 0 0 0 0 0 0 0 
0 0 0 12 0 0 0 0 0 
0 0 0 12 0 0 0 0 0 
0 0 0 12 0 0 12 0 0 
0 0 0 0 0 0 0 0 0 
0 0 0 0 0 0 0 0 0 
0 0 0 0 0 0 0 0 0 
0 0 0 0 0 0 0 0 0 
0 0 0 0 0 0 0 0 0 
0 0 0 0 0 0 0 0 0 
0 0 0 0 0 0 0 0 0 
0 0 0 0 0 0 0 0 0 
0 0 0 0 0 0 0 0 0 
0 0 0 0 0 0 0 0 0 
0 0 0 0 0 0 0 0 0 
0 0 0 0 0 0 0 0 0 
0 0 0 0 0 0 0 0 0 
0 0 0 0 0 0 12 0 0 
12 0 0 12 0 0 0 0 0 
0 0 0 0 0 0 0 0 0 
0 0 0 0 0 0 0 0 0 
0 0 0 0 0 0 0 0 0 
0 0 0 0 0 0 0 0 0 
0 0 0 0 0 0 0 0 0 
0 0 0 0 0 0 0 0 0 
0 0 0 0 0 0 0 0 0 
0 0 0 0 0 0 0 0 0 
0 0 0 0 0 0 0 0 0 
0 0 0 0 0 0 12 0 0 
12 0 0 12 0 0 12 0 0 
0 0 0 0 0 0 0 0 0 
0 0 0 0 0 0 0 0 0 
0 0 0 0 0 0 0 0 0 
0 0 0 0 0 0 0 0 0 
0 0 0 0 0 0 0 0 0 
0 0 0 0 0 0 0 0 0 
0 0 0 0 0 0 0 0 0 
0 0 0 0 0 0 0 0 0 
0 0 0 0 0 0 0 0 0 
0 0 0 0 0 0 0 0 0 
12 0 0 12 0 0 0 0 0 
0 0 0 0 0 0 0 0 0 
0 0 0 0 0 0 0 0 0 
0 0 0 0 0 0 0 0 0 
-12 0 0 0 0 0 0 0 0 
0 0 0 0 0 0 0 0 0 
0 0 0 0 0 0 0 0 0 
0 0 0 0 0 0 0 0 0 
0 0 0 0 0 0 0 0 0 
0 0 0 0 0 0 0 0 0 
0 0 0 0 0 0 0 0 0 
0 0 0 0 0 0 0 0 0 
0 0 0 0 0 0 0 0 0 
0 0 0 0 0 0 0 0 0 
0 0 0 -12 0 0 -12 0 0 
0 0 0 0 0 0 0 0 0 
0 0 0 0 0 0 0 0 0 
0 0 0 0 0 0 0 0 0 
0 0 0 0 0 0 0 0 0 
0 0 0 0 0 0 0 0 0 
0 0 0 0 0 0 0 0 0 
0 0 0 0 0 0 12 0 0 
0 0 0 0 0 0 0 0 0 
0 0 0 0 0 0 0 0 0 
0 0 0 0 0 0 0 0 0 
0 0 0 0 0 0 0 0 0 
0 0 0 0 0 0 0 0 0 
0 0 0 0 0 0 0 0 0 
0 0 0 0 0 0 0 0 0 
0 0 0 0 0 0 0 0 0 
0 0 0 0 0 0 0 0 0 
0 0 0 0 0 0 0 0 0 
0 0 0 0 0 0 0 0 0 
0 0 0 0 0 0 0 0 0 
0 0 0 0 0 0 0 0 0 
0 0 0 0 0 0 0 0 0 
0 0 0 0 0 0 0 0 0 
0 0 0 0 0 0 0 0 0 
0 0 0 0 0 0 0 0 0 
0 0 0 0 0 0 0 0 0 
0 0 0 0 0 0 0 0 0 
0 0 0 0 0 0 0 0 0 
12 0 0 0 0 0 0 0 0 
0 0 0 0 0 0 0 0 0 
0 0 0 0 0 0 0 0 0 
0 0 0 0 0 0 0 0 0 
0 0 0 0 0 0 0 0 0 
0 0 0 0 0 0 0 0 0 
0 0 0 0 0 0 0 0 0 
0 0 0 0 0 0 0 0 0 
0 0 0 0 0 0 0 0 0 
0 0 0 0 0 0 0 0 0 
0 0 0 0 0 0 0 0 0 
0 0 0 0 0 0 0 0 0 
0 0 0 0 0 0 0 0 0 
0 0 0 0 0 0 0 0 0 
0 0 0 0 0 0 0 0 0 
0 0 0 0 0 0 0 0 0 
0 0 0 0 0 0 0 0 0 
0 0 0 0 0 0 0 0 0 
0 0 0 0 0 0 0 0 0 
0 0 0 0 0 0 0 0 0 
0 0 0 0 0 0 0 0 0 
0 0 0 0 0 0 0 0 0 
0 0 0 0 0 0 0 0 0 
0 0 0 0 0 0 0 0 0 
0 0 0 0 0 0 0 0 0 
0 0 0 0 0 0 0 0 0 
0 0 0 0 0 0 0 0 0 
0 0 0 0 0 0 0 0 0 
0 0 0 0 0 0 0 0 0 
0 0 0 0 0 0 0 0 0 
0 0 0 0 0 0 0 0 0 
0 0 0 0 0 0 0 0 0 
0 0 0 0 0 0 0 0 0 
0 0 0 0 0 0 0 0 0 
0 0 0 0 0 0 0 0 0 
0 0 0 0 0 0 0 0 0 
0 0 0 0 0 0 12 0 0 
0 0 0 0 0 0 0 0 0 
0 0 0 0 0 0 0 0 0 
0 0 0 0 0 0 0 0 0 
0 0 0 0 0 0 0 0 0 
0 0 0 0 0 0 0 0 0 
0 0 0 0 0 0 0 0 0 
0 0 0 0 0 0 0 0 0 
0 0 0 0 0 0 0 0 0 
0 0 0 0 0 0 0 0 0 
0 0 0 0 0 0 0 0 0 
0 0 0 0 0 0 0 0 0 
0 0 0 0 0 0 0 0 0 
0 0 0 0 0 0 0 0 0 
0 0 0 0 0 0 0 0 0 
0 0 0 0 0 0 0 0 0 
0 0 0 0 0 0 0 0 0 
0 0 0 0 0 0 0 0 0 
0 0 0 0 0 0 0 0 0 
0 0 0 0 0 0 0 0 0 
0 0 0 0 0 0 0 0 0 
0 0 0 0 0 0 0 0 0 
0 0 0 0 0 0 0 0 0 
0 0 0 0 0 0 0 0 0 
0 0 0 0 0 0 0 0 0 
0 0 0 0 0 0 0 0 0 
0 0 0 0 0 0 0 0 0 
0 0 0 0 0 0 0 0 0 
0 0 0 0 0 0 0 0 0 
0 0 0 0 0 0 0 0 0 
0 0 0 0 0 0 0 0 0 
0 0 0 0 0 0 0 0 0 
0 0 0 0 0 0 0 0 0 
0 0 0 0 0 0 0 0 0 
0 0 0 0 0 0 0 0 0 
0 0 0 0 0 0 0 0 0 
0 0 0 0 0 0 0 0 0 
0 0 0 0 0 0 0 0 0 
0 0 0 0 0 0 0 0 0 
0 0 0 0 0 0 0 0 0 
0 0 0 0 0 0 0 0 0 
0 0 0 0 0 0 0 0 0 
0 0 0 0 0 0 0 0 0 
0 0 0 0 0 0 0 0 0 
0 0 0 0 0 0 0 0 0 
0 0 0 0 0 0 0 0 0 
0 0 0 0 0 0 0 0 0 
0 0 0 0 0 0 0 0 0 
0 0 0 0 0 0 0 0 0 
0 0 0 0 0 0 0 0 0 
0 0 0 0 0 0 0 0 0 
0 0 0 0 0 0 0 0 0 
0 0 0 0 0 0 0 0 0 
0 0 0 0 0 0 13.5 10 0 
0 0 0 0 0 0 0 0 0 
0 0 0 0 0 0 0 0 0 
0 0 0 0 0 0 0 0 0 
0 0 0 0 0 0 0 0 0 
0 0 0 0 0 0 0 0 0 
0 0 0 0 0 0 0 0 0 
0 0 0 0 0 0 0 0 0 
0 0 0 0 0 0 0 0 0 
0 0 0 0 0 0 0 0 0 
0 0 0 0 0 0 0 0 0 
0 0 0 0 0 0 0 0 0 
0 0 0 0 0 0 0 0 0 
0 0 0 0 0 0 0 0 0 
0 0 0 0 0 0 0 0 0 
0 0 0 0 0 0 0 0 0 
0 0 0 0 0 0 0 0 0 
0 0 0 0 0 0 0 0 0 
0 0 0 0 0 0 0 0 0 
0 0 0 0 0 0 0 0 0 
0 0 0 0 0 0 0 0 0 
0 0 0 0 0 0 0 0 0 
0 0 0 0 0 0 0 0 0 
0 0 0 0 0 0 0 0 0 
0 0 0 0 0 0 0 0 0 
0 0 0 0 0 0 0 0 0 
0 0 0 0 0 0 0 0 0 
0 0 0 0 0 0 0 0 0 
0 0 0 0 0 0 0 0 0 
0 0 0 0 0 0 0 0 0 
0 0 0 0 0 0 0 0 0 
0 0 0 0 0 0 0 0 0 
0 0 0 0 0 0 0 0 0 
0 0 0 0 0 0 0 0 0 
0 0 0 0 0 0 0 0 0 
0 0 0 0 0 0 0 0 0 
0 0 0 0 0 0 0 0 0 
0 0 0 0 0 0 0 0 0 
0 0 0 0 0 0 0 0 0 
0 0 0 0 0 0 0 0 0 
0 0 0 0 0 0 0 0 0 
0 0 0 0 0 0 0 0 0 
0 0 0 0 0 0 0 0 0 
0 0 0 0 0 0 0 0 0 
0 0 0 0 0 0 0 0 0 
0 0 0 0 0 0 0 0 0 
0 0 0 0 0 0 0 0 0 
0 0 0 0 0 0 0 0 0 
0 0 0 0 0 0 0 0 0 
0 0 0 0 0 0 0 0 0 
0 0 0 0 0 0 0 0 0 
0 0 0 0 0 0 0 0 0 
0 0 0 0 0 0 0 0 0 
0 0 0 0 0 0 0 0 0 
0 0 0 0 0 0 0 0 0 
0 0 0 0 0 0 0 0 0 
0 0 0 0 0 0 0 0 0 
0 0 0 0 0 0 0 0 0 
0 0 0 0 0 0 0 0 0 
0 0 0 0 0 0 0 0 0 
0 0 0 0 0 0 0 0 0 
0 0 0 0 0 0 0 0 0 
0 0 0 0 0 0 0 0 0 
0 0 0 0 0 0 0 0 0 
0 0 0 0 0 0 0 0 0 
0 0 0 0 0 0 0 0 0 
0 0 0 0 0 0 0 0 0 
0 0 0 0 0 0 0 0 0 
0 0 0 0 0 0 0 0 0 
0 0 0 0 0 0 0 0 0 
0 0 0 0 0 0 0 0 0 
0 0 0 0 0 0 0 0 0 
0 0 0 0 0 0 0 0 0 
0 0 0 0 0 0 0 0 0 
0 0 0 0 0 0 0 0 0 
0 0 0 0 0 0 0 0 0 
0 0 0 0 0 0 0 0 0 
0 0 0 0 0 0 0 0 0 
0 0 0 0 0 0 0 0 0 
0 0 0 0 0 0 0 0 0 
0 0 0 0 0 0 0 0 0 
0 0 0 0 0 0 0 0 0 
0 0 0 0 0 0 0 0 0 
0 0 0 0 0 0 0 0 0 
0 0 0 0 0 0 0 0 0 
0 0 0 0 0 0 0 0 0 
0 0 0 0 0 0 0 0 0 
0 0 0 0 0 0 0 0 0 
0 0 0 0 0 0 0 0 0 
0 0 0 0 0 0 0 0 0 
0 0 0 0 0 0 0 0 0 
0 0 0 0 0 0 0 0 0 
0 0 0 0 0 0 0 0 0 
0 0 0 0 0 0 0 0 0 
0 0 0 0 0 0 0 0 0 
0 0 0 0 0 0 
v0 1 1049 double
3.7348 3.1534 3.5598 2.2234 3.5098 3.5868 3.1552 3.7604 3.3932 
2.2246 3.908 3.4418 3.7132 2.9072 2.7868 2.798 2.5562 2.959 
3.3376 2.8894 3.7722 3.5338 3.8026 3.447 3.5394 3.4192 3.9438 
3.6894 2.9892 2.5998 3.6034 3.4142 3.6802 3.3968 3.9802 3.7386 
3.7004 3.7956 2.087 2.9348 2.7598 2.7364 3.9752 3.4388 3.7164 
3.2294 2.105 3.1134 2.2178 2.9862 2.726 3.938 3.358 2.6972 
3.0734 2.8228 2.5702 3.4416 3.2554 3.5126 2.9518 3.4702 3.991 
3.8484 3.3948 3.3812 3.2458 2.227 2.5666 2.3004 2.0272 2.8832 
2.5352 2.192 3.219 2.6856 2.8338 2.325 3.4072 2.7916 2.0254 
2.9892 3.236 3.8554 3.3678 3.8268 3.053 3.5612 2.5952 3.4754 
2.9256 2.2866 3.514 3.2878 3.852 3.18 2.5898 2.9022 3.1832 
2.4594 0 0 0 0 0 0 0 0 
0 0 0 0 0 0 0 0 0 
0 0 0 0 0 0 0 0 0 
0 0 0 0 0 0 0 0 0 
0 0 0 0 0 0 0 0 0 
0 0 0 0 0 0 0 0 0 
0 0 0 0 0 0 0 0 0 
0 0 0 0 0 0 0 0 0 
0 0 0 0 0 0 0 0 0 
0 0 0 0 0 0 0 0 0 
0 0 0 0 0 0 0 0 0 
0 0 0 0 0 0 0 0 0 
0 0 0 0 0 0 0 0 0 
0 0 0 0 0 0 0 0 0 
0 0 0 0 0 0 0 0 0 
0 0 0 0 0 0 0 0 0 
0 0 0 0 0 0 0 0 0 
0 2.264 0 0 2.0104 0 0 2.1178 2.6632 
0 0 0 0 0 0 0 0 0 
0 0 0 0 0 0 0 0 0 
0 0 0 0 0 0 0 0 0 
0 0 0 0 0 0 0 0 0 
0 0 0 0 0 3.2768 2.5972 2.4322 0 
0 0 0 0 0 0 0 0 0 
0 0 0 0 0 0 0 0 0 
0 0 0 0 0 0 0 0 0 
0 0 2.79 2.0424 2.7532 3.075 0 0 0 
0 0 0 0 0 0 0 0 0 
0 0 0 0 0 0 0 0 0 
0 0 0 0 0 0 0 0 0 
2.6138 2.0302 0 0 0 0 0 0 0 
0 0 0 2.1056 0 0 0 0 0 
0 0 0 0 0 0 0 0 0 
0 0 0 0 0 0 0 0 0 
0 0 0 0 0 0 0 2.5992 2.6016 
0 0 0 0 0 0 0 0 0 
0 0 0 0 0 0 0 0 0 
0 0 2.2322 0 0 0 0 0 0 
0 0 0 0 0 0 0 0 0 
0 0 0 0 0 0 0 0 0 
0 0 0 0 0 0 0 0 0 
0 0 0 0 0 0 0 0 0 
0 0 0 0 0 0 0 0 0 
0 0 0 0 0 0 0 0 0 
2.1262 0 0 0 0 0 0 0 0 
0 0 0 0 0 0 0 0 0 
0 0 0 0 0 0 0 0 0 
0 0 0 0 0 0 0 0 0 
0 0 0 0 0 0 0 0 0 
0 0 0 0 0 0 0 0 0 
0 0 0 0 0 0 0 0 0 
0 0 0 0 0 0 0 0 0 
0 0 0 0 0 0 0 0 0 
0 0 0 0 0 0 0 0 0 
0 0 0 0 0 0 0 0 0 
0 0 0 0 0 0 0 0 0 
0 0 2.0074 0 0 0 0 0 0 
0 0 0 0 0 0 0 0 0 
0 0 0 0 0 0 0 0 0 
0 0 0 0 0 0 0 0 0 
0 0 0 0 0 0 0 0 0 
0 0 0 0 0 0 0 0 0 
0 0 0 0 0 0 0 0 0 
0 0 0 0 0 0 0 0 0 
0 0 0 0 0 0 0 0 0 
0 0 0 0 0 0 0 0 0 
0 0 0 0 0 0 0 0 0 
0 0 0 0 0 0 0 0 0 
0 0 0 0 0 0 0 0 0 
0 0 0 0 0 0 0 0 0 
0 0 0 0 0 0 0 0 0 
0 0 0 0 0 0 0 0 0 
0 0 0 0 0 0 0 0 0 
0 0 0 0 0 0 0 0 2.1126 
0 0 0 0 0 0 0 0 0 
0 0 0 0 0 0 0 0 0 
0 0 0 0 0 0 0 0 0 
0 0 0 0 0 0 0 0 0 
0 0 0 0 0 0 0 0 0 
0 0 0 0 0 0 0 0 0 
0 0 0 0 0 0 0 0 0 
0 0 0 0 0 0 0 0 0 
0 0 0 0 0 0 0 0 0 
0 0 0 0 0 0 0 0 0 
0 0 0 0 0 0 0 0 0 
0 0 0 0 0 0 0 0 0 
0 0 0 0 0 0 0 0 0 
0 0 0 0 0 0 0 0 0 
0 0 0 0 0 0 0 0 0 
0 0 0 0 0 0 0 0 0 
0 0 0 0 0 0 0 0 0 
0 0 0 0 0 0 0 0 0 
0 0 0 0 0 0 0 0 0 
0 0 0 0 0 0 0 0 0 
0 0 0 0 0 0 0 0 0 
0 0 0 0 0 0 0 0 0 
0 0 0 0 0 0 0 0 0 
0 0 0 0 0 0 0 0 0 
0 0 0 0 0 0 0 0 0 
0 0 0 0 0 0 0 0 0 
0 0 0 0 0 0 0 0 0 
0 0 0 0 0 0 0 0 0 
0 0 0 0 0 0 0 0 0 
0 0 0 0 0 0 0 0 0 
0 0 0 0 0 0 0 0 0 
0 0 0 0 0 
tau 1 1049 double
2 2 2 2 2 2 2 2 2 
2 2 2 2 2 2 2 2 2 
2 2 2 2 2 2 2 2 2 
2 2 2 2 2 2 2 2 2 
2 2 2 2 2 2 2 2 2 
2 2 2 2 2 2 2 2 2 
2 2 2 2 2 2 2 2 2 
2 2 2 2 2 2 2 2 2 
2 2 2 2 2 2 2 2 2 
2 2 2 2 2 2 2 2 2 
2 2 2 2 2 2 2 2 2 
2 2 2 2 2 2 2 2 2 
2 2 2 2 2 2 2 2 2 
2 2 2 2 2 2 2 2 2 
2 2 2 2 2 2 2 2 2 
2 2 2 2 2 2 2 2 2 
2 2 2 2 2 2 2 2 2 
2 2 2 2 2 2 2 2 2 
2 2 2 2 2 2 2 2 2 
2 2 2 2 2 2 2 2 2 
2 2 2 2 2 2 2 2 2 
2 2 2 2 2 2 2 2 2 
2 2 2 2 2 2 2 2 2 
2 2 2 2 2 2 2 2 2 
2 2 2 2 2 2 2 2 2 
2 2 2 2 2 2 2 2 2 
2 2 2 2 2 2 2 2 2 
2 2 2 2 2 2 2 2 2 
2 2 2 2 2 2 2 2 2 
2 2 2 2 2 2 2 2 2 
2 2 2 2 2 2 2 2 2 
2 2 2 2 2 2 2 2 2 
2 2 2 2 2 2 2 2 2 
2 2 2 2 2 2 2 2 2 
2 2 2 2 2 2 2 2 2 
2 2 2 2 2 2 2 2 2 
2 2 2 2 2 2 2 2 2 
2 2 2 2 2 2 2 2 2 
2 2 2 2 2 2 2 2 2 
2 2 2 2 2 2 2 2 2 
2 2 2 2 2 2 2 2 2 
2 2 2 2 2 2 2 2 2 
2 2 2 2 2 2 2 2 2 
2 2 2 2 2 2 2 2 2 
2 2 2 2 2 2 2 2 2 
2 2 2 2 2 2 2 2 2 
2 2 2 2 2 2 2 2 2 
2 2 2 2 2 2 2 2 2 
2 2 2 2 2 2 2 2 2 
2 2 2 2 2 2 2 2 2 
2 2 2 2 2 2 2 2 2 
2 2 2 2 2 2 2 2 2 
2 2 2 2 2 2 2 2 2 
2 2 2 2 2 2 2 2 2 
2 2 2 2 2 2 2 2 2 
2 2 2 2 2 2 2 2 2 
2 2 2 2 2 2 2 2 2 
2 2 2 2 2 2 2 2 2 
2 2 2 2 2 2 2 2 2 
2 2 2 2 2 2 2 2 2 
2 2 2 2 2 2 2 2 2 
2 2 2 2 2 2 2 2 2 
2 2 2 2 2 2 2 2 2 
2 2 2 2 2 2 2 2 2 
2 2 2 2 2 2 2 2 2 
2 2 2 2 2 2 2 2 2 
2 2 2 2 2 2 2 2 2 
2 2 2 2 2 2 2 2 2 
2 2 2 2 2 2 2 2 2 
2 2 2 2 2 2 2 2 2 
2 2 2 2 2 2 2 2 2 
2 2 2 2 2 2 2 2 2 
2 2 2 2 2 2 2 2 2 
2 2 2 2 2 2 2 2 2 
2 2 2 2 2 2 2 2 2 
2 2 2 2 2 2 2 2 2 
2 2 2 2 2 2 2 2 2 
2 2 2 2 2 2 2 2 2 
2 2 2 2 2 2 2 2 2 
2 2 2 2 2 2 2 2 2 
2 2 2 2 2 2 2 2 2 
2 2 2 2 2 2 2 2 2 
2 2 2 2 2 2 2 2 2 
2 2 2 2 2 2 2 2 2 
2 2 2 2 2 2 2 2 2 
2 2 2 2 2 2 2 2 2 
2 2 2 2 2 2 2 2 2 
2 2 2 2 2 2 2 2 2 
2 2 2 2 2 2 2 2 2 
2 2 2 2 2 2 2 2 2 
2 2 2 2 2 2 2 2 2 
2 2 2 2 2 2 2 2 2 
2 2 2 2 2 2 2 2 2 
2 2 2 2 2 2 2 2 2 
2 2 2 2 2 2 2 2 2 
2 2 2 2 2 2 2 2 2 
2 2 2 2 2 2 2 2 2 
2 2 2 2 2 2 2 2 2 
2 2 2 2 2 2 2 2 2 
2 2 2 2 2 2 2 2 2 
2 2 2 2 2 2 2 2 2 
2 2 2 2 2 2 2 2 2 
2 2 2 2 2 2 2 2 2 
2 2 2 2 2 2 2 2 2 
2 2 2 2 2 2 2 2 2 
2 2 2 2 2 2 2 2 2 
2 2 2 2 2 2 2 2 2 
2 2 2 2 2 2 2 2 2 
2 2 2 2 2 2 2 2 2 
2 2 2 2 2 2 2 2 2 
2 2 2 2 2 2 2 2 2 
2 2 2 2 2 2 2 2 2 
2 2 2 2 2 2 2 2 2 
2 2 2 2 2 2 2 2 2 
2 2 2 2 2 2 2 2 2 
2 2 2 2 2 2 2 2 2 
2 2 2 2 2 
R 1 1049 double
0.30266 0.31931 0.33263 0.31776 0.33859 0.27325 0.34517 0.27528 0.33777 
0.30154 0.28195 0.26351 0.34097 0.28149 0.33184 0.2897 0.32955 0.33283 
0.33421 0.25774 0.33159 0.34126 0.31987 0.34851 0.33398 0.26298 0.27641 
0.27491 0.2979 0.25639 0.31815 0.28083 0.26354 0.30352 0.25853 0.33566 
0.25399 0.26783 0.25657 0.32722 0.33828 0.28662 0.30856 0.32665 0.26852 
0.31582 0.27197 0.2889 0.2931 0.33382 0.34593 0.34672 0.34015 0.30199 
0.27735 0.26761 0.32278 0.25308 0.31087 0.3159 0.30511 0.30421 0.25928 
0.27555 0.27957 0.25528 0.28172 0.31127 0.31651 0.25037 0.25099 0.26541 
0.3 0.31364 0.30805 0.27972 0.25997 0.2685 0.28069 0.29225 0.2591 
0.32017 0.29693 0.31217 0.27393 0.27071 0.2735 0.2957 0.28827 0.33657 
0.28537 0.30482 0.33577 0.25888 0.3161 0.32334 0.26173 0.25008 0.31621 
0.27439 0.1 0.1 0.1 0.1 0.1 0.1 0.1 0.1 
0.1 0.1 0.1 0.1 0.1 0.1 0.1 0.1 0.1 
0.1 0.1 0.1 0.1 0.1 0.1 0.1 0.1 0.1 
0.1 0.1 0.1 0.1 0.1 0.1 0.1 0.1 0.1 
0.1 0.1 0.1 0.1 0.1 0.1 0.1 0.1 0.1 
0.1 0.1 0.1 0.1 0.1 0.1 0.1 0.1 0.1 
0.1 0.1 0.1 0.1 0.1 0.1 0.1 0.1 0.1 
0.1 0.1 0.1 0.1 0.1 0.1 0.1 0.1 0.1 
0.1 0.1 0.1 0.1 0.1 0.1 0.1 0.1 0.1 
0.1 0.1 0.1 0.1 0.1 0.1 0.1 0.1 0.1 
0.1 0.1 0.1 0.1 0.1 0.1 0.1 0.1 0.1 
0.1 0.1 0.1 0.1 0.1 0.1 0.1 0.1 0.1 
0.1 0.1 0.1 0.1 0.1 0.1 0.1 0.1 0.1 
0.1 0.1 0.1 0.1 0.1 0.1 0.1 0.1 0.1 
0.1 0.1 0.1 0.1 0.1 0.1 0.1 0.1 0.1 
0.1 0.1 0.1 0.1 0.1 0.1 0.1 0.1 0.1 
0.1 0.1 0.1 0.1 0.1 0.1 0.1 0.1 0.1 
0.1 0.34334 0.1 0.1 0.32716 0.1 0.1 0.3228 0.26888 
0.1 0.1 0.1 0.1 0.1 0.1 0.1 0.1 0.1 
0.1 0.1 0.1 0.1 0.1 0.1 0.1 0.1 0.1 
0.1 0.1 0.1 0.1 0.1 0.1 0.1 0.1 0.1 
0.1 0.1 0.1 0.1 0.1 0.1 0.1 0.1 0.1 
0.1 0.1 0.1 0.1 0.1 0.32361 0.33976 0.26269 0.1 
0.1 0.1 0.1 0.1 0.1 0.1 0.1 0.1 0.1 
0.1 0.1 0.1 0.1 0.1 0.1 0.1 0.1 0.1 
0.1 0.1 0.1 0.1 0.1 0.1 0.1 0.1 0.1 
0.1 0.1 0.28428 0.34368 0.33341 0.28437 0.1 0.1 0.1 
0.1 0.1 0.1 0.1 0.1 0.1 0.1 0.1 0.1 
0.1 0.1 0.1 0.1 0.1 0.1 0.1 0.1 0.1 
0.1 0.1 0.1 0.1 0.1 0.1 0.1 0.1 0.1 
0.33762 0.31506 0.1 0.1 0.1 0.1 0.1 0.1 0.1 
0.1 0.1 0.1 0.25871 0.1 0.1 0.1 0.1 0.1 
0.1 0.1 0.1 0.1 0.1 0.1 0.1 0.1 0.1 
0.1 0.1 0.1 0.1 0.1 0.1 0.1 0.1 0.1 
0.1 0.1 0.1 0.1 0.1 0.1 0.1 0.29985 0.29552 
0.1 0.1 0.1 0.1 0.1 0.1 0.1 0.1 0.1 
0.1 0.1 0.1 0.1 0.1 0.1 0.1 0.1 0.1 
0.1 0.1 0.31445 0.1 0.1 0.1 0.1 0.1 0.1 
0.1 0.1 0.1 0.1 0.1 0.1 0.1 0.1 0.1 
0.1 0.1 0.1 0.1 0.1 0.1 0.1 0.1 0.1 
0.1 0.1 0.1 0.1 0.1 0.1 0.1 0.1 0.1 
0.1 0.1 0.1 0.1 0.1 0.1 0.1 0.1 0.1 
0.1 0.1 0.1 0.1 0.1 0.1 0.1 0.1 0.1 
0.1 0.1 0.1 0.1 0.1 0.1 0.1 0.1 0.1 
0.33954 0.1 0.1 0.1 0.1 0.1 0.1 0.1 0.1 
0.1 0.1 0.1 0.1 0.1 0.1 0.1 0.1 0.1 
0.1 0.1 0.1 0.1 0.1 0.1 0.1 0.1 0.1 
0.1 0.1 0.1 0.1 0.1 0.1 0.1 0.1 0.1 
0.1 0.1 0.1 0.1 0.1 0.1 0.1 0.1 0.1 
0.1 0.1 0.1 0.1 0.1 0.1 0.1 0.1 0.1 
0.1 0.1 0.1 0.1 0.1 0.1 0.1 0.1 0.1 
0.1 0.1 0.1 0.1 0.1 0.1 0.1 0.1 0.1 
0.1 0.1 0.1 0.1 0.1 0.1 0.1 0.1 0.1 
0.1 0.1 0.1 0.1 0.1 0.1 0.1 0.1 0.1 
0.1 0.1 0.1 0.1 0.1 0.1 0.1 0.1 0.1 
0.1 0.1 0.1 0.1 0.1 0.1 0.1 0.1 0.1 
0.1 0.1 0.25952 0.1 0.1 0.1 0.1 0.1 0.1 
0.1 0.1 0.1 0.1 0.1 0.1 0.1 0.1 0.1 
0.1 0.1 0.1 0.1 0.1 0.1 0.1 0.1 0.1 
0.1 0.1 0.1 0.1 0.1 0.1 0.1 0.1 0.1 
0.1 0.1 0.1 0.1 0.1 0.1 0.1 0.1 0.1 
0.1 0.1 0.1 0.1 0.1 0.1 0.1 0.1 0.1 
0.1 0.1 0.1 0.1 0.1 0.1 0.1 0.1 0.1 
0.1 0.1 0.1 0.1 0.1 0.1 0.1 0.1 0.1 
0.1 0.1 0.1 0.1 0.1 0.1 0.1 0.1 0.1 
0.1 0.1 0.1 0.1 0.1 0.1 0.1 0.1 0.1 
0.1 0.1 0.1 0.1 0.1 0.1 0.1 0.1 0.1 
0.1 0.1 0.1 0.1 0.1 0.1 0.1 0.1 0.1 
0.1 0.1 0.1 0.1 0.1 0.1 0.1 0.1 0.1 
0.1 0.1 0.1 0.1 0.1 0.1 0.1 0.1 0.1 
0.1 0.1 0.1 0.1 0.1 0.1 0.1 0.1 0.1 
0.1 0.1 0.1 0.1 0.1 0.1 0.1 0.1 0.1 
0.1 0.1 0.1 0.1 0.1 0.1 0.1 0.1 0.1 
0.1 0.1 0.1 0.1 0.1 0.1 0.1 0.1 0.33412 
0.1 0.1 0.1 0.1 0.1 0.1 0.1 0.1 0.1 
0.1 0.1 0.1 0.1 0.1 0.1 0.1 0.1 0.1 
0.1 0.1 0.1 0.1 0.1 0.1 0.1 0.1 0.1 
0.1 0.1 0.1 0.1 0.1 0.1 0.1 0.1 0.1 
0.1 0.1 0.1 0.1 0.1 0.1 0.1 0.1 0.1 
0.1 0.1 0.1 0.1 0.1 0.1 0.1 0.1 0.1 
0.1 0.1 0.1 0.1 0.1 0.1 0.1 0.1 0.1 
0.1 0.1 0.1 0.1 0.1 0.1 0.1 0.1 0.1 
0.1 0.1 0.1 0.1 0.1 0.1 0.1 0.1 0.1 
0.1 0.1 0.1 0.1 0.1 0.1 0.1 0.1 0.1 
0.1 0.1 0.1 0.1 0.1 0.1 0.1 0.1 0.1 
0.1 0.1 0.1 0.1 0.1 0.1 0.1 0.1 0.1 
0.1 0.1 0.1 0.1 0.1 0.1 0.1 0.1 0.1 
0.1 0.1 0.1 0.1 0.1 0.1 0.1 0.1 0.1 
0.1 0.1 0.1 0.1 0.1 0.1 0.1 0.1 0.1 
0.1 0.1 0.1 0.1 0.1 0.1 0.1 0.1 0.1 
0.1 0.1 0.1 0.1 0.1 0.1 0.1 0.1 0.1 
0.1 0.1 0.1 0.1 0.1 0.1 0.1 0.1 0.1 
0.1 0.1 0.1 0.1 0.1 0.1 0.1 0.1 0.1 
0.1 0.1 0.1 0.1 0.1 0.1 0.1 0.1 0.1 
0.1 0.1 0.1 0.1 0.1 0.1 0.1 0.1 0.1 
0.1 0.1 0.1 0.1 0.1 0.1 0.1 0.1 0.1 
0.1 0.1 0.1 0.1 0.1 0.1 0.1 0.1 0.1 
0.1 0.1 0.1 0.1 0.1 0.1 0.1 0.1 0.1 
0.1 0.1 0.1 0.1 0.1 0.1 0.1 0.1 0.1 
0.1 0.1 0.1 0.1 0.1 0.1 0.1 0.1 0.1 
0.1 0.1 0.1 0.1 0.1 0.1 0.1 0.1 0.1 
0.1 0.1 0.1 0.1 0.1 0.1 0.1 0.1 0.1 
0.1 0.1 0.1 0.1 0.1 0.1 0.1 0.1 0.1 
0.1 0.1 0.1 0.1 0.1 0.1 0.1 0.1 0.1 
0.1 0.1 0.1 0.1 0.1 0.1 0.1 0.1 0.1 
0.1 0.1 0.1 0.1 0.1 
a 3 1049 double
0 0 0 0 0 0 0 0 0 
0 0 0 0 0 0 0 0 0 
0 0 0 0 0 0 0 0 0 
0 0 0 0 0 0 0 0 0 
0 0 0 0 0 0 0 0 0 
0 0 0 0 0 0 0 0 0 
0 0 0 0 0 0 0 0 0 
0 0 0 0 0 0 0 0 0 
0 0 0 0 0 0 0 0 0 
0 0 0 0 0 0 0 0 0 
0 0 0 0 0 0 0 0 0 
0 0 0 0 0 0 0 0 0 
0 0 0 0 0 0 0 0 0 
0 0 0 0 0 0 0 0 0 
0 0 0 0 0 0 0 0 0 
0 0 0 0 0 0 0 0 0 
0 0 0 0 0 0 0 0 0 
0 0 0 0 0 0 0 0 0 
0 0 0 0 0 0 0 0 0 
0 0 0 0 0 0 0 0 0 
0 0 0 0 0 0 0 0 0 
0 0 0 0 0 0 0 0 0 
0 0 0 0 0 0 0 0 0 
0 0 0 0 0 0 0 0 0 
0 0 0 0 0 0 0 0 0 
0 0 0 0 0 0 0 0 0 
0 0 0 0 0 0 0 0 0 
0 0 0 0 0 0 0 0 0 
0 0 0 0 0 0 0 0 0 
0 0 0 0 0 0 0 0 0 
0 0 0 0 0 0 0 0 0 
0 0 0 0 0 0 0 0 0 
0 0 0 0 0 0 0 0 0 
0 0 0 0 0 0 0 0 0 
0 0 0 0 0 0 0 0 0 
0 0 0 0 0 0 0 0 0 
0 0 0 0 0 0 0 0 0 
0 0 0 0 0 0 0 0 0 
0 0 0 0 0 0 0 0 0 
0 0 0 0 0 0 0 0 0 
0 0 0 0 0 0 0 0 0 
0 0 0 0 0 0 0 0 0 
0 0 0 0 0 0 0 0 0 
0 0 0 0 0 0 0 0 0 
0 0 0 0 0 0 0 0 0 
0 0 0 0 0 0 0 0 0 
0 0 0 0 0 0 0 0 0 
0 0 0 0 0 0 0 0 0 
0 0 0 0 0 0 0 0 0 
0 0 0 0 0 0 0 0 0 
0 0 0 0 0 0 0 0 0 
0 0 0 0 0 0 0 0 0 
0 0 0 0 0 0 0 0 0 
0 0 0 0 0 0 0 0 0 
0 0 0 0 0 0 0 0 0 
0 0 0 0 0 0 0 0 0 
0 0 0 0 0 0 0 0 0 
0 0 0 0 0 0 0 0 0 
0 0 0 0 0 0 0 0 0 
0 0 0 0 0 0 0 0 0 
0 0 0 0 0 0 0 0 0 
0 0 0 0 0 0 0 0 0 
0 0 0 0 0 0 0 0 0 
0 0 0 0 0 0 0 0 0 
0 0 0 0 0 0 0 0 0 
0 0 0 0 0 0 0 0 0 
0 0 0 0 0 0 0 0 0 
0 0 0 0 0 0 0 0 0 
0 0 0 0 0 0 0 0 0 
0 0 0 0 0 0 0 0 0 
0 0 0 0 0 0 0 0 0 
0 0 0 0 0 0 0 0 0 
0 0 0 0 0 0 0 0 0 
0 0 0 0 0 0 0 0 0 
0 0 0 0 0 0 0 0 0 
0 0 0 0 0 0 0 0 0 
0 0 0 0 0 0 0 0 0 
0 0 0 0 0 0 0 0 0 
0 0 0 0 0 0 0 0 0 
0 0 0 0 0 0 0 0 0 
0 0 0 0 0 0 0 0 0 
0 0 0 0 0 0 0 0 0 
0 0 0 0 0 0 0 0 0 
0 0 0 0 0 0 0 0 0 
0 0 0 0 0 0 0 0 0 
0 0 0 0 0 0 0 0 0 
0 0 0 0 0 0 0 0 0 
0 0 0 0 0 0 0 0 0 
0 0 0 0 0 0 0 0 0 
0 0 0 0 0 0 0 0 0 
0 0 0 0 0 0 0 0 0 
0 0 0 0 0 0 0 0 0 
0 0 0 0 0 0 0 0 0 
0 0 0 0 0 0 0 0 0 
0 0 0 0 0 0 0 0 0 
0 0 0 0 0 0 0 0 0 
0 0 0 0 0 0 0 0 0 
0 0 0 0 0 0 0 0 0 
0 0 0 0 0 0 0 0 0 
0 0 0 0 0 0 0 0 0 
0 0 0 0 0 0 0 0 0 
0 0 0 0 0 0 0 0 0 
0 0 0 0 0 0 0 0 0 
0 0 0 0 0 0 0 0 0 
0 0 0 0 0 0 0 0 0 
0 0 0 0 0 0 0 0 0 
0 0 0 0 0 0 0 0 0 
0 0 0 0 0 0 0 0 0 
0 0 0 0 0 0 0 0 0 
0 0 0 0 0 0 0 0 0 
0 0 0 0 0 0 0 0 0 
0 0 0 0 0 0 0 0 0 
0 0 0 0 0 0 0 0 0 
0 0 0 0 0 0 0 0 0 
0 0 0 0 0 0 0 0 0 
0 0 0 0 0 0 0 0 0 
0 0 0 0 0 0 0 0 0 
0 0 0 0 0 0 0 0 0 
0 0 0 0 0 0 0 0 0 
0 0 0 0 0 0 0 0 0 
0 0 0 0 0 0 0 0 0 
0 0 0 0 0 0 0 0 0 
0 0 0 0 0 0 0 0 0 
0 0 0 0 0 0 0 0 0 
0 0 0 0 0 0 0 0 0 
0 0 0 0 0 0 0 0 0 
0 0 0 0 0 0 0 0 0 
0 0 0 0 0 0 0 0 0 
0 0 0 0 0 0 0 0 0 
0 0 0 0 0 0 0 0 0 
0 0 0 0 0 0 0 0 0 
0 0 0 0 0 0 0 0 0 
0 0 0 0 0 0 0 0 0 
0 0 0 0 0 0 0 0 0 
0 0 0 0 0 0 0 0 0 
0 0 0 0 0 0 0 0 0 
0 0 0 0 0 0 0 0 0 
0 0 0 0 0 0 0 0 0 
0 0 0 0 0 0 0 0 0 
0 0 0 0 0 0 0 0 0 
0 0 0 0 0 0 0 0 0 
0 0 0 0 0 0 0 0 0 
0 0 0 0 0 0 0 0 0 
0 0 0 0 0 0 0 0 0 
0 0 0 0 0 0 0 0 0 
0 0 0 0 0 0 0 0 0 
0 0 0 0 0 0 0 0 0 
0 0 0 0 0 0 0 0 0 
0 0 0 0 0 0 0 0 0 
0 0 0 0 0 0 0 0 0 
0 0 0 0 0 0 0 0 0 
0 0 0 0 0 0 0 0 0 
0 0 0 0 0 0 0 0 0 
0 0 0 0 0 0 0 0 0 
0 0 0 0 0 0 0 0 0 
0 0 0 0 0 0 0 0 0 
0 0 0 0 0 0 0 0 0 
0 0 0 0 0 0 0 0 0 
0 0 0 0 0 0 0 0 0 
0 0 0 0 0 0 0 0 0 
0 0 0 0 0 0 0 0 0 
0 0 0 0 0 0 0 0 0 
0 0 0 0 0 0 0 0 0 
0 0 0 0 0 0 0 0 0 
0 0 0 0 0 0 0 0 0 
0 0 0 0 0 0 0 0 0 
0 0 0 0 0 0 0 0 0 
0 0 0 0 0 0 0 0 0 
0 0 0 0 0 0 0 0 0 
0 0 0 0 0 0 0 0 0 
0 0 0 0 0 0 0 0 0 
0 0 0 0 0 0 0 0 0 
0 0 0 0 0 0 0 0 0 
0 0 0 0 0 0 0 0 0 
0 0 0 0 0 0 0 0 0 
0 0 0 0 0 0 0 0 0 
0 0 0 0 0 0 0 0 0 
0 0 0 0 0 0 0 0 0 
0 0 0 0 0 0 0 0 0 
0 0 0 0 0 0 0 0 0 
0 0 0 0 0 0 0 0 0 
0 0 0 0 0 0 0 0 0 
0 0 0 0 0 0 0 0 0 
0 0 0 0 0 0 0 0 0 
0 0 0 0 0 0 0 0 0 
0 0 0 0 0 0 0 0 0 
0 0 0 0 0 0 0 0 0 
0 0 0 0 0 0 0 0 0 
0 0 0 0 0 0 0 0 0 
0 0 0 0 0 0 0 0 0 
0 0 0 0 0 0 0 0 0 
0 0 0 0 0 0 0 0 0 
0 0 0 0 0 0 0 0 0 
0 0 0 0 0 0 0 0 0 
0 0 0 0 0 0 0 0 0 
0 0 0 0 0 0 0 0 0 
0 0 0 0 0 0 0 0 0 
0 0 0 0 0 0 0 0 0 
0 0 0 0 0 0 0 0 0 
0 0 0 0 0 0 0 0 0 
0 0 0 0 0 0 0 0 0 
0 0 0 0 0 0 0 0 0 
0 0 0 0 0 0 0 0 0 
0 0 0 0 0 0 0 0 0 
0 0 0 0 0 0 0 0 0 
0 0 0 0 0 0 0 0 0 
0 0 0 0 0 0 0 0 0 
0 0 0 0 0 0 0 0 0 
0 0 0 0 0 0 0 0 0 
0 0 0 0 0 0 0 0 0 
0 0 0 0 0 0 0 0 0 
0 0 0 0 0 0 0 0 0 
0 0 0 0 0 0 0 0 0 
0 0 0 0 0 0 0 0 0 
0 0 0 0 0 0 0 0 0 
0 0 0 0 0 0 0 0 0 
0 0 0 0 0 0 0 0 0 
0 0 0 0 0 0 0 0 0 
0 0 0 0 0 0 0 0 0 
0 0 0 0 0 0 0 0 0 
0 0 0 0 0 0 0 0 0 
0 0 0 0 0 0 0 0 0 
0 0 0 0 0 0 0 0 0 
0 0 0 0 0 0 0 0 0 
0 0 0 0 0 0 0 0 0 
0 0 0 0 0 0 0 0 0 
0 0 0 0 0 0 0 0 0 
0 0 0 0 0 0 0 0 0 
0 0 0 0 0 0 0 0 0 
0 0 0 0 0 0 0 0 0 
0 0 0 0 0 0 0 0 0 
0 0 0 0 0 0 0 0 0 
0 0 0 0 0 0 0 0 0 
0 0 0 0 0 0 0 0 0 
0 0 0 0 0 0 0 0 0 
0 0 0 0 0 0 0 0 0 
0 0 0 0 0 0 0 0 0 
0 0 0 0 0 0 0 0 0 
0 0 0 0 0 0 0 0 0 
0 0 0 0 0 0 0 0 0 
0 0 0 0 0 0 0 0 0 
0 0 0 0 0 0 0 0 0 
0 0 0 0 0 0 0 0 0 
0 0 0 0 0 0 0 0 0 
0 0 0 0 0 0 0 0 0 
0 0 0 0 0 0 0 0 0 
0 0 0 0 0 0 0 0 0 
0 0 0 0 0 0 0 0 0 
0 0 0 0 0 0 0 0 0 
0 0 0 0 0 0 0 0 0 
0 0 0 0 0 0 0 0 0 
0 0 0 0 0 0 0 0 0 
0 0 0 0 0 0 0 0 0 
0 0 0 0 0 0 0 0 0 
0 0 0 0 0 0 0 0 0 
0 0 0 0 0 0 0 0 0 
0 0 0 0 0 0 0 0 0 
0 0 0 0 0 0 0 0 0 
0 0 0 0 0 0 0 0 0 
0 0 0 0 0 0 0 0 0 
0 0 0 0 0 0 0 0 0 
0 0 0 0 0 0 0 0 0 
0 0 0 0 0 0 0 0 0 
0 0 0 0 0 0 0 0 0 
0 0 0 0 0 0 0 0 0 
0 0 0 0 0 0 0 0 0 
0 0 0 0 0 0 0 0 0 
0 0 0 0 0 0 0 0 0 
0 0 0 0 0 0 0 0 0 
0 0 0 0 0 0 0 0 0 
0 0 0 0 0 0 0 0 0 
0 0 0 0 0 0 0 0 0 
0 0 0 0 0 0 0 0 0 
0 0 0 0 0 0 0 0 0 
0 0 0 0 0 0 0 0 0 
0 0 0 0 0 0 0 0 0 
0 0 0 0 0 0 0 0 0 
0 0 0 0 0 0 0 0 0 
0 0 0 0 0 0 0 0 0 
0 0 0 0 0 0 0 0 0 
0 0 0 0 0 0 0 0 0 
0 0 0 0 0 0 0 0 0 
0 0 0 0 0 0 0 0 0 
0 0 0 0 0 0 0 0 0 
0 0 0 0 0 0 0 0 0 
0 0 0 0 0 0 0 0 0 
0 0 0 0 0 0 0 0 0 
0 0 0 0 0 0 0 0 0 
0 0 0 0 0 0 0 0 0 
0 0 0 0 0 0 0 0 0 
0 0 0 0 0 0 0 0 0 
0 0 0 0 0 0 0 0 0 
0 0 0 0 0 0 0 0 0 
0 0 0 0 0 0 0 0 0 
0 0 0 0 0 0 0 0 0 
0 0 0 0 0 0 0 0 0 
0 0 0 0 0 0 0 0 0 
0 0 0 0 0 0 0 0 0 
0 0 0 0 0 0 0 0 0 
0 0 0 0 0 0 0 0 0 
0 0 0 0 0 0 0 0 0 
0 0 0 0 0 0 0 0 0 
0 0 0 0 0 0 0 0 0 
0 0 0 0 0 0 0 0 0 
0 0 0 0 0 0 0 0 0 
0 0 0 0 0 0 0 0 0 
0 0 0 0 0 0 0 0 0 
0 0 0 0 0 0 0 0 0 
0 0 0 0 0 0 0 0 0 
0 0 0 0 0 0 0 0 0 
0 0 0 0 0 0 0 0 0 
0 0 0 0 0 0 0 0 0 
0 0 0 0 0 0 0 0 0 
0 0 0 0 0 0 0 0 0 
0 0 0 0 0 0 0 0 0 
0 0 0 0 0 0 0 0 0 
0 0 0 0 0 0 0 0 0 
0 0 0 0 0 0 0 0 0 
0 0 0 0 0 0 0 0 0 
0 0 0 0 0 0 0 0 0 
0 0 0 0 0 0 0 0 0 
0 0 0 0 0 0 0 0 0 
0 0 0 0 0 0 0 0 0 
0 0 0 0 0 0 0 0 0 
0 0 0 0 0 0 0 0 0 
0 0 0 0 0 0 0 0 0 
0 0 0 0 0 0 0 0 0 
0 0 0 0 0 0 0 0 0 
0 0 0 0 0 0 0 0 0 
0 0 0 0 0 0 0 0 0 
0 0 0 0 0 0 0 0 0 
0 0 0 0 0 0 0 0 0 
0 0 0 0 0 0 0 0 0 
0 0 0 0 0 0 0 0 0 
0 0 0 0 0 0 0 0 0 
0 0 0 0 0 0 0 0 0 
0 0 0 0 0 0 0 0 0 
0 0 0 0 0 0 0 0 0 
0 0 0 0 0 0 0 0 0 
0 0 0 0 0 0 0 0 0 
0 0 0 0 0 0 0 0 0 
0 0 0 0 0 0 0 0 0 
0 0 0 0 0 0 0 0 0 
0 0 0 0 0 0 0 0 0 
0 0 0 0 0 0 0 0 0 
0 0 0 0 0 0 0 0 0 
0 0 0 0 0 0 0 0 0 
0 0 0 0 0 0 0 0 0 
0 0 0 0 0 0 0 0 0 
0 0 0 0 0 0 
v 3 1049 double
0.0991374 -0.127288 0 0.0778829 -0.0814072 0 0.0641897 -0.041745 0 
-0.0168956 -0.200362 0 0.0492765 -0.182598 0 0.0482127 -0.109642 0 
-0.0281163 -0.181011 0 -0.0399876 -0.0868555 0 0.0409287 0.017906 0 
0.0665618 -0.0438576 0 0.102805 -0.20516 0 -0.00102822 -0.0707968 0 
0.0313465 -0.078536 0 0.0344575 -0.0176293 0 0.0168756 -0.0396814 0 
-0.113302 -0.126785 0 0.154655 -0.0167495 0 0.189064 -0.350097 0 
-0.0522013 -0.163569 0 0.091073 -0.304754 0 0.0837978 -0.120188 0 
0.243214 -0.149911 0 -0.00124972 0.174179 0 0.0172526 -0.13395 0 
-0.00665884 -0.077301 0 -0.0515122 0.0290385 0 -0.106929 -0.0286125 0 
-0.0579582 -0.301075 0 0.759912 -0.522833 0 0.705536 -0.583682 0 
0.895436 -0.651485 0 0.652854 -0.4034 0 0.160628 -0.770058 0 
0.496838 -0.00982735 0 0.49931 -0.711171 0 0.375233 -0.212026 0 
0.68785 -0.143499 0 0.319972 -0.17119 0 0.124185 0.180203 0 
0.0336718 -0.1024 0 0.0601317 0.150321 0 -0.796935 -0.628756 0 
-0.89191 -0.807487 0 0.904785 -0.707542 0 0.940563 -0.709568 0 
-0.71928 -0.749153 0 -0.552695 -0.44034 0 -0.861074 -0.669474 0 
-0.726208 -0.511308 0 0.787283 -0.647454 0 0.795951 -0.582939 0 
0.954929 -0.8737 0 -0.844627 -0.700009 0 -0.699568 -0.556258 0 
-0.851341 -0.699895 0 -0.606903 -0.615507 0 -0.655953 -0.497555 0 
0.824691 -0.666082 0 0.847783 -0.611012 0 0.906049 -0.722107 0 
-0.854622 -0.632402 0 -0.954955 -0.691788 0 -0.932802 -0.751061 0 
-0.827111 -0.717582 0 0.858695 -0.699067 0 0.887378 -0.695248 0 
-0.830724 -0.693165 0 -0.621735 -0.46593 0 -0.70361 -0.566312 0 
-0.663771 -0.572451 0 0.545195 -0.434476 0 0.678781 -0.687861 0 
0.738581 -0.565872 0 -0.768078 -0.451609 0 -0.783249 -0.740554 0 
-0.646403 -0.583496 0 -0.785281 -0.557119 0 -0.577688 -0.531377 0 
-0.761353 -0.652779 0 0.633347 -0.644732 0 0.692341 -0.588027 0 
0.763672 -0.601884 0 0.822656 -0.615053 0 -0.994416 -0.752657 0 
-0.938766 -0.657896 0 -0.93307 -0.779345 0 -0.715207 -0.594126 0 
-0.945144 -0.72206 0 -0.668784 -0.593589 0 0.780449 -0.620806 0 
0.758919 -0.570838 0 0.738677 -0.445689 0 -0.925003 -0.728911 0 
-0.920359 -0.593752 0 -0.917287 -0.825519 0 0.543934 -0.786824 0 
0.68076 -0.735024 0 -0.666348 -1.28482 0 -0.849123 -0.677022 0 
0.031027 -1.22022 0 0 0 0 0 0 0 
0 0 0 0 0 0 0 0 0 
0 0 0 0 0 0 0 0 0 
0 0 0 0 0 0 0 0 0 
0 0 0 0 0 0 0 0 0 
0 0 0 0 0 0 0 0 0 
0 0 0 0 0 0 0 0 0 
0 0 0 0 0 0 0 0 0 
0 0 0 0 0 0 0 0 0 
0 0 0 0 0 0 0 0 0 
0 0 0 0 0 0 0 0 0 
0 0 0 0 0 0 0 0 0 
0 0 0 0 0 0 0 0 0 
0 0 0 0 0 0 0 0 0 
0 0 0 0 0 0 0 0 0 
0 0 0 0 0 0 0 0 0 
0 0 0 0 0 0 0 0 0 
0 0 0 0 0 0 0 0 0 
0 0 0 0 0 0 0 0 0 
0 0 0 0 0 0 0 0 0 
0 0 0 0 0 0 0 0 0 
0 0 0 0 0 0 0 0 0 
0 0 0 0 0 0 0 0 0 
0 0 0 0 0 0 0 0 0 
0 0 0 0 0 0 0 0 0 
0 0 0 0 0 0 0 0 0 
0 0 0 0 0 0 0 0 0 
0 0 0 0 0 0 0 0 0 
0 0 0 0 0 0 0 0 0 
0 0 0 0 0 0 0 0 0 
0 0 0 0 0 0 0 0 0 
0 0 0 0 0 0 0 0 0 
0 0 0 0 0 0 0 0 0 
0 0 0 0 0 0 0 0 0 
0 0 0 0 0 0 0 0 0 
0 0 0 0 0 0 0 0 0 
0 0 0 0 0 0 0 0 0 
0 0 0 0 0 0 0 0 0 
0 0 0 0 0 0 0 0 0 
0 0 0 0 0 0 0 0 0 
0 0 0 0 0 0 0 0 0 
0 0 0 0 0 0 0 0 0 
0 0 0 0 0 0 0 0 0 
0 0 0 0 0 0 0 0 0 
0 0 0 0 0 0 0 0 0 
0 0 0 0 0 0 0 0 0 
0 0 0 0 0 0 0 0 0 
0 0 0 0 0 0 0 0 0 
0 0 0 0 0 0 0 0 0 
0 0 0 0 0 0 0 0 0 
0 0 0 0 0 0 0 0 0 
0 0 0 0.0589666 -0.618199 0 0 0 0 
0 0 0 0.151149 -0.0195316 0 0 0 0 
0 0 0 -0.107744 -0.618289 0 -0.056986 -0.323097 0 
0 0 0 0 0 0 0 0 0 
0 0 0 0 0 0 0 0 0 
0 0 0 0 0 0 0 0 0 
0 0 0 0 0 0 0 0 0 
0 0 0 0 0 0 0 0 0 
0 0 0 0 0 0 0 0 0 
0 0 0 0 0 0 0 0 0 
0 0 0 0 0 0 0 0 0 
0 0 0 0 0 0 0 0 0 
0 0 0 0 0 0 0 0 0 
0 0 0 0 0 0 0 0 0 
0 0 0 0 0 0 0 0 0 
0 0 0 0 0 0 0 0 0 
0 0 0 0 0 0 -0.110926 -0.53207 0 
-0.229071 -0.818391 0 0.137787 -0.612444 0 0 0 0 
0 0 0 0 0 0 0 0 0 
0 0 0 0 0 0 0 0 0 
0 0 0 0 0 0 0 0 0 
0 0 0 0 0 0 0 0 0 
0 0 0 0 0 0 0 0 0 
0 0 0 0 0 0 0 0 0 
0 0 0 0 0 0 0 0 0 
0 0 0 0 0 0 0 0 0 
0 0 0 0 0 0 0 0 0 
0 0 0 0 0 0 0.25366 -0.843268 0 
0.228174 -0.705964 0 -0.186521 -0.825716 0 -0.118759 -0.851424 0 
0 0 0 0 0 0 0 0 0 
0 0 0 0 0 0 0 0 0 
0 0 0 0 0 0 0 0 0 
0 0 0 0 0 0 0 0 0 
0 0 0 0 0 0 0 0 0 
0 0 0 0 0 0 0 0 0 
0 0 0 0 0 0 0 0 0 
0 0 0 0 0 0 0 0 0 
0 0 0 0 0 0 0 0 0 
0 0 0 0 0 0 0 0 0 
0.229095 -0.813758 0 0.187067 -0.640827 0 0 0 0 
0 0 0 0 0 0 0 0 0 
0 0 0 0 0 0 0 0 0 
0 0 0 0 0 0 0 0 0 
-0.248825 -0.773701 0 0 0 0 0 0 0 
0 0 0 0 0 0 0 0 0 
0 0 0 0 0 0 0 0 0 
0 0 0 0 0 0 0 0 0 
0 0 0 0 0 0 0 0 0 
0 0 0 0 0 0 0 0 0 
0 0 0 0 0 0 0 0 0 
0 0 0 0 0 0 0 0 0 
0 0 0 0 0 0 0 0 0 
0 0 0 0 0 0 0 0 0 
0 0 0 -0.219098 -0.793419 0 -0.240634 -0.793418 0 
0 0 0 0 0 0 0 0 0 
0 0 0 0 0 0 0 0 0 
0 0 0 0 0 0 0 0 0 
0 0 0 0 0 0 0 0 0 
0 0 0 0 0 0 0 0 0 
0 0 0 0 0 0 0 0 0 
0 0 0 0 0 0 -0.111397 -0.735681 0 
0 0 0 0 0 0 0 0 0 
0 0 0 0 0 0 0 0 0 
0 0 0 0 0 0 0 0 0 
0 0 0 0 0 0 0 0 0 
0 0 0 0 0 0 0 0 0 
0 0 0 0 0 0 0 0 0 
0 0 0 0 0 0 0 0 0 
0 0 0 0 0 0 0 0 0 
0 0 0 0 0 0 0 0 0 
0 0 0 0 0 0 0 0 0 
0 0 0 0 0 0 0 0 0 
0 0 0 0 0 0 0 0 0 
0 0 0 0 0 0 0 0 0 
0 0 0 0 0 0 0 0 0 
0 0 0 0 0 0 0 0 0 
0 0 0 0 0 0 0 0 0 
0 0 0 0 0 0 0 0 0 
0 0 0 0 0 0 0 0 0 
0 0 0 0 0 0 0 0 0 
0 0 0 0 0 0 0 0 0 
-0.10619 -0.700733 0 0 0 0 0 0 0 
0 0 0 0 0 0 0 0 0 
0 0 0 0 0 0 0 0 0 
0 0 0 0 0 0 0 0 0 
0 0 0 0 0 0 0 0 0 
0 0 0 0 0 0 0 0 0 
0 0 0 0 0 0 0 0 0 
0 0 0 0 0 0 0 0 0 
0 0 0 0 0 0 0 0 0 
0 0 0 0 0 0 0 0 0 
0 0 0 0 0 0 0 0 0 
0 0 0 0 0 0 0 0 0 
0 0 0 0 0 0 0 0 0 
0 0 0 0 0 0 0 0 0 
0 0 0 0 0 0 0 0 0 
0 0 0 0 0 0 0 0 0 
0 0 0 0 0 0 0 0 0 
0 0 0 0 0 0 0 0 0 
0 0 0 0 0 0 0 0 0 
0 0 0 0 0 0 0 0 0 
0 0 0 0 0 0 0 0 0 
0 0 0 0 0 0 0 0 0 
0 0 0 0 0 0 0 0 0 
0 0 0 0 0 0 0 0 0 
0 0 0 0 0 0 0 0 0 
0 0 0 0 0 0 0 0 0 
0 0 0 0 0 0 0 0 0 
0 0 0 0 0 0 0 0 0 
0 0 0 0 0 0 0 0 0 
0 0 0 0 0 0 0 0 0 
0 0 0 0 0 0 0 0 0 
0 0 0 0 0 0 0 0 0 
0 0 0 0 0 0 0 0 0 
0 0 0 0 0 0 0 0 0 
0 0 0 0 0 0 0 0 0 
0 0 0 0 0 0 0 0 0 
0 0 0 0 0 0 -0.0960063 -0.699135 0 
0 0 0 0 0 0 0 0 0 
0 0 0 0 0 0 0 0 0 
0 0 0 0 0 0 0 0 0 
0 0 0 0 0 0 0 0 0 
0 0 0 0 0 0 0 0 0 
0 0 0 0 0 0 0 0 0 
0 0 0 0 0 0 0 0 0 
0 0 0 0 0 0 0 0 0 
0 0 0 0 0 0 0 0 0 
0 0 0 0 0 0 0 0 0 
0 0 0 0 0 0 0 0 0 
0 0 0 0 0 0 0 0 0 
0 0 0 0 0 0 0 0 0 
0 0 0 0 0 0 0 0 0 
0 0 0 0 0 0 0 0 0 
0 0 0 0 0 0 0 0 0 
0 0 0 0 0 0 0 0 0 
0 0 0 0 0 0 0 0 0 
0 0 0 0 0 0 0 0 0 
0 0 0 0 0 0 0 0 0 
0 0 0 0 0 0 0 0 0 
0 0 0 0 0 0 0 0 0 
0 0 0 0 0 0 0 0 0 
0 0 0 0 0 0 0 0 0 
0 0 0 0 0 0 0 0 0 
0 0 0 0 0 0 0 0 0 
0 0 0 0 0 0 0 0 0 
0 0 0 0 0 0 0 0 0 
0 0 0 0 0 0 0 0 0 
0 0 0 0 0 0 0 0 0 
0 0 0 0 0 0 0 0 0 
0 0 0 0 0 0 0 0 0 
0 0 0 0 0 0 0 0 0 
0 0 0 0 0 0 0 0 0 
0 0 0 0 0 0 0 0 0 
0 0 0 0 0 0 0 0 0 
0 0 0 0 0 0 0 0 0 
0 0 0 0 0 0 0 0 0 
0 0 0 0 0 0 0 0 0 
0 0 0 0 0 0 0 0 0 
0 0 0 0 0 0 0 0 0 
0 0 0 0 0 0 0 0 0 
0 0 0 0 0 0 0 0 0 
0 0 0 0 0 0 0 0 0 
0 0 0 0 0 0 0 0 0 
0 0 0 0 0 0 0 0 0 
0 0 0 0 0 0 0 0 0 
0 0 0 0 0 0 0 0 0 
0 0 0 0 0 0 0 0 0 
0 0 0 0 0 0 0 0 0 
0 0 0 0 0 0 0 0 0 
0 0 0 0 0 0 0 0 0 
0 0 0 0 0 0 0.394809 -0.551691 0 
0 0 0 0 0 0 0 0 0 
0 0 0 0 0 0 0 0 0 
0 0 0 0 0 0 0 0 0 
0 0 0 0 0 0 0 0 0 
0 0 0 0 0 0 0 0 0 
0 0 0 0 0 0 0 0 0 
0 0 0 0 0 0 0 0 0 
0 0 0 0 0 0 0 0 0 
0 0 0 0 0 0 0 0 0 
0 0 0 0 0 0 0 0 0 
0 0 0 0 0 0 0 0 0 
0 0 0 0 0 0 0 0 0 
0 0 0 0 0 0 0 0 0 
0 0 0 0 0 0 0 0 0 
0 0 0 0 0 0 0 0 0 
0 0 0 0 0 0 0 0 0 
0 0 0 0 0 0 0 0 0 
0 0 0 0 0 0 0 0 0 
0 0 0 0 0 0 0 0 0 
0 0 0 0 0 0 0 0 0 
0 0 0 0 0 0 0 0 0 
0 0 0 0 0 0 0 0 0 
0 0 0 0 0 0 0 0 0 
0 0 0 0 0 0 0 0 0 
0 0 0 0 0 0 0 0 0 
0 0 0 0 0 0 0 0 0 
0 0 0 0 0 0 0 0 0 
0 0 0 0 0 0 0 0 0 
0 0 0 0 0 0 0 0 0 
0 0 0 0 0 0 0 0 0 
0 0 0 0 0 0 0 0 0 
0 0 0 0 0 0 0 0 0 
0 0 0 0 0 0 0 0 0 
0 0 0 0 0 0 0 0 0 
0 0 0 0 0 0 0 0 0 
0 0 0 0 0 0 0 0 0 
0 0 0 0 0 0 0 0 0 
0 0 0 0 0 0 0 0 0 
0 0 0 0 0 0 0 0 0 
0 0 0 0 0 0 0 0 0 
0 0 0 0 0 0 0 0 0 
0 0 0 0 0 0 0 0 0 
0 0 0 0 0 0 0 0 0 
0 0 0 0 0 0 0 0 0 
0 0 0 0 0 0 0 0 0 
0 0 0 0 0 0 0 0 0 
0 0 0 0 0 0 0 0 0 
0 0 0 0 0 0 0 0 0 
0 0 0 0 0 0 0 0 0 
0 0 0 0 0 0 0 0 0 
0 0 0 0 0 0 0 0 0 
0 0 0 0 0 0 0 0 0 
0 0 0 0 0 0 0 0 0 
0 0 0 0 0 0 0 0 0 
0 0 0 0 0 0 0 0 0 
0 0 0 0 0 0 0 0 0 
0 0 0 0 0 0 0 0 0 
0 0 0 0 0 0 0 0 0 
0 0 0 0 0 0 0 0 0 
0 0 0 0 0 0 0 0 0 
0 0 0 0 0 0 0 0 0 
0 0 0 0 0 0 0 0 0 
0 0 0 0 0 0 0 0 0 
0 0 0 0 0 0 0 0 0 
0 0 0 0 0 0 0 0 0 
0 0 0 0 0 0 0 0 0 
0 0 0 0 0 0 0 0 0 
0 0 0 0 0 0 0 0 0 
0 0 0 0 0 0 0 0 0 
0 0 0 0 0 0 0 0 0 
0 0 0 0 0 0 0 0 0 
0 0 0 0 0 0 0 0 0 
0 0 0 0 0 0 0 0 0 
0 0 0 0 0 0 0 0 0 
0 0 0 0 0 0 0 0 0 
0 0 0 0 0 0 0 0 0 
0 0 0 0 0 0 0 0 0 
0 0 0 0 0 0 0 0 0 
0 0 0 0 0 0 0 0 0 
0 0 0 0 0 0 0 0 0 
0 0 0 0 0 0 0 0 0 
0 0 0 0 0 0 0 0 0 
0 0 0 0 0 0 0 0 0 
0 0 0 0 0 0 0 0 0 
0 0 0 0 0 0 0 0 0 
0 0 0 0 0 0 0 0 0 
0 0 0 0 0 0 0 0 0 
0 0 0 0 0 0 0 0 0 
0 0 0 0 0 0 0 0 0 
0 0 0 0 0 0 0 0 0 
0 0 0 0 0 0 0 0 0 
0 0 0 0 0 0 0 0 0 
0 0 0 0 0 0 0 0 0 
0 0 0 0 0 0 0 0 0 
0 0 0 0 0 0 
x 1 1049 double
-0.42777 0.724435 0.121278 -1.49142 -0.857256 -0.3034 -0.879847 -0.413416 -0.205234 
0.963931 0.0624698 0.46521 0.492273 1.47717 1.08949 -1.1824 -1.23086 -1.80716 
-0.610211 -0.257496 -0.689866 -0.150957 0.0537089 0.170141 0.55756 0.571588 0.951465 
1.41914 -2.96744 -2.29913 -2.54571 -1.89233 -1.59683 -1.15078 -1.28345 -0.63328 
-0.830435 -0.238299 0.18877 0.962164 0.332318 1.56678 2.11514 -3.25685 -2.07951 
2.06492 3.47459 3.14396 4.3037 -5.32631 -4.64802 -3.60266 3.64897 4.83084 
4.38101 5.19678 6.08003 -6.18827 -5.65585 -4.87499 4.68817 5.04558 5.57931 
5.23862 -6.58632 -5.74824 6.18044 7.49733 7.27656 8.14392 -9.42713 -8.41683 
-7.84937 7.38661 7.99071 8.43111 8.55065 9.43525 9.07197 -10.4792 -10.1037 
-9.29702 -8.59639 7.85816 8.51226 9.05417 9.66356 9.3307 10.5453 -10.5822 
-10.9254 -9.96506 9.90016 10.4416 11.0136 -11.7804 -11.6219 11.7681 11.1964 
11.7892 -15 -14.2857 -15 -14.8214 -14.1071 -14.6429 -14.4643 -15 
-15 -15 -13.5714 -13.2143 -13.9286 -13.0357 -13.75 -13.3929 -12.6786 
-12.5 -12.8571 -11.5 -11.1429 -11.3214 -10.9643 -10.25 -10.4286 -10.0714 
-10.6071 -10.7857 -9.3571 -9.5357 -9.1786 -9.8929 -9.7143 -9 -9 
-8.6 -8.4 -8.2 -8.8 -9 -9 -9 -7.2 -8 
-7.4 -7.8 -7.6 -6.2 -6.4 -6.8 -6.6 -7 -6 
-5.6 -5.4 -5.8 -5.2 -4.6 -5 -4.4 -4.8 -4.2 
-3.6 -4 -3.4 -3.2 -3.8 -3 -2.4 -3 -2.2 
-2.8 -2.6 -3 -3 -3 -1.2 -1.8 -1.4 -1.6 
-2 -0.6 -0.8 -0.4 -0.2 -1 0.8 0.4 0.2 
-0 0.6 1.8 1.4 1.2 1 1.6 2.4 2.8 
2 2.2 2.6 3.6 3.4 3.2 3 3 3 
3 3.8 3 4.8 4.4 4 4.2 4.6 5.6 
5 5.8 5.2 5.4 6 6.8 6.6 6.4 6.2 
7.8 7.2 7.4 7.6 7 8 8.2 8.4 8.8 
8.6 9.1786 9 9 9.7143 9 9 9.3571 9.8929 
9.5357 9 10.0714 10.9643 10.25 10.6071 10.7857 10.4286 11.1429 
11.5 11.5165 11.3214 12.6786 12.6708 12.5 12.8571 12.0923 12.2852 
13.2143 13.0357 13.75 13.5714 13.3929 13.9286 14.6429 14.8214 14.2857 
14.1071 14.4643 15 15 15 15 15 -15 -15 
-15 -15 -15 -9 -9 -9 -9 -9 -3 
-3 -3 -3 -3 3 3 3 3 3 
9 9 9 9 9 11.8504 12.4319 12.7224 15 
15 15 15 15 -15 -15 -15 -15 -15 
-9 -9 -9 -9 -9 -3 -3 -3 -3 
-3 3 3 3 3 3 9 9 9 
9 9 10.8323 11.2889 12.3037 12.4147 15 15 15 
15 15 -15 -15 -15 -15 -15 -9 -9 
-9 -9 -9 -3 -3 -3 -3 -3 3 
3 3 3 3 9 9 9 9 9 
10.8418 11.393 15 15 15 15 15 -15 -15 
-15 -15 -15 -10.7195 -9 -9 -9 -9 -9 
-3 -3 -3 -3 -3 3 3 3 3 
3 9 9 9 9 9 15 15 15 
15 15 -15 -15 -15 -15 -15 -10.4102 -10.2334 
-9 -9 -9 -9 -9 -3 -3 -3 -3 
-3 3 3 3 3 3 9 9 9 
9 9 12.9035 15 15 15 15 15 -15 
-15 -15 -15 -15 -9 -9 -9 -9 -9 
-3 -3 -3 -3 -3 3 3 3 3 
3 9 9 9 9 9 15 15 15 
15 15 -15 -15 -15 -15 -15 -9 -9 
-9 -9 -9 -3 -3 -3 -3 -3 3 
3 3 3 3 9 9 9 9 9 
13.112 15 15 15 15 15 -15 -15 -15 
-15 -15 -8.1071 -8.6429 -8.2857 -9 -8.4643 -8.8214 -7.2143 
-7.75 -7.3929 -7.0357 -7.9286 -7.5714 -6.8571 -6.6786 -6.5 -5.5 
-5.1429 -5.3214 -4.25 -4.6071 -4.9643 -4.7857 -4.4286 -4.0714 -3.5357 
-3.8929 -3.7143 -3.1786 -3.3571 -2.6429 -2.4643 -2.2857 -2.1071 -2.8214 
-3 -1.9286 -1.5714 -1.75 -1.3929 -1.0357 -1.2143 -0.5 -0.6786 
-0.8571 0.5 0.8571 0.6786 1.5714 1.2143 1.75 1.9286 1.3929 
1.0357 2.6429 2.2857 2.8214 2.4643 2.1071 3.3571 3.1786 3.7143 
3.5357 3 3.8929 4.9643 4.7857 4.4286 4.0714 4.25 4.6071 
5.1429 5.3214 5.5 6.5 6.6786 6.8571 7.75 7.3929 7.9286 
7.5714 7.0357 7.2143 8.8214 8.6429 8.1071 8.4643 8.2857 9 
9 15 15 15 15 15 -15 -15 -15 
-15 -15 13.4166 15 15 15 15 15 -14.1667 
-14.3333 -15 -14.8333 -14.6667 -15 -15 -15 -14.5 -15 
-14 -13 -12.8 -12.4 -12.2 -12.6 -12 -11.6 -11.8 
-11.4 -11.2 -10.4 -11 -10.6 -10.8 -10.2 -9.6 -9.4 
-9.2 -10 -9.8 -9 -9 -8.8214 -8.2857 -8.4643 -9 
-9 -8.6429 -9 -8.1071 -7.2143 -7.9286 -7.75 -7.3929 -7.5714 
-7.0357 -6.5 -6.8571 -6.6786 -5.1429 -5.3214 -5.5 -4.0714 -4.9643 
-4.6071 -4.4286 -4.7857 -4.25 -3.7143 -3.5357 -3.3571 -3.1786 -3.8929 
-2.2 -2.4 -2.8 -3 -3 -3 -3 -3 -2.6 
-1.4 -2 -1.2 -1.8 -1.6 -1 -0.4 -0.2 -0.6 
-0.8 0.2 -0 0.6 0.8 0.4 1.8 1.4 1.2 
1.6 1 2.4 2.2 2.6 2.8 2 3.6 3.4 
3.8 3 3.2 4.2 4 4.6 4.8 4.4 5.6 
5.2 5 5.8 5.4 6.8 6.2 6 6.4 6.6 
7.4 7.2 7.8 7 7.6 8.8 8.2 8.4 8 
8.6 9 9 9.2 9 9 9.4 9.6 9.8 
9 10.8 10.6 10.4 10.2 10 11.8 11 11.2 
11.4 11.6 12.8 12 12.4 12.2 12.6 13 13.3895 
14.6667 14.1667 14 14.5 14.8333 14.3333 15 15 15 
15 15 -15 -15 -15 -15 -15 -9 -9 
-9 -9 -9 -3 -3 -3 -3 -3 9 
9 9 9 9 15 15 15 15 15 
-15 -15 -15 -15 -15 -9 -9 -9 -9 
-9 -3 -3 -3 -3 -3 9 9 9 
9 9 15 15 15 15 15 -15 -15 
-15 -15 -15 -9 -9 -9 -9 -9 -3 
-3 -3 -3 -3 9 9 9 9 9 
15 15 15 15 15 -15 -15 -15 -15 
-15 -9 -9 -9 -9 -9 -3 -3 -3 
-3 -3 9 15 15 15 15 15 -15 
-15 -15 -15 -15 -9 -9 -9 -9 -9 
-3 -3 -3 -3 -3 9 9 9 9 
9 9 15 15 15 15 15 -14.2 -14.8 
-15 -14.4 -14.6 -13.2 -13.8 -14 -13.6 -13.4 -12.4 
-13 -12.6 -12.2 -12.8 -11.6 -11.8 -11.4 -11.2 -12 
-11 -10.2 -10.6 -10.4 -10.8 -10 -9.2 -9.6 -9.4 
-9.8 -8.2 -8.4 -9 -8.8 -8.6 -8 -7.4 -7.2 
-7.6 -7.8 -6.8 -6.2 -6.6 -7 -6.4 -5.8 -5.6 
-5.2 -6 -5.4 -5 -4.6 -4.2 -4.4 -4.8 -4 
-3.4 -3.8 -3.6 -3.2 -2.6 -2.2 -3 -2.8 -2.4 
-1.4 -1.6 -1.8 -1.2 -2 -1 -0.2 -0.8 -0.4 
-0.6 0.4 -0 0.6 0.8 0.2 1.4 1.6 1.2 
1.8 1 2.8 2 2.2 2.6 2.4 3.4 3 
3.8 3.2 3.6 4 4.2 4.4 4.6 4.8 5.8 
5 5.4 5.2 5.6 6.4 6.8 6.6 6.2 6 
7.4 7 7.6 7.8 7.2 8.6 8.8 8 8.4 
8.2 9 9.2 9.8 9.4 9.6 10 10.2 10.4 
10.6 10.8 11.4 11.8 11 11.6 11.2 12.4 12.8 
12.6 12.2 12 13.8 13.2 13.4 13.6 13 14.8 
14 14.2 14.4 14.6 15 
y 1 1049 double
-11.2866 -11.1555 -11.0803 -10.4051 -10.8802 -10.796 -10.3428 -10.4345 -10.0841 
-10.6194 -10.5092 -10.7105 -10.2537 -10.4465 -10.0398 -9.92799 -9.44591 -9.50726 
-9.91528 -9.5905 -9.47433 -9.1343 -9.99479 -9.52973 -9.81334 -9.29094 -9.51603 
-9.43952 -8.54541 -8.70816 -8.10248 -8.32238 -8.73879 -8.92988 -8.30016 -8.96423 
-8.47779 -8.58278 -8.32043 -8.93511 -8.85778 -8.58018 -8.37214 -7.50074 -7.75411 
-7.67812 -7.79559 -7.25768 -7.1256 -6.394 -6.44376 -6.66013 -6.75456 -6.86762 
-6.08542 -6.44015 -6.07639 -5.53649 -5.84248 -5.63165 -5.37115 -5.89652 -5.72153 
-5.19885 -4.64456 -4.95246 -4.84298 -4.85306 -4.07731 -4.37006 -3.22788 -3.29071 
-3.37995 -3.3738 -3.43959 -3.92692 -3.3977 -3.74924 -3.30737 -2.24277 -2.63094 
-2.31178 -2.7524 -2.83115 -2.6539 -2.64447 -2.93104 -2.09656 -2.22357 -1.63604 
-1.03211 -1.49127 -1.78952 -1.48574 -1.49605 -0.282315 -0.838657 -0.515783 -0.828803 
-0.0225659 0.2 0 0.6 0 0 0 0 0 
0.8 0.4 0 0 0 0 0 0 0 
0 0 0 0 0 0 0 0 0 
0 0 0 0 0 0 0 0.2 0 
0 0 0 0 0.8 0.4 0.6 0 0 
0 0 0 0 0 0 0 0 0 
0 0 0 0 0 0 0 0 0 
0 0 0 0 0 0.6 0 0.2 0 
0 0 0.4 0 0.8 0 0 0 0 
0 0 0 0 0 0 0 0 0 
0 0 0 0 0 0 0 0 0 
0 0 0 0 0 0 0 0.8 0.2 
0.6 0 0.4 0 0 0 0 0 0 
0 0 0 0 0 0 0 0 0 
0 0 0 0 0 0 0 0 0 
0 0 0.6 0.8 0 0.4 0 0 0 
0 0.2 0 0 0 0 0 0 0 
0 0.610706 0 0 0.397059 0 0 0.331647 0.819524 
0 0 0 0 0 0 0 0 0 
0 0 0.4 0.6 0.8 0.2 0 1.8 1.2 
1 1.4 1.6 1.4 1 1.2 1.8 1.6 1.6 
1.8 1 1.2 1.4 1 1.8 1.2 1.4 1.6 
1.2 1 1.6 1.4 1.8 1.15083 1.58093 1.06965 1.2 
1.6 1.8 1 1.4 2.4 2.2 2.8 2 2.6 
2.4 2 2.2 2.6 2.8 2.8 2 2.6 2.2 
2.4 2.4 2.6 2 2.2 2.8 2 2.4 2.8 
2.2 2.6 2.86948 2.35261 2.22388 2.82508 2 2.4 2.6 
2.8 2.2 3.4 3 3.2 3.8 3.6 3.2 3 
3.4 3.6 3.8 3.6 3.2 3 3.4 3.8 3 
3.6 3.2 3.8 3.4 3.4 3.6 3.8 3 3.2 
3.8982 3.27783 3 3.6 3.2 3.8 3.4 4.6 4.2 
4.8 4 4.4 4.66008 4.4 4.8 4 4.6 4.2 
4.8 4.6 4 4.4 4.2 4.4 4 4.2 4.8 
4.6 4 4.6 4.8 4.2 4.4 4.6 4.4 4.2 
4 4.8 5.4 5.6 5 5.2 5.8 5.13701 5.88212 
5.6 5.4 5.8 5 5.2 5 5.8 5.6 5.2 
5.4 5.8 5.6 5.4 5.2 5 5.6 5.2 5.4 
5 5.8 5.9671 5.2 5.6 5.4 5.8 5 6.6 
6 6.2 6.4 6.8 6.6 6.2 6.4 6.8 6 
6.4 6.8 6 6.2 6.6 6.6 6 6.2 6.4 
6.8 6.2 6.8 6.6 6 6.4 6.4 6.6 6 
6.2 6.8 7.2 7.4 7.8 7 7.6 7 7.4 
7.8 7.2 7.6 7.6 7.8 7.2 7 7.4 7.4 
7.2 7.8 7 7.6 7.6 7.8 7.2 7 7.4 
7.33804 7.8 7.4 7.6 7.2 7 8.6 8.2 8 
8.8 8.4 8 8 8 8 8 8 8 
8 8 8 8 8 8 8 8 8 
8 8 8 8 8 8 8 8 8 
8 8 8 8 8 8 8 8 8 
8 8 8 8 8 8 8 8 8 
8 8 8 8 8 8 8 8 8 
8 8 8 8 8 8 8 8 8 
8 8 8 8 8 8 8 8 8 
8 8 8 8 8 8 8 8 8 
8 8 8 8 8 8 8 8 8 
8 8.2 8.6 8 8.4 8.8 9.4 9.6 9.2 
9.8 9 9.27091 9.4 9 9.8 9.6 9.2 10 
10 10.8 10 10 10 10.6 10.4 10 10.2 
10 10 10 10 10 10 10 10 10 
10 10 10 10 10 10 10 10 10 
10 10 10 10.6 10.8 10 10 10 10.4 
10 10 10.2 10 10 10 10 10 10 
10 10 10 10 10 10 10 10 10 
10 10 10 10 10 10 10 10 10 
10 10 10 10 10.8 10.4 10.2 10.6 10 
10 10 10 10 10 10 10 10 10 
10 10 10 10 10 10 10 10 10 
10 10 10 10 10 10 10 10 10 
10 10 10 10 10 10 10 10 10 
10 10 10 10 10 10 10 10 10 
10 10 10 10 10 10 10 10 10 
10 10.6 10.8 10 10.2 10 10 10 10 
10.4 10 10 10 10 10 10 10 10 
10 10 10 10 10 10 10 10 10.2031 
10 10 10 10 10 10 10.8 10.6 10.4 
10 10.2 11.4 11.8 11.2 11.6 11 11.4 11.6 
11 11.2 11.8 11.8 11 11.2 11.6 11.4 11.8 
11.4 11.2 11 11.6 11.4 11.2 11.8 11 11.6 
12 12.6 12.4 12.8 12.2 12 12.2 12.4 12.8 
12.6 12.8 12.6 12.2 12 12.4 12.6 12 12.2 
12.4 12.8 12.6 12 12.4 12.2 12.8 13 13.6 
13.4 13.2 13.8 13.4 13.2 13.6 13 13.8 13.2 
13.4 13 13.8 13.6 13.4 13.6 13.2 13 13.8 
13 13.4 13.8 13.2 13.6 14 14.2 14.6 14.8 
14.4 14.4 14.2 14 14.8 14.6 14.6 14.8 14.2 
14 14.4 14 14.6 14 14.8 14.4 14.2 15 
15.4 15.8 15.2 15.6 15.4 15.2 15 15.8 15.6 
15.2 15.8 15.4 15 15.6 15.1667 15.3333 15 15.6667 
15.5 15.8333 15.8 15 15.6 15.4 15.2 16 16 
16 16 16 16 16 16 16 16 16 
16 16 16 16 16 16 16 16 16 
16 16 16 16 16 16 16 16 16 
16 16 16 16 16 16 16 16 16 
16 16 16 16 16 16 16 16 16 
16 16 16 16 16 16 16 16 16 
16 16 16 16 16 16 16 16 16 
16 16 16 16 16 16 16 16 16 
16 16 16 16 16 16 16 16 16 
16 16 16 16 16 16 16 16 16 
16 16 16 16 16 16 16 16 16 
16 16 16 16 16 16 16 16 16 
16 16 16 16 16 16 16 16 16 
16 16 16 16 16 16 16 16 16 
16 16 16 16 16 16 16 16 16 
16 16 16 16 16 16 16 16 16 
16 16 16 16 16 
