# vtk DataFile Version 4.0
vtk output
ASCII
DATASET POLYDATA
FIELD FieldData 4
domain 1 4 string
domain_min:-40|-40
domain_max:40|40
cell_size:1|1
boundary:0|0

variables 1 5 string
T:5.8
dt:0.01
write_case:1
substeps:10
all_steps:580

constants 1 17 string
L:40
c_s:1
dx:1
k:1000
d1:-13.5|10
d2:-6|10
d3:9|14.5
d4:13.5|10
d5:-6|8
d6:0|8
d7:6|8
d8:-9|9
d9:9|9
d10:-12|0
d11:12|0
d12:0|-10
R_w:0.1

equations 1 18 string
time:T=(T+dt)#true
pos_x:x=elem(r,0,0)#eq(gid,1)
pos_y:y=elem(r,1,0)#eq(gid,1)
wp_1:p0=if(and(lt(x,(-9)),gt(y,10)),d1,p0)#eq(gid,1)
wp_2:p0=if(and(and(gt(x,(-9)),lt(x,(-3))),gt(y,10)),d2,p0)#eq(gid,1)
wp_3:p0=if(and(and(gt(x,(-3)),lt(x,9)),gt(y,10)),d3,p0)#eq(gid,1)
wp_4:p0=if(and(gt(x,9),gt(y,10)),d4,p0)#eq(gid,1)
wp_5:p0=if(and(and(gt(x,(-9)),lt(x,(-3))),lt(y,8)),d5,p0)#eq(gid,1)
wp_6:p0=if(and(and(gt(x,(-3)),lt(x,3)),lt(y,8)),d6,p0)#eq(gid,1)
wp_7:p0=if(and(and(gt(x,3),lt(x,9)),lt(y,8)),d7,p0)#eq(gid,1)
wp_8:p0=if(and(and(gt(x,(-9)),lt(x,0)),and(gt(y,8),lt(y,10))),d8,p0)#eq(gid,1)
wp_9:p0=if(and(and(gt(x,0),lt(x,9)),and(gt(y,8),lt(y,10))),d9,p0)#eq(gid,1)
wp_10:p0=if(and(lt(x,(-9)),lt(y,10)),d10,p0)#eq(gid,1)
wp_11:p0=if(and(gt(x,9),lt(y,10)),d11,p0)#eq(gid,1)
wp_12:p0=if(lt(y,0),d12,p0)#eq(gid,1)
acceleration:v=sfm(v,p0,v0,m,R,A,B,k,c,tau)#eq(gid,1)
velocity:v=euler(v,a,dt)#eq(gid,1)
position:r=euler(r,v,dt)#eq(gid,1)

POINTS 1049 float
-8.36781 -3.0968 0 7.8415 -3.60048 0 -9.30998 -2.32583 0 
-8.98817 -2.91149 0 9.59942 -2.2057 0 -10.9819 -1.0369 0 
-10.484 -1.48399 0 10.0329 -1.77849 0 10.6625 -1.72808 0 
10.6465 -1.17059 0 11.7542 -1.02123 0 -11.8958 -0.143836 0 
-11.4314 -0.787981 0 11.6009 -0.412187 0 -15 0 0 
-15 0.6 0 -15 0.4 0 -15 0.8 0 
-14.8214 0 0 -14.1071 0 0 -14.4643 0 0 
-14.2857 0 0 -15 0.2 0 -14.6429 0 0 
-13.2143 0 0 -13.3929 0 0 -13.75 0 0 
-13.0357 0 0 -13.5714 0 0 -13.9286 0 0 
-12.5 0 0 -12.6786 0 0 -12.8571 0 0 
-11.5 0 0 -11.1429 0 0 -11.3214 0 0 
-11.886 0.481274 0 -10.9643 0 0 -10.4286 0 0 
-10.7857 0 0 -10.6071 0 0 -10.0714 0 0 
-10.25 0 0 -9.5357 0 0 -9.8929 0 0 
-9.3571 0 0 -9.1786 0 0 -9.7143 0 0 
-9 0 0 -8.2 0 0 -9 0.2 0 
-8.8 0 0 -9 0.6 0 -8.6 0 0 
-9 0.4 0 -9 0.8 0 -8.4 0 0 
-8 0 0 -7.6 0 0 -7.8 0 0 
-7.2 0 0 -7.4 0 0 -6.8 0 0 
-7 0 0 -6.2 0 0 -6.4 0 0 
-6.6 0 0 -5.8 0 0 -5.4 0 0 
-5.2 0 0 -5.6 0 0 -6 0 0 
-4.8 0 0 -4.4 0 0 -5 0 0 
-4.6 0 0 -4.2 0 0 -3.4 0 0 
-3.6 0 0 -3.2 0 0 -4 0 0 
-3.8 0 0 -3 0.6 0 -2.2 0 0 
-3 0 0 -3 0.2 0 -3 0.4 0 
-3 0.8 0 -2.6 0 0 -2.8 0 0 
-2.4 0 0 -2 0 0 -1.4 0 0 
-1.2 0 0 -1.6 0 0 -1.8 0 0 
-1 0 0 -0.4 0 0 -0.2 0 0 
-0.8 0 0 -0.6 0 0 0.2 0 0 
0.8 0 0 0.4 0 0 0.6 0 0 
-0 0 0 1.4 0 0 1.6 0 0 
1 0 0 1.2 0 0 1.8 0 0 
2.6 0 0 2.2 0 0 2.4 0 0 
2.8 0 0 2 0 0 3 0.4 0 
3.4 0 0 3 0.2 0 3 0.6 0 
3.2 0 0 3.6 0 0 3 0 0 
3.8 0 0 3 0.8 0 4 0 0 
4.8 0 0 4.2 0 0 4.4 0 0 
4.6 0 0 5.2 0 0 5.6 0 0 
5.4 0 0 5.8 0 0 5 0 0 
6.4 0 0 6 0 0 6.6 0 0 
6.2 0 0 6.8 0 0 7.6 0 0 
7.8 0 0 7 0 0 7.2 0 0 
7.4 0 0 8 0 0 8.8 0 0 
8.2 0 0 8.6 0 0 8.4 0 0 
9 0.2 0 9.3571 0 0 9 0.6 0 
9.8929 0 0 9 0.4 0 9 0 0 
9 0.8 0 9.7143 0 0 9.5357 0 0 
9.1786 0 0 10.7857 0 0 10.9643 0 0 
10.25 0 0 10.0714 0 0 10.6071 0 0 
10.4286 0 0 11.1429 0 0 11.5 0 0 
11.7577 0.939052 0 11.3214 0 0 12.8571 0 0 
12.5 0 0 12.0312 0.136256 0 12.6786 0 0 
13.9286 0 0 13.5714 0 0 13.2143 0 0 
13.75 0 0 13.3929 0 0 13.0357 0 0 
14.6429 0 0 14.1071 0 0 14.2857 0 0 
14.8214 0 0 14.4643 0 0 15 0 0 
15 0.8 0 15 0.6 0 15 0.2 0 
15 0.4 0 -15 1.6 0 -15 1 0 
-15 1.4 0 -15 1.2 0 -15 1.8 0 
-12.0134 1.23577 0 -11.3945 1.6387 0 -9 1.6 0 
-9 1.8 0 -9 1 0 -9 1.2 0 
-9 1.4 0 -3 1.2 0 -3 1.4 0 
-3 1.8 0 -3 1.6 0 -3 1 0 
3 1.8 0 3 1.6 0 3 1.4 0 
3 1.2 0 3 1 0 9 1.4 0 
9 1.2 0 9 1 0 9 1.6 0 
9 1.8 0 12.2212 1.31578 0 15 1.2 0 
15 1.6 0 15 1 0 15 1.4 0 
15 1.8 0 -15 2 0 -15 2.4 0 
-15 2.6 0 -15 2.8 0 -15 2.2 0 
-11.5783 2.48784 0 -9 2.8 0 -9 2.6 0 
-9 2.4 0 -9 2 0 -9 2.2 0 
-3 2 0 -3 2.6 0 -3 2.8 0 
-3 2.2 0 -3 2.4 0 3 2.2 0 
3 2.8 0 3 2.6 0 3 2 0 
3 2.4 0 9 2.2 0 9 2.8 0 
9 2.4 0 9 2.6 0 9 2 0 
15 2.2 0 15 2.4 0 15 2.8 0 
15 2 0 15 2.6 0 -15 3.2 0 
-15 3 0 -15 3.4 0 -15 3.6 0 
-15 3.8 0 -12.8377 3.36951 0 -12.0914 3.23011 0 
-10.8281 3.99572 0 -9 3.8 0 -9 3.2 0 
-9 3.6 0 -9 3.4 0 -9 3 0 
-3 3.4 0 -3 3 0 -3 3.2 0 
-3 3.6 0 -3 3.8 0 3 3.4 0 
3 3.2 0 3 3.8 0 3 3 0 
3 3.6 0 9 3.2 0 9 3.6 0 
9 3 0 9 3.4 0 9 3.8 0 
10.7174 3.70797 0 12.5785 3.83091 0 15 3.2 0 
15 3.6 0 15 3.4 0 15 3 0 
15 3.8 0 -15 4.6 0 -15 4 0 
-15 4.2 0 -15 4.4 0 -15 4.8 0 
-10.6729 4.62728 0 -9 4.2 0 -9 4.6 0 
-9 4.8 0 -9 4.4 0 -9 4 0 
-3 4.6 0 -3 4.4 0 -3 4.2 0 
-3 4 0 -3 4.8 0 3 4.2 0 
3 4.8 0 3 4 0 3 4.6 0 
3 4.4 0 7.01707 4.5861 0 9 4 0 
9 4.8 0 9 4.4 0 9 4.2 0 
9 4.6 0 10.9852 4.24054 0 15 4.6 0 
15 4.4 0 15 4 0 15 4.2 0 
15 4.8 0 -15 5.6 0 -15 5.4 0 
-15 5.8 0 -15 5.2 0 -15 5 0 
-12.8692 5.7076 0 -10.3749 5.21279 0 -10.1911 5.92852 0 
-9 5.8 0 -9 5.2 0 -9 5 0 
-9 5.4 0 -9 5.6 0 -3 5 0 
-3 5.4 0 -3 5.8 0 -3 5.2 0 
-3 5.6 0 -0.902721 5.27756 0 0.215564 5.22969 0 
3 5.4 0 3 5 0 3 5.8 0 
3 5.6 0 3 5.2 0 5.86065 5.96306 0 
9 5 0 9 5.2 0 9 5.4 0 
9 5.6 0 9 5.8 0 10.3792 5.57945 0 
15 5.2 0 15 5.8 0 15 5.4 0 
15 5.6 0 15 5 0 -15 6.6 0 
-15 6.2 0 -15 6.4 0 -15 6 0 
-15 6.8 0 -9.89262 6.87278 0 -9 6.4 0 
-9 6.2 0 -9 6 0 -9 6.8 0 
-9 6.6 0 -5.49599 6.02767 0 -5.67539 6.74257 0 
-3 6.6 0 -3 6.4 0 -3 6.2 0 
-3 6 0 -3 6.8 0 -0.497761 6.07659 0 
-0.791374 6.59599 0 0.218437 6.33784 0 3 6.8 0 
3 6.4 0 3 6.6 0 3 6 0 
3 6.2 0 5.55904 6.86063 0 6.11798 6.94644 0 
9 6.2 0 9 6.4 0 9 6.8 0 
9 6.6 0 9 6 0 9.95063 6.44322 0 
10.3287 6.90673 0 12.9919 6.49781 0 15 6.8 0 
15 6.6 0 15 6.4 0 15 6.2 0 
15 6 0 -15 7.4 0 -15 7.6 0 
-15 7.8 0 -15 7 0 -15 7.2 0 
-13.1091 7.05876 0 -13.0726 7.61078 0 -9.53769 7.87291 0 
-9 7.8 0 -9 7.4 0 -9 7 0 
-9 7.6 0 -9 7.2 0 -5.99113 7.49317 0 
-5.43406 7.27235 0 -3 7 0 -3 7.4 0 
-3 7.6 0 -3 7.2 0 -3 7.8 0 
-0.000518906 7.94045 0 3 7 0 3 7.2 0 
3 7.6 0 3 7.4 0 3 7.8 0 
5.79349 7.80816 0 6.27435 7.60695 0 9 7 0 
9 7.2 0 9.75222 7.12337 0 9 7.8 0 
9 7.4 0 9 7.6 0 9.67528 7.78283 0 
13.0561 7.04818 0 15 7.8 0 15 7 0 
15 7.2 0 15 7.4 0 15 7.6 0 
-15 8 0 -15 8.6 0 -15 8.2 0 
-15 8.4 0 -15 8.8 0 -13.4372 8.05535 0 
-13.2187 8.55286 0 -9.19743 8.5331 0 -8.6429 8 0 
-8.8214 8 0 -8.4643 8 0 -9 8 0 
-8.2857 8 0 -8.73771 8.82518 0 -8.1071 8 0 
-7.2143 8 0 -7.30472 8.60285 0 -7.75 8 0 
-7.3929 8 0 -7.0357 8 0 -7.5714 8 0 
-7.9286 8 0 -6.5 8 0 -6.63208 8.48672 0 
-6.8816 8.99501 0 -6.6786 8 0 -6.8571 8 0 
-6.07703 8.0414 0 -5.1429 8 0 -5.5 8 0 
-5.3214 8 0 -4.6071 8 0 -4.7857 8 0 
-4.4286 8 0 -4.9643 8 0 -4.0714 8 0 
-4.25 8 0 -3.7143 8 0 -3.3571 8 0 
-3.8929 8 0 -3.5357 8 0 -3.1786 8 0 
-2.8214 8 0 -2.4643 8 0 -2.2857 8 0 
-2.1071 8 0 -2.6429 8 0 -3 8 0 
-1.3929 8 0 -1.5714 8 0 -1.9286 8 0 
-1.75 8 0 -1.0357 8 0 -1.86811 8.7041 0 
-1.2143 8 0 -0.556131 8.44121 0 -0.6786 8 0 
-0.5 8 0 -0.8571 8 0 0.6786 8 0 
0.912431 8.58095 0 0.8571 8 0 0.5 8 0 
1.75 8 0 1.5714 8 0 1.9286 8 0 
1.2143 8 0 1.3929 8 0 1.0357 8 0 
2.4643 8 0 2.2857 8 0 2.6429 8 0 
2.1071 8 0 2.8214 8 0 3.7143 8 0 
3.8929 8 0 3.1786 8 0 3.3571 8 0 
3 8 0 3.5357 8 0 4.0714 8 0 
4.9643 8 0 4.4286 8 0 4.7857 8 0 
4.40435 8.88608 0 4.25 8 0 4.6071 8 0 
5.1429 8 0 5.3214 8 0 5.86482 8.53071 0 
5.5 8 0 6.32648 8.86882 0 6.6786 8 0 
6.8571 8 0 6.5 8 0 6.26524 8.21829 0 
7.80952 8.84136 0 7.0357 8 0 7.3929 8 0 
7.5714 8 0 7.2143 8 0 7.9286 8 0 
7.10113 8.66199 0 7.75 8 0 8.1071 8 0 
8.2857 8 0 8.4643 8 0 8.8214 8 0 
8.6429 8 0 8.41596 8.87743 0 9 8 0 
9.29201 8.44877 0 9 8 0 13.2767 8.64466 0 
15 8.6 0 15 8.2 0 15 8.8 0 
15 8 0 15 8.4 0 -15 9 0 
-15 9.6 0 -15 9.8 0 -15 9.2 0 
-15 9.4 0 -13.4034 9.11243 0 -13.3652 9.80797 0 
-8.68932 9.30595 0 -8.13667 9.11563 0 -7.06327 9.49281 0 
-7.56274 9.2159 0 -6.39876 9.54074 0 -6.02093 9.95871 0 
5.79187 9.03178 0 6.75898 9.2573 0 8.99532 9.0287 0 
13.2504 9.28248 0 13.6964 9.56653 0 15 9.6 0 
15 9.2 0 15 9.4 0 15 9 0 
15 9.8 0 -15 10.6 0 -14.1667 10 0 
-14.5 10 0 -15 10.2 0 -15 10 0 
-14.3333 10 0 -14.6667 10 0 -14.8333 10 0 
-15 10.8 0 -15 10.4 0 -14 10 0 
-13.4924 10.3604 0 -12.8 10 0 -13 10 0 
-12.6 10 0 -12.4 10 0 -12.2 10 0 
-11.6 10 0 -12 10 0 -11.2 10 0 
-11.4 10 0 -11.8 10 0 -10.4 10 0 
-10.6 10 0 -10.2 10 0 -11 10 0 
-10.8 10 0 -10 10 0 -9.4 10 0 
-9.6 10 0 -9.8 10 0 -9.2 10 0 
-8.6429 10 0 -8.2857 10 0 -9 10.6 0 
-8.8214 10 0 -9 10.4 0 -8.4643 10 0 
-8.1071 10 0 -9 10.8 0 -9 10.2 0 
-9 10 0 -7.9286 10 0 -7.2143 10 0 
-7.75 10 0 -7.0357 10 0 -7.5714 10 0 
-7.3929 10 0 -6.8571 10 0 -6.6786 10 0 
-6.5 10 0 -6.37541 10.3458 0 -5.5 10 0 
-5.1429 10 0 -5.97685 10.6766 0 -5.61272 10.3349 0 
-5.3214 10 0 -4.25 10 0 -4.4286 10 0 
-4.7857 10 0 -4.9643 10 0 -4.0714 10 0 
-4.6071 10 0 -3.7143 10 0 -3.5357 10 0 
-3.3571 10 0 -3.8929 10 0 -3.1786 10 0 
-3 10.6 0 -2.6 10 0 -3 10.2 0 
-2.2 10 0 -3 10 0 -3 10.8 0 
-3 10.4 0 -2.4 10 0 -2.8 10 0 
-1.4 10 0 -2 10 0 -1.8 10 0 
-1.2 10 0 -1.6 10 0 -1 10 0 
-0.4 10 0 -0.6 10 0 -0.8 10 0 
-0.2 10 0 0.6 10 0 0.8 10 0 
-0 10 0 0.4 10 0 0.2 10 0 
1.8 10 0 1.4 10 0 1 10 0 
1.6 10 0 1.2 10 0 2 10 0 
2.4 10 0 2.2 10 0 2.8 10 0 
2.6 10 0 3.4 10 0 3.8 10 0 
3 10 0 3.2 10 0 3.6 10 0 
4.8 10 0 4.6 10 0 4 10 0 
4.4 10 0 4.2 10 0 5.4 10 0 
5.2 10 0 5 10 0 5.6 10 0 
5.8 10 0 6.4 10 0 6.8 10 0 
6.2 10 0 6.6 10 0 6 10 0 
7.8 10 0 7.4 10 0 7.6 10 0 
7.2 10 0 7 10 0 8.6 10 0 
8.2 10 0 8.8 10 0 8 10 0 
8.4 10 0 9.2 10 0 9.4 10 0 
9 10 0 9 10.6 0 9.6 10 0 
9 10.4 0 9 10.2 0 9 10.8 0 
9.8 10 0 10.2 10 0 10.4 10 0 
10 10 0 10.8 10 0 10.6 10 0 
11.2 10 0 11.4 10 0 11 10 0 
11.6 10 0 11.8 10 0 12.4 10 0 
12.8408 10.3391 0 12.2 10 0 12.6 10 0 
12 10 0 12.8 10 0 13.1862 10.73 0 
13 10 0 13.459 10.0773 0 14.1667 10 0 
14 10 0 14.6667 10 0 14.8333 10 0 
14.5 10 0 14.3333 10 0 15 10.8 0 
15 10 0 15 10.6 0 15 10.2 0 
15 10.4 0 -15 11.8 0 -15 11.6 0 
-15 11.4 0 -15 11.2 0 -15 11 0 
-9 11.4 0 -9 11.6 0 -9 11 0 
-9 11.2 0 -9 11.8 0 -3 11.4 0 
-3 11.6 0 -3 11 0 -3 11.2 0 
-3 11.8 0 1.77698 11.946 0 2.61394 11.9245 0 
9 11.4 0 9 11.2 0 9 11.8 0 
9 11.6 0 9 11 0 12.1647 11.3825 0 
15 11.8 0 15 11 0 15 11.2 0 
15 11.6 0 15 11.4 0 -15 12 0 
-15 12.6 0 -15 12.2 0 -15 12.4 0 
-15 12.8 0 -9 12.2 0 -9 12.8 0 
-9 12.4 0 -9 12 0 -9 12.6 0 
-3 12.8 0 -3 12.4 0 -3 12.2 0 
-3 12 0 -3 12.6 0 4.59494 12.3245 0 
9 12.2 0 9 12 0 9 12.8 0 
9 12.6 0 9 12.4 0 10.7607 12.8557 0 
15 12 0 15 12.4 0 15 12.8 0 
15 12.2 0 15 12.6 0 -15 13.8 0 
-15 13 0 -15 13.4 0 -15 13.2 0 
-15 13.6 0 -9 13.8 0 -9 13.6 0 
-9 13.2 0 -9 13 0 -9 13.4 0 
-3 13.8 0 -3 13.2 0 -3 13.6 0 
-3 13 0 -3 13.4 0 5.97353 13.7139 0 
9 13.6 0 9 13.4 0 9.84208 13.6123 0 
9 13 0 9 13.8 0 9 13.2 0 
10.224 13.0536 0 10.3805 13.7792 0 11.1342 13.3002 0 
15 13 0 15 13.8 0 15 13.6 0 
15 13.2 0 15 13.4 0 -15 14 0 
-15 14.4 0 -15 14.2 0 -15 14.6 0 
-15 14.8 0 -9 14.8 0 -9 14 0 
-9 14.4 0 -9 14.6 0 -9 14.2 0 
-3 14.4 0 -3 14 0 -3 14.2 0 
-3 14.6 0 -3 14.8 0 4.43941 14.216 0 
6.07388 14.9688 0 6.38444 14.2466 0 6.98556 14.1453 0 
6.76718 14.7668 0 7.68515 14.0391 0 8.02559 14.5358 0 
8.21005 14.0411 0 8.68706 14.0655 0 8.73562 14.6073 0 
9 14 0 9.26685 14.3277 0 9.83505 14.1811 0 
15 14.4 0 15 14.8 0 15 14 0 
15 14.2 0 15 14.6 0 -15 15.4 0 
-15 15.8 0 -15 15.2 0 -15 15 0 
-15 15.6 0 -9 15.4 0 -9 15.2 0 
-9 15 0 -9 15.8 0 -9 15.6 0 
-3 15.4 0 -3 15.2 0 -3 15.8 0 
-3 15 0 -3 15.6 0 9 15.6667 0 
9 15 0 9 15.3333 0 9 15.8333 0 
9 15.1667 0 9 15.5 0 15 15.8 0 
15 15 0 15 15.6 0 15 15.4 0 
15 15.2 0 -14.6 16 0 -14.8 16 0 
-15 16 0 -14.4 16 0 -14.2 16 0 
-14 16 0 -13.4 16 0 -13.2 16 0 
-13.8 16 0 -13.6 16 0 -12.2 16 0 
-12.6 16 0 -12.8 16 0 -12.4 16 0 
-13 16 0 -11.2 16 0 -11.6 16 0 
-12 16 0 -11.4 16 0 -11.8 16 0 
-10.2 16 0 -10.8 16 0 -10.6 16 0 
-11 16 0 -10.4 16 0 -9.6 16 0 
-9.4 16 0 -9.2 16 0 -10 16 0 
-9.8 16 0 -8.2 16 0 -8.8 16 0 
-9 16 0 -8.6 16 0 -8.4 16 0 
-8 16 0 -7.8 16 0 -7.6 16 0 
-7.2 16 0 -7.4 16 0 -7 16 0 
-6.8 16 0 -6.2 16 0 -6.6 16 0 
-6.4 16 0 -5.2 16 0 -5.8 16 0 
-6 16 0 -5.4 16 0 -5.6 16 0 
-4.8 16 0 -5 16 0 -4.6 16 0 
-4.2 16 0 -4.4 16 0 -4 16 0 
-3.4 16 0 -3.8 16 0 -3.6 16 0 
-3.2 16 0 -2.6 16 0 -3 16 0 
-2.4 16 0 -2.8 16 0 -2.2 16 0 
-2 16 0 -1.2 16 0 -1.4 16 0 
-1.8 16 0 -1.6 16 0 -0.6 16 0 
-0.8 16 0 -1 16 0 -0.2 16 0 
-0.4 16 0 0.8 16 0 0.2 16 0 
0.6 16 0 -0 16 0 0.4 16 0 
1 16 0 1.8 16 0 1.6 16 0 
1.4 16 0 1.2 16 0 2.6 16 0 
2.4 16 0 2.2 16 0 2 16 0 
2.8 16 0 3.8 16 0 3.6 16 0 
3.2 16 0 3 16 0 3.4 16 0 
4 16 0 4.8 16 0 4.6 16 0 
4.4 16 0 4.2 16 0 5.8 16 0 
5.2 16 0 5.6 16 0 5 16 0 
5.4 16 0 6.4 16 0 6.8 16 0 
6.6 16 0 6.2 16 0 6 16 0 
7.8 16 0 7.6 16 0 7.2 16 0 
7 16 0 7.4 16 0 8.2 16 0 
8.6 16 0 8.4 16 0 8 16 0 
8.8 16 0 9.6 16 0 9.4 16 0 
9 16 0 9.8 16 0 9.2 16 0 
10 16 0 10.2 16 0 10.4 16 0 
10.6 16 0 10.8 16 0 11.8 16 0 
11 16 0 11.4 16 0 11.6 16 0 
11.2 16 0 12.4 16 0 12.8 16 0 
12.6 16 0 12.2 16 0 12 16 0 
13.4 16 0 13.8 16 0 13 16 0 
13.6 16 0 13.2 16 0 14.8 16 0 
14 16 0 14.2 16 0 14.4 16 0 
14.6 16 0 15 16 0 
VERTICES 2098 2098
1 0 
1 1 
1 2 
1 3 
1 4 
1 5 
1 6 
1 7 
1 8 
1 9 
1 10 
1 11 
1 12 
1 13 
1 14 
1 15 
1 16 
1 17 
1 18 
1 19 
1 20 
1 21 
1 22 
1 23 
1 24 
1 25 
1 26 
1 27 
1 28 
1 29 
1 30 
1 31 
1 32 
1 33 
1 34 
1 35 
1 36 
1 37 
1 38 
1 39 
1 40 
1 41 
1 42 
1 43 
1 44 
1 45 
1 46 
1 47 
1 48 
1 49 
1 50 
1 51 
1 52 
1 53 
1 54 
1 55 
1 56 
1 57 
1 58 
1 59 
1 60 
1 61 
1 62 
1 63 
1 64 
1 65 
1 66 
1 67 
1 68 
1 69 
1 70 
1 71 
1 72 
1 73 
1 74 
1 75 
1 76 
1 77 
1 78 
1 79 
1 80 
1 81 
1 82 
1 83 
1 84 
1 85 
1 86 
1 87 
1 88 
1 89 
1 90 
1 91 
1 92 
1 93 
1 94 
1 95 
1 96 
1 97 
1 98 
1 99 
1 100 
1 101 
1 102 
1 103 
1 104 
1 105 
1 106 
1 107 
1 108 
1 109 
1 110 
1 111 
1 112 
1 113 
1 114 
1 115 
1 116 
1 117 
1 118 
1 119 
1 120 
1 121 
1 122 
1 123 
1 124 
1 125 
1 126 
1 127 
1 128 
1 129 
1 130 
1 131 
1 132 
1 133 
1 134 
1 135 
1 136 
1 137 
1 138 
1 139 
1 140 
1 141 
1 142 
1 143 
1 144 
1 145 
1 146 
1 147 
1 148 
1 149 
1 150 
1 151 
1 152 
1 153 
1 154 
1 155 
1 156 
1 157 
1 158 
1 159 
1 160 
1 161 
1 162 
1 163 
1 164 
1 165 
1 166 
1 167 
1 168 
1 169 
1 170 
1 171 
1 172 
1 173 
1 174 
1 175 
1 176 
1 177 
1 178 
1 179 
1 180 
1 181 
1 182 
1 183 
1 184 
1 185 
1 186 
1 187 
1 188 
1 189 
1 190 
1 191 
1 192 
1 193 
1 194 
1 195 
1 196 
1 197 
1 198 
1 199 
1 200 
1 201 
1 202 
1 203 
1 204 
1 205 
1 206 
1 207 
1 208 
1 209 
1 210 
1 211 
1 212 
1 213 
1 214 
1 215 
1 216 
1 217 
1 218 
1 219 
1 220 
1 221 
1 222 
1 223 
1 224 
1 225 
1 226 
1 227 
1 228 
1 229 
1 230 
1 231 
1 232 
1 233 
1 234 
1 235 
1 236 
1 237 
1 238 
1 239 
1 240 
1 241 
1 242 
1 243 
1 244 
1 245 
1 246 
1 247 
1 248 
1 249 
1 250 
1 251 
1 252 
1 253 
1 254 
1 255 
1 256 
1 257 
1 258 
1 259 
1 260 
1 261 
1 262 
1 263 
1 264 
1 265 
1 266 
1 267 
1 268 
1 269 
1 270 
1 271 
1 272 
1 273 
1 274 
1 275 
1 276 
1 277 
1 278 
1 279 
1 280 
1 281 
1 282 
1 283 
1 284 
1 285 
1 286 
1 287 
1 288 
1 289 
1 290 
1 291 
1 292 
1 293 
1 294 
1 295 
1 296 
1 297 
1 298 
1 299 
1 300 
1 301 
1 302 
1 303 
1 304 
1 305 
1 306 
1 307 
1 308 
1 309 
1 310 
1 311 
1 312 
1 313 
1 314 
1 315 
1 316 
1 317 
1 318 
1 319 
1 320 
1 321 
1 322 
1 323 
1 324 
1 325 
1 326 
1 327 
1 328 
1 329 
1 330 
1 331 
1 332 
1 333 
1 334 
1 335 
1 336 
1 337 
1 338 
1 339 
1 340 
1 341 
1 342 
1 343 
1 344 
1 345 
1 346 
1 347 
1 348 
1 349 
1 350 
1 351 
1 352 
1 353 
1 354 
1 355 
1 356 
1 357 
1 358 
1 359 
1 360 
1 361 
1 362 
1 363 
1 364 
1 365 
1 366 
1 367 
1 368 
1 369 
1 370 
1 371 
1 372 
1 373 
1 374 
1 375 
1 376 
1 377 
1 378 
1 379 
1 380 
1 381 
1 382 
1 383 
1 384 
1 385 
1 386 
1 387 
1 388 
1 389 
1 390 
1 391 
1 392 
1 393 
1 394 
1 395 
1 396 
1 397 
1 398 
1 399 
1 400 
1 401 
1 402 
1 403 
1 404 
1 405 
1 406 
1 407 
1 408 
1 409 
1 410 
1 411 
1 412 
1 413 
1 414 
1 415 
1 416 
1 417 
1 418 
1 419 
1 420 
1 421 
1 422 
1 423 
1 424 
1 425 
1 426 
1 427 
1 428 
1 429 
1 430 
1 431 
1 432 
1 433 
1 434 
1 435 
1 436 
1 437 
1 438 
1 439 
1 440 
1 441 
1 442 
1 443 
1 444 
1 445 
1 446 
1 447 
1 448 
1 449 
1 450 
1 451 
1 452 
1 453 
1 454 
1 455 
1 456 
1 457 
1 458 
1 459 
1 460 
1 461 
1 462 
1 463 
1 464 
1 465 
1 466 
1 467 
1 468 
1 469 
1 470 
1 471 
1 472 
1 473 
1 474 
1 475 
1 476 
1 477 
1 478 
1 479 
1 480 
1 481 
1 482 
1 483 
1 484 
1 485 
1 486 
1 487 
1 488 
1 489 
1 490 
1 491 
1 492 
1 493 
1 494 
1 495 
1 496 
1 497 
1 498 
1 499 
1 500 
1 501 
1 502 
1 503 
1 504 
1 505 
1 506 
1 507 
1 508 
1 509 
1 510 
1 511 
1 512 
1 513 
1 514 
1 515 
1 516 
1 517 
1 518 
1 519 
1 520 
1 521 
1 522 
1 523 
1 524 
1 525 
1 526 
1 527 
1 528 
1 529 
1 530 
1 531 
1 532 
1 533 
1 534 
1 535 
1 536 
1 537 
1 538 
1 539 
1 540 
1 541 
1 542 
1 543 
1 544 
1 545 
1 546 
1 547 
1 548 
1 549 
1 550 
1 551 
1 552 
1 553 
1 554 
1 555 
1 556 
1 557 
1 558 
1 559 
1 560 
1 561 
1 562 
1 563 
1 564 
1 565 
1 566 
1 567 
1 568 
1 569 
1 570 
1 571 
1 572 
1 573 
1 574 
1 575 
1 576 
1 577 
1 578 
1 579 
1 580 
1 581 
1 582 
1 583 
1 584 
1 585 
1 586 
1 587 
1 588 
1 589 
1 590 
1 591 
1 592 
1 593 
1 594 
1 595 
1 596 
1 597 
1 598 
1 599 
1 600 
1 601 
1 602 
1 603 
1 604 
1 605 
1 606 
1 607 
1 608 
1 609 
1 610 
1 611 
1 612 
1 613 
1 614 
1 615 
1 616 
1 617 
1 618 
1 619 
1 620 
1 621 
1 622 
1 623 
1 624 
1 625 
1 626 
1 627 
1 628 
1 629 
1 630 
1 631 
1 632 
1 633 
1 634 
1 635 
1 636 
1 637 
1 638 
1 639 
1 640 
1 641 
1 642 
1 643 
1 644 
1 645 
1 646 
1 647 
1 648 
1 649 
1 650 
1 651 
1 652 
1 653 
1 654 
1 655 
1 656 
1 657 
1 658 
1 659 
1 660 
1 661 
1 662 
1 663 
1 664 
1 665 
1 666 
1 667 
1 668 
1 669 
1 670 
1 671 
1 672 
1 673 
1 674 
1 675 
1 676 
1 677 
1 678 
1 679 
1 680 
1 681 
1 682 
1 683 
1 684 
1 685 
1 686 
1 687 
1 688 
1 689 
1 690 
1 691 
1 692 
1 693 
1 694 
1 695 
1 696 
1 697 
1 698 
1 699 
1 700 
1 701 
1 702 
1 703 
1 704 
1 705 
1 706 
1 707 
1 708 
1 709 
1 710 
1 711 
1 712 
1 713 
1 714 
1 715 
1 716 
1 717 
1 718 
1 719 
1 720 
1 721 
1 722 
1 723 
1 724 
1 725 
1 726 
1 727 
1 728 
1 729 
1 730 
1 731 
1 732 
1 733 
1 734 
1 735 
1 736 
1 737 
1 738 
1 739 
1 740 
1 741 
1 742 
1 743 
1 744 
1 745 
1 746 
1 747 
1 748 
1 749 
1 750 
1 751 
1 752 
1 753 
1 754 
1 755 
1 756 
1 757 
1 758 
1 759 
1 760 
1 761 
1 762 
1 763 
1 764 
1 765 
1 766 
1 767 
1 768 
1 769 
1 770 
1 771 
1 772 
1 773 
1 774 
1 775 
1 776 
1 777 
1 778 
1 779 
1 780 
1 781 
1 782 
1 783 
1 784 
1 785 
1 786 
1 787 
1 788 
1 789 
1 790 
1 791 
1 792 
1 793 
1 794 
1 795 
1 796 
1 797 
1 798 
1 799 
1 800 
1 801 
1 802 
1 803 
1 804 
1 805 
1 806 
1 807 
1 808 
1 809 
1 810 
1 811 
1 812 
1 813 
1 814 
1 815 
1 816 
1 817 
1 818 
1 819 
1 820 
1 821 
1 822 
1 823 
1 824 
1 825 
1 826 
1 827 
1 828 
1 829 
1 830 
1 831 
1 832 
1 833 
1 834 
1 835 
1 836 
1 837 
1 838 
1 839 
1 840 
1 841 
1 842 
1 843 
1 844 
1 845 
1 846 
1 847 
1 848 
1 849 
1 850 
1 851 
1 852 
1 853 
1 854 
1 855 
1 856 
1 857 
1 858 
1 859 
1 860 
1 861 
1 862 
1 863 
1 864 
1 865 
1 866 
1 867 
1 868 
1 869 
1 870 
1 871 
1 872 
1 873 
1 874 
1 875 
1 876 
1 877 
1 878 
1 879 
1 880 
1 881 
1 882 
1 883 
1 884 
1 885 
1 886 
1 887 
1 888 
1 889 
1 890 
1 891 
1 892 
1 893 
1 894 
1 895 
1 896 
1 897 
1 898 
1 899 
1 900 
1 901 
1 902 
1 903 
1 904 
1 905 
1 906 
1 907 
1 908 
1 909 
1 910 
1 911 
1 912 
1 913 
1 914 
1 915 
1 916 
1 917 
1 918 
1 919 
1 920 
1 921 
1 922 
1 923 
1 924 
1 925 
1 926 
1 927 
1 928 
1 929 
1 930 
1 931 
1 932 
1 933 
1 934 
1 935 
1 936 
1 937 
1 938 
1 939 
1 940 
1 941 
1 942 
1 943 
1 944 
1 945 
1 946 
1 947 
1 948 
1 949 
1 950 
1 951 
1 952 
1 953 
1 954 
1 955 
1 956 
1 957 
1 958 
1 959 
1 960 
1 961 
1 962 
1 963 
1 964 
1 965 
1 966 
1 967 
1 968 
1 969 
1 970 
1 971 
1 972 
1 973 
1 974 
1 975 
1 976 
1 977 
1 978 
1 979 
1 980 
1 981 
1 982 
1 983 
1 984 
1 985 
1 986 
1 987 
1 988 
1 989 
1 990 
1 991 
1 992 
1 993 
1 994 
1 995 
1 996 
1 997 
1 998 
1 999 
1 1000 
1 1001 
1 1002 
1 1003 
1 1004 
1 1005 
1 1006 
1 1007 
1 1008 
1 1009 
1 1010 
1 1011 
1 1012 
1 1013 
1 1014 
1 1015 
1 1016 
1 1017 
1 1018 
1 1019 
1 1020 
1 1021 
1 1022 
1 1023 
1 1024 
1 1025 
1 1026 
1 1027 
1 1028 
1 1029 
1 1030 
1 1031 
1 1032 
1 1033 
1 1034 
1 1035 
1 1036 
1 1037 
1 1038 
1 1039 
1 1040 
1 1041 
1 1042 
1 1043 
1 1044 
1 1045 
1 1046 
1 1047 
1 1048 

POINT_DATA 1049
SCALARS id double
LOOKUP_TABLE default
1048 1027 977 980 1020 968 1033 964 951 
983 976 978 993 1036 0 389 390 388 
39 43 41 42 391 40 48 47 45 
49 46 44 1 51 50 2 53 52 
1032 54 57 55 56 59 58 62 60 
63 64 61 3 68 392 65 394 66 
393 395 67 69 71 70 73 72 75 
74 78 77 76 80 82 83 81 79 
85 87 84 86 88 92 91 93 89 
90 493 97 4 495 494 492 95 94 
96 98 101 102 100 99 103 106 107 
104 105 109 112 110 111 108 115 116 
113 114 117 121 119 120 122 118 559 
124 560 558 123 125 5 126 557 127 
131 128 129 130 133 135 134 136 132 
139 137 140 138 141 145 146 142 143 
144 147 151 148 150 149 587 153 589 
156 588 6 590 155 154 152 161 162 
158 157 160 159 163 7 945 164 166 
8 1024 165 172 170 168 171 169 167 
176 173 174 177 175 9 181 180 178 
179 384 387 385 386 383 966 1045 399 
400 396 397 398 490 489 487 488 491 
552 553 554 555 556 593 592 591 594 
595 975 183 185 182 184 186 382 380 
379 378 381 990 405 404 403 401 402 
486 483 482 485 484 550 547 548 551 
549 597 600 598 599 596 188 189 191 
187 190 376 377 375 374 373 1004 1040 
933 410 407 409 408 406 479 481 480 
478 477 544 545 542 546 543 602 604 
601 603 605 941 955 193 195 194 192 
196 369 372 371 370 368 995 412 414 
415 413 411 473 474 475 476 472 540 
537 541 538 539 974 606 610 608 607 
609 972 200 199 197 198 201 364 365 
363 366 367 1041 947 1005 420 417 416 
418 419 471 469 467 470 468 1006 963 
534 536 532 533 535 1001 611 612 613 
614 615 1016 203 206 204 205 202 359 
361 360 362 358 942 423 422 421 425 
424 971 1000 463 464 465 466 462 1010 
1034 981 527 529 528 531 530 937 1002 
617 618 620 619 616 987 962 932 211 
210 209 208 207 355 354 353 357 356 
954 1026 969 430 428 426 429 427 953 
1017 461 459 458 460 457 1003 526 525 
523 524 522 979 1019 621 622 930 625 
623 624 960 1028 216 212 213 214 215 
352 349 351 350 348 1047 1008 1018 432 
431 433 10 434 939 435 440 998 437 
439 441 438 436 11 989 984 443 442 
1038 445 12 444 448 447 449 446 451 
450 453 455 452 454 456 496 498 499 
500 497 13 504 503 501 502 506 1031 
505 944 508 14 507 509 1023 510 15 
515 514 516 512 513 511 519 518 520 
517 521 564 565 561 562 16 563 566 
571 568 570 1044 567 569 572 573 994 
17 1029 574 575 18 1025 973 576 578 
579 577 581 1043 580 582 583 584 586 
585 1022 19 986 34 1009 220 218 221 
217 219 347 344 343 346 345 936 967 
952 985 965 1014 992 1007 988 950 997 
1030 1011 225 223 224 222 226 340 664 
662 342 20 663 661 660 339 341 21 
1042 665 22 666 667 668 671 669 673 
672 670 677 676 678 674 675 679 682 
681 680 683 714 716 686 713 685 715 
717 687 684 23 718 722 719 723 720 
721 724 725 36 935 37 727 1021 1012 
726 732 731 729 728 733 730 735 736 
737 734 738 633 740 631 742 24 634 
632 741 739 746 743 744 747 745 748 
751 750 749 752 756 757 753 755 754 
762 760 758 761 759 763 765 764 767 
766 770 772 768 769 771 777 776 773 
775 774 780 779 778 781 782 785 787 
784 786 783 792 790 791 789 788 796 
794 797 793 795 798 799 35 819 800 
818 817 820 801 803 804 802 806 805 
808 809 807 810 811 814 1015 813 815 
812 816 946 25 1037 630 26 627 626 
628 629 230 27 229 227 228 334 335 
336 337 338 690 691 688 689 692 637 
638 635 636 639 996 970 823 822 825 
824 821 999 235 231 232 234 233 333 
330 332 331 329 694 697 695 693 696 
644 642 641 640 643 982 827 826 830 
829 828 1013 236 238 240 237 239 324 
328 326 327 325 702 701 699 698 700 
649 646 648 645 647 1046 834 833 943 
831 835 832 934 940 929 241 245 244 
242 243 323 321 322 320 319 707 703 
705 706 704 652 650 651 653 654 938 
1039 957 991 961 959 948 956 1035 949 
29 931 958 248 250 246 247 249 316 
314 317 318 315 710 709 708 712 711 
657 656 659 655 658 927 28 925 928 
924 926 255 251 254 253 252 312 313 
30 311 310 309 306 305 308 307 300 
302 303 301 304 295 297 299 296 298 
290 293 292 294 291 287 286 285 289 
288 281 284 31 283 282 280 279 278 
276 277 275 274 271 273 272 266 269 
270 267 268 264 265 263 261 262 260 
257 259 258 256 837 32 838 836 839 
840 844 843 841 842 847 846 845 849 
848 854 851 853 850 852 855 859 858 
857 856 863 862 861 860 864 869 868 
866 865 867 870 874 873 872 871 879 
876 878 875 877 882 884 883 881 880 
889 888 886 885 887 891 893 892 890 
894 897 896 38 898 895 899 900 901 
902 903 908 904 906 907 905 911 913 
912 910 909 916 918 914 917 915 923 
919 920 921 922 33 
FIELD FieldData 14
r 3 1049 double
-8.36781 -3.0968 0 7.8415 -3.60048 0 -9.30998 -2.32583 0 
-8.98817 -2.91149 0 9.59942 -2.2057 0 -10.9819 -1.0369 0 
-10.484 -1.48399 0 10.0329 -1.77849 0 10.6625 -1.72808 0 
10.6465 -1.17059 0 11.7542 -1.02123 0 -11.8958 -0.143836 0 
-11.4314 -0.787981 0 11.6009 -0.412187 0 -15 0 0 
-15 0.6 0 -15 0.4 0 -15 0.8 0 
-14.8214 0 0 -14.1071 0 0 -14.4643 0 0 
-14.2857 0 0 -15 0.2 0 -14.6429 0 0 
-13.2143 0 0 -13.3929 0 0 -13.75 0 0 
-13.0357 0 0 -13.5714 0 0 -13.9286 0 0 
-12.5 0 0 -12.6786 0 0 -12.8571 0 0 
-11.5 0 0 -11.1429 0 0 -11.3214 0 0 
-11.886 0.481274 0 -10.9643 0 0 -10.4286 0 0 
-10.7857 0 0 -10.6071 0 0 -10.0714 0 0 
-10.25 0 0 -9.5357 0 0 -9.8929 0 0 
-9.3571 0 0 -9.1786 0 0 -9.7143 0 0 
-9 0 0 -8.2 0 0 -9 0.2 0 
-8.8 0 0 -9 0.6 0 -8.6 0 0 
-9 0.4 0 -9 0.8 0 -8.4 0 0 
-8 0 0 -7.6 0 0 -7.8 0 0 
-7.2 0 0 -7.4 0 0 -6.8 0 0 
-7 0 0 -6.2 0 0 -6.4 0 0 
-6.6 0 0 -5.8 0 0 -5.4 0 0 
-5.2 0 0 -5.6 0 0 -6 0 0 
-4.8 0 0 -4.4 0 0 -5 0 0 
-4.6 0 0 -4.2 0 0 -3.4 0 0 
-3.6 0 0 -3.2 0 0 -4 0 0 
-3.8 0 0 -3 0.6 0 -2.2 0 0 
-3 0 0 -3 0.2 0 -3 0.4 0 
-3 0.8 0 -2.6 0 0 -2.8 0 0 
-2.4 0 0 -2 0 0 -1.4 0 0 
-1.2 0 0 -1.6 0 0 -1.8 0 0 
-1 0 0 -0.4 0 0 -0.2 0 0 
-0.8 0 0 -0.6 0 0 0.2 0 0 
0.8 0 0 0.4 0 0 0.6 0 0 
-0 0 0 1.4 0 0 1.6 0 0 
1 0 0 1.2 0 0 1.8 0 0 
2.6 0 0 2.2 0 0 2.4 0 0 
2.8 0 0 2 0 0 3 0.4 0 
3.4 0 0 3 0.2 0 3 0.6 0 
3.2 0 0 3.6 0 0 3 0 0 
3.8 0 0 3 0.8 0 4 0 0 
4.8 0 0 4.2 0 0 4.4 0 0 
4.6 0 0 5.2 0 0 5.6 0 0 
5.4 0 0 5.8 0 0 5 0 0 
6.4 0 0 6 0 0 6.6 0 0 
6.2 0 0 6.8 0 0 7.6 0 0 
7.8 0 0 7 0 0 7.2 0 0 
7.4 0 0 8 0 0 8.8 0 0 
8.2 0 0 8.6 0 0 8.4 0 0 
9 0.2 0 9.3571 0 0 9 0.6 0 
9.8929 0 0 9 0.4 0 9 0 0 
9 0.8 0 9.7143 0 0 9.5357 0 0 
9.1786 0 0 10.7857 0 0 10.9643 0 0 
10.25 0 0 10.0714 0 0 10.6071 0 0 
10.4286 0 0 11.1429 0 0 11.5 0 0 
11.7577 0.939052 0 11.3214 0 0 12.8571 0 0 
12.5 0 0 12.0312 0.136256 0 12.6786 0 0 
13.9286 0 0 13.5714 0 0 13.2143 0 0 
13.75 0 0 13.3929 0 0 13.0357 0 0 
14.6429 0 0 14.1071 0 0 14.2857 0 0 
14.8214 0 0 14.4643 0 0 15 0 0 
15 0.8 0 15 0.6 0 15 0.2 0 
15 0.4 0 -15 1.6 0 -15 1 0 
-15 1.4 0 -15 1.2 0 -15 1.8 0 
-12.0134 1.23577 0 -11.3945 1.6387 0 -9 1.6 0 
-9 1.8 0 -9 1 0 -9 1.2 0 
-9 1.4 0 -3 1.2 0 -3 1.4 0 
-3 1.8 0 -3 1.6 0 -3 1 0 
3 1.8 0 3 1.6 0 3 1.4 0 
3 1.2 0 3 1 0 9 1.4 0 
9 1.2 0 9 1 0 9 1.6 0 
9 1.8 0 12.2212 1.31578 0 15 1.2 0 
15 1.6 0 15 1 0 15 1.4 0 
15 1.8 0 -15 2 0 -15 2.4 0 
-15 2.6 0 -15 2.8 0 -15 2.2 0 
-11.5783 2.48784 0 -9 2.8 0 -9 2.6 0 
-9 2.4 0 -9 2 0 -9 2.2 0 
-3 2 0 -3 2.6 0 -3 2.8 0 
-3 2.2 0 -3 2.4 0 3 2.2 0 
3 2.8 0 3 2.6 0 3 2 0 
3 2.4 0 9 2.2 0 9 2.8 0 
9 2.4 0 9 2.6 0 9 2 0 
15 2.2 0 15 2.4 0 15 2.8 0 
15 2 0 15 2.6 0 -15 3.2 0 
-15 3 0 -15 3.4 0 -15 3.6 0 
-15 3.8 0 -12.8377 3.36951 0 -12.0914 3.23011 0 
-10.8281 3.99572 0 -9 3.8 0 -9 3.2 0 
-9 3.6 0 -9 3.4 0 -9 3 0 
-3 3.4 0 -3 3 0 -3 3.2 0 
-3 3.6 0 -3 3.8 0 3 3.4 0 
3 3.2 0 3 3.8 0 3 3 0 
3 3.6 0 9 3.2 0 9 3.6 0 
9 3 0 9 3.4 0 9 3.8 0 
10.7174 3.70797 0 12.5785 3.83091 0 15 3.2 0 
15 3.6 0 15 3.4 0 15 3 0 
15 3.8 0 -15 4.6 0 -15 4 0 
-15 4.2 0 -15 4.4 0 -15 4.8 0 
-10.6729 4.62728 0 -9 4.2 0 -9 4.6 0 
-9 4.8 0 -9 4.4 0 -9 4 0 
-3 4.6 0 -3 4.4 0 -3 4.2 0 
-3 4 0 -3 4.8 0 3 4.2 0 
3 4.8 0 3 4 0 3 4.6 0 
3 4.4 0 7.01707 4.5861 0 9 4 0 
9 4.8 0 9 4.4 0 9 4.2 0 
9 4.6 0 10.9852 4.24054 0 15 4.6 0 
15 4.4 0 15 4 0 15 4.2 0 
15 4.8 0 -15 5.6 0 -15 5.4 0 
-15 5.8 0 -15 5.2 0 -15 5 0 
-12.8692 5.7076 0 -10.3749 5.21279 0 -10.1911 5.92852 0 
-9 5.8 0 -9 5.2 0 -9 5 0 
-9 5.4 0 -9 5.6 0 -3 5 0 
-3 5.4 0 -3 5.8 0 -3 5.2 0 
-3 5.6 0 -0.902721 5.27756 0 0.215564 5.22969 0 
3 5.4 0 3 5 0 3 5.8 0 
3 5.6 0 3 5.2 0 5.86065 5.96306 0 
9 5 0 9 5.2 0 9 5.4 0 
9 5.6 0 9 5.8 0 10.3792 5.57945 0 
15 5.2 0 15 5.8 0 15 5.4 0 
15 5.6 0 15 5 0 -15 6.6 0 
-15 6.2 0 -15 6.4 0 -15 6 0 
-15 6.8 0 -9.89262 6.87278 0 -9 6.4 0 
-9 6.2 0 -9 6 0 -9 6.8 0 
-9 6.6 0 -5.49599 6.02767 0 -5.67539 6.74257 0 
-3 6.6 0 -3 6.4 0 -3 6.2 0 
-3 6 0 -3 6.8 0 -0.497761 6.07659 0 
-0.791374 6.59599 0 0.218437 6.33784 0 3 6.8 0 
3 6.4 0 3 6.6 0 3 6 0 
3 6.2 0 5.55904 6.86063 0 6.11798 6.94645 0 
9 6.2 0 9 6.4 0 9 6.8 0 
9 6.6 0 9 6 0 9.95063 6.44322 0 
10.3287 6.90673 0 12.9919 6.49781 0 15 6.8 0 
15 6.6 0 15 6.4 0 15 6.2 0 
15 6 0 -15 7.4 0 -15 7.6 0 
-15 7.8 0 -15 7 0 -15 7.2 0 
-13.1091 7.05876 0 -13.0726 7.61078 0 -9.53769 7.87291 0 
-9 7.8 0 -9 7.4 0 -9 7 0 
-9 7.6 0 -9 7.2 0 -5.99113 7.49317 0 
-5.43406 7.27235 0 -3 7 0 -3 7.4 0 
-3 7.6 0 -3 7.2 0 -3 7.8 0 
-0.000518906 7.94045 0 3 7 0 3 7.2 0 
3 7.6 0 3 7.4 0 3 7.8 0 
5.79349 7.80816 0 6.27435 7.60695 0 9 7 0 
9 7.2 0 9.75222 7.12337 0 9 7.8 0 
9 7.4 0 9 7.6 0 9.67528 7.78283 0 
13.0561 7.04818 0 15 7.8 0 15 7 0 
15 7.2 0 15 7.4 0 15 7.6 0 
-15 8 0 -15 8.6 0 -15 8.2 0 
-15 8.4 0 -15 8.8 0 -13.4372 8.05535 0 
-13.2187 8.55286 0 -9.19743 8.5331 0 -8.6429 8 0 
-8.8214 8 0 -8.4643 8 0 -9 8 0 
-8.2857 8 0 -8.7377 8.82518 0 -8.1071 8 0 
-7.2143 8 0 -7.30472 8.60285 0 -7.75 8 0 
-7.3929 8 0 -7.0357 8 0 -7.5714 8 0 
-7.9286 8 0 -6.5 8 0 -6.63208 8.48672 0 
-6.8816 8.99501 0 -6.6786 8 0 -6.8571 8 0 
-6.07703 8.0414 0 -5.1429 8 0 -5.5 8 0 
-5.3214 8 0 -4.6071 8 0 -4.7857 8 0 
-4.4286 8 0 -4.9643 8 0 -4.0714 8 0 
-4.25 8 0 -3.7143 8 0 -3.3571 8 0 
-3.8929 8 0 -3.5357 8 0 -3.1786 8 0 
-2.8214 8 0 -2.4643 8 0 -2.2857 8 0 
-2.1071 8 0 -2.6429 8 0 -3 8 0 
-1.3929 8 0 -1.5714 8 0 -1.9286 8 0 
-1.75 8 0 -1.0357 8 0 -1.86811 8.7041 0 
-1.2143 8 0 -0.556131 8.44121 0 -0.6786 8 0 
-0.5 8 0 -0.8571 8 0 0.6786 8 0 
0.912431 8.58094 0 0.8571 8 0 0.5 8 0 
1.75 8 0 1.5714 8 0 1.9286 8 0 
1.2143 8 0 1.3929 8 0 1.0357 8 0 
2.4643 8 0 2.2857 8 0 2.6429 8 0 
2.1071 8 0 2.8214 8 0 3.7143 8 0 
3.8929 8 0 3.1786 8 0 3.3571 8 0 
3 8 0 3.5357 8 0 4.0714 8 0 
4.9643 8 0 4.4286 8 0 4.7857 8 0 
4.40435 8.88608 0 4.25 8 0 4.6071 8 0 
5.1429 8 0 5.3214 8 0 5.86482 8.53071 0 
5.5 8 0 6.32648 8.86881 0 6.6786 8 0 
6.8571 8 0 6.5 8 0 6.26524 8.21829 0 
7.80952 8.84137 0 7.0357 8 0 7.3929 8 0 
7.5714 8 0 7.2143 8 0 7.9286 8 0 
7.10113 8.66199 0 7.75 8 0 8.1071 8 0 
8.2857 8 0 8.4643 8 0 8.8214 8 0 
8.6429 8 0 8.41596 8.87743 0 9 8 0 
9.29201 8.44877 0 9 8 0 13.2767 8.64466 0 
15 8.6 0 15 8.2 0 15 8.8 0 
15 8 0 15 8.4 0 -15 9 0 
-15 9.6 0 -15 9.8 0 -15 9.2 0 
-15 9.4 0 -13.4034 9.11243 0 -13.3652 9.80797 0 
-8.68932 9.30595 0 -8.13667 9.11563 0 -7.06327 9.49281 0 
-7.56274 9.2159 0 -6.39876 9.54074 0 -6.02093 9.95871 0 
5.79187 9.03178 0 6.75898 9.2573 0 8.99532 9.0287 0 
13.2504 9.28248 0 13.6964 9.56653 0 15 9.6 0 
15 9.2 0 15 9.4 0 15 9 0 
15 9.8 0 -15 10.6 0 -14.1667 10 0 
-14.5 10 0 -15 10.2 0 -15 10 0 
-14.3333 10 0 -14.6667 10 0 -14.8333 10 0 
-15 10.8 0 -15 10.4 0 -14 10 0 
-13.4924 10.3604 0 -12.8 10 0 -13 10 0 
-12.6 10 0 -12.4 10 0 -12.2 10 0 
-11.6 10 0 -12 10 0 -11.2 10 0 
-11.4 10 0 -11.8 10 0 -10.4 10 0 
-10.6 10 0 -10.2 10 0 -11 10 0 
-10.8 10 0 -10 10 0 -9.4 10 0 
-9.6 10 0 -9.8 10 0 -9.2 10 0 
-8.6429 10 0 -8.2857 10 0 -9 10.6 0 
-8.8214 10 0 -9 10.4 0 -8.4643 10 0 
-8.1071 10 0 -9 10.8 0 -9 10.2 0 
-9 10 0 -7.9286 10 0 -7.2143 10 0 
-7.75 10 0 -7.0357 10 0 -7.5714 10 0 
-7.3929 10 0 -6.8571 10 0 -6.6786 10 0 
-6.5 10 0 -6.37541 10.3458 0 -5.5 10 0 
-5.1429 10 0 -5.97685 10.6766 0 -5.61272 10.3349 0 
-5.3214 10 0 -4.25 10 0 -4.4286 10 0 
-4.7857 10 0 -4.9643 10 0 -4.0714 10 0 
-4.6071 10 0 -3.7143 10 0 -3.5357 10 0 
-3.3571 10 0 -3.8929 10 0 -3.1786 10 0 
-3 10.6 0 -2.6 10 0 -3 10.2 0 
-2.2 10 0 -3 10 0 -3 10.8 0 
-3 10.4 0 -2.4 10 0 -2.8 10 0 
-1.4 10 0 -2 10 0 -1.8 10 0 
-1.2 10 0 -1.6 10 0 -1 10 0 
-0.4 10 0 -0.6 10 0 -0.8 10 0 
-0.2 10 0 0.6 10 0 0.8 10 0 
-0 10 0 0.4 10 0 0.2 10 0 
1.8 10 0 1.4 10 0 1 10 0 
1.6 10 0 1.2 10 0 2 10 0 
2.4 10 0 2.2 10 0 2.8 10 0 
2.6 10 0 3.4 10 0 3.8 10 0 
3 10 0 3.2 10 0 3.6 10 0 
4.8 10 0 4.6 10 0 4 10 0 
4.4 10 0 4.2 10 0 5.4 10 0 
5.2 10 0 5 10 0 5.6 10 0 
5.8 10 0 6.4 10 0 6.8 10 0 
6.2 10 0 6.6 10 0 6 10 0 
7.8 10 0 7.4 10 0 7.6 10 0 
7.2 10 0 7 10 0 8.6 10 0 
8.2 10 0 8.8 10 0 8 10 0 
8.4 10 0 9.2 10 0 9.4 10 0 
9 10 0 9 10.6 0 9.6 10 0 
9 10.4 0 9 10.2 0 9 10.8 0 
9.8 10 0 10.2 10 0 10.4 10 0 
10 10 0 10.8 10 0 10.6 10 0 
11.2 10 0 11.4 10 0 11 10 0 
11.6 10 0 11.8 10 0 12.4 10 0 
12.8408 10.3391 0 12.2 10 0 12.6 10 0 
12 10 0 12.8 10 0 13.1862 10.73 0 
13 10 0 13.459 10.0773 0 14.1667 10 0 
14 10 0 14.6667 10 0 14.8333 10 0 
14.5 10 0 14.3333 10 0 15 10.8 0 
15 10 0 15 10.6 0 15 10.2 0 
15 10.4 0 -15 11.8 0 -15 11.6 0 
-15 11.4 0 -15 11.2 0 -15 11 0 
-9 11.4 0 -9 11.6 0 -9 11 0 
-9 11.2 0 -9 11.8 0 -3 11.4 0 
-3 11.6 0 -3 11 0 -3 11.2 0 
-3 11.8 0 1.77698 11.946 0 2.61394 11.9245 0 
9 11.4 0 9 11.2 0 9 11.8 0 
9 11.6 0 9 11 0 12.1647 11.3825 0 
15 11.8 0 15 11 0 15 11.2 0 
15 11.6 0 15 11.4 0 -15 12 0 
-15 12.6 0 -15 12.2 0 -15 12.4 0 
-15 12.8 0 -9 12.2 0 -9 12.8 0 
-9 12.4 0 -9 12 0 -9 12.6 0 
-3 12.8 0 -3 12.4 0 -3 12.2 0 
-3 12 0 -3 12.6 0 4.59494 12.3245 0 
9 12.2 0 9 12 0 9 12.8 0 
9 12.6 0 9 12.4 0 10.7607 12.8557 0 
15 12 0 15 12.4 0 15 12.8 0 
15 12.2 0 15 12.6 0 -15 13.8 0 
-15 13 0 -15 13.4 0 -15 13.2 0 
-15 13.6 0 -9 13.8 0 -9 13.6 0 
-9 13.2 0 -9 13 0 -9 13.4 0 
-3 13.8 0 -3 13.2 0 -3 13.6 0 
-3 13 0 -3 13.4 0 5.97353 13.7139 0 
9 13.6 0 9 13.4 0 9.84208 13.6123 0 
9 13 0 9 13.8 0 9 13.2 0 
10.224 13.0536 0 10.3805 13.7792 0 11.1342 13.3002 0 
15 13 0 15 13.8 0 15 13.6 0 
15 13.2 0 15 13.4 0 -15 14 0 
-15 14.4 0 -15 14.2 0 -15 14.6 0 
-15 14.8 0 -9 14.8 0 -9 14 0 
-9 14.4 0 -9 14.6 0 -9 14.2 0 
-3 14.4 0 -3 14 0 -3 14.2 0 
-3 14.6 0 -3 14.8 0 4.43941 14.216 0 
6.07388 14.9688 0 6.38444 14.2466 0 6.98556 14.1453 0 
6.76718 14.7668 0 7.68515 14.0391 0 8.02559 14.5358 0 
8.21005 14.0411 0 8.68706 14.0655 0 8.73562 14.6073 0 
9 14 0 9.26685 14.3277 0 9.83505 14.1811 0 
15 14.4 0 15 14.8 0 15 14 0 
15 14.2 0 15 14.6 0 -15 15.4 0 
-15 15.8 0 -15 15.2 0 -15 15 0 
-15 15.6 0 -9 15.4 0 -9 15.2 0 
-9 15 0 -9 15.8 0 -9 15.6 0 
-3 15.4 0 -3 15.2 0 -3 15.8 0 
-3 15 0 -3 15.6 0 9 15.6667 0 
9 15 0 9 15.3333 0 9 15.8333 0 
9 15.1667 0 9 15.5 0 15 15.8 0 
15 15 0 15 15.6 0 15 15.4 0 
15 15.2 0 -14.6 16 0 -14.8 16 0 
-15 16 0 -14.4 16 0 -14.2 16 0 
-14 16 0 -13.4 16 0 -13.2 16 0 
-13.8 16 0 -13.6 16 0 -12.2 16 0 
-12.6 16 0 -12.8 16 0 -12.4 16 0 
-13 16 0 -11.2 16 0 -11.6 16 0 
-12 16 0 -11.4 16 0 -11.8 16 0 
-10.2 16 0 -10.8 16 0 -10.6 16 0 
-11 16 0 -10.4 16 0 -9.6 16 0 
-9.4 16 0 -9.2 16 0 -10 16 0 
-9.8 16 0 -8.2 16 0 -8.8 16 0 
-9 16 0 -8.6 16 0 -8.4 16 0 
-8 16 0 -7.8 16 0 -7.6 16 0 
-7.2 16 0 -7.4 16 0 -7 16 0 
-6.8 16 0 -6.2 16 0 -6.6 16 0 
-6.4 16 0 -5.2 16 0 -5.8 16 0 
-6 16 0 -5.4 16 0 -5.6 16 0 
-4.8 16 0 -5 16 0 -4.6 16 0 
-4.2 16 0 -4.4 16 0 -4 16 0 
-3.4 16 0 -3.8 16 0 -3.6 16 0 
-3.2 16 0 -2.6 16 0 -3 16 0 
-2.4 16 0 -2.8 16 0 -2.2 16 0 
-2 16 0 -1.2 16 0 -1.4 16 0 
-1.8 16 0 -1.6 16 0 -0.6 16 0 
-0.8 16 0 -1 16 0 -0.2 16 0 
-0.4 16 0 0.8 16 0 0.2 16 0 
0.6 16 0 -0 16 0 0.4 16 0 
1 16 0 1.8 16 0 1.6 16 0 
1.4 16 0 1.2 16 0 2.6 16 0 
2.4 16 0 2.2 16 0 2 16 0 
2.8 16 0 3.8 16 0 3.6 16 0 
3.2 16 0 3 16 0 3.4 16 0 
4 16 0 4.8 16 0 4.6 16 0 
4.4 16 0 4.2 16 0 5.8 16 0 
5.2 16 0 5.6 16 0 5 16 0 
5.4 16 0 6.4 16 0 6.8 16 0 
6.6 16 0 6.2 16 0 6 16 0 
7.8 16 0 7.6 16 0 7.2 16 0 
7 16 0 7.4 16 0 8.2 16 0 
8.6 16 0 8.4 16 0 8 16 0 
8.8 16 0 9.6 16 0 9.4 16 0 
9 16 0 9.8 16 0 9.2 16 0 
10 16 0 10.2 16 0 10.4 16 0 
10.6 16 0 10.8 16 0 11.8 16 0 
11 16 0 11.4 16 0 11.6 16 0 
11.2 16 0 12.4 16 0 12.8 16 0 
12.6 16 0 12.2 16 0 12 16 0 
13.4 16 0 13.8 16 0 13 16 0 
13.6 16 0 13.2 16 0 14.8 16 0 
14 16 0 14.2 16 0 14.4 16 0 
14.6 16 0 15 16 0 
gid 1 1049 double
1 1 1 1 1 1 1 1 1 
1 1 1 1 1 2 2 2 2 
2 2 2 2 2 2 2 2 2 
2 2 2 2 2 2 2 2 2 
1 2 2 2 2 2 2 2 2 
2 2 2 2 2 2 2 2 2 
2 2 2 2 2 2 2 2 2 
2 2 2 2 2 2 2 2 2 
2 2 2 2 2 2 2 2 2 
2 2 2 2 2 2 2 2 2 
2 2 2 2 2 2 2 2 2 
2 2 2 2 2 2 2 2 2 
2 2 2 2 2 2 2 2 2 
2 2 2 2 2 2 2 2 2 
2 2 2 2 2 2 2 2 2 
2 2 2 2 2 2 2 2 2 
2 2 2 2 2 2 2 2 2 
2 2 2 2 2 2 2 2 2 
2 2 2 2 2 2 1 2 2 
2 1 2 2 2 2 2 2 2 
2 2 2 2 2 2 2 2 2 
2 2 2 2 2 2 1 1 2 
2 2 2 2 2 2 2 2 2 
2 2 2 2 2 2 2 2 2 
2 1 2 2 2 2 2 2 2 
2 2 2 1 2 2 2 2 2 
2 2 2 2 2 2 2 2 2 
2 2 2 2 2 2 2 2 2 
2 2 2 2 2 2 2 1 1 
1 2 2 2 2 2 2 2 2 
2 2 2 2 2 2 2 2 2 
2 2 2 1 1 2 2 2 2 
2 2 2 2 2 2 1 2 2 
2 2 2 2 2 2 2 2 2 
2 2 2 2 1 2 2 2 2 
2 1 2 2 2 2 2 2 2 
2 2 2 1 1 1 2 2 2 
2 2 2 2 2 2 2 1 1 
2 2 2 2 2 1 2 2 2 
2 2 1 2 2 2 2 2 2 
2 2 2 2 1 2 2 2 2 
2 1 1 2 2 2 2 2 1 
1 1 2 2 2 2 2 1 1 
2 2 2 2 2 1 1 1 2 
2 2 2 2 2 2 2 2 2 
1 1 1 2 2 2 2 2 1 
1 2 2 2 2 2 1 2 2 
2 2 2 1 1 2 2 1 2 
2 2 1 1 2 2 2 2 2 
2 2 2 2 2 1 1 1 2 
2 2 2 2 1 2 2 1 2 
2 2 2 2 2 1 1 2 2 
1 2 2 2 2 2 2 2 2 
2 2 2 2 2 2 2 2 2 
2 2 2 2 2 2 2 2 1 
2 1 2 2 2 2 1 2 2 
2 2 2 2 2 2 2 2 2 
2 2 2 2 2 2 2 2 2 
2 2 2 1 2 2 2 2 1 
2 1 2 2 2 1 1 2 2 
2 2 2 1 2 2 2 2 2 
2 1 2 1 2 1 2 2 2 
2 2 2 2 2 2 2 1 1 
1 1 1 1 1 1 1 1 1 
1 1 2 2 2 2 2 2 2 
2 2 2 2 2 2 2 2 2 
1 2 2 2 2 2 2 2 2 
2 2 2 2 2 2 2 2 2 
2 2 2 2 2 2 2 2 2 
2 2 2 2 2 2 2 2 2 
2 2 2 2 1 2 2 1 1 
2 2 2 2 2 2 2 2 2 
2 2 2 2 2 2 2 2 2 
2 2 2 2 2 2 2 2 2 
2 2 2 2 2 2 2 2 2 
2 2 2 2 2 2 2 2 2 
2 2 2 2 2 2 2 2 2 
2 2 2 2 2 2 2 2 2 
2 2 2 2 2 2 2 2 2 
2 2 2 2 2 2 2 2 2 
2 2 2 2 2 2 2 2 2 
2 2 2 2 2 2 1 2 2 
2 2 1 2 1 2 2 2 2 
2 2 2 2 2 2 2 2 2 
2 2 2 2 2 2 2 2 2 
2 2 2 2 1 1 2 2 2 
2 2 1 2 2 2 2 2 2 
2 2 2 2 2 2 2 2 2 
2 2 2 2 2 1 2 2 2 
2 2 1 2 2 2 2 2 2 
2 2 2 2 2 2 2 2 2 
2 2 2 2 2 1 2 2 1 
2 2 2 1 1 1 2 2 2 
2 2 2 2 2 2 2 2 2 
2 2 2 2 2 2 2 2 1 
1 1 1 1 1 1 1 1 1 
2 1 1 2 2 2 2 2 2 
2 2 2 2 2 2 2 2 2 
2 2 2 2 2 2 2 2 2 
2 2 2 2 2 2 2 2 2 
2 2 2 2 2 2 2 2 2 
2 2 2 2 2 2 2 2 2 
2 2 2 2 2 2 2 2 2 
2 2 2 2 2 2 2 2 2 
2 2 2 2 2 2 2 2 2 
2 2 2 2 2 2 2 2 2 
2 2 2 2 2 2 2 2 2 
2 2 2 2 2 2 2 2 2 
2 2 2 2 2 2 2 2 2 
2 2 2 2 2 2 2 2 2 
2 2 2 2 2 2 2 2 2 
2 2 2 2 2 2 2 2 2 
2 2 2 2 2 2 2 2 2 
2 2 2 2 2 2 2 2 2 
2 2 2 2 2 2 2 2 2 
2 2 2 2 2 2 2 2 2 
2 2 2 2 2 
A 1 1049 double
10 10 10 10 10 10 10 10 10 
10 10 10 10 10 10 10 10 10 
10 10 10 10 10 10 10 10 10 
10 10 10 10 10 10 10 10 10 
10 10 10 10 10 10 10 10 10 
10 10 10 10 10 10 10 10 10 
10 10 10 10 10 10 10 10 10 
10 10 10 10 10 10 10 10 10 
10 10 10 10 10 10 10 10 10 
10 10 10 10 10 10 10 10 10 
10 10 10 10 10 10 10 10 10 
10 10 10 10 10 10 10 10 10 
10 10 10 10 10 10 10 10 10 
10 10 10 10 10 10 10 10 10 
10 10 10 10 10 10 10 10 10 
10 10 10 10 10 10 10 10 10 
10 10 10 10 10 10 10 10 10 
10 10 10 10 10 10 10 10 10 
10 10 10 10 10 10 10 10 10 
10 10 10 10 10 10 10 10 10 
10 10 10 10 10 10 10 10 10 
10 10 10 10 10 10 10 10 10 
10 10 10 10 10 10 10 10 10 
10 10 10 10 10 10 10 10 10 
10 10 10 10 10 10 10 10 10 
10 10 10 10 10 10 10 10 10 
10 10 10 10 10 10 10 10 10 
10 10 10 10 10 10 10 10 10 
10 10 10 10 10 10 10 10 10 
10 10 10 10 10 10 10 10 10 
10 10 10 10 10 10 10 10 10 
10 10 10 10 10 10 10 10 10 
10 10 10 10 10 10 10 10 10 
10 10 10 10 10 10 10 10 10 
10 10 10 10 10 10 10 10 10 
10 10 10 10 10 10 10 10 10 
10 10 10 10 10 10 10 10 10 
10 10 10 10 10 10 10 10 10 
10 10 10 10 10 10 10 10 10 
10 10 10 10 10 10 10 10 10 
10 10 10 10 10 10 10 10 10 
10 10 10 10 10 10 10 10 10 
10 10 10 10 10 10 10 10 10 
10 10 10 10 10 10 10 10 10 
10 10 10 10 10 10 10 10 10 
10 10 10 10 10 10 10 10 10 
10 10 10 10 10 10 10 10 10 
10 10 10 10 10 10 10 10 10 
10 10 10 10 10 10 10 10 10 
10 10 10 10 10 10 10 10 10 
10 10 10 10 10 10 10 10 10 
10 10 10 10 10 10 10 10 10 
10 10 10 10 10 10 10 10 10 
10 10 10 10 10 10 10 10 10 
10 10 10 10 10 10 10 10 10 
10 10 10 10 10 10 10 10 10 
10 10 10 10 10 10 10 10 10 
10 10 10 10 10 10 10 10 10 
10 10 10 10 10 10 10 10 10 
10 10 10 10 10 10 10 10 10 
10 10 10 10 10 10 10 10 10 
10 10 10 10 10 10 10 10 10 
10 10 10 10 10 10 10 10 10 
10 10 10 10 10 10 10 10 10 
10 10 10 10 10 10 10 10 10 
10 10 10 10 10 10 10 10 10 
10 10 10 10 10 10 10 10 10 
10 10 10 10 10 10 10 10 10 
10 10 10 10 10 10 10 10 10 
10 10 10 10 10 10 10 10 10 
10 10 10 10 10 10 10 10 10 
10 10 10 10 10 10 10 10 10 
10 10 10 10 10 10 10 10 10 
10 10 10 10 10 10 10 10 10 
10 10 10 10 10 10 10 10 10 
10 10 10 10 10 10 10 10 10 
10 10 10 10 10 10 10 10 10 
10 10 10 10 10 10 10 10 10 
10 10 10 10 10 10 10 10 10 
10 10 10 10 10 10 10 10 10 
10 10 10 10 10 10 10 10 10 
10 10 10 10 10 10 10 10 10 
10 10 10 10 10 10 10 10 10 
10 10 10 10 10 10 10 10 10 
10 10 10 10 10 10 10 10 10 
10 10 10 10 10 10 10 10 10 
10 10 10 10 10 10 10 10 10 
10 10 10 10 10 10 10 10 10 
10 10 10 10 10 10 10 10 10 
10 10 10 10 10 10 10 10 10 
10 10 10 10 10 10 10 10 10 
10 10 10 10 10 10 10 10 10 
10 10 10 10 10 10 10 10 10 
10 10 10 10 10 10 10 10 10 
10 10 10 10 10 10 10 10 10 
10 10 10 10 10 10 10 10 10 
10 10 10 10 10 10 10 10 10 
10 10 10 10 10 10 10 10 10 
10 10 10 10 10 10 10 10 10 
10 10 10 10 10 10 10 10 10 
10 10 10 10 10 10 10 10 10 
10 10 10 10 10 10 10 10 10 
10 10 10 10 10 10 10 10 10 
10 10 10 10 10 10 10 10 10 
10 10 10 10 10 10 10 10 10 
10 10 10 10 10 10 10 10 10 
10 10 10 10 10 10 10 10 10 
10 10 10 10 10 10 10 10 10 
10 10 10 10 10 10 10 10 10 
10 10 10 10 10 10 10 10 10 
10 10 10 10 10 10 10 10 10 
10 10 10 10 10 10 10 10 10 
10 10 10 10 10 10 10 10 10 
10 10 10 10 10 10 10 10 10 
10 10 10 10 10 10 10 10 10 
10 10 10 10 10 10 10 10 10 
10 10 10 10 10 
B 1 1049 double
0.2 0.2 0.2 0.2 0.2 0.2 0.2 0.2 0.2 
0.2 0.2 0.2 0.2 0.2 0.2 0.2 0.2 0.2 
0.2 0.2 0.2 0.2 0.2 0.2 0.2 0.2 0.2 
0.2 0.2 0.2 0.2 0.2 0.2 0.2 0.2 0.2 
0.2 0.2 0.2 0.2 0.2 0.2 0.2 0.2 0.2 
0.2 0.2 0.2 0.2 0.2 0.2 0.2 0.2 0.2 
0.2 0.2 0.2 0.2 0.2 0.2 0.2 0.2 0.2 
0.2 0.2 0.2 0.2 0.2 0.2 0.2 0.2 0.2 
0.2 0.2 0.2 0.2 0.2 0.2 0.2 0.2 0.2 
0.2 0.2 0.2 0.2 0.2 0.2 0.2 0.2 0.2 
0.2 0.2 0.2 0.2 0.2 0.2 0.2 0.2 0.2 
0.2 0.2 0.2 0.2 0.2 0.2 0.2 0.2 0.2 
0.2 0.2 0.2 0.2 0.2 0.2 0.2 0.2 0.2 
0.2 0.2 0.2 0.2 0.2 0.2 0.2 0.2 0.2 
0.2 0.2 0.2 0.2 0.2 0.2 0.2 0.2 0.2 
0.2 0.2 0.2 0.2 0.2 0.2 0.2 0.2 0.2 
0.2 0.2 0.2 0.2 0.2 0.2 0.2 0.2 0.2 
0.2 0.2 0.2 0.2 0.2 0.2 0.2 0.2 0.2 
0.2 0.2 0.2 0.2 0.2 0.2 0.2 0.2 0.2 
0.2 0.2 0.2 0.2 0.2 0.2 0.2 0.2 0.2 
0.2 0.2 0.2 0.2 0.2 0.2 0.2 0.2 0.2 
0.2 0.2 0.2 0.2 0.2 0.2 0.2 0.2 0.2 
0.2 0.2 0.2 0.2 0.2 0.2 0.2 0.2 0.2 
0.2 0.2 0.2 0.2 0.2 0.2 0.2 0.2 0.2 
0.2 0.2 0.2 0.2 0.2 0.2 0.2 0.2 0.2 
0.2 0.2 0.2 0.2 0.2 0.2 0.2 0.2 0.2 
0.2 0.2 0.2 0.2 0.2 0.2 0.2 0.2 0.2 
0.2 0.2 0.2 0.2 0.2 0.2 0.2 0.2 0.2 
0.2 0.2 0.2 0.2 0.2 0.2 0.2 0.2 0.2 
0.2 0.2 0.2 0.2 0.2 0.2 0.2 0.2 0.2 
0.2 0.2 0.2 0.2 0.2 0.2 0.2 0.2 0.2 
0.2 0.2 0.2 0.2 0.2 0.2 0.2 0.2 0.2 
0.2 0.2 0.2 0.2 0.2 0.2 0.2 0.2 0.2 
0.2 0.2 0.2 0.2 0.2 0.2 0.2 0.2 0.2 
0.2 0.2 0.2 0.2 0.2 0.2 0.2 0.2 0.2 
0.2 0.2 0.2 0.2 0.2 0.2 0.2 0.2 0.2 
0.2 0.2 0.2 0.2 0.2 0.2 0.2 0.2 0.2 
0.2 0.2 0.2 0.2 0.2 0.2 0.2 0.2 0.2 
0.2 0.2 0.2 0.2 0.2 0.2 0.2 0.2 0.2 
0.2 0.2 0.2 0.2 0.2 0.2 0.2 0.2 0.2 
0.2 0.2 0.2 0.2 0.2 0.2 0.2 0.2 0.2 
0.2 0.2 0.2 0.2 0.2 0.2 0.2 0.2 0.2 
0.2 0.2 0.2 0.2 0.2 0.2 0.2 0.2 0.2 
0.2 0.2 0.2 0.2 0.2 0.2 0.2 0.2 0.2 
0.2 0.2 0.2 0.2 0.2 0.2 0.2 0.2 0.2 
0.2 0.2 0.2 0.2 0.2 0.2 0.2 0.2 0.2 
0.2 0.2 0.2 0.2 0.2 0.2 0.2 0.2 0.2 
0.2 0.2 0.2 0.2 0.2 0.2 0.2 0.2 0.2 
0.2 0.2 0.2 0.2 0.2 0.2 0.2 0.2 0.2 
0.2 0.2 0.2 0.2 0.2 0.2 0.2 0.2 0.2 
0.2 0.2 0.2 0.2 0.2 0.2 0.2 0.2 0.2 
0.2 0.2 0.2 0.2 0.2 0.2 0.2 0.2 0.2 
0.2 0.2 0.2 0.2 0.2 0.2 0.2 0.2 0.2 
0.2 0.2 0.2 0.2 0.2 0.2 0.2 0.2 0.2 
0.2 0.2 0.2 0.2 0.2 0.2 0.2 0.2 0.2 
0.2 0.2 0.2 0.2 0.2 0.2 0.2 0.2 0.2 
0.2 0.2 0.2 0.2 0.2 0.2 0.2 0.2 0.2 
0.2 0.2 0.2 0.2 0.2 0.2 0.2 0.2 0.2 
0.2 0.2 0.2 0.2 0.2 0.2 0.2 0.2 0.2 
0.2 0.2 0.2 0.2 0.2 0.2 0.2 0.2 0.2 
0.2 0.2 0.2 0.2 0.2 0.2 0.2 0.2 0.2 
0.2 0.2 0.2 0.2 0.2 0.2 0.2 0.2 0.2 
0.2 0.2 0.2 0.2 0.2 0.2 0.2 0.2 0.2 
0.2 0.2 0.2 0.2 0.2 0.2 0.2 0.2 0.2 
0.2 0.2 0.2 0.2 0.2 0.2 0.2 0.2 0.2 
0.2 0.2 0.2 0.2 0.2 0.2 0.2 0.2 0.2 
0.2 0.2 0.2 0.2 0.2 0.2 0.2 0.2 0.2 
0.2 0.2 0.2 0.2 0.2 0.2 0.2 0.2 0.2 
0.2 0.2 0.2 0.2 0.2 0.2 0.2 0.2 0.2 
0.2 0.2 0.2 0.2 0.2 0.2 0.2 0.2 0.2 
0.2 0.2 0.2 0.2 0.2 0.2 0.2 0.2 0.2 
0.2 0.2 0.2 0.2 0.2 0.2 0.2 0.2 0.2 
0.2 0.2 0.2 0.2 0.2 0.2 0.2 0.2 0.2 
0.2 0.2 0.2 0.2 0.2 0.2 0.2 0.2 0.2 
0.2 0.2 0.2 0.2 0.2 0.2 0.2 0.2 0.2 
0.2 0.2 0.2 0.2 0.2 0.2 0.2 0.2 0.2 
0.2 0.2 0.2 0.2 0.2 0.2 0.2 0.2 0.2 
0.2 0.2 0.2 0.2 0.2 0.2 0.2 0.2 0.2 
0.2 0.2 0.2 0.2 0.2 0.2 0.2 0.2 0.2 
0.2 0.2 0.2 0.2 0.2 0.2 0.2 0.2 0.2 
0.2 0.2 0.2 0.2 0.2 0.2 0.2 0.2 0.2 
0.2 0.2 0.2 0.2 0.2 0.2 0.2 0.2 0.2 
0.2 0.2 0.2 0.2 0.2 0.2 0.2 0.2 0.2 
0.2 0.2 0.2 0.2 0.2 0.2 0.2 0.2 0.2 
0.2 0.2 0.2 0.2 0.2 0.2 0.2 0.2 0.2 
0.2 0.2 0.2 0.2 0.2 0.2 0.2 0.2 0.2 
0.2 0.2 0.2 0.2 0.2 0.2 0.2 0.2 0.2 
0.2 0.2 0.2 0.2 0.2 0.2 0.2 0.2 0.2 
0.2 0.2 0.2 0.2 0.2 0.2 0.2 0.2 0.2 
0.2 0.2 0.2 0.2 0.2 0.2 0.2 0.2 0.2 
0.2 0.2 0.2 0.2 0.2 0.2 0.2 0.2 0.2 
0.2 0.2 0.2 0.2 0.2 0.2 0.2 0.2 0.2 
0.2 0.2 0.2 0.2 0.2 0.2 0.2 0.2 0.2 
0.2 0.2 0.2 0.2 0.2 0.2 0.2 0.2 0.2 
0.2 0.2 0.2 0.2 0.2 0.2 0.2 0.2 0.2 
0.2 0.2 0.2 0.2 0.2 0.2 0.2 0.2 0.2 
0.2 0.2 0.2 0.2 0.2 0.2 0.2 0.2 0.2 
0.2 0.2 0.2 0.2 0.2 0.2 0.2 0.2 0.2 
0.2 0.2 0.2 0.2 0.2 0.2 0.2 0.2 0.2 
0.2 0.2 0.2 0.2 0.2 0.2 0.2 0.2 0.2 
0.2 0.2 0.2 0.2 0.2 0.2 0.2 0.2 0.2 
0.2 0.2 0.2 0.2 0.2 0.2 0.2 0.2 0.2 
0.2 0.2 0.2 0.2 0.2 0.2 0.2 0.2 0.2 
0.2 0.2 0.2 0.2 0.2 0.2 0.2 0.2 0.2 
0.2 0.2 0.2 0.2 0.2 0.2 0.2 0.2 0.2 
0.2 0.2 0.2 0.2 0.2 0.2 0.2 0.2 0.2 
0.2 0.2 0.2 0.2 0.2 0.2 0.2 0.2 0.2 
0.2 0.2 0.2 0.2 0.2 0.2 0.2 0.2 0.2 
0.2 0.2 0.2 0.2 0.2 0.2 0.2 0.2 0.2 
0.2 0.2 0.2 0.2 0.2 0.2 0.2 0.2 0.2 
0.2 0.2 0.2 0.2 0.2 0.2 0.2 0.2 0.2 
0.2 0.2 0.2 0.2 0.2 0.2 0.2 0.2 0.2 
0.2 0.2 0.2 0.2 0.2 0.2 0.2 0.2 0.2 
0.2 0.2 0.2 0.2 0.2 0.2 0.2 0.2 0.2 
0.2 0.2 0.2 0.2 0.2 0.2 0.2 0.2 0.2 
0.2 0.2 0.2 0.2 0.2 0.2 0.2 0.2 0.2 
0.2 0.2 0.2 0.2 0.2 
c 1 1049 double
0.1 0.1 0.1 0.1 0.1 0.1 0.1 0.1 0.1 
0.1 0.1 0.1 0.1 0.1 0.1 0.1 0.1 0.1 
0.1 0.1 0.1 0.1 0.1 0.1 0.1 0.1 0.1 
0.1 0.1 0.1 0.1 0.1 0.1 0.1 0.1 0.1 
0.1 0.1 0.1 0.1 0.1 0.1 0.1 0.1 0.1 
0.1 0.1 0.1 0.1 0.1 0.1 0.1 0.1 0.1 
0.1 0.1 0.1 0.1 0.1 0.1 0.1 0.1 0.1 
0.1 0.1 0.1 0.1 0.1 0.1 0.1 0.1 0.1 
0.1 0.1 0.1 0.1 0.1 0.1 0.1 0.1 0.1 
0.1 0.1 0.1 0.1 0.1 0.1 0.1 0.1 0.1 
0.1 0.1 0.1 0.1 0.1 0.1 0.1 0.1 0.1 
0.1 0.1 0.1 0.1 0.1 0.1 0.1 0.1 0.1 
0.1 0.1 0.1 0.1 0.1 0.1 0.1 0.1 0.1 
0.1 0.1 0.1 0.1 0.1 0.1 0.1 0.1 0.1 
0.1 0.1 0.1 0.1 0.1 0.1 0.1 0.1 0.1 
0.1 0.1 0.1 0.1 0.1 0.1 0.1 0.1 0.1 
0.1 0.1 0.1 0.1 0.1 0.1 0.1 0.1 0.1 
0.1 0.1 0.1 0.1 0.1 0.1 0.1 0.1 0.1 
0.1 0.1 0.1 0.1 0.1 0.1 0.1 0.1 0.1 
0.1 0.1 0.1 0.1 0.1 0.1 0.1 0.1 0.1 
0.1 0.1 0.1 0.1 0.1 0.1 0.1 0.1 0.1 
0.1 0.1 0.1 0.1 0.1 0.1 0.1 0.1 0.1 
0.1 0.1 0.1 0.1 0.1 0.1 0.1 0.1 0.1 
0.1 0.1 0.1 0.1 0.1 0.1 0.1 0.1 0.1 
0.1 0.1 0.1 0.1 0.1 0.1 0.1 0.1 0.1 
0.1 0.1 0.1 0.1 0.1 0.1 0.1 0.1 0.1 
0.1 0.1 0.1 0.1 0.1 0.1 0.1 0.1 0.1 
0.1 0.1 0.1 0.1 0.1 0.1 0.1 0.1 0.1 
0.1 0.1 0.1 0.1 0.1 0.1 0.1 0.1 0.1 
0.1 0.1 0.1 0.1 0.1 0.1 0.1 0.1 0.1 
0.1 0.1 0.1 0.1 0.1 0.1 0.1 0.1 0.1 
0.1 0.1 0.1 0.1 0.1 0.1 0.1 0.1 0.1 
0.1 0.1 0.1 0.1 0.1 0.1 0.1 0.1 0.1 
0.1 0.1 0.1 0.1 0.1 0.1 0.1 0.1 0.1 
0.1 0.1 0.1 0.1 0.1 0.1 0.1 0.1 0.1 
0.1 0.1 0.1 0.1 0.1 0.1 0.1 0.1 0.1 
0.1 0.1 0.1 0.1 0.1 0.1 0.1 0.1 0.1 
0.1 0.1 0.1 0.1 0.1 0.1 0.1 0.1 0.1 
0.1 0.1 0.1 0.1 0.1 0.1 0.1 0.1 0.1 
0.1 0.1 0.1 0.1 0.1 0.1 0.1 0.1 0.1 
0.1 0.1 0.1 0.1 0.1 0.1 0.1 0.1 0.1 
0.1 0.1 0.1 0.1 0.1 0.1 0.1 0.1 0.1 
0.1 0.1 0.1 0.1 0.1 0.1 0.1 0.1 0.1 
0.1 0.1 0.1 0.1 0.1 0.1 0.1 0.1 0.1 
0.1 0.1 0.1 0.1 0.1 0.1 0.1 0.1 0.1 
0.1 0.1 0.1 0.1 0.1 0.1 0.1 0.1 0.1 
0.1 0.1 0.1 0.1 0.1 0.1 0.1 0.1 0.1 
0.1 0.1 0.1 0.1 0.1 0.1 0.1 0.1 0.1 
0.1 0.1 0.1 0.1 0.1 0.1 0.1 0.1 0.1 
0.1 0.1 0.1 0.1 0.1 0.1 0.1 0.1 0.1 
0.1 0.1 0.1 0.1 0.1 0.1 0.1 0.1 0.1 
0.1 0.1 0.1 0.1 0.1 0.1 0.1 0.1 0.1 
0.1 0.1 0.1 0.1 0.1 0.1 0.1 0.1 0.1 
0.1 0.1 0.1 0.1 0.1 0.1 0.1 0.1 0.1 
0.1 0.1 0.1 0.1 0.1 0.1 0.1 0.1 0.1 
0.1 0.1 0.1 0.1 0.1 0.1 0.1 0.1 0.1 
0.1 0.1 0.1 0.1 0.1 0.1 0.1 0.1 0.1 
0.1 0.1 0.1 0.1 0.1 0.1 0.1 0.1 0.1 
0.1 0.1 0.1 0.1 0.1 0.1 0.1 0.1 0.1 
0.1 0.1 0.1 0.1 0.1 0.1 0.1 0.1 0.1 
0.1 0.1 0.1 0.1 0.1 0.1 0.1 0.1 0.1 
0.1 0.1 0.1 0.1 0.1 0.1 0.1 0.1 0.1 
0.1 0.1 0.1 0.1 0.1 0.1 0.1 0.1 0.1 
0.1 0.1 0.1 0.1 0.1 0.1 0.1 0.1 0.1 
0.1 0.1 0.1 0.1 0.1 0.1 0.1 0.1 0.1 
0.1 0.1 0.1 0.1 0.1 0.1 0.1 0.1 0.1 
0.1 0.1 0.1 0.1 0.1 0.1 0.1 0.1 0.1 
0.1 0.1 0.1 0.1 0.1 0.1 0.1 0.1 0.1 
0.1 0.1 0.1 0.1 0.1 0.1 0.1 0.1 0.1 
0.1 0.1 0.1 0.1 0.1 0.1 0.1 0.1 0.1 
0.1 0.1 0.1 0.1 0.1 0.1 0.1 0.1 0.1 
0.1 0.1 0.1 0.1 0.1 0.1 0.1 0.1 0.1 
0.1 0.1 0.1 0.1 0.1 0.1 0.1 0.1 0.1 
0.1 0.1 0.1 0.1 0.1 0.1 0.1 0.1 0.1 
0.1 0.1 0.1 0.1 0.1 0.1 0.1 0.1 0.1 
0.1 0.1 0.1 0.1 0.1 0.1 0.1 0.1 0.1 
0.1 0.1 0.1 0.1 0.1 0.1 0.1 0.1 0.1 
0.1 0.1 0.1 0.1 0.1 0.1 0.1 0.1 0.1 
0.1 0.1 0.1 0.1 0.1 0.1 0.1 0.1 0.1 
0.1 0.1 0.1 0.1 0.1 0.1 0.1 0.1 0.1 
0.1 0.1 0.1 0.1 0.1 0.1 0.1 0.1 0.1 
0.1 0.1 0.1 0.1 0.1 0.1 0.1 0.1 0.1 
0.1 0.1 0.1 0.1 0.1 0.1 0.1 0.1 0.1 
0.1 0.1 0.1 0.1 0.1 0.1 0.1 0.1 0.1 
0.1 0.1 0.1 0.1 0.1 0.1 0.1 0.1 0.1 
0.1 0.1 0.1 0.1 0.1 0.1 0.1 0.1 0.1 
0.1 0.1 0.1 0.1 0.1 0.1 0.1 0.1 0.1 
0.1 0.1 0.1 0.1 0.1 0.1 0.1 0.1 0.1 
0.1 0.1 0.1 0.1 0.1 0.1 0.1 0.1 0.1 
0.1 0.1 0.1 0.1 0.1 0.1 0.1 0.1 0.1 
0.1 0.1 0.1 0.1 0.1 0.1 0.1 0.1 0.1 
0.1 0.1 0.1 0.1 0.1 0.1 0.1 0.1 0.1 
0.1 0.1 0.1 0.1 0.1 0.1 0.1 0.1 0.1 
0.1 0.1 0.1 0.1 0.1 0.1 0.1 0.1 0.1 
0.1 0.1 0.1 0.1 0.1 0.1 0.1 0.1 0.1 
0.1 0.1 0.1 0.1 0.1 0.1 0.1 0.1 0.1 
0.1 0.1 0.1 0.1 0.1 0.1 0.1 0.1 0.1 
0.1 0.1 0.1 0.1 0.1 0.1 0.1 0.1 0.1 
0.1 0.1 0.1 0.1 0.1 0.1 0.1 0.1 0.1 
0.1 0.1 0.1 0.1 0.1 0.1 0.1 0.1 0.1 
0.1 0.1 0.1 0.1 0.1 0.1 0.1 0.1 0.1 
0.1 0.1 0.1 0.1 0.1 0.1 0.1 0.1 0.1 
0.1 0.1 0.1 0.1 0.1 0.1 0.1 0.1 0.1 
0.1 0.1 0.1 0.1 0.1 0.1 0.1 0.1 0.1 
0.1 0.1 0.1 0.1 0.1 0.1 0.1 0.1 0.1 
0.1 0.1 0.1 0.1 0.1 0.1 0.1 0.1 0.1 
0.1 0.1 0.1 0.1 0.1 0.1 0.1 0.1 0.1 
0.1 0.1 0.1 0.1 0.1 0.1 0.1 0.1 0.1 
0.1 0.1 0.1 0.1 0.1 0.1 0.1 0.1 0.1 
0.1 0.1 0.1 0.1 0.1 0.1 0.1 0.1 0.1 
0.1 0.1 0.1 0.1 0.1 0.1 0.1 0.1 0.1 
0.1 0.1 0.1 0.1 0.1 0.1 0.1 0.1 0.1 
0.1 0.1 0.1 0.1 0.1 0.1 0.1 0.1 0.1 
0.1 0.1 0.1 0.1 0.1 0.1 0.1 0.1 0.1 
0.1 0.1 0.1 0.1 0.1 0.1 0.1 0.1 0.1 
0.1 0.1 0.1 0.1 0.1 0.1 0.1 0.1 0.1 
0.1 0.1 0.1 0.1 0.1 
m 1 1049 double
56.755 91.315 65.975 76.33 75.77 53.285 94.14 84.655 65.745 
62.64 90.92 83.88 61.625 84.935 96.915 63.77 56.63 59.805 
90.21 74.595 86.865 72.105 71.295 81.145 91.575 71.62 92.685 
71.85 75.99 68.92 54.43 67.63 82.065 63.885 94.9 80.455 
94.295 99.78 95.85 59.365 84.31 86.405 84.98 85.42 61.525 
81.635 51.68 54.625 84.575 56.565 94.72 82.525 66.01 54.23 
91.01 67.53 58.645 79.285 69.475 80.62 52.725 97.91 66.835 
94.07 70.215 51.82 77.17 55.435 86.38 85.89 84.04 68.75 
67.92 63.255 78.94 77.015 63.77 98.38 75.3 66.84 61.995 
99.66 91.95 92.93 88.965 76.7 58.41 64.145 50.06 88.695 
81.13 90.47 52.85 57.17 53.975 87.695 51.89 50.485 64.51 
87.335 83.005 52.46 86.505 83.26 53.78 66.585 97.205 69.325 
51.4 71.43 98.445 73.645 83.095 92.2 90.155 92.22 89.44 
90.485 91.69 94.935 90.585 78.855 91.675 72.405 77.165 53.375 
89.28 53.545 94.635 72.835 61.765 84.825 72.93 76.53 97.485 
93.12 73.415 57.64 81.095 64.355 50.095 91.35 78.66 94.145 
97.515 66.84 90.745 98.54 81.7 83.575 78.645 53.615 67.295 
64.23 55.5 76.93 68.09 61.225 63.09 88.98 87.44 88.82 
64.605 67.255 61.895 67.775 91.14 52.46 95.485 99.205 75.965 
83.245 99.255 61.75 84.935 50.62 85.17 74.57 88.82 57.5 
61.135 79.28 68.715 91.825 82.455 57.105 62.755 57.16 99.295 
59.68 88.105 53.065 97.835 62.52 66.025 93.885 97.585 54.34 
97.64 83.92 60.105 64.21 53.715 78.975 89.94 61.46 65.72 
80.945 61.37 81.775 88.205 83.1 56.94 90.125 97.19 65.37 
56.165 56.49 96.14 77.035 82.185 66.375 57.37 59.965 77.895 
90.71 59.3 79.42 53.87 52.49 99.79 99.54 75.945 94.36 
76.835 89.855 76.19 51.445 84.745 98.05 50.45 72.06 94.845 
97.395 68.405 51.35 67.465 51.79 90.785 94.29 71.975 56.185 
80.605 80.145 94.25 86.275 58.88 76.365 73.845 92.105 69.85 
89.775 66.515 94.04 81.24 88.765 90.18 81.675 64.5 65.885 
76.715 82.145 96.07 91.775 56.56 67.56 59.43 67.085 77.845 
53.495 59.195 91.815 88.61 91.99 68.965 72.14 79.09 91.175 
80.715 55.775 51.895 90.02 79.97 88.66 91.415 60.665 64.45 
98.77 58.24 66.665 78.145 50.245 54.82 91.425 52.52 54.285 
95.4 93.135 98.155 92.965 96.84 63.11 82.155 65.865 93.97 
99.235 63.205 93.88 97.645 55.055 79.64 62.02 91.045 92.905 
62.95 94.095 96.68 76.76 95.63 90.795 72.5 58.73 87.835 
51.84 97.645 80.635 58.46 60.67 61.075 71.695 74.925 72.76 
63.235 95.255 94.73 61.45 84.85 96.67 87.31 83.41 96.95 
71.46 78.955 68.31 78.815 93.03 73.065 72.69 72.215 53.565 
80.95 61.49 52.62 69.49 58.915 98.985 68.94 90.23 84.95 
81.245 85.085 73.465 92.69 80.795 75.755 62.675 88.235 93.81 
54.355 67.14 74.97 82.76 74.58 67.645 77.89 72.85 62.195 
75.575 57.605 92.87 80.785 75.285 60.985 75.995 71.55 53.44 
75.64 74.09 64.52 84.2 96.495 56.11 76.925 80.21 83.2 
53.195 73.95 92.83 51.265 76.815 66.515 62.485 65.165 52.64 
77.41 53.405 82.015 52.14 72.5 60.01 86.67 63.63 71.73 
86.93 75.5 81.56 79.025 81.085 57.455 59.735 82.91 75.105 
64.755 96.155 69.45 62.455 66.62 86.845 89.585 99.585 84.98 
88.125 59.86 69.25 88.36 96.46 65.415 56.77 51.995 88.43 
74.46 95.625 61.81 55.76 54.265 69.98 77.18 91.91 95.94 
68.645 62.3 95.785 79.875 50.135 98.36 51.54 69.605 67.07 
82.95 81.52 93.45 52.3 90.25 90.135 83.74 50.14 94.51 
87.78 88.485 55.215 73.97 93.495 55.195 67.705 69.13 71.16 
61.305 52.845 50.295 90.115 95.585 80.21 51.8 50.405 67.685 
83.805 93.285 65.95 88.815 81.545 77.125 82.53 94.98 69.63 
58.13 53.45 72.62 73.385 71.17 81.835 65.84 98.07 91.025 
80.285 51.79 84.28 52.085 72.83 88.85 52.7 86.42 53.03 
65.295 79.245 86.025 65.345 61.3 51.185 76.085 92.59 54.985 
67.13 65.86 74.725 53.915 95.86 81.82 63.675 84.365 54.365 
88.185 92.29 52.415 77.555 71.445 83.035 52.39 63.785 72.355 
96.57 95.075 78.68 86.39 65.345 58.805 92.45 97.35 77.495 
88.715 60.915 50.42 56.98 86.345 78.15 70.405 84.075 50.495 
54.55 97.965 80.435 59.26 75 64.785 62.775 83.255 80.635 
50.185 64.86 77.95 83.625 78.22 98.86 87.525 69.6 89.09 
76.18 62.11 76.055 87.8 69.75 50.635 83.29 96.12 76.84 
88.325 75.525 62.835 52.815 50.245 56.22 99.67 93.555 86.875 
66.455 59.025 68.84 67.945 94.965 94.775 68.07 74.59 74.11 
84.41 64.025 84.91 54.625 83.55 65.465 81.64 70.15 96.455 
70.09 57.87 83.585 82.145 86.085 85.45 84.18 69.29 84.815 
75.275 90.65 74.52 56.965 71.125 92.28 63.305 55.865 57.705 
92.855 63.02 65.365 98.425 98.165 84.255 73.945 96.25 89.34 
82.515 99.025 97.425 87.58 60.975 76.625 64.745 78.91 67.58 
55.405 73.195 95.03 83.815 55.6 54.835 88.385 51.13 52.98 
87.8 54.325 69.905 95.18 96.055 81.71 89.775 67.59 88.85 
91.35 61.895 62.66 86.605 75.98 74.92 72.135 70.86 60.2 
71.17 86.99 55.315 86.415 50.36 79.15 68.57 52.865 51.735 
60.15 84.75 70.235 87.61 80.295 84.62 75.41 96.02 52.215 
56.16 64.77 97.175 95.795 78.2 71.39 77.43 59.49 55.205 
96.31 99.24 51.31 98.415 58.615 91.62 90.835 64.03 81.36 
83.64 69.795 78.985 95.61 86.675 79.105 70.77 96.825 87.285 
55.855 58.88 63.735 51.345 76.09 73.265 59.25 58.515 99.665 
93.505 54.535 69.135 57.65 79.28 70.49 64.31 68.7 52.685 
75.27 70.15 88.345 75.615 98.93 90.695 64.77 58.525 81.14 
55.635 95.75 79.92 57.43 51.265 50.63 82.965 52.715 80.695 
58.98 65.01 61.155 77.02 92.06 54.76 56.54 85.42 63.49 
76.67 93.6 77.105 97.535 90.41 92.71 50.985 92.32 78.335 
79.695 69.7 99.055 99.52 89.07 91.885 73.565 65.37 90.895 
69.85 96.09 72.9 61.69 95.105 94.77 81.88 54.955 55.26 
63.575 94.49 88.58 96.775 81.74 68.11 94.02 93.055 76.605 
88.605 74.095 72.995 56.275 78.55 64.595 78.875 73.81 85.44 
63.425 74.06 74.885 99.31 76.895 86.805 62.53 57.795 61.75 
75.855 70.05 90.945 54.44 50.04 54.64 89.14 77.84 78.73 
96.495 86.715 86.86 96.505 88.565 91.03 87.935 51.175 83.66 
55.085 51.73 51.47 70.88 57.68 99.52 67.415 96.035 67.185 
91.705 83.05 82.225 94.88 92.885 56.345 59.44 86.4 60.355 
65.675 83.105 61.965 66.555 88.025 71.7 77.11 69.05 61.68 
58.295 76.05 81.71 60.045 75.765 78.455 55.685 62.865 69.715 
98.72 74.285 99.555 98.795 67.495 88.215 70.335 56.8 51.685 
55.68 98.09 56.525 59.005 74.39 68.65 78.305 66.74 60.86 
69.645 97.06 84.435 92.09 87.225 95.535 95.895 98.78 60.45 
66.88 77.71 88.42 79.68 55.475 82.33 56.7 64.63 75.42 
64.795 98.34 64.065 85.95 68.865 89.905 85.995 50.815 64.98 
94.495 74.65 93.3 99.01 79.47 94.665 69.405 85.655 54.865 
87.34 50.355 77.75 96.895 60.18 59.495 67.26 64.62 78.12 
63 88.185 60.31 91.41 66.29 67.08 67.325 83.54 92.61 
93.68 93.13 97.22 96.6 91.12 70.11 65.545 95.08 82.695 
50 75.405 75.265 66.89 90.545 79.945 56.69 95.57 90.335 
97.13 82.66 76.115 61.155 75.735 83.935 60.61 50.895 74.25 
69.375 56.405 55.655 76.75 61.27 82.95 69.065 73.015 80.405 
57.47 89.285 95.905 78.6 87.435 50.905 89.91 62.165 93.61 
96.48 77.02 97.075 94.125 51.485 95.67 50.16 52.755 84.46 
98.54 85.285 92.53 65.905 52.075 99.995 61.485 59.81 52.975 
87.415 94.885 50.77 75.055 56.545 78.88 62.935 99.66 66.91 
75.105 71.33 88.425 67.815 68.41 96.055 94.3 54.65 72.915 
79.95 71.425 95.43 70.58 59.46 86.57 79.1 57.38 87.45 
87.625 77.64 94.195 87.625 65.29 
p0 3 1049 double
0 -10 0 0 -10 0 0 -10 0 
0 -10 0 0 -10 0 0 -10 0 
0 -10 0 0 -10 0 0 -10 0 
0 -10 0 0 -10 0 0 -10 0 
0 -10 0 0 -10 0 0 0 0 
0 0 0 0 0 0 0 0 0 
0 0 0 0 0 0 0 0 0 
0 0 0 0 0 0 0 0 0 
0 0 0 0 0 0 0 0 0 
0 0 0 0 0 0 0 0 0 
0 0 0 0 0 0 0 0 0 
0 0 0 0 0 0 0 0 0 
-12 0 0 0 0 0 0 0 0 
0 0 0 0 0 0 0 0 0 
0 0 0 0 0 0 0 0 0 
0 0 0 0 0 0 0 0 0 
0 0 0 0 0 0 0 0 0 
0 0 0 0 0 0 0 0 0 
0 0 0 0 0 0 0 0 0 
0 0 0 0 0 0 0 0 0 
0 0 0 0 0 0 0 0 0 
0 0 0 0 0 0 0 0 0 
0 0 0 0 0 0 0 0 0 
0 0 0 0 0 0 0 0 0 
0 0 0 0 0 0 0 0 0 
0 0 0 0 0 0 0 0 0 
0 0 0 0 0 0 0 0 0 
0 0 0 0 0 0 0 0 0 
0 0 0 0 0 0 0 0 0 
0 0 0 0 0 0 0 0 0 
0 0 0 0 0 0 0 0 0 
0 0 0 0 0 0 0 0 0 
0 0 0 0 0 0 0 0 0 
0 0 0 0 0 0 0 0 0 
0 0 0 0 0 0 0 0 0 
0 0 0 0 0 0 0 0 0 
0 0 0 0 0 0 0 0 0 
0 0 0 0 0 0 0 0 0 
0 0 0 0 0 0 0 0 0 
0 0 0 0 0 0 0 0 0 
0 0 0 0 0 0 0 0 0 
0 0 0 0 0 0 0 0 0 
0 0 0 0 0 0 0 0 0 
0 0 0 0 0 0 0 0 0 
0 0 0 0 0 0 0 0 0 
0 0 0 0 0 0 0 0 0 
0 0 0 0 0 0 0 0 0 
0 0 0 0 0 0 0 0 0 
0 0 0 0 0 0 0 0 0 
0 0 0 0 0 0 0 0 0 
0 0 0 0 0 0 0 0 0 
0 0 0 0 0 0 0 0 0 
0 0 0 0 0 0 0 0 0 
0 0 0 0 0 0 0 0 0 
0 0 0 0 0 0 0 0 0 
0 0 0 0 0 0 0 0 0 
12 0 0 0 0 0 0 0 0 
0 0 0 12 0 0 0 0 0 
0 0 0 0 0 0 0 0 0 
0 0 0 0 0 0 0 0 0 
0 0 0 0 0 0 0 0 0 
0 0 0 0 0 0 0 0 0 
0 0 0 0 0 0 0 0 0 
0 0 0 0 0 0 0 0 0 
0 0 0 0 0 0 0 0 0 
-12 0 0 -12 0 0 0 0 0 
0 0 0 0 0 0 0 0 0 
0 0 0 0 0 0 0 0 0 
0 0 0 0 0 0 0 0 0 
0 0 0 0 0 0 0 0 0 
0 0 0 0 0 0 0 0 0 
0 0 0 0 0 0 0 0 0 
0 0 0 12 0 0 0 0 0 
0 0 0 0 0 0 0 0 0 
0 0 0 0 0 0 0 0 0 
0 0 0 0 0 0 0 0 0 
-12 0 0 0 0 0 0 0 0 
0 0 0 0 0 0 0 0 0 
0 0 0 0 0 0 0 0 0 
0 0 0 0 0 0 0 0 0 
0 0 0 0 0 0 0 0 0 
0 0 0 0 0 0 0 0 0 
0 0 0 0 0 0 0 0 0 
0 0 0 0 0 0 0 0 0 
0 0 0 0 0 0 0 0 0 
0 0 0 0 0 0 0 0 0 
0 0 0 -12 0 0 -12 0 0 
-12 0 0 0 0 0 0 0 0 
0 0 0 0 0 0 0 0 0 
0 0 0 0 0 0 0 0 0 
0 0 0 0 0 0 0 0 0 
0 0 0 0 0 0 0 0 0 
0 0 0 0 0 0 0 0 0 
0 0 0 0 0 0 0 0 0 
12 0 0 12 0 0 0 0 0 
0 0 0 0 0 0 0 0 0 
0 0 0 0 0 0 0 0 0 
0 0 0 0 0 0 0 0 0 
-12 0 0 0 0 0 0 0 0 
0 0 0 0 0 0 0 0 0 
0 0 0 0 0 0 0 0 0 
0 0 0 0 0 0 0 0 0 
0 0 0 0 0 0 0 0 0 
0 0 0 6 8 0 0 0 0 
0 0 0 0 0 0 0 0 0 
0 0 0 12 0 0 0 0 0 
0 0 0 0 0 0 0 0 0 
0 0 0 0 0 0 0 0 0 
0 0 0 0 0 0 0 0 0 
-12 0 0 -12 0 0 -12 0 0 
0 0 0 0 0 0 0 0 0 
0 0 0 0 0 0 0 0 0 
0 0 0 0 0 0 0 0 0 
0 0 0 0 8 0 0 8 0 
0 0 0 0 0 0 0 0 0 
0 0 0 0 0 0 6 8 0 
0 0 0 0 0 0 0 0 0 
0 0 0 0 0 0 12 0 0 
0 0 0 0 0 0 0 0 0 
0 0 0 0 0 0 0 0 0 
0 0 0 0 0 0 0 0 0 
0 0 0 -12 0 0 0 0 0 
0 0 0 0 0 0 0 0 0 
0 0 0 -6 8 0 -6 8 0 
0 0 0 0 0 0 0 0 0 
0 0 0 0 0 0 0 8 0 
0 8 0 0 8 0 0 0 0 
0 0 0 0 0 0 0 0 0 
0 0 0 6 8 0 6 8 0 
0 0 0 0 0 0 0 0 0 
0 0 0 0 0 0 12 0 0 
12 0 0 12 0 0 0 0 0 
0 0 0 0 0 0 0 0 0 
0 0 0 0 0 0 0 0 0 
0 0 0 0 0 0 0 0 0 
-12 0 0 -12 0 0 -12 0 0 
0 0 0 0 0 0 0 0 0 
0 0 0 0 0 0 -6 8 0 
-6 8 0 0 0 0 0 0 0 
0 0 0 0 0 0 0 0 0 
0 8 0 0 0 0 0 0 0 
0 0 0 0 0 0 0 0 0 
6 8 0 6 8 0 0 0 0 
0 0 0 12 0 0 0 0 0 
0 0 0 0 0 0 12 0 0 
12 0 0 0 0 0 0 0 0 
0 0 0 0 0 0 0 0 0 
0 0 0 0 0 0 0 0 0 
0 0 0 0 0 0 -12 0 0 
-12 0 0 -12 0 0 0 0 0 
0 0 0 0 0 0 0 0 0 
0 0 0 -9 9 0 0 0 0 
0 0 0 -9 9 0 0 0 0 
0 0 0 0 0 0 0 0 0 
0 0 0 0 0 0 -9 9 0 
-9 9 0 0 0 0 0 0 0 
-9 9 0 0 0 0 0 0 0 
0 0 0 0 0 0 0 0 0 
0 0 0 0 0 0 0 0 0 
0 0 0 0 0 0 0 0 0 
0 0 0 0 0 0 0 0 0 
0 0 0 0 0 0 0 0 0 
0 0 0 0 0 0 0 0 0 
0 0 0 0 0 0 0 0 0 
0 0 0 0 0 0 -9 9 0 
0 0 0 -9 9 0 0 0 0 
0 0 0 0 0 0 0 0 0 
9 9 0 0 0 0 0 0 0 
0 0 0 0 0 0 0 0 0 
0 0 0 0 0 0 0 0 0 
0 0 0 0 0 0 0 0 0 
0 0 0 0 0 0 0 0 0 
0 0 0 0 0 0 0 0 0 
0 0 0 0 0 0 0 0 0 
0 0 0 0 0 0 0 0 0 
9 9 0 0 0 0 0 0 0 
0 0 0 0 0 0 9 9 0 
0 0 0 9 9 0 0 0 0 
0 0 0 0 0 0 9 9 0 
9 9 0 0 0 0 0 0 0 
0 0 0 0 0 0 0 0 0 
9 9 0 0 0 0 0 0 0 
0 0 0 0 0 0 0 0 0 
0 0 0 9 9 0 0 0 0 
12 0 0 0 0 0 12 0 0 
0 0 0 0 0 0 0 0 0 
0 0 0 0 0 0 0 0 0 
0 0 0 0 0 0 0 0 0 
0 0 0 -12 0 0 -12 0 0 
-9 9 0 -9 9 0 -9 9 0 
-9 9 0 -9 9 0 -9 9 0 
9 9 0 9 9 0 9 9 0 
12 0 0 12 0 0 0 0 0 
0 0 0 0 0 0 0 0 0 
0 0 0 0 0 0 0 0 0 
0 0 0 0 0 0 0 0 0 
0 0 0 0 0 0 0 0 0 
0 0 0 0 0 0 0 0 0 
-13.5 10 0 0 0 0 0 0 0 
0 0 0 0 0 0 0 0 0 
0 0 0 0 0 0 0 0 0 
0 0 0 0 0 0 0 0 0 
0 0 0 0 0 0 0 0 0 
0 0 0 0 0 0 0 0 0 
0 0 0 0 0 0 0 0 0 
0 0 0 0 0 0 0 0 0 
0 0 0 0 0 0 0 0 0 
0 0 0 0 0 0 0 0 0 
0 0 0 0 0 0 0 0 0 
0 0 0 0 0 0 0 0 0 
0 0 0 0 0 0 0 0 0 
0 0 0 -6 10 0 0 0 0 
0 0 0 -6 10 0 -6 10 0 
0 0 0 0 0 0 0 0 0 
0 0 0 0 0 0 0 0 0 
0 0 0 0 0 0 0 0 0 
0 0 0 0 0 0 0 0 0 
0 0 0 0 0 0 0 0 0 
0 0 0 0 0 0 0 0 0 
0 0 0 0 0 0 0 0 0 
0 0 0 0 0 0 0 0 0 
0 0 0 0 0 0 0 0 0 
0 0 0 0 0 0 0 0 0 
0 0 0 0 0 0 0 0 0 
0 0 0 0 0 0 0 0 0 
0 0 0 0 0 0 0 0 0 
0 0 0 0 0 0 0 0 0 
0 0 0 0 0 0 0 0 0 
0 0 0 0 0 0 0 0 0 
0 0 0 0 0 0 0 0 0 
0 0 0 0 0 0 0 0 0 
0 0 0 0 0 0 0 0 0 
0 0 0 0 0 0 0 0 0 
0 0 0 0 0 0 0 0 0 
0 0 0 0 0 0 0 0 0 
0 0 0 0 0 0 0 0 0 
0 0 0 0 0 0 0 0 0 
0 0 0 0 0 0 0 0 0 
0 0 0 0 0 0 0 0 0 
0 0 0 0 0 0 0 0 0 
0 0 0 0 0 0 0 0 0 
0 0 0 0 0 0 0 0 0 
0 0 0 0 0 0 0 0 0 
0 0 0 0 0 0 0 0 0 
0 0 0 0 0 0 0 0 0 
13.5 10 0 0 0 0 0 0 0 
0 0 0 0 0 0 13.5 10 0 
0 0 0 13.5 10 0 0 0 0 
0 0 0 0 0 0 0 0 0 
0 0 0 0 0 0 0 0 0 
0 0 0 0 0 0 0 0 0 
0 0 0 0 0 0 0 0 0 
0 0 0 0 0 0 0 0 0 
0 0 0 0 0 0 0 0 0 
0 0 0 0 0 0 0 0 0 
0 0 0 0 0 0 0 0 0 
0 0 0 9 14.5 0 9 14.5 0 
0 0 0 0 0 0 0 0 0 
0 0 0 0 0 0 13.5 10 0 
0 0 0 0 0 0 0 0 0 
0 0 0 0 0 0 0 0 0 
0 0 0 0 0 0 0 0 0 
0 0 0 0 0 0 0 0 0 
0 0 0 0 0 0 0 0 0 
0 0 0 0 0 0 0 0 0 
0 0 0 0 0 0 9 14.5 0 
0 0 0 0 0 0 0 0 0 
0 0 0 0 0 0 13.5 10 0 
0 0 0 0 0 0 0 0 0 
0 0 0 0 0 0 0 0 0 
0 0 0 0 0 0 0 0 0 
0 0 0 0 0 0 0 0 0 
0 0 0 0 0 0 0 0 0 
0 0 0 0 0 0 0 0 0 
0 0 0 0 0 0 9 14.5 0 
0 0 0 0 0 0 13.5 10 0 
0 0 0 0 0 0 0 0 0 
13.5 10 0 13.5 10 0 13.5 10 0 
0 0 0 0 0 0 0 0 0 
0 0 0 0 0 0 0 0 0 
0 0 0 0 0 0 0 0 0 
0 0 0 0 0 0 0 0 0 
0 0 0 0 0 0 0 0 0 
0 0 0 0 0 0 0 0 0 
0 0 0 0 0 0 9 14.5 0 
9 14.5 0 9 14.5 0 9 14.5 0 
9 14.5 0 9 14.5 0 9 14.5 0 
9 14.5 0 9 14.5 0 9 14.5 0 
0 0 0 13.5 10 0 13.5 10 0 
0 0 0 0 0 0 0 0 0 
0 0 0 0 0 0 0 0 0 
0 0 0 0 0 0 0 0 0 
0 0 0 0 0 0 0 0 0 
0 0 0 0 0 0 0 0 0 
0 0 0 0 0 0 0 0 0 
0 0 0 0 0 0 0 0 0 
0 0 0 0 0 0 0 0 0 
0 0 0 0 0 0 0 0 0 
0 0 0 0 0 0 0 0 0 
0 0 0 0 0 0 0 0 0 
0 0 0 0 0 0 0 0 0 
0 0 0 0 0 0 0 0 0 
0 0 0 0 0 0 0 0 0 
0 0 0 0 0 0 0 0 0 
0 0 0 0 0 0 0 0 0 
0 0 0 0 0 0 0 0 0 
0 0 0 0 0 0 0 0 0 
0 0 0 0 0 0 0 0 0 
0 0 0 0 0 0 0 0 0 
0 0 0 0 0 0 0 0 0 
0 0 0 0 0 0 0 0 0 
0 0 0 0 0 0 0 0 0 
0 0 0 0 0 0 0 0 0 
0 0 0 0 0 0 0 0 0 
0 0 0 0 0 0 0 0 0 
0 0 0 0 0 0 0 0 0 
0 0 0 0 0 0 0 0 0 
0 0 0 0 0 0 0 0 0 
0 0 0 0 0 0 0 0 0 
0 0 0 0 0 0 0 0 0 
0 0 0 0 0 0 0 0 0 
0 0 0 0 0 0 0 0 0 
0 0 0 0 0 0 0 0 0 
0 0 0 0 0 0 0 0 0 
0 0 0 0 0 0 0 0 0 
0 0 0 0 0 0 0 0 0 
0 0 0 0 0 0 0 0 0 
0 0 0 0 0 0 0 0 0 
0 0 0 0 0 0 0 0 0 
0 0 0 0 0 0 0 0 0 
0 0 0 0 0 0 0 0 0 
0 0 0 0 0 0 0 0 0 
0 0 0 0 0 0 0 0 0 
0 0 0 0 0 0 0 0 0 
0 0 0 0 0 0 0 0 0 
0 0 0 0 0 0 0 0 0 
0 0 0 0 0 0 0 0 0 
0 0 0 0 0 0 0 0 0 
0 0 0 0 0 0 0 0 0 
0 0 0 0 0 0 0 0 0 
0 0 0 0 0 0 0 0 0 
0 0 0 0 0 0 0 0 0 
0 0 0 0 0 0 0 0 0 
0 0 0 0 0 0 0 0 0 
0 0 0 0 0 0 0 0 0 
0 0 0 0 0 0 0 0 0 
0 0 0 0 0 0 0 0 0 
0 0 0 0 0 0 0 0 0 
0 0 0 0 0 0 0 0 0 
0 0 0 0 0 0 
v0 1 1049 double
3.4418 3.5598 3.908 3.7348 2.2246 2.087 2.7598 3.1534 2.9072 
3.7604 2.7868 2.2234 3.5868 3.8026 0 0 0 0 
0 0 0 0 0 0 0 0 0 
0 0 0 0 0 0 0 0 0 
3.5098 0 0 0 0 0 0 0 0 
0 0 0 0 0 0 0 0 0 
0 0 0 0 0 0 0 0 0 
0 0 0 0 0 0 0 0 0 
0 0 0 0 0 0 0 0 0 
0 0 0 0 0 0 0 0 0 
0 0 0 0 0 0 0 0 0 
0 0 0 0 0 0 0 0 0 
0 0 0 0 0 0 0 0 0 
0 0 0 0 0 0 0 0 0 
0 0 0 0 0 0 0 0 0 
0 0 0 0 0 0 0 0 0 
0 0 0 0 0 0 0 0 0 
0 0 0 0 0 0 0 0 0 
0 0 0 0 0 0 3.7132 0 0 
0 3.447 0 0 0 0 0 0 0 
0 0 0 0 0 0 0 0 0 
0 0 0 0 0 0 3.3932 3.1552 0 
0 0 0 0 0 0 0 0 0 
0 0 0 0 0 0 0 0 0 
0 3.4192 0 0 0 0 0 0 0 
0 0 0 2.8894 0 0 0 0 0 
0 0 0 0 0 0 0 0 0 
0 0 0 0 0 0 0 0 0 
0 0 0 0 0 0 0 3.3376 2.798 
2.5562 0 0 0 0 0 0 0 0 
0 0 0 0 0 0 0 0 0 
0 0 0 2.9348 3.5394 0 0 0 0 
0 0 0 0 0 0 2.959 0 0 
0 0 0 0 0 0 0 0 0 
0 0 0 0 2.0424 0 0 0 0 
0 3.9438 0 0 0 0 0 0 0 
0 0 0 3.3968 3.5338 3.7722 0 0 0 
0 0 0 0 0 0 0 2.5992 2.6016 
0 0 0 0 0 2.264 0 0 0 
0 0 2.7364 0 0 0 0 0 0 
0 0 0 0 3.7956 0 0 0 0 
0 2.9892 3.236 0 0 0 0 0 2.6138 
2.1056 2.79 0 0 0 0 0 3.5612 2.4594 
0 0 0 0 0 2.105 2.6972 2.2178 0 
0 0 0 0 0 0 0 0 0 
2.5998 2.9892 3.7386 0 0 0 0 0 3.3812 
2.2866 0 0 0 0 0 3.18 0 0 
0 0 0 3.219 3.8554 0 0 3.2294 0 
0 0 3.1134 3.6894 0 0 0 0 0 
0 0 0 0 0 3.4142 3.6802 3.7004 0 
0 0 0 0 3.9802 0 0 2.9862 0 
0 0 0 0 0 3.938 3.4416 0 0 
3.5126 0 0 0 0 0 0 0 0 
0 0 0 0 0 0 0 0 0 
0 0 0 0 0 0 0 0 2.9256 
0 3.4754 0 0 0 0 2.0302 0 0 
0 0 0 0 0 0 0 0 0 
0 0 0 0 0 0 0 0 0 
0 0 0 3.4072 0 0 0 0 2.8338 
0 3.2458 0 0 0 2.192 3.0734 0 0 
0 0 0 2.9518 0 0 0 0 0 
0 3.358 0 2.5702 0 2.8228 0 0 0 
0 0 0 0 0 0 0 3.6034 2.0272 
2.0254 2.726 3.2554 3.7164 2.5352 3.3948 3.8484 2.5666 2.227 
2.3004 2.6856 0 0 0 0 0 0 0 
0 0 0 0 0 0 0 0 0 
3.4388 0 0 0 0 0 0 0 0 
0 0 0 0 0 0 0 0 0 
0 0 0 0 0 0 0 0 0 
0 0 0 0 0 0 0 0 0 
0 0 0 0 2.7916 0 0 2.5898 2.8832 
0 0 0 0 0 0 0 0 0 
0 0 0 0 0 0 0 0 0 
0 0 0 0 0 0 0 0 0 
0 0 0 0 0 0 0 0 0 
0 0 0 0 0 0 0 0 0 
0 0 0 0 0 0 0 0 0 
0 0 0 0 0 0 0 0 0 
0 0 0 0 0 0 0 0 0 
0 0 0 0 0 0 0 0 0 
0 0 0 0 0 0 0 0 0 
0 0 0 0 0 0 2.325 0 0 
0 0 2.5952 0 3.9752 0 0 0 0 
0 0 0 0 0 0 0 0 0 
0 0 0 0 0 0 0 0 0 
0 0 0 0 2.1126 2.0074 0 0 0 
0 0 3.4702 0 0 0 0 0 0 
0 0 0 0 0 0 0 0 0 
0 0 0 0 0 2.1262 0 0 0 
0 0 2.0104 0 0 0 0 0 0 
0 0 0 0 0 0 0 0 0 
0 0 0 0 0 3.2768 0 0 3.053 
0 0 0 3.2878 2.9022 3.991 0 0 0 
0 0 0 0 0 0 0 0 0 
0 0 0 0 0 0 0 0 3.075 
2.7532 3.852 2.2322 2.5972 3.514 2.4322 2.6632 2.1178 3.8268 
0 3.1832 3.3678 0 0 0 0 0 0 
0 0 0 0 0 0 0 0 0 
0 0 0 0 0 0 0 0 0 
0 0 0 0 0 0 0 0 0 
0 0 0 0 0 0 0 0 0 
0 0 0 0 0 0 0 0 0 
0 0 0 0 0 0 0 0 0 
0 0 0 0 0 0 0 0 0 
0 0 0 0 0 0 0 0 0 
0 0 0 0 0 0 0 0 0 
0 0 0 0 0 0 0 0 0 
0 0 0 0 0 0 0 0 0 
0 0 0 0 0 0 0 0 0 
0 0 0 0 0 0 0 0 0 
0 0 0 0 0 0 0 0 0 
0 0 0 0 0 0 0 0 0 
0 0 0 0 0 0 0 0 0 
0 0 0 0 0 0 0 0 0 
0 0 0 0 0 0 0 0 0 
0 0 0 0 0 0 0 0 0 
0 0 0 0 0 
tau 1 1049 double
2 2 2 2 2 2 2 2 2 
2 2 2 2 2 2 2 2 2 
2 2 2 2 2 2 2 2 2 
2 2 2 2 2 2 2 2 2 
2 2 2 2 2 2 2 2 2 
2 2 2 2 2 2 2 2 2 
2 2 2 2 2 2 2 2 2 
2 2 2 2 2 2 2 2 2 
2 2 2 2 2 2 2 2 2 
2 2 2 2 2 2 2 2 2 
2 2 2 2 2 2 2 2 2 
2 2 2 2 2 2 2 2 2 
2 2 2 2 2 2 2 2 2 
2 2 2 2 2 2 2 2 2 
2 2 2 2 2 2 2 2 2 
2 2 2 2 2 2 2 2 2 
2 2 2 2 2 2 2 2 2 
2 2 2 2 2 2 2 2 2 
2 2 2 2 2 2 2 2 2 
2 2 2 2 2 2 2 2 2 
2 2 2 2 2 2 2 2 2 
2 2 2 2 2 2 2 2 2 
2 2 2 2 2 2 2 2 2 
2 2 2 2 2 2 2 2 2 
2 2 2 2 2 2 2 2 2 
2 2 2 2 2 2 2 2 2 
2 2 2 2 2 2 2 2 2 
2 2 2 2 2 2 2 2 2 
2 2 2 2 2 2 2 2 2 
2 2 2 2 2 2 2 2 2 
2 2 2 2 2 2 2 2 2 
2 2 2 2 2 2 2 2 2 
2 2 2 2 2 2 2 2 2 
2 2 2 2 2 2 2 2 2 
2 2 2 2 2 2 2 2 2 
2 2 2 2 2 2 2 2 2 
2 2 2 2 2 2 2 2 2 
2 2 2 2 2 2 2 2 2 
2 2 2 2 2 2 2 2 2 
2 2 2 2 2 2 2 2 2 
2 2 2 2 2 2 2 2 2 
2 2 2 2 2 2 2 2 2 
2 2 2 2 2 2 2 2 2 
2 2 2 2 2 2 2 2 2 
2 2 2 2 2 2 2 2 2 
2 2 2 2 2 2 2 2 2 
2 2 2 2 2 2 2 2 2 
2 2 2 2 2 2 2 2 2 
2 2 2 2 2 2 2 2 2 
2 2 2 2 2 2 2 2 2 
2 2 2 2 2 2 2 2 2 
2 2 2 2 2 2 2 2 2 
2 2 2 2 2 2 2 2 2 
2 2 2 2 2 2 2 2 2 
2 2 2 2 2 2 2 2 2 
2 2 2 2 2 2 2 2 2 
2 2 2 2 2 2 2 2 2 
2 2 2 2 2 2 2 2 2 
2 2 2 2 2 2 2 2 2 
2 2 2 2 2 2 2 2 2 
2 2 2 2 2 2 2 2 2 
2 2 2 2 2 2 2 2 2 
2 2 2 2 2 2 2 2 2 
2 2 2 2 2 2 2 2 2 
2 2 2 2 2 2 2 2 2 
2 2 2 2 2 2 2 2 2 
2 2 2 2 2 2 2 2 2 
2 2 2 2 2 2 2 2 2 
2 2 2 2 2 2 2 2 2 
2 2 2 2 2 2 2 2 2 
2 2 2 2 2 2 2 2 2 
2 2 2 2 2 2 2 2 2 
2 2 2 2 2 2 2 2 2 
2 2 2 2 2 2 2 2 2 
2 2 2 2 2 2 2 2 2 
2 2 2 2 2 2 2 2 2 
2 2 2 2 2 2 2 2 2 
2 2 2 2 2 2 2 2 2 
2 2 2 2 2 2 2 2 2 
2 2 2 2 2 2 2 2 2 
2 2 2 2 2 2 2 2 2 
2 2 2 2 2 2 2 2 2 
2 2 2 2 2 2 2 2 2 
2 2 2 2 2 2 2 2 2 
2 2 2 2 2 2 2 2 2 
2 2 2 2 2 2 2 2 2 
2 2 2 2 2 2 2 2 2 
2 2 2 2 2 2 2 2 2 
2 2 2 2 2 2 2 2 2 
2 2 2 2 2 2 2 2 2 
2 2 2 2 2 2 2 2 2 
2 2 2 2 2 2 2 2 2 
2 2 2 2 2 2 2 2 2 
2 2 2 2 2 2 2 2 2 
2 2 2 2 2 2 2 2 2 
2 2 2 2 2 2 2 2 2 
2 2 2 2 2 2 2 2 2 
2 2 2 2 2 2 2 2 2 
2 2 2 2 2 2 2 2 2 
2 2 2 2 2 2 2 2 2 
2 2 2 2 2 2 2 2 2 
2 2 2 2 2 2 2 2 2 
2 2 2 2 2 2 2 2 2 
2 2 2 2 2 2 2 2 2 
2 2 2 2 2 2 2 2 2 
2 2 2 2 2 2 2 2 2 
2 2 2 2 2 2 2 2 2 
2 2 2 2 2 2 2 2 2 
2 2 2 2 2 2 2 2 2 
2 2 2 2 2 2 2 2 2 
2 2 2 2 2 2 2 2 2 
2 2 2 2 2 2 2 2 2 
2 2 2 2 2 2 2 2 2 
2 2 2 2 2 2 2 2 2 
2 2 2 2 2 2 2 2 2 
2 2 2 2 2 2 2 2 2 
2 2 2 2 2 
R 1 1049 double
0.26351 0.33263 0.28195 0.30266 0.30154 0.25657 0.33828 0.31931 0.28149 
0.27528 0.33184 0.31776 0.27325 0.31987 0.1 0.1 0.1 0.1 
0.1 0.1 0.1 0.1 0.1 0.1 0.1 0.1 0.1 
0.1 0.1 0.1 0.1 0.1 0.1 0.1 0.1 0.1 
0.33859 0.1 0.1 0.1 0.1 0.1 0.1 0.1 0.1 
0.1 0.1 0.1 0.1 0.1 0.1 0.1 0.1 0.1 
0.1 0.1 0.1 0.1 0.1 0.1 0.1 0.1 0.1 
0.1 0.1 0.1 0.1 0.1 0.1 0.1 0.1 0.1 
0.1 0.1 0.1 0.1 0.1 0.1 0.1 0.1 0.1 
0.1 0.1 0.1 0.1 0.1 0.1 0.1 0.1 0.1 
0.1 0.1 0.1 0.1 0.1 0.1 0.1 0.1 0.1 
0.1 0.1 0.1 0.1 0.1 0.1 0.1 0.1 0.1 
0.1 0.1 0.1 0.1 0.1 0.1 0.1 0.1 0.1 
0.1 0.1 0.1 0.1 0.1 0.1 0.1 0.1 0.1 
0.1 0.1 0.1 0.1 0.1 0.1 0.1 0.1 0.1 
0.1 0.1 0.1 0.1 0.1 0.1 0.1 0.1 0.1 
0.1 0.1 0.1 0.1 0.1 0.1 0.1 0.1 0.1 
0.1 0.1 0.1 0.1 0.1 0.1 0.1 0.1 0.1 
0.1 0.1 0.1 0.1 0.1 0.1 0.34097 0.1 0.1 
0.1 0.34851 0.1 0.1 0.1 0.1 0.1 0.1 0.1 
0.1 0.1 0.1 0.1 0.1 0.1 0.1 0.1 0.1 
0.1 0.1 0.1 0.1 0.1 0.1 0.33777 0.34517 0.1 
0.1 0.1 0.1 0.1 0.1 0.1 0.1 0.1 0.1 
0.1 0.1 0.1 0.1 0.1 0.1 0.1 0.1 0.1 
0.1 0.26298 0.1 0.1 0.1 0.1 0.1 0.1 0.1 
0.1 0.1 0.1 0.25774 0.1 0.1 0.1 0.1 0.1 
0.1 0.1 0.1 0.1 0.1 0.1 0.1 0.1 0.1 
0.1 0.1 0.1 0.1 0.1 0.1 0.1 0.1 0.1 
0.1 0.1 0.1 0.1 0.1 0.1 0.1 0.33421 0.2897 
0.32955 0.1 0.1 0.1 0.1 0.1 0.1 0.1 0.1 
0.1 0.1 0.1 0.1 0.1 0.1 0.1 0.1 0.1 
0.1 0.1 0.1 0.32722 0.33398 0.1 0.1 0.1 0.1 
0.1 0.1 0.1 0.1 0.1 0.1 0.33283 0.1 0.1 
0.1 0.1 0.1 0.1 0.1 0.1 0.1 0.1 0.1 
0.1 0.1 0.1 0.1 0.34368 0.1 0.1 0.1 0.1 
0.1 0.27641 0.1 0.1 0.1 0.1 0.1 0.1 0.1 
0.1 0.1 0.1 0.30352 0.34126 0.33159 0.1 0.1 0.1 
0.1 0.1 0.1 0.1 0.1 0.1 0.1 0.29985 0.29552 
0.1 0.1 0.1 0.1 0.1 0.34334 0.1 0.1 0.1 
0.1 0.1 0.28662 0.1 0.1 0.1 0.1 0.1 0.1 
0.1 0.1 0.1 0.1 0.26783 0.1 0.1 0.1 0.1 
0.1 0.32017 0.29693 0.1 0.1 0.1 0.1 0.1 0.33762 
0.25871 0.28428 0.1 0.1 0.1 0.1 0.1 0.2957 0.27439 
0.1 0.1 0.1 0.1 0.1 0.27197 0.30199 0.2931 0.1 
0.1 0.1 0.1 0.1 0.1 0.1 0.1 0.1 0.1 
0.25639 0.2979 0.33566 0.1 0.1 0.1 0.1 0.1 0.25528 
0.30482 0.1 0.1 0.1 0.1 0.1 0.32334 0.1 0.1 
0.1 0.1 0.1 0.30805 0.31217 0.1 0.1 0.31582 0.1 
0.1 0.1 0.2889 0.27491 0.1 0.1 0.1 0.1 0.1 
0.1 0.1 0.1 0.1 0.1 0.28083 0.26354 0.25399 0.1 
0.1 0.1 0.1 0.1 0.25853 0.1 0.1 0.33382 0.1 
0.1 0.1 0.1 0.1 0.1 0.34672 0.25308 0.1 0.1 
0.3159 0.1 0.1 0.1 0.1 0.1 0.1 0.1 0.1 
0.1 0.1 0.1 0.1 0.1 0.1 0.1 0.1 0.1 
0.1 0.1 0.1 0.1 0.1 0.1 0.1 0.1 0.28537 
0.1 0.33657 0.1 0.1 0.1 0.1 0.31506 0.1 0.1 
0.1 0.1 0.1 0.1 0.1 0.1 0.1 0.1 0.1 
0.1 0.1 0.1 0.1 0.1 0.1 0.1 0.1 0.1 
0.1 0.1 0.1 0.28069 0.1 0.1 0.1 0.1 0.25997 
0.1 0.28172 0.1 0.1 0.1 0.31364 0.27735 0.1 0.1 
0.1 0.1 0.1 0.30511 0.1 0.1 0.1 0.1 0.1 
0.1 0.34015 0.1 0.32278 0.1 0.26761 0.1 0.1 0.1 
0.1 0.1 0.1 0.1 0.1 0.1 0.1 0.31815 0.25099 
0.2591 0.34593 0.31087 0.26852 0.3 0.27957 0.27555 0.31651 0.31127 
0.25037 0.27972 0.1 0.1 0.1 0.1 0.1 0.1 0.1 
0.1 0.1 0.1 0.1 0.1 0.1 0.1 0.1 0.1 
0.32665 0.1 0.1 0.1 0.1 0.1 0.1 0.1 0.1 
0.1 0.1 0.1 0.1 0.1 0.1 0.1 0.1 0.1 
0.1 0.1 0.1 0.1 0.1 0.1 0.1 0.1 0.1 
0.1 0.1 0.1 0.1 0.1 0.1 0.1 0.1 0.1 
0.1 0.1 0.1 0.1 0.29225 0.1 0.1 0.26173 0.26541 
0.1 0.1 0.1 0.1 0.1 0.1 0.1 0.1 0.1 
0.1 0.1 0.1 0.1 0.1 0.1 0.1 0.1 0.1 
0.1 0.1 0.1 0.1 0.1 0.1 0.1 0.1 0.1 
0.1 0.1 0.1 0.1 0.1 0.1 0.1 0.1 0.1 
0.1 0.1 0.1 0.1 0.1 0.1 0.1 0.1 0.1 
0.1 0.1 0.1 0.1 0.1 0.1 0.1 0.1 0.1 
0.1 0.1 0.1 0.1 0.1 0.1 0.1 0.1 0.1 
0.1 0.1 0.1 0.1 0.1 0.1 0.1 0.1 0.1 
0.1 0.1 0.1 0.1 0.1 0.1 0.1 0.1 0.1 
0.1 0.1 0.1 0.1 0.1 0.1 0.1 0.1 0.1 
0.1 0.1 0.1 0.1 0.1 0.1 0.2685 0.1 0.1 
0.1 0.1 0.28827 0.1 0.30856 0.1 0.1 0.1 0.1 
0.1 0.1 0.1 0.1 0.1 0.1 0.1 0.1 0.1 
0.1 0.1 0.1 0.1 0.1 0.1 0.1 0.1 0.1 
0.1 0.1 0.1 0.1 0.33412 0.25952 0.1 0.1 0.1 
0.1 0.1 0.30421 0.1 0.1 0.1 0.1 0.1 0.1 
0.1 0.1 0.1 0.1 0.1 0.1 0.1 0.1 0.1 
0.1 0.1 0.1 0.1 0.1 0.33954 0.1 0.1 0.1 
0.1 0.1 0.32716 0.1 0.1 0.1 0.1 0.1 0.1 
0.1 0.1 0.1 0.1 0.1 0.1 0.1 0.1 0.1 
0.1 0.1 0.1 0.1 0.1 0.32361 0.1 0.1 0.2735 
0.1 0.1 0.1 0.25888 0.25008 0.25928 0.1 0.1 0.1 
0.1 0.1 0.1 0.1 0.1 0.1 0.1 0.1 0.1 
0.1 0.1 0.1 0.1 0.1 0.1 0.1 0.1 0.28437 
0.33341 0.3161 0.31445 0.33976 0.33577 0.26269 0.26888 0.3228 0.27071 
0.1 0.31621 0.27393 0.1 0.1 0.1 0.1 0.1 0.1 
0.1 0.1 0.1 0.1 0.1 0.1 0.1 0.1 0.1 
0.1 0.1 0.1 0.1 0.1 0.1 0.1 0.1 0.1 
0.1 0.1 0.1 0.1 0.1 0.1 0.1 0.1 0.1 
0.1 0.1 0.1 0.1 0.1 0.1 0.1 0.1 0.1 
0.1 0.1 0.1 0.1 0.1 0.1 0.1 0.1 0.1 
0.1 0.1 0.1 0.1 0.1 0.1 0.1 0.1 0.1 
0.1 0.1 0.1 0.1 0.1 0.1 0.1 0.1 0.1 
0.1 0.1 0.1 0.1 0.1 0.1 0.1 0.1 0.1 
0.1 0.1 0.1 0.1 0.1 0.1 0.1 0.1 0.1 
0.1 0.1 0.1 0.1 0.1 0.1 0.1 0.1 0.1 
0.1 0.1 0.1 0.1 0.1 0.1 0.1 0.1 0.1 
0.1 0.1 0.1 0.1 0.1 0.1 0.1 0.1 0.1 
0.1 0.1 0.1 0.1 0.1 0.1 0.1 0.1 0.1 
0.1 0.1 0.1 0.1 0.1 0.1 0.1 0.1 0.1 
0.1 0.1 0.1 0.1 0.1 0.1 0.1 0.1 0.1 
0.1 0.1 0.1 0.1 0.1 0.1 0.1 0.1 0.1 
0.1 0.1 0.1 0.1 0.1 0.1 0.1 0.1 0.1 
0.1 0.1 0.1 0.1 0.1 0.1 0.1 0.1 0.1 
0.1 0.1 0.1 0.1 0.1 0.1 0.1 0.1 0.1 
0.1 0.1 0.1 0.1 0.1 
a 3 1049 double
0 0 0 0 0 0 0 0 0 
0 0 0 0 0 0 0 0 0 
0 0 0 0 0 0 0 0 0 
0 0 0 0 0 0 0 0 0 
0 0 0 0 0 0 0 0 0 
0 0 0 0 0 0 0 0 0 
0 0 0 0 0 0 0 0 0 
0 0 0 0 0 0 0 0 0 
0 0 0 0 0 0 0 0 0 
0 0 0 0 0 0 0 0 0 
0 0 0 0 0 0 0 0 0 
0 0 0 0 0 0 0 0 0 
0 0 0 0 0 0 0 0 0 
0 0 0 0 0 0 0 0 0 
0 0 0 0 0 0 0 0 0 
0 0 0 0 0 0 0 0 0 
0 0 0 0 0 0 0 0 0 
0 0 0 0 0 0 0 0 0 
0 0 0 0 0 0 0 0 0 
0 0 0 0 0 0 0 0 0 
0 0 0 0 0 0 0 0 0 
0 0 0 0 0 0 0 0 0 
0 0 0 0 0 0 0 0 0 
0 0 0 0 0 0 0 0 0 
0 0 0 0 0 0 0 0 0 
0 0 0 0 0 0 0 0 0 
0 0 0 0 0 0 0 0 0 
0 0 0 0 0 0 0 0 0 
0 0 0 0 0 0 0 0 0 
0 0 0 0 0 0 0 0 0 
0 0 0 0 0 0 0 0 0 
0 0 0 0 0 0 0 0 0 
0 0 0 0 0 0 0 0 0 
0 0 0 0 0 0 0 0 0 
0 0 0 0 0 0 0 0 0 
0 0 0 0 0 0 0 0 0 
0 0 0 0 0 0 0 0 0 
0 0 0 0 0 0 0 0 0 
0 0 0 0 0 0 0 0 0 
0 0 0 0 0 0 0 0 0 
0 0 0 0 0 0 0 0 0 
0 0 0 0 0 0 0 0 0 
0 0 0 0 0 0 0 0 0 
0 0 0 0 0 0 0 0 0 
0 0 0 0 0 0 0 0 0 
0 0 0 0 0 0 0 0 0 
0 0 0 0 0 0 0 0 0 
0 0 0 0 0 0 0 0 0 
0 0 0 0 0 0 0 0 0 
0 0 0 0 0 0 0 0 0 
0 0 0 0 0 0 0 0 0 
0 0 0 0 0 0 0 0 0 
0 0 0 0 0 0 0 0 0 
0 0 0 0 0 0 0 0 0 
0 0 0 0 0 0 0 0 0 
0 0 0 0 0 0 0 0 0 
0 0 0 0 0 0 0 0 0 
0 0 0 0 0 0 0 0 0 
0 0 0 0 0 0 0 0 0 
0 0 0 0 0 0 0 0 0 
0 0 0 0 0 0 0 0 0 
0 0 0 0 0 0 0 0 0 
0 0 0 0 0 0 0 0 0 
0 0 0 0 0 0 0 0 0 
0 0 0 0 0 0 0 0 0 
0 0 0 0 0 0 0 0 0 
0 0 0 0 0 0 0 0 0 
0 0 0 0 0 0 0 0 0 
0 0 0 0 0 0 0 0 0 
0 0 0 0 0 0 0 0 0 
0 0 0 0 0 0 0 0 0 
0 0 0 0 0 0 0 0 0 
0 0 0 0 0 0 0 0 0 
0 0 0 0 0 0 0 0 0 
0 0 0 0 0 0 0 0 0 
0 0 0 0 0 0 0 0 0 
0 0 0 0 0 0 0 0 0 
0 0 0 0 0 0 0 0 0 
0 0 0 0 0 0 0 0 0 
0 0 0 0 0 0 0 0 0 
0 0 0 0 0 0 0 0 0 
0 0 0 0 0 0 0 0 0 
0 0 0 0 0 0 0 0 0 
0 0 0 0 0 0 0 0 0 
0 0 0 0 0 0 0 0 0 
0 0 0 0 0 0 0 0 0 
0 0 0 0 0 0 0 0 0 
0 0 0 0 0 0 0 0 0 
0 0 0 0 0 0 0 0 0 
0 0 0 0 0 0 0 0 0 
0 0 0 0 0 0 0 0 0 
0 0 0 0 0 0 0 0 0 
0 0 0 0 0 0 0 0 0 
0 0 0 0 0 0 0 0 0 
0 0 0 0 0 0 0 0 0 
0 0 0 0 0 0 0 0 0 
0 0 0 0 0 0 0 0 0 
0 0 0 0 0 0 0 0 0 
0 0 0 0 0 0 0 0 0 
0 0 0 0 0 0 0 0 0 
0 0 0 0 0 0 0 0 0 
0 0 0 0 0 0 0 0 0 
0 0 0 0 0 0 0 0 0 
0 0 0 0 0 0 0 0 0 
0 0 0 0 0 0 0 0 0 
0 0 0 0 0 0 0 0 0 
0 0 0 0 0 0 0 0 0 
0 0 0 0 0 0 0 0 0 
0 0 0 0 0 0 0 0 0 
0 0 0 0 0 0 0 0 0 
0 0 0 0 0 0 0 0 0 
0 0 0 0 0 0 0 0 0 
0 0 0 0 0 0 0 0 0 
0 0 0 0 0 0 0 0 0 
0 0 0 0 0 0 0 0 0 
0 0 0 0 0 0 0 0 0 
0 0 0 0 0 0 0 0 0 
0 0 0 0 0 0 0 0 0 
0 0 0 0 0 0 0 0 0 
0 0 0 0 0 0 0 0 0 
0 0 0 0 0 0 0 0 0 
0 0 0 0 0 0 0 0 0 
0 0 0 0 0 0 0 0 0 
0 0 0 0 0 0 0 0 0 
0 0 0 0 0 0 0 0 0 
0 0 0 0 0 0 0 0 0 
0 0 0 0 0 0 0 0 0 
0 0 0 0 0 0 0 0 0 
0 0 0 0 0 0 0 0 0 
0 0 0 0 0 0 0 0 0 
0 0 0 0 0 0 0 0 0 
0 0 0 0 0 0 0 0 0 
0 0 0 0 0 0 0 0 0 
0 0 0 0 0 0 0 0 0 
0 0 0 0 0 0 0 0 0 
0 0 0 0 0 0 0 0 0 
0 0 0 0 0 0 0 0 0 
0 0 0 0 0 0 0 0 0 
0 0 0 0 0 0 0 0 0 
0 0 0 0 0 0 0 0 0 
0 0 0 0 0 0 0 0 0 
0 0 0 0 0 0 0 0 0 
0 0 0 0 0 0 0 0 0 
0 0 0 0 0 0 0 0 0 
0 0 0 0 0 0 0 0 0 
0 0 0 0 0 0 0 0 0 
0 0 0 0 0 0 0 0 0 
0 0 0 0 0 0 0 0 0 
0 0 0 0 0 0 0 0 0 
0 0 0 0 0 0 0 0 0 
0 0 0 0 0 0 0 0 0 
0 0 0 0 0 0 0 0 0 
0 0 0 0 0 0 0 0 0 
0 0 0 0 0 0 0 0 0 
0 0 0 0 0 0 0 0 0 
0 0 0 0 0 0 0 0 0 
0 0 0 0 0 0 0 0 0 
0 0 0 0 0 0 0 0 0 
0 0 0 0 0 0 0 0 0 
0 0 0 0 0 0 0 0 0 
0 0 0 0 0 0 0 0 0 
0 0 0 0 0 0 0 0 0 
0 0 0 0 0 0 0 0 0 
0 0 0 0 0 0 0 0 0 
0 0 0 0 0 0 0 0 0 
0 0 0 0 0 0 0 0 0 
0 0 0 0 0 0 0 0 0 
0 0 0 0 0 0 0 0 0 
0 0 0 0 0 0 0 0 0 
0 0 0 0 0 0 0 0 0 
0 0 0 0 0 0 0 0 0 
0 0 0 0 0 0 0 0 0 
0 0 0 0 0 0 0 0 0 
0 0 0 0 0 0 0 0 0 
0 0 0 0 0 0 0 0 0 
0 0 0 0 0 0 0 0 0 
0 0 0 0 0 0 0 0 0 
0 0 0 0 0 0 0 0 0 
0 0 0 0 0 0 0 0 0 
0 0 0 0 0 0 0 0 0 
0 0 0 0 0 0 0 0 0 
0 0 0 0 0 0 0 0 0 
0 0 0 0 0 0 0 0 0 
0 0 0 0 0 0 0 0 0 
0 0 0 0 0 0 0 0 0 
0 0 0 0 0 0 0 0 0 
0 0 0 0 0 0 0 0 0 
0 0 0 0 0 0 0 0 0 
0 0 0 0 0 0 0 0 0 
0 0 0 0 0 0 0 0 0 
0 0 0 0 0 0 0 0 0 
0 0 0 0 0 0 0 0 0 
0 0 0 0 0 0 0 0 0 
0 0 0 0 0 0 0 0 0 
0 0 0 0 0 0 0 0 0 
0 0 0 0 0 0 0 0 0 
0 0 0 0 0 0 0 0 0 
0 0 0 0 0 0 0 0 0 
0 0 0 0 0 0 0 0 0 
0 0 0 0 0 0 0 0 0 
0 0 0 0 0 0 0 0 0 
0 0 0 0 0 0 0 0 0 
0 0 0 0 0 0 0 0 0 
0 0 0 0 0 0 0 0 0 
0 0 0 0 0 0 0 0 0 
0 0 0 0 0 0 0 0 0 
0 0 0 0 0 0 0 0 0 
0 0 0 0 0 0 0 0 0 
0 0 0 0 0 0 0 0 0 
0 0 0 0 0 0 0 0 0 
0 0 0 0 0 0 0 0 0 
0 0 0 0 0 0 0 0 0 
0 0 0 0 0 0 0 0 0 
0 0 0 0 0 0 0 0 0 
0 0 0 0 0 0 0 0 0 
0 0 0 0 0 0 0 0 0 
0 0 0 0 0 0 0 0 0 
0 0 0 0 0 0 0 0 0 
0 0 0 0 0 0 0 0 0 
0 0 0 0 0 0 0 0 0 
0 0 0 0 0 0 0 0 0 
0 0 0 0 0 0 0 0 0 
0 0 0 0 0 0 0 0 0 
0 0 0 0 0 0 0 0 0 
0 0 0 0 0 0 0 0 0 
0 0 0 0 0 0 0 0 0 
0 0 0 0 0 0 0 0 0 
0 0 0 0 0 0 0 0 0 
0 0 0 0 0 0 0 0 0 
0 0 0 0 0 0 0 0 0 
0 0 0 0 0 0 0 0 0 
0 0 0 0 0 0 0 0 0 
0 0 0 0 0 0 0 0 0 
0 0 0 0 0 0 0 0 0 
0 0 0 0 0 0 0 0 0 
0 0 0 0 0 0 0 0 0 
0 0 0 0 0 0 0 0 0 
0 0 0 0 0 0 0 0 0 
0 0 0 0 0 0 0 0 0 
0 0 0 0 0 0 0 0 0 
0 0 0 0 0 0 0 0 0 
0 0 0 0 0 0 0 0 0 
0 0 0 0 0 0 0 0 0 
0 0 0 0 0 0 0 0 0 
0 0 0 0 0 0 0 0 0 
0 0 0 0 0 0 0 0 0 
0 0 0 0 0 0 0 0 0 
0 0 0 0 0 0 0 0 0 
0 0 0 0 0 0 0 0 0 
0 0 0 0 0 0 0 0 0 
0 0 0 0 0 0 0 0 0 
0 0 0 0 0 0 0 0 0 
0 0 0 0 0 0 0 0 0 
0 0 0 0 0 0 0 0 0 
0 0 0 0 0 0 0 0 0 
0 0 0 0 0 0 0 0 0 
0 0 0 0 0 0 0 0 0 
0 0 0 0 0 0 0 0 0 
0 0 0 0 0 0 0 0 0 
0 0 0 0 0 0 0 0 0 
0 0 0 0 0 0 0 0 0 
0 0 0 0 0 0 0 0 0 
0 0 0 0 0 0 0 0 0 
0 0 0 0 0 0 0 0 0 
0 0 0 0 0 0 0 0 0 
0 0 0 0 0 0 0 0 0 
0 0 0 0 0 0 0 0 0 
0 0 0 0 0 0 0 0 0 
0 0 0 0 0 0 0 0 0 
0 0 0 0 0 0 0 0 0 
0 0 0 0 0 0 0 0 0 
0 0 0 0 0 0 0 0 0 
0 0 0 0 0 0 0 0 0 
0 0 0 0 0 0 0 0 0 
0 0 0 0 0 0 0 0 0 
0 0 0 0 0 0 0 0 0 
0 0 0 0 0 0 0 0 0 
0 0 0 0 0 0 0 0 0 
0 0 0 0 0 0 0 0 0 
0 0 0 0 0 0 0 0 0 
0 0 0 0 0 0 0 0 0 
0 0 0 0 0 0 0 0 0 
0 0 0 0 0 0 0 0 0 
0 0 0 0 0 0 0 0 0 
0 0 0 0 0 0 0 0 0 
0 0 0 0 0 0 0 0 0 
0 0 0 0 0 0 0 0 0 
0 0 0 0 0 0 0 0 0 
0 0 0 0 0 0 0 0 0 
0 0 0 0 0 0 0 0 0 
0 0 0 0 0 0 0 0 0 
0 0 0 0 0 0 0 0 0 
0 0 0 0 0 0 0 0 0 
0 0 0 0 0 0 0 0 0 
0 0 0 0 0 0 0 0 0 
0 0 0 0 0 0 0 0 0 
0 0 0 0 0 0 0 0 0 
0 0 0 0 0 0 0 0 0 
0 0 0 0 0 0 0 0 0 
0 0 0 0 0 0 0 0 0 
0 0 0 0 0 0 0 0 0 
0 0 0 0 0 0 0 0 0 
0 0 0 0 0 0 0 0 0 
0 0 0 0 0 0 0 0 0 
0 0 0 0 0 0 0 0 0 
0 0 0 0 0 0 0 0 0 
0 0 0 0 0 0 0 0 0 
0 0 0 0 0 0 0 0 0 
0 0 0 0 0 0 0 0 0 
0 0 0 0 0 0 0 0 0 
0 0 0 0 0 0 0 0 0 
0 0 0 0 0 0 0 0 0 
0 0 0 0 0 0 0 0 0 
0 0 0 0 0 0 0 0 0 
0 0 0 0 0 0 0 0 0 
0 0 0 0 0 0 0 0 0 
0 0 0 0 0 0 0 0 0 
0 0 0 0 0 0 0 0 0 
0 0 0 0 0 0 0 0 0 
0 0 0 0 0 0 0 0 0 
0 0 0 0 0 0 0 0 0 
0 0 0 0 0 0 0 0 0 
0 0 0 0 0 0 0 0 0 
0 0 0 0 0 0 0 0 0 
0 0 0 0 0 0 0 0 0 
0 0 0 0 0 0 0 0 0 
0 0 0 0 0 0 0 0 0 
0 0 0 0 0 0 0 0 0 
0 0 0 0 0 0 0 0 0 
0 0 0 0 0 0 0 0 0 
0 0 0 0 0 0 0 0 0 
0 0 0 0 0 0 0 0 0 
0 0 0 0 0 0 0 0 0 
0 0 0 0 0 0 0 0 0 
0 0 0 0 0 0 0 0 0 
0 0 0 0 0 0 0 0 0 
0 0 0 0 0 0 0 0 0 
0 0 0 0 0 0 0 0 0 
0 0 0 0 0 0 0 0 0 
0 0 0 0 0 0 0 0 0 
0 0 0 0 0 0 0 0 0 
0 0 0 0 0 0 0 0 0 
0 0 0 0 0 0 0 0 0 
0 0 0 0 0 0 0 0 0 
0 0 0 0 0 0 0 0 0 
0 0 0 0 0 0 0 0 0 
0 0 0 0 0 0 0 0 0 
0 0 0 0 0 0 0 0 0 
0 0 0 0 0 0 0 0 0 
0 0 0 0 0 0 
v 3 1049 double
0.958809 -0.752161 0 -0.919311 -0.750258 0 0.973618 -0.77113 0 
0.949915 -0.804156 0 -0.718728 -0.608224 0 0.768386 -0.545901 0 
0.749907 -0.612171 0 -0.765546 -0.559389 0 -0.677269 -0.68699 0 
-0.948751 -0.676638 0 -0.674361 -0.820643 0 0.46809 -0.833939 0 
0.692695 -0.679325 0 -1.00581 -0.722719 0 0 0 0 
0 0 0 0 0 0 0 0 0 
0 0 0 0 0 0 0 0 0 
0 0 0 0 0 0 0 0 0 
0 0 0 0 0 0 0 0 0 
0 0 0 0 0 0 0 0 0 
0 0 0 0 0 0 0 0 0 
0 0 0 0 0 0 0 0 0 
-0.276435 -0.83492 0 0 0 0 0 0 0 
0 0 0 0 0 0 0 0 0 
0 0 0 0 0 0 0 0 0 
0 0 0 0 0 0 0 0 0 
0 0 0 0 0 0 0 0 0 
0 0 0 0 0 0 0 0 0 
0 0 0 0 0 0 0 0 0 
0 0 0 0 0 0 0 0 0 
0 0 0 0 0 0 0 0 0 
0 0 0 0 0 0 0 0 0 
0 0 0 0 0 0 0 0 0 
0 0 0 0 0 0 0 0 0 
0 0 0 0 0 0 0 0 0 
0 0 0 0 0 0 0 0 0 
0 0 0 0 0 0 0 0 0 
0 0 0 0 0 0 0 0 0 
0 0 0 0 0 0 0 0 0 
0 0 0 0 0 0 0 0 0 
0 0 0 0 0 0 0 0 0 
0 0 0 0 0 0 0 0 0 
0 0 0 0 0 0 0 0 0 
0 0 0 0 0 0 0 0 0 
0 0 0 0 0 0 0 0 0 
0 0 0 0 0 0 0 0 0 
0 0 0 0 0 0 0 0 0 
0 0 0 0 0 0 0 0 0 
0 0 0 0 0 0 0 0 0 
0 0 0 0 0 0 0 0 0 
0 0 0 0 0 0 0 0 0 
0 0 0 0 0 0 0 0 0 
0 0 0 0 0 0 0 0 0 
0 0 0 0 0 0 0 0 0 
0 0 0 0 0 0 0 0 0 
0 0 0 0 0 0 0 0 0 
0 0 0 0 0 0 0 0 0 
0 0 0 0 0 0 0 0 0 
0 0 0 0 0 0 0 0 0 
0 0 0 0 0 0 0 0 0 
0 0 0 0 0 0 0 0 0 
0 0 0 0 0 0 0 0 0 
0 0 0 0 0 0 0 0 0 
0 0 0 0 0 0 0 0 0 
0 0 0 0 0 0 0 0 0 
0 0 0 0 0 0 0 0 0 
0.208652 -1.23984 0 0 0 0 0 0 0 
0 0 0 -0.233657 -1.06532 0 0 0 0 
0 0 0 0 0 0 0 0 0 
0 0 0 0 0 0 0 0 0 
0 0 0 0 0 0 0 0 0 
0 0 0 0 0 0 0 0 0 
0 0 0 0 0 0 0 0 0 
0 0 0 0 0 0 0 0 0 
0 0 0 0 0 0 0 0 0 
-0.0398605 -1.11597 0 -0.318049 -0.975979 0 0 0 0 
0 0 0 0 0 0 0 0 0 
0 0 0 0 0 0 0 0 0 
0 0 0 0 0 0 0 0 0 
0 0 0 0 0 0 0 0 0 
0 0 0 0 0 0 0 0 0 
0 0 0 0 0 0 0 0 0 
0 0 0 -0.0351067 -1.00063 0 0 0 0 
0 0 0 0 0 0 0 0 0 
0 0 0 0 0 0 0 0 0 
0 0 0 0 0 0 0 0 0 
-0.156454 -0.934956 0 0 0 0 0 0 0 
0 0 0 0 0 0 0 0 0 
0 0 0 0 0 0 0 0 0 
0 0 0 0 0 0 0 0 0 
0 0 0 0 0 0 0 0 0 
0 0 0 0 0 0 0 0 0 
0 0 0 0 0 0 0 0 0 
0 0 0 0 0 0 0 0 0 
0 0 0 0 0 0 0 0 0 
0 0 0 0 0 0 0 0 0 
0 0 0 0.233125 -1.07307 0 0.0642701 -0.928553 0 
-0.279792 -0.98003 0 0 0 0 0 0 0 
0 0 0 0 0 0 0 0 0 
0 0 0 0 0 0 0 0 0 
0 0 0 0 0 0 0 0 0 
0 0 0 0 0 0 0 0 0 
0 0 0 0 0 0 0 0 0 
0 0 0 0 0 0 0 0 0 
0.259589 -1.04451 0 -0.176171 -1.16657 0 0 0 0 
0 0 0 0 0 0 0 0 0 
0 0 0 0 0 0 0 0 0 
0 0 0 0 0 0 0 0 0 
-0.324844 -0.969949 0 0 0 0 0 0 0 
0 0 0 0 0 0 0 0 0 
0 0 0 0 0 0 0 0 0 
0 0 0 0 0 0 0 0 0 
0 0 0 0 0 0 0 0 0 
0 0 0 -0.194381 0.652461 0 0 0 0 
0 0 0 0 0 0 0 0 0 
0 0 0 0.390392 -1.11029 0 0 0 0 
0 0 0 0 0 0 0 0 0 
0 0 0 0 0 0 0 0 0 
0 0 0 0 0 0 0 0 0 
0.170458 -1.11936 0 -0.274676 -0.998769 0 -0.356992 -1.16178 0 
0 0 0 0 0 0 0 0 0 
0 0 0 0 0 0 0 0 0 
0 0 0 0 0 0 0 0 0 
0 0 0 0.262033 0.801375 0 -0.0672755 0.864587 0 
0 0 0 0 0 0 0 0 0 
0 0 0 0 0 0 0.0560848 0.739427 0 
0 0 0 0 0 0 0 0 0 
0 0 0 0 0 0 0.259746 -0.886601 0 
0 0 0 0 0 0 0 0 0 
0 0 0 0 0 0 0 0 0 
0 0 0 0 0 0 0 0 0 
0 0 0 -0.390013 -1.19555 0 0 0 0 
0 0 0 0 0 0 0 0 0 
0 0 0 -0.236502 0.9245 0 -0.387133 0.818919 0 
0 0 0 0 0 0 0 0 0 
0 0 0 0 0 0 0.229154 0.787611 0 
0.284872 0.71679 0 -0.0760459 0.938384 0 0 0 0 
0 0 0 0 0 0 0 0 0 
0 0 0 0.310583 1.09512 0 0.0272507 0.753235 0 
0 0 0 0 0 0 0 0 0 
0 0 0 0 0 0 0.175581 -0.78637 0 
0.359097 -0.851436 0 -0.138052 -0.957797 0 0 0 0 
0 0 0 0 0 0 0 0 0 
0 0 0 0 0 0 0 0 0 
0 0 0 0 0 0 0 0 0 
0.125513 -0.994355 0 0.226531 -0.99573 0 -0.534429 -1.19325 0 
0 0 0 0 0 0 0 0 0 
0 0 0 0 0 0 -0.0876157 0.832264 0 
-0.298307 0.754865 0 0 0 0 0 0 0 
0 0 0 0 0 0 0 0 0 
0.0506719 1.00794 0 0 0 0 0 0 0 
0 0 0 0 0 0 0 0 0 
0.369917 0.6729 0 0.0766123 0.431219 0 0 0 0 
0 0 0 0.284018 -1.00783 0 0 0 0 
0 0 0 0 0 0 0.410667 -0.959048 0 
-0.151882 -0.956171 0 0 0 0 0 0 0 
0 0 0 0 0 0 0 0 0 
0 0 0 0 0 0 0 0 0 
0 0 0 0 0 0 0.0654126 -1.11366 0 
0.257534 -1.18732 0 -0.509277 -1.0947 0 0 0 0 
0 0 0 0 0 0 0 0 0 
0 0 0 -1.1575 0.22378 0 0 0 0 
0 0 0 -1.12271 0.201082 0 0 0 0 
0 0 0 0 0 0 0 0 0 
0 0 0 0 0 0 -1.08174 0.201899 0 
-0.995253 0.0998892 0 0 0 0 0 0 0 
-1.04702 0.544732 0 0 0 0 0 0 0 
0 0 0 0 0 0 0 0 0 
0 0 0 0 0 0 0 0 0 
0 0 0 0 0 0 0 0 0 
0 0 0 0 0 0 0 0 0 
0 0 0 0 0 0 0 0 0 
0 0 0 0 0 0 0 0 0 
0 0 0 0 0 0 0 0 0 
0 0 0 0 0 0 -0.97498 0.128565 0 
0 0 0 -1.12448 0.3003 0 0 0 0 
0 0 0 0 0 0 0 0 0 
0.667117 0.17703 0 0 0 0 0 0 0 
0 0 0 0 0 0 0 0 0 
0 0 0 0 0 0 0 0 0 
0 0 0 0 0 0 0 0 0 
0 0 0 0 0 0 0 0 0 
0 0 0 0 0 0 0 0 0 
0 0 0 0 0 0 0 0 0 
0 0 0 0 0 0 0 0 0 
1.13457 0.0563312 0 0 0 0 0 0 0 
0 0 0 0 0 0 0.194111 0.289789 0 
0 0 0 1.00583 -0.0191596 0 0 0 0 
0 0 0 0 0 0 0.516429 0.627727 0 
0.85342 0.175934 0 0 0 0 0 0 0 
0 0 0 0 0 0 0 0 0 
1.00084 0.214402 0 0 0 0 0 0 0 
0 0 0 0 0 0 0 0 0 
0 0 0 0.794179 0.160952 0 0 0 0 
0.375914 -0.73576 0 0 0 0 -0.134994 -0.992097 0 
0 0 0 0 0 0 0 0 0 
0 0 0 0 0 0 0 0 0 
0 0 0 0 0 0 0 0 0 
0 0 0 0.155083 -1.16052 0 0.061131 -0.946293 0 
-0.780998 0.118338 0 -0.958245 -0.238923 0 -1.09784 -0.0298587 0 
-0.998382 -0.174643 0 -0.834053 -0.477746 0 -0.532449 -0.698394 0 
1.09177 0.444462 0 0.998825 0.0427518 0 0.676341 -0.524281 0 
-0.227382 -0.831148 0 0.0504663 -1.23535 0 0 0 0 
0 0 0 0 0 0 0 0 0 
0 0 0 0 0 0 0 0 0 
0 0 0 0 0 0 0 0 0 
0 0 0 0 0 0 0 0 0 
0 0 0 0 0 0 0 0 0 
-0.0602752 -0.939745 0 0 0 0 0 0 0 
0 0 0 0 0 0 0 0 0 
0 0 0 0 0 0 0 0 0 
0 0 0 0 0 0 0 0 0 
0 0 0 0 0 0 0 0 0 
0 0 0 0 0 0 0 0 0 
0 0 0 0 0 0 0 0 0 
0 0 0 0 0 0 0 0 0 
0 0 0 0 0 0 0 0 0 
0 0 0 0 0 0 0 0 0 
0 0 0 0 0 0 0 0 0 
0 0 0 0 0 0 0 0 0 
0 0 0 0 0 0 0 0 0 
0 0 0 0.129424 -0.0824083 0 0 0 0 
0 0 0 0.0690659 -0.117677 0 -0.446413 -0.548935 0 
0 0 0 0 0 0 0 0 0 
0 0 0 0 0 0 0 0 0 
0 0 0 0 0 0 0 0 0 
0 0 0 0 0 0 0 0 0 
0 0 0 0 0 0 0 0 0 
0 0 0 0 0 0 0 0 0 
0 0 0 0 0 0 0 0 0 
0 0 0 0 0 0 0 0 0 
0 0 0 0 0 0 0 0 0 
0 0 0 0 0 0 0 0 0 
0 0 0 0 0 0 0 0 0 
0 0 0 0 0 0 0 0 0 
0 0 0 0 0 0 0 0 0 
0 0 0 0 0 0 0 0 0 
0 0 0 0 0 0 0 0 0 
0 0 0 0 0 0 0 0 0 
0 0 0 0 0 0 0 0 0 
0 0 0 0 0 0 0 0 0 
0 0 0 0 0 0 0 0 0 
0 0 0 0 0 0 0 0 0 
0 0 0 0 0 0 0 0 0 
0 0 0 0 0 0 0 0 0 
0 0 0 0 0 0 0 0 0 
0 0 0 0 0 0 0 0 0 
0 0 0 0 0 0 0 0 0 
0 0 0 0 0 0 0 0 0 
0 0 0 0 0 0 0 0 0 
0 0 0 0 0 0 0 0 0 
0 0 0 0 0 0 0 0 0 
0 0 0 0 0 0 0 0 0 
0 0 0 0 0 0 0 0 0 
0 0 0 0 0 0 0 0 0 
0.387738 -0.0909739 0 0 0 0 0 0 0 
0 0 0 0 0 0 0.63022 -0.377435 0 
0 0 0 0.599581 -0.90629 0 0 0 0 
0 0 0 0 0 0 0 0 0 
0 0 0 0 0 0 0 0 0 
0 0 0 0 0 0 0 0 0 
0 0 0 0 0 0 0 0 0 
0 0 0 0 0 0 0 0 0 
0 0 0 0 0 0 0 0 0 
0 0 0 0 0 0 0 0 0 
0 0 0 0 0 0 0 0 0 
0 0 0 0.643217 0.235294 0 0.65537 0.249367 0 
0 0 0 0 0 0 0 0 0 
0 0 0 0 0 0 0.803624 -0.831998 0 
0 0 0 0 0 0 0 0 0 
0 0 0 0 0 0 0 0 0 
0 0 0 0 0 0 0 0 0 
0 0 0 0 0 0 0 0 0 
0 0 0 0 0 0 0 0 0 
0 0 0 0 0 0 0 0 0 
0 0 0 0 0 0 0.635461 0.313835 0 
0 0 0 0 0 0 0 0 0 
0 0 0 0 0 0 0.559298 -0.641276 0 
0 0 0 0 0 0 0 0 0 
0 0 0 0 0 0 0 0 0 
0 0 0 0 0 0 0 0 0 
0 0 0 0 0 0 0 0 0 
0 0 0 0 0 0 0 0 0 
0 0 0 0 0 0 0 0 0 
0 0 0 0 0 0 1.01817 0.223828 0 
0 0 0 0 0 0 0.6612 -0.809977 0 
0 0 0 0 0 0 0 0 0 
0.531625 -0.730839 0 0.760703 -0.700547 0 0.928786 -0.934731 0 
0 0 0 0 0 0 0 0 0 
0 0 0 0 0 0 0 0 0 
0 0 0 0 0 0 0 0 0 
0 0 0 0 0 0 0 0 0 
0 0 0 0 0 0 0 0 0 
0 0 0 0 0 0 0 0 0 
0 0 0 0 0 0 1.02302 0.0637081 0 
0.837998 -0.0962574 0 0.985211 0.0500264 0 0.954894 0.0208042 0 
0.974711 0.0626202 0 0.442587 0.319019 0 0.742645 0.23021 0 
0.358135 0.223248 0 0.238016 0.434678 0 1.14921 0.222395 0 
0 0 0 0.868577 -0.62504 0 0.854623 -0.751091 0 
0 0 0 0 0 0 0 0 0 
0 0 0 0 0 0 0 0 0 
0 0 0 0 0 0 0 0 0 
0 0 0 0 0 0 0 0 0 
0 0 0 0 0 0 0 0 0 
0 0 0 0 0 0 0 0 0 
0 0 0 0 0 0 0 0 0 
0 0 0 0 0 0 0 0 0 
0 0 0 0 0 0 0 0 0 
0 0 0 0 0 0 0 0 0 
0 0 0 0 0 0 0 0 0 
0 0 0 0 0 0 0 0 0 
0 0 0 0 0 0 0 0 0 
0 0 0 0 0 0 0 0 0 
0 0 0 0 0 0 0 0 0 
0 0 0 0 0 0 0 0 0 
0 0 0 0 0 0 0 0 0 
0 0 0 0 0 0 0 0 0 
0 0 0 0 0 0 0 0 0 
0 0 0 0 0 0 0 0 0 
0 0 0 0 0 0 0 0 0 
0 0 0 0 0 0 0 0 0 
0 0 0 0 0 0 0 0 0 
0 0 0 0 0 0 0 0 0 
0 0 0 0 0 0 0 0 0 
0 0 0 0 0 0 0 0 0 
0 0 0 0 0 0 0 0 0 
0 0 0 0 0 0 0 0 0 
0 0 0 0 0 0 0 0 0 
0 0 0 0 0 0 0 0 0 
0 0 0 0 0 0 0 0 0 
0 0 0 0 0 0 0 0 0 
0 0 0 0 0 0 0 0 0 
0 0 0 0 0 0 0 0 0 
0 0 0 0 0 0 0 0 0 
0 0 0 0 0 0 0 0 0 
0 0 0 0 0 0 0 0 0 
0 0 0 0 0 0 0 0 0 
0 0 0 0 0 0 0 0 0 
0 0 0 0 0 0 0 0 0 
0 0 0 0 0 0 0 0 0 
0 0 0 0 0 0 0 0 0 
0 0 0 0 0 0 0 0 0 
0 0 0 0 0 0 0 0 0 
0 0 0 0 0 0 0 0 0 
0 0 0 0 0 0 0 0 0 
0 0 0 0 0 0 0 0 0 
0 0 0 0 0 0 0 0 0 
0 0 0 0 0 0 0 0 0 
0 0 0 0 0 0 0 0 0 
0 0 0 0 0 0 0 0 0 
0 0 0 0 0 0 0 0 0 
0 0 0 0 0 0 0 0 0 
0 0 0 0 0 0 0 0 0 
0 0 0 0 0 0 0 0 0 
0 0 0 0 0 0 0 0 0 
0 0 0 0 0 0 0 0 0 
0 0 0 0 0 0 0 0 0 
0 0 0 0 0 0 0 0 0 
0 0 0 0 0 0 0 0 0 
0 0 0 0 0 0 
x 1 1049 double
-8.3774 7.85069 -9.31971 -8.99767 9.60661 -10.9896 -10.4915 10.0405 10.6693 
10.656 11.761 -11.9005 -11.4383 11.6109 -15 -15 -15 -15 
-14.8214 -14.1071 -14.4643 -14.2857 -15 -14.6429 -13.2143 -13.3929 -13.75 
-13.0357 -13.5714 -13.9286 -12.5 -12.6786 -12.8571 -11.5 -11.1429 -11.3214 
-11.8833 -10.9643 -10.4286 -10.7857 -10.6071 -10.0714 -10.25 -9.5357 -9.8929 
-9.3571 -9.1786 -9.7143 -9 -8.2 -9 -8.8 -9 -8.6 
-9 -9 -8.4 -8 -7.6 -7.8 -7.2 -7.4 -6.8 
-7 -6.2 -6.4 -6.6 -5.8 -5.4 -5.2 -5.6 -6 
-4.8 -4.4 -5 -4.6 -4.2 -3.4 -3.6 -3.2 -4 
-3.8 -3 -2.2 -3 -3 -3 -3 -2.6 -2.8 
-2.4 -2 -1.4 -1.2 -1.6 -1.8 -1 -0.4 -0.2 
-0.8 -0.6 0.2 0.8 0.4 0.6 -0 1.4 1.6 
1 1.2 1.8 2.6 2.2 2.4 2.8 2 3 
3.4 3 3 3.2 3.6 3 3.8 3 4 
4.8 4.2 4.4 4.6 5.2 5.6 5.4 5.8 5 
6.4 6 6.6 6.2 6.8 7.6 7.8 7 7.2 
7.4 8 8.8 8.2 8.6 8.4 9 9.3571 9 
9.8929 9 9 9 9.7143 9.5357 9.1786 10.7857 10.9643 
10.25 10.0714 10.6071 10.4286 11.1429 11.5 11.7556 11.3214 12.8571 
12.5 12.0336 12.6786 13.9286 13.5714 13.2143 13.75 13.3929 13.0357 
14.6429 14.1071 14.2857 14.8214 14.4643 15 15 15 15 
15 -15 -15 -15 -15 -15 -12.013 -11.3913 -9 
-9 -9 -9 -9 -3 -3 -3 -3 -3 
3 3 3 3 3 9 9 9 9 
9 12.2215 15 15 15 15 15 -15 -15 
-15 -15 -15 -11.5768 -9 -9 -9 -9 -9 
-3 -3 -3 -3 -3 3 3 3 3 
3 9 9 9 9 9 15 15 15 
15 15 -15 -15 -15 -15 -15 -12.84 -12.0921 
-10.8253 -9 -9 -9 -9 -9 -3 -3 -3 
-3 -3 3 3 3 3 3 9 9 
9 9 9 10.7148 12.5803 15 15 15 15 
15 -15 -15 -15 -15 -15 -10.6696 -9 -9 
-9 -9 -9 -3 -3 -3 -3 -3 3 
3 3 3 3 7.01901 9 9 9 9 
9 10.9813 15 15 15 15 15 -15 -15 
-15 -15 -15 -12.8709 -10.3722 -10.1875 -9 -9 -9 
-9 -9 -3 -3 -3 -3 -3 -0.905341 0.216237 
3 3 3 3 3 5.86009 9 9 9 
9 9 10.3766 15 15 15 15 15 -15 
-15 -15 -15 -15 -9.88872 -9 -9 -9 -9 
-9 -5.49363 -5.67152 -3 -3 -3 -3 -3 -0.500052 
-0.794223 0.219198 3 3 3 3 3 5.55594 6.11771 
9 9 9 9 9 9.94888 10.3251 12.9933 15 
15 15 15 15 -15 -15 -15 -15 -15 
-13.1103 -13.0748 -9.53235 -9 -9 -9 -9 -9 -5.99026 
-5.43107 -3 -3 -3 -3 -3 -0.00102562 3 3 
3 3 3 5.78979 6.27358 9 9 9.74938 9 
9 9 9.67118 13.0576 15 15 15 15 15 
-15 -15 -15 -15 -15 -13.4379 -13.2213 -9.19234 -8.6429 
-8.8214 -8.4643 -9 -8.2857 -8.72613 -8.1071 -7.2143 -7.29349 -7.75 
-7.3929 -7.0357 -7.5714 -7.9286 -6.5 -6.62127 -6.87165 -6.6786 -6.8571 
-6.06656 -5.1429 -5.5 -5.3214 -4.6071 -4.7857 -4.4286 -4.9643 -4.0714 
-4.25 -3.7143 -3.3571 -3.8929 -3.5357 -3.1786 -2.8214 -2.4643 -2.2857 
-2.1071 -2.6429 -3 -1.3929 -1.5714 -1.9286 -1.75 -1.0357 -1.85836 
-1.2143 -0.544886 -0.6786 -0.5 -0.8571 0.6786 0.905759 0.8571 0.5 
1.75 1.5714 1.9286 1.2143 1.3929 1.0357 2.4643 2.2857 2.6429 
2.1071 2.8214 3.7143 3.8929 3.1786 3.3571 3 3.5357 4.0714 
4.9643 4.4286 4.7857 4.393 4.25 4.6071 5.1429 5.3214 5.86288 
5.5 6.31642 6.6786 6.8571 6.5 6.26008 7.80099 7.0357 7.3929 
7.5714 7.2143 7.9286 7.09112 7.75 8.1071 8.2857 8.4643 8.8214 
8.6429 8.40802 9 9.28825 9 13.278 15 15 15 
15 15 -15 -15 -15 -15 -15 -13.405 -13.3658 
-8.68151 -8.12708 -7.0523 -7.55276 -6.39042 -6.01561 5.78095 6.74899 8.98855 
13.2527 13.6959 15 15 15 15 15 -15 -14.1667 
-14.5 -15 -15 -14.3333 -14.6667 -14.8333 -15 -15 -14 
-13.4918 -12.8 -13 -12.6 -12.4 -12.2 -11.6 -12 -11.2 
-11.4 -11.8 -10.4 -10.6 -10.2 -11 -10.8 -10 -9.4 
-9.6 -9.8 -9.2 -8.6429 -8.2857 -9 -8.8214 -9 -8.4643 
-8.1071 -9 -9 -9 -7.9286 -7.2143 -7.75 -7.0357 -7.5714 
-7.3929 -6.8571 -6.6786 -6.5 -6.3767 -5.5 -5.1429 -5.97754 -5.60826 
-5.3214 -4.25 -4.4286 -4.7857 -4.9643 -4.0714 -4.6071 -3.7143 -3.5357 
-3.3571 -3.8929 -3.1786 -3 -2.6 -3 -2.2 -3 -3 
-3 -2.4 -2.8 -1.4 -2 -1.8 -1.2 -1.6 -1 
-0.4 -0.6 -0.8 -0.2 0.6 0.8 -0 0.4 0.2 
1.8 1.4 1 1.6 1.2 2 2.4 2.2 2.8 
2.6 3.4 3.8 3 3.2 3.6 4.8 4.6 4 
4.4 4.2 5.4 5.2 5 5.6 5.8 6.4 6.8 
6.2 6.6 6 7.8 7.4 7.6 7.2 7 8.6 
8.2 8.8 8 8.4 9.2 9.4 9 9 9.6 
9 9 9 9.8 10.2 10.4 10 10.8 10.6 
11.2 11.4 11 11.6 11.8 12.4 12.837 12.2 12.6 
12 12.8 13.1799 13 13.453 14.1667 14 14.6667 14.8333 
14.5 14.3333 15 15 15 15 15 -15 -15 
-15 -15 -15 -9 -9 -9 -9 -9 -3 
-3 -3 -3 -3 1.77055 2.60739 9 9 9 
9 9 12.1566 15 15 15 15 15 -15 
-15 -15 -15 -15 -9 -9 -9 -9 -9 
-3 -3 -3 -3 -3 4.58858 9 9 9 
9 9 10.7551 15 15 15 15 15 -15 
-15 -15 -15 -15 -9 -9 -9 -9 -9 
-3 -3 -3 -3 -3 5.96335 9 9 9.83547 
9 9 9 10.2186 10.3729 11.1249 15 15 15 
15 15 -15 -15 -15 -15 -15 -9 -9 
-9 -9 -9 -3 -3 -3 -3 -3 4.42918 
6.0655 6.37459 6.97601 6.75743 7.68073 8.01816 8.20646 8.68468 8.72412 
9 9.25817 9.82651 15 15 15 15 15 -15 
-15 -15 -15 -15 -9 -9 -9 -9 -9 
-3 -3 -3 -3 -3 9 9 9 9 
9 9 15 15 15 15 15 -14.6 -14.8 
-15 -14.4 -14.2 -14 -13.4 -13.2 -13.8 -13.6 -12.2 
-12.6 -12.8 -12.4 -13 -11.2 -11.6 -12 -11.4 -11.8 
-10.2 -10.8 -10.6 -11 -10.4 -9.6 -9.4 -9.2 -10 
-9.8 -8.2 -8.8 -9 -8.6 -8.4 -8 -7.8 -7.6 
-7.2 -7.4 -7 -6.8 -6.2 -6.6 -6.4 -5.2 -5.8 
-6 -5.4 -5.6 -4.8 -5 -4.6 -4.2 -4.4 -4 
-3.4 -3.8 -3.6 -3.2 -2.6 -3 -2.4 -2.8 -2.2 
-2 -1.2 -1.4 -1.8 -1.6 -0.6 -0.8 -1 -0.2 
-0.4 0.8 0.2 0.6 -0 0.4 1 1.8 1.6 
1.4 1.2 2.6 2.4 2.2 2 2.8 3.8 3.6 
3.2 3 3.4 4 4.8 4.6 4.4 4.2 5.8 
5.2 5.6 5 5.4 6.4 6.8 6.6 6.2 6 
7.8 7.6 7.2 7 7.4 8.2 8.6 8.4 8 
8.8 9.6 9.4 9 9.8 9.2 10 10.2 10.4 
10.6 10.8 11.8 11 11.4 11.6 11.2 12.4 12.8 
12.6 12.2 12 13.4 13.8 13 13.6 13.2 14.8 
14 14.2 14.4 14.6 15 
y 1 1049 double
-3.08928 -3.59298 -2.31812 -2.90345 -2.19961 -1.03144 -1.47786 -1.7729 -1.72121 
-1.16382 -1.01303 -0.135496 -0.781187 -0.40496 0 0.6 0.4 0.8 
0 0 0 0 0.2 0 0 0 0 
0 0 0 0 0 0 0 0 0 
0.489623 0 0 0 0 0 0 0 0 
0 0 0 0 0 0.2 0 0.6 0 
0.4 0.8 0 0 0 0 0 0 0 
0 0 0 0 0 0 0 0 0 
0 0 0 0 0 0 0 0 0 
0 0.6 0 0 0.2 0.4 0.8 0 0 
0 0 0 0 0 0 0 0 0 
0 0 0 0 0 0 0 0 0 
0 0 0 0 0 0 0 0 0.4 
0 0.2 0.6 0 0 0 0 0.8 0 
0 0 0 0 0 0 0 0 0 
0 0 0 0 0 0 0 0 0 
0 0 0 0 0 0 0.2 0 0.6 
0 0.4 0 0.8 0 0 0 0 0 
0 0 0 0 0 0 0.95145 0 0 
0 0.146909 0 0 0 0 0 0 0 
0 0 0 0 0 0 0.8 0.6 0.2 
0.4 1.6 1 1.4 1.2 1.8 1.24693 1.64846 1.6 
1.8 1 1.2 1.4 1.2 1.4 1.8 1.6 1 
1.8 1.6 1.4 1.2 1 1.4 1.2 1 1.6 
1.8 1.32579 1.2 1.6 1 1.4 1.8 2 2.4 
2.6 2.8 2.2 2.49719 2.8 2.6 2.4 2 2.2 
2 2.6 2.8 2.2 2.4 2.2 2.8 2.6 2 
2.4 2.2 2.8 2.4 2.6 2 2.2 2.4 2.8 
2 2.6 3.2 3 3.4 3.6 3.8 3.38024 3.2394 
4.00552 3.8 3.2 3.6 3.4 3 3.4 3 3.2 
3.6 3.8 3.4 3.2 3.8 3 3.6 3.2 3.6 
3 3.4 3.8 3.71841 3.84258 3.2 3.6 3.4 3 
3.8 4.6 4 4.2 4.4 4.8 4.63698 4.2 4.6 
4.8 4.4 4 4.6 4.4 4.2 4 4.8 4.2 
4.8 4 4.6 4.4 4.57957 4 4.8 4.4 4.2 
4.6 4.25164 4.6 4.4 4 4.2 4.8 5.6 5.4 
5.8 5.2 5 5.71879 5.22278 5.94014 5.8 5.2 5 
5.4 5.6 5 5.4 5.8 5.2 5.6 5.26954 5.22105 
5.4 5 5.8 5.6 5.2 5.95566 5 5.2 5.4 
5.6 5.8 5.58832 5.2 5.8 5.4 5.6 5 6.6 
6.2 6.4 6 6.8 6.88474 6.4 6.2 6 6.8 
6.6 6.01843 6.73438 6.6 6.4 6.2 6 6.8 6.06872 
6.58882 6.32845 6.8 6.4 6.6 6 6.2 6.84968 6.93891 
6.2 6.4 6.8 6.6 6 6.45108 6.91525 6.50738 6.8 
6.6 6.4 6.2 6 7.4 7.6 7.8 7 7.2 
7.06871 7.62074 7.88484 7.8 7.4 7 7.6 7.2 7.48484 
7.2648 7 7.4 7.6 7.2 7.8 7.93037 7 7.2 
7.6 7.4 7.8 7.80143 7.60264 7 7.2 7.13345 7.8 
7.4 7.6 7.79242 7.05774 7.8 7 7.2 7.4 7.6 
8 8.6 8.2 8.4 8.8 8.06649 8.56473 8.54405 8 
8 8 8 8 8.82294 8 8 8.60084 8 
8 8 8 8 8 8.48471 8.99401 8 8 
8.03595 8 8 8 8 8 8 8 8 
8 8 8 8 8 8 8 8 8 
8 8 8 8 8 8 8 8 8.70282 
8 8.43821 8 8 8 8 8.57917 8 8 
8 8 8 8 8 8 8 8 8 
8 8 8 8 8 8 8 8 8 
8 8 8 8.88552 8 8 8 8 8.52781 
8 8.86901 8 8 8 8.21201 8.83961 8 8 
8 8 8 8.65985 8 8 8 8 8 
8 8.87582 8 8.45613 8 8.65458 8.6 8.2 8.8 
8 8.4 9 9.6 9.8 9.2 9.4 9.12404 9.81743 
9.30476 9.11802 9.49311 9.21765 9.54551 9.96569 9.02733 9.25687 9.03395 
9.29079 9.57888 9.6 9.2 9.4 9 9.8 10.6 10 
10 10.2 10 10 10 10 10.8 10.4 10 
10.3698 10 10 10 10 10 10 10 10 
10 10 10 10 10 10 10 10 10 
10 10 10 10 10 10.6 10 10.4 10 
10 10.8 10.2 10 10 10 10 10 10 
10 10 10 10 10.3467 10 10 10.6778 10.3404 
10 10 10 10 10 10 10 10 10 
10 10 10 10.6 10 10.2 10 10 10.8 
10.4 10 10 10 10 10 10 10 10 
10 10 10 10 10 10 10 10 10 
10 10 10 10 10 10 10 10 10 
10 10 10 10 10 10 10 10 10 
10 10 10 10 10 10 10 10 10 
10 10 10 10 10 10 10 10 10 
10 10 10 10 10 10 10 10.6 10 
10.4 10.2 10.8 10 10 10 10 10 10 
10 10 10 10 10 10 10.34 10 10 
10 10 10.7338 10 10.0863 10 10 10 10 
10 10 10.8 10 10.6 10.2 10.4 11.8 11.6 
11.4 11.2 11 11.4 11.6 11 11.2 11.8 11.4 
11.6 11 11.2 11.8 11.9436 11.922 11.4 11.2 11.8 
11.6 11 11.3908 11.8 11 11.2 11.6 11.4 12 
12.6 12.2 12.4 12.8 12.2 12.8 12.4 12 12.6 
12.8 12.4 12.2 12 12.6 12.3213 12.2 12 12.8 
12.6 12.4 12.8621 12 12.4 12.8 12.2 12.6 13.8 
13 13.4 13.2 13.6 13.8 13.6 13.2 13 13.4 
13.8 13.2 13.6 13 13.4 13.7116 13.6 13.4 13.6204 
13 13.8 13.2 13.0609 13.7863 13.3096 13 13.8 13.6 
13.2 13.4 14 14.4 14.2 14.6 14.8 14.8 14 
14.4 14.6 14.2 14.4 14 14.2 14.6 14.8 14.2154 
14.9698 14.2461 14.1451 14.7661 14.0359 14.5335 14.0388 14.0611 14.6051 
14 14.334 14.1886 14.4 14.8 14 14.2 14.6 15.4 
15.8 15.2 15 15.6 15.4 15.2 15 15.8 15.6 
15.4 15.2 15.8 15 15.6 15.6667 15 15.3333 15.8333 
15.1667 15.5 15.8 15 15.6 15.4 15.2 16 16 
16 16 16 16 16 16 16 16 16 
16 16 16 16 16 16 16 16 16 
16 16 16 16 16 16 16 16 16 
16 16 16 16 16 16 16 16 16 
16 16 16 16 16 16 16 16 16 
16 16 16 16 16 16 16 16 16 
16 16 16 16 16 16 16 16 16 
16 16 16 16 16 16 16 16 16 
16 16 16 16 16 16 16 16 16 
16 16 16 16 16 16 16 16 16 
16 16 16 16 16 16 16 16 16 
16 16 16 16 16 16 16 16 16 
16 16 16 16 16 16 16 16 16 
16 16 16 16 16 16 16 16 16 
16 16 16 16 16 16 16 16 16 
16 16 16 16 16 16 16 16 16 
16 16 16 16 16 
