# vtk DataFile Version 4.0
vtk output
ASCII
DATASET POLYDATA
FIELD FieldData 4
domain 1 4 string
domain_min:-40|-40
domain_max:40|40
cell_size:1|1
boundary:0|0

variables 1 5 string
T:8.8
dt:0.01
write_case:1
substeps:10
all_steps:880

constants 1 17 string
L:40
c_s:1
dx:1
k:1000
d1:-13.5|10
d2:-6|10
d3:9|14.5
d4:13.5|10
d5:-6|8
d6:0|8
d7:6|8
d8:-9|9
d9:9|9
d10:-12|0
d11:12|0
d12:0|-10
R_w:0.1

equations 1 18 string
time:T=(T+dt)#true
pos_x:x=elem(r,0,0)#eq(gid,1)
pos_y:y=elem(r,1,0)#eq(gid,1)
wp_1:p0=if(and(lt(x,(-9)),gt(y,10)),d1,p0)#eq(gid,1)
wp_2:p0=if(and(and(gt(x,(-9)),lt(x,(-3))),gt(y,10)),d2,p0)#eq(gid,1)
wp_3:p0=if(and(and(gt(x,(-3)),lt(x,9)),gt(y,10)),d3,p0)#eq(gid,1)
wp_4:p0=if(and(gt(x,9),gt(y,10)),d4,p0)#eq(gid,1)
wp_5:p0=if(and(and(gt(x,(-9)),lt(x,(-3))),lt(y,8)),d5,p0)#eq(gid,1)
wp_6:p0=if(and(and(gt(x,(-3)),lt(x,3)),lt(y,8)),d6,p0)#eq(gid,1)
wp_7:p0=if(and(and(gt(x,3),lt(x,9)),lt(y,8)),d7,p0)#eq(gid,1)
wp_8:p0=if(and(and(gt(x,(-9)),lt(x,0)),and(gt(y,8),lt(y,10))),d8,p0)#eq(gid,1)
wp_9:p0=if(and(and(gt(x,0),lt(x,9)),and(gt(y,8),lt(y,10))),d9,p0)#eq(gid,1)
wp_10:p0=if(and(lt(x,(-9)),lt(y,10)),d10,p0)#eq(gid,1)
wp_11:p0=if(and(gt(x,9),lt(y,10)),d11,p0)#eq(gid,1)
wp_12:p0=if(lt(y,0),d12,p0)#eq(gid,1)
acceleration:v=sfm(v,p0,v0,m,R,A,B,k,c,tau)#eq(gid,1)
velocity:v=euler(v,a,dt)#eq(gid,1)
position:r=euler(r,v,dt)#eq(gid,1)

POINTS 1049 float
-6.14525 -5.31632 0 -5.49709 -5.3402 0 5.08357 -5.85125 0 
-6.37678 -4.65835 0 7.54887 -4.15856 0 -9.01759 -3.06518 0 
-8.27892 -3.27939 0 7.56855 -3.54985 0 7.95142 -3.10886 0 
8.54949 -3.65555 0 -9.77145 -2.27884 0 -8.94599 -2.28735 0 
8.58448 -2.78003 0 9.61512 -2.89986 0 9.48466 -2.21746 0 
-10.0183 -1.69315 0 -10.6196 -1.3897 0 10.0477 -1.81294 0 
10.7036 -1.23246 0 -11.7621 -0.276446 0 -11.2198 -0.868119 0 
-15 0.2 0 -14.6429 0 0 -15 0 0 
-15 0.4 0 -14.8214 0 0 -15 0.6 0 
-14.1071 0 0 -14.2857 0 0 -14.4643 0 0 
-15 0.8 0 -13.3929 0 0 -13.5714 0 0 
-13.75 0 0 -13.2143 0 0 -13.0357 0 0 
-13.9286 0 0 -12.6786 0 0 -12.8571 0 0 
-12.5 0 0 -12.1344 0.174053 0 -11.1429 0 0 
-11.5 0 0 -11.3214 0 0 -11.8229 0.64726 0 
-10.0714 0 0 -10.9643 0 0 -10.4286 0 0 
-10.25 0 0 -10.7857 0 0 -10.6071 0 0 
-9.5357 0 0 -9.8929 0 0 -9.1786 0 0 
-9.7143 0 0 -9.3571 0 0 -9 0.6 0 
-9 0.2 0 -8.2 0 0 -8.4 0 0 
-9 0.4 0 -9 0.8 0 -8.8 0 0 
-8.6 0 0 -9 0 0 -8 0 0 
-7.2 0 0 -7.4 0 0 -7.6 0 0 
-7.8 0 0 -7 0 0 -6.4 0 0 
-6.2 0 0 -6.8 0 0 -6.6 0 0 
-5.4 0 0 -6 0 0 -5.8 0 0 
-5.6 0 0 -5.2 0 0 -4.6 0 0 
-5 0 0 -4.8 0 0 -4.4 0 0 
-4.2 0 0 -3.8 0 0 -3.6 0 0 
-3.4 0 0 -3.2 0 0 -4 0 0 
-3 0.4 0 -3 0.6 0 -2.8 0 0 
-2.4 0 0 -2.6 0 0 -3 0.2 0 
-2.2 0 0 -3 0.8 0 -3 0 0 
-1.2 0 0 -1.4 0 0 -2 0 0 
-1.8 0 0 -1.6 0 0 -0.4 0 0 
-0.2 0 0 -0.6 0 0 -0.8 0 0 
-1 0 0 0.8 0 0 0.4 0 0 
0.2 0 0 0.6 0 0 -0 0 0 
1.4 0 0 1.6 0 0 1 0 0 
1.2 0 0 1.8 0 0 2.4 0 0 
2 0 0 2.2 0 0 2.8 0 0 
2.6 0 0 3.8 0 0 3.2 0 0 
3 0.8 0 3 0.2 0 3.6 0 0 
3 0.4 0 3 0 0 3.4 0 0 
3 0.6 0 4.2 0 0 4.6 0 0 
4.8 0 0 4 0 0 4.4 0 0 
5.4 0 0 5 0 0 5.6 0 0 
5.2 0 0 5.8 0 0 6.2 0 0 
6.8 0 0 6.6 0 0 6.4 0 0 
6 0 0 7.6 0 0 7.2 0 0 
7.8 0 0 7.4 0 0 7 0 0 
8.2 0 0 8 0 0 8.6 0 0 
8.4 0 0 8.8 0 0 9 0.6 0 
9.8929 0 0 9 0.8 0 9.1786 0 0 
9 0.4 0 9.5357 0 0 9 0 0 
9.3571 0 0 9.7143 0 0 9 0.2 0 
10.4286 0 0 10.6071 0 0 10.7857 0 0 
10.0714 0 0 10.9643 0 0 10.25 0 0 
11.3214 0 0 11.1429 0 0 11.5 0 0 
11.4801 0.764812 0 12.0609 0.259087 0 12.8571 0 0 
12.6786 0 0 12.049 0.871134 0 12.5 0 0 
13.9286 0 0 13.3929 0 0 13.75 0 0 
13.2143 0 0 13.0357 0 0 13.5714 0 0 
14.1071 0 0 14.2857 0 0 14.8214 0 0 
14.4643 0 0 14.6429 0 0 15 0 0 
15 0.6 0 15 0.2 0 15 0.8 0 
15 0.4 0 -15 1.8 0 -15 1.6 0 
-15 1.4 0 -15 1.2 0 -15 1 0 
-11.5482 1.16691 0 -11.1446 1.96134 0 -11.7763 1.76994 0 
-9 1.6 0 -9 1 0 -9 1.8 0 
-9 1.2 0 -9 1.4 0 -3 1.8 0 
-3 1.4 0 -3 1.2 0 -3 1.6 0 
-3 1 0 3 1.4 0 3 1.6 0 
3 1 0 3 1.8 0 3 1.2 0 
9 1.4 0 9 1.8 0 9 1 0 
9 1.6 0 9 1.2 0 15 1 0 
15 1.4 0 15 1.8 0 15 1.6 0 
15 1.2 0 -15 2.4 0 -15 2 0 
-15 2.8 0 -15 2.2 0 -15 2.6 0 
-12.3627 2.35442 0 -11.2656 2.61848 0 -9 2.8 0 
-9 2 0 -9 2.6 0 -9 2.2 0 
-9 2.4 0 -3 2.6 0 -3 2.4 0 
-3 2.8 0 -3 2 0 -3 2.2 0 
3 2.8 0 3 2.6 0 3 2.4 0 
3 2.2 0 3 2 0 9 2.2 0 
9 2.8 0 9 2.6 0 9 2 0 
9 2.4 0 11.15 2.93731 0 15 2.6 0 
15 2.4 0 15 2 0 15 2.8 0 
15 2.2 0 -15 3.2 0 -15 3.4 0 
-15 3.8 0 -15 3 0 -15 3.6 0 
-10.9818 3.31433 0 -9 3.8 0 -9 3 0 
-9 3.6 0 -9 3.4 0 -9 3.2 0 
-3 3 0 -3 3.2 0 -3 3.6 0 
-3 3.4 0 -3 3.8 0 3 3.8 0 
3 3.2 0 3 3.6 0 3 3.4 0 
3 3 0 9 3.8 0 9 3.2 0 
9 3 0 9 3.6 0 9 3.4 0 
10.6415 3.77262 0 12.6232 3.62658 0 15 3.4 0 
15 3.2 0 15 3.6 0 15 3 0 
15 3.8 0 -15 4 0 -15 4.2 0 
-15 4.6 0 -15 4.8 0 -15 4.4 0 
-13.1256 4.71597 0 -12.4198 4.57604 0 -12.7559 4.11438 0 
-10.7091 4.2445 0 -9 4.6 0 -9 4 0 
-9 4.8 0 -9 4.2 0 -9 4.4 0 
-3 4.2 0 -3 4 0 -3 4.4 0 
-3 4.8 0 -3 4.6 0 3 4.8 0 
3 4.6 0 3 4.2 0 3 4 0 
3 4.4 0 9 4 0 9 4.2 0 
9 4.8 0 9 4.4 0 9 4.6 0 
10.4922 4.32953 0 10.5927 4.9721 0 11.2048 4.31188 0 
12.5533 4.17664 0 15 4.4 0 15 4 0 
15 4.2 0 15 4.8 0 15 4.6 0 
-15 5.6 0 -15 5.4 0 -15 5.8 0 
-15 5 0 -15 5.2 0 -12.5414 5.11886 0 
-12.913 5.67297 0 -10.4827 5.02679 0 -10.2708 5.63395 0 
-9 5.2 0 -9 5 0 -9 5.4 0 
-9 5.8 0 -9 5.6 0 -3 5.8 0 
-3 5 0 -3 5.2 0 -3 5.6 0 
-3 5.4 0 3 5 0 3 5.4 0 
3 5.8 0 3 5.2 0 3 5.6 0 
9 5 0 9 5.6 0 9 5.8 0 
9 5.4 0 9 5.2 0 10.2135 5.92491 0 
12.8734 5.77364 0 15 5.4 0 15 5 0 
15 5.2 0 15 5.6 0 15 5.8 0 
-15 6.4 0 -15 6.8 0 -15 6.6 0 
-15 6 0 -15 6.2 0 -9 6.2 0 
-9 6 0 -9 6.6 0 -9 6.8 0 
-9 6.4 0 -3 6.6 0 -3 6.2 0 
-3 6.8 0 -3 6.4 0 -3 6 0 
3 6.6 0 3 6 0 3 6.8 0 
3 6.4 0 3 6.2 0 6.43393 6.54348 0 
9 6.4 0 9 6.2 0 9 6.8 0 
9.80102 6.79299 0 9 6.6 0 9 6 0 
10.4421 6.72283 0 12.4286 6.67198 0 12.9859 6.68016 0 
13.5757 6.65011 0 15 6 0 15 6.8 0 
15 6.4 0 15 6.6 0 15 6.2 0 
-15 7.6 0 -15 7.2 0 -15 7.8 0 
-15 7 0 -15 7.4 0 -13.2635 7.3081 0 
-12.7025 7.17723 0 -10.0892 7.68127 0 -10.5911 7.84476 0 
-9.85561 7.0579 0 -9.50097 7.79752 0 -9 7.4 0 
-9 7 0 -9 7.2 0 -9 7.6 0 
-9 7.8 0 -3 7.4 0 -3 7.6 0 
-3 7.8 0 -3 7.2 0 -3 7 0 
-0.33822 7.51531 0 0.196143 7.29227 0 0.088981 7.92197 0 
3 7.6 0 3 7.4 0 3 7.8 0 
3 7 0 3 7.2 0 5.97331 7.85296 0 
9 7.8 0 9 7.2 0 9 7.6 0 
9 7.4 0 9 7 0 9.84565 7.49446 0 
15 7.4 0 15 7.6 0 15 7.2 0 
15 7.8 0 15 7 0 -15 8.2 0 
-15 8.6 0 -15 8 0 -15 8.4 0 
-15 8.8 0 -9.82477 8.38707 0 -9.18913 8.42985 0 
-8.2857 8 0 -8.6429 8 0 -9 8 0 
-8.64955 8.77222 0 -8.1071 8 0 -8.10168 8.76744 0 
-8.8214 8 0 -8.4643 8 0 -7.75 8 0 
-7.2143 8 0 -7.0357 8 0 -7.5714 8 0 
-7.3929 8 0 -7.9286 8 0 -7.44738 8.769 0 
-6.22305 8.22285 0 -6.89552 8.57786 0 -6.5 8 0 
-6.6786 8 0 -6.8571 8 0 -5.1429 8 0 
-5.5 8 0 -5.3214 8 0 -4.0714 8 0 
-4.9643 8 0 -4.4286 8 0 -4.7857 8 0 
-4.82202 8.92218 0 -4.25 8 0 -4.6071 8 0 
-4.00462 8.86266 0 -3.3571 8 0 -3.7143 8 0 
-3.8929 8 0 -3.5357 8 0 -3.1786 8 0 
-2.45398 8.75705 0 -2.4643 8 0 -2.2857 8 0 
-2.8214 8 0 -2.1071 8 0 -2.6429 8 0 
-3 8 0 -1.3929 8 0 -1.2143 8 0 
-1.75 8 0 -1.9286 8 0 -1.5714 8 0 
-1.0357 8 0 -0.345637 8.31023 0 -0.8571 8 0 
-0.6786 8 0 -0.5 8 0 0.6786 8 0 
0.8571 8 0 0.5 8 0 0.822654 8.5117 0 
1.2143 8 0 1.9286 8 0 1.3929 8 0 
1.75 8 0 1.5714 8 0 1.0357 8 0 
2.1071 8 0 2.8214 8 0 2.93981 8.86104 0 
2.2857 8 0 2.4643 8 0 2.6429 8 0 
3 8 0 3.7143 8 0 3.8929 8 0 
3.5357 8 0 3.1786 8 0 3.3571 8 0 
4.4286 8 0 4.9643 8 0 4.6071 8 0 
4.25 8 0 4.7857 8 0 4.0714 8 0 
5.3214 8 0 5.1429 8 0 5.5 8 0 
6.5 8 0 6.40257 8.37225 0 6.6786 8 0 
6.8571 8 0 7.27021 8.6944 0 7.3929 8 0 
7.86778 8.59205 0 7.75 8 0 7.0357 8 0 
7.2143 8 0 7.5714 8 0 7.9286 8 0 
8.6429 8 0 8.2857 8 0 8.1071 8 0 
8.58051 8.61365 0 8.8214 8 0 8.4643 8 0 
9 8 0 9 8 0 9.15668 8.50052 0 
9.55875 8.05588 0 13.4104 8.07372 0 13.3451 8.62654 0 
15 8.2 0 15 8.4 0 15 8 0 
15 8.6 0 15 8.8 0 -15 9.2 0 
-15 9 0 -15 9.6 0 -15 9.4 0 
-15 9.8 0 -9.45551 9.01435 0 -8.93008 9.24192 0 
-8.36615 9.26041 0 -7.83356 9.2025 0 -7.29424 9.3344 0 
-6.50372 9.58524 0 7.6402 9.13783 0 8.50285 9.47033 0 
8.88345 9.07938 0 8.21047 9.05086 0 9.4279 9.06513 0 
13.3732 9.1831 0 15 9.4 0 15 9.2 0 
15 9 0 15 9.8 0 15 9.6 0 
-15 10.4 0 -15 10.6 0 -14.1667 10 0 
-14.8333 10 0 -15 10.2 0 -15 10 0 
-14.5 10 0 -14.6667 10 0 -15 10.8 0 
-14.3333 10 0 -14 10 0 -12.6 10 0 
-12.8 10 0 -13 10 0 -12.4 10 0 
-12.2 10 0 -11.6 10 0 -12 10 0 
-11.4 10 0 -11.8 10 0 -11.2 10 0 
-10.6 10 0 -10.4 10 0 -10.2 10 0 
-11 10 0 -10.8 10 0 -9.6 10 0 
-10 10 0 -9.4 10 0 -9.8 10 0 
-9.2 10 0 -8.2857 10 0 -9 10.8 0 
-9 10.6 0 -9 10.4 0 -8.1071 10 0 
-9 10 0 -8.6429 10 0 -9 10.2 0 
-8.4643 10 0 -8.8214 10 0 -7.0357 10 0 
-7.5714 10 0 -7.3929 10 0 -7.9286 10 0 
-7.2143 10 0 -7.75 10 0 -6.5 10 0 
-6.6786 10 0 -6.8571 10 0 -5.1429 10 0 
-5.3214 10 0 -5.5 10 0 -4.25 10 0 
-4.6071 10 0 -4.0714 10 0 -4.9643 10 0 
-4.7857 10 0 -4.4286 10 0 -3.3571 10 0 
-3.1786 10 0 -3.8929 10 0 -3.7143 10 0 
-3.5357 10 0 -2.4 10 0 -3 10.2 0 
-3 10 0 -2.8 10 0 -3 10.8 0 
-3 10.4 0 -3 10.6 0 -2.6 10 0 
-2.2 10 0 -1.6 10 0 -1.4 10 0 
-2 10 0 -1.8 10 0 -1.2 10 0 
-1 10 0 -0.2 10 0 -0.8 10 0 
-0.6 10 0 -0.4 10 0 0.2 10 0 
0.8 10 0 0.4 10 0 -0 10 0 
0.6 10 0 1.8 10 0 1.4 10 0 
1 10 0 1.6 10 0 1.2 10 0 
2.4 10 0 2.2 10 0 2.8 10 0 
2 10 0 2.6 10 0 3.6 10 0 
3.8 10 0 3.2 10 0 3.4 10 0 
3 10 0 4.6 10 0 4 10 0 
4.2 10 0 4.8 10 0 4.4 10 0 
5 10 0 5.8 10 0 5.6 10 0 
5.2 10 0 5.4 10 0 6.2 10 0 
6.6 10 0 6 10 0 6.4 10 0 
6.8 10 0 7.8 10 0 7.4 10 0 
7.6 10 0 7.2 10 0 7 10 0 
8.2 10 0 8.8 10 0 8.6 10 0 
8.4 10 0 8 10 0 9 10.6 0 
9 10.2 0 9 10.8 0 9 10 0 
9.2 10 0 9 10.4 0 9.6 10 0 
9.8 10 0 9.4 10 0 10.6 10 0 
10.8 10 0 10.2 10 0 10.4 10 0 
10 10 0 11.8 10 0 11.4 10 0 
11 10 0 11.6 10 0 11.2 10 0 
12 10 0 12.4 10 0 12.2 10 0 
12.8 10 0 12.1979 10.7103 0 12.6 10 0 
13.4773 10.053 0 13 10 0 14.3333 10 0 
14.8333 10 0 14.5 10 0 14.6667 10 0 
14.1667 10 0 14 10 0 15 10.8 0 
15 10.6 0 15 10.2 0 15 10.4 0 
15 10 0 -15 11.6 0 -15 11 0 
-15 11.8 0 -15 11.2 0 -15 11.4 0 
-9 11.8 0 -9 11.2 0 -9 11.6 0 
-9 11 0 -9 11.4 0 -3 11.4 0 
-3 11.2 0 -3 11.6 0 -3 11.8 0 
-3 11 0 9 11 0 9 11.8 0 
9 11.2 0 9 11.6 0 9 11.4 0 
11.831 11.3572 0 11.4077 11.9125 0 12.0481 11.9132 0 
12.5374 11.7421 0 12.5275 11.1784 0 15 11.8 0 
15 11.2 0 15 11.4 0 15 11 0 
15 11.6 0 -15 12.4 0 -15 12.2 0 
-15 12.8 0 -15 12 0 -15 12.6 0 
-9 12.2 0 -9 12.6 0 -9 12 0 
-9 12.4 0 -9 12.8 0 -3 12.4 0 
-3 12.2 0 -3 12.6 0 -3 12.8 0 
-3 12 0 3.71169 12.6472 0 4.57091 12.6815 0 
9 12.4 0 9 12 0 9 12.8 0 
9 12.2 0 9 12.6 0 11.5177 12.4848 0 
15 12.6 0 15 12.4 0 15 12.8 0 
15 12.2 0 15 12 0 -15 13 0 
-15 13.4 0 -15 13.6 0 -15 13.2 0 
-15 13.8 0 -9 13.4 0 -9 13.8 0 
-9 13.2 0 -9 13.6 0 -9 13 0 
-3 13.4 0 -3 13 0 -3 13.2 0 
-3 13.6 0 -3 13.8 0 6.50132 13.266 0 
8.64483 13.8401 0 9 13.6 0 9 13.8 0 
9 13.4 0 9 13 0 9 13.2 0 
10.3789 13.1666 0 10.6061 13.7857 0 10.0171 13.7087 0 
15 13.4 0 15 13.8 0 15 13 0 
15 13.6 0 15 13.2 0 -15 14.2 0 
-15 14 0 -15 14.6 0 -15 14.4 0 
-15 14.8 0 -9 14.6 0 -9 14.8 0 
-9 14.2 0 -9 14 0 -9 14.4 0 
-3 14.8 0 -3 14.6 0 -3 14 0 
-3 14.2 0 -3 14.4 0 7.49068 14.4047 0 
8.68274 14.8607 0 8.10308 14.7991 0 8.27555 14.2341 0 
9.06992 14.3843 0 9 14 0 9.55106 14.0962 0 
15 14.4 0 15 14.6 0 15 14 0 
15 14.2 0 15 14.8 0 -15 15.4 0 
-15 15 0 -15 15.2 0 -15 15.8 0 
-15 15.6 0 -9 15.4 0 -9 15.2 0 
-9 15 0 -9 15.8 0 -9 15.6 0 
-3 15 0 -3 15.4 0 -3 15.6 0 
-3 15.2 0 -3 15.8 0 9 15.5 0 
9 15 0 9 15.8333 0 9 15.1667 0 
9 15.3333 0 9 15.6667 0 15 15.8 0 
15 15 0 15 15.6 0 15 15.4 0 
15 15.2 0 -14.8 16 0 -14.2 16 0 
-14.4 16 0 -14.6 16 0 -15 16 0 
-13.8 16 0 -13.2 16 0 -14 16 0 
-13.6 16 0 -13.4 16 0 -12.6 16 0 
-12.8 16 0 -13 16 0 -12.2 16 0 
-12.4 16 0 -11.2 16 0 -12 16 0 
-11.4 16 0 -11.8 16 0 -11.6 16 0 
-10.2 16 0 -10.6 16 0 -10.8 16 0 
-10.4 16 0 -11 16 0 -9.4 16 0 
-9.2 16 0 -10 16 0 -9.8 16 0 
-9.6 16 0 -8.4 16 0 -8.6 16 0 
-8.2 16 0 -9 16 0 -8.8 16 0 
-8 16 0 -7.8 16 0 -7.6 16 0 
-7.2 16 0 -7.4 16 0 -6.8 16 0 
-6.4 16 0 -6.2 16 0 -6.6 16 0 
-7 16 0 -5.4 16 0 -6 16 0 
-5.6 16 0 -5.8 16 0 -5.2 16 0 
-4.8 16 0 -5 16 0 -4.6 16 0 
-4.2 16 0 -4.4 16 0 -3.4 16 0 
-3.2 16 0 -3.6 16 0 -4 16 0 
-3.8 16 0 -2.8 16 0 -2.4 16 0 
-2.2 16 0 -3 16 0 -2.6 16 0 
-2 16 0 -1.2 16 0 -1.4 16 0 
-1.8 16 0 -1.6 16 0 -0.4 16 0 
-0.2 16 0 -0.6 16 0 -1 16 0 
-0.8 16 0 0.8 16 0 0.2 16 0 
0.6 16 0 -0 16 0 0.4 16 0 
1.4 16 0 1.6 16 0 1.2 16 0 
1.8 16 0 1 16 0 2.6 16 0 
2.4 16 0 2.2 16 0 2 16 0 
2.8 16 0 3.4 16 0 3 16 0 
3.8 16 0 3.2 16 0 3.6 16 0 
4 16 0 4.8 16 0 4.6 16 0 
4.4 16 0 4.2 16 0 5.8 16 0 
5.6 16 0 5.4 16 0 5 16 0 
5.2 16 0 6.4 16 0 6.8 16 0 
6.6 16 0 6.2 16 0 6 16 0 
7.8 16 0 7.6 16 0 7.2 16 0 
7 16 0 7.4 16 0 8.6 16 0 
8.2 16 0 8 16 0 8.4 16 0 
8.8 16 0 9.6 16 0 9.4 16 0 
9 16 0 9.8 16 0 9.2 16 0 
10 16 0 10.2 16 0 10.4 16 0 
10.6 16 0 10.8 16 0 11.8 16 0 
11 16 0 11.4 16 0 11.6 16 0 
11.2 16 0 12.4 16 0 12.8 16 0 
12.6 16 0 12.2 16 0 12 16 0 
13.4 16 0 13.8 16 0 13 16 0 
13.6 16 0 13.2 16 0 14.8 16 0 
14 16 0 14.2 16 0 14.4 16 0 
14.6 16 0 15 16 0 
VERTICES 2098 2098
1 0 
1 1 
1 2 
1 3 
1 4 
1 5 
1 6 
1 7 
1 8 
1 9 
1 10 
1 11 
1 12 
1 13 
1 14 
1 15 
1 16 
1 17 
1 18 
1 19 
1 20 
1 21 
1 22 
1 23 
1 24 
1 25 
1 26 
1 27 
1 28 
1 29 
1 30 
1 31 
1 32 
1 33 
1 34 
1 35 
1 36 
1 37 
1 38 
1 39 
1 40 
1 41 
1 42 
1 43 
1 44 
1 45 
1 46 
1 47 
1 48 
1 49 
1 50 
1 51 
1 52 
1 53 
1 54 
1 55 
1 56 
1 57 
1 58 
1 59 
1 60 
1 61 
1 62 
1 63 
1 64 
1 65 
1 66 
1 67 
1 68 
1 69 
1 70 
1 71 
1 72 
1 73 
1 74 
1 75 
1 76 
1 77 
1 78 
1 79 
1 80 
1 81 
1 82 
1 83 
1 84 
1 85 
1 86 
1 87 
1 88 
1 89 
1 90 
1 91 
1 92 
1 93 
1 94 
1 95 
1 96 
1 97 
1 98 
1 99 
1 100 
1 101 
1 102 
1 103 
1 104 
1 105 
1 106 
1 107 
1 108 
1 109 
1 110 
1 111 
1 112 
1 113 
1 114 
1 115 
1 116 
1 117 
1 118 
1 119 
1 120 
1 121 
1 122 
1 123 
1 124 
1 125 
1 126 
1 127 
1 128 
1 129 
1 130 
1 131 
1 132 
1 133 
1 134 
1 135 
1 136 
1 137 
1 138 
1 139 
1 140 
1 141 
1 142 
1 143 
1 144 
1 145 
1 146 
1 147 
1 148 
1 149 
1 150 
1 151 
1 152 
1 153 
1 154 
1 155 
1 156 
1 157 
1 158 
1 159 
1 160 
1 161 
1 162 
1 163 
1 164 
1 165 
1 166 
1 167 
1 168 
1 169 
1 170 
1 171 
1 172 
1 173 
1 174 
1 175 
1 176 
1 177 
1 178 
1 179 
1 180 
1 181 
1 182 
1 183 
1 184 
1 185 
1 186 
1 187 
1 188 
1 189 
1 190 
1 191 
1 192 
1 193 
1 194 
1 195 
1 196 
1 197 
1 198 
1 199 
1 200 
1 201 
1 202 
1 203 
1 204 
1 205 
1 206 
1 207 
1 208 
1 209 
1 210 
1 211 
1 212 
1 213 
1 214 
1 215 
1 216 
1 217 
1 218 
1 219 
1 220 
1 221 
1 222 
1 223 
1 224 
1 225 
1 226 
1 227 
1 228 
1 229 
1 230 
1 231 
1 232 
1 233 
1 234 
1 235 
1 236 
1 237 
1 238 
1 239 
1 240 
1 241 
1 242 
1 243 
1 244 
1 245 
1 246 
1 247 
1 248 
1 249 
1 250 
1 251 
1 252 
1 253 
1 254 
1 255 
1 256 
1 257 
1 258 
1 259 
1 260 
1 261 
1 262 
1 263 
1 264 
1 265 
1 266 
1 267 
1 268 
1 269 
1 270 
1 271 
1 272 
1 273 
1 274 
1 275 
1 276 
1 277 
1 278 
1 279 
1 280 
1 281 
1 282 
1 283 
1 284 
1 285 
1 286 
1 287 
1 288 
1 289 
1 290 
1 291 
1 292 
1 293 
1 294 
1 295 
1 296 
1 297 
1 298 
1 299 
1 300 
1 301 
1 302 
1 303 
1 304 
1 305 
1 306 
1 307 
1 308 
1 309 
1 310 
1 311 
1 312 
1 313 
1 314 
1 315 
1 316 
1 317 
1 318 
1 319 
1 320 
1 321 
1 322 
1 323 
1 324 
1 325 
1 326 
1 327 
1 328 
1 329 
1 330 
1 331 
1 332 
1 333 
1 334 
1 335 
1 336 
1 337 
1 338 
1 339 
1 340 
1 341 
1 342 
1 343 
1 344 
1 345 
1 346 
1 347 
1 348 
1 349 
1 350 
1 351 
1 352 
1 353 
1 354 
1 355 
1 356 
1 357 
1 358 
1 359 
1 360 
1 361 
1 362 
1 363 
1 364 
1 365 
1 366 
1 367 
1 368 
1 369 
1 370 
1 371 
1 372 
1 373 
1 374 
1 375 
1 376 
1 377 
1 378 
1 379 
1 380 
1 381 
1 382 
1 383 
1 384 
1 385 
1 386 
1 387 
1 388 
1 389 
1 390 
1 391 
1 392 
1 393 
1 394 
1 395 
1 396 
1 397 
1 398 
1 399 
1 400 
1 401 
1 402 
1 403 
1 404 
1 405 
1 406 
1 407 
1 408 
1 409 
1 410 
1 411 
1 412 
1 413 
1 414 
1 415 
1 416 
1 417 
1 418 
1 419 
1 420 
1 421 
1 422 
1 423 
1 424 
1 425 
1 426 
1 427 
1 428 
1 429 
1 430 
1 431 
1 432 
1 433 
1 434 
1 435 
1 436 
1 437 
1 438 
1 439 
1 440 
1 441 
1 442 
1 443 
1 444 
1 445 
1 446 
1 447 
1 448 
1 449 
1 450 
1 451 
1 452 
1 453 
1 454 
1 455 
1 456 
1 457 
1 458 
1 459 
1 460 
1 461 
1 462 
1 463 
1 464 
1 465 
1 466 
1 467 
1 468 
1 469 
1 470 
1 471 
1 472 
1 473 
1 474 
1 475 
1 476 
1 477 
1 478 
1 479 
1 480 
1 481 
1 482 
1 483 
1 484 
1 485 
1 486 
1 487 
1 488 
1 489 
1 490 
1 491 
1 492 
1 493 
1 494 
1 495 
1 496 
1 497 
1 498 
1 499 
1 500 
1 501 
1 502 
1 503 
1 504 
1 505 
1 506 
1 507 
1 508 
1 509 
1 510 
1 511 
1 512 
1 513 
1 514 
1 515 
1 516 
1 517 
1 518 
1 519 
1 520 
1 521 
1 522 
1 523 
1 524 
1 525 
1 526 
1 527 
1 528 
1 529 
1 530 
1 531 
1 532 
1 533 
1 534 
1 535 
1 536 
1 537 
1 538 
1 539 
1 540 
1 541 
1 542 
1 543 
1 544 
1 545 
1 546 
1 547 
1 548 
1 549 
1 550 
1 551 
1 552 
1 553 
1 554 
1 555 
1 556 
1 557 
1 558 
1 559 
1 560 
1 561 
1 562 
1 563 
1 564 
1 565 
1 566 
1 567 
1 568 
1 569 
1 570 
1 571 
1 572 
1 573 
1 574 
1 575 
1 576 
1 577 
1 578 
1 579 
1 580 
1 581 
1 582 
1 583 
1 584 
1 585 
1 586 
1 587 
1 588 
1 589 
1 590 
1 591 
1 592 
1 593 
1 594 
1 595 
1 596 
1 597 
1 598 
1 599 
1 600 
1 601 
1 602 
1 603 
1 604 
1 605 
1 606 
1 607 
1 608 
1 609 
1 610 
1 611 
1 612 
1 613 
1 614 
1 615 
1 616 
1 617 
1 618 
1 619 
1 620 
1 621 
1 622 
1 623 
1 624 
1 625 
1 626 
1 627 
1 628 
1 629 
1 630 
1 631 
1 632 
1 633 
1 634 
1 635 
1 636 
1 637 
1 638 
1 639 
1 640 
1 641 
1 642 
1 643 
1 644 
1 645 
1 646 
1 647 
1 648 
1 649 
1 650 
1 651 
1 652 
1 653 
1 654 
1 655 
1 656 
1 657 
1 658 
1 659 
1 660 
1 661 
1 662 
1 663 
1 664 
1 665 
1 666 
1 667 
1 668 
1 669 
1 670 
1 671 
1 672 
1 673 
1 674 
1 675 
1 676 
1 677 
1 678 
1 679 
1 680 
1 681 
1 682 
1 683 
1 684 
1 685 
1 686 
1 687 
1 688 
1 689 
1 690 
1 691 
1 692 
1 693 
1 694 
1 695 
1 696 
1 697 
1 698 
1 699 
1 700 
1 701 
1 702 
1 703 
1 704 
1 705 
1 706 
1 707 
1 708 
1 709 
1 710 
1 711 
1 712 
1 713 
1 714 
1 715 
1 716 
1 717 
1 718 
1 719 
1 720 
1 721 
1 722 
1 723 
1 724 
1 725 
1 726 
1 727 
1 728 
1 729 
1 730 
1 731 
1 732 
1 733 
1 734 
1 735 
1 736 
1 737 
1 738 
1 739 
1 740 
1 741 
1 742 
1 743 
1 744 
1 745 
1 746 
1 747 
1 748 
1 749 
1 750 
1 751 
1 752 
1 753 
1 754 
1 755 
1 756 
1 757 
1 758 
1 759 
1 760 
1 761 
1 762 
1 763 
1 764 
1 765 
1 766 
1 767 
1 768 
1 769 
1 770 
1 771 
1 772 
1 773 
1 774 
1 775 
1 776 
1 777 
1 778 
1 779 
1 780 
1 781 
1 782 
1 783 
1 784 
1 785 
1 786 
1 787 
1 788 
1 789 
1 790 
1 791 
1 792 
1 793 
1 794 
1 795 
1 796 
1 797 
1 798 
1 799 
1 800 
1 801 
1 802 
1 803 
1 804 
1 805 
1 806 
1 807 
1 808 
1 809 
1 810 
1 811 
1 812 
1 813 
1 814 
1 815 
1 816 
1 817 
1 818 
1 819 
1 820 
1 821 
1 822 
1 823 
1 824 
1 825 
1 826 
1 827 
1 828 
1 829 
1 830 
1 831 
1 832 
1 833 
1 834 
1 835 
1 836 
1 837 
1 838 
1 839 
1 840 
1 841 
1 842 
1 843 
1 844 
1 845 
1 846 
1 847 
1 848 
1 849 
1 850 
1 851 
1 852 
1 853 
1 854 
1 855 
1 856 
1 857 
1 858 
1 859 
1 860 
1 861 
1 862 
1 863 
1 864 
1 865 
1 866 
1 867 
1 868 
1 869 
1 870 
1 871 
1 872 
1 873 
1 874 
1 875 
1 876 
1 877 
1 878 
1 879 
1 880 
1 881 
1 882 
1 883 
1 884 
1 885 
1 886 
1 887 
1 888 
1 889 
1 890 
1 891 
1 892 
1 893 
1 894 
1 895 
1 896 
1 897 
1 898 
1 899 
1 900 
1 901 
1 902 
1 903 
1 904 
1 905 
1 906 
1 907 
1 908 
1 909 
1 910 
1 911 
1 912 
1 913 
1 914 
1 915 
1 916 
1 917 
1 918 
1 919 
1 920 
1 921 
1 922 
1 923 
1 924 
1 925 
1 926 
1 927 
1 928 
1 929 
1 930 
1 931 
1 932 
1 933 
1 934 
1 935 
1 936 
1 937 
1 938 
1 939 
1 940 
1 941 
1 942 
1 943 
1 944 
1 945 
1 946 
1 947 
1 948 
1 949 
1 950 
1 951 
1 952 
1 953 
1 954 
1 955 
1 956 
1 957 
1 958 
1 959 
1 960 
1 961 
1 962 
1 963 
1 964 
1 965 
1 966 
1 967 
1 968 
1 969 
1 970 
1 971 
1 972 
1 973 
1 974 
1 975 
1 976 
1 977 
1 978 
1 979 
1 980 
1 981 
1 982 
1 983 
1 984 
1 985 
1 986 
1 987 
1 988 
1 989 
1 990 
1 991 
1 992 
1 993 
1 994 
1 995 
1 996 
1 997 
1 998 
1 999 
1 1000 
1 1001 
1 1002 
1 1003 
1 1004 
1 1005 
1 1006 
1 1007 
1 1008 
1 1009 
1 1010 
1 1011 
1 1012 
1 1013 
1 1014 
1 1015 
1 1016 
1 1017 
1 1018 
1 1019 
1 1020 
1 1021 
1 1022 
1 1023 
1 1024 
1 1025 
1 1026 
1 1027 
1 1028 
1 1029 
1 1030 
1 1031 
1 1032 
1 1033 
1 1034 
1 1035 
1 1036 
1 1037 
1 1038 
1 1039 
1 1040 
1 1041 
1 1042 
1 1043 
1 1044 
1 1045 
1 1046 
1 1047 
1 1048 

POINT_DATA 1049
SCALARS id double
LOOKUP_TABLE default
980 1048 1027 977 1020 993 1033 964 983 
951 978 968 1036 976 1024 1032 966 945 
975 990 1045 391 40 0 390 39 389 
43 42 41 388 47 46 45 48 49 
44 51 50 1 1004 53 2 52 1040 
59 54 57 58 55 56 62 60 64 
61 63 394 392 68 67 393 395 65 
66 3 69 73 72 71 70 74 77 
78 75 76 82 79 80 81 83 86 
84 85 87 88 90 91 92 93 89 
494 493 94 96 95 495 97 492 4 
102 101 98 99 100 106 107 105 104 
103 112 110 109 111 108 115 116 113 
114 117 120 118 119 122 121 126 123 
557 560 125 559 5 124 558 128 130 
131 127 129 134 132 135 133 136 138 
141 140 139 137 145 143 146 144 142 
148 147 150 149 151 589 156 590 152 
588 154 6 153 155 587 159 160 161 
157 162 158 164 163 7 941 955 166 
165 972 8 172 169 171 168 167 170 
173 174 177 175 176 9 180 178 181 
179 383 384 385 386 387 933 947 995 
399 396 400 397 398 487 489 490 488 
491 554 553 556 552 555 593 595 591 
594 592 182 184 186 185 183 380 382 
378 381 379 1041 1005 405 401 404 402 
403 483 484 482 486 485 547 548 549 
550 551 597 600 599 596 598 1016 190 
189 187 191 188 376 375 373 377 374 
942 410 406 409 408 407 481 480 478 
479 477 542 545 543 544 546 605 602 
601 604 603 987 932 194 193 195 192 
196 372 371 369 368 370 1047 1026 954 
969 414 411 415 412 413 475 476 474 
472 473 537 538 540 541 539 606 607 
610 608 609 930 960 962 1028 199 197 
198 201 200 364 365 363 367 366 1008 
936 1018 939 417 416 418 420 419 467 
471 470 468 469 536 534 532 535 533 
611 614 615 613 612 986 1009 204 202 
203 205 206 360 358 359 362 361 422 
421 424 425 423 463 465 462 464 466 
528 531 527 529 530 974 618 617 620 
1022 619 616 997 1030 1037 1011 207 211 
209 210 208 354 356 353 357 355 1042 
967 1014 952 985 998 428 426 427 429 
430 459 458 457 460 461 1006 963 1010 
523 524 522 526 525 1001 625 622 624 
623 621 973 214 215 213 216 212 351 
349 352 350 348 965 989 434 432 10 
1038 435 953 431 433 437 440 441 438 
439 436 1017 971 1000 11 443 442 445 
12 444 451 446 449 447 1031 450 448 
944 455 453 452 454 456 1003 498 499 
496 500 497 13 504 505 502 501 503 
506 1034 507 508 14 509 510 15 981 
512 516 513 515 514 511 517 521 1023 
518 519 520 16 564 565 563 561 562 
568 571 569 567 570 566 573 572 17 
18 1002 574 575 937 578 1019 580 576 
577 579 581 585 583 582 1025 586 584 
19 34 1029 1043 946 1015 218 219 217 
220 221 346 347 344 345 343 984 992 
1007 1012 935 1021 1044 994 988 979 950 
999 224 223 222 226 225 341 340 664 
660 342 20 662 661 339 663 21 666 
665 22 667 668 671 669 672 670 673 
676 677 678 674 675 681 679 682 680 
683 716 687 686 685 717 23 714 684 
715 713 723 720 721 718 722 719 36 
725 724 727 726 37 732 730 733 728 
729 731 737 738 734 735 736 741 631 
24 739 634 632 633 740 742 745 746 
743 744 747 748 752 749 750 751 754 
757 755 753 756 762 760 758 761 759 
765 764 767 763 766 771 772 769 770 
768 776 773 774 777 775 778 782 781 
779 780 784 786 783 785 787 792 790 
791 789 788 794 797 796 795 793 819 
817 820 35 798 818 800 801 799 805 
806 803 804 802 811 809 807 810 808 
812 814 813 816 934 815 929 25 629 
626 628 627 630 26 230 229 227 228 
27 335 338 334 337 336 692 689 691 
688 690 637 636 638 639 635 821 825 
822 824 823 943 931 958 940 1013 235 
232 233 231 234 331 332 329 333 330 
694 696 693 695 697 642 641 643 644 
640 996 970 828 826 830 827 829 949 
239 238 240 237 236 328 326 325 327 
324 700 702 699 701 698 647 645 646 
648 649 982 991 834 835 833 831 832 
1035 948 959 243 245 241 244 242 322 
323 320 321 319 706 707 704 703 705 
654 653 650 651 652 938 961 1039 1046 
957 29 956 248 249 246 247 250 316 
318 317 314 315 710 709 708 712 711 
655 657 658 656 659 926 28 928 924 
925 927 255 251 254 253 252 313 310 
311 312 30 308 305 309 307 306 302 
303 304 300 301 295 299 296 298 297 
290 292 293 291 294 286 285 289 288 
287 282 283 281 31 284 280 279 278 
276 277 274 272 271 273 275 267 270 
268 269 266 264 265 263 261 262 257 
256 258 260 259 836 838 839 32 837 
840 844 843 841 842 848 849 847 845 
846 854 851 853 850 852 857 858 856 
859 855 863 862 861 860 864 867 865 
869 866 868 870 874 873 872 871 879 
878 877 875 876 882 884 883 881 880 
889 888 886 885 887 893 891 890 892 
894 897 896 38 898 895 899 900 901 
902 903 908 904 906 907 905 911 913 
912 910 909 916 918 914 917 915 923 
919 920 921 922 33 
FIELD FieldData 14
r 3 1049 double
-6.14525 -5.31632 0 -5.49709 -5.3402 0 5.08357 -5.85125 0 
-6.37678 -4.65835 0 7.54887 -4.15856 0 -9.01759 -3.06518 0 
-8.27892 -3.27939 0 7.56855 -3.54985 0 7.95142 -3.10886 0 
8.54949 -3.65555 0 -9.77145 -2.27884 0 -8.94599 -2.28735 0 
8.58448 -2.78003 0 9.61512 -2.89986 0 9.48466 -2.21746 0 
-10.0183 -1.69315 0 -10.6196 -1.3897 0 10.0477 -1.81294 0 
10.7036 -1.23246 0 -11.7621 -0.276446 0 -11.2198 -0.868119 0 
-15 0.2 0 -14.6429 0 0 -15 0 0 
-15 0.4 0 -14.8214 0 0 -15 0.6 0 
-14.1071 0 0 -14.2857 0 0 -14.4643 0 0 
-15 0.8 0 -13.3929 0 0 -13.5714 0 0 
-13.75 0 0 -13.2143 0 0 -13.0357 0 0 
-13.9286 0 0 -12.6786 0 0 -12.8571 0 0 
-12.5 0 0 -12.1344 0.174053 0 -11.1429 0 0 
-11.5 0 0 -11.3214 0 0 -11.8229 0.64726 0 
-10.0714 0 0 -10.9643 0 0 -10.4286 0 0 
-10.25 0 0 -10.7857 0 0 -10.6071 0 0 
-9.5357 0 0 -9.8929 0 0 -9.1786 0 0 
-9.7143 0 0 -9.3571 0 0 -9 0.6 0 
-9 0.2 0 -8.2 0 0 -8.4 0 0 
-9 0.4 0 -9 0.8 0 -8.8 0 0 
-8.6 0 0 -9 0 0 -8 0 0 
-7.2 0 0 -7.4 0 0 -7.6 0 0 
-7.8 0 0 -7 0 0 -6.4 0 0 
-6.2 0 0 -6.8 0 0 -6.6 0 0 
-5.4 0 0 -6 0 0 -5.8 0 0 
-5.6 0 0 -5.2 0 0 -4.6 0 0 
-5 0 0 -4.8 0 0 -4.4 0 0 
-4.2 0 0 -3.8 0 0 -3.6 0 0 
-3.4 0 0 -3.2 0 0 -4 0 0 
-3 0.4 0 -3 0.6 0 -2.8 0 0 
-2.4 0 0 -2.6 0 0 -3 0.2 0 
-2.2 0 0 -3 0.8 0 -3 0 0 
-1.2 0 0 -1.4 0 0 -2 0 0 
-1.8 0 0 -1.6 0 0 -0.4 0 0 
-0.2 0 0 -0.6 0 0 -0.8 0 0 
-1 0 0 0.8 0 0 0.4 0 0 
0.2 0 0 0.6 0 0 -0 0 0 
1.4 0 0 1.6 0 0 1 0 0 
1.2 0 0 1.8 0 0 2.4 0 0 
2 0 0 2.2 0 0 2.8 0 0 
2.6 0 0 3.8 0 0 3.2 0 0 
3 0.8 0 3 0.2 0 3.6 0 0 
3 0.4 0 3 0 0 3.4 0 0 
3 0.6 0 4.2 0 0 4.6 0 0 
4.8 0 0 4 0 0 4.4 0 0 
5.4 0 0 5 0 0 5.6 0 0 
5.2 0 0 5.8 0 0 6.2 0 0 
6.8 0 0 6.6 0 0 6.4 0 0 
6 0 0 7.6 0 0 7.2 0 0 
7.8 0 0 7.4 0 0 7 0 0 
8.2 0 0 8 0 0 8.6 0 0 
8.4 0 0 8.8 0 0 9 0.6 0 
9.8929 0 0 9 0.8 0 9.1786 0 0 
9 0.4 0 9.5357 0 0 9 0 0 
9.3571 0 0 9.7143 0 0 9 0.2 0 
10.4286 0 0 10.6071 0 0 10.7857 0 0 
10.0714 0 0 10.9643 0 0 10.25 0 0 
11.3214 0 0 11.1429 0 0 11.5 0 0 
11.4801 0.764812 0 12.0609 0.259087 0 12.8571 0 0 
12.6786 0 0 12.049 0.871134 0 12.5 0 0 
13.9286 0 0 13.3929 0 0 13.75 0 0 
13.2143 0 0 13.0357 0 0 13.5714 0 0 
14.1071 0 0 14.2857 0 0 14.8214 0 0 
14.4643 0 0 14.6429 0 0 15 0 0 
15 0.6 0 15 0.2 0 15 0.8 0 
15 0.4 0 -15 1.8 0 -15 1.6 0 
-15 1.4 0 -15 1.2 0 -15 1 0 
-11.5482 1.16691 0 -11.1446 1.96134 0 -11.7763 1.76994 0 
-9 1.6 0 -9 1 0 -9 1.8 0 
-9 1.2 0 -9 1.4 0 -3 1.8 0 
-3 1.4 0 -3 1.2 0 -3 1.6 0 
-3 1 0 3 1.4 0 3 1.6 0 
3 1 0 3 1.8 0 3 1.2 0 
9 1.4 0 9 1.8 0 9 1 0 
9 1.6 0 9 1.2 0 15 1 0 
15 1.4 0 15 1.8 0 15 1.6 0 
15 1.2 0 -15 2.4 0 -15 2 0 
-15 2.8 0 -15 2.2 0 -15 2.6 0 
-12.3627 2.35442 0 -11.2656 2.61849 0 -9 2.8 0 
-9 2 0 -9 2.6 0 -9 2.2 0 
-9 2.4 0 -3 2.6 0 -3 2.4 0 
-3 2.8 0 -3 2 0 -3 2.2 0 
3 2.8 0 3 2.6 0 3 2.4 0 
3 2.2 0 3 2 0 9 2.2 0 
9 2.8 0 9 2.6 0 9 2 0 
9 2.4 0 11.15 2.93731 0 15 2.6 0 
15 2.4 0 15 2 0 15 2.8 0 
15 2.2 0 -15 3.2 0 -15 3.4 0 
-15 3.8 0 -15 3 0 -15 3.6 0 
-10.9818 3.31433 0 -9 3.8 0 -9 3 0 
-9 3.6 0 -9 3.4 0 -9 3.2 0 
-3 3 0 -3 3.2 0 -3 3.6 0 
-3 3.4 0 -3 3.8 0 3 3.8 0 
3 3.2 0 3 3.6 0 3 3.4 0 
3 3 0 9 3.8 0 9 3.2 0 
9 3 0 9 3.6 0 9 3.4 0 
10.6415 3.77262 0 12.6232 3.62658 0 15 3.4 0 
15 3.2 0 15 3.6 0 15 3 0 
15 3.8 0 -15 4 0 -15 4.2 0 
-15 4.6 0 -15 4.8 0 -15 4.4 0 
-13.1256 4.71597 0 -12.4198 4.57604 0 -12.7559 4.11438 0 
-10.7091 4.2445 0 -9 4.6 0 -9 4 0 
-9 4.8 0 -9 4.2 0 -9 4.4 0 
-3 4.2 0 -3 4 0 -3 4.4 0 
-3 4.8 0 -3 4.6 0 3 4.8 0 
3 4.6 0 3 4.2 0 3 4 0 
3 4.4 0 9 4 0 9 4.2 0 
9 4.8 0 9 4.4 0 9 4.6 0 
10.4922 4.32953 0 10.5927 4.9721 0 11.2048 4.31188 0 
12.5533 4.17664 0 15 4.4 0 15 4 0 
15 4.2 0 15 4.8 0 15 4.6 0 
-15 5.6 0 -15 5.4 0 -15 5.8 0 
-15 5 0 -15 5.2 0 -12.5414 5.11886 0 
-12.913 5.67297 0 -10.4827 5.02679 0 -10.2708 5.63395 0 
-9 5.2 0 -9 5 0 -9 5.4 0 
-9 5.8 0 -9 5.6 0 -3 5.8 0 
-3 5 0 -3 5.2 0 -3 5.6 0 
-3 5.4 0 3 5 0 3 5.4 0 
3 5.8 0 3 5.2 0 3 5.6 0 
9 5 0 9 5.6 0 9 5.8 0 
9 5.4 0 9 5.2 0 10.2135 5.92491 0 
12.8734 5.77364 0 15 5.4 0 15 5 0 
15 5.2 0 15 5.6 0 15 5.8 0 
-15 6.4 0 -15 6.8 0 -15 6.6 0 
-15 6 0 -15 6.2 0 -9 6.2 0 
-9 6 0 -9 6.6 0 -9 6.8 0 
-9 6.4 0 -3 6.6 0 -3 6.2 0 
-3 6.8 0 -3 6.4 0 -3 6 0 
3 6.6 0 3 6 0 3 6.8 0 
3 6.4 0 3 6.2 0 6.43393 6.54348 0 
9 6.4 0 9 6.2 0 9 6.8 0 
9.80102 6.79299 0 9 6.6 0 9 6 0 
10.4421 6.72283 0 12.4286 6.67198 0 12.9859 6.68016 0 
13.5757 6.65011 0 15 6 0 15 6.8 0 
15 6.4 0 15 6.6 0 15 6.2 0 
-15 7.6 0 -15 7.2 0 -15 7.8 0 
-15 7 0 -15 7.4 0 -13.2635 7.3081 0 
-12.7025 7.17723 0 -10.0892 7.68127 0 -10.5911 7.84476 0 
-9.8556 7.0579 0 -9.50097 7.79752 0 -9 7.4 0 
-9 7 0 -9 7.2 0 -9 7.6 0 
-9 7.8 0 -3 7.4 0 -3 7.6 0 
-3 7.8 0 -3 7.2 0 -3 7 0 
-0.33822 7.51531 0 0.196143 7.29227 0 0.088981 7.92197 0 
3 7.6 0 3 7.4 0 3 7.8 0 
3 7 0 3 7.2 0 5.97331 7.85296 0 
9 7.8 0 9 7.2 0 9 7.6 0 
9 7.4 0 9 7 0 9.84565 7.49446 0 
15 7.4 0 15 7.6 0 15 7.2 0 
15 7.8 0 15 7 0 -15 8.2 0 
-15 8.6 0 -15 8 0 -15 8.4 0 
-15 8.8 0 -9.82477 8.38707 0 -9.18913 8.42985 0 
-8.2857 8 0 -8.6429 8 0 -9 8 0 
-8.64955 8.77222 0 -8.1071 8 0 -8.10168 8.76744 0 
-8.8214 8 0 -8.4643 8 0 -7.75 8 0 
-7.2143 8 0 -7.0357 8 0 -7.5714 8 0 
-7.3929 8 0 -7.9286 8 0 -7.44738 8.769 0 
-6.22305 8.22285 0 -6.89552 8.57786 0 -6.5 8 0 
-6.6786 8 0 -6.8571 8 0 -5.1429 8 0 
-5.5 8 0 -5.3214 8 0 -4.0714 8 0 
-4.9643 8 0 -4.4286 8 0 -4.7857 8 0 
-4.82202 8.92218 0 -4.25 8 0 -4.6071 8 0 
-4.00462 8.86266 0 -3.3571 8 0 -3.7143 8 0 
-3.8929 8 0 -3.5357 8 0 -3.1786 8 0 
-2.45398 8.75705 0 -2.4643 8 0 -2.2857 8 0 
-2.8214 8 0 -2.1071 8 0 -2.6429 8 0 
-3 8 0 -1.3929 8 0 -1.2143 8 0 
-1.75 8 0 -1.9286 8 0 -1.5714 8 0 
-1.0357 8 0 -0.345637 8.31023 0 -0.8571 8 0 
-0.6786 8 0 -0.5 8 0 0.6786 8 0 
0.8571 8 0 0.5 8 0 0.822654 8.5117 0 
1.2143 8 0 1.9286 8 0 1.3929 8 0 
1.75 8 0 1.5714 8 0 1.0357 8 0 
2.1071 8 0 2.8214 8 0 2.93981 8.86104 0 
2.2857 8 0 2.4643 8 0 2.6429 8 0 
3 8 0 3.7143 8 0 3.8929 8 0 
3.5357 8 0 3.1786 8 0 3.3571 8 0 
4.4286 8 0 4.9643 8 0 4.6071 8 0 
4.25 8 0 4.7857 8 0 4.0714 8 0 
5.3214 8 0 5.1429 8 0 5.5 8 0 
6.5 8 0 6.40257 8.37225 0 6.6786 8 0 
6.8571 8 0 7.27021 8.6944 0 7.3929 8 0 
7.86778 8.59205 0 7.75 8 0 7.0357 8 0 
7.2143 8 0 7.5714 8 0 7.9286 8 0 
8.6429 8 0 8.2857 8 0 8.1071 8 0 
8.58051 8.61365 0 8.8214 8 0 8.4643 8 0 
9 8 0 9 8 0 9.15668 8.50052 0 
9.55875 8.05588 0 13.4104 8.07372 0 13.3451 8.62654 0 
15 8.2 0 15 8.4 0 15 8 0 
15 8.6 0 15 8.8 0 -15 9.2 0 
-15 9 0 -15 9.6 0 -15 9.4 0 
-15 9.8 0 -9.45551 9.01435 0 -8.93008 9.24192 0 
-8.36615 9.26041 0 -7.83356 9.2025 0 -7.29424 9.3344 0 
-6.50372 9.58524 0 7.6402 9.13783 0 8.50285 9.47033 0 
8.88345 9.07939 0 8.21047 9.05086 0 9.4279 9.06513 0 
13.3732 9.1831 0 15 9.4 0 15 9.2 0 
15 9 0 15 9.8 0 15 9.6 0 
-15 10.4 0 -15 10.6 0 -14.1667 10 0 
-14.8333 10 0 -15 10.2 0 -15 10 0 
-14.5 10 0 -14.6667 10 0 -15 10.8 0 
-14.3333 10 0 -14 10 0 -12.6 10 0 
-12.8 10 0 -13 10 0 -12.4 10 0 
-12.2 10 0 -11.6 10 0 -12 10 0 
-11.4 10 0 -11.8 10 0 -11.2 10 0 
-10.6 10 0 -10.4 10 0 -10.2 10 0 
-11 10 0 -10.8 10 0 -9.6 10 0 
-10 10 0 -9.4 10 0 -9.8 10 0 
-9.2 10 0 -8.2857 10 0 -9 10.8 0 
-9 10.6 0 -9 10.4 0 -8.1071 10 0 
-9 10 0 -8.6429 10 0 -9 10.2 0 
-8.4643 10 0 -8.8214 10 0 -7.0357 10 0 
-7.5714 10 0 -7.3929 10 0 -7.9286 10 0 
-7.2143 10 0 -7.75 10 0 -6.5 10 0 
-6.6786 10 0 -6.8571 10 0 -5.1429 10 0 
-5.3214 10 0 -5.5 10 0 -4.25 10 0 
-4.6071 10 0 -4.0714 10 0 -4.9643 10 0 
-4.7857 10 0 -4.4286 10 0 -3.3571 10 0 
-3.1786 10 0 -3.8929 10 0 -3.7143 10 0 
-3.5357 10 0 -2.4 10 0 -3 10.2 0 
-3 10 0 -2.8 10 0 -3 10.8 0 
-3 10.4 0 -3 10.6 0 -2.6 10 0 
-2.2 10 0 -1.6 10 0 -1.4 10 0 
-2 10 0 -1.8 10 0 -1.2 10 0 
-1 10 0 -0.2 10 0 -0.8 10 0 
-0.6 10 0 -0.4 10 0 0.2 10 0 
0.8 10 0 0.4 10 0 -0 10 0 
0.6 10 0 1.8 10 0 1.4 10 0 
1 10 0 1.6 10 0 1.2 10 0 
2.4 10 0 2.2 10 0 2.8 10 0 
2 10 0 2.6 10 0 3.6 10 0 
3.8 10 0 3.2 10 0 3.4 10 0 
3 10 0 4.6 10 0 4 10 0 
4.2 10 0 4.8 10 0 4.4 10 0 
5 10 0 5.8 10 0 5.6 10 0 
5.2 10 0 5.4 10 0 6.2 10 0 
6.6 10 0 6 10 0 6.4 10 0 
6.8 10 0 7.8 10 0 7.4 10 0 
7.6 10 0 7.2 10 0 7 10 0 
8.2 10 0 8.8 10 0 8.6 10 0 
8.4 10 0 8 10 0 9 10.6 0 
9 10.2 0 9 10.8 0 9 10 0 
9.2 10 0 9 10.4 0 9.6 10 0 
9.8 10 0 9.4 10 0 10.6 10 0 
10.8 10 0 10.2 10 0 10.4 10 0 
10 10 0 11.8 10 0 11.4 10 0 
11 10 0 11.6 10 0 11.2 10 0 
12 10 0 12.4 10 0 12.2 10 0 
12.8 10 0 12.1979 10.7103 0 12.6 10 0 
13.4773 10.053 0 13 10 0 14.3333 10 0 
14.8333 10 0 14.5 10 0 14.6667 10 0 
14.1667 10 0 14 10 0 15 10.8 0 
15 10.6 0 15 10.2 0 15 10.4 0 
15 10 0 -15 11.6 0 -15 11 0 
-15 11.8 0 -15 11.2 0 -15 11.4 0 
-9 11.8 0 -9 11.2 0 -9 11.6 0 
-9 11 0 -9 11.4 0 -3 11.4 0 
-3 11.2 0 -3 11.6 0 -3 11.8 0 
-3 11 0 9 11 0 9 11.8 0 
9 11.2 0 9 11.6 0 9 11.4 0 
11.831 11.3572 0 11.4077 11.9125 0 12.0481 11.9132 0 
12.5374 11.7421 0 12.5275 11.1784 0 15 11.8 0 
15 11.2 0 15 11.4 0 15 11 0 
15 11.6 0 -15 12.4 0 -15 12.2 0 
-15 12.8 0 -15 12 0 -15 12.6 0 
-9 12.2 0 -9 12.6 0 -9 12 0 
-9 12.4 0 -9 12.8 0 -3 12.4 0 
-3 12.2 0 -3 12.6 0 -3 12.8 0 
-3 12 0 3.71169 12.6472 0 4.57091 12.6815 0 
9 12.4 0 9 12 0 9 12.8 0 
9 12.2 0 9 12.6 0 11.5177 12.4848 0 
15 12.6 0 15 12.4 0 15 12.8 0 
15 12.2 0 15 12 0 -15 13 0 
-15 13.4 0 -15 13.6 0 -15 13.2 0 
-15 13.8 0 -9 13.4 0 -9 13.8 0 
-9 13.2 0 -9 13.6 0 -9 13 0 
-3 13.4 0 -3 13 0 -3 13.2 0 
-3 13.6 0 -3 13.8 0 6.50132 13.266 0 
8.64483 13.8401 0 9 13.6 0 9 13.8 0 
9 13.4 0 9 13 0 9 13.2 0 
10.3789 13.1666 0 10.6061 13.7857 0 10.0171 13.7087 0 
15 13.4 0 15 13.8 0 15 13 0 
15 13.6 0 15 13.2 0 -15 14.2 0 
-15 14 0 -15 14.6 0 -15 14.4 0 
-15 14.8 0 -9 14.6 0 -9 14.8 0 
-9 14.2 0 -9 14 0 -9 14.4 0 
-3 14.8 0 -3 14.6 0 -3 14 0 
-3 14.2 0 -3 14.4 0 7.49068 14.4047 0 
8.68274 14.8607 0 8.10308 14.7991 0 8.27555 14.2341 0 
9.06992 14.3843 0 9 14 0 9.55106 14.0962 0 
15 14.4 0 15 14.6 0 15 14 0 
15 14.2 0 15 14.8 0 -15 15.4 0 
-15 15 0 -15 15.2 0 -15 15.8 0 
-15 15.6 0 -9 15.4 0 -9 15.2 0 
-9 15 0 -9 15.8 0 -9 15.6 0 
-3 15 0 -3 15.4 0 -3 15.6 0 
-3 15.2 0 -3 15.8 0 9 15.5 0 
9 15 0 9 15.8333 0 9 15.1667 0 
9 15.3333 0 9 15.6667 0 15 15.8 0 
15 15 0 15 15.6 0 15 15.4 0 
15 15.2 0 -14.8 16 0 -14.2 16 0 
-14.4 16 0 -14.6 16 0 -15 16 0 
-13.8 16 0 -13.2 16 0 -14 16 0 
-13.6 16 0 -13.4 16 0 -12.6 16 0 
-12.8 16 0 -13 16 0 -12.2 16 0 
-12.4 16 0 -11.2 16 0 -12 16 0 
-11.4 16 0 -11.8 16 0 -11.6 16 0 
-10.2 16 0 -10.6 16 0 -10.8 16 0 
-10.4 16 0 -11 16 0 -9.4 16 0 
-9.2 16 0 -10 16 0 -9.8 16 0 
-9.6 16 0 -8.4 16 0 -8.6 16 0 
-8.2 16 0 -9 16 0 -8.8 16 0 
-8 16 0 -7.8 16 0 -7.6 16 0 
-7.2 16 0 -7.4 16 0 -6.8 16 0 
-6.4 16 0 -6.2 16 0 -6.6 16 0 
-7 16 0 -5.4 16 0 -6 16 0 
-5.6 16 0 -5.8 16 0 -5.2 16 0 
-4.8 16 0 -5 16 0 -4.6 16 0 
-4.2 16 0 -4.4 16 0 -3.4 16 0 
-3.2 16 0 -3.6 16 0 -4 16 0 
-3.8 16 0 -2.8 16 0 -2.4 16 0 
-2.2 16 0 -3 16 0 -2.6 16 0 
-2 16 0 -1.2 16 0 -1.4 16 0 
-1.8 16 0 -1.6 16 0 -0.4 16 0 
-0.2 16 0 -0.6 16 0 -1 16 0 
-0.8 16 0 0.8 16 0 0.2 16 0 
0.6 16 0 -0 16 0 0.4 16 0 
1.4 16 0 1.6 16 0 1.2 16 0 
1.8 16 0 1 16 0 2.6 16 0 
2.4 16 0 2.2 16 0 2 16 0 
2.8 16 0 3.4 16 0 3 16 0 
3.8 16 0 3.2 16 0 3.6 16 0 
4 16 0 4.8 16 0 4.6 16 0 
4.4 16 0 4.2 16 0 5.8 16 0 
5.6 16 0 5.4 16 0 5 16 0 
5.2 16 0 6.4 16 0 6.8 16 0 
6.6 16 0 6.2 16 0 6 16 0 
7.8 16 0 7.6 16 0 7.2 16 0 
7 16 0 7.4 16 0 8.6 16 0 
8.2 16 0 8 16 0 8.4 16 0 
8.8 16 0 9.6 16 0 9.4 16 0 
9 16 0 9.8 16 0 9.2 16 0 
10 16 0 10.2 16 0 10.4 16 0 
10.6 16 0 10.8 16 0 11.8 16 0 
11 16 0 11.4 16 0 11.6 16 0 
11.2 16 0 12.4 16 0 12.8 16 0 
12.6 16 0 12.2 16 0 12 16 0 
13.4 16 0 13.8 16 0 13 16 0 
13.6 16 0 13.2 16 0 14.8 16 0 
14 16 0 14.2 16 0 14.4 16 0 
14.6 16 0 15 16 0 
gid 1 1049 double
1 1 1 1 1 1 1 1 1 
1 1 1 1 1 1 1 1 1 
1 1 1 2 2 2 2 2 2 
2 2 2 2 2 2 2 2 2 
2 2 2 2 1 2 2 2 1 
2 2 2 2 2 2 2 2 2 
2 2 2 2 2 2 2 2 2 
2 2 2 2 2 2 2 2 2 
2 2 2 2 2 2 2 2 2 
2 2 2 2 2 2 2 2 2 
2 2 2 2 2 2 2 2 2 
2 2 2 2 2 2 2 2 2 
2 2 2 2 2 2 2 2 2 
2 2 2 2 2 2 2 2 2 
2 2 2 2 2 2 2 2 2 
2 2 2 2 2 2 2 2 2 
2 2 2 2 2 2 2 2 2 
2 2 2 2 2 2 2 2 2 
2 2 2 2 2 2 2 2 2 
2 2 2 2 2 2 1 1 2 
2 1 2 2 2 2 2 2 2 
2 2 2 2 2 2 2 2 2 
2 2 2 2 2 2 1 1 1 
2 2 2 2 2 2 2 2 2 
2 2 2 2 2 2 2 2 2 
2 2 2 2 2 2 2 2 2 
2 2 2 1 1 2 2 2 2 
2 2 2 2 2 2 2 2 2 
2 2 2 2 2 2 2 1 2 
2 2 2 2 2 2 2 2 2 
1 2 2 2 2 2 2 2 2 
2 2 2 2 2 2 2 2 2 
2 2 2 1 1 2 2 2 2 
2 2 2 2 2 2 1 1 1 
1 2 2 2 2 2 2 2 2 
2 2 2 2 2 2 2 2 2 
2 2 2 1 1 1 1 2 2 
2 2 2 2 2 2 2 2 1 
1 1 1 2 2 2 2 2 2 
2 2 2 2 2 2 2 2 2 
2 2 2 2 2 1 1 2 2 
2 2 2 2 2 2 2 2 2 
2 2 2 2 2 2 2 2 2 
2 2 2 2 2 1 2 2 2 
1 2 2 1 1 1 1 2 2 
2 2 2 2 2 2 2 2 1 
1 1 1 1 1 2 2 2 2 
2 2 2 2 2 2 1 1 1 
2 2 2 2 2 1 2 2 2 
2 2 1 2 2 2 2 2 2 
2 2 2 2 1 1 2 2 2 
1 2 1 2 2 2 2 2 2 
2 2 1 1 1 2 2 2 2 
2 2 2 2 2 2 1 2 2 
1 2 2 2 2 2 1 2 2 
2 2 2 2 2 2 2 2 2 
2 1 2 2 2 2 2 2 1 
2 2 2 2 2 2 2 2 1 
2 2 2 2 2 2 2 2 2 
2 2 2 2 2 2 2 2 2 
2 1 2 2 1 2 1 2 2 
2 2 2 2 2 2 1 2 2 
2 2 1 1 1 1 2 2 2 
2 2 2 2 2 2 2 1 1 
1 1 1 1 1 1 1 1 1 
1 2 2 2 2 2 2 2 2 
2 2 2 2 2 2 2 2 2 
2 2 2 2 2 2 2 2 2 
2 2 2 2 2 2 2 2 2 
2 2 2 2 2 2 2 2 2 
2 2 2 2 2 2 2 2 2 
2 2 2 2 2 2 2 2 2 
2 2 2 2 2 2 2 2 2 
2 2 2 2 2 2 2 2 2 
2 2 2 2 2 2 2 2 2 
2 2 2 2 2 2 2 2 2 
2 2 2 2 2 2 2 2 2 
2 2 2 2 2 2 2 2 2 
2 2 2 2 2 2 2 2 2 
2 2 2 2 2 2 2 2 2 
2 2 2 2 2 2 2 2 2 
2 2 2 2 2 2 2 2 2 
2 2 2 2 1 2 1 2 2 
2 2 2 2 2 2 2 2 2 
2 2 2 2 2 2 2 2 2 
2 2 2 2 2 2 2 2 2 
2 2 2 1 1 1 1 1 2 
2 2 2 2 2 2 2 2 2 
2 2 2 2 2 2 2 2 2 
2 1 1 2 2 2 2 2 1 
2 2 2 2 2 2 2 2 2 
2 2 2 2 2 2 2 2 2 
2 2 1 1 2 2 2 2 2 
1 1 1 2 2 2 2 2 2 
2 2 2 2 2 2 2 2 2 
2 2 2 2 2 1 1 1 1 
1 2 1 2 2 2 2 2 2 
2 2 2 2 2 2 2 2 2 
2 2 2 2 2 2 2 2 2 
2 2 2 2 2 2 2 2 2 
2 2 2 2 2 2 2 2 2 
2 2 2 2 2 2 2 2 2 
2 2 2 2 2 2 2 2 2 
2 2 2 2 2 2 2 2 2 
2 2 2 2 2 2 2 2 2 
2 2 2 2 2 2 2 2 2 
2 2 2 2 2 2 2 2 2 
2 2 2 2 2 2 2 2 2 
2 2 2 2 2 2 2 2 2 
2 2 2 2 2 2 2 2 2 
2 2 2 2 2 2 2 2 2 
2 2 2 2 2 2 2 2 2 
2 2 2 2 2 2 2 2 2 
2 2 2 2 2 2 2 2 2 
2 2 2 2 2 2 2 2 2 
2 2 2 2 2 2 2 2 2 
2 2 2 2 2 
A 1 1049 double
10 10 10 10 10 10 10 10 10 
10 10 10 10 10 10 10 10 10 
10 10 10 10 10 10 10 10 10 
10 10 10 10 10 10 10 10 10 
10 10 10 10 10 10 10 10 10 
10 10 10 10 10 10 10 10 10 
10 10 10 10 10 10 10 10 10 
10 10 10 10 10 10 10 10 10 
10 10 10 10 10 10 10 10 10 
10 10 10 10 10 10 10 10 10 
10 10 10 10 10 10 10 10 10 
10 10 10 10 10 10 10 10 10 
10 10 10 10 10 10 10 10 10 
10 10 10 10 10 10 10 10 10 
10 10 10 10 10 10 10 10 10 
10 10 10 10 10 10 10 10 10 
10 10 10 10 10 10 10 10 10 
10 10 10 10 10 10 10 10 10 
10 10 10 10 10 10 10 10 10 
10 10 10 10 10 10 10 10 10 
10 10 10 10 10 10 10 10 10 
10 10 10 10 10 10 10 10 10 
10 10 10 10 10 10 10 10 10 
10 10 10 10 10 10 10 10 10 
10 10 10 10 10 10 10 10 10 
10 10 10 10 10 10 10 10 10 
10 10 10 10 10 10 10 10 10 
10 10 10 10 10 10 10 10 10 
10 10 10 10 10 10 10 10 10 
10 10 10 10 10 10 10 10 10 
10 10 10 10 10 10 10 10 10 
10 10 10 10 10 10 10 10 10 
10 10 10 10 10 10 10 10 10 
10 10 10 10 10 10 10 10 10 
10 10 10 10 10 10 10 10 10 
10 10 10 10 10 10 10 10 10 
10 10 10 10 10 10 10 10 10 
10 10 10 10 10 10 10 10 10 
10 10 10 10 10 10 10 10 10 
10 10 10 10 10 10 10 10 10 
10 10 10 10 10 10 10 10 10 
10 10 10 10 10 10 10 10 10 
10 10 10 10 10 10 10 10 10 
10 10 10 10 10 10 10 10 10 
10 10 10 10 10 10 10 10 10 
10 10 10 10 10 10 10 10 10 
10 10 10 10 10 10 10 10 10 
10 10 10 10 10 10 10 10 10 
10 10 10 10 10 10 10 10 10 
10 10 10 10 10 10 10 10 10 
10 10 10 10 10 10 10 10 10 
10 10 10 10 10 10 10 10 10 
10 10 10 10 10 10 10 10 10 
10 10 10 10 10 10 10 10 10 
10 10 10 10 10 10 10 10 10 
10 10 10 10 10 10 10 10 10 
10 10 10 10 10 10 10 10 10 
10 10 10 10 10 10 10 10 10 
10 10 10 10 10 10 10 10 10 
10 10 10 10 10 10 10 10 10 
10 10 10 10 10 10 10 10 10 
10 10 10 10 10 10 10 10 10 
10 10 10 10 10 10 10 10 10 
10 10 10 10 10 10 10 10 10 
10 10 10 10 10 10 10 10 10 
10 10 10 10 10 10 10 10 10 
10 10 10 10 10 10 10 10 10 
10 10 10 10 10 10 10 10 10 
10 10 10 10 10 10 10 10 10 
10 10 10 10 10 10 10 10 10 
10 10 10 10 10 10 10 10 10 
10 10 10 10 10 10 10 10 10 
10 10 10 10 10 10 10 10 10 
10 10 10 10 10 10 10 10 10 
10 10 10 10 10 10 10 10 10 
10 10 10 10 10 10 10 10 10 
10 10 10 10 10 10 10 10 10 
10 10 10 10 10 10 10 10 10 
10 10 10 10 10 10 10 10 10 
10 10 10 10 10 10 10 10 10 
10 10 10 10 10 10 10 10 10 
10 10 10 10 10 10 10 10 10 
10 10 10 10 10 10 10 10 10 
10 10 10 10 10 10 10 10 10 
10 10 10 10 10 10 10 10 10 
10 10 10 10 10 10 10 10 10 
10 10 10 10 10 10 10 10 10 
10 10 10 10 10 10 10 10 10 
10 10 10 10 10 10 10 10 10 
10 10 10 10 10 10 10 10 10 
10 10 10 10 10 10 10 10 10 
10 10 10 10 10 10 10 10 10 
10 10 10 10 10 10 10 10 10 
10 10 10 10 10 10 10 10 10 
10 10 10 10 10 10 10 10 10 
10 10 10 10 10 10 10 10 10 
10 10 10 10 10 10 10 10 10 
10 10 10 10 10 10 10 10 10 
10 10 10 10 10 10 10 10 10 
10 10 10 10 10 10 10 10 10 
10 10 10 10 10 10 10 10 10 
10 10 10 10 10 10 10 10 10 
10 10 10 10 10 10 10 10 10 
10 10 10 10 10 10 10 10 10 
10 10 10 10 10 10 10 10 10 
10 10 10 10 10 10 10 10 10 
10 10 10 10 10 10 10 10 10 
10 10 10 10 10 10 10 10 10 
10 10 10 10 10 10 10 10 10 
10 10 10 10 10 10 10 10 10 
10 10 10 10 10 10 10 10 10 
10 10 10 10 10 10 10 10 10 
10 10 10 10 10 10 10 10 10 
10 10 10 10 10 10 10 10 10 
10 10 10 10 10 10 10 10 10 
10 10 10 10 10 10 10 10 10 
10 10 10 10 10 
B 1 1049 double
0.2 0.2 0.2 0.2 0.2 0.2 0.2 0.2 0.2 
0.2 0.2 0.2 0.2 0.2 0.2 0.2 0.2 0.2 
0.2 0.2 0.2 0.2 0.2 0.2 0.2 0.2 0.2 
0.2 0.2 0.2 0.2 0.2 0.2 0.2 0.2 0.2 
0.2 0.2 0.2 0.2 0.2 0.2 0.2 0.2 0.2 
0.2 0.2 0.2 0.2 0.2 0.2 0.2 0.2 0.2 
0.2 0.2 0.2 0.2 0.2 0.2 0.2 0.2 0.2 
0.2 0.2 0.2 0.2 0.2 0.2 0.2 0.2 0.2 
0.2 0.2 0.2 0.2 0.2 0.2 0.2 0.2 0.2 
0.2 0.2 0.2 0.2 0.2 0.2 0.2 0.2 0.2 
0.2 0.2 0.2 0.2 0.2 0.2 0.2 0.2 0.2 
0.2 0.2 0.2 0.2 0.2 0.2 0.2 0.2 0.2 
0.2 0.2 0.2 0.2 0.2 0.2 0.2 0.2 0.2 
0.2 0.2 0.2 0.2 0.2 0.2 0.2 0.2 0.2 
0.2 0.2 0.2 0.2 0.2 0.2 0.2 0.2 0.2 
0.2 0.2 0.2 0.2 0.2 0.2 0.2 0.2 0.2 
0.2 0.2 0.2 0.2 0.2 0.2 0.2 0.2 0.2 
0.2 0.2 0.2 0.2 0.2 0.2 0.2 0.2 0.2 
0.2 0.2 0.2 0.2 0.2 0.2 0.2 0.2 0.2 
0.2 0.2 0.2 0.2 0.2 0.2 0.2 0.2 0.2 
0.2 0.2 0.2 0.2 0.2 0.2 0.2 0.2 0.2 
0.2 0.2 0.2 0.2 0.2 0.2 0.2 0.2 0.2 
0.2 0.2 0.2 0.2 0.2 0.2 0.2 0.2 0.2 
0.2 0.2 0.2 0.2 0.2 0.2 0.2 0.2 0.2 
0.2 0.2 0.2 0.2 0.2 0.2 0.2 0.2 0.2 
0.2 0.2 0.2 0.2 0.2 0.2 0.2 0.2 0.2 
0.2 0.2 0.2 0.2 0.2 0.2 0.2 0.2 0.2 
0.2 0.2 0.2 0.2 0.2 0.2 0.2 0.2 0.2 
0.2 0.2 0.2 0.2 0.2 0.2 0.2 0.2 0.2 
0.2 0.2 0.2 0.2 0.2 0.2 0.2 0.2 0.2 
0.2 0.2 0.2 0.2 0.2 0.2 0.2 0.2 0.2 
0.2 0.2 0.2 0.2 0.2 0.2 0.2 0.2 0.2 
0.2 0.2 0.2 0.2 0.2 0.2 0.2 0.2 0.2 
0.2 0.2 0.2 0.2 0.2 0.2 0.2 0.2 0.2 
0.2 0.2 0.2 0.2 0.2 0.2 0.2 0.2 0.2 
0.2 0.2 0.2 0.2 0.2 0.2 0.2 0.2 0.2 
0.2 0.2 0.2 0.2 0.2 0.2 0.2 0.2 0.2 
0.2 0.2 0.2 0.2 0.2 0.2 0.2 0.2 0.2 
0.2 0.2 0.2 0.2 0.2 0.2 0.2 0.2 0.2 
0.2 0.2 0.2 0.2 0.2 0.2 0.2 0.2 0.2 
0.2 0.2 0.2 0.2 0.2 0.2 0.2 0.2 0.2 
0.2 0.2 0.2 0.2 0.2 0.2 0.2 0.2 0.2 
0.2 0.2 0.2 0.2 0.2 0.2 0.2 0.2 0.2 
0.2 0.2 0.2 0.2 0.2 0.2 0.2 0.2 0.2 
0.2 0.2 0.2 0.2 0.2 0.2 0.2 0.2 0.2 
0.2 0.2 0.2 0.2 0.2 0.2 0.2 0.2 0.2 
0.2 0.2 0.2 0.2 0.2 0.2 0.2 0.2 0.2 
0.2 0.2 0.2 0.2 0.2 0.2 0.2 0.2 0.2 
0.2 0.2 0.2 0.2 0.2 0.2 0.2 0.2 0.2 
0.2 0.2 0.2 0.2 0.2 0.2 0.2 0.2 0.2 
0.2 0.2 0.2 0.2 0.2 0.2 0.2 0.2 0.2 
0.2 0.2 0.2 0.2 0.2 0.2 0.2 0.2 0.2 
0.2 0.2 0.2 0.2 0.2 0.2 0.2 0.2 0.2 
0.2 0.2 0.2 0.2 0.2 0.2 0.2 0.2 0.2 
0.2 0.2 0.2 0.2 0.2 0.2 0.2 0.2 0.2 
0.2 0.2 0.2 0.2 0.2 0.2 0.2 0.2 0.2 
0.2 0.2 0.2 0.2 0.2 0.2 0.2 0.2 0.2 
0.2 0.2 0.2 0.2 0.2 0.2 0.2 0.2 0.2 
0.2 0.2 0.2 0.2 0.2 0.2 0.2 0.2 0.2 
0.2 0.2 0.2 0.2 0.2 0.2 0.2 0.2 0.2 
0.2 0.2 0.2 0.2 0.2 0.2 0.2 0.2 0.2 
0.2 0.2 0.2 0.2 0.2 0.2 0.2 0.2 0.2 
0.2 0.2 0.2 0.2 0.2 0.2 0.2 0.2 0.2 
0.2 0.2 0.2 0.2 0.2 0.2 0.2 0.2 0.2 
0.2 0.2 0.2 0.2 0.2 0.2 0.2 0.2 0.2 
0.2 0.2 0.2 0.2 0.2 0.2 0.2 0.2 0.2 
0.2 0.2 0.2 0.2 0.2 0.2 0.2 0.2 0.2 
0.2 0.2 0.2 0.2 0.2 0.2 0.2 0.2 0.2 
0.2 0.2 0.2 0.2 0.2 0.2 0.2 0.2 0.2 
0.2 0.2 0.2 0.2 0.2 0.2 0.2 0.2 0.2 
0.2 0.2 0.2 0.2 0.2 0.2 0.2 0.2 0.2 
0.2 0.2 0.2 0.2 0.2 0.2 0.2 0.2 0.2 
0.2 0.2 0.2 0.2 0.2 0.2 0.2 0.2 0.2 
0.2 0.2 0.2 0.2 0.2 0.2 0.2 0.2 0.2 
0.2 0.2 0.2 0.2 0.2 0.2 0.2 0.2 0.2 
0.2 0.2 0.2 0.2 0.2 0.2 0.2 0.2 0.2 
0.2 0.2 0.2 0.2 0.2 0.2 0.2 0.2 0.2 
0.2 0.2 0.2 0.2 0.2 0.2 0.2 0.2 0.2 
0.2 0.2 0.2 0.2 0.2 0.2 0.2 0.2 0.2 
0.2 0.2 0.2 0.2 0.2 0.2 0.2 0.2 0.2 
0.2 0.2 0.2 0.2 0.2 0.2 0.2 0.2 0.2 
0.2 0.2 0.2 0.2 0.2 0.2 0.2 0.2 0.2 
0.2 0.2 0.2 0.2 0.2 0.2 0.2 0.2 0.2 
0.2 0.2 0.2 0.2 0.2 0.2 0.2 0.2 0.2 
0.2 0.2 0.2 0.2 0.2 0.2 0.2 0.2 0.2 
0.2 0.2 0.2 0.2 0.2 0.2 0.2 0.2 0.2 
0.2 0.2 0.2 0.2 0.2 0.2 0.2 0.2 0.2 
0.2 0.2 0.2 0.2 0.2 0.2 0.2 0.2 0.2 
0.2 0.2 0.2 0.2 0.2 0.2 0.2 0.2 0.2 
0.2 0.2 0.2 0.2 0.2 0.2 0.2 0.2 0.2 
0.2 0.2 0.2 0.2 0.2 0.2 0.2 0.2 0.2 
0.2 0.2 0.2 0.2 0.2 0.2 0.2 0.2 0.2 
0.2 0.2 0.2 0.2 0.2 0.2 0.2 0.2 0.2 
0.2 0.2 0.2 0.2 0.2 0.2 0.2 0.2 0.2 
0.2 0.2 0.2 0.2 0.2 0.2 0.2 0.2 0.2 
0.2 0.2 0.2 0.2 0.2 0.2 0.2 0.2 0.2 
0.2 0.2 0.2 0.2 0.2 0.2 0.2 0.2 0.2 
0.2 0.2 0.2 0.2 0.2 0.2 0.2 0.2 0.2 
0.2 0.2 0.2 0.2 0.2 0.2 0.2 0.2 0.2 
0.2 0.2 0.2 0.2 0.2 0.2 0.2 0.2 0.2 
0.2 0.2 0.2 0.2 0.2 0.2 0.2 0.2 0.2 
0.2 0.2 0.2 0.2 0.2 0.2 0.2 0.2 0.2 
0.2 0.2 0.2 0.2 0.2 0.2 0.2 0.2 0.2 
0.2 0.2 0.2 0.2 0.2 0.2 0.2 0.2 0.2 
0.2 0.2 0.2 0.2 0.2 0.2 0.2 0.2 0.2 
0.2 0.2 0.2 0.2 0.2 0.2 0.2 0.2 0.2 
0.2 0.2 0.2 0.2 0.2 0.2 0.2 0.2 0.2 
0.2 0.2 0.2 0.2 0.2 0.2 0.2 0.2 0.2 
0.2 0.2 0.2 0.2 0.2 0.2 0.2 0.2 0.2 
0.2 0.2 0.2 0.2 0.2 0.2 0.2 0.2 0.2 
0.2 0.2 0.2 0.2 0.2 0.2 0.2 0.2 0.2 
0.2 0.2 0.2 0.2 0.2 0.2 0.2 0.2 0.2 
0.2 0.2 0.2 0.2 0.2 0.2 0.2 0.2 0.2 
0.2 0.2 0.2 0.2 0.2 0.2 0.2 0.2 0.2 
0.2 0.2 0.2 0.2 0.2 0.2 0.2 0.2 0.2 
0.2 0.2 0.2 0.2 0.2 0.2 0.2 0.2 0.2 
0.2 0.2 0.2 0.2 0.2 
c 1 1049 double
0.1 0.1 0.1 0.1 0.1 0.1 0.1 0.1 0.1 
0.1 0.1 0.1 0.1 0.1 0.1 0.1 0.1 0.1 
0.1 0.1 0.1 0.1 0.1 0.1 0.1 0.1 0.1 
0.1 0.1 0.1 0.1 0.1 0.1 0.1 0.1 0.1 
0.1 0.1 0.1 0.1 0.1 0.1 0.1 0.1 0.1 
0.1 0.1 0.1 0.1 0.1 0.1 0.1 0.1 0.1 
0.1 0.1 0.1 0.1 0.1 0.1 0.1 0.1 0.1 
0.1 0.1 0.1 0.1 0.1 0.1 0.1 0.1 0.1 
0.1 0.1 0.1 0.1 0.1 0.1 0.1 0.1 0.1 
0.1 0.1 0.1 0.1 0.1 0.1 0.1 0.1 0.1 
0.1 0.1 0.1 0.1 0.1 0.1 0.1 0.1 0.1 
0.1 0.1 0.1 0.1 0.1 0.1 0.1 0.1 0.1 
0.1 0.1 0.1 0.1 0.1 0.1 0.1 0.1 0.1 
0.1 0.1 0.1 0.1 0.1 0.1 0.1 0.1 0.1 
0.1 0.1 0.1 0.1 0.1 0.1 0.1 0.1 0.1 
0.1 0.1 0.1 0.1 0.1 0.1 0.1 0.1 0.1 
0.1 0.1 0.1 0.1 0.1 0.1 0.1 0.1 0.1 
0.1 0.1 0.1 0.1 0.1 0.1 0.1 0.1 0.1 
0.1 0.1 0.1 0.1 0.1 0.1 0.1 0.1 0.1 
0.1 0.1 0.1 0.1 0.1 0.1 0.1 0.1 0.1 
0.1 0.1 0.1 0.1 0.1 0.1 0.1 0.1 0.1 
0.1 0.1 0.1 0.1 0.1 0.1 0.1 0.1 0.1 
0.1 0.1 0.1 0.1 0.1 0.1 0.1 0.1 0.1 
0.1 0.1 0.1 0.1 0.1 0.1 0.1 0.1 0.1 
0.1 0.1 0.1 0.1 0.1 0.1 0.1 0.1 0.1 
0.1 0.1 0.1 0.1 0.1 0.1 0.1 0.1 0.1 
0.1 0.1 0.1 0.1 0.1 0.1 0.1 0.1 0.1 
0.1 0.1 0.1 0.1 0.1 0.1 0.1 0.1 0.1 
0.1 0.1 0.1 0.1 0.1 0.1 0.1 0.1 0.1 
0.1 0.1 0.1 0.1 0.1 0.1 0.1 0.1 0.1 
0.1 0.1 0.1 0.1 0.1 0.1 0.1 0.1 0.1 
0.1 0.1 0.1 0.1 0.1 0.1 0.1 0.1 0.1 
0.1 0.1 0.1 0.1 0.1 0.1 0.1 0.1 0.1 
0.1 0.1 0.1 0.1 0.1 0.1 0.1 0.1 0.1 
0.1 0.1 0.1 0.1 0.1 0.1 0.1 0.1 0.1 
0.1 0.1 0.1 0.1 0.1 0.1 0.1 0.1 0.1 
0.1 0.1 0.1 0.1 0.1 0.1 0.1 0.1 0.1 
0.1 0.1 0.1 0.1 0.1 0.1 0.1 0.1 0.1 
0.1 0.1 0.1 0.1 0.1 0.1 0.1 0.1 0.1 
0.1 0.1 0.1 0.1 0.1 0.1 0.1 0.1 0.1 
0.1 0.1 0.1 0.1 0.1 0.1 0.1 0.1 0.1 
0.1 0.1 0.1 0.1 0.1 0.1 0.1 0.1 0.1 
0.1 0.1 0.1 0.1 0.1 0.1 0.1 0.1 0.1 
0.1 0.1 0.1 0.1 0.1 0.1 0.1 0.1 0.1 
0.1 0.1 0.1 0.1 0.1 0.1 0.1 0.1 0.1 
0.1 0.1 0.1 0.1 0.1 0.1 0.1 0.1 0.1 
0.1 0.1 0.1 0.1 0.1 0.1 0.1 0.1 0.1 
0.1 0.1 0.1 0.1 0.1 0.1 0.1 0.1 0.1 
0.1 0.1 0.1 0.1 0.1 0.1 0.1 0.1 0.1 
0.1 0.1 0.1 0.1 0.1 0.1 0.1 0.1 0.1 
0.1 0.1 0.1 0.1 0.1 0.1 0.1 0.1 0.1 
0.1 0.1 0.1 0.1 0.1 0.1 0.1 0.1 0.1 
0.1 0.1 0.1 0.1 0.1 0.1 0.1 0.1 0.1 
0.1 0.1 0.1 0.1 0.1 0.1 0.1 0.1 0.1 
0.1 0.1 0.1 0.1 0.1 0.1 0.1 0.1 0.1 
0.1 0.1 0.1 0.1 0.1 0.1 0.1 0.1 0.1 
0.1 0.1 0.1 0.1 0.1 0.1 0.1 0.1 0.1 
0.1 0.1 0.1 0.1 0.1 0.1 0.1 0.1 0.1 
0.1 0.1 0.1 0.1 0.1 0.1 0.1 0.1 0.1 
0.1 0.1 0.1 0.1 0.1 0.1 0.1 0.1 0.1 
0.1 0.1 0.1 0.1 0.1 0.1 0.1 0.1 0.1 
0.1 0.1 0.1 0.1 0.1 0.1 0.1 0.1 0.1 
0.1 0.1 0.1 0.1 0.1 0.1 0.1 0.1 0.1 
0.1 0.1 0.1 0.1 0.1 0.1 0.1 0.1 0.1 
0.1 0.1 0.1 0.1 0.1 0.1 0.1 0.1 0.1 
0.1 0.1 0.1 0.1 0.1 0.1 0.1 0.1 0.1 
0.1 0.1 0.1 0.1 0.1 0.1 0.1 0.1 0.1 
0.1 0.1 0.1 0.1 0.1 0.1 0.1 0.1 0.1 
0.1 0.1 0.1 0.1 0.1 0.1 0.1 0.1 0.1 
0.1 0.1 0.1 0.1 0.1 0.1 0.1 0.1 0.1 
0.1 0.1 0.1 0.1 0.1 0.1 0.1 0.1 0.1 
0.1 0.1 0.1 0.1 0.1 0.1 0.1 0.1 0.1 
0.1 0.1 0.1 0.1 0.1 0.1 0.1 0.1 0.1 
0.1 0.1 0.1 0.1 0.1 0.1 0.1 0.1 0.1 
0.1 0.1 0.1 0.1 0.1 0.1 0.1 0.1 0.1 
0.1 0.1 0.1 0.1 0.1 0.1 0.1 0.1 0.1 
0.1 0.1 0.1 0.1 0.1 0.1 0.1 0.1 0.1 
0.1 0.1 0.1 0.1 0.1 0.1 0.1 0.1 0.1 
0.1 0.1 0.1 0.1 0.1 0.1 0.1 0.1 0.1 
0.1 0.1 0.1 0.1 0.1 0.1 0.1 0.1 0.1 
0.1 0.1 0.1 0.1 0.1 0.1 0.1 0.1 0.1 
0.1 0.1 0.1 0.1 0.1 0.1 0.1 0.1 0.1 
0.1 0.1 0.1 0.1 0.1 0.1 0.1 0.1 0.1 
0.1 0.1 0.1 0.1 0.1 0.1 0.1 0.1 0.1 
0.1 0.1 0.1 0.1 0.1 0.1 0.1 0.1 0.1 
0.1 0.1 0.1 0.1 0.1 0.1 0.1 0.1 0.1 
0.1 0.1 0.1 0.1 0.1 0.1 0.1 0.1 0.1 
0.1 0.1 0.1 0.1 0.1 0.1 0.1 0.1 0.1 
0.1 0.1 0.1 0.1 0.1 0.1 0.1 0.1 0.1 
0.1 0.1 0.1 0.1 0.1 0.1 0.1 0.1 0.1 
0.1 0.1 0.1 0.1 0.1 0.1 0.1 0.1 0.1 
0.1 0.1 0.1 0.1 0.1 0.1 0.1 0.1 0.1 
0.1 0.1 0.1 0.1 0.1 0.1 0.1 0.1 0.1 
0.1 0.1 0.1 0.1 0.1 0.1 0.1 0.1 0.1 
0.1 0.1 0.1 0.1 0.1 0.1 0.1 0.1 0.1 
0.1 0.1 0.1 0.1 0.1 0.1 0.1 0.1 0.1 
0.1 0.1 0.1 0.1 0.1 0.1 0.1 0.1 0.1 
0.1 0.1 0.1 0.1 0.1 0.1 0.1 0.1 0.1 
0.1 0.1 0.1 0.1 0.1 0.1 0.1 0.1 0.1 
0.1 0.1 0.1 0.1 0.1 0.1 0.1 0.1 0.1 
0.1 0.1 0.1 0.1 0.1 0.1 0.1 0.1 0.1 
0.1 0.1 0.1 0.1 0.1 0.1 0.1 0.1 0.1 
0.1 0.1 0.1 0.1 0.1 0.1 0.1 0.1 0.1 
0.1 0.1 0.1 0.1 0.1 0.1 0.1 0.1 0.1 
0.1 0.1 0.1 0.1 0.1 0.1 0.1 0.1 0.1 
0.1 0.1 0.1 0.1 0.1 0.1 0.1 0.1 0.1 
0.1 0.1 0.1 0.1 0.1 0.1 0.1 0.1 0.1 
0.1 0.1 0.1 0.1 0.1 0.1 0.1 0.1 0.1 
0.1 0.1 0.1 0.1 0.1 0.1 0.1 0.1 0.1 
0.1 0.1 0.1 0.1 0.1 0.1 0.1 0.1 0.1 
0.1 0.1 0.1 0.1 0.1 0.1 0.1 0.1 0.1 
0.1 0.1 0.1 0.1 0.1 0.1 0.1 0.1 0.1 
0.1 0.1 0.1 0.1 0.1 0.1 0.1 0.1 0.1 
0.1 0.1 0.1 0.1 0.1 0.1 0.1 0.1 0.1 
0.1 0.1 0.1 0.1 0.1 0.1 0.1 0.1 0.1 
0.1 0.1 0.1 0.1 0.1 0.1 0.1 0.1 0.1 
0.1 0.1 0.1 0.1 0.1 
m 1 1049 double
76.33 56.755 91.315 65.975 75.77 61.625 94.14 84.655 62.64 
65.745 83.88 53.285 84.935 90.92 99.255 94.295 93.885 95.485 
56.49 53.87 97.585 71.295 81.145 96.915 56.63 90.21 63.77 
74.595 72.105 86.865 59.805 71.62 75.99 92.685 91.575 71.85 
68.92 67.63 82.065 54.43 92.105 94.9 63.885 80.455 69.85 
86.405 99.78 95.85 84.98 59.365 84.31 85.42 61.525 51.68 
54.625 81.635 66.01 94.72 56.565 58.645 91.01 67.53 82.525 
54.23 84.575 79.285 52.725 97.91 69.475 80.62 94.07 51.82 
70.215 66.835 77.17 86.38 68.75 55.435 84.04 85.89 77.015 
78.94 67.92 63.255 63.77 99.66 75.3 98.38 66.84 61.995 
58.41 91.95 88.695 81.13 50.06 76.7 92.93 64.145 88.965 
57.17 52.85 90.47 87.695 53.975 50.485 64.51 83.005 87.335 
51.89 86.505 83.26 52.46 53.78 66.585 97.205 69.325 51.4 
71.43 98.445 92.2 92.22 83.095 90.155 73.645 72.405 90.585 
77.165 91.69 78.855 89.44 91.675 90.485 94.935 53.545 72.835 
89.28 53.375 94.635 72.93 97.485 84.825 61.765 76.53 81.095 
64.355 57.64 93.12 73.415 50.095 94.145 91.35 97.515 78.66 
98.54 66.84 81.7 83.575 90.745 67.295 64.23 68.09 88.98 
55.5 63.09 76.93 53.615 61.225 78.645 67.775 61.895 87.44 
67.255 88.82 64.605 99.205 91.14 52.46 88.61 91.99 75.965 
61.75 63.205 83.245 84.935 88.82 74.57 85.17 57.5 50.62 
79.28 68.715 91.825 82.455 61.135 57.105 57.16 99.295 62.755 
59.68 66.025 88.105 97.835 62.52 53.065 89.775 95.63 91.415 
54.34 83.92 97.64 60.105 64.21 89.94 78.975 53.715 61.46 
65.72 81.775 61.37 83.1 80.945 88.205 56.94 56.165 97.19 
65.37 90.125 82.185 66.375 57.37 77.035 96.14 77.895 59.965 
59.3 79.42 90.71 76.76 90.795 52.49 75.945 99.79 94.36 
99.54 89.855 84.745 76.19 76.835 51.445 50.45 72.06 97.395 
98.05 94.845 68.405 51.35 51.79 90.785 67.465 68.31 80.145 
71.975 80.605 56.185 94.29 94.25 58.88 73.845 86.275 76.365 
58.915 66.515 90.18 81.24 88.765 94.04 64.5 65.885 76.715 
81.675 82.145 56.56 91.775 59.43 96.07 67.56 91.815 67.085 
53.495 77.845 59.195 60.985 71.55 79.09 68.965 72.14 91.175 
80.715 51.895 90.02 55.775 88.66 79.97 65.415 73.95 53.195 
92.83 64.45 66.665 98.77 60.665 58.24 54.82 91.425 50.245 
52.52 78.145 95.4 98.155 54.285 93.135 92.965 63.11 93.97 
82.155 65.865 99.235 82.91 69.45 75.995 62.455 97.645 55.055 
79.64 62.02 93.88 91.045 92.905 62.95 96.68 94.095 56.77 
84.075 51.995 54.265 58.73 87.835 51.84 72.5 97.645 60.67 
80.635 61.075 71.695 58.46 95.255 63.235 94.73 84.85 61.45 
87.31 71.46 78.955 96.95 83.41 86.39 58.805 73.065 72.215 
78.815 72.69 93.03 61.49 69.49 53.565 52.62 80.95 68.94 
90.23 81.245 84.95 98.985 92.69 75.755 88.235 80.795 62.675 
74.58 67.645 74.97 82.76 77.89 96.84 57.605 75.575 92.87 
95.075 80.785 75.285 80.635 50.185 79.28 64.86 84.2 53.44 
74.09 75.64 64.52 56.11 83.2 76.925 80.21 96.495 88.325 
50.495 59.26 54.55 97.965 91.91 76.815 66.515 65.165 62.485 
51.265 82.015 52.14 60.01 72.5 53.405 74.925 72.76 93.81 
86.93 75.5 81.56 63.63 71.73 96.67 75.105 59.735 96.155 
64.755 57.455 63.675 99.585 84.98 89.585 66.62 86.845 69.25 
59.86 88.125 88.36 96.46 80.435 98.36 55.76 88.43 61.81 
82.95 69.98 52.64 74.46 95.625 95.94 77.18 62.3 95.785 
68.645 79.875 77.41 85.085 73.465 50.135 69.605 67.07 81.52 
93.45 52.3 94.51 50.14 83.74 90.135 67.685 87.78 90.25 
93.285 55.215 88.485 73.97 93.495 55.195 86.67 69.13 71.16 
67.705 61.305 52.845 50.295 90.115 83.805 51.8 80.21 95.585 
50.405 54.355 81.545 65.95 88.815 77.125 94.98 69.63 67.14 
73.385 72.62 71.17 58.13 53.45 81.835 80.285 51.79 82.53 
98.07 65.84 91.025 52.7 84.28 52.085 86.42 72.83 88.85 
79.245 65.295 51.185 61.3 86.025 53.03 92.59 76.085 67.13 
95.86 62.195 74.725 53.915 72.85 54.365 81.085 71.445 84.365 
92.29 88.185 52.415 96.57 52.39 83.035 81.82 72.355 63.785 
78.68 65.345 65.86 77.555 69.135 59.25 97.35 60.915 88.715 
92.45 77.495 78.15 50.42 56.98 70.405 86.345 51.54 75 
64.785 57.705 71.125 55.865 65.345 54.985 62.775 79.025 83.255 
77.105 78.22 83.625 98.86 87.525 77.95 96.12 69.6 89.09 
50.635 62.11 76.055 76.18 69.75 83.29 87.8 76.84 52.815 
75.525 62.835 50.245 56.22 99.67 93.555 66.455 59.025 86.875 
67.945 68.84 94.965 94.775 68.07 84.41 74.59 74.11 64.025 
84.91 83.55 57.87 65.465 70.15 70.09 82.145 54.625 83.585 
96.455 81.64 69.29 84.815 75.275 86.085 85.45 84.18 56.965 
74.52 90.65 63.305 92.855 92.28 63.02 73.945 84.255 98.165 
98.425 65.365 82.515 97.425 99.025 96.25 89.34 73.195 76.625 
78.91 95.03 67.58 55.405 87.58 60.975 64.745 51.13 83.815 
55.6 54.835 88.385 52.98 95.18 69.905 54.325 87.8 88.85 
81.71 67.59 89.775 96.055 91.35 61.895 62.66 86.605 75.98 
72.135 70.86 60.2 74.92 71.17 79.15 55.315 50.36 86.99 
86.415 52.865 51.735 84.75 68.57 60.15 80.295 75.41 84.62 
87.61 70.235 56.16 64.77 97.175 96.02 52.215 95.795 78.2 
71.39 77.43 59.49 96.31 99.24 55.205 98.415 51.31 64.03 
69.795 78.985 90.835 58.615 83.64 81.36 95.61 91.62 87.285 
96.825 86.675 79.105 70.77 76.09 58.88 63.735 51.345 55.855 
93.505 73.265 58.515 54.535 54.44 99.665 54.64 57.65 70.15 
52.685 75.27 68.7 70.49 64.31 88.345 98.93 90.695 64.77 
75.615 81.14 79.92 58.525 95.75 55.635 52.715 82.965 51.265 
50.63 57.43 80.695 61.155 58.98 77.02 65.01 93.6 63.49 
85.42 76.67 56.54 61.75 83.105 61.965 50.04 88.58 97.535 
92.71 92.32 90.41 50.985 99.055 69.7 99.52 78.335 79.695 
89.07 90.895 65.37 73.565 91.885 96.09 72.9 95.105 69.85 
61.69 92.06 54.76 94.49 54.955 55.26 81.88 63.575 60.355 
93.055 81.74 68.11 94.02 96.775 88.605 74.095 56.275 72.995 
76.605 85.44 78.55 78.875 64.595 73.81 76.895 99.31 74.06 
74.885 63.425 94.77 82.225 62.53 70.05 57.795 75.855 90.945 
86.4 56.345 92.885 86.715 77.84 89.14 78.73 96.495 88.565 
86.86 91.03 96.505 87.935 51.73 51.175 51.47 83.66 55.085 
96.035 67.415 57.68 99.52 70.88 67.185 94.88 91.705 86.805 
83.05 65.675 59.44 66.555 69.05 71.7 77.11 88.025 61.68 
81.71 76.05 58.295 60.045 75.765 78.455 55.685 62.865 69.715 
98.795 98.72 67.495 74.285 99.555 98.09 70.335 51.685 55.68 
56.8 88.215 56.525 59.005 74.39 68.65 78.305 60.86 84.435 
97.06 66.74 69.645 95.895 95.535 92.09 98.78 87.225 66.88 
77.71 79.68 60.45 88.42 55.475 56.7 64.63 75.42 82.33 
64.795 64.065 98.34 68.865 85.95 85.995 50.815 64.98 94.495 
89.905 94.665 79.47 74.65 99.01 93.3 69.405 85.655 54.865 
87.34 50.355 96.895 67.26 60.18 59.495 77.75 88.185 63 
60.31 78.12 64.62 91.41 66.29 67.08 67.325 83.54 93.68 
96.6 97.22 92.61 93.13 95.08 65.545 82.695 70.11 91.12 
50 75.405 75.265 66.89 90.545 97.13 90.335 79.945 95.57 
56.69 82.66 76.115 61.155 75.735 83.935 69.375 74.25 56.405 
50.895 60.61 55.655 76.75 61.27 82.95 69.065 95.905 89.285 
73.015 57.47 80.405 78.6 87.435 50.905 89.91 62.165 93.61 
77.02 94.125 97.075 96.48 51.485 95.67 50.16 52.755 84.46 
98.54 85.285 92.53 65.905 52.075 61.485 99.995 52.975 59.81 
87.415 94.885 50.77 75.055 56.545 78.88 62.935 99.66 66.91 
75.105 71.33 88.425 67.815 68.41 96.055 94.3 54.65 72.915 
79.95 71.425 95.43 70.58 59.46 86.57 79.1 57.38 87.45 
87.625 77.64 94.195 87.625 65.29 
p0 3 1049 double
0 -10 0 0 -10 0 0 -10 0 
0 -10 0 0 -10 0 0 -10 0 
0 -10 0 0 -10 0 0 -10 0 
0 -10 0 0 -10 0 0 -10 0 
0 -10 0 0 -10 0 0 -10 0 
0 -10 0 0 -10 0 0 -10 0 
0 -10 0 0 -10 0 0 -10 0 
0 0 0 0 0 0 0 0 0 
0 0 0 0 0 0 0 0 0 
0 0 0 0 0 0 0 0 0 
0 0 0 0 0 0 0 0 0 
0 0 0 0 0 0 0 0 0 
0 0 0 0 0 0 0 0 0 
0 0 0 -12 0 0 0 0 0 
0 0 0 0 0 0 -12 0 0 
0 0 0 0 0 0 0 0 0 
0 0 0 0 0 0 0 0 0 
0 0 0 0 0 0 0 0 0 
0 0 0 0 0 0 0 0 0 
0 0 0 0 0 0 0 0 0 
0 0 0 0 0 0 0 0 0 
0 0 0 0 0 0 0 0 0 
0 0 0 0 0 0 0 0 0 
0 0 0 0 0 0 0 0 0 
0 0 0 0 0 0 0 0 0 
0 0 0 0 0 0 0 0 0 
0 0 0 0 0 0 0 0 0 
0 0 0 0 0 0 0 0 0 
0 0 0 0 0 0 0 0 0 
0 0 0 0 0 0 0 0 0 
0 0 0 0 0 0 0 0 0 
0 0 0 0 0 0 0 0 0 
0 0 0 0 0 0 0 0 0 
0 0 0 0 0 0 0 0 0 
0 0 0 0 0 0 0 0 0 
0 0 0 0 0 0 0 0 0 
0 0 0 0 0 0 0 0 0 
0 0 0 0 0 0 0 0 0 
0 0 0 0 0 0 0 0 0 
0 0 0 0 0 0 0 0 0 
0 0 0 0 0 0 0 0 0 
0 0 0 0 0 0 0 0 0 
0 0 0 0 0 0 0 0 0 
0 0 0 0 0 0 0 0 0 
0 0 0 0 0 0 0 0 0 
0 0 0 0 0 0 0 0 0 
0 0 0 0 0 0 0 0 0 
0 0 0 0 0 0 0 0 0 
0 0 0 0 0 0 0 0 0 
0 0 0 0 0 0 0 0 0 
0 0 0 0 0 0 0 0 0 
0 0 0 0 0 0 0 0 0 
0 0 0 0 0 0 0 0 0 
0 0 0 0 0 0 0 0 0 
0 0 0 0 0 0 0 0 0 
0 0 0 0 0 0 0 0 0 
0 0 0 0 0 0 0 0 0 
0 0 0 0 0 0 0 0 0 
0 0 0 0 0 0 0 0 0 
12 0 0 12 0 0 0 0 0 
0 0 0 12 0 0 0 0 0 
0 0 0 0 0 0 0 0 0 
0 0 0 0 0 0 0 0 0 
0 0 0 0 0 0 0 0 0 
0 0 0 0 0 0 0 0 0 
0 0 0 0 0 0 0 0 0 
0 0 0 0 0 0 0 0 0 
0 0 0 0 0 0 0 0 0 
-12 0 0 -12 0 0 -12 0 0 
0 0 0 0 0 0 0 0 0 
0 0 0 0 0 0 0 0 0 
0 0 0 0 0 0 0 0 0 
0 0 0 0 0 0 0 0 0 
0 0 0 0 0 0 0 0 0 
0 0 0 0 0 0 0 0 0 
0 0 0 0 0 0 0 0 0 
0 0 0 0 0 0 0 0 0 
0 0 0 0 0 0 0 0 0 
0 0 0 0 0 0 0 0 0 
-12 0 0 -12 0 0 0 0 0 
0 0 0 0 0 0 0 0 0 
0 0 0 0 0 0 0 0 0 
0 0 0 0 0 0 0 0 0 
0 0 0 0 0 0 0 0 0 
0 0 0 0 0 0 0 0 0 
0 0 0 0 0 0 0 0 0 
0 0 0 12 0 0 0 0 0 
0 0 0 0 0 0 0 0 0 
0 0 0 0 0 0 0 0 0 
0 0 0 0 0 0 0 0 0 
-12 0 0 0 0 0 0 0 0 
0 0 0 0 0 0 0 0 0 
0 0 0 0 0 0 0 0 0 
0 0 0 0 0 0 0 0 0 
0 0 0 0 0 0 0 0 0 
0 0 0 0 0 0 0 0 0 
0 0 0 0 0 0 0 0 0 
12 0 0 12 0 0 0 0 0 
0 0 0 0 0 0 0 0 0 
0 0 0 0 0 0 0 0 0 
0 0 0 0 0 0 0 0 0 
-12 0 0 -12 0 0 -12 0 0 
-12 0 0 0 0 0 0 0 0 
0 0 0 0 0 0 0 0 0 
0 0 0 0 0 0 0 0 0 
0 0 0 0 0 0 0 0 0 
0 0 0 0 0 0 0 0 0 
0 0 0 0 0 0 0 0 0 
0 0 0 0 0 0 0 0 0 
12 0 0 12 0 0 12 0 0 
12 0 0 0 0 0 0 0 0 
0 0 0 0 0 0 0 0 0 
0 0 0 0 0 0 0 0 0 
0 0 0 0 0 0 -12 0 0 
-12 0 0 -12 0 0 -12 0 0 
0 0 0 0 0 0 0 0 0 
0 0 0 0 0 0 0 0 0 
0 0 0 0 0 0 0 0 0 
0 0 0 0 0 0 0 0 0 
0 0 0 0 0 0 0 0 0 
0 0 0 0 0 0 0 0 0 
0 0 0 0 0 0 12 0 0 
12 0 0 0 0 0 0 0 0 
0 0 0 0 0 0 0 0 0 
0 0 0 0 0 0 0 0 0 
0 0 0 0 0 0 0 0 0 
0 0 0 0 0 0 0 0 0 
0 0 0 0 0 0 0 0 0 
0 0 0 0 0 0 0 0 0 
0 0 0 0 0 0 0 0 0 
0 0 0 0 0 0 6 8 0 
0 0 0 0 0 0 0 0 0 
12 0 0 0 0 0 0 0 0 
12 0 0 12 0 0 12 0 0 
12 0 0 0 0 0 0 0 0 
0 0 0 0 0 0 0 0 0 
0 0 0 0 0 0 0 0 0 
0 0 0 0 0 0 -12 0 0 
-12 0 0 -12 0 0 -12 0 0 
-12 0 0 -12 0 0 0 0 0 
0 0 0 0 0 0 0 0 0 
0 0 0 0 0 0 0 0 0 
0 0 0 0 0 0 0 0 0 
0 8 0 0 8 0 0 8 0 
0 0 0 0 0 0 0 0 0 
0 0 0 0 0 0 6 8 0 
0 0 0 0 0 0 0 0 0 
0 0 0 0 0 0 12 0 0 
0 0 0 0 0 0 0 0 0 
0 0 0 0 0 0 0 0 0 
0 0 0 0 0 0 0 0 0 
0 0 0 -12 0 0 -12 0 0 
0 0 0 0 0 0 0 0 0 
-9 9 0 0 0 0 -9 9 0 
0 0 0 0 0 0 0 0 0 
0 0 0 0 0 0 0 0 0 
0 0 0 0 0 0 -9 9 0 
-9 9 0 -9 9 0 0 0 0 
0 0 0 0 0 0 0 0 0 
0 0 0 0 0 0 0 0 0 
0 0 0 0 0 0 0 0 0 
-9 9 0 0 0 0 0 0 0 
-9 9 0 0 0 0 0 0 0 
0 0 0 0 0 0 0 0 0 
-9 9 0 0 0 0 0 0 0 
0 0 0 0 0 0 0 0 0 
0 0 0 0 0 0 0 0 0 
0 0 0 0 0 0 0 0 0 
0 0 0 -9 9 0 0 0 0 
0 0 0 0 0 0 0 0 0 
0 0 0 0 0 0 9 9 0 
0 0 0 0 0 0 0 0 0 
0 0 0 0 0 0 0 0 0 
0 0 0 0 0 0 9 9 0 
0 0 0 0 0 0 0 0 0 
0 0 0 0 0 0 0 0 0 
0 0 0 0 0 0 0 0 0 
0 0 0 0 0 0 0 0 0 
0 0 0 0 0 0 0 0 0 
0 0 0 0 0 0 0 0 0 
0 0 0 9 9 0 0 0 0 
0 0 0 9 9 0 0 0 0 
9 9 0 0 0 0 0 0 0 
0 0 0 0 0 0 0 0 0 
0 0 0 0 0 0 0 0 0 
9 9 0 0 0 0 0 0 0 
0 0 0 0 0 0 12 0 0 
12 0 0 12 0 0 12 0 0 
0 0 0 0 0 0 0 0 0 
0 0 0 0 0 0 0 0 0 
0 0 0 0 0 0 0 0 0 
0 0 0 -12 0 0 -9 9 0 
-9 9 0 -9 9 0 -9 9 0 
-9 9 0 9 9 0 9 9 0 
9 9 0 9 9 0 12 0 0 
12 0 0 0 0 0 0 0 0 
0 0 0 0 0 0 0 0 0 
0 0 0 0 0 0 0 0 0 
0 0 0 0 0 0 0 0 0 
0 0 0 0 0 0 0 0 0 
0 0 0 0 0 0 0 0 0 
0 0 0 0 0 0 0 0 0 
0 0 0 0 0 0 0 0 0 
0 0 0 0 0 0 0 0 0 
0 0 0 0 0 0 0 0 0 
0 0 0 0 0 0 0 0 0 
0 0 0 0 0 0 0 0 0 
0 0 0 0 0 0 0 0 0 
0 0 0 0 0 0 0 0 0 
0 0 0 0 0 0 0 0 0 
0 0 0 0 0 0 0 0 0 
0 0 0 0 0 0 0 0 0 
0 0 0 0 0 0 0 0 0 
0 0 0 0 0 0 0 0 0 
0 0 0 0 0 0 0 0 0 
0 0 0 0 0 0 0 0 0 
0 0 0 0 0 0 0 0 0 
0 0 0 0 0 0 0 0 0 
0 0 0 0 0 0 0 0 0 
0 0 0 0 0 0 0 0 0 
0 0 0 0 0 0 0 0 0 
0 0 0 0 0 0 0 0 0 
0 0 0 0 0 0 0 0 0 
0 0 0 0 0 0 0 0 0 
0 0 0 0 0 0 0 0 0 
0 0 0 0 0 0 0 0 0 
0 0 0 0 0 0 0 0 0 
0 0 0 0 0 0 0 0 0 
0 0 0 0 0 0 0 0 0 
0 0 0 0 0 0 0 0 0 
0 0 0 0 0 0 0 0 0 
0 0 0 0 0 0 0 0 0 
0 0 0 0 0 0 0 0 0 
0 0 0 0 0 0 0 0 0 
0 0 0 0 0 0 0 0 0 
0 0 0 0 0 0 0 0 0 
0 0 0 0 0 0 0 0 0 
0 0 0 0 0 0 0 0 0 
0 0 0 0 0 0 0 0 0 
0 0 0 0 0 0 0 0 0 
0 0 0 0 0 0 0 0 0 
0 0 0 0 0 0 0 0 0 
0 0 0 0 0 0 0 0 0 
0 0 0 0 0 0 0 0 0 
0 0 0 0 0 0 0 0 0 
0 0 0 0 0 0 0 0 0 
0 0 0 0 0 0 0 0 0 
0 0 0 13.5 10 0 0 0 0 
13.5 10 0 0 0 0 0 0 0 
0 0 0 0 0 0 0 0 0 
0 0 0 0 0 0 0 0 0 
0 0 0 0 0 0 0 0 0 
0 0 0 0 0 0 0 0 0 
0 0 0 0 0 0 0 0 0 
0 0 0 0 0 0 0 0 0 
0 0 0 0 0 0 0 0 0 
0 0 0 0 0 0 0 0 0 
0 0 0 0 0 0 0 0 0 
0 0 0 0 0 0 0 0 0 
13.5 10 0 13.5 10 0 13.5 10 0 
13.5 10 0 13.5 10 0 0 0 0 
0 0 0 0 0 0 0 0 0 
0 0 0 0 0 0 0 0 0 
0 0 0 0 0 0 0 0 0 
0 0 0 0 0 0 0 0 0 
0 0 0 0 0 0 0 0 0 
0 0 0 0 0 0 0 0 0 
0 0 0 9 14.5 0 9 14.5 0 
0 0 0 0 0 0 0 0 0 
0 0 0 0 0 0 13.5 10 0 
0 0 0 0 0 0 0 0 0 
0 0 0 0 0 0 0 0 0 
0 0 0 0 0 0 0 0 0 
0 0 0 0 0 0 0 0 0 
0 0 0 0 0 0 0 0 0 
0 0 0 0 0 0 0 0 0 
0 0 0 0 0 0 9 14.5 0 
9 14.5 0 0 0 0 0 0 0 
0 0 0 0 0 0 0 0 0 
13.5 10 0 13.5 10 0 13.5 10 0 
0 0 0 0 0 0 0 0 0 
0 0 0 0 0 0 0 0 0 
0 0 0 0 0 0 0 0 0 
0 0 0 0 0 0 0 0 0 
0 0 0 0 0 0 0 0 0 
0 0 0 0 0 0 0 0 0 
0 0 0 0 0 0 9 14.5 0 
9 14.5 0 9 14.5 0 9 14.5 0 
13.5 10 0 0 0 0 13.5 10 0 
0 0 0 0 0 0 0 0 0 
0 0 0 0 0 0 0 0 0 
0 0 0 0 0 0 0 0 0 
0 0 0 0 0 0 0 0 0 
0 0 0 0 0 0 0 0 0 
0 0 0 0 0 0 0 0 0 
0 0 0 0 0 0 0 0 0 
0 0 0 0 0 0 0 0 0 
0 0 0 0 0 0 0 0 0 
0 0 0 0 0 0 0 0 0 
0 0 0 0 0 0 0 0 0 
0 0 0 0 0 0 0 0 0 
0 0 0 0 0 0 0 0 0 
0 0 0 0 0 0 0 0 0 
0 0 0 0 0 0 0 0 0 
0 0 0 0 0 0 0 0 0 
0 0 0 0 0 0 0 0 0 
0 0 0 0 0 0 0 0 0 
0 0 0 0 0 0 0 0 0 
0 0 0 0 0 0 0 0 0 
0 0 0 0 0 0 0 0 0 
0 0 0 0 0 0 0 0 0 
0 0 0 0 0 0 0 0 0 
0 0 0 0 0 0 0 0 0 
0 0 0 0 0 0 0 0 0 
0 0 0 0 0 0 0 0 0 
0 0 0 0 0 0 0 0 0 
0 0 0 0 0 0 0 0 0 
0 0 0 0 0 0 0 0 0 
0 0 0 0 0 0 0 0 0 
0 0 0 0 0 0 0 0 0 
0 0 0 0 0 0 0 0 0 
0 0 0 0 0 0 0 0 0 
0 0 0 0 0 0 0 0 0 
0 0 0 0 0 0 0 0 0 
0 0 0 0 0 0 0 0 0 
0 0 0 0 0 0 0 0 0 
0 0 0 0 0 0 0 0 0 
0 0 0 0 0 0 0 0 0 
0 0 0 0 0 0 0 0 0 
0 0 0 0 0 0 0 0 0 
0 0 0 0 0 0 0 0 0 
0 0 0 0 0 0 0 0 0 
0 0 0 0 0 0 0 0 0 
0 0 0 0 0 0 0 0 0 
0 0 0 0 0 0 0 0 0 
0 0 0 0 0 0 0 0 0 
0 0 0 0 0 0 0 0 0 
0 0 0 0 0 0 0 0 0 
0 0 0 0 0 0 0 0 0 
0 0 0 0 0 0 0 0 0 
0 0 0 0 0 0 0 0 0 
0 0 0 0 0 0 0 0 0 
0 0 0 0 0 0 0 0 0 
0 0 0 0 0 0 0 0 0 
0 0 0 0 0 0 0 0 0 
0 0 0 0 0 0 0 0 0 
0 0 0 0 0 0 0 0 0 
0 0 0 0 0 0 0 0 0 
0 0 0 0 0 0 0 0 0 
0 0 0 0 0 0 
v0 1 1049 double
3.7348 3.4418 3.5598 3.908 2.2246 3.5868 2.7598 3.1534 3.7604 
2.9072 2.2234 2.087 3.8026 2.7868 3.447 3.5098 3.3932 3.7132 
3.4192 2.8894 3.1552 0 0 0 0 0 0 
0 0 0 0 0 0 0 0 0 
0 0 0 0 3.3376 0 0 0 2.798 
0 0 0 0 0 0 0 0 0 
0 0 0 0 0 0 0 0 0 
0 0 0 0 0 0 0 0 0 
0 0 0 0 0 0 0 0 0 
0 0 0 0 0 0 0 0 0 
0 0 0 0 0 0 0 0 0 
0 0 0 0 0 0 0 0 0 
0 0 0 0 0 0 0 0 0 
0 0 0 0 0 0 0 0 0 
0 0 0 0 0 0 0 0 0 
0 0 0 0 0 0 0 0 0 
0 0 0 0 0 0 0 0 0 
0 0 0 0 0 0 0 0 0 
0 0 0 0 0 0 0 0 0 
0 0 0 0 0 0 2.9348 3.5394 0 
0 3.9438 0 0 0 0 0 0 0 
0 0 0 0 0 0 0 0 0 
0 0 0 0 0 0 2.5562 3.5338 2.959 
0 0 0 0 0 0 0 0 0 
0 0 0 0 0 0 0 0 0 
0 0 0 0 0 0 0 0 0 
0 0 0 3.3968 3.7722 0 0 0 0 
0 0 0 0 0 0 0 0 0 
0 0 0 0 0 0 0 2.7364 0 
0 0 0 0 0 0 0 0 0 
3.7956 0 0 0 0 0 0 0 0 
0 0 0 0 0 0 0 0 0 
0 0 0 2.105 2.2178 0 0 0 0 
0 0 0 0 0 0 3.4142 2.9892 2.5998 
3.7386 0 0 0 0 0 0 0 0 
0 0 0 0 0 0 0 0 0 
0 0 0 3.2294 3.1134 2.6972 3.6894 0 0 
0 0 0 0 0 0 0 0 3.6802 
3.6034 3.7004 3.9802 0 0 0 0 0 0 
0 0 0 0 0 0 0 0 0 
0 0 0 0 0 2.5702 2.8228 0 0 
0 0 0 0 0 0 0 0 0 
0 0 0 0 0 0 0 0 0 
0 0 0 0 0 2.0424 0 0 0 
3.358 0 0 2.227 2.3004 3.9752 2.6856 0 0 
0 0 0 0 0 0 0 0 3.4388 
2.0272 3.7164 2.0254 2.726 2.9862 0 0 0 0 
0 0 0 0 0 0 2.5992 2.6016 2.6138 
0 0 0 0 0 2.264 0 0 0 
0 0 3.0734 0 0 0 0 0 0 
0 0 0 0 3.2554 3.938 0 0 0 
3.5126 0 3.3812 0 0 0 0 0 0 
0 0 2.2866 2.9892 3.236 0 0 0 0 
0 0 0 0 0 0 2.9256 0 0 
3.4754 0 0 0 0 0 3.18 0 0 
0 0 0 0 0 0 0 0 0 
0 2.1056 0 0 0 0 0 0 2.79 
0 0 0 0 0 0 0 0 2.0302 
0 0 0 0 0 0 0 0 0 
0 0 0 0 0 0 0 0 0 
0 2.4594 0 0 3.5612 0 3.8554 0 0 
0 0 0 0 0 0 2.192 0 0 
0 0 3.2458 2.9518 2.5952 2.325 0 0 0 
0 0 0 0 0 0 0 3.4416 2.5352 
3.3948 2.8832 2.7916 2.5898 3.4072 2.8338 3.8484 3.219 2.5666 
3.4702 0 0 0 0 0 0 0 0 
0 0 0 0 0 0 0 0 0 
0 0 0 0 0 0 0 0 0 
0 0 0 0 0 0 0 0 0 
0 0 0 0 0 0 0 0 0 
0 0 0 0 0 0 0 0 0 
0 0 0 0 0 0 0 0 0 
0 0 0 0 0 0 0 0 0 
0 0 0 0 0 0 0 0 0 
0 0 0 0 0 0 0 0 0 
0 0 0 0 0 0 0 0 0 
0 0 0 0 0 0 0 0 0 
0 0 0 0 0 0 0 0 0 
0 0 0 0 0 0 0 0 0 
0 0 0 0 0 0 0 0 0 
0 0 0 0 0 0 0 0 0 
0 0 0 0 0 0 0 0 0 
0 0 0 0 3.2878 0 3.991 0 0 
0 0 0 0 0 0 0 0 0 
0 0 0 0 0 0 0 0 0 
0 0 0 0 0 0 0 0 0 
0 0 0 3.053 3.1832 3.3678 2.9022 2.0104 0 
0 0 0 0 0 0 0 0 0 
0 0 0 0 0 0 0 0 0 
0 2.1126 2.0074 0 0 0 0 0 3.8268 
0 0 0 0 0 0 0 0 0 
0 0 0 0 0 0 0 0 0 
0 0 2.1262 2.2322 0 0 0 0 0 
2.1178 2.4322 3.514 0 0 0 0 0 0 
0 0 0 0 0 0 0 0 0 
0 0 0 0 0 3.075 2.5972 2.7532 3.2768 
3.852 0 2.6632 0 0 0 0 0 0 
0 0 0 0 0 0 0 0 0 
0 0 0 0 0 0 0 0 0 
0 0 0 0 0 0 0 0 0 
0 0 0 0 0 0 0 0 0 
0 0 0 0 0 0 0 0 0 
0 0 0 0 0 0 0 0 0 
0 0 0 0 0 0 0 0 0 
0 0 0 0 0 0 0 0 0 
0 0 0 0 0 0 0 0 0 
0 0 0 0 0 0 0 0 0 
0 0 0 0 0 0 0 0 0 
0 0 0 0 0 0 0 0 0 
0 0 0 0 0 0 0 0 0 
0 0 0 0 0 0 0 0 0 
0 0 0 0 0 0 0 0 0 
0 0 0 0 0 0 0 0 0 
0 0 0 0 0 0 0 0 0 
0 0 0 0 0 0 0 0 0 
0 0 0 0 0 0 0 0 0 
0 0 0 0 0 
tau 1 1049 double
2 2 2 2 2 2 2 2 2 
2 2 2 2 2 2 2 2 2 
2 2 2 2 2 2 2 2 2 
2 2 2 2 2 2 2 2 2 
2 2 2 2 2 2 2 2 2 
2 2 2 2 2 2 2 2 2 
2 2 2 2 2 2 2 2 2 
2 2 2 2 2 2 2 2 2 
2 2 2 2 2 2 2 2 2 
2 2 2 2 2 2 2 2 2 
2 2 2 2 2 2 2 2 2 
2 2 2 2 2 2 2 2 2 
2 2 2 2 2 2 2 2 2 
2 2 2 2 2 2 2 2 2 
2 2 2 2 2 2 2 2 2 
2 2 2 2 2 2 2 2 2 
2 2 2 2 2 2 2 2 2 
2 2 2 2 2 2 2 2 2 
2 2 2 2 2 2 2 2 2 
2 2 2 2 2 2 2 2 2 
2 2 2 2 2 2 2 2 2 
2 2 2 2 2 2 2 2 2 
2 2 2 2 2 2 2 2 2 
2 2 2 2 2 2 2 2 2 
2 2 2 2 2 2 2 2 2 
2 2 2 2 2 2 2 2 2 
2 2 2 2 2 2 2 2 2 
2 2 2 2 2 2 2 2 2 
2 2 2 2 2 2 2 2 2 
2 2 2 2 2 2 2 2 2 
2 2 2 2 2 2 2 2 2 
2 2 2 2 2 2 2 2 2 
2 2 2 2 2 2 2 2 2 
2 2 2 2 2 2 2 2 2 
2 2 2 2 2 2 2 2 2 
2 2 2 2 2 2 2 2 2 
2 2 2 2 2 2 2 2 2 
2 2 2 2 2 2 2 2 2 
2 2 2 2 2 2 2 2 2 
2 2 2 2 2 2 2 2 2 
2 2 2 2 2 2 2 2 2 
2 2 2 2 2 2 2 2 2 
2 2 2 2 2 2 2 2 2 
2 2 2 2 2 2 2 2 2 
2 2 2 2 2 2 2 2 2 
2 2 2 2 2 2 2 2 2 
2 2 2 2 2 2 2 2 2 
2 2 2 2 2 2 2 2 2 
2 2 2 2 2 2 2 2 2 
2 2 2 2 2 2 2 2 2 
2 2 2 2 2 2 2 2 2 
2 2 2 2 2 2 2 2 2 
2 2 2 2 2 2 2 2 2 
2 2 2 2 2 2 2 2 2 
2 2 2 2 2 2 2 2 2 
2 2 2 2 2 2 2 2 2 
2 2 2 2 2 2 2 2 2 
2 2 2 2 2 2 2 2 2 
2 2 2 2 2 2 2 2 2 
2 2 2 2 2 2 2 2 2 
2 2 2 2 2 2 2 2 2 
2 2 2 2 2 2 2 2 2 
2 2 2 2 2 2 2 2 2 
2 2 2 2 2 2 2 2 2 
2 2 2 2 2 2 2 2 2 
2 2 2 2 2 2 2 2 2 
2 2 2 2 2 2 2 2 2 
2 2 2 2 2 2 2 2 2 
2 2 2 2 2 2 2 2 2 
2 2 2 2 2 2 2 2 2 
2 2 2 2 2 2 2 2 2 
2 2 2 2 2 2 2 2 2 
2 2 2 2 2 2 2 2 2 
2 2 2 2 2 2 2 2 2 
2 2 2 2 2 2 2 2 2 
2 2 2 2 2 2 2 2 2 
2 2 2 2 2 2 2 2 2 
2 2 2 2 2 2 2 2 2 
2 2 2 2 2 2 2 2 2 
2 2 2 2 2 2 2 2 2 
2 2 2 2 2 2 2 2 2 
2 2 2 2 2 2 2 2 2 
2 2 2 2 2 2 2 2 2 
2 2 2 2 2 2 2 2 2 
2 2 2 2 2 2 2 2 2 
2 2 2 2 2 2 2 2 2 
2 2 2 2 2 2 2 2 2 
2 2 2 2 2 2 2 2 2 
2 2 2 2 2 2 2 2 2 
2 2 2 2 2 2 2 2 2 
2 2 2 2 2 2 2 2 2 
2 2 2 2 2 2 2 2 2 
2 2 2 2 2 2 2 2 2 
2 2 2 2 2 2 2 2 2 
2 2 2 2 2 2 2 2 2 
2 2 2 2 2 2 2 2 2 
2 2 2 2 2 2 2 2 2 
2 2 2 2 2 2 2 2 2 
2 2 2 2 2 2 2 2 2 
2 2 2 2 2 2 2 2 2 
2 2 2 2 2 2 2 2 2 
2 2 2 2 2 2 2 2 2 
2 2 2 2 2 2 2 2 2 
2 2 2 2 2 2 2 2 2 
2 2 2 2 2 2 2 2 2 
2 2 2 2 2 2 2 2 2 
2 2 2 2 2 2 2 2 2 
2 2 2 2 2 2 2 2 2 
2 2 2 2 2 2 2 2 2 
2 2 2 2 2 2 2 2 2 
2 2 2 2 2 2 2 2 2 
2 2 2 2 2 2 2 2 2 
2 2 2 2 2 2 2 2 2 
2 2 2 2 2 2 2 2 2 
2 2 2 2 2 2 2 2 2 
2 2 2 2 2 2 2 2 2 
2 2 2 2 2 
R 1 1049 double
0.30266 0.26351 0.33263 0.28195 0.30154 0.27325 0.33828 0.31931 0.27528 
0.28149 0.31776 0.25657 0.31987 0.33184 0.34851 0.33859 0.33777 0.34097 
0.26298 0.25774 0.34517 0.1 0.1 0.1 0.1 0.1 0.1 
0.1 0.1 0.1 0.1 0.1 0.1 0.1 0.1 0.1 
0.1 0.1 0.1 0.1 0.33421 0.1 0.1 0.1 0.2897 
0.1 0.1 0.1 0.1 0.1 0.1 0.1 0.1 0.1 
0.1 0.1 0.1 0.1 0.1 0.1 0.1 0.1 0.1 
0.1 0.1 0.1 0.1 0.1 0.1 0.1 0.1 0.1 
0.1 0.1 0.1 0.1 0.1 0.1 0.1 0.1 0.1 
0.1 0.1 0.1 0.1 0.1 0.1 0.1 0.1 0.1 
0.1 0.1 0.1 0.1 0.1 0.1 0.1 0.1 0.1 
0.1 0.1 0.1 0.1 0.1 0.1 0.1 0.1 0.1 
0.1 0.1 0.1 0.1 0.1 0.1 0.1 0.1 0.1 
0.1 0.1 0.1 0.1 0.1 0.1 0.1 0.1 0.1 
0.1 0.1 0.1 0.1 0.1 0.1 0.1 0.1 0.1 
0.1 0.1 0.1 0.1 0.1 0.1 0.1 0.1 0.1 
0.1 0.1 0.1 0.1 0.1 0.1 0.1 0.1 0.1 
0.1 0.1 0.1 0.1 0.1 0.1 0.1 0.1 0.1 
0.1 0.1 0.1 0.1 0.1 0.1 0.1 0.1 0.1 
0.1 0.1 0.1 0.1 0.1 0.1 0.32722 0.33398 0.1 
0.1 0.27641 0.1 0.1 0.1 0.1 0.1 0.1 0.1 
0.1 0.1 0.1 0.1 0.1 0.1 0.1 0.1 0.1 
0.1 0.1 0.1 0.1 0.1 0.1 0.32955 0.34126 0.33283 
0.1 0.1 0.1 0.1 0.1 0.1 0.1 0.1 0.1 
0.1 0.1 0.1 0.1 0.1 0.1 0.1 0.1 0.1 
0.1 0.1 0.1 0.1 0.1 0.1 0.1 0.1 0.1 
0.1 0.1 0.1 0.30352 0.33159 0.1 0.1 0.1 0.1 
0.1 0.1 0.1 0.1 0.1 0.1 0.1 0.1 0.1 
0.1 0.1 0.1 0.1 0.1 0.1 0.1 0.28662 0.1 
0.1 0.1 0.1 0.1 0.1 0.1 0.1 0.1 0.1 
0.26783 0.1 0.1 0.1 0.1 0.1 0.1 0.1 0.1 
0.1 0.1 0.1 0.1 0.1 0.1 0.1 0.1 0.1 
0.1 0.1 0.1 0.27197 0.2931 0.1 0.1 0.1 0.1 
0.1 0.1 0.1 0.1 0.1 0.1 0.28083 0.2979 0.25639 
0.33566 0.1 0.1 0.1 0.1 0.1 0.1 0.1 0.1 
0.1 0.1 0.1 0.1 0.1 0.1 0.1 0.1 0.1 
0.1 0.1 0.1 0.31582 0.2889 0.30199 0.27491 0.1 0.1 
0.1 0.1 0.1 0.1 0.1 0.1 0.1 0.1 0.26354 
0.31815 0.25399 0.25853 0.1 0.1 0.1 0.1 0.1 0.1 
0.1 0.1 0.1 0.1 0.1 0.1 0.1 0.1 0.1 
0.1 0.1 0.1 0.1 0.1 0.32278 0.26761 0.1 0.1 
0.1 0.1 0.1 0.1 0.1 0.1 0.1 0.1 0.1 
0.1 0.1 0.1 0.1 0.1 0.1 0.1 0.1 0.1 
0.1 0.1 0.1 0.1 0.1 0.34368 0.1 0.1 0.1 
0.34015 0.1 0.1 0.31127 0.25037 0.30856 0.27972 0.1 0.1 
0.1 0.1 0.1 0.1 0.1 0.1 0.1 0.1 0.32665 
0.25099 0.26852 0.2591 0.34593 0.33382 0.1 0.1 0.1 0.1 
0.1 0.1 0.1 0.1 0.1 0.1 0.29985 0.29552 0.33762 
0.1 0.1 0.1 0.1 0.1 0.34334 0.1 0.1 0.1 
0.1 0.1 0.27735 0.1 0.1 0.1 0.1 0.1 0.1 
0.1 0.1 0.1 0.1 0.31087 0.34672 0.1 0.1 0.1 
0.3159 0.1 0.25528 0.1 0.1 0.1 0.1 0.1 0.1 
0.1 0.1 0.30482 0.32017 0.29693 0.1 0.1 0.1 0.1 
0.1 0.1 0.1 0.1 0.1 0.1 0.28537 0.1 0.1 
0.33657 0.1 0.1 0.1 0.1 0.1 0.32334 0.1 0.1 
0.1 0.1 0.1 0.1 0.1 0.1 0.1 0.1 0.1 
0.1 0.25871 0.1 0.1 0.1 0.1 0.1 0.1 0.28428 
0.1 0.1 0.1 0.1 0.1 0.1 0.1 0.1 0.31506 
0.1 0.1 0.1 0.1 0.1 0.1 0.1 0.1 0.1 
0.1 0.1 0.1 0.1 0.1 0.1 0.1 0.1 0.1 
0.1 0.27439 0.1 0.1 0.2957 0.1 0.31217 0.1 0.1 
0.1 0.1 0.1 0.1 0.1 0.1 0.31364 0.1 0.1 
0.1 0.1 0.28172 0.30511 0.28827 0.2685 0.1 0.1 0.1 
0.1 0.1 0.1 0.1 0.1 0.1 0.1 0.25308 0.3 
0.27957 0.26541 0.29225 0.26173 0.28069 0.25997 0.27555 0.30805 0.31651 
0.30421 0.1 0.1 0.1 0.1 0.1 0.1 0.1 0.1 
0.1 0.1 0.1 0.1 0.1 0.1 0.1 0.1 0.1 
0.1 0.1 0.1 0.1 0.1 0.1 0.1 0.1 0.1 
0.1 0.1 0.1 0.1 0.1 0.1 0.1 0.1 0.1 
0.1 0.1 0.1 0.1 0.1 0.1 0.1 0.1 0.1 
0.1 0.1 0.1 0.1 0.1 0.1 0.1 0.1 0.1 
0.1 0.1 0.1 0.1 0.1 0.1 0.1 0.1 0.1 
0.1 0.1 0.1 0.1 0.1 0.1 0.1 0.1 0.1 
0.1 0.1 0.1 0.1 0.1 0.1 0.1 0.1 0.1 
0.1 0.1 0.1 0.1 0.1 0.1 0.1 0.1 0.1 
0.1 0.1 0.1 0.1 0.1 0.1 0.1 0.1 0.1 
0.1 0.1 0.1 0.1 0.1 0.1 0.1 0.1 0.1 
0.1 0.1 0.1 0.1 0.1 0.1 0.1 0.1 0.1 
0.1 0.1 0.1 0.1 0.1 0.1 0.1 0.1 0.1 
0.1 0.1 0.1 0.1 0.1 0.1 0.1 0.1 0.1 
0.1 0.1 0.1 0.1 0.1 0.1 0.1 0.1 0.1 
0.1 0.1 0.1 0.1 0.1 0.1 0.1 0.1 0.1 
0.1 0.1 0.1 0.1 0.25888 0.1 0.25928 0.1 0.1 
0.1 0.1 0.1 0.1 0.1 0.1 0.1 0.1 0.1 
0.1 0.1 0.1 0.1 0.1 0.1 0.1 0.1 0.1 
0.1 0.1 0.1 0.1 0.1 0.1 0.1 0.1 0.1 
0.1 0.1 0.1 0.2735 0.31621 0.27393 0.25008 0.32716 0.1 
0.1 0.1 0.1 0.1 0.1 0.1 0.1 0.1 0.1 
0.1 0.1 0.1 0.1 0.1 0.1 0.1 0.1 0.1 
0.1 0.33412 0.25952 0.1 0.1 0.1 0.1 0.1 0.27071 
0.1 0.1 0.1 0.1 0.1 0.1 0.1 0.1 0.1 
0.1 0.1 0.1 0.1 0.1 0.1 0.1 0.1 0.1 
0.1 0.1 0.33954 0.31445 0.1 0.1 0.1 0.1 0.1 
0.3228 0.26269 0.33577 0.1 0.1 0.1 0.1 0.1 0.1 
0.1 0.1 0.1 0.1 0.1 0.1 0.1 0.1 0.1 
0.1 0.1 0.1 0.1 0.1 0.28437 0.33976 0.33341 0.32361 
0.3161 0.1 0.26888 0.1 0.1 0.1 0.1 0.1 0.1 
0.1 0.1 0.1 0.1 0.1 0.1 0.1 0.1 0.1 
0.1 0.1 0.1 0.1 0.1 0.1 0.1 0.1 0.1 
0.1 0.1 0.1 0.1 0.1 0.1 0.1 0.1 0.1 
0.1 0.1 0.1 0.1 0.1 0.1 0.1 0.1 0.1 
0.1 0.1 0.1 0.1 0.1 0.1 0.1 0.1 0.1 
0.1 0.1 0.1 0.1 0.1 0.1 0.1 0.1 0.1 
0.1 0.1 0.1 0.1 0.1 0.1 0.1 0.1 0.1 
0.1 0.1 0.1 0.1 0.1 0.1 0.1 0.1 0.1 
0.1 0.1 0.1 0.1 0.1 0.1 0.1 0.1 0.1 
0.1 0.1 0.1 0.1 0.1 0.1 0.1 0.1 0.1 
0.1 0.1 0.1 0.1 0.1 0.1 0.1 0.1 0.1 
0.1 0.1 0.1 0.1 0.1 0.1 0.1 0.1 0.1 
0.1 0.1 0.1 0.1 0.1 0.1 0.1 0.1 0.1 
0.1 0.1 0.1 0.1 0.1 0.1 0.1 0.1 0.1 
0.1 0.1 0.1 0.1 0.1 0.1 0.1 0.1 0.1 
0.1 0.1 0.1 0.1 0.1 0.1 0.1 0.1 0.1 
0.1 0.1 0.1 0.1 0.1 0.1 0.1 0.1 0.1 
0.1 0.1 0.1 0.1 0.1 0.1 0.1 0.1 0.1 
0.1 0.1 0.1 0.1 0.1 0.1 0.1 0.1 0.1 
0.1 0.1 0.1 0.1 0.1 
a 3 1049 double
0 0 0 0 0 0 0 0 0 
0 0 0 0 0 0 0 0 0 
0 0 0 0 0 0 0 0 0 
0 0 0 0 0 0 0 0 0 
0 0 0 0 0 0 0 0 0 
0 0 0 0 0 0 0 0 0 
0 0 0 0 0 0 0 0 0 
0 0 0 0 0 0 0 0 0 
0 0 0 0 0 0 0 0 0 
0 0 0 0 0 0 0 0 0 
0 0 0 0 0 0 0 0 0 
0 0 0 0 0 0 0 0 0 
0 0 0 0 0 0 0 0 0 
0 0 0 0 0 0 0 0 0 
0 0 0 0 0 0 0 0 0 
0 0 0 0 0 0 0 0 0 
0 0 0 0 0 0 0 0 0 
0 0 0 0 0 0 0 0 0 
0 0 0 0 0 0 0 0 0 
0 0 0 0 0 0 0 0 0 
0 0 0 0 0 0 0 0 0 
0 0 0 0 0 0 0 0 0 
0 0 0 0 0 0 0 0 0 
0 0 0 0 0 0 0 0 0 
0 0 0 0 0 0 0 0 0 
0 0 0 0 0 0 0 0 0 
0 0 0 0 0 0 0 0 0 
0 0 0 0 0 0 0 0 0 
0 0 0 0 0 0 0 0 0 
0 0 0 0 0 0 0 0 0 
0 0 0 0 0 0 0 0 0 
0 0 0 0 0 0 0 0 0 
0 0 0 0 0 0 0 0 0 
0 0 0 0 0 0 0 0 0 
0 0 0 0 0 0 0 0 0 
0 0 0 0 0 0 0 0 0 
0 0 0 0 0 0 0 0 0 
0 0 0 0 0 0 0 0 0 
0 0 0 0 0 0 0 0 0 
0 0 0 0 0 0 0 0 0 
0 0 0 0 0 0 0 0 0 
0 0 0 0 0 0 0 0 0 
0 0 0 0 0 0 0 0 0 
0 0 0 0 0 0 0 0 0 
0 0 0 0 0 0 0 0 0 
0 0 0 0 0 0 0 0 0 
0 0 0 0 0 0 0 0 0 
0 0 0 0 0 0 0 0 0 
0 0 0 0 0 0 0 0 0 
0 0 0 0 0 0 0 0 0 
0 0 0 0 0 0 0 0 0 
0 0 0 0 0 0 0 0 0 
0 0 0 0 0 0 0 0 0 
0 0 0 0 0 0 0 0 0 
0 0 0 0 0 0 0 0 0 
0 0 0 0 0 0 0 0 0 
0 0 0 0 0 0 0 0 0 
0 0 0 0 0 0 0 0 0 
0 0 0 0 0 0 0 0 0 
0 0 0 0 0 0 0 0 0 
0 0 0 0 0 0 0 0 0 
0 0 0 0 0 0 0 0 0 
0 0 0 0 0 0 0 0 0 
0 0 0 0 0 0 0 0 0 
0 0 0 0 0 0 0 0 0 
0 0 0 0 0 0 0 0 0 
0 0 0 0 0 0 0 0 0 
0 0 0 0 0 0 0 0 0 
0 0 0 0 0 0 0 0 0 
0 0 0 0 0 0 0 0 0 
0 0 0 0 0 0 0 0 0 
0 0 0 0 0 0 0 0 0 
0 0 0 0 0 0 0 0 0 
0 0 0 0 0 0 0 0 0 
0 0 0 0 0 0 0 0 0 
0 0 0 0 0 0 0 0 0 
0 0 0 0 0 0 0 0 0 
0 0 0 0 0 0 0 0 0 
0 0 0 0 0 0 0 0 0 
0 0 0 0 0 0 0 0 0 
0 0 0 0 0 0 0 0 0 
0 0 0 0 0 0 0 0 0 
0 0 0 0 0 0 0 0 0 
0 0 0 0 0 0 0 0 0 
0 0 0 0 0 0 0 0 0 
0 0 0 0 0 0 0 0 0 
0 0 0 0 0 0 0 0 0 
0 0 0 0 0 0 0 0 0 
0 0 0 0 0 0 0 0 0 
0 0 0 0 0 0 0 0 0 
0 0 0 0 0 0 0 0 0 
0 0 0 0 0 0 0 0 0 
0 0 0 0 0 0 0 0 0 
0 0 0 0 0 0 0 0 0 
0 0 0 0 0 0 0 0 0 
0 0 0 0 0 0 0 0 0 
0 0 0 0 0 0 0 0 0 
0 0 0 0 0 0 0 0 0 
0 0 0 0 0 0 0 0 0 
0 0 0 0 0 0 0 0 0 
0 0 0 0 0 0 0 0 0 
0 0 0 0 0 0 0 0 0 
0 0 0 0 0 0 0 0 0 
0 0 0 0 0 0 0 0 0 
0 0 0 0 0 0 0 0 0 
0 0 0 0 0 0 0 0 0 
0 0 0 0 0 0 0 0 0 
0 0 0 0 0 0 0 0 0 
0 0 0 0 0 0 0 0 0 
0 0 0 0 0 0 0 0 0 
0 0 0 0 0 0 0 0 0 
0 0 0 0 0 0 0 0 0 
0 0 0 0 0 0 0 0 0 
0 0 0 0 0 0 0 0 0 
0 0 0 0 0 0 0 0 0 
0 0 0 0 0 0 0 0 0 
0 0 0 0 0 0 0 0 0 
0 0 0 0 0 0 0 0 0 
0 0 0 0 0 0 0 0 0 
0 0 0 0 0 0 0 0 0 
0 0 0 0 0 0 0 0 0 
0 0 0 0 0 0 0 0 0 
0 0 0 0 0 0 0 0 0 
0 0 0 0 0 0 0 0 0 
0 0 0 0 0 0 0 0 0 
0 0 0 0 0 0 0 0 0 
0 0 0 0 0 0 0 0 0 
0 0 0 0 0 0 0 0 0 
0 0 0 0 0 0 0 0 0 
0 0 0 0 0 0 0 0 0 
0 0 0 0 0 0 0 0 0 
0 0 0 0 0 0 0 0 0 
0 0 0 0 0 0 0 0 0 
0 0 0 0 0 0 0 0 0 
0 0 0 0 0 0 0 0 0 
0 0 0 0 0 0 0 0 0 
0 0 0 0 0 0 0 0 0 
0 0 0 0 0 0 0 0 0 
0 0 0 0 0 0 0 0 0 
0 0 0 0 0 0 0 0 0 
0 0 0 0 0 0 0 0 0 
0 0 0 0 0 0 0 0 0 
0 0 0 0 0 0 0 0 0 
0 0 0 0 0 0 0 0 0 
0 0 0 0 0 0 0 0 0 
0 0 0 0 0 0 0 0 0 
0 0 0 0 0 0 0 0 0 
0 0 0 0 0 0 0 0 0 
0 0 0 0 0 0 0 0 0 
0 0 0 0 0 0 0 0 0 
0 0 0 0 0 0 0 0 0 
0 0 0 0 0 0 0 0 0 
0 0 0 0 0 0 0 0 0 
0 0 0 0 0 0 0 0 0 
0 0 0 0 0 0 0 0 0 
0 0 0 0 0 0 0 0 0 
0 0 0 0 0 0 0 0 0 
0 0 0 0 0 0 0 0 0 
0 0 0 0 0 0 0 0 0 
0 0 0 0 0 0 0 0 0 
0 0 0 0 0 0 0 0 0 
0 0 0 0 0 0 0 0 0 
0 0 0 0 0 0 0 0 0 
0 0 0 0 0 0 0 0 0 
0 0 0 0 0 0 0 0 0 
0 0 0 0 0 0 0 0 0 
0 0 0 0 0 0 0 0 0 
0 0 0 0 0 0 0 0 0 
0 0 0 0 0 0 0 0 0 
0 0 0 0 0 0 0 0 0 
0 0 0 0 0 0 0 0 0 
0 0 0 0 0 0 0 0 0 
0 0 0 0 0 0 0 0 0 
0 0 0 0 0 0 0 0 0 
0 0 0 0 0 0 0 0 0 
0 0 0 0 0 0 0 0 0 
0 0 0 0 0 0 0 0 0 
0 0 0 0 0 0 0 0 0 
0 0 0 0 0 0 0 0 0 
0 0 0 0 0 0 0 0 0 
0 0 0 0 0 0 0 0 0 
0 0 0 0 0 0 0 0 0 
0 0 0 0 0 0 0 0 0 
0 0 0 0 0 0 0 0 0 
0 0 0 0 0 0 0 0 0 
0 0 0 0 0 0 0 0 0 
0 0 0 0 0 0 0 0 0 
0 0 0 0 0 0 0 0 0 
0 0 0 0 0 0 0 0 0 
0 0 0 0 0 0 0 0 0 
0 0 0 0 0 0 0 0 0 
0 0 0 0 0 0 0 0 0 
0 0 0 0 0 0 0 0 0 
0 0 0 0 0 0 0 0 0 
0 0 0 0 0 0 0 0 0 
0 0 0 0 0 0 0 0 0 
0 0 0 0 0 0 0 0 0 
0 0 0 0 0 0 0 0 0 
0 0 0 0 0 0 0 0 0 
0 0 0 0 0 0 0 0 0 
0 0 0 0 0 0 0 0 0 
0 0 0 0 0 0 0 0 0 
0 0 0 0 0 0 0 0 0 
0 0 0 0 0 0 0 0 0 
0 0 0 0 0 0 0 0 0 
0 0 0 0 0 0 0 0 0 
0 0 0 0 0 0 0 0 0 
0 0 0 0 0 0 0 0 0 
0 0 0 0 0 0 0 0 0 
0 0 0 0 0 0 0 0 0 
0 0 0 0 0 0 0 0 0 
0 0 0 0 0 0 0 0 0 
0 0 0 0 0 0 0 0 0 
0 0 0 0 0 0 0 0 0 
0 0 0 0 0 0 0 0 0 
0 0 0 0 0 0 0 0 0 
0 0 0 0 0 0 0 0 0 
0 0 0 0 0 0 0 0 0 
0 0 0 0 0 0 0 0 0 
0 0 0 0 0 0 0 0 0 
0 0 0 0 0 0 0 0 0 
0 0 0 0 0 0 0 0 0 
0 0 0 0 0 0 0 0 0 
0 0 0 0 0 0 0 0 0 
0 0 0 0 0 0 0 0 0 
0 0 0 0 0 0 0 0 0 
0 0 0 0 0 0 0 0 0 
0 0 0 0 0 0 0 0 0 
0 0 0 0 0 0 0 0 0 
0 0 0 0 0 0 0 0 0 
0 0 0 0 0 0 0 0 0 
0 0 0 0 0 0 0 0 0 
0 0 0 0 0 0 0 0 0 
0 0 0 0 0 0 0 0 0 
0 0 0 0 0 0 0 0 0 
0 0 0 0 0 0 0 0 0 
0 0 0 0 0 0 0 0 0 
0 0 0 0 0 0 0 0 0 
0 0 0 0 0 0 0 0 0 
0 0 0 0 0 0 0 0 0 
0 0 0 0 0 0 0 0 0 
0 0 0 0 0 0 0 0 0 
0 0 0 0 0 0 0 0 0 
0 0 0 0 0 0 0 0 0 
0 0 0 0 0 0 0 0 0 
0 0 0 0 0 0 0 0 0 
0 0 0 0 0 0 0 0 0 
0 0 0 0 0 0 0 0 0 
0 0 0 0 0 0 0 0 0 
0 0 0 0 0 0 0 0 0 
0 0 0 0 0 0 0 0 0 
0 0 0 0 0 0 0 0 0 
0 0 0 0 0 0 0 0 0 
0 0 0 0 0 0 0 0 0 
0 0 0 0 0 0 0 0 0 
0 0 0 0 0 0 0 0 0 
0 0 0 0 0 0 0 0 0 
0 0 0 0 0 0 0 0 0 
0 0 0 0 0 0 0 0 0 
0 0 0 0 0 0 0 0 0 
0 0 0 0 0 0 0 0 0 
0 0 0 0 0 0 0 0 0 
0 0 0 0 0 0 0 0 0 
0 0 0 0 0 0 0 0 0 
0 0 0 0 0 0 0 0 0 
0 0 0 0 0 0 0 0 0 
0 0 0 0 0 0 0 0 0 
0 0 0 0 0 0 0 0 0 
0 0 0 0 0 0 0 0 0 
0 0 0 0 0 0 0 0 0 
0 0 0 0 0 0 0 0 0 
0 0 0 0 0 0 0 0 0 
0 0 0 0 0 0 0 0 0 
0 0 0 0 0 0 0 0 0 
0 0 0 0 0 0 0 0 0 
0 0 0 0 0 0 0 0 0 
0 0 0 0 0 0 0 0 0 
0 0 0 0 0 0 0 0 0 
0 0 0 0 0 0 0 0 0 
0 0 0 0 0 0 0 0 0 
0 0 0 0 0 0 0 0 0 
0 0 0 0 0 0 0 0 0 
0 0 0 0 0 0 0 0 0 
0 0 0 0 0 0 0 0 0 
0 0 0 0 0 0 0 0 0 
0 0 0 0 0 0 0 0 0 
0 0 0 0 0 0 0 0 0 
0 0 0 0 0 0 0 0 0 
0 0 0 0 0 0 0 0 0 
0 0 0 0 0 0 0 0 0 
0 0 0 0 0 0 0 0 0 
0 0 0 0 0 0 0 0 0 
0 0 0 0 0 0 0 0 0 
0 0 0 0 0 0 0 0 0 
0 0 0 0 0 0 0 0 0 
0 0 0 0 0 0 0 0 0 
0 0 0 0 0 0 0 0 0 
0 0 0 0 0 0 0 0 0 
0 0 0 0 0 0 0 0 0 
0 0 0 0 0 0 0 0 0 
0 0 0 0 0 0 0 0 0 
0 0 0 0 0 0 0 0 0 
0 0 0 0 0 0 0 0 0 
0 0 0 0 0 0 0 0 0 
0 0 0 0 0 0 0 0 0 
0 0 0 0 0 0 0 0 0 
0 0 0 0 0 0 0 0 0 
0 0 0 0 0 0 0 0 0 
0 0 0 0 0 0 0 0 0 
0 0 0 0 0 0 0 0 0 
0 0 0 0 0 0 0 0 0 
0 0 0 0 0 0 0 0 0 
0 0 0 0 0 0 0 0 0 
0 0 0 0 0 0 0 0 0 
0 0 0 0 0 0 0 0 0 
0 0 0 0 0 0 0 0 0 
0 0 0 0 0 0 0 0 0 
0 0 0 0 0 0 0 0 0 
0 0 0 0 0 0 0 0 0 
0 0 0 0 0 0 0 0 0 
0 0 0 0 0 0 0 0 0 
0 0 0 0 0 0 0 0 0 
0 0 0 0 0 0 0 0 0 
0 0 0 0 0 0 0 0 0 
0 0 0 0 0 0 0 0 0 
0 0 0 0 0 0 0 0 0 
0 0 0 0 0 0 0 0 0 
0 0 0 0 0 0 0 0 0 
0 0 0 0 0 0 0 0 0 
0 0 0 0 0 0 0 0 0 
0 0 0 0 0 0 0 0 0 
0 0 0 0 0 0 0 0 0 
0 0 0 0 0 0 0 0 0 
0 0 0 0 0 0 0 0 0 
0 0 0 0 0 0 0 0 0 
0 0 0 0 0 0 0 0 0 
0 0 0 0 0 0 0 0 0 
0 0 0 0 0 0 0 0 0 
0 0 0 0 0 0 0 0 0 
0 0 0 0 0 0 0 0 0 
0 0 0 0 0 0 0 0 0 
0 0 0 0 0 0 0 0 0 
0 0 0 0 0 0 0 0 0 
0 0 0 0 0 0 0 0 0 
0 0 0 0 0 0 0 0 0 
0 0 0 0 0 0 0 0 0 
0 0 0 0 0 0 0 0 0 
0 0 0 0 0 0 0 0 0 
0 0 0 0 0 0 0 0 0 
0 0 0 0 0 0 
v 3 1049 double
0.949384 -0.798593 0 0.951738 -0.744673 0 -0.919311 -0.750258 0 
0.979864 -0.783229 0 -0.593467 -0.650845 0 0.898987 -0.745395 0 
0.74428 -0.58853 0 -0.913074 -0.629594 0 -0.872925 -0.658591 0 
-0.745119 -0.62212 0 0.658546 -0.691954 0 0.564457 -0.420108 0 
-0.931553 -0.777282 0 -0.734748 -0.618058 0 -0.95268 -0.706243 0 
0.894796 -0.581261 0 0.826201 -0.696736 0 -0.917429 -0.753709 0 
-0.859829 -0.702862 0 0.714992 -0.889254 0 0.801451 -0.687516 0 
0 0 0 0 0 0 0 0 0 
0 0 0 0 0 0 0 0 0 
0 0 0 0 0 0 0 0 0 
0 0 0 0 0 0 0 0 0 
0 0 0 0 0 0 0 0 0 
0 0 0 0 0 0 0 0 0 
0 0 0 0.604262 -1.05034 0 0 0 0 
0 0 0 0 0 0 -0.075114 -0.658273 0 
0 0 0 0 0 0 0 0 0 
0 0 0 0 0 0 0 0 0 
0 0 0 0 0 0 0 0 0 
0 0 0 0 0 0 0 0 0 
0 0 0 0 0 0 0 0 0 
0 0 0 0 0 0 0 0 0 
0 0 0 0 0 0 0 0 0 
0 0 0 0 0 0 0 0 0 
0 0 0 0 0 0 0 0 0 
0 0 0 0 0 0 0 0 0 
0 0 0 0 0 0 0 0 0 
0 0 0 0 0 0 0 0 0 
0 0 0 0 0 0 0 0 0 
0 0 0 0 0 0 0 0 0 
0 0 0 0 0 0 0 0 0 
0 0 0 0 0 0 0 0 0 
0 0 0 0 0 0 0 0 0 
0 0 0 0 0 0 0 0 0 
0 0 0 0 0 0 0 0 0 
0 0 0 0 0 0 0 0 0 
0 0 0 0 0 0 0 0 0 
0 0 0 0 0 0 0 0 0 
0 0 0 0 0 0 0 0 0 
0 0 0 0 0 0 0 0 0 
0 0 0 0 0 0 0 0 0 
0 0 0 0 0 0 0 0 0 
0 0 0 0 0 0 0 0 0 
0 0 0 0 0 0 0 0 0 
0 0 0 0 0 0 0 0 0 
0 0 0 0 0 0 0 0 0 
0 0 0 0 0 0 0 0 0 
0 0 0 0 0 0 0 0 0 
0 0 0 0 0 0 0 0 0 
0 0 0 0 0 0 0 0 0 
0 0 0 0 0 0 0 0 0 
0 0 0 0 0 0 0 0 0 
0 0 0 0 0 0 0 0 0 
0 0 0 0 0 0 0 0 0 
0 0 0 0 0 0 0 0 0 
0 0 0 0 0 0 0 0 0 
0 0 0 0 0 0 0 0 0 
0 0 0 0 0 0 0 0 0 
0 0 0 0 0 0 0 0 0 
0 0 0 0 0 0 0 0 0 
0.259876 -0.795771 0 -0.265739 -1.1931 0 0 0 0 
0 0 0 0.295857 -1.13313 0 0 0 0 
0 0 0 0 0 0 0 0 0 
0 0 0 0 0 0 0 0 0 
0 0 0 0 0 0 0 0 0 
0 0 0 0 0 0 0 0 0 
0 0 0 0 0 0 0 0 0 
0 0 0 0 0 0 0 0 0 
0 0 0 0 0 0 0 0 0 
-0.0963437 -0.73341 0 -0.276938 -1.1112 0 -0.35682 -0.867673 0 
0 0 0 0 0 0 0 0 0 
0 0 0 0 0 0 0 0 0 
0 0 0 0 0 0 0 0 0 
0 0 0 0 0 0 0 0 0 
0 0 0 0 0 0 0 0 0 
0 0 0 0 0 0 0 0 0 
0 0 0 0 0 0 0 0 0 
0 0 0 0 0 0 0 0 0 
0 0 0 0 0 0 0 0 0 
0 0 0 0 0 0 0 0 0 
0.149733 -1.09661 0 -0.365351 -1.12405 0 0 0 0 
0 0 0 0 0 0 0 0 0 
0 0 0 0 0 0 0 0 0 
0 0 0 0 0 0 0 0 0 
0 0 0 0 0 0 0 0 0 
0 0 0 0 0 0 0 0 0 
0 0 0 0 0 0 0 0 0 
0 0 0 0.259272 -0.885586 0 0 0 0 
0 0 0 0 0 0 0 0 0 
0 0 0 0 0 0 0 0 0 
0 0 0 0 0 0 0 0 0 
-0.356827 -1.17788 0 0 0 0 0 0 0 
0 0 0 0 0 0 0 0 0 
0 0 0 0 0 0 0 0 0 
0 0 0 0 0 0 0 0 0 
0 0 0 0 0 0 0 0 0 
0 0 0 0 0 0 0 0 0 
0 0 0 0 0 0 0 0 0 
0.265199 -0.90512 0 -0.0970406 -0.951715 0 0 0 0 
0 0 0 0 0 0 0 0 0 
0 0 0 0 0 0 0 0 0 
0 0 0 0 0 0 0 0 0 
0.154238 -1.09959 0 0.212393 -1.06915 0 0.117004 -0.989232 0 
-0.365868 -1.20365 0 0 0 0 0 0 0 
0 0 0 0 0 0 0 0 0 
0 0 0 0 0 0 0 0 0 
0 0 0 0 0 0 0 0 0 
0 0 0 0 0 0 0 0 0 
0 0 0 0 0 0 0 0 0 
0 0 0 0 0 0 0 0 0 
0.249842 -0.909234 0 0.281073 -0.909757 0 0.250955 -0.877445 0 
-0.193805 -0.963527 0 0 0 0 0 0 0 
0 0 0 0 0 0 0 0 0 
0 0 0 0 0 0 0 0 0 
0 0 0 0 0 0 0.173196 -1.07842 0 
0.164911 -1.13292 0 -0.366781 -1.20384 0 -0.368625 -1.20912 0 
0 0 0 0 0 0 0 0 0 
0 0 0 0 0 0 0 0 0 
0 0 0 0 0 0 0 0 0 
0 0 0 0 0 0 0 0 0 
0 0 0 0 0 0 0 0 0 
0 0 0 0 0 0 0 0 0 
0 0 0 0 0 0 0.246579 -0.862414 0 
-0.145175 -0.945742 0 0 0 0 0 0 0 
0 0 0 0 0 0 0 0 0 
0 0 0 0 0 0 0 0 0 
0 0 0 0 0 0 0 0 0 
0 0 0 0 0 0 0 0 0 
0 0 0 0 0 0 0 0 0 
0 0 0 0 0 0 0 0 0 
0 0 0 0 0 0 0 0 0 
0 0 0 0 0 0 -0.194381 0.652461 0 
0 0 0 0 0 0 0 0 0 
0.261606 -1.08533 0 0 0 0 0 0 0 
0.321829 -0.718434 0 -0.201462 -0.773189 0 -0.176087 -1.28983 0 
-0.105756 -0.876697 0 0 0 0 0 0 0 
0 0 0 0 0 0 0 0 0 
0 0 0 0 0 0 0 0 0 
0 0 0 0 0 0 0.109095 -1.109 0 
0.216523 -0.708409 0 -0.382293 -1.22773 0 -0.250643 -0.637722 0 
-0.289915 -0.945265 0 -0.377764 -0.986189 0 0 0 0 
0 0 0 0 0 0 0 0 0 
0 0 0 0 0 0 0 0 0 
0 0 0 0 0 0 0 0 0 
-0.0656364 0.31603 0 0.000299756 0.629255 0 -0.450111 0.760383 0 
0 0 0 0 0 0 0 0 0 
0 0 0 0 0 0 0.12058 0.664425 0 
0 0 0 0 0 0 0 0 0 
0 0 0 0 0 0 0.356878 -0.98062 0 
0 0 0 0 0 0 0 0 0 
0 0 0 0 0 0 0 0 0 
0 0 0 0 0 0 0 0 0 
0 0 0 -0.575551 -0.995756 0 -0.443962 -1.25532 0 
0 0 0 0 0 0 0 0 0 
-0.84647 -0.0300224 0 0 0 0 -0.806649 0.0156035 0 
0 0 0 0 0 0 0 0 0 
0 0 0 0 0 0 0 0 0 
0 0 0 0 0 0 -0.930046 0.0119356 0 
-0.381874 0.670244 0 -0.830045 0.273898 0 0 0 0 
0 0 0 0 0 0 0 0 0 
0 0 0 0 0 0 0 0 0 
0 0 0 0 0 0 0 0 0 
-1.0109 0.0438815 0 0 0 0 0 0 0 
-1.13259 0.0645443 0 0 0 0 0 0 0 
0 0 0 0 0 0 0 0 0 
-1.05892 0.102453 0 0 0 0 0 0 0 
0 0 0 0 0 0 0 0 0 
0 0 0 0 0 0 0 0 0 
0 0 0 0 0 0 0 0 0 
0 0 0 -0.689579 0.641797 0 0 0 0 
0 0 0 0 0 0 0 0 0 
0 0 0 0 0 0 0.921759 0.263511 0 
0 0 0 0 0 0 0 0 0 
0 0 0 0 0 0 0 0 0 
0 0 0 0 0 0 0.67703 0.0503557 0 
0 0 0 0 0 0 0 0 0 
0 0 0 0 0 0 0 0 0 
0 0 0 0 0 0 0 0 0 
0 0 0 0 0 0 0 0 0 
0 0 0 0 0 0 0 0 0 
0 0 0 0 0 0 0 0 0 
0 0 0 0.719679 0.435682 0 0 0 0 
0 0 0 1.02005 0.251946 0 0 0 0 
0.989736 0.0774705 0 0 0 0 0 0 0 
0 0 0 0 0 0 0 0 0 
0 0 0 0 0 0 0 0 0 
0.547574 -0.0507235 0 0 0 0 0 0 0 
0 0 0 0 0 0 0.535531 -0.974768 0 
0.45145 -0.901682 0 -0.137524 -0.948052 0 -0.147497 -0.948235 0 
0 0 0 0 0 0 0 0 0 
0 0 0 0 0 0 0 0 0 
0 0 0 0 0 0 0 0 0 
0 0 0 -0.462742 -1.00352 0 -0.779988 -0.191195 0 
-0.803925 -0.0110932 0 -0.796122 0.0107324 0 -0.769875 -0.0381252 0 
-0.720037 -0.406232 0 0.917693 0.0699709 0 1.09863 -0.0309019 0 
0.793418 -0.326707 0 0.832075 0.208679 0 0.756913 -0.777119 0 
-0.15639 -0.943545 0 0 0 0 0 0 0 
0 0 0 0 0 0 0 0 0 
0 0 0 0 0 0 0 0 0 
0 0 0 0 0 0 0 0 0 
0 0 0 0 0 0 0 0 0 
0 0 0 0 0 0 0 0 0 
0 0 0 0 0 0 0 0 0 
0 0 0 0 0 0 0 0 0 
0 0 0 0 0 0 0 0 0 
0 0 0 0 0 0 0 0 0 
0 0 0 0 0 0 0 0 0 
0 0 0 0 0 0 0 0 0 
0 0 0 0 0 0 0 0 0 
0 0 0 0 0 0 0 0 0 
0 0 0 0 0 0 0 0 0 
0 0 0 0 0 0 0 0 0 
0 0 0 0 0 0 0 0 0 
0 0 0 0 0 0 0 0 0 
0 0 0 0 0 0 0 0 0 
0 0 0 0 0 0 0 0 0 
0 0 0 0 0 0 0 0 0 
0 0 0 0 0 0 0 0 0 
0 0 0 0 0 0 0 0 0 
0 0 0 0 0 0 0 0 0 
0 0 0 0 0 0 0 0 0 
0 0 0 0 0 0 0 0 0 
0 0 0 0 0 0 0 0 0 
0 0 0 0 0 0 0 0 0 
0 0 0 0 0 0 0 0 0 
0 0 0 0 0 0 0 0 0 
0 0 0 0 0 0 0 0 0 
0 0 0 0 0 0 0 0 0 
0 0 0 0 0 0 0 0 0 
0 0 0 0 0 0 0 0 0 
0 0 0 0 0 0 0 0 0 
0 0 0 0 0 0 0 0 0 
0 0 0 0 0 0 0 0 0 
0 0 0 0 0 0 0 0 0 
0 0 0 0 0 0 0 0 0 
0 0 0 0 0 0 0 0 0 
0 0 0 0 0 0 0 0 0 
0 0 0 0 0 0 0 0 0 
0 0 0 0 0 0 0 0 0 
0 0 0 0 0 0 0 0 0 
0 0 0 0 0 0 0 0 0 
0 0 0 0 0 0 0 0 0 
0 0 0 0 0 0 0 0 0 
0 0 0 0 0 0 0 0 0 
0 0 0 0 0 0 0 0 0 
0 0 0 0 0 0 0 0 0 
0 0 0 0 0 0 0 0 0 
0 0 0 0 0 0 0 0 0 
0 0 0 0.811756 -0.722063 0 0 0 0 
0.548856 -1.17706 0 0 0 0 0 0 0 
0 0 0 0 0 0 0 0 0 
0 0 0 0 0 0 0 0 0 
0 0 0 0 0 0 0 0 0 
0 0 0 0 0 0 0 0 0 
0 0 0 0 0 0 0 0 0 
0 0 0 0 0 0 0 0 0 
0 0 0 0 0 0 0 0 0 
0 0 0 0 0 0 0 0 0 
0 0 0 0 0 0 0 0 0 
0 0 0 0 0 0 0 0 0 
0.699511 -0.734649 0 0.672293 -0.792102 0 0.63757 -0.76185 0 
0.701582 -0.581323 0 0.577508 -0.575595 0 0 0 0 
0 0 0 0 0 0 0 0 0 
0 0 0 0 0 0 0 0 0 
0 0 0 0 0 0 0 0 0 
0 0 0 0 0 0 0 0 0 
0 0 0 0 0 0 0 0 0 
0 0 0 0 0 0 0 0 0 
0 0 0 0.646197 0.232121 0 0.649911 0.25537 0 
0 0 0 0 0 0 0 0 0 
0 0 0 0 0 0 0.802906 -0.818244 0 
0 0 0 0 0 0 0 0 0 
0 0 0 0 0 0 0 0 0 
0 0 0 0 0 0 0 0 0 
0 0 0 0 0 0 0 0 0 
0 0 0 0 0 0 0 0 0 
0 0 0 0 0 0 0 0 0 
0 0 0 0 0 0 0.635461 0.313835 0 
0.0155132 -0.0299872 0 0 0 0 0 0 0 
0 0 0 0 0 0 0 0 0 
0.543789 -0.651887 0 0.693316 -0.54585 0 0.690132 -0.820026 0 
0 0 0 0 0 0 0 0 0 
0 0 0 0 0 0 0 0 0 
0 0 0 0 0 0 0 0 0 
0 0 0 0 0 0 0 0 0 
0 0 0 0 0 0 0 0 0 
0 0 0 0 0 0 0 0 0 
0 0 0 0 0 0 0.941802 0.0428443 0 
0.243357 -0.560701 0 -0.0380519 0.198546 0 0.542024 0.380719 0 
1.20502 -1.00616 0 0 0 0 0.895226 -0.682521 0 
0 0 0 0 0 0 0 0 0 
0 0 0 0 0 0 0 0 0 
0 0 0 0 0 0 0 0 0 
0 0 0 0 0 0 0 0 0 
0 0 0 0 0 0 0 0 0 
0 0 0 0 0 0 0 0 0 
0 0 0 0 0 0 0 0 0 
0 0 0 0 0 0 0 0 0 
0 0 0 0 0 0 0 0 0 
0 0 0 0 0 0 0 0 0 
0 0 0 0 0 0 0 0 0 
0 0 0 0 0 0 0 0 0 
0 0 0 0 0 0 0 0 0 
0 0 0 0 0 0 0 0 0 
0 0 0 0 0 0 0 0 0 
0 0 0 0 0 0 0 0 0 
0 0 0 0 0 0 0 0 0 
0 0 0 0 0 0 0 0 0 
0 0 0 0 0 0 0 0 0 
0 0 0 0 0 0 0 0 0 
0 0 0 0 0 0 0 0 0 
0 0 0 0 0 0 0 0 0 
0 0 0 0 0 0 0 0 0 
0 0 0 0 0 0 0 0 0 
0 0 0 0 0 0 0 0 0 
0 0 0 0 0 0 0 0 0 
0 0 0 0 0 0 0 0 0 
0 0 0 0 0 0 0 0 0 
0 0 0 0 0 0 0 0 0 
0 0 0 0 0 0 0 0 0 
0 0 0 0 0 0 0 0 0 
0 0 0 0 0 0 0 0 0 
0 0 0 0 0 0 0 0 0 
0 0 0 0 0 0 0 0 0 
0 0 0 0 0 0 0 0 0 
0 0 0 0 0 0 0 0 0 
0 0 0 0 0 0 0 0 0 
0 0 0 0 0 0 0 0 0 
0 0 0 0 0 0 0 0 0 
0 0 0 0 0 0 0 0 0 
0 0 0 0 0 0 0 0 0 
0 0 0 0 0 0 0 0 0 
0 0 0 0 0 0 0 0 0 
0 0 0 0 0 0 0 0 0 
0 0 0 0 0 0 0 0 0 
0 0 0 0 0 0 0 0 0 
0 0 0 0 0 0 0 0 0 
0 0 0 0 0 0 0 0 0 
0 0 0 0 0 0 0 0 0 
0 0 0 0 0 0 0 0 0 
0 0 0 0 0 0 0 0 0 
0 0 0 0 0 0 0 0 0 
0 0 0 0 0 0 0 0 0 
0 0 0 0 0 0 0 0 0 
0 0 0 0 0 0 0 0 0 
0 0 0 0 0 0 0 0 0 
0 0 0 0 0 0 0 0 0 
0 0 0 0 0 0 0 0 0 
0 0 0 0 0 0 0 0 0 
0 0 0 0 0 0 0 0 0 
0 0 0 0 0 0 
x 1 1049 double
-6.15474 -5.5066 5.09276 -6.38658 7.5548 -9.02658 -8.28637 7.57768 7.96015 
8.55694 -9.77803 -8.95164 8.5938 9.62247 9.49418 -10.0273 -10.6278 10.0569 
10.7122 -11.7693 -11.2279 -15 -14.6429 -15 -15 -14.8214 -15 
-14.1071 -14.2857 -14.4643 -15 -13.3929 -13.5714 -13.75 -13.2143 -13.0357 
-13.9286 -12.6786 -12.8571 -12.5 -12.1405 -11.1429 -11.5 -11.3214 -11.8222 
-10.0714 -10.9643 -10.4286 -10.25 -10.7857 -10.6071 -9.5357 -9.8929 -9.1786 
-9.7143 -9.3571 -9 -9 -8.2 -8.4 -9 -9 -8.8 
-8.6 -9 -8 -7.2 -7.4 -7.6 -7.8 -7 -6.4 
-6.2 -6.8 -6.6 -5.4 -6 -5.8 -5.6 -5.2 -4.6 
-5 -4.8 -4.4 -4.2 -3.8 -3.6 -3.4 -3.2 -4 
-3 -3 -2.8 -2.4 -2.6 -3 -2.2 -3 -3 
-1.2 -1.4 -2 -1.8 -1.6 -0.4 -0.2 -0.6 -0.8 
-1 0.8 0.4 0.2 0.6 -0 1.4 1.6 1 
1.2 1.8 2.4 2 2.2 2.8 2.6 3.8 3.2 
3 3 3.6 3 3 3.4 3 4.2 4.6 
4.8 4 4.4 5.4 5 5.6 5.2 5.8 6.2 
6.8 6.6 6.4 6 7.6 7.2 7.8 7.4 7 
8.2 8 8.6 8.4 8.8 9 9.8929 9 9.1786 
9 9.5357 9 9.3571 9.7143 9 10.4286 10.6071 10.7857 
10.0714 10.9643 10.25 11.3214 11.1429 11.5 11.4775 12.0636 12.8571 
12.6786 12.0461 12.5 13.9286 13.3929 13.75 13.2143 13.0357 13.5714 
14.1071 14.2857 14.8214 14.4643 14.6429 15 15 15 15 
15 -15 -15 -15 -15 -15 -11.5473 -11.1418 -11.7727 
-9 -9 -9 -9 -9 -3 -3 -3 -3 
-3 3 3 3 3 3 9 9 9 
9 9 15 15 15 15 15 -15 -15 
-15 -15 -15 -12.3642 -11.262 -9 -9 -9 -9 
-9 -3 -3 -3 -3 -3 3 3 3 
3 3 9 9 9 9 9 11.1474 15 
15 15 15 15 -15 -15 -15 -15 -15 
-10.9782 -9 -9 -9 -9 -9 -3 -3 -3 
-3 -3 3 3 3 3 3 9 9 
9 9 9 10.6388 12.6242 15 15 15 15 
15 -15 -15 -15 -15 -15 -13.1271 -12.4219 -12.7571 
-10.7054 -9 -9 -9 -9 -9 -3 -3 -3 
-3 -3 3 3 3 3 3 9 9 
9 9 9 10.4897 10.5899 11.2023 12.5553 15 15 
15 15 15 -15 -15 -15 -15 -15 -12.5432 
-12.9147 -10.479 -10.2671 -9 -9 -9 -9 -9 -3 
-3 -3 -3 -3 3 3 3 3 3 
9 9 9 9 9 10.2111 12.8749 15 15 
15 15 15 -15 -15 -15 -15 -15 -9 
-9 -9 -9 -9 -3 -3 -3 -3 -3 
3 3 3 3 3 6.43587 9 9 9 
9.79841 9 9 10.4388 12.4306 12.9876 13.5768 15 15 
15 15 15 -15 -15 -15 -15 -15 -13.2646 
-12.7047 -10.0854 -10.5886 -9.85271 -9.49719 -9 -9 -9 -9 
-9 -3 -3 -3 -3 -3 -0.337563 0.19614 0.0934821 
3 3 3 3 3 5.9721 9 9 9 
9 9 9.84208 15 15 15 15 15 -15 
-15 -15 -15 -15 -9.81902 -9.18469 -8.2857 -8.6429 -9 
-8.64109 -8.1071 -8.09361 -8.8214 -8.4643 -7.75 -7.2143 -7.0357 -7.5714 
-7.3929 -7.9286 -7.43808 -6.21923 -6.88722 -6.5 -6.6786 -6.8571 -5.1429 
-5.5 -5.3214 -4.0714 -4.9643 -4.4286 -4.7857 -4.81192 -4.25 -4.6071 
-3.9933 -3.3571 -3.7143 -3.8929 -3.5357 -3.1786 -2.44339 -2.4643 -2.2857 
-2.8214 -2.1071 -2.6429 -3 -1.3929 -1.2143 -1.75 -1.9286 -1.5714 
-1.0357 -0.338741 -0.8571 -0.6786 -0.5 0.6786 0.8571 0.5 0.813436 
1.2143 1.9286 1.3929 1.75 1.5714 1.0357 2.1071 2.8214 2.93304 
2.2857 2.4643 2.6429 3 3.7143 3.8929 3.5357 3.1786 3.3571 
4.4286 4.9643 4.6071 4.25 4.7857 4.0714 5.3214 5.1429 5.5 
6.5 6.39537 6.6786 6.8571 7.26001 7.3929 7.85788 7.75 7.0357 
7.2143 7.5714 7.9286 8.6429 8.2857 8.1071 8.57503 8.8214 8.4643 
9 9 9.15132 9.55423 13.4118 13.3465 15 15 15 
15 15 -15 -15 -15 -15 -15 -9.45088 -8.92228 
-8.35811 -7.8256 -7.28654 -6.49652 7.63102 8.49186 8.87551 8.20215 9.42033 
13.3747 15 15 15 15 15 -15 -15 -14.1667 
-14.8333 -15 -15 -14.5 -14.6667 -15 -14.3333 -14 -12.6 
-12.8 -13 -12.4 -12.2 -11.6 -12 -11.4 -11.8 -11.2 
-10.6 -10.4 -10.2 -11 -10.8 -9.6 -10 -9.4 -9.8 
-9.2 -8.2857 -9 -9 -9 -8.1071 -9 -8.6429 -9 
-8.4643 -8.8214 -7.0357 -7.5714 -7.3929 -7.9286 -7.2143 -7.75 -6.5 
-6.6786 -6.8571 -5.1429 -5.3214 -5.5 -4.25 -4.6071 -4.0714 -4.9643 
-4.7857 -4.4286 -3.3571 -3.1786 -3.8929 -3.7143 -3.5357 -2.4 -3 
-3 -2.8 -3 -3 -3 -2.6 -2.2 -1.6 -1.4 
-2 -1.8 -1.2 -1 -0.2 -0.8 -0.6 -0.4 0.2 
0.8 0.4 -0 0.6 1.8 1.4 1 1.6 1.2 
2.4 2.2 2.8 2 2.6 3.6 3.8 3.2 3.4 
3 4.6 4 4.2 4.8 4.4 5 5.8 5.6 
5.2 5.4 6.2 6.6 6 6.4 6.8 7.8 7.4 
7.6 7.2 7 8.2 8.8 8.6 8.4 8 9 
9 9 9 9.2 9 9.6 9.8 9.4 10.6 
10.8 10.2 10.4 10 11.8 11.4 11 11.6 11.2 
12 12.4 12.2 12.8 12.1898 12.6 13.4718 13 14.3333 
14.8333 14.5 14.6667 14.1667 14 15 15 15 15 
15 -15 -15 -15 -15 -15 -9 -9 -9 
-9 -9 -3 -3 -3 -3 -3 9 9 
9 9 9 11.824 11.401 12.0418 12.5303 12.5218 15 
15 15 15 15 -15 -15 -15 -15 -15 
-9 -9 -9 -9 -9 -3 -3 -3 -3 
-3 3.70523 4.56441 9 9 9 9 9 11.5097 
15 15 15 15 15 -15 -15 -15 -15 
-15 -9 -9 -9 -9 -9 -3 -3 -3 
-3 -3 6.49497 8.64468 9 9 9 9 9 
10.3734 10.5992 10.0102 15 15 15 15 15 -15 
-15 -15 -15 -15 -9 -9 -9 -9 -9 
-3 -3 -3 -3 -3 7.48126 8.68031 8.10346 8.27013 
9.05787 9 9.54211 15 15 15 15 15 -15 
-15 -15 -15 -15 -9 -9 -9 -9 -9 
-3 -3 -3 -3 -3 9 9 9 9 
9 9 15 15 15 15 15 -14.8 -14.2 
-14.4 -14.6 -15 -13.8 -13.2 -14 -13.6 -13.4 -12.6 
-12.8 -13 -12.2 -12.4 -11.2 -12 -11.4 -11.8 -11.6 
-10.2 -10.6 -10.8 -10.4 -11 -9.4 -9.2 -10 -9.8 
-9.6 -8.4 -8.6 -8.2 -9 -8.8 -8 -7.8 -7.6 
-7.2 -7.4 -6.8 -6.4 -6.2 -6.6 -7 -5.4 -6 
-5.6 -5.8 -5.2 -4.8 -5 -4.6 -4.2 -4.4 -3.4 
-3.2 -3.6 -4 -3.8 -2.8 -2.4 -2.2 -3 -2.6 
-2 -1.2 -1.4 -1.8 -1.6 -0.4 -0.2 -0.6 -1 
-0.8 0.8 0.2 0.6 -0 0.4 1.4 1.6 1.2 
1.8 1 2.6 2.4 2.2 2 2.8 3.4 3 
3.8 3.2 3.6 4 4.8 4.6 4.4 4.2 5.8 
5.6 5.4 5 5.2 6.4 6.8 6.6 6.2 6 
7.8 7.6 7.2 7 7.4 8.6 8.2 8 8.4 
8.8 9.6 9.4 9 9.8 9.2 10 10.2 10.4 
10.6 10.8 11.8 11 11.4 11.6 11.2 12.4 12.8 
12.6 12.2 12 13.4 13.8 13 13.6 13.2 14.8 
14 14.2 14.4 14.6 15 
y 1 1049 double
-5.30833 -5.33275 -5.84375 -4.65052 -4.15205 -3.05773 -3.2735 -3.54355 -3.10228 
-3.64933 -2.27192 -2.28314 -2.77226 -2.89368 -2.21039 -1.68734 -1.38273 -1.80541 
-1.22543 -0.267553 -0.861244 0.2 0 0 0.4 0 0.6 
0 0 0 0.8 0 0 0 0 0 
0 0 0 0 0.184557 0 0 0 0.653842 
0 0 0 0 0 0 0 0 0 
0 0 0.6 0.2 0 0 0.4 0.8 0 
0 0 0 0 0 0 0 0 0 
0 0 0 0 0 0 0 0 0 
0 0 0 0 0 0 0 0 0 
0.4 0.6 0 0 0 0.2 0 0.8 0 
0 0 0 0 0 0 0 0 0 
0 0 0 0 0 0 0 0 0 
0 0 0 0 0 0 0 0 0 
0.8 0.2 0 0.4 0 0 0.6 0 0 
0 0 0 0 0 0 0 0 0 
0 0 0 0 0 0 0 0 0 
0 0 0 0 0 0.6 0 0.8 0 
0.4 0 0 0 0 0.2 0 0 0 
0 0 0 0 0 0 0.77277 0.271018 0 
0 0.882465 0 0 0 0 0 0 0 
0 0 0 0 0 0 0.6 0.2 0.8 
0.4 1.8 1.6 1.4 1.2 1 1.17424 1.97245 1.77862 
1.6 1 1.8 1.2 1.4 1.8 1.4 1.2 1.6 
1 1.4 1.6 1 1.8 1.2 1.4 1.8 1 
1.6 1.2 1 1.4 1.8 1.6 1.2 2.4 2 
2.8 2.2 2.6 2.36539 2.62973 2.8 2 2.6 2.2 
2.4 2.6 2.4 2.8 2 2.2 2.8 2.6 2.4 
2.2 2 2.2 2.8 2.6 2 2.4 2.94617 2.6 
2.4 2 2.8 2.2 3.2 3.4 3.8 3 3.6 
3.32611 3.8 3 3.6 3.4 3.2 3 3.2 3.6 
3.4 3.8 3.8 3.2 3.6 3.4 3 3.8 3.2 
3 3.6 3.4 3.78167 3.6361 3.4 3.2 3.6 3 
3.8 4 4.2 4.6 4.8 4.4 4.72696 4.58673 4.12427 
4.25654 4.6 4 4.8 4.2 4.4 4.2 4 4.4 
4.8 4.6 4.8 4.6 4.2 4 4.4 4 4.2 
4.8 4.4 4.6 4.33862 4.9812 4.32066 4.18628 4.4 4 
4.2 4.8 4.6 5.6 5.4 5.8 5 5.2 5.12964 
5.6843 5.03883 5.64604 5.2 5 5.4 5.8 5.6 5.8 
5 5.2 5.6 5.4 5 5.4 5.8 5.2 5.6 
5 5.6 5.8 5.4 5.2 5.93354 5.78309 5.4 5 
5.2 5.6 5.8 6.4 6.8 6.6 6 6.2 6.2 
6 6.6 6.8 6.4 6.6 6.2 6.8 6.4 6 
6.6 6 6.8 6.4 6.2 6.53695 6.4 6.2 6.8 
6.80384 6.6 6 6.73001 6.67971 6.69305 6.65888 6 6.8 
6.4 6.6 6.2 7.6 7.2 7.8 7 7.4 7.31919 
7.18431 7.69355 7.85114 7.06735 7.80738 7.4 7 7.2 7.6 
7.8 7.4 7.6 7.8 7.2 7 7.51215 7.28598 7.91437 
7.6 7.4 7.8 7 7.2 7.84632 7.8 7.2 7.6 
7.4 7 7.50427 7.4 7.6 7.2 7.8 7 8.2 
8.6 8 8.4 8.8 8.39703 8.44241 8 8 8 
8.77252 8 8.76728 8 8 8 8 8 8 
8 8 8.76888 8.21615 8.57512 8 8 8 8 
8 8 8 8 8 8 8.92174 8 8 
8.86201 8 8 8 8 8 8.75603 8 8 
8 8 8 8 8 8 8 8 8 
8 8.30381 8 8 8 8 8 8 8.50907 
8 8 8 8 8 8 8 8 8.86053 
8 8 8 8 8 8 8 8 8 
8 8 8 8 8 8 8 8 8 
8 8.36789 8 8 8.69188 8 8.59127 8 8 
8 8 8 8 8 8 8.61416 8 8 
8 8 8.51027 8.0649 8.08321 8.63603 8.2 8.4 8 
8.6 8.8 9.2 9 9.6 9.4 9.8 9.02438 9.24383 
9.26052 9.20239 9.33478 9.5893 9.13713 9.47064 9.08265 9.04878 9.07291 
9.19253 9.4 9.2 9 9.8 9.6 10.4 10.6 10 
10 10.2 10 10 10 10.8 10 10 10 
10 10 10 10 10 10 10 10 10 
10 10 10 10 10 10 10 10 10 
10 10 10.8 10.6 10.4 10 10 10 10.2 
10 10 10 10 10 10 10 10 10 
10 10 10 10 10 10 10 10 10 
10 10 10 10 10 10 10 10 10.2 
10 10 10.8 10.4 10.6 10 10 10 10 
10 10 10 10 10 10 10 10 10 
10 10 10 10 10 10 10 10 10 
10 10 10 10 10 10 10 10 10 
10 10 10 10 10 10 10 10 10 
10 10 10 10 10 10 10 10 10 
10 10 10 10 10 10 10 10 10.6 
10.2 10.8 10 10 10.4 10 10 10 10 
10 10 10 10 10 10 10 10 10 
10 10 10 10 10.7175 10 10.0647 10 10 
10 10 10 10 10 10.8 10.6 10.2 10.4 
10 11.6 11 11.8 11.2 11.4 11.8 11.2 11.6 
11 11.4 11.4 11.2 11.6 11.8 11 11 11.8 
11.2 11.6 11.4 11.3646 11.9205 11.9208 11.7479 11.1841 11.8 
11.2 11.4 11 11.6 12.4 12.2 12.8 12 12.6 
12.2 12.6 12 12.4 12.8 12.4 12.2 12.6 12.8 
12 12.6448 12.6789 12.4 12 12.8 12.2 12.6 12.493 
12.6 12.4 12.8 12.2 12 13 13.4 13.6 13.2 
13.8 13.4 13.8 13.2 13.6 13 13.4 13 13.2 
13.6 13.8 13.2628 13.8404 13.6 13.8 13.4 13 13.2 
13.1731 13.7912 13.7169 13.4 13.8 13 13.6 13.2 14.2 
14 14.6 14.4 14.8 14.6 14.8 14.2 14 14.4 
14.8 14.6 14 14.2 14.4 14.4043 14.8664 14.7971 14.2303 
14.3944 14 14.1031 14.4 14.6 14 14.2 14.8 15.4 
15 15.2 15.8 15.6 15.4 15.2 15 15.8 15.6 
15 15.4 15.6 15.2 15.8 15.5 15 15.8333 15.1667 
15.3333 15.6667 15.8 15 15.6 15.4 15.2 16 16 
16 16 16 16 16 16 16 16 16 
16 16 16 16 16 16 16 16 16 
16 16 16 16 16 16 16 16 16 
16 16 16 16 16 16 16 16 16 
16 16 16 16 16 16 16 16 16 
16 16 16 16 16 16 16 16 16 
16 16 16 16 16 16 16 16 16 
16 16 16 16 16 16 16 16 16 
16 16 16 16 16 16 16 16 16 
16 16 16 16 16 16 16 16 16 
16 16 16 16 16 16 16 16 16 
16 16 16 16 16 16 16 16 16 
16 16 16 16 16 16 16 16 16 
16 16 16 16 16 16 16 16 16 
16 16 16 16 16 16 16 16 16 
16 16 16 16 16 16 16 16 16 
16 16 16 16 16 
