# vtk DataFile Version 4.0
vtk output
ASCII
DATASET POLYDATA
FIELD FieldData 4
domain 1 4 string
domain_min:-40|-40
domain_max:40|40
cell_size:1|1
boundary:0|0

variables 1 5 string
T:16.8
dt:0.01
write_case:1
substeps:10
all_steps:1680

constants 1 17 string
L:40
c_s:1
dx:1
k:1000
d1:-13.5|10
d2:-6|10
d3:9|14.5
d4:13.5|10
d5:-6|8
d6:0|8
d7:6|8
d8:-9|9
d9:9|9
d10:-12|0
d11:12|0
d12:0|-10
R_w:0.1

equations 1 18 string
time:T=(T+dt)#true
pos_x:x=elem(r,0,0)#eq(gid,1)
pos_y:y=elem(r,1,0)#eq(gid,1)
wp_1:p0=if(and(lt(x,(-9)),gt(y,10)),d1,p0)#eq(gid,1)
wp_2:p0=if(and(and(gt(x,(-9)),lt(x,(-3))),gt(y,10)),d2,p0)#eq(gid,1)
wp_3:p0=if(and(and(gt(x,(-3)),lt(x,9)),gt(y,10)),d3,p0)#eq(gid,1)
wp_4:p0=if(and(gt(x,9),gt(y,10)),d4,p0)#eq(gid,1)
wp_5:p0=if(and(and(gt(x,(-9)),lt(x,(-3))),lt(y,8)),d5,p0)#eq(gid,1)
wp_6:p0=if(and(and(gt(x,(-3)),lt(x,3)),lt(y,8)),d6,p0)#eq(gid,1)
wp_7:p0=if(and(and(gt(x,3),lt(x,9)),lt(y,8)),d7,p0)#eq(gid,1)
wp_8:p0=if(and(and(gt(x,(-9)),lt(x,0)),and(gt(y,8),lt(y,10))),d8,p0)#eq(gid,1)
wp_9:p0=if(and(and(gt(x,0),lt(x,9)),and(gt(y,8),lt(y,10))),d9,p0)#eq(gid,1)
wp_10:p0=if(and(lt(x,(-9)),lt(y,10)),d10,p0)#eq(gid,1)
wp_11:p0=if(and(gt(x,9),lt(y,10)),d11,p0)#eq(gid,1)
wp_12:p0=if(lt(y,0),d12,p0)#eq(gid,1)
acceleration:v=sfm(v,p0,v0,m,R,A,B,k,c,tau)#eq(gid,1)
velocity:v=euler(v,a,dt)#eq(gid,1)
position:r=euler(r,v,dt)#eq(gid,1)

POINTS 1049 float
-0.38461 -10.2413 0 0.1468 -10.109 0 -0.262923 -9.72149 0 
0.197949 -9.57392 0 0.72975 -9.63326 0 0.593146 -9.0683 0 
-1.71485 -8.85772 0 1.21031 -8.97079 0 1.97435 -8.08243 0 
2.52281 -8.45474 0 3.03171 -8.17602 0 -3.17738 -7.42567 0 
-2.36004 -7.90476 0 2.63292 -7.66973 0 3.74953 -7.53568 0 
-5.1904 -6.5657 0 -4.61798 -6.12596 0 -3.37703 -6.37819 0 
-3.86673 -6.79397 0 3.6954 -6.88387 0 4.63477 -6.17982 0 
-5.20122 -5.57213 0 -5.76438 -5.38832 0 5.20816 -5.84948 0 
-8.06838 -4.47568 0 -7.2607 -4.52825 0 -6.59775 -4.72118 0 
7.10681 -4.20929 0 -8.45585 -3.73283 0 -8.21553 -3.08167 0 
-7.36503 -3.38197 0 -7.54112 -3.95094 0 -6.64448 -3.94266 0 
8.72921 -3.10022 0 8.1773 -3.17918 0 -10.0631 -2.76723 0 
-9.88924 -2.21549 0 -9.42881 -2.66898 0 -8.98256 -2.22957 0 
9.56794 -2.02684 0 10.2647 -2.16434 0 10.8915 -2.06905 0 
-10.844 -1.06167 0 -10.8805 -1.72325 0 -10.2635 -1.3184 0 
-9.88445 -1.67525 0 9.82894 -1.50968 0 10.4403 -1.60205 0 
10.9399 -1.07213 0 -11.7655 -0.384854 0 -11.5057 -0.997763 0 
11.8957 -0.945146 0 11.4234 -0.553343 0 12.0289 -0.189073 0 
-14.8214 0 0 -14.4643 0 0 -15 0.2 0 
-14.6429 0 0 -15 0.6 0 -15 0 0 
-15 0.8 0 -14.2857 0 0 -14.1071 0 0 
-15 0.4 0 -13.5714 0 0 -13.0357 0 0 
-13.3929 0 0 -13.2143 0 0 -13.9286 0 0 
-13.75 0 0 -12.136 0.715089 0 -12.6786 0 0 
-12.5 0 0 -12.2061 0.132026 0 -12.8571 0 0 
-11.5206 0.866104 0 -11.5 0 0 -11.6976 0.287594 0 
-11.1429 0 0 -11.3214 0 0 -10.4286 0 0 
-10.7857 0 0 -10.25 0 0 -10.0714 0 0 
-10.9643 0 0 -10.6071 0 0 -9.5357 0 0 
-9.8929 0 0 -9.7143 0 0 -9.3571 0 0 
-9.1786 0 0 -9 0.2 0 -9 0.8 0 
-8.6 0 0 -8.2 0 0 -9 0 0 
-8.8 0 0 -9 0.6 0 -8.4 0 0 
-9 0.4 0 -8 0 0 -7.4 0 0 
-7.8 0 0 -7.2 0 0 -7.6 0 0 
-6.6 0 0 -7 0 0 -6.2 0 0 
-6.4 0 0 -6.8 0 0 -5.8 0 0 
-5.4 0 0 -5.2 0 0 -5.6 0 0 
-6 0 0 -4.2 0 0 -4.4 0 0 
-5 0 0 -4.6 0 0 -4.8 0 0 
-3.2 0 0 -4 0 0 -3.6 0 0 
-3.4 0 0 -3.8 0 0 -2.8 0 0 
-3 0.2 0 -3 0 0 -3 0.8 0 
-2.4 0 0 -3 0.4 0 -2.2 0 0 
-2.6 0 0 -3 0.6 0 -1.6 0 0 
-1.2 0 0 -2 0 0 -1.4 0 0 
-1.8 0 0 -0.8 0 0 -0.6 0 0 
-0.4 0 0 -0.2 0 0 -1 0 0 
-0 0 0 0.8 0 0 0.2 0 0 
0.4 0 0 0.6 0 0 1.4 0 0 
1.8 0 0 1.6 0 0 1 0 0 
1.2 0 0 2.6 0 0 2.4 0 0 
2.8 0 0 2 0 0 2.2 0 0 
3 0.6 0 3 0.8 0 3 0.2 0 
3.8 0 0 3 0 0 3.6 0 0 
3.4 0 0 3.2 0 0 3 0.4 0 
4.4 0 0 4.2 0 0 4 0 0 
4.8 0 0 4.6 0 0 5.8 0 0 
5.4 0 0 5.2 0 0 5.6 0 0 
5 0 0 6.6 0 0 6 0 0 
6.8 0 0 6.2 0 0 6.4 0 0 
7 0 0 7.6 0 0 7.2 0 0 
7.4 0 0 7.8 0 0 8.2 0 0 
8.6 0 0 8 0 0 8.8 0 0 
8.4 0 0 9 0.2 0 9.1786 0 0 
9 0.4 0 9 0.6 0 9.3571 0 0 
9 0.8 0 9 0 0 9.7143 0 0 
9.8929 0 0 9.5357 0 0 10.0714 0 0 
10.7857 0 0 10.25 0 0 10.4286 0 0 
10.9643 0 0 10.6071 0 0 11.1429 0 0 
11.5 0 0 11.6756 0.230055 0 11.1731 0.448745 0 
11.3214 0 0 11.6059 0.756173 0 12.5641 0.768052 0 
12.6008 0.311731 0 12.1085 0.445819 0 12.8571 0 0 
12.6786 0 0 12.5 0 0 13.3929 0 0 
13.0357 0 0 13.9286 0 0 13.75 0 0 
13.2143 0 0 13.5714 0 0 14.2857 0 0 
14.6429 0 0 14.8214 0 0 14.4643 0 0 
14.1071 0 0 15 0.6 0 15 0 0 
15 0.4 0 15 0.2 0 15 0.8 0 
-15 1.4 0 -15 1 0 -15 1.6 0 
-15 1.2 0 -15 1.8 0 -12.2052 1.83232 0 
-11.4151 1.5084 0 -11.9605 1.21306 0 -9 1 0 
-9 1.2 0 -9 1.6 0 -9 1.8 0 
-9 1.4 0 -3 1.8 0 -3 1.4 0 
-3 1.6 0 -3 1.2 0 -3 1 0 
3 1.2 0 3 1 0 3 1.6 0 
3 1.8 0 3 1.4 0 9 1.6 0 
9 1.8 0 9 1.4 0 9 1 0 
9 1.2 0 11.5719 1.28715 0 11.752 1.90085 0 
12.099 1.00906 0 12.6442 1.25809 0 12.1797 1.52494 0 
12.6413 1.94069 0 15 1 0 15 1.6 0 
15 1.2 0 15 1.8 0 15 1.4 0 
-15 2.6 0 -15 2.4 0 -15 2.8 0 
-15 2 0 -15 2.2 0 -11.9015 2.42277 0 
-11.1899 2.21029 0 -11.5574 2.85963 0 -9 2.2 0 
-9 2.4 0 -9 2.6 0 -9 2.8 0 
-9 2 0 -3 2.2 0 -3 2.8 0 
-3 2.6 0 -3 2.4 0 -3 2 0 
3 2.8 0 3 2.4 0 3 2.2 0 
3 2 0 3 2.6 0 9 2.6 0 
9 2.2 0 9 2.8 0 9 2 0 
9 2.4 0 10.7377 2.5124 0 11.9906 2.46414 0 
11.1775 2.11449 0 11.4658 2.65494 0 12.4555 2.69086 0 
15 2.2 0 15 2 0 15 2.4 0 
15 2.6 0 15 2.8 0 -15 3.8 0 
-15 3.6 0 -15 3.4 0 -15 3.2 0 
-15 3 0 -11.2074 3.3716 0 -10.4787 3.78394 0 
-9 3.8 0 -9 3 0 -9 3.2 0 
-9 3.6 0 -9 3.4 0 -3 3.2 0 
-3 3 0 -3 3.4 0 -3 3.8 0 
-3 3.6 0 3 3.2 0 3 3 0 
3 3.6 0 3 3.8 0 3 3.4 0 
9 3.8 0 9 3.6 0 9 3.4 0 
9 3 0 9 3.2 0 10.8528 3.20895 0 
11.4396 3.23818 0 15 3.8 0 15 3 0 
15 3.4 0 15 3.6 0 15 3.2 0 
-15 4.4 0 -15 4.8 0 -15 4.6 0 
-15 4 0 -15 4.2 0 -11.2736 4.36436 0 
-10.6881 4.33386 0 -10.5035 4.92004 0 -9 4.2 0 
-9 4.6 0 -9 4.4 0 -9 4 0 
-9 4.8 0 -3 4 0 -3 4.8 0 
-3 4.4 0 -3 4.6 0 -3 4.2 0 
3 4.4 0 3 4.6 0 3 4 0 
3 4.2 0 3 4.8 0 9 4.8 0 
9 4.4 0 9 4.2 0 9 4.6 0 
9 4 0 12.3606 4.19006 0 12.535 4.75676 0 
15 4 0 15 4.4 0 15 4.6 0 
15 4.2 0 15 4.8 0 -15 5.6 0 
-15 5 0 -15 5.4 0 -15 5.2 0 
-15 5.8 0 -10.1899 5.43365 0 -10.8101 5.96803 0 
-9 5.6 0 -9 5.4 0 -9 5 0 
-9 5.8 0 -9 5.2 0 -3 5.6 0 
-3 5 0 -3 5.8 0 -3 5.4 0 
-3 5.2 0 3 5.6 0 3 5.2 0 
3 5.8 0 3 5 0 3 5.4 0 
9 5.6 0 9 5.4 0 9 5.2 0 
9 5.8 0 9 5 0 10.3784 5.49883 0 
12.5227 5.63644 0 13.5791 5.58109 0 13.2039 5.14488 0 
13.0868 5.78823 0 15 5.8 0 15 5.6 0 
15 5 0 15 5.2 0 15 5.4 0 
-15 6.8 0 -15 6.4 0 -15 6 0 
-15 6.2 0 -15 6.6 0 -10.139 6.04708 0 
-9 6.4 0 -9 6.6 0 -9 6.8 0 
-9 6 0 -9 6.2 0 -3 6 0 
-3 6.8 0 -3 6.2 0 -3 6.4 0 
-3 6.6 0 3 6.8 0 3 6.6 0 
3 6.2 0 3 6.4 0 3 6 0 
9 6.8 0 9 6 0 9.97491 6.86345 0 
9 6.4 0 9 6.6 0 9 6.2 0 
12.8134 6.89914 0 13.4668 6.97361 0 15 6.4 0 
15 6.2 0 15 6.6 0 15 6 0 
15 6.8 0 -15 7.8 0 -15 7.4 0 
-15 7 0 -15 7.6 0 -15 7.2 0 
-9.77721 7.26839 0 -9 7.6 0 -9 7.2 0 
-9 7.8 0 -9 7.4 0 -9 7 0 
-3 7.2 0 -3 7 0 -3 7.6 0 
-3 7.4 0 -3 7.8 0 3 7.2 0 
3 7 0 3 7.8 0 3 7.4 0 
3 7.6 0 9 7 0 9 7.6 0 
9 7.8 0 9 7.4 0 9 7.2 0 
13.0278 7.5088 0 15 7.2 0 15 7.8 0 
15 7 0 15 7.4 0 15 7.6 0 
-15 8.8 0 -15 8 0 -15 8.4 0 
-15 8.6 0 -15 8.2 0 -8.4643 8 0 
-9 8 0 -8.1071 8 0 -8.2857 8 0 
-8.8214 8 0 -8.6429 8 0 -7.0357 8 0 
-7.3929 8 0 -7.9286 8 0 -7.2143 8 0 
-7.5714 8 0 -7.75 8 0 -6.5 8 0 
-6.6786 8 0 -6.26788 8.99393 0 -6.8571 8 0 
-5.3214 8 0 -5.6609 8.95163 0 -5.5 8 0 
-5.1429 8 0 -4.9643 8 0 -4.25 8 0 
-4.4286 8 0 -4.0714 8 0 -4.7857 8 0 
-4.6902 8.92548 0 -4.6071 8 0 -3.8929 8 0 
-3.5357 8 0 -3.7143 8 0 -3.1786 8 0 
-3.3571 8 0 -2.2857 8 0 -2.1071 8 0 
-2.4643 8 0 -2.8214 8 0 -3 8 0 
-2.6429 8 0 -1.9286 8 0 -1.0357 8 0 
-1.75 8 0 -1.5714 8 0 -1.3929 8 0 
-1.2143 8 0 -0.6786 8 0 -0.5 8 0 
-0.8571 8 0 0.8571 8 0 0.5 8 0 
0.6786 8 0 1.75 8 0 1.0357 8 0 
1.3929 8 0 1.9286 8 0 1.2143 8 0 
1.5714 8 0 2.6429 8 0 2.1071 8 0 
2.8214 8 0 2.2857 8 0 2.4643 8 0 
3.3571 8 0 3.5357 8 0 3 8 0 
3.8929 8 0 3.1786 8 0 3.7143 8 0 
4.9643 8 0 4.0714 8 0 4.25 8 0 
4.4286 8 0 4.6071 8 0 4.7857 8 0 
5.1429 8 0 5.3214 8 0 5.5 8 0 
6.56227 8.97092 0 6.5 8 0 6.6786 8 0 
6.8571 8 0 7.2143 8 0 7.3929 8 0 
7.75 8 0 7.9286 8 0 7.0357 8 0 
7.5714 8 0 7.96459 8.99189 0 8.8214 8 0 
8.1071 8 0 8.2857 8 0 8.4643 8 0 
8.6429 8 0 9 8 0 9 8 0 
9.16838 8.5992 0 13.1449 8.55515 0 13.5811 8.89839 0 
15 8.2 0 15 8.6 0 15 8.4 0 
15 8 0 15 8.8 0 -15 9.8 0 
-15 9 0 -15 9.2 0 -15 9.4 0 
-15 9.6 0 8.55738 9.00679 0 13.6001 9.48432 0 
15 9.8 0 15 9.6 0 15 9.2 0 
15 9.4 0 15 9 0 -14.8333 10 0 
-15 10 0 -14.1667 10 0 -15 10.2 0 
-14.5 10 0 -15 10.6 0 -15 10.4 0 
-14.3333 10 0 -14.6667 10 0 -15 10.8 0 
-14 10 0 -12.6 10 0 -12.8 10 0 
-12.4 10 0 -12.2 10 0 -13 10 0 
-11.6 10 0 -11.4 10 0 -12 10 0 
-11.8 10 0 -11.2 10 0 -10.8 10 0 
-10.4 10 0 -10.6 10 0 -11 10 0 
-10.2 10 0 -9.8 10 0 -10 10 0 
-9.4 10 0 -9.6 10 0 -9.2 10 0 
-9 10.6 0 -8.6429 10 0 -9 10 0 
-9 10.8 0 -9 10.4 0 -8.2857 10 0 
-8.4643 10 0 -8.8214 10 0 -8.1071 10 0 
-9 10.2 0 -7.0357 10 0 -7.3929 10 0 
-7.5714 10 0 -7.9286 10 0 -7.75 10 0 
-7.2143 10 0 -6.5 10 0 -6.6786 10 0 
-6.8571 10 0 -5.1429 10 0 -5.5 10 0 
-5.3214 10 0 -4.0714 10 0 -4.25 10 0 
-4.7857 10 0 -4.9643 10 0 -4.6071 10 0 
-4.4286 10 0 -3.3571 10 0 -3.8929 10 0 
-3.7143 10 0 -3.1786 10 0 -3.5357 10 0 
-2.8 10 0 -3 10.2 0 -3 10.8 0 
-3 10.6 0 -2.6 10 0 -3 10 0 
-2.4 10 0 -2.2 10 0 -3 10.4 0 
-2 10 0 -1.6 10 0 -1.8 10 0 
-1.2 10 0 -1.4 10 0 -1 10 0 
-0.6 10 0 -0.8 10 0 -0.2 10 0 
-0.4 10 0 0.6 10 0 0.8 10 0 
-0 10 0 0.2 10 0 0.4 10 0 
1.4 10 0 1.8 10 0 1.2 10 0 
1.6 10 0 1 10 0 2.6 10 0 
2.2 10 0 2.8 10 0 2.4 10 0 
2 10 0 3.2 10 0 3.8 10 0 
3.4 10 0 3 10 0 3.6 10 0 
4.2 10 0 4.4 10 0 4.8 10 0 
4.6 10 0 4 10 0 5.4 10 0 
5.2 10 0 5.8 10 0 5.6 10 0 
5 10 0 6 10 0 6.8 10 0 
6.4 10 0 6.6 10 0 6.2 10 0 
7.4 10 0 7 10 0 7.2 10 0 
7.6 10 0 7.8 10 0 8.2 10 0 
8.6 10 0 8 10 0 8.4 10 0 
8.8 10 0 9.8 10 0 9 10.4 0 
9 10.8 0 9.6 10 0 9 10 0 
9.4 10 0 9 10.2 0 9.2 10 0 
9 10.6 0 10.2 10 0 10.4 10 0 
10.8 10 0 10.6 10 0 10 10 0 
11.2 10 0 11 10 0 11.4 10 0 
11.6 10 0 11.8 10 0 12.2 10 0 
12.6 10 0 12.8 10 0 12 10 0 
12.4 10 0 12.598 10.9981 0 13.0301 10.5724 0 
13.464 10.0997 0 13 10 0 14.3333 10 0 
14.8333 10 0 14.5 10 0 14 10 0 
14.6667 10 0 14.1667 10 0 15 10.2 0 
15 10.4 0 15 10.8 0 15 10.6 0 
15 10 0 -15 11.8 0 -15 11 0 
-15 11.4 0 -15 11.2 0 -15 11.6 0 
-9 11.4 0 -9 11.6 0 -9 11 0 
-9 11.2 0 -9 11.8 0 -3 11 0 
-3 11.4 0 -3 11.2 0 -3 11.8 0 
-3 11.6 0 9 11 0 9 11.2 0 
9 11.6 0 9 11.4 0 9 11.8 0 
11.6118 11.9864 0 15 11 0 15 11.2 0 
15 11.8 0 15 11.6 0 15 11.4 0 
-15 12 0 -15 12.6 0 -15 12.4 0 
-15 12.8 0 -15 12.2 0 -9 12.6 0 
-9 12.8 0 -9 12.2 0 -9 12 0 
-9 12.4 0 -3 12.6 0 -3 12.4 0 
-3 12 0 -3 12.2 0 -3 12.8 0 
9 12 0 9 12.2 0 9 12.4 0 
9 12.8 0 9 12.6 0 10.8884 12.7525 0 
15 12.6 0 15 12.2 0 15 12.8 0 
15 12.4 0 15 12 0 -15 13 0 
-15 13.4 0 -15 13.8 0 -15 13.2 0 
-15 13.6 0 -9 13.4 0 -9 13.2 0 
-9 13 0 -9 13.6 0 -9 13.8 0 
-3 13.4 0 -3 13.8 0 -3 13.2 0 
-3 13 0 -3 13.6 0 9 13.6 0 
9 13.8 0 9 13.4 0 9 13 0 
9 13.2 0 15 13.6 0 15 13 0 
15 13.8 0 15 13.2 0 15 13.4 0 
-15 14.8 0 -15 14.2 0 -15 14.6 0 
-15 14.4 0 -15 14 0 -9 14 0 
-9 14.8 0 -9 14.4 0 -9 14.6 0 
-9 14.2 0 -3 14.6 0 -3 14.4 0 
-3 14 0 -3 14.8 0 -3 14.2 0 
8.85078 14.4676 0 9.62283 14.0549 0 9 14 0 
15 14.8 0 15 14.4 0 15 14.2 0 
15 14.6 0 15 14 0 -15 15.4 0 
-15 15 0 -15 15.8 0 -15 15.2 0 
-15 15.6 0 -9 15.6 0 -9 15.8 0 
-9 15.4 0 -9 15 0 -9 15.2 0 
-3 15.8 0 -3 15.2 0 -3 15.4 0 
-3 15.6 0 -3 15 0 9 15.3333 0 
9 15 0 9 15.5 0 9 15.8333 0 
9 15.1667 0 9 15.6667 0 15 15.8 0 
15 15 0 15 15.6 0 15 15.4 0 
15 15.2 0 -14.4 16 0 -14.2 16 0 
-14.8 16 0 -14.6 16 0 -15 16 0 
-13.8 16 0 -13.4 16 0 -13.6 16 0 
-14 16 0 -13.2 16 0 -12.4 16 0 
-13 16 0 -12.6 16 0 -12.2 16 0 
-12.8 16 0 -11.4 16 0 -11.6 16 0 
-11.2 16 0 -12 16 0 -11.8 16 0 
-10.2 16 0 -10.6 16 0 -11 16 0 
-10.4 16 0 -10.8 16 0 -9.4 16 0 
-9.8 16 0 -10 16 0 -9.2 16 0 
-9.6 16 0 -8.8 16 0 -8.2 16 0 
-8.4 16 0 -8.6 16 0 -9 16 0 
-8 16 0 -7.4 16 0 -7.2 16 0 
-7.6 16 0 -7.8 16 0 -6.2 16 0 
-6.4 16 0 -6.6 16 0 -7 16 0 
-6.8 16 0 -5.2 16 0 -5.8 16 0 
-6 16 0 -5.4 16 0 -5.6 16 0 
-5 16 0 -4.6 16 0 -4.2 16 0 
-4.4 16 0 -4.8 16 0 -3.8 16 0 
-3.6 16 0 -3.4 16 0 -3.2 16 0 
-4 16 0 -3 16 0 -2.6 16 0 
-2.8 16 0 -2.4 16 0 -2.2 16 0 
-1.4 16 0 -1.6 16 0 -1.8 16 0 
-1.2 16 0 -2 16 0 -0.6 16 0 
-0.8 16 0 -0.4 16 0 -1 16 0 
-0.2 16 0 0.4 16 0 -0 16 0 
0.6 16 0 0.8 16 0 0.2 16 0 
1.2 16 0 1.4 16 0 1.8 16 0 
1 16 0 1.6 16 0 2.8 16 0 
2 16 0 2.2 16 0 2.6 16 0 
2.4 16 0 3.2 16 0 3.4 16 0 
3 16 0 3.6 16 0 3.8 16 0 
4 16 0 4.2 16 0 4.4 16 0 
4.6 16 0 4.8 16 0 5 16 0 
5.6 16 0 5.8 16 0 5.4 16 0 
5.2 16 0 6.4 16 0 6.8 16 0 
6.6 16 0 6.2 16 0 6 16 0 
7.4 16 0 7 16 0 7.6 16 0 
7.8 16 0 7.2 16 0 8 16 0 
8.8 16 0 8.2 16 0 8.4 16 0 
8.6 16 0 9 16 0 9.2 16 0 
9.8 16 0 9.4 16 0 9.6 16 0 
10 16 0 10.2 16 0 10.4 16 0 
10.6 16 0 10.8 16 0 11.4 16 0 
11.8 16 0 11 16 0 11.6 16 0 
11.2 16 0 12.4 16 0 12.8 16 0 
12.6 16 0 12.2 16 0 12 16 0 
13.2 16 0 13 16 0 13.4 16 0 
13.6 16 0 13.8 16 0 14.8 16 0 
14 16 0 14.2 16 0 14.4 16 0 
14.6 16 0 15 16 0 
VERTICES 2098 2098
1 0 
1 1 
1 2 
1 3 
1 4 
1 5 
1 6 
1 7 
1 8 
1 9 
1 10 
1 11 
1 12 
1 13 
1 14 
1 15 
1 16 
1 17 
1 18 
1 19 
1 20 
1 21 
1 22 
1 23 
1 24 
1 25 
1 26 
1 27 
1 28 
1 29 
1 30 
1 31 
1 32 
1 33 
1 34 
1 35 
1 36 
1 37 
1 38 
1 39 
1 40 
1 41 
1 42 
1 43 
1 44 
1 45 
1 46 
1 47 
1 48 
1 49 
1 50 
1 51 
1 52 
1 53 
1 54 
1 55 
1 56 
1 57 
1 58 
1 59 
1 60 
1 61 
1 62 
1 63 
1 64 
1 65 
1 66 
1 67 
1 68 
1 69 
1 70 
1 71 
1 72 
1 73 
1 74 
1 75 
1 76 
1 77 
1 78 
1 79 
1 80 
1 81 
1 82 
1 83 
1 84 
1 85 
1 86 
1 87 
1 88 
1 89 
1 90 
1 91 
1 92 
1 93 
1 94 
1 95 
1 96 
1 97 
1 98 
1 99 
1 100 
1 101 
1 102 
1 103 
1 104 
1 105 
1 106 
1 107 
1 108 
1 109 
1 110 
1 111 
1 112 
1 113 
1 114 
1 115 
1 116 
1 117 
1 118 
1 119 
1 120 
1 121 
1 122 
1 123 
1 124 
1 125 
1 126 
1 127 
1 128 
1 129 
1 130 
1 131 
1 132 
1 133 
1 134 
1 135 
1 136 
1 137 
1 138 
1 139 
1 140 
1 141 
1 142 
1 143 
1 144 
1 145 
1 146 
1 147 
1 148 
1 149 
1 150 
1 151 
1 152 
1 153 
1 154 
1 155 
1 156 
1 157 
1 158 
1 159 
1 160 
1 161 
1 162 
1 163 
1 164 
1 165 
1 166 
1 167 
1 168 
1 169 
1 170 
1 171 
1 172 
1 173 
1 174 
1 175 
1 176 
1 177 
1 178 
1 179 
1 180 
1 181 
1 182 
1 183 
1 184 
1 185 
1 186 
1 187 
1 188 
1 189 
1 190 
1 191 
1 192 
1 193 
1 194 
1 195 
1 196 
1 197 
1 198 
1 199 
1 200 
1 201 
1 202 
1 203 
1 204 
1 205 
1 206 
1 207 
1 208 
1 209 
1 210 
1 211 
1 212 
1 213 
1 214 
1 215 
1 216 
1 217 
1 218 
1 219 
1 220 
1 221 
1 222 
1 223 
1 224 
1 225 
1 226 
1 227 
1 228 
1 229 
1 230 
1 231 
1 232 
1 233 
1 234 
1 235 
1 236 
1 237 
1 238 
1 239 
1 240 
1 241 
1 242 
1 243 
1 244 
1 245 
1 246 
1 247 
1 248 
1 249 
1 250 
1 251 
1 252 
1 253 
1 254 
1 255 
1 256 
1 257 
1 258 
1 259 
1 260 
1 261 
1 262 
1 263 
1 264 
1 265 
1 266 
1 267 
1 268 
1 269 
1 270 
1 271 
1 272 
1 273 
1 274 
1 275 
1 276 
1 277 
1 278 
1 279 
1 280 
1 281 
1 282 
1 283 
1 284 
1 285 
1 286 
1 287 
1 288 
1 289 
1 290 
1 291 
1 292 
1 293 
1 294 
1 295 
1 296 
1 297 
1 298 
1 299 
1 300 
1 301 
1 302 
1 303 
1 304 
1 305 
1 306 
1 307 
1 308 
1 309 
1 310 
1 311 
1 312 
1 313 
1 314 
1 315 
1 316 
1 317 
1 318 
1 319 
1 320 
1 321 
1 322 
1 323 
1 324 
1 325 
1 326 
1 327 
1 328 
1 329 
1 330 
1 331 
1 332 
1 333 
1 334 
1 335 
1 336 
1 337 
1 338 
1 339 
1 340 
1 341 
1 342 
1 343 
1 344 
1 345 
1 346 
1 347 
1 348 
1 349 
1 350 
1 351 
1 352 
1 353 
1 354 
1 355 
1 356 
1 357 
1 358 
1 359 
1 360 
1 361 
1 362 
1 363 
1 364 
1 365 
1 366 
1 367 
1 368 
1 369 
1 370 
1 371 
1 372 
1 373 
1 374 
1 375 
1 376 
1 377 
1 378 
1 379 
1 380 
1 381 
1 382 
1 383 
1 384 
1 385 
1 386 
1 387 
1 388 
1 389 
1 390 
1 391 
1 392 
1 393 
1 394 
1 395 
1 396 
1 397 
1 398 
1 399 
1 400 
1 401 
1 402 
1 403 
1 404 
1 405 
1 406 
1 407 
1 408 
1 409 
1 410 
1 411 
1 412 
1 413 
1 414 
1 415 
1 416 
1 417 
1 418 
1 419 
1 420 
1 421 
1 422 
1 423 
1 424 
1 425 
1 426 
1 427 
1 428 
1 429 
1 430 
1 431 
1 432 
1 433 
1 434 
1 435 
1 436 
1 437 
1 438 
1 439 
1 440 
1 441 
1 442 
1 443 
1 444 
1 445 
1 446 
1 447 
1 448 
1 449 
1 450 
1 451 
1 452 
1 453 
1 454 
1 455 
1 456 
1 457 
1 458 
1 459 
1 460 
1 461 
1 462 
1 463 
1 464 
1 465 
1 466 
1 467 
1 468 
1 469 
1 470 
1 471 
1 472 
1 473 
1 474 
1 475 
1 476 
1 477 
1 478 
1 479 
1 480 
1 481 
1 482 
1 483 
1 484 
1 485 
1 486 
1 487 
1 488 
1 489 
1 490 
1 491 
1 492 
1 493 
1 494 
1 495 
1 496 
1 497 
1 498 
1 499 
1 500 
1 501 
1 502 
1 503 
1 504 
1 505 
1 506 
1 507 
1 508 
1 509 
1 510 
1 511 
1 512 
1 513 
1 514 
1 515 
1 516 
1 517 
1 518 
1 519 
1 520 
1 521 
1 522 
1 523 
1 524 
1 525 
1 526 
1 527 
1 528 
1 529 
1 530 
1 531 
1 532 
1 533 
1 534 
1 535 
1 536 
1 537 
1 538 
1 539 
1 540 
1 541 
1 542 
1 543 
1 544 
1 545 
1 546 
1 547 
1 548 
1 549 
1 550 
1 551 
1 552 
1 553 
1 554 
1 555 
1 556 
1 557 
1 558 
1 559 
1 560 
1 561 
1 562 
1 563 
1 564 
1 565 
1 566 
1 567 
1 568 
1 569 
1 570 
1 571 
1 572 
1 573 
1 574 
1 575 
1 576 
1 577 
1 578 
1 579 
1 580 
1 581 
1 582 
1 583 
1 584 
1 585 
1 586 
1 587 
1 588 
1 589 
1 590 
1 591 
1 592 
1 593 
1 594 
1 595 
1 596 
1 597 
1 598 
1 599 
1 600 
1 601 
1 602 
1 603 
1 604 
1 605 
1 606 
1 607 
1 608 
1 609 
1 610 
1 611 
1 612 
1 613 
1 614 
1 615 
1 616 
1 617 
1 618 
1 619 
1 620 
1 621 
1 622 
1 623 
1 624 
1 625 
1 626 
1 627 
1 628 
1 629 
1 630 
1 631 
1 632 
1 633 
1 634 
1 635 
1 636 
1 637 
1 638 
1 639 
1 640 
1 641 
1 642 
1 643 
1 644 
1 645 
1 646 
1 647 
1 648 
1 649 
1 650 
1 651 
1 652 
1 653 
1 654 
1 655 
1 656 
1 657 
1 658 
1 659 
1 660 
1 661 
1 662 
1 663 
1 664 
1 665 
1 666 
1 667 
1 668 
1 669 
1 670 
1 671 
1 672 
1 673 
1 674 
1 675 
1 676 
1 677 
1 678 
1 679 
1 680 
1 681 
1 682 
1 683 
1 684 
1 685 
1 686 
1 687 
1 688 
1 689 
1 690 
1 691 
1 692 
1 693 
1 694 
1 695 
1 696 
1 697 
1 698 
1 699 
1 700 
1 701 
1 702 
1 703 
1 704 
1 705 
1 706 
1 707 
1 708 
1 709 
1 710 
1 711 
1 712 
1 713 
1 714 
1 715 
1 716 
1 717 
1 718 
1 719 
1 720 
1 721 
1 722 
1 723 
1 724 
1 725 
1 726 
1 727 
1 728 
1 729 
1 730 
1 731 
1 732 
1 733 
1 734 
1 735 
1 736 
1 737 
1 738 
1 739 
1 740 
1 741 
1 742 
1 743 
1 744 
1 745 
1 746 
1 747 
1 748 
1 749 
1 750 
1 751 
1 752 
1 753 
1 754 
1 755 
1 756 
1 757 
1 758 
1 759 
1 760 
1 761 
1 762 
1 763 
1 764 
1 765 
1 766 
1 767 
1 768 
1 769 
1 770 
1 771 
1 772 
1 773 
1 774 
1 775 
1 776 
1 777 
1 778 
1 779 
1 780 
1 781 
1 782 
1 783 
1 784 
1 785 
1 786 
1 787 
1 788 
1 789 
1 790 
1 791 
1 792 
1 793 
1 794 
1 795 
1 796 
1 797 
1 798 
1 799 
1 800 
1 801 
1 802 
1 803 
1 804 
1 805 
1 806 
1 807 
1 808 
1 809 
1 810 
1 811 
1 812 
1 813 
1 814 
1 815 
1 816 
1 817 
1 818 
1 819 
1 820 
1 821 
1 822 
1 823 
1 824 
1 825 
1 826 
1 827 
1 828 
1 829 
1 830 
1 831 
1 832 
1 833 
1 834 
1 835 
1 836 
1 837 
1 838 
1 839 
1 840 
1 841 
1 842 
1 843 
1 844 
1 845 
1 846 
1 847 
1 848 
1 849 
1 850 
1 851 
1 852 
1 853 
1 854 
1 855 
1 856 
1 857 
1 858 
1 859 
1 860 
1 861 
1 862 
1 863 
1 864 
1 865 
1 866 
1 867 
1 868 
1 869 
1 870 
1 871 
1 872 
1 873 
1 874 
1 875 
1 876 
1 877 
1 878 
1 879 
1 880 
1 881 
1 882 
1 883 
1 884 
1 885 
1 886 
1 887 
1 888 
1 889 
1 890 
1 891 
1 892 
1 893 
1 894 
1 895 
1 896 
1 897 
1 898 
1 899 
1 900 
1 901 
1 902 
1 903 
1 904 
1 905 
1 906 
1 907 
1 908 
1 909 
1 910 
1 911 
1 912 
1 913 
1 914 
1 915 
1 916 
1 917 
1 918 
1 919 
1 920 
1 921 
1 922 
1 923 
1 924 
1 925 
1 926 
1 927 
1 928 
1 929 
1 930 
1 931 
1 932 
1 933 
1 934 
1 935 
1 936 
1 937 
1 938 
1 939 
1 940 
1 941 
1 942 
1 943 
1 944 
1 945 
1 946 
1 947 
1 948 
1 949 
1 950 
1 951 
1 952 
1 953 
1 954 
1 955 
1 956 
1 957 
1 958 
1 959 
1 960 
1 961 
1 962 
1 963 
1 964 
1 965 
1 966 
1 967 
1 968 
1 969 
1 970 
1 971 
1 972 
1 973 
1 974 
1 975 
1 976 
1 977 
1 978 
1 979 
1 980 
1 981 
1 982 
1 983 
1 984 
1 985 
1 986 
1 987 
1 988 
1 989 
1 990 
1 991 
1 992 
1 993 
1 994 
1 995 
1 996 
1 997 
1 998 
1 999 
1 1000 
1 1001 
1 1002 
1 1003 
1 1004 
1 1005 
1 1006 
1 1007 
1 1008 
1 1009 
1 1010 
1 1011 
1 1012 
1 1013 
1 1014 
1 1015 
1 1016 
1 1017 
1 1018 
1 1019 
1 1020 
1 1021 
1 1022 
1 1023 
1 1024 
1 1025 
1 1026 
1 1027 
1 1028 
1 1029 
1 1030 
1 1031 
1 1032 
1 1033 
1 1034 
1 1035 
1 1036 
1 1037 
1 1038 
1 1039 
1 1040 
1 1041 
1 1042 
1 1043 
1 1044 
1 1045 
1 1046 
1 1047 
1 1048 

POINT_DATA 1049
SCALARS id double
LOOKUP_TABLE default
980 1027 977 1048 964 983 993 1036 1024 
1020 951 1032 1033 945 976 978 1045 968 
966 975 955 990 1004 972 995 933 1040 
941 1041 969 942 1005 947 1028 1016 1026 
1047 954 1018 987 932 962 1014 936 939 
1008 930 1037 960 985 1042 1009 1022 986 
39 41 391 40 389 0 388 42 43 
390 46 49 47 48 44 45 965 51 
1 998 50 1038 2 989 53 52 57 
55 58 59 54 56 62 60 61 63 
64 392 395 66 68 3 65 394 67 
393 69 72 70 73 71 76 74 78 
77 75 80 82 83 81 79 88 87 
84 86 85 93 89 91 92 90 94 
495 4 492 96 494 97 95 493 100 
102 98 101 99 104 105 106 107 103 
108 112 109 110 111 115 117 116 113 
114 121 120 122 118 119 558 557 560 
126 5 125 124 123 559 129 128 127 
131 130 136 134 133 135 132 140 137 
141 138 139 142 145 143 144 146 148 
150 147 151 149 587 152 588 589 153 
590 6 155 156 154 157 161 158 159 
162 160 163 7 973 1029 164 1043 1030 
1011 997 166 165 8 169 167 172 171 
168 170 174 176 177 175 173 180 9 
179 178 181 385 387 384 386 383 967 
953 984 396 397 399 400 398 487 489 
488 490 491 555 556 553 552 554 594 
595 593 591 592 988 950 999 946 929 
1015 182 185 183 186 184 379 380 378 
382 381 952 1007 992 402 403 404 405 
401 485 482 483 484 486 547 549 550 
551 548 599 597 600 596 598 1019 994 
1025 979 934 188 187 189 190 191 373 
374 375 376 377 1012 1017 410 406 407 
409 408 480 481 479 477 478 545 546 
543 542 544 605 604 603 601 602 937 
1044 196 192 194 195 193 370 368 369 
372 371 935 1000 971 412 414 413 411 
415 476 472 474 473 475 539 538 541 
540 537 610 608 607 609 606 943 958 
197 199 200 198 201 364 367 365 366 
363 1031 1021 419 418 416 420 417 468 
471 467 469 470 533 535 532 536 534 
614 613 612 615 611 1002 931 940 1013 
949 206 205 202 203 204 358 360 362 
361 359 944 423 424 425 421 422 466 
462 465 464 463 527 528 530 529 531 
620 616 1001 618 619 617 1035 959 209 
208 210 207 211 353 355 357 354 356 
1003 429 427 430 428 426 460 461 458 
459 457 525 526 522 524 523 621 624 
625 623 622 957 213 216 212 214 215 
348 352 350 349 351 433 10 435 434 
431 432 441 439 436 440 438 437 11 
443 1034 442 444 1006 12 445 446 450 
449 451 447 963 448 452 454 453 456 
455 499 500 498 496 13 497 501 506 
502 503 504 505 508 14 507 510 15 
509 515 511 513 516 512 514 520 517 
521 518 519 562 563 16 565 561 564 
571 566 567 568 569 570 572 573 17 
1010 18 574 575 577 578 580 581 576 
579 981 586 582 583 584 585 19 34 
974 956 948 218 220 219 217 221 343 
347 346 345 344 1023 961 226 225 223 
224 222 660 20 664 342 662 340 341 
663 661 339 21 666 665 667 668 22 
671 672 669 670 673 675 677 676 674 
678 680 679 682 681 683 686 714 23 
687 685 716 715 713 717 684 723 721 
720 718 719 722 36 725 724 727 37 
726 733 732 729 728 730 731 737 734 
735 738 736 739 631 634 633 740 24 
741 742 632 743 745 744 747 746 748 
750 749 752 751 756 757 753 754 755 
760 762 759 761 758 766 764 767 765 
763 769 772 770 768 771 774 775 777 
776 773 780 779 782 781 778 783 787 
785 786 784 790 788 789 791 792 794 
796 793 795 797 801 818 820 800 35 
799 817 798 819 803 804 806 805 802 
808 807 809 810 811 813 815 816 812 
814 938 1039 1046 25 629 626 628 26 
627 630 227 228 230 229 27 334 338 
336 337 335 690 691 688 689 692 635 
637 636 639 638 821 822 824 823 825 
991 231 232 235 234 233 333 330 331 
329 332 696 697 694 693 695 643 642 
640 641 644 826 827 828 830 829 982 
239 237 240 238 236 328 326 324 327 
325 700 699 698 701 702 647 649 646 
645 648 834 835 833 831 832 244 241 
245 242 243 319 322 320 321 323 703 
707 705 706 704 653 652 650 654 651 
996 970 29 250 248 247 249 246 316 
318 314 317 315 711 712 710 708 709 
659 656 657 658 655 925 28 926 928 
924 927 255 251 254 253 252 311 310 
313 312 30 308 306 307 309 305 301 
304 302 300 303 296 297 295 299 298 
290 292 294 291 293 286 288 289 285 
287 284 281 282 283 31 280 277 276 
278 279 271 272 273 275 274 266 269 
270 267 268 265 263 261 262 264 259 
258 257 256 260 32 837 836 838 839 
843 842 841 844 840 847 846 848 845 
849 852 850 853 854 851 856 857 859 
855 858 864 860 861 863 862 866 867 
865 868 869 870 871 872 873 874 875 
878 879 877 876 882 884 883 881 880 
887 885 888 889 886 890 894 891 892 
893 38 895 898 896 897 899 900 901 
902 903 906 908 904 907 905 911 913 
912 910 909 915 914 916 917 918 923 
919 920 921 922 33 
FIELD FieldData 14
r 3 1049 double
-0.38461 -10.2413 0 0.1468 -10.109 0 -0.262923 -9.72149 0 
0.197949 -9.57392 0 0.72975 -9.63326 0 0.593146 -9.0683 0 
-1.71485 -8.85772 0 1.21031 -8.97079 0 1.97435 -8.08243 0 
2.52281 -8.45474 0 3.03171 -8.17602 0 -3.17738 -7.42567 0 
-2.36004 -7.90476 0 2.63292 -7.66973 0 3.74953 -7.53568 0 
-5.1904 -6.5657 0 -4.61798 -6.12596 0 -3.37703 -6.37819 0 
-3.86673 -6.79397 0 3.6954 -6.88387 0 4.63477 -6.17982 0 
-5.20122 -5.57213 0 -5.76438 -5.38832 0 5.20816 -5.84948 0 
-8.06838 -4.47568 0 -7.2607 -4.52825 0 -6.59775 -4.72118 0 
7.10681 -4.20929 0 -8.45585 -3.73283 0 -8.21553 -3.08167 0 
-7.36503 -3.38197 0 -7.54112 -3.95094 0 -6.64448 -3.94266 0 
8.72922 -3.10022 0 8.1773 -3.17918 0 -10.0631 -2.76723 0 
-9.88924 -2.21549 0 -9.42881 -2.66898 0 -8.98256 -2.22957 0 
9.56794 -2.02684 0 10.2647 -2.16434 0 10.8915 -2.06905 0 
-10.844 -1.06167 0 -10.8805 -1.72325 0 -10.2635 -1.3184 0 
-9.88445 -1.67525 0 9.82894 -1.50968 0 10.4403 -1.60205 0 
10.9399 -1.07213 0 -11.7655 -0.384854 0 -11.5057 -0.997763 0 
11.8957 -0.945146 0 11.4234 -0.553343 0 12.0289 -0.189073 0 
-14.8214 0 0 -14.4643 0 0 -15 0.2 0 
-14.6429 0 0 -15 0.6 0 -15 0 0 
-15 0.8 0 -14.2857 0 0 -14.1071 0 0 
-15 0.4 0 -13.5714 0 0 -13.0357 0 0 
-13.3929 0 0 -13.2143 0 0 -13.9286 0 0 
-13.75 0 0 -12.136 0.715089 0 -12.6786 0 0 
-12.5 0 0 -12.2061 0.132026 0 -12.8571 0 0 
-11.5206 0.866104 0 -11.5 0 0 -11.6976 0.287594 0 
-11.1429 0 0 -11.3214 0 0 -10.4286 0 0 
-10.7857 0 0 -10.25 0 0 -10.0714 0 0 
-10.9643 0 0 -10.6071 0 0 -9.5357 0 0 
-9.8929 0 0 -9.7143 0 0 -9.3571 0 0 
-9.1786 0 0 -9 0.2 0 -9 0.8 0 
-8.6 0 0 -8.2 0 0 -9 0 0 
-8.8 0 0 -9 0.6 0 -8.4 0 0 
-9 0.4 0 -8 0 0 -7.4 0 0 
-7.8 0 0 -7.2 0 0 -7.6 0 0 
-6.6 0 0 -7 0 0 -6.2 0 0 
-6.4 0 0 -6.8 0 0 -5.8 0 0 
-5.4 0 0 -5.2 0 0 -5.6 0 0 
-6 0 0 -4.2 0 0 -4.4 0 0 
-5 0 0 -4.6 0 0 -4.8 0 0 
-3.2 0 0 -4 0 0 -3.6 0 0 
-3.4 0 0 -3.8 0 0 -2.8 0 0 
-3 0.2 0 -3 0 0 -3 0.8 0 
-2.4 0 0 -3 0.4 0 -2.2 0 0 
-2.6 0 0 -3 0.6 0 -1.6 0 0 
-1.2 0 0 -2 0 0 -1.4 0 0 
-1.8 0 0 -0.8 0 0 -0.6 0 0 
-0.4 0 0 -0.2 0 0 -1 0 0 
-0 0 0 0.8 0 0 0.2 0 0 
0.4 0 0 0.6 0 0 1.4 0 0 
1.8 0 0 1.6 0 0 1 0 0 
1.2 0 0 2.6 0 0 2.4 0 0 
2.8 0 0 2 0 0 2.2 0 0 
3 0.6 0 3 0.8 0 3 0.2 0 
3.8 0 0 3 0 0 3.6 0 0 
3.4 0 0 3.2 0 0 3 0.4 0 
4.4 0 0 4.2 0 0 4 0 0 
4.8 0 0 4.6 0 0 5.8 0 0 
5.4 0 0 5.2 0 0 5.6 0 0 
5 0 0 6.6 0 0 6 0 0 
6.8 0 0 6.2 0 0 6.4 0 0 
7 0 0 7.6 0 0 7.2 0 0 
7.4 0 0 7.8 0 0 8.2 0 0 
8.6 0 0 8 0 0 8.8 0 0 
8.4 0 0 9 0.2 0 9.1786 0 0 
9 0.4 0 9 0.6 0 9.3571 0 0 
9 0.8 0 9 0 0 9.7143 0 0 
9.8929 0 0 9.5357 0 0 10.0714 0 0 
10.7857 0 0 10.25 0 0 10.4286 0 0 
10.9643 0 0 10.6071 0 0 11.1429 0 0 
11.5 0 0 11.6756 0.230055 0 11.1731 0.448745 0 
11.3214 0 0 11.6059 0.756173 0 12.5641 0.768052 0 
12.6008 0.311731 0 12.1085 0.445819 0 12.8571 0 0 
12.6786 0 0 12.5 0 0 13.3929 0 0 
13.0357 0 0 13.9286 0 0 13.75 0 0 
13.2143 0 0 13.5714 0 0 14.2857 0 0 
14.6429 0 0 14.8214 0 0 14.4643 0 0 
14.1071 0 0 15 0.6 0 15 0 0 
15 0.4 0 15 0.2 0 15 0.8 0 
-15 1.4 0 -15 1 0 -15 1.6 0 
-15 1.2 0 -15 1.8 0 -12.2052 1.83232 0 
-11.4151 1.5084 0 -11.9605 1.21306 0 -9 1 0 
-9 1.2 0 -9 1.6 0 -9 1.8 0 
-9 1.4 0 -3 1.8 0 -3 1.4 0 
-3 1.6 0 -3 1.2 0 -3 1 0 
3 1.2 0 3 1 0 3 1.6 0 
3 1.8 0 3 1.4 0 9 1.6 0 
9 1.8 0 9 1.4 0 9 1 0 
9 1.2 0 11.5719 1.28715 0 11.752 1.90085 0 
12.099 1.00906 0 12.6442 1.25809 0 12.1797 1.52494 0 
12.6413 1.94069 0 15 1 0 15 1.6 0 
15 1.2 0 15 1.8 0 15 1.4 0 
-15 2.6 0 -15 2.4 0 -15 2.8 0 
-15 2 0 -15 2.2 0 -11.9015 2.42277 0 
-11.1899 2.21029 0 -11.5574 2.85963 0 -9 2.2 0 
-9 2.4 0 -9 2.6 0 -9 2.8 0 
-9 2 0 -3 2.2 0 -3 2.8 0 
-3 2.6 0 -3 2.4 0 -3 2 0 
3 2.8 0 3 2.4 0 3 2.2 0 
3 2 0 3 2.6 0 9 2.6 0 
9 2.2 0 9 2.8 0 9 2 0 
9 2.4 0 10.7377 2.5124 0 11.9906 2.46414 0 
11.1775 2.11449 0 11.4658 2.65494 0 12.4555 2.69086 0 
15 2.2 0 15 2 0 15 2.4 0 
15 2.6 0 15 2.8 0 -15 3.8 0 
-15 3.6 0 -15 3.4 0 -15 3.2 0 
-15 3 0 -11.2074 3.3716 0 -10.4787 3.78394 0 
-9 3.8 0 -9 3 0 -9 3.2 0 
-9 3.6 0 -9 3.4 0 -3 3.2 0 
-3 3 0 -3 3.4 0 -3 3.8 0 
-3 3.6 0 3 3.2 0 3 3 0 
3 3.6 0 3 3.8 0 3 3.4 0 
9 3.8 0 9 3.6 0 9 3.4 0 
9 3 0 9 3.2 0 10.8528 3.20895 0 
11.4396 3.23818 0 15 3.8 0 15 3 0 
15 3.4 0 15 3.6 0 15 3.2 0 
-15 4.4 0 -15 4.8 0 -15 4.6 0 
-15 4 0 -15 4.2 0 -11.2736 4.36436 0 
-10.6881 4.33386 0 -10.5035 4.92004 0 -9 4.2 0 
-9 4.6 0 -9 4.4 0 -9 4 0 
-9 4.8 0 -3 4 0 -3 4.8 0 
-3 4.4 0 -3 4.6 0 -3 4.2 0 
3 4.4 0 3 4.6 0 3 4 0 
3 4.2 0 3 4.8 0 9 4.8 0 
9 4.4 0 9 4.2 0 9 4.6 0 
9 4 0 12.3606 4.19006 0 12.535 4.75676 0 
15 4 0 15 4.4 0 15 4.6 0 
15 4.2 0 15 4.8 0 -15 5.6 0 
-15 5 0 -15 5.4 0 -15 5.2 0 
-15 5.8 0 -10.1899 5.43365 0 -10.8101 5.96803 0 
-9 5.6 0 -9 5.4 0 -9 5 0 
-9 5.8 0 -9 5.2 0 -3 5.6 0 
-3 5 0 -3 5.8 0 -3 5.4 0 
-3 5.2 0 3 5.6 0 3 5.2 0 
3 5.8 0 3 5 0 3 5.4 0 
9 5.6 0 9 5.4 0 9 5.2 0 
9 5.8 0 9 5 0 10.3784 5.49883 0 
12.5227 5.63644 0 13.5791 5.58109 0 13.2039 5.14488 0 
13.0868 5.78823 0 15 5.8 0 15 5.6 0 
15 5 0 15 5.2 0 15 5.4 0 
-15 6.8 0 -15 6.4 0 -15 6 0 
-15 6.2 0 -15 6.6 0 -10.139 6.04708 0 
-9 6.4 0 -9 6.6 0 -9 6.8 0 
-9 6 0 -9 6.2 0 -3 6 0 
-3 6.8 0 -3 6.2 0 -3 6.4 0 
-3 6.6 0 3 6.8 0 3 6.6 0 
3 6.2 0 3 6.4 0 3 6 0 
9 6.8 0 9 6 0 9.97491 6.86345 0 
9 6.4 0 9 6.6 0 9 6.2 0 
12.8134 6.89914 0 13.4668 6.97361 0 15 6.4 0 
15 6.2 0 15 6.6 0 15 6 0 
15 6.8 0 -15 7.8 0 -15 7.4 0 
-15 7 0 -15 7.6 0 -15 7.2 0 
-9.77721 7.26839 0 -9 7.6 0 -9 7.2 0 
-9 7.8 0 -9 7.4 0 -9 7 0 
-3 7.2 0 -3 7 0 -3 7.6 0 
-3 7.4 0 -3 7.8 0 3 7.2 0 
3 7 0 3 7.8 0 3 7.4 0 
3 7.6 0 9 7 0 9 7.6 0 
9 7.8 0 9 7.4 0 9 7.2 0 
13.0278 7.5088 0 15 7.2 0 15 7.8 0 
15 7 0 15 7.4 0 15 7.6 0 
-15 8.8 0 -15 8 0 -15 8.4 0 
-15 8.6 0 -15 8.2 0 -8.4643 8 0 
-9 8 0 -8.1071 8 0 -8.2857 8 0 
-8.8214 8 0 -8.6429 8 0 -7.0357 8 0 
-7.3929 8 0 -7.9286 8 0 -7.2143 8 0 
-7.5714 8 0 -7.75 8 0 -6.5 8 0 
-6.6786 8 0 -6.26788 8.99393 0 -6.8571 8 0 
-5.3214 8 0 -5.6609 8.95163 0 -5.5 8 0 
-5.1429 8 0 -4.9643 8 0 -4.25 8 0 
-4.4286 8 0 -4.0714 8 0 -4.7857 8 0 
-4.6902 8.92548 0 -4.6071 8 0 -3.8929 8 0 
-3.5357 8 0 -3.7143 8 0 -3.1786 8 0 
-3.3571 8 0 -2.2857 8 0 -2.1071 8 0 
-2.4643 8 0 -2.8214 8 0 -3 8 0 
-2.6429 8 0 -1.9286 8 0 -1.0357 8 0 
-1.75 8 0 -1.5714 8 0 -1.3929 8 0 
-1.2143 8 0 -0.6786 8 0 -0.5 8 0 
-0.8571 8 0 0.8571 8 0 0.5 8 0 
0.6786 8 0 1.75 8 0 1.0357 8 0 
1.3929 8 0 1.9286 8 0 1.2143 8 0 
1.5714 8 0 2.6429 8 0 2.1071 8 0 
2.8214 8 0 2.2857 8 0 2.4643 8 0 
3.3571 8 0 3.5357 8 0 3 8 0 
3.8929 8 0 3.1786 8 0 3.7143 8 0 
4.9643 8 0 4.0714 8 0 4.25 8 0 
4.4286 8 0 4.6071 8 0 4.7857 8 0 
5.1429 8 0 5.3214 8 0 5.5 8 0 
6.56227 8.97092 0 6.5 8 0 6.6786 8 0 
6.8571 8 0 7.2143 8 0 7.3929 8 0 
7.75 8 0 7.9286 8 0 7.0357 8 0 
7.5714 8 0 7.96459 8.99189 0 8.8214 8 0 
8.1071 8 0 8.2857 8 0 8.4643 8 0 
8.6429 8 0 9 8 0 9 8 0 
9.16838 8.5992 0 13.1449 8.55515 0 13.5811 8.89839 0 
15 8.2 0 15 8.6 0 15 8.4 0 
15 8 0 15 8.8 0 -15 9.8 0 
-15 9 0 -15 9.2 0 -15 9.4 0 
-15 9.6 0 8.55738 9.00679 0 13.6001 9.48432 0 
15 9.8 0 15 9.6 0 15 9.2 0 
15 9.4 0 15 9 0 -14.8333 10 0 
-15 10 0 -14.1667 10 0 -15 10.2 0 
-14.5 10 0 -15 10.6 0 -15 10.4 0 
-14.3333 10 0 -14.6667 10 0 -15 10.8 0 
-14 10 0 -12.6 10 0 -12.8 10 0 
-12.4 10 0 -12.2 10 0 -13 10 0 
-11.6 10 0 -11.4 10 0 -12 10 0 
-11.8 10 0 -11.2 10 0 -10.8 10 0 
-10.4 10 0 -10.6 10 0 -11 10 0 
-10.2 10 0 -9.8 10 0 -10 10 0 
-9.4 10 0 -9.6 10 0 -9.2 10 0 
-9 10.6 0 -8.6429 10 0 -9 10 0 
-9 10.8 0 -9 10.4 0 -8.2857 10 0 
-8.4643 10 0 -8.8214 10 0 -8.1071 10 0 
-9 10.2 0 -7.0357 10 0 -7.3929 10 0 
-7.5714 10 0 -7.9286 10 0 -7.75 10 0 
-7.2143 10 0 -6.5 10 0 -6.6786 10 0 
-6.8571 10 0 -5.1429 10 0 -5.5 10 0 
-5.3214 10 0 -4.0714 10 0 -4.25 10 0 
-4.7857 10 0 -4.9643 10 0 -4.6071 10 0 
-4.4286 10 0 -3.3571 10 0 -3.8929 10 0 
-3.7143 10 0 -3.1786 10 0 -3.5357 10 0 
-2.8 10 0 -3 10.2 0 -3 10.8 0 
-3 10.6 0 -2.6 10 0 -3 10 0 
-2.4 10 0 -2.2 10 0 -3 10.4 0 
-2 10 0 -1.6 10 0 -1.8 10 0 
-1.2 10 0 -1.4 10 0 -1 10 0 
-0.6 10 0 -0.8 10 0 -0.2 10 0 
-0.4 10 0 0.6 10 0 0.8 10 0 
-0 10 0 0.2 10 0 0.4 10 0 
1.4 10 0 1.8 10 0 1.2 10 0 
1.6 10 0 1 10 0 2.6 10 0 
2.2 10 0 2.8 10 0 2.4 10 0 
2 10 0 3.2 10 0 3.8 10 0 
3.4 10 0 3 10 0 3.6 10 0 
4.2 10 0 4.4 10 0 4.8 10 0 
4.6 10 0 4 10 0 5.4 10 0 
5.2 10 0 5.8 10 0 5.6 10 0 
5 10 0 6 10 0 6.8 10 0 
6.4 10 0 6.6 10 0 6.2 10 0 
7.4 10 0 7 10 0 7.2 10 0 
7.6 10 0 7.8 10 0 8.2 10 0 
8.6 10 0 8 10 0 8.4 10 0 
8.8 10 0 9.8 10 0 9 10.4 0 
9 10.8 0 9.6 10 0 9 10 0 
9.4 10 0 9 10.2 0 9.2 10 0 
9 10.6 0 10.2 10 0 10.4 10 0 
10.8 10 0 10.6 10 0 10 10 0 
11.2 10 0 11 10 0 11.4 10 0 
11.6 10 0 11.8 10 0 12.2 10 0 
12.6 10 0 12.8 10 0 12 10 0 
12.4 10 0 12.598 10.9981 0 13.0301 10.5724 0 
13.464 10.0997 0 13 10 0 14.3333 10 0 
14.8333 10 0 14.5 10 0 14 10 0 
14.6667 10 0 14.1667 10 0 15 10.2 0 
15 10.4 0 15 10.8 0 15 10.6 0 
15 10 0 -15 11.8 0 -15 11 0 
-15 11.4 0 -15 11.2 0 -15 11.6 0 
-9 11.4 0 -9 11.6 0 -9 11 0 
-9 11.2 0 -9 11.8 0 -3 11 0 
-3 11.4 0 -3 11.2 0 -3 11.8 0 
-3 11.6 0 9 11 0 9 11.2 0 
9 11.6 0 9 11.4 0 9 11.8 0 
11.6118 11.9864 0 15 11 0 15 11.2 0 
15 11.8 0 15 11.6 0 15 11.4 0 
-15 12 0 -15 12.6 0 -15 12.4 0 
-15 12.8 0 -15 12.2 0 -9 12.6 0 
-9 12.8 0 -9 12.2 0 -9 12 0 
-9 12.4 0 -3 12.6 0 -3 12.4 0 
-3 12 0 -3 12.2 0 -3 12.8 0 
9 12 0 9 12.2 0 9 12.4 0 
9 12.8 0 9 12.6 0 10.8884 12.7525 0 
15 12.6 0 15 12.2 0 15 12.8 0 
15 12.4 0 15 12 0 -15 13 0 
-15 13.4 0 -15 13.8 0 -15 13.2 0 
-15 13.6 0 -9 13.4 0 -9 13.2 0 
-9 13 0 -9 13.6 0 -9 13.8 0 
-3 13.4 0 -3 13.8 0 -3 13.2 0 
-3 13 0 -3 13.6 0 9 13.6 0 
9 13.8 0 9 13.4 0 9 13 0 
9 13.2 0 15 13.6 0 15 13 0 
15 13.8 0 15 13.2 0 15 13.4 0 
-15 14.8 0 -15 14.2 0 -15 14.6 0 
-15 14.4 0 -15 14 0 -9 14 0 
-9 14.8 0 -9 14.4 0 -9 14.6 0 
-9 14.2 0 -3 14.6 0 -3 14.4 0 
-3 14 0 -3 14.8 0 -3 14.2 0 
8.85078 14.4676 0 9.62283 14.0549 0 9 14 0 
15 14.8 0 15 14.4 0 15 14.2 0 
15 14.6 0 15 14 0 -15 15.4 0 
-15 15 0 -15 15.8 0 -15 15.2 0 
-15 15.6 0 -9 15.6 0 -9 15.8 0 
-9 15.4 0 -9 15 0 -9 15.2 0 
-3 15.8 0 -3 15.2 0 -3 15.4 0 
-3 15.6 0 -3 15 0 9 15.3333 0 
9 15 0 9 15.5 0 9 15.8333 0 
9 15.1667 0 9 15.6667 0 15 15.8 0 
15 15 0 15 15.6 0 15 15.4 0 
15 15.2 0 -14.4 16 0 -14.2 16 0 
-14.8 16 0 -14.6 16 0 -15 16 0 
-13.8 16 0 -13.4 16 0 -13.6 16 0 
-14 16 0 -13.2 16 0 -12.4 16 0 
-13 16 0 -12.6 16 0 -12.2 16 0 
-12.8 16 0 -11.4 16 0 -11.6 16 0 
-11.2 16 0 -12 16 0 -11.8 16 0 
-10.2 16 0 -10.6 16 0 -11 16 0 
-10.4 16 0 -10.8 16 0 -9.4 16 0 
-9.8 16 0 -10 16 0 -9.2 16 0 
-9.6 16 0 -8.8 16 0 -8.2 16 0 
-8.4 16 0 -8.6 16 0 -9 16 0 
-8 16 0 -7.4 16 0 -7.2 16 0 
-7.6 16 0 -7.8 16 0 -6.2 16 0 
-6.4 16 0 -6.6 16 0 -7 16 0 
-6.8 16 0 -5.2 16 0 -5.8 16 0 
-6 16 0 -5.4 16 0 -5.6 16 0 
-5 16 0 -4.6 16 0 -4.2 16 0 
-4.4 16 0 -4.8 16 0 -3.8 16 0 
-3.6 16 0 -3.4 16 0 -3.2 16 0 
-4 16 0 -3 16 0 -2.6 16 0 
-2.8 16 0 -2.4 16 0 -2.2 16 0 
-1.4 16 0 -1.6 16 0 -1.8 16 0 
-1.2 16 0 -2 16 0 -0.6 16 0 
-0.8 16 0 -0.4 16 0 -1 16 0 
-0.2 16 0 0.4 16 0 -0 16 0 
0.6 16 0 0.8 16 0 0.2 16 0 
1.2 16 0 1.4 16 0 1.8 16 0 
1 16 0 1.6 16 0 2.8 16 0 
2 16 0 2.2 16 0 2.6 16 0 
2.4 16 0 3.2 16 0 3.4 16 0 
3 16 0 3.6 16 0 3.8 16 0 
4 16 0 4.2 16 0 4.4 16 0 
4.6 16 0 4.8 16 0 5 16 0 
5.6 16 0 5.8 16 0 5.4 16 0 
5.2 16 0 6.4 16 0 6.8 16 0 
6.6 16 0 6.2 16 0 6 16 0 
7.4 16 0 7 16 0 7.6 16 0 
7.8 16 0 7.2 16 0 8 16 0 
8.8 16 0 8.2 16 0 8.4 16 0 
8.6 16 0 9 16 0 9.2 16 0 
9.8 16 0 9.4 16 0 9.6 16 0 
10 16 0 10.2 16 0 10.4 16 0 
10.6 16 0 10.8 16 0 11.4 16 0 
11.8 16 0 11 16 0 11.6 16 0 
11.2 16 0 12.4 16 0 12.8 16 0 
12.6 16 0 12.2 16 0 12 16 0 
13.2 16 0 13 16 0 13.4 16 0 
13.6 16 0 13.8 16 0 14.8 16 0 
14 16 0 14.2 16 0 14.4 16 0 
14.6 16 0 15 16 0 
gid 1 1049 double
1 1 1 1 1 1 1 1 1 
1 1 1 1 1 1 1 1 1 
1 1 1 1 1 1 1 1 1 
1 1 1 1 1 1 1 1 1 
1 1 1 1 1 1 1 1 1 
1 1 1 1 1 1 1 1 1 
2 2 2 2 2 2 2 2 2 
2 2 2 2 2 2 2 1 2 
2 1 2 1 2 1 2 2 2 
2 2 2 2 2 2 2 2 2 
2 2 2 2 2 2 2 2 2 
2 2 2 2 2 2 2 2 2 
2 2 2 2 2 2 2 2 2 
2 2 2 2 2 2 2 2 2 
2 2 2 2 2 2 2 2 2 
2 2 2 2 2 2 2 2 2 
2 2 2 2 2 2 2 2 2 
2 2 2 2 2 2 2 2 2 
2 2 2 2 2 2 2 2 2 
2 2 2 2 2 2 2 2 2 
2 2 2 2 2 2 2 2 2 
2 2 2 2 2 2 2 2 2 
2 2 2 2 2 2 2 2 2 
2 2 2 2 1 1 2 1 1 
1 1 2 2 2 2 2 2 2 
2 2 2 2 2 2 2 2 2 
2 2 2 2 2 2 2 2 1 
1 1 2 2 2 2 2 2 2 
2 2 2 2 2 2 2 2 2 
2 2 2 2 1 1 1 1 1 
1 2 2 2 2 2 2 2 2 
2 2 1 1 1 2 2 2 2 
2 2 2 2 2 2 2 2 2 
2 2 2 2 2 2 2 1 1 
1 1 1 2 2 2 2 2 2 
2 2 2 2 1 1 2 2 2 
2 2 2 2 2 2 2 2 2 
2 2 2 2 2 2 2 2 1 
1 2 2 2 2 2 2 2 2 
2 2 1 1 1 2 2 2 2 
2 2 2 2 2 2 2 2 2 
2 2 2 2 2 2 2 1 1 
2 2 2 2 2 2 2 2 2 
2 1 1 2 2 2 2 2 2 
2 2 2 2 2 2 2 2 2 
2 2 2 2 2 1 1 1 1 
1 2 2 2 2 2 2 2 2 
2 2 1 2 2 2 2 2 2 
2 2 2 2 2 2 2 2 2 
2 2 1 2 2 2 1 1 2 
2 2 2 2 2 2 2 2 2 
1 2 2 2 2 2 2 2 2 
2 2 2 2 2 2 2 2 2 
2 2 2 1 2 2 2 2 2 
2 2 2 2 2 2 2 2 2 
2 2 2 2 2 2 2 2 2 
2 1 2 2 1 2 2 2 2 
2 2 2 1 2 2 2 2 2 
2 2 2 2 2 2 2 2 2 
2 2 2 2 2 2 2 2 2 
2 2 2 2 2 2 2 2 2 
2 2 2 2 2 2 2 2 2 
2 2 2 2 2 2 2 2 2 
1 2 2 2 2 2 2 2 2 
2 1 2 2 2 2 2 2 2 
1 1 1 2 2 2 2 2 2 
2 2 2 2 1 1 2 2 2 
2 2 2 2 2 2 2 2 2 
2 2 2 2 2 2 2 2 2 
2 2 2 2 2 2 2 2 2 
2 2 2 2 2 2 2 2 2 
2 2 2 2 2 2 2 2 2 
2 2 2 2 2 2 2 2 2 
2 2 2 2 2 2 2 2 2 
2 2 2 2 2 2 2 2 2 
2 2 2 2 2 2 2 2 2 
2 2 2 2 2 2 2 2 2 
2 2 2 2 2 2 2 2 2 
2 2 2 2 2 2 2 2 2 
2 2 2 2 2 2 2 2 2 
2 2 2 2 2 2 2 2 2 
2 2 2 2 2 2 2 2 2 
2 2 2 2 2 2 2 2 2 
2 2 2 2 2 2 2 2 2 
2 1 1 1 2 2 2 2 2 
2 2 2 2 2 2 2 2 2 
2 2 2 2 2 2 2 2 2 
2 2 2 2 2 2 2 2 2 
1 2 2 2 2 2 2 2 2 
2 2 2 2 2 2 2 2 2 
2 2 2 2 2 2 2 2 1 
2 2 2 2 2 2 2 2 2 
2 2 2 2 2 2 2 2 2 
2 2 2 2 2 2 2 2 2 
2 2 2 2 2 2 2 2 2 
2 2 2 2 2 2 2 2 2 
1 1 2 2 2 2 2 2 2 
2 2 2 2 2 2 2 2 2 
2 2 2 2 2 2 2 2 2 
2 2 2 2 2 2 2 2 2 
2 2 2 2 2 2 2 2 2 
2 2 2 2 2 2 2 2 2 
2 2 2 2 2 2 2 2 2 
2 2 2 2 2 2 2 2 2 
2 2 2 2 2 2 2 2 2 
2 2 2 2 2 2 2 2 2 
2 2 2 2 2 2 2 2 2 
2 2 2 2 2 2 2 2 2 
2 2 2 2 2 2 2 2 2 
2 2 2 2 2 2 2 2 2 
2 2 2 2 2 2 2 2 2 
2 2 2 2 2 2 2 2 2 
2 2 2 2 2 2 2 2 2 
2 2 2 2 2 2 2 2 2 
2 2 2 2 2 2 2 2 2 
2 2 2 2 2 2 2 2 2 
2 2 2 2 2 
A 1 1049 double
10 10 10 10 10 10 10 10 10 
10 10 10 10 10 10 10 10 10 
10 10 10 10 10 10 10 10 10 
10 10 10 10 10 10 10 10 10 
10 10 10 10 10 10 10 10 10 
10 10 10 10 10 10 10 10 10 
10 10 10 10 10 10 10 10 10 
10 10 10 10 10 10 10 10 10 
10 10 10 10 10 10 10 10 10 
10 10 10 10 10 10 10 10 10 
10 10 10 10 10 10 10 10 10 
10 10 10 10 10 10 10 10 10 
10 10 10 10 10 10 10 10 10 
10 10 10 10 10 10 10 10 10 
10 10 10 10 10 10 10 10 10 
10 10 10 10 10 10 10 10 10 
10 10 10 10 10 10 10 10 10 
10 10 10 10 10 10 10 10 10 
10 10 10 10 10 10 10 10 10 
10 10 10 10 10 10 10 10 10 
10 10 10 10 10 10 10 10 10 
10 10 10 10 10 10 10 10 10 
10 10 10 10 10 10 10 10 10 
10 10 10 10 10 10 10 10 10 
10 10 10 10 10 10 10 10 10 
10 10 10 10 10 10 10 10 10 
10 10 10 10 10 10 10 10 10 
10 10 10 10 10 10 10 10 10 
10 10 10 10 10 10 10 10 10 
10 10 10 10 10 10 10 10 10 
10 10 10 10 10 10 10 10 10 
10 10 10 10 10 10 10 10 10 
10 10 10 10 10 10 10 10 10 
10 10 10 10 10 10 10 10 10 
10 10 10 10 10 10 10 10 10 
10 10 10 10 10 10 10 10 10 
10 10 10 10 10 10 10 10 10 
10 10 10 10 10 10 10 10 10 
10 10 10 10 10 10 10 10 10 
10 10 10 10 10 10 10 10 10 
10 10 10 10 10 10 10 10 10 
10 10 10 10 10 10 10 10 10 
10 10 10 10 10 10 10 10 10 
10 10 10 10 10 10 10 10 10 
10 10 10 10 10 10 10 10 10 
10 10 10 10 10 10 10 10 10 
10 10 10 10 10 10 10 10 10 
10 10 10 10 10 10 10 10 10 
10 10 10 10 10 10 10 10 10 
10 10 10 10 10 10 10 10 10 
10 10 10 10 10 10 10 10 10 
10 10 10 10 10 10 10 10 10 
10 10 10 10 10 10 10 10 10 
10 10 10 10 10 10 10 10 10 
10 10 10 10 10 10 10 10 10 
10 10 10 10 10 10 10 10 10 
10 10 10 10 10 10 10 10 10 
10 10 10 10 10 10 10 10 10 
10 10 10 10 10 10 10 10 10 
10 10 10 10 10 10 10 10 10 
10 10 10 10 10 10 10 10 10 
10 10 10 10 10 10 10 10 10 
10 10 10 10 10 10 10 10 10 
10 10 10 10 10 10 10 10 10 
10 10 10 10 10 10 10 10 10 
10 10 10 10 10 10 10 10 10 
10 10 10 10 10 10 10 10 10 
10 10 10 10 10 10 10 10 10 
10 10 10 10 10 10 10 10 10 
10 10 10 10 10 10 10 10 10 
10 10 10 10 10 10 10 10 10 
10 10 10 10 10 10 10 10 10 
10 10 10 10 10 10 10 10 10 
10 10 10 10 10 10 10 10 10 
10 10 10 10 10 10 10 10 10 
10 10 10 10 10 10 10 10 10 
10 10 10 10 10 10 10 10 10 
10 10 10 10 10 10 10 10 10 
10 10 10 10 10 10 10 10 10 
10 10 10 10 10 10 10 10 10 
10 10 10 10 10 10 10 10 10 
10 10 10 10 10 10 10 10 10 
10 10 10 10 10 10 10 10 10 
10 10 10 10 10 10 10 10 10 
10 10 10 10 10 10 10 10 10 
10 10 10 10 10 10 10 10 10 
10 10 10 10 10 10 10 10 10 
10 10 10 10 10 10 10 10 10 
10 10 10 10 10 10 10 10 10 
10 10 10 10 10 10 10 10 10 
10 10 10 10 10 10 10 10 10 
10 10 10 10 10 10 10 10 10 
10 10 10 10 10 10 10 10 10 
10 10 10 10 10 10 10 10 10 
10 10 10 10 10 10 10 10 10 
10 10 10 10 10 10 10 10 10 
10 10 10 10 10 10 10 10 10 
10 10 10 10 10 10 10 10 10 
10 10 10 10 10 10 10 10 10 
10 10 10 10 10 10 10 10 10 
10 10 10 10 10 10 10 10 10 
10 10 10 10 10 10 10 10 10 
10 10 10 10 10 10 10 10 10 
10 10 10 10 10 10 10 10 10 
10 10 10 10 10 10 10 10 10 
10 10 10 10 10 10 10 10 10 
10 10 10 10 10 10 10 10 10 
10 10 10 10 10 10 10 10 10 
10 10 10 10 10 10 10 10 10 
10 10 10 10 10 10 10 10 10 
10 10 10 10 10 10 10 10 10 
10 10 10 10 10 10 10 10 10 
10 10 10 10 10 10 10 10 10 
10 10 10 10 10 10 10 10 10 
10 10 10 10 10 10 10 10 10 
10 10 10 10 10 10 10 10 10 
10 10 10 10 10 
B 1 1049 double
0.2 0.2 0.2 0.2 0.2 0.2 0.2 0.2 0.2 
0.2 0.2 0.2 0.2 0.2 0.2 0.2 0.2 0.2 
0.2 0.2 0.2 0.2 0.2 0.2 0.2 0.2 0.2 
0.2 0.2 0.2 0.2 0.2 0.2 0.2 0.2 0.2 
0.2 0.2 0.2 0.2 0.2 0.2 0.2 0.2 0.2 
0.2 0.2 0.2 0.2 0.2 0.2 0.2 0.2 0.2 
0.2 0.2 0.2 0.2 0.2 0.2 0.2 0.2 0.2 
0.2 0.2 0.2 0.2 0.2 0.2 0.2 0.2 0.2 
0.2 0.2 0.2 0.2 0.2 0.2 0.2 0.2 0.2 
0.2 0.2 0.2 0.2 0.2 0.2 0.2 0.2 0.2 
0.2 0.2 0.2 0.2 0.2 0.2 0.2 0.2 0.2 
0.2 0.2 0.2 0.2 0.2 0.2 0.2 0.2 0.2 
0.2 0.2 0.2 0.2 0.2 0.2 0.2 0.2 0.2 
0.2 0.2 0.2 0.2 0.2 0.2 0.2 0.2 0.2 
0.2 0.2 0.2 0.2 0.2 0.2 0.2 0.2 0.2 
0.2 0.2 0.2 0.2 0.2 0.2 0.2 0.2 0.2 
0.2 0.2 0.2 0.2 0.2 0.2 0.2 0.2 0.2 
0.2 0.2 0.2 0.2 0.2 0.2 0.2 0.2 0.2 
0.2 0.2 0.2 0.2 0.2 0.2 0.2 0.2 0.2 
0.2 0.2 0.2 0.2 0.2 0.2 0.2 0.2 0.2 
0.2 0.2 0.2 0.2 0.2 0.2 0.2 0.2 0.2 
0.2 0.2 0.2 0.2 0.2 0.2 0.2 0.2 0.2 
0.2 0.2 0.2 0.2 0.2 0.2 0.2 0.2 0.2 
0.2 0.2 0.2 0.2 0.2 0.2 0.2 0.2 0.2 
0.2 0.2 0.2 0.2 0.2 0.2 0.2 0.2 0.2 
0.2 0.2 0.2 0.2 0.2 0.2 0.2 0.2 0.2 
0.2 0.2 0.2 0.2 0.2 0.2 0.2 0.2 0.2 
0.2 0.2 0.2 0.2 0.2 0.2 0.2 0.2 0.2 
0.2 0.2 0.2 0.2 0.2 0.2 0.2 0.2 0.2 
0.2 0.2 0.2 0.2 0.2 0.2 0.2 0.2 0.2 
0.2 0.2 0.2 0.2 0.2 0.2 0.2 0.2 0.2 
0.2 0.2 0.2 0.2 0.2 0.2 0.2 0.2 0.2 
0.2 0.2 0.2 0.2 0.2 0.2 0.2 0.2 0.2 
0.2 0.2 0.2 0.2 0.2 0.2 0.2 0.2 0.2 
0.2 0.2 0.2 0.2 0.2 0.2 0.2 0.2 0.2 
0.2 0.2 0.2 0.2 0.2 0.2 0.2 0.2 0.2 
0.2 0.2 0.2 0.2 0.2 0.2 0.2 0.2 0.2 
0.2 0.2 0.2 0.2 0.2 0.2 0.2 0.2 0.2 
0.2 0.2 0.2 0.2 0.2 0.2 0.2 0.2 0.2 
0.2 0.2 0.2 0.2 0.2 0.2 0.2 0.2 0.2 
0.2 0.2 0.2 0.2 0.2 0.2 0.2 0.2 0.2 
0.2 0.2 0.2 0.2 0.2 0.2 0.2 0.2 0.2 
0.2 0.2 0.2 0.2 0.2 0.2 0.2 0.2 0.2 
0.2 0.2 0.2 0.2 0.2 0.2 0.2 0.2 0.2 
0.2 0.2 0.2 0.2 0.2 0.2 0.2 0.2 0.2 
0.2 0.2 0.2 0.2 0.2 0.2 0.2 0.2 0.2 
0.2 0.2 0.2 0.2 0.2 0.2 0.2 0.2 0.2 
0.2 0.2 0.2 0.2 0.2 0.2 0.2 0.2 0.2 
0.2 0.2 0.2 0.2 0.2 0.2 0.2 0.2 0.2 
0.2 0.2 0.2 0.2 0.2 0.2 0.2 0.2 0.2 
0.2 0.2 0.2 0.2 0.2 0.2 0.2 0.2 0.2 
0.2 0.2 0.2 0.2 0.2 0.2 0.2 0.2 0.2 
0.2 0.2 0.2 0.2 0.2 0.2 0.2 0.2 0.2 
0.2 0.2 0.2 0.2 0.2 0.2 0.2 0.2 0.2 
0.2 0.2 0.2 0.2 0.2 0.2 0.2 0.2 0.2 
0.2 0.2 0.2 0.2 0.2 0.2 0.2 0.2 0.2 
0.2 0.2 0.2 0.2 0.2 0.2 0.2 0.2 0.2 
0.2 0.2 0.2 0.2 0.2 0.2 0.2 0.2 0.2 
0.2 0.2 0.2 0.2 0.2 0.2 0.2 0.2 0.2 
0.2 0.2 0.2 0.2 0.2 0.2 0.2 0.2 0.2 
0.2 0.2 0.2 0.2 0.2 0.2 0.2 0.2 0.2 
0.2 0.2 0.2 0.2 0.2 0.2 0.2 0.2 0.2 
0.2 0.2 0.2 0.2 0.2 0.2 0.2 0.2 0.2 
0.2 0.2 0.2 0.2 0.2 0.2 0.2 0.2 0.2 
0.2 0.2 0.2 0.2 0.2 0.2 0.2 0.2 0.2 
0.2 0.2 0.2 0.2 0.2 0.2 0.2 0.2 0.2 
0.2 0.2 0.2 0.2 0.2 0.2 0.2 0.2 0.2 
0.2 0.2 0.2 0.2 0.2 0.2 0.2 0.2 0.2 
0.2 0.2 0.2 0.2 0.2 0.2 0.2 0.2 0.2 
0.2 0.2 0.2 0.2 0.2 0.2 0.2 0.2 0.2 
0.2 0.2 0.2 0.2 0.2 0.2 0.2 0.2 0.2 
0.2 0.2 0.2 0.2 0.2 0.2 0.2 0.2 0.2 
0.2 0.2 0.2 0.2 0.2 0.2 0.2 0.2 0.2 
0.2 0.2 0.2 0.2 0.2 0.2 0.2 0.2 0.2 
0.2 0.2 0.2 0.2 0.2 0.2 0.2 0.2 0.2 
0.2 0.2 0.2 0.2 0.2 0.2 0.2 0.2 0.2 
0.2 0.2 0.2 0.2 0.2 0.2 0.2 0.2 0.2 
0.2 0.2 0.2 0.2 0.2 0.2 0.2 0.2 0.2 
0.2 0.2 0.2 0.2 0.2 0.2 0.2 0.2 0.2 
0.2 0.2 0.2 0.2 0.2 0.2 0.2 0.2 0.2 
0.2 0.2 0.2 0.2 0.2 0.2 0.2 0.2 0.2 
0.2 0.2 0.2 0.2 0.2 0.2 0.2 0.2 0.2 
0.2 0.2 0.2 0.2 0.2 0.2 0.2 0.2 0.2 
0.2 0.2 0.2 0.2 0.2 0.2 0.2 0.2 0.2 
0.2 0.2 0.2 0.2 0.2 0.2 0.2 0.2 0.2 
0.2 0.2 0.2 0.2 0.2 0.2 0.2 0.2 0.2 
0.2 0.2 0.2 0.2 0.2 0.2 0.2 0.2 0.2 
0.2 0.2 0.2 0.2 0.2 0.2 0.2 0.2 0.2 
0.2 0.2 0.2 0.2 0.2 0.2 0.2 0.2 0.2 
0.2 0.2 0.2 0.2 0.2 0.2 0.2 0.2 0.2 
0.2 0.2 0.2 0.2 0.2 0.2 0.2 0.2 0.2 
0.2 0.2 0.2 0.2 0.2 0.2 0.2 0.2 0.2 
0.2 0.2 0.2 0.2 0.2 0.2 0.2 0.2 0.2 
0.2 0.2 0.2 0.2 0.2 0.2 0.2 0.2 0.2 
0.2 0.2 0.2 0.2 0.2 0.2 0.2 0.2 0.2 
0.2 0.2 0.2 0.2 0.2 0.2 0.2 0.2 0.2 
0.2 0.2 0.2 0.2 0.2 0.2 0.2 0.2 0.2 
0.2 0.2 0.2 0.2 0.2 0.2 0.2 0.2 0.2 
0.2 0.2 0.2 0.2 0.2 0.2 0.2 0.2 0.2 
0.2 0.2 0.2 0.2 0.2 0.2 0.2 0.2 0.2 
0.2 0.2 0.2 0.2 0.2 0.2 0.2 0.2 0.2 
0.2 0.2 0.2 0.2 0.2 0.2 0.2 0.2 0.2 
0.2 0.2 0.2 0.2 0.2 0.2 0.2 0.2 0.2 
0.2 0.2 0.2 0.2 0.2 0.2 0.2 0.2 0.2 
0.2 0.2 0.2 0.2 0.2 0.2 0.2 0.2 0.2 
0.2 0.2 0.2 0.2 0.2 0.2 0.2 0.2 0.2 
0.2 0.2 0.2 0.2 0.2 0.2 0.2 0.2 0.2 
0.2 0.2 0.2 0.2 0.2 0.2 0.2 0.2 0.2 
0.2 0.2 0.2 0.2 0.2 0.2 0.2 0.2 0.2 
0.2 0.2 0.2 0.2 0.2 0.2 0.2 0.2 0.2 
0.2 0.2 0.2 0.2 0.2 0.2 0.2 0.2 0.2 
0.2 0.2 0.2 0.2 0.2 0.2 0.2 0.2 0.2 
0.2 0.2 0.2 0.2 0.2 0.2 0.2 0.2 0.2 
0.2 0.2 0.2 0.2 0.2 0.2 0.2 0.2 0.2 
0.2 0.2 0.2 0.2 0.2 0.2 0.2 0.2 0.2 
0.2 0.2 0.2 0.2 0.2 0.2 0.2 0.2 0.2 
0.2 0.2 0.2 0.2 0.2 
c 1 1049 double
0.1 0.1 0.1 0.1 0.1 0.1 0.1 0.1 0.1 
0.1 0.1 0.1 0.1 0.1 0.1 0.1 0.1 0.1 
0.1 0.1 0.1 0.1 0.1 0.1 0.1 0.1 0.1 
0.1 0.1 0.1 0.1 0.1 0.1 0.1 0.1 0.1 
0.1 0.1 0.1 0.1 0.1 0.1 0.1 0.1 0.1 
0.1 0.1 0.1 0.1 0.1 0.1 0.1 0.1 0.1 
0.1 0.1 0.1 0.1 0.1 0.1 0.1 0.1 0.1 
0.1 0.1 0.1 0.1 0.1 0.1 0.1 0.1 0.1 
0.1 0.1 0.1 0.1 0.1 0.1 0.1 0.1 0.1 
0.1 0.1 0.1 0.1 0.1 0.1 0.1 0.1 0.1 
0.1 0.1 0.1 0.1 0.1 0.1 0.1 0.1 0.1 
0.1 0.1 0.1 0.1 0.1 0.1 0.1 0.1 0.1 
0.1 0.1 0.1 0.1 0.1 0.1 0.1 0.1 0.1 
0.1 0.1 0.1 0.1 0.1 0.1 0.1 0.1 0.1 
0.1 0.1 0.1 0.1 0.1 0.1 0.1 0.1 0.1 
0.1 0.1 0.1 0.1 0.1 0.1 0.1 0.1 0.1 
0.1 0.1 0.1 0.1 0.1 0.1 0.1 0.1 0.1 
0.1 0.1 0.1 0.1 0.1 0.1 0.1 0.1 0.1 
0.1 0.1 0.1 0.1 0.1 0.1 0.1 0.1 0.1 
0.1 0.1 0.1 0.1 0.1 0.1 0.1 0.1 0.1 
0.1 0.1 0.1 0.1 0.1 0.1 0.1 0.1 0.1 
0.1 0.1 0.1 0.1 0.1 0.1 0.1 0.1 0.1 
0.1 0.1 0.1 0.1 0.1 0.1 0.1 0.1 0.1 
0.1 0.1 0.1 0.1 0.1 0.1 0.1 0.1 0.1 
0.1 0.1 0.1 0.1 0.1 0.1 0.1 0.1 0.1 
0.1 0.1 0.1 0.1 0.1 0.1 0.1 0.1 0.1 
0.1 0.1 0.1 0.1 0.1 0.1 0.1 0.1 0.1 
0.1 0.1 0.1 0.1 0.1 0.1 0.1 0.1 0.1 
0.1 0.1 0.1 0.1 0.1 0.1 0.1 0.1 0.1 
0.1 0.1 0.1 0.1 0.1 0.1 0.1 0.1 0.1 
0.1 0.1 0.1 0.1 0.1 0.1 0.1 0.1 0.1 
0.1 0.1 0.1 0.1 0.1 0.1 0.1 0.1 0.1 
0.1 0.1 0.1 0.1 0.1 0.1 0.1 0.1 0.1 
0.1 0.1 0.1 0.1 0.1 0.1 0.1 0.1 0.1 
0.1 0.1 0.1 0.1 0.1 0.1 0.1 0.1 0.1 
0.1 0.1 0.1 0.1 0.1 0.1 0.1 0.1 0.1 
0.1 0.1 0.1 0.1 0.1 0.1 0.1 0.1 0.1 
0.1 0.1 0.1 0.1 0.1 0.1 0.1 0.1 0.1 
0.1 0.1 0.1 0.1 0.1 0.1 0.1 0.1 0.1 
0.1 0.1 0.1 0.1 0.1 0.1 0.1 0.1 0.1 
0.1 0.1 0.1 0.1 0.1 0.1 0.1 0.1 0.1 
0.1 0.1 0.1 0.1 0.1 0.1 0.1 0.1 0.1 
0.1 0.1 0.1 0.1 0.1 0.1 0.1 0.1 0.1 
0.1 0.1 0.1 0.1 0.1 0.1 0.1 0.1 0.1 
0.1 0.1 0.1 0.1 0.1 0.1 0.1 0.1 0.1 
0.1 0.1 0.1 0.1 0.1 0.1 0.1 0.1 0.1 
0.1 0.1 0.1 0.1 0.1 0.1 0.1 0.1 0.1 
0.1 0.1 0.1 0.1 0.1 0.1 0.1 0.1 0.1 
0.1 0.1 0.1 0.1 0.1 0.1 0.1 0.1 0.1 
0.1 0.1 0.1 0.1 0.1 0.1 0.1 0.1 0.1 
0.1 0.1 0.1 0.1 0.1 0.1 0.1 0.1 0.1 
0.1 0.1 0.1 0.1 0.1 0.1 0.1 0.1 0.1 
0.1 0.1 0.1 0.1 0.1 0.1 0.1 0.1 0.1 
0.1 0.1 0.1 0.1 0.1 0.1 0.1 0.1 0.1 
0.1 0.1 0.1 0.1 0.1 0.1 0.1 0.1 0.1 
0.1 0.1 0.1 0.1 0.1 0.1 0.1 0.1 0.1 
0.1 0.1 0.1 0.1 0.1 0.1 0.1 0.1 0.1 
0.1 0.1 0.1 0.1 0.1 0.1 0.1 0.1 0.1 
0.1 0.1 0.1 0.1 0.1 0.1 0.1 0.1 0.1 
0.1 0.1 0.1 0.1 0.1 0.1 0.1 0.1 0.1 
0.1 0.1 0.1 0.1 0.1 0.1 0.1 0.1 0.1 
0.1 0.1 0.1 0.1 0.1 0.1 0.1 0.1 0.1 
0.1 0.1 0.1 0.1 0.1 0.1 0.1 0.1 0.1 
0.1 0.1 0.1 0.1 0.1 0.1 0.1 0.1 0.1 
0.1 0.1 0.1 0.1 0.1 0.1 0.1 0.1 0.1 
0.1 0.1 0.1 0.1 0.1 0.1 0.1 0.1 0.1 
0.1 0.1 0.1 0.1 0.1 0.1 0.1 0.1 0.1 
0.1 0.1 0.1 0.1 0.1 0.1 0.1 0.1 0.1 
0.1 0.1 0.1 0.1 0.1 0.1 0.1 0.1 0.1 
0.1 0.1 0.1 0.1 0.1 0.1 0.1 0.1 0.1 
0.1 0.1 0.1 0.1 0.1 0.1 0.1 0.1 0.1 
0.1 0.1 0.1 0.1 0.1 0.1 0.1 0.1 0.1 
0.1 0.1 0.1 0.1 0.1 0.1 0.1 0.1 0.1 
0.1 0.1 0.1 0.1 0.1 0.1 0.1 0.1 0.1 
0.1 0.1 0.1 0.1 0.1 0.1 0.1 0.1 0.1 
0.1 0.1 0.1 0.1 0.1 0.1 0.1 0.1 0.1 
0.1 0.1 0.1 0.1 0.1 0.1 0.1 0.1 0.1 
0.1 0.1 0.1 0.1 0.1 0.1 0.1 0.1 0.1 
0.1 0.1 0.1 0.1 0.1 0.1 0.1 0.1 0.1 
0.1 0.1 0.1 0.1 0.1 0.1 0.1 0.1 0.1 
0.1 0.1 0.1 0.1 0.1 0.1 0.1 0.1 0.1 
0.1 0.1 0.1 0.1 0.1 0.1 0.1 0.1 0.1 
0.1 0.1 0.1 0.1 0.1 0.1 0.1 0.1 0.1 
0.1 0.1 0.1 0.1 0.1 0.1 0.1 0.1 0.1 
0.1 0.1 0.1 0.1 0.1 0.1 0.1 0.1 0.1 
0.1 0.1 0.1 0.1 0.1 0.1 0.1 0.1 0.1 
0.1 0.1 0.1 0.1 0.1 0.1 0.1 0.1 0.1 
0.1 0.1 0.1 0.1 0.1 0.1 0.1 0.1 0.1 
0.1 0.1 0.1 0.1 0.1 0.1 0.1 0.1 0.1 
0.1 0.1 0.1 0.1 0.1 0.1 0.1 0.1 0.1 
0.1 0.1 0.1 0.1 0.1 0.1 0.1 0.1 0.1 
0.1 0.1 0.1 0.1 0.1 0.1 0.1 0.1 0.1 
0.1 0.1 0.1 0.1 0.1 0.1 0.1 0.1 0.1 
0.1 0.1 0.1 0.1 0.1 0.1 0.1 0.1 0.1 
0.1 0.1 0.1 0.1 0.1 0.1 0.1 0.1 0.1 
0.1 0.1 0.1 0.1 0.1 0.1 0.1 0.1 0.1 
0.1 0.1 0.1 0.1 0.1 0.1 0.1 0.1 0.1 
0.1 0.1 0.1 0.1 0.1 0.1 0.1 0.1 0.1 
0.1 0.1 0.1 0.1 0.1 0.1 0.1 0.1 0.1 
0.1 0.1 0.1 0.1 0.1 0.1 0.1 0.1 0.1 
0.1 0.1 0.1 0.1 0.1 0.1 0.1 0.1 0.1 
0.1 0.1 0.1 0.1 0.1 0.1 0.1 0.1 0.1 
0.1 0.1 0.1 0.1 0.1 0.1 0.1 0.1 0.1 
0.1 0.1 0.1 0.1 0.1 0.1 0.1 0.1 0.1 
0.1 0.1 0.1 0.1 0.1 0.1 0.1 0.1 0.1 
0.1 0.1 0.1 0.1 0.1 0.1 0.1 0.1 0.1 
0.1 0.1 0.1 0.1 0.1 0.1 0.1 0.1 0.1 
0.1 0.1 0.1 0.1 0.1 0.1 0.1 0.1 0.1 
0.1 0.1 0.1 0.1 0.1 0.1 0.1 0.1 0.1 
0.1 0.1 0.1 0.1 0.1 0.1 0.1 0.1 0.1 
0.1 0.1 0.1 0.1 0.1 0.1 0.1 0.1 0.1 
0.1 0.1 0.1 0.1 0.1 0.1 0.1 0.1 0.1 
0.1 0.1 0.1 0.1 0.1 0.1 0.1 0.1 0.1 
0.1 0.1 0.1 0.1 0.1 0.1 0.1 0.1 0.1 
0.1 0.1 0.1 0.1 0.1 0.1 0.1 0.1 0.1 
0.1 0.1 0.1 0.1 0.1 0.1 0.1 0.1 0.1 
0.1 0.1 0.1 0.1 0.1 
m 1 1049 double
76.33 91.315 65.975 56.755 84.655 62.64 61.625 84.935 99.255 
75.77 65.745 94.295 94.14 95.485 90.92 83.88 97.585 53.285 
93.885 56.49 91.99 53.87 92.105 63.205 91.415 89.775 69.85 
88.61 76.76 92.83 58.915 90.795 95.63 62.455 68.31 73.95 
65.415 53.195 51.995 60.985 71.55 75.995 59.26 84.075 54.265 
56.77 82.91 79.28 69.45 97.965 88.325 58.805 95.075 86.39 
90.21 86.865 71.295 81.145 63.77 96.915 59.805 72.105 74.595 
56.63 75.99 71.85 71.62 91.575 68.92 92.685 80.435 67.63 
54.43 91.91 82.065 82.95 63.885 98.36 94.9 80.455 95.85 
59.365 84.98 86.405 99.78 84.31 85.42 61.525 54.625 81.635 
51.68 94.72 67.53 54.23 56.565 84.575 82.525 66.01 58.645 
91.01 79.285 97.91 80.62 52.725 69.475 77.17 94.07 70.215 
51.82 66.835 55.435 86.38 85.89 84.04 68.75 63.77 63.255 
78.94 77.015 67.92 66.84 61.995 75.3 98.38 99.66 88.695 
76.7 88.965 64.145 81.13 58.41 92.93 50.06 91.95 53.975 
57.17 90.47 52.85 87.695 87.335 83.005 50.485 64.51 51.89 
66.585 86.505 52.46 83.26 53.78 97.205 98.445 69.325 51.4 
71.43 73.645 92.2 90.155 92.22 83.095 94.935 77.165 91.69 
72.405 91.675 78.855 90.485 90.585 89.44 94.635 53.545 53.375 
89.28 72.835 76.53 72.93 61.765 84.825 97.485 57.64 73.415 
64.355 81.095 93.12 78.66 50.095 94.145 97.515 91.35 98.54 
81.7 66.84 90.745 83.575 78.645 88.98 55.5 67.295 53.615 
68.09 76.93 61.225 64.23 63.09 67.255 87.44 64.605 67.775 
88.82 61.895 91.14 52.46 63.675 65.86 99.205 77.555 50.185 
64.86 80.635 75.965 61.75 83.245 88.82 57.5 84.935 74.57 
85.17 50.62 68.715 61.135 91.825 82.455 79.28 57.16 57.105 
59.68 99.295 62.755 97.835 53.065 88.105 62.52 66.025 50.495 
52.64 51.54 83.92 60.105 54.34 97.64 64.21 89.94 78.975 
61.46 53.715 65.72 88.205 83.1 61.37 80.945 81.775 65.37 
56.165 56.94 97.19 90.125 62.775 83.255 77.105 69.135 54.64 
59.25 82.185 77.035 96.14 57.37 66.375 90.71 77.895 59.3 
59.965 79.42 54.55 64.785 75 94.36 99.54 99.79 52.49 
75.945 51.445 76.19 89.855 84.745 76.835 50.45 97.395 98.05 
94.845 72.06 51.79 68.405 51.35 90.785 67.465 81.085 54.985 
81.82 79.025 54.44 94.29 80.605 71.975 80.145 56.185 73.845 
76.365 58.88 94.25 86.275 57.705 77.41 66.515 90.18 94.04 
81.24 88.765 65.885 64.5 81.675 82.145 76.715 91.775 67.56 
59.43 56.56 96.07 91.815 77.845 59.195 53.495 67.085 72.85 
65.345 80.715 91.175 79.09 72.14 68.965 79.97 88.66 55.775 
51.895 90.02 71.125 73.465 85.085 60.665 64.45 58.24 66.665 
98.77 91.425 52.52 50.245 78.145 54.82 92.965 98.155 93.135 
54.285 95.4 82.155 65.865 93.97 99.235 63.11 61.75 61.965 
55.055 97.645 93.88 79.64 62.02 91.045 96.68 92.905 94.095 
62.95 67.685 55.865 97.645 51.84 87.835 72.5 58.73 71.695 
80.635 60.67 58.46 61.075 61.45 84.85 94.73 95.255 63.235 
71.46 96.95 83.41 78.955 87.31 62.195 83.105 50.04 88.58 
60.355 93.03 72.69 72.215 78.815 73.065 69.49 61.49 52.62 
80.95 53.565 93.285 98.985 81.245 84.95 90.23 68.94 62.675 
88.235 75.755 80.795 92.69 74.97 74.58 77.89 82.76 67.645 
92.87 75.285 96.67 57.605 80.785 75.575 86.4 92.885 74.09 
64.52 75.64 84.2 53.44 76.925 96.495 80.21 56.11 83.2 
86.67 62.485 65.165 51.265 76.815 66.515 72.5 53.405 52.14 
82.015 60.01 71.73 63.63 81.56 75.5 86.93 57.455 96.155 
75.105 64.755 59.735 83.05 89.585 66.62 86.845 99.585 84.98 
96.46 88.125 88.36 59.86 69.25 95.625 61.81 69.98 55.76 
74.46 88.43 62.3 68.645 79.875 77.18 95.785 95.94 50.135 
69.605 54.355 67.07 52.3 74.925 93.45 81.52 50.14 87.78 
83.74 94.51 90.135 72.76 90.25 73.97 93.495 88.485 55.195 
55.215 71.16 61.305 69.13 67.705 50.295 52.845 80.21 50.405 
51.8 95.585 90.115 83.805 65.95 88.815 81.545 94.98 69.63 
77.125 58.13 81.835 71.17 72.62 73.385 53.45 91.025 80.285 
51.79 98.07 65.84 88.85 86.42 52.7 52.085 72.83 84.28 
65.295 53.03 61.3 79.245 51.185 86.025 76.085 92.59 67.13 
93.81 95.86 74.725 53.915 92.29 54.365 71.445 52.415 84.365 
88.185 67.14 72.355 83.035 52.39 63.785 96.57 78.68 65.345 
96.84 59.44 56.345 97.35 92.45 60.915 88.715 77.495 86.345 
50.42 78.15 70.405 56.98 82.53 94.88 87.525 77.95 83.625 
78.22 98.86 50.635 76.055 89.09 62.11 76.18 69.6 96.12 
87.8 69.75 83.29 76.84 52.815 75.525 50.245 56.22 62.835 
99.67 66.455 93.555 59.025 86.875 68.07 68.84 67.945 94.775 
94.965 64.025 74.59 74.11 84.41 84.91 65.465 54.625 82.145 
57.87 70.15 83.55 96.455 81.64 70.09 83.585 69.29 75.275 
84.815 86.085 84.18 85.45 56.965 74.52 90.65 63.305 92.28 
92.855 84.255 63.02 98.425 98.165 73.945 65.365 82.515 99.025 
96.25 97.425 89.34 95.03 76.625 67.58 87.58 60.975 78.91 
73.195 64.745 55.405 55.6 51.13 54.835 88.385 83.815 52.98 
54.325 69.905 95.18 87.8 96.055 81.71 89.775 88.85 67.59 
61.895 91.35 75.98 86.605 62.66 71.17 70.86 60.2 72.135 
74.92 50.36 55.315 86.99 86.415 79.15 84.75 60.15 68.57 
52.865 51.735 70.235 87.61 75.41 84.62 80.295 97.175 52.215 
96.02 64.77 56.16 78.2 59.49 77.43 71.39 95.795 96.31 
55.205 51.31 98.415 99.24 95.61 83.64 78.985 81.36 90.835 
91.62 69.795 58.615 64.03 86.675 79.105 96.825 87.285 70.77 
55.855 63.735 58.88 51.345 76.09 58.515 99.665 54.535 93.505 
73.265 67.185 91.705 86.805 57.65 70.15 52.685 75.27 64.31 
68.7 70.49 90.695 64.77 88.345 98.93 75.615 58.525 79.92 
55.635 95.75 81.14 57.43 51.265 50.63 82.965 52.715 65.01 
80.695 61.155 77.02 58.98 93.6 85.42 76.67 56.54 63.49 
82.225 90.41 92.71 97.535 50.985 92.32 78.335 79.695 99.055 
99.52 69.7 90.895 91.885 89.07 65.37 73.565 95.105 96.09 
61.69 72.9 69.85 54.955 81.88 94.49 55.26 63.575 94.77 
93.055 94.02 68.11 81.74 96.775 88.605 74.095 76.605 72.995 
56.275 85.44 78.875 73.81 64.595 78.55 76.895 63.425 74.06 
99.31 74.885 62.53 70.05 57.795 75.855 90.945 78.73 89.14 
77.84 96.495 86.715 87.935 88.565 91.03 96.505 86.86 83.66 
51.175 55.085 51.73 51.47 67.415 70.88 57.68 96.035 99.52 
92.06 54.76 65.675 88.025 66.555 77.11 69.05 71.7 61.68 
81.71 58.295 76.05 60.045 69.715 62.865 75.765 55.685 78.455 
99.555 74.285 98.72 67.495 98.795 56.8 70.335 98.09 51.685 
55.68 88.215 56.525 59.005 74.39 68.65 78.305 97.06 84.435 
60.86 66.74 69.645 95.895 87.225 98.78 92.09 95.535 88.42 
79.68 66.88 60.45 77.71 64.63 82.33 55.475 56.7 75.42 
64.795 64.065 85.95 68.865 98.34 85.995 94.495 64.98 50.815 
89.905 93.3 74.65 94.665 79.47 99.01 69.405 50.355 87.34 
54.865 85.655 60.18 67.26 59.495 77.75 96.895 64.62 78.12 
63 88.185 60.31 66.29 67.08 67.325 83.54 91.41 93.13 
97.22 93.68 96.6 92.61 70.11 91.12 95.08 65.545 82.695 
75.265 90.545 66.89 75.405 50 79.945 56.69 97.13 95.57 
90.335 83.935 75.735 61.155 82.66 76.115 56.405 69.375 50.895 
60.61 74.25 69.065 82.95 61.27 55.655 76.75 57.47 95.905 
89.285 80.405 73.015 78.6 62.165 89.91 50.905 87.435 97.075 
77.02 93.61 94.125 96.48 51.485 95.67 50.16 52.755 84.46 
52.075 65.905 85.285 98.54 92.53 52.975 87.415 99.995 59.81 
61.485 75.055 78.88 56.545 50.77 94.885 62.935 99.66 66.91 
75.105 71.33 68.41 88.425 67.815 96.055 94.3 54.65 72.915 
79.95 71.425 95.43 57.38 86.57 70.58 79.1 59.46 87.45 
87.625 77.64 94.195 87.625 65.29 
p0 3 1049 double
0 -10 0 0 -10 0 0 -10 0 
0 -10 0 0 -10 0 0 -10 0 
0 -10 0 0 -10 0 0 -10 0 
0 -10 0 0 -10 0 0 -10 0 
0 -10 0 0 -10 0 0 -10 0 
0 -10 0 0 -10 0 0 -10 0 
0 -10 0 0 -10 0 0 -10 0 
0 -10 0 0 -10 0 0 -10 0 
0 -10 0 0 -10 0 0 -10 0 
0 -10 0 0 -10 0 0 -10 0 
0 -10 0 0 -10 0 0 -10 0 
0 -10 0 0 -10 0 0 -10 0 
0 -10 0 0 -10 0 0 -10 0 
0 -10 0 0 -10 0 0 -10 0 
0 -10 0 0 -10 0 0 -10 0 
0 -10 0 0 -10 0 0 -10 0 
0 -10 0 0 -10 0 0 -10 0 
0 -10 0 0 -10 0 0 -10 0 
0 0 0 0 0 0 0 0 0 
0 0 0 0 0 0 0 0 0 
0 0 0 0 0 0 0 0 0 
0 0 0 0 0 0 0 0 0 
0 0 0 0 0 0 0 0 0 
0 0 0 -12 0 0 0 0 0 
0 0 0 -12 0 0 0 0 0 
-12 0 0 0 0 0 -12 0 0 
0 0 0 0 0 0 0 0 0 
0 0 0 0 0 0 0 0 0 
0 0 0 0 0 0 0 0 0 
0 0 0 0 0 0 0 0 0 
0 0 0 0 0 0 0 0 0 
0 0 0 0 0 0 0 0 0 
0 0 0 0 0 0 0 0 0 
0 0 0 0 0 0 0 0 0 
0 0 0 0 0 0 0 0 0 
0 0 0 0 0 0 0 0 0 
0 0 0 0 0 0 0 0 0 
0 0 0 0 0 0 0 0 0 
0 0 0 0 0 0 0 0 0 
0 0 0 0 0 0 0 0 0 
0 0 0 0 0 0 0 0 0 
0 0 0 0 0 0 0 0 0 
0 0 0 0 0 0 0 0 0 
0 0 0 0 0 0 0 0 0 
0 0 0 0 0 0 0 0 0 
0 0 0 0 0 0 0 0 0 
0 0 0 0 0 0 0 0 0 
0 0 0 0 0 0 0 0 0 
0 0 0 0 0 0 0 0 0 
0 0 0 0 0 0 0 0 0 
0 0 0 0 0 0 0 0 0 
0 0 0 0 0 0 0 0 0 
0 0 0 0 0 0 0 0 0 
0 0 0 0 0 0 0 0 0 
0 0 0 0 0 0 0 0 0 
0 0 0 0 0 0 0 0 0 
0 0 0 0 0 0 0 0 0 
0 0 0 0 0 0 0 0 0 
0 0 0 0 0 0 0 0 0 
0 0 0 0 0 0 0 0 0 
0 0 0 0 0 0 0 0 0 
0 0 0 0 0 0 0 0 0 
0 0 0 0 0 0 0 0 0 
0 0 0 0 0 0 0 0 0 
0 0 0 0 0 0 0 0 0 
0 0 0 0 0 0 0 0 0 
0 0 0 0 0 0 0 0 0 
0 0 0 0 0 0 0 0 0 
0 0 0 0 0 0 0 0 0 
0 0 0 0 0 0 0 0 0 
0 0 0 12 0 0 12 0 0 
0 0 0 12 0 0 12 0 0 
12 0 0 12 0 0 0 0 0 
0 0 0 0 0 0 0 0 0 
0 0 0 0 0 0 0 0 0 
0 0 0 0 0 0 0 0 0 
0 0 0 0 0 0 0 0 0 
0 0 0 0 0 0 0 0 0 
0 0 0 0 0 0 0 0 0 
0 0 0 0 0 0 0 0 0 
0 0 0 0 0 0 -12 0 0 
-12 0 0 -12 0 0 0 0 0 
0 0 0 0 0 0 0 0 0 
0 0 0 0 0 0 0 0 0 
0 0 0 0 0 0 0 0 0 
0 0 0 0 0 0 0 0 0 
0 0 0 0 0 0 0 0 0 
0 0 0 0 0 0 0 0 0 
0 0 0 12 0 0 12 0 0 
12 0 0 12 0 0 12 0 0 
12 0 0 0 0 0 0 0 0 
0 0 0 0 0 0 0 0 0 
0 0 0 0 0 0 0 0 0 
0 0 0 0 0 0 -12 0 0 
-12 0 0 -12 0 0 0 0 0 
0 0 0 0 0 0 0 0 0 
0 0 0 0 0 0 0 0 0 
0 0 0 0 0 0 0 0 0 
0 0 0 0 0 0 0 0 0 
0 0 0 0 0 0 0 0 0 
0 0 0 0 0 0 0 0 0 
0 0 0 12 0 0 12 0 0 
12 0 0 12 0 0 12 0 0 
0 0 0 0 0 0 0 0 0 
0 0 0 0 0 0 0 0 0 
0 0 0 0 0 0 0 0 0 
0 0 0 -12 0 0 -12 0 0 
0 0 0 0 0 0 0 0 0 
0 0 0 0 0 0 0 0 0 
0 0 0 0 0 0 0 0 0 
0 0 0 0 0 0 0 0 0 
0 0 0 0 0 0 0 0 0 
0 0 0 0 0 0 0 0 0 
0 0 0 0 0 0 12 0 0 
12 0 0 0 0 0 0 0 0 
0 0 0 0 0 0 0 0 0 
0 0 0 0 0 0 0 0 0 
0 0 0 0 0 0 -12 0 0 
-12 0 0 -12 0 0 0 0 0 
0 0 0 0 0 0 0 0 0 
0 0 0 0 0 0 0 0 0 
0 0 0 0 0 0 0 0 0 
0 0 0 0 0 0 0 0 0 
0 0 0 0 0 0 0 0 0 
0 0 0 0 0 0 0 0 0 
0 0 0 12 0 0 12 0 0 
0 0 0 0 0 0 0 0 0 
0 0 0 0 0 0 0 0 0 
0 0 0 0 0 0 0 0 0 
0 0 0 -12 0 0 -12 0 0 
0 0 0 0 0 0 0 0 0 
0 0 0 0 0 0 0 0 0 
0 0 0 0 0 0 0 0 0 
0 0 0 0 0 0 0 0 0 
0 0 0 0 0 0 0 0 0 
0 0 0 0 0 0 0 0 0 
0 0 0 0 0 0 12 0 0 
12 0 0 12 0 0 12 0 0 
12 0 0 0 0 0 0 0 0 
0 0 0 0 0 0 0 0 0 
0 0 0 0 0 0 0 0 0 
0 0 0 0 0 0 -12 0 0 
0 0 0 0 0 0 0 0 0 
0 0 0 0 0 0 0 0 0 
0 0 0 0 0 0 0 0 0 
0 0 0 0 0 0 0 0 0 
0 0 0 0 0 0 0 0 0 
0 0 0 0 0 0 12 0 0 
0 0 0 0 0 0 0 0 0 
12 0 0 12 0 0 0 0 0 
0 0 0 0 0 0 0 0 0 
0 0 0 0 0 0 0 0 0 
0 0 0 0 0 0 0 0 0 
-12 0 0 0 0 0 0 0 0 
0 0 0 0 0 0 0 0 0 
0 0 0 0 0 0 0 0 0 
0 0 0 0 0 0 0 0 0 
0 0 0 0 0 0 0 0 0 
0 0 0 0 0 0 0 0 0 
0 0 0 0 0 0 0 0 0 
12 0 0 0 0 0 0 0 0 
0 0 0 0 0 0 0 0 0 
0 0 0 0 0 0 0 0 0 
0 0 0 0 0 0 0 0 0 
0 0 0 0 0 0 0 0 0 
0 0 0 0 0 0 0 0 0 
0 0 0 0 0 0 0 0 0 
0 0 0 0 0 0 0 0 0 
0 0 0 -9 9 0 0 0 0 
0 0 0 -9 9 0 0 0 0 
0 0 0 0 0 0 0 0 0 
0 0 0 0 0 0 0 0 0 
-9 9 0 0 0 0 0 0 0 
0 0 0 0 0 0 0 0 0 
0 0 0 0 0 0 0 0 0 
0 0 0 0 0 0 0 0 0 
0 0 0 0 0 0 0 0 0 
0 0 0 0 0 0 0 0 0 
0 0 0 0 0 0 0 0 0 
0 0 0 0 0 0 0 0 0 
0 0 0 0 0 0 0 0 0 
0 0 0 0 0 0 0 0 0 
0 0 0 0 0 0 0 0 0 
0 0 0 0 0 0 0 0 0 
0 0 0 0 0 0 0 0 0 
0 0 0 0 0 0 0 0 0 
0 0 0 0 0 0 0 0 0 
0 0 0 0 0 0 0 0 0 
0 0 0 0 0 0 0 0 0 
9 9 0 0 0 0 0 0 0 
0 0 0 0 0 0 0 0 0 
0 0 0 0 0 0 0 0 0 
0 0 0 9 9 0 0 0 0 
0 0 0 0 0 0 0 0 0 
0 0 0 0 0 0 0 0 0 
12 0 0 12 0 0 12 0 0 
0 0 0 0 0 0 0 0 0 
0 0 0 0 0 0 0 0 0 
0 0 0 0 0 0 0 0 0 
0 0 0 9 9 0 12 0 0 
0 0 0 0 0 0 0 0 0 
0 0 0 0 0 0 0 0 0 
0 0 0 0 0 0 0 0 0 
0 0 0 0 0 0 0 0 0 
0 0 0 0 0 0 0 0 0 
0 0 0 0 0 0 0 0 0 
0 0 0 0 0 0 0 0 0 
0 0 0 0 0 0 0 0 0 
0 0 0 0 0 0 0 0 0 
0 0 0 0 0 0 0 0 0 
0 0 0 0 0 0 0 0 0 
0 0 0 0 0 0 0 0 0 
0 0 0 0 0 0 0 0 0 
0 0 0 0 0 0 0 0 0 
0 0 0 0 0 0 0 0 0 
0 0 0 0 0 0 0 0 0 
0 0 0 0 0 0 0 0 0 
0 0 0 0 0 0 0 0 0 
0 0 0 0 0 0 0 0 0 
0 0 0 0 0 0 0 0 0 
0 0 0 0 0 0 0 0 0 
0 0 0 0 0 0 0 0 0 
0 0 0 0 0 0 0 0 0 
0 0 0 0 0 0 0 0 0 
0 0 0 0 0 0 0 0 0 
0 0 0 0 0 0 0 0 0 
0 0 0 0 0 0 0 0 0 
0 0 0 0 0 0 0 0 0 
0 0 0 0 0 0 0 0 0 
0 0 0 0 0 0 0 0 0 
0 0 0 0 0 0 0 0 0 
0 0 0 0 0 0 0 0 0 
0 0 0 0 0 0 0 0 0 
0 0 0 0 0 0 0 0 0 
0 0 0 0 0 0 0 0 0 
0 0 0 0 0 0 0 0 0 
0 0 0 0 0 0 0 0 0 
0 0 0 0 0 0 0 0 0 
0 0 0 0 0 0 0 0 0 
0 0 0 0 0 0 0 0 0 
0 0 0 0 0 0 0 0 0 
0 0 0 0 0 0 0 0 0 
0 0 0 0 0 0 0 0 0 
0 0 0 0 0 0 0 0 0 
0 0 0 0 0 0 0 0 0 
0 0 0 0 0 0 0 0 0 
0 0 0 0 0 0 0 0 0 
0 0 0 0 0 0 0 0 0 
0 0 0 0 0 0 0 0 0 
0 0 0 0 0 0 0 0 0 
0 0 0 0 0 0 0 0 0 
0 0 0 0 0 0 0 0 0 
0 0 0 13.5 10 0 13.5 10 0 
13.5 10 0 0 0 0 0 0 0 
0 0 0 0 0 0 0 0 0 
0 0 0 0 0 0 0 0 0 
0 0 0 0 0 0 0 0 0 
0 0 0 0 0 0 0 0 0 
0 0 0 0 0 0 0 0 0 
0 0 0 0 0 0 0 0 0 
0 0 0 0 0 0 0 0 0 
0 0 0 0 0 0 0 0 0 
0 0 0 0 0 0 0 0 0 
0 0 0 0 0 0 0 0 0 
13.5 10 0 0 0 0 0 0 0 
0 0 0 0 0 0 0 0 0 
0 0 0 0 0 0 0 0 0 
0 0 0 0 0 0 0 0 0 
0 0 0 0 0 0 0 0 0 
0 0 0 0 0 0 0 0 0 
0 0 0 0 0 0 0 0 0 
0 0 0 0 0 0 0 0 0 
0 0 0 0 0 0 13.5 10 0 
0 0 0 0 0 0 0 0 0 
0 0 0 0 0 0 0 0 0 
0 0 0 0 0 0 0 0 0 
0 0 0 0 0 0 0 0 0 
0 0 0 0 0 0 0 0 0 
0 0 0 0 0 0 0 0 0 
0 0 0 0 0 0 0 0 0 
0 0 0 0 0 0 0 0 0 
0 0 0 0 0 0 0 0 0 
0 0 0 0 0 0 0 0 0 
0 0 0 0 0 0 0 0 0 
0 0 0 0 0 0 0 0 0 
0 0 0 0 0 0 0 0 0 
0 0 0 0 0 0 0 0 0 
0 0 0 0 0 0 0 0 0 
9 14.5 0 13.5 10 0 0 0 0 
0 0 0 0 0 0 0 0 0 
0 0 0 0 0 0 0 0 0 
0 0 0 0 0 0 0 0 0 
0 0 0 0 0 0 0 0 0 
0 0 0 0 0 0 0 0 0 
0 0 0 0 0 0 0 0 0 
0 0 0 0 0 0 0 0 0 
0 0 0 0 0 0 0 0 0 
0 0 0 0 0 0 0 0 0 
0 0 0 0 0 0 0 0 0 
0 0 0 0 0 0 0 0 0 
0 0 0 0 0 0 0 0 0 
0 0 0 0 0 0 0 0 0 
0 0 0 0 0 0 0 0 0 
0 0 0 0 0 0 0 0 0 
0 0 0 0 0 0 0 0 0 
0 0 0 0 0 0 0 0 0 
0 0 0 0 0 0 0 0 0 
0 0 0 0 0 0 0 0 0 
0 0 0 0 0 0 0 0 0 
0 0 0 0 0 0 0 0 0 
0 0 0 0 0 0 0 0 0 
0 0 0 0 0 0 0 0 0 
0 0 0 0 0 0 0 0 0 
0 0 0 0 0 0 0 0 0 
0 0 0 0 0 0 0 0 0 
0 0 0 0 0 0 0 0 0 
0 0 0 0 0 0 0 0 0 
0 0 0 0 0 0 0 0 0 
0 0 0 0 0 0 0 0 0 
0 0 0 0 0 0 0 0 0 
0 0 0 0 0 0 0 0 0 
0 0 0 0 0 0 0 0 0 
0 0 0 0 0 0 0 0 0 
0 0 0 0 0 0 0 0 0 
0 0 0 0 0 0 0 0 0 
0 0 0 0 0 0 0 0 0 
0 0 0 0 0 0 0 0 0 
0 0 0 0 0 0 0 0 0 
0 0 0 0 0 0 0 0 0 
0 0 0 0 0 0 0 0 0 
0 0 0 0 0 0 0 0 0 
0 0 0 0 0 0 0 0 0 
0 0 0 0 0 0 0 0 0 
0 0 0 0 0 0 0 0 0 
0 0 0 0 0 0 0 0 0 
0 0 0 0 0 0 0 0 0 
0 0 0 0 0 0 0 0 0 
0 0 0 0 0 0 0 0 0 
0 0 0 0 0 0 0 0 0 
0 0 0 0 0 0 0 0 0 
0 0 0 0 0 0 0 0 0 
0 0 0 0 0 0 0 0 0 
0 0 0 0 0 0 0 0 0 
0 0 0 0 0 0 0 0 0 
0 0 0 0 0 0 0 0 0 
0 0 0 0 0 0 0 0 0 
0 0 0 0 0 0 0 0 0 
0 0 0 0 0 0 0 0 0 
0 0 0 0 0 0 0 0 0 
0 0 0 0 0 0 
v0 1 1049 double
3.7348 3.5598 3.908 3.4418 3.1534 3.7604 3.5868 3.8026 3.447 
2.2246 2.9072 3.5098 2.7598 3.7132 2.7868 2.2234 3.1552 2.087 
3.3932 3.4192 3.5394 2.8894 3.3376 3.9438 2.959 2.5562 2.798 
2.9348 3.3968 3.7386 3.7956 3.7722 3.5338 3.6894 2.7364 2.9892 
3.4142 2.5998 3.7004 2.105 2.2178 2.6972 3.7164 3.6034 3.9802 
3.6802 3.2294 3.9752 3.1134 2.726 3.4388 2.8228 3.358 2.5702 
0 0 0 0 0 0 0 0 0 
0 0 0 0 0 0 0 3.2554 0 
0 2.9862 0 3.5126 0 3.938 0 0 0 
0 0 0 0 0 0 0 0 0 
0 0 0 0 0 0 0 0 0 
0 0 0 0 0 0 0 0 0 
0 0 0 0 0 0 0 0 0 
0 0 0 0 0 0 0 0 0 
0 0 0 0 0 0 0 0 0 
0 0 0 0 0 0 0 0 0 
0 0 0 0 0 0 0 0 0 
0 0 0 0 0 0 0 0 0 
0 0 0 0 0 0 0 0 0 
0 0 0 0 0 0 0 0 0 
0 0 0 0 0 0 0 0 0 
0 0 0 0 0 0 0 0 0 
0 0 0 0 0 0 0 0 0 
0 0 0 0 3.0734 3.2458 0 2.9518 2.3004 
2.6856 2.227 0 0 0 0 0 0 0 
0 0 0 0 0 0 0 0 0 
0 0 0 0 0 0 0 0 2.0272 
3.3812 3.4416 0 0 0 0 0 0 0 
0 0 0 0 0 0 0 0 0 
0 0 0 0 3.8484 2.5666 3.4702 2.5952 3.991 
2.325 0 0 0 0 0 0 0 0 
0 0 2.0254 3.3948 2.5352 0 0 0 0 
0 0 0 0 0 0 0 0 0 
0 0 0 0 0 0 0 3.8554 2.8338 
2.192 3.219 3.2878 0 0 0 0 0 0 
0 0 0 0 2.8832 2.2866 0 0 0 
0 0 0 0 0 0 0 0 0 
0 0 0 0 0 0 0 0 3.5612 
3.4072 0 0 0 0 0 0 0 0 
0 0 2.7916 3.236 2.9892 0 0 0 0 
0 0 0 0 0 0 0 0 0 
0 0 0 0 0 0 0 3.053 3.3678 
0 0 0 0 0 0 0 0 0 
0 2.9256 2.5898 0 0 0 0 0 0 
0 0 0 0 0 0 0 0 0 
0 0 0 0 0 2.4594 3.1832 2.9022 2.0104 
3.8268 0 0 0 0 0 0 0 0 
0 0 3.4754 0 0 0 0 0 0 
0 0 0 0 0 0 0 0 0 
0 0 2.264 0 0 0 2.1178 3.514 0 
0 0 0 0 0 0 0 0 0 
3.18 0 0 0 0 0 0 0 0 
0 0 0 0 0 0 0 0 0 
0 0 0 3.852 0 0 0 0 0 
0 0 0 0 0 0 0 0 0 
0 0 0 0 0 0 0 0 0 
0 2.1056 0 0 2.5992 0 0 0 0 
0 0 0 2.6016 0 0 0 0 0 
0 0 0 0 0 0 0 0 0 
0 0 0 0 0 0 0 0 0 
0 0 0 0 0 0 0 0 0 
0 0 0 0 0 0 0 0 0 
0 0 0 0 0 0 0 0 0 
2.6138 0 0 0 0 0 0 0 0 
0 2.79 0 0 0 0 0 0 0 
2.0424 2.6632 2.4322 0 0 0 0 0 0 
0 0 0 0 2.0302 2.5972 0 0 0 
0 0 0 0 0 0 0 0 0 
0 0 0 0 0 0 0 0 0 
0 0 0 0 0 0 0 0 0 
0 0 0 0 0 0 0 0 0 
0 0 0 0 0 0 0 0 0 
0 0 0 0 0 0 0 0 0 
0 0 0 0 0 0 0 0 0 
0 0 0 0 0 0 0 0 0 
0 0 0 0 0 0 0 0 0 
0 0 0 0 0 0 0 0 0 
0 0 0 0 0 0 0 0 0 
0 0 0 0 0 0 0 0 0 
0 0 0 0 0 0 0 0 0 
0 0 0 0 0 0 0 0 0 
0 0 0 0 0 0 0 0 0 
0 0 0 0 0 0 0 0 0 
0 0 0 0 0 0 0 0 0 
0 3.075 2.7532 3.2768 0 0 0 0 0 
0 0 0 0 0 0 0 0 0 
0 0 0 0 0 0 0 0 0 
0 0 0 0 0 0 0 0 0 
2.2322 0 0 0 0 0 0 0 0 
0 0 0 0 0 0 0 0 0 
0 0 0 0 0 0 0 0 2.1262 
0 0 0 0 0 0 0 0 0 
0 0 0 0 0 0 0 0 0 
0 0 0 0 0 0 0 0 0 
0 0 0 0 0 0 0 0 0 
0 0 0 0 0 0 0 0 0 
2.1126 2.0074 0 0 0 0 0 0 0 
0 0 0 0 0 0 0 0 0 
0 0 0 0 0 0 0 0 0 
0 0 0 0 0 0 0 0 0 
0 0 0 0 0 0 0 0 0 
0 0 0 0 0 0 0 0 0 
0 0 0 0 0 0 0 0 0 
0 0 0 0 0 0 0 0 0 
0 0 0 0 0 0 0 0 0 
0 0 0 0 0 0 0 0 0 
0 0 0 0 0 0 0 0 0 
0 0 0 0 0 0 0 0 0 
0 0 0 0 0 0 0 0 0 
0 0 0 0 0 0 0 0 0 
0 0 0 0 0 0 0 0 0 
0 0 0 0 0 0 0 0 0 
0 0 0 0 0 0 0 0 0 
0 0 0 0 0 0 0 0 0 
0 0 0 0 0 0 0 0 0 
0 0 0 0 0 0 0 0 0 
0 0 0 0 0 
tau 1 1049 double
2 2 2 2 2 2 2 2 2 
2 2 2 2 2 2 2 2 2 
2 2 2 2 2 2 2 2 2 
2 2 2 2 2 2 2 2 2 
2 2 2 2 2 2 2 2 2 
2 2 2 2 2 2 2 2 2 
2 2 2 2 2 2 2 2 2 
2 2 2 2 2 2 2 2 2 
2 2 2 2 2 2 2 2 2 
2 2 2 2 2 2 2 2 2 
2 2 2 2 2 2 2 2 2 
2 2 2 2 2 2 2 2 2 
2 2 2 2 2 2 2 2 2 
2 2 2 2 2 2 2 2 2 
2 2 2 2 2 2 2 2 2 
2 2 2 2 2 2 2 2 2 
2 2 2 2 2 2 2 2 2 
2 2 2 2 2 2 2 2 2 
2 2 2 2 2 2 2 2 2 
2 2 2 2 2 2 2 2 2 
2 2 2 2 2 2 2 2 2 
2 2 2 2 2 2 2 2 2 
2 2 2 2 2 2 2 2 2 
2 2 2 2 2 2 2 2 2 
2 2 2 2 2 2 2 2 2 
2 2 2 2 2 2 2 2 2 
2 2 2 2 2 2 2 2 2 
2 2 2 2 2 2 2 2 2 
2 2 2 2 2 2 2 2 2 
2 2 2 2 2 2 2 2 2 
2 2 2 2 2 2 2 2 2 
2 2 2 2 2 2 2 2 2 
2 2 2 2 2 2 2 2 2 
2 2 2 2 2 2 2 2 2 
2 2 2 2 2 2 2 2 2 
2 2 2 2 2 2 2 2 2 
2 2 2 2 2 2 2 2 2 
2 2 2 2 2 2 2 2 2 
2 2 2 2 2 2 2 2 2 
2 2 2 2 2 2 2 2 2 
2 2 2 2 2 2 2 2 2 
2 2 2 2 2 2 2 2 2 
2 2 2 2 2 2 2 2 2 
2 2 2 2 2 2 2 2 2 
2 2 2 2 2 2 2 2 2 
2 2 2 2 2 2 2 2 2 
2 2 2 2 2 2 2 2 2 
2 2 2 2 2 2 2 2 2 
2 2 2 2 2 2 2 2 2 
2 2 2 2 2 2 2 2 2 
2 2 2 2 2 2 2 2 2 
2 2 2 2 2 2 2 2 2 
2 2 2 2 2 2 2 2 2 
2 2 2 2 2 2 2 2 2 
2 2 2 2 2 2 2 2 2 
2 2 2 2 2 2 2 2 2 
2 2 2 2 2 2 2 2 2 
2 2 2 2 2 2 2 2 2 
2 2 2 2 2 2 2 2 2 
2 2 2 2 2 2 2 2 2 
2 2 2 2 2 2 2 2 2 
2 2 2 2 2 2 2 2 2 
2 2 2 2 2 2 2 2 2 
2 2 2 2 2 2 2 2 2 
2 2 2 2 2 2 2 2 2 
2 2 2 2 2 2 2 2 2 
2 2 2 2 2 2 2 2 2 
2 2 2 2 2 2 2 2 2 
2 2 2 2 2 2 2 2 2 
2 2 2 2 2 2 2 2 2 
2 2 2 2 2 2 2 2 2 
2 2 2 2 2 2 2 2 2 
2 2 2 2 2 2 2 2 2 
2 2 2 2 2 2 2 2 2 
2 2 2 2 2 2 2 2 2 
2 2 2 2 2 2 2 2 2 
2 2 2 2 2 2 2 2 2 
2 2 2 2 2 2 2 2 2 
2 2 2 2 2 2 2 2 2 
2 2 2 2 2 2 2 2 2 
2 2 2 2 2 2 2 2 2 
2 2 2 2 2 2 2 2 2 
2 2 2 2 2 2 2 2 2 
2 2 2 2 2 2 2 2 2 
2 2 2 2 2 2 2 2 2 
2 2 2 2 2 2 2 2 2 
2 2 2 2 2 2 2 2 2 
2 2 2 2 2 2 2 2 2 
2 2 2 2 2 2 2 2 2 
2 2 2 2 2 2 2 2 2 
2 2 2 2 2 2 2 2 2 
2 2 2 2 2 2 2 2 2 
2 2 2 2 2 2 2 2 2 
2 2 2 2 2 2 2 2 2 
2 2 2 2 2 2 2 2 2 
2 2 2 2 2 2 2 2 2 
2 2 2 2 2 2 2 2 2 
2 2 2 2 2 2 2 2 2 
2 2 2 2 2 2 2 2 2 
2 2 2 2 2 2 2 2 2 
2 2 2 2 2 2 2 2 2 
2 2 2 2 2 2 2 2 2 
2 2 2 2 2 2 2 2 2 
2 2 2 2 2 2 2 2 2 
2 2 2 2 2 2 2 2 2 
2 2 2 2 2 2 2 2 2 
2 2 2 2 2 2 2 2 2 
2 2 2 2 2 2 2 2 2 
2 2 2 2 2 2 2 2 2 
2 2 2 2 2 2 2 2 2 
2 2 2 2 2 2 2 2 2 
2 2 2 2 2 2 2 2 2 
2 2 2 2 2 2 2 2 2 
2 2 2 2 2 2 2 2 2 
2 2 2 2 2 2 2 2 2 
2 2 2 2 2 2 2 2 2 
2 2 2 2 2 
R 1 1049 double
0.30266 0.33263 0.28195 0.26351 0.31931 0.27528 0.27325 0.31987 0.34851 
0.30154 0.28149 0.33859 0.33828 0.34097 0.33184 0.31776 0.34517 0.25657 
0.33777 0.26298 0.33398 0.25774 0.33421 0.27641 0.33283 0.32955 0.2897 
0.32722 0.30352 0.33566 0.26783 0.33159 0.34126 0.27491 0.28662 0.2979 
0.28083 0.25639 0.25399 0.27197 0.2931 0.30199 0.26852 0.31815 0.25853 
0.26354 0.31582 0.30856 0.2889 0.34593 0.32665 0.26761 0.34015 0.32278 
0.1 0.1 0.1 0.1 0.1 0.1 0.1 0.1 0.1 
0.1 0.1 0.1 0.1 0.1 0.1 0.1 0.31087 0.1 
0.1 0.33382 0.1 0.3159 0.1 0.34672 0.1 0.1 0.1 
0.1 0.1 0.1 0.1 0.1 0.1 0.1 0.1 0.1 
0.1 0.1 0.1 0.1 0.1 0.1 0.1 0.1 0.1 
0.1 0.1 0.1 0.1 0.1 0.1 0.1 0.1 0.1 
0.1 0.1 0.1 0.1 0.1 0.1 0.1 0.1 0.1 
0.1 0.1 0.1 0.1 0.1 0.1 0.1 0.1 0.1 
0.1 0.1 0.1 0.1 0.1 0.1 0.1 0.1 0.1 
0.1 0.1 0.1 0.1 0.1 0.1 0.1 0.1 0.1 
0.1 0.1 0.1 0.1 0.1 0.1 0.1 0.1 0.1 
0.1 0.1 0.1 0.1 0.1 0.1 0.1 0.1 0.1 
0.1 0.1 0.1 0.1 0.1 0.1 0.1 0.1 0.1 
0.1 0.1 0.1 0.1 0.1 0.1 0.1 0.1 0.1 
0.1 0.1 0.1 0.1 0.1 0.1 0.1 0.1 0.1 
0.1 0.1 0.1 0.1 0.1 0.1 0.1 0.1 0.1 
0.1 0.1 0.1 0.1 0.1 0.1 0.1 0.1 0.1 
0.1 0.1 0.1 0.1 0.27735 0.28172 0.1 0.30511 0.25037 
0.27972 0.31127 0.1 0.1 0.1 0.1 0.1 0.1 0.1 
0.1 0.1 0.1 0.1 0.1 0.1 0.1 0.1 0.1 
0.1 0.1 0.1 0.1 0.1 0.1 0.1 0.1 0.25099 
0.25528 0.25308 0.1 0.1 0.1 0.1 0.1 0.1 0.1 
0.1 0.1 0.1 0.1 0.1 0.1 0.1 0.1 0.1 
0.1 0.1 0.1 0.1 0.27555 0.31651 0.30421 0.28827 0.25928 
0.2685 0.1 0.1 0.1 0.1 0.1 0.1 0.1 0.1 
0.1 0.1 0.2591 0.27957 0.3 0.1 0.1 0.1 0.1 
0.1 0.1 0.1 0.1 0.1 0.1 0.1 0.1 0.1 
0.1 0.1 0.1 0.1 0.1 0.1 0.1 0.31217 0.25997 
0.31364 0.30805 0.25888 0.1 0.1 0.1 0.1 0.1 0.1 
0.1 0.1 0.1 0.1 0.26541 0.30482 0.1 0.1 0.1 
0.1 0.1 0.1 0.1 0.1 0.1 0.1 0.1 0.1 
0.1 0.1 0.1 0.1 0.1 0.1 0.1 0.1 0.2957 
0.28069 0.1 0.1 0.1 0.1 0.1 0.1 0.1 0.1 
0.1 0.1 0.29225 0.29693 0.32017 0.1 0.1 0.1 0.1 
0.1 0.1 0.1 0.1 0.1 0.1 0.1 0.1 0.1 
0.1 0.1 0.1 0.1 0.1 0.1 0.1 0.2735 0.27393 
0.1 0.1 0.1 0.1 0.1 0.1 0.1 0.1 0.1 
0.1 0.28537 0.26173 0.1 0.1 0.1 0.1 0.1 0.1 
0.1 0.1 0.1 0.1 0.1 0.1 0.1 0.1 0.1 
0.1 0.1 0.1 0.1 0.1 0.27439 0.31621 0.25008 0.32716 
0.27071 0.1 0.1 0.1 0.1 0.1 0.1 0.1 0.1 
0.1 0.1 0.33657 0.1 0.1 0.1 0.1 0.1 0.1 
0.1 0.1 0.1 0.1 0.1 0.1 0.1 0.1 0.1 
0.1 0.1 0.34334 0.1 0.1 0.1 0.3228 0.33577 0.1 
0.1 0.1 0.1 0.1 0.1 0.1 0.1 0.1 0.1 
0.32334 0.1 0.1 0.1 0.1 0.1 0.1 0.1 0.1 
0.1 0.1 0.1 0.1 0.1 0.1 0.1 0.1 0.1 
0.1 0.1 0.1 0.3161 0.1 0.1 0.1 0.1 0.1 
0.1 0.1 0.1 0.1 0.1 0.1 0.1 0.1 0.1 
0.1 0.1 0.1 0.1 0.1 0.1 0.1 0.1 0.1 
0.1 0.25871 0.1 0.1 0.29985 0.1 0.1 0.1 0.1 
0.1 0.1 0.1 0.29552 0.1 0.1 0.1 0.1 0.1 
0.1 0.1 0.1 0.1 0.1 0.1 0.1 0.1 0.1 
0.1 0.1 0.1 0.1 0.1 0.1 0.1 0.1 0.1 
0.1 0.1 0.1 0.1 0.1 0.1 0.1 0.1 0.1 
0.1 0.1 0.1 0.1 0.1 0.1 0.1 0.1 0.1 
0.1 0.1 0.1 0.1 0.1 0.1 0.1 0.1 0.1 
0.33762 0.1 0.1 0.1 0.1 0.1 0.1 0.1 0.1 
0.1 0.28428 0.1 0.1 0.1 0.1 0.1 0.1 0.1 
0.34368 0.26888 0.26269 0.1 0.1 0.1 0.1 0.1 0.1 
0.1 0.1 0.1 0.1 0.31506 0.33976 0.1 0.1 0.1 
0.1 0.1 0.1 0.1 0.1 0.1 0.1 0.1 0.1 
0.1 0.1 0.1 0.1 0.1 0.1 0.1 0.1 0.1 
0.1 0.1 0.1 0.1 0.1 0.1 0.1 0.1 0.1 
0.1 0.1 0.1 0.1 0.1 0.1 0.1 0.1 0.1 
0.1 0.1 0.1 0.1 0.1 0.1 0.1 0.1 0.1 
0.1 0.1 0.1 0.1 0.1 0.1 0.1 0.1 0.1 
0.1 0.1 0.1 0.1 0.1 0.1 0.1 0.1 0.1 
0.1 0.1 0.1 0.1 0.1 0.1 0.1 0.1 0.1 
0.1 0.1 0.1 0.1 0.1 0.1 0.1 0.1 0.1 
0.1 0.1 0.1 0.1 0.1 0.1 0.1 0.1 0.1 
0.1 0.1 0.1 0.1 0.1 0.1 0.1 0.1 0.1 
0.1 0.1 0.1 0.1 0.1 0.1 0.1 0.1 0.1 
0.1 0.1 0.1 0.1 0.1 0.1 0.1 0.1 0.1 
0.1 0.1 0.1 0.1 0.1 0.1 0.1 0.1 0.1 
0.1 0.1 0.1 0.1 0.1 0.1 0.1 0.1 0.1 
0.1 0.1 0.1 0.1 0.1 0.1 0.1 0.1 0.1 
0.1 0.1 0.1 0.1 0.1 0.1 0.1 0.1 0.1 
0.1 0.28437 0.33341 0.32361 0.1 0.1 0.1 0.1 0.1 
0.1 0.1 0.1 0.1 0.1 0.1 0.1 0.1 0.1 
0.1 0.1 0.1 0.1 0.1 0.1 0.1 0.1 0.1 
0.1 0.1 0.1 0.1 0.1 0.1 0.1 0.1 0.1 
0.31445 0.1 0.1 0.1 0.1 0.1 0.1 0.1 0.1 
0.1 0.1 0.1 0.1 0.1 0.1 0.1 0.1 0.1 
0.1 0.1 0.1 0.1 0.1 0.1 0.1 0.1 0.33954 
0.1 0.1 0.1 0.1 0.1 0.1 0.1 0.1 0.1 
0.1 0.1 0.1 0.1 0.1 0.1 0.1 0.1 0.1 
0.1 0.1 0.1 0.1 0.1 0.1 0.1 0.1 0.1 
0.1 0.1 0.1 0.1 0.1 0.1 0.1 0.1 0.1 
0.1 0.1 0.1 0.1 0.1 0.1 0.1 0.1 0.1 
0.33412 0.25952 0.1 0.1 0.1 0.1 0.1 0.1 0.1 
0.1 0.1 0.1 0.1 0.1 0.1 0.1 0.1 0.1 
0.1 0.1 0.1 0.1 0.1 0.1 0.1 0.1 0.1 
0.1 0.1 0.1 0.1 0.1 0.1 0.1 0.1 0.1 
0.1 0.1 0.1 0.1 0.1 0.1 0.1 0.1 0.1 
0.1 0.1 0.1 0.1 0.1 0.1 0.1 0.1 0.1 
0.1 0.1 0.1 0.1 0.1 0.1 0.1 0.1 0.1 
0.1 0.1 0.1 0.1 0.1 0.1 0.1 0.1 0.1 
0.1 0.1 0.1 0.1 0.1 0.1 0.1 0.1 0.1 
0.1 0.1 0.1 0.1 0.1 0.1 0.1 0.1 0.1 
0.1 0.1 0.1 0.1 0.1 0.1 0.1 0.1 0.1 
0.1 0.1 0.1 0.1 0.1 0.1 0.1 0.1 0.1 
0.1 0.1 0.1 0.1 0.1 0.1 0.1 0.1 0.1 
0.1 0.1 0.1 0.1 0.1 0.1 0.1 0.1 0.1 
0.1 0.1 0.1 0.1 0.1 0.1 0.1 0.1 0.1 
0.1 0.1 0.1 0.1 0.1 0.1 0.1 0.1 0.1 
0.1 0.1 0.1 0.1 0.1 0.1 0.1 0.1 0.1 
0.1 0.1 0.1 0.1 0.1 0.1 0.1 0.1 0.1 
0.1 0.1 0.1 0.1 0.1 0.1 0.1 0.1 0.1 
0.1 0.1 0.1 0.1 0.1 0.1 0.1 0.1 0.1 
0.1 0.1 0.1 0.1 0.1 
a 3 1049 double
0 0 0 0 0 0 0 0 0 
0 0 0 0 0 0 0 0 0 
0 0 0 0 0 0 0 0 0 
0 0 0 0 0 0 0 0 0 
0 0 0 0 0 0 0 0 0 
0 0 0 0 0 0 0 0 0 
0 0 0 0 0 0 0 0 0 
0 0 0 0 0 0 0 0 0 
0 0 0 0 0 0 0 0 0 
0 0 0 0 0 0 0 0 0 
0 0 0 0 0 0 0 0 0 
0 0 0 0 0 0 0 0 0 
0 0 0 0 0 0 0 0 0 
0 0 0 0 0 0 0 0 0 
0 0 0 0 0 0 0 0 0 
0 0 0 0 0 0 0 0 0 
0 0 0 0 0 0 0 0 0 
0 0 0 0 0 0 0 0 0 
0 0 0 0 0 0 0 0 0 
0 0 0 0 0 0 0 0 0 
0 0 0 0 0 0 0 0 0 
0 0 0 0 0 0 0 0 0 
0 0 0 0 0 0 0 0 0 
0 0 0 0 0 0 0 0 0 
0 0 0 0 0 0 0 0 0 
0 0 0 0 0 0 0 0 0 
0 0 0 0 0 0 0 0 0 
0 0 0 0 0 0 0 0 0 
0 0 0 0 0 0 0 0 0 
0 0 0 0 0 0 0 0 0 
0 0 0 0 0 0 0 0 0 
0 0 0 0 0 0 0 0 0 
0 0 0 0 0 0 0 0 0 
0 0 0 0 0 0 0 0 0 
0 0 0 0 0 0 0 0 0 
0 0 0 0 0 0 0 0 0 
0 0 0 0 0 0 0 0 0 
0 0 0 0 0 0 0 0 0 
0 0 0 0 0 0 0 0 0 
0 0 0 0 0 0 0 0 0 
0 0 0 0 0 0 0 0 0 
0 0 0 0 0 0 0 0 0 
0 0 0 0 0 0 0 0 0 
0 0 0 0 0 0 0 0 0 
0 0 0 0 0 0 0 0 0 
0 0 0 0 0 0 0 0 0 
0 0 0 0 0 0 0 0 0 
0 0 0 0 0 0 0 0 0 
0 0 0 0 0 0 0 0 0 
0 0 0 0 0 0 0 0 0 
0 0 0 0 0 0 0 0 0 
0 0 0 0 0 0 0 0 0 
0 0 0 0 0 0 0 0 0 
0 0 0 0 0 0 0 0 0 
0 0 0 0 0 0 0 0 0 
0 0 0 0 0 0 0 0 0 
0 0 0 0 0 0 0 0 0 
0 0 0 0 0 0 0 0 0 
0 0 0 0 0 0 0 0 0 
0 0 0 0 0 0 0 0 0 
0 0 0 0 0 0 0 0 0 
0 0 0 0 0 0 0 0 0 
0 0 0 0 0 0 0 0 0 
0 0 0 0 0 0 0 0 0 
0 0 0 0 0 0 0 0 0 
0 0 0 0 0 0 0 0 0 
0 0 0 0 0 0 0 0 0 
0 0 0 0 0 0 0 0 0 
0 0 0 0 0 0 0 0 0 
0 0 0 0 0 0 0 0 0 
0 0 0 0 0 0 0 0 0 
0 0 0 0 0 0 0 0 0 
0 0 0 0 0 0 0 0 0 
0 0 0 0 0 0 0 0 0 
0 0 0 0 0 0 0 0 0 
0 0 0 0 0 0 0 0 0 
0 0 0 0 0 0 0 0 0 
0 0 0 0 0 0 0 0 0 
0 0 0 0 0 0 0 0 0 
0 0 0 0 0 0 0 0 0 
0 0 0 0 0 0 0 0 0 
0 0 0 0 0 0 0 0 0 
0 0 0 0 0 0 0 0 0 
0 0 0 0 0 0 0 0 0 
0 0 0 0 0 0 0 0 0 
0 0 0 0 0 0 0 0 0 
0 0 0 0 0 0 0 0 0 
0 0 0 0 0 0 0 0 0 
0 0 0 0 0 0 0 0 0 
0 0 0 0 0 0 0 0 0 
0 0 0 0 0 0 0 0 0 
0 0 0 0 0 0 0 0 0 
0 0 0 0 0 0 0 0 0 
0 0 0 0 0 0 0 0 0 
0 0 0 0 0 0 0 0 0 
0 0 0 0 0 0 0 0 0 
0 0 0 0 0 0 0 0 0 
0 0 0 0 0 0 0 0 0 
0 0 0 0 0 0 0 0 0 
0 0 0 0 0 0 0 0 0 
0 0 0 0 0 0 0 0 0 
0 0 0 0 0 0 0 0 0 
0 0 0 0 0 0 0 0 0 
0 0 0 0 0 0 0 0 0 
0 0 0 0 0 0 0 0 0 
0 0 0 0 0 0 0 0 0 
0 0 0 0 0 0 0 0 0 
0 0 0 0 0 0 0 0 0 
0 0 0 0 0 0 0 0 0 
0 0 0 0 0 0 0 0 0 
0 0 0 0 0 0 0 0 0 
0 0 0 0 0 0 0 0 0 
0 0 0 0 0 0 0 0 0 
0 0 0 0 0 0 0 0 0 
0 0 0 0 0 0 0 0 0 
0 0 0 0 0 0 0 0 0 
0 0 0 0 0 0 0 0 0 
0 0 0 0 0 0 0 0 0 
0 0 0 0 0 0 0 0 0 
0 0 0 0 0 0 0 0 0 
0 0 0 0 0 0 0 0 0 
0 0 0 0 0 0 0 0 0 
0 0 0 0 0 0 0 0 0 
0 0 0 0 0 0 0 0 0 
0 0 0 0 0 0 0 0 0 
0 0 0 0 0 0 0 0 0 
0 0 0 0 0 0 0 0 0 
0 0 0 0 0 0 0 0 0 
0 0 0 0 0 0 0 0 0 
0 0 0 0 0 0 0 0 0 
0 0 0 0 0 0 0 0 0 
0 0 0 0 0 0 0 0 0 
0 0 0 0 0 0 0 0 0 
0 0 0 0 0 0 0 0 0 
0 0 0 0 0 0 0 0 0 
0 0 0 0 0 0 0 0 0 
0 0 0 0 0 0 0 0 0 
0 0 0 0 0 0 0 0 0 
0 0 0 0 0 0 0 0 0 
0 0 0 0 0 0 0 0 0 
0 0 0 0 0 0 0 0 0 
0 0 0 0 0 0 0 0 0 
0 0 0 0 0 0 0 0 0 
0 0 0 0 0 0 0 0 0 
0 0 0 0 0 0 0 0 0 
0 0 0 0 0 0 0 0 0 
0 0 0 0 0 0 0 0 0 
0 0 0 0 0 0 0 0 0 
0 0 0 0 0 0 0 0 0 
0 0 0 0 0 0 0 0 0 
0 0 0 0 0 0 0 0 0 
0 0 0 0 0 0 0 0 0 
0 0 0 0 0 0 0 0 0 
0 0 0 0 0 0 0 0 0 
0 0 0 0 0 0 0 0 0 
0 0 0 0 0 0 0 0 0 
0 0 0 0 0 0 0 0 0 
0 0 0 0 0 0 0 0 0 
0 0 0 0 0 0 0 0 0 
0 0 0 0 0 0 0 0 0 
0 0 0 0 0 0 0 0 0 
0 0 0 0 0 0 0 0 0 
0 0 0 0 0 0 0 0 0 
0 0 0 0 0 0 0 0 0 
0 0 0 0 0 0 0 0 0 
0 0 0 0 0 0 0 0 0 
0 0 0 0 0 0 0 0 0 
0 0 0 0 0 0 0 0 0 
0 0 0 0 0 0 0 0 0 
0 0 0 0 0 0 0 0 0 
0 0 0 0 0 0 0 0 0 
0 0 0 0 0 0 0 0 0 
0 0 0 0 0 0 0 0 0 
0 0 0 0 0 0 0 0 0 
0 0 0 0 0 0 0 0 0 
0 0 0 0 0 0 0 0 0 
0 0 0 0 0 0 0 0 0 
0 0 0 0 0 0 0 0 0 
0 0 0 0 0 0 0 0 0 
0 0 0 0 0 0 0 0 0 
0 0 0 0 0 0 0 0 0 
0 0 0 0 0 0 0 0 0 
0 0 0 0 0 0 0 0 0 
0 0 0 0 0 0 0 0 0 
0 0 0 0 0 0 0 0 0 
0 0 0 0 0 0 0 0 0 
0 0 0 0 0 0 0 0 0 
0 0 0 0 0 0 0 0 0 
0 0 0 0 0 0 0 0 0 
0 0 0 0 0 0 0 0 0 
0 0 0 0 0 0 0 0 0 
0 0 0 0 0 0 0 0 0 
0 0 0 0 0 0 0 0 0 
0 0 0 0 0 0 0 0 0 
0 0 0 0 0 0 0 0 0 
0 0 0 0 0 0 0 0 0 
0 0 0 0 0 0 0 0 0 
0 0 0 0 0 0 0 0 0 
0 0 0 0 0 0 0 0 0 
0 0 0 0 0 0 0 0 0 
0 0 0 0 0 0 0 0 0 
0 0 0 0 0 0 0 0 0 
0 0 0 0 0 0 0 0 0 
0 0 0 0 0 0 0 0 0 
0 0 0 0 0 0 0 0 0 
0 0 0 0 0 0 0 0 0 
0 0 0 0 0 0 0 0 0 
0 0 0 0 0 0 0 0 0 
0 0 0 0 0 0 0 0 0 
0 0 0 0 0 0 0 0 0 
0 0 0 0 0 0 0 0 0 
0 0 0 0 0 0 0 0 0 
0 0 0 0 0 0 0 0 0 
0 0 0 0 0 0 0 0 0 
0 0 0 0 0 0 0 0 0 
0 0 0 0 0 0 0 0 0 
0 0 0 0 0 0 0 0 0 
0 0 0 0 0 0 0 0 0 
0 0 0 0 0 0 0 0 0 
0 0 0 0 0 0 0 0 0 
0 0 0 0 0 0 0 0 0 
0 0 0 0 0 0 0 0 0 
0 0 0 0 0 0 0 0 0 
0 0 0 0 0 0 0 0 0 
0 0 0 0 0 0 0 0 0 
0 0 0 0 0 0 0 0 0 
0 0 0 0 0 0 0 0 0 
0 0 0 0 0 0 0 0 0 
0 0 0 0 0 0 0 0 0 
0 0 0 0 0 0 0 0 0 
0 0 0 0 0 0 0 0 0 
0 0 0 0 0 0 0 0 0 
0 0 0 0 0 0 0 0 0 
0 0 0 0 0 0 0 0 0 
0 0 0 0 0 0 0 0 0 
0 0 0 0 0 0 0 0 0 
0 0 0 0 0 0 0 0 0 
0 0 0 0 0 0 0 0 0 
0 0 0 0 0 0 0 0 0 
0 0 0 0 0 0 0 0 0 
0 0 0 0 0 0 0 0 0 
0 0 0 0 0 0 0 0 0 
0 0 0 0 0 0 0 0 0 
0 0 0 0 0 0 0 0 0 
0 0 0 0 0 0 0 0 0 
0 0 0 0 0 0 0 0 0 
0 0 0 0 0 0 0 0 0 
0 0 0 0 0 0 0 0 0 
0 0 0 0 0 0 0 0 0 
0 0 0 0 0 0 0 0 0 
0 0 0 0 0 0 0 0 0 
0 0 0 0 0 0 0 0 0 
0 0 0 0 0 0 0 0 0 
0 0 0 0 0 0 0 0 0 
0 0 0 0 0 0 0 0 0 
0 0 0 0 0 0 0 0 0 
0 0 0 0 0 0 0 0 0 
0 0 0 0 0 0 0 0 0 
0 0 0 0 0 0 0 0 0 
0 0 0 0 0 0 0 0 0 
0 0 0 0 0 0 0 0 0 
0 0 0 0 0 0 0 0 0 
0 0 0 0 0 0 0 0 0 
0 0 0 0 0 0 0 0 0 
0 0 0 0 0 0 0 0 0 
0 0 0 0 0 0 0 0 0 
0 0 0 0 0 0 0 0 0 
0 0 0 0 0 0 0 0 0 
0 0 0 0 0 0 0 0 0 
0 0 0 0 0 0 0 0 0 
0 0 0 0 0 0 0 0 0 
0 0 0 0 0 0 0 0 0 
0 0 0 0 0 0 0 0 0 
0 0 0 0 0 0 0 0 0 
0 0 0 0 0 0 0 0 0 
0 0 0 0 0 0 0 0 0 
0 0 0 0 0 0 0 0 0 
0 0 0 0 0 0 0 0 0 
0 0 0 0 0 0 0 0 0 
0 0 0 0 0 0 0 0 0 
0 0 0 0 0 0 0 0 0 
0 0 0 0 0 0 0 0 0 
0 0 0 0 0 0 0 0 0 
0 0 0 0 0 0 0 0 0 
0 0 0 0 0 0 0 0 0 
0 0 0 0 0 0 0 0 0 
0 0 0 0 0 0 0 0 0 
0 0 0 0 0 0 0 0 0 
0 0 0 0 0 0 0 0 0 
0 0 0 0 0 0 0 0 0 
0 0 0 0 0 0 0 0 0 
0 0 0 0 0 0 0 0 0 
0 0 0 0 0 0 0 0 0 
0 0 0 0 0 0 0 0 0 
0 0 0 0 0 0 0 0 0 
0 0 0 0 0 0 0 0 0 
0 0 0 0 0 0 0 0 0 
0 0 0 0 0 0 0 0 0 
0 0 0 0 0 0 0 0 0 
0 0 0 0 0 0 0 0 0 
0 0 0 0 0 0 0 0 0 
0 0 0 0 0 0 0 0 0 
0 0 0 0 0 0 0 0 0 
0 0 0 0 0 0 0 0 0 
0 0 0 0 0 0 0 0 0 
0 0 0 0 0 0 0 0 0 
0 0 0 0 0 0 0 0 0 
0 0 0 0 0 0 0 0 0 
0 0 0 0 0 0 0 0 0 
0 0 0 0 0 0 0 0 0 
0 0 0 0 0 0 0 0 0 
0 0 0 0 0 0 0 0 0 
0 0 0 0 0 0 0 0 0 
0 0 0 0 0 0 0 0 0 
0 0 0 0 0 0 0 0 0 
0 0 0 0 0 0 0 0 0 
0 0 0 0 0 0 0 0 0 
0 0 0 0 0 0 0 0 0 
0 0 0 0 0 0 0 0 0 
0 0 0 0 0 0 0 0 0 
0 0 0 0 0 0 0 0 0 
0 0 0 0 0 0 0 0 0 
0 0 0 0 0 0 0 0 0 
0 0 0 0 0 0 0 0 0 
0 0 0 0 0 0 0 0 0 
0 0 0 0 0 0 0 0 0 
0 0 0 0 0 0 0 0 0 
0 0 0 0 0 0 0 0 0 
0 0 0 0 0 0 0 0 0 
0 0 0 0 0 0 0 0 0 
0 0 0 0 0 0 0 0 0 
0 0 0 0 0 0 0 0 0 
0 0 0 0 0 0 0 0 0 
0 0 0 0 0 0 0 0 0 
0 0 0 0 0 0 0 0 0 
0 0 0 0 0 0 0 0 0 
0 0 0 0 0 0 0 0 0 
0 0 0 0 0 0 0 0 0 
0 0 0 0 0 0 0 0 0 
0 0 0 0 0 0 0 0 0 
0 0 0 0 0 0 0 0 0 
0 0 0 0 0 0 0 0 0 
0 0 0 0 0 0 0 0 0 
0 0 0 0 0 0 0 0 0 
0 0 0 0 0 0 0 0 0 
0 0 0 0 0 0 0 0 0 
0 0 0 0 0 0 0 0 0 
0 0 0 0 0 0 0 0 0 
0 0 0 0 0 0 0 0 0 
0 0 0 0 0 0 
v 3 1049 double
0.042542 -0.105564 0 0.0321253 0.0159112 0 -0.168614 -0.114897 0 
-0.298079 0.107761 0 -0.388976 -0.702798 0 -0.786009 -0.773083 0 
0.995055 -0.662816 0 -0.881466 -0.785902 0 -0.912082 -0.787789 0 
-0.66959 -0.527861 0 -0.673106 -0.51899 0 0.907788 -0.74035 0 
0.703003 -0.619574 0 -0.922957 -0.71625 0 -0.762874 -0.555692 0 
0.571811 -0.454936 0 0.863298 -0.661839 0 0.548767 -0.4462 0 
0.814628 -0.74477 0 -0.878414 -0.648585 0 -0.958361 -0.77801 0 
0.8174 -0.616262 0 0.800774 -0.672799 0 -0.958274 -0.779103 0 
0.757338 -0.612106 0 0.742945 -0.723135 0 0.794265 -0.645275 0 
-0.758388 -0.617943 0 0.855416 -0.703942 0 0.957293 -0.747012 0 
0.991823 -0.688623 0 0.879413 -0.65412 0 0.922326 -0.750809 0 
-0.815725 -0.741072 0 -0.836745 -0.603951 0 0.724889 -0.678014 0 
0.872348 -0.719174 0 0.764475 -0.618255 0 1.00191 -0.757464 0 
-0.696335 -0.629448 0 -0.662992 -0.704847 0 -0.60673 -0.578252 0 
0.97913 -0.693402 0 0.925113 -0.812312 0 1.01475 -0.746969 0 
1.05136 -0.714807 0 -0.894313 -0.521604 0 -0.905055 -0.642805 0 
-0.824476 -0.659459 0 0.612546 -0.804089 0 0.892982 -0.819644 0 
-0.658794 -0.682697 0 -0.903132 -0.810947 0 -0.335128 -1.0015 0 
0 0 0 0 0 0 0 0 0 
0 0 0 0 0 0 0 0 0 
0 0 0 0 0 0 0 0 0 
0 0 0 0 0 0 0 0 0 
0 0 0 0 0 0 0 0 0 
0 0 0 -0.269089 -0.514329 0 0 0 0 
0 0 0 0.465459 -0.930716 0 0 0 0 
-0.221223 -0.59675 0 0 0 0 -0.207477 -0.435722 0 
0 0 0 0 0 0 0 0 0 
0 0 0 0 0 0 0 0 0 
0 0 0 0 0 0 0 0 0 
0 0 0 0 0 0 0 0 0 
0 0 0 0 0 0 0 0 0 
0 0 0 0 0 0 0 0 0 
0 0 0 0 0 0 0 0 0 
0 0 0 0 0 0 0 0 0 
0 0 0 0 0 0 0 0 0 
0 0 0 0 0 0 0 0 0 
0 0 0 0 0 0 0 0 0 
0 0 0 0 0 0 0 0 0 
0 0 0 0 0 0 0 0 0 
0 0 0 0 0 0 0 0 0 
0 0 0 0 0 0 0 0 0 
0 0 0 0 0 0 0 0 0 
0 0 0 0 0 0 0 0 0 
0 0 0 0 0 0 0 0 0 
0 0 0 0 0 0 0 0 0 
0 0 0 0 0 0 0 0 0 
0 0 0 0 0 0 0 0 0 
0 0 0 0 0 0 0 0 0 
0 0 0 0 0 0 0 0 0 
0 0 0 0 0 0 0 0 0 
0 0 0 0 0 0 0 0 0 
0 0 0 0 0 0 0 0 0 
0 0 0 0 0 0 0 0 0 
0 0 0 0 0 0 0 0 0 
0 0 0 0 0 0 0 0 0 
0 0 0 0 0 0 0 0 0 
0 0 0 0 0 0 0 0 0 
0 0 0 0 0 0 0 0 0 
0 0 0 0 0 0 0 0 0 
0 0 0 0 0 0 0 0 0 
0 0 0 0 0 0 0 0 0 
0 0 0 0 0 0 0 0 0 
0 0 0 0 0 0 0 0 0 
0 0 0 0 0 0 0 0 0 
0 0 0 0 0 0 0 0 0 
0 0 0 0 0 0 0 0 0 
0 0 0 0 0 0 0 0 0 
0 0 0 0 0 0 0 0 0 
0 0 0 0 0 0 0 0 0 
0 0 0 0 0 0 0 0 0 
0 0 0 0.306447 -0.456914 0 0.181233 -0.592868 0 
0 0 0 0.101759 -0.582693 0 0.00505109 -0.316538 0 
0.17938 -0.106027 0 0.130772 -0.72704 0 0 0 0 
0 0 0 0 0 0 0 0 0 
0 0 0 0 0 0 0 0 0 
0 0 0 0 0 0 0 0 0 
0 0 0 0 0 0 0 0 0 
0 0 0 0 0 0 0 0 0 
0 0 0 0 0 0 0 0 0 
0 0 0 0 0 0 0 0 0 
0 0 0 0 0 0 0.00662396 -0.66324 0 
-0.326693 -0.98624 0 -0.0687112 -0.470812 0 0 0 0 
0 0 0 0 0 0 0 0 0 
0 0 0 0 0 0 0 0 0 
0 0 0 0 0 0 0 0 0 
0 0 0 0 0 0 0 0 0 
0 0 0 0 0 0 0 0 0 
0 0 0 0 0 0 0 0 0 
0 0 0 0.209284 -0.618821 0 0.217857 -0.872887 0 
0.00547404 -0.661451 0 -0.0346767 -0.348099 0 -0.153698 -0.661244 0 
-0.143218 -0.675177 0 0 0 0 0 0 0 
0 0 0 0 0 0 0 0 0 
0 0 0 0 0 0 0 0 0 
0 0 0 0 0 0 -0.141577 -0.73831 0 
-0.32187 -1.07637 0 -0.114049 -0.766126 0 0 0 0 
0 0 0 0 0 0 0 0 0 
0 0 0 0 0 0 0 0 0 
0 0 0 0 0 0 0 0 0 
0 0 0 0 0 0 0 0 0 
0 0 0 0 0 0 0 0 0 
0 0 0 0 0 0 0 0 0 
0 0 0 0.254742 -0.96105 0 0.17216 -0.962669 0 
0.226324 -0.978058 0 0.178144 -0.955035 0 -0.0668023 -0.99372 0 
0 0 0 0 0 0 0 0 0 
0 0 0 0 0 0 0 0 0 
0 0 0 0 0 0 0 0 0 
0 0 0 -0.1959 -0.89055 0 -0.182912 -0.895603 0 
0 0 0 0 0 0 0 0 0 
0 0 0 0 0 0 0 0 0 
0 0 0 0 0 0 0 0 0 
0 0 0 0 0 0 0 0 0 
0 0 0 0 0 0 0 0 0 
0 0 0 0 0 0 0 0 0 
0 0 0 0 0 0 0.301353 -1.04832 0 
0.275134 -0.951143 0 0 0 0 0 0 0 
0 0 0 0 0 0 0 0 0 
0 0 0 0 0 0 0 0 0 
0 0 0 0 0 0 -0.298286 -0.904201 0 
-0.306264 -0.944603 0 -0.305808 -0.944141 0 0 0 0 
0 0 0 0 0 0 0 0 0 
0 0 0 0 0 0 0 0 0 
0 0 0 0 0 0 0 0 0 
0 0 0 0 0 0 0 0 0 
0 0 0 0 0 0 0 0 0 
0 0 0 0 0 0 0 0 0 
0 0 0 -0.112302 -1.09508 0 -0.138901 -1.08122 0 
0 0 0 0 0 0 0 0 0 
0 0 0 0 0 0 0 0 0 
0 0 0 0 0 0 0 0 0 
0 0 0 -0.232177 -0.987783 0 -0.270494 -0.836702 0 
0 0 0 0 0 0 0 0 0 
0 0 0 0 0 0 0 0 0 
0 0 0 0 0 0 0 0 0 
0 0 0 0 0 0 0 0 0 
0 0 0 0 0 0 0 0 0 
0 0 0 0 0 0 0 0 0 
0 0 0 0 0 0 0.231879 -0.786323 0 
-0.220603 -1.04798 0 -0.0460536 -0.858685 0 -0.152042 -0.775695 0 
-0.208345 -1.09677 0 0 0 0 0 0 0 
0 0 0 0 0 0 0 0 0 
0 0 0 0 0 0 0 0 0 
0 0 0 0 0 0 -0.283435 -0.983161 0 
0 0 0 0 0 0 0 0 0 
0 0 0 0 0 0 0 0 0 
0 0 0 0 0 0 0 0 0 
0 0 0 0 0 0 0 0 0 
0 0 0 0 0 0 0 0 0 
0 0 0 0 0 0 0.221589 -0.724052 0 
0 0 0 0 0 0 0 0 0 
-0.191089 -0.779681 0 -0.125717 -1.18192 0 0 0 0 
0 0 0 0 0 0 0 0 0 
0 0 0 0 0 0 0 0 0 
0 0 0 0 0 0 0 0 0 
-0.360579 -1.01424 0 0 0 0 0 0 0 
0 0 0 0 0 0 0 0 0 
0 0 0 0 0 0 0 0 0 
0 0 0 0 0 0 0 0 0 
0 0 0 0 0 0 0 0 0 
0 0 0 0 0 0 0 0 0 
0 0 0 0 0 0 0 0 0 
-0.190326 -1.15049 0 0 0 0 0 0 0 
0 0 0 0 0 0 0 0 0 
0 0 0 0 0 0 0 0 0 
0 0 0 0 0 0 0 0 0 
0 0 0 0 0 0 0 0 0 
0 0 0 0 0 0 0 0 0 
0 0 0 0 0 0 0 0 0 
0 0 0 0 0 0 0 0 0 
0 0 0 -0.795931 0.00812648 0 0 0 0 
0 0 0 -0.811326 0.0120618 0 0 0 0 
0 0 0 0 0 0 0 0 0 
0 0 0 0 0 0 0 0 0 
-0.853846 0.034055 0 0 0 0 0 0 0 
0 0 0 0 0 0 0 0 0 
0 0 0 0 0 0 0 0 0 
0 0 0 0 0 0 0 0 0 
0 0 0 0 0 0 0 0 0 
0 0 0 0 0 0 0 0 0 
0 0 0 0 0 0 0 0 0 
0 0 0 0 0 0 0 0 0 
0 0 0 0 0 0 0 0 0 
0 0 0 0 0 0 0 0 0 
0 0 0 0 0 0 0 0 0 
0 0 0 0 0 0 0 0 0 
0 0 0 0 0 0 0 0 0 
0 0 0 0 0 0 0 0 0 
0 0 0 0 0 0 0 0 0 
0 0 0 0 0 0 0 0 0 
0 0 0 0 0 0 0 0 0 
0.870943 0.0186108 0 0 0 0 0 0 0 
0 0 0 0 0 0 0 0 0 
0 0 0 0 0 0 0 0 0 
0 0 0 0.765366 0.00692822 0 0 0 0 
0 0 0 0 0 0 0 0 0 
0 0 0 0 0 0 0 0 0 
0.288846 -0.582088 0 -0.195243 -0.941072 0 -0.0705647 -1.05569 0 
0 0 0 0 0 0 0 0 0 
0 0 0 0 0 0 0 0 0 
0 0 0 0 0 0 0 0 0 
0 0 0 0.765038 0.0194182 0 -0.0844867 -1.01523 0 
0 0 0 0 0 0 0 0 0 
0 0 0 0 0 0 0 0 0 
0 0 0 0 0 0 0 0 0 
0 0 0 0 0 0 0 0 0 
0 0 0 0 0 0 0 0 0 
0 0 0 0 0 0 0 0 0 
0 0 0 0 0 0 0 0 0 
0 0 0 0 0 0 0 0 0 
0 0 0 0 0 0 0 0 0 
0 0 0 0 0 0 0 0 0 
0 0 0 0 0 0 0 0 0 
0 0 0 0 0 0 0 0 0 
0 0 0 0 0 0 0 0 0 
0 0 0 0 0 0 0 0 0 
0 0 0 0 0 0 0 0 0 
0 0 0 0 0 0 0 0 0 
0 0 0 0 0 0 0 0 0 
0 0 0 0 0 0 0 0 0 
0 0 0 0 0 0 0 0 0 
0 0 0 0 0 0 0 0 0 
0 0 0 0 0 0 0 0 0 
0 0 0 0 0 0 0 0 0 
0 0 0 0 0 0 0 0 0 
0 0 0 0 0 0 0 0 0 
0 0 0 0 0 0 0 0 0 
0 0 0 0 0 0 0 0 0 
0 0 0 0 0 0 0 0 0 
0 0 0 0 0 0 0 0 0 
0 0 0 0 0 0 0 0 0 
0 0 0 0 0 0 0 0 0 
0 0 0 0 0 0 0 0 0 
0 0 0 0 0 0 0 0 0 
0 0 0 0 0 0 0 0 0 
0 0 0 0 0 0 0 0 0 
0 0 0 0 0 0 0 0 0 
0 0 0 0 0 0 0 0 0 
0 0 0 0 0 0 0 0 0 
0 0 0 0 0 0 0 0 0 
0 0 0 0 0 0 0 0 0 
0 0 0 0 0 0 0 0 0 
0 0 0 0 0 0 0 0 0 
0 0 0 0 0 0 0 0 0 
0 0 0 0 0 0 0 0 0 
0 0 0 0 0 0 0 0 0 
0 0 0 0 0 0 0 0 0 
0 0 0 0 0 0 0 0 0 
0 0 0 0 0 0 0 0 0 
0 0 0 0 0 0 0 0 0 
0 0 0 0 0 0 0 0 0 
0 0 0 0 0 0 0 0 0 
0 0 0 0 0 0 0 0 0 
0 0 0 0 0 0 0 0 0 
0 0 0 0.532414 -0.607808 0 0.593644 -0.599213 0 
0.46408 -0.805136 0 0 0 0 0 0 0 
0 0 0 0 0 0 0 0 0 
0 0 0 0 0 0 0 0 0 
0 0 0 0 0 0 0 0 0 
0 0 0 0 0 0 0 0 0 
0 0 0 0 0 0 0 0 0 
0 0 0 0 0 0 0 0 0 
0 0 0 0 0 0 0 0 0 
0 0 0 0 0 0 0 0 0 
0 0 0 0 0 0 0 0 0 
0 0 0 0 0 0 0 0 0 
0.512639 -0.539292 0 0 0 0 0 0 0 
0 0 0 0 0 0 0 0 0 
0 0 0 0 0 0 0 0 0 
0 0 0 0 0 0 0 0 0 
0 0 0 0 0 0 0 0 0 
0 0 0 0 0 0 0 0 0 
0 0 0 0 0 0 0 0 0 
0 0 0 0 0 0 0 0 0 
0 0 0 0 0 0 0.487816 -0.514139 0 
0 0 0 0 0 0 0 0 0 
0 0 0 0 0 0 0 0 0 
0 0 0 0 0 0 0 0 0 
0 0 0 0 0 0 0 0 0 
0 0 0 0 0 0 0 0 0 
0 0 0 0 0 0 0 0 0 
0 0 0 0 0 0 0 0 0 
0 0 0 0 0 0 0 0 0 
0 0 0 0 0 0 0 0 0 
0 0 0 0 0 0 0 0 0 
0 0 0 0 0 0 0 0 0 
0 0 0 0 0 0 0 0 0 
0 0 0 0 0 0 0 0 0 
0 0 0 0 0 0 0 0 0 
0 0 0 0 0 0 0 0 0 
0.634659 0.17549 0 0.558181 -0.471152 0 0 0 0 
0 0 0 0 0 0 0 0 0 
0 0 0 0 0 0 0 0 0 
0 0 0 0 0 0 0 0 0 
0 0 0 0 0 0 0 0 0 
0 0 0 0 0 0 0 0 0 
0 0 0 0 0 0 0 0 0 
0 0 0 0 0 0 0 0 0 
0 0 0 0 0 0 0 0 0 
0 0 0 0 0 0 0 0 0 
0 0 0 0 0 0 0 0 0 
0 0 0 0 0 0 0 0 0 
0 0 0 0 0 0 0 0 0 
0 0 0 0 0 0 0 0 0 
0 0 0 0 0 0 0 0 0 
0 0 0 0 0 0 0 0 0 
0 0 0 0 0 0 0 0 0 
0 0 0 0 0 0 0 0 0 
0 0 0 0 0 0 0 0 0 
0 0 0 0 0 0 0 0 0 
0 0 0 0 0 0 0 0 0 
0 0 0 0 0 0 0 0 0 
0 0 0 0 0 0 0 0 0 
0 0 0 0 0 0 0 0 0 
0 0 0 0 0 0 0 0 0 
0 0 0 0 0 0 0 0 0 
0 0 0 0 0 0 0 0 0 
0 0 0 0 0 0 0 0 0 
0 0 0 0 0 0 0 0 0 
0 0 0 0 0 0 0 0 0 
0 0 0 0 0 0 0 0 0 
0 0 0 0 0 0 0 0 0 
0 0 0 0 0 0 0 0 0 
0 0 0 0 0 0 0 0 0 
0 0 0 0 0 0 0 0 0 
0 0 0 0 0 0 0 0 0 
0 0 0 0 0 0 0 0 0 
0 0 0 0 0 0 0 0 0 
0 0 0 0 0 0 0 0 0 
0 0 0 0 0 0 0 0 0 
0 0 0 0 0 0 0 0 0 
0 0 0 0 0 0 0 0 0 
0 0 0 0 0 0 0 0 0 
0 0 0 0 0 0 0 0 0 
0 0 0 0 0 0 0 0 0 
0 0 0 0 0 0 0 0 0 
0 0 0 0 0 0 0 0 0 
0 0 0 0 0 0 0 0 0 
0 0 0 0 0 0 0 0 0 
0 0 0 0 0 0 0 0 0 
0 0 0 0 0 0 0 0 0 
0 0 0 0 0 0 0 0 0 
0 0 0 0 0 0 0 0 0 
0 0 0 0 0 0 0 0 0 
0 0 0 0 0 0 0 0 0 
0 0 0 0 0 0 0 0 0 
0 0 0 0 0 0 0 0 0 
0 0 0 0 0 0 0 0 0 
0 0 0 0 0 0 0 0 0 
0 0 0 0 0 0 0 0 0 
0 0 0 0 0 0 0 0 0 
0 0 0 0 0 0 
x 1 1049 double
-0.385035 0.146479 -0.261237 0.200929 0.733639 0.601006 -1.7248 1.21912 1.98347 
2.52951 3.03844 -3.18646 -2.36707 2.64215 3.75716 -5.19612 -4.62661 -3.38252 
-3.87487 3.70419 4.64436 -5.20939 -5.77239 5.21774 -8.07596 -7.26813 -6.60569 
7.11439 -8.4644 -8.2251 -7.37495 -7.54991 -6.65371 8.73737 8.18567 -10.0703 
-9.89796 -9.43646 -8.99258 9.5749 10.2713 10.8976 -10.8538 -10.8897 -10.2736 
-9.89496 9.83788 10.4493 10.9481 -11.7716 -11.5146 11.9023 11.4324 12.0323 
-14.8214 -14.4643 -15 -14.6429 -15 -15 -15 -14.2857 -14.1071 
-15 -13.5714 -13.0357 -13.3929 -13.2143 -13.9286 -13.75 -12.1333 -12.6786 
-12.5 -12.2108 -12.8571 -11.5184 -11.5 -11.6955 -11.1429 -11.3214 -10.4286 
-10.7857 -10.25 -10.0714 -10.9643 -10.6071 -9.5357 -9.8929 -9.7143 -9.3571 
-9.1786 -9 -9 -8.6 -8.2 -9 -8.8 -9 -8.4 
-9 -8 -7.4 -7.8 -7.2 -7.6 -6.6 -7 -6.2 
-6.4 -6.8 -5.8 -5.4 -5.2 -5.6 -6 -4.2 -4.4 
-5 -4.6 -4.8 -3.2 -4 -3.6 -3.4 -3.8 -2.8 
-3 -3 -3 -2.4 -3 -2.2 -2.6 -3 -1.6 
-1.2 -2 -1.4 -1.8 -0.8 -0.6 -0.4 -0.2 -1 
-0 0.8 0.2 0.4 0.6 1.4 1.8 1.6 1 
1.2 2.6 2.4 2.8 2 2.2 3 3 3 
3.8 3 3.6 3.4 3.2 3 4.4 4.2 4 
4.8 4.6 5.8 5.4 5.2 5.6 5 6.6 6 
6.8 6.2 6.4 7 7.6 7.2 7.4 7.8 8.2 
8.6 8 8.8 8.4 9 9.1786 9 9 9.3571 
9 9 9.7143 9.8929 9.5357 10.0714 10.7857 10.25 10.4286 
10.9643 10.6071 11.1429 11.5 11.6726 11.1713 11.3214 11.6049 12.5641 
12.599 12.1072 12.8571 12.6786 12.5 13.3929 13.0357 13.9286 13.75 
13.2143 13.5714 14.2857 14.6429 14.8214 14.4643 14.1071 15 15 
15 15 15 -15 -15 -15 -15 -15 -12.2053 
-11.4118 -11.9598 -9 -9 -9 -9 -9 -3 -3 
-3 -3 -3 3 3 3 3 3 9 
9 9 9 9 11.5698 11.7499 12.0989 12.6445 12.1812 
12.6427 15 15 15 15 15 -15 -15 -15 
-15 -15 -11.9001 -11.1866 -11.5563 -9 -9 -9 -9 
-9 -3 -3 -3 -3 -3 3 3 3 
3 3 9 9 9 9 9 10.7352 11.9889 
11.1752 11.464 12.4562 15 15 15 15 15 -15 
-15 -15 -15 -15 -11.2055 -10.4769 -9 -9 -9 
-9 -9 -3 -3 -3 -3 -3 3 3 
3 3 3 9 9 9 9 9 10.8498 
11.4368 15 15 15 15 15 -15 -15 -15 
-15 -15 -11.2706 -10.6851 -10.5004 -9 -9 -9 -9 
-9 -3 -3 -3 -3 -3 3 3 3 
3 3 9 9 9 9 9 12.3618 12.5364 
15 15 15 15 15 -15 -15 -15 -15 
-15 -10.1876 -10.8074 -9 -9 -9 -9 -9 -3 
-3 -3 -3 -3 3 3 3 3 3 
9 9 9 9 9 10.3761 12.5249 13.5795 13.2054 
13.0889 15 15 15 15 15 -15 -15 -15 
-15 -15 -10.1361 -9 -9 -9 -9 -9 -3 
-3 -3 -3 -3 3 3 3 3 3 
9 9 9.9727 9 9 9 12.8153 13.4681 15 
15 15 15 15 -15 -15 -15 -15 -15 
-9.77361 -9 -9 -9 -9 -9 -3 -3 -3 
-3 -3 3 3 3 3 3 9 9 
9 9 9 13.0297 15 15 15 15 15 
-15 -15 -15 -15 -15 -8.4643 -9 -8.1071 -8.2857 
-8.8214 -8.6429 -7.0357 -7.3929 -7.9286 -7.2143 -7.5714 -7.75 -6.5 
-6.6786 -6.25993 -6.8571 -5.3214 -5.65278 -5.5 -5.1429 -4.9643 -4.25 
-4.4286 -4.0714 -4.7857 -4.68166 -4.6071 -3.8929 -3.5357 -3.7143 -3.1786 
-3.3571 -2.2857 -2.1071 -2.4643 -2.8214 -3 -2.6429 -1.9286 -1.0357 
-1.75 -1.5714 -1.3929 -1.2143 -0.6786 -0.5 -0.8571 0.8571 0.5 
0.6786 1.75 1.0357 1.3929 1.9286 1.2143 1.5714 2.6429 2.1071 
2.8214 2.2857 2.4643 3.3571 3.5357 3 3.8929 3.1786 3.7143 
4.9643 4.0714 4.25 4.4286 4.6071 4.7857 5.1429 5.3214 5.5 
6.55356 6.5 6.6786 6.8571 7.2143 7.3929 7.75 7.9286 7.0357 
7.5714 7.95694 8.8214 8.1071 8.2857 8.4643 8.6429 9 9 
9.16549 13.1468 13.5818 15 15 15 15 15 -15 
-15 -15 -15 -15 8.54973 13.6009 15 15 15 
15 15 -14.8333 -15 -14.1667 -15 -14.5 -15 -15 
-14.3333 -14.6667 -15 -14 -12.6 -12.8 -12.4 -12.2 -13 
-11.6 -11.4 -12 -11.8 -11.2 -10.8 -10.4 -10.6 -11 
-10.2 -9.8 -10 -9.4 -9.6 -9.2 -9 -8.6429 -9 
-9 -9 -8.2857 -8.4643 -8.8214 -8.1071 -9 -7.0357 -7.3929 
-7.5714 -7.9286 -7.75 -7.2143 -6.5 -6.6786 -6.8571 -5.1429 -5.5 
-5.3214 -4.0714 -4.25 -4.7857 -4.9643 -4.6071 -4.4286 -3.3571 -3.8929 
-3.7143 -3.1786 -3.5357 -2.8 -3 -3 -3 -2.6 -3 
-2.4 -2.2 -3 -2 -1.6 -1.8 -1.2 -1.4 -1 
-0.6 -0.8 -0.2 -0.4 0.6 0.8 -0 0.2 0.4 
1.4 1.8 1.2 1.6 1 2.6 2.2 2.8 2.4 
2 3.2 3.8 3.4 3 3.6 4.2 4.4 4.8 
4.6 4 5.4 5.2 5.8 5.6 5 6 6.8 
6.4 6.6 6.2 7.4 7 7.2 7.6 7.8 8.2 
8.6 8 8.4 8.8 9.8 9 9 9.6 9 
9.4 9 9.2 9 10.2 10.4 10.8 10.6 10 
11.2 11 11.4 11.6 11.8 12.2 12.6 12.8 12 
12.4 12.5926 13.0241 13.4594 13 14.3333 14.8333 14.5 14 
14.6667 14.1667 15 15 15 15 15 -15 -15 
-15 -15 -15 -9 -9 -9 -9 -9 -3 
-3 -3 -3 -3 9 9 9 9 9 
11.6066 15 15 15 15 15 -15 -15 -15 
-15 -15 -9 -9 -9 -9 -9 -3 -3 
-3 -3 -3 9 9 9 9 9 10.8835 
15 15 15 15 15 -15 -15 -15 -15 
-15 -9 -9 -9 -9 -9 -3 -3 -3 
-3 -3 9 9 9 9 9 15 15 
15 15 15 -15 -15 -15 -15 -15 -9 
-9 -9 -9 -9 -3 -3 -3 -3 -3 
8.84443 9.61724 9 15 15 15 15 15 -15 
-15 -15 -15 -15 -9 -9 -9 -9 -9 
-3 -3 -3 -3 -3 9 9 9 9 
9 9 15 15 15 15 15 -14.4 -14.2 
-14.8 -14.6 -15 -13.8 -13.4 -13.6 -14 -13.2 -12.4 
-13 -12.6 -12.2 -12.8 -11.4 -11.6 -11.2 -12 -11.8 
-10.2 -10.6 -11 -10.4 -10.8 -9.4 -9.8 -10 -9.2 
-9.6 -8.8 -8.2 -8.4 -8.6 -9 -8 -7.4 -7.2 
-7.6 -7.8 -6.2 -6.4 -6.6 -7 -6.8 -5.2 -5.8 
-6 -5.4 -5.6 -5 -4.6 -4.2 -4.4 -4.8 -3.8 
-3.6 -3.4 -3.2 -4 -3 -2.6 -2.8 -2.4 -2.2 
-1.4 -1.6 -1.8 -1.2 -2 -0.6 -0.8 -0.4 -1 
-0.2 0.4 -0 0.6 0.8 0.2 1.2 1.4 1.8 
1 1.6 2.8 2 2.2 2.6 2.4 3.2 3.4 
3 3.6 3.8 4 4.2 4.4 4.6 4.8 5 
5.6 5.8 5.4 5.2 6.4 6.8 6.6 6.2 6 
7.4 7 7.6 7.8 7.2 8 8.8 8.2 8.4 
8.6 9 9.2 9.8 9.4 9.6 10 10.2 10.4 
10.6 10.8 11.4 11.8 11 11.6 11.2 12.4 12.8 
12.6 12.2 12 13.2 13 13.4 13.6 13.8 14.8 
14 14.2 14.4 14.6 15 
y 1 1049 double
-10.2402 -10.1092 -9.72035 -9.575 -9.62623 -9.06057 -8.85109 -8.96293 -8.07455 
-8.44946 -8.17083 -7.41826 -7.89856 -7.66257 -7.53013 -6.56115 -6.11934 -6.37373 
-6.78652 -6.87739 -6.17204 -5.56597 -5.38159 -5.84169 -4.46956 -4.52102 -4.71473 
-4.20311 -3.72579 -3.0742 -3.37508 -3.9444 -3.93515 -3.09281 -3.17314 -2.76045 
-2.2083 -2.66279 -2.222 -2.02055 -2.1573 -2.06327 -1.05473 -1.71513 -1.31093 
-1.6681 -1.50446 -1.59562 -1.06554 -0.376813 -0.989566 -0.938319 -0.545234 -0.179058 
0 0 0.2 0 0.6 0 0.8 0 0 
0.4 0 0 0 0 0 0 0.720233 0 
0 0.141333 0 0.872072 0 0.291952 0 0 0 
0 0 0 0 0 0 0 0 0 
0 0.2 0.8 0 0 0 0 0.6 0 
0.4 0 0 0 0 0 0 0 0 
0 0 0 0 0 0 0 0 0 
0 0 0 0 0 0 0 0 0 
0.2 0 0.8 0 0.4 0 0 0.6 0 
0 0 0 0 0 0 0 0 0 
0 0 0 0 0 0 0 0 0 
0 0 0 0 0 0 0.6 0.8 0.2 
0 0 0 0 0 0.4 0 0 0 
0 0 0 0 0 0 0 0 0 
0 0 0 0 0 0 0 0 0 
0 0 0 0 0.2 0 0.4 0.6 0 
0.8 0 0 0 0 0 0 0 0 
0 0 0 0 0.234624 0.454673 0 0.762 0.771217 
0.312791 0.453089 0 0 0 0 0 0 0 
0 0 0 0 0 0 0 0.6 0 
0.4 0.2 0.8 1.4 1 1.6 1.2 1.8 1.83895 
1.51826 1.21777 1 1.2 1.6 1.8 1.4 1.8 1.4 
1.6 1.2 1 1.2 1 1.6 1.8 1.4 1.6 
1.8 1.4 1 1.2 1.29334 1.90958 1.01567 1.26158 1.53156 
1.94744 1 1.6 1.2 1.8 1.4 2.6 2.4 2.8 
2 2.2 2.43016 2.22106 2.86729 2.2 2.4 2.6 2.8 
2 2.2 2.8 2.6 2.4 2 2.8 2.4 2.2 
2 2.6 2.6 2.2 2.8 2 2.4 2.52201 2.47376 
2.12427 2.66449 2.7008 2.2 2 2.4 2.6 2.8 3.8 
3.6 3.4 3.2 3 3.38051 3.79289 3.8 3 3.2 
3.6 3.4 3.2 3 3.4 3.8 3.6 3.2 3 
3.6 3.8 3.4 3.8 3.6 3.4 3 3.2 3.21943 
3.24769 3.8 3 3.4 3.6 3.2 4.4 4.8 4.6 
4 4.2 4.3734 4.34331 4.92948 4.2 4.6 4.4 4 
4.8 4 4.8 4.4 4.6 4.2 4.4 4.6 4 
4.2 4.8 4.8 4.4 4.2 4.6 4 4.20101 4.76758 
4 4.4 4.6 4.2 4.8 5.6 5 5.4 5.2 
5.8 5.44353 5.9764 5.6 5.4 5 5.8 5.2 5.6 
5 5.8 5.4 5.2 5.6 5.2 5.8 5 5.4 
5.6 5.4 5.2 5.8 5 5.5067 5.64692 5.58968 5.15264 
5.7992 5.8 5.6 5 5.2 5.4 6.8 6.4 6 
6.2 6.6 6.05691 6.4 6.6 6.8 6 6.2 6 
6.8 6.2 6.4 6.6 6.8 6.6 6.2 6.4 6 
6.8 6 6.87069 6.4 6.6 6.2 6.90694 6.98543 6.4 
6.2 6.6 6 6.8 7.8 7.4 7 7.6 7.2 
7.27853 7.6 7.2 7.8 7.4 7 7.2 7 7.6 
7.4 7.8 7.2 7 7.8 7.4 7.6 7 7.6 
7.8 7.4 7.2 7.52031 7.2 7.8 7 7.4 7.6 
8.8 8 8.4 8.6 8.2 8 8 8 8 
8 8 8 8 8 8 8 8 8 
8 8.99385 8 8 8.95151 8 8 8 8 
8 8 8 8.92514 8 8 8 8 8 
8 8 8 8 8 8 8 8 8 
8 8 8 8 8 8 8 8 8 
8 8 8 8 8 8 8 8 8 
8 8 8 8 8 8 8 8 8 
8 8 8 8 8 8 8 8 8 
8.97073 8 8 8 8 8 8 8 8 
8 8.99182 8 8 8 8 8 8 8 
8.60502 8.56456 8.90894 8.2 8.6 8.4 8 8.8 9.8 
9 9.2 9.4 9.6 9.0066 9.49447 9.8 9.6 9.2 
9.4 9 10 10 10 10.2 10 10.6 10.4 
10 10 10.8 10 10 10 10 10 10 
10 10 10 10 10 10 10 10 10 
10 10 10 10 10 10 10.6 10 10 
10.8 10.4 10 10 10 10 10.2 10 10 
10 10 10 10 10 10 10 10 10 
10 10 10 10 10 10 10 10 10 
10 10 10 10 10.2 10.8 10.6 10 10 
10 10 10.4 10 10 10 10 10 10 
10 10 10 10 10 10 10 10 10 
10 10 10 10 10 10 10 10 10 
10 10 10 10 10 10 10 10 10 
10 10 10 10 10 10 10 10 10 
10 10 10 10 10 10 10 10 10 
10 10 10 10 10 10.4 10.8 10 10 
10 10.2 10 10.6 10 10 10 10 10 
10 10 10 10 10 10 10 10 10 
10 11.0042 10.5784 10.1078 10 10 10 10 10 
10 10 10.2 10.4 10.8 10.6 10 11.8 11 
11.4 11.2 11.6 11.4 11.6 11 11.2 11.8 11 
11.4 11.2 11.8 11.6 11 11.2 11.6 11.4 11.8 
11.9918 11 11.2 11.8 11.6 11.4 12 12.6 12.4 
12.8 12.2 12.6 12.8 12.2 12 12.4 12.6 12.4 
12 12.2 12.8 12 12.2 12.4 12.8 12.6 12.7577 
12.6 12.2 12.8 12.4 12 13 13.4 13.8 13.2 
13.6 13.4 13.2 13 13.6 13.8 13.4 13.8 13.2 
13 13.6 13.6 13.8 13.4 13 13.2 13.6 13 
13.8 13.2 13.4 14.8 14.2 14.6 14.4 14 14 
14.8 14.4 14.6 14.2 14.6 14.4 14 14.8 14.2 
14.4658 14.0596 14 14.8 14.4 14.2 14.6 14 15.4 
15 15.8 15.2 15.6 15.6 15.8 15.4 15 15.2 
15.8 15.2 15.4 15.6 15 15.3333 15 15.5 15.8333 
15.1667 15.6667 15.8 15 15.6 15.4 15.2 16 16 
16 16 16 16 16 16 16 16 16 
16 16 16 16 16 16 16 16 16 
16 16 16 16 16 16 16 16 16 
16 16 16 16 16 16 16 16 16 
16 16 16 16 16 16 16 16 16 
16 16 16 16 16 16 16 16 16 
16 16 16 16 16 16 16 16 16 
16 16 16 16 16 16 16 16 16 
16 16 16 16 16 16 16 16 16 
16 16 16 16 16 16 16 16 16 
16 16 16 16 16 16 16 16 16 
16 16 16 16 16 16 16 16 16 
16 16 16 16 16 16 16 16 16 
16 16 16 16 16 16 16 16 16 
16 16 16 16 16 16 16 16 16 
16 16 16 16 16 16 16 16 16 
16 16 16 16 16 
