# vtk DataFile Version 4.0
vtk output
ASCII
DATASET POLYDATA
FIELD FieldData 4
domain 1 4 string
domain_min:-40|-40
domain_max:40|40
cell_size:1|1
boundary:0|0

variables 1 5 string
T:27.8
dt:0.01
write_case:1
substeps:10
all_steps:2780

constants 1 17 string
L:40
c_s:1
dx:1
k:1000
d1:-13.5|10
d2:-6|10
d3:9|14.5
d4:13.5|10
d5:-6|8
d6:0|8
d7:6|8
d8:-9|9
d9:9|9
d10:-12|0
d11:12|0
d12:0|-10
R_w:0.1

equations 1 18 string
time:T=(T+dt)#true
pos_x:x=elem(r,0,0)#eq(gid,1)
pos_y:y=elem(r,1,0)#eq(gid,1)
wp_1:p0=if(and(lt(x,(-9)),gt(y,10)),d1,p0)#eq(gid,1)
wp_2:p0=if(and(and(gt(x,(-9)),lt(x,(-3))),gt(y,10)),d2,p0)#eq(gid,1)
wp_3:p0=if(and(and(gt(x,(-3)),lt(x,9)),gt(y,10)),d3,p0)#eq(gid,1)
wp_4:p0=if(and(gt(x,9),gt(y,10)),d4,p0)#eq(gid,1)
wp_5:p0=if(and(and(gt(x,(-9)),lt(x,(-3))),lt(y,8)),d5,p0)#eq(gid,1)
wp_6:p0=if(and(and(gt(x,(-3)),lt(x,3)),lt(y,8)),d6,p0)#eq(gid,1)
wp_7:p0=if(and(and(gt(x,3),lt(x,9)),lt(y,8)),d7,p0)#eq(gid,1)
wp_8:p0=if(and(and(gt(x,(-9)),lt(x,0)),and(gt(y,8),lt(y,10))),d8,p0)#eq(gid,1)
wp_9:p0=if(and(and(gt(x,0),lt(x,9)),and(gt(y,8),lt(y,10))),d9,p0)#eq(gid,1)
wp_10:p0=if(and(lt(x,(-9)),lt(y,10)),d10,p0)#eq(gid,1)
wp_11:p0=if(and(gt(x,9),lt(y,10)),d11,p0)#eq(gid,1)
wp_12:p0=if(lt(y,0),d12,p0)#eq(gid,1)
acceleration:v=sfm(v,p0,v0,m,R,A,B,k,c,tau)#eq(gid,1)
velocity:v=euler(v,a,dt)#eq(gid,1)
position:r=euler(r,v,dt)#eq(gid,1)

POINTS 1049 float
-0.259493 -11.4511 0 -0.748477 -11.1241 0 0.793589 -11.2738 0 
0.22529 -11.1402 0 -1.49163 -10.7606 0 -1.22808 -10.2631 0 
-0.178633 -10.2703 0 -0.891245 -10.6034 0 -0.228052 -10.9319 0 
-0.416812 -10.6035 0 -0.649106 -10.1375 0 0.437667 -10.3465 0 
0.0914108 -10.6098 0 0.576805 -10.7771 0 0.0313009 -10.0014 0 
1.0735 -10.778 0 1.02733 -10.2352 0 1.53584 -10.47 0 
-2.09685 -9.19026 0 -1.65217 -9.96142 0 -1.2077 -9.39688 0 
-1.66771 -9.44411 0 -1.04536 -9.80829 0 -0.175521 -9.6057 0 
-0.467309 -9.75449 0 -0.316287 -9.17334 0 -0.725952 -9.37867 0 
0.583475 -9.41765 0 0.932299 -9.1344 0 0.975611 -9.66321 0 
0.142818 -9.2824 0 0.593235 -9.94125 0 0.225947 -9.75893 0 
1.42201 -9.87507 0 1.45178 -9.35162 0 -1.94804 -8.04318 0 
-1.85456 -8.64327 0 -1.4157 -8.95839 0 -0.0457961 -8.7451 0 
-0.529503 -8.7506 0 -0.304425 -8.34335 0 -0.925519 -8.45052 0 
-0.923419 -8.96122 0 0.44218 -8.85978 0 0.240118 -8.32134 0 
0.840558 -8.50626 0 1.33646 -8.76377 0 1.76497 -8.44099 0 
2.46844 -8.59749 0 3.01097 -8.01738 0 -3.90095 -7.55284 0 
-3.2085 -7.55307 0 2.15188 -7.98799 0 2.79379 -7.33721 0 
3.57908 -7.85954 0 3.35931 -7.2229 0 3.89083 -7.04334 0 
4.05178 -7.53868 0 -4.69052 -6.7427 0 -4.09786 -6.94163 0 
-4.15699 -6.20641 0 -3.25751 -6.89943 0 3.18816 -6.52759 0 
3.76467 -6.52714 0 4.67519 -6.08407 0 4.84891 -6.93007 0 
-5.03116 -5.90696 0 5.97136 -5.12337 0 6.3664 -5.71478 0 
6.9581 -5.39878 0 -8.40718 -4.04177 0 -7.18549 -4.52958 0 
-6.53255 -4.39395 0 5.95535 -4.46928 0 6.52027 -4.752 0 
7.26265 -4.97304 0 7.06494 -4.41962 0 7.62631 -4.55855 0 
7.39129 -4.00911 0 8.36787 -4.64946 0 -9.38789 -3.37447 0 
-8.87319 -3.56533 0 -7.90378 -3.40515 0 -7.11476 -3.88309 0 
6.29429 -3.97579 0 6.87312 -3.8097 0 7.62738 -3.41091 0 
8.30404 -3.97806 0 8.27267 -3.12003 0 9.25514 -3.41591 0 
-10.4115 -2.03628 0 -9.05873 -2.832 0 -9.56705 -2.08596 0 
-8.70582 -2.28147 0 8.80202 -2.56332 0 9.34518 -2.82845 0 
9.66148 -2.01542 0 -10.369 -1.43051 0 10.4495 -1.86718 0 
10.6772 -1.19457 0 11.2854 -0.914049 0 11.7881 -0.14305 0 
11.8285 -0.708821 0 -14.4643 0 0 -15 0.2 0 
-14.1071 0 0 -14.8214 0 0 -14.6429 0 0 
-15 0.4 0 -14.2857 0 0 -15 0.8 0 
-15 0 0 -15 0.6 0 -13.0357 0 0 
-13.2143 0 0 -13.75 0 0 -13.5714 0 0 
-13.3929 0 0 -13.9286 0 0 -12.6786 0 0 
-12.5 0 0 -12.8571 0 0 -11.3214 0 0 
-11.5 0 0 -11.1429 0 0 -10.6071 0 0 
-10.0714 0 0 -10.7857 0 0 -10.4286 0 0 
-10.25 0 0 -10.9643 0 0 -9.8929 0 0 
-9.1786 0 0 -9.5357 0 0 -9.3571 0 0 
-9.7143 0 0 -9 0.8 0 -8.8 0 0 
-9 0.4 0 -9 0.6 0 -9 0.2 0 
-8.2 0 0 -9 0 0 -8.4 0 0 
-8.6 0 0 -8 0 0 -7.2 0 0 
-7.4 0 0 -7.8 0 0 -7.6 0 0 
-6.8 0 0 -6.2 0 0 -6.4 0 0 
-6.6 0 0 -7 0 0 -6 0 0 
-5.2 0 0 -5.8 0 0 -5.6 0 0 
-5.4 0 0 -4.4 0 0 -4.2 0 0 
-4.8 0 0 -5 0 0 -4.6 0 0 
-4 0 0 -3.8 0 0 -3.2 0 0 
-3.6 0 0 -3.4 0 0 -3 0 0 
-2.2 0 0 -3 0.2 0 -2.4 0 0 
-3 0.6 0 -2.6 0 0 -3 0.4 0 
-3 0.8 0 -2.8 0 0 -1.4 0 0 
-1.6 0 0 -1.2 0 0 -1.8 0 0 
-2 0 0 -0.8 0 0 -0.6 0 0 
-0.2 0 0 -0.4 0 0 -1 0 0 
0.4 0 0 0.8 0 0 -0 0 0 
0.2 0 0 0.6 0 0 1.6 0 0 
1.4 0 0 1 0 0 1.8 0 0 
1.2 0 0 2.6 0 0 2.2 0 0 
2.4 0 0 2 0 0 2.8 0 0 
3 0.6 0 3 0.4 0 3.2 0 0 
3 0.2 0 3.8 0 0 3.6 0 0 
3.4 0 0 3 0.8 0 3 0 0 
4.6 0 0 4.2 0 0 4 0 0 
4.4 0 0 4.8 0 0 5 0 0 
5.4 0 0 5.8 0 0 5.2 0 0 
5.6 0 0 6.8 0 0 6.4 0 0 
6.2 0 0 6.6 0 0 6 0 0 
7.8 0 0 7 0 0 7.4 0 0 
7.6 0 0 7.2 0 0 8.4 0 0 
8.6 0 0 8 0 0 8.2 0 0 
8.8 0 0 9.8929 0 0 9 0 0 
9.3571 0 0 9 0.8 0 9.7143 0 0 
9 0.6 0 9 0.2 0 9.1786 0 0 
9.5357 0 0 9 0.4 0 10.0714 0 0 
10.9643 0 0 10.7857 0 0 10.4286 0 0 
10.25 0 0 10.6071 0 0 11.3214 0 0 
11.1429 0 0 11.5 0 0 11.6618 0.491624 0 
12.5 0 0 12.2479 0.131308 0 12.8571 0 0 
12.821 0.52938 0 12.6786 0 0 12.2684 0.633898 0 
13.3929 0 0 13.0357 0 0 13.2143 0 0 
13.5714 0 0 13.9286 0 0 13.75 0 0 
14.1071 0 0 14.2857 0 0 14.6429 0 0 
14.4643 0 0 14.8214 0 0 15 0.6 0 
15 0.2 0 15 0.8 0 15 0.4 0 
15 0 0 -15 1.8 0 -15 1.2 0 
-15 1 0 -15 1.4 0 -15 1.6 0 
-9 1.8 0 -9 1.2 0 -9 1.4 0 
-9 1 0 -9 1.6 0 -3 1.2 0 
-3 1.4 0 -3 1 0 -3 1.6 0 
-3 1.8 0 3 1.2 0 3 1.8 0 
3 1.4 0 3 1 0 3 1.6 0 
9 1.8 0 9 1 0 9 1.2 0 
9 1.6 0 9 1.4 0 11.1466 1.62568 0 
11.4615 1.11962 0 12.0762 1.14165 0 12.381 1.61501 0 
15 1.4 0 15 1.2 0 15 1.6 0 
15 1.8 0 15 1 0 -15 2.6 0 
-15 2.8 0 -15 2 0 -15 2.4 0 
-15 2.2 0 -9 2.2 0 -9 2.4 0 
-9 2.6 0 -9 2 0 -9 2.8 0 
-3 2.2 0 -3 2.4 0 -3 2 0 
-3 2.8 0 -3 2.6 0 3 2.8 0 
3 2.2 0 3 2.6 0 3 2.4 0 
3 2 0 9 2.2 0 9 2.8 0 
9 2.4 0 9 2.6 0 9 2 0 
11.7256 2.07253 0 11.2178 2.47285 0 15 2.4 0 
15 2 0 15 2.6 0 15 2.8 0 
15 2.2 0 -15 3.2 0 -15 3 0 
-15 3.4 0 -15 3.6 0 -15 3.8 0 
-11.1703 3.26366 0 -10.8056 3.6973 0 -9 3.8 0 
-9 3 0 -9 3.6 0 -9 3.4 0 
-9 3.2 0 -3 3.6 0 -3 3.2 0 
-3 3 0 -3 3.4 0 -3 3.8 0 
3 3.6 0 3 3 0 3 3.8 0 
3 3.2 0 3 3.4 0 9 3.8 0 
9 3.2 0 9 3 0 9 3.6 0 
9 3.4 0 15 3 0 15 3.6 0 
15 3.2 0 15 3.8 0 15 3.4 0 
-15 4.8 0 -15 4.2 0 -15 4 0 
-15 4.6 0 -15 4.4 0 -10.6698 4.44713 0 
-9 4.2 0 -9 4.6 0 -9 4 0 
-9 4.8 0 -9 4.4 0 -3 4.8 0 
-3 4.6 0 -3 4 0 -3 4.4 0 
-3 4.2 0 3 4.8 0 3 4.6 0 
3 4.2 0 3 4.4 0 3 4 0 
9 4.2 0 9 4.6 0 9 4.8 0 
9 4.4 0 9 4 0 12.7019 4.63552 0 
15 4.4 0 15 4.6 0 15 4.2 0 
15 4.8 0 15 4 0 -15 5.6 0 
-15 5.8 0 -15 5.2 0 -15 5 0 
-15 5.4 0 -9 5.6 0 -9 5.8 0 
-9 5 0 -9 5.2 0 -9 5.4 0 
-3 5 0 -3 5.8 0 -3 5.6 0 
-3 5.4 0 -3 5.2 0 3 5.6 0 
3 5.4 0 3 5 0 3 5.8 0 
3 5.2 0 9 5.6 0 9 5.2 0 
9 5 0 9 5.8 0 9 5.4 0 
15 5.4 0 15 5 0 15 5.8 0 
15 5.6 0 15 5.2 0 -15 6.2 0 
-15 6.8 0 -15 6.4 0 -15 6 0 
-15 6.6 0 -9 6.2 0 -9 6.6 0 
-9 6 0 -9 6.4 0 -9 6.8 0 
-3 6.4 0 -3 6.8 0 -3 6 0 
-3 6.2 0 -3 6.6 0 3 6.4 0 
3 6.2 0 3 6.8 0 3 6.6 0 
3 6 0 9 6 0 9 6.4 0 
9 6.2 0 9 6.8 0 9 6.6 0 
12.9198 6.06971 0 15 6.6 0 15 6.4 0 
15 6 0 15 6.8 0 15 6.2 0 
-15 7.2 0 -15 7.4 0 -15 7 0 
-15 7.6 0 -15 7.8 0 -9 7.2 0 
-9 7.4 0 -9 7.8 0 -9 7.6 0 
-9 7 0 -3 7.6 0 -3 7.8 0 
-3 7 0 -3 7.4 0 -3 7.2 0 
3 7.4 0 3 7.2 0 3 7.8 0 
3 7 0 3 7.6 0 9 7.6 0 
9 7.2 0 9 7.8 0 9 7 0 
9 7.4 0 15 7.2 0 15 7.6 0 
15 7.8 0 15 7.4 0 15 7 0 
-15 8.6 0 -15 8.2 0 -15 8 0 
-15 8.8 0 -15 8.4 0 -9 8 0 
-8.1071 8 0 -8.4643 8 0 -8.2857 8 0 
-8.8214 8 0 -8.6429 8 0 -7.75 8 0 
-7.2143 8 0 -7.3929 8 0 -7.0357 8 0 
-7.9286 8 0 -7.5714 8 0 -6.8571 8 0 
-6.5 8 0 -6.6786 8 0 -5.5 8 0 
-5.1429 8 0 -5.3214 8 0 -4.9643 8 0 
-4.6071 8 0 -4.25 8 0 -4.7857 8 0 
-4.4286 8 0 -4.0714 8 0 -3.5357 8 0 
-3.3571 8 0 -3.1786 8 0 -3.8929 8 0 
-3.7143 8 0 -2.6429 8 0 -2.4643 8 0 
-2.2857 8 0 -2.1071 8 0 -2.8214 8 0 
-3 8 0 -1.2143 8 0 -1.9286 8 0 
-1.3929 8 0 -1.0357 8 0 -1.5714 8 0 
-1.75 8 0 -0.5 8 0 -0.6786 8 0 
-0.8571 8 0 0.5 8 0 0.6786 8 0 
0.8571 8 0 1.5714 8 0 1.2143 8 0 
1.75 8 0 1.9286 8 0 1.3929 8 0 
1.0357 8 0 2.4643 8 0 2.1071 8 0 
2.2857 8 0 2.6429 8 0 2.8214 8 0 
3.5357 8 0 3.7143 8 0 3.1786 8 0 
3.3571 8 0 3.8929 8 0 3 8 0 
4.7857 8 0 4.6071 8 0 4.25 8 0 
4.0714 8 0 4.4286 8 0 4.9643 8 0 
5.1429 8 0 5.5 8 0 5.3214 8 0 
6.5 8 0 6.8571 8 0 6.6786 8 0 
7.75 8 0 7.2143 8 0 7.0357 8 0 
7.5714 8 0 7.9286 8 0 7.3929 8 0 
8.8214 8 0 8.6429 8 0 8.1071 8 0 
8.4643 8 0 8.2857 8 0 9 8 0 
9 8 0 13.2301 8.03576 0 13.3557 8.95604 0 
15 8.4 0 15 8.2 0 15 8 0 
15 8.6 0 15 8.8 0 -15 9.8 0 
-15 9 0 -15 9.4 0 -15 9.6 0 
-15 9.2 0 15 9.8 0 15 9.4 0 
15 9 0 15 9.6 0 15 9.2 0 
-14.8333 10 0 -15 10.8 0 -15 10.4 0 
-14.6667 10 0 -15 10.2 0 -15 10 0 
-14.3333 10 0 -14.1667 10 0 -15 10.6 0 
-14.5 10 0 -14 10 0 -13 10 0 
-12.8 10 0 -12.4 10 0 -12.2 10 0 
-12.6 10 0 -11.4 10 0 -11.6 10 0 
-11.2 10 0 -12 10 0 -11.8 10 0 
-10.4 10 0 -11 10 0 -10.6 10 0 
-10.8 10 0 -10.2 10 0 -9.2 10 0 
-9.4 10 0 -9.6 10 0 -10 10 0 
-9.8 10 0 -9 10.8 0 -8.8214 10 0 
-8.2857 10 0 -8.1071 10 0 -8.4643 10 0 
-9 10.4 0 -9 10 0 -9 10.6 0 
-8.6429 10 0 -9 10.2 0 -7.2143 10 0 
-7.9286 10 0 -7.75 10 0 -7.3929 10 0 
-7.5714 10 0 -7.0357 10 0 -6.8571 10 0 
-6.6786 10 0 -6.5 10 0 -5.1429 10 0 
-5.3214 10 0 -5.5 10 0 -4.0714 10 0 
-4.9643 10 0 -4.6071 10 0 -4.4286 10 0 
-4.7857 10 0 -4.25 10 0 -3.7143 10 0 
-3.5357 10 0 -3.3571 10 0 -3.1786 10 0 
-3.8929 10 0 -2.4 10 0 -2.2 10 0 
-2.8 10 0 -3 10 0 -3 10.8 0 
-3 10.4 0 -3 10.2 0 -3 10.6 0 
-2.6 10 0 -1.4 10 0 -2 10 0 
-1.2 10 0 -1.8 10 0 -1.6 10 0 
-0.6 10 0 -0.4 10 0 -0.2 10 0 
-1 10 0 -0.8 10 0 0.6 10 0 
0.8 10 0 0.4 10 0 -0 10 0 
0.2 10 0 1.8 10 0 1.2 10 0 
1 10 0 1.6 10 0 1.4 10 0 
2.4 10 0 2.2 10 0 2.6 10 0 
2.8 10 0 2 10 0 3.4 10 0 
3.6 10 0 3.8 10 0 3 10 0 
3.2 10 0 4.2 10 0 4 10 0 
4.6 10 0 4.8 10 0 4.4 10 0 
5.6 10 0 5.2 10 0 5 10 0 
5.8 10 0 5.4 10 0 6.6 10 0 
6.4 10 0 6.2 10 0 6 10 0 
6.8 10 0 7.4 10 0 7.2 10 0 
7.8 10 0 7 10 0 7.6 10 0 
8.2 10 0 8.6 10 0 8.4 10 0 
8 10 0 8.8 10 0 9 10.6 0 
9.4 10 0 9 10.4 0 9.2 10 0 
9 10.2 0 9 10 0 9.6 10 0 
9 10.8 0 9.8 10 0 10 10 0 
10.2 10 0 10.4 10 0 10.6 10 0 
10.8 10 0 11.2 10 0 11.8 10 0 
11.4 10 0 11.6 10 0 11 10 0 
12 10 0 12.8 10 0 12.2 10 0 
12.4 10 0 12.6 10 0 13 10 0 
14.6667 10 0 14.3333 10 0 14.8333 10 0 
14.5 10 0 14 10 0 14.1667 10 0 
15 10.8 0 15 10 0 15 10.6 0 
15 10.4 0 15 10.2 0 -15 11.4 0 
-15 11.8 0 -15 11.2 0 -15 11.6 0 
-15 11 0 -9 11.4 0 -9 11.6 0 
-9 11 0 -9 11.2 0 -9 11.8 0 
-3 11.8 0 -3 11 0 -3 11.2 0 
-3 11.6 0 -3 11.4 0 9 11.8 0 
9 11.4 0 9 11.2 0 9 11 0 
9 11.6 0 15 11.4 0 15 11.2 0 
15 11.8 0 15 11 0 15 11.6 0 
-15 12 0 -15 12.6 0 -15 12.4 0 
-15 12.8 0 -15 12.2 0 -9 12 0 
-9 12.2 0 -9 12.4 0 -9 12.8 0 
-9 12.6 0 -3 12.8 0 -3 12.6 0 
-3 12.2 0 -3 12 0 -3 12.4 0 
9 12.6 0 9 12 0 9 12.2 0 
9 12.4 0 9 12.8 0 15 12.6 0 
15 12 0 15 12.4 0 15 12.2 0 
15 12.8 0 -15 13 0 -15 13.6 0 
-15 13.4 0 -15 13.2 0 -15 13.8 0 
-9 13.4 0 -9 13.2 0 -9 13.6 0 
-9 13 0 -9 13.8 0 -3 13.2 0 
-3 13.4 0 -3 13 0 -3 13.8 0 
-3 13.6 0 9 13.4 0 9 13.6 0 
9 13.2 0 9 13 0 9 13.8 0 
15 13 0 15 13.4 0 15 13.8 0 
15 13.2 0 15 13.6 0 -15 14 0 
-15 14.2 0 -15 14.6 0 -15 14.8 0 
-15 14.4 0 -9 14.4 0 -9 14.2 0 
-9 14 0 -9 14.8 0 -9 14.6 0 
-3 14.6 0 -3 14.8 0 -3 14.2 0 
-3 14 0 -3 14.4 0 9 14 0 
15 14.6 0 15 14 0 15 14.8 0 
15 14.4 0 15 14.2 0 -15 15 0 
-15 15.4 0 -15 15.8 0 -15 15.2 0 
-15 15.6 0 -9 15.4 0 -9 15.2 0 
-9 15 0 -9 15.8 0 -9 15.6 0 
-3 15.2 0 -3 15.8 0 -3 15.4 0 
-3 15 0 -3 15.6 0 9 15.1667 0 
9 15.3333 0 9 15 0 9 15.6667 0 
9 15.5 0 9 15.8333 0 15 15.8 0 
15 15 0 15 15.6 0 15 15.4 0 
15 15.2 0 -14.2 16 0 -14.8 16 0 
-15 16 0 -14.4 16 0 -14.6 16 0 
-13.2 16 0 -13.8 16 0 -14 16 0 
-13.6 16 0 -13.4 16 0 -12.4 16 0 
-13 16 0 -12.6 16 0 -12.2 16 0 
-12.8 16 0 -11.6 16 0 -11.8 16 0 
-11.4 16 0 -11.2 16 0 -12 16 0 
-11 16 0 -10.2 16 0 -10.6 16 0 
-10.4 16 0 -10.8 16 0 -10 16 0 
-9.2 16 0 -9.6 16 0 -9.4 16 0 
-9.8 16 0 -8.2 16 0 -8.4 16 0 
-9 16 0 -8.8 16 0 -8.6 16 0 
-8 16 0 -7.4 16 0 -7.2 16 0 
-7.6 16 0 -7.8 16 0 -6.8 16 0 
-6.2 16 0 -6.6 16 0 -7 16 0 
-6.4 16 0 -5.8 16 0 -5.6 16 0 
-5.2 16 0 -6 16 0 -5.4 16 0 
-5 16 0 -4.6 16 0 -4.2 16 0 
-4.4 16 0 -4.8 16 0 -4 16 0 
-3.4 16 0 -3.8 16 0 -3.6 16 0 
-3.2 16 0 -2.6 16 0 -2.2 16 0 
-3 16 0 -2.8 16 0 -2.4 16 0 
-1.4 16 0 -1.6 16 0 -1.8 16 0 
-1.2 16 0 -2 16 0 -1 16 0 
-0.2 16 0 -0.8 16 0 -0.4 16 0 
-0.6 16 0 0.4 16 0 -0 16 0 
0.6 16 0 0.8 16 0 0.2 16 0 
1.4 16 0 1.6 16 0 1.2 16 0 
1.8 16 0 1 16 0 2.8 16 0 
2 16 0 2.2 16 0 2.6 16 0 
2.4 16 0 3.4 16 0 3 16 0 
3.8 16 0 3.2 16 0 3.6 16 0 
4 16 0 4.2 16 0 4.4 16 0 
4.6 16 0 4.8 16 0 5.8 16 0 
5 16 0 5.4 16 0 5.2 16 0 
5.6 16 0 6.4 16 0 6.8 16 0 
6.6 16 0 6.2 16 0 6 16 0 
7.4 16 0 7 16 0 7.6 16 0 
7.8 16 0 7.2 16 0 8.6 16 0 
8.8 16 0 8 16 0 8.4 16 0 
8.2 16 0 9 16 0 9.2 16 0 
9.8 16 0 9.4 16 0 9.6 16 0 
10 16 0 10.2 16 0 10.4 16 0 
10.6 16 0 10.8 16 0 11.4 16 0 
11.8 16 0 11 16 0 11.6 16 0 
11.2 16 0 12.4 16 0 12.8 16 0 
12.6 16 0 12.2 16 0 12 16 0 
13.8 16 0 13.2 16 0 13.4 16 0 
13.6 16 0 13 16 0 14.8 16 0 
14 16 0 14.2 16 0 14.4 16 0 
14.6 16 0 15 16 0 
VERTICES 2098 2098
1 0 
1 1 
1 2 
1 3 
1 4 
1 5 
1 6 
1 7 
1 8 
1 9 
1 10 
1 11 
1 12 
1 13 
1 14 
1 15 
1 16 
1 17 
1 18 
1 19 
1 20 
1 21 
1 22 
1 23 
1 24 
1 25 
1 26 
1 27 
1 28 
1 29 
1 30 
1 31 
1 32 
1 33 
1 34 
1 35 
1 36 
1 37 
1 38 
1 39 
1 40 
1 41 
1 42 
1 43 
1 44 
1 45 
1 46 
1 47 
1 48 
1 49 
1 50 
1 51 
1 52 
1 53 
1 54 
1 55 
1 56 
1 57 
1 58 
1 59 
1 60 
1 61 
1 62 
1 63 
1 64 
1 65 
1 66 
1 67 
1 68 
1 69 
1 70 
1 71 
1 72 
1 73 
1 74 
1 75 
1 76 
1 77 
1 78 
1 79 
1 80 
1 81 
1 82 
1 83 
1 84 
1 85 
1 86 
1 87 
1 88 
1 89 
1 90 
1 91 
1 92 
1 93 
1 94 
1 95 
1 96 
1 97 
1 98 
1 99 
1 100 
1 101 
1 102 
1 103 
1 104 
1 105 
1 106 
1 107 
1 108 
1 109 
1 110 
1 111 
1 112 
1 113 
1 114 
1 115 
1 116 
1 117 
1 118 
1 119 
1 120 
1 121 
1 122 
1 123 
1 124 
1 125 
1 126 
1 127 
1 128 
1 129 
1 130 
1 131 
1 132 
1 133 
1 134 
1 135 
1 136 
1 137 
1 138 
1 139 
1 140 
1 141 
1 142 
1 143 
1 144 
1 145 
1 146 
1 147 
1 148 
1 149 
1 150 
1 151 
1 152 
1 153 
1 154 
1 155 
1 156 
1 157 
1 158 
1 159 
1 160 
1 161 
1 162 
1 163 
1 164 
1 165 
1 166 
1 167 
1 168 
1 169 
1 170 
1 171 
1 172 
1 173 
1 174 
1 175 
1 176 
1 177 
1 178 
1 179 
1 180 
1 181 
1 182 
1 183 
1 184 
1 185 
1 186 
1 187 
1 188 
1 189 
1 190 
1 191 
1 192 
1 193 
1 194 
1 195 
1 196 
1 197 
1 198 
1 199 
1 200 
1 201 
1 202 
1 203 
1 204 
1 205 
1 206 
1 207 
1 208 
1 209 
1 210 
1 211 
1 212 
1 213 
1 214 
1 215 
1 216 
1 217 
1 218 
1 219 
1 220 
1 221 
1 222 
1 223 
1 224 
1 225 
1 226 
1 227 
1 228 
1 229 
1 230 
1 231 
1 232 
1 233 
1 234 
1 235 
1 236 
1 237 
1 238 
1 239 
1 240 
1 241 
1 242 
1 243 
1 244 
1 245 
1 246 
1 247 
1 248 
1 249 
1 250 
1 251 
1 252 
1 253 
1 254 
1 255 
1 256 
1 257 
1 258 
1 259 
1 260 
1 261 
1 262 
1 263 
1 264 
1 265 
1 266 
1 267 
1 268 
1 269 
1 270 
1 271 
1 272 
1 273 
1 274 
1 275 
1 276 
1 277 
1 278 
1 279 
1 280 
1 281 
1 282 
1 283 
1 284 
1 285 
1 286 
1 287 
1 288 
1 289 
1 290 
1 291 
1 292 
1 293 
1 294 
1 295 
1 296 
1 297 
1 298 
1 299 
1 300 
1 301 
1 302 
1 303 
1 304 
1 305 
1 306 
1 307 
1 308 
1 309 
1 310 
1 311 
1 312 
1 313 
1 314 
1 315 
1 316 
1 317 
1 318 
1 319 
1 320 
1 321 
1 322 
1 323 
1 324 
1 325 
1 326 
1 327 
1 328 
1 329 
1 330 
1 331 
1 332 
1 333 
1 334 
1 335 
1 336 
1 337 
1 338 
1 339 
1 340 
1 341 
1 342 
1 343 
1 344 
1 345 
1 346 
1 347 
1 348 
1 349 
1 350 
1 351 
1 352 
1 353 
1 354 
1 355 
1 356 
1 357 
1 358 
1 359 
1 360 
1 361 
1 362 
1 363 
1 364 
1 365 
1 366 
1 367 
1 368 
1 369 
1 370 
1 371 
1 372 
1 373 
1 374 
1 375 
1 376 
1 377 
1 378 
1 379 
1 380 
1 381 
1 382 
1 383 
1 384 
1 385 
1 386 
1 387 
1 388 
1 389 
1 390 
1 391 
1 392 
1 393 
1 394 
1 395 
1 396 
1 397 
1 398 
1 399 
1 400 
1 401 
1 402 
1 403 
1 404 
1 405 
1 406 
1 407 
1 408 
1 409 
1 410 
1 411 
1 412 
1 413 
1 414 
1 415 
1 416 
1 417 
1 418 
1 419 
1 420 
1 421 
1 422 
1 423 
1 424 
1 425 
1 426 
1 427 
1 428 
1 429 
1 430 
1 431 
1 432 
1 433 
1 434 
1 435 
1 436 
1 437 
1 438 
1 439 
1 440 
1 441 
1 442 
1 443 
1 444 
1 445 
1 446 
1 447 
1 448 
1 449 
1 450 
1 451 
1 452 
1 453 
1 454 
1 455 
1 456 
1 457 
1 458 
1 459 
1 460 
1 461 
1 462 
1 463 
1 464 
1 465 
1 466 
1 467 
1 468 
1 469 
1 470 
1 471 
1 472 
1 473 
1 474 
1 475 
1 476 
1 477 
1 478 
1 479 
1 480 
1 481 
1 482 
1 483 
1 484 
1 485 
1 486 
1 487 
1 488 
1 489 
1 490 
1 491 
1 492 
1 493 
1 494 
1 495 
1 496 
1 497 
1 498 
1 499 
1 500 
1 501 
1 502 
1 503 
1 504 
1 505 
1 506 
1 507 
1 508 
1 509 
1 510 
1 511 
1 512 
1 513 
1 514 
1 515 
1 516 
1 517 
1 518 
1 519 
1 520 
1 521 
1 522 
1 523 
1 524 
1 525 
1 526 
1 527 
1 528 
1 529 
1 530 
1 531 
1 532 
1 533 
1 534 
1 535 
1 536 
1 537 
1 538 
1 539 
1 540 
1 541 
1 542 
1 543 
1 544 
1 545 
1 546 
1 547 
1 548 
1 549 
1 550 
1 551 
1 552 
1 553 
1 554 
1 555 
1 556 
1 557 
1 558 
1 559 
1 560 
1 561 
1 562 
1 563 
1 564 
1 565 
1 566 
1 567 
1 568 
1 569 
1 570 
1 571 
1 572 
1 573 
1 574 
1 575 
1 576 
1 577 
1 578 
1 579 
1 580 
1 581 
1 582 
1 583 
1 584 
1 585 
1 586 
1 587 
1 588 
1 589 
1 590 
1 591 
1 592 
1 593 
1 594 
1 595 
1 596 
1 597 
1 598 
1 599 
1 600 
1 601 
1 602 
1 603 
1 604 
1 605 
1 606 
1 607 
1 608 
1 609 
1 610 
1 611 
1 612 
1 613 
1 614 
1 615 
1 616 
1 617 
1 618 
1 619 
1 620 
1 621 
1 622 
1 623 
1 624 
1 625 
1 626 
1 627 
1 628 
1 629 
1 630 
1 631 
1 632 
1 633 
1 634 
1 635 
1 636 
1 637 
1 638 
1 639 
1 640 
1 641 
1 642 
1 643 
1 644 
1 645 
1 646 
1 647 
1 648 
1 649 
1 650 
1 651 
1 652 
1 653 
1 654 
1 655 
1 656 
1 657 
1 658 
1 659 
1 660 
1 661 
1 662 
1 663 
1 664 
1 665 
1 666 
1 667 
1 668 
1 669 
1 670 
1 671 
1 672 
1 673 
1 674 
1 675 
1 676 
1 677 
1 678 
1 679 
1 680 
1 681 
1 682 
1 683 
1 684 
1 685 
1 686 
1 687 
1 688 
1 689 
1 690 
1 691 
1 692 
1 693 
1 694 
1 695 
1 696 
1 697 
1 698 
1 699 
1 700 
1 701 
1 702 
1 703 
1 704 
1 705 
1 706 
1 707 
1 708 
1 709 
1 710 
1 711 
1 712 
1 713 
1 714 
1 715 
1 716 
1 717 
1 718 
1 719 
1 720 
1 721 
1 722 
1 723 
1 724 
1 725 
1 726 
1 727 
1 728 
1 729 
1 730 
1 731 
1 732 
1 733 
1 734 
1 735 
1 736 
1 737 
1 738 
1 739 
1 740 
1 741 
1 742 
1 743 
1 744 
1 745 
1 746 
1 747 
1 748 
1 749 
1 750 
1 751 
1 752 
1 753 
1 754 
1 755 
1 756 
1 757 
1 758 
1 759 
1 760 
1 761 
1 762 
1 763 
1 764 
1 765 
1 766 
1 767 
1 768 
1 769 
1 770 
1 771 
1 772 
1 773 
1 774 
1 775 
1 776 
1 777 
1 778 
1 779 
1 780 
1 781 
1 782 
1 783 
1 784 
1 785 
1 786 
1 787 
1 788 
1 789 
1 790 
1 791 
1 792 
1 793 
1 794 
1 795 
1 796 
1 797 
1 798 
1 799 
1 800 
1 801 
1 802 
1 803 
1 804 
1 805 
1 806 
1 807 
1 808 
1 809 
1 810 
1 811 
1 812 
1 813 
1 814 
1 815 
1 816 
1 817 
1 818 
1 819 
1 820 
1 821 
1 822 
1 823 
1 824 
1 825 
1 826 
1 827 
1 828 
1 829 
1 830 
1 831 
1 832 
1 833 
1 834 
1 835 
1 836 
1 837 
1 838 
1 839 
1 840 
1 841 
1 842 
1 843 
1 844 
1 845 
1 846 
1 847 
1 848 
1 849 
1 850 
1 851 
1 852 
1 853 
1 854 
1 855 
1 856 
1 857 
1 858 
1 859 
1 860 
1 861 
1 862 
1 863 
1 864 
1 865 
1 866 
1 867 
1 868 
1 869 
1 870 
1 871 
1 872 
1 873 
1 874 
1 875 
1 876 
1 877 
1 878 
1 879 
1 880 
1 881 
1 882 
1 883 
1 884 
1 885 
1 886 
1 887 
1 888 
1 889 
1 890 
1 891 
1 892 
1 893 
1 894 
1 895 
1 896 
1 897 
1 898 
1 899 
1 900 
1 901 
1 902 
1 903 
1 904 
1 905 
1 906 
1 907 
1 908 
1 909 
1 910 
1 911 
1 912 
1 913 
1 914 
1 915 
1 916 
1 917 
1 918 
1 919 
1 920 
1 921 
1 922 
1 923 
1 924 
1 925 
1 926 
1 927 
1 928 
1 929 
1 930 
1 931 
1 932 
1 933 
1 934 
1 935 
1 936 
1 937 
1 938 
1 939 
1 940 
1 941 
1 942 
1 943 
1 944 
1 945 
1 946 
1 947 
1 948 
1 949 
1 950 
1 951 
1 952 
1 953 
1 954 
1 955 
1 956 
1 957 
1 958 
1 959 
1 960 
1 961 
1 962 
1 963 
1 964 
1 965 
1 966 
1 967 
1 968 
1 969 
1 970 
1 971 
1 972 
1 973 
1 974 
1 975 
1 976 
1 977 
1 978 
1 979 
1 980 
1 981 
1 982 
1 983 
1 984 
1 985 
1 986 
1 987 
1 988 
1 989 
1 990 
1 991 
1 992 
1 993 
1 994 
1 995 
1 996 
1 997 
1 998 
1 999 
1 1000 
1 1001 
1 1002 
1 1003 
1 1004 
1 1005 
1 1006 
1 1007 
1 1008 
1 1009 
1 1010 
1 1011 
1 1012 
1 1013 
1 1014 
1 1015 
1 1016 
1 1017 
1 1018 
1 1019 
1 1020 
1 1021 
1 1022 
1 1023 
1 1024 
1 1025 
1 1026 
1 1027 
1 1028 
1 1029 
1 1030 
1 1031 
1 1032 
1 1033 
1 1034 
1 1035 
1 1036 
1 1037 
1 1038 
1 1039 
1 1040 
1 1041 
1 1042 
1 1043 
1 1044 
1 1045 
1 1046 
1 1047 
1 1048 

POINT_DATA 1049
SCALARS id double
LOOKUP_TABLE default
980 1032 964 1027 978 1040 966 1045 993 
983 1004 945 977 1048 1036 1020 976 951 
1026 995 1008 954 933 990 1005 969 1041 
975 941 972 947 955 1024 1028 1037 989 
1042 936 942 939 1018 1014 1047 1033 968 
1016 930 960 987 932 998 985 1022 973 
962 999 929 1009 984 965 953 1038 1043 
988 1029 986 1007 950 997 1030 967 1012 
992 1025 979 1011 994 1044 949 1015 935 
952 971 1000 1019 958 937 943 959 946 
1021 944 1031 1017 934 957 931 1003 940 
1002 1035 1001 956 41 391 43 39 40 
390 42 388 0 389 49 48 45 46 
47 44 51 1 50 52 2 53 56 
59 55 57 58 54 60 64 62 63 
61 395 65 393 394 392 68 3 67 
66 69 73 72 70 71 75 78 77 
76 74 79 83 80 81 82 87 88 
85 84 86 89 90 93 91 92 4 
97 495 96 493 95 494 492 94 101 
100 102 99 98 104 105 107 106 103 
110 112 108 109 111 116 115 113 117 
114 121 119 120 118 122 558 559 123 
560 126 125 124 557 5 130 128 127 
129 131 132 134 136 133 135 141 139 
138 140 137 146 142 144 145 143 149 
150 147 148 151 156 6 153 590 155 
589 587 152 154 588 157 162 161 159 
158 160 164 163 7 1046 8 1013 166 
948 165 961 169 167 168 170 172 171 
173 174 176 175 177 180 178 181 179 
9 383 386 387 385 384 400 397 398 
396 399 490 489 491 488 487 555 552 
554 556 553 595 591 592 594 593 981 
974 1039 938 184 183 185 186 182 379 
378 382 380 381 402 403 404 401 405 
485 484 486 482 483 547 550 548 549 
551 597 600 598 599 596 1023 1010 189 
187 190 191 188 376 377 375 374 373 
1034 1006 410 406 409 408 407 478 480 
481 479 477 543 546 542 545 544 605 
602 601 604 603 192 195 193 196 194 
368 371 372 369 370 963 412 414 411 
415 413 472 473 476 474 475 537 538 
540 539 541 607 609 610 608 606 991 
199 200 198 201 197 364 363 366 367 
365 419 420 416 417 418 471 467 468 
469 470 533 534 536 532 535 614 612 
611 615 613 204 202 206 205 203 361 
358 360 362 359 422 424 421 423 425 
464 462 466 465 463 529 530 527 528 
531 616 618 617 620 619 982 210 209 
207 211 208 356 355 357 354 353 427 
428 430 429 426 458 457 461 459 460 
524 525 522 526 523 624 622 625 621 
623 213 215 216 214 212 349 351 352 
348 350 10 435 433 434 431 432 437 
440 439 441 436 438 442 11 443 12 
445 444 446 448 450 447 449 451 454 
455 456 452 453 497 498 499 500 496 
13 505 501 504 506 503 502 14 508 
507 15 509 510 514 512 515 516 513 
511 519 517 518 520 521 563 564 561 
562 565 16 570 569 567 566 568 571 
572 17 573 18 575 574 580 577 576 
579 581 578 586 585 582 584 583 19 
34 970 996 219 218 217 220 221 343 
347 345 344 346 226 224 222 225 223 
660 339 341 661 342 20 663 664 340 
662 21 22 665 667 668 666 672 671 
673 669 670 677 674 676 675 678 683 
682 681 679 680 687 713 716 717 715 
685 23 686 714 684 722 718 719 721 
720 723 724 725 36 727 726 37 733 
728 730 731 729 732 735 736 737 738 
734 741 742 739 24 634 632 631 633 
740 746 743 747 744 745 750 751 752 
748 749 756 757 755 753 754 762 759 
758 761 760 765 764 766 767 763 770 
771 772 768 769 774 773 776 777 775 
781 779 778 782 780 786 785 784 783 
787 790 789 792 788 791 794 796 795 
793 797 819 799 818 798 817 35 800 
820 801 802 803 804 805 806 808 811 
809 810 807 812 816 813 814 815 25 
627 629 626 628 26 630 230 27 229 
228 227 336 334 337 335 338 690 691 
688 689 692 639 635 636 638 637 825 
823 822 821 824 233 232 235 231 234 
333 330 331 329 332 693 694 695 697 
696 644 643 641 640 642 829 826 827 
828 830 239 236 238 237 240 328 325 
326 327 324 700 699 701 698 702 646 
647 645 649 648 833 834 832 831 835 
241 243 245 242 244 323 322 320 319 
321 705 704 703 707 706 653 654 651 
650 652 29 249 246 250 248 247 318 
316 314 317 315 710 709 708 712 711 
656 659 657 655 658 924 925 28 927 
926 928 255 251 254 253 252 310 313 
30 311 312 305 308 309 307 306 301 
304 302 300 303 297 298 296 295 299 
294 290 292 291 293 289 285 287 286 
288 281 282 31 284 283 280 277 276 
278 279 274 271 273 275 272 269 268 
266 270 267 265 263 261 262 264 260 
257 259 258 256 837 839 32 836 838 
843 842 841 844 840 845 849 846 848 
847 852 850 853 854 851 857 858 856 
859 855 864 860 861 863 862 867 865 
869 866 868 870 871 872 873 874 879 
875 877 876 878 882 884 883 881 880 
887 885 888 889 886 893 894 890 892 
891 38 895 898 896 897 899 900 901 
902 903 906 908 904 907 905 911 913 
912 910 909 918 915 916 917 914 923 
919 920 921 922 33 
FIELD FieldData 14
r 3 1049 double
-0.259493 -11.4511 0 -0.748477 -11.1241 0 0.793589 -11.2738 0 
0.22529 -11.1402 0 -1.49163 -10.7606 0 -1.22808 -10.2631 0 
-0.178633 -10.2703 0 -0.891245 -10.6034 0 -0.228052 -10.9319 0 
-0.416812 -10.6035 0 -0.649106 -10.1375 0 0.437667 -10.3465 0 
0.0914108 -10.6098 0 0.576805 -10.7771 0 0.0313009 -10.0014 0 
1.0735 -10.778 0 1.02733 -10.2352 0 1.53584 -10.47 0 
-2.09685 -9.19026 0 -1.65217 -9.96142 0 -1.2077 -9.39688 0 
-1.66771 -9.44411 0 -1.04536 -9.80829 0 -0.175521 -9.6057 0 
-0.467309 -9.75449 0 -0.316287 -9.17334 0 -0.725952 -9.37867 0 
0.583475 -9.41765 0 0.932299 -9.1344 0 0.975611 -9.66321 0 
0.142818 -9.2824 0 0.593235 -9.94125 0 0.225947 -9.75894 0 
1.42201 -9.87507 0 1.45178 -9.35162 0 -1.94804 -8.04318 0 
-1.85456 -8.64327 0 -1.4157 -8.95839 0 -0.0457961 -8.7451 0 
-0.529503 -8.7506 0 -0.304425 -8.34335 0 -0.925519 -8.45052 0 
-0.923419 -8.96122 0 0.44218 -8.85978 0 0.240118 -8.32134 0 
0.840558 -8.50626 0 1.33646 -8.76377 0 1.76497 -8.44099 0 
2.46844 -8.59749 0 3.01097 -8.01738 0 -3.90095 -7.55284 0 
-3.2085 -7.55307 0 2.15188 -7.98799 0 2.79379 -7.33721 0 
3.57908 -7.85954 0 3.35931 -7.2229 0 3.89083 -7.04334 0 
4.05178 -7.53868 0 -4.69052 -6.7427 0 -4.09785 -6.94163 0 
-4.15699 -6.20641 0 -3.25751 -6.89943 0 3.18816 -6.52759 0 
3.76467 -6.52714 0 4.67519 -6.08407 0 4.84891 -6.93007 0 
-5.03116 -5.90696 0 5.97136 -5.12337 0 6.3664 -5.71478 0 
6.9581 -5.39877 0 -8.40717 -4.04176 0 -7.18549 -4.52958 0 
-6.53255 -4.39395 0 5.95535 -4.46928 0 6.52027 -4.752 0 
7.26265 -4.97304 0 7.06494 -4.41962 0 7.62631 -4.55855 0 
7.39129 -4.00911 0 8.36787 -4.64946 0 -9.38789 -3.37447 0 
-8.87319 -3.56533 0 -7.90378 -3.40515 0 -7.11476 -3.88309 0 
6.29429 -3.97579 0 6.87312 -3.8097 0 7.62738 -3.41091 0 
8.30404 -3.97806 0 8.27267 -3.12003 0 9.25514 -3.41591 0 
-10.4115 -2.03628 0 -9.05873 -2.832 0 -9.56705 -2.08596 0 
-8.70582 -2.28147 0 8.80202 -2.56332 0 9.34518 -2.82845 0 
9.66148 -2.01542 0 -10.369 -1.43051 0 10.4495 -1.86718 0 
10.6772 -1.19457 0 11.2854 -0.914049 0 11.7881 -0.14305 0 
11.8285 -0.708821 0 -14.4643 0 0 -15 0.2 0 
-14.1071 0 0 -14.8214 0 0 -14.6429 0 0 
-15 0.4 0 -14.2857 0 0 -15 0.8 0 
-15 0 0 -15 0.6 0 -13.0357 0 0 
-13.2143 0 0 -13.75 0 0 -13.5714 0 0 
-13.3929 0 0 -13.9286 0 0 -12.6786 0 0 
-12.5 0 0 -12.8571 0 0 -11.3214 0 0 
-11.5 0 0 -11.1429 0 0 -10.6071 0 0 
-10.0714 0 0 -10.7857 0 0 -10.4286 0 0 
-10.25 0 0 -10.9643 0 0 -9.8929 0 0 
-9.1786 0 0 -9.5357 0 0 -9.3571 0 0 
-9.7143 0 0 -9 0.8 0 -8.8 0 0 
-9 0.4 0 -9 0.6 0 -9 0.2 0 
-8.2 0 0 -9 0 0 -8.4 0 0 
-8.6 0 0 -8 0 0 -7.2 0 0 
-7.4 0 0 -7.8 0 0 -7.6 0 0 
-6.8 0 0 -6.2 0 0 -6.4 0 0 
-6.6 0 0 -7 0 0 -6 0 0 
-5.2 0 0 -5.8 0 0 -5.6 0 0 
-5.4 0 0 -4.4 0 0 -4.2 0 0 
-4.8 0 0 -5 0 0 -4.6 0 0 
-4 0 0 -3.8 0 0 -3.2 0 0 
-3.6 0 0 -3.4 0 0 -3 0 0 
-2.2 0 0 -3 0.2 0 -2.4 0 0 
-3 0.6 0 -2.6 0 0 -3 0.4 0 
-3 0.8 0 -2.8 0 0 -1.4 0 0 
-1.6 0 0 -1.2 0 0 -1.8 0 0 
-2 0 0 -0.8 0 0 -0.6 0 0 
-0.2 0 0 -0.4 0 0 -1 0 0 
0.4 0 0 0.8 0 0 -0 0 0 
0.2 0 0 0.6 0 0 1.6 0 0 
1.4 0 0 1 0 0 1.8 0 0 
1.2 0 0 2.6 0 0 2.2 0 0 
2.4 0 0 2 0 0 2.8 0 0 
3 0.6 0 3 0.4 0 3.2 0 0 
3 0.2 0 3.8 0 0 3.6 0 0 
3.4 0 0 3 0.8 0 3 0 0 
4.6 0 0 4.2 0 0 4 0 0 
4.4 0 0 4.8 0 0 5 0 0 
5.4 0 0 5.8 0 0 5.2 0 0 
5.6 0 0 6.8 0 0 6.4 0 0 
6.2 0 0 6.6 0 0 6 0 0 
7.8 0 0 7 0 0 7.4 0 0 
7.6 0 0 7.2 0 0 8.4 0 0 
8.6 0 0 8 0 0 8.2 0 0 
8.8 0 0 9.8929 0 0 9 0 0 
9.3571 0 0 9 0.8 0 9.7143 0 0 
9 0.6 0 9 0.2 0 9.1786 0 0 
9.5357 0 0 9 0.4 0 10.0714 0 0 
10.9643 0 0 10.7857 0 0 10.4286 0 0 
10.25 0 0 10.6071 0 0 11.3214 0 0 
11.1429 0 0 11.5 0 0 11.6618 0.491624 0 
12.5 0 0 12.2479 0.131308 0 12.8571 0 0 
12.821 0.52938 0 12.6786 0 0 12.2684 0.633898 0 
13.3929 0 0 13.0357 0 0 13.2143 0 0 
13.5714 0 0 13.9286 0 0 13.75 0 0 
14.1071 0 0 14.2857 0 0 14.6429 0 0 
14.4643 0 0 14.8214 0 0 15 0.6 0 
15 0.2 0 15 0.8 0 15 0.4 0 
15 0 0 -15 1.8 0 -15 1.2 0 
-15 1 0 -15 1.4 0 -15 1.6 0 
-9 1.8 0 -9 1.2 0 -9 1.4 0 
-9 1 0 -9 1.6 0 -3 1.2 0 
-3 1.4 0 -3 1 0 -3 1.6 0 
-3 1.8 0 3 1.2 0 3 1.8 0 
3 1.4 0 3 1 0 3 1.6 0 
9 1.8 0 9 1 0 9 1.2 0 
9 1.6 0 9 1.4 0 11.1466 1.62568 0 
11.4615 1.11962 0 12.0762 1.14165 0 12.381 1.61501 0 
15 1.4 0 15 1.2 0 15 1.6 0 
15 1.8 0 15 1 0 -15 2.6 0 
-15 2.8 0 -15 2 0 -15 2.4 0 
-15 2.2 0 -9 2.2 0 -9 2.4 0 
-9 2.6 0 -9 2 0 -9 2.8 0 
-3 2.2 0 -3 2.4 0 -3 2 0 
-3 2.8 0 -3 2.6 0 3 2.8 0 
3 2.2 0 3 2.6 0 3 2.4 0 
3 2 0 9 2.2 0 9 2.8 0 
9 2.4 0 9 2.6 0 9 2 0 
11.7256 2.07253 0 11.2178 2.47285 0 15 2.4 0 
15 2 0 15 2.6 0 15 2.8 0 
15 2.2 0 -15 3.2 0 -15 3 0 
-15 3.4 0 -15 3.6 0 -15 3.8 0 
-11.1703 3.26366 0 -10.8056 3.6973 0 -9 3.8 0 
-9 3 0 -9 3.6 0 -9 3.4 0 
-9 3.2 0 -3 3.6 0 -3 3.2 0 
-3 3 0 -3 3.4 0 -3 3.8 0 
3 3.6 0 3 3 0 3 3.8 0 
3 3.2 0 3 3.4 0 9 3.8 0 
9 3.2 0 9 3 0 9 3.6 0 
9 3.4 0 15 3 0 15 3.6 0 
15 3.2 0 15 3.8 0 15 3.4 0 
-15 4.8 0 -15 4.2 0 -15 4 0 
-15 4.6 0 -15 4.4 0 -10.6698 4.44713 0 
-9 4.2 0 -9 4.6 0 -9 4 0 
-9 4.8 0 -9 4.4 0 -3 4.8 0 
-3 4.6 0 -3 4 0 -3 4.4 0 
-3 4.2 0 3 4.8 0 3 4.6 0 
3 4.2 0 3 4.4 0 3 4 0 
9 4.2 0 9 4.6 0 9 4.8 0 
9 4.4 0 9 4 0 12.7019 4.63552 0 
15 4.4 0 15 4.6 0 15 4.2 0 
15 4.8 0 15 4 0 -15 5.6 0 
-15 5.8 0 -15 5.2 0 -15 5 0 
-15 5.4 0 -9 5.6 0 -9 5.8 0 
-9 5 0 -9 5.2 0 -9 5.4 0 
-3 5 0 -3 5.8 0 -3 5.6 0 
-3 5.4 0 -3 5.2 0 3 5.6 0 
3 5.4 0 3 5 0 3 5.8 0 
3 5.2 0 9 5.6 0 9 5.2 0 
9 5 0 9 5.8 0 9 5.4 0 
15 5.4 0 15 5 0 15 5.8 0 
15 5.6 0 15 5.2 0 -15 6.2 0 
-15 6.8 0 -15 6.4 0 -15 6 0 
-15 6.6 0 -9 6.2 0 -9 6.6 0 
-9 6 0 -9 6.4 0 -9 6.8 0 
-3 6.4 0 -3 6.8 0 -3 6 0 
-3 6.2 0 -3 6.6 0 3 6.4 0 
3 6.2 0 3 6.8 0 3 6.6 0 
3 6 0 9 6 0 9 6.4 0 
9 6.2 0 9 6.8 0 9 6.6 0 
12.9198 6.06971 0 15 6.6 0 15 6.4 0 
15 6 0 15 6.8 0 15 6.2 0 
-15 7.2 0 -15 7.4 0 -15 7 0 
-15 7.6 0 -15 7.8 0 -9 7.2 0 
-9 7.4 0 -9 7.8 0 -9 7.6 0 
-9 7 0 -3 7.6 0 -3 7.8 0 
-3 7 0 -3 7.4 0 -3 7.2 0 
3 7.4 0 3 7.2 0 3 7.8 0 
3 7 0 3 7.6 0 9 7.6 0 
9 7.2 0 9 7.8 0 9 7 0 
9 7.4 0 15 7.2 0 15 7.6 0 
15 7.8 0 15 7.4 0 15 7 0 
-15 8.6 0 -15 8.2 0 -15 8 0 
-15 8.8 0 -15 8.4 0 -9 8 0 
-8.1071 8 0 -8.4643 8 0 -8.2857 8 0 
-8.8214 8 0 -8.6429 8 0 -7.75 8 0 
-7.2143 8 0 -7.3929 8 0 -7.0357 8 0 
-7.9286 8 0 -7.5714 8 0 -6.8571 8 0 
-6.5 8 0 -6.6786 8 0 -5.5 8 0 
-5.1429 8 0 -5.3214 8 0 -4.9643 8 0 
-4.6071 8 0 -4.25 8 0 -4.7857 8 0 
-4.4286 8 0 -4.0714 8 0 -3.5357 8 0 
-3.3571 8 0 -3.1786 8 0 -3.8929 8 0 
-3.7143 8 0 -2.6429 8 0 -2.4643 8 0 
-2.2857 8 0 -2.1071 8 0 -2.8214 8 0 
-3 8 0 -1.2143 8 0 -1.9286 8 0 
-1.3929 8 0 -1.0357 8 0 -1.5714 8 0 
-1.75 8 0 -0.5 8 0 -0.6786 8 0 
-0.8571 8 0 0.5 8 0 0.6786 8 0 
0.8571 8 0 1.5714 8 0 1.2143 8 0 
1.75 8 0 1.9286 8 0 1.3929 8 0 
1.0357 8 0 2.4643 8 0 2.1071 8 0 
2.2857 8 0 2.6429 8 0 2.8214 8 0 
3.5357 8 0 3.7143 8 0 3.1786 8 0 
3.3571 8 0 3.8929 8 0 3 8 0 
4.7857 8 0 4.6071 8 0 4.25 8 0 
4.0714 8 0 4.4286 8 0 4.9643 8 0 
5.1429 8 0 5.5 8 0 5.3214 8 0 
6.5 8 0 6.8571 8 0 6.6786 8 0 
7.75 8 0 7.2143 8 0 7.0357 8 0 
7.5714 8 0 7.9286 8 0 7.3929 8 0 
8.8214 8 0 8.6429 8 0 8.1071 8 0 
8.4643 8 0 8.2857 8 0 9 8 0 
9 8 0 13.2301 8.03576 0 13.3557 8.95604 0 
15 8.4 0 15 8.2 0 15 8 0 
15 8.6 0 15 8.8 0 -15 9.8 0 
-15 9 0 -15 9.4 0 -15 9.6 0 
-15 9.2 0 15 9.8 0 15 9.4 0 
15 9 0 15 9.6 0 15 9.2 0 
-14.8333 10 0 -15 10.8 0 -15 10.4 0 
-14.6667 10 0 -15 10.2 0 -15 10 0 
-14.3333 10 0 -14.1667 10 0 -15 10.6 0 
-14.5 10 0 -14 10 0 -13 10 0 
-12.8 10 0 -12.4 10 0 -12.2 10 0 
-12.6 10 0 -11.4 10 0 -11.6 10 0 
-11.2 10 0 -12 10 0 -11.8 10 0 
-10.4 10 0 -11 10 0 -10.6 10 0 
-10.8 10 0 -10.2 10 0 -9.2 10 0 
-9.4 10 0 -9.6 10 0 -10 10 0 
-9.8 10 0 -9 10.8 0 -8.8214 10 0 
-8.2857 10 0 -8.1071 10 0 -8.4643 10 0 
-9 10.4 0 -9 10 0 -9 10.6 0 
-8.6429 10 0 -9 10.2 0 -7.2143 10 0 
-7.9286 10 0 -7.75 10 0 -7.3929 10 0 
-7.5714 10 0 -7.0357 10 0 -6.8571 10 0 
-6.6786 10 0 -6.5 10 0 -5.1429 10 0 
-5.3214 10 0 -5.5 10 0 -4.0714 10 0 
-4.9643 10 0 -4.6071 10 0 -4.4286 10 0 
-4.7857 10 0 -4.25 10 0 -3.7143 10 0 
-3.5357 10 0 -3.3571 10 0 -3.1786 10 0 
-3.8929 10 0 -2.4 10 0 -2.2 10 0 
-2.8 10 0 -3 10 0 -3 10.8 0 
-3 10.4 0 -3 10.2 0 -3 10.6 0 
-2.6 10 0 -1.4 10 0 -2 10 0 
-1.2 10 0 -1.8 10 0 -1.6 10 0 
-0.6 10 0 -0.4 10 0 -0.2 10 0 
-1 10 0 -0.8 10 0 0.6 10 0 
0.8 10 0 0.4 10 0 -0 10 0 
0.2 10 0 1.8 10 0 1.2 10 0 
1 10 0 1.6 10 0 1.4 10 0 
2.4 10 0 2.2 10 0 2.6 10 0 
2.8 10 0 2 10 0 3.4 10 0 
3.6 10 0 3.8 10 0 3 10 0 
3.2 10 0 4.2 10 0 4 10 0 
4.6 10 0 4.8 10 0 4.4 10 0 
5.6 10 0 5.2 10 0 5 10 0 
5.8 10 0 5.4 10 0 6.6 10 0 
6.4 10 0 6.2 10 0 6 10 0 
6.8 10 0 7.4 10 0 7.2 10 0 
7.8 10 0 7 10 0 7.6 10 0 
8.2 10 0 8.6 10 0 8.4 10 0 
8 10 0 8.8 10 0 9 10.6 0 
9.4 10 0 9 10.4 0 9.2 10 0 
9 10.2 0 9 10 0 9.6 10 0 
9 10.8 0 9.8 10 0 10 10 0 
10.2 10 0 10.4 10 0 10.6 10 0 
10.8 10 0 11.2 10 0 11.8 10 0 
11.4 10 0 11.6 10 0 11 10 0 
12 10 0 12.8 10 0 12.2 10 0 
12.4 10 0 12.6 10 0 13 10 0 
14.6667 10 0 14.3333 10 0 14.8333 10 0 
14.5 10 0 14 10 0 14.1667 10 0 
15 10.8 0 15 10 0 15 10.6 0 
15 10.4 0 15 10.2 0 -15 11.4 0 
-15 11.8 0 -15 11.2 0 -15 11.6 0 
-15 11 0 -9 11.4 0 -9 11.6 0 
-9 11 0 -9 11.2 0 -9 11.8 0 
-3 11.8 0 -3 11 0 -3 11.2 0 
-3 11.6 0 -3 11.4 0 9 11.8 0 
9 11.4 0 9 11.2 0 9 11 0 
9 11.6 0 15 11.4 0 15 11.2 0 
15 11.8 0 15 11 0 15 11.6 0 
-15 12 0 -15 12.6 0 -15 12.4 0 
-15 12.8 0 -15 12.2 0 -9 12 0 
-9 12.2 0 -9 12.4 0 -9 12.8 0 
-9 12.6 0 -3 12.8 0 -3 12.6 0 
-3 12.2 0 -3 12 0 -3 12.4 0 
9 12.6 0 9 12 0 9 12.2 0 
9 12.4 0 9 12.8 0 15 12.6 0 
15 12 0 15 12.4 0 15 12.2 0 
15 12.8 0 -15 13 0 -15 13.6 0 
-15 13.4 0 -15 13.2 0 -15 13.8 0 
-9 13.4 0 -9 13.2 0 -9 13.6 0 
-9 13 0 -9 13.8 0 -3 13.2 0 
-3 13.4 0 -3 13 0 -3 13.8 0 
-3 13.6 0 9 13.4 0 9 13.6 0 
9 13.2 0 9 13 0 9 13.8 0 
15 13 0 15 13.4 0 15 13.8 0 
15 13.2 0 15 13.6 0 -15 14 0 
-15 14.2 0 -15 14.6 0 -15 14.8 0 
-15 14.4 0 -9 14.4 0 -9 14.2 0 
-9 14 0 -9 14.8 0 -9 14.6 0 
-3 14.6 0 -3 14.8 0 -3 14.2 0 
-3 14 0 -3 14.4 0 9 14 0 
15 14.6 0 15 14 0 15 14.8 0 
15 14.4 0 15 14.2 0 -15 15 0 
-15 15.4 0 -15 15.8 0 -15 15.2 0 
-15 15.6 0 -9 15.4 0 -9 15.2 0 
-9 15 0 -9 15.8 0 -9 15.6 0 
-3 15.2 0 -3 15.8 0 -3 15.4 0 
-3 15 0 -3 15.6 0 9 15.1667 0 
9 15.3333 0 9 15 0 9 15.6667 0 
9 15.5 0 9 15.8333 0 15 15.8 0 
15 15 0 15 15.6 0 15 15.4 0 
15 15.2 0 -14.2 16 0 -14.8 16 0 
-15 16 0 -14.4 16 0 -14.6 16 0 
-13.2 16 0 -13.8 16 0 -14 16 0 
-13.6 16 0 -13.4 16 0 -12.4 16 0 
-13 16 0 -12.6 16 0 -12.2 16 0 
-12.8 16 0 -11.6 16 0 -11.8 16 0 
-11.4 16 0 -11.2 16 0 -12 16 0 
-11 16 0 -10.2 16 0 -10.6 16 0 
-10.4 16 0 -10.8 16 0 -10 16 0 
-9.2 16 0 -9.6 16 0 -9.4 16 0 
-9.8 16 0 -8.2 16 0 -8.4 16 0 
-9 16 0 -8.8 16 0 -8.6 16 0 
-8 16 0 -7.4 16 0 -7.2 16 0 
-7.6 16 0 -7.8 16 0 -6.8 16 0 
-6.2 16 0 -6.6 16 0 -7 16 0 
-6.4 16 0 -5.8 16 0 -5.6 16 0 
-5.2 16 0 -6 16 0 -5.4 16 0 
-5 16 0 -4.6 16 0 -4.2 16 0 
-4.4 16 0 -4.8 16 0 -4 16 0 
-3.4 16 0 -3.8 16 0 -3.6 16 0 
-3.2 16 0 -2.6 16 0 -2.2 16 0 
-3 16 0 -2.8 16 0 -2.4 16 0 
-1.4 16 0 -1.6 16 0 -1.8 16 0 
-1.2 16 0 -2 16 0 -1 16 0 
-0.2 16 0 -0.8 16 0 -0.4 16 0 
-0.6 16 0 0.4 16 0 -0 16 0 
0.6 16 0 0.8 16 0 0.2 16 0 
1.4 16 0 1.6 16 0 1.2 16 0 
1.8 16 0 1 16 0 2.8 16 0 
2 16 0 2.2 16 0 2.6 16 0 
2.4 16 0 3.4 16 0 3 16 0 
3.8 16 0 3.2 16 0 3.6 16 0 
4 16 0 4.2 16 0 4.4 16 0 
4.6 16 0 4.8 16 0 5.8 16 0 
5 16 0 5.4 16 0 5.2 16 0 
5.6 16 0 6.4 16 0 6.8 16 0 
6.6 16 0 6.2 16 0 6 16 0 
7.4 16 0 7 16 0 7.6 16 0 
7.8 16 0 7.2 16 0 8.6 16 0 
8.8 16 0 8 16 0 8.4 16 0 
8.2 16 0 9 16 0 9.2 16 0 
9.8 16 0 9.4 16 0 9.6 16 0 
10 16 0 10.2 16 0 10.4 16 0 
10.6 16 0 10.8 16 0 11.4 16 0 
11.8 16 0 11 16 0 11.6 16 0 
11.2 16 0 12.4 16 0 12.8 16 0 
12.6 16 0 12.2 16 0 12 16 0 
13.8 16 0 13.2 16 0 13.4 16 0 
13.6 16 0 13 16 0 14.8 16 0 
14 16 0 14.2 16 0 14.4 16 0 
14.6 16 0 15 16 0 
gid 1 1049 double
1 1 1 1 1 1 1 1 1 
1 1 1 1 1 1 1 1 1 
1 1 1 1 1 1 1 1 1 
1 1 1 1 1 1 1 1 1 
1 1 1 1 1 1 1 1 1 
1 1 1 1 1 1 1 1 1 
1 1 1 1 1 1 1 1 1 
1 1 1 1 1 1 1 1 1 
1 1 1 1 1 1 1 1 1 
1 1 1 1 1 1 1 1 1 
1 1 1 1 1 1 1 1 1 
1 1 1 1 2 2 2 2 2 
2 2 2 2 2 2 2 2 2 
2 2 2 2 2 2 2 2 2 
2 2 2 2 2 2 2 2 2 
2 2 2 2 2 2 2 2 2 
2 2 2 2 2 2 2 2 2 
2 2 2 2 2 2 2 2 2 
2 2 2 2 2 2 2 2 2 
2 2 2 2 2 2 2 2 2 
2 2 2 2 2 2 2 2 2 
2 2 2 2 2 2 2 2 2 
2 2 2 2 2 2 2 2 2 
2 2 2 2 2 2 2 2 2 
2 2 2 2 2 2 2 2 2 
2 2 2 2 2 2 2 2 2 
2 2 2 2 2 2 2 2 2 
2 2 2 2 2 2 2 2 2 
2 2 2 2 2 1 2 1 2 
1 2 1 2 2 2 2 2 2 
2 2 2 2 2 2 2 2 2 
2 2 2 2 2 2 2 2 2 
2 2 2 2 2 2 2 2 2 
2 2 2 2 2 2 2 2 1 
1 1 1 2 2 2 2 2 2 
2 2 2 2 2 2 2 2 2 
2 2 2 2 2 2 2 2 2 
2 2 2 2 2 2 1 1 2 
2 2 2 2 2 2 2 2 2 
1 1 2 2 2 2 2 2 2 
2 2 2 2 2 2 2 2 2 
2 2 2 2 2 2 2 2 2 
2 2 2 2 2 1 2 2 2 
2 2 2 2 2 2 2 2 2 
2 2 2 2 2 2 2 2 1 
2 2 2 2 2 2 2 2 2 
2 2 2 2 2 2 2 2 2 
2 2 2 2 2 2 2 2 2 
2 2 2 2 2 2 2 2 2 
2 2 2 2 2 2 2 2 2 
2 2 2 2 2 2 2 2 2 
2 2 2 2 2 2 1 2 2 
2 2 2 2 2 2 2 2 2 
2 2 2 2 2 2 2 2 2 
2 2 2 2 2 2 2 2 2 
2 2 2 2 2 2 2 2 2 
2 2 2 2 2 2 2 2 2 
2 2 2 2 2 2 2 2 2 
2 2 2 2 2 2 2 2 2 
2 2 2 2 2 2 2 2 2 
2 2 2 2 2 2 2 2 2 
2 2 2 2 2 2 2 2 2 
2 2 2 2 2 2 2 2 2 
2 2 2 2 2 2 2 2 2 
2 2 2 2 2 2 2 2 2 
2 2 2 2 2 2 2 2 2 
2 1 1 2 2 2 2 2 2 
2 2 2 2 2 2 2 2 2 
2 2 2 2 2 2 2 2 2 
2 2 2 2 2 2 2 2 2 
2 2 2 2 2 2 2 2 2 
2 2 2 2 2 2 2 2 2 
2 2 2 2 2 2 2 2 2 
2 2 2 2 2 2 2 2 2 
2 2 2 2 2 2 2 2 2 
2 2 2 2 2 2 2 2 2 
2 2 2 2 2 2 2 2 2 
2 2 2 2 2 2 2 2 2 
2 2 2 2 2 2 2 2 2 
2 2 2 2 2 2 2 2 2 
2 2 2 2 2 2 2 2 2 
2 2 2 2 2 2 2 2 2 
2 2 2 2 2 2 2 2 2 
2 2 2 2 2 2 2 2 2 
2 2 2 2 2 2 2 2 2 
2 2 2 2 2 2 2 2 2 
2 2 2 2 2 2 2 2 2 
2 2 2 2 2 2 2 2 2 
2 2 2 2 2 2 2 2 2 
2 2 2 2 2 2 2 2 2 
2 2 2 2 2 2 2 2 2 
2 2 2 2 2 2 2 2 2 
2 2 2 2 2 2 2 2 2 
2 2 2 2 2 2 2 2 2 
2 2 2 2 2 2 2 2 2 
2 2 2 2 2 2 2 2 2 
2 2 2 2 2 2 2 2 2 
2 2 2 2 2 2 2 2 2 
2 2 2 2 2 2 2 2 2 
2 2 2 2 2 2 2 2 2 
2 2 2 2 2 2 2 2 2 
2 2 2 2 2 2 2 2 2 
2 2 2 2 2 2 2 2 2 
2 2 2 2 2 2 2 2 2 
2 2 2 2 2 2 2 2 2 
2 2 2 2 2 2 2 2 2 
2 2 2 2 2 2 2 2 2 
2 2 2 2 2 2 2 2 2 
2 2 2 2 2 2 2 2 2 
2 2 2 2 2 2 2 2 2 
2 2 2 2 2 2 2 2 2 
2 2 2 2 2 2 2 2 2 
2 2 2 2 2 2 2 2 2 
2 2 2 2 2 2 2 2 2 
2 2 2 2 2 2 2 2 2 
2 2 2 2 2 2 2 2 2 
2 2 2 2 2 
A 1 1049 double
10 10 10 10 10 10 10 10 10 
10 10 10 10 10 10 10 10 10 
10 10 10 10 10 10 10 10 10 
10 10 10 10 10 10 10 10 10 
10 10 10 10 10 10 10 10 10 
10 10 10 10 10 10 10 10 10 
10 10 10 10 10 10 10 10 10 
10 10 10 10 10 10 10 10 10 
10 10 10 10 10 10 10 10 10 
10 10 10 10 10 10 10 10 10 
10 10 10 10 10 10 10 10 10 
10 10 10 10 10 10 10 10 10 
10 10 10 10 10 10 10 10 10 
10 10 10 10 10 10 10 10 10 
10 10 10 10 10 10 10 10 10 
10 10 10 10 10 10 10 10 10 
10 10 10 10 10 10 10 10 10 
10 10 10 10 10 10 10 10 10 
10 10 10 10 10 10 10 10 10 
10 10 10 10 10 10 10 10 10 
10 10 10 10 10 10 10 10 10 
10 10 10 10 10 10 10 10 10 
10 10 10 10 10 10 10 10 10 
10 10 10 10 10 10 10 10 10 
10 10 10 10 10 10 10 10 10 
10 10 10 10 10 10 10 10 10 
10 10 10 10 10 10 10 10 10 
10 10 10 10 10 10 10 10 10 
10 10 10 10 10 10 10 10 10 
10 10 10 10 10 10 10 10 10 
10 10 10 10 10 10 10 10 10 
10 10 10 10 10 10 10 10 10 
10 10 10 10 10 10 10 10 10 
10 10 10 10 10 10 10 10 10 
10 10 10 10 10 10 10 10 10 
10 10 10 10 10 10 10 10 10 
10 10 10 10 10 10 10 10 10 
10 10 10 10 10 10 10 10 10 
10 10 10 10 10 10 10 10 10 
10 10 10 10 10 10 10 10 10 
10 10 10 10 10 10 10 10 10 
10 10 10 10 10 10 10 10 10 
10 10 10 10 10 10 10 10 10 
10 10 10 10 10 10 10 10 10 
10 10 10 10 10 10 10 10 10 
10 10 10 10 10 10 10 10 10 
10 10 10 10 10 10 10 10 10 
10 10 10 10 10 10 10 10 10 
10 10 10 10 10 10 10 10 10 
10 10 10 10 10 10 10 10 10 
10 10 10 10 10 10 10 10 10 
10 10 10 10 10 10 10 10 10 
10 10 10 10 10 10 10 10 10 
10 10 10 10 10 10 10 10 10 
10 10 10 10 10 10 10 10 10 
10 10 10 10 10 10 10 10 10 
10 10 10 10 10 10 10 10 10 
10 10 10 10 10 10 10 10 10 
10 10 10 10 10 10 10 10 10 
10 10 10 10 10 10 10 10 10 
10 10 10 10 10 10 10 10 10 
10 10 10 10 10 10 10 10 10 
10 10 10 10 10 10 10 10 10 
10 10 10 10 10 10 10 10 10 
10 10 10 10 10 10 10 10 10 
10 10 10 10 10 10 10 10 10 
10 10 10 10 10 10 10 10 10 
10 10 10 10 10 10 10 10 10 
10 10 10 10 10 10 10 10 10 
10 10 10 10 10 10 10 10 10 
10 10 10 10 10 10 10 10 10 
10 10 10 10 10 10 10 10 10 
10 10 10 10 10 10 10 10 10 
10 10 10 10 10 10 10 10 10 
10 10 10 10 10 10 10 10 10 
10 10 10 10 10 10 10 10 10 
10 10 10 10 10 10 10 10 10 
10 10 10 10 10 10 10 10 10 
10 10 10 10 10 10 10 10 10 
10 10 10 10 10 10 10 10 10 
10 10 10 10 10 10 10 10 10 
10 10 10 10 10 10 10 10 10 
10 10 10 10 10 10 10 10 10 
10 10 10 10 10 10 10 10 10 
10 10 10 10 10 10 10 10 10 
10 10 10 10 10 10 10 10 10 
10 10 10 10 10 10 10 10 10 
10 10 10 10 10 10 10 10 10 
10 10 10 10 10 10 10 10 10 
10 10 10 10 10 10 10 10 10 
10 10 10 10 10 10 10 10 10 
10 10 10 10 10 10 10 10 10 
10 10 10 10 10 10 10 10 10 
10 10 10 10 10 10 10 10 10 
10 10 10 10 10 10 10 10 10 
10 10 10 10 10 10 10 10 10 
10 10 10 10 10 10 10 10 10 
10 10 10 10 10 10 10 10 10 
10 10 10 10 10 10 10 10 10 
10 10 10 10 10 10 10 10 10 
10 10 10 10 10 10 10 10 10 
10 10 10 10 10 10 10 10 10 
10 10 10 10 10 10 10 10 10 
10 10 10 10 10 10 10 10 10 
10 10 10 10 10 10 10 10 10 
10 10 10 10 10 10 10 10 10 
10 10 10 10 10 10 10 10 10 
10 10 10 10 10 10 10 10 10 
10 10 10 10 10 10 10 10 10 
10 10 10 10 10 10 10 10 10 
10 10 10 10 10 10 10 10 10 
10 10 10 10 10 10 10 10 10 
10 10 10 10 10 10 10 10 10 
10 10 10 10 10 10 10 10 10 
10 10 10 10 10 10 10 10 10 
10 10 10 10 10 10 10 10 10 
10 10 10 10 10 
B 1 1049 double
0.2 0.2 0.2 0.2 0.2 0.2 0.2 0.2 0.2 
0.2 0.2 0.2 0.2 0.2 0.2 0.2 0.2 0.2 
0.2 0.2 0.2 0.2 0.2 0.2 0.2 0.2 0.2 
0.2 0.2 0.2 0.2 0.2 0.2 0.2 0.2 0.2 
0.2 0.2 0.2 0.2 0.2 0.2 0.2 0.2 0.2 
0.2 0.2 0.2 0.2 0.2 0.2 0.2 0.2 0.2 
0.2 0.2 0.2 0.2 0.2 0.2 0.2 0.2 0.2 
0.2 0.2 0.2 0.2 0.2 0.2 0.2 0.2 0.2 
0.2 0.2 0.2 0.2 0.2 0.2 0.2 0.2 0.2 
0.2 0.2 0.2 0.2 0.2 0.2 0.2 0.2 0.2 
0.2 0.2 0.2 0.2 0.2 0.2 0.2 0.2 0.2 
0.2 0.2 0.2 0.2 0.2 0.2 0.2 0.2 0.2 
0.2 0.2 0.2 0.2 0.2 0.2 0.2 0.2 0.2 
0.2 0.2 0.2 0.2 0.2 0.2 0.2 0.2 0.2 
0.2 0.2 0.2 0.2 0.2 0.2 0.2 0.2 0.2 
0.2 0.2 0.2 0.2 0.2 0.2 0.2 0.2 0.2 
0.2 0.2 0.2 0.2 0.2 0.2 0.2 0.2 0.2 
0.2 0.2 0.2 0.2 0.2 0.2 0.2 0.2 0.2 
0.2 0.2 0.2 0.2 0.2 0.2 0.2 0.2 0.2 
0.2 0.2 0.2 0.2 0.2 0.2 0.2 0.2 0.2 
0.2 0.2 0.2 0.2 0.2 0.2 0.2 0.2 0.2 
0.2 0.2 0.2 0.2 0.2 0.2 0.2 0.2 0.2 
0.2 0.2 0.2 0.2 0.2 0.2 0.2 0.2 0.2 
0.2 0.2 0.2 0.2 0.2 0.2 0.2 0.2 0.2 
0.2 0.2 0.2 0.2 0.2 0.2 0.2 0.2 0.2 
0.2 0.2 0.2 0.2 0.2 0.2 0.2 0.2 0.2 
0.2 0.2 0.2 0.2 0.2 0.2 0.2 0.2 0.2 
0.2 0.2 0.2 0.2 0.2 0.2 0.2 0.2 0.2 
0.2 0.2 0.2 0.2 0.2 0.2 0.2 0.2 0.2 
0.2 0.2 0.2 0.2 0.2 0.2 0.2 0.2 0.2 
0.2 0.2 0.2 0.2 0.2 0.2 0.2 0.2 0.2 
0.2 0.2 0.2 0.2 0.2 0.2 0.2 0.2 0.2 
0.2 0.2 0.2 0.2 0.2 0.2 0.2 0.2 0.2 
0.2 0.2 0.2 0.2 0.2 0.2 0.2 0.2 0.2 
0.2 0.2 0.2 0.2 0.2 0.2 0.2 0.2 0.2 
0.2 0.2 0.2 0.2 0.2 0.2 0.2 0.2 0.2 
0.2 0.2 0.2 0.2 0.2 0.2 0.2 0.2 0.2 
0.2 0.2 0.2 0.2 0.2 0.2 0.2 0.2 0.2 
0.2 0.2 0.2 0.2 0.2 0.2 0.2 0.2 0.2 
0.2 0.2 0.2 0.2 0.2 0.2 0.2 0.2 0.2 
0.2 0.2 0.2 0.2 0.2 0.2 0.2 0.2 0.2 
0.2 0.2 0.2 0.2 0.2 0.2 0.2 0.2 0.2 
0.2 0.2 0.2 0.2 0.2 0.2 0.2 0.2 0.2 
0.2 0.2 0.2 0.2 0.2 0.2 0.2 0.2 0.2 
0.2 0.2 0.2 0.2 0.2 0.2 0.2 0.2 0.2 
0.2 0.2 0.2 0.2 0.2 0.2 0.2 0.2 0.2 
0.2 0.2 0.2 0.2 0.2 0.2 0.2 0.2 0.2 
0.2 0.2 0.2 0.2 0.2 0.2 0.2 0.2 0.2 
0.2 0.2 0.2 0.2 0.2 0.2 0.2 0.2 0.2 
0.2 0.2 0.2 0.2 0.2 0.2 0.2 0.2 0.2 
0.2 0.2 0.2 0.2 0.2 0.2 0.2 0.2 0.2 
0.2 0.2 0.2 0.2 0.2 0.2 0.2 0.2 0.2 
0.2 0.2 0.2 0.2 0.2 0.2 0.2 0.2 0.2 
0.2 0.2 0.2 0.2 0.2 0.2 0.2 0.2 0.2 
0.2 0.2 0.2 0.2 0.2 0.2 0.2 0.2 0.2 
0.2 0.2 0.2 0.2 0.2 0.2 0.2 0.2 0.2 
0.2 0.2 0.2 0.2 0.2 0.2 0.2 0.2 0.2 
0.2 0.2 0.2 0.2 0.2 0.2 0.2 0.2 0.2 
0.2 0.2 0.2 0.2 0.2 0.2 0.2 0.2 0.2 
0.2 0.2 0.2 0.2 0.2 0.2 0.2 0.2 0.2 
0.2 0.2 0.2 0.2 0.2 0.2 0.2 0.2 0.2 
0.2 0.2 0.2 0.2 0.2 0.2 0.2 0.2 0.2 
0.2 0.2 0.2 0.2 0.2 0.2 0.2 0.2 0.2 
0.2 0.2 0.2 0.2 0.2 0.2 0.2 0.2 0.2 
0.2 0.2 0.2 0.2 0.2 0.2 0.2 0.2 0.2 
0.2 0.2 0.2 0.2 0.2 0.2 0.2 0.2 0.2 
0.2 0.2 0.2 0.2 0.2 0.2 0.2 0.2 0.2 
0.2 0.2 0.2 0.2 0.2 0.2 0.2 0.2 0.2 
0.2 0.2 0.2 0.2 0.2 0.2 0.2 0.2 0.2 
0.2 0.2 0.2 0.2 0.2 0.2 0.2 0.2 0.2 
0.2 0.2 0.2 0.2 0.2 0.2 0.2 0.2 0.2 
0.2 0.2 0.2 0.2 0.2 0.2 0.2 0.2 0.2 
0.2 0.2 0.2 0.2 0.2 0.2 0.2 0.2 0.2 
0.2 0.2 0.2 0.2 0.2 0.2 0.2 0.2 0.2 
0.2 0.2 0.2 0.2 0.2 0.2 0.2 0.2 0.2 
0.2 0.2 0.2 0.2 0.2 0.2 0.2 0.2 0.2 
0.2 0.2 0.2 0.2 0.2 0.2 0.2 0.2 0.2 
0.2 0.2 0.2 0.2 0.2 0.2 0.2 0.2 0.2 
0.2 0.2 0.2 0.2 0.2 0.2 0.2 0.2 0.2 
0.2 0.2 0.2 0.2 0.2 0.2 0.2 0.2 0.2 
0.2 0.2 0.2 0.2 0.2 0.2 0.2 0.2 0.2 
0.2 0.2 0.2 0.2 0.2 0.2 0.2 0.2 0.2 
0.2 0.2 0.2 0.2 0.2 0.2 0.2 0.2 0.2 
0.2 0.2 0.2 0.2 0.2 0.2 0.2 0.2 0.2 
0.2 0.2 0.2 0.2 0.2 0.2 0.2 0.2 0.2 
0.2 0.2 0.2 0.2 0.2 0.2 0.2 0.2 0.2 
0.2 0.2 0.2 0.2 0.2 0.2 0.2 0.2 0.2 
0.2 0.2 0.2 0.2 0.2 0.2 0.2 0.2 0.2 
0.2 0.2 0.2 0.2 0.2 0.2 0.2 0.2 0.2 
0.2 0.2 0.2 0.2 0.2 0.2 0.2 0.2 0.2 
0.2 0.2 0.2 0.2 0.2 0.2 0.2 0.2 0.2 
0.2 0.2 0.2 0.2 0.2 0.2 0.2 0.2 0.2 
0.2 0.2 0.2 0.2 0.2 0.2 0.2 0.2 0.2 
0.2 0.2 0.2 0.2 0.2 0.2 0.2 0.2 0.2 
0.2 0.2 0.2 0.2 0.2 0.2 0.2 0.2 0.2 
0.2 0.2 0.2 0.2 0.2 0.2 0.2 0.2 0.2 
0.2 0.2 0.2 0.2 0.2 0.2 0.2 0.2 0.2 
0.2 0.2 0.2 0.2 0.2 0.2 0.2 0.2 0.2 
0.2 0.2 0.2 0.2 0.2 0.2 0.2 0.2 0.2 
0.2 0.2 0.2 0.2 0.2 0.2 0.2 0.2 0.2 
0.2 0.2 0.2 0.2 0.2 0.2 0.2 0.2 0.2 
0.2 0.2 0.2 0.2 0.2 0.2 0.2 0.2 0.2 
0.2 0.2 0.2 0.2 0.2 0.2 0.2 0.2 0.2 
0.2 0.2 0.2 0.2 0.2 0.2 0.2 0.2 0.2 
0.2 0.2 0.2 0.2 0.2 0.2 0.2 0.2 0.2 
0.2 0.2 0.2 0.2 0.2 0.2 0.2 0.2 0.2 
0.2 0.2 0.2 0.2 0.2 0.2 0.2 0.2 0.2 
0.2 0.2 0.2 0.2 0.2 0.2 0.2 0.2 0.2 
0.2 0.2 0.2 0.2 0.2 0.2 0.2 0.2 0.2 
0.2 0.2 0.2 0.2 0.2 0.2 0.2 0.2 0.2 
0.2 0.2 0.2 0.2 0.2 0.2 0.2 0.2 0.2 
0.2 0.2 0.2 0.2 0.2 0.2 0.2 0.2 0.2 
0.2 0.2 0.2 0.2 0.2 0.2 0.2 0.2 0.2 
0.2 0.2 0.2 0.2 0.2 0.2 0.2 0.2 0.2 
0.2 0.2 0.2 0.2 0.2 0.2 0.2 0.2 0.2 
0.2 0.2 0.2 0.2 0.2 0.2 0.2 0.2 0.2 
0.2 0.2 0.2 0.2 0.2 
c 1 1049 double
0.1 0.1 0.1 0.1 0.1 0.1 0.1 0.1 0.1 
0.1 0.1 0.1 0.1 0.1 0.1 0.1 0.1 0.1 
0.1 0.1 0.1 0.1 0.1 0.1 0.1 0.1 0.1 
0.1 0.1 0.1 0.1 0.1 0.1 0.1 0.1 0.1 
0.1 0.1 0.1 0.1 0.1 0.1 0.1 0.1 0.1 
0.1 0.1 0.1 0.1 0.1 0.1 0.1 0.1 0.1 
0.1 0.1 0.1 0.1 0.1 0.1 0.1 0.1 0.1 
0.1 0.1 0.1 0.1 0.1 0.1 0.1 0.1 0.1 
0.1 0.1 0.1 0.1 0.1 0.1 0.1 0.1 0.1 
0.1 0.1 0.1 0.1 0.1 0.1 0.1 0.1 0.1 
0.1 0.1 0.1 0.1 0.1 0.1 0.1 0.1 0.1 
0.1 0.1 0.1 0.1 0.1 0.1 0.1 0.1 0.1 
0.1 0.1 0.1 0.1 0.1 0.1 0.1 0.1 0.1 
0.1 0.1 0.1 0.1 0.1 0.1 0.1 0.1 0.1 
0.1 0.1 0.1 0.1 0.1 0.1 0.1 0.1 0.1 
0.1 0.1 0.1 0.1 0.1 0.1 0.1 0.1 0.1 
0.1 0.1 0.1 0.1 0.1 0.1 0.1 0.1 0.1 
0.1 0.1 0.1 0.1 0.1 0.1 0.1 0.1 0.1 
0.1 0.1 0.1 0.1 0.1 0.1 0.1 0.1 0.1 
0.1 0.1 0.1 0.1 0.1 0.1 0.1 0.1 0.1 
0.1 0.1 0.1 0.1 0.1 0.1 0.1 0.1 0.1 
0.1 0.1 0.1 0.1 0.1 0.1 0.1 0.1 0.1 
0.1 0.1 0.1 0.1 0.1 0.1 0.1 0.1 0.1 
0.1 0.1 0.1 0.1 0.1 0.1 0.1 0.1 0.1 
0.1 0.1 0.1 0.1 0.1 0.1 0.1 0.1 0.1 
0.1 0.1 0.1 0.1 0.1 0.1 0.1 0.1 0.1 
0.1 0.1 0.1 0.1 0.1 0.1 0.1 0.1 0.1 
0.1 0.1 0.1 0.1 0.1 0.1 0.1 0.1 0.1 
0.1 0.1 0.1 0.1 0.1 0.1 0.1 0.1 0.1 
0.1 0.1 0.1 0.1 0.1 0.1 0.1 0.1 0.1 
0.1 0.1 0.1 0.1 0.1 0.1 0.1 0.1 0.1 
0.1 0.1 0.1 0.1 0.1 0.1 0.1 0.1 0.1 
0.1 0.1 0.1 0.1 0.1 0.1 0.1 0.1 0.1 
0.1 0.1 0.1 0.1 0.1 0.1 0.1 0.1 0.1 
0.1 0.1 0.1 0.1 0.1 0.1 0.1 0.1 0.1 
0.1 0.1 0.1 0.1 0.1 0.1 0.1 0.1 0.1 
0.1 0.1 0.1 0.1 0.1 0.1 0.1 0.1 0.1 
0.1 0.1 0.1 0.1 0.1 0.1 0.1 0.1 0.1 
0.1 0.1 0.1 0.1 0.1 0.1 0.1 0.1 0.1 
0.1 0.1 0.1 0.1 0.1 0.1 0.1 0.1 0.1 
0.1 0.1 0.1 0.1 0.1 0.1 0.1 0.1 0.1 
0.1 0.1 0.1 0.1 0.1 0.1 0.1 0.1 0.1 
0.1 0.1 0.1 0.1 0.1 0.1 0.1 0.1 0.1 
0.1 0.1 0.1 0.1 0.1 0.1 0.1 0.1 0.1 
0.1 0.1 0.1 0.1 0.1 0.1 0.1 0.1 0.1 
0.1 0.1 0.1 0.1 0.1 0.1 0.1 0.1 0.1 
0.1 0.1 0.1 0.1 0.1 0.1 0.1 0.1 0.1 
0.1 0.1 0.1 0.1 0.1 0.1 0.1 0.1 0.1 
0.1 0.1 0.1 0.1 0.1 0.1 0.1 0.1 0.1 
0.1 0.1 0.1 0.1 0.1 0.1 0.1 0.1 0.1 
0.1 0.1 0.1 0.1 0.1 0.1 0.1 0.1 0.1 
0.1 0.1 0.1 0.1 0.1 0.1 0.1 0.1 0.1 
0.1 0.1 0.1 0.1 0.1 0.1 0.1 0.1 0.1 
0.1 0.1 0.1 0.1 0.1 0.1 0.1 0.1 0.1 
0.1 0.1 0.1 0.1 0.1 0.1 0.1 0.1 0.1 
0.1 0.1 0.1 0.1 0.1 0.1 0.1 0.1 0.1 
0.1 0.1 0.1 0.1 0.1 0.1 0.1 0.1 0.1 
0.1 0.1 0.1 0.1 0.1 0.1 0.1 0.1 0.1 
0.1 0.1 0.1 0.1 0.1 0.1 0.1 0.1 0.1 
0.1 0.1 0.1 0.1 0.1 0.1 0.1 0.1 0.1 
0.1 0.1 0.1 0.1 0.1 0.1 0.1 0.1 0.1 
0.1 0.1 0.1 0.1 0.1 0.1 0.1 0.1 0.1 
0.1 0.1 0.1 0.1 0.1 0.1 0.1 0.1 0.1 
0.1 0.1 0.1 0.1 0.1 0.1 0.1 0.1 0.1 
0.1 0.1 0.1 0.1 0.1 0.1 0.1 0.1 0.1 
0.1 0.1 0.1 0.1 0.1 0.1 0.1 0.1 0.1 
0.1 0.1 0.1 0.1 0.1 0.1 0.1 0.1 0.1 
0.1 0.1 0.1 0.1 0.1 0.1 0.1 0.1 0.1 
0.1 0.1 0.1 0.1 0.1 0.1 0.1 0.1 0.1 
0.1 0.1 0.1 0.1 0.1 0.1 0.1 0.1 0.1 
0.1 0.1 0.1 0.1 0.1 0.1 0.1 0.1 0.1 
0.1 0.1 0.1 0.1 0.1 0.1 0.1 0.1 0.1 
0.1 0.1 0.1 0.1 0.1 0.1 0.1 0.1 0.1 
0.1 0.1 0.1 0.1 0.1 0.1 0.1 0.1 0.1 
0.1 0.1 0.1 0.1 0.1 0.1 0.1 0.1 0.1 
0.1 0.1 0.1 0.1 0.1 0.1 0.1 0.1 0.1 
0.1 0.1 0.1 0.1 0.1 0.1 0.1 0.1 0.1 
0.1 0.1 0.1 0.1 0.1 0.1 0.1 0.1 0.1 
0.1 0.1 0.1 0.1 0.1 0.1 0.1 0.1 0.1 
0.1 0.1 0.1 0.1 0.1 0.1 0.1 0.1 0.1 
0.1 0.1 0.1 0.1 0.1 0.1 0.1 0.1 0.1 
0.1 0.1 0.1 0.1 0.1 0.1 0.1 0.1 0.1 
0.1 0.1 0.1 0.1 0.1 0.1 0.1 0.1 0.1 
0.1 0.1 0.1 0.1 0.1 0.1 0.1 0.1 0.1 
0.1 0.1 0.1 0.1 0.1 0.1 0.1 0.1 0.1 
0.1 0.1 0.1 0.1 0.1 0.1 0.1 0.1 0.1 
0.1 0.1 0.1 0.1 0.1 0.1 0.1 0.1 0.1 
0.1 0.1 0.1 0.1 0.1 0.1 0.1 0.1 0.1 
0.1 0.1 0.1 0.1 0.1 0.1 0.1 0.1 0.1 
0.1 0.1 0.1 0.1 0.1 0.1 0.1 0.1 0.1 
0.1 0.1 0.1 0.1 0.1 0.1 0.1 0.1 0.1 
0.1 0.1 0.1 0.1 0.1 0.1 0.1 0.1 0.1 
0.1 0.1 0.1 0.1 0.1 0.1 0.1 0.1 0.1 
0.1 0.1 0.1 0.1 0.1 0.1 0.1 0.1 0.1 
0.1 0.1 0.1 0.1 0.1 0.1 0.1 0.1 0.1 
0.1 0.1 0.1 0.1 0.1 0.1 0.1 0.1 0.1 
0.1 0.1 0.1 0.1 0.1 0.1 0.1 0.1 0.1 
0.1 0.1 0.1 0.1 0.1 0.1 0.1 0.1 0.1 
0.1 0.1 0.1 0.1 0.1 0.1 0.1 0.1 0.1 
0.1 0.1 0.1 0.1 0.1 0.1 0.1 0.1 0.1 
0.1 0.1 0.1 0.1 0.1 0.1 0.1 0.1 0.1 
0.1 0.1 0.1 0.1 0.1 0.1 0.1 0.1 0.1 
0.1 0.1 0.1 0.1 0.1 0.1 0.1 0.1 0.1 
0.1 0.1 0.1 0.1 0.1 0.1 0.1 0.1 0.1 
0.1 0.1 0.1 0.1 0.1 0.1 0.1 0.1 0.1 
0.1 0.1 0.1 0.1 0.1 0.1 0.1 0.1 0.1 
0.1 0.1 0.1 0.1 0.1 0.1 0.1 0.1 0.1 
0.1 0.1 0.1 0.1 0.1 0.1 0.1 0.1 0.1 
0.1 0.1 0.1 0.1 0.1 0.1 0.1 0.1 0.1 
0.1 0.1 0.1 0.1 0.1 0.1 0.1 0.1 0.1 
0.1 0.1 0.1 0.1 0.1 0.1 0.1 0.1 0.1 
0.1 0.1 0.1 0.1 0.1 0.1 0.1 0.1 0.1 
0.1 0.1 0.1 0.1 0.1 0.1 0.1 0.1 0.1 
0.1 0.1 0.1 0.1 0.1 0.1 0.1 0.1 0.1 
0.1 0.1 0.1 0.1 0.1 0.1 0.1 0.1 0.1 
0.1 0.1 0.1 0.1 0.1 0.1 0.1 0.1 0.1 
0.1 0.1 0.1 0.1 0.1 
m 1 1049 double
76.33 94.295 84.655 91.315 83.88 69.85 93.885 97.585 61.625 
62.64 92.105 95.485 65.975 56.755 84.935 75.77 90.92 65.745 
73.95 91.415 56.77 53.195 89.775 53.87 90.795 92.83 76.76 
56.49 88.61 63.205 95.63 91.99 99.255 62.455 79.28 98.36 
88.325 84.075 58.915 54.265 51.995 59.26 65.415 94.14 53.285 
68.31 82.91 69.45 60.985 71.55 91.91 97.965 95.075 63.675 
75.995 77.105 54.64 58.805 51.54 80.435 52.64 82.95 77.555 
62.775 65.86 86.39 64.785 83.255 80.635 50.185 50.495 57.705 
75 81.82 79.025 64.86 54.985 65.345 60.355 59.25 71.125 
54.55 85.085 73.465 81.085 61.965 72.85 61.75 92.885 69.135 
55.865 93.285 67.685 77.41 54.44 83.05 83.105 86.67 50.04 
62.195 86.4 96.67 59.44 86.865 71.295 74.595 90.21 81.145 
56.63 72.105 59.805 96.915 63.77 71.85 91.575 92.685 75.99 
71.62 68.92 67.63 54.43 82.065 80.455 63.885 94.9 84.31 
86.405 59.365 95.85 84.98 99.78 61.525 51.68 85.42 81.635 
54.625 67.53 82.525 91.01 66.01 94.72 56.565 84.575 58.645 
54.23 79.285 52.725 97.91 80.62 69.475 66.835 70.215 51.82 
77.17 94.07 68.75 85.89 55.435 84.04 86.38 63.255 63.77 
67.92 78.94 77.015 61.995 99.66 66.84 75.3 98.38 88.965 
92.93 76.7 81.13 91.95 50.06 58.41 64.145 88.695 52.85 
53.975 57.17 87.695 90.47 87.335 83.005 64.51 50.485 51.89 
83.26 86.505 66.585 52.46 53.78 69.325 97.205 51.4 98.445 
71.43 73.645 83.095 92.2 92.22 90.155 94.935 89.44 90.585 
91.69 72.405 78.855 90.485 77.165 91.675 72.835 53.545 53.375 
94.635 89.28 97.485 72.93 76.53 61.765 84.825 64.355 93.12 
81.095 57.64 73.415 91.35 78.66 97.515 50.095 94.145 83.575 
81.7 66.84 98.54 90.745 64.23 76.93 53.615 68.09 61.225 
67.295 78.645 88.98 63.09 55.5 67.255 88.82 87.44 67.775 
64.605 61.895 99.205 91.14 52.46 86.805 83.245 88.58 75.965 
56.345 61.75 94.88 88.82 57.5 85.17 50.62 84.935 74.57 
79.28 68.715 61.135 82.455 91.825 57.16 99.295 62.755 59.68 
57.105 66.025 62.52 53.065 97.835 88.105 97.64 60.105 64.21 
83.92 54.34 53.715 78.975 65.72 61.46 89.94 88.205 80.945 
81.775 83.1 61.37 56.165 97.19 90.125 65.37 56.94 67.14 
96.84 91.705 67.185 66.375 96.14 77.035 57.37 82.185 90.71 
59.3 59.965 77.895 79.42 94.36 99.54 99.79 75.945 52.49 
51.445 84.745 76.835 76.19 89.855 50.45 98.05 72.06 97.395 
94.845 68.405 51.35 67.465 51.79 90.785 82.53 93.81 71.975 
80.605 80.145 56.185 94.29 94.25 86.275 58.88 76.365 73.845 
54.355 74.925 66.515 90.18 81.24 88.765 94.04 76.715 65.885 
64.5 81.675 82.145 59.43 67.56 56.56 91.775 96.07 91.815 
67.085 53.495 77.845 59.195 91.175 72.14 68.965 80.715 79.09 
88.66 90.02 51.895 55.775 79.97 72.76 60.665 64.45 66.665 
98.77 58.24 52.52 78.145 91.425 50.245 54.82 95.4 98.155 
54.285 92.965 93.135 93.97 99.235 82.155 65.865 63.11 82.225 
97.645 93.88 79.64 62.02 55.055 91.045 62.95 94.095 96.68 
92.905 97.645 72.5 87.835 58.73 51.84 80.635 60.67 71.695 
58.46 61.075 61.45 63.235 95.255 94.73 84.85 71.46 83.41 
87.31 78.955 96.95 73.065 72.215 93.03 72.69 78.815 80.95 
69.49 61.49 52.62 53.565 68.94 81.245 90.23 98.985 84.95 
80.795 88.235 62.675 75.755 92.69 82.76 77.89 74.97 74.58 
67.645 75.285 57.605 75.575 92.87 80.785 94.77 75.64 74.09 
84.2 53.44 64.52 83.2 96.495 80.21 56.11 76.925 65.165 
76.815 51.265 62.485 66.515 52.14 60.01 53.405 82.015 72.5 
75.5 71.73 81.56 63.63 86.93 96.155 59.735 75.105 57.455 
64.755 89.585 84.98 66.62 99.585 86.845 59.86 69.25 88.125 
96.46 88.36 61.81 69.98 95.625 55.76 74.46 88.43 95.94 
77.18 68.645 62.3 79.875 95.785 67.07 50.135 69.605 93.45 
81.52 52.3 50.14 90.25 87.78 90.135 83.74 94.51 93.495 
55.215 55.195 73.97 88.485 52.845 69.13 71.16 61.305 67.705 
50.295 83.805 80.21 90.115 50.405 95.585 51.8 88.815 65.95 
81.545 69.63 77.125 94.98 53.45 73.385 58.13 72.62 71.17 
81.835 65.84 80.285 98.07 91.025 51.79 86.42 84.28 72.83 
88.85 52.085 52.7 86.025 51.185 61.3 53.03 79.245 65.295 
76.085 67.13 92.59 95.86 53.915 74.725 71.445 92.29 84.365 
88.185 52.415 54.365 72.355 96.57 83.035 63.785 52.39 78.68 
65.345 54.76 92.06 60.915 97.35 88.715 92.45 77.495 86.345 
50.42 70.405 56.98 78.15 87.525 78.22 98.86 77.95 83.625 
50.635 83.29 96.12 69.75 62.11 76.055 87.8 89.09 69.6 
76.18 76.84 62.835 75.525 50.245 56.22 52.815 66.455 99.67 
86.875 93.555 59.025 68.84 94.775 67.945 68.07 94.965 84.91 
74.11 84.41 74.59 64.025 57.87 81.64 83.55 70.09 96.455 
70.15 82.145 65.465 54.625 83.585 85.45 86.085 84.18 75.275 
84.815 69.29 90.65 74.52 56.965 63.305 92.855 92.28 84.255 
98.165 73.945 65.365 98.425 63.02 96.25 89.34 82.515 97.425 
99.025 73.195 64.745 95.03 78.91 67.58 55.405 76.625 87.58 
60.975 83.815 55.6 88.385 54.835 51.13 54.325 87.8 95.18 
52.98 69.905 96.055 81.71 67.59 89.775 88.85 91.35 75.98 
62.66 86.605 61.895 72.135 70.86 71.17 60.2 74.92 86.99 
79.15 55.315 86.415 50.36 84.75 51.735 52.865 68.57 60.15 
84.62 87.61 80.295 75.41 70.235 64.77 96.02 56.16 97.175 
52.215 78.2 77.43 95.795 59.49 71.39 96.31 55.205 98.415 
51.31 99.24 64.03 91.62 83.64 58.615 69.795 90.835 81.36 
78.985 95.61 70.77 86.675 79.105 87.285 96.825 55.855 76.09 
58.88 51.345 63.735 93.505 54.535 58.515 73.265 99.665 57.65 
68.7 70.15 52.685 75.27 64.31 70.49 88.345 75.615 98.93 
64.77 90.695 55.635 58.525 95.75 81.14 79.92 57.43 51.265 
50.63 82.965 52.715 77.02 65.01 61.155 58.98 80.695 63.49 
56.54 85.42 93.6 76.67 92.32 92.71 97.535 90.41 50.985 
78.335 79.695 99.055 99.52 69.7 65.37 89.07 73.565 91.885 
90.895 69.85 95.105 72.9 61.69 96.09 63.575 54.955 81.88 
94.49 55.26 93.055 96.775 81.74 94.02 68.11 88.605 56.275 
74.095 72.995 76.605 85.44 78.875 64.595 73.81 78.55 74.06 
76.895 99.31 63.425 74.885 57.795 62.53 90.945 75.855 70.05 
89.14 86.715 77.84 96.495 78.73 86.86 88.565 91.03 87.935 
96.505 55.085 51.47 83.66 51.175 51.73 67.415 96.035 99.52 
57.68 70.88 65.675 69.05 71.7 88.025 66.555 77.11 81.71 
61.68 58.295 76.05 60.045 75.765 78.455 55.685 62.865 69.715 
74.285 99.555 98.72 98.795 67.495 55.68 56.8 70.335 88.215 
98.09 51.685 56.525 59.005 74.39 68.65 78.305 84.435 60.86 
69.645 97.06 66.74 95.535 95.895 92.09 98.78 87.225 88.42 
79.68 66.88 60.45 77.71 82.33 75.42 64.63 55.475 56.7 
85.95 64.795 64.065 68.865 98.34 64.98 50.815 89.905 85.995 
94.495 74.65 94.665 99.01 93.3 79.47 69.405 50.355 87.34 
54.865 85.655 96.895 60.18 59.495 77.75 67.26 78.12 60.31 
64.62 63 88.185 66.29 67.08 67.325 83.54 91.41 92.61 
93.68 93.13 97.22 96.6 91.12 82.695 70.11 95.08 65.545 
75.265 90.545 66.89 75.405 50 95.57 90.335 56.69 97.13 
79.945 83.935 75.735 61.155 82.66 76.115 69.375 74.25 56.405 
50.895 60.61 69.065 82.95 61.27 55.655 76.75 95.905 89.285 
73.015 57.47 80.405 78.6 62.165 89.91 50.905 87.435 93.61 
97.075 94.125 96.48 77.02 51.485 95.67 50.16 52.755 84.46 
52.075 65.905 85.285 98.54 92.53 61.485 87.415 52.975 59.81 
99.995 75.055 78.88 56.545 50.77 94.885 62.935 99.66 66.91 
75.105 71.33 68.41 88.425 67.815 96.055 94.3 54.65 72.915 
79.95 71.425 95.43 59.46 57.38 70.58 79.1 86.57 87.45 
87.625 77.64 94.195 87.625 65.29 
p0 3 1049 double
0 -10 0 0 -10 0 0 -10 0 
0 -10 0 0 -10 0 0 -10 0 
0 -10 0 0 -10 0 0 -10 0 
0 -10 0 0 -10 0 0 -10 0 
0 -10 0 0 -10 0 0 -10 0 
0 -10 0 0 -10 0 0 -10 0 
0 -10 0 0 -10 0 0 -10 0 
0 -10 0 0 -10 0 0 -10 0 
0 -10 0 0 -10 0 0 -10 0 
0 -10 0 0 -10 0 0 -10 0 
0 -10 0 0 -10 0 0 -10 0 
0 -10 0 0 -10 0 0 -10 0 
0 -10 0 0 -10 0 0 -10 0 
0 -10 0 0 -10 0 0 -10 0 
0 -10 0 0 -10 0 0 -10 0 
0 -10 0 0 -10 0 0 -10 0 
0 -10 0 0 -10 0 0 -10 0 
0 -10 0 0 -10 0 0 -10 0 
0 -10 0 0 -10 0 0 -10 0 
0 -10 0 0 -10 0 0 -10 0 
0 -10 0 0 -10 0 0 -10 0 
0 -10 0 0 -10 0 0 -10 0 
0 -10 0 0 -10 0 0 -10 0 
0 -10 0 0 -10 0 0 -10 0 
0 -10 0 0 -10 0 0 -10 0 
0 -10 0 0 -10 0 0 -10 0 
0 -10 0 0 -10 0 0 -10 0 
0 -10 0 0 -10 0 0 -10 0 
0 -10 0 0 -10 0 0 -10 0 
0 -10 0 0 -10 0 0 -10 0 
0 -10 0 0 -10 0 0 -10 0 
0 -10 0 0 -10 0 0 -10 0 
0 -10 0 0 -10 0 0 -10 0 
0 -10 0 0 -10 0 0 -10 0 
0 -10 0 0 0 0 0 0 0 
0 0 0 0 0 0 0 0 0 
0 0 0 0 0 0 0 0 0 
0 0 0 0 0 0 0 0 0 
0 0 0 0 0 0 0 0 0 
0 0 0 0 0 0 0 0 0 
0 0 0 0 0 0 0 0 0 
0 0 0 0 0 0 0 0 0 
0 0 0 0 0 0 0 0 0 
0 0 0 0 0 0 0 0 0 
0 0 0 0 0 0 0 0 0 
0 0 0 0 0 0 0 0 0 
0 0 0 0 0 0 0 0 0 
0 0 0 0 0 0 0 0 0 
0 0 0 0 0 0 0 0 0 
0 0 0 0 0 0 0 0 0 
0 0 0 0 0 0 0 0 0 
0 0 0 0 0 0 0 0 0 
0 0 0 0 0 0 0 0 0 
0 0 0 0 0 0 0 0 0 
0 0 0 0 0 0 0 0 0 
0 0 0 0 0 0 0 0 0 
0 0 0 0 0 0 0 0 0 
0 0 0 0 0 0 0 0 0 
0 0 0 0 0 0 0 0 0 
0 0 0 0 0 0 0 0 0 
0 0 0 0 0 0 0 0 0 
0 0 0 0 0 0 0 0 0 
0 0 0 0 0 0 0 0 0 
0 0 0 0 0 0 0 0 0 
0 0 0 0 0 0 0 0 0 
0 0 0 0 0 0 0 0 0 
0 0 0 0 0 0 0 0 0 
0 0 0 0 0 0 0 0 0 
0 0 0 0 0 0 0 0 0 
0 0 0 0 0 0 0 0 0 
0 0 0 0 0 0 0 0 0 
0 0 0 0 0 0 0 0 0 
0 0 0 0 0 0 0 0 0 
0 0 0 0 0 0 0 0 0 
0 0 0 0 0 0 0 0 0 
0 0 0 0 0 0 0 0 0 
0 0 0 0 0 0 0 0 0 
0 0 0 0 0 0 0 0 0 
0 0 0 0 0 0 0 0 0 
0 0 0 0 0 0 0 0 0 
0 0 0 0 0 0 0 0 0 
0 0 0 0 0 0 0 0 0 
0 0 0 0 0 0 0 0 0 
0 0 0 0 0 0 0 0 0 
0 0 0 0 0 0 0 0 0 
0 0 0 0 0 0 12 0 0 
0 0 0 12 0 0 0 0 0 
12 0 0 0 0 0 12 0 0 
0 0 0 0 0 0 0 0 0 
0 0 0 0 0 0 0 0 0 
0 0 0 0 0 0 0 0 0 
0 0 0 0 0 0 0 0 0 
0 0 0 0 0 0 0 0 0 
0 0 0 0 0 0 0 0 0 
0 0 0 0 0 0 0 0 0 
0 0 0 0 0 0 0 0 0 
0 0 0 0 0 0 0 0 0 
0 0 0 0 0 0 0 0 0 
0 0 0 0 0 0 0 0 0 
0 0 0 0 0 0 0 0 0 
0 0 0 0 0 0 0 0 0 
0 0 0 0 0 0 12 0 0 
12 0 0 12 0 0 12 0 0 
0 0 0 0 0 0 0 0 0 
0 0 0 0 0 0 0 0 0 
0 0 0 0 0 0 0 0 0 
0 0 0 0 0 0 0 0 0 
0 0 0 0 0 0 0 0 0 
0 0 0 0 0 0 0 0 0 
0 0 0 0 0 0 0 0 0 
0 0 0 0 0 0 0 0 0 
0 0 0 0 0 0 0 0 0 
0 0 0 0 0 0 0 0 0 
12 0 0 12 0 0 0 0 0 
0 0 0 0 0 0 0 0 0 
0 0 0 0 0 0 0 0 0 
0 0 0 0 0 0 0 0 0 
-12 0 0 -12 0 0 0 0 0 
0 0 0 0 0 0 0 0 0 
0 0 0 0 0 0 0 0 0 
0 0 0 0 0 0 0 0 0 
0 0 0 0 0 0 0 0 0 
0 0 0 0 0 0 0 0 0 
0 0 0 0 0 0 0 0 0 
0 0 0 0 0 0 0 0 0 
0 0 0 0 0 0 0 0 0 
0 0 0 0 0 0 0 0 0 
0 0 0 0 0 0 -12 0 0 
0 0 0 0 0 0 0 0 0 
0 0 0 0 0 0 0 0 0 
0 0 0 0 0 0 0 0 0 
0 0 0 0 0 0 0 0 0 
0 0 0 0 0 0 0 0 0 
0 0 0 0 0 0 0 0 0 
0 0 0 0 0 0 12 0 0 
0 0 0 0 0 0 0 0 0 
0 0 0 0 0 0 0 0 0 
0 0 0 0 0 0 0 0 0 
0 0 0 0 0 0 0 0 0 
0 0 0 0 0 0 0 0 0 
0 0 0 0 0 0 0 0 0 
0 0 0 0 0 0 0 0 0 
0 0 0 0 0 0 0 0 0 
0 0 0 0 0 0 0 0 0 
0 0 0 0 0 0 0 0 0 
0 0 0 0 0 0 0 0 0 
0 0 0 0 0 0 0 0 0 
0 0 0 0 0 0 0 0 0 
0 0 0 0 0 0 0 0 0 
0 0 0 0 0 0 0 0 0 
0 0 0 0 0 0 0 0 0 
0 0 0 0 0 0 0 0 0 
0 0 0 0 0 0 0 0 0 
0 0 0 0 0 0 0 0 0 
0 0 0 0 0 0 0 0 0 
12 0 0 0 0 0 0 0 0 
0 0 0 0 0 0 0 0 0 
0 0 0 0 0 0 0 0 0 
0 0 0 0 0 0 0 0 0 
0 0 0 0 0 0 0 0 0 
0 0 0 0 0 0 0 0 0 
0 0 0 0 0 0 0 0 0 
0 0 0 0 0 0 0 0 0 
0 0 0 0 0 0 0 0 0 
0 0 0 0 0 0 0 0 0 
0 0 0 0 0 0 0 0 0 
0 0 0 0 0 0 0 0 0 
0 0 0 0 0 0 0 0 0 
0 0 0 0 0 0 0 0 0 
0 0 0 0 0 0 0 0 0 
0 0 0 0 0 0 0 0 0 
0 0 0 0 0 0 0 0 0 
0 0 0 0 0 0 0 0 0 
0 0 0 0 0 0 0 0 0 
0 0 0 0 0 0 0 0 0 
0 0 0 0 0 0 0 0 0 
0 0 0 0 0 0 0 0 0 
0 0 0 0 0 0 0 0 0 
0 0 0 0 0 0 0 0 0 
0 0 0 0 0 0 0 0 0 
0 0 0 0 0 0 0 0 0 
0 0 0 0 0 0 0 0 0 
0 0 0 0 0 0 0 0 0 
0 0 0 0 0 0 0 0 0 
0 0 0 0 0 0 0 0 0 
0 0 0 0 0 0 0 0 0 
0 0 0 0 0 0 0 0 0 
0 0 0 0 0 0 0 0 0 
0 0 0 0 0 0 0 0 0 
0 0 0 0 0 0 0 0 0 
0 0 0 0 0 0 0 0 0 
0 0 0 0 0 0 0 0 0 
0 0 0 0 0 0 0 0 0 
0 0 0 0 0 0 0 0 0 
0 0 0 0 0 0 0 0 0 
0 0 0 0 0 0 0 0 0 
0 0 0 0 0 0 0 0 0 
0 0 0 0 0 0 0 0 0 
0 0 0 12 0 0 12 0 0 
0 0 0 0 0 0 0 0 0 
0 0 0 0 0 0 0 0 0 
0 0 0 0 0 0 0 0 0 
0 0 0 0 0 0 0 0 0 
0 0 0 0 0 0 0 0 0 
0 0 0 0 0 0 0 0 0 
0 0 0 0 0 0 0 0 0 
0 0 0 0 0 0 0 0 0 
0 0 0 0 0 0 0 0 0 
0 0 0 0 0 0 0 0 0 
0 0 0 0 0 0 0 0 0 
0 0 0 0 0 0 0 0 0 
0 0 0 0 0 0 0 0 0 
0 0 0 0 0 0 0 0 0 
0 0 0 0 0 0 0 0 0 
0 0 0 0 0 0 0 0 0 
0 0 0 0 0 0 0 0 0 
0 0 0 0 0 0 0 0 0 
0 0 0 0 0 0 0 0 0 
0 0 0 0 0 0 0 0 0 
0 0 0 0 0 0 0 0 0 
0 0 0 0 0 0 0 0 0 
0 0 0 0 0 0 0 0 0 
0 0 0 0 0 0 0 0 0 
0 0 0 0 0 0 0 0 0 
0 0 0 0 0 0 0 0 0 
0 0 0 0 0 0 0 0 0 
0 0 0 0 0 0 0 0 0 
0 0 0 0 0 0 0 0 0 
0 0 0 0 0 0 0 0 0 
0 0 0 0 0 0 0 0 0 
0 0 0 0 0 0 0 0 0 
0 0 0 0 0 0 0 0 0 
0 0 0 0 0 0 0 0 0 
0 0 0 0 0 0 0 0 0 
0 0 0 0 0 0 0 0 0 
0 0 0 0 0 0 0 0 0 
0 0 0 0 0 0 0 0 0 
0 0 0 0 0 0 0 0 0 
0 0 0 0 0 0 0 0 0 
0 0 0 0 0 0 0 0 0 
0 0 0 0 0 0 0 0 0 
0 0 0 0 0 0 0 0 0 
0 0 0 0 0 0 0 0 0 
0 0 0 0 0 0 0 0 0 
0 0 0 0 0 0 0 0 0 
0 0 0 0 0 0 0 0 0 
0 0 0 0 0 0 0 0 0 
0 0 0 0 0 0 0 0 0 
0 0 0 0 0 0 0 0 0 
0 0 0 0 0 0 0 0 0 
0 0 0 0 0 0 0 0 0 
0 0 0 0 0 0 0 0 0 
0 0 0 0 0 0 0 0 0 
0 0 0 0 0 0 0 0 0 
0 0 0 0 0 0 0 0 0 
0 0 0 0 0 0 0 0 0 
0 0 0 0 0 0 0 0 0 
0 0 0 0 0 0 0 0 0 
0 0 0 0 0 0 0 0 0 
0 0 0 0 0 0 0 0 0 
0 0 0 0 0 0 0 0 0 
0 0 0 0 0 0 0 0 0 
0 0 0 0 0 0 0 0 0 
0 0 0 0 0 0 0 0 0 
0 0 0 0 0 0 0 0 0 
0 0 0 0 0 0 0 0 0 
0 0 0 0 0 0 0 0 0 
0 0 0 0 0 0 0 0 0 
0 0 0 0 0 0 0 0 0 
0 0 0 0 0 0 0 0 0 
0 0 0 0 0 0 0 0 0 
0 0 0 0 0 0 0 0 0 
0 0 0 0 0 0 0 0 0 
0 0 0 0 0 0 0 0 0 
0 0 0 0 0 0 0 0 0 
0 0 0 0 0 0 0 0 0 
0 0 0 0 0 0 0 0 0 
0 0 0 0 0 0 0 0 0 
0 0 0 0 0 0 0 0 0 
0 0 0 0 0 0 0 0 0 
0 0 0 0 0 0 0 0 0 
0 0 0 0 0 0 0 0 0 
0 0 0 0 0 0 0 0 0 
0 0 0 0 0 0 0 0 0 
0 0 0 0 0 0 0 0 0 
0 0 0 0 0 0 0 0 0 
0 0 0 0 0 0 0 0 0 
0 0 0 0 0 0 0 0 0 
0 0 0 0 0 0 0 0 0 
0 0 0 0 0 0 0 0 0 
0 0 0 0 0 0 0 0 0 
0 0 0 0 0 0 0 0 0 
0 0 0 0 0 0 0 0 0 
0 0 0 0 0 0 0 0 0 
0 0 0 0 0 0 0 0 0 
0 0 0 0 0 0 0 0 0 
0 0 0 0 0 0 0 0 0 
0 0 0 0 0 0 0 0 0 
0 0 0 0 0 0 0 0 0 
0 0 0 0 0 0 0 0 0 
0 0 0 0 0 0 0 0 0 
0 0 0 0 0 0 0 0 0 
0 0 0 0 0 0 0 0 0 
0 0 0 0 0 0 0 0 0 
0 0 0 0 0 0 0 0 0 
0 0 0 0 0 0 0 0 0 
0 0 0 0 0 0 0 0 0 
0 0 0 0 0 0 0 0 0 
0 0 0 0 0 0 0 0 0 
0 0 0 0 0 0 0 0 0 
0 0 0 0 0 0 0 0 0 
0 0 0 0 0 0 0 0 0 
0 0 0 0 0 0 0 0 0 
0 0 0 0 0 0 0 0 0 
0 0 0 0 0 0 0 0 0 
0 0 0 0 0 0 0 0 0 
0 0 0 0 0 0 0 0 0 
0 0 0 0 0 0 0 0 0 
0 0 0 0 0 0 0 0 0 
0 0 0 0 0 0 0 0 0 
0 0 0 0 0 0 0 0 0 
0 0 0 0 0 0 0 0 0 
0 0 0 0 0 0 0 0 0 
0 0 0 0 0 0 0 0 0 
0 0 0 0 0 0 0 0 0 
0 0 0 0 0 0 0 0 0 
0 0 0 0 0 0 0 0 0 
0 0 0 0 0 0 0 0 0 
0 0 0 0 0 0 0 0 0 
0 0 0 0 0 0 0 0 0 
0 0 0 0 0 0 0 0 0 
0 0 0 0 0 0 0 0 0 
0 0 0 0 0 0 0 0 0 
0 0 0 0 0 0 0 0 0 
0 0 0 0 0 0 0 0 0 
0 0 0 0 0 0 0 0 0 
0 0 0 0 0 0 0 0 0 
0 0 0 0 0 0 0 0 0 
0 0 0 0 0 0 0 0 0 
0 0 0 0 0 0 0 0 0 
0 0 0 0 0 0 0 0 0 
0 0 0 0 0 0 0 0 0 
0 0 0 0 0 0 0 0 0 
0 0 0 0 0 0 0 0 0 
0 0 0 0 0 0 0 0 0 
0 0 0 0 0 0 0 0 0 
0 0 0 0 0 0 0 0 0 
0 0 0 0 0 0 0 0 0 
0 0 0 0 0 0 0 0 0 
0 0 0 0 0 0 
v0 1 1049 double
3.7348 3.5098 3.1534 3.5598 2.2234 2.798 3.3932 3.1552 3.5868 
3.7604 3.3376 3.7132 3.908 3.4418 3.8026 2.2246 2.7868 2.9072 
2.9892 2.959 3.6802 2.5998 2.5562 2.8894 3.7722 3.7386 3.3968 
3.4192 2.9348 3.9438 3.5338 3.5394 3.447 3.6894 3.9752 3.938 
3.4388 3.6034 3.7956 3.9802 3.7004 3.7164 3.4142 2.7598 2.087 
2.7364 3.2294 3.1134 2.105 2.2178 2.9862 2.726 3.358 3.0734 
2.6972 3.4702 3.991 2.8228 3.4416 3.2554 3.3812 3.5126 2.9518 
3.8484 3.2458 2.5702 3.3948 2.5666 2.227 2.3004 2.0272 2.8832 
2.5352 2.192 3.219 2.6856 2.8338 3.4072 3.8268 2.325 2.7916 
2.0254 2.9892 3.236 3.8554 3.3678 3.5612 3.053 3.514 2.5952 
2.5898 3.4754 2.9256 2.2866 3.2878 3.852 3.1832 3.18 2.9022 
2.4594 2.1178 2.264 2.6632 0 0 0 0 0 
0 0 0 0 0 0 0 0 0 
0 0 0 0 0 0 0 0 0 
0 0 0 0 0 0 0 0 0 
0 0 0 0 0 0 0 0 0 
0 0 0 0 0 0 0 0 0 
0 0 0 0 0 0 0 0 0 
0 0 0 0 0 0 0 0 0 
0 0 0 0 0 0 0 0 0 
0 0 0 0 0 0 0 0 0 
0 0 0 0 0 0 0 0 0 
0 0 0 0 0 0 0 0 0 
0 0 0 0 0 0 0 0 0 
0 0 0 0 0 0 0 0 0 
0 0 0 0 0 0 0 0 0 
0 0 0 0 0 0 0 0 0 
0 0 0 0 0 0 0 0 0 
0 0 0 0 0 3.2768 0 2.0104 0 
2.4322 0 2.5972 0 0 0 0 0 0 
0 0 0 0 0 0 0 0 0 
0 0 0 0 0 0 0 0 0 
0 0 0 0 0 0 0 0 0 
0 0 0 0 0 0 0 0 2.79 
2.0424 2.7532 3.075 0 0 0 0 0 0 
0 0 0 0 0 0 0 0 0 
0 0 0 0 0 0 0 0 0 
0 0 0 0 0 0 2.0302 2.6138 0 
0 0 0 0 0 0 0 0 0 
2.1056 2.5992 0 0 0 0 0 0 0 
0 0 0 0 0 0 0 0 0 
0 0 0 0 0 0 0 0 0 
0 0 0 0 0 2.6016 0 0 0 
0 0 0 0 0 0 0 0 0 
0 0 0 0 0 0 0 0 2.2322 
0 0 0 0 0 0 0 0 0 
0 0 0 0 0 0 0 0 0 
0 0 0 0 0 0 0 0 0 
0 0 0 0 0 0 0 0 0 
0 0 0 0 0 0 0 0 0 
0 0 0 0 0 0 0 0 0 
0 0 0 0 0 0 2.1262 0 0 
0 0 0 0 0 0 0 0 0 
0 0 0 0 0 0 0 0 0 
0 0 0 0 0 0 0 0 0 
0 0 0 0 0 0 0 0 0 
0 0 0 0 0 0 0 0 0 
0 0 0 0 0 0 0 0 0 
0 0 0 0 0 0 0 0 0 
0 0 0 0 0 0 0 0 0 
0 0 0 0 0 0 0 0 0 
0 0 0 0 0 0 0 0 0 
0 0 0 0 0 0 0 0 0 
0 0 0 0 0 0 0 0 0 
0 0 0 0 0 0 0 0 0 
0 0 0 0 0 0 0 0 0 
0 2.0074 2.1126 0 0 0 0 0 0 
0 0 0 0 0 0 0 0 0 
0 0 0 0 0 0 0 0 0 
0 0 0 0 0 0 0 0 0 
0 0 0 0 0 0 0 0 0 
0 0 0 0 0 0 0 0 0 
0 0 0 0 0 0 0 0 0 
0 0 0 0 0 0 0 0 0 
0 0 0 0 0 0 0 0 0 
0 0 0 0 0 0 0 0 0 
0 0 0 0 0 0 0 0 0 
0 0 0 0 0 0 0 0 0 
0 0 0 0 0 0 0 0 0 
0 0 0 0 0 0 0 0 0 
0 0 0 0 0 0 0 0 0 
0 0 0 0 0 0 0 0 0 
0 0 0 0 0 0 0 0 0 
0 0 0 0 0 0 0 0 0 
0 0 0 0 0 0 0 0 0 
0 0 0 0 0 0 0 0 0 
0 0 0 0 0 0 0 0 0 
0 0 0 0 0 0 0 0 0 
0 0 0 0 0 0 0 0 0 
0 0 0 0 0 0 0 0 0 
0 0 0 0 0 0 0 0 0 
0 0 0 0 0 0 0 0 0 
0 0 0 0 0 0 0 0 0 
0 0 0 0 0 0 0 0 0 
0 0 0 0 0 0 0 0 0 
0 0 0 0 0 0 0 0 0 
0 0 0 0 0 0 0 0 0 
0 0 0 0 0 0 0 0 0 
0 0 0 0 0 0 0 0 0 
0 0 0 0 0 0 0 0 0 
0 0 0 0 0 0 0 0 0 
0 0 0 0 0 0 0 0 0 
0 0 0 0 0 0 0 0 0 
0 0 0 0 0 0 0 0 0 
0 0 0 0 0 0 0 0 0 
0 0 0 0 0 0 0 0 0 
0 0 0 0 0 0 0 0 0 
0 0 0 0 0 0 0 0 0 
0 0 0 0 0 0 0 0 0 
0 0 0 0 0 0 0 0 0 
0 0 0 0 0 0 0 0 0 
0 0 0 0 0 0 0 0 0 
0 0 0 0 0 0 0 0 0 
0 0 0 0 0 0 0 0 0 
0 0 0 0 0 0 0 0 0 
0 0 0 0 0 0 0 0 0 
0 0 0 0 0 
tau 1 1049 double
2 2 2 2 2 2 2 2 2 
2 2 2 2 2 2 2 2 2 
2 2 2 2 2 2 2 2 2 
2 2 2 2 2 2 2 2 2 
2 2 2 2 2 2 2 2 2 
2 2 2 2 2 2 2 2 2 
2 2 2 2 2 2 2 2 2 
2 2 2 2 2 2 2 2 2 
2 2 2 2 2 2 2 2 2 
2 2 2 2 2 2 2 2 2 
2 2 2 2 2 2 2 2 2 
2 2 2 2 2 2 2 2 2 
2 2 2 2 2 2 2 2 2 
2 2 2 2 2 2 2 2 2 
2 2 2 2 2 2 2 2 2 
2 2 2 2 2 2 2 2 2 
2 2 2 2 2 2 2 2 2 
2 2 2 2 2 2 2 2 2 
2 2 2 2 2 2 2 2 2 
2 2 2 2 2 2 2 2 2 
2 2 2 2 2 2 2 2 2 
2 2 2 2 2 2 2 2 2 
2 2 2 2 2 2 2 2 2 
2 2 2 2 2 2 2 2 2 
2 2 2 2 2 2 2 2 2 
2 2 2 2 2 2 2 2 2 
2 2 2 2 2 2 2 2 2 
2 2 2 2 2 2 2 2 2 
2 2 2 2 2 2 2 2 2 
2 2 2 2 2 2 2 2 2 
2 2 2 2 2 2 2 2 2 
2 2 2 2 2 2 2 2 2 
2 2 2 2 2 2 2 2 2 
2 2 2 2 2 2 2 2 2 
2 2 2 2 2 2 2 2 2 
2 2 2 2 2 2 2 2 2 
2 2 2 2 2 2 2 2 2 
2 2 2 2 2 2 2 2 2 
2 2 2 2 2 2 2 2 2 
2 2 2 2 2 2 2 2 2 
2 2 2 2 2 2 2 2 2 
2 2 2 2 2 2 2 2 2 
2 2 2 2 2 2 2 2 2 
2 2 2 2 2 2 2 2 2 
2 2 2 2 2 2 2 2 2 
2 2 2 2 2 2 2 2 2 
2 2 2 2 2 2 2 2 2 
2 2 2 2 2 2 2 2 2 
2 2 2 2 2 2 2 2 2 
2 2 2 2 2 2 2 2 2 
2 2 2 2 2 2 2 2 2 
2 2 2 2 2 2 2 2 2 
2 2 2 2 2 2 2 2 2 
2 2 2 2 2 2 2 2 2 
2 2 2 2 2 2 2 2 2 
2 2 2 2 2 2 2 2 2 
2 2 2 2 2 2 2 2 2 
2 2 2 2 2 2 2 2 2 
2 2 2 2 2 2 2 2 2 
2 2 2 2 2 2 2 2 2 
2 2 2 2 2 2 2 2 2 
2 2 2 2 2 2 2 2 2 
2 2 2 2 2 2 2 2 2 
2 2 2 2 2 2 2 2 2 
2 2 2 2 2 2 2 2 2 
2 2 2 2 2 2 2 2 2 
2 2 2 2 2 2 2 2 2 
2 2 2 2 2 2 2 2 2 
2 2 2 2 2 2 2 2 2 
2 2 2 2 2 2 2 2 2 
2 2 2 2 2 2 2 2 2 
2 2 2 2 2 2 2 2 2 
2 2 2 2 2 2 2 2 2 
2 2 2 2 2 2 2 2 2 
2 2 2 2 2 2 2 2 2 
2 2 2 2 2 2 2 2 2 
2 2 2 2 2 2 2 2 2 
2 2 2 2 2 2 2 2 2 
2 2 2 2 2 2 2 2 2 
2 2 2 2 2 2 2 2 2 
2 2 2 2 2 2 2 2 2 
2 2 2 2 2 2 2 2 2 
2 2 2 2 2 2 2 2 2 
2 2 2 2 2 2 2 2 2 
2 2 2 2 2 2 2 2 2 
2 2 2 2 2 2 2 2 2 
2 2 2 2 2 2 2 2 2 
2 2 2 2 2 2 2 2 2 
2 2 2 2 2 2 2 2 2 
2 2 2 2 2 2 2 2 2 
2 2 2 2 2 2 2 2 2 
2 2 2 2 2 2 2 2 2 
2 2 2 2 2 2 2 2 2 
2 2 2 2 2 2 2 2 2 
2 2 2 2 2 2 2 2 2 
2 2 2 2 2 2 2 2 2 
2 2 2 2 2 2 2 2 2 
2 2 2 2 2 2 2 2 2 
2 2 2 2 2 2 2 2 2 
2 2 2 2 2 2 2 2 2 
2 2 2 2 2 2 2 2 2 
2 2 2 2 2 2 2 2 2 
2 2 2 2 2 2 2 2 2 
2 2 2 2 2 2 2 2 2 
2 2 2 2 2 2 2 2 2 
2 2 2 2 2 2 2 2 2 
2 2 2 2 2 2 2 2 2 
2 2 2 2 2 2 2 2 2 
2 2 2 2 2 2 2 2 2 
2 2 2 2 2 2 2 2 2 
2 2 2 2 2 2 2 2 2 
2 2 2 2 2 2 2 2 2 
2 2 2 2 2 2 2 2 2 
2 2 2 2 2 2 2 2 2 
2 2 2 2 2 2 2 2 2 
2 2 2 2 2 2 2 2 2 
2 2 2 2 2 
R 1 1049 double
0.30266 0.33859 0.31931 0.33263 0.31776 0.2897 0.33777 0.34517 0.27325 
0.27528 0.33421 0.34097 0.28195 0.26351 0.31987 0.30154 0.33184 0.28149 
0.2979 0.33283 0.26354 0.25639 0.32955 0.25774 0.33159 0.33566 0.30352 
0.26298 0.32722 0.27641 0.34126 0.33398 0.34851 0.27491 0.30856 0.34672 
0.32665 0.31815 0.26783 0.25853 0.25399 0.26852 0.28083 0.33828 0.25657 
0.28662 0.31582 0.2889 0.27197 0.2931 0.33382 0.34593 0.34015 0.27735 
0.30199 0.30421 0.25928 0.26761 0.25308 0.31087 0.25528 0.3159 0.30511 
0.27555 0.28172 0.32278 0.27957 0.31651 0.31127 0.25037 0.25099 0.26541 
0.3 0.31364 0.30805 0.27972 0.25997 0.28069 0.27071 0.2685 0.29225 
0.2591 0.32017 0.29693 0.31217 0.27393 0.2957 0.2735 0.33577 0.28827 
0.26173 0.33657 0.28537 0.30482 0.25888 0.3161 0.31621 0.32334 0.25008 
0.27439 0.3228 0.34334 0.26888 0.1 0.1 0.1 0.1 0.1 
0.1 0.1 0.1 0.1 0.1 0.1 0.1 0.1 0.1 
0.1 0.1 0.1 0.1 0.1 0.1 0.1 0.1 0.1 
0.1 0.1 0.1 0.1 0.1 0.1 0.1 0.1 0.1 
0.1 0.1 0.1 0.1 0.1 0.1 0.1 0.1 0.1 
0.1 0.1 0.1 0.1 0.1 0.1 0.1 0.1 0.1 
0.1 0.1 0.1 0.1 0.1 0.1 0.1 0.1 0.1 
0.1 0.1 0.1 0.1 0.1 0.1 0.1 0.1 0.1 
0.1 0.1 0.1 0.1 0.1 0.1 0.1 0.1 0.1 
0.1 0.1 0.1 0.1 0.1 0.1 0.1 0.1 0.1 
0.1 0.1 0.1 0.1 0.1 0.1 0.1 0.1 0.1 
0.1 0.1 0.1 0.1 0.1 0.1 0.1 0.1 0.1 
0.1 0.1 0.1 0.1 0.1 0.1 0.1 0.1 0.1 
0.1 0.1 0.1 0.1 0.1 0.1 0.1 0.1 0.1 
0.1 0.1 0.1 0.1 0.1 0.1 0.1 0.1 0.1 
0.1 0.1 0.1 0.1 0.1 0.1 0.1 0.1 0.1 
0.1 0.1 0.1 0.1 0.1 0.1 0.1 0.1 0.1 
0.1 0.1 0.1 0.1 0.1 0.32361 0.1 0.32716 0.1 
0.26269 0.1 0.33976 0.1 0.1 0.1 0.1 0.1 0.1 
0.1 0.1 0.1 0.1 0.1 0.1 0.1 0.1 0.1 
0.1 0.1 0.1 0.1 0.1 0.1 0.1 0.1 0.1 
0.1 0.1 0.1 0.1 0.1 0.1 0.1 0.1 0.1 
0.1 0.1 0.1 0.1 0.1 0.1 0.1 0.1 0.28428 
0.34368 0.33341 0.28437 0.1 0.1 0.1 0.1 0.1 0.1 
0.1 0.1 0.1 0.1 0.1 0.1 0.1 0.1 0.1 
0.1 0.1 0.1 0.1 0.1 0.1 0.1 0.1 0.1 
0.1 0.1 0.1 0.1 0.1 0.1 0.31506 0.33762 0.1 
0.1 0.1 0.1 0.1 0.1 0.1 0.1 0.1 0.1 
0.25871 0.29985 0.1 0.1 0.1 0.1 0.1 0.1 0.1 
0.1 0.1 0.1 0.1 0.1 0.1 0.1 0.1 0.1 
0.1 0.1 0.1 0.1 0.1 0.1 0.1 0.1 0.1 
0.1 0.1 0.1 0.1 0.1 0.29552 0.1 0.1 0.1 
0.1 0.1 0.1 0.1 0.1 0.1 0.1 0.1 0.1 
0.1 0.1 0.1 0.1 0.1 0.1 0.1 0.1 0.31445 
0.1 0.1 0.1 0.1 0.1 0.1 0.1 0.1 0.1 
0.1 0.1 0.1 0.1 0.1 0.1 0.1 0.1 0.1 
0.1 0.1 0.1 0.1 0.1 0.1 0.1 0.1 0.1 
0.1 0.1 0.1 0.1 0.1 0.1 0.1 0.1 0.1 
0.1 0.1 0.1 0.1 0.1 0.1 0.1 0.1 0.1 
0.1 0.1 0.1 0.1 0.1 0.1 0.1 0.1 0.1 
0.1 0.1 0.1 0.1 0.1 0.1 0.33954 0.1 0.1 
0.1 0.1 0.1 0.1 0.1 0.1 0.1 0.1 0.1 
0.1 0.1 0.1 0.1 0.1 0.1 0.1 0.1 0.1 
0.1 0.1 0.1 0.1 0.1 0.1 0.1 0.1 0.1 
0.1 0.1 0.1 0.1 0.1 0.1 0.1 0.1 0.1 
0.1 0.1 0.1 0.1 0.1 0.1 0.1 0.1 0.1 
0.1 0.1 0.1 0.1 0.1 0.1 0.1 0.1 0.1 
0.1 0.1 0.1 0.1 0.1 0.1 0.1 0.1 0.1 
0.1 0.1 0.1 0.1 0.1 0.1 0.1 0.1 0.1 
0.1 0.1 0.1 0.1 0.1 0.1 0.1 0.1 0.1 
0.1 0.1 0.1 0.1 0.1 0.1 0.1 0.1 0.1 
0.1 0.1 0.1 0.1 0.1 0.1 0.1 0.1 0.1 
0.1 0.1 0.1 0.1 0.1 0.1 0.1 0.1 0.1 
0.1 0.1 0.1 0.1 0.1 0.1 0.1 0.1 0.1 
0.1 0.1 0.1 0.1 0.1 0.1 0.1 0.1 0.1 
0.1 0.25952 0.33412 0.1 0.1 0.1 0.1 0.1 0.1 
0.1 0.1 0.1 0.1 0.1 0.1 0.1 0.1 0.1 
0.1 0.1 0.1 0.1 0.1 0.1 0.1 0.1 0.1 
0.1 0.1 0.1 0.1 0.1 0.1 0.1 0.1 0.1 
0.1 0.1 0.1 0.1 0.1 0.1 0.1 0.1 0.1 
0.1 0.1 0.1 0.1 0.1 0.1 0.1 0.1 0.1 
0.1 0.1 0.1 0.1 0.1 0.1 0.1 0.1 0.1 
0.1 0.1 0.1 0.1 0.1 0.1 0.1 0.1 0.1 
0.1 0.1 0.1 0.1 0.1 0.1 0.1 0.1 0.1 
0.1 0.1 0.1 0.1 0.1 0.1 0.1 0.1 0.1 
0.1 0.1 0.1 0.1 0.1 0.1 0.1 0.1 0.1 
0.1 0.1 0.1 0.1 0.1 0.1 0.1 0.1 0.1 
0.1 0.1 0.1 0.1 0.1 0.1 0.1 0.1 0.1 
0.1 0.1 0.1 0.1 0.1 0.1 0.1 0.1 0.1 
0.1 0.1 0.1 0.1 0.1 0.1 0.1 0.1 0.1 
0.1 0.1 0.1 0.1 0.1 0.1 0.1 0.1 0.1 
0.1 0.1 0.1 0.1 0.1 0.1 0.1 0.1 0.1 
0.1 0.1 0.1 0.1 0.1 0.1 0.1 0.1 0.1 
0.1 0.1 0.1 0.1 0.1 0.1 0.1 0.1 0.1 
0.1 0.1 0.1 0.1 0.1 0.1 0.1 0.1 0.1 
0.1 0.1 0.1 0.1 0.1 0.1 0.1 0.1 0.1 
0.1 0.1 0.1 0.1 0.1 0.1 0.1 0.1 0.1 
0.1 0.1 0.1 0.1 0.1 0.1 0.1 0.1 0.1 
0.1 0.1 0.1 0.1 0.1 0.1 0.1 0.1 0.1 
0.1 0.1 0.1 0.1 0.1 0.1 0.1 0.1 0.1 
0.1 0.1 0.1 0.1 0.1 0.1 0.1 0.1 0.1 
0.1 0.1 0.1 0.1 0.1 0.1 0.1 0.1 0.1 
0.1 0.1 0.1 0.1 0.1 0.1 0.1 0.1 0.1 
0.1 0.1 0.1 0.1 0.1 0.1 0.1 0.1 0.1 
0.1 0.1 0.1 0.1 0.1 0.1 0.1 0.1 0.1 
0.1 0.1 0.1 0.1 0.1 0.1 0.1 0.1 0.1 
0.1 0.1 0.1 0.1 0.1 0.1 0.1 0.1 0.1 
0.1 0.1 0.1 0.1 0.1 0.1 0.1 0.1 0.1 
0.1 0.1 0.1 0.1 0.1 0.1 0.1 0.1 0.1 
0.1 0.1 0.1 0.1 0.1 0.1 0.1 0.1 0.1 
0.1 0.1 0.1 0.1 0.1 0.1 0.1 0.1 0.1 
0.1 0.1 0.1 0.1 0.1 0.1 0.1 0.1 0.1 
0.1 0.1 0.1 0.1 0.1 0.1 0.1 0.1 0.1 
0.1 0.1 0.1 0.1 0.1 0.1 0.1 0.1 0.1 
0.1 0.1 0.1 0.1 0.1 0.1 0.1 0.1 0.1 
0.1 0.1 0.1 0.1 0.1 0.1 0.1 0.1 0.1 
0.1 0.1 0.1 0.1 0.1 0.1 0.1 0.1 0.1 
0.1 0.1 0.1 0.1 0.1 0.1 0.1 0.1 0.1 
0.1 0.1 0.1 0.1 0.1 0.1 0.1 0.1 0.1 
0.1 0.1 0.1 0.1 0.1 0.1 0.1 0.1 0.1 
0.1 0.1 0.1 0.1 0.1 0.1 0.1 0.1 0.1 
0.1 0.1 0.1 0.1 0.1 0.1 0.1 0.1 0.1 
0.1 0.1 0.1 0.1 0.1 0.1 0.1 0.1 0.1 
0.1 0.1 0.1 0.1 0.1 0.1 0.1 0.1 0.1 
0.1 0.1 0.1 0.1 0.1 0.1 0.1 0.1 0.1 
0.1 0.1 0.1 0.1 0.1 
a 3 1049 double
0 0 0 0 0 0 0 0 0 
0 0 0 0 0 0 0 0 0 
0 0 0 0 0 0 0 0 0 
0 0 0 0 0 0 0 0 0 
0 0 0 0 0 0 0 0 0 
0 0 0 0 0 0 0 0 0 
0 0 0 0 0 0 0 0 0 
0 0 0 0 0 0 0 0 0 
0 0 0 0 0 0 0 0 0 
0 0 0 0 0 0 0 0 0 
0 0 0 0 0 0 0 0 0 
0 0 0 0 0 0 0 0 0 
0 0 0 0 0 0 0 0 0 
0 0 0 0 0 0 0 0 0 
0 0 0 0 0 0 0 0 0 
0 0 0 0 0 0 0 0 0 
0 0 0 0 0 0 0 0 0 
0 0 0 0 0 0 0 0 0 
0 0 0 0 0 0 0 0 0 
0 0 0 0 0 0 0 0 0 
0 0 0 0 0 0 0 0 0 
0 0 0 0 0 0 0 0 0 
0 0 0 0 0 0 0 0 0 
0 0 0 0 0 0 0 0 0 
0 0 0 0 0 0 0 0 0 
0 0 0 0 0 0 0 0 0 
0 0 0 0 0 0 0 0 0 
0 0 0 0 0 0 0 0 0 
0 0 0 0 0 0 0 0 0 
0 0 0 0 0 0 0 0 0 
0 0 0 0 0 0 0 0 0 
0 0 0 0 0 0 0 0 0 
0 0 0 0 0 0 0 0 0 
0 0 0 0 0 0 0 0 0 
0 0 0 0 0 0 0 0 0 
0 0 0 0 0 0 0 0 0 
0 0 0 0 0 0 0 0 0 
0 0 0 0 0 0 0 0 0 
0 0 0 0 0 0 0 0 0 
0 0 0 0 0 0 0 0 0 
0 0 0 0 0 0 0 0 0 
0 0 0 0 0 0 0 0 0 
0 0 0 0 0 0 0 0 0 
0 0 0 0 0 0 0 0 0 
0 0 0 0 0 0 0 0 0 
0 0 0 0 0 0 0 0 0 
0 0 0 0 0 0 0 0 0 
0 0 0 0 0 0 0 0 0 
0 0 0 0 0 0 0 0 0 
0 0 0 0 0 0 0 0 0 
0 0 0 0 0 0 0 0 0 
0 0 0 0 0 0 0 0 0 
0 0 0 0 0 0 0 0 0 
0 0 0 0 0 0 0 0 0 
0 0 0 0 0 0 0 0 0 
0 0 0 0 0 0 0 0 0 
0 0 0 0 0 0 0 0 0 
0 0 0 0 0 0 0 0 0 
0 0 0 0 0 0 0 0 0 
0 0 0 0 0 0 0 0 0 
0 0 0 0 0 0 0 0 0 
0 0 0 0 0 0 0 0 0 
0 0 0 0 0 0 0 0 0 
0 0 0 0 0 0 0 0 0 
0 0 0 0 0 0 0 0 0 
0 0 0 0 0 0 0 0 0 
0 0 0 0 0 0 0 0 0 
0 0 0 0 0 0 0 0 0 
0 0 0 0 0 0 0 0 0 
0 0 0 0 0 0 0 0 0 
0 0 0 0 0 0 0 0 0 
0 0 0 0 0 0 0 0 0 
0 0 0 0 0 0 0 0 0 
0 0 0 0 0 0 0 0 0 
0 0 0 0 0 0 0 0 0 
0 0 0 0 0 0 0 0 0 
0 0 0 0 0 0 0 0 0 
0 0 0 0 0 0 0 0 0 
0 0 0 0 0 0 0 0 0 
0 0 0 0 0 0 0 0 0 
0 0 0 0 0 0 0 0 0 
0 0 0 0 0 0 0 0 0 
0 0 0 0 0 0 0 0 0 
0 0 0 0 0 0 0 0 0 
0 0 0 0 0 0 0 0 0 
0 0 0 0 0 0 0 0 0 
0 0 0 0 0 0 0 0 0 
0 0 0 0 0 0 0 0 0 
0 0 0 0 0 0 0 0 0 
0 0 0 0 0 0 0 0 0 
0 0 0 0 0 0 0 0 0 
0 0 0 0 0 0 0 0 0 
0 0 0 0 0 0 0 0 0 
0 0 0 0 0 0 0 0 0 
0 0 0 0 0 0 0 0 0 
0 0 0 0 0 0 0 0 0 
0 0 0 0 0 0 0 0 0 
0 0 0 0 0 0 0 0 0 
0 0 0 0 0 0 0 0 0 
0 0 0 0 0 0 0 0 0 
0 0 0 0 0 0 0 0 0 
0 0 0 0 0 0 0 0 0 
0 0 0 0 0 0 0 0 0 
0 0 0 0 0 0 0 0 0 
0 0 0 0 0 0 0 0 0 
0 0 0 0 0 0 0 0 0 
0 0 0 0 0 0 0 0 0 
0 0 0 0 0 0 0 0 0 
0 0 0 0 0 0 0 0 0 
0 0 0 0 0 0 0 0 0 
0 0 0 0 0 0 0 0 0 
0 0 0 0 0 0 0 0 0 
0 0 0 0 0 0 0 0 0 
0 0 0 0 0 0 0 0 0 
0 0 0 0 0 0 0 0 0 
0 0 0 0 0 0 0 0 0 
0 0 0 0 0 0 0 0 0 
0 0 0 0 0 0 0 0 0 
0 0 0 0 0 0 0 0 0 
0 0 0 0 0 0 0 0 0 
0 0 0 0 0 0 0 0 0 
0 0 0 0 0 0 0 0 0 
0 0 0 0 0 0 0 0 0 
0 0 0 0 0 0 0 0 0 
0 0 0 0 0 0 0 0 0 
0 0 0 0 0 0 0 0 0 
0 0 0 0 0 0 0 0 0 
0 0 0 0 0 0 0 0 0 
0 0 0 0 0 0 0 0 0 
0 0 0 0 0 0 0 0 0 
0 0 0 0 0 0 0 0 0 
0 0 0 0 0 0 0 0 0 
0 0 0 0 0 0 0 0 0 
0 0 0 0 0 0 0 0 0 
0 0 0 0 0 0 0 0 0 
0 0 0 0 0 0 0 0 0 
0 0 0 0 0 0 0 0 0 
0 0 0 0 0 0 0 0 0 
0 0 0 0 0 0 0 0 0 
0 0 0 0 0 0 0 0 0 
0 0 0 0 0 0 0 0 0 
0 0 0 0 0 0 0 0 0 
0 0 0 0 0 0 0 0 0 
0 0 0 0 0 0 0 0 0 
0 0 0 0 0 0 0 0 0 
0 0 0 0 0 0 0 0 0 
0 0 0 0 0 0 0 0 0 
0 0 0 0 0 0 0 0 0 
0 0 0 0 0 0 0 0 0 
0 0 0 0 0 0 0 0 0 
0 0 0 0 0 0 0 0 0 
0 0 0 0 0 0 0 0 0 
0 0 0 0 0 0 0 0 0 
0 0 0 0 0 0 0 0 0 
0 0 0 0 0 0 0 0 0 
0 0 0 0 0 0 0 0 0 
0 0 0 0 0 0 0 0 0 
0 0 0 0 0 0 0 0 0 
0 0 0 0 0 0 0 0 0 
0 0 0 0 0 0 0 0 0 
0 0 0 0 0 0 0 0 0 
0 0 0 0 0 0 0 0 0 
0 0 0 0 0 0 0 0 0 
0 0 0 0 0 0 0 0 0 
0 0 0 0 0 0 0 0 0 
0 0 0 0 0 0 0 0 0 
0 0 0 0 0 0 0 0 0 
0 0 0 0 0 0 0 0 0 
0 0 0 0 0 0 0 0 0 
0 0 0 0 0 0 0 0 0 
0 0 0 0 0 0 0 0 0 
0 0 0 0 0 0 0 0 0 
0 0 0 0 0 0 0 0 0 
0 0 0 0 0 0 0 0 0 
0 0 0 0 0 0 0 0 0 
0 0 0 0 0 0 0 0 0 
0 0 0 0 0 0 0 0 0 
0 0 0 0 0 0 0 0 0 
0 0 0 0 0 0 0 0 0 
0 0 0 0 0 0 0 0 0 
0 0 0 0 0 0 0 0 0 
0 0 0 0 0 0 0 0 0 
0 0 0 0 0 0 0 0 0 
0 0 0 0 0 0 0 0 0 
0 0 0 0 0 0 0 0 0 
0 0 0 0 0 0 0 0 0 
0 0 0 0 0 0 0 0 0 
0 0 0 0 0 0 0 0 0 
0 0 0 0 0 0 0 0 0 
0 0 0 0 0 0 0 0 0 
0 0 0 0 0 0 0 0 0 
0 0 0 0 0 0 0 0 0 
0 0 0 0 0 0 0 0 0 
0 0 0 0 0 0 0 0 0 
0 0 0 0 0 0 0 0 0 
0 0 0 0 0 0 0 0 0 
0 0 0 0 0 0 0 0 0 
0 0 0 0 0 0 0 0 0 
0 0 0 0 0 0 0 0 0 
0 0 0 0 0 0 0 0 0 
0 0 0 0 0 0 0 0 0 
0 0 0 0 0 0 0 0 0 
0 0 0 0 0 0 0 0 0 
0 0 0 0 0 0 0 0 0 
0 0 0 0 0 0 0 0 0 
0 0 0 0 0 0 0 0 0 
0 0 0 0 0 0 0 0 0 
0 0 0 0 0 0 0 0 0 
0 0 0 0 0 0 0 0 0 
0 0 0 0 0 0 0 0 0 
0 0 0 0 0 0 0 0 0 
0 0 0 0 0 0 0 0 0 
0 0 0 0 0 0 0 0 0 
0 0 0 0 0 0 0 0 0 
0 0 0 0 0 0 0 0 0 
0 0 0 0 0 0 0 0 0 
0 0 0 0 0 0 0 0 0 
0 0 0 0 0 0 0 0 0 
0 0 0 0 0 0 0 0 0 
0 0 0 0 0 0 0 0 0 
0 0 0 0 0 0 0 0 0 
0 0 0 0 0 0 0 0 0 
0 0 0 0 0 0 0 0 0 
0 0 0 0 0 0 0 0 0 
0 0 0 0 0 0 0 0 0 
0 0 0 0 0 0 0 0 0 
0 0 0 0 0 0 0 0 0 
0 0 0 0 0 0 0 0 0 
0 0 0 0 0 0 0 0 0 
0 0 0 0 0 0 0 0 0 
0 0 0 0 0 0 0 0 0 
0 0 0 0 0 0 0 0 0 
0 0 0 0 0 0 0 0 0 
0 0 0 0 0 0 0 0 0 
0 0 0 0 0 0 0 0 0 
0 0 0 0 0 0 0 0 0 
0 0 0 0 0 0 0 0 0 
0 0 0 0 0 0 0 0 0 
0 0 0 0 0 0 0 0 0 
0 0 0 0 0 0 0 0 0 
0 0 0 0 0 0 0 0 0 
0 0 0 0 0 0 0 0 0 
0 0 0 0 0 0 0 0 0 
0 0 0 0 0 0 0 0 0 
0 0 0 0 0 0 0 0 0 
0 0 0 0 0 0 0 0 0 
0 0 0 0 0 0 0 0 0 
0 0 0 0 0 0 0 0 0 
0 0 0 0 0 0 0 0 0 
0 0 0 0 0 0 0 0 0 
0 0 0 0 0 0 0 0 0 
0 0 0 0 0 0 0 0 0 
0 0 0 0 0 0 0 0 0 
0 0 0 0 0 0 0 0 0 
0 0 0 0 0 0 0 0 0 
0 0 0 0 0 0 0 0 0 
0 0 0 0 0 0 0 0 0 
0 0 0 0 0 0 0 0 0 
0 0 0 0 0 0 0 0 0 
0 0 0 0 0 0 0 0 0 
0 0 0 0 0 0 0 0 0 
0 0 0 0 0 0 0 0 0 
0 0 0 0 0 0 0 0 0 
0 0 0 0 0 0 0 0 0 
0 0 0 0 0 0 0 0 0 
0 0 0 0 0 0 0 0 0 
0 0 0 0 0 0 0 0 0 
0 0 0 0 0 0 0 0 0 
0 0 0 0 0 0 0 0 0 
0 0 0 0 0 0 0 0 0 
0 0 0 0 0 0 0 0 0 
0 0 0 0 0 0 0 0 0 
0 0 0 0 0 0 0 0 0 
0 0 0 0 0 0 0 0 0 
0 0 0 0 0 0 0 0 0 
0 0 0 0 0 0 0 0 0 
0 0 0 0 0 0 0 0 0 
0 0 0 0 0 0 0 0 0 
0 0 0 0 0 0 0 0 0 
0 0 0 0 0 0 0 0 0 
0 0 0 0 0 0 0 0 0 
0 0 0 0 0 0 0 0 0 
0 0 0 0 0 0 0 0 0 
0 0 0 0 0 0 0 0 0 
0 0 0 0 0 0 0 0 0 
0 0 0 0 0 0 0 0 0 
0 0 0 0 0 0 0 0 0 
0 0 0 0 0 0 0 0 0 
0 0 0 0 0 0 0 0 0 
0 0 0 0 0 0 0 0 0 
0 0 0 0 0 0 0 0 0 
0 0 0 0 0 0 0 0 0 
0 0 0 0 0 0 0 0 0 
0 0 0 0 0 0 0 0 0 
0 0 0 0 0 0 0 0 0 
0 0 0 0 0 0 0 0 0 
0 0 0 0 0 0 0 0 0 
0 0 0 0 0 0 0 0 0 
0 0 0 0 0 0 0 0 0 
0 0 0 0 0 0 0 0 0 
0 0 0 0 0 0 0 0 0 
0 0 0 0 0 0 0 0 0 
0 0 0 0 0 0 0 0 0 
0 0 0 0 0 0 0 0 0 
0 0 0 0 0 0 0 0 0 
0 0 0 0 0 0 0 0 0 
0 0 0 0 0 0 0 0 0 
0 0 0 0 0 0 0 0 0 
0 0 0 0 0 0 0 0 0 
0 0 0 0 0 0 0 0 0 
0 0 0 0 0 0 0 0 0 
0 0 0 0 0 0 0 0 0 
0 0 0 0 0 0 0 0 0 
0 0 0 0 0 0 0 0 0 
0 0 0 0 0 0 0 0 0 
0 0 0 0 0 0 0 0 0 
0 0 0 0 0 0 0 0 0 
0 0 0 0 0 0 0 0 0 
0 0 0 0 0 0 0 0 0 
0 0 0 0 0 0 0 0 0 
0 0 0 0 0 0 0 0 0 
0 0 0 0 0 0 0 0 0 
0 0 0 0 0 0 0 0 0 
0 0 0 0 0 0 0 0 0 
0 0 0 0 0 0 0 0 0 
0 0 0 0 0 0 0 0 0 
0 0 0 0 0 0 0 0 0 
0 0 0 0 0 0 0 0 0 
0 0 0 0 0 0 0 0 0 
0 0 0 0 0 0 0 0 0 
0 0 0 0 0 0 0 0 0 
0 0 0 0 0 0 0 0 0 
0 0 0 0 0 0 0 0 0 
0 0 0 0 0 0 0 0 0 
0 0 0 0 0 0 0 0 0 
0 0 0 0 0 0 0 0 0 
0 0 0 0 0 0 0 0 0 
0 0 0 0 0 0 0 0 0 
0 0 0 0 0 0 0 0 0 
0 0 0 0 0 0 0 0 0 
0 0 0 0 0 0 0 0 0 
0 0 0 0 0 0 0 0 0 
0 0 0 0 0 0 0 0 0 
0 0 0 0 0 0 0 0 0 
0 0 0 0 0 0 0 0 0 
0 0 0 0 0 0 0 0 0 
0 0 0 0 0 0 0 0 0 
0 0 0 0 0 0 0 0 0 
0 0 0 0 0 0 0 0 0 
0 0 0 0 0 0 
v 3 1049 double
0.120722 -0.128074 0 0.0264882 -0.194483 0 -0.0284485 -0.0168864 0 
0.0777037 0.0583367 0 0.00880269 -0.201234 0 0.151714 -0.200406 0 
-0.0252101 -1.51019 0 -0.0630435 -0.10373 0 0.189119 0.120561 0 
0.45317 -0.0120668 0 -0.64735 -0.305613 0 -0.278341 0.875751 0 
-0.539738 -0.410603 0 0.45558 -0.334131 0 5.48028 3.07825 0 
0.210072 -0.201349 0 -0.0374984 -0.369878 0 -0.0112739 0.150793 0 
0.17996 -0.3418 0 -0.114016 -0.230541 0 0.279434 -0.0810163 0 
0.347239 -0.163605 0 0.0656749 -0.257295 0 0.519473 0.374826 0 
-0.510213 0.331694 0 0.00864332 -0.16517 0 0.286847 -0.575449 0 
0.448679 0.173493 0 -0.289757 -0.138607 0 0.348085 0.278511 0 
-0.0464851 0.0901225 0 -1.11831 -0.229772 0 -0.381644 -1.27299 0 
0.18302 -0.498209 0 -0.277714 -0.440148 0 0.840785 -0.395882 0 
0.362939 -0.450106 0 0.497586 -0.186665 0 0.081362 -0.0986892 0 
0.247173 0.0849668 0 0.150085 0.171565 0 0.245235 -0.148048 0 
0.508798 -0.149258 0 -0.0153614 -0.0306863 0 -0.0201935 -0.0155141 0 
-0.0966679 0.246608 0 -0.267311 -0.415894 0 -0.459934 -0.522659 0 
-0.552001 -0.447556 0 -0.705156 -0.48917 0 0.790926 -0.628922 0 
0.794198 -0.663455 0 -0.66994 -0.496255 0 -0.913918 -0.6831 0 
-0.685626 -0.55516 0 -0.911538 -0.727419 0 -0.924938 -0.721319 0 
-0.616521 -0.6195 0 0.83485 -0.667708 0 0.869991 -0.604631 0 
0.869252 -0.687873 0 0.879104 -0.658518 0 -0.806861 -0.651194 0 
-0.808979 -0.701887 0 -0.834746 -0.668694 0 -0.709161 -0.476891 0 
0.859152 -0.695669 0 -0.743686 -0.604531 0 -0.629529 -0.494169 0 
-0.680387 -0.614807 0 0.568829 -0.463028 0 0.689637 -0.669047 0 
0.719659 -0.563089 0 -0.783438 -0.649901 0 -0.792886 -0.686457 0 
-0.703085 -0.615744 0 -0.879111 -0.653957 0 -0.732542 -0.612968 0 
-0.856977 -0.675778 0 -0.607102 -0.479063 0 0.604232 -0.573232 0 
0.649185 -0.464258 0 0.7748 -0.610438 0 0.812987 -0.631714 0 
-0.84388 -0.610461 0 -0.875049 -0.639962 0 -0.927152 -0.722712 0 
-0.781123 -0.574017 0 -0.877564 -0.730651 0 -0.730081 -0.706393 0 
0.652816 -0.62847 0 0.909741 -0.699746 0 0.738303 -0.598713 0 
0.632369 -0.442475 0 -0.902937 -0.612712 0 -0.940268 -0.671033 0 
-0.833011 -0.658559 0 0.821741 -0.607265 0 -0.740806 -0.635674 0 
-0.68596 -0.513094 0 -0.666942 -0.518148 0 -0.552739 -1.29812 0 
-0.427228 -1.13271 0 0 0 0 0 0 0 
0 0 0 0 0 0 0 0 0 
0 0 0 0 0 0 0 0 0 
0 0 0 0 0 0 0 0 0 
0 0 0 0 0 0 0 0 0 
0 0 0 0 0 0 0 0 0 
0 0 0 0 0 0 0 0 0 
0 0 0 0 0 0 0 0 0 
0 0 0 0 0 0 0 0 0 
0 0 0 0 0 0 0 0 0 
0 0 0 0 0 0 0 0 0 
0 0 0 0 0 0 0 0 0 
0 0 0 0 0 0 0 0 0 
0 0 0 0 0 0 0 0 0 
0 0 0 0 0 0 0 0 0 
0 0 0 0 0 0 0 0 0 
0 0 0 0 0 0 0 0 0 
0 0 0 0 0 0 0 0 0 
0 0 0 0 0 0 0 0 0 
0 0 0 0 0 0 0 0 0 
0 0 0 0 0 0 0 0 0 
0 0 0 0 0 0 0 0 0 
0 0 0 0 0 0 0 0 0 
0 0 0 0 0 0 0 0 0 
0 0 0 0 0 0 0 0 0 
0 0 0 0 0 0 0 0 0 
0 0 0 0 0 0 0 0 0 
0 0 0 0 0 0 0 0 0 
0 0 0 0 0 0 0 0 0 
0 0 0 0 0 0 0 0 0 
0 0 0 0 0 0 0 0 0 
0 0 0 0 0 0 0 0 0 
0 0 0 0 0 0 0 0 0 
0 0 0 0 0 0 0 0 0 
0 0 0 0 0 0 0 0 0 
0 0 0 0 0 0 0 0 0 
0 0 0 0 0 0 0 0 0 
0 0 0 0 0 0 0 0 0 
0 0 0 0 0 0 0 0 0 
0 0 0 0 0 0 0 0 0 
0 0 0 0 0 0 0 0 0 
0 0 0 0 0 0 0 0 0 
0 0 0 0 0 0 0 0 0 
0 0 0 0 0 0 0 0 0 
0 0 0 0 0 0 0 0 0 
0 0 0 0 0 0 0 0 0 
0 0 0 0 0 0 0 0 0 
0 0 0 0 0 0 0 0 0 
0 0 0 0 0 0 0 0 0 
0 0 0 0 0 0 0 0 0 
0 0 0 0 0 0 0 0 0 
0 0 0 0 0 0 0.186172 -0.80055 0 
0 0 0 -0.785886 -0.555182 0 0 0 0 
-0.0328753 -0.334508 0 0 0 0 0.0871707 -0.27029 0 
0 0 0 0 0 0 0 0 0 
0 0 0 0 0 0 0 0 0 
0 0 0 0 0 0 0 0 0 
0 0 0 0 0 0 0 0 0 
0 0 0 0 0 0 0 0 0 
0 0 0 0 0 0 0 0 0 
0 0 0 0 0 0 0 0 0 
0 0 0 0 0 0 0 0 0 
0 0 0 0 0 0 0 0 0 
0 0 0 0 0 0 0 0 0 
0 0 0 0 0 0 0 0 0 
0 0 0 0 0 0 0 0 0 
0 0 0 0 0 0 0 0 0 
0 0 0 0 0 0 0.157268 -0.514475 0 
-0.123391 -0.762332 0 -0.148977 -0.252286 0 0.158716 -0.435023 0 
0 0 0 0 0 0 0 0 0 
0 0 0 0 0 0 0 0 0 
0 0 0 0 0 0 0 0 0 
0 0 0 0 0 0 0 0 0 
0 0 0 0 0 0 0 0 0 
0 0 0 0 0 0 0 0 0 
0 0 0 0 0 0 0 0 0 
0 0 0 0 0 0 0 0 0 
0 0 0 0 0 0 0 0 0 
0 0 0 0 0 0 0 0 0 
0.204532 -0.696259 0 0.174005 -0.737604 0 0 0 0 
0 0 0 0 0 0 0 0 0 
0 0 0 0 0 0 0 0 0 
0 0 0 0 0 0 0 0 0 
-0.247993 -0.769466 0 -0.218619 -0.796889 0 0 0 0 
0 0 0 0 0 0 0 0 0 
0 0 0 0 0 0 0 0 0 
0 0 0 0 0 0 0 0 0 
0 0 0 0 0 0 0 0 0 
0 0 0 0 0 0 0 0 0 
0 0 0 0 0 0 0 0 0 
0 0 0 0 0 0 0 0 0 
0 0 0 0 0 0 0 0 0 
0 0 0 0 0 0 0 0 0 
0 0 0 0 0 0 -0.241577 -0.792547 0 
0 0 0 0 0 0 0 0 0 
0 0 0 0 0 0 0 0 0 
0 0 0 0 0 0 0 0 0 
0 0 0 0 0 0 0 0 0 
0 0 0 0 0 0 0 0 0 
0 0 0 0 0 0 0 0 0 
0 0 0 0 0 0 -0.111397 -0.735681 0 
0 0 0 0 0 0 0 0 0 
0 0 0 0 0 0 0 0 0 
0 0 0 0 0 0 0 0 0 
0 0 0 0 0 0 0 0 0 
0 0 0 0 0 0 0 0 0 
0 0 0 0 0 0 0 0 0 
0 0 0 0 0 0 0 0 0 
0 0 0 0 0 0 0 0 0 
0 0 0 0 0 0 0 0 0 
0 0 0 0 0 0 0 0 0 
0 0 0 0 0 0 0 0 0 
0 0 0 0 0 0 0 0 0 
0 0 0 0 0 0 0 0 0 
0 0 0 0 0 0 0 0 0 
0 0 0 0 0 0 0 0 0 
0 0 0 0 0 0 0 0 0 
0 0 0 0 0 0 0 0 0 
0 0 0 0 0 0 0 0 0 
0 0 0 0 0 0 0 0 0 
0 0 0 0 0 0 0 0 0 
-0.10619 -0.700733 0 0 0 0 0 0 0 
0 0 0 0 0 0 0 0 0 
0 0 0 0 0 0 0 0 0 
0 0 0 0 0 0 0 0 0 
0 0 0 0 0 0 0 0 0 
0 0 0 0 0 0 0 0 0 
0 0 0 0 0 0 0 0 0 
0 0 0 0 0 0 0 0 0 
0 0 0 0 0 0 0 0 0 
0 0 0 0 0 0 0 0 0 
0 0 0 0 0 0 0 0 0 
0 0 0 0 0 0 0 0 0 
0 0 0 0 0 0 0 0 0 
0 0 0 0 0 0 0 0 0 
0 0 0 0 0 0 0 0 0 
0 0 0 0 0 0 0 0 0 
0 0 0 0 0 0 0 0 0 
0 0 0 0 0 0 0 0 0 
0 0 0 0 0 0 0 0 0 
0 0 0 0 0 0 0 0 0 
0 0 0 0 0 0 0 0 0 
0 0 0 0 0 0 0 0 0 
0 0 0 0 0 0 0 0 0 
0 0 0 0 0 0 0 0 0 
0 0 0 0 0 0 0 0 0 
0 0 0 0 0 0 0 0 0 
0 0 0 0 0 0 0 0 0 
0 0 0 0 0 0 0 0 0 
0 0 0 0 0 0 0 0 0 
0 0 0 0 0 0 0 0 0 
0 0 0 0 0 0 0 0 0 
0 0 0 0 0 0 0 0 0 
0 0 0 0 0 0 0 0 0 
0 0 0 0 0 0 0 0 0 
0 0 0 0 0 0 0 0 0 
0 0 0 0 0 0 0 0 0 
0 0 0 0 0 0 0 0 0 
0 0 0 0 0 0 0 0 0 
0 0 0 0 0 0 0 0 0 
0 0 0 0 0 0 0 0 0 
0 0 0 0 0 0 0 0 0 
0 0 0 0 0 0 0 0 0 
0 0 0 0 0 0 0 0 0 
0 0 0 -0.104165 -0.682797 0 -0.103661 -0.683558 0 
0 0 0 0 0 0 0 0 0 
0 0 0 0 0 0 0 0 0 
0 0 0 0 0 0 0 0 0 
0 0 0 0 0 0 0 0 0 
0 0 0 0 0 0 0 0 0 
0 0 0 0 0 0 0 0 0 
0 0 0 0 0 0 0 0 0 
0 0 0 0 0 0 0 0 0 
0 0 0 0 0 0 0 0 0 
0 0 0 0 0 0 0 0 0 
0 0 0 0 0 0 0 0 0 
0 0 0 0 0 0 0 0 0 
0 0 0 0 0 0 0 0 0 
0 0 0 0 0 0 0 0 0 
0 0 0 0 0 0 0 0 0 
0 0 0 0 0 0 0 0 0 
0 0 0 0 0 0 0 0 0 
0 0 0 0 0 0 0 0 0 
0 0 0 0 0 0 0 0 0 
0 0 0 0 0 0 0 0 0 
0 0 0 0 0 0 0 0 0 
0 0 0 0 0 0 0 0 0 
0 0 0 0 0 0 0 0 0 
0 0 0 0 0 0 0 0 0 
0 0 0 0 0 0 0 0 0 
0 0 0 0 0 0 0 0 0 
0 0 0 0 0 0 0 0 0 
0 0 0 0 0 0 0 0 0 
0 0 0 0 0 0 0 0 0 
0 0 0 0 0 0 0 0 0 
0 0 0 0 0 0 0 0 0 
0 0 0 0 0 0 0 0 0 
0 0 0 0 0 0 0 0 0 
0 0 0 0 0 0 0 0 0 
0 0 0 0 0 0 0 0 0 
0 0 0 0 0 0 0 0 0 
0 0 0 0 0 0 0 0 0 
0 0 0 0 0 0 0 0 0 
0 0 0 0 0 0 0 0 0 
0 0 0 0 0 0 0 0 0 
0 0 0 0 0 0 0 0 0 
0 0 0 0 0 0 0 0 0 
0 0 0 0 0 0 0 0 0 
0 0 0 0 0 0 0 0 0 
0 0 0 0 0 0 0 0 0 
0 0 0 0 0 0 0 0 0 
0 0 0 0 0 0 0 0 0 
0 0 0 0 0 0 0 0 0 
0 0 0 0 0 0 0 0 0 
0 0 0 0 0 0 0 0 0 
0 0 0 0 0 0 0 0 0 
0 0 0 0 0 0 0 0 0 
0 0 0 0 0 0 0 0 0 
0 0 0 0 0 0 0 0 0 
0 0 0 0 0 0 0 0 0 
0 0 0 0 0 0 0 0 0 
0 0 0 0 0 0 0 0 0 
0 0 0 0 0 0 0 0 0 
0 0 0 0 0 0 0 0 0 
0 0 0 0 0 0 0 0 0 
0 0 0 0 0 0 0 0 0 
0 0 0 0 0 0 0 0 0 
0 0 0 0 0 0 0 0 0 
0 0 0 0 0 0 0 0 0 
0 0 0 0 0 0 0 0 0 
0 0 0 0 0 0 0 0 0 
0 0 0 0 0 0 0 0 0 
0 0 0 0 0 0 0 0 0 
0 0 0 0 0 0 0 0 0 
0 0 0 0 0 0 0 0 0 
0 0 0 0 0 0 0 0 0 
0 0 0 0 0 0 0 0 0 
0 0 0 0 0 0 0 0 0 
0 0 0 0 0 0 0 0 0 
0 0 0 0 0 0 0 0 0 
0 0 0 0 0 0 0 0 0 
0 0 0 0 0 0 0 0 0 
0 0 0 0 0 0 0 0 0 
0 0 0 0 0 0 0 0 0 
0 0 0 0 0 0 0 0 0 
0 0 0 0 0 0 0 0 0 
0 0 0 0 0 0 0 0 0 
0 0 0 0 0 0 0 0 0 
0 0 0 0 0 0 0 0 0 
0 0 0 0 0 0 0 0 0 
0 0 0 0 0 0 0 0 0 
0 0 0 0 0 0 0 0 0 
0 0 0 0 0 0 0 0 0 
0 0 0 0 0 0 0 0 0 
0 0 0 0 0 0 0 0 0 
0 0 0 0 0 0 0 0 0 
0 0 0 0 0 0 0 0 0 
0 0 0 0 0 0 0 0 0 
0 0 0 0 0 0 0 0 0 
0 0 0 0 0 0 0 0 0 
0 0 0 0 0 0 0 0 0 
0 0 0 0 0 0 0 0 0 
0 0 0 0 0 0 0 0 0 
0 0 0 0 0 0 0 0 0 
0 0 0 0 0 0 0 0 0 
0 0 0 0 0 0 0 0 0 
0 0 0 0 0 0 0 0 0 
0 0 0 0 0 0 0 0 0 
0 0 0 0 0 0 0 0 0 
0 0 0 0 0 0 0 0 0 
0 0 0 0 0 0 0 0 0 
0 0 0 0 0 0 0 0 0 
0 0 0 0 0 0 0 0 0 
0 0 0 0 0 0 0 0 0 
0 0 0 0 0 0 0 0 0 
0 0 0 0 0 0 0 0 0 
0 0 0 0 0 0 0 0 0 
0 0 0 0 0 0 0 0 0 
0 0 0 0 0 0 0 0 0 
0 0 0 0 0 0 0 0 0 
0 0 0 0 0 0 0 0 0 
0 0 0 0 0 0 0 0 0 
0 0 0 0 0 0 0 0 0 
0 0 0 0 0 0 0 0 0 
0 0 0 0 0 0 0 0 0 
0 0 0 0 0 0 0 0 0 
0 0 0 0 0 0 0 0 0 
0 0 0 0 0 0 0 0 0 
0 0 0 0 0 0 0 0 0 
0 0 0 0 0 0 0 0 0 
0 0 0 0 0 0 0 0 0 
0 0 0 0 0 0 0 0 0 
0 0 0 0 0 0 0 0 0 
0 0 0 0 0 0 0 0 0 
0 0 0 0 0 0 0 0 0 
0 0 0 0 0 0 0 0 0 
0 0 0 0 0 0 0 0 0 
0 0 0 0 0 0 0 0 0 
0 0 0 0 0 0 0 0 0 
0 0 0 0 0 0 0 0 0 
0 0 0 0 0 0 0 0 0 
0 0 0 0 0 0 0 0 0 
0 0 0 0 0 0 0 0 0 
0 0 0 0 0 0 0 0 0 
0 0 0 0 0 0 0 0 0 
0 0 0 0 0 0 0 0 0 
0 0 0 0 0 0 0 0 0 
0 0 0 0 0 0 0 0 0 
0 0 0 0 0 0 0 0 0 
0 0 0 0 0 0 0 0 0 
0 0 0 0 0 0 0 0 0 
0 0 0 0 0 0 0 0 0 
0 0 0 0 0 0 0 0 0 
0 0 0 0 0 0 0 0 0 
0 0 0 0 0 0 0 0 0 
0 0 0 0 0 0 
x 1 1049 double
-0.2607 -0.748742 0.793873 0.224513 -1.49172 -1.2296 -0.178381 -0.890615 -0.229943 
-0.421344 -0.642632 0.44045 0.0968082 0.57225 -0.0235019 1.0714 1.0277 1.53595 
-2.09865 -1.65103 -1.21049 -1.67118 -1.04601 -0.180716 -0.462207 -0.316374 -0.72882 
0.578989 0.935196 0.97213 0.143283 0.604418 0.229764 1.42018 1.45456 -1.95645 
-1.85819 -1.42068 -0.0466097 -0.531975 -0.305925 -0.927971 -0.928507 0.442333 0.24032 
0.841524 1.33914 1.76957 2.47396 3.01802 -3.90886 -3.21644 2.15858 2.80293 
3.58593 3.36843 3.90008 4.05794 -4.69887 -4.10655 -4.16568 -3.2663 3.19623 
3.77276 4.68354 4.856 -5.03975 5.9788 6.37269 6.9649 -8.41286 -7.19239 
-6.53974 5.96319 6.5282 7.26968 7.07373 7.63364 7.39986 8.37394 -9.39393 
-8.87969 -7.91152 -7.12289 6.30273 6.88187 7.63665 8.31185 8.28145 9.26244 
-10.418 -9.06783 -9.57443 -8.71215 8.81105 9.35459 9.66981 -10.3772 10.4569 
10.6841 11.292 11.7936 11.8328 -14.4643 -15 -14.1071 -14.8214 -14.6429 
-15 -14.2857 -15 -15 -15 -13.0357 -13.2143 -13.75 -13.5714 
-13.3929 -13.9286 -12.6786 -12.5 -12.8571 -11.3214 -11.5 -11.1429 -10.6071 
-10.0714 -10.7857 -10.4286 -10.25 -10.9643 -9.8929 -9.1786 -9.5357 -9.3571 
-9.7143 -9 -8.8 -9 -9 -9 -8.2 -9 -8.4 
-8.6 -8 -7.2 -7.4 -7.8 -7.6 -6.8 -6.2 -6.4 
-6.6 -7 -6 -5.2 -5.8 -5.6 -5.4 -4.4 -4.2 
-4.8 -5 -4.6 -4 -3.8 -3.2 -3.6 -3.4 -3 
-2.2 -3 -2.4 -3 -2.6 -3 -3 -2.8 -1.4 
-1.6 -1.2 -1.8 -2 -0.8 -0.6 -0.2 -0.4 -1 
0.4 0.8 -0 0.2 0.6 1.6 1.4 1 1.8 
1.2 2.6 2.2 2.4 2 2.8 3 3 3.2 
3 3.8 3.6 3.4 3 3 4.6 4.2 4 
4.4 4.8 5 5.4 5.8 5.2 5.6 6.8 6.4 
6.2 6.6 6 7.8 7 7.4 7.6 7.2 8.4 
8.6 8 8.2 8.8 9.8929 9 9.3571 9 9.7143 
9 9 9.1786 9.5357 9 10.0714 10.9643 10.7857 10.4286 
10.25 10.6071 11.3214 11.1429 11.5 11.6599 12.5 12.2558 12.8571 
12.8213 12.6786 12.2676 13.3929 13.0357 13.2143 13.5714 13.9286 13.75 
14.1071 14.2857 14.6429 14.4643 14.8214 15 15 15 15 
15 -15 -15 -15 -15 -15 -9 -9 -9 
-9 -9 -3 -3 -3 -3 -3 3 3 
3 3 3 9 9 9 9 9 11.145 
11.4627 12.0777 12.3794 15 15 15 15 15 -15 
-15 -15 -15 -15 -9 -9 -9 -9 -9 
-3 -3 -3 -3 -3 3 3 3 3 
3 9 9 9 9 9 11.7236 11.216 15 
15 15 15 15 -15 -15 -15 -15 -15 
-11.1678 -10.8034 -9 -9 -9 -9 -9 -3 -3 
-3 -3 -3 3 3 3 3 3 9 
9 9 9 9 15 15 15 15 15 
-15 -15 -15 -15 -15 -10.6674 -9 -9 -9 
-9 -9 -3 -3 -3 -3 -3 3 3 
3 3 3 9 9 9 9 9 12.703 
15 15 15 15 15 -15 -15 -15 -15 
-15 -9 -9 -9 -9 -9 -3 -3 -3 
-3 -3 3 3 3 3 3 9 9 
9 9 9 15 15 15 15 15 -15 
-15 -15 -15 -15 -9 -9 -9 -9 -9 
-3 -3 -3 -3 -3 3 3 3 3 
3 9 9 9 9 9 12.9209 15 15 
15 15 15 -15 -15 -15 -15 -15 -9 
-9 -9 -9 -9 -3 -3 -3 -3 -3 
3 3 3 3 3 9 9 9 9 
9 15 15 15 15 15 -15 -15 -15 
-15 -15 -9 -8.1071 -8.4643 -8.2857 -8.8214 -8.6429 -7.75 
-7.2143 -7.3929 -7.0357 -7.9286 -7.5714 -6.8571 -6.5 -6.6786 -5.5 
-5.1429 -5.3214 -4.9643 -4.6071 -4.25 -4.7857 -4.4286 -4.0714 -3.5357 
-3.3571 -3.1786 -3.8929 -3.7143 -2.6429 -2.4643 -2.2857 -2.1071 -2.8214 
-3 -1.2143 -1.9286 -1.3929 -1.0357 -1.5714 -1.75 -0.5 -0.6786 
-0.8571 0.5 0.6786 0.8571 1.5714 1.2143 1.75 1.9286 1.3929 
1.0357 2.4643 2.1071 2.2857 2.6429 2.8214 3.5357 3.7143 3.1786 
3.3571 3.8929 3 4.7857 4.6071 4.25 4.0714 4.4286 4.9643 
5.1429 5.5 5.3214 6.5 6.8571 6.6786 7.75 7.2143 7.0357 
7.5714 7.9286 7.3929 8.8214 8.6429 8.1071 8.4643 8.2857 9 
9 13.2311 13.3567 15 15 15 15 15 -15 
-15 -15 -15 -15 15 15 15 15 15 
-14.8333 -15 -15 -14.6667 -15 -15 -14.3333 -14.1667 -15 
-14.5 -14 -13 -12.8 -12.4 -12.2 -12.6 -11.4 -11.6 
-11.2 -12 -11.8 -10.4 -11 -10.6 -10.8 -10.2 -9.2 
-9.4 -9.6 -10 -9.8 -9 -8.8214 -8.2857 -8.1071 -8.4643 
-9 -9 -9 -8.6429 -9 -7.2143 -7.9286 -7.75 -7.3929 
-7.5714 -7.0357 -6.8571 -6.6786 -6.5 -5.1429 -5.3214 -5.5 -4.0714 
-4.9643 -4.6071 -4.4286 -4.7857 -4.25 -3.7143 -3.5357 -3.3571 -3.1786 
-3.8929 -2.4 -2.2 -2.8 -3 -3 -3 -3 -3 
-2.6 -1.4 -2 -1.2 -1.8 -1.6 -0.6 -0.4 -0.2 
-1 -0.8 0.6 0.8 0.4 -0 0.2 1.8 1.2 
1 1.6 1.4 2.4 2.2 2.6 2.8 2 3.4 
3.6 3.8 3 3.2 4.2 4 4.6 4.8 4.4 
5.6 5.2 5 5.8 5.4 6.6 6.4 6.2 6 
6.8 7.4 7.2 7.8 7 7.6 8.2 8.6 8.4 
8 8.8 9 9.4 9 9.2 9 9 9.6 
9 9.8 10 10.2 10.4 10.6 10.8 11.2 11.8 
11.4 11.6 11 12 12.8 12.2 12.4 12.6 13 
14.6667 14.3333 14.8333 14.5 14 14.1667 15 15 15 
15 15 -15 -15 -15 -15 -15 -9 -9 
-9 -9 -9 -3 -3 -3 -3 -3 9 
9 9 9 9 15 15 15 15 15 
-15 -15 -15 -15 -15 -9 -9 -9 -9 
-9 -3 -3 -3 -3 -3 9 9 9 
9 9 15 15 15 15 15 -15 -15 
-15 -15 -15 -9 -9 -9 -9 -9 -3 
-3 -3 -3 -3 9 9 9 9 9 
15 15 15 15 15 -15 -15 -15 -15 
-15 -9 -9 -9 -9 -9 -3 -3 -3 
-3 -3 9 15 15 15 15 15 -15 
-15 -15 -15 -15 -9 -9 -9 -9 -9 
-3 -3 -3 -3 -3 9 9 9 9 
9 9 15 15 15 15 15 -14.2 -14.8 
-15 -14.4 -14.6 -13.2 -13.8 -14 -13.6 -13.4 -12.4 
-13 -12.6 -12.2 -12.8 -11.6 -11.8 -11.4 -11.2 -12 
-11 -10.2 -10.6 -10.4 -10.8 -10 -9.2 -9.6 -9.4 
-9.8 -8.2 -8.4 -9 -8.8 -8.6 -8 -7.4 -7.2 
-7.6 -7.8 -6.8 -6.2 -6.6 -7 -6.4 -5.8 -5.6 
-5.2 -6 -5.4 -5 -4.6 -4.2 -4.4 -4.8 -4 
-3.4 -3.8 -3.6 -3.2 -2.6 -2.2 -3 -2.8 -2.4 
-1.4 -1.6 -1.8 -1.2 -2 -1 -0.2 -0.8 -0.4 
-0.6 0.4 -0 0.6 0.8 0.2 1.4 1.6 1.2 
1.8 1 2.8 2 2.2 2.6 2.4 3.4 3 
3.8 3.2 3.6 4 4.2 4.4 4.6 4.8 5.8 
5 5.4 5.2 5.6 6.4 6.8 6.6 6.2 6 
7.4 7 7.6 7.8 7.2 8.6 8.8 8 8.4 
8.2 9 9.2 9.8 9.4 9.6 10 10.2 10.4 
10.6 10.8 11.4 11.8 11 11.6 11.2 12.4 12.8 
12.6 12.2 12 13.8 13.2 13.4 13.6 13 14.8 
14 14.2 14.4 14.6 15 
y 1 1049 double
-11.4498 -11.1222 -11.2737 -11.1407 -10.7586 -10.2611 -10.2552 -10.6024 -10.9331 
-10.6034 -10.1344 -10.3553 -10.6057 -10.7737 -10.0322 -10.776 -10.2315 -10.4715 
-9.18684 -9.95912 -9.39607 -9.44248 -9.80572 -9.60945 -9.75781 -9.17169 -9.37292 
-9.41939 -9.13301 -9.666 -9.2833 -9.93895 -9.74621 -9.87009 -9.34722 -8.03922 
-8.63877 -8.95653 -8.74411 -8.75144 -8.34507 -8.44904 -8.95973 -8.85948 -8.32118 
-8.50873 -8.75961 -8.43577 -8.59302 -8.01249 -7.54655 -7.54644 -7.98303 -7.33038 
-7.85399 -7.21562 -7.03613 -7.53249 -6.73603 -6.93558 -6.19953 -6.89284 -6.52108 
-6.52012 -6.07738 -6.9253 -5.9 -5.11733 -5.70984 -5.39263 -4.03713 -4.52289 
-4.38831 -4.46278 -4.74513 -4.96688 -4.41309 -4.55242 -4.00236 -4.64466 -3.36873 
-3.56069 -3.39904 -3.87678 -3.96969 -3.8033 -3.40368 -3.97232 -3.11272 -3.40885 
-2.03 -2.825 -2.07997 -2.27704 -2.55719 -2.82174 -2.00883 -1.42443 -1.86082 
-1.18944 -0.908867 -0.130069 -0.697494 0 0.2 0 0 0 
0.4 0 0.8 0 0.6 0 0 0 0 
0 0 0 0 0 0 0 0 0 
0 0 0 0 0 0 0 0 0 
0 0.8 0 0.4 0.6 0.2 0 0 0 
0 0 0 0 0 0 0 0 0 
0 0 0 0 0 0 0 0 0 
0 0 0 0 0 0 0 0 0 
0 0.2 0 0.6 0 0.4 0.8 0 0 
0 0 0 0 0 0 0 0 0 
0 0 0 0 0 0 0 0 0 
0 0 0 0 0 0 0.6 0.4 0 
0.2 0 0 0 0.8 0 0 0 0 
0 0 0 0 0 0 0 0 0 
0 0 0 0 0 0 0 0 0 
0 0 0 0 0 0 0 0.8 0 
0.6 0.2 0 0 0.4 0 0 0 0 
0 0 0 0 0 0.49963 0 0.13686 0 
0.532725 0 0.636601 0 0 0 0 0 0 
0 0 0 0 0 0.6 0.2 0.8 0.4 
0 1.8 1.2 1 1.4 1.6 1.8 1.2 1.4 
1 1.6 1.2 1.4 1 1.6 1.8 1.2 1.8 
1.4 1 1.6 1.8 1 1.2 1.6 1.4 1.63082 
1.12724 1.14417 1.61936 1.4 1.2 1.6 1.8 1 2.6 
2.8 2 2.4 2.2 2.2 2.4 2.6 2 2.8 
2.2 2.4 2 2.8 2.6 2.8 2.2 2.6 2.4 
2 2.2 2.8 2.4 2.6 2 2.0795 2.48022 2.4 
2 2.6 2.8 2.2 3.2 3 3.4 3.6 3.8 
3.27136 3.70527 3.8 3 3.6 3.4 3.2 3.6 3.2 
3 3.4 3.8 3.6 3 3.8 3.2 3.4 3.8 
3.2 3 3.6 3.4 3 3.6 3.2 3.8 3.4 
4.8 4.2 4 4.6 4.4 4.45506 4.2 4.6 4 
4.8 4.4 4.8 4.6 4 4.4 4.2 4.8 4.6 
4.2 4.4 4 4.2 4.6 4.8 4.4 4 4.64287 
4.4 4.6 4.2 4.8 4 5.6 5.8 5.2 5 
5.4 5.6 5.8 5 5.2 5.4 5 5.8 5.6 
5.4 5.2 5.6 5.4 5 5.8 5.2 5.6 5.2 
5 5.8 5.4 5.4 5 5.8 5.6 5.2 6.2 
6.8 6.4 6 6.6 6.2 6.6 6 6.4 6.8 
6.4 6.8 6 6.2 6.6 6.4 6.2 6.8 6.6 
6 6 6.4 6.2 6.8 6.6 6.07672 6.6 6.4 
6 6.8 6.2 7.2 7.4 7 7.6 7.8 7.2 
7.4 7.8 7.6 7 7.6 7.8 7 7.4 7.2 
7.4 7.2 7.8 7 7.6 7.6 7.2 7.8 7 
7.4 7.2 7.6 7.8 7.4 7 8.6 8.2 8 
8.8 8.4 8 8 8 8 8 8 8 
8 8 8 8 8 8 8 8 8 
8 8 8 8 8 8 8 8 8 
8 8 8 8 8 8 8 8 8 
8 8 8 8 8 8 8 8 8 
8 8 8 8 8 8 8 8 8 
8 8 8 8 8 8 8 8 8 
8 8 8 8 8 8 8 8 8 
8 8 8 8 8 8 8 8 8 
8 8 8 8 8 8 8 8 8 
8 8.04259 8.96287 8.4 8.2 8 8.6 8.8 9.8 
9 9.4 9.6 9.2 9.8 9.4 9 9.6 9.2 
10 10.8 10.4 10 10.2 10 10 10 10.6 
10 10 10 10 10 10 10 10 10 
10 10 10 10 10 10 10 10 10 
10 10 10 10 10.8 10 10 10 10 
10.4 10 10.6 10 10.2 10 10 10 10 
10 10 10 10 10 10 10 10 10 
10 10 10 10 10 10 10 10 10 
10 10 10 10 10 10.8 10.4 10.2 10.6 
10 10 10 10 10 10 10 10 10 
10 10 10 10 10 10 10 10 10 
10 10 10 10 10 10 10 10 10 
10 10 10 10 10 10 10 10 10 
10 10 10 10 10 10 10 10 10 
10 10 10 10 10 10 10 10 10 
10 10 10.6 10 10.4 10 10.2 10 10 
10.8 10 10 10 10 10 10 10 10 
10 10 10 10 10 10 10 10 10 
10 10 10 10 10 10 10.8 10 10.6 
10.4 10.2 11.4 11.8 11.2 11.6 11 11.4 11.6 
11 11.2 11.8 11.8 11 11.2 11.6 11.4 11.8 
11.4 11.2 11 11.6 11.4 11.2 11.8 11 11.6 
12 12.6 12.4 12.8 12.2 12 12.2 12.4 12.8 
12.6 12.8 12.6 12.2 12 12.4 12.6 12 12.2 
12.4 12.8 12.6 12 12.4 12.2 12.8 13 13.6 
13.4 13.2 13.8 13.4 13.2 13.6 13 13.8 13.2 
13.4 13 13.8 13.6 13.4 13.6 13.2 13 13.8 
13 13.4 13.8 13.2 13.6 14 14.2 14.6 14.8 
14.4 14.4 14.2 14 14.8 14.6 14.6 14.8 14.2 
14 14.4 14 14.6 14 14.8 14.4 14.2 15 
15.4 15.8 15.2 15.6 15.4 15.2 15 15.8 15.6 
15.2 15.8 15.4 15 15.6 15.1667 15.3333 15 15.6667 
15.5 15.8333 15.8 15 15.6 15.4 15.2 16 16 
16 16 16 16 16 16 16 16 16 
16 16 16 16 16 16 16 16 16 
16 16 16 16 16 16 16 16 16 
16 16 16 16 16 16 16 16 16 
16 16 16 16 16 16 16 16 16 
16 16 16 16 16 16 16 16 16 
16 16 16 16 16 16 16 16 16 
16 16 16 16 16 16 16 16 16 
16 16 16 16 16 16 16 16 16 
16 16 16 16 16 16 16 16 16 
16 16 16 16 16 16 16 16 16 
16 16 16 16 16 16 16 16 16 
16 16 16 16 16 16 16 16 16 
16 16 16 16 16 16 16 16 16 
16 16 16 16 16 16 16 16 16 
16 16 16 16 16 16 16 16 16 
16 16 16 16 16 
