# vtk DataFile Version 4.0
vtk output
ASCII
DATASET POLYDATA
FIELD FieldData 4
domain 1 4 string
domain_min:-40|-40
domain_max:40|40
cell_size:1|1
boundary:0|0

variables 1 5 string
T:15.6
dt:0.01
write_case:1
substeps:10
all_steps:1560

constants 1 17 string
L:40
c_s:1
dx:1
k:1000
d1:-13.5|10
d2:-6|10
d3:9|14.5
d4:13.5|10
d5:-6|8
d6:0|8
d7:6|8
d8:-9|9
d9:9|9
d10:-12|0
d11:12|0
d12:0|-10
R_w:0.1

equations 1 18 string
time:T=(T+dt)#true
pos_x:x=elem(r,0,0)#eq(gid,1)
pos_y:y=elem(r,1,0)#eq(gid,1)
wp_1:p0=if(and(lt(x,(-9)),gt(y,10)),d1,p0)#eq(gid,1)
wp_2:p0=if(and(and(gt(x,(-9)),lt(x,(-3))),gt(y,10)),d2,p0)#eq(gid,1)
wp_3:p0=if(and(and(gt(x,(-3)),lt(x,9)),gt(y,10)),d3,p0)#eq(gid,1)
wp_4:p0=if(and(gt(x,9),gt(y,10)),d4,p0)#eq(gid,1)
wp_5:p0=if(and(and(gt(x,(-9)),lt(x,(-3))),lt(y,8)),d5,p0)#eq(gid,1)
wp_6:p0=if(and(and(gt(x,(-3)),lt(x,3)),lt(y,8)),d6,p0)#eq(gid,1)
wp_7:p0=if(and(and(gt(x,3),lt(x,9)),lt(y,8)),d7,p0)#eq(gid,1)
wp_8:p0=if(and(and(gt(x,(-9)),lt(x,0)),and(gt(y,8),lt(y,10))),d8,p0)#eq(gid,1)
wp_9:p0=if(and(and(gt(x,0),lt(x,9)),and(gt(y,8),lt(y,10))),d9,p0)#eq(gid,1)
wp_10:p0=if(and(lt(x,(-9)),lt(y,10)),d10,p0)#eq(gid,1)
wp_11:p0=if(and(gt(x,9),lt(y,10)),d11,p0)#eq(gid,1)
wp_12:p0=if(lt(y,0),d12,p0)#eq(gid,1)
acceleration:v=sfm(v,p0,v0,m,R,A,B,k,c,tau)#eq(gid,1)
velocity:v=euler(v,a,dt)#eq(gid,1)
position:r=euler(r,v,dt)#eq(gid,1)

POINTS 1049 float
-0.45748 -10.1675 0 0.0568049 -10.0379 0 -0.323303 -9.6275 0 
0.191196 -9.5258 0 -2.91136 -8.05509 0 1.67232 -8.72082 0 
1.63295 -8.13344 0 2.27628 -8.0076 0 -3.18688 -7.175 0 
3.09549 -7.18814 0 3.31824 -7.79747 0 3.83735 -7.53442 0 
-5.88166 -6.00337 0 -4.28243 -6.4979 0 3.73115 -6.80074 0 
4.66837 -6.87422 0 4.74639 -6.08593 0 -5.64436 -5.36082 0 
-4.8497 -5.91734 0 -4.03893 -5.8486 0 5.78543 -5.24703 0 
-6.72403 -4.58316 0 -6.18024 -4.81638 0 6.35729 -4.91346 0 
-8.9672 -3.73197 0 -8.17455 -3.66137 0 -8.57662 -3.16191 0 
-7.55297 -3.95571 0 -7.7646 -3.05013 0 8.01687 -3.46776 0 
-9.49209 -2.87252 0 -9.3612 -2.18992 0 -8.54123 -2.56705 0 
9.18535 -2.43519 0 9.70324 -2.2312 0 -10.3523 -1.91923 0 
-10.9298 -1.899 0 -10.1908 -1.35172 0 -10.9735 -1.32851 0 
10.9995 -1.44482 0 10.3984 -1.36048 0 11.6131 -1.32021 0 
-11.9442 -0.024106 0 -11.9511 -0.728683 0 -11.4659 -0.422494 0 
-11.1532 -0.828553 0 10.9462 -0.840366 0 11.5543 -0.722278 0 
11.8343 -0.186654 0 -15 0.8 0 -14.4643 0 0 
-14.2857 0 0 -14.1071 0 0 -15 0 0 
-15 0.6 0 -15 0.4 0 -14.8214 0 0 
-15 0.2 0 -14.6429 0 0 -13.9286 0 0 
-13.2143 0 0 -13.0357 0 0 -13.3929 0 0 
-13.75 0 0 -13.5714 0 0 -12.5 0 0 
-12.8571 0 0 -12.6786 0 0 -12.3445 0.348625 0 
-12.0074 0.840074 0 -11.5229 0.420906 0 -11.3214 0 0 
-11.1429 0 0 -11.5 0 0 -10.0714 0 0 
-10.6071 0 0 -10.4286 0 0 -10.9643 0 0 
-10.7857 0 0 -10.25 0 0 -9.1786 0 0 
-9.5357 0 0 -9.3571 0 0 -9.8929 0 0 
-9.7143 0 0 -8.2 0 0 -9 0.4 0 
-9 0.6 0 -8.8 0 0 -8.4 0 0 
-9 0 0 -8.6 0 0 -9 0.2 0 
-9 0.8 0 -7.2 0 0 -7.8 0 0 
-8 0 0 -7.6 0 0 -7.4 0 0 
-6.2 0 0 -6.6 0 0 -6.8 0 0 
-6.4 0 0 -7 0 0 -5.2 0 0 
-5.4 0 0 -6 0 0 -5.8 0 0 
-5.6 0 0 -4.4 0 0 -4.8 0 0 
-4.2 0 0 -5 0 0 -4.6 0 0 
-3.2 0 0 -3.6 0 0 -3.8 0 0 
-3.4 0 0 -4 0 0 -3 0.8 0 
-2.6 0 0 -2.4 0 0 -3 0 0 
-2.8 0 0 -3 0.6 0 -3 0.4 0 
-2.2 0 0 -3 0.2 0 -1.4 0 0 
-1.2 0 0 -1.6 0 0 -1.8 0 0 
-2 0 0 -0.6 0 0 -1 0 0 
-0.2 0 0 -0.4 0 0 -0.8 0 0 
0.6 0 0 0.2 0 0 0.4 0 0 
0.8 0 0 -0 0 0 1.2 0 0 
1.8 0 0 1.4 0 0 1.6 0 0 
1 0 0 2.4 0 0 2.8 0 0 
2 0 0 2.2 0 0 2.6 0 0 
3 0.2 0 3.4 0 0 3 0.8 0 
3 0.6 0 3.6 0 0 3 0 0 
3.8 0 0 3.2 0 0 3 0.4 0 
4.8 0 0 4 0 0 4.6 0 0 
4.4 0 0 4.2 0 0 5.8 0 0 
5 0 0 5.2 0 0 5.4 0 0 
5.6 0 0 6.4 0 0 6.8 0 0 
6.6 0 0 6 0 0 6.2 0 0 
7 0 0 7.6 0 0 7.2 0 0 
7.4 0 0 7.8 0 0 8.4 0 0 
8.8 0 0 8 0 0 8.2 0 0 
8.6 0 0 9.7143 0 0 9 0.4 0 
9.5357 0 0 9 0.8 0 9 0 0 
9 0.2 0 9.8929 0 0 9 0.6 0 
9.1786 0 0 9.3571 0 0 10.7857 0 0 
10.6071 0 0 10.0714 0 0 10.25 0 0 
10.4286 0 0 10.9643 0 0 11.5118 0.348225 0 
11.5 0 0 11.1429 0 0 11.3214 0 0 
11.5653 0.900364 0 12.8571 0 0 12.3998 0.249194 0 
12.5 0 0 12.6786 0 0 12.0173 0.525074 0 
12.4297 0.884093 0 13.5714 0 0 13.3929 0 0 
13.2143 0 0 13.0357 0 0 13.9286 0 0 
13.75 0 0 14.2857 0 0 14.8214 0 0 
14.4643 0 0 14.6429 0 0 14.1071 0 0 
15 0.4 0 15 0.6 0 15 0.8 0 
15 0.2 0 15 0 0 -15 1.8 0 
-15 1.4 0 -15 1 0 -15 1.2 0 
-15 1.6 0 -11.745 1.97059 0 -11.3908 1.0682 0 
-11.935 1.45074 0 -11.184 1.98463 0 -9 1.2 0 
-9 1 0 -9 1.4 0 -9 1.8 0 
-9 1.6 0 -3 1 0 -3 1.4 0 
-3 1.8 0 -3 1.2 0 -3 1.6 0 
3 1.8 0 3 1.2 0 3 1 0 
3 1.6 0 3 1.4 0 9 1 0 
9 1.4 0 9 1.8 0 9 1.6 0 
9 1.2 0 10.9904 1.46144 0 11.9301 1.30318 0 
11.4915 1.70429 0 12.0392 1.87878 0 12.6234 1.88453 0 
12.4655 1.38999 0 15 1 0 15 1.4 0 
15 1.8 0 15 1.2 0 15 1.6 0 
-15 2 0 -15 2.8 0 -15 2.6 0 
-15 2.2 0 -15 2.4 0 -12.2326 2.64044 0 
-10.9723 2.75891 0 -9 2 0 -9 2.8 0 
-9 2.2 0 -9 2.6 0 -9 2.4 0 
-3 2.8 0 -3 2.2 0 -3 2.6 0 
-3 2.4 0 -3 2 0 3 2.2 0 
3 2.4 0 3 2.6 0 3 2 0 
3 2.8 0 9 2.6 0 9 2.8 0 
9 2 0 9 2.4 0 9 2.2 0 
11.2936 2.22734 0 12.324 2.33658 0 12.8544 2.7572 0 
15 2.6 0 15 2.2 0 15 2 0 
15 2.4 0 15 2.8 0 -15 3 0 
-15 3.6 0 -15 3.8 0 -15 3.4 0 
-15 3.2 0 -11.7366 3.30815 0 -11.389 3.76621 0 
-10.8448 3.51195 0 -9 3 0 -9 3.6 0 
-9 3.8 0 -9 3.4 0 -9 3.2 0 
-3 3.6 0 -3 3 0 -3 3.8 0 
-3 3.4 0 -3 3.2 0 3 3 0 
3 3.8 0 3 3.2 0 3 3.4 0 
3 3.6 0 9 3.2 0 9 3.8 0 
9 3.4 0 9 3.6 0 9 3 0 
10.8708 3.29061 0 10.4453 3.71654 0 11.7151 3.60113 0 
11.1926 3.81403 0 11.4604 3.01473 0 12.6036 3.95099 0 
15 3.6 0 15 3.8 0 15 3 0 
15 3.4 0 15 3.2 0 -15 4.2 0 
-15 4.8 0 -15 4.4 0 -15 4 0 
-15 4.6 0 -10.9475 4.47118 0 -10.2477 4.87139 0 
-9 4.4 0 -9 4.8 0 -9 4.6 0 
-9 4 0 -9 4.2 0 -3 4.4 0 
-3 4.2 0 -3 4.6 0 -3 4 0 
-3 4.8 0 3 4 0 3 4.4 0 
3 4.2 0 3 4.8 0 3 4.6 0 
9 4.2 0 9 4.8 0 9 4.6 0 
9 4 0 9 4.4 0 10.4962 4.47896 0 
11.0937 4.39018 0 15 4.4 0 15 4 0 
15 4.2 0 15 4.8 0 15 4.6 0 
-15 5.8 0 -15 5.6 0 -15 5.4 0 
-15 5.2 0 -15 5 0 -10.3128 5.45686 0 
-10.9403 5.44777 0 -9 5.2 0 -9 5.8 0 
-9 5.4 0 -9 5 0 -9 5.6 0 
-3 5.6 0 -3 5 0 -3 5.8 0 
-3 5.4 0 -3 5.2 0 3 5 0 
3 5.6 0 3 5.8 0 3 5.2 0 
3 5.4 0 9 5.8 0 9 5.6 0 
9 5.2 0 9 5 0 9 5.4 0 
12.5025 5.50275 0 15 5.8 0 15 5.4 0 
15 5.2 0 15 5.6 0 15 5 0 
-15 6.6 0 -15 6.2 0 -15 6.4 0 
-15 6 0 -15 6.8 0 -10.1462 6.04892 0 
-10.4699 6.96659 0 -9.9033 6.62475 0 -9 6.6 0 
-9 6 0 -9 6.2 0 -9 6.4 0 
-9 6.8 0 -3 6 0 -3 6.2 0 
-3 6.4 0 -3 6.6 0 -3 6.8 0 
3 6.2 0 3 6.8 0 3 6 0 
3 6.6 0 3 6.4 0 9 6.2 0 
9 6.6 0 9 6.8 0 9 6 0 
9 6.4 0 10.1002 6.44242 0 12.729 6.05157 0 
12.7666 6.8887 0 13.3928 6.09601 0 13.5731 6.62702 0 
15 6.6 0 15 6.2 0 15 6 0 
15 6.8 0 15 6.4 0 -15 7.4 0 
-15 7.2 0 -15 7.8 0 -15 7 0 
-15 7.6 0 -9.7819 7.23076 0 -9 7 0 
-9 7.2 0 -9 7.4 0 -9 7.6 0 
-9 7.8 0 -3 7.4 0 -3 7.2 0 
-3 7.8 0 -3 7.6 0 -3 7 0 
3 7.4 0 3 7.2 0 3 7 0 
3 7.6 0 3 7.8 0 9 7.8 0 
9 7 0 9 7.6 0 9 7.2 0 
9 7.4 0 9.66538 7.73251 0 13.1057 7.8621 0 
13.3722 7.09307 0 15 7.4 0 15 7.6 0 
15 7 0 15 7.8 0 15 7.2 0 
-15 8.4 0 -15 8.2 0 -15 8.6 0 
-15 8.8 0 -15 8 0 -9.22446 8.40691 0 
-8.2857 8 0 -8.8214 8 0 -8.6429 8 0 
-9 8 0 -8.1071 8 0 -8.4643 8 0 
-7.75 8 0 -7.5714 8 0 -7.0357 8 0 
-7.2143 8 0 -7.9286 8 0 -7.3929 8 0 
-6.5 8 0 -6.6786 8 0 -6.8571 8 0 
-5.31912 8.97958 0 -5.5 8 0 -5.3214 8 0 
-5.1429 8 0 -4.7857 8 0 -4.69022 8.92222 0 
-4.9643 8 0 -4.6071 8 0 -4.0714 8 0 
-4.4286 8 0 -4.25 8 0 -3.65797 8.87462 0 
-3.3571 8 0 -3.1786 8 0 -3.7143 8 0 
-3.5357 8 0 -3.8929 8 0 -2.2857 8 0 
-2.4643 8 0 -2.6429 8 0 -2.8214 8 0 
-2.1071 8 0 -3 8 0 -1.3929 8 0 
-1.5714 8 0 -1.0357 8 0 -1.75 8 0 
-1.9286 8 0 -1.2143 8 0 -0.5 8 0 
-0.6786 8 0 -0.8571 8 0 0.8571 8 0 
0.5 8 0 0.6786 8 0 1.9286 8 0 
1.5714 8 0 1.3929 8 0 1.2143 8 0 
1.0357 8 0 1.75 8 0 2.6429 8 0 
2.4643 8 0 2.2857 8 0 2.8214 8 0 
2.1071 8 0 3.5357 8 0 3.7143 8 0 
3.1786 8 0 3.8929 8 0 3 8 0 
3.3571 8 0 4.7857 8 0 4.6071 8 0 
4.4286 8 0 4.0714 8 0 4.25 8 0 
4.9643 8 0 5.1429 8 0 5.3214 8 0 
5.51679 8.95384 0 5.5 8 0 6.5 8 0 
6.6786 8 0 6.8571 8 0 7.75 8 0 
7.63126 8.9984 0 7.0285 8.9773 0 7.0357 8 0 
7.9286 8 0 7.3929 8 0 7.5714 8 0 
7.2143 8 0 8.62167 8.96699 0 8.8214 8 0 
8.1071 8 0 8.2857 8 0 8.4643 8 0 
8.6429 8 0 9 8 0 9 8 0 
13.5314 8.33476 0 13.2887 8.93165 0 15 8.8 0 
15 8.6 0 15 8.2 0 15 8 0 
15 8.4 0 -15 9.2 0 -15 9.6 0 
-15 9 0 -15 9.8 0 -15 9.4 0 
13.3585 9.71345 0 15 9 0 15 9.2 0 
15 9.6 0 15 9.8 0 15 9.4 0 
-15 10.4 0 -14.6667 10 0 -14.1667 10 0 
-14.3333 10 0 -15 10.8 0 -15 10 0 
-14.8333 10 0 -15 10.6 0 -14.5 10 0 
-15 10.2 0 -14 10 0 -12.8 10 0 
-12.6 10 0 -12.4 10 0 -13 10 0 
-12.2 10 0 -11.6 10 0 -11.4 10 0 
-11.8 10 0 -12 10 0 -11.2 10 0 
-10.6 10 0 -10.4 10 0 -10.8 10 0 
-10.2 10 0 -11 10 0 -9.8 10 0 
-10 10 0 -9.6 10 0 -9.4 10 0 
-9.2 10 0 -9 10 0 -8.2857 10 0 
-8.1071 10 0 -8.4643 10 0 -9 10.2 0 
-9 10.8 0 -9 10.4 0 -8.8214 10 0 
-8.6429 10 0 -9 10.6 0 -7.0357 10 0 
-7.3929 10 0 -7.5714 10 0 -7.9286 10 0 
-7.2143 10 0 -7.75 10 0 -6.5 10 0 
-6.6786 10 0 -6.8571 10 0 -5.1429 10 0 
-5.5 10 0 -5.3214 10 0 -4.25 10 0 
-4.9643 10 0 -4.4286 10 0 -4.6071 10 0 
-4.7857 10 0 -4.0714 10 0 -3.3571 10 0 
-3.8929 10 0 -3.7143 10 0 -3.1786 10 0 
-3.5357 10 0 -2.6 10 0 -2.8 10 0 
-3 10.2 0 -3 10.6 0 -2.4 10 0 
-2.2 10 0 -3 10.8 0 -3 10.4 0 
-3 10 0 -2 10 0 -1.8 10 0 
-1.2 10 0 -1.6 10 0 -1.4 10 0 
-1 10 0 -0.6 10 0 -0.8 10 0 
-0.2 10 0 -0.4 10 0 0.4 10 0 
0.8 10 0 0.6 10 0 0.2 10 0 
-0 10 0 1.2 10 0 1.8 10 0 
1.6 10 0 1.4 10 0 1 10 0 
2 10 0 2.4 10 0 2.6 10 0 
2.8 10 0 2.2 10 0 3.2 10 0 
3.8 10 0 3.4 10 0 3 10 0 
3.6 10 0 4 10 0 4.8 10 0 
4.4 10 0 4.6 10 0 4.2 10 0 
5.4 10 0 5.2 10 0 5.8 10 0 
5.6 10 0 5 10 0 6 10 0 
6.4 10 0 6.2 10 0 6.6 10 0 
6.8 10 0 7.6 10 0 7.8 10 0 
7.4 10 0 7 10 0 7.2 10 0 
8.8 10 0 8.4 10 0 8 10 0 
8.6 10 0 8.2 10 0 9 10 0 
9.4 10 0 9 10.8 0 9 10.2 0 
9.6 10 0 9 10.4 0 9 10.6 0 
9.8 10 0 9.2 10 0 10.8 10 0 
10.4 10 0 10.6 10 0 10.2 10 0 
10 10 0 11.2 10 0 11 10 0 
11.4 10 0 11.6 10 0 11.8 10 0 
12.2 10 0 12.739 10.5064 0 12.6 10 0 
12.8 10 0 12 10 0 12.4 10 0 
13.3352 10.4677 0 13 10 0 13.7281 10.1487 0 
14.1667 10 0 14.6667 10 0 14 10 0 
14.5 10 0 14.3333 10 0 14.8333 10 0 
15 10 0 15 10.6 0 15 10.4 0 
15 10.2 0 15 10.8 0 -15 11 0 
-15 11.6 0 -15 11.4 0 -15 11.2 0 
-15 11.8 0 -9 11.8 0 -9 11.4 0 
-9 11 0 -9 11.2 0 -9 11.6 0 
-3 11 0 -3 11.4 0 -3 11.2 0 
-3 11.8 0 -3 11.6 0 9 11.8 0 
9 11.4 0 9 11 0 9 11.6 0 
9 11.2 0 11.9828 11.6897 0 12.3848 11.1698 0 
15 11 0 15 11.2 0 15 11.8 0 
15 11.6 0 15 11.4 0 -15 12.2 0 
-15 12.8 0 -15 12 0 -15 12.4 0 
-15 12.6 0 -9 12.6 0 -9 12 0 
-9 12.2 0 -9 12.4 0 -9 12.8 0 
-3 12.6 0 -3 12.4 0 -3 12 0 
-3 12.2 0 -3 12.8 0 9 12 0 
9 12.2 0 9 12.4 0 9 12.8 0 
9 12.6 0 10.9966 12.6336 0 15 12.8 0 
15 12.4 0 15 12.2 0 15 12.6 0 
15 12 0 -15 13 0 -15 13.6 0 
-15 13.4 0 -15 13.8 0 -15 13.2 0 
-9 13 0 -9 13.8 0 -9 13.6 0 
-9 13.2 0 -9 13.4 0 -3 13.4 0 
-3 13.8 0 -3 13.2 0 -3 13 0 
-3 13.6 0 9 13.6 0 9 13 0 
9 13.4 0 9 13.2 0 9 13.8 0 
10.303 13.3695 0 15 13.4 0 15 13.2 0 
15 13.8 0 15 13 0 15 13.6 0 
-15 14.8 0 -15 14.2 0 -15 14.6 0 
-15 14.4 0 -15 14 0 -9 14.2 0 
-9 14.4 0 -9 14 0 -9 14.8 0 
-9 14.6 0 -3 14 0 -3 14.6 0 
-3 14.4 0 -3 14.8 0 -3 14.2 0 
8.11692 14.1966 0 8.91413 14.4781 0 9 14 0 
15 14.8 0 15 14.4 0 15 14.2 0 
15 14.6 0 15 14 0 -15 15.6 0 
-15 15.2 0 -15 15.4 0 -15 15.8 0 
-15 15 0 -9 15.6 0 -9 15.8 0 
-9 15.4 0 -9 15 0 -9 15.2 0 
-3 15.8 0 -3 15.2 0 -3 15.4 0 
-3 15.6 0 -3 15 0 9 15.3333 0 
9 15 0 9 15.5 0 9 15.8333 0 
9 15.1667 0 9 15.6667 0 15 15.8 0 
15 15 0 15 15.6 0 15 15.4 0 
15 15.2 0 -14.4 16 0 -14.2 16 0 
-14.8 16 0 -14.6 16 0 -15 16 0 
-13.4 16 0 -14 16 0 -13.2 16 0 
-13.6 16 0 -13.8 16 0 -12.4 16 0 
-13 16 0 -12.6 16 0 -12.2 16 0 
-12.8 16 0 -11.4 16 0 -11.6 16 0 
-11.2 16 0 -12 16 0 -11.8 16 0 
-10.2 16 0 -10.8 16 0 -11 16 0 
-10.6 16 0 -10.4 16 0 -9.4 16 0 
-9.8 16 0 -10 16 0 -9.2 16 0 
-9.6 16 0 -8.8 16 0 -8.2 16 0 
-8.4 16 0 -8.6 16 0 -9 16 0 
-8 16 0 -7.4 16 0 -7.2 16 0 
-7.6 16 0 -7.8 16 0 -6.2 16 0 
-6.4 16 0 -6.6 16 0 -7 16 0 
-6.8 16 0 -5.2 16 0 -5.8 16 0 
-6 16 0 -5.4 16 0 -5.6 16 0 
-5 16 0 -4.6 16 0 -4.2 16 0 
-4.4 16 0 -4.8 16 0 -3.8 16 0 
-3.6 16 0 -3.4 16 0 -3.2 16 0 
-4 16 0 -3 16 0 -2.6 16 0 
-2.8 16 0 -2.4 16 0 -2.2 16 0 
-1.4 16 0 -1.6 16 0 -1.8 16 0 
-1.2 16 0 -2 16 0 -0.6 16 0 
-0.8 16 0 -0.4 16 0 -1 16 0 
-0.2 16 0 0.4 16 0 -0 16 0 
0.6 16 0 0.8 16 0 0.2 16 0 
1.2 16 0 1.4 16 0 1.8 16 0 
1 16 0 1.6 16 0 2.8 16 0 
2 16 0 2.2 16 0 2.6 16 0 
2.4 16 0 3.2 16 0 3.4 16 0 
3 16 0 3.6 16 0 3.8 16 0 
4 16 0 4.2 16 0 4.4 16 0 
4.6 16 0 4.8 16 0 5 16 0 
5.6 16 0 5.8 16 0 5.4 16 0 
5.2 16 0 6.4 16 0 6.8 16 0 
6.6 16 0 6.2 16 0 6 16 0 
7.4 16 0 7 16 0 7.6 16 0 
7.8 16 0 7.2 16 0 8 16 0 
8.8 16 0 8.2 16 0 8.4 16 0 
8.6 16 0 9 16 0 9.2 16 0 
9.8 16 0 9.4 16 0 9.6 16 0 
10 16 0 10.2 16 0 10.4 16 0 
10.6 16 0 10.8 16 0 11.4 16 0 
11.8 16 0 11 16 0 11.6 16 0 
11.2 16 0 12.4 16 0 12.8 16 0 
12.6 16 0 12.2 16 0 12 16 0 
13.2 16 0 13 16 0 13.4 16 0 
13.6 16 0 13.8 16 0 14.8 16 0 
14 16 0 14.2 16 0 14.4 16 0 
14.6 16 0 15 16 0 
VERTICES 2098 2098
1 0 
1 1 
1 2 
1 3 
1 4 
1 5 
1 6 
1 7 
1 8 
1 9 
1 10 
1 11 
1 12 
1 13 
1 14 
1 15 
1 16 
1 17 
1 18 
1 19 
1 20 
1 21 
1 22 
1 23 
1 24 
1 25 
1 26 
1 27 
1 28 
1 29 
1 30 
1 31 
1 32 
1 33 
1 34 
1 35 
1 36 
1 37 
1 38 
1 39 
1 40 
1 41 
1 42 
1 43 
1 44 
1 45 
1 46 
1 47 
1 48 
1 49 
1 50 
1 51 
1 52 
1 53 
1 54 
1 55 
1 56 
1 57 
1 58 
1 59 
1 60 
1 61 
1 62 
1 63 
1 64 
1 65 
1 66 
1 67 
1 68 
1 69 
1 70 
1 71 
1 72 
1 73 
1 74 
1 75 
1 76 
1 77 
1 78 
1 79 
1 80 
1 81 
1 82 
1 83 
1 84 
1 85 
1 86 
1 87 
1 88 
1 89 
1 90 
1 91 
1 92 
1 93 
1 94 
1 95 
1 96 
1 97 
1 98 
1 99 
1 100 
1 101 
1 102 
1 103 
1 104 
1 105 
1 106 
1 107 
1 108 
1 109 
1 110 
1 111 
1 112 
1 113 
1 114 
1 115 
1 116 
1 117 
1 118 
1 119 
1 120 
1 121 
1 122 
1 123 
1 124 
1 125 
1 126 
1 127 
1 128 
1 129 
1 130 
1 131 
1 132 
1 133 
1 134 
1 135 
1 136 
1 137 
1 138 
1 139 
1 140 
1 141 
1 142 
1 143 
1 144 
1 145 
1 146 
1 147 
1 148 
1 149 
1 150 
1 151 
1 152 
1 153 
1 154 
1 155 
1 156 
1 157 
1 158 
1 159 
1 160 
1 161 
1 162 
1 163 
1 164 
1 165 
1 166 
1 167 
1 168 
1 169 
1 170 
1 171 
1 172 
1 173 
1 174 
1 175 
1 176 
1 177 
1 178 
1 179 
1 180 
1 181 
1 182 
1 183 
1 184 
1 185 
1 186 
1 187 
1 188 
1 189 
1 190 
1 191 
1 192 
1 193 
1 194 
1 195 
1 196 
1 197 
1 198 
1 199 
1 200 
1 201 
1 202 
1 203 
1 204 
1 205 
1 206 
1 207 
1 208 
1 209 
1 210 
1 211 
1 212 
1 213 
1 214 
1 215 
1 216 
1 217 
1 218 
1 219 
1 220 
1 221 
1 222 
1 223 
1 224 
1 225 
1 226 
1 227 
1 228 
1 229 
1 230 
1 231 
1 232 
1 233 
1 234 
1 235 
1 236 
1 237 
1 238 
1 239 
1 240 
1 241 
1 242 
1 243 
1 244 
1 245 
1 246 
1 247 
1 248 
1 249 
1 250 
1 251 
1 252 
1 253 
1 254 
1 255 
1 256 
1 257 
1 258 
1 259 
1 260 
1 261 
1 262 
1 263 
1 264 
1 265 
1 266 
1 267 
1 268 
1 269 
1 270 
1 271 
1 272 
1 273 
1 274 
1 275 
1 276 
1 277 
1 278 
1 279 
1 280 
1 281 
1 282 
1 283 
1 284 
1 285 
1 286 
1 287 
1 288 
1 289 
1 290 
1 291 
1 292 
1 293 
1 294 
1 295 
1 296 
1 297 
1 298 
1 299 
1 300 
1 301 
1 302 
1 303 
1 304 
1 305 
1 306 
1 307 
1 308 
1 309 
1 310 
1 311 
1 312 
1 313 
1 314 
1 315 
1 316 
1 317 
1 318 
1 319 
1 320 
1 321 
1 322 
1 323 
1 324 
1 325 
1 326 
1 327 
1 328 
1 329 
1 330 
1 331 
1 332 
1 333 
1 334 
1 335 
1 336 
1 337 
1 338 
1 339 
1 340 
1 341 
1 342 
1 343 
1 344 
1 345 
1 346 
1 347 
1 348 
1 349 
1 350 
1 351 
1 352 
1 353 
1 354 
1 355 
1 356 
1 357 
1 358 
1 359 
1 360 
1 361 
1 362 
1 363 
1 364 
1 365 
1 366 
1 367 
1 368 
1 369 
1 370 
1 371 
1 372 
1 373 
1 374 
1 375 
1 376 
1 377 
1 378 
1 379 
1 380 
1 381 
1 382 
1 383 
1 384 
1 385 
1 386 
1 387 
1 388 
1 389 
1 390 
1 391 
1 392 
1 393 
1 394 
1 395 
1 396 
1 397 
1 398 
1 399 
1 400 
1 401 
1 402 
1 403 
1 404 
1 405 
1 406 
1 407 
1 408 
1 409 
1 410 
1 411 
1 412 
1 413 
1 414 
1 415 
1 416 
1 417 
1 418 
1 419 
1 420 
1 421 
1 422 
1 423 
1 424 
1 425 
1 426 
1 427 
1 428 
1 429 
1 430 
1 431 
1 432 
1 433 
1 434 
1 435 
1 436 
1 437 
1 438 
1 439 
1 440 
1 441 
1 442 
1 443 
1 444 
1 445 
1 446 
1 447 
1 448 
1 449 
1 450 
1 451 
1 452 
1 453 
1 454 
1 455 
1 456 
1 457 
1 458 
1 459 
1 460 
1 461 
1 462 
1 463 
1 464 
1 465 
1 466 
1 467 
1 468 
1 469 
1 470 
1 471 
1 472 
1 473 
1 474 
1 475 
1 476 
1 477 
1 478 
1 479 
1 480 
1 481 
1 482 
1 483 
1 484 
1 485 
1 486 
1 487 
1 488 
1 489 
1 490 
1 491 
1 492 
1 493 
1 494 
1 495 
1 496 
1 497 
1 498 
1 499 
1 500 
1 501 
1 502 
1 503 
1 504 
1 505 
1 506 
1 507 
1 508 
1 509 
1 510 
1 511 
1 512 
1 513 
1 514 
1 515 
1 516 
1 517 
1 518 
1 519 
1 520 
1 521 
1 522 
1 523 
1 524 
1 525 
1 526 
1 527 
1 528 
1 529 
1 530 
1 531 
1 532 
1 533 
1 534 
1 535 
1 536 
1 537 
1 538 
1 539 
1 540 
1 541 
1 542 
1 543 
1 544 
1 545 
1 546 
1 547 
1 548 
1 549 
1 550 
1 551 
1 552 
1 553 
1 554 
1 555 
1 556 
1 557 
1 558 
1 559 
1 560 
1 561 
1 562 
1 563 
1 564 
1 565 
1 566 
1 567 
1 568 
1 569 
1 570 
1 571 
1 572 
1 573 
1 574 
1 575 
1 576 
1 577 
1 578 
1 579 
1 580 
1 581 
1 582 
1 583 
1 584 
1 585 
1 586 
1 587 
1 588 
1 589 
1 590 
1 591 
1 592 
1 593 
1 594 
1 595 
1 596 
1 597 
1 598 
1 599 
1 600 
1 601 
1 602 
1 603 
1 604 
1 605 
1 606 
1 607 
1 608 
1 609 
1 610 
1 611 
1 612 
1 613 
1 614 
1 615 
1 616 
1 617 
1 618 
1 619 
1 620 
1 621 
1 622 
1 623 
1 624 
1 625 
1 626 
1 627 
1 628 
1 629 
1 630 
1 631 
1 632 
1 633 
1 634 
1 635 
1 636 
1 637 
1 638 
1 639 
1 640 
1 641 
1 642 
1 643 
1 644 
1 645 
1 646 
1 647 
1 648 
1 649 
1 650 
1 651 
1 652 
1 653 
1 654 
1 655 
1 656 
1 657 
1 658 
1 659 
1 660 
1 661 
1 662 
1 663 
1 664 
1 665 
1 666 
1 667 
1 668 
1 669 
1 670 
1 671 
1 672 
1 673 
1 674 
1 675 
1 676 
1 677 
1 678 
1 679 
1 680 
1 681 
1 682 
1 683 
1 684 
1 685 
1 686 
1 687 
1 688 
1 689 
1 690 
1 691 
1 692 
1 693 
1 694 
1 695 
1 696 
1 697 
1 698 
1 699 
1 700 
1 701 
1 702 
1 703 
1 704 
1 705 
1 706 
1 707 
1 708 
1 709 
1 710 
1 711 
1 712 
1 713 
1 714 
1 715 
1 716 
1 717 
1 718 
1 719 
1 720 
1 721 
1 722 
1 723 
1 724 
1 725 
1 726 
1 727 
1 728 
1 729 
1 730 
1 731 
1 732 
1 733 
1 734 
1 735 
1 736 
1 737 
1 738 
1 739 
1 740 
1 741 
1 742 
1 743 
1 744 
1 745 
1 746 
1 747 
1 748 
1 749 
1 750 
1 751 
1 752 
1 753 
1 754 
1 755 
1 756 
1 757 
1 758 
1 759 
1 760 
1 761 
1 762 
1 763 
1 764 
1 765 
1 766 
1 767 
1 768 
1 769 
1 770 
1 771 
1 772 
1 773 
1 774 
1 775 
1 776 
1 777 
1 778 
1 779 
1 780 
1 781 
1 782 
1 783 
1 784 
1 785 
1 786 
1 787 
1 788 
1 789 
1 790 
1 791 
1 792 
1 793 
1 794 
1 795 
1 796 
1 797 
1 798 
1 799 
1 800 
1 801 
1 802 
1 803 
1 804 
1 805 
1 806 
1 807 
1 808 
1 809 
1 810 
1 811 
1 812 
1 813 
1 814 
1 815 
1 816 
1 817 
1 818 
1 819 
1 820 
1 821 
1 822 
1 823 
1 824 
1 825 
1 826 
1 827 
1 828 
1 829 
1 830 
1 831 
1 832 
1 833 
1 834 
1 835 
1 836 
1 837 
1 838 
1 839 
1 840 
1 841 
1 842 
1 843 
1 844 
1 845 
1 846 
1 847 
1 848 
1 849 
1 850 
1 851 
1 852 
1 853 
1 854 
1 855 
1 856 
1 857 
1 858 
1 859 
1 860 
1 861 
1 862 
1 863 
1 864 
1 865 
1 866 
1 867 
1 868 
1 869 
1 870 
1 871 
1 872 
1 873 
1 874 
1 875 
1 876 
1 877 
1 878 
1 879 
1 880 
1 881 
1 882 
1 883 
1 884 
1 885 
1 886 
1 887 
1 888 
1 889 
1 890 
1 891 
1 892 
1 893 
1 894 
1 895 
1 896 
1 897 
1 898 
1 899 
1 900 
1 901 
1 902 
1 903 
1 904 
1 905 
1 906 
1 907 
1 908 
1 909 
1 910 
1 911 
1 912 
1 913 
1 914 
1 915 
1 916 
1 917 
1 918 
1 919 
1 920 
1 921 
1 922 
1 923 
1 924 
1 925 
1 926 
1 927 
1 928 
1 929 
1 930 
1 931 
1 932 
1 933 
1 934 
1 935 
1 936 
1 937 
1 938 
1 939 
1 940 
1 941 
1 942 
1 943 
1 944 
1 945 
1 946 
1 947 
1 948 
1 949 
1 950 
1 951 
1 952 
1 953 
1 954 
1 955 
1 956 
1 957 
1 958 
1 959 
1 960 
1 961 
1 962 
1 963 
1 964 
1 965 
1 966 
1 967 
1 968 
1 969 
1 970 
1 971 
1 972 
1 973 
1 974 
1 975 
1 976 
1 977 
1 978 
1 979 
1 980 
1 981 
1 982 
1 983 
1 984 
1 985 
1 986 
1 987 
1 988 
1 989 
1 990 
1 991 
1 992 
1 993 
1 994 
1 995 
1 996 
1 997 
1 998 
1 999 
1 1000 
1 1001 
1 1002 
1 1003 
1 1004 
1 1005 
1 1006 
1 1007 
1 1008 
1 1009 
1 1010 
1 1011 
1 1012 
1 1013 
1 1014 
1 1015 
1 1016 
1 1017 
1 1018 
1 1019 
1 1020 
1 1021 
1 1022 
1 1023 
1 1024 
1 1025 
1 1026 
1 1027 
1 1028 
1 1029 
1 1030 
1 1031 
1 1032 
1 1033 
1 1034 
1 1035 
1 1036 
1 1037 
1 1038 
1 1039 
1 1040 
1 1041 
1 1042 
1 1043 
1 1044 
1 1045 
1 1046 
1 1047 
1 1048 

POINT_DATA 1049
SCALARS id double
LOOKUP_TABLE default
980 1027 977 1048 993 964 983 1036 1033 
1024 1020 951 978 1032 945 976 975 1045 
966 968 955 1004 990 972 995 933 1005 
1040 947 941 1041 969 942 1016 1028 954 
1026 1018 1047 932 987 962 1014 936 939 
1008 930 1037 960 388 41 42 43 0 
389 390 39 391 40 44 48 49 47 
45 46 1 50 51 1042 998 985 52 
53 2 59 56 57 54 55 58 64 
62 63 60 61 68 393 394 65 67 
3 66 392 395 73 70 69 71 72 
78 76 75 77 74 83 82 79 80 
81 87 85 88 84 86 93 91 90 
92 89 492 95 96 4 94 493 494 
97 495 101 102 100 99 98 105 103 
107 106 104 111 109 110 112 108 114 
117 115 116 113 120 122 118 119 121 
560 124 557 558 125 5 126 123 559 
131 127 130 129 128 136 132 133 134 
135 139 141 140 137 138 142 145 143 
144 146 149 151 147 148 150 155 588 
154 590 6 587 156 589 152 153 161 
160 157 158 159 162 1022 7 163 164 
973 166 1009 8 165 986 1011 170 169 
168 167 172 171 174 177 175 176 173 
179 180 181 178 9 383 385 387 386 
384 984 989 965 1038 397 396 398 400 
399 491 489 487 490 488 552 555 556 
553 554 591 593 595 594 592 1029 997 
1043 999 946 1030 182 184 186 183 185 
382 378 379 381 380 967 953 401 405 
402 404 403 482 485 483 484 486 550 
549 548 551 547 599 600 596 598 597 
988 929 1015 190 188 187 189 191 377 
374 373 375 376 952 992 1007 406 409 
410 408 407 478 481 477 479 480 546 
542 545 544 543 602 605 603 604 601 
1025 1019 994 979 950 934 195 196 192 
194 193 371 368 370 372 369 1012 1017 
413 415 414 411 412 474 475 473 476 
472 541 539 540 537 538 607 610 609 
606 608 937 1044 199 197 198 201 200 
363 364 365 366 367 1000 935 417 420 
418 416 419 468 471 467 469 470 536 
533 532 535 534 615 614 612 611 613 
943 206 204 203 205 202 359 361 360 
362 358 971 1021 1031 424 421 422 423 
425 466 465 464 463 462 530 527 531 
528 529 617 619 620 616 618 1002 958 
931 1013 940 210 208 207 211 209 355 
356 353 357 354 944 426 427 428 429 
430 459 460 457 458 461 524 525 526 
523 522 625 621 624 622 623 1001 1035 
949 214 215 212 216 213 350 351 349 
348 352 1003 434 431 432 10 435 433 
437 438 441 440 436 439 11 443 442 
1034 12 444 445 447 1006 446 448 451 
449 450 963 455 456 453 454 452 499 
498 497 496 500 13 504 503 506 502 
501 505 14 508 507 510 15 509 516 
514 513 512 511 515 520 519 518 521 
517 563 564 561 565 16 562 570 569 
568 566 567 571 572 573 1010 17 18 
574 575 580 1023 981 576 581 578 579 
577 974 586 582 583 584 585 34 19 
959 957 221 220 218 217 219 346 344 
347 343 345 956 222 223 225 226 224 
341 661 664 663 339 20 660 340 662 
342 21 665 666 667 22 668 671 672 
670 669 673 676 677 675 678 674 680 
679 681 682 683 23 716 717 715 684 
687 685 713 714 686 723 721 720 718 
722 719 36 725 724 727 37 726 732 
728 731 730 729 733 737 734 735 738 
736 740 739 631 633 741 742 634 632 
24 743 744 747 745 746 748 750 749 
752 751 755 757 756 754 753 759 762 
761 760 758 763 765 766 767 764 769 
772 770 768 771 773 777 775 776 774 
780 779 782 781 778 783 785 784 786 
787 791 792 790 788 789 797 795 793 
796 794 35 799 820 817 800 818 819 
801 798 806 804 805 803 802 808 807 
809 810 811 813 1046 815 816 812 814 
961 25 948 630 627 26 628 629 626 
27 229 228 227 230 338 335 336 337 
334 692 690 688 689 691 635 637 636 
639 638 825 823 821 824 822 938 1039 
231 232 235 234 233 332 329 333 331 
330 696 693 694 695 697 643 642 640 
641 644 826 827 828 830 829 991 240 
238 237 239 236 328 325 326 324 327 
698 702 701 699 700 647 649 646 645 
648 834 831 833 832 835 982 243 242 
245 241 244 319 322 320 321 323 704 
705 703 707 706 650 653 652 654 651 
996 970 29 250 248 247 249 246 315 
317 316 314 318 711 712 710 708 709 
659 656 657 658 655 925 28 926 928 
924 927 255 251 254 253 252 311 310 
313 312 30 306 309 305 307 308 301 
304 302 300 303 296 297 295 299 298 
290 293 294 292 291 286 288 289 285 
287 284 281 282 283 31 280 277 276 
278 279 271 272 273 275 274 266 269 
270 267 268 265 263 261 262 264 259 
258 257 256 260 32 837 836 838 839 
843 842 841 844 840 847 846 848 845 
849 852 850 853 854 851 856 857 859 
855 858 864 860 861 863 862 866 867 
865 868 869 870 871 872 873 874 875 
878 879 877 876 882 884 883 881 880 
887 885 888 889 886 890 894 891 892 
893 38 895 898 896 897 899 900 901 
902 903 906 908 904 907 905 911 913 
912 910 909 915 914 916 917 918 923 
919 920 921 922 33 
FIELD FieldData 14
r 3 1049 double
-0.45748 -10.1675 0 0.0568049 -10.0379 0 -0.323303 -9.6275 0 
0.191196 -9.5258 0 -2.91136 -8.05509 0 1.67232 -8.72082 0 
1.63295 -8.13344 0 2.27628 -8.0076 0 -3.18688 -7.175 0 
3.09549 -7.18814 0 3.31824 -7.79747 0 3.83735 -7.53442 0 
-5.88166 -6.00337 0 -4.28243 -6.4979 0 3.73115 -6.80074 0 
4.66837 -6.87422 0 4.74639 -6.08593 0 -5.64436 -5.36082 0 
-4.8497 -5.91734 0 -4.03893 -5.8486 0 5.78543 -5.24703 0 
-6.72403 -4.58316 0 -6.18024 -4.81638 0 6.35729 -4.91346 0 
-8.9672 -3.73197 0 -8.17455 -3.66137 0 -8.57662 -3.16191 0 
-7.55297 -3.95571 0 -7.7646 -3.05013 0 8.01687 -3.46776 0 
-9.49209 -2.87252 0 -9.3612 -2.18992 0 -8.54124 -2.56705 0 
9.18535 -2.43519 0 9.70324 -2.2312 0 -10.3523 -1.91923 0 
-10.9298 -1.899 0 -10.1908 -1.35172 0 -10.9735 -1.32851 0 
10.9995 -1.44482 0 10.3984 -1.36048 0 11.6131 -1.32021 0 
-11.9442 -0.024106 0 -11.9511 -0.728683 0 -11.4659 -0.422494 0 
-11.1532 -0.828554 0 10.9462 -0.840366 0 11.5543 -0.722278 0 
11.8343 -0.186654 0 -15 0.8 0 -14.4643 0 0 
-14.2857 0 0 -14.1071 0 0 -15 0 0 
-15 0.6 0 -15 0.4 0 -14.8214 0 0 
-15 0.2 0 -14.6429 0 0 -13.9286 0 0 
-13.2143 0 0 -13.0357 0 0 -13.3929 0 0 
-13.75 0 0 -13.5714 0 0 -12.5 0 0 
-12.8571 0 0 -12.6786 0 0 -12.3445 0.348625 0 
-12.0074 0.840074 0 -11.5229 0.420906 0 -11.3214 0 0 
-11.1429 0 0 -11.5 0 0 -10.0714 0 0 
-10.6071 0 0 -10.4286 0 0 -10.9643 0 0 
-10.7857 0 0 -10.25 0 0 -9.1786 0 0 
-9.5357 0 0 -9.3571 0 0 -9.8929 0 0 
-9.7143 0 0 -8.2 0 0 -9 0.4 0 
-9 0.6 0 -8.8 0 0 -8.4 0 0 
-9 0 0 -8.6 0 0 -9 0.2 0 
-9 0.8 0 -7.2 0 0 -7.8 0 0 
-8 0 0 -7.6 0 0 -7.4 0 0 
-6.2 0 0 -6.6 0 0 -6.8 0 0 
-6.4 0 0 -7 0 0 -5.2 0 0 
-5.4 0 0 -6 0 0 -5.8 0 0 
-5.6 0 0 -4.4 0 0 -4.8 0 0 
-4.2 0 0 -5 0 0 -4.6 0 0 
-3.2 0 0 -3.6 0 0 -3.8 0 0 
-3.4 0 0 -4 0 0 -3 0.8 0 
-2.6 0 0 -2.4 0 0 -3 0 0 
-2.8 0 0 -3 0.6 0 -3 0.4 0 
-2.2 0 0 -3 0.2 0 -1.4 0 0 
-1.2 0 0 -1.6 0 0 -1.8 0 0 
-2 0 0 -0.6 0 0 -1 0 0 
-0.2 0 0 -0.4 0 0 -0.8 0 0 
0.6 0 0 0.2 0 0 0.4 0 0 
0.8 0 0 -0 0 0 1.2 0 0 
1.8 0 0 1.4 0 0 1.6 0 0 
1 0 0 2.4 0 0 2.8 0 0 
2 0 0 2.2 0 0 2.6 0 0 
3 0.2 0 3.4 0 0 3 0.8 0 
3 0.6 0 3.6 0 0 3 0 0 
3.8 0 0 3.2 0 0 3 0.4 0 
4.8 0 0 4 0 0 4.6 0 0 
4.4 0 0 4.2 0 0 5.8 0 0 
5 0 0 5.2 0 0 5.4 0 0 
5.6 0 0 6.4 0 0 6.8 0 0 
6.6 0 0 6 0 0 6.2 0 0 
7 0 0 7.6 0 0 7.2 0 0 
7.4 0 0 7.8 0 0 8.4 0 0 
8.8 0 0 8 0 0 8.2 0 0 
8.6 0 0 9.7143 0 0 9 0.4 0 
9.5357 0 0 9 0.8 0 9 0 0 
9 0.2 0 9.8929 0 0 9 0.6 0 
9.1786 0 0 9.3571 0 0 10.7857 0 0 
10.6071 0 0 10.0714 0 0 10.25 0 0 
10.4286 0 0 10.9643 0 0 11.5118 0.348225 0 
11.5 0 0 11.1429 0 0 11.3214 0 0 
11.5653 0.900364 0 12.8571 0 0 12.3998 0.249194 0 
12.5 0 0 12.6786 0 0 12.0173 0.525074 0 
12.4297 0.884093 0 13.5714 0 0 13.3929 0 0 
13.2143 0 0 13.0357 0 0 13.9286 0 0 
13.75 0 0 14.2857 0 0 14.8214 0 0 
14.4643 0 0 14.6429 0 0 14.1071 0 0 
15 0.4 0 15 0.6 0 15 0.8 0 
15 0.2 0 15 0 0 -15 1.8 0 
-15 1.4 0 -15 1 0 -15 1.2 0 
-15 1.6 0 -11.745 1.97059 0 -11.3908 1.0682 0 
-11.935 1.45074 0 -11.184 1.98463 0 -9 1.2 0 
-9 1 0 -9 1.4 0 -9 1.8 0 
-9 1.6 0 -3 1 0 -3 1.4 0 
-3 1.8 0 -3 1.2 0 -3 1.6 0 
3 1.8 0 3 1.2 0 3 1 0 
3 1.6 0 3 1.4 0 9 1 0 
9 1.4 0 9 1.8 0 9 1.6 0 
9 1.2 0 10.9904 1.46144 0 11.9301 1.30318 0 
11.4915 1.70429 0 12.0392 1.87878 0 12.6234 1.88453 0 
12.4655 1.38999 0 15 1 0 15 1.4 0 
15 1.8 0 15 1.2 0 15 1.6 0 
-15 2 0 -15 2.8 0 -15 2.6 0 
-15 2.2 0 -15 2.4 0 -12.2326 2.64044 0 
-10.9723 2.75891 0 -9 2 0 -9 2.8 0 
-9 2.2 0 -9 2.6 0 -9 2.4 0 
-3 2.8 0 -3 2.2 0 -3 2.6 0 
-3 2.4 0 -3 2 0 3 2.2 0 
3 2.4 0 3 2.6 0 3 2 0 
3 2.8 0 9 2.6 0 9 2.8 0 
9 2 0 9 2.4 0 9 2.2 0 
11.2936 2.22734 0 12.324 2.33658 0 12.8544 2.7572 0 
15 2.6 0 15 2.2 0 15 2 0 
15 2.4 0 15 2.8 0 -15 3 0 
-15 3.6 0 -15 3.8 0 -15 3.4 0 
-15 3.2 0 -11.7366 3.30815 0 -11.389 3.76621 0 
-10.8448 3.51195 0 -9 3 0 -9 3.6 0 
-9 3.8 0 -9 3.4 0 -9 3.2 0 
-3 3.6 0 -3 3 0 -3 3.8 0 
-3 3.4 0 -3 3.2 0 3 3 0 
3 3.8 0 3 3.2 0 3 3.4 0 
3 3.6 0 9 3.2 0 9 3.8 0 
9 3.4 0 9 3.6 0 9 3 0 
10.8708 3.2906 0 10.4453 3.71654 0 11.7151 3.60113 0 
11.1926 3.81403 0 11.4604 3.01473 0 12.6036 3.95099 0 
15 3.6 0 15 3.8 0 15 3 0 
15 3.4 0 15 3.2 0 -15 4.2 0 
-15 4.8 0 -15 4.4 0 -15 4 0 
-15 4.6 0 -10.9475 4.47118 0 -10.2477 4.87139 0 
-9 4.4 0 -9 4.8 0 -9 4.6 0 
-9 4 0 -9 4.2 0 -3 4.4 0 
-3 4.2 0 -3 4.6 0 -3 4 0 
-3 4.8 0 3 4 0 3 4.4 0 
3 4.2 0 3 4.8 0 3 4.6 0 
9 4.2 0 9 4.8 0 9 4.6 0 
9 4 0 9 4.4 0 10.4962 4.47896 0 
11.0937 4.39018 0 15 4.4 0 15 4 0 
15 4.2 0 15 4.8 0 15 4.6 0 
-15 5.8 0 -15 5.6 0 -15 5.4 0 
-15 5.2 0 -15 5 0 -10.3128 5.45686 0 
-10.9403 5.44777 0 -9 5.2 0 -9 5.8 0 
-9 5.4 0 -9 5 0 -9 5.6 0 
-3 5.6 0 -3 5 0 -3 5.8 0 
-3 5.4 0 -3 5.2 0 3 5 0 
3 5.6 0 3 5.8 0 3 5.2 0 
3 5.4 0 9 5.8 0 9 5.6 0 
9 5.2 0 9 5 0 9 5.4 0 
12.5025 5.50275 0 15 5.8 0 15 5.4 0 
15 5.2 0 15 5.6 0 15 5 0 
-15 6.6 0 -15 6.2 0 -15 6.4 0 
-15 6 0 -15 6.8 0 -10.1462 6.04892 0 
-10.4699 6.96659 0 -9.9033 6.62475 0 -9 6.6 0 
-9 6 0 -9 6.2 0 -9 6.4 0 
-9 6.8 0 -3 6 0 -3 6.2 0 
-3 6.4 0 -3 6.6 0 -3 6.8 0 
3 6.2 0 3 6.8 0 3 6 0 
3 6.6 0 3 6.4 0 9 6.2 0 
9 6.6 0 9 6.8 0 9 6 0 
9 6.4 0 10.1002 6.44242 0 12.729 6.05157 0 
12.7666 6.8887 0 13.3928 6.09601 0 13.5731 6.62702 0 
15 6.6 0 15 6.2 0 15 6 0 
15 6.8 0 15 6.4 0 -15 7.4 0 
-15 7.2 0 -15 7.8 0 -15 7 0 
-15 7.6 0 -9.7819 7.23076 0 -9 7 0 
-9 7.2 0 -9 7.4 0 -9 7.6 0 
-9 7.8 0 -3 7.4 0 -3 7.2 0 
-3 7.8 0 -3 7.6 0 -3 7 0 
3 7.4 0 3 7.2 0 3 7 0 
3 7.6 0 3 7.8 0 9 7.8 0 
9 7 0 9 7.6 0 9 7.2 0 
9 7.4 0 9.66538 7.73251 0 13.1057 7.8621 0 
13.3722 7.09307 0 15 7.4 0 15 7.6 0 
15 7 0 15 7.8 0 15 7.2 0 
-15 8.4 0 -15 8.2 0 -15 8.6 0 
-15 8.8 0 -15 8 0 -9.22446 8.40691 0 
-8.2857 8 0 -8.8214 8 0 -8.6429 8 0 
-9 8 0 -8.1071 8 0 -8.4643 8 0 
-7.75 8 0 -7.5714 8 0 -7.0357 8 0 
-7.2143 8 0 -7.9286 8 0 -7.3929 8 0 
-6.5 8 0 -6.6786 8 0 -6.8571 8 0 
-5.31912 8.97958 0 -5.5 8 0 -5.3214 8 0 
-5.1429 8 0 -4.7857 8 0 -4.69022 8.92222 0 
-4.9643 8 0 -4.6071 8 0 -4.0714 8 0 
-4.4286 8 0 -4.25 8 0 -3.65797 8.87462 0 
-3.3571 8 0 -3.1786 8 0 -3.7143 8 0 
-3.5357 8 0 -3.8929 8 0 -2.2857 8 0 
-2.4643 8 0 -2.6429 8 0 -2.8214 8 0 
-2.1071 8 0 -3 8 0 -1.3929 8 0 
-1.5714 8 0 -1.0357 8 0 -1.75 8 0 
-1.9286 8 0 -1.2143 8 0 -0.5 8 0 
-0.6786 8 0 -0.8571 8 0 0.8571 8 0 
0.5 8 0 0.6786 8 0 1.9286 8 0 
1.5714 8 0 1.3929 8 0 1.2143 8 0 
1.0357 8 0 1.75 8 0 2.6429 8 0 
2.4643 8 0 2.2857 8 0 2.8214 8 0 
2.1071 8 0 3.5357 8 0 3.7143 8 0 
3.1786 8 0 3.8929 8 0 3 8 0 
3.3571 8 0 4.7857 8 0 4.6071 8 0 
4.4286 8 0 4.0714 8 0 4.25 8 0 
4.9643 8 0 5.1429 8 0 5.3214 8 0 
5.51679 8.95384 0 5.5 8 0 6.5 8 0 
6.6786 8 0 6.8571 8 0 7.75 8 0 
7.63126 8.9984 0 7.0285 8.9773 0 7.0357 8 0 
7.9286 8 0 7.3929 8 0 7.5714 8 0 
7.2143 8 0 8.62167 8.96699 0 8.8214 8 0 
8.1071 8 0 8.2857 8 0 8.4643 8 0 
8.6429 8 0 9 8 0 9 8 0 
13.5314 8.33476 0 13.2887 8.93165 0 15 8.8 0 
15 8.6 0 15 8.2 0 15 8 0 
15 8.4 0 -15 9.2 0 -15 9.6 0 
-15 9 0 -15 9.8 0 -15 9.4 0 
13.3585 9.71345 0 15 9 0 15 9.2 0 
15 9.6 0 15 9.8 0 15 9.4 0 
-15 10.4 0 -14.6667 10 0 -14.1667 10 0 
-14.3333 10 0 -15 10.8 0 -15 10 0 
-14.8333 10 0 -15 10.6 0 -14.5 10 0 
-15 10.2 0 -14 10 0 -12.8 10 0 
-12.6 10 0 -12.4 10 0 -13 10 0 
-12.2 10 0 -11.6 10 0 -11.4 10 0 
-11.8 10 0 -12 10 0 -11.2 10 0 
-10.6 10 0 -10.4 10 0 -10.8 10 0 
-10.2 10 0 -11 10 0 -9.8 10 0 
-10 10 0 -9.6 10 0 -9.4 10 0 
-9.2 10 0 -9 10 0 -8.2857 10 0 
-8.1071 10 0 -8.4643 10 0 -9 10.2 0 
-9 10.8 0 -9 10.4 0 -8.8214 10 0 
-8.6429 10 0 -9 10.6 0 -7.0357 10 0 
-7.3929 10 0 -7.5714 10 0 -7.9286 10 0 
-7.2143 10 0 -7.75 10 0 -6.5 10 0 
-6.6786 10 0 -6.8571 10 0 -5.1429 10 0 
-5.5 10 0 -5.3214 10 0 -4.25 10 0 
-4.9643 10 0 -4.4286 10 0 -4.6071 10 0 
-4.7857 10 0 -4.0714 10 0 -3.3571 10 0 
-3.8929 10 0 -3.7143 10 0 -3.1786 10 0 
-3.5357 10 0 -2.6 10 0 -2.8 10 0 
-3 10.2 0 -3 10.6 0 -2.4 10 0 
-2.2 10 0 -3 10.8 0 -3 10.4 0 
-3 10 0 -2 10 0 -1.8 10 0 
-1.2 10 0 -1.6 10 0 -1.4 10 0 
-1 10 0 -0.6 10 0 -0.8 10 0 
-0.2 10 0 -0.4 10 0 0.4 10 0 
0.8 10 0 0.6 10 0 0.2 10 0 
-0 10 0 1.2 10 0 1.8 10 0 
1.6 10 0 1.4 10 0 1 10 0 
2 10 0 2.4 10 0 2.6 10 0 
2.8 10 0 2.2 10 0 3.2 10 0 
3.8 10 0 3.4 10 0 3 10 0 
3.6 10 0 4 10 0 4.8 10 0 
4.4 10 0 4.6 10 0 4.2 10 0 
5.4 10 0 5.2 10 0 5.8 10 0 
5.6 10 0 5 10 0 6 10 0 
6.4 10 0 6.2 10 0 6.6 10 0 
6.8 10 0 7.6 10 0 7.8 10 0 
7.4 10 0 7 10 0 7.2 10 0 
8.8 10 0 8.4 10 0 8 10 0 
8.6 10 0 8.2 10 0 9 10 0 
9.4 10 0 9 10.8 0 9 10.2 0 
9.6 10 0 9 10.4 0 9 10.6 0 
9.8 10 0 9.2 10 0 10.8 10 0 
10.4 10 0 10.6 10 0 10.2 10 0 
10 10 0 11.2 10 0 11 10 0 
11.4 10 0 11.6 10 0 11.8 10 0 
12.2 10 0 12.739 10.5064 0 12.6 10 0 
12.8 10 0 12 10 0 12.4 10 0 
13.3352 10.4677 0 13 10 0 13.7281 10.1487 0 
14.1667 10 0 14.6667 10 0 14 10 0 
14.5 10 0 14.3333 10 0 14.8333 10 0 
15 10 0 15 10.6 0 15 10.4 0 
15 10.2 0 15 10.8 0 -15 11 0 
-15 11.6 0 -15 11.4 0 -15 11.2 0 
-15 11.8 0 -9 11.8 0 -9 11.4 0 
-9 11 0 -9 11.2 0 -9 11.6 0 
-3 11 0 -3 11.4 0 -3 11.2 0 
-3 11.8 0 -3 11.6 0 9 11.8 0 
9 11.4 0 9 11 0 9 11.6 0 
9 11.2 0 11.9828 11.6897 0 12.3848 11.1698 0 
15 11 0 15 11.2 0 15 11.8 0 
15 11.6 0 15 11.4 0 -15 12.2 0 
-15 12.8 0 -15 12 0 -15 12.4 0 
-15 12.6 0 -9 12.6 0 -9 12 0 
-9 12.2 0 -9 12.4 0 -9 12.8 0 
-3 12.6 0 -3 12.4 0 -3 12 0 
-3 12.2 0 -3 12.8 0 9 12 0 
9 12.2 0 9 12.4 0 9 12.8 0 
9 12.6 0 10.9966 12.6336 0 15 12.8 0 
15 12.4 0 15 12.2 0 15 12.6 0 
15 12 0 -15 13 0 -15 13.6 0 
-15 13.4 0 -15 13.8 0 -15 13.2 0 
-9 13 0 -9 13.8 0 -9 13.6 0 
-9 13.2 0 -9 13.4 0 -3 13.4 0 
-3 13.8 0 -3 13.2 0 -3 13 0 
-3 13.6 0 9 13.6 0 9 13 0 
9 13.4 0 9 13.2 0 9 13.8 0 
10.303 13.3695 0 15 13.4 0 15 13.2 0 
15 13.8 0 15 13 0 15 13.6 0 
-15 14.8 0 -15 14.2 0 -15 14.6 0 
-15 14.4 0 -15 14 0 -9 14.2 0 
-9 14.4 0 -9 14 0 -9 14.8 0 
-9 14.6 0 -3 14 0 -3 14.6 0 
-3 14.4 0 -3 14.8 0 -3 14.2 0 
8.11692 14.1966 0 8.91413 14.4781 0 9 14 0 
15 14.8 0 15 14.4 0 15 14.2 0 
15 14.6 0 15 14 0 -15 15.6 0 
-15 15.2 0 -15 15.4 0 -15 15.8 0 
-15 15 0 -9 15.6 0 -9 15.8 0 
-9 15.4 0 -9 15 0 -9 15.2 0 
-3 15.8 0 -3 15.2 0 -3 15.4 0 
-3 15.6 0 -3 15 0 9 15.3333 0 
9 15 0 9 15.5 0 9 15.8333 0 
9 15.1667 0 9 15.6667 0 15 15.8 0 
15 15 0 15 15.6 0 15 15.4 0 
15 15.2 0 -14.4 16 0 -14.2 16 0 
-14.8 16 0 -14.6 16 0 -15 16 0 
-13.4 16 0 -14 16 0 -13.2 16 0 
-13.6 16 0 -13.8 16 0 -12.4 16 0 
-13 16 0 -12.6 16 0 -12.2 16 0 
-12.8 16 0 -11.4 16 0 -11.6 16 0 
-11.2 16 0 -12 16 0 -11.8 16 0 
-10.2 16 0 -10.8 16 0 -11 16 0 
-10.6 16 0 -10.4 16 0 -9.4 16 0 
-9.8 16 0 -10 16 0 -9.2 16 0 
-9.6 16 0 -8.8 16 0 -8.2 16 0 
-8.4 16 0 -8.6 16 0 -9 16 0 
-8 16 0 -7.4 16 0 -7.2 16 0 
-7.6 16 0 -7.8 16 0 -6.2 16 0 
-6.4 16 0 -6.6 16 0 -7 16 0 
-6.8 16 0 -5.2 16 0 -5.8 16 0 
-6 16 0 -5.4 16 0 -5.6 16 0 
-5 16 0 -4.6 16 0 -4.2 16 0 
-4.4 16 0 -4.8 16 0 -3.8 16 0 
-3.6 16 0 -3.4 16 0 -3.2 16 0 
-4 16 0 -3 16 0 -2.6 16 0 
-2.8 16 0 -2.4 16 0 -2.2 16 0 
-1.4 16 0 -1.6 16 0 -1.8 16 0 
-1.2 16 0 -2 16 0 -0.6 16 0 
-0.8 16 0 -0.4 16 0 -1 16 0 
-0.2 16 0 0.4 16 0 -0 16 0 
0.6 16 0 0.8 16 0 0.2 16 0 
1.2 16 0 1.4 16 0 1.8 16 0 
1 16 0 1.6 16 0 2.8 16 0 
2 16 0 2.2 16 0 2.6 16 0 
2.4 16 0 3.2 16 0 3.4 16 0 
3 16 0 3.6 16 0 3.8 16 0 
4 16 0 4.2 16 0 4.4 16 0 
4.6 16 0 4.8 16 0 5 16 0 
5.6 16 0 5.8 16 0 5.4 16 0 
5.2 16 0 6.4 16 0 6.8 16 0 
6.6 16 0 6.2 16 0 6 16 0 
7.4 16 0 7 16 0 7.6 16 0 
7.8 16 0 7.2 16 0 8 16 0 
8.8 16 0 8.2 16 0 8.4 16 0 
8.6 16 0 9 16 0 9.2 16 0 
9.8 16 0 9.4 16 0 9.6 16 0 
10 16 0 10.2 16 0 10.4 16 0 
10.6 16 0 10.8 16 0 11.4 16 0 
11.8 16 0 11 16 0 11.6 16 0 
11.2 16 0 12.4 16 0 12.8 16 0 
12.6 16 0 12.2 16 0 12 16 0 
13.2 16 0 13 16 0 13.4 16 0 
13.6 16 0 13.8 16 0 14.8 16 0 
14 16 0 14.2 16 0 14.4 16 0 
14.6 16 0 15 16 0 
gid 1 1049 double
1 1 1 1 1 1 1 1 1 
1 1 1 1 1 1 1 1 1 
1 1 1 1 1 1 1 1 1 
1 1 1 1 1 1 1 1 1 
1 1 1 1 1 1 1 1 1 
1 1 1 1 2 2 2 2 2 
2 2 2 2 2 2 2 2 2 
2 2 2 2 2 1 1 1 2 
2 2 2 2 2 2 2 2 2 
2 2 2 2 2 2 2 2 2 
2 2 2 2 2 2 2 2 2 
2 2 2 2 2 2 2 2 2 
2 2 2 2 2 2 2 2 2 
2 2 2 2 2 2 2 2 2 
2 2 2 2 2 2 2 2 2 
2 2 2 2 2 2 2 2 2 
2 2 2 2 2 2 2 2 2 
2 2 2 2 2 2 2 2 2 
2 2 2 2 2 2 2 2 2 
2 2 2 2 2 2 2 2 2 
2 2 2 2 2 2 2 2 2 
2 2 2 2 2 2 2 2 2 
2 2 2 2 2 1 2 2 2 
1 2 1 2 2 1 1 2 2 
2 2 2 2 2 2 2 2 2 
2 2 2 2 2 2 2 2 2 
2 1 1 1 1 2 2 2 2 
2 2 2 2 2 2 2 2 2 
2 2 2 2 2 2 2 1 1 
1 1 1 1 2 2 2 2 2 
2 2 2 2 2 1 1 2 2 
2 2 2 2 2 2 2 2 2 
2 2 2 2 2 2 2 2 2 
1 1 1 2 2 2 2 2 2 
2 2 2 2 1 1 1 2 2 
2 2 2 2 2 2 2 2 2 
2 2 2 2 2 2 2 2 2 
1 1 1 1 1 1 2 2 2 
2 2 2 2 2 2 2 1 1 
2 2 2 2 2 2 2 2 2 
2 2 2 2 2 2 2 2 2 
2 2 1 1 2 2 2 2 2 
2 2 2 2 2 1 1 2 2 
2 2 2 2 2 2 2 2 2 
2 2 2 2 2 2 2 2 2 
1 2 2 2 2 2 2 2 2 
2 2 1 1 1 2 2 2 2 
2 2 2 2 2 2 2 2 2 
2 2 2 2 2 2 2 1 1 
1 1 1 2 2 2 2 2 2 
2 2 2 2 1 2 2 2 2 
2 2 2 2 2 2 2 2 2 
2 2 2 2 2 2 2 1 1 
1 2 2 2 2 2 2 2 2 
2 2 1 2 2 2 2 2 2 
2 2 2 2 2 2 2 2 2 
1 2 2 2 2 1 2 2 2 
2 2 1 2 2 2 2 2 2 
2 2 2 2 2 2 2 2 2 
2 2 2 2 2 2 2 2 2 
2 2 2 2 2 2 2 2 2 
2 2 2 2 2 2 2 2 2 
2 2 2 2 2 2 1 2 2 
2 2 2 1 1 2 2 2 2 
2 1 2 2 2 2 2 2 2 
1 1 2 2 2 2 2 2 2 
2 2 2 1 2 2 2 2 2 
2 2 2 2 2 2 2 2 2 
2 2 2 2 2 2 2 2 2 
2 2 2 2 2 2 2 2 2 
2 2 2 2 2 2 2 2 2 
2 2 2 2 2 2 2 2 2 
2 2 2 2 2 2 2 2 2 
2 2 2 2 2 2 2 2 2 
2 2 2 2 2 2 2 2 2 
2 2 2 2 2 2 2 2 2 
2 2 2 2 2 2 2 2 2 
2 2 2 2 2 2 2 2 2 
2 2 2 2 2 2 2 2 2 
2 2 2 2 2 2 2 2 2 
2 2 2 2 2 2 2 2 2 
2 2 2 2 2 2 2 2 2 
2 2 2 2 2 2 2 2 2 
2 2 2 2 1 2 2 2 2 
1 2 1 2 2 2 2 2 2 
2 2 2 2 2 2 2 2 2 
2 2 2 2 2 2 2 2 2 
2 2 2 2 2 2 2 1 1 
2 2 2 2 2 2 2 2 2 
2 2 2 2 2 2 2 2 2 
2 2 2 2 2 2 2 1 2 
2 2 2 2 2 2 2 2 2 
2 2 2 2 2 2 2 2 2 
2 2 2 2 2 2 1 2 2 
2 2 2 2 2 2 2 2 2 
2 2 2 2 2 2 2 2 2 
1 1 2 2 2 2 2 2 2 
2 2 2 2 2 2 2 2 2 
2 2 2 2 2 2 2 2 2 
2 2 2 2 2 2 2 2 2 
2 2 2 2 2 2 2 2 2 
2 2 2 2 2 2 2 2 2 
2 2 2 2 2 2 2 2 2 
2 2 2 2 2 2 2 2 2 
2 2 2 2 2 2 2 2 2 
2 2 2 2 2 2 2 2 2 
2 2 2 2 2 2 2 2 2 
2 2 2 2 2 2 2 2 2 
2 2 2 2 2 2 2 2 2 
2 2 2 2 2 2 2 2 2 
2 2 2 2 2 2 2 2 2 
2 2 2 2 2 2 2 2 2 
2 2 2 2 2 2 2 2 2 
2 2 2 2 2 2 2 2 2 
2 2 2 2 2 2 2 2 2 
2 2 2 2 2 2 2 2 2 
2 2 2 2 2 
A 1 1049 double
10 10 10 10 10 10 10 10 10 
10 10 10 10 10 10 10 10 10 
10 10 10 10 10 10 10 10 10 
10 10 10 10 10 10 10 10 10 
10 10 10 10 10 10 10 10 10 
10 10 10 10 10 10 10 10 10 
10 10 10 10 10 10 10 10 10 
10 10 10 10 10 10 10 10 10 
10 10 10 10 10 10 10 10 10 
10 10 10 10 10 10 10 10 10 
10 10 10 10 10 10 10 10 10 
10 10 10 10 10 10 10 10 10 
10 10 10 10 10 10 10 10 10 
10 10 10 10 10 10 10 10 10 
10 10 10 10 10 10 10 10 10 
10 10 10 10 10 10 10 10 10 
10 10 10 10 10 10 10 10 10 
10 10 10 10 10 10 10 10 10 
10 10 10 10 10 10 10 10 10 
10 10 10 10 10 10 10 10 10 
10 10 10 10 10 10 10 10 10 
10 10 10 10 10 10 10 10 10 
10 10 10 10 10 10 10 10 10 
10 10 10 10 10 10 10 10 10 
10 10 10 10 10 10 10 10 10 
10 10 10 10 10 10 10 10 10 
10 10 10 10 10 10 10 10 10 
10 10 10 10 10 10 10 10 10 
10 10 10 10 10 10 10 10 10 
10 10 10 10 10 10 10 10 10 
10 10 10 10 10 10 10 10 10 
10 10 10 10 10 10 10 10 10 
10 10 10 10 10 10 10 10 10 
10 10 10 10 10 10 10 10 10 
10 10 10 10 10 10 10 10 10 
10 10 10 10 10 10 10 10 10 
10 10 10 10 10 10 10 10 10 
10 10 10 10 10 10 10 10 10 
10 10 10 10 10 10 10 10 10 
10 10 10 10 10 10 10 10 10 
10 10 10 10 10 10 10 10 10 
10 10 10 10 10 10 10 10 10 
10 10 10 10 10 10 10 10 10 
10 10 10 10 10 10 10 10 10 
10 10 10 10 10 10 10 10 10 
10 10 10 10 10 10 10 10 10 
10 10 10 10 10 10 10 10 10 
10 10 10 10 10 10 10 10 10 
10 10 10 10 10 10 10 10 10 
10 10 10 10 10 10 10 10 10 
10 10 10 10 10 10 10 10 10 
10 10 10 10 10 10 10 10 10 
10 10 10 10 10 10 10 10 10 
10 10 10 10 10 10 10 10 10 
10 10 10 10 10 10 10 10 10 
10 10 10 10 10 10 10 10 10 
10 10 10 10 10 10 10 10 10 
10 10 10 10 10 10 10 10 10 
10 10 10 10 10 10 10 10 10 
10 10 10 10 10 10 10 10 10 
10 10 10 10 10 10 10 10 10 
10 10 10 10 10 10 10 10 10 
10 10 10 10 10 10 10 10 10 
10 10 10 10 10 10 10 10 10 
10 10 10 10 10 10 10 10 10 
10 10 10 10 10 10 10 10 10 
10 10 10 10 10 10 10 10 10 
10 10 10 10 10 10 10 10 10 
10 10 10 10 10 10 10 10 10 
10 10 10 10 10 10 10 10 10 
10 10 10 10 10 10 10 10 10 
10 10 10 10 10 10 10 10 10 
10 10 10 10 10 10 10 10 10 
10 10 10 10 10 10 10 10 10 
10 10 10 10 10 10 10 10 10 
10 10 10 10 10 10 10 10 10 
10 10 10 10 10 10 10 10 10 
10 10 10 10 10 10 10 10 10 
10 10 10 10 10 10 10 10 10 
10 10 10 10 10 10 10 10 10 
10 10 10 10 10 10 10 10 10 
10 10 10 10 10 10 10 10 10 
10 10 10 10 10 10 10 10 10 
10 10 10 10 10 10 10 10 10 
10 10 10 10 10 10 10 10 10 
10 10 10 10 10 10 10 10 10 
10 10 10 10 10 10 10 10 10 
10 10 10 10 10 10 10 10 10 
10 10 10 10 10 10 10 10 10 
10 10 10 10 10 10 10 10 10 
10 10 10 10 10 10 10 10 10 
10 10 10 10 10 10 10 10 10 
10 10 10 10 10 10 10 10 10 
10 10 10 10 10 10 10 10 10 
10 10 10 10 10 10 10 10 10 
10 10 10 10 10 10 10 10 10 
10 10 10 10 10 10 10 10 10 
10 10 10 10 10 10 10 10 10 
10 10 10 10 10 10 10 10 10 
10 10 10 10 10 10 10 10 10 
10 10 10 10 10 10 10 10 10 
10 10 10 10 10 10 10 10 10 
10 10 10 10 10 10 10 10 10 
10 10 10 10 10 10 10 10 10 
10 10 10 10 10 10 10 10 10 
10 10 10 10 10 10 10 10 10 
10 10 10 10 10 10 10 10 10 
10 10 10 10 10 10 10 10 10 
10 10 10 10 10 10 10 10 10 
10 10 10 10 10 10 10 10 10 
10 10 10 10 10 10 10 10 10 
10 10 10 10 10 10 10 10 10 
10 10 10 10 10 10 10 10 10 
10 10 10 10 10 10 10 10 10 
10 10 10 10 10 10 10 10 10 
10 10 10 10 10 10 10 10 10 
10 10 10 10 10 
B 1 1049 double
0.2 0.2 0.2 0.2 0.2 0.2 0.2 0.2 0.2 
0.2 0.2 0.2 0.2 0.2 0.2 0.2 0.2 0.2 
0.2 0.2 0.2 0.2 0.2 0.2 0.2 0.2 0.2 
0.2 0.2 0.2 0.2 0.2 0.2 0.2 0.2 0.2 
0.2 0.2 0.2 0.2 0.2 0.2 0.2 0.2 0.2 
0.2 0.2 0.2 0.2 0.2 0.2 0.2 0.2 0.2 
0.2 0.2 0.2 0.2 0.2 0.2 0.2 0.2 0.2 
0.2 0.2 0.2 0.2 0.2 0.2 0.2 0.2 0.2 
0.2 0.2 0.2 0.2 0.2 0.2 0.2 0.2 0.2 
0.2 0.2 0.2 0.2 0.2 0.2 0.2 0.2 0.2 
0.2 0.2 0.2 0.2 0.2 0.2 0.2 0.2 0.2 
0.2 0.2 0.2 0.2 0.2 0.2 0.2 0.2 0.2 
0.2 0.2 0.2 0.2 0.2 0.2 0.2 0.2 0.2 
0.2 0.2 0.2 0.2 0.2 0.2 0.2 0.2 0.2 
0.2 0.2 0.2 0.2 0.2 0.2 0.2 0.2 0.2 
0.2 0.2 0.2 0.2 0.2 0.2 0.2 0.2 0.2 
0.2 0.2 0.2 0.2 0.2 0.2 0.2 0.2 0.2 
0.2 0.2 0.2 0.2 0.2 0.2 0.2 0.2 0.2 
0.2 0.2 0.2 0.2 0.2 0.2 0.2 0.2 0.2 
0.2 0.2 0.2 0.2 0.2 0.2 0.2 0.2 0.2 
0.2 0.2 0.2 0.2 0.2 0.2 0.2 0.2 0.2 
0.2 0.2 0.2 0.2 0.2 0.2 0.2 0.2 0.2 
0.2 0.2 0.2 0.2 0.2 0.2 0.2 0.2 0.2 
0.2 0.2 0.2 0.2 0.2 0.2 0.2 0.2 0.2 
0.2 0.2 0.2 0.2 0.2 0.2 0.2 0.2 0.2 
0.2 0.2 0.2 0.2 0.2 0.2 0.2 0.2 0.2 
0.2 0.2 0.2 0.2 0.2 0.2 0.2 0.2 0.2 
0.2 0.2 0.2 0.2 0.2 0.2 0.2 0.2 0.2 
0.2 0.2 0.2 0.2 0.2 0.2 0.2 0.2 0.2 
0.2 0.2 0.2 0.2 0.2 0.2 0.2 0.2 0.2 
0.2 0.2 0.2 0.2 0.2 0.2 0.2 0.2 0.2 
0.2 0.2 0.2 0.2 0.2 0.2 0.2 0.2 0.2 
0.2 0.2 0.2 0.2 0.2 0.2 0.2 0.2 0.2 
0.2 0.2 0.2 0.2 0.2 0.2 0.2 0.2 0.2 
0.2 0.2 0.2 0.2 0.2 0.2 0.2 0.2 0.2 
0.2 0.2 0.2 0.2 0.2 0.2 0.2 0.2 0.2 
0.2 0.2 0.2 0.2 0.2 0.2 0.2 0.2 0.2 
0.2 0.2 0.2 0.2 0.2 0.2 0.2 0.2 0.2 
0.2 0.2 0.2 0.2 0.2 0.2 0.2 0.2 0.2 
0.2 0.2 0.2 0.2 0.2 0.2 0.2 0.2 0.2 
0.2 0.2 0.2 0.2 0.2 0.2 0.2 0.2 0.2 
0.2 0.2 0.2 0.2 0.2 0.2 0.2 0.2 0.2 
0.2 0.2 0.2 0.2 0.2 0.2 0.2 0.2 0.2 
0.2 0.2 0.2 0.2 0.2 0.2 0.2 0.2 0.2 
0.2 0.2 0.2 0.2 0.2 0.2 0.2 0.2 0.2 
0.2 0.2 0.2 0.2 0.2 0.2 0.2 0.2 0.2 
0.2 0.2 0.2 0.2 0.2 0.2 0.2 0.2 0.2 
0.2 0.2 0.2 0.2 0.2 0.2 0.2 0.2 0.2 
0.2 0.2 0.2 0.2 0.2 0.2 0.2 0.2 0.2 
0.2 0.2 0.2 0.2 0.2 0.2 0.2 0.2 0.2 
0.2 0.2 0.2 0.2 0.2 0.2 0.2 0.2 0.2 
0.2 0.2 0.2 0.2 0.2 0.2 0.2 0.2 0.2 
0.2 0.2 0.2 0.2 0.2 0.2 0.2 0.2 0.2 
0.2 0.2 0.2 0.2 0.2 0.2 0.2 0.2 0.2 
0.2 0.2 0.2 0.2 0.2 0.2 0.2 0.2 0.2 
0.2 0.2 0.2 0.2 0.2 0.2 0.2 0.2 0.2 
0.2 0.2 0.2 0.2 0.2 0.2 0.2 0.2 0.2 
0.2 0.2 0.2 0.2 0.2 0.2 0.2 0.2 0.2 
0.2 0.2 0.2 0.2 0.2 0.2 0.2 0.2 0.2 
0.2 0.2 0.2 0.2 0.2 0.2 0.2 0.2 0.2 
0.2 0.2 0.2 0.2 0.2 0.2 0.2 0.2 0.2 
0.2 0.2 0.2 0.2 0.2 0.2 0.2 0.2 0.2 
0.2 0.2 0.2 0.2 0.2 0.2 0.2 0.2 0.2 
0.2 0.2 0.2 0.2 0.2 0.2 0.2 0.2 0.2 
0.2 0.2 0.2 0.2 0.2 0.2 0.2 0.2 0.2 
0.2 0.2 0.2 0.2 0.2 0.2 0.2 0.2 0.2 
0.2 0.2 0.2 0.2 0.2 0.2 0.2 0.2 0.2 
0.2 0.2 0.2 0.2 0.2 0.2 0.2 0.2 0.2 
0.2 0.2 0.2 0.2 0.2 0.2 0.2 0.2 0.2 
0.2 0.2 0.2 0.2 0.2 0.2 0.2 0.2 0.2 
0.2 0.2 0.2 0.2 0.2 0.2 0.2 0.2 0.2 
0.2 0.2 0.2 0.2 0.2 0.2 0.2 0.2 0.2 
0.2 0.2 0.2 0.2 0.2 0.2 0.2 0.2 0.2 
0.2 0.2 0.2 0.2 0.2 0.2 0.2 0.2 0.2 
0.2 0.2 0.2 0.2 0.2 0.2 0.2 0.2 0.2 
0.2 0.2 0.2 0.2 0.2 0.2 0.2 0.2 0.2 
0.2 0.2 0.2 0.2 0.2 0.2 0.2 0.2 0.2 
0.2 0.2 0.2 0.2 0.2 0.2 0.2 0.2 0.2 
0.2 0.2 0.2 0.2 0.2 0.2 0.2 0.2 0.2 
0.2 0.2 0.2 0.2 0.2 0.2 0.2 0.2 0.2 
0.2 0.2 0.2 0.2 0.2 0.2 0.2 0.2 0.2 
0.2 0.2 0.2 0.2 0.2 0.2 0.2 0.2 0.2 
0.2 0.2 0.2 0.2 0.2 0.2 0.2 0.2 0.2 
0.2 0.2 0.2 0.2 0.2 0.2 0.2 0.2 0.2 
0.2 0.2 0.2 0.2 0.2 0.2 0.2 0.2 0.2 
0.2 0.2 0.2 0.2 0.2 0.2 0.2 0.2 0.2 
0.2 0.2 0.2 0.2 0.2 0.2 0.2 0.2 0.2 
0.2 0.2 0.2 0.2 0.2 0.2 0.2 0.2 0.2 
0.2 0.2 0.2 0.2 0.2 0.2 0.2 0.2 0.2 
0.2 0.2 0.2 0.2 0.2 0.2 0.2 0.2 0.2 
0.2 0.2 0.2 0.2 0.2 0.2 0.2 0.2 0.2 
0.2 0.2 0.2 0.2 0.2 0.2 0.2 0.2 0.2 
0.2 0.2 0.2 0.2 0.2 0.2 0.2 0.2 0.2 
0.2 0.2 0.2 0.2 0.2 0.2 0.2 0.2 0.2 
0.2 0.2 0.2 0.2 0.2 0.2 0.2 0.2 0.2 
0.2 0.2 0.2 0.2 0.2 0.2 0.2 0.2 0.2 
0.2 0.2 0.2 0.2 0.2 0.2 0.2 0.2 0.2 
0.2 0.2 0.2 0.2 0.2 0.2 0.2 0.2 0.2 
0.2 0.2 0.2 0.2 0.2 0.2 0.2 0.2 0.2 
0.2 0.2 0.2 0.2 0.2 0.2 0.2 0.2 0.2 
0.2 0.2 0.2 0.2 0.2 0.2 0.2 0.2 0.2 
0.2 0.2 0.2 0.2 0.2 0.2 0.2 0.2 0.2 
0.2 0.2 0.2 0.2 0.2 0.2 0.2 0.2 0.2 
0.2 0.2 0.2 0.2 0.2 0.2 0.2 0.2 0.2 
0.2 0.2 0.2 0.2 0.2 0.2 0.2 0.2 0.2 
0.2 0.2 0.2 0.2 0.2 0.2 0.2 0.2 0.2 
0.2 0.2 0.2 0.2 0.2 0.2 0.2 0.2 0.2 
0.2 0.2 0.2 0.2 0.2 0.2 0.2 0.2 0.2 
0.2 0.2 0.2 0.2 0.2 0.2 0.2 0.2 0.2 
0.2 0.2 0.2 0.2 0.2 0.2 0.2 0.2 0.2 
0.2 0.2 0.2 0.2 0.2 0.2 0.2 0.2 0.2 
0.2 0.2 0.2 0.2 0.2 0.2 0.2 0.2 0.2 
0.2 0.2 0.2 0.2 0.2 0.2 0.2 0.2 0.2 
0.2 0.2 0.2 0.2 0.2 0.2 0.2 0.2 0.2 
0.2 0.2 0.2 0.2 0.2 0.2 0.2 0.2 0.2 
0.2 0.2 0.2 0.2 0.2 0.2 0.2 0.2 0.2 
0.2 0.2 0.2 0.2 0.2 
c 1 1049 double
0.1 0.1 0.1 0.1 0.1 0.1 0.1 0.1 0.1 
0.1 0.1 0.1 0.1 0.1 0.1 0.1 0.1 0.1 
0.1 0.1 0.1 0.1 0.1 0.1 0.1 0.1 0.1 
0.1 0.1 0.1 0.1 0.1 0.1 0.1 0.1 0.1 
0.1 0.1 0.1 0.1 0.1 0.1 0.1 0.1 0.1 
0.1 0.1 0.1 0.1 0.1 0.1 0.1 0.1 0.1 
0.1 0.1 0.1 0.1 0.1 0.1 0.1 0.1 0.1 
0.1 0.1 0.1 0.1 0.1 0.1 0.1 0.1 0.1 
0.1 0.1 0.1 0.1 0.1 0.1 0.1 0.1 0.1 
0.1 0.1 0.1 0.1 0.1 0.1 0.1 0.1 0.1 
0.1 0.1 0.1 0.1 0.1 0.1 0.1 0.1 0.1 
0.1 0.1 0.1 0.1 0.1 0.1 0.1 0.1 0.1 
0.1 0.1 0.1 0.1 0.1 0.1 0.1 0.1 0.1 
0.1 0.1 0.1 0.1 0.1 0.1 0.1 0.1 0.1 
0.1 0.1 0.1 0.1 0.1 0.1 0.1 0.1 0.1 
0.1 0.1 0.1 0.1 0.1 0.1 0.1 0.1 0.1 
0.1 0.1 0.1 0.1 0.1 0.1 0.1 0.1 0.1 
0.1 0.1 0.1 0.1 0.1 0.1 0.1 0.1 0.1 
0.1 0.1 0.1 0.1 0.1 0.1 0.1 0.1 0.1 
0.1 0.1 0.1 0.1 0.1 0.1 0.1 0.1 0.1 
0.1 0.1 0.1 0.1 0.1 0.1 0.1 0.1 0.1 
0.1 0.1 0.1 0.1 0.1 0.1 0.1 0.1 0.1 
0.1 0.1 0.1 0.1 0.1 0.1 0.1 0.1 0.1 
0.1 0.1 0.1 0.1 0.1 0.1 0.1 0.1 0.1 
0.1 0.1 0.1 0.1 0.1 0.1 0.1 0.1 0.1 
0.1 0.1 0.1 0.1 0.1 0.1 0.1 0.1 0.1 
0.1 0.1 0.1 0.1 0.1 0.1 0.1 0.1 0.1 
0.1 0.1 0.1 0.1 0.1 0.1 0.1 0.1 0.1 
0.1 0.1 0.1 0.1 0.1 0.1 0.1 0.1 0.1 
0.1 0.1 0.1 0.1 0.1 0.1 0.1 0.1 0.1 
0.1 0.1 0.1 0.1 0.1 0.1 0.1 0.1 0.1 
0.1 0.1 0.1 0.1 0.1 0.1 0.1 0.1 0.1 
0.1 0.1 0.1 0.1 0.1 0.1 0.1 0.1 0.1 
0.1 0.1 0.1 0.1 0.1 0.1 0.1 0.1 0.1 
0.1 0.1 0.1 0.1 0.1 0.1 0.1 0.1 0.1 
0.1 0.1 0.1 0.1 0.1 0.1 0.1 0.1 0.1 
0.1 0.1 0.1 0.1 0.1 0.1 0.1 0.1 0.1 
0.1 0.1 0.1 0.1 0.1 0.1 0.1 0.1 0.1 
0.1 0.1 0.1 0.1 0.1 0.1 0.1 0.1 0.1 
0.1 0.1 0.1 0.1 0.1 0.1 0.1 0.1 0.1 
0.1 0.1 0.1 0.1 0.1 0.1 0.1 0.1 0.1 
0.1 0.1 0.1 0.1 0.1 0.1 0.1 0.1 0.1 
0.1 0.1 0.1 0.1 0.1 0.1 0.1 0.1 0.1 
0.1 0.1 0.1 0.1 0.1 0.1 0.1 0.1 0.1 
0.1 0.1 0.1 0.1 0.1 0.1 0.1 0.1 0.1 
0.1 0.1 0.1 0.1 0.1 0.1 0.1 0.1 0.1 
0.1 0.1 0.1 0.1 0.1 0.1 0.1 0.1 0.1 
0.1 0.1 0.1 0.1 0.1 0.1 0.1 0.1 0.1 
0.1 0.1 0.1 0.1 0.1 0.1 0.1 0.1 0.1 
0.1 0.1 0.1 0.1 0.1 0.1 0.1 0.1 0.1 
0.1 0.1 0.1 0.1 0.1 0.1 0.1 0.1 0.1 
0.1 0.1 0.1 0.1 0.1 0.1 0.1 0.1 0.1 
0.1 0.1 0.1 0.1 0.1 0.1 0.1 0.1 0.1 
0.1 0.1 0.1 0.1 0.1 0.1 0.1 0.1 0.1 
0.1 0.1 0.1 0.1 0.1 0.1 0.1 0.1 0.1 
0.1 0.1 0.1 0.1 0.1 0.1 0.1 0.1 0.1 
0.1 0.1 0.1 0.1 0.1 0.1 0.1 0.1 0.1 
0.1 0.1 0.1 0.1 0.1 0.1 0.1 0.1 0.1 
0.1 0.1 0.1 0.1 0.1 0.1 0.1 0.1 0.1 
0.1 0.1 0.1 0.1 0.1 0.1 0.1 0.1 0.1 
0.1 0.1 0.1 0.1 0.1 0.1 0.1 0.1 0.1 
0.1 0.1 0.1 0.1 0.1 0.1 0.1 0.1 0.1 
0.1 0.1 0.1 0.1 0.1 0.1 0.1 0.1 0.1 
0.1 0.1 0.1 0.1 0.1 0.1 0.1 0.1 0.1 
0.1 0.1 0.1 0.1 0.1 0.1 0.1 0.1 0.1 
0.1 0.1 0.1 0.1 0.1 0.1 0.1 0.1 0.1 
0.1 0.1 0.1 0.1 0.1 0.1 0.1 0.1 0.1 
0.1 0.1 0.1 0.1 0.1 0.1 0.1 0.1 0.1 
0.1 0.1 0.1 0.1 0.1 0.1 0.1 0.1 0.1 
0.1 0.1 0.1 0.1 0.1 0.1 0.1 0.1 0.1 
0.1 0.1 0.1 0.1 0.1 0.1 0.1 0.1 0.1 
0.1 0.1 0.1 0.1 0.1 0.1 0.1 0.1 0.1 
0.1 0.1 0.1 0.1 0.1 0.1 0.1 0.1 0.1 
0.1 0.1 0.1 0.1 0.1 0.1 0.1 0.1 0.1 
0.1 0.1 0.1 0.1 0.1 0.1 0.1 0.1 0.1 
0.1 0.1 0.1 0.1 0.1 0.1 0.1 0.1 0.1 
0.1 0.1 0.1 0.1 0.1 0.1 0.1 0.1 0.1 
0.1 0.1 0.1 0.1 0.1 0.1 0.1 0.1 0.1 
0.1 0.1 0.1 0.1 0.1 0.1 0.1 0.1 0.1 
0.1 0.1 0.1 0.1 0.1 0.1 0.1 0.1 0.1 
0.1 0.1 0.1 0.1 0.1 0.1 0.1 0.1 0.1 
0.1 0.1 0.1 0.1 0.1 0.1 0.1 0.1 0.1 
0.1 0.1 0.1 0.1 0.1 0.1 0.1 0.1 0.1 
0.1 0.1 0.1 0.1 0.1 0.1 0.1 0.1 0.1 
0.1 0.1 0.1 0.1 0.1 0.1 0.1 0.1 0.1 
0.1 0.1 0.1 0.1 0.1 0.1 0.1 0.1 0.1 
0.1 0.1 0.1 0.1 0.1 0.1 0.1 0.1 0.1 
0.1 0.1 0.1 0.1 0.1 0.1 0.1 0.1 0.1 
0.1 0.1 0.1 0.1 0.1 0.1 0.1 0.1 0.1 
0.1 0.1 0.1 0.1 0.1 0.1 0.1 0.1 0.1 
0.1 0.1 0.1 0.1 0.1 0.1 0.1 0.1 0.1 
0.1 0.1 0.1 0.1 0.1 0.1 0.1 0.1 0.1 
0.1 0.1 0.1 0.1 0.1 0.1 0.1 0.1 0.1 
0.1 0.1 0.1 0.1 0.1 0.1 0.1 0.1 0.1 
0.1 0.1 0.1 0.1 0.1 0.1 0.1 0.1 0.1 
0.1 0.1 0.1 0.1 0.1 0.1 0.1 0.1 0.1 
0.1 0.1 0.1 0.1 0.1 0.1 0.1 0.1 0.1 
0.1 0.1 0.1 0.1 0.1 0.1 0.1 0.1 0.1 
0.1 0.1 0.1 0.1 0.1 0.1 0.1 0.1 0.1 
0.1 0.1 0.1 0.1 0.1 0.1 0.1 0.1 0.1 
0.1 0.1 0.1 0.1 0.1 0.1 0.1 0.1 0.1 
0.1 0.1 0.1 0.1 0.1 0.1 0.1 0.1 0.1 
0.1 0.1 0.1 0.1 0.1 0.1 0.1 0.1 0.1 
0.1 0.1 0.1 0.1 0.1 0.1 0.1 0.1 0.1 
0.1 0.1 0.1 0.1 0.1 0.1 0.1 0.1 0.1 
0.1 0.1 0.1 0.1 0.1 0.1 0.1 0.1 0.1 
0.1 0.1 0.1 0.1 0.1 0.1 0.1 0.1 0.1 
0.1 0.1 0.1 0.1 0.1 0.1 0.1 0.1 0.1 
0.1 0.1 0.1 0.1 0.1 0.1 0.1 0.1 0.1 
0.1 0.1 0.1 0.1 0.1 0.1 0.1 0.1 0.1 
0.1 0.1 0.1 0.1 0.1 0.1 0.1 0.1 0.1 
0.1 0.1 0.1 0.1 0.1 0.1 0.1 0.1 0.1 
0.1 0.1 0.1 0.1 0.1 0.1 0.1 0.1 0.1 
0.1 0.1 0.1 0.1 0.1 0.1 0.1 0.1 0.1 
0.1 0.1 0.1 0.1 0.1 0.1 0.1 0.1 0.1 
0.1 0.1 0.1 0.1 0.1 0.1 0.1 0.1 0.1 
0.1 0.1 0.1 0.1 0.1 
m 1 1049 double
76.33 91.315 65.975 56.755 61.625 84.655 62.64 84.935 94.14 
99.255 75.77 65.745 83.88 94.295 95.485 90.92 56.49 97.585 
93.885 53.285 91.99 92.105 53.87 63.205 91.415 89.775 90.795 
69.85 95.63 88.61 76.76 92.83 58.915 68.31 62.455 53.195 
73.95 51.995 65.415 71.55 60.985 75.995 59.26 84.075 54.265 
56.77 82.91 79.28 69.45 59.805 86.865 72.105 74.595 96.915 
63.77 56.63 90.21 71.295 81.145 68.92 91.575 71.85 71.62 
92.685 75.99 54.43 82.065 67.63 88.325 91.91 97.965 80.455 
94.9 63.885 86.405 84.31 95.85 99.78 59.365 84.98 51.68 
85.42 81.635 61.525 54.625 56.565 91.01 66.01 82.525 58.645 
84.575 54.23 94.72 67.53 52.725 80.62 79.285 69.475 97.91 
70.215 77.17 66.835 51.82 94.07 85.89 86.38 68.75 55.435 
84.04 63.255 67.92 63.77 78.94 77.015 66.84 75.3 99.66 
98.38 61.995 64.145 50.06 81.13 88.965 88.695 91.95 58.41 
92.93 76.7 52.85 57.17 53.975 87.695 90.47 83.005 51.89 
64.51 50.485 87.335 53.78 52.46 83.26 86.505 66.585 71.43 
98.445 97.205 69.325 51.4 92.2 90.155 92.22 83.095 73.645 
91.69 90.485 77.165 94.935 78.855 91.675 72.405 90.585 89.44 
89.28 53.375 72.835 94.635 53.545 76.53 97.485 61.765 72.93 
84.825 93.12 64.355 57.64 73.415 81.095 78.66 50.095 94.145 
97.515 91.35 83.575 90.745 66.84 98.54 81.7 61.225 55.5 
63.09 68.09 76.93 78.645 64.23 67.295 88.98 53.615 87.44 
61.895 67.255 64.605 67.775 88.82 95.075 52.46 91.14 99.205 
63.675 75.965 58.805 83.245 61.75 86.39 64.86 50.62 88.82 
85.17 57.5 84.935 74.57 68.715 91.825 82.455 61.135 79.28 
59.68 57.16 62.755 99.295 57.105 66.025 97.835 53.065 62.52 
88.105 51.54 98.36 80.435 82.95 60.105 83.92 64.21 97.64 
54.34 65.72 78.975 89.94 53.715 61.46 80.945 88.205 83.1 
61.37 81.775 97.19 56.94 56.165 65.37 90.125 65.86 80.635 
77.555 77.105 69.135 50.185 82.185 66.375 57.37 96.14 77.035 
59.965 59.3 90.71 79.42 77.895 50.495 52.64 75.945 52.49 
94.36 99.79 99.54 76.19 51.445 89.855 84.745 76.835 98.05 
97.395 72.06 94.845 50.45 51.79 51.35 90.785 67.465 68.405 
62.775 54.64 59.25 80.145 94.29 80.605 71.975 56.185 86.275 
76.365 73.845 58.88 94.25 54.55 75 64.785 90.18 81.24 
66.515 88.765 94.04 76.715 64.5 82.145 81.675 65.885 67.56 
56.56 91.775 96.07 59.43 67.085 91.815 59.195 77.845 53.495 
81.82 81.085 54.985 79.025 83.255 54.44 72.14 80.715 91.175 
79.09 68.965 90.02 88.66 79.97 51.895 55.775 57.705 77.41 
58.24 98.77 64.45 66.665 60.665 50.245 54.82 78.145 91.425 
52.52 93.135 92.965 54.285 95.4 98.155 93.97 82.155 99.235 
63.11 65.865 72.85 65.345 97.645 55.055 79.64 62.02 93.88 
62.95 91.045 92.905 94.095 96.68 73.465 71.125 58.73 72.5 
51.84 87.835 97.645 71.695 80.635 60.67 58.46 61.075 95.255 
61.45 94.73 84.85 63.235 78.955 71.46 83.41 87.31 96.95 
61.75 93.03 73.065 78.815 72.69 72.215 53.565 80.95 61.49 
52.62 69.49 85.085 55.865 67.685 81.245 90.23 68.94 98.985 
84.95 62.675 75.755 80.795 92.69 88.235 77.89 74.97 67.645 
74.58 82.76 75.575 80.785 92.87 75.285 57.605 62.195 61.965 
83.105 88.58 50.04 75.64 64.52 84.2 53.44 74.09 96.495 
83.2 76.925 80.21 56.11 93.285 66.515 65.165 76.815 62.485 
51.265 82.015 72.5 60.01 52.14 53.405 75.5 71.73 63.63 
86.93 81.56 75.105 57.455 96.155 59.735 64.755 96.67 86.4 
60.355 99.585 84.98 86.845 66.62 89.585 88.36 69.25 59.86 
96.46 88.125 86.67 55.76 74.46 88.43 61.81 69.98 95.625 
95.94 95.785 62.3 77.18 79.875 68.645 50.135 69.605 67.07 
54.355 93.45 52.3 81.52 90.135 74.925 50.14 90.25 94.51 
83.74 87.78 72.76 55.215 55.195 88.485 93.495 73.97 71.16 
69.13 52.845 67.705 61.305 50.295 90.115 95.585 50.405 51.8 
80.21 83.805 88.815 65.95 81.545 94.98 69.63 77.125 72.62 
53.45 71.17 73.385 81.835 58.13 91.025 65.84 98.07 51.79 
80.285 86.42 84.28 72.83 52.085 52.7 88.85 86.025 51.185 
79.245 53.03 61.3 65.295 76.085 92.59 93.81 67.13 95.86 
74.725 53.915 71.445 82.53 67.14 84.365 52.415 54.365 88.185 
92.29 96.84 72.355 83.035 52.39 63.785 96.57 65.345 78.68 
92.885 83.05 77.495 92.45 97.35 88.715 60.915 78.15 56.98 
50.42 86.345 70.405 59.44 98.86 83.625 77.95 87.525 78.22 
96.12 69.75 89.09 87.8 83.29 76.055 50.635 69.6 76.18 
62.11 76.84 75.525 52.815 50.245 62.835 56.22 99.67 66.455 
59.025 93.555 86.875 67.945 68.84 68.07 94.965 94.775 64.025 
74.59 84.41 74.11 84.91 82.145 83.55 70.09 96.455 83.585 
57.87 70.15 81.64 54.625 65.465 69.29 75.275 84.815 86.085 
85.45 84.18 56.965 74.52 90.65 63.305 92.28 92.855 63.02 
98.165 65.365 73.945 98.425 84.255 82.515 99.025 96.25 97.425 
89.34 60.975 95.03 76.625 87.58 73.195 64.745 67.58 55.405 
78.91 55.6 54.835 88.385 51.13 83.815 52.98 54.325 69.905 
95.18 87.8 67.59 81.71 96.055 88.85 89.775 75.98 91.35 
86.605 61.895 62.66 74.92 72.135 71.17 60.2 70.86 50.36 
55.315 86.99 86.415 79.15 51.735 68.57 60.15 52.865 84.75 
70.235 87.61 75.41 84.62 80.295 97.175 96.02 56.16 64.77 
52.215 71.39 95.795 78.2 59.49 77.43 99.24 98.415 51.31 
55.205 96.31 90.835 91.62 78.985 69.795 81.36 83.64 64.03 
95.61 58.615 96.825 79.105 87.285 86.675 70.77 55.855 63.735 
58.88 51.345 76.09 58.515 86.805 99.665 54.535 93.505 73.265 
94.88 57.65 56.345 70.49 68.7 64.31 75.27 70.15 52.685 
75.615 98.93 64.77 90.695 88.345 79.92 81.14 55.635 95.75 
58.525 52.715 57.43 50.63 82.965 51.265 65.01 80.695 61.155 
77.02 58.98 63.49 56.54 93.6 76.67 85.42 67.185 91.705 
90.41 92.71 97.535 50.985 92.32 69.7 99.52 78.335 99.055 
79.695 90.895 65.37 89.07 73.565 91.885 95.105 96.09 61.69 
72.9 69.85 54.955 81.88 94.49 55.26 63.575 82.225 68.11 
81.74 94.02 93.055 96.775 88.605 56.275 74.095 76.605 72.995 
73.81 78.55 64.595 78.875 85.44 76.895 63.425 74.06 99.31 
74.885 62.53 75.855 57.795 90.945 70.05 94.77 86.715 96.495 
77.84 89.14 78.73 87.935 88.565 91.03 96.505 86.86 51.47 
55.085 83.66 51.175 51.73 57.68 67.415 70.88 96.035 99.52 
92.06 54.76 65.675 88.025 66.555 77.11 69.05 71.7 60.045 
76.05 61.68 58.295 81.71 69.715 62.865 75.765 55.685 78.455 
99.555 74.285 98.72 67.495 98.795 56.8 70.335 98.09 51.685 
55.68 88.215 56.525 59.005 74.39 68.65 78.305 97.06 84.435 
60.86 66.74 69.645 87.225 92.09 95.535 98.78 95.895 88.42 
79.68 66.88 60.45 77.71 64.63 82.33 55.475 56.7 75.42 
64.795 98.34 85.95 64.065 68.865 85.995 94.495 64.98 50.815 
89.905 93.3 74.65 94.665 79.47 99.01 69.405 50.355 87.34 
54.865 85.655 60.18 67.26 59.495 77.75 96.895 64.62 78.12 
63 88.185 60.31 66.29 67.08 67.325 83.54 91.41 93.13 
97.22 93.68 96.6 92.61 70.11 91.12 95.08 65.545 82.695 
75.265 90.545 66.89 75.405 50 79.945 56.69 97.13 95.57 
90.335 83.935 75.735 61.155 82.66 76.115 56.405 69.375 50.895 
60.61 74.25 69.065 82.95 61.27 55.655 76.75 57.47 95.905 
89.285 80.405 73.015 78.6 62.165 89.91 50.905 87.435 97.075 
77.02 93.61 94.125 96.48 51.485 95.67 50.16 52.755 84.46 
52.075 65.905 85.285 98.54 92.53 52.975 87.415 99.995 59.81 
61.485 75.055 78.88 56.545 50.77 94.885 62.935 99.66 66.91 
75.105 71.33 68.41 88.425 67.815 96.055 94.3 54.65 72.915 
79.95 71.425 95.43 57.38 86.57 70.58 79.1 59.46 87.45 
87.625 77.64 94.195 87.625 65.29 
p0 3 1049 double
0 -10 0 0 -10 0 0 -10 0 
0 -10 0 0 -10 0 0 -10 0 
0 -10 0 0 -10 0 0 -10 0 
0 -10 0 0 -10 0 0 -10 0 
0 -10 0 0 -10 0 0 -10 0 
0 -10 0 0 -10 0 0 -10 0 
0 -10 0 0 -10 0 0 -10 0 
0 -10 0 0 -10 0 0 -10 0 
0 -10 0 0 -10 0 0 -10 0 
0 -10 0 0 -10 0 0 -10 0 
0 -10 0 0 -10 0 0 -10 0 
0 -10 0 0 -10 0 0 -10 0 
0 -10 0 0 -10 0 0 -10 0 
0 -10 0 0 -10 0 0 -10 0 
0 -10 0 0 -10 0 0 -10 0 
0 -10 0 0 -10 0 0 -10 0 
0 -10 0 0 0 0 0 0 0 
0 0 0 0 0 0 0 0 0 
0 0 0 0 0 0 0 0 0 
0 0 0 0 0 0 0 0 0 
0 0 0 0 0 0 0 0 0 
0 0 0 0 0 0 0 0 0 
0 0 0 0 0 0 -12 0 0 
-12 0 0 -12 0 0 0 0 0 
0 0 0 0 0 0 0 0 0 
0 0 0 0 0 0 0 0 0 
0 0 0 0 0 0 0 0 0 
0 0 0 0 0 0 0 0 0 
0 0 0 0 0 0 0 0 0 
0 0 0 0 0 0 0 0 0 
0 0 0 0 0 0 0 0 0 
0 0 0 0 0 0 0 0 0 
0 0 0 0 0 0 0 0 0 
0 0 0 0 0 0 0 0 0 
0 0 0 0 0 0 0 0 0 
0 0 0 0 0 0 0 0 0 
0 0 0 0 0 0 0 0 0 
0 0 0 0 0 0 0 0 0 
0 0 0 0 0 0 0 0 0 
0 0 0 0 0 0 0 0 0 
0 0 0 0 0 0 0 0 0 
0 0 0 0 0 0 0 0 0 
0 0 0 0 0 0 0 0 0 
0 0 0 0 0 0 0 0 0 
0 0 0 0 0 0 0 0 0 
0 0 0 0 0 0 0 0 0 
0 0 0 0 0 0 0 0 0 
0 0 0 0 0 0 0 0 0 
0 0 0 0 0 0 0 0 0 
0 0 0 0 0 0 0 0 0 
0 0 0 0 0 0 0 0 0 
0 0 0 0 0 0 0 0 0 
0 0 0 0 0 0 0 0 0 
0 0 0 0 0 0 0 0 0 
0 0 0 0 0 0 0 0 0 
0 0 0 0 0 0 0 0 0 
0 0 0 0 0 0 0 0 0 
0 0 0 0 0 0 0 0 0 
0 0 0 0 0 0 0 0 0 
0 0 0 0 0 0 0 0 0 
0 0 0 0 0 0 0 0 0 
0 0 0 0 0 0 0 0 0 
0 0 0 0 0 0 0 0 0 
0 0 0 0 0 0 0 0 0 
0 0 0 0 0 0 0 0 0 
0 0 0 0 0 0 0 0 0 
0 0 0 0 0 0 0 0 0 
0 0 0 0 0 0 12 0 0 
0 0 0 0 0 0 0 0 0 
12 0 0 0 0 0 12 0 0 
0 0 0 0 0 0 12 0 0 
12 0 0 0 0 0 0 0 0 
0 0 0 0 0 0 0 0 0 
0 0 0 0 0 0 0 0 0 
0 0 0 0 0 0 0 0 0 
0 0 0 0 0 0 0 0 0 
0 0 0 0 0 0 0 0 0 
0 0 0 0 0 0 0 0 0 
0 0 0 -12 0 0 -12 0 0 
-12 0 0 -12 0 0 0 0 0 
0 0 0 0 0 0 0 0 0 
0 0 0 0 0 0 0 0 0 
0 0 0 0 0 0 0 0 0 
0 0 0 0 0 0 0 0 0 
0 0 0 0 0 0 0 0 0 
0 0 0 0 0 0 0 0 0 
0 0 0 12 0 0 12 0 0 
12 0 0 12 0 0 12 0 0 
12 0 0 0 0 0 0 0 0 
0 0 0 0 0 0 0 0 0 
0 0 0 0 0 0 0 0 0 
0 0 0 0 0 0 -12 0 0 
-12 0 0 0 0 0 0 0 0 
0 0 0 0 0 0 0 0 0 
0 0 0 0 0 0 0 0 0 
0 0 0 0 0 0 0 0 0 
0 0 0 0 0 0 0 0 0 
0 0 0 0 0 0 0 0 0 
0 0 0 0 0 0 0 0 0 
12 0 0 12 0 0 12 0 0 
0 0 0 0 0 0 0 0 0 
0 0 0 0 0 0 0 0 0 
0 0 0 0 0 0 0 0 0 
0 0 0 -12 0 0 -12 0 0 
-12 0 0 0 0 0 0 0 0 
0 0 0 0 0 0 0 0 0 
0 0 0 0 0 0 0 0 0 
0 0 0 0 0 0 0 0 0 
0 0 0 0 0 0 0 0 0 
0 0 0 0 0 0 0 0 0 
0 0 0 0 0 0 0 0 0 
12 0 0 12 0 0 12 0 0 
12 0 0 12 0 0 12 0 0 
0 0 0 0 0 0 0 0 0 
0 0 0 0 0 0 0 0 0 
0 0 0 0 0 0 0 0 0 
0 0 0 -12 0 0 -12 0 0 
0 0 0 0 0 0 0 0 0 
0 0 0 0 0 0 0 0 0 
0 0 0 0 0 0 0 0 0 
0 0 0 0 0 0 0 0 0 
0 0 0 0 0 0 0 0 0 
0 0 0 0 0 0 0 0 0 
0 0 0 0 0 0 12 0 0 
12 0 0 0 0 0 0 0 0 
0 0 0 0 0 0 0 0 0 
0 0 0 0 0 0 0 0 0 
0 0 0 0 0 0 -12 0 0 
-12 0 0 0 0 0 0 0 0 
0 0 0 0 0 0 0 0 0 
0 0 0 0 0 0 0 0 0 
0 0 0 0 0 0 0 0 0 
0 0 0 0 0 0 0 0 0 
0 0 0 0 0 0 0 0 0 
0 0 0 0 0 0 0 0 0 
12 0 0 0 0 0 0 0 0 
0 0 0 0 0 0 0 0 0 
0 0 0 0 0 0 0 0 0 
0 0 0 0 0 0 -12 0 0 
-12 0 0 -12 0 0 0 0 0 
0 0 0 0 0 0 0 0 0 
0 0 0 0 0 0 0 0 0 
0 0 0 0 0 0 0 0 0 
0 0 0 0 0 0 0 0 0 
0 0 0 0 0 0 0 0 0 
0 0 0 0 0 0 0 0 0 
0 0 0 12 0 0 12 0 0 
12 0 0 12 0 0 12 0 0 
0 0 0 0 0 0 0 0 0 
0 0 0 0 0 0 0 0 0 
0 0 0 0 0 0 0 0 0 
0 0 0 -12 0 0 0 0 0 
0 0 0 0 0 0 0 0 0 
0 0 0 0 0 0 0 0 0 
0 0 0 0 0 0 0 0 0 
0 0 0 0 0 0 0 0 0 
0 0 0 0 0 0 0 0 0 
0 0 0 0 0 0 0 0 0 
0 0 0 12 0 0 12 0 0 
12 0 0 0 0 0 0 0 0 
0 0 0 0 0 0 0 0 0 
0 0 0 0 0 0 0 0 0 
0 0 0 0 0 0 -12 0 0 
0 0 0 0 0 0 0 0 0 
0 0 0 0 0 0 0 0 0 
0 0 0 0 0 0 0 0 0 
0 0 0 0 0 0 0 0 0 
0 0 0 0 0 0 0 0 0 
-9 9 0 0 0 0 0 0 0 
0 0 0 0 0 0 -9 9 0 
0 0 0 0 0 0 0 0 0 
0 0 0 0 0 0 -9 9 0 
0 0 0 0 0 0 0 0 0 
0 0 0 0 0 0 0 0 0 
0 0 0 0 0 0 0 0 0 
0 0 0 0 0 0 0 0 0 
0 0 0 0 0 0 0 0 0 
0 0 0 0 0 0 0 0 0 
0 0 0 0 0 0 0 0 0 
0 0 0 0 0 0 0 0 0 
0 0 0 0 0 0 0 0 0 
0 0 0 0 0 0 0 0 0 
0 0 0 0 0 0 0 0 0 
0 0 0 0 0 0 0 0 0 
0 0 0 0 0 0 0 0 0 
0 0 0 0 0 0 0 0 0 
0 0 0 0 0 0 0 0 0 
0 0 0 0 0 0 0 0 0 
9 9 0 0 0 0 0 0 0 
0 0 0 0 0 0 0 0 0 
9 9 0 9 9 0 0 0 0 
0 0 0 0 0 0 0 0 0 
0 0 0 9 9 0 0 0 0 
0 0 0 0 0 0 0 0 0 
0 0 0 0 0 0 0 0 0 
12 0 0 12 0 0 0 0 0 
0 0 0 0 0 0 0 0 0 
0 0 0 0 0 0 0 0 0 
0 0 0 0 0 0 0 0 0 
12 0 0 0 0 0 0 0 0 
0 0 0 0 0 0 0 0 0 
0 0 0 0 0 0 0 0 0 
0 0 0 0 0 0 0 0 0 
0 0 0 0 0 0 0 0 0 
0 0 0 0 0 0 0 0 0 
0 0 0 0 0 0 0 0 0 
0 0 0 0 0 0 0 0 0 
0 0 0 0 0 0 0 0 0 
0 0 0 0 0 0 0 0 0 
0 0 0 0 0 0 0 0 0 
0 0 0 0 0 0 0 0 0 
0 0 0 0 0 0 0 0 0 
0 0 0 0 0 0 0 0 0 
0 0 0 0 0 0 0 0 0 
0 0 0 0 0 0 0 0 0 
0 0 0 0 0 0 0 0 0 
0 0 0 0 0 0 0 0 0 
0 0 0 0 0 0 0 0 0 
0 0 0 0 0 0 0 0 0 
0 0 0 0 0 0 0 0 0 
0 0 0 0 0 0 0 0 0 
0 0 0 0 0 0 0 0 0 
0 0 0 0 0 0 0 0 0 
0 0 0 0 0 0 0 0 0 
0 0 0 0 0 0 0 0 0 
0 0 0 0 0 0 0 0 0 
0 0 0 0 0 0 0 0 0 
0 0 0 0 0 0 0 0 0 
0 0 0 0 0 0 0 0 0 
0 0 0 0 0 0 0 0 0 
0 0 0 0 0 0 0 0 0 
0 0 0 0 0 0 0 0 0 
0 0 0 0 0 0 0 0 0 
0 0 0 0 0 0 0 0 0 
0 0 0 0 0 0 0 0 0 
0 0 0 0 0 0 0 0 0 
0 0 0 0 0 0 0 0 0 
0 0 0 0 0 0 0 0 0 
0 0 0 0 0 0 0 0 0 
0 0 0 0 0 0 0 0 0 
0 0 0 0 0 0 0 0 0 
0 0 0 0 0 0 0 0 0 
0 0 0 0 0 0 0 0 0 
0 0 0 0 0 0 0 0 0 
0 0 0 0 0 0 0 0 0 
0 0 0 0 0 0 0 0 0 
0 0 0 0 0 0 0 0 0 
0 0 0 0 0 0 0 0 0 
0 0 0 0 0 0 0 0 0 
0 0 0 0 0 0 0 0 0 
0 0 0 13.5 10 0 0 0 0 
0 0 0 0 0 0 0 0 0 
13.5 10 0 0 0 0 13.5 10 0 
0 0 0 0 0 0 0 0 0 
0 0 0 0 0 0 0 0 0 
0 0 0 0 0 0 0 0 0 
0 0 0 0 0 0 0 0 0 
0 0 0 0 0 0 0 0 0 
0 0 0 0 0 0 0 0 0 
0 0 0 0 0 0 0 0 0 
0 0 0 0 0 0 0 0 0 
0 0 0 0 0 0 0 0 0 
0 0 0 0 0 0 0 0 0 
0 0 0 13.5 10 0 13.5 10 0 
0 0 0 0 0 0 0 0 0 
0 0 0 0 0 0 0 0 0 
0 0 0 0 0 0 0 0 0 
0 0 0 0 0 0 0 0 0 
0 0 0 0 0 0 0 0 0 
0 0 0 0 0 0 0 0 0 
0 0 0 0 0 0 0 0 0 
0 0 0 0 0 0 0 0 0 
0 0 0 13.5 10 0 0 0 0 
0 0 0 0 0 0 0 0 0 
0 0 0 0 0 0 0 0 0 
0 0 0 0 0 0 0 0 0 
0 0 0 0 0 0 0 0 0 
0 0 0 0 0 0 0 0 0 
0 0 0 0 0 0 0 0 0 
0 0 0 0 0 0 0 0 0 
0 0 0 0 0 0 0 0 0 
13.5 10 0 0 0 0 0 0 0 
0 0 0 0 0 0 0 0 0 
0 0 0 0 0 0 0 0 0 
0 0 0 0 0 0 0 0 0 
0 0 0 0 0 0 0 0 0 
0 0 0 0 0 0 0 0 0 
0 0 0 0 0 0 0 0 0 
9 14.5 0 9 14.5 0 0 0 0 
0 0 0 0 0 0 0 0 0 
0 0 0 0 0 0 0 0 0 
0 0 0 0 0 0 0 0 0 
0 0 0 0 0 0 0 0 0 
0 0 0 0 0 0 0 0 0 
0 0 0 0 0 0 0 0 0 
0 0 0 0 0 0 0 0 0 
0 0 0 0 0 0 0 0 0 
0 0 0 0 0 0 0 0 0 
0 0 0 0 0 0 0 0 0 
0 0 0 0 0 0 0 0 0 
0 0 0 0 0 0 0 0 0 
0 0 0 0 0 0 0 0 0 
0 0 0 0 0 0 0 0 0 
0 0 0 0 0 0 0 0 0 
0 0 0 0 0 0 0 0 0 
0 0 0 0 0 0 0 0 0 
0 0 0 0 0 0 0 0 0 
0 0 0 0 0 0 0 0 0 
0 0 0 0 0 0 0 0 0 
0 0 0 0 0 0 0 0 0 
0 0 0 0 0 0 0 0 0 
0 0 0 0 0 0 0 0 0 
0 0 0 0 0 0 0 0 0 
0 0 0 0 0 0 0 0 0 
0 0 0 0 0 0 0 0 0 
0 0 0 0 0 0 0 0 0 
0 0 0 0 0 0 0 0 0 
0 0 0 0 0 0 0 0 0 
0 0 0 0 0 0 0 0 0 
0 0 0 0 0 0 0 0 0 
0 0 0 0 0 0 0 0 0 
0 0 0 0 0 0 0 0 0 
0 0 0 0 0 0 0 0 0 
0 0 0 0 0 0 0 0 0 
0 0 0 0 0 0 0 0 0 
0 0 0 0 0 0 0 0 0 
0 0 0 0 0 0 0 0 0 
0 0 0 0 0 0 0 0 0 
0 0 0 0 0 0 0 0 0 
0 0 0 0 0 0 0 0 0 
0 0 0 0 0 0 0 0 0 
0 0 0 0 0 0 0 0 0 
0 0 0 0 0 0 0 0 0 
0 0 0 0 0 0 0 0 0 
0 0 0 0 0 0 0 0 0 
0 0 0 0 0 0 0 0 0 
0 0 0 0 0 0 0 0 0 
0 0 0 0 0 0 0 0 0 
0 0 0 0 0 0 0 0 0 
0 0 0 0 0 0 0 0 0 
0 0 0 0 0 0 0 0 0 
0 0 0 0 0 0 0 0 0 
0 0 0 0 0 0 0 0 0 
0 0 0 0 0 0 0 0 0 
0 0 0 0 0 0 0 0 0 
0 0 0 0 0 0 0 0 0 
0 0 0 0 0 0 0 0 0 
0 0 0 0 0 0 0 0 0 
0 0 0 0 0 0 0 0 0 
0 0 0 0 0 0 
v0 1 1049 double
3.7348 3.5598 3.908 3.4418 3.5868 3.1534 3.7604 3.8026 2.7598 
3.447 2.2246 2.9072 2.2234 3.5098 3.7132 2.7868 3.4192 3.1552 
3.3932 2.087 3.5394 3.3376 2.8894 3.9438 2.959 2.5562 3.7722 
2.798 3.5338 2.9348 3.3968 3.7386 3.7956 2.7364 3.6894 2.5998 
2.9892 3.7004 3.4142 2.2178 2.105 2.6972 3.7164 3.6034 3.9802 
3.6802 3.2294 3.9752 3.1134 0 0 0 0 0 
0 0 0 0 0 0 0 0 0 
0 0 0 0 0 3.4388 2.9862 2.726 0 
0 0 0 0 0 0 0 0 0 
0 0 0 0 0 0 0 0 0 
0 0 0 0 0 0 0 0 0 
0 0 0 0 0 0 0 0 0 
0 0 0 0 0 0 0 0 0 
0 0 0 0 0 0 0 0 0 
0 0 0 0 0 0 0 0 0 
0 0 0 0 0 0 0 0 0 
0 0 0 0 0 0 0 0 0 
0 0 0 0 0 0 0 0 0 
0 0 0 0 0 0 0 0 0 
0 0 0 0 0 0 0 0 0 
0 0 0 0 0 0 0 0 0 
0 0 0 0 0 0 0 0 0 
0 0 0 0 0 3.358 0 0 0 
3.0734 0 2.8228 0 0 2.5702 2.6856 0 0 
0 0 0 0 0 0 0 0 0 
0 0 0 0 0 0 0 0 0 
0 3.4416 3.938 3.2554 3.5126 0 0 0 0 
0 0 0 0 0 0 0 0 0 
0 0 0 0 0 0 0 3.2458 2.227 
2.9518 3.4702 2.5952 2.3004 0 0 0 0 0 
0 0 0 0 0 2.0272 3.3812 0 0 
0 0 0 0 0 0 0 0 0 
0 0 0 0 0 0 0 0 0 
3.8484 3.991 2.325 0 0 0 0 0 0 
0 0 0 0 2.0254 2.5352 3.3948 0 0 
0 0 0 0 0 0 0 0 0 
0 0 0 0 0 0 0 0 0 
2.192 3.8554 2.8338 3.219 2.5666 3.2878 0 0 0 
0 0 0 0 0 0 0 2.8832 2.2866 
0 0 0 0 0 0 0 0 0 
0 0 0 0 0 0 0 0 0 
0 0 3.5612 3.4072 0 0 0 0 0 
0 0 0 0 0 3.236 2.7916 0 0 
0 0 0 0 0 0 0 0 0 
0 0 0 0 0 0 0 0 0 
3.053 0 0 0 0 0 0 0 0 
0 0 2.9892 2.5898 2.9256 0 0 0 0 
0 0 0 0 0 0 0 0 0 
0 0 0 0 0 0 0 2.4594 3.3678 
3.1832 2.0104 2.9022 0 0 0 0 0 0 
0 0 0 0 3.4754 0 0 0 0 
0 0 0 0 0 0 0 0 0 
0 0 0 0 0 0 0 2.264 2.1178 
3.8268 0 0 0 0 0 0 0 0 
0 0 3.18 0 0 0 0 0 0 
0 0 0 0 0 0 0 0 0 
2.1056 0 0 0 0 2.5992 0 0 0 
0 0 2.6016 0 0 0 0 0 0 
0 0 0 0 0 0 0 0 0 
0 0 0 0 0 0 0 0 0 
0 0 0 0 0 0 0 0 0 
0 0 0 0 0 0 0 0 0 
0 0 0 0 0 0 2.6138 0 0 
0 0 0 2.0302 2.79 0 0 0 0 
0 2.0424 0 0 0 0 0 0 0 
3.514 3.852 0 0 0 0 0 0 0 
0 0 0 2.6632 0 0 0 0 0 
0 0 0 0 0 0 0 0 0 
0 0 0 0 0 0 0 0 0 
0 0 0 0 0 0 0 0 0 
0 0 0 0 0 0 0 0 0 
0 0 0 0 0 0 0 0 0 
0 0 0 0 0 0 0 0 0 
0 0 0 0 0 0 0 0 0 
0 0 0 0 0 0 0 0 0 
0 0 0 0 0 0 0 0 0 
0 0 0 0 0 0 0 0 0 
0 0 0 0 0 0 0 0 0 
0 0 0 0 0 0 0 0 0 
0 0 0 0 0 0 0 0 0 
0 0 0 0 0 0 0 0 0 
0 0 0 0 0 0 0 0 0 
0 0 0 0 0 0 0 0 0 
0 0 0 0 3.2768 0 0 0 0 
2.5972 0 2.4322 0 0 0 0 0 0 
0 0 0 0 0 0 0 0 0 
0 0 0 0 0 0 0 0 0 
0 0 0 0 0 0 0 3.075 2.7532 
0 0 0 0 0 0 0 0 0 
0 0 0 0 0 0 0 0 0 
0 0 0 0 0 0 0 2.2322 0 
0 0 0 0 0 0 0 0 0 
0 0 0 0 0 0 0 0 0 
0 0 0 0 0 0 2.1262 0 0 
0 0 0 0 0 0 0 0 0 
0 0 0 0 0 0 0 0 0 
2.1126 2.0074 0 0 0 0 0 0 0 
0 0 0 0 0 0 0 0 0 
0 0 0 0 0 0 0 0 0 
0 0 0 0 0 0 0 0 0 
0 0 0 0 0 0 0 0 0 
0 0 0 0 0 0 0 0 0 
0 0 0 0 0 0 0 0 0 
0 0 0 0 0 0 0 0 0 
0 0 0 0 0 0 0 0 0 
0 0 0 0 0 0 0 0 0 
0 0 0 0 0 0 0 0 0 
0 0 0 0 0 0 0 0 0 
0 0 0 0 0 0 0 0 0 
0 0 0 0 0 0 0 0 0 
0 0 0 0 0 0 0 0 0 
0 0 0 0 0 0 0 0 0 
0 0 0 0 0 0 0 0 0 
0 0 0 0 0 0 0 0 0 
0 0 0 0 0 0 0 0 0 
0 0 0 0 0 0 0 0 0 
0 0 0 0 0 
tau 1 1049 double
2 2 2 2 2 2 2 2 2 
2 2 2 2 2 2 2 2 2 
2 2 2 2 2 2 2 2 2 
2 2 2 2 2 2 2 2 2 
2 2 2 2 2 2 2 2 2 
2 2 2 2 2 2 2 2 2 
2 2 2 2 2 2 2 2 2 
2 2 2 2 2 2 2 2 2 
2 2 2 2 2 2 2 2 2 
2 2 2 2 2 2 2 2 2 
2 2 2 2 2 2 2 2 2 
2 2 2 2 2 2 2 2 2 
2 2 2 2 2 2 2 2 2 
2 2 2 2 2 2 2 2 2 
2 2 2 2 2 2 2 2 2 
2 2 2 2 2 2 2 2 2 
2 2 2 2 2 2 2 2 2 
2 2 2 2 2 2 2 2 2 
2 2 2 2 2 2 2 2 2 
2 2 2 2 2 2 2 2 2 
2 2 2 2 2 2 2 2 2 
2 2 2 2 2 2 2 2 2 
2 2 2 2 2 2 2 2 2 
2 2 2 2 2 2 2 2 2 
2 2 2 2 2 2 2 2 2 
2 2 2 2 2 2 2 2 2 
2 2 2 2 2 2 2 2 2 
2 2 2 2 2 2 2 2 2 
2 2 2 2 2 2 2 2 2 
2 2 2 2 2 2 2 2 2 
2 2 2 2 2 2 2 2 2 
2 2 2 2 2 2 2 2 2 
2 2 2 2 2 2 2 2 2 
2 2 2 2 2 2 2 2 2 
2 2 2 2 2 2 2 2 2 
2 2 2 2 2 2 2 2 2 
2 2 2 2 2 2 2 2 2 
2 2 2 2 2 2 2 2 2 
2 2 2 2 2 2 2 2 2 
2 2 2 2 2 2 2 2 2 
2 2 2 2 2 2 2 2 2 
2 2 2 2 2 2 2 2 2 
2 2 2 2 2 2 2 2 2 
2 2 2 2 2 2 2 2 2 
2 2 2 2 2 2 2 2 2 
2 2 2 2 2 2 2 2 2 
2 2 2 2 2 2 2 2 2 
2 2 2 2 2 2 2 2 2 
2 2 2 2 2 2 2 2 2 
2 2 2 2 2 2 2 2 2 
2 2 2 2 2 2 2 2 2 
2 2 2 2 2 2 2 2 2 
2 2 2 2 2 2 2 2 2 
2 2 2 2 2 2 2 2 2 
2 2 2 2 2 2 2 2 2 
2 2 2 2 2 2 2 2 2 
2 2 2 2 2 2 2 2 2 
2 2 2 2 2 2 2 2 2 
2 2 2 2 2 2 2 2 2 
2 2 2 2 2 2 2 2 2 
2 2 2 2 2 2 2 2 2 
2 2 2 2 2 2 2 2 2 
2 2 2 2 2 2 2 2 2 
2 2 2 2 2 2 2 2 2 
2 2 2 2 2 2 2 2 2 
2 2 2 2 2 2 2 2 2 
2 2 2 2 2 2 2 2 2 
2 2 2 2 2 2 2 2 2 
2 2 2 2 2 2 2 2 2 
2 2 2 2 2 2 2 2 2 
2 2 2 2 2 2 2 2 2 
2 2 2 2 2 2 2 2 2 
2 2 2 2 2 2 2 2 2 
2 2 2 2 2 2 2 2 2 
2 2 2 2 2 2 2 2 2 
2 2 2 2 2 2 2 2 2 
2 2 2 2 2 2 2 2 2 
2 2 2 2 2 2 2 2 2 
2 2 2 2 2 2 2 2 2 
2 2 2 2 2 2 2 2 2 
2 2 2 2 2 2 2 2 2 
2 2 2 2 2 2 2 2 2 
2 2 2 2 2 2 2 2 2 
2 2 2 2 2 2 2 2 2 
2 2 2 2 2 2 2 2 2 
2 2 2 2 2 2 2 2 2 
2 2 2 2 2 2 2 2 2 
2 2 2 2 2 2 2 2 2 
2 2 2 2 2 2 2 2 2 
2 2 2 2 2 2 2 2 2 
2 2 2 2 2 2 2 2 2 
2 2 2 2 2 2 2 2 2 
2 2 2 2 2 2 2 2 2 
2 2 2 2 2 2 2 2 2 
2 2 2 2 2 2 2 2 2 
2 2 2 2 2 2 2 2 2 
2 2 2 2 2 2 2 2 2 
2 2 2 2 2 2 2 2 2 
2 2 2 2 2 2 2 2 2 
2 2 2 2 2 2 2 2 2 
2 2 2 2 2 2 2 2 2 
2 2 2 2 2 2 2 2 2 
2 2 2 2 2 2 2 2 2 
2 2 2 2 2 2 2 2 2 
2 2 2 2 2 2 2 2 2 
2 2 2 2 2 2 2 2 2 
2 2 2 2 2 2 2 2 2 
2 2 2 2 2 2 2 2 2 
2 2 2 2 2 2 2 2 2 
2 2 2 2 2 2 2 2 2 
2 2 2 2 2 2 2 2 2 
2 2 2 2 2 2 2 2 2 
2 2 2 2 2 2 2 2 2 
2 2 2 2 2 2 2 2 2 
2 2 2 2 2 2 2 2 2 
2 2 2 2 2 2 2 2 2 
2 2 2 2 2 
R 1 1049 double
0.30266 0.33263 0.28195 0.26351 0.27325 0.31931 0.27528 0.31987 0.33828 
0.34851 0.30154 0.28149 0.31776 0.33859 0.34097 0.33184 0.26298 0.34517 
0.33777 0.25657 0.33398 0.33421 0.25774 0.27641 0.33283 0.32955 0.33159 
0.2897 0.34126 0.32722 0.30352 0.33566 0.26783 0.28662 0.27491 0.25639 
0.2979 0.25399 0.28083 0.2931 0.27197 0.30199 0.26852 0.31815 0.25853 
0.26354 0.31582 0.30856 0.2889 0.1 0.1 0.1 0.1 0.1 
0.1 0.1 0.1 0.1 0.1 0.1 0.1 0.1 0.1 
0.1 0.1 0.1 0.1 0.1 0.32665 0.33382 0.34593 0.1 
0.1 0.1 0.1 0.1 0.1 0.1 0.1 0.1 0.1 
0.1 0.1 0.1 0.1 0.1 0.1 0.1 0.1 0.1 
0.1 0.1 0.1 0.1 0.1 0.1 0.1 0.1 0.1 
0.1 0.1 0.1 0.1 0.1 0.1 0.1 0.1 0.1 
0.1 0.1 0.1 0.1 0.1 0.1 0.1 0.1 0.1 
0.1 0.1 0.1 0.1 0.1 0.1 0.1 0.1 0.1 
0.1 0.1 0.1 0.1 0.1 0.1 0.1 0.1 0.1 
0.1 0.1 0.1 0.1 0.1 0.1 0.1 0.1 0.1 
0.1 0.1 0.1 0.1 0.1 0.1 0.1 0.1 0.1 
0.1 0.1 0.1 0.1 0.1 0.1 0.1 0.1 0.1 
0.1 0.1 0.1 0.1 0.1 0.1 0.1 0.1 0.1 
0.1 0.1 0.1 0.1 0.1 0.1 0.1 0.1 0.1 
0.1 0.1 0.1 0.1 0.1 0.1 0.1 0.1 0.1 
0.1 0.1 0.1 0.1 0.1 0.1 0.1 0.1 0.1 
0.1 0.1 0.1 0.1 0.1 0.34015 0.1 0.1 0.1 
0.27735 0.1 0.26761 0.1 0.1 0.32278 0.27972 0.1 0.1 
0.1 0.1 0.1 0.1 0.1 0.1 0.1 0.1 0.1 
0.1 0.1 0.1 0.1 0.1 0.1 0.1 0.1 0.1 
0.1 0.25308 0.34672 0.31087 0.3159 0.1 0.1 0.1 0.1 
0.1 0.1 0.1 0.1 0.1 0.1 0.1 0.1 0.1 
0.1 0.1 0.1 0.1 0.1 0.1 0.1 0.28172 0.31127 
0.30511 0.30421 0.28827 0.25037 0.1 0.1 0.1 0.1 0.1 
0.1 0.1 0.1 0.1 0.1 0.25099 0.25528 0.1 0.1 
0.1 0.1 0.1 0.1 0.1 0.1 0.1 0.1 0.1 
0.1 0.1 0.1 0.1 0.1 0.1 0.1 0.1 0.1 
0.27555 0.25928 0.2685 0.1 0.1 0.1 0.1 0.1 0.1 
0.1 0.1 0.1 0.1 0.2591 0.3 0.27957 0.1 0.1 
0.1 0.1 0.1 0.1 0.1 0.1 0.1 0.1 0.1 
0.1 0.1 0.1 0.1 0.1 0.1 0.1 0.1 0.1 
0.31364 0.31217 0.25997 0.30805 0.31651 0.25888 0.1 0.1 0.1 
0.1 0.1 0.1 0.1 0.1 0.1 0.1 0.26541 0.30482 
0.1 0.1 0.1 0.1 0.1 0.1 0.1 0.1 0.1 
0.1 0.1 0.1 0.1 0.1 0.1 0.1 0.1 0.1 
0.1 0.1 0.2957 0.28069 0.1 0.1 0.1 0.1 0.1 
0.1 0.1 0.1 0.1 0.1 0.29693 0.29225 0.1 0.1 
0.1 0.1 0.1 0.1 0.1 0.1 0.1 0.1 0.1 
0.1 0.1 0.1 0.1 0.1 0.1 0.1 0.1 0.1 
0.2735 0.1 0.1 0.1 0.1 0.1 0.1 0.1 0.1 
0.1 0.1 0.32017 0.26173 0.28537 0.1 0.1 0.1 0.1 
0.1 0.1 0.1 0.1 0.1 0.1 0.1 0.1 0.1 
0.1 0.1 0.1 0.1 0.1 0.1 0.1 0.27439 0.27393 
0.31621 0.32716 0.25008 0.1 0.1 0.1 0.1 0.1 0.1 
0.1 0.1 0.1 0.1 0.33657 0.1 0.1 0.1 0.1 
0.1 0.1 0.1 0.1 0.1 0.1 0.1 0.1 0.1 
0.1 0.1 0.1 0.1 0.1 0.1 0.1 0.34334 0.3228 
0.27071 0.1 0.1 0.1 0.1 0.1 0.1 0.1 0.1 
0.1 0.1 0.32334 0.1 0.1 0.1 0.1 0.1 0.1 
0.1 0.1 0.1 0.1 0.1 0.1 0.1 0.1 0.1 
0.25871 0.1 0.1 0.1 0.1 0.29985 0.1 0.1 0.1 
0.1 0.1 0.29552 0.1 0.1 0.1 0.1 0.1 0.1 
0.1 0.1 0.1 0.1 0.1 0.1 0.1 0.1 0.1 
0.1 0.1 0.1 0.1 0.1 0.1 0.1 0.1 0.1 
0.1 0.1 0.1 0.1 0.1 0.1 0.1 0.1 0.1 
0.1 0.1 0.1 0.1 0.1 0.1 0.1 0.1 0.1 
0.1 0.1 0.1 0.1 0.1 0.1 0.33762 0.1 0.1 
0.1 0.1 0.1 0.31506 0.28428 0.1 0.1 0.1 0.1 
0.1 0.34368 0.1 0.1 0.1 0.1 0.1 0.1 0.1 
0.33577 0.3161 0.1 0.1 0.1 0.1 0.1 0.1 0.1 
0.1 0.1 0.1 0.26888 0.1 0.1 0.1 0.1 0.1 
0.1 0.1 0.1 0.1 0.1 0.1 0.1 0.1 0.1 
0.1 0.1 0.1 0.1 0.1 0.1 0.1 0.1 0.1 
0.1 0.1 0.1 0.1 0.1 0.1 0.1 0.1 0.1 
0.1 0.1 0.1 0.1 0.1 0.1 0.1 0.1 0.1 
0.1 0.1 0.1 0.1 0.1 0.1 0.1 0.1 0.1 
0.1 0.1 0.1 0.1 0.1 0.1 0.1 0.1 0.1 
0.1 0.1 0.1 0.1 0.1 0.1 0.1 0.1 0.1 
0.1 0.1 0.1 0.1 0.1 0.1 0.1 0.1 0.1 
0.1 0.1 0.1 0.1 0.1 0.1 0.1 0.1 0.1 
0.1 0.1 0.1 0.1 0.1 0.1 0.1 0.1 0.1 
0.1 0.1 0.1 0.1 0.1 0.1 0.1 0.1 0.1 
0.1 0.1 0.1 0.1 0.1 0.1 0.1 0.1 0.1 
0.1 0.1 0.1 0.1 0.1 0.1 0.1 0.1 0.1 
0.1 0.1 0.1 0.1 0.1 0.1 0.1 0.1 0.1 
0.1 0.1 0.1 0.1 0.1 0.1 0.1 0.1 0.1 
0.1 0.1 0.1 0.1 0.1 0.1 0.1 0.1 0.1 
0.1 0.1 0.1 0.1 0.32361 0.1 0.1 0.1 0.1 
0.33976 0.1 0.26269 0.1 0.1 0.1 0.1 0.1 0.1 
0.1 0.1 0.1 0.1 0.1 0.1 0.1 0.1 0.1 
0.1 0.1 0.1 0.1 0.1 0.1 0.1 0.1 0.1 
0.1 0.1 0.1 0.1 0.1 0.1 0.1 0.28437 0.33341 
0.1 0.1 0.1 0.1 0.1 0.1 0.1 0.1 0.1 
0.1 0.1 0.1 0.1 0.1 0.1 0.1 0.1 0.1 
0.1 0.1 0.1 0.1 0.1 0.1 0.1 0.31445 0.1 
0.1 0.1 0.1 0.1 0.1 0.1 0.1 0.1 0.1 
0.1 0.1 0.1 0.1 0.1 0.1 0.1 0.1 0.1 
0.1 0.1 0.1 0.1 0.1 0.1 0.33954 0.1 0.1 
0.1 0.1 0.1 0.1 0.1 0.1 0.1 0.1 0.1 
0.1 0.1 0.1 0.1 0.1 0.1 0.1 0.1 0.1 
0.33412 0.25952 0.1 0.1 0.1 0.1 0.1 0.1 0.1 
0.1 0.1 0.1 0.1 0.1 0.1 0.1 0.1 0.1 
0.1 0.1 0.1 0.1 0.1 0.1 0.1 0.1 0.1 
0.1 0.1 0.1 0.1 0.1 0.1 0.1 0.1 0.1 
0.1 0.1 0.1 0.1 0.1 0.1 0.1 0.1 0.1 
0.1 0.1 0.1 0.1 0.1 0.1 0.1 0.1 0.1 
0.1 0.1 0.1 0.1 0.1 0.1 0.1 0.1 0.1 
0.1 0.1 0.1 0.1 0.1 0.1 0.1 0.1 0.1 
0.1 0.1 0.1 0.1 0.1 0.1 0.1 0.1 0.1 
0.1 0.1 0.1 0.1 0.1 0.1 0.1 0.1 0.1 
0.1 0.1 0.1 0.1 0.1 0.1 0.1 0.1 0.1 
0.1 0.1 0.1 0.1 0.1 0.1 0.1 0.1 0.1 
0.1 0.1 0.1 0.1 0.1 0.1 0.1 0.1 0.1 
0.1 0.1 0.1 0.1 0.1 0.1 0.1 0.1 0.1 
0.1 0.1 0.1 0.1 0.1 0.1 0.1 0.1 0.1 
0.1 0.1 0.1 0.1 0.1 0.1 0.1 0.1 0.1 
0.1 0.1 0.1 0.1 0.1 0.1 0.1 0.1 0.1 
0.1 0.1 0.1 0.1 0.1 0.1 0.1 0.1 0.1 
0.1 0.1 0.1 0.1 0.1 0.1 0.1 0.1 0.1 
0.1 0.1 0.1 0.1 0.1 0.1 0.1 0.1 0.1 
0.1 0.1 0.1 0.1 0.1 
a 3 1049 double
0 0 0 0 0 0 0 0 0 
0 0 0 0 0 0 0 0 0 
0 0 0 0 0 0 0 0 0 
0 0 0 0 0 0 0 0 0 
0 0 0 0 0 0 0 0 0 
0 0 0 0 0 0 0 0 0 
0 0 0 0 0 0 0 0 0 
0 0 0 0 0 0 0 0 0 
0 0 0 0 0 0 0 0 0 
0 0 0 0 0 0 0 0 0 
0 0 0 0 0 0 0 0 0 
0 0 0 0 0 0 0 0 0 
0 0 0 0 0 0 0 0 0 
0 0 0 0 0 0 0 0 0 
0 0 0 0 0 0 0 0 0 
0 0 0 0 0 0 0 0 0 
0 0 0 0 0 0 0 0 0 
0 0 0 0 0 0 0 0 0 
0 0 0 0 0 0 0 0 0 
0 0 0 0 0 0 0 0 0 
0 0 0 0 0 0 0 0 0 
0 0 0 0 0 0 0 0 0 
0 0 0 0 0 0 0 0 0 
0 0 0 0 0 0 0 0 0 
0 0 0 0 0 0 0 0 0 
0 0 0 0 0 0 0 0 0 
0 0 0 0 0 0 0 0 0 
0 0 0 0 0 0 0 0 0 
0 0 0 0 0 0 0 0 0 
0 0 0 0 0 0 0 0 0 
0 0 0 0 0 0 0 0 0 
0 0 0 0 0 0 0 0 0 
0 0 0 0 0 0 0 0 0 
0 0 0 0 0 0 0 0 0 
0 0 0 0 0 0 0 0 0 
0 0 0 0 0 0 0 0 0 
0 0 0 0 0 0 0 0 0 
0 0 0 0 0 0 0 0 0 
0 0 0 0 0 0 0 0 0 
0 0 0 0 0 0 0 0 0 
0 0 0 0 0 0 0 0 0 
0 0 0 0 0 0 0 0 0 
0 0 0 0 0 0 0 0 0 
0 0 0 0 0 0 0 0 0 
0 0 0 0 0 0 0 0 0 
0 0 0 0 0 0 0 0 0 
0 0 0 0 0 0 0 0 0 
0 0 0 0 0 0 0 0 0 
0 0 0 0 0 0 0 0 0 
0 0 0 0 0 0 0 0 0 
0 0 0 0 0 0 0 0 0 
0 0 0 0 0 0 0 0 0 
0 0 0 0 0 0 0 0 0 
0 0 0 0 0 0 0 0 0 
0 0 0 0 0 0 0 0 0 
0 0 0 0 0 0 0 0 0 
0 0 0 0 0 0 0 0 0 
0 0 0 0 0 0 0 0 0 
0 0 0 0 0 0 0 0 0 
0 0 0 0 0 0 0 0 0 
0 0 0 0 0 0 0 0 0 
0 0 0 0 0 0 0 0 0 
0 0 0 0 0 0 0 0 0 
0 0 0 0 0 0 0 0 0 
0 0 0 0 0 0 0 0 0 
0 0 0 0 0 0 0 0 0 
0 0 0 0 0 0 0 0 0 
0 0 0 0 0 0 0 0 0 
0 0 0 0 0 0 0 0 0 
0 0 0 0 0 0 0 0 0 
0 0 0 0 0 0 0 0 0 
0 0 0 0 0 0 0 0 0 
0 0 0 0 0 0 0 0 0 
0 0 0 0 0 0 0 0 0 
0 0 0 0 0 0 0 0 0 
0 0 0 0 0 0 0 0 0 
0 0 0 0 0 0 0 0 0 
0 0 0 0 0 0 0 0 0 
0 0 0 0 0 0 0 0 0 
0 0 0 0 0 0 0 0 0 
0 0 0 0 0 0 0 0 0 
0 0 0 0 0 0 0 0 0 
0 0 0 0 0 0 0 0 0 
0 0 0 0 0 0 0 0 0 
0 0 0 0 0 0 0 0 0 
0 0 0 0 0 0 0 0 0 
0 0 0 0 0 0 0 0 0 
0 0 0 0 0 0 0 0 0 
0 0 0 0 0 0 0 0 0 
0 0 0 0 0 0 0 0 0 
0 0 0 0 0 0 0 0 0 
0 0 0 0 0 0 0 0 0 
0 0 0 0 0 0 0 0 0 
0 0 0 0 0 0 0 0 0 
0 0 0 0 0 0 0 0 0 
0 0 0 0 0 0 0 0 0 
0 0 0 0 0 0 0 0 0 
0 0 0 0 0 0 0 0 0 
0 0 0 0 0 0 0 0 0 
0 0 0 0 0 0 0 0 0 
0 0 0 0 0 0 0 0 0 
0 0 0 0 0 0 0 0 0 
0 0 0 0 0 0 0 0 0 
0 0 0 0 0 0 0 0 0 
0 0 0 0 0 0 0 0 0 
0 0 0 0 0 0 0 0 0 
0 0 0 0 0 0 0 0 0 
0 0 0 0 0 0 0 0 0 
0 0 0 0 0 0 0 0 0 
0 0 0 0 0 0 0 0 0 
0 0 0 0 0 0 0 0 0 
0 0 0 0 0 0 0 0 0 
0 0 0 0 0 0 0 0 0 
0 0 0 0 0 0 0 0 0 
0 0 0 0 0 0 0 0 0 
0 0 0 0 0 0 0 0 0 
0 0 0 0 0 0 0 0 0 
0 0 0 0 0 0 0 0 0 
0 0 0 0 0 0 0 0 0 
0 0 0 0 0 0 0 0 0 
0 0 0 0 0 0 0 0 0 
0 0 0 0 0 0 0 0 0 
0 0 0 0 0 0 0 0 0 
0 0 0 0 0 0 0 0 0 
0 0 0 0 0 0 0 0 0 
0 0 0 0 0 0 0 0 0 
0 0 0 0 0 0 0 0 0 
0 0 0 0 0 0 0 0 0 
0 0 0 0 0 0 0 0 0 
0 0 0 0 0 0 0 0 0 
0 0 0 0 0 0 0 0 0 
0 0 0 0 0 0 0 0 0 
0 0 0 0 0 0 0 0 0 
0 0 0 0 0 0 0 0 0 
0 0 0 0 0 0 0 0 0 
0 0 0 0 0 0 0 0 0 
0 0 0 0 0 0 0 0 0 
0 0 0 0 0 0 0 0 0 
0 0 0 0 0 0 0 0 0 
0 0 0 0 0 0 0 0 0 
0 0 0 0 0 0 0 0 0 
0 0 0 0 0 0 0 0 0 
0 0 0 0 0 0 0 0 0 
0 0 0 0 0 0 0 0 0 
0 0 0 0 0 0 0 0 0 
0 0 0 0 0 0 0 0 0 
0 0 0 0 0 0 0 0 0 
0 0 0 0 0 0 0 0 0 
0 0 0 0 0 0 0 0 0 
0 0 0 0 0 0 0 0 0 
0 0 0 0 0 0 0 0 0 
0 0 0 0 0 0 0 0 0 
0 0 0 0 0 0 0 0 0 
0 0 0 0 0 0 0 0 0 
0 0 0 0 0 0 0 0 0 
0 0 0 0 0 0 0 0 0 
0 0 0 0 0 0 0 0 0 
0 0 0 0 0 0 0 0 0 
0 0 0 0 0 0 0 0 0 
0 0 0 0 0 0 0 0 0 
0 0 0 0 0 0 0 0 0 
0 0 0 0 0 0 0 0 0 
0 0 0 0 0 0 0 0 0 
0 0 0 0 0 0 0 0 0 
0 0 0 0 0 0 0 0 0 
0 0 0 0 0 0 0 0 0 
0 0 0 0 0 0 0 0 0 
0 0 0 0 0 0 0 0 0 
0 0 0 0 0 0 0 0 0 
0 0 0 0 0 0 0 0 0 
0 0 0 0 0 0 0 0 0 
0 0 0 0 0 0 0 0 0 
0 0 0 0 0 0 0 0 0 
0 0 0 0 0 0 0 0 0 
0 0 0 0 0 0 0 0 0 
0 0 0 0 0 0 0 0 0 
0 0 0 0 0 0 0 0 0 
0 0 0 0 0 0 0 0 0 
0 0 0 0 0 0 0 0 0 
0 0 0 0 0 0 0 0 0 
0 0 0 0 0 0 0 0 0 
0 0 0 0 0 0 0 0 0 
0 0 0 0 0 0 0 0 0 
0 0 0 0 0 0 0 0 0 
0 0 0 0 0 0 0 0 0 
0 0 0 0 0 0 0 0 0 
0 0 0 0 0 0 0 0 0 
0 0 0 0 0 0 0 0 0 
0 0 0 0 0 0 0 0 0 
0 0 0 0 0 0 0 0 0 
0 0 0 0 0 0 0 0 0 
0 0 0 0 0 0 0 0 0 
0 0 0 0 0 0 0 0 0 
0 0 0 0 0 0 0 0 0 
0 0 0 0 0 0 0 0 0 
0 0 0 0 0 0 0 0 0 
0 0 0 0 0 0 0 0 0 
0 0 0 0 0 0 0 0 0 
0 0 0 0 0 0 0 0 0 
0 0 0 0 0 0 0 0 0 
0 0 0 0 0 0 0 0 0 
0 0 0 0 0 0 0 0 0 
0 0 0 0 0 0 0 0 0 
0 0 0 0 0 0 0 0 0 
0 0 0 0 0 0 0 0 0 
0 0 0 0 0 0 0 0 0 
0 0 0 0 0 0 0 0 0 
0 0 0 0 0 0 0 0 0 
0 0 0 0 0 0 0 0 0 
0 0 0 0 0 0 0 0 0 
0 0 0 0 0 0 0 0 0 
0 0 0 0 0 0 0 0 0 
0 0 0 0 0 0 0 0 0 
0 0 0 0 0 0 0 0 0 
0 0 0 0 0 0 0 0 0 
0 0 0 0 0 0 0 0 0 
0 0 0 0 0 0 0 0 0 
0 0 0 0 0 0 0 0 0 
0 0 0 0 0 0 0 0 0 
0 0 0 0 0 0 0 0 0 
0 0 0 0 0 0 0 0 0 
0 0 0 0 0 0 0 0 0 
0 0 0 0 0 0 0 0 0 
0 0 0 0 0 0 0 0 0 
0 0 0 0 0 0 0 0 0 
0 0 0 0 0 0 0 0 0 
0 0 0 0 0 0 0 0 0 
0 0 0 0 0 0 0 0 0 
0 0 0 0 0 0 0 0 0 
0 0 0 0 0 0 0 0 0 
0 0 0 0 0 0 0 0 0 
0 0 0 0 0 0 0 0 0 
0 0 0 0 0 0 0 0 0 
0 0 0 0 0 0 0 0 0 
0 0 0 0 0 0 0 0 0 
0 0 0 0 0 0 0 0 0 
0 0 0 0 0 0 0 0 0 
0 0 0 0 0 0 0 0 0 
0 0 0 0 0 0 0 0 0 
0 0 0 0 0 0 0 0 0 
0 0 0 0 0 0 0 0 0 
0 0 0 0 0 0 0 0 0 
0 0 0 0 0 0 0 0 0 
0 0 0 0 0 0 0 0 0 
0 0 0 0 0 0 0 0 0 
0 0 0 0 0 0 0 0 0 
0 0 0 0 0 0 0 0 0 
0 0 0 0 0 0 0 0 0 
0 0 0 0 0 0 0 0 0 
0 0 0 0 0 0 0 0 0 
0 0 0 0 0 0 0 0 0 
0 0 0 0 0 0 0 0 0 
0 0 0 0 0 0 0 0 0 
0 0 0 0 0 0 0 0 0 
0 0 0 0 0 0 0 0 0 
0 0 0 0 0 0 0 0 0 
0 0 0 0 0 0 0 0 0 
0 0 0 0 0 0 0 0 0 
0 0 0 0 0 0 0 0 0 
0 0 0 0 0 0 0 0 0 
0 0 0 0 0 0 0 0 0 
0 0 0 0 0 0 0 0 0 
0 0 0 0 0 0 0 0 0 
0 0 0 0 0 0 0 0 0 
0 0 0 0 0 0 0 0 0 
0 0 0 0 0 0 0 0 0 
0 0 0 0 0 0 0 0 0 
0 0 0 0 0 0 0 0 0 
0 0 0 0 0 0 0 0 0 
0 0 0 0 0 0 0 0 0 
0 0 0 0 0 0 0 0 0 
0 0 0 0 0 0 0 0 0 
0 0 0 0 0 0 0 0 0 
0 0 0 0 0 0 0 0 0 
0 0 0 0 0 0 0 0 0 
0 0 0 0 0 0 0 0 0 
0 0 0 0 0 0 0 0 0 
0 0 0 0 0 0 0 0 0 
0 0 0 0 0 0 0 0 0 
0 0 0 0 0 0 0 0 0 
0 0 0 0 0 0 0 0 0 
0 0 0 0 0 0 0 0 0 
0 0 0 0 0 0 0 0 0 
0 0 0 0 0 0 0 0 0 
0 0 0 0 0 0 0 0 0 
0 0 0 0 0 0 0 0 0 
0 0 0 0 0 0 0 0 0 
0 0 0 0 0 0 0 0 0 
0 0 0 0 0 0 0 0 0 
0 0 0 0 0 0 0 0 0 
0 0 0 0 0 0 0 0 0 
0 0 0 0 0 0 0 0 0 
0 0 0 0 0 0 0 0 0 
0 0 0 0 0 0 0 0 0 
0 0 0 0 0 0 0 0 0 
0 0 0 0 0 0 0 0 0 
0 0 0 0 0 0 0 0 0 
0 0 0 0 0 0 0 0 0 
0 0 0 0 0 0 0 0 0 
0 0 0 0 0 0 0 0 0 
0 0 0 0 0 0 0 0 0 
0 0 0 0 0 0 0 0 0 
0 0 0 0 0 0 0 0 0 
0 0 0 0 0 0 0 0 0 
0 0 0 0 0 0 0 0 0 
0 0 0 0 0 0 0 0 0 
0 0 0 0 0 0 0 0 0 
0 0 0 0 0 0 0 0 0 
0 0 0 0 0 0 0 0 0 
0 0 0 0 0 0 0 0 0 
0 0 0 0 0 0 0 0 0 
0 0 0 0 0 0 0 0 0 
0 0 0 0 0 0 0 0 0 
0 0 0 0 0 0 0 0 0 
0 0 0 0 0 0 0 0 0 
0 0 0 0 0 0 0 0 0 
0 0 0 0 0 0 0 0 0 
0 0 0 0 0 0 0 0 0 
0 0 0 0 0 0 0 0 0 
0 0 0 0 0 0 0 0 0 
0 0 0 0 0 0 0 0 0 
0 0 0 0 0 0 0 0 0 
0 0 0 0 0 0 0 0 0 
0 0 0 0 0 0 0 0 0 
0 0 0 0 0 0 0 0 0 
0 0 0 0 0 0 0 0 0 
0 0 0 0 0 0 0 0 0 
0 0 0 0 0 0 0 0 0 
0 0 0 0 0 0 0 0 0 
0 0 0 0 0 0 0 0 0 
0 0 0 0 0 0 0 0 0 
0 0 0 0 0 0 0 0 0 
0 0 0 0 0 0 0 0 0 
0 0 0 0 0 0 0 0 0 
0 0 0 0 0 0 0 0 0 
0 0 0 0 0 0 0 0 0 
0 0 0 0 0 0 0 0 0 
0 0 0 0 0 0 0 0 0 
0 0 0 0 0 0 0 0 0 
0 0 0 0 0 0 0 0 0 
0 0 0 0 0 0 0 0 0 
0 0 0 0 0 0 0 0 0 
0 0 0 0 0 0 0 0 0 
0 0 0 0 0 0 0 0 0 
0 0 0 0 0 0 0 0 0 
0 0 0 0 0 0 0 0 0 
0 0 0 0 0 0 0 0 0 
0 0 0 0 0 0 0 0 0 
0 0 0 0 0 0 0 0 0 
0 0 0 0 0 0 
v 3 1049 double
0.041612 -0.183303 0 0.0617907 -0.056831 0 0.168352 -0.155685 0 
0.200076 -0.0599723 0 1.00066 -0.685122 0 -0.837414 -0.778196 0 
-0.913284 -0.787418 0 -0.886448 -0.810822 0 0.684145 -0.596509 0 
-0.941373 -0.719923 0 -0.672125 -0.542887 0 -0.672787 -0.543978 0 
0.588811 -0.48258 0 0.915106 -0.806055 0 -0.917926 -0.739688 0 
-0.755926 -0.544678 0 -0.875105 -0.682701 0 0.841487 -0.6234 0 
0.830988 -0.714177 0 0.552174 -0.424357 0 -0.959343 -0.776762 0 
0.798734 -0.668916 0 0.815633 -0.629992 0 -0.957006 -0.780783 0 
0.736147 -0.620568 0 0.778203 -0.719164 0 0.849667 -0.663248 0 
0.793158 -0.631175 0 0.946819 -0.732833 0 -0.758388 -0.617943 0 
0.86881 -0.741607 0 0.953009 -0.739209 0 0.977177 -0.671066 0 
-0.840816 -0.633853 0 -0.810464 -0.709583 0 0.788301 -0.63349 0 
0.722046 -0.748817 0 1.01487 -0.706028 0 0.917568 -0.744936 0 
-0.588354 -0.608793 0 -0.659841 -0.467742 0 -0.605462 -0.718366 0 
2.66207 -1.93669 0 0.82981 -0.847671 0 0.979553 -0.875886 0 
1.02971 -0.754549 0 -0.951736 -0.617977 0 -0.937693 -0.736329 0 
-0.555655 -0.885358 0 0 0 0 0 0 0 
0 0 0 0 0 0 0 0 0 
0 0 0 0 0 0 0 0 0 
0 0 0 0 0 0 0 0 0 
0 0 0 0 0 0 0 0 0 
0 0 0 0 0 0 0 0 0 
0 0 0 0 0 0 0.181661 -0.347045 0 
-0.21921 -0.650405 0 -0.484602 -0.748865 0 0 0 0 
0 0 0 0 0 0 0 0 0 
0 0 0 0 0 0 0 0 0 
0 0 0 0 0 0 0 0 0 
0 0 0 0 0 0 0 0 0 
0 0 0 0 0 0 0 0 0 
0 0 0 0 0 0 0 0 0 
0 0 0 0 0 0 0 0 0 
0 0 0 0 0 0 0 0 0 
0 0 0 0 0 0 0 0 0 
0 0 0 0 0 0 0 0 0 
0 0 0 0 0 0 0 0 0 
0 0 0 0 0 0 0 0 0 
0 0 0 0 0 0 0 0 0 
0 0 0 0 0 0 0 0 0 
0 0 0 0 0 0 0 0 0 
0 0 0 0 0 0 0 0 0 
0 0 0 0 0 0 0 0 0 
0 0 0 0 0 0 0 0 0 
0 0 0 0 0 0 0 0 0 
0 0 0 0 0 0 0 0 0 
0 0 0 0 0 0 0 0 0 
0 0 0 0 0 0 0 0 0 
0 0 0 0 0 0 0 0 0 
0 0 0 0 0 0 0 0 0 
0 0 0 0 0 0 0 0 0 
0 0 0 0 0 0 0 0 0 
0 0 0 0 0 0 0 0 0 
0 0 0 0 0 0 0 0 0 
0 0 0 0 0 0 0 0 0 
0 0 0 0 0 0 0 0 0 
0 0 0 0 0 0 0 0 0 
0 0 0 0 0 0 0 0 0 
0 0 0 0 0 0 0 0 0 
0 0 0 0 0 0 0 0 0 
0 0 0 0 0 0 0 0 0 
0 0 0 0 0 0 0 0 0 
0 0 0 0 0 0 0 0 0 
0 0 0 0 0 0 0 0 0 
0 0 0 0 0 0 0 0 0 
0 0 0 0 0 0 0 0 0 
0 0 0 0 0 0 0 0 0 
0 0 0 0 0 0 0 0 0 
0 0 0 0 0 0 0 0 0 
0 0 0 0 0 0 0.0992629 -0.287804 0 
0 0 0 0 0 0 0 0 0 
-0.0467462 -0.471567 0 0 0 0 -0.117597 -0.124049 0 
0 0 0 0 0 0 -0.0839593 -0.300054 0 
0.193162 -0.658006 0 0 0 0 0 0 0 
0 0 0 0 0 0 0 0 0 
0 0 0 0 0 0 0 0 0 
0 0 0 0 0 0 0 0 0 
0 0 0 0 0 0 0 0 0 
0 0 0 0 0 0 0 0 0 
0 0 0 0 0 0 0 0 0 
0 0 0 -0.282994 -0.897007 0 -0.329245 -0.837017 0 
-0.148296 -0.882894 0 -0.287487 -1.07388 0 0 0 0 
0 0 0 0 0 0 0 0 0 
0 0 0 0 0 0 0 0 0 
0 0 0 0 0 0 0 0 0 
0 0 0 0 0 0 0 0 0 
0 0 0 0 0 0 0 0 0 
0 0 0 0 0 0 0 0 0 
0 0 0 0.190505 -1.07513 0 0.198118 -0.884841 0 
0.109481 -0.949953 0 0.0866402 -0.920954 0 0.0907041 -0.668483 0 
0.121334 -0.657537 0 0 0 0 0 0 0 
0 0 0 0 0 0 0 0 0 
0 0 0 0 0 0 0 0 0 
0 0 0 0 0 0 0.029712 -0.673213 0 
-0.378504 -1.06553 0 0 0 0 0 0 0 
0 0 0 0 0 0 0 0 0 
0 0 0 0 0 0 0 0 0 
0 0 0 0 0 0 0 0 0 
0 0 0 0 0 0 0 0 0 
0 0 0 0 0 0 0 0 0 
0 0 0 0 0 0 0 0 0 
0.240226 -0.897048 0 -0.102678 -0.817917 0 -0.183499 -0.689739 0 
0 0 0 0 0 0 0 0 0 
0 0 0 0 0 0 0 0 0 
0 0 0 0 0 0 0 0 0 
0 0 0 -0.134956 -0.739468 0 -0.170213 -0.755266 0 
-0.24938 -1.09057 0 0 0 0 0 0 0 
0 0 0 0 0 0 0 0 0 
0 0 0 0 0 0 0 0 0 
0 0 0 0 0 0 0 0 0 
0 0 0 0 0 0 0 0 0 
0 0 0 0 0 0 0 0 0 
0 0 0 0 0 0 0 0 0 
0.283202 -0.988733 0 0.239677 -1.0348 0 0.274582 -0.921518 0 
0.255218 -0.975889 0 0.206101 -0.923723 0 -0.153937 -1.07881 0 
0 0 0 0 0 0 0 0 0 
0 0 0 0 0 0 0 0 0 
0 0 0 0 0 0 0 0 0 
0 0 0 -0.236116 -0.927919 0 -0.199891 -0.914883 0 
0 0 0 0 0 0 0 0 0 
0 0 0 0 0 0 0 0 0 
0 0 0 0 0 0 0 0 0 
0 0 0 0 0 0 0 0 0 
0 0 0 0 0 0 0 0 0 
0 0 0 0 0 0 0 0 0 
0 0 0 0 0 0 0.292235 -1.06301 0 
0.304031 -0.969071 0 0 0 0 0 0 0 
0 0 0 0 0 0 0 0 0 
0 0 0 0 0 0 0 0 0 
0 0 0 0 0 0 -0.2974 -0.925314 0 
-0.279369 -0.899102 0 0 0 0 0 0 0 
0 0 0 0 0 0 0 0 0 
0 0 0 0 0 0 0 0 0 
0 0 0 0 0 0 0 0 0 
0 0 0 0 0 0 0 0 0 
0 0 0 0 0 0 0 0 0 
0 0 0 0 0 0 0 0 0 
-0.124891 -1.09161 0 0 0 0 0 0 0 
0 0 0 0 0 0 0 0 0 
0 0 0 0 0 0 0 0 0 
0 0 0 0 0 0 -0.281618 -0.9296 0 
-0.301764 -0.815055 0 -0.261616 -1.01282 0 0 0 0 
0 0 0 0 0 0 0 0 0 
0 0 0 0 0 0 0 0 0 
0 0 0 0 0 0 0 0 0 
0 0 0 0 0 0 0 0 0 
0 0 0 0 0 0 0 0 0 
0 0 0 0 0 0 0 0 0 
0 0 0 0.231879 -0.786323 0 -0.180284 -1.07167 0 
-0.192131 -1.04567 0 -0.161104 -0.859641 0 0.0497556 -0.901259 0 
0 0 0 0 0 0 0 0 0 
0 0 0 0 0 0 0 0 0 
0 0 0 0 0 0 0 0 0 
0 0 0 -0.336567 -0.99851 0 0 0 0 
0 0 0 0 0 0 0 0 0 
0 0 0 0 0 0 0 0 0 
0 0 0 0 0 0 0 0 0 
0 0 0 0 0 0 0 0 0 
0 0 0 0 0 0 0 0 0 
0 0 0 0 0 0 0 0 0 
0 0 0 0.321168 -0.720138 0 -0.279845 -0.869281 0 
-0.256431 -0.99276 0 0 0 0 0 0 0 
0 0 0 0 0 0 0 0 0 
0 0 0 0 0 0 0 0 0 
0 0 0 0 0 0 -0.417075 -0.883178 0 
0 0 0 0 0 0 0 0 0 
0 0 0 0 0 0 0 0 0 
0 0 0 0 0 0 0 0 0 
0 0 0 0 0 0 0 0 0 
0 0 0 0 0 0 0 0 0 
-0.785211 0.0238542 0 0 0 0 0 0 0 
0 0 0 0 0 0 -0.805502 0.0298053 0 
0 0 0 0 0 0 0 0 0 
0 0 0 0 0 0 -0.867441 0.0532062 0 
0 0 0 0 0 0 0 0 0 
0 0 0 0 0 0 0 0 0 
0 0 0 0 0 0 0 0 0 
0 0 0 0 0 0 0 0 0 
0 0 0 0 0 0 0 0 0 
0 0 0 0 0 0 0 0 0 
0 0 0 0 0 0 0 0 0 
0 0 0 0 0 0 0 0 0 
0 0 0 0 0 0 0 0 0 
0 0 0 0 0 0 0 0 0 
0 0 0 0 0 0 0 0 0 
0 0 0 0 0 0 0 0 0 
0 0 0 0 0 0 0 0 0 
0 0 0 0 0 0 0 0 0 
0 0 0 0 0 0 0 0 0 
0 0 0 0 0 0 0 0 0 
0.872053 0.0203145 0 0 0 0 0 0 0 
0 0 0 0 0 0 0 0 0 
0.740583 0.00754893 0 0.833637 0.0192711 0 0 0 0 
0 0 0 0 0 0 0 0 0 
0 0 0 0.690301 0.0710233 0 0 0 0 
0 0 0 0 0 0 0 0 0 
0 0 0 0 0 0 0 0 0 
-0.00209954 -1.09127 0 -0.239903 -1.16598 0 0 0 0 
0 0 0 0 0 0 0 0 0 
0 0 0 0 0 0 0 0 0 
0 0 0 0 0 0 0 0 0 
-0.107482 -1.03458 0 0 0 0 0 0 0 
0 0 0 0 0 0 0 0 0 
0 0 0 0 0 0 0 0 0 
0 0 0 0 0 0 0 0 0 
0 0 0 0 0 0 0 0 0 
0 0 0 0 0 0 0 0 0 
0 0 0 0 0 0 0 0 0 
0 0 0 0 0 0 0 0 0 
0 0 0 0 0 0 0 0 0 
0 0 0 0 0 0 0 0 0 
0 0 0 0 0 0 0 0 0 
0 0 0 0 0 0 0 0 0 
0 0 0 0 0 0 0 0 0 
0 0 0 0 0 0 0 0 0 
0 0 0 0 0 0 0 0 0 
0 0 0 0 0 0 0 0 0 
0 0 0 0 0 0 0 0 0 
0 0 0 0 0 0 0 0 0 
0 0 0 0 0 0 0 0 0 
0 0 0 0 0 0 0 0 0 
0 0 0 0 0 0 0 0 0 
0 0 0 0 0 0 0 0 0 
0 0 0 0 0 0 0 0 0 
0 0 0 0 0 0 0 0 0 
0 0 0 0 0 0 0 0 0 
0 0 0 0 0 0 0 0 0 
0 0 0 0 0 0 0 0 0 
0 0 0 0 0 0 0 0 0 
0 0 0 0 0 0 0 0 0 
0 0 0 0 0 0 0 0 0 
0 0 0 0 0 0 0 0 0 
0 0 0 0 0 0 0 0 0 
0 0 0 0 0 0 0 0 0 
0 0 0 0 0 0 0 0 0 
0 0 0 0 0 0 0 0 0 
0 0 0 0 0 0 0 0 0 
0 0 0 0 0 0 0 0 0 
0 0 0 0 0 0 0 0 0 
0 0 0 0 0 0 0 0 0 
0 0 0 0 0 0 0 0 0 
0 0 0 0 0 0 0 0 0 
0 0 0 0 0 0 0 0 0 
0 0 0 0 0 0 0 0 0 
0 0 0 0 0 0 0 0 0 
0 0 0 0 0 0 0 0 0 
0 0 0 0 0 0 0 0 0 
0 0 0 0 0 0 0 0 0 
0 0 0 0 0 0 0 0 0 
0 0 0 0 0 0 0 0 0 
0 0 0 0 0 0 0 0 0 
0 0 0 0 0 0 0 0 0 
0 0 0 0.347939 -0.446242 0 0 0 0 
0 0 0 0 0 0 0 0 0 
0.256388 -0.280038 0 0 0 0 -0.343354 -0.77577 0 
0 0 0 0 0 0 0 0 0 
0 0 0 0 0 0 0 0 0 
0 0 0 0 0 0 0 0 0 
0 0 0 0 0 0 0 0 0 
0 0 0 0 0 0 0 0 0 
0 0 0 0 0 0 0 0 0 
0 0 0 0 0 0 0 0 0 
0 0 0 0 0 0 0 0 0 
0 0 0 0 0 0 0 0 0 
0 0 0 0 0 0 0 0 0 
0 0 0 0.635621 -0.699009 0 0.648548 -0.672106 0 
0 0 0 0 0 0 0 0 0 
0 0 0 0 0 0 0 0 0 
0 0 0 0 0 0 0 0 0 
0 0 0 0 0 0 0 0 0 
0 0 0 0 0 0 0 0 0 
0 0 0 0 0 0 0 0 0 
0 0 0 0 0 0 0 0 0 
0 0 0 0 0 0 0 0 0 
0 0 0 0.512639 -0.539292 0 0 0 0 
0 0 0 0 0 0 0 0 0 
0 0 0 0 0 0 0 0 0 
0 0 0 0 0 0 0 0 0 
0 0 0 0 0 0 0 0 0 
0 0 0 0 0 0 0 0 0 
0 0 0 0 0 0 0 0 0 
0 0 0 0 0 0 0 0 0 
0 0 0 0 0 0 0 0 0 
0.487816 -0.514139 0 0 0 0 0 0 0 
0 0 0 0 0 0 0 0 0 
0 0 0 0 0 0 0 0 0 
0 0 0 0 0 0 0 0 0 
0 0 0 0 0 0 0 0 0 
0 0 0 0 0 0 0 0 0 
0 0 0 0 0 0 0 0 0 
0.637592 0.225211 0 0.651622 0.190906 0 0 0 0 
0 0 0 0 0 0 0 0 0 
0 0 0 0 0 0 0 0 0 
0 0 0 0 0 0 0 0 0 
0 0 0 0 0 0 0 0 0 
0 0 0 0 0 0 0 0 0 
0 0 0 0 0 0 0 0 0 
0 0 0 0 0 0 0 0 0 
0 0 0 0 0 0 0 0 0 
0 0 0 0 0 0 0 0 0 
0 0 0 0 0 0 0 0 0 
0 0 0 0 0 0 0 0 0 
0 0 0 0 0 0 0 0 0 
0 0 0 0 0 0 0 0 0 
0 0 0 0 0 0 0 0 0 
0 0 0 0 0 0 0 0 0 
0 0 0 0 0 0 0 0 0 
0 0 0 0 0 0 0 0 0 
0 0 0 0 0 0 0 0 0 
0 0 0 0 0 0 0 0 0 
0 0 0 0 0 0 0 0 0 
0 0 0 0 0 0 0 0 0 
0 0 0 0 0 0 0 0 0 
0 0 0 0 0 0 0 0 0 
0 0 0 0 0 0 0 0 0 
0 0 0 0 0 0 0 0 0 
0 0 0 0 0 0 0 0 0 
0 0 0 0 0 0 0 0 0 
0 0 0 0 0 0 0 0 0 
0 0 0 0 0 0 0 0 0 
0 0 0 0 0 0 0 0 0 
0 0 0 0 0 0 0 0 0 
0 0 0 0 0 0 0 0 0 
0 0 0 0 0 0 0 0 0 
0 0 0 0 0 0 0 0 0 
0 0 0 0 0 0 0 0 0 
0 0 0 0 0 0 0 0 0 
0 0 0 0 0 0 0 0 0 
0 0 0 0 0 0 0 0 0 
0 0 0 0 0 0 0 0 0 
0 0 0 0 0 0 0 0 0 
0 0 0 0 0 0 0 0 0 
0 0 0 0 0 0 0 0 0 
0 0 0 0 0 0 0 0 0 
0 0 0 0 0 0 0 0 0 
0 0 0 0 0 0 0 0 0 
0 0 0 0 0 0 0 0 0 
0 0 0 0 0 0 0 0 0 
0 0 0 0 0 0 0 0 0 
0 0 0 0 0 0 0 0 0 
0 0 0 0 0 0 0 0 0 
0 0 0 0 0 0 0 0 0 
0 0 0 0 0 0 0 0 0 
0 0 0 0 0 0 0 0 0 
0 0 0 0 0 0 0 0 0 
0 0 0 0 0 0 0 0 0 
0 0 0 0 0 0 0 0 0 
0 0 0 0 0 0 0 0 0 
0 0 0 0 0 0 0 0 0 
0 0 0 0 0 0 0 0 0 
0 0 0 0 0 0 0 0 0 
0 0 0 0 0 0 
x 1 1049 double
-0.457897 0.056187 -0.324987 0.189195 -2.92137 1.68069 1.64208 2.28514 -3.19372 
3.1049 3.32496 3.84407 -5.88755 -4.29158 3.74033 4.67593 4.75514 -5.65277 
-4.85801 -4.04445 5.79502 -6.73202 -6.18839 6.36686 -8.97456 -8.18233 -8.58512 
-7.5609 -7.77407 8.02446 -9.50078 -9.37073 -8.55101 9.19376 9.71135 -10.3602 
-10.937 -10.2009 -10.9827 11.0054 10.405 11.6192 -11.9708 -11.9594 -11.4757 
-11.1635 10.9557 11.5636 11.8399 -15 -14.4643 -14.2857 -14.1071 -15 
-15 -15 -14.8214 -15 -14.6429 -13.9286 -13.2143 -13.0357 -13.3929 
-13.75 -13.5714 -12.5 -12.8571 -12.6786 -12.3463 -12.0052 -11.5181 -11.3214 
-11.1429 -11.5 -10.0714 -10.6071 -10.4286 -10.9643 -10.7857 -10.25 -9.1786 
-9.5357 -9.3571 -9.8929 -9.7143 -8.2 -9 -9 -8.8 -8.4 
-9 -8.6 -9 -9 -7.2 -7.8 -8 -7.6 -7.4 
-6.2 -6.6 -6.8 -6.4 -7 -5.2 -5.4 -6 -5.8 
-5.6 -4.4 -4.8 -4.2 -5 -4.6 -3.2 -3.6 -3.8 
-3.4 -4 -3 -2.6 -2.4 -3 -2.8 -3 -3 
-2.2 -3 -1.4 -1.2 -1.6 -1.8 -2 -0.6 -1 
-0.2 -0.4 -0.8 0.6 0.2 0.4 0.8 -0 1.2 
1.8 1.4 1.6 1 2.4 2.8 2 2.2 2.6 
3 3.4 3 3 3.6 3 3.8 3.2 3 
4.8 4 4.6 4.4 4.2 5.8 5 5.2 5.4 
5.6 6.4 6.8 6.6 6 6.2 7 7.6 7.2 
7.4 7.8 8.4 8.8 8 8.2 8.6 9.7143 9 
9.5357 9 9 9 9.8929 9 9.1786 9.3571 10.7857 
10.6071 10.0714 10.25 10.4286 10.9643 11.5108 11.5 11.1429 11.3214 
11.5658 12.8571 12.401 12.5 12.6786 12.0181 12.4277 13.5714 13.3929 
13.2143 13.0357 13.9286 13.75 14.2857 14.8214 14.4643 14.6429 14.1071 
15 15 15 15 15 -15 -15 -15 -15 
-15 -11.7421 -11.3875 -11.9335 -11.1811 -9 -9 -9 -9 
-9 -3 -3 -3 -3 -3 3 3 3 
3 3 9 9 9 9 9 10.9885 11.9281 
11.4904 12.0383 12.6224 12.4643 15 15 15 15 15 
-15 -15 -15 -15 -15 -12.2329 -10.9685 -9 -9 
-9 -9 -9 -3 -3 -3 -3 -3 3 
3 3 3 3 9 9 9 9 9 
11.2912 12.325 12.8562 15 15 15 15 15 -15 
-15 -15 -15 -15 -11.7352 -11.3873 -10.8423 -9 -9 
-9 -9 -9 -3 -3 -3 -3 -3 3 
3 3 3 3 9 9 9 9 9 
10.868 10.4429 11.7124 11.19 11.4583 12.6052 15 15 15 
15 15 -15 -15 -15 -15 -15 -10.9452 -10.2457 
-9 -9 -9 -9 -9 -3 -3 -3 -3 
-3 3 3 3 3 3 9 9 9 
9 9 10.4933 11.0907 15 15 15 15 15 
-15 -15 -15 -15 -15 -10.3098 -10.9375 -9 -9 
-9 -9 -9 -3 -3 -3 -3 -3 3 
3 3 3 3 9 9 9 9 9 
12.5038 15 15 15 15 15 -15 -15 -15 
-15 -15 -10.1434 -10.4669 -9.90068 -9 -9 -9 -9 
-9 -3 -3 -3 -3 -3 3 3 3 
3 3 9 9 9 9 9 10.0979 12.7308 
12.7685 13.3944 13.5726 15 15 15 15 15 -15 
-15 -15 -15 -15 -9.77853 -9 -9 -9 -9 
-9 -3 -3 -3 -3 -3 3 3 3 
3 3 9 9 9 9 9 9.66217 13.1085 
13.3748 15 15 15 15 15 -15 -15 -15 
-15 -15 -9.22028 -8.2857 -8.8214 -8.6429 -9 -8.1071 -8.4643 
-7.75 -7.5714 -7.0357 -7.2143 -7.9286 -7.3929 -6.5 -6.6786 -6.8571 
-5.31127 -5.5 -5.3214 -5.1429 -4.7857 -4.68216 -4.9643 -4.6071 -4.0714 
-4.4286 -4.25 -3.6493 -3.3571 -3.1786 -3.7143 -3.5357 -3.8929 -2.2857 
-2.4643 -2.6429 -2.8214 -2.1071 -3 -1.3929 -1.5714 -1.0357 -1.75 
-1.9286 -1.2143 -0.5 -0.6786 -0.8571 0.8571 0.5 0.6786 1.9286 
1.5714 1.3929 1.2143 1.0357 1.75 2.6429 2.4643 2.2857 2.8214 
2.1071 3.5357 3.7143 3.1786 3.8929 3 3.3571 4.7857 4.6071 
4.4286 4.0714 4.25 4.9643 5.1429 5.3214 5.50807 5.5 6.5 
6.6786 6.8571 7.75 7.62386 7.02016 7.0357 7.9286 7.3929 7.5714 
7.2143 8.61476 8.8214 8.1071 8.2857 8.4643 8.6429 9 9 
13.5314 13.2911 15 15 15 15 15 -15 -15 
-15 -15 -15 13.3596 15 15 15 15 15 
-15 -14.6667 -14.1667 -14.3333 -15 -15 -14.8333 -15 -14.5 
-15 -14 -12.8 -12.6 -12.4 -13 -12.2 -11.6 -11.4 
-11.8 -12 -11.2 -10.6 -10.4 -10.8 -10.2 -11 -9.8 
-10 -9.6 -9.4 -9.2 -9 -8.2857 -8.1071 -8.4643 -9 
-9 -9 -8.8214 -8.6429 -9 -7.0357 -7.3929 -7.5714 -7.9286 
-7.2143 -7.75 -6.5 -6.6786 -6.8571 -5.1429 -5.5 -5.3214 -4.25 
-4.9643 -4.4286 -4.6071 -4.7857 -4.0714 -3.3571 -3.8929 -3.7143 -3.1786 
-3.5357 -2.6 -2.8 -3 -3 -2.4 -2.2 -3 -3 
-3 -2 -1.8 -1.2 -1.6 -1.4 -1 -0.6 -0.8 
-0.2 -0.4 0.4 0.8 0.6 0.2 -0 1.2 1.8 
1.6 1.4 1 2 2.4 2.6 2.8 2.2 3.2 
3.8 3.4 3 3.6 4 4.8 4.4 4.6 4.2 
5.4 5.2 5.8 5.6 5 6 6.4 6.2 6.6 
6.8 7.6 7.8 7.4 7 7.2 8.8 8.4 8 
8.6 8.2 9 9.4 9 9 9.6 9 9 
9.8 9.2 10.8 10.4 10.6 10.2 10 11.2 11 
11.4 11.6 11.8 12.2 12.7355 12.6 12.8 12 12.4 
13.3326 13 13.7316 14.1667 14.6667 14 14.5 14.3333 14.8333 
15 15 15 15 15 -15 -15 -15 -15 
-15 -9 -9 -9 -9 -9 -3 -3 -3 
-3 -3 9 9 9 9 9 11.9765 12.3783 
15 15 15 15 15 -15 -15 -15 -15 
-15 -9 -9 -9 -9 -9 -3 -3 -3 
-3 -3 9 9 9 9 9 10.9915 15 
15 15 15 15 -15 -15 -15 -15 -15 
-9 -9 -9 -9 -9 -3 -3 -3 -3 
-3 9 9 9 9 9 10.2981 15 15 
15 15 15 -15 -15 -15 -15 -15 -9 
-9 -9 -9 -9 -3 -3 -3 -3 -3 
8.11054 8.90761 9 15 15 15 15 15 -15 
-15 -15 -15 -15 -9 -9 -9 -9 -9 
-3 -3 -3 -3 -3 9 9 9 9 
9 9 15 15 15 15 15 -14.4 -14.2 
-14.8 -14.6 -15 -13.4 -14 -13.2 -13.6 -13.8 -12.4 
-13 -12.6 -12.2 -12.8 -11.4 -11.6 -11.2 -12 -11.8 
-10.2 -10.8 -11 -10.6 -10.4 -9.4 -9.8 -10 -9.2 
-9.6 -8.8 -8.2 -8.4 -8.6 -9 -8 -7.4 -7.2 
-7.6 -7.8 -6.2 -6.4 -6.6 -7 -6.8 -5.2 -5.8 
-6 -5.4 -5.6 -5 -4.6 -4.2 -4.4 -4.8 -3.8 
-3.6 -3.4 -3.2 -4 -3 -2.6 -2.8 -2.4 -2.2 
-1.4 -1.6 -1.8 -1.2 -2 -0.6 -0.8 -0.4 -1 
-0.2 0.4 -0 0.6 0.8 0.2 1.2 1.4 1.8 
1 1.6 2.8 2 2.2 2.6 2.4 3.2 3.4 
3 3.6 3.8 4 4.2 4.4 4.6 4.8 5 
5.6 5.8 5.4 5.2 6.4 6.8 6.6 6.2 6 
7.4 7 7.6 7.8 7.2 8 8.8 8.2 8.4 
8.6 9 9.2 9.8 9.4 9.6 10 10.2 10.4 
10.6 10.8 11.4 11.8 11 11.6 11.2 12.4 12.8 
12.6 12.2 12 13.2 13 13.4 13.6 13.8 14.8 
14 14.2 14.4 14.6 15 
y 1 1049 double
-10.1657 -10.0373 -9.62595 -9.5252 -8.04823 -8.71304 -8.12557 -7.99949 -7.16903 
-7.18094 -7.79204 -7.52898 -5.99854 -6.48984 -6.79334 -6.86877 -6.0791 -5.35458 
-5.9102 -5.84436 -5.23926 -4.57647 -4.81008 -4.90565 -3.72576 -3.65418 -3.15527 
-3.9494 -3.0428 -3.46158 -2.8651 -2.18253 -2.56034 -2.42885 -2.2241 -1.91289 
-1.89152 -1.34466 -1.32106 -1.43873 -1.35581 -1.31302 -0.00473909 -0.720206 -0.413735 
-0.821008 -0.834186 -0.714915 -0.1778 0.8 0 0 0 0 
0.6 0.4 0 0.2 0 0 0 0 0 
0 0 0 0 0 0.352095 0.846578 0.428394 0 
0 0 0 0 0 0 0 0 0 
0 0 0 0 0 0.4 0.6 0 0 
0 0 0.2 0.8 0 0 0 0 0 
0 0 0 0 0 0 0 0 0 
0 0 0 0 0 0 0 0 0 
0 0 0.8 0 0 0 0 0.6 0.4 
0 0.2 0 0 0 0 0 0 0 
0 0 0 0 0 0 0 0 0 
0 0 0 0 0 0 0 0 0 
0.2 0 0.8 0.6 0 0 0 0 0.4 
0 0 0 0 0 0 0 0 0 
0 0 0 0 0 0 0 0 0 
0 0 0 0 0 0 0 0 0.4 
0 0.8 0 0.2 0 0.6 0 0 0 
0 0 0 0 0 0.351103 0 0 0 
0.90508 0 0.250434 0 0 0.528075 0.890673 0 0 
0 0 0 0 0 0 0 0 0 
0.4 0.6 0.8 0.2 0 1.8 1.4 1 1.2 
1.6 1.97956 1.07657 1.45957 1.99537 1.2 1 1.4 1.8 
1.6 1 1.4 1.8 1.2 1.6 1.8 1.2 1 
1.6 1.4 1 1.4 1.8 1.6 1.2 1.47219 1.31203 
1.71379 1.88799 1.89121 1.39657 1 1.4 1.8 1.2 1.6 
2 2.8 2.6 2.2 2.4 2.64717 2.76957 2 2.8 
2.2 2.6 2.4 2.8 2.2 2.6 2.4 2 2.2 
2.4 2.6 2 2.8 2.6 2.8 2 2.4 2.2 
2.23631 2.34476 2.7641 2.6 2.2 2 2.4 2.8 3 
3.6 3.8 3.4 3.2 3.31555 3.77376 3.52285 3 3.6 
3.8 3.4 3.2 3.6 3 3.8 3.4 3.2 3 
3.8 3.2 3.4 3.6 3.2 3.8 3.4 3.6 3 
3.30049 3.72689 3.61034 3.82379 3.02397 3.96177 3.6 3.8 3 
3.4 3.2 4.2 4.8 4.4 4 4.6 4.48046 4.88054 
4.4 4.8 4.6 4 4.2 4.4 4.2 4.6 4 
4.8 4 4.4 4.2 4.8 4.6 4.2 4.8 4.6 
4 4.4 4.48959 4.39987 4.4 4 4.2 4.8 4.6 
5.8 5.6 5.4 5.2 5 5.46611 5.45676 5.2 5.8 
5.4 5 5.6 5.6 5 5.8 5.4 5.2 5 
5.6 5.8 5.2 5.4 5.8 5.6 5.2 5 5.4 
5.51367 5.8 5.4 5.2 5.6 5 6.6 6.2 6.4 
6 6.8 6.05822 6.97474 6.63488 6.6 6 6.2 6.4 
6.8 6 6.2 6.4 6.6 6.8 6.2 6.8 6 
6.6 6.4 6.2 6.6 6.8 6 6.4 6.45028 6.06228 
6.89916 6.10461 6.63604 6.6 6.2 6 6.8 6.4 7.4 
7.2 7.8 7 7.6 7.24074 7 7.2 7.4 7.6 
7.8 7.4 7.2 7.8 7.6 7 7.4 7.2 7 
7.6 7.8 7.8 7 7.6 7.2 7.4 7.73971 7.8708 
7.10299 7.4 7.6 7 7.8 7.2 8.4 8.2 8.6 
8.8 8 8.41574 8 8 8 8 8 8 
8 8 8 8 8 8 8 8 8 
8.97935 8 8 8 8 8.92192 8 8 8 
8 8 8.87409 8 8 8 8 8 8 
8 8 8 8 8 8 8 8 8 
8 8 8 8 8 8 8 8 8 
8 8 8 8 8 8 8 8 8 
8 8 8 8 8 8 8 8 8 
8 8 8 8 8 8 8.95364 8 8 
8 8 8 8.99833 8.97711 8 8 8 8 
8 8.96628 8 8 8 8 8 8 8 
8.34568 8.94331 8.8 8.6 8.2 8 8.4 9.2 9.6 
9 9.8 9.4 9.72379 9 9.2 9.6 9.8 9.4 
10.4 10 10 10 10.8 10 10 10.6 10 
10.2 10 10 10 10 10 10 10 10 
10 10 10 10 10 10 10 10 10 
10 10 10 10 10 10 10 10 10.2 
10.8 10.4 10 10 10.6 10 10 10 10 
10 10 10 10 10 10 10 10 10 
10 10 10 10 10 10 10 10 10 
10 10 10 10.2 10.6 10 10 10.8 10.4 
10 10 10 10 10 10 10 10 10 
10 10 10 10 10 10 10 10 10 
10 10 10 10 10 10 10 10 10 
10 10 10 10 10 10 10 10 10 
10 10 10 10 10 10 10 10 10 
10 10 10 10 10 10 10 10 10 
10 10 10 10 10.8 10.2 10 10.4 10.6 
10 10 10 10 10 10 10 10 10 
10 10 10 10 10.5108 10 10 10 10 
10.4705 10 10.1565 10 10 10 10 10 10 
10 10.6 10.4 10.2 10.8 11 11.6 11.4 11.2 
11.8 11.8 11.4 11 11.2 11.6 11 11.4 11.2 
11.8 11.6 11.8 11.4 11 11.6 11.2 11.6967 11.1765 
11 11.2 11.8 11.6 11.4 12.2 12.8 12 12.4 
12.6 12.6 12 12.2 12.4 12.8 12.6 12.4 12 
12.2 12.8 12 12.2 12.4 12.8 12.6 12.639 12.8 
12.4 12.2 12.6 12 13 13.6 13.4 13.8 13.2 
13 13.8 13.6 13.2 13.4 13.4 13.8 13.2 13 
13.6 13.6 13 13.4 13.2 13.8 13.3747 13.4 13.2 
13.8 13 13.6 14.8 14.2 14.6 14.4 14 14.2 
14.4 14 14.8 14.6 14 14.6 14.4 14.8 14.2 
14.1944 14.4762 14 14.8 14.4 14.2 14.6 14 15.6 
15.2 15.4 15.8 15 15.6 15.8 15.4 15 15.2 
15.8 15.2 15.4 15.6 15 15.3333 15 15.5 15.8333 
15.1667 15.6667 15.8 15 15.6 15.4 15.2 16 16 
16 16 16 16 16 16 16 16 16 
16 16 16 16 16 16 16 16 16 
16 16 16 16 16 16 16 16 16 
16 16 16 16 16 16 16 16 16 
16 16 16 16 16 16 16 16 16 
16 16 16 16 16 16 16 16 16 
16 16 16 16 16 16 16 16 16 
16 16 16 16 16 16 16 16 16 
16 16 16 16 16 16 16 16 16 
16 16 16 16 16 16 16 16 16 
16 16 16 16 16 16 16 16 16 
16 16 16 16 16 16 16 16 16 
16 16 16 16 16 16 16 16 16 
16 16 16 16 16 16 16 16 16 
16 16 16 16 16 16 16 16 16 
16 16 16 16 16 16 16 16 16 
16 16 16 16 16 
