# vtk DataFile Version 4.0
vtk output
ASCII
DATASET POLYDATA
FIELD FieldData 4
domain 1 4 string
domain_min:-40|-40
domain_max:40|40
cell_size:1|1
boundary:0|0

variables 1 5 string
T:15.1
dt:0.01
write_case:1
substeps:10
all_steps:1510

constants 1 17 string
L:40
c_s:1
dx:1
k:1000
d1:-13.5|10
d2:-6|10
d3:9|14.5
d4:13.5|10
d5:-6|8
d6:0|8
d7:6|8
d8:-9|9
d9:9|9
d10:-12|0
d11:12|0
d12:0|-10
R_w:0.1

equations 1 18 string
time:T=(T+dt)#true
pos_x:x=elem(r,0,0)#eq(gid,1)
pos_y:y=elem(r,1,0)#eq(gid,1)
wp_1:p0=if(and(lt(x,(-9)),gt(y,10)),d1,p0)#eq(gid,1)
wp_2:p0=if(and(and(gt(x,(-9)),lt(x,(-3))),gt(y,10)),d2,p0)#eq(gid,1)
wp_3:p0=if(and(and(gt(x,(-3)),lt(x,9)),gt(y,10)),d3,p0)#eq(gid,1)
wp_4:p0=if(and(gt(x,9),gt(y,10)),d4,p0)#eq(gid,1)
wp_5:p0=if(and(and(gt(x,(-9)),lt(x,(-3))),lt(y,8)),d5,p0)#eq(gid,1)
wp_6:p0=if(and(and(gt(x,(-3)),lt(x,3)),lt(y,8)),d6,p0)#eq(gid,1)
wp_7:p0=if(and(and(gt(x,3),lt(x,9)),lt(y,8)),d7,p0)#eq(gid,1)
wp_8:p0=if(and(and(gt(x,(-9)),lt(x,0)),and(gt(y,8),lt(y,10))),d8,p0)#eq(gid,1)
wp_9:p0=if(and(and(gt(x,0),lt(x,9)),and(gt(y,8),lt(y,10))),d9,p0)#eq(gid,1)
wp_10:p0=if(and(lt(x,(-9)),lt(y,10)),d10,p0)#eq(gid,1)
wp_11:p0=if(and(gt(x,9),lt(y,10)),d11,p0)#eq(gid,1)
wp_12:p0=if(lt(y,0),d12,p0)#eq(gid,1)
acceleration:v=sfm(v,p0,v0,m,R,A,B,k,c,tau)#eq(gid,1)
velocity:v=euler(v,a,dt)#eq(gid,1)
position:r=euler(r,v,dt)#eq(gid,1)

POINTS 1049 float
-0.46677 -10.0037 0 0.051905 -10.0388 0 -0.50401 -9.45796 0 
0.00664595 -9.52499 0 2.08942 -8.33094 0 -3.41104 -7.70902 0 
2.09461 -7.74078 0 2.72142 -7.60099 0 3.65688 -7.53224 0 
4.17213 -7.26221 0 -4.73452 -6.08877 0 -3.5293 -6.87885 0 
3.56471 -6.82684 0 4.1907 -6.42932 0 5.04429 -6.60287 0 
-6.17399 -5.76207 0 -6.06184 -5.0483 0 -5.27147 -5.56382 0 
-4.32276 -5.64134 0 5.18417 -5.74125 0 -7.12334 -4.24911 0 
-6.58807 -4.50111 0 6.26518 -4.85873 0 6.83568 -4.52296 0 
-9.3345 -3.41862 0 -8.56556 -3.30358 0 -7.94792 -3.64148 0 
8.39607 -3.15879 0 -9.9265 -2.49985 0 -9.00029 -2.82913 0 
-9.02766 -2.22895 0 -8.24126 -2.68718 0 9.60612 -2.11581 0 
-11.2934 -1.51292 0 -10.7464 -1.60197 0 -10.7007 -1.0024 0 
-9.84114 -1.82072 0 10.7281 -1.12987 0 10.1087 -1.87819 0 
11.2971 -1.10852 0 -12.1328 -0.0856585 0 -11.6155 -0.477434 0 
-11.4252 -0.965474 0 11.9188 -0.95663 0 11.4302 -0.532774 0 
11.975 -0.25422 0 -15 0.6 0 -14.6429 0 0 
-15 0.8 0 -15 0.2 0 -14.8214 0 0 
-15 0 0 -14.1071 0 0 -15 0.4 0 
-14.2857 0 0 -14.4643 0 0 -13.3929 0 0 
-13.75 0 0 -13.2143 0 0 -13.0357 0 0 
-13.9286 0 0 -13.5714 0 0 -12.3759 0.603947 0 
-12.8571 0 0 -12.6786 0 0 -12.5 0 0 
-11.8837 0.469869 0 -11.4222 0.796732 0 -11.3214 0 0 
-11.5 0 0 -11.1429 0 0 -11.7449 0.0663595 0 
-10.7857 0 0 -10.9643 0 0 -10.4286 0 0 
-10.6071 0 0 -10.0714 0 0 -10.25 0 0 
-9.7143 0 0 -9.5357 0 0 -9.1786 0 0 
-9.8929 0 0 -9.3571 0 0 -8.4 0 0 
-9 0.2 0 -8.2 0 0 -8.8 0 0 
-8.6 0 0 -9 0.6 0 -9 0 0 
-9 0.4 0 -9 0.8 0 -7.6 0 0 
-7.2 0 0 -7.4 0 0 -8 0 0 
-7.8 0 0 -6.8 0 0 -6.6 0 0 
-6.2 0 0 -7 0 0 -6.4 0 0 
-5.2 0 0 -6 0 0 -5.8 0 0 
-5.6 0 0 -5.4 0 0 -4.8 0 0 
-4.6 0 0 -4.4 0 0 -5 0 0 
-4.2 0 0 -4 0 0 -3.6 0 0 
-3.4 0 0 -3.8 0 0 -3.2 0 0 
-3 0 0 -2.2 0 0 -3 0.8 0 
-2.6 0 0 -2.8 0 0 -3 0.6 0 
-3 0.4 0 -2.4 0 0 -3 0.2 0 
-1.2 0 0 -2 0 0 -1.4 0 0 
-1.8 0 0 -1.6 0 0 -1 0 0 
-0.4 0 0 -0.2 0 0 -0.6 0 0 
-0.8 0 0 0.2 0 0 0.8 0 0 
0.6 0 0 -0 0 0 0.4 0 0 
1.4 0 0 1.8 0 0 1.6 0 0 
1.2 0 0 1 0 0 2.8 0 0 
2.4 0 0 2.2 0 0 2 0 0 
2.6 0 0 3.8 0 0 3.6 0 0 
3.4 0 0 3 0.8 0 3 0.6 0 
3 0 0 3 0.4 0 3 0.2 0 
3.2 0 0 4.4 0 0 4.2 0 0 
4.6 0 0 4.8 0 0 4 0 0 
5.2 0 0 5.8 0 0 5 0 0 
5.4 0 0 5.6 0 0 6.2 0 0 
6.4 0 0 6.8 0 0 6.6 0 0 
6 0 0 7 0 0 7.6 0 0 
7.2 0 0 7.4 0 0 7.8 0 0 
8.6 0 0 8.8 0 0 8 0 0 
8.2 0 0 8.4 0 0 9 0.6 0 
9.3571 0 0 9.1786 0 0 9 0.2 0 
9.8929 0 0 9 0 0 9 0.8 0 
9.5357 0 0 9 0.4 0 9.7143 0 0 
10.0714 0 0 10.6071 0 0 10.25 0 0 
10.9643 0 0 10.4286 0 0 10.7857 0 0 
11.3214 0 0 11.1429 0 0 11.4721 0.723688 0 
11.7593 0.226131 0 11.5 0 0 12.5 0 0 
12.6786 0 0 12.4663 0.306612 0 12.0938 0.666213 0 
12.8571 0 0 13.3929 0 0 13.75 0 0 
13.0357 0 0 13.2143 0 0 13.5714 0 0 
13.9286 0 0 14.1071 0 0 14.2857 0 0 
14.6429 0 0 14.4643 0 0 14.8214 0 0 
15 0.2 0 15 0 0 15 0.8 0 
15 0.6 0 15 0.4 0 -15 1.4 0 
-15 1 0 -15 1.8 0 -15 1.2 0 
-15 1.6 0 -11.1904 1.54174 0 -11.8176 1.31441 0 
-11.8442 1.93983 0 -9 1 0 -9 1.2 0 
-9 1.4 0 -9 1.8 0 -9 1.6 0 
-3 1.8 0 -3 1 0 -3 1.2 0 
-3 1.4 0 -3 1.6 0 3 1.6 0 
3 1.4 0 3 1.8 0 3 1 0 
3 1.2 0 9 1 0 9 1.2 0 
9 1.6 0 9 1.8 0 9 1.4 0 
10.8785 1.99045 0 11.5026 1.30967 0 11.848 1.77026 0 
12.3676 1.16734 0 12.393 1.75639 0 15 1.4 0 
15 1 0 15 1.2 0 15 1.6 0 
15 1.8 0 -15 2.8 0 -15 2.4 0 
-15 2 0 -15 2.6 0 -15 2.2 0 
-12.2467 2.97634 0 -11.5999 2.43737 0 -11.045 2.52239 0 
-9 2 0 -9 2.4 0 -9 2.8 0 
-9 2.2 0 -9 2.6 0 -3 2.6 0 
-3 2.8 0 -3 2.2 0 -3 2 0 
-3 2.4 0 3 2.6 0 3 2.4 0 
3 2.8 0 3 2.2 0 3 2 0 
9 2.2 0 9 2.4 0 9 2.6 0 
9 2 0 9 2.8 0 11.1843 2.67178 0 
11.4239 2.16828 0 12.6094 2.24554 0 12.0323 2.37526 0 
12.367 2.82027 0 15 2.8 0 15 2.2 0 
15 2 0 15 2.4 0 15 2.6 0 
-15 3.8 0 -15 3.4 0 -15 3.6 0 
-15 3 0 -15 3.2 0 -11.6704 3.67738 0 
-10.7853 3.29199 0 -9 3.2 0 -9 3.4 0 
-9 3 0 -9 3.6 0 -9 3.8 0 
-3 3.6 0 -3 3 0 -3 3.8 0 
-3 3.4 0 -3 3.2 0 3 3 0 
3 3.4 0 3 3.8 0 3 3.6 0 
3 3.2 0 9 3 0 9 3.4 0 
9 3.8 0 9 3.6 0 9 3.2 0 
10.728 3.78345 0 11.3601 3.476 0 12.9423 3.10454 0 
15 3.6 0 15 3.8 0 15 3 0 
15 3.4 0 15 3.2 0 -15 4.8 0 
-15 4.2 0 -15 4.6 0 -15 4.4 0 
-15 4 0 -11.2984 4.14797 0 -10.7259 4.05484 0 
-10.8263 4.93665 0 -9 4.8 0 -9 4 0 
-9 4.2 0 -9 4.4 0 -9 4.6 0 
-3 4.4 0 -3 4.2 0 -3 4.6 0 
-3 4 0 -3 4.8 0 3 4.8 0 
3 4.2 0 3 4.6 0 3 4 0 
3 4.4 0 9 4.8 0 9 4.2 0 
9 4.6 0 9 4 0 9 4.4 0 
10.9391 4.87789 0 10.329 4.23451 0 11.5709 4.05794 0 
11.062 4.30473 0 12.6853 4.4923 0 15 4 0 
15 4.4 0 15 4.2 0 15 4.8 0 
15 4.6 0 -15 5.8 0 -15 5.4 0 
-15 5.2 0 -15 5 0 -15 5.6 0 
-10.1672 5.91934 0 -10.8012 5.89446 0 -10.1471 5.33074 0 
-9 5.6 0 -9 5 0 -9 5.4 0 
-9 5.8 0 -9 5.2 0 -3 5.2 0 
-3 5.8 0 -3 5.4 0 -3 5 0 
-3 5.6 0 3 5.2 0 3 5.4 0 
3 5.8 0 3 5 0 3 5.6 0 
9 5.8 0 9 5.6 0 9 5.4 0 
9 5.2 0 9 5 0 10.3513 5.01082 0 
15 5 0 15 5.4 0 15 5.6 0 
15 5.8 0 15 5.2 0 -15 6 0 
-15 6.4 0 -15 6.6 0 -15 6.8 0 
-15 6.2 0 -10.0054 6.51235 0 -9 6.8 0 
-9 6.4 0 -9 6.2 0 -9 6.6 0 
-9 6 0 -3 6 0 -3 6.8 0 
-3 6.6 0 -3 6.2 0 -3 6.4 0 
3 6.8 0 3 6.4 0 3 6.2 0 
3 6 0 3 6.6 0 9 6 0 
9 6.6 0 9 6.4 0 9 6.8 0 
9 6.2 0 9.98397 6.83558 0 12.5663 6.04755 0 
12.8262 6.58875 0 13.4656 6.5343 0 15 6.6 0 
15 6.8 0 15 6.2 0 15 6 0 
15 6.4 0 -15 7.8 0 -15 7.6 0 
-15 7 0 -15 7.2 0 -15 7.4 0 
-10.3145 7.37125 0 -9.76617 7.13417 0 -9.59623 7.72891 0 
-9 7.4 0 -9 7 0 -9 7.8 0 
-9 7.2 0 -9 7.6 0 -3 7.2 0 
-3 7.4 0 -3 7.6 0 -3 7 0 
-3 7.8 0 3 7.8 0 3 7.6 0 
3 7.4 0 3 7 0 3 7.2 0 
9 7.6 0 9 7 0 9 7.8 0 
9 7.4 0 9 7.2 0 12.8663 7.41077 0 
13.562 7.08232 0 13.4881 7.57936 0 15 7.4 0 
15 7.6 0 15 7 0 15 7.8 0 
15 7.2 0 -15 8.4 0 -15 8 0 
-15 8.8 0 -15 8.6 0 -15 8.2 0 
-9.04161 8.8772 0 -8.8214 8 0 -8.1071 8 0 
-9 8 0 -8.2857 8 0 -8.6429 8 0 
-8.4643 8 0 -7.75 8 0 -7.5714 8 0 
-7.0357 8 0 -7.2143 8 0 -7.9286 8 0 
-7.3929 8 0 -6.8571 8 0 -6.6786 8 0 
-6.5 8 0 -5.1429 8 0 -5.3214 8 0 
-5.5 8 0 -4.7857 8 0 -4.25 8 0 
-4.4286 8 0 -4.0714 8 0 -4.6071 8 0 
-4.92764 8.96809 0 -4.9643 8 0 -4.28652 8.90566 0 
-3.22451 8.84654 0 -3.3571 8 0 -3.1786 8 0 
-3.7143 8 0 -3.5357 8 0 -3.8929 8 0 
-2.4643 8 0 -2.1071 8 0 -2.2857 8 0 
-2.6429 8 0 -3 8 0 -2.8214 8 0 
-1.2143 8 0 -1.3929 8 0 -1.0357 8 0 
-1.75 8 0 -1.5714 8 0 -1.9286 8 0 
-0.5 8 0 -0.8571 8 0 -0.6786 8 0 
0.8571 8 0 0.5 8 0 0.6786 8 0 
1.0357 8 0 1.3929 8 0 1.9286 8 0 
1.5714 8 0 1.2143 8 0 1.75 8 0 
2.6429 8 0 2.4643 8 0 2.2857 8 0 
2.8214 8 0 2.1071 8 0 3.3571 8 0 
3.5357 8 0 3 8 0 3.8929 8 0 
3.1786 8 0 3.7143 8 0 4.0714 8 0 
4.25 8 0 4.4286 8 0 4.9643 8 0 
4.7857 8 0 4.6071 8 0 5.08103 8.94068 0 
5.5 8 0 5.1429 8 0 5.3214 8 0 
6.8571 8 0 6.6786 8 0 6.5 8 0 
6.60607 8.96793 0 7.3929 8 0 7.0357 8 0 
7.75 8 0 7.5714 8 0 7.26077 8.99448 0 
7.2143 8 0 7.9286 8 0 8.28071 8.92744 0 
8.6429 8 0 8.4643 8 0 8.2857 8 0 
8.1071 8 0 8.8214 8 0 9 8 0 
9 8 0 9.48088 8.08176 0 13.2457 8.32352 0 
13.5296 8.87908 0 15 8.8 0 15 8.4 0 
15 8.2 0 15 8.6 0 15 8 0 
-15 9.2 0 -15 9 0 -15 9.4 0 
-15 9.6 0 -15 9.8 0 13.4072 9.49643 0 
15 9.4 0 15 9 0 15 9.8 0 
15 9.6 0 15 9.2 0 -14.5 10 0 
-15 10.4 0 -15 10.8 0 -14.6667 10 0 
-15 10.2 0 -15 10 0 -15 10.6 0 
-14.1667 10 0 -14.3333 10 0 -14.8333 10 0 
-14 10 0 -13 10 0 -12.2 10 0 
-12.4 10 0 -12.6 10 0 -12.8 10 0 
-11.2 10 0 -12 10 0 -11.8 10 0 
-11.6 10 0 -11.4 10 0 -10.4 10 0 
-10.2 10 0 -10.6 10 0 -11 10 0 
-10.8 10 0 -9.8 10 0 -10 10 0 
-9.6 10 0 -9.4 10 0 -9.2 10 0 
-9 10.2 0 -9 10 0 -9 10.4 0 
-8.1071 10 0 -8.4643 10 0 -9 10.8 0 
-8.8214 10 0 -8.2857 10 0 -8.6429 10 0 
-9 10.6 0 -7.75 10 0 -7.2143 10 0 
-7.9286 10 0 -7.5714 10 0 -7.3929 10 0 
-7.0357 10 0 -6.5 10 0 -6.6786 10 0 
-6.8571 10 0 -5.3214 10 0 -5.5 10 0 
-5.1429 10 0 -4.0714 10 0 -4.4286 10 0 
-4.6071 10 0 -4.7857 10 0 -4.9643 10 0 
-4.25 10 0 -3.7143 10 0 -3.8929 10 0 
-3.3571 10 0 -3.1786 10 0 -3.5357 10 0 
-3 10.6 0 -2.4 10 0 -2.8 10 0 
-3 10.8 0 -3 10.4 0 -2.2 10 0 
-3 10.2 0 -3 10 0 -2.6 10 0 
-1.2 10 0 -2 10 0 -1.8 10 0 
-1.6 10 0 -1.4 10 0 -1 10 0 
-0.6 10 0 -0.8 10 0 -0.2 10 0 
-0.4 10 0 0.2 10 0 -0 10 0 
0.8 10 0 0.4 10 0 0.6 10 0 
1.2 10 0 1.8 10 0 1.4 10 0 
1.6 10 0 1 10 0 2.2 10 0 
2.8 10 0 2 10 0 2.6 10 0 
2.4 10 0 3.2 10 0 3.8 10 0 
3.4 10 0 3 10 0 3.6 10 0 
4.6 10 0 4.2 10 0 4.4 10 0 
4 10 0 4.8 10 0 5.4 10 0 
5.2 10 0 5.8 10 0 5.6 10 0 
5 10 0 6 10 0 6.4 10 0 
6.2 10 0 6.6 10 0 6.8 10 0 
7.4 10 0 7 10 0 7.8 10 0 
7.2 10 0 7.6 10 0 8.6 10 0 
8.2 10 0 8.8 10 0 8.4 10 0 
8 10 0 9 10.2 0 9 10.8 0 
9 10 0 9.6 10 0 9 10.4 0 
9.4 10 0 9.2 10 0 9.8 10 0 
9 10.6 0 10.8 10 0 10.6 10 0 
10.2 10 0 10 10 0 10.4 10 0 
11.2 10 0 11 10 0 11.4 10 0 
11.6 10 0 11.8 10 0 12.4 10 0 
12 10 0 12.8 10 0 12.4725 10.7733 0 
12.2 10 0 12.6 10 0 13.1103 10.7429 0 
13.2966 10.1725 0 13.7481 10.3272 0 13 10 0 
14.1667 10 0 14.6667 10 0 14 10 0 
14.5 10 0 14.3333 10 0 14.8333 10 0 
15 10.2 0 15 10.4 0 15 10.8 0 
15 10.6 0 15 10 0 -15 11.4 0 
-15 11 0 -15 11.6 0 -15 11.8 0 
-15 11.2 0 -9 11.4 0 -9 11.6 0 
-9 11.2 0 -9 11 0 -9 11.8 0 
-3 11 0 -3 11.4 0 -3 11.2 0 
-3 11.8 0 -3 11.6 0 9 11.6 0 
9 11.8 0 9 11.4 0 9 11.2 0 
9 11 0 12.0584 11.5106 0 15 11 0 
15 11.2 0 15 11.8 0 15 11.6 0 
15 11.4 0 -15 12.2 0 -15 12.8 0 
-15 12 0 -15 12.4 0 -15 12.6 0 
-9 12.8 0 -9 12.2 0 -9 12.4 0 
-9 12.6 0 -9 12 0 -3 12.6 0 
-3 12.4 0 -3 12 0 -3 12.2 0 
-3 12.8 0 9 12 0 9 12.2 0 
9 12.4 0 9 12.8 0 9 12.6 0 
10.7386 12.905 0 11.6643 12.039 0 15 12.6 0 
15 12 0 15 12.4 0 15 12.8 0 
15 12.2 0 -15 13 0 -15 13.6 0 
-15 13.4 0 -15 13.8 0 -15 13.2 0 
-9 13 0 -9 13.8 0 -9 13.6 0 
-9 13.2 0 -9 13.4 0 -3 13.4 0 
-3 13.8 0 -3 13.2 0 -3 13 0 
-3 13.6 0 9 13.6 0 9 13 0 
9 13.4 0 9 13.2 0 9 13.8 0 
10.0606 13.625 0 15 13.4 0 15 13.2 0 
15 13.8 0 15 13 0 15 13.6 0 
-15 14.8 0 -15 14.2 0 -15 14.6 0 
-15 14.4 0 -15 14 0 -9 14.2 0 
-9 14 0 -9 14.4 0 -9 14.6 0 
-9 14.8 0 -3 14 0 -3 14.6 0 
-3 14.4 0 -3 14.8 0 -3 14.2 0 
7.79413 14.085 0 8.60827 14.3527 0 9 14 0 
15 14.8 0 15 14.4 0 15 14.2 0 
15 14.6 0 15 14 0 -15 15.6 0 
-15 15.2 0 -15 15.4 0 -15 15.8 0 
-15 15 0 -9 15.6 0 -9 15.8 0 
-9 15.4 0 -9 15 0 -9 15.2 0 
-3 15.8 0 -3 15.2 0 -3 15.4 0 
-3 15.6 0 -3 15 0 9 15.3333 0 
9 15 0 9 15.5 0 9 15.8333 0 
9 15.1667 0 9 15.6667 0 15 15.8 0 
15 15 0 15 15.6 0 15 15.4 0 
15 15.2 0 -14.4 16 0 -14.2 16 0 
-14.8 16 0 -14.6 16 0 -15 16 0 
-13.4 16 0 -14 16 0 -13.2 16 0 
-13.6 16 0 -13.8 16 0 -12.4 16 0 
-13 16 0 -12.6 16 0 -12.2 16 0 
-12.8 16 0 -11.4 16 0 -11.6 16 0 
-11.2 16 0 -12 16 0 -11.8 16 0 
-10.2 16 0 -11 16 0 -10.8 16 0 
-10.4 16 0 -10.6 16 0 -9.4 16 0 
-9.8 16 0 -10 16 0 -9.2 16 0 
-9.6 16 0 -8.8 16 0 -8.2 16 0 
-8.4 16 0 -8.6 16 0 -9 16 0 
-8 16 0 -7.4 16 0 -7.2 16 0 
-7.6 16 0 -7.8 16 0 -6.4 16 0 
-6.8 16 0 -6.6 16 0 -7 16 0 
-6.2 16 0 -5.2 16 0 -5.8 16 0 
-6 16 0 -5.4 16 0 -5.6 16 0 
-5 16 0 -4.6 16 0 -4.2 16 0 
-4.4 16 0 -4.8 16 0 -3.8 16 0 
-3.6 16 0 -3.4 16 0 -3.2 16 0 
-4 16 0 -3 16 0 -2.6 16 0 
-2.8 16 0 -2.4 16 0 -2.2 16 0 
-1.4 16 0 -1.6 16 0 -1.8 16 0 
-1.2 16 0 -2 16 0 -0.8 16 0 
-0.6 16 0 -0.4 16 0 -0.2 16 0 
-1 16 0 0.4 16 0 -0 16 0 
0.6 16 0 0.8 16 0 0.2 16 0 
1.2 16 0 1.4 16 0 1.8 16 0 
1 16 0 1.6 16 0 2 16 0 
2.8 16 0 2.2 16 0 2.4 16 0 
2.6 16 0 3.2 16 0 3.4 16 0 
3 16 0 3.6 16 0 3.8 16 0 
4 16 0 4.2 16 0 4.4 16 0 
4.6 16 0 4.8 16 0 5 16 0 
5.6 16 0 5.8 16 0 5.4 16 0 
5.2 16 0 6.4 16 0 6.8 16 0 
6.6 16 0 6.2 16 0 6 16 0 
7.4 16 0 7 16 0 7.6 16 0 
7.8 16 0 7.2 16 0 8 16 0 
8.8 16 0 8.2 16 0 8.4 16 0 
8.6 16 0 9 16 0 9.2 16 0 
9.8 16 0 9.4 16 0 9.6 16 0 
10 16 0 10.2 16 0 10.4 16 0 
10.6 16 0 10.8 16 0 11.4 16 0 
11.8 16 0 11 16 0 11.6 16 0 
11.2 16 0 12.4 16 0 12.8 16 0 
12.6 16 0 12.2 16 0 12 16 0 
13 16 0 13.8 16 0 13.4 16 0 
13.6 16 0 13.2 16 0 14.8 16 0 
14 16 0 14.2 16 0 14.4 16 0 
14.6 16 0 15 16 0 
VERTICES 2098 2098
1 0 
1 1 
1 2 
1 3 
1 4 
1 5 
1 6 
1 7 
1 8 
1 9 
1 10 
1 11 
1 12 
1 13 
1 14 
1 15 
1 16 
1 17 
1 18 
1 19 
1 20 
1 21 
1 22 
1 23 
1 24 
1 25 
1 26 
1 27 
1 28 
1 29 
1 30 
1 31 
1 32 
1 33 
1 34 
1 35 
1 36 
1 37 
1 38 
1 39 
1 40 
1 41 
1 42 
1 43 
1 44 
1 45 
1 46 
1 47 
1 48 
1 49 
1 50 
1 51 
1 52 
1 53 
1 54 
1 55 
1 56 
1 57 
1 58 
1 59 
1 60 
1 61 
1 62 
1 63 
1 64 
1 65 
1 66 
1 67 
1 68 
1 69 
1 70 
1 71 
1 72 
1 73 
1 74 
1 75 
1 76 
1 77 
1 78 
1 79 
1 80 
1 81 
1 82 
1 83 
1 84 
1 85 
1 86 
1 87 
1 88 
1 89 
1 90 
1 91 
1 92 
1 93 
1 94 
1 95 
1 96 
1 97 
1 98 
1 99 
1 100 
1 101 
1 102 
1 103 
1 104 
1 105 
1 106 
1 107 
1 108 
1 109 
1 110 
1 111 
1 112 
1 113 
1 114 
1 115 
1 116 
1 117 
1 118 
1 119 
1 120 
1 121 
1 122 
1 123 
1 124 
1 125 
1 126 
1 127 
1 128 
1 129 
1 130 
1 131 
1 132 
1 133 
1 134 
1 135 
1 136 
1 137 
1 138 
1 139 
1 140 
1 141 
1 142 
1 143 
1 144 
1 145 
1 146 
1 147 
1 148 
1 149 
1 150 
1 151 
1 152 
1 153 
1 154 
1 155 
1 156 
1 157 
1 158 
1 159 
1 160 
1 161 
1 162 
1 163 
1 164 
1 165 
1 166 
1 167 
1 168 
1 169 
1 170 
1 171 
1 172 
1 173 
1 174 
1 175 
1 176 
1 177 
1 178 
1 179 
1 180 
1 181 
1 182 
1 183 
1 184 
1 185 
1 186 
1 187 
1 188 
1 189 
1 190 
1 191 
1 192 
1 193 
1 194 
1 195 
1 196 
1 197 
1 198 
1 199 
1 200 
1 201 
1 202 
1 203 
1 204 
1 205 
1 206 
1 207 
1 208 
1 209 
1 210 
1 211 
1 212 
1 213 
1 214 
1 215 
1 216 
1 217 
1 218 
1 219 
1 220 
1 221 
1 222 
1 223 
1 224 
1 225 
1 226 
1 227 
1 228 
1 229 
1 230 
1 231 
1 232 
1 233 
1 234 
1 235 
1 236 
1 237 
1 238 
1 239 
1 240 
1 241 
1 242 
1 243 
1 244 
1 245 
1 246 
1 247 
1 248 
1 249 
1 250 
1 251 
1 252 
1 253 
1 254 
1 255 
1 256 
1 257 
1 258 
1 259 
1 260 
1 261 
1 262 
1 263 
1 264 
1 265 
1 266 
1 267 
1 268 
1 269 
1 270 
1 271 
1 272 
1 273 
1 274 
1 275 
1 276 
1 277 
1 278 
1 279 
1 280 
1 281 
1 282 
1 283 
1 284 
1 285 
1 286 
1 287 
1 288 
1 289 
1 290 
1 291 
1 292 
1 293 
1 294 
1 295 
1 296 
1 297 
1 298 
1 299 
1 300 
1 301 
1 302 
1 303 
1 304 
1 305 
1 306 
1 307 
1 308 
1 309 
1 310 
1 311 
1 312 
1 313 
1 314 
1 315 
1 316 
1 317 
1 318 
1 319 
1 320 
1 321 
1 322 
1 323 
1 324 
1 325 
1 326 
1 327 
1 328 
1 329 
1 330 
1 331 
1 332 
1 333 
1 334 
1 335 
1 336 
1 337 
1 338 
1 339 
1 340 
1 341 
1 342 
1 343 
1 344 
1 345 
1 346 
1 347 
1 348 
1 349 
1 350 
1 351 
1 352 
1 353 
1 354 
1 355 
1 356 
1 357 
1 358 
1 359 
1 360 
1 361 
1 362 
1 363 
1 364 
1 365 
1 366 
1 367 
1 368 
1 369 
1 370 
1 371 
1 372 
1 373 
1 374 
1 375 
1 376 
1 377 
1 378 
1 379 
1 380 
1 381 
1 382 
1 383 
1 384 
1 385 
1 386 
1 387 
1 388 
1 389 
1 390 
1 391 
1 392 
1 393 
1 394 
1 395 
1 396 
1 397 
1 398 
1 399 
1 400 
1 401 
1 402 
1 403 
1 404 
1 405 
1 406 
1 407 
1 408 
1 409 
1 410 
1 411 
1 412 
1 413 
1 414 
1 415 
1 416 
1 417 
1 418 
1 419 
1 420 
1 421 
1 422 
1 423 
1 424 
1 425 
1 426 
1 427 
1 428 
1 429 
1 430 
1 431 
1 432 
1 433 
1 434 
1 435 
1 436 
1 437 
1 438 
1 439 
1 440 
1 441 
1 442 
1 443 
1 444 
1 445 
1 446 
1 447 
1 448 
1 449 
1 450 
1 451 
1 452 
1 453 
1 454 
1 455 
1 456 
1 457 
1 458 
1 459 
1 460 
1 461 
1 462 
1 463 
1 464 
1 465 
1 466 
1 467 
1 468 
1 469 
1 470 
1 471 
1 472 
1 473 
1 474 
1 475 
1 476 
1 477 
1 478 
1 479 
1 480 
1 481 
1 482 
1 483 
1 484 
1 485 
1 486 
1 487 
1 488 
1 489 
1 490 
1 491 
1 492 
1 493 
1 494 
1 495 
1 496 
1 497 
1 498 
1 499 
1 500 
1 501 
1 502 
1 503 
1 504 
1 505 
1 506 
1 507 
1 508 
1 509 
1 510 
1 511 
1 512 
1 513 
1 514 
1 515 
1 516 
1 517 
1 518 
1 519 
1 520 
1 521 
1 522 
1 523 
1 524 
1 525 
1 526 
1 527 
1 528 
1 529 
1 530 
1 531 
1 532 
1 533 
1 534 
1 535 
1 536 
1 537 
1 538 
1 539 
1 540 
1 541 
1 542 
1 543 
1 544 
1 545 
1 546 
1 547 
1 548 
1 549 
1 550 
1 551 
1 552 
1 553 
1 554 
1 555 
1 556 
1 557 
1 558 
1 559 
1 560 
1 561 
1 562 
1 563 
1 564 
1 565 
1 566 
1 567 
1 568 
1 569 
1 570 
1 571 
1 572 
1 573 
1 574 
1 575 
1 576 
1 577 
1 578 
1 579 
1 580 
1 581 
1 582 
1 583 
1 584 
1 585 
1 586 
1 587 
1 588 
1 589 
1 590 
1 591 
1 592 
1 593 
1 594 
1 595 
1 596 
1 597 
1 598 
1 599 
1 600 
1 601 
1 602 
1 603 
1 604 
1 605 
1 606 
1 607 
1 608 
1 609 
1 610 
1 611 
1 612 
1 613 
1 614 
1 615 
1 616 
1 617 
1 618 
1 619 
1 620 
1 621 
1 622 
1 623 
1 624 
1 625 
1 626 
1 627 
1 628 
1 629 
1 630 
1 631 
1 632 
1 633 
1 634 
1 635 
1 636 
1 637 
1 638 
1 639 
1 640 
1 641 
1 642 
1 643 
1 644 
1 645 
1 646 
1 647 
1 648 
1 649 
1 650 
1 651 
1 652 
1 653 
1 654 
1 655 
1 656 
1 657 
1 658 
1 659 
1 660 
1 661 
1 662 
1 663 
1 664 
1 665 
1 666 
1 667 
1 668 
1 669 
1 670 
1 671 
1 672 
1 673 
1 674 
1 675 
1 676 
1 677 
1 678 
1 679 
1 680 
1 681 
1 682 
1 683 
1 684 
1 685 
1 686 
1 687 
1 688 
1 689 
1 690 
1 691 
1 692 
1 693 
1 694 
1 695 
1 696 
1 697 
1 698 
1 699 
1 700 
1 701 
1 702 
1 703 
1 704 
1 705 
1 706 
1 707 
1 708 
1 709 
1 710 
1 711 
1 712 
1 713 
1 714 
1 715 
1 716 
1 717 
1 718 
1 719 
1 720 
1 721 
1 722 
1 723 
1 724 
1 725 
1 726 
1 727 
1 728 
1 729 
1 730 
1 731 
1 732 
1 733 
1 734 
1 735 
1 736 
1 737 
1 738 
1 739 
1 740 
1 741 
1 742 
1 743 
1 744 
1 745 
1 746 
1 747 
1 748 
1 749 
1 750 
1 751 
1 752 
1 753 
1 754 
1 755 
1 756 
1 757 
1 758 
1 759 
1 760 
1 761 
1 762 
1 763 
1 764 
1 765 
1 766 
1 767 
1 768 
1 769 
1 770 
1 771 
1 772 
1 773 
1 774 
1 775 
1 776 
1 777 
1 778 
1 779 
1 780 
1 781 
1 782 
1 783 
1 784 
1 785 
1 786 
1 787 
1 788 
1 789 
1 790 
1 791 
1 792 
1 793 
1 794 
1 795 
1 796 
1 797 
1 798 
1 799 
1 800 
1 801 
1 802 
1 803 
1 804 
1 805 
1 806 
1 807 
1 808 
1 809 
1 810 
1 811 
1 812 
1 813 
1 814 
1 815 
1 816 
1 817 
1 818 
1 819 
1 820 
1 821 
1 822 
1 823 
1 824 
1 825 
1 826 
1 827 
1 828 
1 829 
1 830 
1 831 
1 832 
1 833 
1 834 
1 835 
1 836 
1 837 
1 838 
1 839 
1 840 
1 841 
1 842 
1 843 
1 844 
1 845 
1 846 
1 847 
1 848 
1 849 
1 850 
1 851 
1 852 
1 853 
1 854 
1 855 
1 856 
1 857 
1 858 
1 859 
1 860 
1 861 
1 862 
1 863 
1 864 
1 865 
1 866 
1 867 
1 868 
1 869 
1 870 
1 871 
1 872 
1 873 
1 874 
1 875 
1 876 
1 877 
1 878 
1 879 
1 880 
1 881 
1 882 
1 883 
1 884 
1 885 
1 886 
1 887 
1 888 
1 889 
1 890 
1 891 
1 892 
1 893 
1 894 
1 895 
1 896 
1 897 
1 898 
1 899 
1 900 
1 901 
1 902 
1 903 
1 904 
1 905 
1 906 
1 907 
1 908 
1 909 
1 910 
1 911 
1 912 
1 913 
1 914 
1 915 
1 916 
1 917 
1 918 
1 919 
1 920 
1 921 
1 922 
1 923 
1 924 
1 925 
1 926 
1 927 
1 928 
1 929 
1 930 
1 931 
1 932 
1 933 
1 934 
1 935 
1 936 
1 937 
1 938 
1 939 
1 940 
1 941 
1 942 
1 943 
1 944 
1 945 
1 946 
1 947 
1 948 
1 949 
1 950 
1 951 
1 952 
1 953 
1 954 
1 955 
1 956 
1 957 
1 958 
1 959 
1 960 
1 961 
1 962 
1 963 
1 964 
1 965 
1 966 
1 967 
1 968 
1 969 
1 970 
1 971 
1 972 
1 973 
1 974 
1 975 
1 976 
1 977 
1 978 
1 979 
1 980 
1 981 
1 982 
1 983 
1 984 
1 985 
1 986 
1 987 
1 988 
1 989 
1 990 
1 991 
1 992 
1 993 
1 994 
1 995 
1 996 
1 997 
1 998 
1 999 
1 1000 
1 1001 
1 1002 
1 1003 
1 1004 
1 1005 
1 1006 
1 1007 
1 1008 
1 1009 
1 1010 
1 1011 
1 1012 
1 1013 
1 1014 
1 1015 
1 1016 
1 1017 
1 1018 
1 1019 
1 1020 
1 1021 
1 1022 
1 1023 
1 1024 
1 1025 
1 1026 
1 1027 
1 1028 
1 1029 
1 1030 
1 1031 
1 1032 
1 1033 
1 1034 
1 1035 
1 1036 
1 1037 
1 1038 
1 1039 
1 1040 
1 1041 
1 1042 
1 1043 
1 1044 
1 1045 
1 1046 
1 1047 
1 1048 

POINT_DATA 1049
SCALARS id double
LOOKUP_TABLE default
980 1027 977 1048 964 993 983 1036 1020 
951 1032 1033 1024 945 976 978 1045 966 
968 975 1004 990 955 972 995 933 1040 
941 1041 1005 942 947 1016 1026 954 1018 
969 987 1028 932 936 1008 1047 962 930 
1037 389 40 388 391 39 0 43 390 
42 41 47 45 48 49 44 46 1042 
50 51 1 1014 985 52 2 53 939 
55 54 57 56 59 58 61 62 64 
60 63 67 392 68 65 66 394 3 
393 395 71 73 72 69 70 75 76 
78 74 77 83 79 80 81 82 85 
86 87 84 88 89 91 92 90 93 
4 97 492 95 94 493 494 96 495 
102 98 101 99 100 103 106 107 105 
104 109 112 111 108 110 115 117 116 
114 113 122 120 119 118 121 126 125 
124 557 558 5 559 560 123 129 128 
130 131 127 133 136 132 134 135 138 
139 141 140 137 142 145 143 144 146 
150 151 147 148 149 589 153 152 587 
156 6 590 154 588 155 157 160 158 
162 159 161 164 163 1022 960 7 8 
165 1009 986 166 169 171 167 168 170 
172 173 174 176 175 177 178 9 181 
180 179 385 387 383 386 384 989 998 
965 396 397 398 400 399 487 491 490 
489 488 553 554 552 556 555 591 592 
594 595 593 1029 973 997 1011 1030 184 
182 183 185 186 378 380 382 379 381 
967 984 1038 401 403 405 402 404 483 
482 485 486 484 548 549 547 550 551 
597 598 599 596 600 988 1043 946 999 
929 191 188 187 189 190 373 375 374 
377 376 952 953 407 408 406 409 410 
478 481 477 479 480 546 544 542 543 
545 601 603 605 604 602 1025 950 1015 
195 196 192 194 193 368 371 369 370 
372 992 1007 1012 415 411 412 413 414 
474 475 473 476 472 537 540 538 541 
539 610 607 609 606 608 1044 1019 994 
979 934 197 199 198 201 200 363 365 
366 367 364 1000 935 1017 419 416 418 
420 417 470 467 469 471 468 535 534 
532 536 533 615 614 613 612 611 937 
202 204 205 206 203 362 360 359 358 
361 971 425 423 422 424 421 466 462 
463 465 464 527 529 530 531 528 616 
619 618 620 617 1002 943 958 1013 210 
211 208 207 209 353 354 357 356 355 
1021 1031 944 428 426 430 427 429 460 
459 458 461 457 522 523 524 526 525 
624 621 625 623 622 931 940 949 214 
215 212 216 213 350 352 348 349 351 
1003 431 435 10 434 432 433 437 438 
441 440 436 439 442 443 11 445 444 
12 447 450 449 451 448 1034 446 1006 
963 455 456 453 454 452 498 500 499 
497 13 496 505 504 506 502 503 501 
14 507 508 510 15 509 511 513 516 
514 512 515 520 519 518 521 517 562 
563 16 565 561 564 566 567 568 571 
570 569 1010 17 572 573 575 574 18 
981 578 576 580 579 1023 577 581 974 
585 584 583 582 586 34 19 1001 1035 
959 221 219 218 220 217 346 347 345 
344 343 957 224 222 226 225 223 662 
341 339 661 342 20 340 664 663 660 
21 22 668 667 666 665 673 669 670 
671 672 677 678 676 674 675 680 679 
681 682 683 684 23 685 717 715 687 
713 716 714 686 719 722 718 720 721 
723 36 725 724 726 37 727 733 731 
730 729 728 732 735 734 737 738 736 
633 741 739 634 632 742 631 24 740 
747 743 744 745 746 748 750 749 752 
751 754 753 757 755 756 759 762 760 
761 758 764 767 763 766 765 769 772 
770 768 771 776 774 775 773 777 780 
779 782 781 778 783 785 784 786 787 
790 788 792 789 791 796 794 797 795 
793 817 820 35 800 818 799 798 801 
819 806 805 803 802 804 808 807 809 
810 811 814 812 816 1046 813 815 961 
956 948 25 630 627 26 628 629 626 
227 228 230 229 27 336 338 335 334 
337 690 691 689 688 692 635 637 636 
639 638 824 825 823 822 821 1039 231 
232 235 234 233 332 329 333 331 330 
697 694 695 696 693 643 642 640 641 
644 826 827 828 830 829 991 938 239 
236 238 240 237 328 325 326 324 327 
698 702 701 699 700 647 649 646 645 
648 834 831 833 832 835 982 243 242 
245 241 244 319 322 320 321 323 704 
703 705 706 707 650 653 652 654 651 
996 970 29 250 248 247 249 246 315 
317 316 314 318 711 712 710 708 709 
659 656 657 658 655 925 28 926 928 
924 927 255 251 254 253 252 311 310 
313 312 30 306 309 305 307 308 301 
304 302 300 303 296 297 295 299 298 
290 294 293 291 292 286 288 289 285 
287 284 281 282 283 31 280 277 276 
278 279 272 274 273 275 271 266 269 
270 267 268 265 263 261 262 264 259 
258 257 256 260 32 837 836 838 839 
843 842 841 844 840 846 847 848 849 
845 852 850 853 854 851 856 857 859 
855 858 860 864 861 862 863 866 867 
865 868 869 870 871 872 873 874 875 
878 879 877 876 882 884 883 881 880 
887 885 888 889 886 890 894 891 892 
893 38 895 898 896 897 899 900 901 
902 903 906 908 904 907 905 911 913 
912 910 909 914 918 916 917 915 923 
919 920 921 922 33 
FIELD FieldData 14
r 3 1049 double
-0.46677 -10.0037 0 0.051905 -10.0388 0 -0.50401 -9.45796 0 
0.00664595 -9.52499 0 2.08942 -8.33094 0 -3.41104 -7.70902 0 
2.09461 -7.74078 0 2.72142 -7.60099 0 3.65688 -7.53224 0 
4.17213 -7.26221 0 -4.73452 -6.08877 0 -3.5293 -6.87885 0 
3.56471 -6.82684 0 4.1907 -6.42932 0 5.04429 -6.60287 0 
-6.17399 -5.76207 0 -6.06184 -5.0483 0 -5.27147 -5.56382 0 
-4.32276 -5.64134 0 5.18417 -5.74125 0 -7.12334 -4.24911 0 
-6.58807 -4.50111 0 6.26518 -4.85873 0 6.83568 -4.52296 0 
-9.3345 -3.41862 0 -8.56556 -3.30358 0 -7.94792 -3.64148 0 
8.39607 -3.15879 0 -9.9265 -2.49985 0 -9.00029 -2.82913 0 
-9.02766 -2.22895 0 -8.24126 -2.68718 0 9.60612 -2.11581 0 
-11.2934 -1.51292 0 -10.7464 -1.60197 0 -10.7007 -1.0024 0 
-9.84114 -1.82072 0 10.7281 -1.12987 0 10.1087 -1.87819 0 
11.2971 -1.10852 0 -12.1328 -0.0856585 0 -11.6155 -0.477434 0 
-11.4252 -0.965474 0 11.9188 -0.95663 0 11.4302 -0.532774 0 
11.975 -0.25422 0 -15 0.6 0 -14.6429 0 0 
-15 0.8 0 -15 0.2 0 -14.8214 0 0 
-15 0 0 -14.1071 0 0 -15 0.4 0 
-14.2857 0 0 -14.4643 0 0 -13.3929 0 0 
-13.75 0 0 -13.2143 0 0 -13.0357 0 0 
-13.9286 0 0 -13.5714 0 0 -12.3759 0.603947 0 
-12.8571 0 0 -12.6786 0 0 -12.5 0 0 
-11.8837 0.469869 0 -11.4222 0.796732 0 -11.3214 0 0 
-11.5 0 0 -11.1429 0 0 -11.7449 0.0663595 0 
-10.7857 0 0 -10.9643 0 0 -10.4286 0 0 
-10.6071 0 0 -10.0714 0 0 -10.25 0 0 
-9.7143 0 0 -9.5357 0 0 -9.1786 0 0 
-9.8929 0 0 -9.3571 0 0 -8.4 0 0 
-9 0.2 0 -8.2 0 0 -8.8 0 0 
-8.6 0 0 -9 0.6 0 -9 0 0 
-9 0.4 0 -9 0.8 0 -7.6 0 0 
-7.2 0 0 -7.4 0 0 -8 0 0 
-7.8 0 0 -6.8 0 0 -6.6 0 0 
-6.2 0 0 -7 0 0 -6.4 0 0 
-5.2 0 0 -6 0 0 -5.8 0 0 
-5.6 0 0 -5.4 0 0 -4.8 0 0 
-4.6 0 0 -4.4 0 0 -5 0 0 
-4.2 0 0 -4 0 0 -3.6 0 0 
-3.4 0 0 -3.8 0 0 -3.2 0 0 
-3 0 0 -2.2 0 0 -3 0.8 0 
-2.6 0 0 -2.8 0 0 -3 0.6 0 
-3 0.4 0 -2.4 0 0 -3 0.2 0 
-1.2 0 0 -2 0 0 -1.4 0 0 
-1.8 0 0 -1.6 0 0 -1 0 0 
-0.4 0 0 -0.2 0 0 -0.6 0 0 
-0.8 0 0 0.2 0 0 0.8 0 0 
0.6 0 0 -0 0 0 0.4 0 0 
1.4 0 0 1.8 0 0 1.6 0 0 
1.2 0 0 1 0 0 2.8 0 0 
2.4 0 0 2.2 0 0 2 0 0 
2.6 0 0 3.8 0 0 3.6 0 0 
3.4 0 0 3 0.8 0 3 0.6 0 
3 0 0 3 0.4 0 3 0.2 0 
3.2 0 0 4.4 0 0 4.2 0 0 
4.6 0 0 4.8 0 0 4 0 0 
5.2 0 0 5.8 0 0 5 0 0 
5.4 0 0 5.6 0 0 6.2 0 0 
6.4 0 0 6.8 0 0 6.6 0 0 
6 0 0 7 0 0 7.6 0 0 
7.2 0 0 7.4 0 0 7.8 0 0 
8.6 0 0 8.8 0 0 8 0 0 
8.2 0 0 8.4 0 0 9 0.6 0 
9.3571 0 0 9.1786 0 0 9 0.2 0 
9.8929 0 0 9 0 0 9 0.8 0 
9.5357 0 0 9 0.4 0 9.7143 0 0 
10.0714 0 0 10.6071 0 0 10.25 0 0 
10.9643 0 0 10.4286 0 0 10.7857 0 0 
11.3214 0 0 11.1429 0 0 11.4721 0.723688 0 
11.7593 0.226131 0 11.5 0 0 12.5 0 0 
12.6786 0 0 12.4663 0.306612 0 12.0938 0.666213 0 
12.8571 0 0 13.3929 0 0 13.75 0 0 
13.0357 0 0 13.2143 0 0 13.5714 0 0 
13.9286 0 0 14.1071 0 0 14.2857 0 0 
14.6429 0 0 14.4643 0 0 14.8214 0 0 
15 0.2 0 15 0 0 15 0.8 0 
15 0.6 0 15 0.4 0 -15 1.4 0 
-15 1 0 -15 1.8 0 -15 1.2 0 
-15 1.6 0 -11.1904 1.54174 0 -11.8176 1.31441 0 
-11.8442 1.93983 0 -9 1 0 -9 1.2 0 
-9 1.4 0 -9 1.8 0 -9 1.6 0 
-3 1.8 0 -3 1 0 -3 1.2 0 
-3 1.4 0 -3 1.6 0 3 1.6 0 
3 1.4 0 3 1.8 0 3 1 0 
3 1.2 0 9 1 0 9 1.2 0 
9 1.6 0 9 1.8 0 9 1.4 0 
10.8785 1.99045 0 11.5026 1.30967 0 11.848 1.77026 0 
12.3676 1.16734 0 12.393 1.75639 0 15 1.4 0 
15 1 0 15 1.2 0 15 1.6 0 
15 1.8 0 -15 2.8 0 -15 2.4 0 
-15 2 0 -15 2.6 0 -15 2.2 0 
-12.2467 2.97634 0 -11.5999 2.43737 0 -11.045 2.52239 0 
-9 2 0 -9 2.4 0 -9 2.8 0 
-9 2.2 0 -9 2.6 0 -3 2.6 0 
-3 2.8 0 -3 2.2 0 -3 2 0 
-3 2.4 0 3 2.6 0 3 2.4 0 
3 2.8 0 3 2.2 0 3 2 0 
9 2.2 0 9 2.4 0 9 2.6 0 
9 2 0 9 2.8 0 11.1843 2.67178 0 
11.4239 2.16828 0 12.6094 2.24554 0 12.0323 2.37526 0 
12.367 2.82027 0 15 2.8 0 15 2.2 0 
15 2 0 15 2.4 0 15 2.6 0 
-15 3.8 0 -15 3.4 0 -15 3.6 0 
-15 3 0 -15 3.2 0 -11.6704 3.67738 0 
-10.7853 3.29199 0 -9 3.2 0 -9 3.4 0 
-9 3 0 -9 3.6 0 -9 3.8 0 
-3 3.6 0 -3 3 0 -3 3.8 0 
-3 3.4 0 -3 3.2 0 3 3 0 
3 3.4 0 3 3.8 0 3 3.6 0 
3 3.2 0 9 3 0 9 3.4 0 
9 3.8 0 9 3.6 0 9 3.2 0 
10.728 3.78345 0 11.3601 3.476 0 12.9423 3.10454 0 
15 3.6 0 15 3.8 0 15 3 0 
15 3.4 0 15 3.2 0 -15 4.8 0 
-15 4.2 0 -15 4.6 0 -15 4.4 0 
-15 4 0 -11.2984 4.14797 0 -10.7259 4.05484 0 
-10.8263 4.93665 0 -9 4.8 0 -9 4 0 
-9 4.2 0 -9 4.4 0 -9 4.6 0 
-3 4.4 0 -3 4.2 0 -3 4.6 0 
-3 4 0 -3 4.8 0 3 4.8 0 
3 4.2 0 3 4.6 0 3 4 0 
3 4.4 0 9 4.8 0 9 4.2 0 
9 4.6 0 9 4 0 9 4.4 0 
10.9391 4.87789 0 10.329 4.23451 0 11.5709 4.05794 0 
11.062 4.30473 0 12.6853 4.4923 0 15 4 0 
15 4.4 0 15 4.2 0 15 4.8 0 
15 4.6 0 -15 5.8 0 -15 5.4 0 
-15 5.2 0 -15 5 0 -15 5.6 0 
-10.1672 5.91934 0 -10.8012 5.89446 0 -10.1471 5.33074 0 
-9 5.6 0 -9 5 0 -9 5.4 0 
-9 5.8 0 -9 5.2 0 -3 5.2 0 
-3 5.8 0 -3 5.4 0 -3 5 0 
-3 5.6 0 3 5.2 0 3 5.4 0 
3 5.8 0 3 5 0 3 5.6 0 
9 5.8 0 9 5.6 0 9 5.4 0 
9 5.2 0 9 5 0 10.3513 5.01082 0 
15 5 0 15 5.4 0 15 5.6 0 
15 5.8 0 15 5.2 0 -15 6 0 
-15 6.4 0 -15 6.6 0 -15 6.8 0 
-15 6.2 0 -10.0054 6.51235 0 -9 6.8 0 
-9 6.4 0 -9 6.2 0 -9 6.6 0 
-9 6 0 -3 6 0 -3 6.8 0 
-3 6.6 0 -3 6.2 0 -3 6.4 0 
3 6.8 0 3 6.4 0 3 6.2 0 
3 6 0 3 6.6 0 9 6 0 
9 6.6 0 9 6.4 0 9 6.8 0 
9 6.2 0 9.98397 6.83558 0 12.5663 6.04755 0 
12.8262 6.58875 0 13.4656 6.5343 0 15 6.6 0 
15 6.8 0 15 6.2 0 15 6 0 
15 6.4 0 -15 7.8 0 -15 7.6 0 
-15 7 0 -15 7.2 0 -15 7.4 0 
-10.3145 7.37125 0 -9.76617 7.13417 0 -9.59623 7.72891 0 
-9 7.4 0 -9 7 0 -9 7.8 0 
-9 7.2 0 -9 7.6 0 -3 7.2 0 
-3 7.4 0 -3 7.6 0 -3 7 0 
-3 7.8 0 3 7.8 0 3 7.6 0 
3 7.4 0 3 7 0 3 7.2 0 
9 7.6 0 9 7 0 9 7.8 0 
9 7.4 0 9 7.2 0 12.8663 7.41077 0 
13.562 7.08232 0 13.4881 7.57936 0 15 7.4 0 
15 7.6 0 15 7 0 15 7.8 0 
15 7.2 0 -15 8.4 0 -15 8 0 
-15 8.8 0 -15 8.6 0 -15 8.2 0 
-9.04161 8.8772 0 -8.8214 8 0 -8.1071 8 0 
-9 8 0 -8.2857 8 0 -8.6429 8 0 
-8.4643 8 0 -7.75 8 0 -7.5714 8 0 
-7.0357 8 0 -7.2143 8 0 -7.9286 8 0 
-7.3929 8 0 -6.8571 8 0 -6.6786 8 0 
-6.5 8 0 -5.1429 8 0 -5.3214 8 0 
-5.5 8 0 -4.7857 8 0 -4.25 8 0 
-4.4286 8 0 -4.0714 8 0 -4.6071 8 0 
-4.92764 8.96809 0 -4.9643 8 0 -4.28652 8.90566 0 
-3.22451 8.84654 0 -3.3571 8 0 -3.1786 8 0 
-3.7143 8 0 -3.5357 8 0 -3.8929 8 0 
-2.4643 8 0 -2.1071 8 0 -2.2857 8 0 
-2.6429 8 0 -3 8 0 -2.8214 8 0 
-1.2143 8 0 -1.3929 8 0 -1.0357 8 0 
-1.75 8 0 -1.5714 8 0 -1.9286 8 0 
-0.5 8 0 -0.8571 8 0 -0.6786 8 0 
0.8571 8 0 0.5 8 0 0.6786 8 0 
1.0357 8 0 1.3929 8 0 1.9286 8 0 
1.5714 8 0 1.2143 8 0 1.75 8 0 
2.6429 8 0 2.4643 8 0 2.2857 8 0 
2.8214 8 0 2.1071 8 0 3.3571 8 0 
3.5357 8 0 3 8 0 3.8929 8 0 
3.1786 8 0 3.7143 8 0 4.0714 8 0 
4.25 8 0 4.4286 8 0 4.9643 8 0 
4.7857 8 0 4.6071 8 0 5.08103 8.94068 0 
5.5 8 0 5.1429 8 0 5.3214 8 0 
6.8571 8 0 6.6786 8 0 6.5 8 0 
6.60607 8.96793 0 7.3929 8 0 7.0357 8 0 
7.75 8 0 7.5714 8 0 7.26077 8.99448 0 
7.2143 8 0 7.9286 8 0 8.28071 8.92744 0 
8.6429 8 0 8.4643 8 0 8.2857 8 0 
8.1071 8 0 8.8214 8 0 9 8 0 
9 8 0 9.48088 8.08176 0 13.2457 8.32352 0 
13.5296 8.87908 0 15 8.8 0 15 8.4 0 
15 8.2 0 15 8.6 0 15 8 0 
-15 9.2 0 -15 9 0 -15 9.4 0 
-15 9.6 0 -15 9.8 0 13.4072 9.49643 0 
15 9.4 0 15 9 0 15 9.8 0 
15 9.6 0 15 9.2 0 -14.5 10 0 
-15 10.4 0 -15 10.8 0 -14.6667 10 0 
-15 10.2 0 -15 10 0 -15 10.6 0 
-14.1667 10 0 -14.3333 10 0 -14.8333 10 0 
-14 10 0 -13 10 0 -12.2 10 0 
-12.4 10 0 -12.6 10 0 -12.8 10 0 
-11.2 10 0 -12 10 0 -11.8 10 0 
-11.6 10 0 -11.4 10 0 -10.4 10 0 
-10.2 10 0 -10.6 10 0 -11 10 0 
-10.8 10 0 -9.8 10 0 -10 10 0 
-9.6 10 0 -9.4 10 0 -9.2 10 0 
-9 10.2 0 -9 10 0 -9 10.4 0 
-8.1071 10 0 -8.4643 10 0 -9 10.8 0 
-8.8214 10 0 -8.2857 10 0 -8.6429 10 0 
-9 10.6 0 -7.75 10 0 -7.2143 10 0 
-7.9286 10 0 -7.5714 10 0 -7.3929 10 0 
-7.0357 10 0 -6.5 10 0 -6.6786 10 0 
-6.8571 10 0 -5.3214 10 0 -5.5 10 0 
-5.1429 10 0 -4.0714 10 0 -4.4286 10 0 
-4.6071 10 0 -4.7857 10 0 -4.9643 10 0 
-4.25 10 0 -3.7143 10 0 -3.8929 10 0 
-3.3571 10 0 -3.1786 10 0 -3.5357 10 0 
-3 10.6 0 -2.4 10 0 -2.8 10 0 
-3 10.8 0 -3 10.4 0 -2.2 10 0 
-3 10.2 0 -3 10 0 -2.6 10 0 
-1.2 10 0 -2 10 0 -1.8 10 0 
-1.6 10 0 -1.4 10 0 -1 10 0 
-0.6 10 0 -0.8 10 0 -0.2 10 0 
-0.4 10 0 0.2 10 0 -0 10 0 
0.8 10 0 0.4 10 0 0.6 10 0 
1.2 10 0 1.8 10 0 1.4 10 0 
1.6 10 0 1 10 0 2.2 10 0 
2.8 10 0 2 10 0 2.6 10 0 
2.4 10 0 3.2 10 0 3.8 10 0 
3.4 10 0 3 10 0 3.6 10 0 
4.6 10 0 4.2 10 0 4.4 10 0 
4 10 0 4.8 10 0 5.4 10 0 
5.2 10 0 5.8 10 0 5.6 10 0 
5 10 0 6 10 0 6.4 10 0 
6.2 10 0 6.6 10 0 6.8 10 0 
7.4 10 0 7 10 0 7.8 10 0 
7.2 10 0 7.6 10 0 8.6 10 0 
8.2 10 0 8.8 10 0 8.4 10 0 
8 10 0 9 10.2 0 9 10.8 0 
9 10 0 9.6 10 0 9 10.4 0 
9.4 10 0 9.2 10 0 9.8 10 0 
9 10.6 0 10.8 10 0 10.6 10 0 
10.2 10 0 10 10 0 10.4 10 0 
11.2 10 0 11 10 0 11.4 10 0 
11.6 10 0 11.8 10 0 12.4 10 0 
12 10 0 12.8 10 0 12.4725 10.7733 0 
12.2 10 0 12.6 10 0 13.1103 10.7429 0 
13.2966 10.1725 0 13.7481 10.3272 0 13 10 0 
14.1667 10 0 14.6667 10 0 14 10 0 
14.5 10 0 14.3333 10 0 14.8333 10 0 
15 10.2 0 15 10.4 0 15 10.8 0 
15 10.6 0 15 10 0 -15 11.4 0 
-15 11 0 -15 11.6 0 -15 11.8 0 
-15 11.2 0 -9 11.4 0 -9 11.6 0 
-9 11.2 0 -9 11 0 -9 11.8 0 
-3 11 0 -3 11.4 0 -3 11.2 0 
-3 11.8 0 -3 11.6 0 9 11.6 0 
9 11.8 0 9 11.4 0 9 11.2 0 
9 11 0 12.0584 11.5106 0 15 11 0 
15 11.2 0 15 11.8 0 15 11.6 0 
15 11.4 0 -15 12.2 0 -15 12.8 0 
-15 12 0 -15 12.4 0 -15 12.6 0 
-9 12.8 0 -9 12.2 0 -9 12.4 0 
-9 12.6 0 -9 12 0 -3 12.6 0 
-3 12.4 0 -3 12 0 -3 12.2 0 
-3 12.8 0 9 12 0 9 12.2 0 
9 12.4 0 9 12.8 0 9 12.6 0 
10.7386 12.905 0 11.6643 12.039 0 15 12.6 0 
15 12 0 15 12.4 0 15 12.8 0 
15 12.2 0 -15 13 0 -15 13.6 0 
-15 13.4 0 -15 13.8 0 -15 13.2 0 
-9 13 0 -9 13.8 0 -9 13.6 0 
-9 13.2 0 -9 13.4 0 -3 13.4 0 
-3 13.8 0 -3 13.2 0 -3 13 0 
-3 13.6 0 9 13.6 0 9 13 0 
9 13.4 0 9 13.2 0 9 13.8 0 
10.0606 13.625 0 15 13.4 0 15 13.2 0 
15 13.8 0 15 13 0 15 13.6 0 
-15 14.8 0 -15 14.2 0 -15 14.6 0 
-15 14.4 0 -15 14 0 -9 14.2 0 
-9 14 0 -9 14.4 0 -9 14.6 0 
-9 14.8 0 -3 14 0 -3 14.6 0 
-3 14.4 0 -3 14.8 0 -3 14.2 0 
7.79413 14.085 0 8.60827 14.3527 0 9 14 0 
15 14.8 0 15 14.4 0 15 14.2 0 
15 14.6 0 15 14 0 -15 15.6 0 
-15 15.2 0 -15 15.4 0 -15 15.8 0 
-15 15 0 -9 15.6 0 -9 15.8 0 
-9 15.4 0 -9 15 0 -9 15.2 0 
-3 15.8 0 -3 15.2 0 -3 15.4 0 
-3 15.6 0 -3 15 0 9 15.3333 0 
9 15 0 9 15.5 0 9 15.8333 0 
9 15.1667 0 9 15.6667 0 15 15.8 0 
15 15 0 15 15.6 0 15 15.4 0 
15 15.2 0 -14.4 16 0 -14.2 16 0 
-14.8 16 0 -14.6 16 0 -15 16 0 
-13.4 16 0 -14 16 0 -13.2 16 0 
-13.6 16 0 -13.8 16 0 -12.4 16 0 
-13 16 0 -12.6 16 0 -12.2 16 0 
-12.8 16 0 -11.4 16 0 -11.6 16 0 
-11.2 16 0 -12 16 0 -11.8 16 0 
-10.2 16 0 -11 16 0 -10.8 16 0 
-10.4 16 0 -10.6 16 0 -9.4 16 0 
-9.8 16 0 -10 16 0 -9.2 16 0 
-9.6 16 0 -8.8 16 0 -8.2 16 0 
-8.4 16 0 -8.6 16 0 -9 16 0 
-8 16 0 -7.4 16 0 -7.2 16 0 
-7.6 16 0 -7.8 16 0 -6.4 16 0 
-6.8 16 0 -6.6 16 0 -7 16 0 
-6.2 16 0 -5.2 16 0 -5.8 16 0 
-6 16 0 -5.4 16 0 -5.6 16 0 
-5 16 0 -4.6 16 0 -4.2 16 0 
-4.4 16 0 -4.8 16 0 -3.8 16 0 
-3.6 16 0 -3.4 16 0 -3.2 16 0 
-4 16 0 -3 16 0 -2.6 16 0 
-2.8 16 0 -2.4 16 0 -2.2 16 0 
-1.4 16 0 -1.6 16 0 -1.8 16 0 
-1.2 16 0 -2 16 0 -0.8 16 0 
-0.6 16 0 -0.4 16 0 -0.2 16 0 
-1 16 0 0.4 16 0 -0 16 0 
0.6 16 0 0.8 16 0 0.2 16 0 
1.2 16 0 1.4 16 0 1.8 16 0 
1 16 0 1.6 16 0 2 16 0 
2.8 16 0 2.2 16 0 2.4 16 0 
2.6 16 0 3.2 16 0 3.4 16 0 
3 16 0 3.6 16 0 3.8 16 0 
4 16 0 4.2 16 0 4.4 16 0 
4.6 16 0 4.8 16 0 5 16 0 
5.6 16 0 5.8 16 0 5.4 16 0 
5.2 16 0 6.4 16 0 6.8 16 0 
6.6 16 0 6.2 16 0 6 16 0 
7.4 16 0 7 16 0 7.6 16 0 
7.8 16 0 7.2 16 0 8 16 0 
8.8 16 0 8.2 16 0 8.4 16 0 
8.6 16 0 9 16 0 9.2 16 0 
9.8 16 0 9.4 16 0 9.6 16 0 
10 16 0 10.2 16 0 10.4 16 0 
10.6 16 0 10.8 16 0 11.4 16 0 
11.8 16 0 11 16 0 11.6 16 0 
11.2 16 0 12.4 16 0 12.8 16 0 
12.6 16 0 12.2 16 0 12 16 0 
13 16 0 13.8 16 0 13.4 16 0 
13.6 16 0 13.2 16 0 14.8 16 0 
14 16 0 14.2 16 0 14.4 16 0 
14.6 16 0 15 16 0 
gid 1 1049 double
1 1 1 1 1 1 1 1 1 
1 1 1 1 1 1 1 1 1 
1 1 1 1 1 1 1 1 1 
1 1 1 1 1 1 1 1 1 
1 1 1 1 1 1 1 1 1 
1 2 2 2 2 2 2 2 2 
2 2 2 2 2 2 2 2 1 
2 2 2 1 1 2 2 2 1 
2 2 2 2 2 2 2 2 2 
2 2 2 2 2 2 2 2 2 
2 2 2 2 2 2 2 2 2 
2 2 2 2 2 2 2 2 2 
2 2 2 2 2 2 2 2 2 
2 2 2 2 2 2 2 2 2 
2 2 2 2 2 2 2 2 2 
2 2 2 2 2 2 2 2 2 
2 2 2 2 2 2 2 2 2 
2 2 2 2 2 2 2 2 2 
2 2 2 2 2 2 2 2 2 
2 2 2 2 2 2 2 2 2 
2 2 2 2 2 2 2 2 2 
2 2 2 2 2 2 2 2 2 
2 2 2 2 2 1 1 2 2 
2 1 1 2 2 2 2 2 2 
2 2 2 2 2 2 2 2 2 
2 2 2 2 2 2 2 1 1 
1 2 2 2 2 2 2 2 2 
2 2 2 2 2 2 2 2 2 
2 2 2 1 1 1 1 1 2 
2 2 2 2 2 2 2 2 2 
1 1 1 2 2 2 2 2 2 
2 2 2 2 2 2 2 2 2 
2 2 2 2 2 1 1 1 1 
1 2 2 2 2 2 2 2 2 
2 2 1 1 2 2 2 2 2 
2 2 2 2 2 2 2 2 2 
2 2 2 2 2 2 1 1 1 
2 2 2 2 2 2 2 2 2 
2 1 1 1 2 2 2 2 2 
2 2 2 2 2 2 2 2 2 
2 2 2 2 2 2 1 1 1 
1 1 2 2 2 2 2 2 2 
2 2 2 1 1 1 2 2 2 
2 2 2 2 2 2 2 2 2 
2 2 2 2 2 2 2 2 1 
2 2 2 2 2 2 2 2 2 
2 1 2 2 2 2 2 2 2 
2 2 2 2 2 2 2 2 2 
2 2 2 2 1 1 1 1 2 
2 2 2 2 2 2 2 2 2 
1 1 1 2 2 2 2 2 2 
2 2 2 2 2 2 2 2 2 
2 2 2 2 2 1 1 1 2 
2 2 2 2 2 2 2 2 2 
1 2 2 2 2 2 2 2 2 
2 2 2 2 2 2 2 2 2 
2 2 2 2 2 2 1 2 1 
1 2 2 2 2 2 2 2 2 
2 2 2 2 2 2 2 2 2 
2 2 2 2 2 2 2 2 2 
2 2 2 2 2 2 2 2 2 
2 2 2 2 2 2 2 2 2 
2 2 1 2 2 2 2 2 2 
1 2 2 2 2 1 2 2 1 
2 2 2 2 2 2 2 1 1 
1 2 2 2 2 2 2 2 2 
2 2 1 2 2 2 2 2 2 
2 2 2 2 2 2 2 2 2 
2 2 2 2 2 2 2 2 2 
2 2 2 2 2 2 2 2 2 
2 2 2 2 2 2 2 2 2 
2 2 2 2 2 2 2 2 2 
2 2 2 2 2 2 2 2 2 
2 2 2 2 2 2 2 2 2 
2 2 2 2 2 2 2 2 2 
2 2 2 2 2 2 2 2 2 
2 2 2 2 2 2 2 2 2 
2 2 2 2 2 2 2 2 2 
2 2 2 2 2 2 2 2 2 
2 2 2 2 2 2 2 2 2 
2 2 2 2 2 2 2 2 2 
2 2 2 2 2 2 2 2 2 
2 2 2 2 2 2 2 2 2 
2 2 2 2 2 1 2 2 1 
1 1 2 2 2 2 2 2 2 
2 2 2 2 2 2 2 2 2 
2 2 2 2 2 2 2 2 2 
2 2 2 2 2 2 2 1 2 
2 2 2 2 2 2 2 2 2 
2 2 2 2 2 2 2 2 2 
2 2 2 2 2 2 1 1 2 
2 2 2 2 2 2 2 2 2 
2 2 2 2 2 2 2 2 2 
2 2 2 2 2 2 1 2 2 
2 2 2 2 2 2 2 2 2 
2 2 2 2 2 2 2 2 2 
1 1 2 2 2 2 2 2 2 
2 2 2 2 2 2 2 2 2 
2 2 2 2 2 2 2 2 2 
2 2 2 2 2 2 2 2 2 
2 2 2 2 2 2 2 2 2 
2 2 2 2 2 2 2 2 2 
2 2 2 2 2 2 2 2 2 
2 2 2 2 2 2 2 2 2 
2 2 2 2 2 2 2 2 2 
2 2 2 2 2 2 2 2 2 
2 2 2 2 2 2 2 2 2 
2 2 2 2 2 2 2 2 2 
2 2 2 2 2 2 2 2 2 
2 2 2 2 2 2 2 2 2 
2 2 2 2 2 2 2 2 2 
2 2 2 2 2 2 2 2 2 
2 2 2 2 2 2 2 2 2 
2 2 2 2 2 2 2 2 2 
2 2 2 2 2 2 2 2 2 
2 2 2 2 2 2 2 2 2 
2 2 2 2 2 
A 1 1049 double
10 10 10 10 10 10 10 10 10 
10 10 10 10 10 10 10 10 10 
10 10 10 10 10 10 10 10 10 
10 10 10 10 10 10 10 10 10 
10 10 10 10 10 10 10 10 10 
10 10 10 10 10 10 10 10 10 
10 10 10 10 10 10 10 10 10 
10 10 10 10 10 10 10 10 10 
10 10 10 10 10 10 10 10 10 
10 10 10 10 10 10 10 10 10 
10 10 10 10 10 10 10 10 10 
10 10 10 10 10 10 10 10 10 
10 10 10 10 10 10 10 10 10 
10 10 10 10 10 10 10 10 10 
10 10 10 10 10 10 10 10 10 
10 10 10 10 10 10 10 10 10 
10 10 10 10 10 10 10 10 10 
10 10 10 10 10 10 10 10 10 
10 10 10 10 10 10 10 10 10 
10 10 10 10 10 10 10 10 10 
10 10 10 10 10 10 10 10 10 
10 10 10 10 10 10 10 10 10 
10 10 10 10 10 10 10 10 10 
10 10 10 10 10 10 10 10 10 
10 10 10 10 10 10 10 10 10 
10 10 10 10 10 10 10 10 10 
10 10 10 10 10 10 10 10 10 
10 10 10 10 10 10 10 10 10 
10 10 10 10 10 10 10 10 10 
10 10 10 10 10 10 10 10 10 
10 10 10 10 10 10 10 10 10 
10 10 10 10 10 10 10 10 10 
10 10 10 10 10 10 10 10 10 
10 10 10 10 10 10 10 10 10 
10 10 10 10 10 10 10 10 10 
10 10 10 10 10 10 10 10 10 
10 10 10 10 10 10 10 10 10 
10 10 10 10 10 10 10 10 10 
10 10 10 10 10 10 10 10 10 
10 10 10 10 10 10 10 10 10 
10 10 10 10 10 10 10 10 10 
10 10 10 10 10 10 10 10 10 
10 10 10 10 10 10 10 10 10 
10 10 10 10 10 10 10 10 10 
10 10 10 10 10 10 10 10 10 
10 10 10 10 10 10 10 10 10 
10 10 10 10 10 10 10 10 10 
10 10 10 10 10 10 10 10 10 
10 10 10 10 10 10 10 10 10 
10 10 10 10 10 10 10 10 10 
10 10 10 10 10 10 10 10 10 
10 10 10 10 10 10 10 10 10 
10 10 10 10 10 10 10 10 10 
10 10 10 10 10 10 10 10 10 
10 10 10 10 10 10 10 10 10 
10 10 10 10 10 10 10 10 10 
10 10 10 10 10 10 10 10 10 
10 10 10 10 10 10 10 10 10 
10 10 10 10 10 10 10 10 10 
10 10 10 10 10 10 10 10 10 
10 10 10 10 10 10 10 10 10 
10 10 10 10 10 10 10 10 10 
10 10 10 10 10 10 10 10 10 
10 10 10 10 10 10 10 10 10 
10 10 10 10 10 10 10 10 10 
10 10 10 10 10 10 10 10 10 
10 10 10 10 10 10 10 10 10 
10 10 10 10 10 10 10 10 10 
10 10 10 10 10 10 10 10 10 
10 10 10 10 10 10 10 10 10 
10 10 10 10 10 10 10 10 10 
10 10 10 10 10 10 10 10 10 
10 10 10 10 10 10 10 10 10 
10 10 10 10 10 10 10 10 10 
10 10 10 10 10 10 10 10 10 
10 10 10 10 10 10 10 10 10 
10 10 10 10 10 10 10 10 10 
10 10 10 10 10 10 10 10 10 
10 10 10 10 10 10 10 10 10 
10 10 10 10 10 10 10 10 10 
10 10 10 10 10 10 10 10 10 
10 10 10 10 10 10 10 10 10 
10 10 10 10 10 10 10 10 10 
10 10 10 10 10 10 10 10 10 
10 10 10 10 10 10 10 10 10 
10 10 10 10 10 10 10 10 10 
10 10 10 10 10 10 10 10 10 
10 10 10 10 10 10 10 10 10 
10 10 10 10 10 10 10 10 10 
10 10 10 10 10 10 10 10 10 
10 10 10 10 10 10 10 10 10 
10 10 10 10 10 10 10 10 10 
10 10 10 10 10 10 10 10 10 
10 10 10 10 10 10 10 10 10 
10 10 10 10 10 10 10 10 10 
10 10 10 10 10 10 10 10 10 
10 10 10 10 10 10 10 10 10 
10 10 10 10 10 10 10 10 10 
10 10 10 10 10 10 10 10 10 
10 10 10 10 10 10 10 10 10 
10 10 10 10 10 10 10 10 10 
10 10 10 10 10 10 10 10 10 
10 10 10 10 10 10 10 10 10 
10 10 10 10 10 10 10 10 10 
10 10 10 10 10 10 10 10 10 
10 10 10 10 10 10 10 10 10 
10 10 10 10 10 10 10 10 10 
10 10 10 10 10 10 10 10 10 
10 10 10 10 10 10 10 10 10 
10 10 10 10 10 10 10 10 10 
10 10 10 10 10 10 10 10 10 
10 10 10 10 10 10 10 10 10 
10 10 10 10 10 10 10 10 10 
10 10 10 10 10 10 10 10 10 
10 10 10 10 10 10 10 10 10 
10 10 10 10 10 10 10 10 10 
10 10 10 10 10 
B 1 1049 double
0.2 0.2 0.2 0.2 0.2 0.2 0.2 0.2 0.2 
0.2 0.2 0.2 0.2 0.2 0.2 0.2 0.2 0.2 
0.2 0.2 0.2 0.2 0.2 0.2 0.2 0.2 0.2 
0.2 0.2 0.2 0.2 0.2 0.2 0.2 0.2 0.2 
0.2 0.2 0.2 0.2 0.2 0.2 0.2 0.2 0.2 
0.2 0.2 0.2 0.2 0.2 0.2 0.2 0.2 0.2 
0.2 0.2 0.2 0.2 0.2 0.2 0.2 0.2 0.2 
0.2 0.2 0.2 0.2 0.2 0.2 0.2 0.2 0.2 
0.2 0.2 0.2 0.2 0.2 0.2 0.2 0.2 0.2 
0.2 0.2 0.2 0.2 0.2 0.2 0.2 0.2 0.2 
0.2 0.2 0.2 0.2 0.2 0.2 0.2 0.2 0.2 
0.2 0.2 0.2 0.2 0.2 0.2 0.2 0.2 0.2 
0.2 0.2 0.2 0.2 0.2 0.2 0.2 0.2 0.2 
0.2 0.2 0.2 0.2 0.2 0.2 0.2 0.2 0.2 
0.2 0.2 0.2 0.2 0.2 0.2 0.2 0.2 0.2 
0.2 0.2 0.2 0.2 0.2 0.2 0.2 0.2 0.2 
0.2 0.2 0.2 0.2 0.2 0.2 0.2 0.2 0.2 
0.2 0.2 0.2 0.2 0.2 0.2 0.2 0.2 0.2 
0.2 0.2 0.2 0.2 0.2 0.2 0.2 0.2 0.2 
0.2 0.2 0.2 0.2 0.2 0.2 0.2 0.2 0.2 
0.2 0.2 0.2 0.2 0.2 0.2 0.2 0.2 0.2 
0.2 0.2 0.2 0.2 0.2 0.2 0.2 0.2 0.2 
0.2 0.2 0.2 0.2 0.2 0.2 0.2 0.2 0.2 
0.2 0.2 0.2 0.2 0.2 0.2 0.2 0.2 0.2 
0.2 0.2 0.2 0.2 0.2 0.2 0.2 0.2 0.2 
0.2 0.2 0.2 0.2 0.2 0.2 0.2 0.2 0.2 
0.2 0.2 0.2 0.2 0.2 0.2 0.2 0.2 0.2 
0.2 0.2 0.2 0.2 0.2 0.2 0.2 0.2 0.2 
0.2 0.2 0.2 0.2 0.2 0.2 0.2 0.2 0.2 
0.2 0.2 0.2 0.2 0.2 0.2 0.2 0.2 0.2 
0.2 0.2 0.2 0.2 0.2 0.2 0.2 0.2 0.2 
0.2 0.2 0.2 0.2 0.2 0.2 0.2 0.2 0.2 
0.2 0.2 0.2 0.2 0.2 0.2 0.2 0.2 0.2 
0.2 0.2 0.2 0.2 0.2 0.2 0.2 0.2 0.2 
0.2 0.2 0.2 0.2 0.2 0.2 0.2 0.2 0.2 
0.2 0.2 0.2 0.2 0.2 0.2 0.2 0.2 0.2 
0.2 0.2 0.2 0.2 0.2 0.2 0.2 0.2 0.2 
0.2 0.2 0.2 0.2 0.2 0.2 0.2 0.2 0.2 
0.2 0.2 0.2 0.2 0.2 0.2 0.2 0.2 0.2 
0.2 0.2 0.2 0.2 0.2 0.2 0.2 0.2 0.2 
0.2 0.2 0.2 0.2 0.2 0.2 0.2 0.2 0.2 
0.2 0.2 0.2 0.2 0.2 0.2 0.2 0.2 0.2 
0.2 0.2 0.2 0.2 0.2 0.2 0.2 0.2 0.2 
0.2 0.2 0.2 0.2 0.2 0.2 0.2 0.2 0.2 
0.2 0.2 0.2 0.2 0.2 0.2 0.2 0.2 0.2 
0.2 0.2 0.2 0.2 0.2 0.2 0.2 0.2 0.2 
0.2 0.2 0.2 0.2 0.2 0.2 0.2 0.2 0.2 
0.2 0.2 0.2 0.2 0.2 0.2 0.2 0.2 0.2 
0.2 0.2 0.2 0.2 0.2 0.2 0.2 0.2 0.2 
0.2 0.2 0.2 0.2 0.2 0.2 0.2 0.2 0.2 
0.2 0.2 0.2 0.2 0.2 0.2 0.2 0.2 0.2 
0.2 0.2 0.2 0.2 0.2 0.2 0.2 0.2 0.2 
0.2 0.2 0.2 0.2 0.2 0.2 0.2 0.2 0.2 
0.2 0.2 0.2 0.2 0.2 0.2 0.2 0.2 0.2 
0.2 0.2 0.2 0.2 0.2 0.2 0.2 0.2 0.2 
0.2 0.2 0.2 0.2 0.2 0.2 0.2 0.2 0.2 
0.2 0.2 0.2 0.2 0.2 0.2 0.2 0.2 0.2 
0.2 0.2 0.2 0.2 0.2 0.2 0.2 0.2 0.2 
0.2 0.2 0.2 0.2 0.2 0.2 0.2 0.2 0.2 
0.2 0.2 0.2 0.2 0.2 0.2 0.2 0.2 0.2 
0.2 0.2 0.2 0.2 0.2 0.2 0.2 0.2 0.2 
0.2 0.2 0.2 0.2 0.2 0.2 0.2 0.2 0.2 
0.2 0.2 0.2 0.2 0.2 0.2 0.2 0.2 0.2 
0.2 0.2 0.2 0.2 0.2 0.2 0.2 0.2 0.2 
0.2 0.2 0.2 0.2 0.2 0.2 0.2 0.2 0.2 
0.2 0.2 0.2 0.2 0.2 0.2 0.2 0.2 0.2 
0.2 0.2 0.2 0.2 0.2 0.2 0.2 0.2 0.2 
0.2 0.2 0.2 0.2 0.2 0.2 0.2 0.2 0.2 
0.2 0.2 0.2 0.2 0.2 0.2 0.2 0.2 0.2 
0.2 0.2 0.2 0.2 0.2 0.2 0.2 0.2 0.2 
0.2 0.2 0.2 0.2 0.2 0.2 0.2 0.2 0.2 
0.2 0.2 0.2 0.2 0.2 0.2 0.2 0.2 0.2 
0.2 0.2 0.2 0.2 0.2 0.2 0.2 0.2 0.2 
0.2 0.2 0.2 0.2 0.2 0.2 0.2 0.2 0.2 
0.2 0.2 0.2 0.2 0.2 0.2 0.2 0.2 0.2 
0.2 0.2 0.2 0.2 0.2 0.2 0.2 0.2 0.2 
0.2 0.2 0.2 0.2 0.2 0.2 0.2 0.2 0.2 
0.2 0.2 0.2 0.2 0.2 0.2 0.2 0.2 0.2 
0.2 0.2 0.2 0.2 0.2 0.2 0.2 0.2 0.2 
0.2 0.2 0.2 0.2 0.2 0.2 0.2 0.2 0.2 
0.2 0.2 0.2 0.2 0.2 0.2 0.2 0.2 0.2 
0.2 0.2 0.2 0.2 0.2 0.2 0.2 0.2 0.2 
0.2 0.2 0.2 0.2 0.2 0.2 0.2 0.2 0.2 
0.2 0.2 0.2 0.2 0.2 0.2 0.2 0.2 0.2 
0.2 0.2 0.2 0.2 0.2 0.2 0.2 0.2 0.2 
0.2 0.2 0.2 0.2 0.2 0.2 0.2 0.2 0.2 
0.2 0.2 0.2 0.2 0.2 0.2 0.2 0.2 0.2 
0.2 0.2 0.2 0.2 0.2 0.2 0.2 0.2 0.2 
0.2 0.2 0.2 0.2 0.2 0.2 0.2 0.2 0.2 
0.2 0.2 0.2 0.2 0.2 0.2 0.2 0.2 0.2 
0.2 0.2 0.2 0.2 0.2 0.2 0.2 0.2 0.2 
0.2 0.2 0.2 0.2 0.2 0.2 0.2 0.2 0.2 
0.2 0.2 0.2 0.2 0.2 0.2 0.2 0.2 0.2 
0.2 0.2 0.2 0.2 0.2 0.2 0.2 0.2 0.2 
0.2 0.2 0.2 0.2 0.2 0.2 0.2 0.2 0.2 
0.2 0.2 0.2 0.2 0.2 0.2 0.2 0.2 0.2 
0.2 0.2 0.2 0.2 0.2 0.2 0.2 0.2 0.2 
0.2 0.2 0.2 0.2 0.2 0.2 0.2 0.2 0.2 
0.2 0.2 0.2 0.2 0.2 0.2 0.2 0.2 0.2 
0.2 0.2 0.2 0.2 0.2 0.2 0.2 0.2 0.2 
0.2 0.2 0.2 0.2 0.2 0.2 0.2 0.2 0.2 
0.2 0.2 0.2 0.2 0.2 0.2 0.2 0.2 0.2 
0.2 0.2 0.2 0.2 0.2 0.2 0.2 0.2 0.2 
0.2 0.2 0.2 0.2 0.2 0.2 0.2 0.2 0.2 
0.2 0.2 0.2 0.2 0.2 0.2 0.2 0.2 0.2 
0.2 0.2 0.2 0.2 0.2 0.2 0.2 0.2 0.2 
0.2 0.2 0.2 0.2 0.2 0.2 0.2 0.2 0.2 
0.2 0.2 0.2 0.2 0.2 0.2 0.2 0.2 0.2 
0.2 0.2 0.2 0.2 0.2 0.2 0.2 0.2 0.2 
0.2 0.2 0.2 0.2 0.2 0.2 0.2 0.2 0.2 
0.2 0.2 0.2 0.2 0.2 0.2 0.2 0.2 0.2 
0.2 0.2 0.2 0.2 0.2 0.2 0.2 0.2 0.2 
0.2 0.2 0.2 0.2 0.2 0.2 0.2 0.2 0.2 
0.2 0.2 0.2 0.2 0.2 0.2 0.2 0.2 0.2 
0.2 0.2 0.2 0.2 0.2 0.2 0.2 0.2 0.2 
0.2 0.2 0.2 0.2 0.2 0.2 0.2 0.2 0.2 
0.2 0.2 0.2 0.2 0.2 
c 1 1049 double
0.1 0.1 0.1 0.1 0.1 0.1 0.1 0.1 0.1 
0.1 0.1 0.1 0.1 0.1 0.1 0.1 0.1 0.1 
0.1 0.1 0.1 0.1 0.1 0.1 0.1 0.1 0.1 
0.1 0.1 0.1 0.1 0.1 0.1 0.1 0.1 0.1 
0.1 0.1 0.1 0.1 0.1 0.1 0.1 0.1 0.1 
0.1 0.1 0.1 0.1 0.1 0.1 0.1 0.1 0.1 
0.1 0.1 0.1 0.1 0.1 0.1 0.1 0.1 0.1 
0.1 0.1 0.1 0.1 0.1 0.1 0.1 0.1 0.1 
0.1 0.1 0.1 0.1 0.1 0.1 0.1 0.1 0.1 
0.1 0.1 0.1 0.1 0.1 0.1 0.1 0.1 0.1 
0.1 0.1 0.1 0.1 0.1 0.1 0.1 0.1 0.1 
0.1 0.1 0.1 0.1 0.1 0.1 0.1 0.1 0.1 
0.1 0.1 0.1 0.1 0.1 0.1 0.1 0.1 0.1 
0.1 0.1 0.1 0.1 0.1 0.1 0.1 0.1 0.1 
0.1 0.1 0.1 0.1 0.1 0.1 0.1 0.1 0.1 
0.1 0.1 0.1 0.1 0.1 0.1 0.1 0.1 0.1 
0.1 0.1 0.1 0.1 0.1 0.1 0.1 0.1 0.1 
0.1 0.1 0.1 0.1 0.1 0.1 0.1 0.1 0.1 
0.1 0.1 0.1 0.1 0.1 0.1 0.1 0.1 0.1 
0.1 0.1 0.1 0.1 0.1 0.1 0.1 0.1 0.1 
0.1 0.1 0.1 0.1 0.1 0.1 0.1 0.1 0.1 
0.1 0.1 0.1 0.1 0.1 0.1 0.1 0.1 0.1 
0.1 0.1 0.1 0.1 0.1 0.1 0.1 0.1 0.1 
0.1 0.1 0.1 0.1 0.1 0.1 0.1 0.1 0.1 
0.1 0.1 0.1 0.1 0.1 0.1 0.1 0.1 0.1 
0.1 0.1 0.1 0.1 0.1 0.1 0.1 0.1 0.1 
0.1 0.1 0.1 0.1 0.1 0.1 0.1 0.1 0.1 
0.1 0.1 0.1 0.1 0.1 0.1 0.1 0.1 0.1 
0.1 0.1 0.1 0.1 0.1 0.1 0.1 0.1 0.1 
0.1 0.1 0.1 0.1 0.1 0.1 0.1 0.1 0.1 
0.1 0.1 0.1 0.1 0.1 0.1 0.1 0.1 0.1 
0.1 0.1 0.1 0.1 0.1 0.1 0.1 0.1 0.1 
0.1 0.1 0.1 0.1 0.1 0.1 0.1 0.1 0.1 
0.1 0.1 0.1 0.1 0.1 0.1 0.1 0.1 0.1 
0.1 0.1 0.1 0.1 0.1 0.1 0.1 0.1 0.1 
0.1 0.1 0.1 0.1 0.1 0.1 0.1 0.1 0.1 
0.1 0.1 0.1 0.1 0.1 0.1 0.1 0.1 0.1 
0.1 0.1 0.1 0.1 0.1 0.1 0.1 0.1 0.1 
0.1 0.1 0.1 0.1 0.1 0.1 0.1 0.1 0.1 
0.1 0.1 0.1 0.1 0.1 0.1 0.1 0.1 0.1 
0.1 0.1 0.1 0.1 0.1 0.1 0.1 0.1 0.1 
0.1 0.1 0.1 0.1 0.1 0.1 0.1 0.1 0.1 
0.1 0.1 0.1 0.1 0.1 0.1 0.1 0.1 0.1 
0.1 0.1 0.1 0.1 0.1 0.1 0.1 0.1 0.1 
0.1 0.1 0.1 0.1 0.1 0.1 0.1 0.1 0.1 
0.1 0.1 0.1 0.1 0.1 0.1 0.1 0.1 0.1 
0.1 0.1 0.1 0.1 0.1 0.1 0.1 0.1 0.1 
0.1 0.1 0.1 0.1 0.1 0.1 0.1 0.1 0.1 
0.1 0.1 0.1 0.1 0.1 0.1 0.1 0.1 0.1 
0.1 0.1 0.1 0.1 0.1 0.1 0.1 0.1 0.1 
0.1 0.1 0.1 0.1 0.1 0.1 0.1 0.1 0.1 
0.1 0.1 0.1 0.1 0.1 0.1 0.1 0.1 0.1 
0.1 0.1 0.1 0.1 0.1 0.1 0.1 0.1 0.1 
0.1 0.1 0.1 0.1 0.1 0.1 0.1 0.1 0.1 
0.1 0.1 0.1 0.1 0.1 0.1 0.1 0.1 0.1 
0.1 0.1 0.1 0.1 0.1 0.1 0.1 0.1 0.1 
0.1 0.1 0.1 0.1 0.1 0.1 0.1 0.1 0.1 
0.1 0.1 0.1 0.1 0.1 0.1 0.1 0.1 0.1 
0.1 0.1 0.1 0.1 0.1 0.1 0.1 0.1 0.1 
0.1 0.1 0.1 0.1 0.1 0.1 0.1 0.1 0.1 
0.1 0.1 0.1 0.1 0.1 0.1 0.1 0.1 0.1 
0.1 0.1 0.1 0.1 0.1 0.1 0.1 0.1 0.1 
0.1 0.1 0.1 0.1 0.1 0.1 0.1 0.1 0.1 
0.1 0.1 0.1 0.1 0.1 0.1 0.1 0.1 0.1 
0.1 0.1 0.1 0.1 0.1 0.1 0.1 0.1 0.1 
0.1 0.1 0.1 0.1 0.1 0.1 0.1 0.1 0.1 
0.1 0.1 0.1 0.1 0.1 0.1 0.1 0.1 0.1 
0.1 0.1 0.1 0.1 0.1 0.1 0.1 0.1 0.1 
0.1 0.1 0.1 0.1 0.1 0.1 0.1 0.1 0.1 
0.1 0.1 0.1 0.1 0.1 0.1 0.1 0.1 0.1 
0.1 0.1 0.1 0.1 0.1 0.1 0.1 0.1 0.1 
0.1 0.1 0.1 0.1 0.1 0.1 0.1 0.1 0.1 
0.1 0.1 0.1 0.1 0.1 0.1 0.1 0.1 0.1 
0.1 0.1 0.1 0.1 0.1 0.1 0.1 0.1 0.1 
0.1 0.1 0.1 0.1 0.1 0.1 0.1 0.1 0.1 
0.1 0.1 0.1 0.1 0.1 0.1 0.1 0.1 0.1 
0.1 0.1 0.1 0.1 0.1 0.1 0.1 0.1 0.1 
0.1 0.1 0.1 0.1 0.1 0.1 0.1 0.1 0.1 
0.1 0.1 0.1 0.1 0.1 0.1 0.1 0.1 0.1 
0.1 0.1 0.1 0.1 0.1 0.1 0.1 0.1 0.1 
0.1 0.1 0.1 0.1 0.1 0.1 0.1 0.1 0.1 
0.1 0.1 0.1 0.1 0.1 0.1 0.1 0.1 0.1 
0.1 0.1 0.1 0.1 0.1 0.1 0.1 0.1 0.1 
0.1 0.1 0.1 0.1 0.1 0.1 0.1 0.1 0.1 
0.1 0.1 0.1 0.1 0.1 0.1 0.1 0.1 0.1 
0.1 0.1 0.1 0.1 0.1 0.1 0.1 0.1 0.1 
0.1 0.1 0.1 0.1 0.1 0.1 0.1 0.1 0.1 
0.1 0.1 0.1 0.1 0.1 0.1 0.1 0.1 0.1 
0.1 0.1 0.1 0.1 0.1 0.1 0.1 0.1 0.1 
0.1 0.1 0.1 0.1 0.1 0.1 0.1 0.1 0.1 
0.1 0.1 0.1 0.1 0.1 0.1 0.1 0.1 0.1 
0.1 0.1 0.1 0.1 0.1 0.1 0.1 0.1 0.1 
0.1 0.1 0.1 0.1 0.1 0.1 0.1 0.1 0.1 
0.1 0.1 0.1 0.1 0.1 0.1 0.1 0.1 0.1 
0.1 0.1 0.1 0.1 0.1 0.1 0.1 0.1 0.1 
0.1 0.1 0.1 0.1 0.1 0.1 0.1 0.1 0.1 
0.1 0.1 0.1 0.1 0.1 0.1 0.1 0.1 0.1 
0.1 0.1 0.1 0.1 0.1 0.1 0.1 0.1 0.1 
0.1 0.1 0.1 0.1 0.1 0.1 0.1 0.1 0.1 
0.1 0.1 0.1 0.1 0.1 0.1 0.1 0.1 0.1 
0.1 0.1 0.1 0.1 0.1 0.1 0.1 0.1 0.1 
0.1 0.1 0.1 0.1 0.1 0.1 0.1 0.1 0.1 
0.1 0.1 0.1 0.1 0.1 0.1 0.1 0.1 0.1 
0.1 0.1 0.1 0.1 0.1 0.1 0.1 0.1 0.1 
0.1 0.1 0.1 0.1 0.1 0.1 0.1 0.1 0.1 
0.1 0.1 0.1 0.1 0.1 0.1 0.1 0.1 0.1 
0.1 0.1 0.1 0.1 0.1 0.1 0.1 0.1 0.1 
0.1 0.1 0.1 0.1 0.1 0.1 0.1 0.1 0.1 
0.1 0.1 0.1 0.1 0.1 0.1 0.1 0.1 0.1 
0.1 0.1 0.1 0.1 0.1 0.1 0.1 0.1 0.1 
0.1 0.1 0.1 0.1 0.1 0.1 0.1 0.1 0.1 
0.1 0.1 0.1 0.1 0.1 0.1 0.1 0.1 0.1 
0.1 0.1 0.1 0.1 0.1 0.1 0.1 0.1 0.1 
0.1 0.1 0.1 0.1 0.1 0.1 0.1 0.1 0.1 
0.1 0.1 0.1 0.1 0.1 0.1 0.1 0.1 0.1 
0.1 0.1 0.1 0.1 0.1 0.1 0.1 0.1 0.1 
0.1 0.1 0.1 0.1 0.1 
m 1 1049 double
76.33 91.315 65.975 56.755 84.655 61.625 62.64 84.935 75.77 
65.745 94.295 94.14 99.255 95.485 90.92 83.88 97.585 93.885 
53.285 56.49 92.105 53.87 91.99 63.205 91.415 89.775 69.85 
88.61 76.76 90.795 58.915 95.63 68.31 73.95 53.195 51.995 
92.83 60.985 62.455 71.55 84.075 56.77 65.415 75.995 82.91 
79.28 63.77 81.145 59.805 71.295 90.21 96.915 74.595 56.63 
72.105 86.865 71.62 92.685 91.575 71.85 68.92 75.99 88.325 
82.065 67.63 54.43 59.26 97.965 80.455 63.885 94.9 54.265 
59.365 99.78 95.85 84.31 86.405 84.98 54.625 85.42 51.68 
61.525 81.635 58.645 94.72 56.565 82.525 54.23 66.01 84.575 
91.01 67.53 69.475 52.725 97.91 79.285 80.62 66.835 77.17 
70.215 94.07 51.82 85.89 68.75 55.435 84.04 86.38 67.92 
77.015 63.255 78.94 63.77 61.995 75.3 98.38 99.66 66.84 
88.965 92.93 64.145 50.06 88.695 91.95 58.41 81.13 76.7 
57.17 90.47 52.85 87.695 53.975 51.89 50.485 64.51 83.005 
87.335 52.46 86.505 53.78 66.585 83.26 97.205 98.445 69.325 
71.43 51.4 90.155 92.2 83.095 92.22 73.645 72.405 78.855 
90.485 77.165 94.935 91.675 89.44 91.69 90.585 94.635 53.545 
72.835 89.28 53.375 61.765 76.53 97.485 72.93 84.825 81.095 
93.12 64.355 57.64 73.415 78.66 50.095 94.145 97.515 91.35 
81.7 90.745 66.84 98.54 83.575 67.295 53.615 88.98 78.645 
64.23 76.93 68.09 63.09 55.5 61.225 67.255 61.895 64.605 
88.82 67.775 87.44 99.205 91.14 95.075 69.45 52.46 83.245 
61.75 58.805 86.39 75.965 88.82 74.57 57.5 85.17 50.62 
84.935 79.28 68.715 61.135 82.455 91.825 99.295 57.105 62.755 
57.16 59.68 97.835 53.065 66.025 62.52 88.105 98.36 91.91 
80.435 83.92 60.105 64.21 97.64 54.34 89.94 65.72 53.715 
78.975 61.46 61.37 81.775 80.945 83.1 88.205 97.19 90.125 
65.37 56.165 56.94 65.86 63.675 80.635 64.86 50.185 66.375 
82.185 96.14 77.035 57.37 59.3 77.895 59.965 90.71 79.42 
50.495 51.54 82.95 75.945 99.54 52.49 94.36 99.79 89.855 
76.19 51.445 76.835 84.745 72.06 97.395 50.45 98.05 94.845 
68.405 67.465 51.79 90.785 51.35 62.775 77.555 69.135 77.105 
54.64 56.185 94.29 80.605 71.975 80.145 73.845 58.88 76.365 
86.275 94.25 54.55 52.64 94.04 88.765 90.18 81.24 66.515 
76.715 64.5 82.145 81.675 65.885 67.56 96.07 56.56 59.43 
91.775 53.495 59.195 91.815 77.845 67.085 81.82 83.255 59.25 
72.14 80.715 91.175 79.09 68.965 88.66 90.02 55.775 79.97 
51.895 75 64.785 57.705 98.77 66.665 60.665 58.24 64.45 
50.245 54.82 78.145 91.425 52.52 95.4 54.285 98.155 93.135 
92.965 82.155 93.97 99.235 63.11 65.865 65.345 81.085 54.985 
79.025 54.44 55.055 97.645 79.64 62.02 93.88 62.95 92.905 
94.095 96.68 91.045 73.465 71.125 77.41 97.645 87.835 51.84 
72.5 58.73 61.075 60.67 58.46 80.635 71.695 84.85 63.235 
94.73 95.255 61.45 78.955 71.46 96.95 83.41 87.31 72.85 
72.215 73.065 72.69 93.03 78.815 52.62 61.49 53.565 69.49 
80.95 85.085 84.95 98.985 68.94 81.245 90.23 62.675 88.235 
92.69 75.755 80.795 74.97 82.76 77.89 67.645 74.58 75.285 
80.785 57.605 92.87 75.575 62.195 61.75 61.965 88.58 75.64 
53.44 64.52 84.2 74.09 76.925 56.11 80.21 83.2 96.495 
55.865 67.685 93.285 76.815 66.515 51.265 65.165 62.485 72.5 
82.015 52.14 53.405 60.01 81.56 86.93 75.5 63.63 71.73 
96.155 57.455 75.105 64.755 59.735 83.105 50.04 60.355 99.585 
84.98 86.845 66.62 89.585 88.36 88.125 96.46 59.86 69.25 
86.67 74.46 69.98 61.81 55.76 88.43 95.625 95.94 95.785 
62.3 77.18 79.875 68.645 67.07 69.605 50.135 81.52 52.3 
93.45 90.135 87.78 83.74 94.51 90.25 54.355 50.14 74.925 
72.76 55.215 55.195 88.485 93.495 73.97 69.13 61.305 71.16 
52.845 50.295 67.705 83.805 90.115 50.405 51.8 95.585 80.21 
88.815 81.545 65.95 94.98 69.63 77.125 81.835 71.17 72.62 
53.45 73.385 58.13 91.025 65.84 98.07 51.79 80.285 88.85 
86.42 52.7 52.085 72.83 84.28 53.03 61.3 79.245 65.295 
86.025 51.185 93.81 67.13 76.085 92.59 53.915 74.725 95.86 
67.14 54.365 84.365 71.445 88.185 82.53 92.29 52.415 96.84 
96.57 63.785 52.39 83.035 72.355 65.345 78.68 96.67 86.4 
92.885 77.495 60.915 97.35 92.45 88.715 78.15 50.42 70.405 
56.98 86.345 83.05 78.22 98.86 87.525 77.95 83.625 76.18 
96.12 83.29 69.75 62.11 76.055 69.6 89.09 87.8 50.635 
76.84 62.835 56.22 50.245 52.815 75.525 86.875 93.555 59.025 
99.67 66.455 68.84 94.965 67.945 94.775 68.07 64.025 74.59 
84.41 74.11 84.91 83.585 82.145 70.15 70.09 96.455 57.87 
81.64 83.55 54.625 65.465 84.18 85.45 86.085 84.815 75.275 
69.29 56.965 74.52 90.65 92.855 92.28 63.305 84.255 65.365 
73.945 98.425 98.165 63.02 96.25 99.025 82.515 97.425 89.34 
87.58 73.195 95.03 67.58 55.405 64.745 76.625 78.91 60.975 
88.385 55.6 54.835 51.13 83.815 52.98 54.325 69.905 95.18 
87.8 88.85 89.775 81.71 67.59 96.055 75.98 91.35 61.895 
86.605 62.66 70.86 60.2 74.92 71.17 72.135 50.36 55.315 
86.99 86.415 79.15 52.865 84.75 60.15 51.735 68.57 70.235 
87.61 75.41 84.62 80.295 97.175 96.02 56.16 64.77 52.215 
78.2 59.49 95.795 77.43 71.39 55.205 96.31 99.24 98.415 
51.31 69.795 78.985 90.835 81.36 83.64 91.62 58.615 95.61 
64.03 96.825 87.285 86.675 70.77 79.105 55.855 63.735 58.88 
51.345 76.09 73.265 93.505 54.535 86.805 58.515 99.665 94.88 
59.44 56.345 57.65 70.49 68.7 64.31 75.27 70.15 52.685 
90.695 64.77 88.345 98.93 75.615 55.635 79.92 81.14 58.525 
95.75 57.43 51.265 82.965 50.63 52.715 65.01 80.695 61.155 
77.02 58.98 76.67 63.49 56.54 85.42 93.6 91.705 90.41 
92.71 97.535 50.985 92.32 69.7 99.52 78.335 99.055 79.695 
91.885 89.07 73.565 90.895 65.37 95.105 96.09 61.69 72.9 
69.85 54.955 81.88 94.49 55.26 63.575 82.225 67.185 93.055 
96.775 81.74 68.11 94.02 88.605 56.275 74.095 76.605 72.995 
73.81 78.55 64.595 78.875 85.44 76.895 63.425 74.06 99.31 
74.885 62.53 75.855 57.795 90.945 70.05 94.77 86.715 96.495 
77.84 89.14 78.73 87.935 88.565 91.03 96.505 86.86 51.47 
83.66 55.085 51.73 51.175 57.68 67.415 70.88 96.035 99.52 
92.06 54.76 65.675 88.025 66.555 77.11 69.05 71.7 60.045 
76.05 61.68 58.295 81.71 69.715 62.865 75.765 55.685 78.455 
99.555 74.285 98.72 67.495 98.795 56.8 70.335 98.09 51.685 
55.68 88.215 56.525 59.005 74.39 68.65 78.305 97.06 84.435 
60.86 66.74 69.645 87.225 92.09 95.535 98.78 95.895 88.42 
79.68 66.88 60.45 77.71 64.63 82.33 55.475 56.7 75.42 
64.795 85.95 98.34 68.865 64.065 85.995 94.495 64.98 50.815 
89.905 93.3 74.65 94.665 79.47 99.01 69.405 50.355 87.34 
54.865 85.655 67.26 96.895 59.495 77.75 60.18 64.62 78.12 
63 88.185 60.31 66.29 67.08 67.325 83.54 91.41 93.13 
97.22 93.68 96.6 92.61 70.11 91.12 95.08 65.545 82.695 
75.265 90.545 66.89 75.405 50 56.69 79.945 97.13 90.335 
95.57 83.935 75.735 61.155 82.66 76.115 56.405 69.375 50.895 
60.61 74.25 82.95 69.065 61.27 76.75 55.655 57.47 95.905 
89.285 80.405 73.015 78.6 62.165 89.91 50.905 87.435 97.075 
77.02 93.61 94.125 96.48 51.485 95.67 50.16 52.755 84.46 
52.075 65.905 85.285 98.54 92.53 52.975 87.415 99.995 59.81 
61.485 75.055 78.88 56.545 50.77 94.885 62.935 99.66 66.91 
75.105 71.33 68.41 88.425 67.815 96.055 94.3 54.65 72.915 
79.95 71.425 95.43 86.57 59.46 70.58 79.1 57.38 87.45 
87.625 77.64 94.195 87.625 65.29 
p0 3 1049 double
0 -10 0 0 -10 0 0 -10 0 
0 -10 0 0 -10 0 0 -10 0 
0 -10 0 0 -10 0 0 -10 0 
0 -10 0 0 -10 0 0 -10 0 
0 -10 0 0 -10 0 0 -10 0 
0 -10 0 0 -10 0 0 -10 0 
0 -10 0 0 -10 0 0 -10 0 
0 -10 0 0 -10 0 0 -10 0 
0 -10 0 0 -10 0 0 -10 0 
0 -10 0 0 -10 0 0 -10 0 
0 -10 0 0 -10 0 0 -10 0 
0 -10 0 0 -10 0 0 -10 0 
0 -10 0 0 -10 0 0 -10 0 
0 -10 0 0 -10 0 0 -10 0 
0 -10 0 0 -10 0 0 -10 0 
0 -10 0 0 0 0 0 0 0 
0 0 0 0 0 0 0 0 0 
0 0 0 0 0 0 0 0 0 
0 0 0 0 0 0 0 0 0 
0 0 0 0 0 0 0 0 0 
0 0 0 0 0 0 -12 0 0 
0 0 0 0 0 0 0 0 0 
-12 0 0 -12 0 0 0 0 0 
0 0 0 0 0 0 -12 0 0 
0 0 0 0 0 0 0 0 0 
0 0 0 0 0 0 0 0 0 
0 0 0 0 0 0 0 0 0 
0 0 0 0 0 0 0 0 0 
0 0 0 0 0 0 0 0 0 
0 0 0 0 0 0 0 0 0 
0 0 0 0 0 0 0 0 0 
0 0 0 0 0 0 0 0 0 
0 0 0 0 0 0 0 0 0 
0 0 0 0 0 0 0 0 0 
0 0 0 0 0 0 0 0 0 
0 0 0 0 0 0 0 0 0 
0 0 0 0 0 0 0 0 0 
0 0 0 0 0 0 0 0 0 
0 0 0 0 0 0 0 0 0 
0 0 0 0 0 0 0 0 0 
0 0 0 0 0 0 0 0 0 
0 0 0 0 0 0 0 0 0 
0 0 0 0 0 0 0 0 0 
0 0 0 0 0 0 0 0 0 
0 0 0 0 0 0 0 0 0 
0 0 0 0 0 0 0 0 0 
0 0 0 0 0 0 0 0 0 
0 0 0 0 0 0 0 0 0 
0 0 0 0 0 0 0 0 0 
0 0 0 0 0 0 0 0 0 
0 0 0 0 0 0 0 0 0 
0 0 0 0 0 0 0 0 0 
0 0 0 0 0 0 0 0 0 
0 0 0 0 0 0 0 0 0 
0 0 0 0 0 0 0 0 0 
0 0 0 0 0 0 0 0 0 
0 0 0 0 0 0 0 0 0 
0 0 0 0 0 0 0 0 0 
0 0 0 0 0 0 0 0 0 
0 0 0 0 0 0 0 0 0 
0 0 0 0 0 0 0 0 0 
0 0 0 0 0 0 0 0 0 
0 0 0 0 0 0 0 0 0 
0 0 0 0 0 0 0 0 0 
0 0 0 0 0 0 0 0 0 
0 0 0 0 0 0 0 0 0 
0 0 0 0 0 0 0 0 0 
0 0 0 0 0 0 12 0 0 
12 0 0 0 0 0 0 0 0 
0 0 0 12 0 0 12 0 0 
0 0 0 0 0 0 0 0 0 
0 0 0 0 0 0 0 0 0 
0 0 0 0 0 0 0 0 0 
0 0 0 0 0 0 0 0 0 
0 0 0 0 0 0 0 0 0 
0 0 0 0 0 0 0 0 0 
0 0 0 0 0 0 0 0 0 
0 0 0 -12 0 0 -12 0 0 
-12 0 0 0 0 0 0 0 0 
0 0 0 0 0 0 0 0 0 
0 0 0 0 0 0 0 0 0 
0 0 0 0 0 0 0 0 0 
0 0 0 0 0 0 0 0 0 
0 0 0 0 0 0 0 0 0 
0 0 0 0 0 0 0 0 0 
12 0 0 12 0 0 12 0 0 
12 0 0 12 0 0 0 0 0 
0 0 0 0 0 0 0 0 0 
0 0 0 0 0 0 0 0 0 
0 0 0 0 0 0 0 0 0 
-12 0 0 -12 0 0 -12 0 0 
0 0 0 0 0 0 0 0 0 
0 0 0 0 0 0 0 0 0 
0 0 0 0 0 0 0 0 0 
0 0 0 0 0 0 0 0 0 
0 0 0 0 0 0 0 0 0 
0 0 0 0 0 0 0 0 0 
0 0 0 0 0 0 12 0 0 
12 0 0 12 0 0 12 0 0 
12 0 0 0 0 0 0 0 0 
0 0 0 0 0 0 0 0 0 
0 0 0 0 0 0 0 0 0 
0 0 0 0 0 0 -12 0 0 
-12 0 0 0 0 0 0 0 0 
0 0 0 0 0 0 0 0 0 
0 0 0 0 0 0 0 0 0 
0 0 0 0 0 0 0 0 0 
0 0 0 0 0 0 0 0 0 
0 0 0 0 0 0 0 0 0 
0 0 0 0 0 0 0 0 0 
12 0 0 12 0 0 12 0 0 
0 0 0 0 0 0 0 0 0 
0 0 0 0 0 0 0 0 0 
0 0 0 0 0 0 0 0 0 
0 0 0 -12 0 0 -12 0 0 
-12 0 0 0 0 0 0 0 0 
0 0 0 0 0 0 0 0 0 
0 0 0 0 0 0 0 0 0 
0 0 0 0 0 0 0 0 0 
0 0 0 0 0 0 0 0 0 
0 0 0 0 0 0 0 0 0 
0 0 0 0 0 0 0 0 0 
12 0 0 12 0 0 12 0 0 
12 0 0 12 0 0 0 0 0 
0 0 0 0 0 0 0 0 0 
0 0 0 0 0 0 0 0 0 
0 0 0 0 0 0 0 0 0 
-12 0 0 -12 0 0 -12 0 0 
0 0 0 0 0 0 0 0 0 
0 0 0 0 0 0 0 0 0 
0 0 0 0 0 0 0 0 0 
0 0 0 0 0 0 0 0 0 
0 0 0 0 0 0 0 0 0 
0 0 0 0 0 0 0 0 0 
0 0 0 0 0 0 12 0 0 
0 0 0 0 0 0 0 0 0 
0 0 0 0 0 0 0 0 0 
0 0 0 0 0 0 0 0 0 
0 0 0 -12 0 0 0 0 0 
0 0 0 0 0 0 0 0 0 
0 0 0 0 0 0 0 0 0 
0 0 0 0 0 0 0 0 0 
0 0 0 0 0 0 0 0 0 
0 0 0 0 0 0 0 0 0 
0 0 0 0 0 0 0 0 0 
0 0 0 12 0 0 12 0 0 
12 0 0 12 0 0 0 0 0 
0 0 0 0 0 0 0 0 0 
0 0 0 0 0 0 0 0 0 
0 0 0 0 0 0 0 0 0 
-12 0 0 -12 0 0 -12 0 0 
0 0 0 0 0 0 0 0 0 
0 0 0 0 0 0 0 0 0 
0 0 0 0 0 0 0 0 0 
0 0 0 0 0 0 0 0 0 
0 0 0 0 0 0 0 0 0 
0 0 0 0 0 0 0 0 0 
0 0 0 0 0 0 12 0 0 
12 0 0 12 0 0 0 0 0 
0 0 0 0 0 0 0 0 0 
0 0 0 0 0 0 0 0 0 
0 0 0 0 0 0 0 0 0 
-12 0 0 0 0 0 0 0 0 
0 0 0 0 0 0 0 0 0 
0 0 0 0 0 0 0 0 0 
0 0 0 0 0 0 0 0 0 
0 0 0 0 0 0 0 0 0 
0 0 0 0 0 0 0 0 0 
0 0 0 0 0 0 0 0 0 
0 0 0 0 0 0 0 0 0 
-9 9 0 0 0 0 -9 9 0 
-9 9 0 0 0 0 0 0 0 
0 0 0 0 0 0 0 0 0 
0 0 0 0 0 0 0 0 0 
0 0 0 0 0 0 0 0 0 
0 0 0 0 0 0 0 0 0 
0 0 0 0 0 0 0 0 0 
0 0 0 0 0 0 0 0 0 
0 0 0 0 0 0 0 0 0 
0 0 0 0 0 0 0 0 0 
0 0 0 0 0 0 0 0 0 
0 0 0 0 0 0 0 0 0 
0 0 0 0 0 0 0 0 0 
0 0 0 0 0 0 0 0 0 
0 0 0 0 0 0 0 0 0 
0 0 0 0 0 0 0 0 0 
0 0 0 0 0 0 9 9 0 
0 0 0 0 0 0 0 0 0 
0 0 0 0 0 0 0 0 0 
9 9 0 0 0 0 0 0 0 
0 0 0 0 0 0 9 9 0 
0 0 0 0 0 0 9 9 0 
0 0 0 0 0 0 0 0 0 
0 0 0 0 0 0 0 0 0 
0 0 0 12 0 0 12 0 0 
12 0 0 0 0 0 0 0 0 
0 0 0 0 0 0 0 0 0 
0 0 0 0 0 0 0 0 0 
0 0 0 0 0 0 12 0 0 
0 0 0 0 0 0 0 0 0 
0 0 0 0 0 0 0 0 0 
0 0 0 0 0 0 0 0 0 
0 0 0 0 0 0 0 0 0 
0 0 0 0 0 0 0 0 0 
0 0 0 0 0 0 0 0 0 
0 0 0 0 0 0 0 0 0 
0 0 0 0 0 0 0 0 0 
0 0 0 0 0 0 0 0 0 
0 0 0 0 0 0 0 0 0 
0 0 0 0 0 0 0 0 0 
0 0 0 0 0 0 0 0 0 
0 0 0 0 0 0 0 0 0 
0 0 0 0 0 0 0 0 0 
0 0 0 0 0 0 0 0 0 
0 0 0 0 0 0 0 0 0 
0 0 0 0 0 0 0 0 0 
0 0 0 0 0 0 0 0 0 
0 0 0 0 0 0 0 0 0 
0 0 0 0 0 0 0 0 0 
0 0 0 0 0 0 0 0 0 
0 0 0 0 0 0 0 0 0 
0 0 0 0 0 0 0 0 0 
0 0 0 0 0 0 0 0 0 
0 0 0 0 0 0 0 0 0 
0 0 0 0 0 0 0 0 0 
0 0 0 0 0 0 0 0 0 
0 0 0 0 0 0 0 0 0 
0 0 0 0 0 0 0 0 0 
0 0 0 0 0 0 0 0 0 
0 0 0 0 0 0 0 0 0 
0 0 0 0 0 0 0 0 0 
0 0 0 0 0 0 0 0 0 
0 0 0 0 0 0 0 0 0 
0 0 0 0 0 0 0 0 0 
0 0 0 0 0 0 0 0 0 
0 0 0 0 0 0 0 0 0 
0 0 0 0 0 0 0 0 0 
0 0 0 0 0 0 0 0 0 
0 0 0 0 0 0 0 0 0 
0 0 0 0 0 0 0 0 0 
0 0 0 0 0 0 0 0 0 
0 0 0 0 0 0 0 0 0 
0 0 0 0 0 0 0 0 0 
0 0 0 0 0 0 0 0 0 
0 0 0 0 0 0 0 0 0 
0 0 0 0 0 0 0 0 0 
0 0 0 0 0 0 0 0 0 
0 0 0 0 0 0 0 0 0 
0 0 0 0 0 0 0 0 0 
0 0 0 0 0 0 0 0 0 
0 0 0 0 0 0 13.5 10 0 
0 0 0 0 0 0 13.5 10 0 
13.5 10 0 13.5 10 0 0 0 0 
0 0 0 0 0 0 0 0 0 
0 0 0 0 0 0 0 0 0 
0 0 0 0 0 0 0 0 0 
0 0 0 0 0 0 0 0 0 
0 0 0 0 0 0 0 0 0 
0 0 0 0 0 0 0 0 0 
0 0 0 0 0 0 0 0 0 
0 0 0 0 0 0 0 0 0 
0 0 0 0 0 0 0 0 0 
0 0 0 0 0 0 0 0 0 
0 0 0 13.5 10 0 0 0 0 
0 0 0 0 0 0 0 0 0 
0 0 0 0 0 0 0 0 0 
0 0 0 0 0 0 0 0 0 
0 0 0 0 0 0 0 0 0 
0 0 0 0 0 0 0 0 0 
0 0 0 0 0 0 0 0 0 
0 0 0 0 0 0 0 0 0 
0 0 0 0 0 0 0 0 0 
13.5 10 0 13.5 10 0 0 0 0 
0 0 0 0 0 0 0 0 0 
0 0 0 0 0 0 0 0 0 
0 0 0 0 0 0 0 0 0 
0 0 0 0 0 0 0 0 0 
0 0 0 0 0 0 0 0 0 
0 0 0 0 0 0 0 0 0 
0 0 0 0 0 0 0 0 0 
0 0 0 0 0 0 0 0 0 
13.5 10 0 0 0 0 0 0 0 
0 0 0 0 0 0 0 0 0 
0 0 0 0 0 0 0 0 0 
0 0 0 0 0 0 0 0 0 
0 0 0 0 0 0 0 0 0 
0 0 0 0 0 0 0 0 0 
0 0 0 0 0 0 0 0 0 
9 14.5 0 9 14.5 0 0 0 0 
0 0 0 0 0 0 0 0 0 
0 0 0 0 0 0 0 0 0 
0 0 0 0 0 0 0 0 0 
0 0 0 0 0 0 0 0 0 
0 0 0 0 0 0 0 0 0 
0 0 0 0 0 0 0 0 0 
0 0 0 0 0 0 0 0 0 
0 0 0 0 0 0 0 0 0 
0 0 0 0 0 0 0 0 0 
0 0 0 0 0 0 0 0 0 
0 0 0 0 0 0 0 0 0 
0 0 0 0 0 0 0 0 0 
0 0 0 0 0 0 0 0 0 
0 0 0 0 0 0 0 0 0 
0 0 0 0 0 0 0 0 0 
0 0 0 0 0 0 0 0 0 
0 0 0 0 0 0 0 0 0 
0 0 0 0 0 0 0 0 0 
0 0 0 0 0 0 0 0 0 
0 0 0 0 0 0 0 0 0 
0 0 0 0 0 0 0 0 0 
0 0 0 0 0 0 0 0 0 
0 0 0 0 0 0 0 0 0 
0 0 0 0 0 0 0 0 0 
0 0 0 0 0 0 0 0 0 
0 0 0 0 0 0 0 0 0 
0 0 0 0 0 0 0 0 0 
0 0 0 0 0 0 0 0 0 
0 0 0 0 0 0 0 0 0 
0 0 0 0 0 0 0 0 0 
0 0 0 0 0 0 0 0 0 
0 0 0 0 0 0 0 0 0 
0 0 0 0 0 0 0 0 0 
0 0 0 0 0 0 0 0 0 
0 0 0 0 0 0 0 0 0 
0 0 0 0 0 0 0 0 0 
0 0 0 0 0 0 0 0 0 
0 0 0 0 0 0 0 0 0 
0 0 0 0 0 0 0 0 0 
0 0 0 0 0 0 0 0 0 
0 0 0 0 0 0 0 0 0 
0 0 0 0 0 0 0 0 0 
0 0 0 0 0 0 0 0 0 
0 0 0 0 0 0 0 0 0 
0 0 0 0 0 0 0 0 0 
0 0 0 0 0 0 0 0 0 
0 0 0 0 0 0 0 0 0 
0 0 0 0 0 0 0 0 0 
0 0 0 0 0 0 0 0 0 
0 0 0 0 0 0 0 0 0 
0 0 0 0 0 0 0 0 0 
0 0 0 0 0 0 0 0 0 
0 0 0 0 0 0 0 0 0 
0 0 0 0 0 0 0 0 0 
0 0 0 0 0 0 0 0 0 
0 0 0 0 0 0 0 0 0 
0 0 0 0 0 0 0 0 0 
0 0 0 0 0 0 0 0 0 
0 0 0 0 0 0 0 0 0 
0 0 0 0 0 0 0 0 0 
0 0 0 0 0 0 
v0 1 1049 double
3.7348 3.5598 3.908 3.4418 3.1534 3.5868 3.7604 3.8026 2.2246 
2.9072 3.5098 2.7598 3.447 3.7132 2.7868 2.2234 3.1552 3.3932 
2.087 3.4192 3.3376 2.8894 3.5394 3.9438 2.959 2.5562 2.798 
2.9348 3.3968 3.7722 3.7956 3.5338 2.7364 2.9892 2.5998 3.7004 
3.7386 2.105 3.6894 2.2178 3.6034 3.6802 3.4142 2.6972 3.2294 
3.9752 0 0 0 0 0 0 0 0 
0 0 0 0 0 0 0 0 3.4388 
0 0 0 3.7164 2.726 0 0 0 3.9802 
0 0 0 0 0 0 0 0 0 
0 0 0 0 0 0 0 0 0 
0 0 0 0 0 0 0 0 0 
0 0 0 0 0 0 0 0 0 
0 0 0 0 0 0 0 0 0 
0 0 0 0 0 0 0 0 0 
0 0 0 0 0 0 0 0 0 
0 0 0 0 0 0 0 0 0 
0 0 0 0 0 0 0 0 0 
0 0 0 0 0 0 0 0 0 
0 0 0 0 0 0 0 0 0 
0 0 0 0 0 0 0 0 0 
0 0 0 0 0 0 0 0 0 
0 0 0 0 0 0 0 0 0 
0 0 0 0 0 3.358 3.1134 0 0 
0 2.8228 2.5702 0 0 0 0 0 0 
0 0 0 0 0 0 0 0 0 
0 0 0 0 0 0 0 3.938 2.9862 
3.2554 0 0 0 0 0 0 0 0 
0 0 0 0 0 0 0 0 0 
0 0 0 3.2458 3.0734 2.227 2.6856 2.3004 0 
0 0 0 0 0 0 0 0 0 
2.0272 3.4416 3.5126 0 0 0 0 0 0 
0 0 0 0 0 0 0 0 0 
0 0 0 0 0 3.8484 2.9518 2.5952 3.4702 
3.991 0 0 0 0 0 0 0 0 
0 0 2.0254 3.3812 0 0 0 0 0 
0 0 0 0 0 0 0 0 0 
0 0 0 0 0 0 2.192 2.5666 2.325 
0 0 0 0 0 0 0 0 0 
0 2.5352 3.3948 2.8832 0 0 0 0 0 
0 0 0 0 0 0 0 0 0 
0 0 0 0 0 0 3.4072 3.8554 2.8338 
3.219 3.2878 0 0 0 0 0 0 0 
0 0 0 3.236 2.7916 2.2866 0 0 0 
0 0 0 0 0 0 0 0 0 
0 0 0 0 0 0 0 0 3.5612 
0 0 0 0 0 0 0 0 0 
0 2.9892 0 0 0 0 0 0 0 
0 0 0 0 0 0 0 0 0 
0 0 0 0 2.4594 3.053 3.3678 2.0104 0 
0 0 0 0 0 0 0 0 0 
2.5898 2.9256 3.4754 0 0 0 0 0 0 
0 0 0 0 0 0 0 0 0 
0 0 0 0 0 3.1832 2.9022 3.8268 0 
0 0 0 0 0 0 0 0 0 
3.18 0 0 0 0 0 0 0 0 
0 0 0 0 0 0 0 0 0 
0 0 0 0 0 0 2.1056 0 2.5992 
2.6016 0 0 0 0 0 0 0 0 
0 0 0 0 0 0 0 0 0 
0 0 0 0 0 0 0 0 0 
0 0 0 0 0 0 0 0 0 
0 0 0 0 0 0 0 0 0 
0 0 2.6138 0 0 0 0 0 0 
2.79 0 0 0 0 2.0302 0 0 2.0424 
0 0 0 0 0 0 0 2.264 2.1178 
3.514 0 0 0 0 0 0 0 0 
0 0 3.852 0 0 0 0 0 0 
0 0 0 0 0 0 0 0 0 
0 0 0 0 0 0 0 0 0 
0 0 0 0 0 0 0 0 0 
0 0 0 0 0 0 0 0 0 
0 0 0 0 0 0 0 0 0 
0 0 0 0 0 0 0 0 0 
0 0 0 0 0 0 0 0 0 
0 0 0 0 0 0 0 0 0 
0 0 0 0 0 0 0 0 0 
0 0 0 0 0 0 0 0 0 
0 0 0 0 0 0 0 0 0 
0 0 0 0 0 0 0 0 0 
0 0 0 0 0 0 0 0 0 
0 0 0 0 0 0 0 0 0 
0 0 0 0 0 0 0 0 0 
0 0 0 0 0 0 0 0 0 
0 0 0 0 0 3.2768 0 0 2.5972 
2.6632 2.4322 0 0 0 0 0 0 0 
0 0 0 0 0 0 0 0 0 
0 0 0 0 0 0 0 0 0 
0 0 0 0 0 0 0 2.7532 0 
0 0 0 0 0 0 0 0 0 
0 0 0 0 0 0 0 0 0 
0 0 0 0 0 0 2.2322 3.075 0 
0 0 0 0 0 0 0 0 0 
0 0 0 0 0 0 0 0 0 
0 0 0 0 0 0 2.1262 0 0 
0 0 0 0 0 0 0 0 0 
0 0 0 0 0 0 0 0 0 
2.1126 2.0074 0 0 0 0 0 0 0 
0 0 0 0 0 0 0 0 0 
0 0 0 0 0 0 0 0 0 
0 0 0 0 0 0 0 0 0 
0 0 0 0 0 0 0 0 0 
0 0 0 0 0 0 0 0 0 
0 0 0 0 0 0 0 0 0 
0 0 0 0 0 0 0 0 0 
0 0 0 0 0 0 0 0 0 
0 0 0 0 0 0 0 0 0 
0 0 0 0 0 0 0 0 0 
0 0 0 0 0 0 0 0 0 
0 0 0 0 0 0 0 0 0 
0 0 0 0 0 0 0 0 0 
0 0 0 0 0 0 0 0 0 
0 0 0 0 0 0 0 0 0 
0 0 0 0 0 0 0 0 0 
0 0 0 0 0 0 0 0 0 
0 0 0 0 0 0 0 0 0 
0 0 0 0 0 0 0 0 0 
0 0 0 0 0 
tau 1 1049 double
2 2 2 2 2 2 2 2 2 
2 2 2 2 2 2 2 2 2 
2 2 2 2 2 2 2 2 2 
2 2 2 2 2 2 2 2 2 
2 2 2 2 2 2 2 2 2 
2 2 2 2 2 2 2 2 2 
2 2 2 2 2 2 2 2 2 
2 2 2 2 2 2 2 2 2 
2 2 2 2 2 2 2 2 2 
2 2 2 2 2 2 2 2 2 
2 2 2 2 2 2 2 2 2 
2 2 2 2 2 2 2 2 2 
2 2 2 2 2 2 2 2 2 
2 2 2 2 2 2 2 2 2 
2 2 2 2 2 2 2 2 2 
2 2 2 2 2 2 2 2 2 
2 2 2 2 2 2 2 2 2 
2 2 2 2 2 2 2 2 2 
2 2 2 2 2 2 2 2 2 
2 2 2 2 2 2 2 2 2 
2 2 2 2 2 2 2 2 2 
2 2 2 2 2 2 2 2 2 
2 2 2 2 2 2 2 2 2 
2 2 2 2 2 2 2 2 2 
2 2 2 2 2 2 2 2 2 
2 2 2 2 2 2 2 2 2 
2 2 2 2 2 2 2 2 2 
2 2 2 2 2 2 2 2 2 
2 2 2 2 2 2 2 2 2 
2 2 2 2 2 2 2 2 2 
2 2 2 2 2 2 2 2 2 
2 2 2 2 2 2 2 2 2 
2 2 2 2 2 2 2 2 2 
2 2 2 2 2 2 2 2 2 
2 2 2 2 2 2 2 2 2 
2 2 2 2 2 2 2 2 2 
2 2 2 2 2 2 2 2 2 
2 2 2 2 2 2 2 2 2 
2 2 2 2 2 2 2 2 2 
2 2 2 2 2 2 2 2 2 
2 2 2 2 2 2 2 2 2 
2 2 2 2 2 2 2 2 2 
2 2 2 2 2 2 2 2 2 
2 2 2 2 2 2 2 2 2 
2 2 2 2 2 2 2 2 2 
2 2 2 2 2 2 2 2 2 
2 2 2 2 2 2 2 2 2 
2 2 2 2 2 2 2 2 2 
2 2 2 2 2 2 2 2 2 
2 2 2 2 2 2 2 2 2 
2 2 2 2 2 2 2 2 2 
2 2 2 2 2 2 2 2 2 
2 2 2 2 2 2 2 2 2 
2 2 2 2 2 2 2 2 2 
2 2 2 2 2 2 2 2 2 
2 2 2 2 2 2 2 2 2 
2 2 2 2 2 2 2 2 2 
2 2 2 2 2 2 2 2 2 
2 2 2 2 2 2 2 2 2 
2 2 2 2 2 2 2 2 2 
2 2 2 2 2 2 2 2 2 
2 2 2 2 2 2 2 2 2 
2 2 2 2 2 2 2 2 2 
2 2 2 2 2 2 2 2 2 
2 2 2 2 2 2 2 2 2 
2 2 2 2 2 2 2 2 2 
2 2 2 2 2 2 2 2 2 
2 2 2 2 2 2 2 2 2 
2 2 2 2 2 2 2 2 2 
2 2 2 2 2 2 2 2 2 
2 2 2 2 2 2 2 2 2 
2 2 2 2 2 2 2 2 2 
2 2 2 2 2 2 2 2 2 
2 2 2 2 2 2 2 2 2 
2 2 2 2 2 2 2 2 2 
2 2 2 2 2 2 2 2 2 
2 2 2 2 2 2 2 2 2 
2 2 2 2 2 2 2 2 2 
2 2 2 2 2 2 2 2 2 
2 2 2 2 2 2 2 2 2 
2 2 2 2 2 2 2 2 2 
2 2 2 2 2 2 2 2 2 
2 2 2 2 2 2 2 2 2 
2 2 2 2 2 2 2 2 2 
2 2 2 2 2 2 2 2 2 
2 2 2 2 2 2 2 2 2 
2 2 2 2 2 2 2 2 2 
2 2 2 2 2 2 2 2 2 
2 2 2 2 2 2 2 2 2 
2 2 2 2 2 2 2 2 2 
2 2 2 2 2 2 2 2 2 
2 2 2 2 2 2 2 2 2 
2 2 2 2 2 2 2 2 2 
2 2 2 2 2 2 2 2 2 
2 2 2 2 2 2 2 2 2 
2 2 2 2 2 2 2 2 2 
2 2 2 2 2 2 2 2 2 
2 2 2 2 2 2 2 2 2 
2 2 2 2 2 2 2 2 2 
2 2 2 2 2 2 2 2 2 
2 2 2 2 2 2 2 2 2 
2 2 2 2 2 2 2 2 2 
2 2 2 2 2 2 2 2 2 
2 2 2 2 2 2 2 2 2 
2 2 2 2 2 2 2 2 2 
2 2 2 2 2 2 2 2 2 
2 2 2 2 2 2 2 2 2 
2 2 2 2 2 2 2 2 2 
2 2 2 2 2 2 2 2 2 
2 2 2 2 2 2 2 2 2 
2 2 2 2 2 2 2 2 2 
2 2 2 2 2 2 2 2 2 
2 2 2 2 2 2 2 2 2 
2 2 2 2 2 2 2 2 2 
2 2 2 2 2 2 2 2 2 
2 2 2 2 2 2 2 2 2 
2 2 2 2 2 
R 1 1049 double
0.30266 0.33263 0.28195 0.26351 0.31931 0.27325 0.27528 0.31987 0.30154 
0.28149 0.33859 0.33828 0.34851 0.34097 0.33184 0.31776 0.34517 0.33777 
0.25657 0.26298 0.33421 0.25774 0.33398 0.27641 0.33283 0.32955 0.2897 
0.32722 0.30352 0.33159 0.26783 0.34126 0.28662 0.2979 0.25639 0.25399 
0.33566 0.27197 0.27491 0.2931 0.31815 0.26354 0.28083 0.30199 0.31582 
0.30856 0.1 0.1 0.1 0.1 0.1 0.1 0.1 0.1 
0.1 0.1 0.1 0.1 0.1 0.1 0.1 0.1 0.32665 
0.1 0.1 0.1 0.26852 0.34593 0.1 0.1 0.1 0.25853 
0.1 0.1 0.1 0.1 0.1 0.1 0.1 0.1 0.1 
0.1 0.1 0.1 0.1 0.1 0.1 0.1 0.1 0.1 
0.1 0.1 0.1 0.1 0.1 0.1 0.1 0.1 0.1 
0.1 0.1 0.1 0.1 0.1 0.1 0.1 0.1 0.1 
0.1 0.1 0.1 0.1 0.1 0.1 0.1 0.1 0.1 
0.1 0.1 0.1 0.1 0.1 0.1 0.1 0.1 0.1 
0.1 0.1 0.1 0.1 0.1 0.1 0.1 0.1 0.1 
0.1 0.1 0.1 0.1 0.1 0.1 0.1 0.1 0.1 
0.1 0.1 0.1 0.1 0.1 0.1 0.1 0.1 0.1 
0.1 0.1 0.1 0.1 0.1 0.1 0.1 0.1 0.1 
0.1 0.1 0.1 0.1 0.1 0.1 0.1 0.1 0.1 
0.1 0.1 0.1 0.1 0.1 0.1 0.1 0.1 0.1 
0.1 0.1 0.1 0.1 0.1 0.1 0.1 0.1 0.1 
0.1 0.1 0.1 0.1 0.1 0.1 0.1 0.1 0.1 
0.1 0.1 0.1 0.1 0.1 0.34015 0.2889 0.1 0.1 
0.1 0.26761 0.32278 0.1 0.1 0.1 0.1 0.1 0.1 
0.1 0.1 0.1 0.1 0.1 0.1 0.1 0.1 0.1 
0.1 0.1 0.1 0.1 0.1 0.1 0.1 0.34672 0.33382 
0.31087 0.1 0.1 0.1 0.1 0.1 0.1 0.1 0.1 
0.1 0.1 0.1 0.1 0.1 0.1 0.1 0.1 0.1 
0.1 0.1 0.1 0.28172 0.27735 0.31127 0.27972 0.25037 0.1 
0.1 0.1 0.1 0.1 0.1 0.1 0.1 0.1 0.1 
0.25099 0.25308 0.3159 0.1 0.1 0.1 0.1 0.1 0.1 
0.1 0.1 0.1 0.1 0.1 0.1 0.1 0.1 0.1 
0.1 0.1 0.1 0.1 0.1 0.27555 0.30511 0.28827 0.30421 
0.25928 0.1 0.1 0.1 0.1 0.1 0.1 0.1 0.1 
0.1 0.1 0.2591 0.25528 0.1 0.1 0.1 0.1 0.1 
0.1 0.1 0.1 0.1 0.1 0.1 0.1 0.1 0.1 
0.1 0.1 0.1 0.1 0.1 0.1 0.31364 0.31651 0.2685 
0.1 0.1 0.1 0.1 0.1 0.1 0.1 0.1 0.1 
0.1 0.3 0.27957 0.26541 0.1 0.1 0.1 0.1 0.1 
0.1 0.1 0.1 0.1 0.1 0.1 0.1 0.1 0.1 
0.1 0.1 0.1 0.1 0.1 0.1 0.28069 0.31217 0.25997 
0.30805 0.25888 0.1 0.1 0.1 0.1 0.1 0.1 0.1 
0.1 0.1 0.1 0.29693 0.29225 0.30482 0.1 0.1 0.1 
0.1 0.1 0.1 0.1 0.1 0.1 0.1 0.1 0.1 
0.1 0.1 0.1 0.1 0.1 0.1 0.1 0.1 0.2957 
0.1 0.1 0.1 0.1 0.1 0.1 0.1 0.1 0.1 
0.1 0.32017 0.1 0.1 0.1 0.1 0.1 0.1 0.1 
0.1 0.1 0.1 0.1 0.1 0.1 0.1 0.1 0.1 
0.1 0.1 0.1 0.1 0.27439 0.2735 0.27393 0.32716 0.1 
0.1 0.1 0.1 0.1 0.1 0.1 0.1 0.1 0.1 
0.26173 0.28537 0.33657 0.1 0.1 0.1 0.1 0.1 0.1 
0.1 0.1 0.1 0.1 0.1 0.1 0.1 0.1 0.1 
0.1 0.1 0.1 0.1 0.1 0.31621 0.25008 0.27071 0.1 
0.1 0.1 0.1 0.1 0.1 0.1 0.1 0.1 0.1 
0.32334 0.1 0.1 0.1 0.1 0.1 0.1 0.1 0.1 
0.1 0.1 0.1 0.1 0.1 0.1 0.1 0.1 0.1 
0.1 0.1 0.1 0.1 0.1 0.1 0.25871 0.1 0.29985 
0.29552 0.1 0.1 0.1 0.1 0.1 0.1 0.1 0.1 
0.1 0.1 0.1 0.1 0.1 0.1 0.1 0.1 0.1 
0.1 0.1 0.1 0.1 0.1 0.1 0.1 0.1 0.1 
0.1 0.1 0.1 0.1 0.1 0.1 0.1 0.1 0.1 
0.1 0.1 0.1 0.1 0.1 0.1 0.1 0.1 0.1 
0.1 0.1 0.33762 0.1 0.1 0.1 0.1 0.1 0.1 
0.28428 0.1 0.1 0.1 0.1 0.31506 0.1 0.1 0.34368 
0.1 0.1 0.1 0.1 0.1 0.1 0.1 0.34334 0.3228 
0.33577 0.1 0.1 0.1 0.1 0.1 0.1 0.1 0.1 
0.1 0.1 0.3161 0.1 0.1 0.1 0.1 0.1 0.1 
0.1 0.1 0.1 0.1 0.1 0.1 0.1 0.1 0.1 
0.1 0.1 0.1 0.1 0.1 0.1 0.1 0.1 0.1 
0.1 0.1 0.1 0.1 0.1 0.1 0.1 0.1 0.1 
0.1 0.1 0.1 0.1 0.1 0.1 0.1 0.1 0.1 
0.1 0.1 0.1 0.1 0.1 0.1 0.1 0.1 0.1 
0.1 0.1 0.1 0.1 0.1 0.1 0.1 0.1 0.1 
0.1 0.1 0.1 0.1 0.1 0.1 0.1 0.1 0.1 
0.1 0.1 0.1 0.1 0.1 0.1 0.1 0.1 0.1 
0.1 0.1 0.1 0.1 0.1 0.1 0.1 0.1 0.1 
0.1 0.1 0.1 0.1 0.1 0.1 0.1 0.1 0.1 
0.1 0.1 0.1 0.1 0.1 0.1 0.1 0.1 0.1 
0.1 0.1 0.1 0.1 0.1 0.1 0.1 0.1 0.1 
0.1 0.1 0.1 0.1 0.1 0.1 0.1 0.1 0.1 
0.1 0.1 0.1 0.1 0.1 0.1 0.1 0.1 0.1 
0.1 0.1 0.1 0.1 0.1 0.1 0.1 0.1 0.1 
0.1 0.1 0.1 0.1 0.1 0.1 0.1 0.1 0.1 
0.1 0.1 0.1 0.1 0.1 0.32361 0.1 0.1 0.33976 
0.26888 0.26269 0.1 0.1 0.1 0.1 0.1 0.1 0.1 
0.1 0.1 0.1 0.1 0.1 0.1 0.1 0.1 0.1 
0.1 0.1 0.1 0.1 0.1 0.1 0.1 0.1 0.1 
0.1 0.1 0.1 0.1 0.1 0.1 0.1 0.33341 0.1 
0.1 0.1 0.1 0.1 0.1 0.1 0.1 0.1 0.1 
0.1 0.1 0.1 0.1 0.1 0.1 0.1 0.1 0.1 
0.1 0.1 0.1 0.1 0.1 0.1 0.31445 0.28437 0.1 
0.1 0.1 0.1 0.1 0.1 0.1 0.1 0.1 0.1 
0.1 0.1 0.1 0.1 0.1 0.1 0.1 0.1 0.1 
0.1 0.1 0.1 0.1 0.1 0.1 0.33954 0.1 0.1 
0.1 0.1 0.1 0.1 0.1 0.1 0.1 0.1 0.1 
0.1 0.1 0.1 0.1 0.1 0.1 0.1 0.1 0.1 
0.33412 0.25952 0.1 0.1 0.1 0.1 0.1 0.1 0.1 
0.1 0.1 0.1 0.1 0.1 0.1 0.1 0.1 0.1 
0.1 0.1 0.1 0.1 0.1 0.1 0.1 0.1 0.1 
0.1 0.1 0.1 0.1 0.1 0.1 0.1 0.1 0.1 
0.1 0.1 0.1 0.1 0.1 0.1 0.1 0.1 0.1 
0.1 0.1 0.1 0.1 0.1 0.1 0.1 0.1 0.1 
0.1 0.1 0.1 0.1 0.1 0.1 0.1 0.1 0.1 
0.1 0.1 0.1 0.1 0.1 0.1 0.1 0.1 0.1 
0.1 0.1 0.1 0.1 0.1 0.1 0.1 0.1 0.1 
0.1 0.1 0.1 0.1 0.1 0.1 0.1 0.1 0.1 
0.1 0.1 0.1 0.1 0.1 0.1 0.1 0.1 0.1 
0.1 0.1 0.1 0.1 0.1 0.1 0.1 0.1 0.1 
0.1 0.1 0.1 0.1 0.1 0.1 0.1 0.1 0.1 
0.1 0.1 0.1 0.1 0.1 0.1 0.1 0.1 0.1 
0.1 0.1 0.1 0.1 0.1 0.1 0.1 0.1 0.1 
0.1 0.1 0.1 0.1 0.1 0.1 0.1 0.1 0.1 
0.1 0.1 0.1 0.1 0.1 0.1 0.1 0.1 0.1 
0.1 0.1 0.1 0.1 0.1 0.1 0.1 0.1 0.1 
0.1 0.1 0.1 0.1 0.1 0.1 0.1 0.1 0.1 
0.1 0.1 0.1 0.1 0.1 0.1 0.1 0.1 0.1 
0.1 0.1 0.1 0.1 0.1 
a 3 1049 double
0 0 0 0 0 0 0 0 0 
0 0 0 0 0 0 0 0 0 
0 0 0 0 0 0 0 0 0 
0 0 0 0 0 0 0 0 0 
0 0 0 0 0 0 0 0 0 
0 0 0 0 0 0 0 0 0 
0 0 0 0 0 0 0 0 0 
0 0 0 0 0 0 0 0 0 
0 0 0 0 0 0 0 0 0 
0 0 0 0 0 0 0 0 0 
0 0 0 0 0 0 0 0 0 
0 0 0 0 0 0 0 0 0 
0 0 0 0 0 0 0 0 0 
0 0 0 0 0 0 0 0 0 
0 0 0 0 0 0 0 0 0 
0 0 0 0 0 0 0 0 0 
0 0 0 0 0 0 0 0 0 
0 0 0 0 0 0 0 0 0 
0 0 0 0 0 0 0 0 0 
0 0 0 0 0 0 0 0 0 
0 0 0 0 0 0 0 0 0 
0 0 0 0 0 0 0 0 0 
0 0 0 0 0 0 0 0 0 
0 0 0 0 0 0 0 0 0 
0 0 0 0 0 0 0 0 0 
0 0 0 0 0 0 0 0 0 
0 0 0 0 0 0 0 0 0 
0 0 0 0 0 0 0 0 0 
0 0 0 0 0 0 0 0 0 
0 0 0 0 0 0 0 0 0 
0 0 0 0 0 0 0 0 0 
0 0 0 0 0 0 0 0 0 
0 0 0 0 0 0 0 0 0 
0 0 0 0 0 0 0 0 0 
0 0 0 0 0 0 0 0 0 
0 0 0 0 0 0 0 0 0 
0 0 0 0 0 0 0 0 0 
0 0 0 0 0 0 0 0 0 
0 0 0 0 0 0 0 0 0 
0 0 0 0 0 0 0 0 0 
0 0 0 0 0 0 0 0 0 
0 0 0 0 0 0 0 0 0 
0 0 0 0 0 0 0 0 0 
0 0 0 0 0 0 0 0 0 
0 0 0 0 0 0 0 0 0 
0 0 0 0 0 0 0 0 0 
0 0 0 0 0 0 0 0 0 
0 0 0 0 0 0 0 0 0 
0 0 0 0 0 0 0 0 0 
0 0 0 0 0 0 0 0 0 
0 0 0 0 0 0 0 0 0 
0 0 0 0 0 0 0 0 0 
0 0 0 0 0 0 0 0 0 
0 0 0 0 0 0 0 0 0 
0 0 0 0 0 0 0 0 0 
0 0 0 0 0 0 0 0 0 
0 0 0 0 0 0 0 0 0 
0 0 0 0 0 0 0 0 0 
0 0 0 0 0 0 0 0 0 
0 0 0 0 0 0 0 0 0 
0 0 0 0 0 0 0 0 0 
0 0 0 0 0 0 0 0 0 
0 0 0 0 0 0 0 0 0 
0 0 0 0 0 0 0 0 0 
0 0 0 0 0 0 0 0 0 
0 0 0 0 0 0 0 0 0 
0 0 0 0 0 0 0 0 0 
0 0 0 0 0 0 0 0 0 
0 0 0 0 0 0 0 0 0 
0 0 0 0 0 0 0 0 0 
0 0 0 0 0 0 0 0 0 
0 0 0 0 0 0 0 0 0 
0 0 0 0 0 0 0 0 0 
0 0 0 0 0 0 0 0 0 
0 0 0 0 0 0 0 0 0 
0 0 0 0 0 0 0 0 0 
0 0 0 0 0 0 0 0 0 
0 0 0 0 0 0 0 0 0 
0 0 0 0 0 0 0 0 0 
0 0 0 0 0 0 0 0 0 
0 0 0 0 0 0 0 0 0 
0 0 0 0 0 0 0 0 0 
0 0 0 0 0 0 0 0 0 
0 0 0 0 0 0 0 0 0 
0 0 0 0 0 0 0 0 0 
0 0 0 0 0 0 0 0 0 
0 0 0 0 0 0 0 0 0 
0 0 0 0 0 0 0 0 0 
0 0 0 0 0 0 0 0 0 
0 0 0 0 0 0 0 0 0 
0 0 0 0 0 0 0 0 0 
0 0 0 0 0 0 0 0 0 
0 0 0 0 0 0 0 0 0 
0 0 0 0 0 0 0 0 0 
0 0 0 0 0 0 0 0 0 
0 0 0 0 0 0 0 0 0 
0 0 0 0 0 0 0 0 0 
0 0 0 0 0 0 0 0 0 
0 0 0 0 0 0 0 0 0 
0 0 0 0 0 0 0 0 0 
0 0 0 0 0 0 0 0 0 
0 0 0 0 0 0 0 0 0 
0 0 0 0 0 0 0 0 0 
0 0 0 0 0 0 0 0 0 
0 0 0 0 0 0 0 0 0 
0 0 0 0 0 0 0 0 0 
0 0 0 0 0 0 0 0 0 
0 0 0 0 0 0 0 0 0 
0 0 0 0 0 0 0 0 0 
0 0 0 0 0 0 0 0 0 
0 0 0 0 0 0 0 0 0 
0 0 0 0 0 0 0 0 0 
0 0 0 0 0 0 0 0 0 
0 0 0 0 0 0 0 0 0 
0 0 0 0 0 0 0 0 0 
0 0 0 0 0 0 0 0 0 
0 0 0 0 0 0 0 0 0 
0 0 0 0 0 0 0 0 0 
0 0 0 0 0 0 0 0 0 
0 0 0 0 0 0 0 0 0 
0 0 0 0 0 0 0 0 0 
0 0 0 0 0 0 0 0 0 
0 0 0 0 0 0 0 0 0 
0 0 0 0 0 0 0 0 0 
0 0 0 0 0 0 0 0 0 
0 0 0 0 0 0 0 0 0 
0 0 0 0 0 0 0 0 0 
0 0 0 0 0 0 0 0 0 
0 0 0 0 0 0 0 0 0 
0 0 0 0 0 0 0 0 0 
0 0 0 0 0 0 0 0 0 
0 0 0 0 0 0 0 0 0 
0 0 0 0 0 0 0 0 0 
0 0 0 0 0 0 0 0 0 
0 0 0 0 0 0 0 0 0 
0 0 0 0 0 0 0 0 0 
0 0 0 0 0 0 0 0 0 
0 0 0 0 0 0 0 0 0 
0 0 0 0 0 0 0 0 0 
0 0 0 0 0 0 0 0 0 
0 0 0 0 0 0 0 0 0 
0 0 0 0 0 0 0 0 0 
0 0 0 0 0 0 0 0 0 
0 0 0 0 0 0 0 0 0 
0 0 0 0 0 0 0 0 0 
0 0 0 0 0 0 0 0 0 
0 0 0 0 0 0 0 0 0 
0 0 0 0 0 0 0 0 0 
0 0 0 0 0 0 0 0 0 
0 0 0 0 0 0 0 0 0 
0 0 0 0 0 0 0 0 0 
0 0 0 0 0 0 0 0 0 
0 0 0 0 0 0 0 0 0 
0 0 0 0 0 0 0 0 0 
0 0 0 0 0 0 0 0 0 
0 0 0 0 0 0 0 0 0 
0 0 0 0 0 0 0 0 0 
0 0 0 0 0 0 0 0 0 
0 0 0 0 0 0 0 0 0 
0 0 0 0 0 0 0 0 0 
0 0 0 0 0 0 0 0 0 
0 0 0 0 0 0 0 0 0 
0 0 0 0 0 0 0 0 0 
0 0 0 0 0 0 0 0 0 
0 0 0 0 0 0 0 0 0 
0 0 0 0 0 0 0 0 0 
0 0 0 0 0 0 0 0 0 
0 0 0 0 0 0 0 0 0 
0 0 0 0 0 0 0 0 0 
0 0 0 0 0 0 0 0 0 
0 0 0 0 0 0 0 0 0 
0 0 0 0 0 0 0 0 0 
0 0 0 0 0 0 0 0 0 
0 0 0 0 0 0 0 0 0 
0 0 0 0 0 0 0 0 0 
0 0 0 0 0 0 0 0 0 
0 0 0 0 0 0 0 0 0 
0 0 0 0 0 0 0 0 0 
0 0 0 0 0 0 0 0 0 
0 0 0 0 0 0 0 0 0 
0 0 0 0 0 0 0 0 0 
0 0 0 0 0 0 0 0 0 
0 0 0 0 0 0 0 0 0 
0 0 0 0 0 0 0 0 0 
0 0 0 0 0 0 0 0 0 
0 0 0 0 0 0 0 0 0 
0 0 0 0 0 0 0 0 0 
0 0 0 0 0 0 0 0 0 
0 0 0 0 0 0 0 0 0 
0 0 0 0 0 0 0 0 0 
0 0 0 0 0 0 0 0 0 
0 0 0 0 0 0 0 0 0 
0 0 0 0 0 0 0 0 0 
0 0 0 0 0 0 0 0 0 
0 0 0 0 0 0 0 0 0 
0 0 0 0 0 0 0 0 0 
0 0 0 0 0 0 0 0 0 
0 0 0 0 0 0 0 0 0 
0 0 0 0 0 0 0 0 0 
0 0 0 0 0 0 0 0 0 
0 0 0 0 0 0 0 0 0 
0 0 0 0 0 0 0 0 0 
0 0 0 0 0 0 0 0 0 
0 0 0 0 0 0 0 0 0 
0 0 0 0 0 0 0 0 0 
0 0 0 0 0 0 0 0 0 
0 0 0 0 0 0 0 0 0 
0 0 0 0 0 0 0 0 0 
0 0 0 0 0 0 0 0 0 
0 0 0 0 0 0 0 0 0 
0 0 0 0 0 0 0 0 0 
0 0 0 0 0 0 0 0 0 
0 0 0 0 0 0 0 0 0 
0 0 0 0 0 0 0 0 0 
0 0 0 0 0 0 0 0 0 
0 0 0 0 0 0 0 0 0 
0 0 0 0 0 0 0 0 0 
0 0 0 0 0 0 0 0 0 
0 0 0 0 0 0 0 0 0 
0 0 0 0 0 0 0 0 0 
0 0 0 0 0 0 0 0 0 
0 0 0 0 0 0 0 0 0 
0 0 0 0 0 0 0 0 0 
0 0 0 0 0 0 0 0 0 
0 0 0 0 0 0 0 0 0 
0 0 0 0 0 0 0 0 0 
0 0 0 0 0 0 0 0 0 
0 0 0 0 0 0 0 0 0 
0 0 0 0 0 0 0 0 0 
0 0 0 0 0 0 0 0 0 
0 0 0 0 0 0 0 0 0 
0 0 0 0 0 0 0 0 0 
0 0 0 0 0 0 0 0 0 
0 0 0 0 0 0 0 0 0 
0 0 0 0 0 0 0 0 0 
0 0 0 0 0 0 0 0 0 
0 0 0 0 0 0 0 0 0 
0 0 0 0 0 0 0 0 0 
0 0 0 0 0 0 0 0 0 
0 0 0 0 0 0 0 0 0 
0 0 0 0 0 0 0 0 0 
0 0 0 0 0 0 0 0 0 
0 0 0 0 0 0 0 0 0 
0 0 0 0 0 0 0 0 0 
0 0 0 0 0 0 0 0 0 
0 0 0 0 0 0 0 0 0 
0 0 0 0 0 0 0 0 0 
0 0 0 0 0 0 0 0 0 
0 0 0 0 0 0 0 0 0 
0 0 0 0 0 0 0 0 0 
0 0 0 0 0 0 0 0 0 
0 0 0 0 0 0 0 0 0 
0 0 0 0 0 0 0 0 0 
0 0 0 0 0 0 0 0 0 
0 0 0 0 0 0 0 0 0 
0 0 0 0 0 0 0 0 0 
0 0 0 0 0 0 0 0 0 
0 0 0 0 0 0 0 0 0 
0 0 0 0 0 0 0 0 0 
0 0 0 0 0 0 0 0 0 
0 0 0 0 0 0 0 0 0 
0 0 0 0 0 0 0 0 0 
0 0 0 0 0 0 0 0 0 
0 0 0 0 0 0 0 0 0 
0 0 0 0 0 0 0 0 0 
0 0 0 0 0 0 0 0 0 
0 0 0 0 0 0 0 0 0 
0 0 0 0 0 0 0 0 0 
0 0 0 0 0 0 0 0 0 
0 0 0 0 0 0 0 0 0 
0 0 0 0 0 0 0 0 0 
0 0 0 0 0 0 0 0 0 
0 0 0 0 0 0 0 0 0 
0 0 0 0 0 0 0 0 0 
0 0 0 0 0 0 0 0 0 
0 0 0 0 0 0 0 0 0 
0 0 0 0 0 0 0 0 0 
0 0 0 0 0 0 0 0 0 
0 0 0 0 0 0 0 0 0 
0 0 0 0 0 0 0 0 0 
0 0 0 0 0 0 0 0 0 
0 0 0 0 0 0 0 0 0 
0 0 0 0 0 0 0 0 0 
0 0 0 0 0 0 0 0 0 
0 0 0 0 0 0 0 0 0 
0 0 0 0 0 0 0 0 0 
0 0 0 0 0 0 0 0 0 
0 0 0 0 0 0 0 0 0 
0 0 0 0 0 0 0 0 0 
0 0 0 0 0 0 0 0 0 
0 0 0 0 0 0 0 0 0 
0 0 0 0 0 0 0 0 0 
0 0 0 0 0 0 0 0 0 
0 0 0 0 0 0 0 0 0 
0 0 0 0 0 0 0 0 0 
0 0 0 0 0 0 0 0 0 
0 0 0 0 0 0 0 0 0 
0 0 0 0 0 0 0 0 0 
0 0 0 0 0 0 0 0 0 
0 0 0 0 0 0 0 0 0 
0 0 0 0 0 0 0 0 0 
0 0 0 0 0 0 0 0 0 
0 0 0 0 0 0 0 0 0 
0 0 0 0 0 0 0 0 0 
0 0 0 0 0 0 0 0 0 
0 0 0 0 0 0 0 0 0 
0 0 0 0 0 0 0 0 0 
0 0 0 0 0 0 0 0 0 
0 0 0 0 0 0 0 0 0 
0 0 0 0 0 0 0 0 0 
0 0 0 0 0 0 0 0 0 
0 0 0 0 0 0 0 0 0 
0 0 0 0 0 0 0 0 0 
0 0 0 0 0 0 0 0 0 
0 0 0 0 0 0 0 0 0 
0 0 0 0 0 0 0 0 0 
0 0 0 0 0 0 0 0 0 
0 0 0 0 0 0 0 0 0 
0 0 0 0 0 0 0 0 0 
0 0 0 0 0 0 0 0 0 
0 0 0 0 0 0 0 0 0 
0 0 0 0 0 0 0 0 0 
0 0 0 0 0 0 0 0 0 
0 0 0 0 0 0 0 0 0 
0 0 0 0 0 0 0 0 0 
0 0 0 0 0 0 0 0 0 
0 0 0 0 0 0 0 0 0 
0 0 0 0 0 0 0 0 0 
0 0 0 0 0 0 0 0 0 
0 0 0 0 0 0 0 0 0 
0 0 0 0 0 0 0 0 0 
0 0 0 0 0 0 0 0 0 
0 0 0 0 0 0 0 0 0 
0 0 0 0 0 0 0 0 0 
0 0 0 0 0 0 0 0 0 
0 0 0 0 0 0 0 0 0 
0 0 0 0 0 0 0 0 0 
0 0 0 0 0 0 0 0 0 
0 0 0 0 0 0 0 0 0 
0 0 0 0 0 0 0 0 0 
0 0 0 0 0 0 0 0 0 
0 0 0 0 0 0 0 0 0 
0 0 0 0 0 0 0 0 0 
0 0 0 0 0 0 0 0 0 
0 0 0 0 0 0 0 0 0 
0 0 0 0 0 0 0 0 0 
0 0 0 0 0 0 0 0 0 
0 0 0 0 0 0 0 0 0 
0 0 0 0 0 0 0 0 0 
0 0 0 0 0 0 
v 3 1049 double
0.0802078 -0.38064 0 0.102067 -0.0697561 0 0.407026 -0.371607 0 
0.422742 -0.0516885 0 -0.831802 -0.781594 0 0.997188 -0.70019 0 
-0.932108 -0.782511 0 -0.896886 -0.814968 0 -0.677187 -0.522709 0 
-0.664548 -0.545248 0 0.891554 -0.827019 0 0.686053 -0.587454 0 
-0.937486 -0.721637 0 -0.921557 -0.745641 0 -0.747227 -0.541461 0 
0.582511 -0.481125 0 0.828366 -0.628346 0 0.852911 -0.69981 0 
0.58868 -0.410255 0 -0.876174 -0.695783 0 0.798564 -0.667257 0 
0.815677 -0.631235 0 -0.959663 -0.77645 0 -0.956579 -0.781206 0 
0.732909 -0.63326 0 0.782626 -0.708617 0 0.788449 -0.63246 0 
-0.758388 -0.617943 0 0.868905 -0.749462 0 0.847267 -0.654642 0 
0.970045 -0.707937 0 0.958676 -0.712826 0 -0.844548 -0.644753 0 
0.742192 -0.836538 0 0.792962 -0.63828 0 1.02875 -0.691909 0 
0.964399 -0.736679 0 -0.653595 -0.454553 0 -0.813684 -0.707117 0 
-0.623906 -0.733306 0 -0.00335907 -1.42725 0 0.837931 -0.710716 0 
0.898381 -0.73954 0 -0.595913 -0.629107 0 -0.950317 -0.647789 0 
-0.557967 -1.45019 0 0 0 0 0 0 0 
0 0 0 0 0 0 0 0 0 
0 0 0 0 0 0 0 0 0 
0 0 0 0 0 0 0 0 0 
0 0 0 0 0 0 0 0 0 
0 0 0 0 0 0 -0.15821 -0.678371 0 
0 0 0 0 0 0 0 0 0 
-0.20689 -0.575218 0 -0.0138119 -0.687125 0 0 0 0 
0 0 0 0 0 0 -0.337905 -0.418844 0 
0 0 0 0 0 0 0 0 0 
0 0 0 0 0 0 0 0 0 
0 0 0 0 0 0 0 0 0 
0 0 0 0 0 0 0 0 0 
0 0 0 0 0 0 0 0 0 
0 0 0 0 0 0 0 0 0 
0 0 0 0 0 0 0 0 0 
0 0 0 0 0 0 0 0 0 
0 0 0 0 0 0 0 0 0 
0 0 0 0 0 0 0 0 0 
0 0 0 0 0 0 0 0 0 
0 0 0 0 0 0 0 0 0 
0 0 0 0 0 0 0 0 0 
0 0 0 0 0 0 0 0 0 
0 0 0 0 0 0 0 0 0 
0 0 0 0 0 0 0 0 0 
0 0 0 0 0 0 0 0 0 
0 0 0 0 0 0 0 0 0 
0 0 0 0 0 0 0 0 0 
0 0 0 0 0 0 0 0 0 
0 0 0 0 0 0 0 0 0 
0 0 0 0 0 0 0 0 0 
0 0 0 0 0 0 0 0 0 
0 0 0 0 0 0 0 0 0 
0 0 0 0 0 0 0 0 0 
0 0 0 0 0 0 0 0 0 
0 0 0 0 0 0 0 0 0 
0 0 0 0 0 0 0 0 0 
0 0 0 0 0 0 0 0 0 
0 0 0 0 0 0 0 0 0 
0 0 0 0 0 0 0 0 0 
0 0 0 0 0 0 0 0 0 
0 0 0 0 0 0 0 0 0 
0 0 0 0 0 0 0 0 0 
0 0 0 0 0 0 0 0 0 
0 0 0 0 0 0 0 0 0 
0 0 0 0 0 0 0 0 0 
0 0 0 0 0 0 0 0 0 
0 0 0 0 0 0 0 0 0 
0 0 0 0 0 0 0 0 0 
0 0 0 0 0 0 0 0 0 
0 0 0 0 0 0 0 0 0 
0 0 0 0 0 0 0 0 0 
0 0 0 0 0 0 0.0591217 -0.701496 0 
0.770543 -0.635167 0 0 0 0 0 0 0 
0 0 0 -0.230273 -0.224312 0 -0.0227841 -0.249219 0 
0 0 0 0 0 0 0 0 0 
0 0 0 0 0 0 0 0 0 
0 0 0 0 0 0 0 0 0 
0 0 0 0 0 0 0 0 0 
0 0 0 0 0 0 0 0 0 
0 0 0 0 0 0 0 0 0 
0 0 0 0 0 0 0 0 0 
0 0 0 -0.408651 -1.10723 0 -0.452821 -0.99303 0 
-0.222763 -0.968114 0 0 0 0 0 0 0 
0 0 0 0 0 0 0 0 0 
0 0 0 0 0 0 0 0 0 
0 0 0 0 0 0 0 0 0 
0 0 0 0 0 0 0 0 0 
0 0 0 0 0 0 0 0 0 
0 0 0 0 0 0 0 0 0 
0.262915 -1.03805 0 0.217653 -0.7172 0 0.186379 -0.912621 0 
-0.0192152 -0.562457 0 0.15642 -0.875997 0 0 0 0 
0 0 0 0 0 0 0 0 0 
0 0 0 0 0 0 0 0 0 
0 0 0 0 0 0 0 0 0 
0.0274495 -0.671649 0 -0.289235 -0.932373 0 -0.268097 -1.0734 0 
0 0 0 0 0 0 0 0 0 
0 0 0 0 0 0 0 0 0 
0 0 0 0 0 0 0 0 0 
0 0 0 0 0 0 0 0 0 
0 0 0 0 0 0 0 0 0 
0 0 0 0 0 0 0 0 0 
0 0 0 0 0 0 0.208859 -0.887413 0 
0.211928 -0.882189 0 -0.0320111 -0.798319 0 -0.108558 -1.12775 0 
-0.1404 -1.1094 0 0 0 0 0 0 0 
0 0 0 0 0 0 0 0 0 
0 0 0 0 0 0 0 0 0 
0 0 0 0 0 0 -0.122077 -0.732947 0 
-0.363796 -1.07696 0 0 0 0 0 0 0 
0 0 0 0 0 0 0 0 0 
0 0 0 0 0 0 0 0 0 
0 0 0 0 0 0 0 0 0 
0 0 0 0 0 0 0 0 0 
0 0 0 0 0 0 0 0 0 
0 0 0 0 0 0 0 0 0 
0.300053 -0.970342 0 0.194764 -0.921853 0 -0.162376 -0.698065 0 
0 0 0 0 0 0 0 0 0 
0 0 0 0 0 0 0 0 0 
0 0 0 0 0 0 0 0 0 
0 0 0 -0.195298 -0.767965 0 -0.234235 -1.08167 0 
-0.24863 -0.933211 0 0 0 0 0 0 0 
0 0 0 0 0 0 0 0 0 
0 0 0 0 0 0 0 0 0 
0 0 0 0 0 0 0 0 0 
0 0 0 0 0 0 0 0 0 
0 0 0 0 0 0 0 0 0 
0 0 0 0 0 0 0 0 0 
0.316457 -0.988313 0 0.224057 -1.03354 0 0.291341 -0.906635 0 
0.251224 -0.991917 0 -0.165275 -1.0834 0 0 0 0 
0 0 0 0 0 0 0 0 0 
0 0 0 0 0 0 0 0 0 
0 0 0 0 0 0 0 0 0 
-0.28442 -0.924425 0 -0.277004 -0.887457 0 -0.202148 -0.921123 0 
0 0 0 0 0 0 0 0 0 
0 0 0 0 0 0 0 0 0 
0 0 0 0 0 0 0 0 0 
0 0 0 0 0 0 0 0 0 
0 0 0 0 0 0 0 0 0 
0 0 0 0 0 0 0 0 0 
0 0 0 0 0 0 0.294649 -1.07167 0 
0 0 0 0 0 0 0 0 0 
0 0 0 0 0 0 0 0 0 
0 0 0 0 0 0 0 0 0 
0 0 0 -0.282634 -0.925329 0 0 0 0 
0 0 0 0 0 0 0 0 0 
0 0 0 0 0 0 0 0 0 
0 0 0 0 0 0 0 0 0 
0 0 0 0 0 0 0 0 0 
0 0 0 0 0 0 0 0 0 
0 0 0 0 0 0 0 0 0 
0 0 0 0.239638 -0.786744 0 -0.130353 -1.08686 0 
-0.206479 -1.07474 0 -0.127133 -0.894666 0 0 0 0 
0 0 0 0 0 0 0 0 0 
0 0 0 0 0 0 0 0 0 
0 0 0 0 0 0 0 0 0 
-0.321591 -0.803322 0 -0.286385 -1.01825 0 -0.419233 -0.99291 0 
0 0 0 0 0 0 0 0 0 
0 0 0 0 0 0 0 0 0 
0 0 0 0 0 0 0 0 0 
0 0 0 0 0 0 0 0 0 
0 0 0 0 0 0 0 0 0 
0 0 0 0 0 0 0 0 0 
0 0 0 0 0 0 -0.210241 -1.04519 0 
-0.0196116 -0.92029 0 -0.200287 -0.951931 0 0 0 0 
0 0 0 0 0 0 0 0 0 
0 0 0 0 0 0 0 0 0 
0 0 0 0 0 0 0 0 0 
-0.338712 -0.989009 0 0 0 0 0 0 0 
0 0 0 0 0 0 0 0 0 
0 0 0 0 0 0 0 0 0 
0 0 0 0 0 0 0 0 0 
0 0 0 0 0 0 0 0 0 
0 0 0 0 0 0 0 0 0 
0 0 0 0 0 0 0 0 0 
0 0 0 0 0 0 0 0 0 
-0.779608 0.0259264 0 0 0 0 -0.809969 0.0367761 0 
-0.865734 0.0611521 0 0 0 0 0 0 0 
0 0 0 0 0 0 0 0 0 
0 0 0 0 0 0 0 0 0 
0 0 0 0 0 0 0 0 0 
0 0 0 0 0 0 0 0 0 
0 0 0 0 0 0 0 0 0 
0 0 0 0 0 0 0 0 0 
0 0 0 0 0 0 0 0 0 
0 0 0 0 0 0 0 0 0 
0 0 0 0 0 0 0 0 0 
0 0 0 0 0 0 0 0 0 
0 0 0 0 0 0 0 0 0 
0 0 0 0 0 0 0 0 0 
0 0 0 0 0 0 0 0 0 
0 0 0 0 0 0 0 0 0 
0 0 0 0 0 0 0.871468 0.0307954 0 
0 0 0 0 0 0 0 0 0 
0 0 0 0 0 0 0 0 0 
0.856278 0.0179733 0 0 0 0 0 0 0 
0 0 0 0 0 0 0.736862 0.00822799 0 
0 0 0 0 0 0 0.677549 0.0897548 0 
0 0 0 0 0 0 0 0 0 
0 0 0 0 0 0 0 0 0 
0 0 0 0.416181 -0.655631 0 -0.271407 -0.979572 0 
-0.000718054 -1.094 0 0 0 0 0 0 0 
0 0 0 0 0 0 0 0 0 
0 0 0 0 0 0 0 0 0 
0 0 0 0 0 0 -0.224006 -1.10708 0 
0 0 0 0 0 0 0 0 0 
0 0 0 0 0 0 0 0 0 
0 0 0 0 0 0 0 0 0 
0 0 0 0 0 0 0 0 0 
0 0 0 0 0 0 0 0 0 
0 0 0 0 0 0 0 0 0 
0 0 0 0 0 0 0 0 0 
0 0 0 0 0 0 0 0 0 
0 0 0 0 0 0 0 0 0 
0 0 0 0 0 0 0 0 0 
0 0 0 0 0 0 0 0 0 
0 0 0 0 0 0 0 0 0 
0 0 0 0 0 0 0 0 0 
0 0 0 0 0 0 0 0 0 
0 0 0 0 0 0 0 0 0 
0 0 0 0 0 0 0 0 0 
0 0 0 0 0 0 0 0 0 
0 0 0 0 0 0 0 0 0 
0 0 0 0 0 0 0 0 0 
0 0 0 0 0 0 0 0 0 
0 0 0 0 0 0 0 0 0 
0 0 0 0 0 0 0 0 0 
0 0 0 0 0 0 0 0 0 
0 0 0 0 0 0 0 0 0 
0 0 0 0 0 0 0 0 0 
0 0 0 0 0 0 0 0 0 
0 0 0 0 0 0 0 0 0 
0 0 0 0 0 0 0 0 0 
0 0 0 0 0 0 0 0 0 
0 0 0 0 0 0 0 0 0 
0 0 0 0 0 0 0 0 0 
0 0 0 0 0 0 0 0 0 
0 0 0 0 0 0 0 0 0 
0 0 0 0 0 0 0 0 0 
0 0 0 0 0 0 0 0 0 
0 0 0 0 0 0 0 0 0 
0 0 0 0 0 0 0 0 0 
0 0 0 0 0 0 0 0 0 
0 0 0 0 0 0 0 0 0 
0 0 0 0 0 0 0 0 0 
0 0 0 0 0 0 0 0 0 
0 0 0 0 0 0 0 0 0 
0 0 0 0 0 0 0 0 0 
0 0 0 0 0 0 0 0 0 
0 0 0 0 0 0 0 0 0 
0 0 0 0 0 0 0 0 0 
0 0 0 0 0 0 0 0 0 
0 0 0 0 0 0 0 0 0 
0 0 0 0 0 0 0 0 0 
0 0 0 0 0 0 0 0 0 
0 0 0 0 0 0 0 0 0 
0 0 0 0 0 0 0.609102 -0.619647 0 
0 0 0 0 0 0 0.598367 -0.604263 0 
0.422152 -0.712022 0 0.196824 -0.28041 0 0 0 0 
0 0 0 0 0 0 0 0 0 
0 0 0 0 0 0 0 0 0 
0 0 0 0 0 0 0 0 0 
0 0 0 0 0 0 0 0 0 
0 0 0 0 0 0 0 0 0 
0 0 0 0 0 0 0 0 0 
0 0 0 0 0 0 0 0 0 
0 0 0 0 0 0 0 0 0 
0 0 0 0 0 0 0 0 0 
0 0 0 0 0 0 0 0 0 
0 0 0 0.654998 -0.686735 0 0 0 0 
0 0 0 0 0 0 0 0 0 
0 0 0 0 0 0 0 0 0 
0 0 0 0 0 0 0 0 0 
0 0 0 0 0 0 0 0 0 
0 0 0 0 0 0 0 0 0 
0 0 0 0 0 0 0 0 0 
0 0 0 0 0 0 0 0 0 
0 0 0 0 0 0 0 0 0 
0.522514 -0.549783 0 0.638201 -0.697893 0 0 0 0 
0 0 0 0 0 0 0 0 0 
0 0 0 0 0 0 0 0 0 
0 0 0 0 0 0 0 0 0 
0 0 0 0 0 0 0 0 0 
0 0 0 0 0 0 0 0 0 
0 0 0 0 0 0 0 0 0 
0 0 0 0 0 0 0 0 0 
0 0 0 0 0 0 0 0 0 
0.479247 -0.505038 0 0 0 0 0 0 0 
0 0 0 0 0 0 0 0 0 
0 0 0 0 0 0 0 0 0 
0 0 0 0 0 0 0 0 0 
0 0 0 0 0 0 0 0 0 
0 0 0 0 0 0 0 0 0 
0 0 0 0 0 0 0 0 0 
0.648142 0.223349 0 0.588806 0.288152 0 0 0 0 
0 0 0 0 0 0 0 0 0 
0 0 0 0 0 0 0 0 0 
0 0 0 0 0 0 0 0 0 
0 0 0 0 0 0 0 0 0 
0 0 0 0 0 0 0 0 0 
0 0 0 0 0 0 0 0 0 
0 0 0 0 0 0 0 0 0 
0 0 0 0 0 0 0 0 0 
0 0 0 0 0 0 0 0 0 
0 0 0 0 0 0 0 0 0 
0 0 0 0 0 0 0 0 0 
0 0 0 0 0 0 0 0 0 
0 0 0 0 0 0 0 0 0 
0 0 0 0 0 0 0 0 0 
0 0 0 0 0 0 0 0 0 
0 0 0 0 0 0 0 0 0 
0 0 0 0 0 0 0 0 0 
0 0 0 0 0 0 0 0 0 
0 0 0 0 0 0 0 0 0 
0 0 0 0 0 0 0 0 0 
0 0 0 0 0 0 0 0 0 
0 0 0 0 0 0 0 0 0 
0 0 0 0 0 0 0 0 0 
0 0 0 0 0 0 0 0 0 
0 0 0 0 0 0 0 0 0 
0 0 0 0 0 0 0 0 0 
0 0 0 0 0 0 0 0 0 
0 0 0 0 0 0 0 0 0 
0 0 0 0 0 0 0 0 0 
0 0 0 0 0 0 0 0 0 
0 0 0 0 0 0 0 0 0 
0 0 0 0 0 0 0 0 0 
0 0 0 0 0 0 0 0 0 
0 0 0 0 0 0 0 0 0 
0 0 0 0 0 0 0 0 0 
0 0 0 0 0 0 0 0 0 
0 0 0 0 0 0 0 0 0 
0 0 0 0 0 0 0 0 0 
0 0 0 0 0 0 0 0 0 
0 0 0 0 0 0 0 0 0 
0 0 0 0 0 0 0 0 0 
0 0 0 0 0 0 0 0 0 
0 0 0 0 0 0 0 0 0 
0 0 0 0 0 0 0 0 0 
0 0 0 0 0 0 0 0 0 
0 0 0 0 0 0 0 0 0 
0 0 0 0 0 0 0 0 0 
0 0 0 0 0 0 0 0 0 
0 0 0 0 0 0 0 0 0 
0 0 0 0 0 0 0 0 0 
0 0 0 0 0 0 0 0 0 
0 0 0 0 0 0 0 0 0 
0 0 0 0 0 0 0 0 0 
0 0 0 0 0 0 0 0 0 
0 0 0 0 0 0 0 0 0 
0 0 0 0 0 0 0 0 0 
0 0 0 0 0 0 0 0 0 
0 0 0 0 0 0 0 0 0 
0 0 0 0 0 0 0 0 0 
0 0 0 0 0 0 0 0 0 
0 0 0 0 0 0 
x 1 1049 double
-0.467572 0.0508844 -0.508081 0.00241853 2.09774 -3.42101 2.10393 2.73039 3.66366 
4.17878 -4.74344 -3.53616 3.57408 4.19991 5.05176 -6.17982 -6.07012 -5.28 
-4.32865 5.19293 -7.13133 -6.59623 6.27477 6.84525 -9.34183 -8.57339 -7.95581 
8.40365 -9.93519 -9.00876 -9.03737 -8.25085 9.61457 -11.3008 -10.7544 -10.711 
-9.85078 10.7347 10.1168 11.3034 -12.1328 -11.6238 -11.4342 11.9247 11.4397 
11.9805 -15 -14.6429 -15 -15 -14.8214 -15 -14.1071 -15 
-14.2857 -14.4643 -13.3929 -13.75 -13.2143 -13.0357 -13.9286 -13.5714 -12.3743 
-12.8571 -12.6786 -12.5 -11.8816 -11.422 -11.3214 -11.5 -11.1429 -11.7415 
-10.7857 -10.9643 -10.4286 -10.6071 -10.0714 -10.25 -9.7143 -9.5357 -9.1786 
-9.8929 -9.3571 -8.4 -9 -8.2 -8.8 -8.6 -9 -9 
-9 -9 -7.6 -7.2 -7.4 -8 -7.8 -6.8 -6.6 
-6.2 -7 -6.4 -5.2 -6 -5.8 -5.6 -5.4 -4.8 
-4.6 -4.4 -5 -4.2 -4 -3.6 -3.4 -3.8 -3.2 
-3 -2.2 -3 -2.6 -2.8 -3 -3 -2.4 -3 
-1.2 -2 -1.4 -1.8 -1.6 -1 -0.4 -0.2 -0.6 
-0.8 0.2 0.8 0.6 -0 0.4 1.4 1.8 1.6 
1.2 1 2.8 2.4 2.2 2 2.6 3.8 3.6 
3.4 3 3 3 3 3 3.2 4.4 4.2 
4.6 4.8 4 5.2 5.8 5 5.4 5.6 6.2 
6.4 6.8 6.6 6 7 7.6 7.2 7.4 7.8 
8.6 8.8 8 8.2 8.4 9 9.3571 9.1786 9 
9.8929 9 9 9.5357 9 9.7143 10.0714 10.6071 10.25 
10.9643 10.4286 10.7857 11.3214 11.1429 11.4715 11.7516 11.5 12.5 
12.6786 12.4686 12.0941 12.8571 13.3929 13.75 13.0357 13.2143 13.5714 
13.9286 14.1071 14.2857 14.6429 14.4643 14.8214 15 15 15 
15 15 -15 -15 -15 -15 -15 -11.1863 -11.813 
-11.842 -9 -9 -9 -9 -9 -3 -3 -3 
-3 -3 3 3 3 3 3 9 9 
9 9 9 10.8758 11.5004 11.8461 12.3678 12.3915 15 
15 15 15 15 -15 -15 -15 -15 -15 
-12.247 -11.597 -11.0423 -9 -9 -9 -9 -9 -3 
-3 -3 -3 -3 3 3 3 3 3 
9 9 9 9 9 11.1823 11.4218 12.6097 12.0334 
12.3684 15 15 15 15 15 -15 -15 -15 
-15 -15 -11.6691 -10.7817 -9 -9 -9 -9 -9 
-3 -3 -3 -3 -3 3 3 3 3 
3 9 9 9 9 9 10.725 11.3582 12.944 
15 15 15 15 15 -15 -15 -15 -15 
-15 -11.2964 -10.7235 -10.8238 -9 -9 -9 -9 -9 
-3 -3 -3 -3 -3 3 3 3 3 
3 9 9 9 9 9 10.9359 10.3267 11.5679 
11.0594 12.687 15 15 15 15 15 -15 -15 
-15 -15 -15 -10.1644 -10.7985 -10.1451 -9 -9 -9 
-9 -9 -3 -3 -3 -3 -3 3 3 
3 3 3 9 9 9 9 9 10.3483 
15 15 15 15 15 -15 -15 -15 -15 
-15 -10.0026 -9 -9 -9 -9 -9 -3 -3 
-3 -3 -3 3 3 3 3 3 9 
9 9 9 9 9.98157 12.5676 12.8283 13.4669 15 
15 15 15 15 -15 -15 -15 -15 -15 
-10.3113 -9.76331 -9.59203 -9 -9 -9 -9 -9 -3 
-3 -3 -3 -3 3 3 3 3 3 
9 9 9 9 9 12.8684 13.5622 13.4901 15 
15 15 15 15 -15 -15 -15 -15 -15 
-9.03823 -8.8214 -8.1071 -9 -8.2857 -8.6429 -8.4643 -7.75 -7.5714 
-7.0357 -7.2143 -7.9286 -7.3929 -6.8571 -6.6786 -6.5 -5.1429 -5.3214 
-5.5 -4.7857 -4.25 -4.4286 -4.0714 -4.6071 -4.91985 -4.9643 -4.27842 
-3.21585 -3.3571 -3.1786 -3.7143 -3.5357 -3.8929 -2.4643 -2.1071 -2.2857 
-2.6429 -3 -2.8214 -1.2143 -1.3929 -1.0357 -1.75 -1.5714 -1.9286 
-0.5 -0.8571 -0.6786 0.8571 0.5 0.6786 1.0357 1.3929 1.9286 
1.5714 1.2143 1.75 2.6429 2.4643 2.2857 2.8214 2.1071 3.3571 
3.5357 3 3.8929 3.1786 3.7143 4.0714 4.25 4.4286 4.9643 
4.7857 4.6071 5.07231 5.5 5.1429 5.3214 6.8571 6.6786 6.5 
6.5975 7.3929 7.0357 7.75 7.5714 7.2534 7.2143 7.9286 8.27394 
8.6429 8.4643 8.2857 8.1071 8.8214 9 9 9.47672 13.2484 
13.5296 15 15 15 15 15 -15 -15 -15 
-15 -15 13.4094 15 15 15 15 15 -14.5 
-15 -15 -14.6667 -15 -15 -15 -14.1667 -14.3333 -14.8333 
-14 -13 -12.2 -12.4 -12.6 -12.8 -11.2 -12 -11.8 
-11.6 -11.4 -10.4 -10.2 -10.6 -11 -10.8 -9.8 -10 
-9.6 -9.4 -9.2 -9 -9 -9 -8.1071 -8.4643 -9 
-8.8214 -8.2857 -8.6429 -9 -7.75 -7.2143 -7.9286 -7.5714 -7.3929 
-7.0357 -6.5 -6.6786 -6.8571 -5.3214 -5.5 -5.1429 -4.0714 -4.4286 
-4.6071 -4.7857 -4.9643 -4.25 -3.7143 -3.8929 -3.3571 -3.1786 -3.5357 
-3 -2.4 -2.8 -3 -3 -2.2 -3 -3 -2.6 
-1.2 -2 -1.8 -1.6 -1.4 -1 -0.6 -0.8 -0.2 
-0.4 0.2 -0 0.8 0.4 0.6 1.2 1.8 1.4 
1.6 1 2.2 2.8 2 2.6 2.4 3.2 3.8 
3.4 3 3.6 4.6 4.2 4.4 4 4.8 5.4 
5.2 5.8 5.6 5 6 6.4 6.2 6.6 6.8 
7.4 7 7.8 7.2 7.6 8.6 8.2 8.8 8.4 
8 9 9 9 9.6 9 9.4 9.2 9.8 
9 10.8 10.6 10.2 10 10.4 11.2 11 11.4 
11.6 11.8 12.4 12 12.8 12.4665 12.2 12.6 13.1043 
13.2924 13.7461 13 14.1667 14.6667 14 14.5 14.3333 14.8333 
15 15 15 15 15 -15 -15 -15 -15 
-15 -9 -9 -9 -9 -9 -3 -3 -3 
-3 -3 9 9 9 9 9 12.0519 15 
15 15 15 15 -15 -15 -15 -15 -15 
-9 -9 -9 -9 -9 -3 -3 -3 -3 
-3 9 9 9 9 9 10.7333 11.6579 15 
15 15 15 15 -15 -15 -15 -15 -15 
-9 -9 -9 -9 -9 -3 -3 -3 -3 
-3 9 9 9 9 9 10.0558 15 15 
15 15 15 -15 -15 -15 -15 -15 -9 
-9 -9 -9 -9 -3 -3 -3 -3 -3 
7.78764 8.60239 9 15 15 15 15 15 -15 
-15 -15 -15 -15 -9 -9 -9 -9 -9 
-3 -3 -3 -3 -3 9 9 9 9 
9 9 15 15 15 15 15 -14.4 -14.2 
-14.8 -14.6 -15 -13.4 -14 -13.2 -13.6 -13.8 -12.4 
-13 -12.6 -12.2 -12.8 -11.4 -11.6 -11.2 -12 -11.8 
-10.2 -11 -10.8 -10.4 -10.6 -9.4 -9.8 -10 -9.2 
-9.6 -8.8 -8.2 -8.4 -8.6 -9 -8 -7.4 -7.2 
-7.6 -7.8 -6.4 -6.8 -6.6 -7 -6.2 -5.2 -5.8 
-6 -5.4 -5.6 -5 -4.6 -4.2 -4.4 -4.8 -3.8 
-3.6 -3.4 -3.2 -4 -3 -2.6 -2.8 -2.4 -2.2 
-1.4 -1.6 -1.8 -1.2 -2 -0.8 -0.6 -0.4 -0.2 
-1 0.4 -0 0.6 0.8 0.2 1.2 1.4 1.8 
1 1.6 2 2.8 2.2 2.4 2.6 3.2 3.4 
3 3.6 3.8 4 4.2 4.4 4.6 4.8 5 
5.6 5.8 5.4 5.2 6.4 6.8 6.6 6.2 6 
7.4 7 7.6 7.8 7.2 8 8.8 8.2 8.4 
8.6 9 9.2 9.8 9.4 9.6 10 10.2 10.4 
10.6 10.8 11.4 11.8 11 11.6 11.2 12.4 12.8 
12.6 12.2 12 13 13.8 13.4 13.6 13.2 14.8 
14 14.2 14.4 14.6 15 
y 1 1049 double
-9.99993 -10.0381 -9.45424 -9.52447 -8.32312 -7.70202 -7.73295 -7.59284 -7.52701 
-7.25676 -6.0805 -6.87298 -6.81962 -6.42187 -6.59746 -5.75726 -5.04202 -5.55682 
-5.63723 -5.73429 -4.24244 -4.4948 -4.85096 -4.51514 -3.41228 -3.2965 -3.63516 
-3.15261 -2.49235 -2.82258 -2.22187 -2.68005 -2.10936 -1.50455 -1.59558 -0.995484 
-1.81335 -1.12533 -1.87112 -1.10118 -0.0713859 -0.470327 -0.958079 -0.950339 -0.526296 
-0.239719 0.6 0 0.8 0.2 0 0 0 0.4 
0 0 0 0 0 0 0 0 0.610731 
0 0 0 0.475621 0.803604 0 0 0 0.0705479 
0 0 0 0 0 0 0 0 0 
0 0 0 0.2 0 0 0 0.6 0 
0.4 0.8 0 0 0 0 0 0 0 
0 0 0 0 0 0 0 0 0 
0 0 0 0 0 0 0 0 0 
0 0 0.8 0 0 0.6 0.4 0 0.2 
0 0 0 0 0 0 0 0 0 
0 0 0 0 0 0 0 0 0 
0 0 0 0 0 0 0 0 0 
0 0.8 0.6 0 0.4 0.2 0 0 0 
0 0 0 0 0 0 0 0 0 
0 0 0 0 0 0 0 0 0 
0 0 0 0 0 0.6 0 0 0.2 
0 0 0.8 0 0.4 0 0 0 0 
0 0 0 0 0 0.730703 0.232483 0 0 
0 0.308855 0.668705 0 0 0 0 0 0 
0 0 0 0 0 0 0.2 0 0.8 
0.6 0.4 1.4 1 1.8 1.2 1.6 1.55281 1.32435 
1.94951 1 1.2 1.4 1.8 1.6 1.8 1 1.2 
1.4 1.6 1.6 1.4 1.8 1 1.2 1 1.2 
1.6 1.8 1.4 2.00083 1.31684 1.77939 1.17296 1.76515 1.4 
1 1.2 1.6 1.8 2.8 2.4 2 2.6 2.2 
2.98306 2.44669 2.53312 2 2.4 2.8 2.2 2.6 2.6 
2.8 2.2 2 2.4 2.6 2.4 2.8 2.2 2 
2.2 2.4 2.6 2 2.8 2.68066 2.1771 2.25353 2.38654 
2.83136 2.8 2.2 2 2.4 2.6 3.8 3.4 3.6 
3 3.2 3.68471 3.30276 3.2 3.4 3 3.6 3.8 
3.6 3 3.8 3.4 3.2 3 3.4 3.8 3.6 
3.2 3 3.4 3.8 3.6 3.2 3.79315 3.48522 3.11152 
3.6 3.8 3 3.4 3.2 4.8 4.2 4.6 4.4 
4 4.15565 4.06566 4.94598 4.8 4 4.2 4.4 4.6 
4.4 4.2 4.6 4 4.8 4.8 4.2 4.6 4 
4.4 4.8 4.2 4.6 4 4.4 4.88778 4.24484 4.067 
4.31465 4.50314 4 4.4 4.2 4.8 4.6 5.8 5.4 
5.2 5 5.6 5.92858 5.90333 5.33995 5.6 5 5.4 
5.8 5.2 5.2 5.8 5.4 5 5.6 5.2 5.4 
5.8 5 5.6 5.8 5.6 5.4 5.2 5 5.02153 
5 5.4 5.6 5.8 5.2 6 6.4 6.6 6.8 
6.2 6.5216 6.8 6.4 6.2 6.6 6 6 6.8 
6.6 6.2 6.4 6.8 6.4 6.2 6 6.6 6 
6.6 6.4 6.8 6.2 6.84345 6.05842 6.5995 6.54325 6.6 
6.8 6.2 6 6.4 7.8 7.6 7 7.2 7.4 
7.37929 7.14436 7.73884 7.4 7 7.8 7.2 7.6 7.2 
7.4 7.6 7 7.8 7.8 7.6 7.4 7 7.2 
7.6 7 7.8 7.4 7.2 7.42122 7.09153 7.58888 7.4 
7.6 7 7.8 7.2 8.4 8 8.8 8.6 8.2 
8.88709 8 8 8 8 8 8 8 8 
8 8 8 8 8 8 8 8 8 
8 8 8 8 8 8 8.96783 8 8.90529 
8.84593 8 8 8 8 8 8 8 8 
8 8 8 8 8 8 8 8 8 
8 8 8 8 8 8 8 8 8 
8 8 8 8 8 8 8 8 8 
8 8 8 8 8 8 8 8 8 
8 8 8.94037 8 8 8 8 8 8 
8.96775 8 8 8 8 8.9944 8 8 8.92654 
8 8 8 8 8 8 8 8.08832 8.33332 
8.89002 8.8 8.4 8.2 8.6 8 9.2 9 9.4 
9.6 9.8 9.5075 9.4 9 9.8 9.6 9.2 10 
10.4 10.8 10 10.2 10 10.6 10 10 10 
10 10 10 10 10 10 10 10 10 
10 10 10 10 10 10 10 10 10 
10 10 10 10.2 10 10.4 10 10 10.8 
10 10 10 10.6 10 10 10 10 10 
10 10 10 10 10 10 10 10 10 
10 10 10 10 10 10 10 10 10 
10.6 10 10 10.8 10.4 10 10.2 10 10 
10 10 10 10 10 10 10 10 10 
10 10 10 10 10 10 10 10 10 
10 10 10 10 10 10 10 10 10 
10 10 10 10 10 10 10 10 10 
10 10 10 10 10 10 10 10 10 
10 10 10 10 10 10 10 10 10 
10 10.2 10.8 10 10 10.4 10 10 10 
10.6 10 10 10 10 10 10 10 10 
10 10 10 10 10 10.7795 10 10 10.749 
10.1796 10.33 10 10 10 10 10 10 10 
10.2 10.4 10.8 10.6 10 11.4 11 11.6 11.8 
11.2 11.4 11.6 11.2 11 11.8 11 11.4 11.2 
11.8 11.6 11.6 11.8 11.4 11.2 11 11.5175 11 
11.2 11.8 11.6 11.4 12.2 12.8 12 12.4 12.6 
12.8 12.2 12.4 12.6 12 12.6 12.4 12 12.2 
12.8 12 12.2 12.4 12.8 12.6 12.9105 12.046 12.6 
12 12.4 12.8 12.2 13 13.6 13.4 13.8 13.2 
13 13.8 13.6 13.2 13.4 13.4 13.8 13.2 13 
13.6 13.6 13 13.4 13.2 13.8 13.6301 13.4 13.2 
13.8 13 13.6 14.8 14.2 14.6 14.4 14 14.2 
14 14.4 14.6 14.8 14 14.6 14.4 14.8 14.2 
14.0828 14.3498 14 14.8 14.4 14.2 14.6 14 15.6 
15.2 15.4 15.8 15 15.6 15.8 15.4 15 15.2 
15.8 15.2 15.4 15.6 15 15.3333 15 15.5 15.8333 
15.1667 15.6667 15.8 15 15.6 15.4 15.2 16 16 
16 16 16 16 16 16 16 16 16 
16 16 16 16 16 16 16 16 16 
16 16 16 16 16 16 16 16 16 
16 16 16 16 16 16 16 16 16 
16 16 16 16 16 16 16 16 16 
16 16 16 16 16 16 16 16 16 
16 16 16 16 16 16 16 16 16 
16 16 16 16 16 16 16 16 16 
16 16 16 16 16 16 16 16 16 
16 16 16 16 16 16 16 16 16 
16 16 16 16 16 16 16 16 16 
16 16 16 16 16 16 16 16 16 
16 16 16 16 16 16 16 16 16 
16 16 16 16 16 16 16 16 16 
16 16 16 16 16 16 16 16 16 
16 16 16 16 16 16 16 16 16 
16 16 16 16 16 
