# vtk DataFile Version 4.0
vtk output
ASCII
DATASET POLYDATA
FIELD FieldData 4
domain 1 4 string
domain_min:-40|-40
domain_max:40|40
cell_size:1|1
boundary:0|0

variables 1 5 string
T:17.6
dt:0.01
write_case:1
substeps:10
all_steps:1760

constants 1 17 string
L:40
c_s:1
dx:1
k:1000
d1:-13.5|10
d2:-6|10
d3:9|14.5
d4:13.5|10
d5:-6|8
d6:0|8
d7:6|8
d8:-9|9
d9:9|9
d10:-12|0
d11:12|0
d12:0|-10
R_w:0.1

equations 1 18 string
time:T=(T+dt)#true
pos_x:x=elem(r,0,0)#eq(gid,1)
pos_y:y=elem(r,1,0)#eq(gid,1)
wp_1:p0=if(and(lt(x,(-9)),gt(y,10)),d1,p0)#eq(gid,1)
wp_2:p0=if(and(and(gt(x,(-9)),lt(x,(-3))),gt(y,10)),d2,p0)#eq(gid,1)
wp_3:p0=if(and(and(gt(x,(-3)),lt(x,9)),gt(y,10)),d3,p0)#eq(gid,1)
wp_4:p0=if(and(gt(x,9),gt(y,10)),d4,p0)#eq(gid,1)
wp_5:p0=if(and(and(gt(x,(-9)),lt(x,(-3))),lt(y,8)),d5,p0)#eq(gid,1)
wp_6:p0=if(and(and(gt(x,(-3)),lt(x,3)),lt(y,8)),d6,p0)#eq(gid,1)
wp_7:p0=if(and(and(gt(x,3),lt(x,9)),lt(y,8)),d7,p0)#eq(gid,1)
wp_8:p0=if(and(and(gt(x,(-9)),lt(x,0)),and(gt(y,8),lt(y,10))),d8,p0)#eq(gid,1)
wp_9:p0=if(and(and(gt(x,0),lt(x,9)),and(gt(y,8),lt(y,10))),d9,p0)#eq(gid,1)
wp_10:p0=if(and(lt(x,(-9)),lt(y,10)),d10,p0)#eq(gid,1)
wp_11:p0=if(and(gt(x,9),lt(y,10)),d11,p0)#eq(gid,1)
wp_12:p0=if(lt(y,0),d12,p0)#eq(gid,1)
acceleration:v=sfm(v,p0,v0,m,R,A,B,k,c,tau)#eq(gid,1)
velocity:v=euler(v,a,dt)#eq(gid,1)
position:r=euler(r,v,dt)#eq(gid,1)

POINTS 1049 float
-0.434848 -10.3627 0 0.0507709 -10.1719 0 -0.925053 -9.38304 0 
-0.415278 -9.8174 0 0.0341711 -9.69585 0 0.534038 -9.95506 0 
0.213474 -9.28321 0 0.757425 -9.42964 0 -2.45944 -8.01183 0 
-1.79022 -8.40534 0 1.89046 -8.24349 0 1.25838 -8.72834 0 
1.98865 -8.87263 0 2.48805 -8.57441 0 -3.20106 -7.39177 0 
2.9891 -7.398 0 3.14373 -7.98163 0 -4.72793 -6.91845 0 
-4.54342 -6.06306 0 -3.93555 -6.66545 0 -2.95877 -6.73138 0 
3.86844 -6.80274 0 4.44109 -6.47209 0 -6.67755 -5.10351 0 
-5.96777 -5.24255 0 -5.12335 -5.92788 0 -7.77596 -4.28739 0 
-7.45776 -4.96241 0 -6.82621 -4.47662 0 -5.91035 -4.5445 0 
6.5001 -4.70365 0 -9.48147 -3.3011 0 -8.80865 -3.16727 0 
-7.44755 -3.68178 0 -6.56783 -3.93981 0 7.51362 -3.65173 0 
8.07008 -3.70419 0 -10.1314 -2.35766 0 -9.04704 -2.25432 0 
-9.20427 -2.77466 0 -8.18942 -2.84927 0 9.0386 -2.52239 0 
9.76128 -2.72 0 9.69593 -2.1319 0 10.3916 -2.51492 0 
-10.8005 -1.59842 0 -10.0668 -1.6276 0 -9.45971 -1.92784 0 
9.1064 -1.94212 0 10.2771 -1.60687 0 10.7092 -1.11405 0 
11.3259 -1.49936 0 -11.8802 -0.913648 0 -11.1783 -0.910616 0 
-11.7734 -0.29391 0 11.6348 -0.991369 0 11.4959 -0.425415 0 
12.1061 -0.219636 0 -15 0.2 0 -14.4643 0 0 
-14.6429 0 0 -14.2857 0 0 -15 0.8 0 
-15 0 0 -14.8214 0 0 -15 0.6 0 
-14.1071 0 0 -15 0.4 0 -13.5714 0 0 
-13.3929 0 0 -13.9286 0 0 -13.0357 0 0 
-13.75 0 0 -13.2143 0 0 -12.6786 0 0 
-12.229 0.226183 0 -12.5 0 0 -12.082 0.740932 0 
-12.8571 0 0 -11.5 0 0 -11.6042 0.879255 0 
-11.1429 0 0 -11.694 0.340807 0 -11.3214 0 0 
-10.9643 0 0 -10.6071 0 0 -10.4286 0 0 
-10.0714 0 0 -10.7857 0 0 -10.25 0 0 
-9.8929 0 0 -9.1786 0 0 -9.3571 0 0 
-9.7143 0 0 -9.5357 0 0 -8.2 0 0 
-8.6 0 0 -9 0.4 0 -9 0.2 0 
-9 0.8 0 -9 0.6 0 -9 0 0 
-8.4 0 0 -8.8 0 0 -8 0 0 
-7.4 0 0 -7.8 0 0 -7.2 0 0 
-7.6 0 0 -6.6 0 0 -7 0 0 
-6.2 0 0 -6.4 0 0 -6.8 0 0 
-5.8 0 0 -5.2 0 0 -5.6 0 0 
-5.4 0 0 -6 0 0 -4.2 0 0 
-4.4 0 0 -5 0 0 -4.6 0 0 
-4.8 0 0 -3.2 0 0 -4 0 0 
-3.6 0 0 -3.4 0 0 -3.8 0 0 
-2.6 0 0 -2.8 0 0 -2.4 0 0 
-3 0 0 -3 0.2 0 -3 0.6 0 
-2.2 0 0 -3 0.4 0 -3 0.8 0 
-1.6 0 0 -1.2 0 0 -2 0 0 
-1.4 0 0 -1.8 0 0 -0.8 0 0 
-0.6 0 0 -0.4 0 0 -0.2 0 0 
-1 0 0 0.8 0 0 0.6 0 0 
0.4 0 0 0.2 0 0 -0 0 0 
1.4 0 0 1.8 0 0 1.6 0 0 
1 0 0 1.2 0 0 2.2 0 0 
2.6 0 0 2.8 0 0 2 0 0 
2.4 0 0 3 0 0 3 0.2 0 
3 0.4 0 3.4 0 0 3.2 0 0 
3 0.8 0 3.8 0 0 3 0.6 0 
3.6 0 0 4.6 0 0 4.8 0 0 
4 0 0 4.2 0 0 4.4 0 0 
5.8 0 0 5.4 0 0 5.2 0 0 
5.6 0 0 5 0 0 6.8 0 0 
6.6 0 0 6 0 0 6.2 0 0 
6.4 0 0 7 0 0 7.6 0 0 
7.2 0 0 7.4 0 0 7.8 0 0 
8.2 0 0 8 0 0 8.6 0 0 
8.8 0 0 8.4 0 0 9.7143 0 0 
9.8929 0 0 9 0.4 0 9 0.6 0 
9.3571 0 0 9 0 0 9.5357 0 0 
9.1786 0 0 9 0.8 0 9 0.2 0 
10.0714 0 0 10.7857 0 0 10.25 0 0 
10.4286 0 0 10.9643 0 0 10.6071 0 0 
11.3214 0 0 11.1429 0 0 11.6556 0.725054 0 
11.7384 0.183368 0 11.2299 0.377493 0 11.5 0 0 
12.1811 0.924818 0 12.5 0 0 12.6786 0 0 
12.8571 0 0 12.1267 0.401965 0 12.6509 0.294844 0 
12.5504 0.691587 0 13.5714 0 0 13.2143 0 0 
13.75 0 0 13.9286 0 0 13.0357 0 0 
13.3929 0 0 14.2857 0 0 14.6429 0 0 
14.4643 0 0 14.1071 0 0 14.8214 0 0 
15 0.6 0 15 0 0 15 0.4 0 
15 0.2 0 15 0.8 0 -15 1.2 0 
-15 1.4 0 -15 1 0 -15 1.6 0 
-15 1.8 0 -12.2111 1.30352 0 -12.0248 1.83236 0 
-11.4472 1.38004 0 -9 1 0 -9 1.8 0 
-9 1.6 0 -9 1.4 0 -9 1.2 0 
-3 1.4 0 -3 1 0 -3 1.2 0 
-3 1.6 0 -3 1.8 0 3 1.8 0 
3 1.4 0 3 1 0 3 1.2 0 
3 1.6 0 9 1.2 0 9 1 0 
9 1.4 0 9 1.6 0 9 1.8 0 
10.9294 1.813 0 11.8297 1.28766 0 11.2539 1.33151 0 
11.5506 1.8877 0 12.0787 1.7815 0 12.7998 1.07497 0 
12.5005 1.50337 0 15 1.8 0 15 1.4 0 
15 1.2 0 15 1 0 15 1.6 0 
-15 2 0 -15 2.4 0 -15 2.6 0 
-15 2.2 0 -15 2.8 0 -11.6429 2.22651 0 
-11.3425 2.69588 0 -9 2.4 0 -9 2.8 0 
-9 2.6 0 -9 2 0 -9 2.2 0 
-3 2.8 0 -3 2 0 -3 2.2 0 
-3 2.6 0 -3 2.4 0 3 2 0 
3 2.6 0 3 2.2 0 3 2.4 0 
3 2.8 0 9 2.8 0 9 2.2 0 
9 2.4 0 9 2 0 9 2.6 0 
11.0943 2.39138 0 11.6625 2.4688 0 12.5185 2.02249 0 
15 2.2 0 15 2.8 0 15 2.6 0 
15 2.4 0 15 2 0 -15 3 0 
-15 3.6 0 -15 3.4 0 -15 3.8 0 
-15 3.2 0 -11.5115 3.63859 0 -10.6242 3.07761 0 
-10.9318 3.5782 0 -9 3.4 0 -9 3.2 0 
-9 3 0 -9 3.6 0 -9 3.8 0 
-3 3.8 0 -3 3.2 0 -3 3.4 0 
-3 3 0 -3 3.6 0 3 3.2 0 
3 3.6 0 3 3.8 0 3 3 0 
3 3.4 0 9 3 0 9 3.8 0 
9 3.2 0 9 3.6 0 9 3.4 0 
12.2736 3.31472 0 12.4329 3.89428 0 15 3.2 0 
15 3.6 0 15 3 0 15 3.8 0 
15 3.4 0 -15 4.4 0 -15 4.2 0 
-15 4.8 0 -15 4.6 0 -15 4 0 
-10.3777 4.64111 0 -10.7496 4.16653 0 -9 4.8 0 
-9 4 0 -9 4.2 0 -9 4.4 0 
-9 4.6 0 -3 4.8 0 -3 4.4 0 
-3 4.2 0 -3 4.6 0 -3 4 0 
3 4 0 3 4.2 0 3 4.6 0 
3 4.4 0 3 4.8 0 9 4.2 0 
9 4.8 0 9 4.4 0 9 4.6 0 
9 4 0 10.5639 4.86977 0 12.351 4.79289 0 
13.1082 4.46252 0 13.5098 4.89543 0 15 4.8 0 
15 4.4 0 15 4.2 0 15 4.6 0 
15 4 0 -15 5.6 0 -15 5.8 0 
-15 5.2 0 -15 5.4 0 -15 5 0 
-11.0213 5.30051 0 -10.3676 5.25683 0 -9 5 0 
-9 5.6 0 -9 5.4 0 -9 5.8 0 
-9 5.2 0 -3 5.2 0 -3 5.4 0 
-3 5.6 0 -3 5 0 -3 5.8 0 
3 5.6 0 3 5.2 0 3 5 0 
3 5.4 0 3 5.8 0 9 5.4 0 
9 5.2 0 9 5.6 0 9 5.8 0 
9 5 0 12.8949 5.00573 0 15 5.6 0 
15 5.8 0 15 5.2 0 15 5 0 
15 5.4 0 -15 6.2 0 -15 6.8 0 
-15 6.6 0 -15 6 0 -15 6.4 0 
-10.0405 6.45701 0 -9 6.4 0 -9 6 0 
-9 6.2 0 -9 6.8 0 -9 6.6 0 
-3 6.4 0 -3 6.2 0 -3 6.8 0 
-3 6 0 -3 6.6 0 3 6 0 
3 6.6 0 3 6.4 0 3 6.2 0 
3 6.8 0 9 6 0 9 6.4 0 
9 6.2 0 9 6.8 0 9 6.6 0 
10.1463 6.28436 0 12.9449 6.69877 0 12.6207 6.17289 0 
13.3388 6.0256 0 15 6.6 0 15 6 0 
15 6.2 0 15 6.4 0 15 6.8 0 
-15 7.2 0 -15 7.6 0 -15 7.4 0 
-15 7.8 0 -15 7 0 -9 7 0 
-9 7.6 0 -9 7.2 0 -9 7.8 0 
-9 7.4 0 -3 7.4 0 -3 7 0 
-3 7.6 0 -3 7.8 0 -3 7.2 0 
3 7.4 0 3 7.2 0 3 7 0 
3 7.6 0 3 7.8 0 9 7.6 0 
9 7.4 0 9 7.8 0 9 7.2 0 
9 7 0 12.9946 7.81243 0 15 7.6 0 
15 7.2 0 15 7.8 0 15 7 0 
15 7.4 0 -15 8.6 0 -15 8 0 
-15 8.2 0 -15 8.4 0 -15 8.8 0 
-8.2857 8 0 -8.8214 8 0 -8.1071 8 0 
-9 8 0 -8.6429 8 0 -8.4643 8 0 
-7.5714 8 0 -7.75 8 0 -7.2143 8 0 
-7.3929 8 0 -7.0357 8 0 -7.9286 8 0 
-6.5 8 0 -6.6786 8 0 -6.8571 8 0 
-6.30909 8.95924 0 -5.3214 8 0 -5.37241 8.94987 0 
-5.5 8 0 -5.1429 8 0 -4.9643 8 0 
-4.0714 8 0 -4.6071 8 0 -4.4286 8 0 
-4.25 8 0 -4.7857 8 0 -3.8929 8 0 
-3.5357 8 0 -3.7143 8 0 -3.1786 8 0 
-3.3571 8 0 -2.4643 8 0 -2.1071 8 0 
-3 8 0 -2.8214 8 0 -2.2857 8 0 
-2.6429 8 0 -1.2143 8 0 -1.5714 8 0 
-1.9286 8 0 -1.3929 8 0 -1.0357 8 0 
-1.75 8 0 -0.6786 8 0 -0.5 8 0 
-0.8571 8 0 0.8571 8 0 0.5 8 0 
0.6786 8 0 1.5714 8 0 1.9286 8 0 
1.3929 8 0 1.75 8 0 1.2143 8 0 
1.0357 8 0 2.6429 8 0 2.4643 8 0 
2.2857 8 0 2.8214 8 0 2.1071 8 0 
3.3571 8 0 3.5357 8 0 3 8 0 
3.8929 8 0 3.1786 8 0 3.7143 8 0 
4.9643 8 0 4.6071 8 0 4.25 8 0 
4.0714 8 0 4.7857 8 0 4.4286 8 0 
5.1429 8 0 5.3214 8 0 5.5 8 0 
6.5 8 0 6.6786 8 0 6.8571 8 0 
7.9286 8 0 7.2143 8 0 7.5714 8 0 
7.3929 8 0 7.0357 8 0 7.25923 8.98509 0 
7.75 8 0 8.4643 8 0 8.2857 8 0 
8.1071 8 0 8.6429 8 0 8.8214 8 0 
9 8 0 9.10366 8.86003 0 9.45157 8.15724 0 
9 8 0 13.5244 8.11039 0 13.5124 8.70691 0 
15 8.8 0 15 8 0 15 8.2 0 
15 8.6 0 15 8.4 0 -15 9.4 0 
-15 9 0 -15 9.2 0 -15 9.6 0 
-15 9.8 0 -6.90665 9.00081 0 8.54534 9.00556 0 
13.3948 9.34139 0 15 9.2 0 15 9.8 0 
15 9 0 15 9.4 0 15 9.6 0 
-15 10.4 0 -15 10.2 0 -14.1667 10 0 
-15 10.6 0 -14.3333 10 0 -15 10 0 
-14.6667 10 0 -15 10.8 0 -14.5 10 0 
-14.8333 10 0 -14 10 0 -12.6 10 0 
-12.8 10 0 -12.4 10 0 -12.2 10 0 
-13 10 0 -11.8 10 0 -12 10 0 
-11.6 10 0 -11.4 10 0 -11.2 10 0 
-10.8 10 0 -10.4 10 0 -10.2 10 0 
-11 10 0 -10.6 10 0 -10 10 0 
-9.2 10 0 -9.6 10 0 -9.4 10 0 
-9.8 10 0 -9 10.6 0 -9 10.4 0 
-8.6429 10 0 -8.2857 10 0 -8.8214 10 0 
-8.4643 10 0 -8.1071 10 0 -9 10.2 0 
-9 10.8 0 -9 10 0 -7.3929 10 0 
-7.0357 10 0 -7.5714 10 0 -7.9286 10 0 
-7.75 10 0 -7.2143 10 0 -6.5 10 0 
-6.6786 10 0 -6.8571 10 0 -5.1429 10 0 
-5.5 10 0 -5.3214 10 0 -4.0714 10 0 
-4.9643 10 0 -4.6071 10 0 -4.4286 10 0 
-4.7857 10 0 -4.25 10 0 -3.7143 10 0 
-3.8929 10 0 -3.3571 10 0 -3.1786 10 0 
-3.5357 10 0 -2.8 10 0 -3 10.2 0 
-2.2 10 0 -2.4 10 0 -3 10 0 
-3 10.6 0 -3 10.8 0 -2.6 10 0 
-3 10.4 0 -1.6 10 0 -1.8 10 0 
-1.2 10 0 -2 10 0 -1.4 10 0 
-1 10 0 -0.6 10 0 -0.8 10 0 
-0.2 10 0 -0.4 10 0 0.8 10 0 
0.2 10 0 0.6 10 0 0.4 10 0 
-0 10 0 1.8 10 0 1.4 10 0 
1.2 10 0 1.6 10 0 1 10 0 
2.6 10 0 2.2 10 0 2.8 10 0 
2.4 10 0 2 10 0 3.2 10 0 
3.8 10 0 3.4 10 0 3 10 0 
3.6 10 0 4.2 10 0 4.4 10 0 
4.8 10 0 4.6 10 0 4 10 0 
5.4 10 0 5.2 10 0 5.8 10 0 
5.6 10 0 5 10 0 6 10 0 
6.4 10 0 6.2 10 0 6.6 10 0 
6.8 10 0 7.4 10 0 7 10 0 
7.8 10 0 7.6 10 0 7.2 10 0 
8.6 10 0 8 10 0 8.8 10 0 
8.2 10 0 8.4 10 0 9.2 10 0 
9 10.2 0 9.4 10 0 9.8 10 0 
9 10.4 0 9 10.6 0 9 10.8 0 
9 10 0 9.6 10 0 10.6 10 0 
10.4 10 0 10.8 10 0 10.2 10 0 
10 10 0 11.2 10 0 11 10 0 
11.4 10 0 11.6 10 0 11.8 10 0 
12.8 10 0 12.4 10 0 12.2 10 0 
12 10 0 12.6 10 0 13.0713 10.5067 0 
13.4848 10.0441 0 13 10 0 14.3333 10 0 
14.8333 10 0 14.5 10 0 14 10 0 
14.6667 10 0 14.1667 10 0 15 10.2 0 
15 10.4 0 15 10.8 0 15 10.6 0 
15 10 0 -15 11.8 0 -15 11 0 
-15 11.4 0 -15 11.2 0 -15 11.6 0 
-9 11.4 0 -9 11.6 0 -9 11 0 
-9 11.2 0 -9 11.8 0 -3 11 0 
-3 11.4 0 -3 11.2 0 -3 11.8 0 
-3 11.6 0 9 11.2 0 9 11.6 0 
9 11.8 0 9 11.4 0 9 11 0 
12.0219 11.555 0 15 11 0 15 11.2 0 
15 11.8 0 15 11.6 0 15 11.4 0 
-15 12.6 0 -15 12.4 0 -15 12.2 0 
-15 12 0 -15 12.8 0 -9 12 0 
-9 12.6 0 -9 12.8 0 -9 12.4 0 
-9 12.2 0 -3 12.6 0 -3 12.4 0 
-3 12 0 -3 12.2 0 -3 12.8 0 
9 12 0 9 12.2 0 9 12.4 0 
9 12.8 0 9 12.6 0 11.2786 12.3412 0 
15 12.8 0 15 12.6 0 15 12.4 0 
15 12 0 15 12.2 0 -15 13 0 
-15 13.4 0 -15 13.8 0 -15 13.2 0 
-15 13.6 0 -9 13.6 0 -9 13.4 0 
-9 13.2 0 -9 13.8 0 -9 13 0 
-3 13.4 0 -3 13.8 0 -3 13.2 0 
-3 13 0 -3 13.6 0 9 13.8 0 
9 13.6 0 9 13.2 0 9 13.4 0 
9 13 0 10.0315 13.662 0 15 13.4 0 
15 13.2 0 15 13.8 0 15 13 0 
15 13.6 0 -15 14.8 0 -15 14.2 0 
-15 14.6 0 -15 14.4 0 -15 14 0 
-9 14 0 -9 14.8 0 -9 14.6 0 
-9 14.4 0 -9 14.2 0 -3 14.4 0 
-3 14.6 0 -3 14.8 0 -3 14.2 0 
-3 14 0 9.32389 14.2906 0 9 14 0 
15 14.8 0 15 14.4 0 15 14.2 0 
15 14.6 0 15 14 0 -15 15 0 
-15 15.4 0 -15 15.8 0 -15 15.2 0 
-15 15.6 0 -9 15.6 0 -9 15.8 0 
-9 15.4 0 -9 15 0 -9 15.2 0 
-3 15.8 0 -3 15.2 0 -3 15.4 0 
-3 15.6 0 -3 15 0 9 15.3333 0 
9 15 0 9 15.5 0 9 15.8333 0 
9 15.1667 0 9 15.6667 0 15 15.8 0 
15 15 0 15 15.6 0 15 15.4 0 
15 15.2 0 -14.4 16 0 -14.2 16 0 
-14.8 16 0 -14.6 16 0 -15 16 0 
-13.4 16 0 -13.6 16 0 -13.2 16 0 
-14 16 0 -13.8 16 0 -12.4 16 0 
-13 16 0 -12.6 16 0 -12.2 16 0 
-12.8 16 0 -11.4 16 0 -11.6 16 0 
-11.2 16 0 -12 16 0 -11.8 16 0 
-10.6 16 0 -11 16 0 -10.2 16 0 
-10.4 16 0 -10.8 16 0 -9.4 16 0 
-9.8 16 0 -10 16 0 -9.2 16 0 
-9.6 16 0 -8.8 16 0 -8.2 16 0 
-8.4 16 0 -8.6 16 0 -9 16 0 
-8 16 0 -7.4 16 0 -7.2 16 0 
-7.6 16 0 -7.8 16 0 -6.8 16 0 
-6.2 16 0 -6.6 16 0 -7 16 0 
-6.4 16 0 -5.2 16 0 -5.8 16 0 
-6 16 0 -5.4 16 0 -5.6 16 0 
-5 16 0 -4.6 16 0 -4.2 16 0 
-4.4 16 0 -4.8 16 0 -3.8 16 0 
-3.6 16 0 -3.4 16 0 -3.2 16 0 
-4 16 0 -3 16 0 -2.6 16 0 
-2.8 16 0 -2.4 16 0 -2.2 16 0 
-1.4 16 0 -1.6 16 0 -1.8 16 0 
-1.2 16 0 -2 16 0 -0.6 16 0 
-0.8 16 0 -0.4 16 0 -1 16 0 
-0.2 16 0 0.4 16 0 -0 16 0 
0.6 16 0 0.8 16 0 0.2 16 0 
1.2 16 0 1.4 16 0 1.8 16 0 
1 16 0 1.6 16 0 2.8 16 0 
2 16 0 2.2 16 0 2.6 16 0 
2.4 16 0 3.2 16 0 3.4 16 0 
3 16 0 3.6 16 0 3.8 16 0 
4 16 0 4.2 16 0 4.4 16 0 
4.6 16 0 4.8 16 0 5 16 0 
5.6 16 0 5.8 16 0 5.4 16 0 
5.2 16 0 6.4 16 0 6.8 16 0 
6.6 16 0 6.2 16 0 6 16 0 
7.4 16 0 7 16 0 7.6 16 0 
7.8 16 0 7.2 16 0 8 16 0 
8.8 16 0 8.2 16 0 8.4 16 0 
8.6 16 0 9 16 0 9.2 16 0 
9.8 16 0 9.4 16 0 9.6 16 0 
10 16 0 10.2 16 0 10.4 16 0 
10.6 16 0 10.8 16 0 11.4 16 0 
11.8 16 0 11 16 0 11.6 16 0 
11.2 16 0 12.4 16 0 12.8 16 0 
12.6 16 0 12.2 16 0 12 16 0 
13.8 16 0 13.2 16 0 13.4 16 0 
13.6 16 0 13 16 0 14.8 16 0 
14 16 0 14.2 16 0 14.4 16 0 
14.6 16 0 15 16 0 
VERTICES 2098 2098
1 0 
1 1 
1 2 
1 3 
1 4 
1 5 
1 6 
1 7 
1 8 
1 9 
1 10 
1 11 
1 12 
1 13 
1 14 
1 15 
1 16 
1 17 
1 18 
1 19 
1 20 
1 21 
1 22 
1 23 
1 24 
1 25 
1 26 
1 27 
1 28 
1 29 
1 30 
1 31 
1 32 
1 33 
1 34 
1 35 
1 36 
1 37 
1 38 
1 39 
1 40 
1 41 
1 42 
1 43 
1 44 
1 45 
1 46 
1 47 
1 48 
1 49 
1 50 
1 51 
1 52 
1 53 
1 54 
1 55 
1 56 
1 57 
1 58 
1 59 
1 60 
1 61 
1 62 
1 63 
1 64 
1 65 
1 66 
1 67 
1 68 
1 69 
1 70 
1 71 
1 72 
1 73 
1 74 
1 75 
1 76 
1 77 
1 78 
1 79 
1 80 
1 81 
1 82 
1 83 
1 84 
1 85 
1 86 
1 87 
1 88 
1 89 
1 90 
1 91 
1 92 
1 93 
1 94 
1 95 
1 96 
1 97 
1 98 
1 99 
1 100 
1 101 
1 102 
1 103 
1 104 
1 105 
1 106 
1 107 
1 108 
1 109 
1 110 
1 111 
1 112 
1 113 
1 114 
1 115 
1 116 
1 117 
1 118 
1 119 
1 120 
1 121 
1 122 
1 123 
1 124 
1 125 
1 126 
1 127 
1 128 
1 129 
1 130 
1 131 
1 132 
1 133 
1 134 
1 135 
1 136 
1 137 
1 138 
1 139 
1 140 
1 141 
1 142 
1 143 
1 144 
1 145 
1 146 
1 147 
1 148 
1 149 
1 150 
1 151 
1 152 
1 153 
1 154 
1 155 
1 156 
1 157 
1 158 
1 159 
1 160 
1 161 
1 162 
1 163 
1 164 
1 165 
1 166 
1 167 
1 168 
1 169 
1 170 
1 171 
1 172 
1 173 
1 174 
1 175 
1 176 
1 177 
1 178 
1 179 
1 180 
1 181 
1 182 
1 183 
1 184 
1 185 
1 186 
1 187 
1 188 
1 189 
1 190 
1 191 
1 192 
1 193 
1 194 
1 195 
1 196 
1 197 
1 198 
1 199 
1 200 
1 201 
1 202 
1 203 
1 204 
1 205 
1 206 
1 207 
1 208 
1 209 
1 210 
1 211 
1 212 
1 213 
1 214 
1 215 
1 216 
1 217 
1 218 
1 219 
1 220 
1 221 
1 222 
1 223 
1 224 
1 225 
1 226 
1 227 
1 228 
1 229 
1 230 
1 231 
1 232 
1 233 
1 234 
1 235 
1 236 
1 237 
1 238 
1 239 
1 240 
1 241 
1 242 
1 243 
1 244 
1 245 
1 246 
1 247 
1 248 
1 249 
1 250 
1 251 
1 252 
1 253 
1 254 
1 255 
1 256 
1 257 
1 258 
1 259 
1 260 
1 261 
1 262 
1 263 
1 264 
1 265 
1 266 
1 267 
1 268 
1 269 
1 270 
1 271 
1 272 
1 273 
1 274 
1 275 
1 276 
1 277 
1 278 
1 279 
1 280 
1 281 
1 282 
1 283 
1 284 
1 285 
1 286 
1 287 
1 288 
1 289 
1 290 
1 291 
1 292 
1 293 
1 294 
1 295 
1 296 
1 297 
1 298 
1 299 
1 300 
1 301 
1 302 
1 303 
1 304 
1 305 
1 306 
1 307 
1 308 
1 309 
1 310 
1 311 
1 312 
1 313 
1 314 
1 315 
1 316 
1 317 
1 318 
1 319 
1 320 
1 321 
1 322 
1 323 
1 324 
1 325 
1 326 
1 327 
1 328 
1 329 
1 330 
1 331 
1 332 
1 333 
1 334 
1 335 
1 336 
1 337 
1 338 
1 339 
1 340 
1 341 
1 342 
1 343 
1 344 
1 345 
1 346 
1 347 
1 348 
1 349 
1 350 
1 351 
1 352 
1 353 
1 354 
1 355 
1 356 
1 357 
1 358 
1 359 
1 360 
1 361 
1 362 
1 363 
1 364 
1 365 
1 366 
1 367 
1 368 
1 369 
1 370 
1 371 
1 372 
1 373 
1 374 
1 375 
1 376 
1 377 
1 378 
1 379 
1 380 
1 381 
1 382 
1 383 
1 384 
1 385 
1 386 
1 387 
1 388 
1 389 
1 390 
1 391 
1 392 
1 393 
1 394 
1 395 
1 396 
1 397 
1 398 
1 399 
1 400 
1 401 
1 402 
1 403 
1 404 
1 405 
1 406 
1 407 
1 408 
1 409 
1 410 
1 411 
1 412 
1 413 
1 414 
1 415 
1 416 
1 417 
1 418 
1 419 
1 420 
1 421 
1 422 
1 423 
1 424 
1 425 
1 426 
1 427 
1 428 
1 429 
1 430 
1 431 
1 432 
1 433 
1 434 
1 435 
1 436 
1 437 
1 438 
1 439 
1 440 
1 441 
1 442 
1 443 
1 444 
1 445 
1 446 
1 447 
1 448 
1 449 
1 450 
1 451 
1 452 
1 453 
1 454 
1 455 
1 456 
1 457 
1 458 
1 459 
1 460 
1 461 
1 462 
1 463 
1 464 
1 465 
1 466 
1 467 
1 468 
1 469 
1 470 
1 471 
1 472 
1 473 
1 474 
1 475 
1 476 
1 477 
1 478 
1 479 
1 480 
1 481 
1 482 
1 483 
1 484 
1 485 
1 486 
1 487 
1 488 
1 489 
1 490 
1 491 
1 492 
1 493 
1 494 
1 495 
1 496 
1 497 
1 498 
1 499 
1 500 
1 501 
1 502 
1 503 
1 504 
1 505 
1 506 
1 507 
1 508 
1 509 
1 510 
1 511 
1 512 
1 513 
1 514 
1 515 
1 516 
1 517 
1 518 
1 519 
1 520 
1 521 
1 522 
1 523 
1 524 
1 525 
1 526 
1 527 
1 528 
1 529 
1 530 
1 531 
1 532 
1 533 
1 534 
1 535 
1 536 
1 537 
1 538 
1 539 
1 540 
1 541 
1 542 
1 543 
1 544 
1 545 
1 546 
1 547 
1 548 
1 549 
1 550 
1 551 
1 552 
1 553 
1 554 
1 555 
1 556 
1 557 
1 558 
1 559 
1 560 
1 561 
1 562 
1 563 
1 564 
1 565 
1 566 
1 567 
1 568 
1 569 
1 570 
1 571 
1 572 
1 573 
1 574 
1 575 
1 576 
1 577 
1 578 
1 579 
1 580 
1 581 
1 582 
1 583 
1 584 
1 585 
1 586 
1 587 
1 588 
1 589 
1 590 
1 591 
1 592 
1 593 
1 594 
1 595 
1 596 
1 597 
1 598 
1 599 
1 600 
1 601 
1 602 
1 603 
1 604 
1 605 
1 606 
1 607 
1 608 
1 609 
1 610 
1 611 
1 612 
1 613 
1 614 
1 615 
1 616 
1 617 
1 618 
1 619 
1 620 
1 621 
1 622 
1 623 
1 624 
1 625 
1 626 
1 627 
1 628 
1 629 
1 630 
1 631 
1 632 
1 633 
1 634 
1 635 
1 636 
1 637 
1 638 
1 639 
1 640 
1 641 
1 642 
1 643 
1 644 
1 645 
1 646 
1 647 
1 648 
1 649 
1 650 
1 651 
1 652 
1 653 
1 654 
1 655 
1 656 
1 657 
1 658 
1 659 
1 660 
1 661 
1 662 
1 663 
1 664 
1 665 
1 666 
1 667 
1 668 
1 669 
1 670 
1 671 
1 672 
1 673 
1 674 
1 675 
1 676 
1 677 
1 678 
1 679 
1 680 
1 681 
1 682 
1 683 
1 684 
1 685 
1 686 
1 687 
1 688 
1 689 
1 690 
1 691 
1 692 
1 693 
1 694 
1 695 
1 696 
1 697 
1 698 
1 699 
1 700 
1 701 
1 702 
1 703 
1 704 
1 705 
1 706 
1 707 
1 708 
1 709 
1 710 
1 711 
1 712 
1 713 
1 714 
1 715 
1 716 
1 717 
1 718 
1 719 
1 720 
1 721 
1 722 
1 723 
1 724 
1 725 
1 726 
1 727 
1 728 
1 729 
1 730 
1 731 
1 732 
1 733 
1 734 
1 735 
1 736 
1 737 
1 738 
1 739 
1 740 
1 741 
1 742 
1 743 
1 744 
1 745 
1 746 
1 747 
1 748 
1 749 
1 750 
1 751 
1 752 
1 753 
1 754 
1 755 
1 756 
1 757 
1 758 
1 759 
1 760 
1 761 
1 762 
1 763 
1 764 
1 765 
1 766 
1 767 
1 768 
1 769 
1 770 
1 771 
1 772 
1 773 
1 774 
1 775 
1 776 
1 777 
1 778 
1 779 
1 780 
1 781 
1 782 
1 783 
1 784 
1 785 
1 786 
1 787 
1 788 
1 789 
1 790 
1 791 
1 792 
1 793 
1 794 
1 795 
1 796 
1 797 
1 798 
1 799 
1 800 
1 801 
1 802 
1 803 
1 804 
1 805 
1 806 
1 807 
1 808 
1 809 
1 810 
1 811 
1 812 
1 813 
1 814 
1 815 
1 816 
1 817 
1 818 
1 819 
1 820 
1 821 
1 822 
1 823 
1 824 
1 825 
1 826 
1 827 
1 828 
1 829 
1 830 
1 831 
1 832 
1 833 
1 834 
1 835 
1 836 
1 837 
1 838 
1 839 
1 840 
1 841 
1 842 
1 843 
1 844 
1 845 
1 846 
1 847 
1 848 
1 849 
1 850 
1 851 
1 852 
1 853 
1 854 
1 855 
1 856 
1 857 
1 858 
1 859 
1 860 
1 861 
1 862 
1 863 
1 864 
1 865 
1 866 
1 867 
1 868 
1 869 
1 870 
1 871 
1 872 
1 873 
1 874 
1 875 
1 876 
1 877 
1 878 
1 879 
1 880 
1 881 
1 882 
1 883 
1 884 
1 885 
1 886 
1 887 
1 888 
1 889 
1 890 
1 891 
1 892 
1 893 
1 894 
1 895 
1 896 
1 897 
1 898 
1 899 
1 900 
1 901 
1 902 
1 903 
1 904 
1 905 
1 906 
1 907 
1 908 
1 909 
1 910 
1 911 
1 912 
1 913 
1 914 
1 915 
1 916 
1 917 
1 918 
1 919 
1 920 
1 921 
1 922 
1 923 
1 924 
1 925 
1 926 
1 927 
1 928 
1 929 
1 930 
1 931 
1 932 
1 933 
1 934 
1 935 
1 936 
1 937 
1 938 
1 939 
1 940 
1 941 
1 942 
1 943 
1 944 
1 945 
1 946 
1 947 
1 948 
1 949 
1 950 
1 951 
1 952 
1 953 
1 954 
1 955 
1 956 
1 957 
1 958 
1 959 
1 960 
1 961 
1 962 
1 963 
1 964 
1 965 
1 966 
1 967 
1 968 
1 969 
1 970 
1 971 
1 972 
1 973 
1 974 
1 975 
1 976 
1 977 
1 978 
1 979 
1 980 
1 981 
1 982 
1 983 
1 984 
1 985 
1 986 
1 987 
1 988 
1 989 
1 990 
1 991 
1 992 
1 993 
1 994 
1 995 
1 996 
1 997 
1 998 
1 999 
1 1000 
1 1001 
1 1002 
1 1003 
1 1004 
1 1005 
1 1006 
1 1007 
1 1008 
1 1009 
1 1010 
1 1011 
1 1012 
1 1013 
1 1014 
1 1015 
1 1016 
1 1017 
1 1018 
1 1019 
1 1020 
1 1021 
1 1022 
1 1023 
1 1024 
1 1025 
1 1026 
1 1027 
1 1028 
1 1029 
1 1030 
1 1031 
1 1032 
1 1033 
1 1034 
1 1035 
1 1036 
1 1037 
1 1038 
1 1039 
1 1040 
1 1041 
1 1042 
1 1043 
1 1044 
1 1045 
1 1046 
1 1047 
1 1048 

POINT_DATA 1049
SCALARS id double
LOOKUP_TABLE default
980 1027 993 977 1048 964 983 1036 1032 
1033 945 1024 1020 951 966 975 976 978 
990 1045 968 955 972 933 1040 1004 1041 
995 1005 947 941 1026 954 969 942 1016 
1028 936 1008 1047 1018 987 932 1037 962 
1042 1014 939 930 960 1022 1009 998 985 
989 986 973 997 391 41 40 42 388 
0 39 389 43 390 46 47 44 49 
45 48 51 965 1 984 50 2 953 
53 1038 52 54 56 57 59 55 58 
60 64 63 61 62 68 66 393 392 
395 394 3 67 65 69 72 70 73 
71 76 74 78 77 75 80 83 81 
82 79 88 87 84 86 85 93 89 
91 92 90 95 94 96 4 495 493 
97 494 492 100 102 98 101 99 104 
105 106 107 103 112 111 110 109 108 
115 117 116 113 114 119 121 122 118 
120 5 560 559 124 123 557 126 558 
125 130 131 127 128 129 136 134 133 
135 132 141 140 137 138 139 142 145 
143 144 146 148 147 150 151 149 155 
156 588 589 153 6 154 152 590 587 
157 161 158 159 162 160 164 163 988 
1043 1029 7 929 8 165 166 999 1011 
1030 170 168 171 172 167 169 174 176 
175 173 177 180 9 179 178 181 386 
385 387 384 383 967 952 1007 396 400 
399 398 397 489 491 490 488 487 552 
554 556 555 553 592 591 593 594 595 
1019 950 1025 979 994 946 1015 186 184 
183 182 185 382 380 379 381 378 992 
1012 403 405 404 401 402 482 486 485 
483 484 551 548 550 549 547 600 597 
598 596 599 937 1044 934 188 191 190 
189 187 377 374 375 373 376 935 1017 
1000 408 407 406 409 410 477 480 479 
481 478 545 543 542 546 544 601 605 
602 604 603 943 958 193 195 192 196 
194 370 371 368 369 372 1031 971 415 
411 412 413 414 472 474 475 473 476 
541 540 538 539 537 607 610 608 609 
606 1002 931 1013 940 201 199 198 200 
197 364 363 366 365 367 1021 944 416 
419 418 420 417 470 469 468 471 467 
533 535 536 534 532 613 612 614 615 
611 949 205 206 203 202 204 361 358 
359 362 360 1003 423 421 422 425 424 
464 465 462 466 463 531 528 529 530 
527 616 618 617 620 619 1001 957 1035 
959 210 207 208 209 211 356 354 355 
353 357 426 429 427 430 428 459 461 
458 457 460 524 525 526 523 522 624 
623 625 622 621 956 215 213 216 212 
214 349 352 351 350 348 434 431 435 
10 432 433 438 437 440 439 441 436 
11 443 442 1006 444 963 12 445 446 
451 448 449 450 447 452 454 453 456 
455 498 500 13 496 499 497 505 503 
501 504 506 502 508 14 507 510 15 
509 514 516 513 515 512 511 520 519 
518 521 517 562 563 16 565 561 564 
571 569 567 566 570 568 572 573 17 
18 574 575 581 577 579 578 576 1010 
580 584 583 582 585 586 19 1023 974 
34 948 961 221 217 218 220 219 345 
347 346 344 343 1034 981 1046 223 226 
222 224 225 341 342 664 340 663 20 
661 339 662 660 21 666 665 667 668 
22 670 669 671 672 673 675 677 678 
674 676 679 683 681 682 680 686 685 
714 716 713 715 717 684 687 23 721 
723 720 718 719 722 36 725 724 727 
37 726 733 728 730 731 729 732 735 
734 737 738 736 739 631 742 741 24 
633 634 740 632 745 744 747 743 746 
748 750 749 752 751 757 754 756 755 
753 762 760 759 761 758 766 764 767 
765 763 769 772 770 768 771 774 775 
777 776 773 780 779 782 781 778 783 
785 784 786 787 790 788 792 791 789 
796 793 797 794 795 798 817 799 801 
818 819 820 35 800 805 804 806 803 
802 808 807 809 810 811 816 814 813 
812 815 938 1039 25 629 626 628 26 
627 630 227 228 230 229 27 334 338 
336 337 335 690 691 688 689 692 635 
637 636 639 638 822 824 825 823 821 
991 231 232 235 234 233 330 331 332 
333 329 693 696 697 695 694 643 642 
640 641 644 826 827 828 830 829 982 
240 239 238 236 237 328 326 324 327 
325 701 700 699 702 698 647 649 646 
645 648 835 834 832 833 831 970 243 
242 245 241 244 319 322 320 321 323 
703 707 706 705 704 652 653 654 651 
650 996 29 250 248 247 249 246 318 
316 314 317 315 711 712 710 708 709 
659 656 657 658 655 925 28 926 928 
924 927 255 251 254 253 252 311 310 
313 312 30 306 307 305 309 308 301 
304 302 300 303 296 297 295 299 298 
292 294 290 291 293 286 288 289 285 
287 284 281 282 283 31 280 277 276 
278 279 274 271 273 275 272 266 269 
270 267 268 265 263 261 262 264 259 
258 257 256 260 32 837 836 838 839 
843 842 841 844 840 847 846 848 845 
849 852 850 853 854 851 856 857 859 
855 858 864 860 861 863 862 866 867 
865 868 869 870 871 872 873 874 875 
878 879 877 876 882 884 883 881 880 
887 885 888 889 886 890 894 891 892 
893 38 895 898 896 897 899 900 901 
902 903 906 908 904 907 905 911 913 
912 910 909 918 915 916 917 914 923 
919 920 921 922 33 
FIELD FieldData 14
r 3 1049 double
-0.434848 -10.3627 0 0.0507709 -10.1719 0 -0.925053 -9.38304 0 
-0.415278 -9.8174 0 0.0341711 -9.69585 0 0.534038 -9.95506 0 
0.213474 -9.28321 0 0.757425 -9.42964 0 -2.45944 -8.01183 0 
-1.79022 -8.40534 0 1.89046 -8.24349 0 1.25838 -8.72834 0 
1.98865 -8.87263 0 2.48805 -8.57441 0 -3.20106 -7.39177 0 
2.9891 -7.398 0 3.14373 -7.98163 0 -4.72793 -6.91845 0 
-4.54342 -6.06306 0 -3.93555 -6.66545 0 -2.95877 -6.73138 0 
3.86844 -6.80274 0 4.44109 -6.47209 0 -6.67755 -5.10351 0 
-5.96777 -5.24255 0 -5.12335 -5.92788 0 -7.77596 -4.28739 0 
-7.45776 -4.96241 0 -6.82621 -4.47662 0 -5.91035 -4.5445 0 
6.5001 -4.70365 0 -9.48147 -3.3011 0 -8.80865 -3.16727 0 
-7.44755 -3.68178 0 -6.56783 -3.93981 0 7.51362 -3.65173 0 
8.07008 -3.70419 0 -10.1314 -2.35766 0 -9.04704 -2.25432 0 
-9.20427 -2.77466 0 -8.18942 -2.84927 0 9.0386 -2.52239 0 
9.76127 -2.72 0 9.69593 -2.1319 0 10.3916 -2.51492 0 
-10.8005 -1.59842 0 -10.0668 -1.6276 0 -9.45971 -1.92784 0 
9.1064 -1.94212 0 10.2771 -1.60687 0 10.7092 -1.11405 0 
11.3259 -1.49936 0 -11.8802 -0.913648 0 -11.1783 -0.910616 0 
-11.7734 -0.29391 0 11.6348 -0.991369 0 11.4959 -0.425415 0 
12.1061 -0.219636 0 -15 0.2 0 -14.4643 0 0 
-14.6429 0 0 -14.2857 0 0 -15 0.8 0 
-15 0 0 -14.8214 0 0 -15 0.6 0 
-14.1071 0 0 -15 0.4 0 -13.5714 0 0 
-13.3929 0 0 -13.9286 0 0 -13.0357 0 0 
-13.75 0 0 -13.2143 0 0 -12.6786 0 0 
-12.229 0.226183 0 -12.5 0 0 -12.082 0.740932 0 
-12.8571 0 0 -11.5 0 0 -11.6042 0.879255 0 
-11.1429 0 0 -11.694 0.340807 0 -11.3214 0 0 
-10.9643 0 0 -10.6071 0 0 -10.4286 0 0 
-10.0714 0 0 -10.7857 0 0 -10.25 0 0 
-9.8929 0 0 -9.1786 0 0 -9.3571 0 0 
-9.7143 0 0 -9.5357 0 0 -8.2 0 0 
-8.6 0 0 -9 0.4 0 -9 0.2 0 
-9 0.8 0 -9 0.6 0 -9 0 0 
-8.4 0 0 -8.8 0 0 -8 0 0 
-7.4 0 0 -7.8 0 0 -7.2 0 0 
-7.6 0 0 -6.6 0 0 -7 0 0 
-6.2 0 0 -6.4 0 0 -6.8 0 0 
-5.8 0 0 -5.2 0 0 -5.6 0 0 
-5.4 0 0 -6 0 0 -4.2 0 0 
-4.4 0 0 -5 0 0 -4.6 0 0 
-4.8 0 0 -3.2 0 0 -4 0 0 
-3.6 0 0 -3.4 0 0 -3.8 0 0 
-2.6 0 0 -2.8 0 0 -2.4 0 0 
-3 0 0 -3 0.2 0 -3 0.6 0 
-2.2 0 0 -3 0.4 0 -3 0.8 0 
-1.6 0 0 -1.2 0 0 -2 0 0 
-1.4 0 0 -1.8 0 0 -0.8 0 0 
-0.6 0 0 -0.4 0 0 -0.2 0 0 
-1 0 0 0.8 0 0 0.6 0 0 
0.4 0 0 0.2 0 0 -0 0 0 
1.4 0 0 1.8 0 0 1.6 0 0 
1 0 0 1.2 0 0 2.2 0 0 
2.6 0 0 2.8 0 0 2 0 0 
2.4 0 0 3 0 0 3 0.2 0 
3 0.4 0 3.4 0 0 3.2 0 0 
3 0.8 0 3.8 0 0 3 0.6 0 
3.6 0 0 4.6 0 0 4.8 0 0 
4 0 0 4.2 0 0 4.4 0 0 
5.8 0 0 5.4 0 0 5.2 0 0 
5.6 0 0 5 0 0 6.8 0 0 
6.6 0 0 6 0 0 6.2 0 0 
6.4 0 0 7 0 0 7.6 0 0 
7.2 0 0 7.4 0 0 7.8 0 0 
8.2 0 0 8 0 0 8.6 0 0 
8.8 0 0 8.4 0 0 9.7143 0 0 
9.8929 0 0 9 0.4 0 9 0.6 0 
9.3571 0 0 9 0 0 9.5357 0 0 
9.1786 0 0 9 0.8 0 9 0.2 0 
10.0714 0 0 10.7857 0 0 10.25 0 0 
10.4286 0 0 10.9643 0 0 10.6071 0 0 
11.3214 0 0 11.1429 0 0 11.6556 0.725054 0 
11.7384 0.183368 0 11.2299 0.377493 0 11.5 0 0 
12.1811 0.924818 0 12.5 0 0 12.6786 0 0 
12.8571 0 0 12.1267 0.401965 0 12.6509 0.294844 0 
12.5504 0.691587 0 13.5714 0 0 13.2143 0 0 
13.75 0 0 13.9286 0 0 13.0357 0 0 
13.3929 0 0 14.2857 0 0 14.6429 0 0 
14.4643 0 0 14.1071 0 0 14.8214 0 0 
15 0.6 0 15 0 0 15 0.4 0 
15 0.2 0 15 0.8 0 -15 1.2 0 
-15 1.4 0 -15 1 0 -15 1.6 0 
-15 1.8 0 -12.2111 1.30352 0 -12.0248 1.83236 0 
-11.4472 1.38004 0 -9 1 0 -9 1.8 0 
-9 1.6 0 -9 1.4 0 -9 1.2 0 
-3 1.4 0 -3 1 0 -3 1.2 0 
-3 1.6 0 -3 1.8 0 3 1.8 0 
3 1.4 0 3 1 0 3 1.2 0 
3 1.6 0 9 1.2 0 9 1 0 
9 1.4 0 9 1.6 0 9 1.8 0 
10.9294 1.813 0 11.8297 1.28766 0 11.2539 1.33151 0 
11.5506 1.8877 0 12.0787 1.7815 0 12.7998 1.07497 0 
12.5005 1.50337 0 15 1.8 0 15 1.4 0 
15 1.2 0 15 1 0 15 1.6 0 
-15 2 0 -15 2.4 0 -15 2.6 0 
-15 2.2 0 -15 2.8 0 -11.6429 2.22651 0 
-11.3425 2.69588 0 -9 2.4 0 -9 2.8 0 
-9 2.6 0 -9 2 0 -9 2.2 0 
-3 2.8 0 -3 2 0 -3 2.2 0 
-3 2.6 0 -3 2.4 0 3 2 0 
3 2.6 0 3 2.2 0 3 2.4 0 
3 2.8 0 9 2.8 0 9 2.2 0 
9 2.4 0 9 2 0 9 2.6 0 
11.0943 2.39138 0 11.6625 2.4688 0 12.5185 2.02249 0 
15 2.2 0 15 2.8 0 15 2.6 0 
15 2.4 0 15 2 0 -15 3 0 
-15 3.6 0 -15 3.4 0 -15 3.8 0 
-15 3.2 0 -11.5115 3.63859 0 -10.6242 3.07761 0 
-10.9318 3.5782 0 -9 3.4 0 -9 3.2 0 
-9 3 0 -9 3.6 0 -9 3.8 0 
-3 3.8 0 -3 3.2 0 -3 3.4 0 
-3 3 0 -3 3.6 0 3 3.2 0 
3 3.6 0 3 3.8 0 3 3 0 
3 3.4 0 9 3 0 9 3.8 0 
9 3.2 0 9 3.6 0 9 3.4 0 
12.2736 3.31472 0 12.4329 3.89428 0 15 3.2 0 
15 3.6 0 15 3 0 15 3.8 0 
15 3.4 0 -15 4.4 0 -15 4.2 0 
-15 4.8 0 -15 4.6 0 -15 4 0 
-10.3777 4.64111 0 -10.7496 4.16653 0 -9 4.8 0 
-9 4 0 -9 4.2 0 -9 4.4 0 
-9 4.6 0 -3 4.8 0 -3 4.4 0 
-3 4.2 0 -3 4.6 0 -3 4 0 
3 4 0 3 4.2 0 3 4.6 0 
3 4.4 0 3 4.8 0 9 4.2 0 
9 4.8 0 9 4.4 0 9 4.6 0 
9 4 0 10.5639 4.86977 0 12.351 4.79289 0 
13.1082 4.46252 0 13.5098 4.89543 0 15 4.8 0 
15 4.4 0 15 4.2 0 15 4.6 0 
15 4 0 -15 5.6 0 -15 5.8 0 
-15 5.2 0 -15 5.4 0 -15 5 0 
-11.0213 5.30051 0 -10.3676 5.25683 0 -9 5 0 
-9 5.6 0 -9 5.4 0 -9 5.8 0 
-9 5.2 0 -3 5.2 0 -3 5.4 0 
-3 5.6 0 -3 5 0 -3 5.8 0 
3 5.6 0 3 5.2 0 3 5 0 
3 5.4 0 3 5.8 0 9 5.4 0 
9 5.2 0 9 5.6 0 9 5.8 0 
9 5 0 12.8949 5.00573 0 15 5.6 0 
15 5.8 0 15 5.2 0 15 5 0 
15 5.4 0 -15 6.2 0 -15 6.8 0 
-15 6.6 0 -15 6 0 -15 6.4 0 
-10.0405 6.45701 0 -9 6.4 0 -9 6 0 
-9 6.2 0 -9 6.8 0 -9 6.6 0 
-3 6.4 0 -3 6.2 0 -3 6.8 0 
-3 6 0 -3 6.6 0 3 6 0 
3 6.6 0 3 6.4 0 3 6.2 0 
3 6.8 0 9 6 0 9 6.4 0 
9 6.2 0 9 6.8 0 9 6.6 0 
10.1463 6.28436 0 12.9449 6.69877 0 12.6207 6.17289 0 
13.3388 6.0256 0 15 6.6 0 15 6 0 
15 6.2 0 15 6.4 0 15 6.8 0 
-15 7.2 0 -15 7.6 0 -15 7.4 0 
-15 7.8 0 -15 7 0 -9 7 0 
-9 7.6 0 -9 7.2 0 -9 7.8 0 
-9 7.4 0 -3 7.4 0 -3 7 0 
-3 7.6 0 -3 7.8 0 -3 7.2 0 
3 7.4 0 3 7.2 0 3 7 0 
3 7.6 0 3 7.8 0 9 7.6 0 
9 7.4 0 9 7.8 0 9 7.2 0 
9 7 0 12.9946 7.81243 0 15 7.6 0 
15 7.2 0 15 7.8 0 15 7 0 
15 7.4 0 -15 8.6 0 -15 8 0 
-15 8.2 0 -15 8.4 0 -15 8.8 0 
-8.2857 8 0 -8.8214 8 0 -8.1071 8 0 
-9 8 0 -8.6429 8 0 -8.4643 8 0 
-7.5714 8 0 -7.75 8 0 -7.2143 8 0 
-7.3929 8 0 -7.0357 8 0 -7.9286 8 0 
-6.5 8 0 -6.6786 8 0 -6.8571 8 0 
-6.30909 8.95924 0 -5.3214 8 0 -5.37241 8.94987 0 
-5.5 8 0 -5.1429 8 0 -4.9643 8 0 
-4.0714 8 0 -4.6071 8 0 -4.4286 8 0 
-4.25 8 0 -4.7857 8 0 -3.8929 8 0 
-3.5357 8 0 -3.7143 8 0 -3.1786 8 0 
-3.3571 8 0 -2.4643 8 0 -2.1071 8 0 
-3 8 0 -2.8214 8 0 -2.2857 8 0 
-2.6429 8 0 -1.2143 8 0 -1.5714 8 0 
-1.9286 8 0 -1.3929 8 0 -1.0357 8 0 
-1.75 8 0 -0.6786 8 0 -0.5 8 0 
-0.8571 8 0 0.8571 8 0 0.5 8 0 
0.6786 8 0 1.5714 8 0 1.9286 8 0 
1.3929 8 0 1.75 8 0 1.2143 8 0 
1.0357 8 0 2.6429 8 0 2.4643 8 0 
2.2857 8 0 2.8214 8 0 2.1071 8 0 
3.3571 8 0 3.5357 8 0 3 8 0 
3.8929 8 0 3.1786 8 0 3.7143 8 0 
4.9643 8 0 4.6071 8 0 4.25 8 0 
4.0714 8 0 4.7857 8 0 4.4286 8 0 
5.1429 8 0 5.3214 8 0 5.5 8 0 
6.5 8 0 6.6786 8 0 6.8571 8 0 
7.9286 8 0 7.2143 8 0 7.5714 8 0 
7.3929 8 0 7.0357 8 0 7.25923 8.98509 0 
7.75 8 0 8.4643 8 0 8.2857 8 0 
8.1071 8 0 8.6429 8 0 8.8214 8 0 
9 8 0 9.10366 8.86003 0 9.45157 8.15724 0 
9 8 0 13.5244 8.11039 0 13.5124 8.70691 0 
15 8.8 0 15 8 0 15 8.2 0 
15 8.6 0 15 8.4 0 -15 9.4 0 
-15 9 0 -15 9.2 0 -15 9.6 0 
-15 9.8 0 -6.90665 9.00081 0 8.54534 9.00556 0 
13.3948 9.34139 0 15 9.2 0 15 9.8 0 
15 9 0 15 9.4 0 15 9.6 0 
-15 10.4 0 -15 10.2 0 -14.1667 10 0 
-15 10.6 0 -14.3333 10 0 -15 10 0 
-14.6667 10 0 -15 10.8 0 -14.5 10 0 
-14.8333 10 0 -14 10 0 -12.6 10 0 
-12.8 10 0 -12.4 10 0 -12.2 10 0 
-13 10 0 -11.8 10 0 -12 10 0 
-11.6 10 0 -11.4 10 0 -11.2 10 0 
-10.8 10 0 -10.4 10 0 -10.2 10 0 
-11 10 0 -10.6 10 0 -10 10 0 
-9.2 10 0 -9.6 10 0 -9.4 10 0 
-9.8 10 0 -9 10.6 0 -9 10.4 0 
-8.6429 10 0 -8.2857 10 0 -8.8214 10 0 
-8.4643 10 0 -8.1071 10 0 -9 10.2 0 
-9 10.8 0 -9 10 0 -7.3929 10 0 
-7.0357 10 0 -7.5714 10 0 -7.9286 10 0 
-7.75 10 0 -7.2143 10 0 -6.5 10 0 
-6.6786 10 0 -6.8571 10 0 -5.1429 10 0 
-5.5 10 0 -5.3214 10 0 -4.0714 10 0 
-4.9643 10 0 -4.6071 10 0 -4.4286 10 0 
-4.7857 10 0 -4.25 10 0 -3.7143 10 0 
-3.8929 10 0 -3.3571 10 0 -3.1786 10 0 
-3.5357 10 0 -2.8 10 0 -3 10.2 0 
-2.2 10 0 -2.4 10 0 -3 10 0 
-3 10.6 0 -3 10.8 0 -2.6 10 0 
-3 10.4 0 -1.6 10 0 -1.8 10 0 
-1.2 10 0 -2 10 0 -1.4 10 0 
-1 10 0 -0.6 10 0 -0.8 10 0 
-0.2 10 0 -0.4 10 0 0.8 10 0 
0.2 10 0 0.6 10 0 0.4 10 0 
-0 10 0 1.8 10 0 1.4 10 0 
1.2 10 0 1.6 10 0 1 10 0 
2.6 10 0 2.2 10 0 2.8 10 0 
2.4 10 0 2 10 0 3.2 10 0 
3.8 10 0 3.4 10 0 3 10 0 
3.6 10 0 4.2 10 0 4.4 10 0 
4.8 10 0 4.6 10 0 4 10 0 
5.4 10 0 5.2 10 0 5.8 10 0 
5.6 10 0 5 10 0 6 10 0 
6.4 10 0 6.2 10 0 6.6 10 0 
6.8 10 0 7.4 10 0 7 10 0 
7.8 10 0 7.6 10 0 7.2 10 0 
8.6 10 0 8 10 0 8.8 10 0 
8.2 10 0 8.4 10 0 9.2 10 0 
9 10.2 0 9.4 10 0 9.8 10 0 
9 10.4 0 9 10.6 0 9 10.8 0 
9 10 0 9.6 10 0 10.6 10 0 
10.4 10 0 10.8 10 0 10.2 10 0 
10 10 0 11.2 10 0 11 10 0 
11.4 10 0 11.6 10 0 11.8 10 0 
12.8 10 0 12.4 10 0 12.2 10 0 
12 10 0 12.6 10 0 13.0713 10.5067 0 
13.4848 10.0441 0 13 10 0 14.3333 10 0 
14.8333 10 0 14.5 10 0 14 10 0 
14.6667 10 0 14.1667 10 0 15 10.2 0 
15 10.4 0 15 10.8 0 15 10.6 0 
15 10 0 -15 11.8 0 -15 11 0 
-15 11.4 0 -15 11.2 0 -15 11.6 0 
-9 11.4 0 -9 11.6 0 -9 11 0 
-9 11.2 0 -9 11.8 0 -3 11 0 
-3 11.4 0 -3 11.2 0 -3 11.8 0 
-3 11.6 0 9 11.2 0 9 11.6 0 
9 11.8 0 9 11.4 0 9 11 0 
12.0219 11.555 0 15 11 0 15 11.2 0 
15 11.8 0 15 11.6 0 15 11.4 0 
-15 12.6 0 -15 12.4 0 -15 12.2 0 
-15 12 0 -15 12.8 0 -9 12 0 
-9 12.6 0 -9 12.8 0 -9 12.4 0 
-9 12.2 0 -3 12.6 0 -3 12.4 0 
-3 12 0 -3 12.2 0 -3 12.8 0 
9 12 0 9 12.2 0 9 12.4 0 
9 12.8 0 9 12.6 0 11.2786 12.3412 0 
15 12.8 0 15 12.6 0 15 12.4 0 
15 12 0 15 12.2 0 -15 13 0 
-15 13.4 0 -15 13.8 0 -15 13.2 0 
-15 13.6 0 -9 13.6 0 -9 13.4 0 
-9 13.2 0 -9 13.8 0 -9 13 0 
-3 13.4 0 -3 13.8 0 -3 13.2 0 
-3 13 0 -3 13.6 0 9 13.8 0 
9 13.6 0 9 13.2 0 9 13.4 0 
9 13 0 10.0315 13.662 0 15 13.4 0 
15 13.2 0 15 13.8 0 15 13 0 
15 13.6 0 -15 14.8 0 -15 14.2 0 
-15 14.6 0 -15 14.4 0 -15 14 0 
-9 14 0 -9 14.8 0 -9 14.6 0 
-9 14.4 0 -9 14.2 0 -3 14.4 0 
-3 14.6 0 -3 14.8 0 -3 14.2 0 
-3 14 0 9.32389 14.2906 0 9 14 0 
15 14.8 0 15 14.4 0 15 14.2 0 
15 14.6 0 15 14 0 -15 15 0 
-15 15.4 0 -15 15.8 0 -15 15.2 0 
-15 15.6 0 -9 15.6 0 -9 15.8 0 
-9 15.4 0 -9 15 0 -9 15.2 0 
-3 15.8 0 -3 15.2 0 -3 15.4 0 
-3 15.6 0 -3 15 0 9 15.3333 0 
9 15 0 9 15.5 0 9 15.8333 0 
9 15.1667 0 9 15.6667 0 15 15.8 0 
15 15 0 15 15.6 0 15 15.4 0 
15 15.2 0 -14.4 16 0 -14.2 16 0 
-14.8 16 0 -14.6 16 0 -15 16 0 
-13.4 16 0 -13.6 16 0 -13.2 16 0 
-14 16 0 -13.8 16 0 -12.4 16 0 
-13 16 0 -12.6 16 0 -12.2 16 0 
-12.8 16 0 -11.4 16 0 -11.6 16 0 
-11.2 16 0 -12 16 0 -11.8 16 0 
-10.6 16 0 -11 16 0 -10.2 16 0 
-10.4 16 0 -10.8 16 0 -9.4 16 0 
-9.8 16 0 -10 16 0 -9.2 16 0 
-9.6 16 0 -8.8 16 0 -8.2 16 0 
-8.4 16 0 -8.6 16 0 -9 16 0 
-8 16 0 -7.4 16 0 -7.2 16 0 
-7.6 16 0 -7.8 16 0 -6.8 16 0 
-6.2 16 0 -6.6 16 0 -7 16 0 
-6.4 16 0 -5.2 16 0 -5.8 16 0 
-6 16 0 -5.4 16 0 -5.6 16 0 
-5 16 0 -4.6 16 0 -4.2 16 0 
-4.4 16 0 -4.8 16 0 -3.8 16 0 
-3.6 16 0 -3.4 16 0 -3.2 16 0 
-4 16 0 -3 16 0 -2.6 16 0 
-2.8 16 0 -2.4 16 0 -2.2 16 0 
-1.4 16 0 -1.6 16 0 -1.8 16 0 
-1.2 16 0 -2 16 0 -0.6 16 0 
-0.8 16 0 -0.4 16 0 -1 16 0 
-0.2 16 0 0.4 16 0 -0 16 0 
0.6 16 0 0.8 16 0 0.2 16 0 
1.2 16 0 1.4 16 0 1.8 16 0 
1 16 0 1.6 16 0 2.8 16 0 
2 16 0 2.2 16 0 2.6 16 0 
2.4 16 0 3.2 16 0 3.4 16 0 
3 16 0 3.6 16 0 3.8 16 0 
4 16 0 4.2 16 0 4.4 16 0 
4.6 16 0 4.8 16 0 5 16 0 
5.6 16 0 5.8 16 0 5.4 16 0 
5.2 16 0 6.4 16 0 6.8 16 0 
6.6 16 0 6.2 16 0 6 16 0 
7.4 16 0 7 16 0 7.6 16 0 
7.8 16 0 7.2 16 0 8 16 0 
8.8 16 0 8.2 16 0 8.4 16 0 
8.6 16 0 9 16 0 9.2 16 0 
9.8 16 0 9.4 16 0 9.6 16 0 
10 16 0 10.2 16 0 10.4 16 0 
10.6 16 0 10.8 16 0 11.4 16 0 
11.8 16 0 11 16 0 11.6 16 0 
11.2 16 0 12.4 16 0 12.8 16 0 
12.6 16 0 12.2 16 0 12 16 0 
13.8 16 0 13.2 16 0 13.4 16 0 
13.6 16 0 13 16 0 14.8 16 0 
14 16 0 14.2 16 0 14.4 16 0 
14.6 16 0 15 16 0 
gid 1 1049 double
1 1 1 1 1 1 1 1 1 
1 1 1 1 1 1 1 1 1 
1 1 1 1 1 1 1 1 1 
1 1 1 1 1 1 1 1 1 
1 1 1 1 1 1 1 1 1 
1 1 1 1 1 1 1 1 1 
1 1 1 1 2 2 2 2 2 
2 2 2 2 2 2 2 2 2 
2 2 2 1 2 1 2 2 1 
2 1 2 2 2 2 2 2 2 
2 2 2 2 2 2 2 2 2 
2 2 2 2 2 2 2 2 2 
2 2 2 2 2 2 2 2 2 
2 2 2 2 2 2 2 2 2 
2 2 2 2 2 2 2 2 2 
2 2 2 2 2 2 2 2 2 
2 2 2 2 2 2 2 2 2 
2 2 2 2 2 2 2 2 2 
2 2 2 2 2 2 2 2 2 
2 2 2 2 2 2 2 2 2 
2 2 2 2 2 2 2 2 2 
2 2 2 2 2 2 2 2 2 
2 2 2 2 2 2 2 2 2 
2 2 2 2 2 2 2 2 1 
1 1 2 1 2 2 2 1 1 
1 2 2 2 2 2 2 2 2 
2 2 2 2 2 2 2 2 2 
2 2 2 2 1 1 1 2 2 
2 2 2 2 2 2 2 2 2 
2 2 2 2 2 2 2 2 2 
1 1 1 1 1 1 1 2 2 
2 2 2 2 2 2 2 2 1 
1 2 2 2 2 2 2 2 2 
2 2 2 2 2 2 2 2 2 
2 2 2 1 1 1 2 2 2 
2 2 2 2 2 2 2 1 1 
1 2 2 2 2 2 2 2 2 
2 2 2 2 2 2 2 2 2 
2 2 2 1 1 2 2 2 2 
2 2 2 2 2 2 1 1 2 
2 2 2 2 2 2 2 2 2 
2 2 2 2 2 2 2 2 2 
2 1 1 1 1 2 2 2 2 
2 2 2 2 2 2 1 1 2 
2 2 2 2 2 2 2 2 2 
2 2 2 2 2 2 2 2 2 
2 1 2 2 2 2 2 2 2 
2 2 2 1 2 2 2 2 2 
2 2 2 2 2 2 2 2 2 
2 2 2 2 2 2 1 1 1 
1 2 2 2 2 2 2 2 2 
2 2 2 2 2 2 2 2 2 
2 2 2 2 2 2 2 2 2 
2 2 2 2 1 2 2 2 2 
2 2 2 2 2 2 2 2 2 
2 2 2 2 2 2 2 2 2 
2 2 2 1 2 1 2 2 2 
2 2 2 2 2 2 2 2 2 
2 2 2 2 2 2 2 2 2 
2 2 2 2 2 2 2 2 2 
2 2 2 2 2 2 2 2 2 
2 2 2 2 2 2 2 2 2 
2 2 2 2 2 2 2 2 2 
2 2 2 2 2 2 2 2 1 
2 2 2 2 2 2 2 1 1 
2 1 1 2 2 2 2 2 2 
2 2 2 2 1 1 1 2 2 
2 2 2 2 2 2 2 2 2 
2 2 2 2 2 2 2 2 2 
2 2 2 2 2 2 2 2 2 
2 2 2 2 2 2 2 2 2 
2 2 2 2 2 2 2 2 2 
2 2 2 2 2 2 2 2 2 
2 2 2 2 2 2 2 2 2 
2 2 2 2 2 2 2 2 2 
2 2 2 2 2 2 2 2 2 
2 2 2 2 2 2 2 2 2 
2 2 2 2 2 2 2 2 2 
2 2 2 2 2 2 2 2 2 
2 2 2 2 2 2 2 2 2 
2 2 2 2 2 2 2 2 2 
2 2 2 2 2 2 2 2 2 
2 2 2 2 2 2 2 2 2 
2 2 2 2 2 2 2 2 2 
2 2 1 1 2 2 2 2 2 
2 2 2 2 2 2 2 2 2 
2 2 2 2 2 2 2 2 2 
2 2 2 2 2 2 2 2 2 
1 2 2 2 2 2 2 2 2 
2 2 2 2 2 2 2 2 2 
2 2 2 2 2 2 2 2 1 
2 2 2 2 2 2 2 2 2 
2 2 2 2 2 2 2 2 2 
2 2 2 2 2 2 2 1 2 
2 2 2 2 2 2 2 2 2 
2 2 2 2 2 2 2 2 2 
2 1 2 2 2 2 2 2 2 
2 2 2 2 2 2 2 2 2 
2 2 2 2 2 2 2 2 2 
2 2 2 2 2 2 2 2 2 
2 2 2 2 2 2 2 2 2 
2 2 2 2 2 2 2 2 2 
2 2 2 2 2 2 2 2 2 
2 2 2 2 2 2 2 2 2 
2 2 2 2 2 2 2 2 2 
2 2 2 2 2 2 2 2 2 
2 2 2 2 2 2 2 2 2 
2 2 2 2 2 2 2 2 2 
2 2 2 2 2 2 2 2 2 
2 2 2 2 2 2 2 2 2 
2 2 2 2 2 2 2 2 2 
2 2 2 2 2 2 2 2 2 
2 2 2 2 2 2 2 2 2 
2 2 2 2 2 2 2 2 2 
2 2 2 2 2 2 2 2 2 
2 2 2 2 2 2 2 2 2 
2 2 2 2 2 
A 1 1049 double
10 10 10 10 10 10 10 10 10 
10 10 10 10 10 10 10 10 10 
10 10 10 10 10 10 10 10 10 
10 10 10 10 10 10 10 10 10 
10 10 10 10 10 10 10 10 10 
10 10 10 10 10 10 10 10 10 
10 10 10 10 10 10 10 10 10 
10 10 10 10 10 10 10 10 10 
10 10 10 10 10 10 10 10 10 
10 10 10 10 10 10 10 10 10 
10 10 10 10 10 10 10 10 10 
10 10 10 10 10 10 10 10 10 
10 10 10 10 10 10 10 10 10 
10 10 10 10 10 10 10 10 10 
10 10 10 10 10 10 10 10 10 
10 10 10 10 10 10 10 10 10 
10 10 10 10 10 10 10 10 10 
10 10 10 10 10 10 10 10 10 
10 10 10 10 10 10 10 10 10 
10 10 10 10 10 10 10 10 10 
10 10 10 10 10 10 10 10 10 
10 10 10 10 10 10 10 10 10 
10 10 10 10 10 10 10 10 10 
10 10 10 10 10 10 10 10 10 
10 10 10 10 10 10 10 10 10 
10 10 10 10 10 10 10 10 10 
10 10 10 10 10 10 10 10 10 
10 10 10 10 10 10 10 10 10 
10 10 10 10 10 10 10 10 10 
10 10 10 10 10 10 10 10 10 
10 10 10 10 10 10 10 10 10 
10 10 10 10 10 10 10 10 10 
10 10 10 10 10 10 10 10 10 
10 10 10 10 10 10 10 10 10 
10 10 10 10 10 10 10 10 10 
10 10 10 10 10 10 10 10 10 
10 10 10 10 10 10 10 10 10 
10 10 10 10 10 10 10 10 10 
10 10 10 10 10 10 10 10 10 
10 10 10 10 10 10 10 10 10 
10 10 10 10 10 10 10 10 10 
10 10 10 10 10 10 10 10 10 
10 10 10 10 10 10 10 10 10 
10 10 10 10 10 10 10 10 10 
10 10 10 10 10 10 10 10 10 
10 10 10 10 10 10 10 10 10 
10 10 10 10 10 10 10 10 10 
10 10 10 10 10 10 10 10 10 
10 10 10 10 10 10 10 10 10 
10 10 10 10 10 10 10 10 10 
10 10 10 10 10 10 10 10 10 
10 10 10 10 10 10 10 10 10 
10 10 10 10 10 10 10 10 10 
10 10 10 10 10 10 10 10 10 
10 10 10 10 10 10 10 10 10 
10 10 10 10 10 10 10 10 10 
10 10 10 10 10 10 10 10 10 
10 10 10 10 10 10 10 10 10 
10 10 10 10 10 10 10 10 10 
10 10 10 10 10 10 10 10 10 
10 10 10 10 10 10 10 10 10 
10 10 10 10 10 10 10 10 10 
10 10 10 10 10 10 10 10 10 
10 10 10 10 10 10 10 10 10 
10 10 10 10 10 10 10 10 10 
10 10 10 10 10 10 10 10 10 
10 10 10 10 10 10 10 10 10 
10 10 10 10 10 10 10 10 10 
10 10 10 10 10 10 10 10 10 
10 10 10 10 10 10 10 10 10 
10 10 10 10 10 10 10 10 10 
10 10 10 10 10 10 10 10 10 
10 10 10 10 10 10 10 10 10 
10 10 10 10 10 10 10 10 10 
10 10 10 10 10 10 10 10 10 
10 10 10 10 10 10 10 10 10 
10 10 10 10 10 10 10 10 10 
10 10 10 10 10 10 10 10 10 
10 10 10 10 10 10 10 10 10 
10 10 10 10 10 10 10 10 10 
10 10 10 10 10 10 10 10 10 
10 10 10 10 10 10 10 10 10 
10 10 10 10 10 10 10 10 10 
10 10 10 10 10 10 10 10 10 
10 10 10 10 10 10 10 10 10 
10 10 10 10 10 10 10 10 10 
10 10 10 10 10 10 10 10 10 
10 10 10 10 10 10 10 10 10 
10 10 10 10 10 10 10 10 10 
10 10 10 10 10 10 10 10 10 
10 10 10 10 10 10 10 10 10 
10 10 10 10 10 10 10 10 10 
10 10 10 10 10 10 10 10 10 
10 10 10 10 10 10 10 10 10 
10 10 10 10 10 10 10 10 10 
10 10 10 10 10 10 10 10 10 
10 10 10 10 10 10 10 10 10 
10 10 10 10 10 10 10 10 10 
10 10 10 10 10 10 10 10 10 
10 10 10 10 10 10 10 10 10 
10 10 10 10 10 10 10 10 10 
10 10 10 10 10 10 10 10 10 
10 10 10 10 10 10 10 10 10 
10 10 10 10 10 10 10 10 10 
10 10 10 10 10 10 10 10 10 
10 10 10 10 10 10 10 10 10 
10 10 10 10 10 10 10 10 10 
10 10 10 10 10 10 10 10 10 
10 10 10 10 10 10 10 10 10 
10 10 10 10 10 10 10 10 10 
10 10 10 10 10 10 10 10 10 
10 10 10 10 10 10 10 10 10 
10 10 10 10 10 10 10 10 10 
10 10 10 10 10 10 10 10 10 
10 10 10 10 10 10 10 10 10 
10 10 10 10 10 10 10 10 10 
10 10 10 10 10 
B 1 1049 double
0.2 0.2 0.2 0.2 0.2 0.2 0.2 0.2 0.2 
0.2 0.2 0.2 0.2 0.2 0.2 0.2 0.2 0.2 
0.2 0.2 0.2 0.2 0.2 0.2 0.2 0.2 0.2 
0.2 0.2 0.2 0.2 0.2 0.2 0.2 0.2 0.2 
0.2 0.2 0.2 0.2 0.2 0.2 0.2 0.2 0.2 
0.2 0.2 0.2 0.2 0.2 0.2 0.2 0.2 0.2 
0.2 0.2 0.2 0.2 0.2 0.2 0.2 0.2 0.2 
0.2 0.2 0.2 0.2 0.2 0.2 0.2 0.2 0.2 
0.2 0.2 0.2 0.2 0.2 0.2 0.2 0.2 0.2 
0.2 0.2 0.2 0.2 0.2 0.2 0.2 0.2 0.2 
0.2 0.2 0.2 0.2 0.2 0.2 0.2 0.2 0.2 
0.2 0.2 0.2 0.2 0.2 0.2 0.2 0.2 0.2 
0.2 0.2 0.2 0.2 0.2 0.2 0.2 0.2 0.2 
0.2 0.2 0.2 0.2 0.2 0.2 0.2 0.2 0.2 
0.2 0.2 0.2 0.2 0.2 0.2 0.2 0.2 0.2 
0.2 0.2 0.2 0.2 0.2 0.2 0.2 0.2 0.2 
0.2 0.2 0.2 0.2 0.2 0.2 0.2 0.2 0.2 
0.2 0.2 0.2 0.2 0.2 0.2 0.2 0.2 0.2 
0.2 0.2 0.2 0.2 0.2 0.2 0.2 0.2 0.2 
0.2 0.2 0.2 0.2 0.2 0.2 0.2 0.2 0.2 
0.2 0.2 0.2 0.2 0.2 0.2 0.2 0.2 0.2 
0.2 0.2 0.2 0.2 0.2 0.2 0.2 0.2 0.2 
0.2 0.2 0.2 0.2 0.2 0.2 0.2 0.2 0.2 
0.2 0.2 0.2 0.2 0.2 0.2 0.2 0.2 0.2 
0.2 0.2 0.2 0.2 0.2 0.2 0.2 0.2 0.2 
0.2 0.2 0.2 0.2 0.2 0.2 0.2 0.2 0.2 
0.2 0.2 0.2 0.2 0.2 0.2 0.2 0.2 0.2 
0.2 0.2 0.2 0.2 0.2 0.2 0.2 0.2 0.2 
0.2 0.2 0.2 0.2 0.2 0.2 0.2 0.2 0.2 
0.2 0.2 0.2 0.2 0.2 0.2 0.2 0.2 0.2 
0.2 0.2 0.2 0.2 0.2 0.2 0.2 0.2 0.2 
0.2 0.2 0.2 0.2 0.2 0.2 0.2 0.2 0.2 
0.2 0.2 0.2 0.2 0.2 0.2 0.2 0.2 0.2 
0.2 0.2 0.2 0.2 0.2 0.2 0.2 0.2 0.2 
0.2 0.2 0.2 0.2 0.2 0.2 0.2 0.2 0.2 
0.2 0.2 0.2 0.2 0.2 0.2 0.2 0.2 0.2 
0.2 0.2 0.2 0.2 0.2 0.2 0.2 0.2 0.2 
0.2 0.2 0.2 0.2 0.2 0.2 0.2 0.2 0.2 
0.2 0.2 0.2 0.2 0.2 0.2 0.2 0.2 0.2 
0.2 0.2 0.2 0.2 0.2 0.2 0.2 0.2 0.2 
0.2 0.2 0.2 0.2 0.2 0.2 0.2 0.2 0.2 
0.2 0.2 0.2 0.2 0.2 0.2 0.2 0.2 0.2 
0.2 0.2 0.2 0.2 0.2 0.2 0.2 0.2 0.2 
0.2 0.2 0.2 0.2 0.2 0.2 0.2 0.2 0.2 
0.2 0.2 0.2 0.2 0.2 0.2 0.2 0.2 0.2 
0.2 0.2 0.2 0.2 0.2 0.2 0.2 0.2 0.2 
0.2 0.2 0.2 0.2 0.2 0.2 0.2 0.2 0.2 
0.2 0.2 0.2 0.2 0.2 0.2 0.2 0.2 0.2 
0.2 0.2 0.2 0.2 0.2 0.2 0.2 0.2 0.2 
0.2 0.2 0.2 0.2 0.2 0.2 0.2 0.2 0.2 
0.2 0.2 0.2 0.2 0.2 0.2 0.2 0.2 0.2 
0.2 0.2 0.2 0.2 0.2 0.2 0.2 0.2 0.2 
0.2 0.2 0.2 0.2 0.2 0.2 0.2 0.2 0.2 
0.2 0.2 0.2 0.2 0.2 0.2 0.2 0.2 0.2 
0.2 0.2 0.2 0.2 0.2 0.2 0.2 0.2 0.2 
0.2 0.2 0.2 0.2 0.2 0.2 0.2 0.2 0.2 
0.2 0.2 0.2 0.2 0.2 0.2 0.2 0.2 0.2 
0.2 0.2 0.2 0.2 0.2 0.2 0.2 0.2 0.2 
0.2 0.2 0.2 0.2 0.2 0.2 0.2 0.2 0.2 
0.2 0.2 0.2 0.2 0.2 0.2 0.2 0.2 0.2 
0.2 0.2 0.2 0.2 0.2 0.2 0.2 0.2 0.2 
0.2 0.2 0.2 0.2 0.2 0.2 0.2 0.2 0.2 
0.2 0.2 0.2 0.2 0.2 0.2 0.2 0.2 0.2 
0.2 0.2 0.2 0.2 0.2 0.2 0.2 0.2 0.2 
0.2 0.2 0.2 0.2 0.2 0.2 0.2 0.2 0.2 
0.2 0.2 0.2 0.2 0.2 0.2 0.2 0.2 0.2 
0.2 0.2 0.2 0.2 0.2 0.2 0.2 0.2 0.2 
0.2 0.2 0.2 0.2 0.2 0.2 0.2 0.2 0.2 
0.2 0.2 0.2 0.2 0.2 0.2 0.2 0.2 0.2 
0.2 0.2 0.2 0.2 0.2 0.2 0.2 0.2 0.2 
0.2 0.2 0.2 0.2 0.2 0.2 0.2 0.2 0.2 
0.2 0.2 0.2 0.2 0.2 0.2 0.2 0.2 0.2 
0.2 0.2 0.2 0.2 0.2 0.2 0.2 0.2 0.2 
0.2 0.2 0.2 0.2 0.2 0.2 0.2 0.2 0.2 
0.2 0.2 0.2 0.2 0.2 0.2 0.2 0.2 0.2 
0.2 0.2 0.2 0.2 0.2 0.2 0.2 0.2 0.2 
0.2 0.2 0.2 0.2 0.2 0.2 0.2 0.2 0.2 
0.2 0.2 0.2 0.2 0.2 0.2 0.2 0.2 0.2 
0.2 0.2 0.2 0.2 0.2 0.2 0.2 0.2 0.2 
0.2 0.2 0.2 0.2 0.2 0.2 0.2 0.2 0.2 
0.2 0.2 0.2 0.2 0.2 0.2 0.2 0.2 0.2 
0.2 0.2 0.2 0.2 0.2 0.2 0.2 0.2 0.2 
0.2 0.2 0.2 0.2 0.2 0.2 0.2 0.2 0.2 
0.2 0.2 0.2 0.2 0.2 0.2 0.2 0.2 0.2 
0.2 0.2 0.2 0.2 0.2 0.2 0.2 0.2 0.2 
0.2 0.2 0.2 0.2 0.2 0.2 0.2 0.2 0.2 
0.2 0.2 0.2 0.2 0.2 0.2 0.2 0.2 0.2 
0.2 0.2 0.2 0.2 0.2 0.2 0.2 0.2 0.2 
0.2 0.2 0.2 0.2 0.2 0.2 0.2 0.2 0.2 
0.2 0.2 0.2 0.2 0.2 0.2 0.2 0.2 0.2 
0.2 0.2 0.2 0.2 0.2 0.2 0.2 0.2 0.2 
0.2 0.2 0.2 0.2 0.2 0.2 0.2 0.2 0.2 
0.2 0.2 0.2 0.2 0.2 0.2 0.2 0.2 0.2 
0.2 0.2 0.2 0.2 0.2 0.2 0.2 0.2 0.2 
0.2 0.2 0.2 0.2 0.2 0.2 0.2 0.2 0.2 
0.2 0.2 0.2 0.2 0.2 0.2 0.2 0.2 0.2 
0.2 0.2 0.2 0.2 0.2 0.2 0.2 0.2 0.2 
0.2 0.2 0.2 0.2 0.2 0.2 0.2 0.2 0.2 
0.2 0.2 0.2 0.2 0.2 0.2 0.2 0.2 0.2 
0.2 0.2 0.2 0.2 0.2 0.2 0.2 0.2 0.2 
0.2 0.2 0.2 0.2 0.2 0.2 0.2 0.2 0.2 
0.2 0.2 0.2 0.2 0.2 0.2 0.2 0.2 0.2 
0.2 0.2 0.2 0.2 0.2 0.2 0.2 0.2 0.2 
0.2 0.2 0.2 0.2 0.2 0.2 0.2 0.2 0.2 
0.2 0.2 0.2 0.2 0.2 0.2 0.2 0.2 0.2 
0.2 0.2 0.2 0.2 0.2 0.2 0.2 0.2 0.2 
0.2 0.2 0.2 0.2 0.2 0.2 0.2 0.2 0.2 
0.2 0.2 0.2 0.2 0.2 0.2 0.2 0.2 0.2 
0.2 0.2 0.2 0.2 0.2 0.2 0.2 0.2 0.2 
0.2 0.2 0.2 0.2 0.2 0.2 0.2 0.2 0.2 
0.2 0.2 0.2 0.2 0.2 0.2 0.2 0.2 0.2 
0.2 0.2 0.2 0.2 0.2 0.2 0.2 0.2 0.2 
0.2 0.2 0.2 0.2 0.2 0.2 0.2 0.2 0.2 
0.2 0.2 0.2 0.2 0.2 0.2 0.2 0.2 0.2 
0.2 0.2 0.2 0.2 0.2 0.2 0.2 0.2 0.2 
0.2 0.2 0.2 0.2 0.2 0.2 0.2 0.2 0.2 
0.2 0.2 0.2 0.2 0.2 
c 1 1049 double
0.1 0.1 0.1 0.1 0.1 0.1 0.1 0.1 0.1 
0.1 0.1 0.1 0.1 0.1 0.1 0.1 0.1 0.1 
0.1 0.1 0.1 0.1 0.1 0.1 0.1 0.1 0.1 
0.1 0.1 0.1 0.1 0.1 0.1 0.1 0.1 0.1 
0.1 0.1 0.1 0.1 0.1 0.1 0.1 0.1 0.1 
0.1 0.1 0.1 0.1 0.1 0.1 0.1 0.1 0.1 
0.1 0.1 0.1 0.1 0.1 0.1 0.1 0.1 0.1 
0.1 0.1 0.1 0.1 0.1 0.1 0.1 0.1 0.1 
0.1 0.1 0.1 0.1 0.1 0.1 0.1 0.1 0.1 
0.1 0.1 0.1 0.1 0.1 0.1 0.1 0.1 0.1 
0.1 0.1 0.1 0.1 0.1 0.1 0.1 0.1 0.1 
0.1 0.1 0.1 0.1 0.1 0.1 0.1 0.1 0.1 
0.1 0.1 0.1 0.1 0.1 0.1 0.1 0.1 0.1 
0.1 0.1 0.1 0.1 0.1 0.1 0.1 0.1 0.1 
0.1 0.1 0.1 0.1 0.1 0.1 0.1 0.1 0.1 
0.1 0.1 0.1 0.1 0.1 0.1 0.1 0.1 0.1 
0.1 0.1 0.1 0.1 0.1 0.1 0.1 0.1 0.1 
0.1 0.1 0.1 0.1 0.1 0.1 0.1 0.1 0.1 
0.1 0.1 0.1 0.1 0.1 0.1 0.1 0.1 0.1 
0.1 0.1 0.1 0.1 0.1 0.1 0.1 0.1 0.1 
0.1 0.1 0.1 0.1 0.1 0.1 0.1 0.1 0.1 
0.1 0.1 0.1 0.1 0.1 0.1 0.1 0.1 0.1 
0.1 0.1 0.1 0.1 0.1 0.1 0.1 0.1 0.1 
0.1 0.1 0.1 0.1 0.1 0.1 0.1 0.1 0.1 
0.1 0.1 0.1 0.1 0.1 0.1 0.1 0.1 0.1 
0.1 0.1 0.1 0.1 0.1 0.1 0.1 0.1 0.1 
0.1 0.1 0.1 0.1 0.1 0.1 0.1 0.1 0.1 
0.1 0.1 0.1 0.1 0.1 0.1 0.1 0.1 0.1 
0.1 0.1 0.1 0.1 0.1 0.1 0.1 0.1 0.1 
0.1 0.1 0.1 0.1 0.1 0.1 0.1 0.1 0.1 
0.1 0.1 0.1 0.1 0.1 0.1 0.1 0.1 0.1 
0.1 0.1 0.1 0.1 0.1 0.1 0.1 0.1 0.1 
0.1 0.1 0.1 0.1 0.1 0.1 0.1 0.1 0.1 
0.1 0.1 0.1 0.1 0.1 0.1 0.1 0.1 0.1 
0.1 0.1 0.1 0.1 0.1 0.1 0.1 0.1 0.1 
0.1 0.1 0.1 0.1 0.1 0.1 0.1 0.1 0.1 
0.1 0.1 0.1 0.1 0.1 0.1 0.1 0.1 0.1 
0.1 0.1 0.1 0.1 0.1 0.1 0.1 0.1 0.1 
0.1 0.1 0.1 0.1 0.1 0.1 0.1 0.1 0.1 
0.1 0.1 0.1 0.1 0.1 0.1 0.1 0.1 0.1 
0.1 0.1 0.1 0.1 0.1 0.1 0.1 0.1 0.1 
0.1 0.1 0.1 0.1 0.1 0.1 0.1 0.1 0.1 
0.1 0.1 0.1 0.1 0.1 0.1 0.1 0.1 0.1 
0.1 0.1 0.1 0.1 0.1 0.1 0.1 0.1 0.1 
0.1 0.1 0.1 0.1 0.1 0.1 0.1 0.1 0.1 
0.1 0.1 0.1 0.1 0.1 0.1 0.1 0.1 0.1 
0.1 0.1 0.1 0.1 0.1 0.1 0.1 0.1 0.1 
0.1 0.1 0.1 0.1 0.1 0.1 0.1 0.1 0.1 
0.1 0.1 0.1 0.1 0.1 0.1 0.1 0.1 0.1 
0.1 0.1 0.1 0.1 0.1 0.1 0.1 0.1 0.1 
0.1 0.1 0.1 0.1 0.1 0.1 0.1 0.1 0.1 
0.1 0.1 0.1 0.1 0.1 0.1 0.1 0.1 0.1 
0.1 0.1 0.1 0.1 0.1 0.1 0.1 0.1 0.1 
0.1 0.1 0.1 0.1 0.1 0.1 0.1 0.1 0.1 
0.1 0.1 0.1 0.1 0.1 0.1 0.1 0.1 0.1 
0.1 0.1 0.1 0.1 0.1 0.1 0.1 0.1 0.1 
0.1 0.1 0.1 0.1 0.1 0.1 0.1 0.1 0.1 
0.1 0.1 0.1 0.1 0.1 0.1 0.1 0.1 0.1 
0.1 0.1 0.1 0.1 0.1 0.1 0.1 0.1 0.1 
0.1 0.1 0.1 0.1 0.1 0.1 0.1 0.1 0.1 
0.1 0.1 0.1 0.1 0.1 0.1 0.1 0.1 0.1 
0.1 0.1 0.1 0.1 0.1 0.1 0.1 0.1 0.1 
0.1 0.1 0.1 0.1 0.1 0.1 0.1 0.1 0.1 
0.1 0.1 0.1 0.1 0.1 0.1 0.1 0.1 0.1 
0.1 0.1 0.1 0.1 0.1 0.1 0.1 0.1 0.1 
0.1 0.1 0.1 0.1 0.1 0.1 0.1 0.1 0.1 
0.1 0.1 0.1 0.1 0.1 0.1 0.1 0.1 0.1 
0.1 0.1 0.1 0.1 0.1 0.1 0.1 0.1 0.1 
0.1 0.1 0.1 0.1 0.1 0.1 0.1 0.1 0.1 
0.1 0.1 0.1 0.1 0.1 0.1 0.1 0.1 0.1 
0.1 0.1 0.1 0.1 0.1 0.1 0.1 0.1 0.1 
0.1 0.1 0.1 0.1 0.1 0.1 0.1 0.1 0.1 
0.1 0.1 0.1 0.1 0.1 0.1 0.1 0.1 0.1 
0.1 0.1 0.1 0.1 0.1 0.1 0.1 0.1 0.1 
0.1 0.1 0.1 0.1 0.1 0.1 0.1 0.1 0.1 
0.1 0.1 0.1 0.1 0.1 0.1 0.1 0.1 0.1 
0.1 0.1 0.1 0.1 0.1 0.1 0.1 0.1 0.1 
0.1 0.1 0.1 0.1 0.1 0.1 0.1 0.1 0.1 
0.1 0.1 0.1 0.1 0.1 0.1 0.1 0.1 0.1 
0.1 0.1 0.1 0.1 0.1 0.1 0.1 0.1 0.1 
0.1 0.1 0.1 0.1 0.1 0.1 0.1 0.1 0.1 
0.1 0.1 0.1 0.1 0.1 0.1 0.1 0.1 0.1 
0.1 0.1 0.1 0.1 0.1 0.1 0.1 0.1 0.1 
0.1 0.1 0.1 0.1 0.1 0.1 0.1 0.1 0.1 
0.1 0.1 0.1 0.1 0.1 0.1 0.1 0.1 0.1 
0.1 0.1 0.1 0.1 0.1 0.1 0.1 0.1 0.1 
0.1 0.1 0.1 0.1 0.1 0.1 0.1 0.1 0.1 
0.1 0.1 0.1 0.1 0.1 0.1 0.1 0.1 0.1 
0.1 0.1 0.1 0.1 0.1 0.1 0.1 0.1 0.1 
0.1 0.1 0.1 0.1 0.1 0.1 0.1 0.1 0.1 
0.1 0.1 0.1 0.1 0.1 0.1 0.1 0.1 0.1 
0.1 0.1 0.1 0.1 0.1 0.1 0.1 0.1 0.1 
0.1 0.1 0.1 0.1 0.1 0.1 0.1 0.1 0.1 
0.1 0.1 0.1 0.1 0.1 0.1 0.1 0.1 0.1 
0.1 0.1 0.1 0.1 0.1 0.1 0.1 0.1 0.1 
0.1 0.1 0.1 0.1 0.1 0.1 0.1 0.1 0.1 
0.1 0.1 0.1 0.1 0.1 0.1 0.1 0.1 0.1 
0.1 0.1 0.1 0.1 0.1 0.1 0.1 0.1 0.1 
0.1 0.1 0.1 0.1 0.1 0.1 0.1 0.1 0.1 
0.1 0.1 0.1 0.1 0.1 0.1 0.1 0.1 0.1 
0.1 0.1 0.1 0.1 0.1 0.1 0.1 0.1 0.1 
0.1 0.1 0.1 0.1 0.1 0.1 0.1 0.1 0.1 
0.1 0.1 0.1 0.1 0.1 0.1 0.1 0.1 0.1 
0.1 0.1 0.1 0.1 0.1 0.1 0.1 0.1 0.1 
0.1 0.1 0.1 0.1 0.1 0.1 0.1 0.1 0.1 
0.1 0.1 0.1 0.1 0.1 0.1 0.1 0.1 0.1 
0.1 0.1 0.1 0.1 0.1 0.1 0.1 0.1 0.1 
0.1 0.1 0.1 0.1 0.1 0.1 0.1 0.1 0.1 
0.1 0.1 0.1 0.1 0.1 0.1 0.1 0.1 0.1 
0.1 0.1 0.1 0.1 0.1 0.1 0.1 0.1 0.1 
0.1 0.1 0.1 0.1 0.1 0.1 0.1 0.1 0.1 
0.1 0.1 0.1 0.1 0.1 0.1 0.1 0.1 0.1 
0.1 0.1 0.1 0.1 0.1 0.1 0.1 0.1 0.1 
0.1 0.1 0.1 0.1 0.1 0.1 0.1 0.1 0.1 
0.1 0.1 0.1 0.1 0.1 0.1 0.1 0.1 0.1 
0.1 0.1 0.1 0.1 0.1 0.1 0.1 0.1 0.1 
0.1 0.1 0.1 0.1 0.1 
m 1 1049 double
76.33 91.315 61.625 65.975 56.755 84.655 62.64 84.935 94.295 
94.14 95.485 99.255 75.77 65.745 93.885 56.49 90.92 83.88 
53.87 97.585 53.285 91.99 63.205 89.775 69.85 92.105 76.76 
91.415 90.795 95.63 88.61 73.95 53.195 92.83 58.915 68.31 
62.455 84.075 56.77 65.415 51.995 60.985 71.55 79.28 75.995 
88.325 59.26 54.265 82.91 69.45 95.075 58.805 91.91 97.965 
98.36 86.39 63.675 80.635 71.295 86.865 81.145 72.105 59.805 
96.915 90.21 63.77 74.595 56.63 75.99 71.62 68.92 71.85 
92.685 91.575 67.63 80.435 54.43 51.54 82.065 63.885 52.64 
94.9 82.95 80.455 99.78 84.31 95.85 86.405 59.365 84.98 
61.525 51.68 81.635 54.625 85.42 56.565 54.23 91.01 94.72 
67.53 66.01 84.575 58.645 82.525 79.285 97.91 80.62 52.725 
69.475 77.17 94.07 70.215 51.82 66.835 55.435 85.89 84.04 
86.38 68.75 63.77 63.255 78.94 77.015 67.92 66.84 61.995 
75.3 98.38 99.66 50.06 88.695 81.13 88.965 76.7 91.95 
92.93 58.41 64.145 53.975 57.17 90.47 52.85 87.695 87.335 
83.005 50.485 64.51 51.89 86.505 53.78 83.26 52.46 66.585 
97.205 98.445 69.325 51.4 71.43 83.095 73.645 90.155 92.22 
92.2 91.675 91.69 89.44 90.485 90.585 77.165 72.405 94.935 
78.855 72.835 89.28 53.375 53.545 94.635 76.53 72.93 61.765 
84.825 97.485 64.355 57.64 73.415 81.095 93.12 78.66 50.095 
94.145 97.515 91.35 98.54 66.84 81.7 90.745 83.575 61.225 
64.23 55.5 67.295 53.615 76.93 63.09 88.98 68.09 78.645 
67.255 87.44 64.605 67.775 88.82 61.895 99.205 91.14 62.775 
77.555 65.86 52.46 54.64 83.245 61.75 75.965 77.105 64.86 
50.185 50.62 85.17 74.57 84.935 57.5 88.82 68.715 61.135 
82.455 79.28 91.825 57.16 57.105 59.68 99.295 62.755 62.52 
97.835 53.065 88.105 66.025 50.495 54.55 64.785 83.92 97.64 
54.34 64.21 60.105 78.975 65.72 53.715 61.46 89.94 80.945 
81.775 83.1 88.205 61.37 90.125 97.19 56.94 65.37 56.165 
81.085 83.255 81.82 79.025 54.985 69.135 59.25 57.37 66.375 
96.14 82.185 77.035 59.965 77.895 90.71 79.42 59.3 75 
57.705 99.54 52.49 99.79 75.945 94.36 76.19 76.835 51.445 
89.855 84.745 94.845 72.06 98.05 97.395 50.45 51.35 68.405 
67.465 90.785 51.79 72.85 65.345 54.44 94.29 56.185 80.145 
71.975 80.605 86.275 76.365 58.88 73.845 94.25 71.125 77.41 
73.465 88.765 94.04 90.18 81.24 66.515 82.145 65.885 81.675 
64.5 76.715 91.775 59.43 56.56 67.56 96.07 53.495 91.815 
67.085 77.845 59.195 61.75 61.965 68.965 72.14 91.175 80.715 
79.09 79.97 90.02 88.66 55.775 51.895 67.685 85.085 98.77 
66.665 60.665 58.24 64.45 52.52 50.245 54.82 78.145 91.425 
93.135 54.285 98.155 92.965 95.4 93.97 82.155 65.865 99.235 
63.11 62.195 83.105 88.58 50.04 62.02 97.645 79.64 93.88 
55.055 91.045 62.95 94.095 92.905 96.68 55.865 93.285 87.835 
97.645 51.84 72.5 58.73 61.075 58.46 71.695 80.635 60.67 
61.45 84.85 95.255 63.235 94.73 96.95 83.41 71.46 78.955 
87.31 60.355 72.69 93.03 78.815 72.215 73.065 80.95 69.49 
53.565 52.62 61.49 86.67 98.985 90.23 68.94 84.95 81.245 
80.795 75.755 88.235 62.675 92.69 67.645 74.58 82.76 77.89 
74.97 75.285 57.605 75.575 92.87 80.785 96.67 83.05 86.4 
92.885 75.64 84.2 64.52 74.09 53.44 83.2 56.11 96.495 
76.925 80.21 66.515 62.485 65.165 51.265 76.815 82.015 53.405 
52.14 60.01 72.5 75.5 71.73 63.63 86.93 81.56 96.155 
64.755 75.105 59.735 57.455 59.44 84.98 89.585 66.62 86.845 
99.585 59.86 88.125 69.25 88.36 96.46 55.76 74.46 69.98 
61.81 88.43 95.625 95.785 95.94 77.18 68.645 62.3 79.875 
50.135 69.605 67.07 74.925 52.3 72.76 93.45 81.52 50.14 
94.51 90.25 83.74 87.78 90.135 73.97 93.495 88.485 55.195 
55.215 69.13 61.305 50.295 67.705 71.16 52.845 83.805 95.585 
80.21 90.115 50.405 51.8 65.95 88.815 81.545 94.98 69.63 
77.125 53.45 72.62 71.17 58.13 73.385 81.835 91.025 65.84 
98.07 51.79 80.285 88.85 86.42 52.7 52.085 72.83 84.28 
65.295 51.185 61.3 53.03 86.025 79.245 76.085 92.59 67.13 
95.86 74.725 53.915 52.415 92.29 88.185 54.365 84.365 93.81 
71.445 63.785 52.39 83.035 96.57 72.355 78.68 82.53 96.84 
65.345 56.345 94.88 77.495 88.715 97.35 92.45 60.915 70.405 
50.42 78.15 56.98 86.345 54.355 67.14 86.805 83.625 87.525 
98.86 78.22 77.95 96.12 62.11 89.09 69.6 87.8 76.055 
69.75 83.29 76.18 50.635 76.84 52.815 75.525 50.245 56.22 
62.835 59.025 93.555 99.67 66.455 86.875 68.07 68.84 94.965 
94.775 67.945 74.59 84.91 84.41 74.11 64.025 65.465 70.15 
54.625 83.55 81.64 96.455 70.09 83.585 57.87 82.145 75.275 
69.29 84.815 86.085 84.18 85.45 56.965 74.52 90.65 63.305 
92.28 92.855 84.255 98.165 73.945 65.365 98.425 63.02 96.25 
99.025 82.515 97.425 89.34 95.03 76.625 64.745 73.195 78.91 
87.58 67.58 60.975 55.405 51.13 54.835 88.385 55.6 83.815 
52.98 54.325 69.905 95.18 87.8 81.71 88.85 96.055 67.59 
89.775 91.35 61.895 75.98 86.605 62.66 71.17 70.86 60.2 
72.135 74.92 50.36 55.315 86.99 86.415 79.15 84.75 60.15 
68.57 52.865 51.735 70.235 87.61 75.41 84.62 80.295 97.175 
96.02 56.16 64.77 52.215 78.2 59.49 95.795 71.39 77.43 
55.205 51.31 99.24 96.31 98.415 58.615 69.795 91.62 95.61 
83.64 64.03 78.985 90.835 81.36 87.285 79.105 96.825 86.675 
70.77 55.855 63.735 58.88 51.345 76.09 54.535 73.265 58.515 
93.505 99.665 67.185 91.705 57.65 70.15 52.685 75.27 64.31 
68.7 70.49 90.695 64.77 88.345 98.93 75.615 58.525 79.92 
55.635 95.75 81.14 57.43 51.265 50.63 82.965 52.715 65.01 
80.695 61.155 77.02 58.98 85.42 76.67 63.49 56.54 93.6 
82.225 90.41 92.71 97.535 50.985 92.32 79.695 99.055 69.7 
78.335 99.52 65.37 90.895 91.885 73.565 89.07 95.105 96.09 
61.69 72.9 69.85 54.955 81.88 94.49 55.26 63.575 94.77 
68.11 93.055 81.74 96.775 94.02 88.605 74.095 76.605 72.995 
56.275 64.595 85.44 78.875 78.55 73.81 76.895 63.425 74.06 
99.31 74.885 70.05 62.53 90.945 57.795 75.855 54.76 86.715 
96.495 77.84 89.14 78.73 87.935 88.565 91.03 96.505 86.86 
83.66 51.175 51.73 55.085 51.47 70.88 67.415 96.035 99.52 
57.68 92.06 65.675 88.025 66.555 77.11 69.05 71.7 81.71 
61.68 58.295 76.05 60.045 69.715 62.865 75.765 55.685 78.455 
99.555 74.285 98.72 67.495 98.795 56.8 70.335 98.09 51.685 
55.68 88.215 56.525 59.005 74.39 68.65 78.305 97.06 84.435 
60.86 66.74 69.645 87.225 98.78 95.535 92.09 95.895 88.42 
79.68 66.88 60.45 77.71 64.63 82.33 55.475 56.7 75.42 
64.065 85.95 64.795 68.865 98.34 85.995 94.495 64.98 50.815 
89.905 93.3 74.65 94.665 79.47 99.01 69.405 50.355 87.34 
54.865 85.655 96.895 60.18 59.495 77.75 67.26 64.62 78.12 
63 88.185 60.31 66.29 67.08 67.325 83.54 91.41 93.13 
97.22 93.68 96.6 92.61 70.11 91.12 95.08 65.545 82.695 
75.265 90.545 66.89 75.405 50 79.945 56.69 97.13 95.57 
90.335 83.935 75.735 61.155 82.66 76.115 56.405 69.375 50.895 
60.61 74.25 69.065 82.95 61.27 55.655 76.75 57.47 95.905 
89.285 80.405 73.015 78.6 62.165 89.91 50.905 87.435 97.075 
77.02 93.61 94.125 96.48 51.485 95.67 50.16 52.755 84.46 
52.075 65.905 85.285 98.54 92.53 52.975 87.415 99.995 59.81 
61.485 75.055 78.88 56.545 50.77 94.885 62.935 99.66 66.91 
75.105 71.33 68.41 88.425 67.815 96.055 94.3 54.65 72.915 
79.95 71.425 95.43 59.46 57.38 70.58 79.1 86.57 87.45 
87.625 77.64 94.195 87.625 65.29 
p0 3 1049 double
0 -10 0 0 -10 0 0 -10 0 
0 -10 0 0 -10 0 0 -10 0 
0 -10 0 0 -10 0 0 -10 0 
0 -10 0 0 -10 0 0 -10 0 
0 -10 0 0 -10 0 0 -10 0 
0 -10 0 0 -10 0 0 -10 0 
0 -10 0 0 -10 0 0 -10 0 
0 -10 0 0 -10 0 0 -10 0 
0 -10 0 0 -10 0 0 -10 0 
0 -10 0 0 -10 0 0 -10 0 
0 -10 0 0 -10 0 0 -10 0 
0 -10 0 0 -10 0 0 -10 0 
0 -10 0 0 -10 0 0 -10 0 
0 -10 0 0 -10 0 0 -10 0 
0 -10 0 0 -10 0 0 -10 0 
0 -10 0 0 -10 0 0 -10 0 
0 -10 0 0 -10 0 0 -10 0 
0 -10 0 0 -10 0 0 -10 0 
0 -10 0 0 -10 0 0 -10 0 
0 -10 0 0 0 0 0 0 0 
0 0 0 0 0 0 0 0 0 
0 0 0 0 0 0 0 0 0 
0 0 0 0 0 0 0 0 0 
0 0 0 0 0 0 0 0 0 
0 0 0 0 0 0 0 0 0 
-12 0 0 0 0 0 -12 0 0 
0 0 0 0 0 0 -12 0 0 
0 0 0 -12 0 0 0 0 0 
0 0 0 0 0 0 0 0 0 
0 0 0 0 0 0 0 0 0 
0 0 0 0 0 0 0 0 0 
0 0 0 0 0 0 0 0 0 
0 0 0 0 0 0 0 0 0 
0 0 0 0 0 0 0 0 0 
0 0 0 0 0 0 0 0 0 
0 0 0 0 0 0 0 0 0 
0 0 0 0 0 0 0 0 0 
0 0 0 0 0 0 0 0 0 
0 0 0 0 0 0 0 0 0 
0 0 0 0 0 0 0 0 0 
0 0 0 0 0 0 0 0 0 
0 0 0 0 0 0 0 0 0 
0 0 0 0 0 0 0 0 0 
0 0 0 0 0 0 0 0 0 
0 0 0 0 0 0 0 0 0 
0 0 0 0 0 0 0 0 0 
0 0 0 0 0 0 0 0 0 
0 0 0 0 0 0 0 0 0 
0 0 0 0 0 0 0 0 0 
0 0 0 0 0 0 0 0 0 
0 0 0 0 0 0 0 0 0 
0 0 0 0 0 0 0 0 0 
0 0 0 0 0 0 0 0 0 
0 0 0 0 0 0 0 0 0 
0 0 0 0 0 0 0 0 0 
0 0 0 0 0 0 0 0 0 
0 0 0 0 0 0 0 0 0 
0 0 0 0 0 0 0 0 0 
0 0 0 0 0 0 0 0 0 
0 0 0 0 0 0 0 0 0 
0 0 0 0 0 0 0 0 0 
0 0 0 0 0 0 0 0 0 
0 0 0 0 0 0 0 0 0 
0 0 0 0 0 0 0 0 0 
0 0 0 0 0 0 0 0 0 
0 0 0 0 0 0 0 0 0 
0 0 0 0 0 0 0 0 0 
0 0 0 0 0 0 0 0 0 
0 0 0 0 0 0 0 0 0 
0 0 0 0 0 0 0 0 0 
0 0 0 0 0 0 0 0 0 
0 0 0 0 0 0 12 0 0 
12 0 0 12 0 0 0 0 0 
12 0 0 0 0 0 0 0 0 
0 0 0 12 0 0 12 0 0 
12 0 0 0 0 0 0 0 0 
0 0 0 0 0 0 0 0 0 
0 0 0 0 0 0 0 0 0 
0 0 0 0 0 0 0 0 0 
0 0 0 0 0 0 0 0 0 
0 0 0 0 0 0 0 0 0 
0 0 0 0 0 0 0 0 0 
0 0 0 -12 0 0 -12 0 0 
-12 0 0 0 0 0 0 0 0 
0 0 0 0 0 0 0 0 0 
0 0 0 0 0 0 0 0 0 
0 0 0 0 0 0 0 0 0 
0 0 0 0 0 0 0 0 0 
0 0 0 0 0 0 0 0 0 
0 0 0 0 0 0 0 0 0 
12 0 0 12 0 0 12 0 0 
12 0 0 12 0 0 12 0 0 
12 0 0 0 0 0 0 0 0 
0 0 0 0 0 0 0 0 0 
0 0 0 0 0 0 0 0 0 
0 0 0 0 0 0 -12 0 0 
-12 0 0 0 0 0 0 0 0 
0 0 0 0 0 0 0 0 0 
0 0 0 0 0 0 0 0 0 
0 0 0 0 0 0 0 0 0 
0 0 0 0 0 0 0 0 0 
0 0 0 0 0 0 0 0 0 
0 0 0 0 0 0 0 0 0 
12 0 0 12 0 0 12 0 0 
0 0 0 0 0 0 0 0 0 
0 0 0 0 0 0 0 0 0 
0 0 0 0 0 0 0 0 0 
0 0 0 -12 0 0 -12 0 0 
-12 0 0 0 0 0 0 0 0 
0 0 0 0 0 0 0 0 0 
0 0 0 0 0 0 0 0 0 
0 0 0 0 0 0 0 0 0 
0 0 0 0 0 0 0 0 0 
0 0 0 0 0 0 0 0 0 
0 0 0 0 0 0 0 0 0 
12 0 0 12 0 0 0 0 0 
0 0 0 0 0 0 0 0 0 
0 0 0 0 0 0 0 0 0 
0 0 0 0 0 0 0 0 0 
-12 0 0 -12 0 0 0 0 0 
0 0 0 0 0 0 0 0 0 
0 0 0 0 0 0 0 0 0 
0 0 0 0 0 0 0 0 0 
0 0 0 0 0 0 0 0 0 
0 0 0 0 0 0 0 0 0 
0 0 0 0 0 0 0 0 0 
0 0 0 12 0 0 12 0 0 
12 0 0 12 0 0 0 0 0 
0 0 0 0 0 0 0 0 0 
0 0 0 0 0 0 0 0 0 
0 0 0 0 0 0 0 0 0 
-12 0 0 -12 0 0 0 0 0 
0 0 0 0 0 0 0 0 0 
0 0 0 0 0 0 0 0 0 
0 0 0 0 0 0 0 0 0 
0 0 0 0 0 0 0 0 0 
0 0 0 0 0 0 0 0 0 
0 0 0 0 0 0 0 0 0 
0 0 0 12 0 0 0 0 0 
0 0 0 0 0 0 0 0 0 
0 0 0 0 0 0 0 0 0 
0 0 0 0 0 0 0 0 0 
-12 0 0 0 0 0 0 0 0 
0 0 0 0 0 0 0 0 0 
0 0 0 0 0 0 0 0 0 
0 0 0 0 0 0 0 0 0 
0 0 0 0 0 0 0 0 0 
0 0 0 0 0 0 0 0 0 
0 0 0 0 0 0 0 0 0 
12 0 0 12 0 0 12 0 0 
12 0 0 0 0 0 0 0 0 
0 0 0 0 0 0 0 0 0 
0 0 0 0 0 0 0 0 0 
0 0 0 0 0 0 0 0 0 
0 0 0 0 0 0 0 0 0 
0 0 0 0 0 0 0 0 0 
0 0 0 0 0 0 0 0 0 
0 0 0 0 0 0 0 0 0 
0 0 0 0 0 0 0 0 0 
0 0 0 0 0 0 0 0 0 
0 0 0 12 0 0 0 0 0 
0 0 0 0 0 0 0 0 0 
0 0 0 0 0 0 0 0 0 
0 0 0 0 0 0 0 0 0 
0 0 0 0 0 0 0 0 0 
0 0 0 0 0 0 0 0 0 
0 0 0 0 0 0 0 0 0 
0 0 0 0 0 0 0 0 0 
0 0 0 0 0 0 0 0 0 
-9 9 0 0 0 0 -9 9 0 
0 0 0 0 0 0 0 0 0 
0 0 0 0 0 0 0 0 0 
0 0 0 0 0 0 0 0 0 
0 0 0 0 0 0 0 0 0 
0 0 0 0 0 0 0 0 0 
0 0 0 0 0 0 0 0 0 
0 0 0 0 0 0 0 0 0 
0 0 0 0 0 0 0 0 0 
0 0 0 0 0 0 0 0 0 
0 0 0 0 0 0 0 0 0 
0 0 0 0 0 0 0 0 0 
0 0 0 0 0 0 0 0 0 
0 0 0 0 0 0 0 0 0 
0 0 0 0 0 0 0 0 0 
0 0 0 0 0 0 0 0 0 
0 0 0 0 0 0 0 0 0 
0 0 0 0 0 0 0 0 0 
0 0 0 0 0 0 0 0 0 
0 0 0 0 0 0 0 0 0 
0 0 0 0 0 0 0 0 0 
0 0 0 0 0 0 0 0 0 
0 0 0 0 0 0 9 9 0 
0 0 0 0 0 0 0 0 0 
0 0 0 0 0 0 0 0 0 
0 0 0 12 0 0 12 0 0 
0 0 0 12 0 0 12 0 0 
0 0 0 0 0 0 0 0 0 
0 0 0 0 0 0 0 0 0 
0 0 0 0 0 0 0 0 0 
0 0 0 -9 9 0 9 9 0 
12 0 0 0 0 0 0 0 0 
0 0 0 0 0 0 0 0 0 
0 0 0 0 0 0 0 0 0 
0 0 0 0 0 0 0 0 0 
0 0 0 0 0 0 0 0 0 
0 0 0 0 0 0 0 0 0 
0 0 0 0 0 0 0 0 0 
0 0 0 0 0 0 0 0 0 
0 0 0 0 0 0 0 0 0 
0 0 0 0 0 0 0 0 0 
0 0 0 0 0 0 0 0 0 
0 0 0 0 0 0 0 0 0 
0 0 0 0 0 0 0 0 0 
0 0 0 0 0 0 0 0 0 
0 0 0 0 0 0 0 0 0 
0 0 0 0 0 0 0 0 0 
0 0 0 0 0 0 0 0 0 
0 0 0 0 0 0 0 0 0 
0 0 0 0 0 0 0 0 0 
0 0 0 0 0 0 0 0 0 
0 0 0 0 0 0 0 0 0 
0 0 0 0 0 0 0 0 0 
0 0 0 0 0 0 0 0 0 
0 0 0 0 0 0 0 0 0 
0 0 0 0 0 0 0 0 0 
0 0 0 0 0 0 0 0 0 
0 0 0 0 0 0 0 0 0 
0 0 0 0 0 0 0 0 0 
0 0 0 0 0 0 0 0 0 
0 0 0 0 0 0 0 0 0 
0 0 0 0 0 0 0 0 0 
0 0 0 0 0 0 0 0 0 
0 0 0 0 0 0 0 0 0 
0 0 0 0 0 0 0 0 0 
0 0 0 0 0 0 0 0 0 
0 0 0 0 0 0 0 0 0 
0 0 0 0 0 0 0 0 0 
0 0 0 0 0 0 0 0 0 
0 0 0 0 0 0 0 0 0 
0 0 0 0 0 0 0 0 0 
0 0 0 0 0 0 0 0 0 
0 0 0 0 0 0 0 0 0 
0 0 0 0 0 0 0 0 0 
0 0 0 0 0 0 0 0 0 
0 0 0 0 0 0 0 0 0 
0 0 0 0 0 0 0 0 0 
0 0 0 0 0 0 0 0 0 
0 0 0 0 0 0 0 0 0 
0 0 0 0 0 0 0 0 0 
0 0 0 0 0 0 0 0 0 
0 0 0 0 0 0 0 0 0 
0 0 0 0 0 0 0 0 0 
0 0 0 0 0 0 13.5 10 0 
13.5 10 0 0 0 0 0 0 0 
0 0 0 0 0 0 0 0 0 
0 0 0 0 0 0 0 0 0 
0 0 0 0 0 0 0 0 0 
0 0 0 0 0 0 0 0 0 
0 0 0 0 0 0 0 0 0 
0 0 0 0 0 0 0 0 0 
0 0 0 0 0 0 0 0 0 
0 0 0 0 0 0 0 0 0 
0 0 0 0 0 0 0 0 0 
0 0 0 0 0 0 0 0 0 
13.5 10 0 0 0 0 0 0 0 
0 0 0 0 0 0 0 0 0 
0 0 0 0 0 0 0 0 0 
0 0 0 0 0 0 0 0 0 
0 0 0 0 0 0 0 0 0 
0 0 0 0 0 0 0 0 0 
0 0 0 0 0 0 0 0 0 
0 0 0 0 0 0 0 0 0 
0 0 0 0 0 0 13.5 10 0 
0 0 0 0 0 0 0 0 0 
0 0 0 0 0 0 0 0 0 
0 0 0 0 0 0 0 0 0 
0 0 0 0 0 0 0 0 0 
0 0 0 0 0 0 0 0 0 
0 0 0 0 0 0 0 0 0 
0 0 0 0 0 0 0 0 0 
0 0 0 0 0 0 0 0 0 
0 0 0 13.5 10 0 0 0 0 
0 0 0 0 0 0 0 0 0 
0 0 0 0 0 0 0 0 0 
0 0 0 0 0 0 0 0 0 
0 0 0 0 0 0 0 0 0 
0 0 0 0 0 0 0 0 0 
0 0 0 0 0 0 0 0 0 
0 0 0 13.5 10 0 0 0 0 
0 0 0 0 0 0 0 0 0 
0 0 0 0 0 0 0 0 0 
0 0 0 0 0 0 0 0 0 
0 0 0 0 0 0 0 0 0 
0 0 0 0 0 0 0 0 0 
0 0 0 0 0 0 0 0 0 
0 0 0 0 0 0 0 0 0 
0 0 0 0 0 0 0 0 0 
0 0 0 0 0 0 0 0 0 
0 0 0 0 0 0 0 0 0 
0 0 0 0 0 0 0 0 0 
0 0 0 0 0 0 0 0 0 
0 0 0 0 0 0 0 0 0 
0 0 0 0 0 0 0 0 0 
0 0 0 0 0 0 0 0 0 
0 0 0 0 0 0 0 0 0 
0 0 0 0 0 0 0 0 0 
0 0 0 0 0 0 0 0 0 
0 0 0 0 0 0 0 0 0 
0 0 0 0 0 0 0 0 0 
0 0 0 0 0 0 0 0 0 
0 0 0 0 0 0 0 0 0 
0 0 0 0 0 0 0 0 0 
0 0 0 0 0 0 0 0 0 
0 0 0 0 0 0 0 0 0 
0 0 0 0 0 0 0 0 0 
0 0 0 0 0 0 0 0 0 
0 0 0 0 0 0 0 0 0 
0 0 0 0 0 0 0 0 0 
0 0 0 0 0 0 0 0 0 
0 0 0 0 0 0 0 0 0 
0 0 0 0 0 0 0 0 0 
0 0 0 0 0 0 0 0 0 
0 0 0 0 0 0 0 0 0 
0 0 0 0 0 0 0 0 0 
0 0 0 0 0 0 0 0 0 
0 0 0 0 0 0 0 0 0 
0 0 0 0 0 0 0 0 0 
0 0 0 0 0 0 0 0 0 
0 0 0 0 0 0 0 0 0 
0 0 0 0 0 0 0 0 0 
0 0 0 0 0 0 0 0 0 
0 0 0 0 0 0 0 0 0 
0 0 0 0 0 0 0 0 0 
0 0 0 0 0 0 0 0 0 
0 0 0 0 0 0 0 0 0 
0 0 0 0 0 0 0 0 0 
0 0 0 0 0 0 0 0 0 
0 0 0 0 0 0 0 0 0 
0 0 0 0 0 0 0 0 0 
0 0 0 0 0 0 0 0 0 
0 0 0 0 0 0 0 0 0 
0 0 0 0 0 0 0 0 0 
0 0 0 0 0 0 0 0 0 
0 0 0 0 0 0 0 0 0 
0 0 0 0 0 0 0 0 0 
0 0 0 0 0 0 0 0 0 
0 0 0 0 0 0 0 0 0 
0 0 0 0 0 0 0 0 0 
0 0 0 0 0 0 0 0 0 
0 0 0 0 0 0 
v0 1 1049 double
3.7348 3.5598 3.5868 3.908 3.4418 3.1534 3.7604 3.8026 3.5098 
2.7598 3.7132 3.447 2.2246 2.9072 3.3932 3.4192 2.7868 2.2234 
2.8894 3.1552 2.087 3.5394 3.9438 2.5562 2.798 3.3376 3.3968 
2.959 3.7722 3.5338 2.9348 2.9892 2.5998 3.7386 3.7956 2.7364 
3.6894 3.6034 3.6802 3.4142 3.7004 2.105 2.2178 3.9752 2.6972 
3.4388 3.7164 3.9802 3.2294 3.1134 3.358 2.8228 2.9862 2.726 
3.938 2.5702 3.0734 2.227 0 0 0 0 0 
0 0 0 0 0 0 0 0 0 
0 0 0 3.2554 0 3.4416 0 0 3.3812 
0 3.5126 0 0 0 0 0 0 0 
0 0 0 0 0 0 0 0 0 
0 0 0 0 0 0 0 0 0 
0 0 0 0 0 0 0 0 0 
0 0 0 0 0 0 0 0 0 
0 0 0 0 0 0 0 0 0 
0 0 0 0 0 0 0 0 0 
0 0 0 0 0 0 0 0 0 
0 0 0 0 0 0 0 0 0 
0 0 0 0 0 0 0 0 0 
0 0 0 0 0 0 0 0 0 
0 0 0 0 0 0 0 0 0 
0 0 0 0 0 0 0 0 0 
0 0 0 0 0 0 0 0 0 
0 0 0 0 0 0 0 0 3.8484 
2.9518 3.2458 0 3.991 0 0 0 3.4702 2.6856 
2.3004 0 0 0 0 0 0 0 0 
0 0 0 0 0 0 0 0 0 
0 0 0 0 2.0272 2.0254 3.3948 0 0 
0 0 0 0 0 0 0 0 0 
0 0 0 0 0 0 0 0 0 
3.8554 2.5666 2.192 3.219 2.8338 2.5952 2.325 0 0 
0 0 0 0 0 0 0 0 2.5352 
2.8832 0 0 0 0 0 0 0 0 
0 0 0 0 0 0 0 0 0 
0 0 0 3.5612 3.4072 3.2878 0 0 0 
0 0 0 0 0 0 0 2.7916 2.2866 
3.236 0 0 0 0 0 0 0 0 
0 0 0 0 0 0 0 0 0 
0 0 0 3.053 3.3678 0 0 0 0 
0 0 0 0 0 0 2.9256 2.9892 0 
0 0 0 0 0 0 0 0 0 
0 0 0 0 0 0 0 0 0 
0 2.4594 3.1832 2.0104 2.9022 0 0 0 0 
0 0 0 0 0 0 2.5898 3.4754 0 
0 0 0 0 0 0 0 0 0 
0 0 0 0 0 0 0 0 0 
0 3.8268 0 0 0 0 0 0 0 
0 0 0 3.18 0 0 0 0 0 
0 0 0 0 0 0 0 0 0 
0 0 0 0 0 0 2.264 3.852 2.1178 
3.514 0 0 0 0 0 0 0 0 
0 0 0 0 0 0 0 0 0 
0 0 0 0 0 0 0 0 0 
0 0 0 0 2.6632 0 0 0 0 
0 0 0 0 0 0 0 0 0 
0 0 0 0 0 0 0 0 0 
0 0 0 2.5992 0 2.6016 0 0 0 
0 0 0 0 0 0 0 0 0 
0 0 0 0 0 0 0 0 0 
0 0 0 0 0 0 0 0 0 
0 0 0 0 0 0 0 0 0 
0 0 0 0 0 0 0 0 0 
0 0 0 0 0 0 0 0 0 
0 0 0 0 0 0 0 0 2.6138 
0 0 0 0 0 0 0 2.0302 2.0424 
0 2.4322 2.5972 0 0 0 0 0 0 
0 0 0 0 2.1056 2.79 3.2768 0 0 
0 0 0 0 0 0 0 0 0 
0 0 0 0 0 0 0 0 0 
0 0 0 0 0 0 0 0 0 
0 0 0 0 0 0 0 0 0 
0 0 0 0 0 0 0 0 0 
0 0 0 0 0 0 0 0 0 
0 0 0 0 0 0 0 0 0 
0 0 0 0 0 0 0 0 0 
0 0 0 0 0 0 0 0 0 
0 0 0 0 0 0 0 0 0 
0 0 0 0 0 0 0 0 0 
0 0 0 0 0 0 0 0 0 
0 0 0 0 0 0 0 0 0 
0 0 0 0 0 0 0 0 0 
0 0 0 0 0 0 0 0 0 
0 0 0 0 0 0 0 0 0 
0 0 0 0 0 0 0 0 0 
0 0 3.075 2.7532 0 0 0 0 0 
0 0 0 0 0 0 0 0 0 
0 0 0 0 0 0 0 0 0 
0 0 0 0 0 0 0 0 0 
2.2322 0 0 0 0 0 0 0 0 
0 0 0 0 0 0 0 0 0 
0 0 0 0 0 0 0 0 2.1262 
0 0 0 0 0 0 0 0 0 
0 0 0 0 0 0 0 0 0 
0 0 0 0 0 0 0 2.0074 0 
0 0 0 0 0 0 0 0 0 
0 0 0 0 0 0 0 0 0 
0 2.1126 0 0 0 0 0 0 0 
0 0 0 0 0 0 0 0 0 
0 0 0 0 0 0 0 0 0 
0 0 0 0 0 0 0 0 0 
0 0 0 0 0 0 0 0 0 
0 0 0 0 0 0 0 0 0 
0 0 0 0 0 0 0 0 0 
0 0 0 0 0 0 0 0 0 
0 0 0 0 0 0 0 0 0 
0 0 0 0 0 0 0 0 0 
0 0 0 0 0 0 0 0 0 
0 0 0 0 0 0 0 0 0 
0 0 0 0 0 0 0 0 0 
0 0 0 0 0 0 0 0 0 
0 0 0 0 0 0 0 0 0 
0 0 0 0 0 0 0 0 0 
0 0 0 0 0 0 0 0 0 
0 0 0 0 0 0 0 0 0 
0 0 0 0 0 0 0 0 0 
0 0 0 0 0 0 0 0 0 
0 0 0 0 0 
tau 1 1049 double
2 2 2 2 2 2 2 2 2 
2 2 2 2 2 2 2 2 2 
2 2 2 2 2 2 2 2 2 
2 2 2 2 2 2 2 2 2 
2 2 2 2 2 2 2 2 2 
2 2 2 2 2 2 2 2 2 
2 2 2 2 2 2 2 2 2 
2 2 2 2 2 2 2 2 2 
2 2 2 2 2 2 2 2 2 
2 2 2 2 2 2 2 2 2 
2 2 2 2 2 2 2 2 2 
2 2 2 2 2 2 2 2 2 
2 2 2 2 2 2 2 2 2 
2 2 2 2 2 2 2 2 2 
2 2 2 2 2 2 2 2 2 
2 2 2 2 2 2 2 2 2 
2 2 2 2 2 2 2 2 2 
2 2 2 2 2 2 2 2 2 
2 2 2 2 2 2 2 2 2 
2 2 2 2 2 2 2 2 2 
2 2 2 2 2 2 2 2 2 
2 2 2 2 2 2 2 2 2 
2 2 2 2 2 2 2 2 2 
2 2 2 2 2 2 2 2 2 
2 2 2 2 2 2 2 2 2 
2 2 2 2 2 2 2 2 2 
2 2 2 2 2 2 2 2 2 
2 2 2 2 2 2 2 2 2 
2 2 2 2 2 2 2 2 2 
2 2 2 2 2 2 2 2 2 
2 2 2 2 2 2 2 2 2 
2 2 2 2 2 2 2 2 2 
2 2 2 2 2 2 2 2 2 
2 2 2 2 2 2 2 2 2 
2 2 2 2 2 2 2 2 2 
2 2 2 2 2 2 2 2 2 
2 2 2 2 2 2 2 2 2 
2 2 2 2 2 2 2 2 2 
2 2 2 2 2 2 2 2 2 
2 2 2 2 2 2 2 2 2 
2 2 2 2 2 2 2 2 2 
2 2 2 2 2 2 2 2 2 
2 2 2 2 2 2 2 2 2 
2 2 2 2 2 2 2 2 2 
2 2 2 2 2 2 2 2 2 
2 2 2 2 2 2 2 2 2 
2 2 2 2 2 2 2 2 2 
2 2 2 2 2 2 2 2 2 
2 2 2 2 2 2 2 2 2 
2 2 2 2 2 2 2 2 2 
2 2 2 2 2 2 2 2 2 
2 2 2 2 2 2 2 2 2 
2 2 2 2 2 2 2 2 2 
2 2 2 2 2 2 2 2 2 
2 2 2 2 2 2 2 2 2 
2 2 2 2 2 2 2 2 2 
2 2 2 2 2 2 2 2 2 
2 2 2 2 2 2 2 2 2 
2 2 2 2 2 2 2 2 2 
2 2 2 2 2 2 2 2 2 
2 2 2 2 2 2 2 2 2 
2 2 2 2 2 2 2 2 2 
2 2 2 2 2 2 2 2 2 
2 2 2 2 2 2 2 2 2 
2 2 2 2 2 2 2 2 2 
2 2 2 2 2 2 2 2 2 
2 2 2 2 2 2 2 2 2 
2 2 2 2 2 2 2 2 2 
2 2 2 2 2 2 2 2 2 
2 2 2 2 2 2 2 2 2 
2 2 2 2 2 2 2 2 2 
2 2 2 2 2 2 2 2 2 
2 2 2 2 2 2 2 2 2 
2 2 2 2 2 2 2 2 2 
2 2 2 2 2 2 2 2 2 
2 2 2 2 2 2 2 2 2 
2 2 2 2 2 2 2 2 2 
2 2 2 2 2 2 2 2 2 
2 2 2 2 2 2 2 2 2 
2 2 2 2 2 2 2 2 2 
2 2 2 2 2 2 2 2 2 
2 2 2 2 2 2 2 2 2 
2 2 2 2 2 2 2 2 2 
2 2 2 2 2 2 2 2 2 
2 2 2 2 2 2 2 2 2 
2 2 2 2 2 2 2 2 2 
2 2 2 2 2 2 2 2 2 
2 2 2 2 2 2 2 2 2 
2 2 2 2 2 2 2 2 2 
2 2 2 2 2 2 2 2 2 
2 2 2 2 2 2 2 2 2 
2 2 2 2 2 2 2 2 2 
2 2 2 2 2 2 2 2 2 
2 2 2 2 2 2 2 2 2 
2 2 2 2 2 2 2 2 2 
2 2 2 2 2 2 2 2 2 
2 2 2 2 2 2 2 2 2 
2 2 2 2 2 2 2 2 2 
2 2 2 2 2 2 2 2 2 
2 2 2 2 2 2 2 2 2 
2 2 2 2 2 2 2 2 2 
2 2 2 2 2 2 2 2 2 
2 2 2 2 2 2 2 2 2 
2 2 2 2 2 2 2 2 2 
2 2 2 2 2 2 2 2 2 
2 2 2 2 2 2 2 2 2 
2 2 2 2 2 2 2 2 2 
2 2 2 2 2 2 2 2 2 
2 2 2 2 2 2 2 2 2 
2 2 2 2 2 2 2 2 2 
2 2 2 2 2 2 2 2 2 
2 2 2 2 2 2 2 2 2 
2 2 2 2 2 2 2 2 2 
2 2 2 2 2 2 2 2 2 
2 2 2 2 2 2 2 2 2 
2 2 2 2 2 2 2 2 2 
2 2 2 2 2 
R 1 1049 double
0.30266 0.33263 0.27325 0.28195 0.26351 0.31931 0.27528 0.31987 0.33859 
0.33828 0.34097 0.34851 0.30154 0.28149 0.33777 0.26298 0.33184 0.31776 
0.25774 0.34517 0.25657 0.33398 0.27641 0.32955 0.2897 0.33421 0.30352 
0.33283 0.33159 0.34126 0.32722 0.2979 0.25639 0.33566 0.26783 0.28662 
0.27491 0.31815 0.26354 0.28083 0.25399 0.27197 0.2931 0.30856 0.30199 
0.32665 0.26852 0.25853 0.31582 0.2889 0.34015 0.26761 0.33382 0.34593 
0.34672 0.32278 0.27735 0.31127 0.1 0.1 0.1 0.1 0.1 
0.1 0.1 0.1 0.1 0.1 0.1 0.1 0.1 0.1 
0.1 0.1 0.1 0.31087 0.1 0.25308 0.1 0.1 0.25528 
0.1 0.3159 0.1 0.1 0.1 0.1 0.1 0.1 0.1 
0.1 0.1 0.1 0.1 0.1 0.1 0.1 0.1 0.1 
0.1 0.1 0.1 0.1 0.1 0.1 0.1 0.1 0.1 
0.1 0.1 0.1 0.1 0.1 0.1 0.1 0.1 0.1 
0.1 0.1 0.1 0.1 0.1 0.1 0.1 0.1 0.1 
0.1 0.1 0.1 0.1 0.1 0.1 0.1 0.1 0.1 
0.1 0.1 0.1 0.1 0.1 0.1 0.1 0.1 0.1 
0.1 0.1 0.1 0.1 0.1 0.1 0.1 0.1 0.1 
0.1 0.1 0.1 0.1 0.1 0.1 0.1 0.1 0.1 
0.1 0.1 0.1 0.1 0.1 0.1 0.1 0.1 0.1 
0.1 0.1 0.1 0.1 0.1 0.1 0.1 0.1 0.1 
0.1 0.1 0.1 0.1 0.1 0.1 0.1 0.1 0.1 
0.1 0.1 0.1 0.1 0.1 0.1 0.1 0.1 0.1 
0.1 0.1 0.1 0.1 0.1 0.1 0.1 0.1 0.1 
0.1 0.1 0.1 0.1 0.1 0.1 0.1 0.1 0.27555 
0.30511 0.28172 0.1 0.25928 0.1 0.1 0.1 0.30421 0.27972 
0.25037 0.1 0.1 0.1 0.1 0.1 0.1 0.1 0.1 
0.1 0.1 0.1 0.1 0.1 0.1 0.1 0.1 0.1 
0.1 0.1 0.1 0.1 0.25099 0.2591 0.27957 0.1 0.1 
0.1 0.1 0.1 0.1 0.1 0.1 0.1 0.1 0.1 
0.1 0.1 0.1 0.1 0.1 0.1 0.1 0.1 0.1 
0.31217 0.31651 0.31364 0.30805 0.25997 0.28827 0.2685 0.1 0.1 
0.1 0.1 0.1 0.1 0.1 0.1 0.1 0.1 0.3 
0.26541 0.1 0.1 0.1 0.1 0.1 0.1 0.1 0.1 
0.1 0.1 0.1 0.1 0.1 0.1 0.1 0.1 0.1 
0.1 0.1 0.1 0.2957 0.28069 0.25888 0.1 0.1 0.1 
0.1 0.1 0.1 0.1 0.1 0.1 0.1 0.29225 0.30482 
0.29693 0.1 0.1 0.1 0.1 0.1 0.1 0.1 0.1 
0.1 0.1 0.1 0.1 0.1 0.1 0.1 0.1 0.1 
0.1 0.1 0.1 0.2735 0.27393 0.1 0.1 0.1 0.1 
0.1 0.1 0.1 0.1 0.1 0.1 0.28537 0.32017 0.1 
0.1 0.1 0.1 0.1 0.1 0.1 0.1 0.1 0.1 
0.1 0.1 0.1 0.1 0.1 0.1 0.1 0.1 0.1 
0.1 0.27439 0.31621 0.32716 0.25008 0.1 0.1 0.1 0.1 
0.1 0.1 0.1 0.1 0.1 0.1 0.26173 0.33657 0.1 
0.1 0.1 0.1 0.1 0.1 0.1 0.1 0.1 0.1 
0.1 0.1 0.1 0.1 0.1 0.1 0.1 0.1 0.1 
0.1 0.27071 0.1 0.1 0.1 0.1 0.1 0.1 0.1 
0.1 0.1 0.1 0.32334 0.1 0.1 0.1 0.1 0.1 
0.1 0.1 0.1 0.1 0.1 0.1 0.1 0.1 0.1 
0.1 0.1 0.1 0.1 0.1 0.1 0.34334 0.3161 0.3228 
0.33577 0.1 0.1 0.1 0.1 0.1 0.1 0.1 0.1 
0.1 0.1 0.1 0.1 0.1 0.1 0.1 0.1 0.1 
0.1 0.1 0.1 0.1 0.1 0.1 0.1 0.1 0.1 
0.1 0.1 0.1 0.1 0.26888 0.1 0.1 0.1 0.1 
0.1 0.1 0.1 0.1 0.1 0.1 0.1 0.1 0.1 
0.1 0.1 0.1 0.1 0.1 0.1 0.1 0.1 0.1 
0.1 0.1 0.1 0.29985 0.1 0.29552 0.1 0.1 0.1 
0.1 0.1 0.1 0.1 0.1 0.1 0.1 0.1 0.1 
0.1 0.1 0.1 0.1 0.1 0.1 0.1 0.1 0.1 
0.1 0.1 0.1 0.1 0.1 0.1 0.1 0.1 0.1 
0.1 0.1 0.1 0.1 0.1 0.1 0.1 0.1 0.1 
0.1 0.1 0.1 0.1 0.1 0.1 0.1 0.1 0.1 
0.1 0.1 0.1 0.1 0.1 0.1 0.1 0.1 0.1 
0.1 0.1 0.1 0.1 0.1 0.1 0.1 0.1 0.33762 
0.1 0.1 0.1 0.1 0.1 0.1 0.1 0.31506 0.34368 
0.1 0.26269 0.33976 0.1 0.1 0.1 0.1 0.1 0.1 
0.1 0.1 0.1 0.1 0.25871 0.28428 0.32361 0.1 0.1 
0.1 0.1 0.1 0.1 0.1 0.1 0.1 0.1 0.1 
0.1 0.1 0.1 0.1 0.1 0.1 0.1 0.1 0.1 
0.1 0.1 0.1 0.1 0.1 0.1 0.1 0.1 0.1 
0.1 0.1 0.1 0.1 0.1 0.1 0.1 0.1 0.1 
0.1 0.1 0.1 0.1 0.1 0.1 0.1 0.1 0.1 
0.1 0.1 0.1 0.1 0.1 0.1 0.1 0.1 0.1 
0.1 0.1 0.1 0.1 0.1 0.1 0.1 0.1 0.1 
0.1 0.1 0.1 0.1 0.1 0.1 0.1 0.1 0.1 
0.1 0.1 0.1 0.1 0.1 0.1 0.1 0.1 0.1 
0.1 0.1 0.1 0.1 0.1 0.1 0.1 0.1 0.1 
0.1 0.1 0.1 0.1 0.1 0.1 0.1 0.1 0.1 
0.1 0.1 0.1 0.1 0.1 0.1 0.1 0.1 0.1 
0.1 0.1 0.1 0.1 0.1 0.1 0.1 0.1 0.1 
0.1 0.1 0.1 0.1 0.1 0.1 0.1 0.1 0.1 
0.1 0.1 0.1 0.1 0.1 0.1 0.1 0.1 0.1 
0.1 0.1 0.1 0.1 0.1 0.1 0.1 0.1 0.1 
0.1 0.1 0.1 0.1 0.1 0.1 0.1 0.1 0.1 
0.1 0.1 0.28437 0.33341 0.1 0.1 0.1 0.1 0.1 
0.1 0.1 0.1 0.1 0.1 0.1 0.1 0.1 0.1 
0.1 0.1 0.1 0.1 0.1 0.1 0.1 0.1 0.1 
0.1 0.1 0.1 0.1 0.1 0.1 0.1 0.1 0.1 
0.31445 0.1 0.1 0.1 0.1 0.1 0.1 0.1 0.1 
0.1 0.1 0.1 0.1 0.1 0.1 0.1 0.1 0.1 
0.1 0.1 0.1 0.1 0.1 0.1 0.1 0.1 0.33954 
0.1 0.1 0.1 0.1 0.1 0.1 0.1 0.1 0.1 
0.1 0.1 0.1 0.1 0.1 0.1 0.1 0.1 0.1 
0.1 0.1 0.1 0.1 0.1 0.1 0.1 0.25952 0.1 
0.1 0.1 0.1 0.1 0.1 0.1 0.1 0.1 0.1 
0.1 0.1 0.1 0.1 0.1 0.1 0.1 0.1 0.1 
0.1 0.33412 0.1 0.1 0.1 0.1 0.1 0.1 0.1 
0.1 0.1 0.1 0.1 0.1 0.1 0.1 0.1 0.1 
0.1 0.1 0.1 0.1 0.1 0.1 0.1 0.1 0.1 
0.1 0.1 0.1 0.1 0.1 0.1 0.1 0.1 0.1 
0.1 0.1 0.1 0.1 0.1 0.1 0.1 0.1 0.1 
0.1 0.1 0.1 0.1 0.1 0.1 0.1 0.1 0.1 
0.1 0.1 0.1 0.1 0.1 0.1 0.1 0.1 0.1 
0.1 0.1 0.1 0.1 0.1 0.1 0.1 0.1 0.1 
0.1 0.1 0.1 0.1 0.1 0.1 0.1 0.1 0.1 
0.1 0.1 0.1 0.1 0.1 0.1 0.1 0.1 0.1 
0.1 0.1 0.1 0.1 0.1 0.1 0.1 0.1 0.1 
0.1 0.1 0.1 0.1 0.1 0.1 0.1 0.1 0.1 
0.1 0.1 0.1 0.1 0.1 0.1 0.1 0.1 0.1 
0.1 0.1 0.1 0.1 0.1 0.1 0.1 0.1 0.1 
0.1 0.1 0.1 0.1 0.1 0.1 0.1 0.1 0.1 
0.1 0.1 0.1 0.1 0.1 0.1 0.1 0.1 0.1 
0.1 0.1 0.1 0.1 0.1 0.1 0.1 0.1 0.1 
0.1 0.1 0.1 0.1 0.1 0.1 0.1 0.1 0.1 
0.1 0.1 0.1 0.1 0.1 0.1 0.1 0.1 0.1 
0.1 0.1 0.1 0.1 0.1 0.1 0.1 0.1 0.1 
0.1 0.1 0.1 0.1 0.1 
a 3 1049 double
0 0 0 0 0 0 0 0 0 
0 0 0 0 0 0 0 0 0 
0 0 0 0 0 0 0 0 0 
0 0 0 0 0 0 0 0 0 
0 0 0 0 0 0 0 0 0 
0 0 0 0 0 0 0 0 0 
0 0 0 0 0 0 0 0 0 
0 0 0 0 0 0 0 0 0 
0 0 0 0 0 0 0 0 0 
0 0 0 0 0 0 0 0 0 
0 0 0 0 0 0 0 0 0 
0 0 0 0 0 0 0 0 0 
0 0 0 0 0 0 0 0 0 
0 0 0 0 0 0 0 0 0 
0 0 0 0 0 0 0 0 0 
0 0 0 0 0 0 0 0 0 
0 0 0 0 0 0 0 0 0 
0 0 0 0 0 0 0 0 0 
0 0 0 0 0 0 0 0 0 
0 0 0 0 0 0 0 0 0 
0 0 0 0 0 0 0 0 0 
0 0 0 0 0 0 0 0 0 
0 0 0 0 0 0 0 0 0 
0 0 0 0 0 0 0 0 0 
0 0 0 0 0 0 0 0 0 
0 0 0 0 0 0 0 0 0 
0 0 0 0 0 0 0 0 0 
0 0 0 0 0 0 0 0 0 
0 0 0 0 0 0 0 0 0 
0 0 0 0 0 0 0 0 0 
0 0 0 0 0 0 0 0 0 
0 0 0 0 0 0 0 0 0 
0 0 0 0 0 0 0 0 0 
0 0 0 0 0 0 0 0 0 
0 0 0 0 0 0 0 0 0 
0 0 0 0 0 0 0 0 0 
0 0 0 0 0 0 0 0 0 
0 0 0 0 0 0 0 0 0 
0 0 0 0 0 0 0 0 0 
0 0 0 0 0 0 0 0 0 
0 0 0 0 0 0 0 0 0 
0 0 0 0 0 0 0 0 0 
0 0 0 0 0 0 0 0 0 
0 0 0 0 0 0 0 0 0 
0 0 0 0 0 0 0 0 0 
0 0 0 0 0 0 0 0 0 
0 0 0 0 0 0 0 0 0 
0 0 0 0 0 0 0 0 0 
0 0 0 0 0 0 0 0 0 
0 0 0 0 0 0 0 0 0 
0 0 0 0 0 0 0 0 0 
0 0 0 0 0 0 0 0 0 
0 0 0 0 0 0 0 0 0 
0 0 0 0 0 0 0 0 0 
0 0 0 0 0 0 0 0 0 
0 0 0 0 0 0 0 0 0 
0 0 0 0 0 0 0 0 0 
0 0 0 0 0 0 0 0 0 
0 0 0 0 0 0 0 0 0 
0 0 0 0 0 0 0 0 0 
0 0 0 0 0 0 0 0 0 
0 0 0 0 0 0 0 0 0 
0 0 0 0 0 0 0 0 0 
0 0 0 0 0 0 0 0 0 
0 0 0 0 0 0 0 0 0 
0 0 0 0 0 0 0 0 0 
0 0 0 0 0 0 0 0 0 
0 0 0 0 0 0 0 0 0 
0 0 0 0 0 0 0 0 0 
0 0 0 0 0 0 0 0 0 
0 0 0 0 0 0 0 0 0 
0 0 0 0 0 0 0 0 0 
0 0 0 0 0 0 0 0 0 
0 0 0 0 0 0 0 0 0 
0 0 0 0 0 0 0 0 0 
0 0 0 0 0 0 0 0 0 
0 0 0 0 0 0 0 0 0 
0 0 0 0 0 0 0 0 0 
0 0 0 0 0 0 0 0 0 
0 0 0 0 0 0 0 0 0 
0 0 0 0 0 0 0 0 0 
0 0 0 0 0 0 0 0 0 
0 0 0 0 0 0 0 0 0 
0 0 0 0 0 0 0 0 0 
0 0 0 0 0 0 0 0 0 
0 0 0 0 0 0 0 0 0 
0 0 0 0 0 0 0 0 0 
0 0 0 0 0 0 0 0 0 
0 0 0 0 0 0 0 0 0 
0 0 0 0 0 0 0 0 0 
0 0 0 0 0 0 0 0 0 
0 0 0 0 0 0 0 0 0 
0 0 0 0 0 0 0 0 0 
0 0 0 0 0 0 0 0 0 
0 0 0 0 0 0 0 0 0 
0 0 0 0 0 0 0 0 0 
0 0 0 0 0 0 0 0 0 
0 0 0 0 0 0 0 0 0 
0 0 0 0 0 0 0 0 0 
0 0 0 0 0 0 0 0 0 
0 0 0 0 0 0 0 0 0 
0 0 0 0 0 0 0 0 0 
0 0 0 0 0 0 0 0 0 
0 0 0 0 0 0 0 0 0 
0 0 0 0 0 0 0 0 0 
0 0 0 0 0 0 0 0 0 
0 0 0 0 0 0 0 0 0 
0 0 0 0 0 0 0 0 0 
0 0 0 0 0 0 0 0 0 
0 0 0 0 0 0 0 0 0 
0 0 0 0 0 0 0 0 0 
0 0 0 0 0 0 0 0 0 
0 0 0 0 0 0 0 0 0 
0 0 0 0 0 0 0 0 0 
0 0 0 0 0 0 0 0 0 
0 0 0 0 0 0 0 0 0 
0 0 0 0 0 0 0 0 0 
0 0 0 0 0 0 0 0 0 
0 0 0 0 0 0 0 0 0 
0 0 0 0 0 0 0 0 0 
0 0 0 0 0 0 0 0 0 
0 0 0 0 0 0 0 0 0 
0 0 0 0 0 0 0 0 0 
0 0 0 0 0 0 0 0 0 
0 0 0 0 0 0 0 0 0 
0 0 0 0 0 0 0 0 0 
0 0 0 0 0 0 0 0 0 
0 0 0 0 0 0 0 0 0 
0 0 0 0 0 0 0 0 0 
0 0 0 0 0 0 0 0 0 
0 0 0 0 0 0 0 0 0 
0 0 0 0 0 0 0 0 0 
0 0 0 0 0 0 0 0 0 
0 0 0 0 0 0 0 0 0 
0 0 0 0 0 0 0 0 0 
0 0 0 0 0 0 0 0 0 
0 0 0 0 0 0 0 0 0 
0 0 0 0 0 0 0 0 0 
0 0 0 0 0 0 0 0 0 
0 0 0 0 0 0 0 0 0 
0 0 0 0 0 0 0 0 0 
0 0 0 0 0 0 0 0 0 
0 0 0 0 0 0 0 0 0 
0 0 0 0 0 0 0 0 0 
0 0 0 0 0 0 0 0 0 
0 0 0 0 0 0 0 0 0 
0 0 0 0 0 0 0 0 0 
0 0 0 0 0 0 0 0 0 
0 0 0 0 0 0 0 0 0 
0 0 0 0 0 0 0 0 0 
0 0 0 0 0 0 0 0 0 
0 0 0 0 0 0 0 0 0 
0 0 0 0 0 0 0 0 0 
0 0 0 0 0 0 0 0 0 
0 0 0 0 0 0 0 0 0 
0 0 0 0 0 0 0 0 0 
0 0 0 0 0 0 0 0 0 
0 0 0 0 0 0 0 0 0 
0 0 0 0 0 0 0 0 0 
0 0 0 0 0 0 0 0 0 
0 0 0 0 0 0 0 0 0 
0 0 0 0 0 0 0 0 0 
0 0 0 0 0 0 0 0 0 
0 0 0 0 0 0 0 0 0 
0 0 0 0 0 0 0 0 0 
0 0 0 0 0 0 0 0 0 
0 0 0 0 0 0 0 0 0 
0 0 0 0 0 0 0 0 0 
0 0 0 0 0 0 0 0 0 
0 0 0 0 0 0 0 0 0 
0 0 0 0 0 0 0 0 0 
0 0 0 0 0 0 0 0 0 
0 0 0 0 0 0 0 0 0 
0 0 0 0 0 0 0 0 0 
0 0 0 0 0 0 0 0 0 
0 0 0 0 0 0 0 0 0 
0 0 0 0 0 0 0 0 0 
0 0 0 0 0 0 0 0 0 
0 0 0 0 0 0 0 0 0 
0 0 0 0 0 0 0 0 0 
0 0 0 0 0 0 0 0 0 
0 0 0 0 0 0 0 0 0 
0 0 0 0 0 0 0 0 0 
0 0 0 0 0 0 0 0 0 
0 0 0 0 0 0 0 0 0 
0 0 0 0 0 0 0 0 0 
0 0 0 0 0 0 0 0 0 
0 0 0 0 0 0 0 0 0 
0 0 0 0 0 0 0 0 0 
0 0 0 0 0 0 0 0 0 
0 0 0 0 0 0 0 0 0 
0 0 0 0 0 0 0 0 0 
0 0 0 0 0 0 0 0 0 
0 0 0 0 0 0 0 0 0 
0 0 0 0 0 0 0 0 0 
0 0 0 0 0 0 0 0 0 
0 0 0 0 0 0 0 0 0 
0 0 0 0 0 0 0 0 0 
0 0 0 0 0 0 0 0 0 
0 0 0 0 0 0 0 0 0 
0 0 0 0 0 0 0 0 0 
0 0 0 0 0 0 0 0 0 
0 0 0 0 0 0 0 0 0 
0 0 0 0 0 0 0 0 0 
0 0 0 0 0 0 0 0 0 
0 0 0 0 0 0 0 0 0 
0 0 0 0 0 0 0 0 0 
0 0 0 0 0 0 0 0 0 
0 0 0 0 0 0 0 0 0 
0 0 0 0 0 0 0 0 0 
0 0 0 0 0 0 0 0 0 
0 0 0 0 0 0 0 0 0 
0 0 0 0 0 0 0 0 0 
0 0 0 0 0 0 0 0 0 
0 0 0 0 0 0 0 0 0 
0 0 0 0 0 0 0 0 0 
0 0 0 0 0 0 0 0 0 
0 0 0 0 0 0 0 0 0 
0 0 0 0 0 0 0 0 0 
0 0 0 0 0 0 0 0 0 
0 0 0 0 0 0 0 0 0 
0 0 0 0 0 0 0 0 0 
0 0 0 0 0 0 0 0 0 
0 0 0 0 0 0 0 0 0 
0 0 0 0 0 0 0 0 0 
0 0 0 0 0 0 0 0 0 
0 0 0 0 0 0 0 0 0 
0 0 0 0 0 0 0 0 0 
0 0 0 0 0 0 0 0 0 
0 0 0 0 0 0 0 0 0 
0 0 0 0 0 0 0 0 0 
0 0 0 0 0 0 0 0 0 
0 0 0 0 0 0 0 0 0 
0 0 0 0 0 0 0 0 0 
0 0 0 0 0 0 0 0 0 
0 0 0 0 0 0 0 0 0 
0 0 0 0 0 0 0 0 0 
0 0 0 0 0 0 0 0 0 
0 0 0 0 0 0 0 0 0 
0 0 0 0 0 0 0 0 0 
0 0 0 0 0 0 0 0 0 
0 0 0 0 0 0 0 0 0 
0 0 0 0 0 0 0 0 0 
0 0 0 0 0 0 0 0 0 
0 0 0 0 0 0 0 0 0 
0 0 0 0 0 0 0 0 0 
0 0 0 0 0 0 0 0 0 
0 0 0 0 0 0 0 0 0 
0 0 0 0 0 0 0 0 0 
0 0 0 0 0 0 0 0 0 
0 0 0 0 0 0 0 0 0 
0 0 0 0 0 0 0 0 0 
0 0 0 0 0 0 0 0 0 
0 0 0 0 0 0 0 0 0 
0 0 0 0 0 0 0 0 0 
0 0 0 0 0 0 0 0 0 
0 0 0 0 0 0 0 0 0 
0 0 0 0 0 0 0 0 0 
0 0 0 0 0 0 0 0 0 
0 0 0 0 0 0 0 0 0 
0 0 0 0 0 0 0 0 0 
0 0 0 0 0 0 0 0 0 
0 0 0 0 0 0 0 0 0 
0 0 0 0 0 0 0 0 0 
0 0 0 0 0 0 0 0 0 
0 0 0 0 0 0 0 0 0 
0 0 0 0 0 0 0 0 0 
0 0 0 0 0 0 0 0 0 
0 0 0 0 0 0 0 0 0 
0 0 0 0 0 0 0 0 0 
0 0 0 0 0 0 0 0 0 
0 0 0 0 0 0 0 0 0 
0 0 0 0 0 0 0 0 0 
0 0 0 0 0 0 0 0 0 
0 0 0 0 0 0 0 0 0 
0 0 0 0 0 0 0 0 0 
0 0 0 0 0 0 0 0 0 
0 0 0 0 0 0 0 0 0 
0 0 0 0 0 0 0 0 0 
0 0 0 0 0 0 0 0 0 
0 0 0 0 0 0 0 0 0 
0 0 0 0 0 0 0 0 0 
0 0 0 0 0 0 0 0 0 
0 0 0 0 0 0 0 0 0 
0 0 0 0 0 0 0 0 0 
0 0 0 0 0 0 0 0 0 
0 0 0 0 0 0 0 0 0 
0 0 0 0 0 0 0 0 0 
0 0 0 0 0 0 0 0 0 
0 0 0 0 0 0 0 0 0 
0 0 0 0 0 0 0 0 0 
0 0 0 0 0 0 0 0 0 
0 0 0 0 0 0 0 0 0 
0 0 0 0 0 0 0 0 0 
0 0 0 0 0 0 0 0 0 
0 0 0 0 0 0 0 0 0 
0 0 0 0 0 0 0 0 0 
0 0 0 0 0 0 0 0 0 
0 0 0 0 0 0 0 0 0 
0 0 0 0 0 0 0 0 0 
0 0 0 0 0 0 0 0 0 
0 0 0 0 0 0 0 0 0 
0 0 0 0 0 0 0 0 0 
0 0 0 0 0 0 0 0 0 
0 0 0 0 0 0 0 0 0 
0 0 0 0 0 0 0 0 0 
0 0 0 0 0 0 0 0 0 
0 0 0 0 0 0 0 0 0 
0 0 0 0 0 0 0 0 0 
0 0 0 0 0 0 0 0 0 
0 0 0 0 0 0 0 0 0 
0 0 0 0 0 0 0 0 0 
0 0 0 0 0 0 0 0 0 
0 0 0 0 0 0 0 0 0 
0 0 0 0 0 0 0 0 0 
0 0 0 0 0 0 0 0 0 
0 0 0 0 0 0 0 0 0 
0 0 0 0 0 0 0 0 0 
0 0 0 0 0 0 0 0 0 
0 0 0 0 0 0 0 0 0 
0 0 0 0 0 0 0 0 0 
0 0 0 0 0 0 0 0 0 
0 0 0 0 0 0 0 0 0 
0 0 0 0 0 0 0 0 0 
0 0 0 0 0 0 0 0 0 
0 0 0 0 0 0 0 0 0 
0 0 0 0 0 0 0 0 0 
0 0 0 0 0 0 0 0 0 
0 0 0 0 0 0 0 0 0 
0 0 0 0 0 0 0 0 0 
0 0 0 0 0 0 0 0 0 
0 0 0 0 0 0 0 0 0 
0 0 0 0 0 0 0 0 0 
0 0 0 0 0 0 0 0 0 
0 0 0 0 0 0 0 0 0 
0 0 0 0 0 0 0 0 0 
0 0 0 0 0 0 0 0 0 
0 0 0 0 0 0 0 0 0 
0 0 0 0 0 0 0 0 0 
0 0 0 0 0 0 0 0 0 
0 0 0 0 0 0 0 0 0 
0 0 0 0 0 0 0 0 0 
0 0 0 0 0 0 0 0 0 
0 0 0 0 0 0 0 0 0 
0 0 0 0 0 0 0 0 0 
0 0 0 0 0 0 0 0 0 
0 0 0 0 0 0 0 0 0 
0 0 0 0 0 0 0 0 0 
0 0 0 0 0 0 0 0 0 
0 0 0 0 0 0 
v 3 1049 double
-0.139097 -0.0886649 0 -0.115868 -0.132578 0 0.950708 -0.626026 0 
-0.0355878 -0.0636018 0 0.0512179 -0.178298 0 -0.0524757 -0.375555 0 
-0.356585 0.0212145 0 -0.416871 -0.272645 0 0.88576 -0.72438 0 
0.723227 -0.633207 0 -0.935873 -0.687095 0 -0.865568 -0.812201 0 
-0.657371 -0.561298 0 -0.695406 -0.475738 0 0.85043 -0.742406 0 
-0.888152 -0.64035 0 -0.750538 -0.556773 0 0.585405 -0.431535 0 
0.826654 -0.608567 0 0.833748 -0.683504 0 0.509077 -0.449726 0 
-0.957444 -0.77934 0 -0.959419 -0.777339 0 0.715142 -0.712587 0 
0.778761 -0.658264 0 0.80236 -0.676226 0 0.844469 -0.681748 0 
0.768985 -0.605422 0 0.908228 -0.662632 0 0.914564 -0.75313 0 
-0.758388 -0.617943 0 0.730506 -0.656837 0 0.787089 -0.63295 0 
0.962897 -0.753516 0 0.999589 -0.706242 0 -0.819742 -0.577326 0 
-0.835093 -0.76888 0 0.934084 -0.774438 0 1.05422 -0.734906 0 
0.847378 -0.677787 0 0.973157 -0.78853 0 -0.635647 -0.606395 0 
-0.599494 -0.661073 0 -0.950408 -0.692586 0 -0.638768 -0.539423 0 
0.888296 -0.739694 0 0.965562 -0.718325 0 0.994167 -0.771291 0 
-0.90981 -0.566277 0 -0.83336 -0.676264 0 -0.871071 -0.651232 0 
-0.757422 -0.691696 0 0.644648 -1.07524 0 0.766403 -0.585132 0 
0.74999 -0.990819 0 -0.576499 -0.693582 0 -0.868723 -0.678233 0 
-0.123264 -1.10559 0 0 0 0 0 0 0 
0 0 0 0 0 0 0 0 0 
0 0 0 0 0 0 0 0 0 
0 0 0 0 0 0 0 0 0 
0 0 0 0 0 0 0 0 0 
0 0 0 0 0 0 0 0 0 
0.370342 -0.786002 0 0 0 0 -0.18196 -0.592389 0 
0 0 0 0 0 0 -0.164094 -0.736023 0 
0 0 0 -0.132219 -0.565247 0 0 0 0 
0 0 0 0 0 0 0 0 0 
0 0 0 0 0 0 0 0 0 
0 0 0 0 0 0 0 0 0 
0 0 0 0 0 0 0 0 0 
0 0 0 0 0 0 0 0 0 
0 0 0 0 0 0 0 0 0 
0 0 0 0 0 0 0 0 0 
0 0 0 0 0 0 0 0 0 
0 0 0 0 0 0 0 0 0 
0 0 0 0 0 0 0 0 0 
0 0 0 0 0 0 0 0 0 
0 0 0 0 0 0 0 0 0 
0 0 0 0 0 0 0 0 0 
0 0 0 0 0 0 0 0 0 
0 0 0 0 0 0 0 0 0 
0 0 0 0 0 0 0 0 0 
0 0 0 0 0 0 0 0 0 
0 0 0 0 0 0 0 0 0 
0 0 0 0 0 0 0 0 0 
0 0 0 0 0 0 0 0 0 
0 0 0 0 0 0 0 0 0 
0 0 0 0 0 0 0 0 0 
0 0 0 0 0 0 0 0 0 
0 0 0 0 0 0 0 0 0 
0 0 0 0 0 0 0 0 0 
0 0 0 0 0 0 0 0 0 
0 0 0 0 0 0 0 0 0 
0 0 0 0 0 0 0 0 0 
0 0 0 0 0 0 0 0 0 
0 0 0 0 0 0 0 0 0 
0 0 0 0 0 0 0 0 0 
0 0 0 0 0 0 0 0 0 
0 0 0 0 0 0 0 0 0 
0 0 0 0 0 0 0 0 0 
0 0 0 0 0 0 0 0 0 
0 0 0 0 0 0 0 0 0 
0 0 0 0 0 0 0 0 0 
0 0 0 0 0 0 0 0 0 
0 0 0 0 0 0 0 0 0 
0 0 0 0 0 0 0 0 0 
0 0 0 0 0 0 0 0 0 
0 0 0 0 0 0 0 0 0 
0 0 0 0 0 0 0 0 0 
0 0 0 0 0 0 0.349824 -0.64028 0 
0.31673 -0.643894 0 0.32908 -0.0416539 0 0 0 0 
-0.37031 -0.869667 0 0 0 0 0 0 0 
0 0 0 0.20841 -0.876147 0 0.122132 -0.0313281 0 
-0.0188163 -0.0714628 0 0 0 0 0 0 0 
0 0 0 0 0 0 0 0 0 
0 0 0 0 0 0 0 0 0 
0 0 0 0 0 0 0 0 0 
0 0 0 0 0 0 0 0 0 
0 0 0 0 0 0 0 0 0 
0 0 0 0 0 0 0 0 0 
0 0 0 -0.0171107 -0.655752 0 -0.171175 -0.741267 0 
-0.284674 -0.89136 0 0 0 0 0 0 0 
0 0 0 0 0 0 0 0 0 
0 0 0 0 0 0 0 0 0 
0 0 0 0 0 0 0 0 0 
0 0 0 0 0 0 0 0 0 
0 0 0 0 0 0 0 0 0 
0 0 0 0 0 0 0 0 0 
0.26425 -0.860515 0 0.0307274 -0.605713 0 0.0187796 -1.01242 0 
0.0176965 -0.957492 0 0.00748463 -0.608073 0 0.329716 -0.231195 0 
-0.139676 -0.634884 0 0 0 0 0 0 0 
0 0 0 0 0 0 0 0 0 
0 0 0 0 0 0 0 0 0 
0 0 0 0 0 0 -0.0989341 -0.820601 0 
-0.145109 -0.796523 0 0 0 0 0 0 0 
0 0 0 0 0 0 0 0 0 
0 0 0 0 0 0 0 0 0 
0 0 0 0 0 0 0 0 0 
0 0 0 0 0 0 0 0 0 
0 0 0 0 0 0 0 0 0 
0 0 0 0 0 0 0 0 0 
0.302938 -0.937649 0 0.289817 -0.973312 0 0.0640225 -0.661275 0 
0 0 0 0 0 0 0 0 0 
0 0 0 0 0 0 0 0 0 
0 0 0 0 0 0 0 0 0 
0 0 0 -0.295537 -0.905236 0 -0.177289 -0.867019 0 
-0.30266 -0.943919 0 0 0 0 0 0 0 
0 0 0 0 0 0 0 0 0 
0 0 0 0 0 0 0 0 0 
0 0 0 0 0 0 0 0 0 
0 0 0 0 0 0 0 0 0 
0 0 0 0 0 0 0 0 0 
0 0 0 0 0 0 0 0 0 
-0.105369 -1.09283 0 -0.119969 -1.07514 0 0 0 0 
0 0 0 0 0 0 0 0 0 
0 0 0 0 0 0 0 0 0 
0 0 0 0 0 0 0 0 0 
-0.237797 -0.993829 0 -0.308782 -0.939783 0 0 0 0 
0 0 0 0 0 0 0 0 0 
0 0 0 0 0 0 0 0 0 
0 0 0 0 0 0 0 0 0 
0 0 0 0 0 0 0 0 0 
0 0 0 0 0 0 0 0 0 
0 0 0 0 0 0 0 0 0 
0 0 0 0.231879 -0.786323 0 -0.204084 -1.06711 0 
-0.100056 -0.876574 0 -0.124046 -0.847963 0 0 0 0 
0 0 0 0 0 0 0 0 0 
0 0 0 0 0 0 0 0 0 
0 0 0 0 0 0 0 0 0 
-0.257303 -0.830802 0 -0.288624 -0.992981 0 0 0 0 
0 0 0 0 0 0 0 0 0 
0 0 0 0 0 0 0 0 0 
0 0 0 0 0 0 0 0 0 
0 0 0 0 0 0 0 0 0 
0 0 0 0 0 0 0 0 0 
0 0 0 0 0 0 0 0 0 
0 0 0 -0.256073 -0.936163 0 0 0 0 
0 0 0 0 0 0 0 0 0 
0 0 0 0 0 0 0 0 0 
0 0 0 0 0 0 0 0 0 
-0.307816 -1.01432 0 0 0 0 0 0 0 
0 0 0 0 0 0 0 0 0 
0 0 0 0 0 0 0 0 0 
0 0 0 0 0 0 0 0 0 
0 0 0 0 0 0 0 0 0 
0 0 0 0 0 0 0 0 0 
0 0 0 0 0 0 0 0 0 
0.213505 -0.723835 0 -0.0654988 -1.01569 0 -0.251905 -0.903256 0 
-0.187169 -1.18528 0 0 0 0 0 0 0 
0 0 0 0 0 0 0 0 0 
0 0 0 0 0 0 0 0 0 
0 0 0 0 0 0 0 0 0 
0 0 0 0 0 0 0 0 0 
0 0 0 0 0 0 0 0 0 
0 0 0 0 0 0 0 0 0 
0 0 0 0 0 0 0 0 0 
0 0 0 0 0 0 0 0 0 
0 0 0 0 0 0 0 0 0 
0 0 0 -0.178081 -0.917767 0 0 0 0 
0 0 0 0 0 0 0 0 0 
0 0 0 0 0 0 0 0 0 
0 0 0 0 0 0 0 0 0 
0 0 0 0 0 0 0 0 0 
0 0 0 0 0 0 0 0 0 
0 0 0 0 0 0 0 0 0 
0 0 0 0 0 0 0 0 0 
0 0 0 0 0 0 0 0 0 
-0.809121 0.0122403 0 0 0 0 -0.851973 0.0251579 0 
0 0 0 0 0 0 0 0 0 
0 0 0 0 0 0 0 0 0 
0 0 0 0 0 0 0 0 0 
0 0 0 0 0 0 0 0 0 
0 0 0 0 0 0 0 0 0 
0 0 0 0 0 0 0 0 0 
0 0 0 0 0 0 0 0 0 
0 0 0 0 0 0 0 0 0 
0 0 0 0 0 0 0 0 0 
0 0 0 0 0 0 0 0 0 
0 0 0 0 0 0 0 0 0 
0 0 0 0 0 0 0 0 0 
0 0 0 0 0 0 0 0 0 
0 0 0 0 0 0 0 0 0 
0 0 0 0 0 0 0 0 0 
0 0 0 0 0 0 0 0 0 
0 0 0 0 0 0 0 0 0 
0 0 0 0 0 0 0 0 0 
0 0 0 0 0 0 0 0 0 
0 0 0 0 0 0 0 0 0 
0 0 0 0 0 0 0 0 0 
0 0 0 0 0 0 0.870893 0.0146586 0 
0 0 0 0 0 0 0 0 0 
0 0 0 0 0 0 0 0 0 
0 0 0 0.461152 -0.647682 0 0.405071 -0.593753 0 
0 0 0 -0.076393 -0.947583 0 -0.113321 -0.941025 0 
0 0 0 0 0 0 0 0 0 
0 0 0 0 0 0 0 0 0 
0 0 0 0 0 0 0 0 0 
0 0 0 -0.800499 0.00848336 0 0.605104 0.0672215 0 
-0.200694 -0.939495 0 0 0 0 0 0 0 
0 0 0 0 0 0 0 0 0 
0 0 0 0 0 0 0 0 0 
0 0 0 0 0 0 0 0 0 
0 0 0 0 0 0 0 0 0 
0 0 0 0 0 0 0 0 0 
0 0 0 0 0 0 0 0 0 
0 0 0 0 0 0 0 0 0 
0 0 0 0 0 0 0 0 0 
0 0 0 0 0 0 0 0 0 
0 0 0 0 0 0 0 0 0 
0 0 0 0 0 0 0 0 0 
0 0 0 0 0 0 0 0 0 
0 0 0 0 0 0 0 0 0 
0 0 0 0 0 0 0 0 0 
0 0 0 0 0 0 0 0 0 
0 0 0 0 0 0 0 0 0 
0 0 0 0 0 0 0 0 0 
0 0 0 0 0 0 0 0 0 
0 0 0 0 0 0 0 0 0 
0 0 0 0 0 0 0 0 0 
0 0 0 0 0 0 0 0 0 
0 0 0 0 0 0 0 0 0 
0 0 0 0 0 0 0 0 0 
0 0 0 0 0 0 0 0 0 
0 0 0 0 0 0 0 0 0 
0 0 0 0 0 0 0 0 0 
0 0 0 0 0 0 0 0 0 
0 0 0 0 0 0 0 0 0 
0 0 0 0 0 0 0 0 0 
0 0 0 0 0 0 0 0 0 
0 0 0 0 0 0 0 0 0 
0 0 0 0 0 0 0 0 0 
0 0 0 0 0 0 0 0 0 
0 0 0 0 0 0 0 0 0 
0 0 0 0 0 0 0 0 0 
0 0 0 0 0 0 0 0 0 
0 0 0 0 0 0 0 0 0 
0 0 0 0 0 0 0 0 0 
0 0 0 0 0 0 0 0 0 
0 0 0 0 0 0 0 0 0 
0 0 0 0 0 0 0 0 0 
0 0 0 0 0 0 0 0 0 
0 0 0 0 0 0 0 0 0 
0 0 0 0 0 0 0 0 0 
0 0 0 0 0 0 0 0 0 
0 0 0 0 0 0 0 0 0 
0 0 0 0 0 0 0 0 0 
0 0 0 0 0 0 0 0 0 
0 0 0 0 0 0 0 0 0 
0 0 0 0 0 0 0 0 0 
0 0 0 0 0 0 0 0 0 
0 0 0 0 0 0 0.642299 -0.606501 0 
0.37005 -0.848082 0 0 0 0 0 0 0 
0 0 0 0 0 0 0 0 0 
0 0 0 0 0 0 0 0 0 
0 0 0 0 0 0 0 0 0 
0 0 0 0 0 0 0 0 0 
0 0 0 0 0 0 0 0 0 
0 0 0 0 0 0 0 0 0 
0 0 0 0 0 0 0 0 0 
0 0 0 0 0 0 0 0 0 
0 0 0 0 0 0 0 0 0 
0 0 0 0 0 0 0 0 0 
0.512639 -0.539292 0 0 0 0 0 0 0 
0 0 0 0 0 0 0 0 0 
0 0 0 0 0 0 0 0 0 
0 0 0 0 0 0 0 0 0 
0 0 0 0 0 0 0 0 0 
0 0 0 0 0 0 0 0 0 
0 0 0 0 0 0 0 0 0 
0 0 0 0 0 0 0 0 0 
0 0 0 0 0 0 0.487816 -0.514139 0 
0 0 0 0 0 0 0 0 0 
0 0 0 0 0 0 0 0 0 
0 0 0 0 0 0 0 0 0 
0 0 0 0 0 0 0 0 0 
0 0 0 0 0 0 0 0 0 
0 0 0 0 0 0 0 0 0 
0 0 0 0 0 0 0 0 0 
0 0 0 0 0 0 0 0 0 
0 0 0 0.474765 -0.498826 0 0 0 0 
0 0 0 0 0 0 0 0 0 
0 0 0 0 0 0 0 0 0 
0 0 0 0 0 0 0 0 0 
0 0 0 0 0 0 0 0 0 
0 0 0 0 0 0 0 0 0 
0 0 0 0 0 0 0 0 0 
0 0 0 0.566418 -0.421538 0 0 0 0 
0 0 0 0 0 0 0 0 0 
0 0 0 0 0 0 0 0 0 
0 0 0 0 0 0 0 0 0 
0 0 0 0 0 0 0 0 0 
0 0 0 0 0 0 0 0 0 
0 0 0 0 0 0 0 0 0 
0 0 0 0 0 0 0 0 0 
0 0 0 0 0 0 0 0 0 
0 0 0 0 0 0 0 0 0 
0 0 0 0 0 0 0 0 0 
0 0 0 0 0 0 0 0 0 
0 0 0 0 0 0 0 0 0 
0 0 0 0 0 0 0 0 0 
0 0 0 0 0 0 0 0 0 
0 0 0 0 0 0 0 0 0 
0 0 0 0 0 0 0 0 0 
0 0 0 0 0 0 0 0 0 
0 0 0 0 0 0 0 0 0 
0 0 0 0 0 0 0 0 0 
0 0 0 0 0 0 0 0 0 
0 0 0 0 0 0 0 0 0 
0 0 0 0 0 0 0 0 0 
0 0 0 0 0 0 0 0 0 
0 0 0 0 0 0 0 0 0 
0 0 0 0 0 0 0 0 0 
0 0 0 0 0 0 0 0 0 
0 0 0 0 0 0 0 0 0 
0 0 0 0 0 0 0 0 0 
0 0 0 0 0 0 0 0 0 
0 0 0 0 0 0 0 0 0 
0 0 0 0 0 0 0 0 0 
0 0 0 0 0 0 0 0 0 
0 0 0 0 0 0 0 0 0 
0 0 0 0 0 0 0 0 0 
0 0 0 0 0 0 0 0 0 
0 0 0 0 0 0 0 0 0 
0 0 0 0 0 0 0 0 0 
0 0 0 0 0 0 0 0 0 
0 0 0 0 0 0 0 0 0 
0 0 0 0 0 0 0 0 0 
0 0 0 0 0 0 0 0 0 
0 0 0 0 0 0 0 0 0 
0 0 0 0 0 0 0 0 0 
0 0 0 0 0 0 0 0 0 
0 0 0 0 0 0 0 0 0 
0 0 0 0 0 0 0 0 0 
0 0 0 0 0 0 0 0 0 
0 0 0 0 0 0 0 0 0 
0 0 0 0 0 0 0 0 0 
0 0 0 0 0 0 0 0 0 
0 0 0 0 0 0 0 0 0 
0 0 0 0 0 0 0 0 0 
0 0 0 0 0 0 0 0 0 
0 0 0 0 0 0 0 0 0 
0 0 0 0 0 0 0 0 0 
0 0 0 0 0 0 0 0 0 
0 0 0 0 0 0 0 0 0 
0 0 0 0 0 0 0 0 0 
0 0 0 0 0 0 0 0 0 
0 0 0 0 0 0 0 0 0 
0 0 0 0 0 0 
x 1 1049 double
-0.433457 0.0519296 -0.93456 -0.414922 0.0336589 0.534563 0.21704 0.761594 -2.46829 
-1.79745 1.89981 1.26704 1.99522 2.49501 -3.20957 2.99798 3.15124 -4.73378 
-4.55168 -3.94389 -2.96386 3.87801 4.45069 -6.6847 -5.97555 -5.13137 -7.78441 
-7.46545 -6.83529 -5.9195 6.50768 -9.48878 -8.81653 -7.45718 -6.57783 7.52182 
8.07843 -10.1407 -9.05759 -9.21274 -8.19915 9.04496 9.76727 9.70543 10.398 
-10.8094 -10.0765 -9.46965 9.1155 10.2854 10.718 11.3334 -11.8866 -11.1859 
-11.7809 11.6406 11.5046 12.1074 -15 -14.4643 -14.6429 -14.2857 -15 
-15 -14.8214 -15 -14.1071 -15 -13.5714 -13.3929 -13.9286 -13.0357 
-13.75 -13.2143 -12.6786 -12.2327 -12.5 -12.0802 -12.8571 -11.5 -11.6025 
-11.1429 -11.6927 -11.3214 -10.9643 -10.6071 -10.4286 -10.0714 -10.7857 -10.25 
-9.8929 -9.1786 -9.3571 -9.7143 -9.5357 -8.2 -8.6 -9 -9 
-9 -9 -9 -8.4 -8.8 -8 -7.4 -7.8 -7.2 
-7.6 -6.6 -7 -6.2 -6.4 -6.8 -5.8 -5.2 -5.6 
-5.4 -6 -4.2 -4.4 -5 -4.6 -4.8 -3.2 -4 
-3.6 -3.4 -3.8 -2.6 -2.8 -2.4 -3 -3 -3 
-2.2 -3 -3 -1.6 -1.2 -2 -1.4 -1.8 -0.8 
-0.6 -0.4 -0.2 -1 0.8 0.6 0.4 0.2 -0 
1.4 1.8 1.6 1 1.2 2.2 2.6 2.8 2 
2.4 3 3 3 3.4 3.2 3 3.8 3 
3.6 4.6 4.8 4 4.2 4.4 5.8 5.4 5.2 
5.6 5 6.8 6.6 6 6.2 6.4 7 7.6 
7.2 7.4 7.8 8.2 8 8.6 8.8 8.4 9.7143 
9.8929 9 9 9.3571 9 9.5357 9.1786 9 9 
10.0714 10.7857 10.25 10.4286 10.9643 10.6071 11.3214 11.1429 11.6521 
11.7352 11.2266 11.5 12.1849 12.5 12.6786 12.8571 12.1247 12.6497 
12.5506 13.5714 13.2143 13.75 13.9286 13.0357 13.3929 14.2857 14.6429 
14.4643 14.1071 14.8214 15 15 15 15 15 -15 
-15 -15 -15 -15 -12.2109 -12.0231 -11.4443 -9 -9 
-9 -9 -9 -3 -3 -3 -3 -3 3 
3 3 3 3 9 9 9 9 9 
10.9268 11.8294 11.2537 11.5504 12.0787 12.7965 12.5019 15 15 
15 15 15 -15 -15 -15 -15 -15 -11.6419 
-11.3411 -9 -9 -9 -9 -9 -3 -3 -3 
-3 -3 3 3 3 3 3 9 9 
9 9 9 11.0913 11.6596 12.5178 15 15 15 
15 15 -15 -15 -15 -15 -15 -11.5085 -10.6224 
-10.9287 -9 -9 -9 -9 -9 -3 -3 -3 
-3 -3 3 3 3 3 3 9 9 
9 9 9 12.2747 12.4341 15 15 15 15 
15 -15 -15 -15 -15 -15 -10.3753 -10.7465 -9 
-9 -9 -9 -9 -3 -3 -3 -3 -3 
3 3 3 3 3 9 9 9 9 
9 10.5616 12.353 13.1092 13.5111 15 15 15 15 
15 -15 -15 -15 -15 -15 -11.0187 -10.3647 -9 
-9 -9 -9 -9 -3 -3 -3 -3 -3 
3 3 3 3 3 9 9 9 9 
9 12.8975 15 15 15 15 15 -15 -15 
-15 -15 -15 -10.0374 -9 -9 -9 -9 -9 
-3 -3 -3 -3 -3 3 3 3 3 
3 9 9 9 9 9 10.1442 12.9456 12.6232 
13.3407 15 15 15 15 15 -15 -15 -15 
-15 -15 -9 -9 -9 -9 -9 -3 -3 
-3 -3 -3 3 3 3 3 3 9 
9 9 9 9 12.9964 15 15 15 15 
15 -15 -15 -15 -15 -15 -8.2857 -8.8214 -8.1071 
-9 -8.6429 -8.4643 -7.5714 -7.75 -7.2143 -7.3929 -7.0357 -7.9286 
-6.5 -6.6786 -6.8571 -6.30099 -5.3214 -5.36389 -5.5 -5.1429 -4.9643 
-4.0714 -4.6071 -4.4286 -4.25 -4.7857 -3.8929 -3.5357 -3.7143 -3.1786 
-3.3571 -2.4643 -2.1071 -3 -2.8214 -2.2857 -2.6429 -1.2143 -1.5714 
-1.9286 -1.3929 -1.0357 -1.75 -0.6786 -0.5 -0.8571 0.8571 0.5 
0.6786 1.5714 1.9286 1.3929 1.75 1.2143 1.0357 2.6429 2.4643 
2.2857 2.8214 2.1071 3.3571 3.5357 3 3.8929 3.1786 3.7143 
4.9643 4.6071 4.25 4.0714 4.7857 4.4286 5.1429 5.3214 5.5 
6.5 6.6786 6.8571 7.9286 7.2143 7.5714 7.3929 7.0357 7.25052 
7.75 8.4643 8.2857 8.1071 8.6429 8.8214 9 9.09905 9.44752 
9 13.5252 13.5135 15 15 15 15 15 -15 
-15 -15 -15 -15 -6.89864 8.53929 13.3968 15 15 
15 15 15 -15 -15 -14.1667 -15 -14.3333 -15 
-14.6667 -15 -14.5 -14.8333 -14 -12.6 -12.8 -12.4 -12.2 
-13 -11.8 -12 -11.6 -11.4 -11.2 -10.8 -10.4 -10.2 
-11 -10.6 -10 -9.2 -9.6 -9.4 -9.8 -9 -9 
-8.6429 -8.2857 -8.8214 -8.4643 -8.1071 -9 -9 -9 -7.3929 
-7.0357 -7.5714 -7.9286 -7.75 -7.2143 -6.5 -6.6786 -6.8571 -5.1429 
-5.5 -5.3214 -4.0714 -4.9643 -4.6071 -4.4286 -4.7857 -4.25 -3.7143 
-3.8929 -3.3571 -3.1786 -3.5357 -2.8 -3 -2.2 -2.4 -3 
-3 -3 -2.6 -3 -1.6 -1.8 -1.2 -2 -1.4 
-1 -0.6 -0.8 -0.2 -0.4 0.8 0.2 0.6 0.4 
-0 1.8 1.4 1.2 1.6 1 2.6 2.2 2.8 
2.4 2 3.2 3.8 3.4 3 3.6 4.2 4.4 
4.8 4.6 4 5.4 5.2 5.8 5.6 5 6 
6.4 6.2 6.6 6.8 7.4 7 7.8 7.6 7.2 
8.6 8 8.8 8.2 8.4 9.2 9 9.4 9.8 
9 9 9 9 9.6 10.6 10.4 10.8 10.2 
10 11.2 11 11.4 11.6 11.8 12.8 12.4 12.2 
12 12.6 13.0649 13.4811 13 14.3333 14.8333 14.5 14 
14.6667 14.1667 15 15 15 15 15 -15 -15 
-15 -15 -15 -9 -9 -9 -9 -9 -3 
-3 -3 -3 -3 9 9 9 9 9 
12.0167 15 15 15 15 15 -15 -15 -15 
-15 -15 -9 -9 -9 -9 -9 -3 -3 
-3 -3 -3 9 9 9 9 9 11.2738 
15 15 15 15 15 -15 -15 -15 -15 
-15 -9 -9 -9 -9 -9 -3 -3 -3 
-3 -3 9 9 9 9 9 10.0267 15 
15 15 15 15 -15 -15 -15 -15 -15 
-9 -9 -9 -9 -9 -3 -3 -3 -3 
-3 9.31823 9 15 15 15 15 15 -15 
-15 -15 -15 -15 -9 -9 -9 -9 -9 
-3 -3 -3 -3 -3 9 9 9 9 
9 9 15 15 15 15 15 -14.4 -14.2 
-14.8 -14.6 -15 -13.4 -13.6 -13.2 -14 -13.8 -12.4 
-13 -12.6 -12.2 -12.8 -11.4 -11.6 -11.2 -12 -11.8 
-10.6 -11 -10.2 -10.4 -10.8 -9.4 -9.8 -10 -9.2 
-9.6 -8.8 -8.2 -8.4 -8.6 -9 -8 -7.4 -7.2 
-7.6 -7.8 -6.8 -6.2 -6.6 -7 -6.4 -5.2 -5.8 
-6 -5.4 -5.6 -5 -4.6 -4.2 -4.4 -4.8 -3.8 
-3.6 -3.4 -3.2 -4 -3 -2.6 -2.8 -2.4 -2.2 
-1.4 -1.6 -1.8 -1.2 -2 -0.6 -0.8 -0.4 -1 
-0.2 0.4 -0 0.6 0.8 0.2 1.2 1.4 1.8 
1 1.6 2.8 2 2.2 2.6 2.4 3.2 3.4 
3 3.6 3.8 4 4.2 4.4 4.6 4.8 5 
5.6 5.8 5.4 5.2 6.4 6.8 6.6 6.2 6 
7.4 7 7.6 7.8 7.2 8 8.8 8.2 8.4 
8.6 9 9.2 9.8 9.4 9.6 10 10.2 10.4 
10.6 10.8 11.4 11.8 11 11.6 11.2 12.4 12.8 
12.6 12.2 12 13.8 13.2 13.4 13.6 13 14.8 
14 14.2 14.4 14.6 15 
y 1 1049 double
-10.3618 -10.1706 -9.37678 -9.81677 -9.69406 -9.9513 -9.28342 -9.42691 -8.00459 
-8.39901 -8.23662 -8.72022 -8.86702 -8.56965 -7.38434 -7.3916 -7.97606 -6.91413 
-6.05697 -6.65861 -6.72688 -6.79494 -6.46432 -5.09639 -5.23597 -5.92111 -4.28057 
-4.95636 -4.46999 -4.53697 -4.69747 -3.29454 -3.16094 -3.67424 -3.93274 -3.64595 
-3.6965 -2.34991 -2.24697 -2.76788 -2.84138 -2.51633 -2.71339 -2.12498 -2.50953 
-1.59102 -1.62042 -1.92013 -1.93645 -1.6001 -1.10754 -1.49244 -0.902895 -0.904765 
-0.284001 -0.984433 -0.418632 -0.20858 0.2 0 0 0 0.8 
0 0 0.6 0 0.4 0 0 0 0 
0 0 0 0.234043 0 0.746856 0 0 0.886615 
0 0.34646 0 0 0 0 0 0 0 
0 0 0 0 0 0 0 0.4 0.2 
0.8 0.6 0 0 0 0 0 0 0 
0 0 0 0 0 0 0 0 0 
0 0 0 0 0 0 0 0 0 
0 0 0 0 0 0 0 0.2 0.6 
0 0.4 0.8 0 0 0 0 0 0 
0 0 0 0 0 0 0 0 0 
0 0 0 0 0 0 0 0 0 
0 0 0.2 0.4 0 0 0.8 0 0.6 
0 0 0 0 0 0 0 0 0 
0 0 0 0 0 0 0 0 0 
0 0 0 0 0 0 0 0 0 
0 0.4 0.6 0 0 0 0 0.8 0.2 
0 0 0 0 0 0 0 0 0.731457 
0.189807 0.37791 0 0.933515 0 0 0 0.410727 0.295157 
0.692302 0 0 0 0 0 0 0 0 
0 0 0 0.6 0 0.4 0.2 0.8 1.2 
1.4 1 1.6 1.8 1.31007 1.83978 1.38895 1 1.8 
1.6 1.4 1.2 1.4 1 1.2 1.6 1.8 1.8 
1.4 1 1.2 1.6 1.2 1 1.4 1.6 1.8 
1.8216 1.29371 1.34164 1.89728 1.78758 1.07729 1.50971 1.8 1.4 
1.2 1 1.6 2 2.4 2.6 2.2 2.8 2.23472 
2.70385 2.4 2.8 2.6 2 2.2 2.8 2 2.2 
2.6 2.4 2 2.6 2.2 2.4 2.8 2.8 2.2 
2.4 2 2.6 2.40075 2.47853 2.02911 2.2 2.8 2.6 
2.4 2 3 3.6 3.4 3.8 3.2 3.64764 3.08628 
3.58764 3.4 3.2 3 3.6 3.8 3.8 3.2 3.4 
3 3.6 3.2 3.6 3.8 3 3.4 3 3.8 
3.2 3.6 3.4 3.32565 3.90503 3.2 3.6 3 3.8 
3.4 4.4 4.2 4.8 4.6 4 4.65105 4.17593 4.8 
4 4.2 4.4 4.6 4.8 4.4 4.2 4.6 4 
4 4.2 4.6 4.4 4.8 4.2 4.8 4.4 4.6 
4 4.87764 4.80356 4.47129 4.90391 4.8 4.4 4.2 4.6 
4 5.6 5.8 5.2 5.4 5 5.30882 5.26676 5 
5.6 5.4 5.8 5.2 5.2 5.4 5.6 5 5.8 
5.6 5.2 5 5.4 5.8 5.4 5.2 5.6 5.8 
5 5.0151 5.6 5.8 5.2 5 5.4 6.2 6.8 
6.6 6 6.4 6.46715 6.4 6 6.2 6.8 6.6 
6.4 6.2 6.8 6 6.6 6 6.6 6.4 6.2 
6.8 6 6.4 6.2 6.8 6.6 6.2916 6.70893 6.18192 
6.03745 6.6 6 6.2 6.4 6.8 7.2 7.6 7.4 
7.8 7 7 7.6 7.2 7.8 7.4 7.4 7 
7.6 7.8 7.2 7.4 7.2 7 7.6 7.8 7.6 
7.4 7.8 7.2 7 7.82161 7.6 7.2 7.8 7 
7.4 8.6 8 8.2 8.4 8.8 8 8 8 
8 8 8 8 8 8 8 8 8 
8 8 8 8.95912 8 8.94962 8 8 8 
8 8 8 8 8 8 8 8 8 
8 8 8 8 8 8 8 8 8 
8 8 8 8 8 8 8 8 8 
8 8 8 8 8 8 8 8 8 
8 8 8 8 8 8 8 8 8 
8 8 8 8 8 8 8 8 8 
8 8 8 8 8 8 8 8 8.98494 
8 8 8 8 8 8 8 8.86651 8.16318 
8 8.11987 8.71632 8.8 8 8.2 8.6 8.4 9.4 
9 9.2 9.6 9.8 9.00073 9.00489 9.35078 9.2 9.8 
9 9.4 9.6 10.4 10.2 10 10.6 10 10 
10 10.8 10 10 10 10 10 10 10 
10 10 10 10 10 10 10 10 10 
10 10 10 10 10 10 10 10.6 10.4 
10 10 10 10 10 10.2 10.8 10 10 
10 10 10 10 10 10 10 10 10 
10 10 10 10 10 10 10 10 10 
10 10 10 10 10 10.2 10 10 10 
10.6 10.8 10 10.4 10 10 10 10 10 
10 10 10 10 10 10 10 10 10 
10 10 10 10 10 10 10 10 10 
10 10 10 10 10 10 10 10 10 
10 10 10 10 10 10 10 10 10 
10 10 10 10 10 10 10 10 10 
10 10 10 10 10 10 10.2 10 10 
10.4 10.6 10.8 10 10 10 10 10 10 
10 10 10 10 10 10 10 10 10 
10 10 10.5127 10.0526 10 10 10 10 10 
10 10 10.2 10.4 10.8 10.6 10 11.8 11 
11.4 11.2 11.6 11.4 11.6 11 11.2 11.8 11 
11.4 11.2 11.8 11.6 11.2 11.6 11.8 11.4 11 
11.5604 11 11.2 11.8 11.6 11.4 12.6 12.4 12.2 
12 12.8 12 12.6 12.8 12.4 12.2 12.6 12.4 
12 12.2 12.8 12 12.2 12.4 12.8 12.6 12.3464 
12.8 12.6 12.4 12 12.2 13 13.4 13.8 13.2 
13.6 13.6 13.4 13.2 13.8 13 13.4 13.8 13.2 
13 13.6 13.8 13.6 13.2 13.4 13 13.6669 13.4 
13.2 13.8 13 13.6 14.8 14.2 14.6 14.4 14 
14 14.8 14.6 14.4 14.2 14.4 14.6 14.8 14.2 
14 14.2949 14 14.8 14.4 14.2 14.6 14 15 
15.4 15.8 15.2 15.6 15.6 15.8 15.4 15 15.2 
15.8 15.2 15.4 15.6 15 15.3333 15 15.5 15.8333 
15.1667 15.6667 15.8 15 15.6 15.4 15.2 16 16 
16 16 16 16 16 16 16 16 16 
16 16 16 16 16 16 16 16 16 
16 16 16 16 16 16 16 16 16 
16 16 16 16 16 16 16 16 16 
16 16 16 16 16 16 16 16 16 
16 16 16 16 16 16 16 16 16 
16 16 16 16 16 16 16 16 16 
16 16 16 16 16 16 16 16 16 
16 16 16 16 16 16 16 16 16 
16 16 16 16 16 16 16 16 16 
16 16 16 16 16 16 16 16 16 
16 16 16 16 16 16 16 16 16 
16 16 16 16 16 16 16 16 16 
16 16 16 16 16 16 16 16 16 
16 16 16 16 16 16 16 16 16 
16 16 16 16 16 16 16 16 16 
16 16 16 16 16 
