# vtk DataFile Version 4.0
vtk output
ASCII
DATASET POLYDATA
FIELD FieldData 4
domain 1 4 string
domain_min:-40|-40
domain_max:40|40
cell_size:1|1
boundary:0|0

variables 1 5 string
T:12.4
dt:0.01
write_case:1
substeps:10
all_steps:1240

constants 1 17 string
L:40
c_s:1
dx:1
k:1000
d1:-13.5|10
d2:-6|10
d3:9|14.5
d4:13.5|10
d5:-6|8
d6:0|8
d7:6|8
d8:-9|9
d9:9|9
d10:-12|0
d11:12|0
d12:0|-10
R_w:0.1

equations 1 18 string
time:T=(T+dt)#true
pos_x:x=elem(r,0,0)#eq(gid,1)
pos_y:y=elem(r,1,0)#eq(gid,1)
wp_1:p0=if(and(lt(x,(-9)),gt(y,10)),d1,p0)#eq(gid,1)
wp_2:p0=if(and(and(gt(x,(-9)),lt(x,(-3))),gt(y,10)),d2,p0)#eq(gid,1)
wp_3:p0=if(and(and(gt(x,(-3)),lt(x,9)),gt(y,10)),d3,p0)#eq(gid,1)
wp_4:p0=if(and(gt(x,9),gt(y,10)),d4,p0)#eq(gid,1)
wp_5:p0=if(and(and(gt(x,(-9)),lt(x,(-3))),lt(y,8)),d5,p0)#eq(gid,1)
wp_6:p0=if(and(and(gt(x,(-3)),lt(x,3)),lt(y,8)),d6,p0)#eq(gid,1)
wp_7:p0=if(and(and(gt(x,3),lt(x,9)),lt(y,8)),d7,p0)#eq(gid,1)
wp_8:p0=if(and(and(gt(x,(-9)),lt(x,0)),and(gt(y,8),lt(y,10))),d8,p0)#eq(gid,1)
wp_9:p0=if(and(and(gt(x,0),lt(x,9)),and(gt(y,8),lt(y,10))),d9,p0)#eq(gid,1)
wp_10:p0=if(and(lt(x,(-9)),lt(y,10)),d10,p0)#eq(gid,1)
wp_11:p0=if(and(gt(x,9),lt(y,10)),d11,p0)#eq(gid,1)
wp_12:p0=if(lt(y,0),d12,p0)#eq(gid,1)
acceleration:v=sfm(v,p0,v0,m,R,A,B,k,c,tau)#eq(gid,1)
velocity:v=euler(v,a,dt)#eq(gid,1)
position:r=euler(r,v,dt)#eq(gid,1)

POINTS 1049 float
-2.69405 -8.15133 0 -2.09202 -8.05021 0 1.77405 -8.55218 0 
-2.87554 -7.49377 0 4.33977 -6.20168 0 5.43563 -6.10877 0 
-5.97127 -5.70362 0 -5.46488 -5.3589 0 4.63099 -5.68829 0 
5.96543 -5.80641 0 5.23275 -5.48186 0 7.01486 -5.08704 0 
-7.70205 -4.42626 0 -6.40261 -4.26398 0 6.05642 -4.84915 0 
6.73614 -4.44812 0 -8.26707 -3.27726 0 -7.59592 -3.78474 0 
-6.91574 -3.99636 0 7.56145 -3.80466 0 -9.29622 -2.4474 0 
-8.80285 -2.77132 0 8.85846 -2.76294 0 9.41541 -2.41289 0 
-11.3409 -1.55189 0 -10.0372 -1.97208 0 -10.4953 -1.50948 0 
10.4437 -1.49035 0 -12.1316 -0.0344307 0 -11.6587 -0.284928 0 
-11.4644 -0.792043 0 -10.8489 -0.974781 0 11.8177 -0.205433 0 
-14.1071 0 0 -14.4643 0 0 -15 0.8 0 
-14.8214 0 0 -14.2857 0 0 -15 0.6 0 
-15 0.2 0 -15 0.4 0 -14.6429 0 0 
-15 0 0 -13.3929 0 0 -13.2143 0 0 
-13.9286 0 0 -13.0357 0 0 -13.75 0 0 
-13.5714 0 0 -12.0089 0.905362 0 -12.5551 0.981956 0 
-12.5 0 0 -12.8571 0 0 -12.6786 0 0 
-12.3473 0.490336 0 -11.7781 0.356518 0 -11.3214 0 0 
-11.5 0 0 -11.1429 0 0 -11.4806 0.834226 0 
-10.9643 0 0 -10.25 0 0 -10.7857 0 0 
-10.0714 0 0 -10.4286 0 0 -10.6071 0 0 
-9.7143 0 0 -9.1786 0 0 -9.3571 0 0 
-9.5357 0 0 -9.8929 0 0 -9 0.8 0 
-8.2 0 0 -8.6 0 0 -9 0.2 0 
-8.4 0 0 -9 0 0 -8.8 0 0 
-9 0.6 0 -9 0.4 0 -7.4 0 0 
-7.2 0 0 -8 0 0 -7.8 0 0 
-7.6 0 0 -6.8 0 0 -7 0 0 
-6.4 0 0 -6.2 0 0 -6.6 0 0 
-5.8 0 0 -5.6 0 0 -6 0 0 
-5.2 0 0 -5.4 0 0 -4.2 0 0 
-4.8 0 0 -4.4 0 0 -4.6 0 0 
-5 0 0 -3.2 0 0 -3.4 0 0 
-3.6 0 0 -4 0 0 -3.8 0 0 
-2.4 0 0 -2.2 0 0 -2.6 0 0 
-3 0.4 0 -3 0 0 -3 0.6 0 
-3 0.8 0 -2.8 0 0 -3 0.2 0 
-1.8 0 0 -1.6 0 0 -2 0 0 
-1.4 0 0 -1.2 0 0 -0.4 0 0 
-1 0 0 -0.8 0 0 -0.6 0 0 
-0.2 0 0 0.2 0 0 0.6 0 0 
-0 0 0 0.8 0 0 0.4 0 0 
1.2 0 0 1 0 0 1.4 0 0 
1.6 0 0 1.8 0 0 2.6 0 0 
2 0 0 2.4 0 0 2.8 0 0 
2.2 0 0 3 0 0 3 0.8 0 
3.6 0 0 3.8 0 0 3 0.4 0 
3 0.6 0 3.4 0 0 3.2 0 0 
3 0.2 0 4.6 0 0 4.2 0 0 
4 0 0 4.8 0 0 4.4 0 0 
5.8 0 0 5.6 0 0 5.4 0 0 
5 0 0 5.2 0 0 6.2 0 0 
6.6 0 0 6 0 0 6.4 0 0 
6.8 0 0 7 0 0 7.8 0 0 
7.2 0 0 7.6 0 0 7.4 0 0 
8.6 0 0 8.2 0 0 8.8 0 0 
8.4 0 0 8 0 0 9.3571 0 0 
9.7143 0 0 9 0 0 9.8929 0 0 
9.5357 0 0 9 0.8 0 9 0.4 0 
9.1786 0 0 9 0.2 0 9 0.6 0 
10.4286 0 0 10.9643 0 0 10.25 0 0 
10.7857 0 0 10.0714 0 0 10.6071 0 0 
11.1429 0 0 11.968 0.413942 0 11.4711 0.572561 0 
11.5 0 0 11.3214 0 0 12.5 0 0 
12.6786 0 0 12.8571 0 0 12.4898 0.526253 0 
13.75 0 0 13.2143 0 0 13.9286 0 0 
13.5714 0 0 13.0357 0 0 13.3929 0 0 
14.4643 0 0 14.8214 0 0 14.6429 0 0 
14.2857 0 0 14.1071 0 0 15 0 0 
15 0.6 0 15 0.2 0 15 0.4 0 
15 0.8 0 -15 1.2 0 -15 1.4 0 
-15 1.6 0 -15 1 0 -15 1.8 0 
-12.4153 1.78172 0 -11.9897 1.43053 0 -11.497 1.33933 0 
-9 1.4 0 -9 1.6 0 -9 1.8 0 
-9 1 0 -9 1.2 0 -3 1.8 0 
-3 1 0 -3 1.6 0 -3 1.2 0 
-3 1.4 0 3 1.4 0 3 1.8 0 
3 1.6 0 3 1 0 3 1.2 0 
9 1.2 0 9 1 0 9 1.4 0 
9 1.8 0 9 1.6 0 11.5339 1.72524 0 
11.3992 1.12773 0 11.9925 1.23469 0 12.3231 1.80882 0 
15 1.6 0 15 1.8 0 15 1.4 0 
15 1 0 15 1.2 0 -15 2.2 0 
-15 2.8 0 -15 2.6 0 -15 2 0 
-15 2.4 0 -9 2.8 0 -9 2.4 0 
-9 2.6 0 -9 2.2 0 -9 2 0 
-3 2.2 0 -3 2.6 0 -3 2.4 0 
-3 2 0 -3 2.8 0 3 2.2 0 
3 2 0 3 2.6 0 3 2.8 0 
3 2.4 0 9 2.8 0 9 2.6 0 
9 2.4 0 9 2.2 0 9 2 0 
11.3092 2.67386 0 12.3293 2.3729 0 15 2.2 0 
15 2.6 0 15 2.4 0 15 2.8 0 
15 2 0 -15 3.2 0 -15 3.8 0 
-15 3 0 -15 3.4 0 -15 3.6 0 
-12.5998 3.22528 0 -11.4497 3.41726 0 -10.8031 3.36622 0 
-9 3.2 0 -9 3.4 0 -9 3 0 
-9 3.8 0 -9 3.6 0 -3 3.8 0 
-3 3.2 0 -3 3.6 0 -3 3.4 0 
-3 3 0 3 3.2 0 3 3.4 0 
3 3.8 0 3 3.6 0 3 3 0 
9 3 0 9 3.4 0 9 3.6 0 
9 3.8 0 9 3.2 0 10.723 3.88944 0 
10.8129 3.09723 0 12.9064 3.54988 0 12.1759 3.9755 0 
15 3.8 0 15 3.2 0 15 3.6 0 
15 3 0 15 3.4 0 -15 4.8 0 
-15 4 0 -15 4.6 0 -15 4.2 0 
-15 4.4 0 -12.3665 4.79433 0 -11.065 4.61735 0 
-10.3281 4.56652 0 -10.6987 4.02333 0 -9 4.2 0 
-9 4 0 -9 4.8 0 -9 4.4 0 
-9 4.6 0 -3 4.6 0 -3 4.4 0 
-3 4.2 0 -3 4 0 -3 4.8 0 
3 4.6 0 3 4.4 0 3 4.8 0 
3 4.2 0 3 4 0 9 4.6 0 
9 4.4 0 9 4 0 9 4.2 0 
9 4.8 0 10.7947 4.58454 0 10.2823 4.86539 0 
11.3176 4.10183 0 12.8693 4.63823 0 15 4.6 0 
15 4.8 0 15 4 0 15 4.4 0 
15 4.2 0 -15 5.8 0 -15 5.6 0 
-15 5.4 0 -15 5.2 0 -15 5 0 
-11.3812 5.52107 0 -10.2167 5.44021 0 -10.7865 5.25656 0 
-9 5.4 0 -9 5.6 0 -9 5.2 0 
-9 5 0 -9 5.8 0 -3 5.6 0 
-3 5 0 -3 5.8 0 -3 5.4 0 
-3 5.2 0 3 5.4 0 3 5.6 0 
3 5.2 0 3 5 0 3 5.8 0 
9 5.6 0 9 5 0 9 5.2 0 
9 5.4 0 9 5.8 0 10.3752 5.41115 0 
10.8483 5.92983 0 12.5021 5.45939 0 12.9987 5.82512 0 
13.0848 5.3026 0 15 5.2 0 15 5.4 0 
15 5 0 15 5.6 0 15 5.8 0 
-15 6.2 0 -15 6.4 0 -15 6 0 
-15 6.8 0 -15 6.6 0 -10.575 6.43293 0 
-10.1879 6.85754 0 -9.90226 6.24975 0 -9 6.4 0 
-9 6.6 0 -9 6 0 -9 6.8 0 
-9 6.2 0 -3 6.4 0 -3 6.2 0 
-3 6.8 0 -3 6 0 -3 6.6 0 
3 6.8 0 3 6 0 3 6.4 0 
3 6.2 0 3 6.6 0 9 6.2 0 
9.71532 6.98975 0 9.94141 6.43155 0 9 6.4 0 
9 6 0 9 6.8 0 9 6.6 0 
10.3446 6.97422 0 10.7203 6.55205 0 15 6.2 0 
15 6.4 0 15 6 0 15 6.8 0 
15 6.6 0 -15 7.2 0 -15 7.6 0 
-15 7.8 0 -15 7.4 0 -15 7 0 
-10.0565 7.47208 0 -9.52919 7.75647 0 -9 7.4 0 
-9 7.6 0 -9 7.2 0 -9 7 0 
-9 7.8 0 -3 7.6 0 -3 7.2 0 
-3 7.4 0 -3 7.8 0 -3 7 0 
3 7 0 3 7.6 0 3 7.8 0 
3 7.2 0 3 7.4 0 9 7 0 
9 7.6 0 9.50403 7.89278 0 9 7.8 0 
9 7.4 0 9 7.2 0 10.0025 7.61369 0 
13.1316 7.41748 0 15 7.4 0 15 7 0 
15 7.6 0 15 7.8 0 15 7.2 0 
-15 8.8 0 -15 8.2 0 -15 8.4 0 
-15 8 0 -15 8.6 0 -9.92944 8.22767 0 
-9.348 8.32499 0 -8.6429 8 0 -8.2857 8 0 
-8.1071 8 0 -8.8214 8 0 -8.4643 8 0 
-8.90044 8.80077 0 -9 8 0 -7.0357 8 0 
-7.85609 8.97114 0 -7.3929 8 0 -7.75 8 0 
-7.2143 8 0 -7.5714 8 0 -7.9286 8 0 
-6.6786 8 0 -6.5 8 0 -6.26932 8.95217 0 
-6.8571 8 0 -5.1429 8 0 -5.3214 8 0 
-5.5 8 0 -4.6071 8 0 -4.9643 8 0 
-4.4286 8 0 -4.0714 8 0 -4.7857 8 0 
-4.25 8 0 -3.1786 8 0 -3.5357 8 0 
-3.8929 8 0 -3.3571 8 0 -3.7143 8 0 
-2.2857 8 0 -2.05651 8.74361 0 -2.4643 8 0 
-2.88346 8.863 0 -2.8214 8 0 -2.6429 8 0 
-2.1071 8 0 -3 8 0 -1.75 8 0 
-1.9286 8 0 -1.2143 8 0 -1.3929 8 0 
-1.5714 8 0 -1.0357 8 0 -0.5 8 0 
-0.88703 8.52817 0 -0.8571 8 0 -0.6786 8 0 
0.5 8 0 0.8571 8 0 0.6786 8 0 
1.9286 8 0 1.75 8 0 1.3929 8 0 
1.0357 8 0 1.2143 8 0 1.5714 8 0 
2.8214 8 0 2.1071 8 0 2.72925 8.81185 0 
2.4643 8 0 2.2857 8 0 2.6429 8 0 
3.7143 8 0 3 8 0 3.1786 8 0 
3.5357 8 0 3.3571 8 0 3.8929 8 0 
4.4286 8 0 4.7857 8 0 4.0714 8 0 
4.25 8 0 4.9643 8 0 4.16624 8.89721 0 
4.6071 8 0 5.5 8 0 5.1429 8 0 
5.3214 8 0 5.37577 8.96964 0 6.48179 8.47193 0 
6.6786 8 0 6.8571 8 0 6.5 8 0 
7.3929 8 0 7.0357 8 0 7.9286 8 0 
7.2143 8 0 7.75 8 0 7.5714 8 0 
8.1071 8 0 8.4643 8 0 8.2857 8 0 
8.6429 8 0 8.8214 8 0 8.0981 8.89573 0 
9 8 0 9 8 0 9.06402 8.81778 0 
13.1237 8.93922 0 13.6 8.57593 0 15 8.2 0 
15 8.4 0 15 8 0 15 8.6 0 
15 8.8 0 -15 9.4 0 -15 9.2 0 
-15 9.6 0 -15 9 0 -15 9.8 0 
-9.04474 9.29127 0 -8.43309 9.10602 0 13.4406 9.3851 0 
13.6719 9.90172 0 15 9.4 0 15 9 0 
15 9.8 0 15 9.2 0 15 9.6 0 
-14.8333 10 0 -15 10.8 0 -14.5 10 0 
-15 10.2 0 -15 10.4 0 -14.6667 10 0 
-14.1667 10 0 -15 10.6 0 -14.3333 10 0 
-15 10 0 -14 10 0 -12.8 10 0 
-12.6 10 0 -12.2 10 0 -12.4 10 0 
-13 10 0 -11.8 10 0 -11.4 10 0 
-11.2 10 0 -12 10 0 -11.6 10 0 
-10.4 10 0 -10.8 10 0 -11 10 0 
-10.2 10 0 -10.6 10 0 -10 10 0 
-9.8 10 0 -9.6 10 0 -9.2 10 0 
-9.4 10 0 -8.8214 10 0 -8.1071 10 0 
-9 10 0 -9 10.8 0 -9 10.6 0 
-9 10.2 0 -9 10.4 0 -8.2857 10 0 
-8.6429 10 0 -8.4643 10 0 -7.5714 10 0 
-7.0357 10 0 -7.3929 10 0 -7.75 10 0 
-7.9286 10 0 -7.2143 10 0 -6.5 10 0 
-6.6786 10 0 -6.8571 10 0 -5.1429 10 0 
-5.5 10 0 -5.3214 10 0 -4.25 10 0 
-4.4286 10 0 -4.7857 10 0 -4.9643 10 0 
-4.0714 10 0 -4.6071 10 0 -3.3571 10 0 
-3.1786 10 0 -3.7143 10 0 -3.8929 10 0 
-3.5357 10 0 -3 10.6 0 -2.4 10 0 
-2.2 10 0 -3 10.8 0 -2.6 10 0 
-3 10 0 -2.8 10 0 -3 10.2 0 
-3 10.4 0 -1.2 10 0 -1.8 10 0 
-1.4 10 0 -1.6 10 0 -2 10 0 
-0.4 10 0 -0.8 10 0 -0.2 10 0 
-1 10 0 -0.6 10 0 -0 10 0 
0.2 10 0 0.6 10 0 0.8 10 0 
0.4 10 0 1 10 0 1.2 10 0 
1.6 10 0 1.4 10 0 1.8 10 0 
2.8 10 0 2.2 10 0 2.6 10 0 
2.4 10 0 2 10 0 3.6 10 0 
3 10 0 3.4 10 0 3.2 10 0 
3.8 10 0 4.8 10 0 4.6 10 0 
4 10 0 4.4 10 0 4.2 10 0 
5.4 10 0 5.2 10 0 5 10 0 
5.6 10 0 5.8 10 0 6.6 10 0 
6.8 10 0 6.4 10 0 6 10 0 
6.2 10 0 7.8 10 0 7.4 10 0 
7.6 10 0 7.2 10 0 7 10 0 
8.6 10 0 8.4 10 0 8.2 10 0 
8 10 0 8.8 10 0 9.2 10 0 
9 10.6 0 9 10 0 9 10.4 0 
9.8 10 0 9.4 10 0 9 10.8 0 
9.6 10 0 9 10.2 0 10.4 10 0 
10.2 10 0 10 10 0 10.8 10 0 
10.6 10 0 11.8 10 0 11 10 0 
11.4 10 0 11.6 10 0 11.2 10 0 
12.6 10 0 12.4 10 0 12.7238 10.5216 0 
12.2 10 0 12.8 10 0 12 10 0 
13.2602 10.2224 0 13.6826 10.4969 0 13 10 0 
14.8333 10 0 14.6667 10 0 14.1667 10 0 
14 10 0 14.5 10 0 14.3333 10 0 
15 10.4 0 15 10 0 15 10.2 0 
15 10.8 0 15 10.6 0 -15 11.4 0 
-15 11.2 0 -15 11 0 -15 11.8 0 
-15 11.6 0 -9 11 0 -9 11.4 0 
-9 11.6 0 -9 11.8 0 -9 11.2 0 
-3 11.8 0 -3 11.4 0 -3 11 0 
-3 11.2 0 -3 11.6 0 9 11 0 
9 11.8 0 9 11.4 0 9 11.2 0 
9 11.6 0 11.8585 11.3746 0 12.1749 11.8699 0 
12.4965 11.0859 0 12.7104 11.6381 0 15 11.2 0 
15 11.8 0 15 11.4 0 15 11.6 0 
15 11 0 -15 12.4 0 -15 12.6 0 
-15 12 0 -15 12.2 0 -15 12.8 0 
-9 12.8 0 -9 12.4 0 -9 12.2 0 
-9 12 0 -9 12.6 0 -3 12.2 0 
-3 12.6 0 -3 12.8 0 -3 12.4 0 
-3 12 0 9 12.8 0 9 12.2 0 
9 12.4 0 9 12 0 9 12.6 0 
10.786 12.6945 0 11.4048 12.4787 0 15 12 0 
15 12.6 0 15 12.2 0 15 12.4 0 
15 12.8 0 -15 13.8 0 -15 13.6 0 
-15 13.4 0 -15 13 0 -15 13.2 0 
-9 13.6 0 -9 13.8 0 -9 13.2 0 
-9 13 0 -9 13.4 0 -3 13 0 
-3 13.6 0 -3 13.4 0 -3 13.8 0 
-3 13.2 0 6.04195 13.4751 0 6.90241 13.6163 0 
9.91041 13.9237 0 9 13.2 0 9 13.8 0 
9 13 0 9 13.4 0 9 13.6 0 
10.2909 13.3854 0 15 13.4 0 15 13.2 0 
15 13.8 0 15 13 0 15 13.6 0 
-15 14.4 0 -15 14 0 -15 14.8 0 
-15 14.6 0 -15 14.2 0 -9 14.2 0 
-9 14.4 0 -9 14.8 0 -9 14 0 
-9 14.6 0 -3 14.2 0 -3 14.8 0 
-3 14 0 -3 14.6 0 -3 14.4 0 
8.5698 14.329 0 9.2306 14.339 0 9 14 0 
15 14.4 0 15 14.8 0 15 14.2 0 
15 14.6 0 15 14 0 -15 15.8 0 
-15 15.6 0 -15 15.4 0 -15 15.2 0 
-15 15 0 -9 15 0 -9 15.4 0 
-9 15.2 0 -9 15.8 0 -9 15.6 0 
-3 15.4 0 -3 15 0 -3 15.2 0 
-3 15.8 0 -3 15.6 0 9 15.8333 0 
9 15 0 9 15.1667 0 9 15.5 0 
9 15.3333 0 9 15.6667 0 15 15.8 0 
15 15 0 15 15.6 0 15 15.4 0 
15 15.2 0 -14.8 16 0 -15 16 0 
-14.4 16 0 -14.6 16 0 -14.2 16 0 
-13.2 16 0 -14 16 0 -13.6 16 0 
-13.8 16 0 -13.4 16 0 -12.6 16 0 
-12.8 16 0 -13 16 0 -12.2 16 0 
-12.4 16 0 -11.8 16 0 -11.6 16 0 
-11.4 16 0 -12 16 0 -11.2 16 0 
-10.6 16 0 -11 16 0 -10.2 16 0 
-10.8 16 0 -10.4 16 0 -9.8 16 0 
-9.6 16 0 -9.4 16 0 -9.2 16 0 
-10 16 0 -8.6 16 0 -8.2 16 0 
-9 16 0 -8.8 16 0 -8.4 16 0 
-8 16 0 -7.8 16 0 -7.6 16 0 
-7.2 16 0 -7.4 16 0 -6.4 16 0 
-7 16 0 -6.6 16 0 -6.2 16 0 
-6.8 16 0 -5.6 16 0 -5.4 16 0 
-5.8 16 0 -5.2 16 0 -6 16 0 
-4.8 16 0 -5 16 0 -4.6 16 0 
-4.2 16 0 -4.4 16 0 -3.6 16 0 
-4 16 0 -3.2 16 0 -3.8 16 0 
-3.4 16 0 -2.2 16 0 -2.8 16 0 
-3 16 0 -2.6 16 0 -2.4 16 0 
-2 16 0 -1.2 16 0 -1.4 16 0 
-1.8 16 0 -1.6 16 0 -0.2 16 0 
-0.6 16 0 -1 16 0 -0.4 16 0 
-0.8 16 0 0.8 16 0 0.2 16 0 
0.6 16 0 -0 16 0 0.4 16 0 
1.2 16 0 1.4 16 0 1.8 16 0 
1 16 0 1.6 16 0 2.8 16 0 
2 16 0 2.2 16 0 2.6 16 0 
2.4 16 0 3.2 16 0 3.4 16 0 
3 16 0 3.6 16 0 3.8 16 0 
4 16 0 4.8 16 0 4.6 16 0 
4.4 16 0 4.2 16 0 5.2 16 0 
5 16 0 5.6 16 0 5.8 16 0 
5.4 16 0 6.4 16 0 6.8 16 0 
6.6 16 0 6.2 16 0 6 16 0 
7.8 16 0 7.6 16 0 7.2 16 0 
7 16 0 7.4 16 0 8.2 16 0 
8.6 16 0 8.4 16 0 8.8 16 0 
8 16 0 9.6 16 0 9.4 16 0 
9 16 0 9.8 16 0 9.2 16 0 
10 16 0 10.2 16 0 10.4 16 0 
10.6 16 0 10.8 16 0 11.8 16 0 
11 16 0 11.4 16 0 11.6 16 0 
11.2 16 0 12.4 16 0 12.8 16 0 
12.6 16 0 12.2 16 0 12 16 0 
13.4 16 0 13.8 16 0 13 16 0 
13.6 16 0 13.2 16 0 14.8 16 0 
14 16 0 14.2 16 0 14.4 16 0 
14.6 16 0 15 16 0 
VERTICES 2098 2098
1 0 
1 1 
1 2 
1 3 
1 4 
1 5 
1 6 
1 7 
1 8 
1 9 
1 10 
1 11 
1 12 
1 13 
1 14 
1 15 
1 16 
1 17 
1 18 
1 19 
1 20 
1 21 
1 22 
1 23 
1 24 
1 25 
1 26 
1 27 
1 28 
1 29 
1 30 
1 31 
1 32 
1 33 
1 34 
1 35 
1 36 
1 37 
1 38 
1 39 
1 40 
1 41 
1 42 
1 43 
1 44 
1 45 
1 46 
1 47 
1 48 
1 49 
1 50 
1 51 
1 52 
1 53 
1 54 
1 55 
1 56 
1 57 
1 58 
1 59 
1 60 
1 61 
1 62 
1 63 
1 64 
1 65 
1 66 
1 67 
1 68 
1 69 
1 70 
1 71 
1 72 
1 73 
1 74 
1 75 
1 76 
1 77 
1 78 
1 79 
1 80 
1 81 
1 82 
1 83 
1 84 
1 85 
1 86 
1 87 
1 88 
1 89 
1 90 
1 91 
1 92 
1 93 
1 94 
1 95 
1 96 
1 97 
1 98 
1 99 
1 100 
1 101 
1 102 
1 103 
1 104 
1 105 
1 106 
1 107 
1 108 
1 109 
1 110 
1 111 
1 112 
1 113 
1 114 
1 115 
1 116 
1 117 
1 118 
1 119 
1 120 
1 121 
1 122 
1 123 
1 124 
1 125 
1 126 
1 127 
1 128 
1 129 
1 130 
1 131 
1 132 
1 133 
1 134 
1 135 
1 136 
1 137 
1 138 
1 139 
1 140 
1 141 
1 142 
1 143 
1 144 
1 145 
1 146 
1 147 
1 148 
1 149 
1 150 
1 151 
1 152 
1 153 
1 154 
1 155 
1 156 
1 157 
1 158 
1 159 
1 160 
1 161 
1 162 
1 163 
1 164 
1 165 
1 166 
1 167 
1 168 
1 169 
1 170 
1 171 
1 172 
1 173 
1 174 
1 175 
1 176 
1 177 
1 178 
1 179 
1 180 
1 181 
1 182 
1 183 
1 184 
1 185 
1 186 
1 187 
1 188 
1 189 
1 190 
1 191 
1 192 
1 193 
1 194 
1 195 
1 196 
1 197 
1 198 
1 199 
1 200 
1 201 
1 202 
1 203 
1 204 
1 205 
1 206 
1 207 
1 208 
1 209 
1 210 
1 211 
1 212 
1 213 
1 214 
1 215 
1 216 
1 217 
1 218 
1 219 
1 220 
1 221 
1 222 
1 223 
1 224 
1 225 
1 226 
1 227 
1 228 
1 229 
1 230 
1 231 
1 232 
1 233 
1 234 
1 235 
1 236 
1 237 
1 238 
1 239 
1 240 
1 241 
1 242 
1 243 
1 244 
1 245 
1 246 
1 247 
1 248 
1 249 
1 250 
1 251 
1 252 
1 253 
1 254 
1 255 
1 256 
1 257 
1 258 
1 259 
1 260 
1 261 
1 262 
1 263 
1 264 
1 265 
1 266 
1 267 
1 268 
1 269 
1 270 
1 271 
1 272 
1 273 
1 274 
1 275 
1 276 
1 277 
1 278 
1 279 
1 280 
1 281 
1 282 
1 283 
1 284 
1 285 
1 286 
1 287 
1 288 
1 289 
1 290 
1 291 
1 292 
1 293 
1 294 
1 295 
1 296 
1 297 
1 298 
1 299 
1 300 
1 301 
1 302 
1 303 
1 304 
1 305 
1 306 
1 307 
1 308 
1 309 
1 310 
1 311 
1 312 
1 313 
1 314 
1 315 
1 316 
1 317 
1 318 
1 319 
1 320 
1 321 
1 322 
1 323 
1 324 
1 325 
1 326 
1 327 
1 328 
1 329 
1 330 
1 331 
1 332 
1 333 
1 334 
1 335 
1 336 
1 337 
1 338 
1 339 
1 340 
1 341 
1 342 
1 343 
1 344 
1 345 
1 346 
1 347 
1 348 
1 349 
1 350 
1 351 
1 352 
1 353 
1 354 
1 355 
1 356 
1 357 
1 358 
1 359 
1 360 
1 361 
1 362 
1 363 
1 364 
1 365 
1 366 
1 367 
1 368 
1 369 
1 370 
1 371 
1 372 
1 373 
1 374 
1 375 
1 376 
1 377 
1 378 
1 379 
1 380 
1 381 
1 382 
1 383 
1 384 
1 385 
1 386 
1 387 
1 388 
1 389 
1 390 
1 391 
1 392 
1 393 
1 394 
1 395 
1 396 
1 397 
1 398 
1 399 
1 400 
1 401 
1 402 
1 403 
1 404 
1 405 
1 406 
1 407 
1 408 
1 409 
1 410 
1 411 
1 412 
1 413 
1 414 
1 415 
1 416 
1 417 
1 418 
1 419 
1 420 
1 421 
1 422 
1 423 
1 424 
1 425 
1 426 
1 427 
1 428 
1 429 
1 430 
1 431 
1 432 
1 433 
1 434 
1 435 
1 436 
1 437 
1 438 
1 439 
1 440 
1 441 
1 442 
1 443 
1 444 
1 445 
1 446 
1 447 
1 448 
1 449 
1 450 
1 451 
1 452 
1 453 
1 454 
1 455 
1 456 
1 457 
1 458 
1 459 
1 460 
1 461 
1 462 
1 463 
1 464 
1 465 
1 466 
1 467 
1 468 
1 469 
1 470 
1 471 
1 472 
1 473 
1 474 
1 475 
1 476 
1 477 
1 478 
1 479 
1 480 
1 481 
1 482 
1 483 
1 484 
1 485 
1 486 
1 487 
1 488 
1 489 
1 490 
1 491 
1 492 
1 493 
1 494 
1 495 
1 496 
1 497 
1 498 
1 499 
1 500 
1 501 
1 502 
1 503 
1 504 
1 505 
1 506 
1 507 
1 508 
1 509 
1 510 
1 511 
1 512 
1 513 
1 514 
1 515 
1 516 
1 517 
1 518 
1 519 
1 520 
1 521 
1 522 
1 523 
1 524 
1 525 
1 526 
1 527 
1 528 
1 529 
1 530 
1 531 
1 532 
1 533 
1 534 
1 535 
1 536 
1 537 
1 538 
1 539 
1 540 
1 541 
1 542 
1 543 
1 544 
1 545 
1 546 
1 547 
1 548 
1 549 
1 550 
1 551 
1 552 
1 553 
1 554 
1 555 
1 556 
1 557 
1 558 
1 559 
1 560 
1 561 
1 562 
1 563 
1 564 
1 565 
1 566 
1 567 
1 568 
1 569 
1 570 
1 571 
1 572 
1 573 
1 574 
1 575 
1 576 
1 577 
1 578 
1 579 
1 580 
1 581 
1 582 
1 583 
1 584 
1 585 
1 586 
1 587 
1 588 
1 589 
1 590 
1 591 
1 592 
1 593 
1 594 
1 595 
1 596 
1 597 
1 598 
1 599 
1 600 
1 601 
1 602 
1 603 
1 604 
1 605 
1 606 
1 607 
1 608 
1 609 
1 610 
1 611 
1 612 
1 613 
1 614 
1 615 
1 616 
1 617 
1 618 
1 619 
1 620 
1 621 
1 622 
1 623 
1 624 
1 625 
1 626 
1 627 
1 628 
1 629 
1 630 
1 631 
1 632 
1 633 
1 634 
1 635 
1 636 
1 637 
1 638 
1 639 
1 640 
1 641 
1 642 
1 643 
1 644 
1 645 
1 646 
1 647 
1 648 
1 649 
1 650 
1 651 
1 652 
1 653 
1 654 
1 655 
1 656 
1 657 
1 658 
1 659 
1 660 
1 661 
1 662 
1 663 
1 664 
1 665 
1 666 
1 667 
1 668 
1 669 
1 670 
1 671 
1 672 
1 673 
1 674 
1 675 
1 676 
1 677 
1 678 
1 679 
1 680 
1 681 
1 682 
1 683 
1 684 
1 685 
1 686 
1 687 
1 688 
1 689 
1 690 
1 691 
1 692 
1 693 
1 694 
1 695 
1 696 
1 697 
1 698 
1 699 
1 700 
1 701 
1 702 
1 703 
1 704 
1 705 
1 706 
1 707 
1 708 
1 709 
1 710 
1 711 
1 712 
1 713 
1 714 
1 715 
1 716 
1 717 
1 718 
1 719 
1 720 
1 721 
1 722 
1 723 
1 724 
1 725 
1 726 
1 727 
1 728 
1 729 
1 730 
1 731 
1 732 
1 733 
1 734 
1 735 
1 736 
1 737 
1 738 
1 739 
1 740 
1 741 
1 742 
1 743 
1 744 
1 745 
1 746 
1 747 
1 748 
1 749 
1 750 
1 751 
1 752 
1 753 
1 754 
1 755 
1 756 
1 757 
1 758 
1 759 
1 760 
1 761 
1 762 
1 763 
1 764 
1 765 
1 766 
1 767 
1 768 
1 769 
1 770 
1 771 
1 772 
1 773 
1 774 
1 775 
1 776 
1 777 
1 778 
1 779 
1 780 
1 781 
1 782 
1 783 
1 784 
1 785 
1 786 
1 787 
1 788 
1 789 
1 790 
1 791 
1 792 
1 793 
1 794 
1 795 
1 796 
1 797 
1 798 
1 799 
1 800 
1 801 
1 802 
1 803 
1 804 
1 805 
1 806 
1 807 
1 808 
1 809 
1 810 
1 811 
1 812 
1 813 
1 814 
1 815 
1 816 
1 817 
1 818 
1 819 
1 820 
1 821 
1 822 
1 823 
1 824 
1 825 
1 826 
1 827 
1 828 
1 829 
1 830 
1 831 
1 832 
1 833 
1 834 
1 835 
1 836 
1 837 
1 838 
1 839 
1 840 
1 841 
1 842 
1 843 
1 844 
1 845 
1 846 
1 847 
1 848 
1 849 
1 850 
1 851 
1 852 
1 853 
1 854 
1 855 
1 856 
1 857 
1 858 
1 859 
1 860 
1 861 
1 862 
1 863 
1 864 
1 865 
1 866 
1 867 
1 868 
1 869 
1 870 
1 871 
1 872 
1 873 
1 874 
1 875 
1 876 
1 877 
1 878 
1 879 
1 880 
1 881 
1 882 
1 883 
1 884 
1 885 
1 886 
1 887 
1 888 
1 889 
1 890 
1 891 
1 892 
1 893 
1 894 
1 895 
1 896 
1 897 
1 898 
1 899 
1 900 
1 901 
1 902 
1 903 
1 904 
1 905 
1 906 
1 907 
1 908 
1 909 
1 910 
1 911 
1 912 
1 913 
1 914 
1 915 
1 916 
1 917 
1 918 
1 919 
1 920 
1 921 
1 922 
1 923 
1 924 
1 925 
1 926 
1 927 
1 928 
1 929 
1 930 
1 931 
1 932 
1 933 
1 934 
1 935 
1 936 
1 937 
1 938 
1 939 
1 940 
1 941 
1 942 
1 943 
1 944 
1 945 
1 946 
1 947 
1 948 
1 949 
1 950 
1 951 
1 952 
1 953 
1 954 
1 955 
1 956 
1 957 
1 958 
1 959 
1 960 
1 961 
1 962 
1 963 
1 964 
1 965 
1 966 
1 967 
1 968 
1 969 
1 970 
1 971 
1 972 
1 973 
1 974 
1 975 
1 976 
1 977 
1 978 
1 979 
1 980 
1 981 
1 982 
1 983 
1 984 
1 985 
1 986 
1 987 
1 988 
1 989 
1 990 
1 991 
1 992 
1 993 
1 994 
1 995 
1 996 
1 997 
1 998 
1 999 
1 1000 
1 1001 
1 1002 
1 1003 
1 1004 
1 1005 
1 1006 
1 1007 
1 1008 
1 1009 
1 1010 
1 1011 
1 1012 
1 1013 
1 1014 
1 1015 
1 1016 
1 1017 
1 1018 
1 1019 
1 1020 
1 1021 
1 1022 
1 1023 
1 1024 
1 1025 
1 1026 
1 1027 
1 1028 
1 1029 
1 1030 
1 1031 
1 1032 
1 1033 
1 1034 
1 1035 
1 1036 
1 1037 
1 1038 
1 1039 
1 1040 
1 1041 
1 1042 
1 1043 
1 1044 
1 1045 
1 1046 
1 1047 
1 1048 

POINT_DATA 1049
SCALARS id double
LOOKUP_TABLE default
980 1048 1027 977 964 1020 993 1033 983 
951 1036 976 978 968 1024 945 1045 966 
1032 975 1004 990 955 972 995 1040 933 
941 1041 942 1005 947 1016 43 41 388 
39 42 389 391 390 40 0 47 48 
44 49 45 46 1026 1047 1 50 51 
954 969 52 2 53 1018 54 58 55 
59 57 56 61 64 63 62 60 395 
68 66 392 67 3 65 394 393 72 
73 69 70 71 75 74 77 78 76 
80 81 79 83 82 88 85 87 86 
84 93 92 91 89 90 96 97 95 
494 4 493 492 94 495 99 100 98 
101 102 106 103 104 105 107 109 111 
108 112 110 114 113 115 116 117 121 
118 120 122 119 5 557 125 126 559 
558 124 123 560 130 128 127 131 129 
136 135 134 132 133 138 140 137 139 
141 142 146 143 145 144 150 148 151 
149 147 153 155 6 156 154 590 588 
152 587 589 159 162 158 161 157 160 
163 1028 987 7 164 8 165 166 932 
171 168 172 170 167 169 175 177 176 
174 173 9 180 178 179 181 386 385 
384 387 383 936 1008 939 398 399 400 
396 397 487 491 488 490 489 554 552 
553 556 555 592 591 593 595 594 960 
930 962 1009 185 186 184 182 183 381 
378 379 382 380 405 403 404 402 401 
485 483 484 486 482 550 551 548 547 
549 600 599 598 597 596 986 1037 188 
190 189 191 187 376 373 377 375 374 
1042 1014 985 407 408 406 410 409 477 
480 478 479 481 545 544 542 543 546 
601 603 604 605 602 973 1022 1011 1030 
196 193 195 192 194 368 372 369 371 
370 967 965 989 998 412 411 415 413 
414 473 474 475 476 472 538 539 537 
540 541 609 608 606 607 610 1043 1029 
997 946 200 201 197 199 198 363 364 
365 366 367 952 1038 984 418 419 417 
416 420 468 471 467 469 470 534 533 
535 536 532 614 611 612 613 615 988 
950 999 929 1015 203 204 202 205 206 
361 360 362 358 359 992 1007 953 423 
424 421 425 422 464 465 462 466 463 
527 531 529 530 528 617 1019 1025 618 
616 620 619 979 994 208 209 207 211 
210 356 354 353 355 357 1012 1017 428 
429 427 426 430 458 460 459 457 461 
526 523 522 525 524 621 624 937 625 
623 622 1044 934 214 212 215 216 213 
348 351 350 352 349 935 1000 432 434 
435 431 433 971 10 441 944 439 437 
440 438 436 443 11 1003 442 445 444 
12 448 446 449 451 447 450 456 454 
452 455 453 499 1006 498 1034 496 497 
500 13 502 501 505 504 503 506 14 
963 507 508 15 510 509 516 515 513 
511 512 514 521 517 1010 519 518 520 
564 16 561 563 562 565 568 570 566 
567 571 981 569 17 572 573 1023 974 
574 575 18 578 576 581 577 580 579 
582 584 583 585 586 1001 19 34 1002 
943 1013 218 219 217 220 221 345 346 
344 347 343 1021 1031 958 940 224 222 
226 223 225 660 339 662 342 341 661 
664 340 663 20 21 665 666 668 667 
22 670 672 673 669 671 677 675 674 
678 676 679 680 681 683 682 713 717 
23 687 686 684 685 716 714 715 720 
723 721 719 718 722 36 725 724 727 
37 726 732 731 729 728 733 730 737 
738 735 734 736 633 741 742 634 740 
24 739 631 632 747 744 746 745 743 
751 749 752 748 750 753 754 756 757 
755 758 759 761 760 762 767 764 766 
765 763 771 768 770 769 772 777 776 
773 775 774 780 779 778 781 782 786 
787 785 783 784 792 790 791 789 788 
796 795 794 793 797 798 819 35 818 
801 799 820 800 817 804 803 802 806 
805 811 807 809 810 808 815 814 1035 
813 816 812 931 949 25 626 627 630 
26 628 629 228 27 227 230 229 336 
337 338 334 335 688 690 691 692 689 
639 637 635 636 638 821 825 823 822 
824 957 956 959 948 232 235 233 234 
231 331 330 333 332 329 697 695 694 
693 696 641 643 644 642 640 830 827 
828 826 829 1046 961 236 239 237 238 
240 324 325 326 328 327 701 702 699 
698 700 645 648 647 649 646 996 970 
938 832 835 831 833 834 1039 243 242 
245 241 244 321 323 319 320 322 704 
705 707 703 706 651 654 650 653 652 
982 991 29 248 250 247 249 246 314 
315 316 317 318 708 710 709 712 711 
657 655 656 659 658 928 28 924 926 
925 927 255 251 254 253 252 313 30 
311 312 310 305 309 307 308 306 302 
303 304 300 301 298 297 296 299 295 
292 294 290 293 291 288 287 286 285 
289 283 281 31 284 282 280 279 278 
276 277 272 275 273 271 274 268 267 
269 266 270 264 265 263 261 262 258 
260 256 259 257 839 836 32 837 838 
840 844 843 841 842 849 847 845 848 
846 854 851 853 850 852 856 857 859 
855 858 864 860 861 863 862 866 867 
865 868 869 870 874 873 872 871 876 
875 878 879 877 882 884 883 881 880 
889 888 886 885 887 891 893 892 894 
890 897 896 38 898 895 899 900 901 
902 903 908 904 906 907 905 911 913 
912 910 909 916 918 914 917 915 923 
919 920 921 922 33 
FIELD FieldData 14
r 3 1049 double
-2.69405 -8.15133 0 -2.09202 -8.05021 0 1.77405 -8.55218 0 
-2.87554 -7.49377 0 4.33977 -6.20168 0 5.43563 -6.10877 0 
-5.97127 -5.70362 0 -5.46488 -5.3589 0 4.63099 -5.68829 0 
5.96543 -5.80641 0 5.23275 -5.48186 0 7.01486 -5.08704 0 
-7.70205 -4.42626 0 -6.40261 -4.26398 0 6.05642 -4.84915 0 
6.73614 -4.44812 0 -8.26707 -3.27726 0 -7.59592 -3.78474 0 
-6.91574 -3.99636 0 7.56145 -3.80466 0 -9.29622 -2.4474 0 
-8.80285 -2.77132 0 8.85846 -2.76294 0 9.4154 -2.41289 0 
-11.3409 -1.55189 0 -10.0372 -1.97208 0 -10.4953 -1.50948 0 
10.4437 -1.49035 0 -12.1316 -0.0344307 0 -11.6587 -0.284928 0 
-11.4644 -0.792043 0 -10.8489 -0.974781 0 11.8177 -0.205433 0 
-14.1071 0 0 -14.4643 0 0 -15 0.8 0 
-14.8214 0 0 -14.2857 0 0 -15 0.6 0 
-15 0.2 0 -15 0.4 0 -14.6429 0 0 
-15 0 0 -13.3929 0 0 -13.2143 0 0 
-13.9286 0 0 -13.0357 0 0 -13.75 0 0 
-13.5714 0 0 -12.0089 0.905362 0 -12.5551 0.981956 0 
-12.5 0 0 -12.8571 0 0 -12.6786 0 0 
-12.3473 0.490336 0 -11.7781 0.356518 0 -11.3214 0 0 
-11.5 0 0 -11.1429 0 0 -11.4806 0.834226 0 
-10.9643 0 0 -10.25 0 0 -10.7857 0 0 
-10.0714 0 0 -10.4286 0 0 -10.6071 0 0 
-9.7143 0 0 -9.1786 0 0 -9.3571 0 0 
-9.5357 0 0 -9.8929 0 0 -9 0.8 0 
-8.2 0 0 -8.6 0 0 -9 0.2 0 
-8.4 0 0 -9 0 0 -8.8 0 0 
-9 0.6 0 -9 0.4 0 -7.4 0 0 
-7.2 0 0 -8 0 0 -7.8 0 0 
-7.6 0 0 -6.8 0 0 -7 0 0 
-6.4 0 0 -6.2 0 0 -6.6 0 0 
-5.8 0 0 -5.6 0 0 -6 0 0 
-5.2 0 0 -5.4 0 0 -4.2 0 0 
-4.8 0 0 -4.4 0 0 -4.6 0 0 
-5 0 0 -3.2 0 0 -3.4 0 0 
-3.6 0 0 -4 0 0 -3.8 0 0 
-2.4 0 0 -2.2 0 0 -2.6 0 0 
-3 0.4 0 -3 0 0 -3 0.6 0 
-3 0.8 0 -2.8 0 0 -3 0.2 0 
-1.8 0 0 -1.6 0 0 -2 0 0 
-1.4 0 0 -1.2 0 0 -0.4 0 0 
-1 0 0 -0.8 0 0 -0.6 0 0 
-0.2 0 0 0.2 0 0 0.6 0 0 
-0 0 0 0.8 0 0 0.4 0 0 
1.2 0 0 1 0 0 1.4 0 0 
1.6 0 0 1.8 0 0 2.6 0 0 
2 0 0 2.4 0 0 2.8 0 0 
2.2 0 0 3 0 0 3 0.8 0 
3.6 0 0 3.8 0 0 3 0.4 0 
3 0.6 0 3.4 0 0 3.2 0 0 
3 0.2 0 4.6 0 0 4.2 0 0 
4 0 0 4.8 0 0 4.4 0 0 
5.8 0 0 5.6 0 0 5.4 0 0 
5 0 0 5.2 0 0 6.2 0 0 
6.6 0 0 6 0 0 6.4 0 0 
6.8 0 0 7 0 0 7.8 0 0 
7.2 0 0 7.6 0 0 7.4 0 0 
8.6 0 0 8.2 0 0 8.8 0 0 
8.4 0 0 8 0 0 9.3571 0 0 
9.7143 0 0 9 0 0 9.8929 0 0 
9.5357 0 0 9 0.8 0 9 0.4 0 
9.1786 0 0 9 0.2 0 9 0.6 0 
10.4286 0 0 10.9643 0 0 10.25 0 0 
10.7857 0 0 10.0714 0 0 10.6071 0 0 
11.1429 0 0 11.968 0.413942 0 11.4711 0.572561 0 
11.5 0 0 11.3214 0 0 12.5 0 0 
12.6786 0 0 12.8571 0 0 12.4898 0.526253 0 
13.75 0 0 13.2143 0 0 13.9286 0 0 
13.5714 0 0 13.0357 0 0 13.3929 0 0 
14.4643 0 0 14.8214 0 0 14.6429 0 0 
14.2857 0 0 14.1071 0 0 15 0 0 
15 0.6 0 15 0.2 0 15 0.4 0 
15 0.8 0 -15 1.2 0 -15 1.4 0 
-15 1.6 0 -15 1 0 -15 1.8 0 
-12.4153 1.78172 0 -11.9897 1.43053 0 -11.497 1.33933 0 
-9 1.4 0 -9 1.6 0 -9 1.8 0 
-9 1 0 -9 1.2 0 -3 1.8 0 
-3 1 0 -3 1.6 0 -3 1.2 0 
-3 1.4 0 3 1.4 0 3 1.8 0 
3 1.6 0 3 1 0 3 1.2 0 
9 1.2 0 9 1 0 9 1.4 0 
9 1.8 0 9 1.6 0 11.5339 1.72524 0 
11.3992 1.12773 0 11.9925 1.23469 0 12.3231 1.80882 0 
15 1.6 0 15 1.8 0 15 1.4 0 
15 1 0 15 1.2 0 -15 2.2 0 
-15 2.8 0 -15 2.6 0 -15 2 0 
-15 2.4 0 -9 2.8 0 -9 2.4 0 
-9 2.6 0 -9 2.2 0 -9 2 0 
-3 2.2 0 -3 2.6 0 -3 2.4 0 
-3 2 0 -3 2.8 0 3 2.2 0 
3 2 0 3 2.6 0 3 2.8 0 
3 2.4 0 9 2.8 0 9 2.6 0 
9 2.4 0 9 2.2 0 9 2 0 
11.3092 2.67386 0 12.3293 2.3729 0 15 2.2 0 
15 2.6 0 15 2.4 0 15 2.8 0 
15 2 0 -15 3.2 0 -15 3.8 0 
-15 3 0 -15 3.4 0 -15 3.6 0 
-12.5998 3.22528 0 -11.4497 3.41726 0 -10.8031 3.36622 0 
-9 3.2 0 -9 3.4 0 -9 3 0 
-9 3.8 0 -9 3.6 0 -3 3.8 0 
-3 3.2 0 -3 3.6 0 -3 3.4 0 
-3 3 0 3 3.2 0 3 3.4 0 
3 3.8 0 3 3.6 0 3 3 0 
9 3 0 9 3.4 0 9 3.6 0 
9 3.8 0 9 3.2 0 10.723 3.88944 0 
10.8129 3.09723 0 12.9064 3.54988 0 12.1759 3.9755 0 
15 3.8 0 15 3.2 0 15 3.6 0 
15 3 0 15 3.4 0 -15 4.8 0 
-15 4 0 -15 4.6 0 -15 4.2 0 
-15 4.4 0 -12.3665 4.79433 0 -11.065 4.61735 0 
-10.3281 4.56652 0 -10.6987 4.02333 0 -9 4.2 0 
-9 4 0 -9 4.8 0 -9 4.4 0 
-9 4.6 0 -3 4.6 0 -3 4.4 0 
-3 4.2 0 -3 4 0 -3 4.8 0 
3 4.6 0 3 4.4 0 3 4.8 0 
3 4.2 0 3 4 0 9 4.6 0 
9 4.4 0 9 4 0 9 4.2 0 
9 4.8 0 10.7947 4.58454 0 10.2823 4.86539 0 
11.3176 4.10183 0 12.8693 4.63823 0 15 4.6 0 
15 4.8 0 15 4 0 15 4.4 0 
15 4.2 0 -15 5.8 0 -15 5.6 0 
-15 5.4 0 -15 5.2 0 -15 5 0 
-11.3812 5.52107 0 -10.2167 5.44021 0 -10.7865 5.25656 0 
-9 5.4 0 -9 5.6 0 -9 5.2 0 
-9 5 0 -9 5.8 0 -3 5.6 0 
-3 5 0 -3 5.8 0 -3 5.4 0 
-3 5.2 0 3 5.4 0 3 5.6 0 
3 5.2 0 3 5 0 3 5.8 0 
9 5.6 0 9 5 0 9 5.2 0 
9 5.4 0 9 5.8 0 10.3752 5.41115 0 
10.8483 5.92983 0 12.5021 5.45939 0 12.9987 5.82512 0 
13.0848 5.3026 0 15 5.2 0 15 5.4 0 
15 5 0 15 5.6 0 15 5.8 0 
-15 6.2 0 -15 6.4 0 -15 6 0 
-15 6.8 0 -15 6.6 0 -10.575 6.43293 0 
-10.1879 6.85754 0 -9.90226 6.24975 0 -9 6.4 0 
-9 6.6 0 -9 6 0 -9 6.8 0 
-9 6.2 0 -3 6.4 0 -3 6.2 0 
-3 6.8 0 -3 6 0 -3 6.6 0 
3 6.8 0 3 6 0 3 6.4 0 
3 6.2 0 3 6.6 0 9 6.2 0 
9.71532 6.98975 0 9.94141 6.43156 0 9 6.4 0 
9 6 0 9 6.8 0 9 6.6 0 
10.3446 6.97422 0 10.7203 6.55205 0 15 6.2 0 
15 6.4 0 15 6 0 15 6.8 0 
15 6.6 0 -15 7.2 0 -15 7.6 0 
-15 7.8 0 -15 7.4 0 -15 7 0 
-10.0565 7.47208 0 -9.52919 7.75647 0 -9 7.4 0 
-9 7.6 0 -9 7.2 0 -9 7 0 
-9 7.8 0 -3 7.6 0 -3 7.2 0 
-3 7.4 0 -3 7.8 0 -3 7 0 
3 7 0 3 7.6 0 3 7.8 0 
3 7.2 0 3 7.4 0 9 7 0 
9 7.6 0 9.50403 7.89278 0 9 7.8 0 
9 7.4 0 9 7.2 0 10.0025 7.61369 0 
13.1316 7.41748 0 15 7.4 0 15 7 0 
15 7.6 0 15 7.8 0 15 7.2 0 
-15 8.8 0 -15 8.2 0 -15 8.4 0 
-15 8 0 -15 8.6 0 -9.92944 8.22767 0 
-9.348 8.32499 0 -8.6429 8 0 -8.2857 8 0 
-8.1071 8 0 -8.8214 8 0 -8.4643 8 0 
-8.90044 8.80077 0 -9 8 0 -7.0357 8 0 
-7.85609 8.97113 0 -7.3929 8 0 -7.75 8 0 
-7.2143 8 0 -7.5714 8 0 -7.9286 8 0 
-6.6786 8 0 -6.5 8 0 -6.26932 8.95217 0 
-6.8571 8 0 -5.1429 8 0 -5.3214 8 0 
-5.5 8 0 -4.6071 8 0 -4.9643 8 0 
-4.4286 8 0 -4.0714 8 0 -4.7857 8 0 
-4.25 8 0 -3.1786 8 0 -3.5357 8 0 
-3.8929 8 0 -3.3571 8 0 -3.7143 8 0 
-2.2857 8 0 -2.05651 8.74361 0 -2.4643 8 0 
-2.88346 8.863 0 -2.8214 8 0 -2.6429 8 0 
-2.1071 8 0 -3 8 0 -1.75 8 0 
-1.9286 8 0 -1.2143 8 0 -1.3929 8 0 
-1.5714 8 0 -1.0357 8 0 -0.5 8 0 
-0.88703 8.52817 0 -0.8571 8 0 -0.6786 8 0 
0.5 8 0 0.8571 8 0 0.6786 8 0 
1.9286 8 0 1.75 8 0 1.3929 8 0 
1.0357 8 0 1.2143 8 0 1.5714 8 0 
2.8214 8 0 2.1071 8 0 2.72925 8.81185 0 
2.4643 8 0 2.2857 8 0 2.6429 8 0 
3.7143 8 0 3 8 0 3.1786 8 0 
3.5357 8 0 3.3571 8 0 3.8929 8 0 
4.4286 8 0 4.7857 8 0 4.0714 8 0 
4.25 8 0 4.9643 8 0 4.16624 8.89721 0 
4.6071 8 0 5.5 8 0 5.1429 8 0 
5.3214 8 0 5.37577 8.96964 0 6.48179 8.47193 0 
6.6786 8 0 6.8571 8 0 6.5 8 0 
7.3929 8 0 7.0357 8 0 7.9286 8 0 
7.2143 8 0 7.75 8 0 7.5714 8 0 
8.1071 8 0 8.4643 8 0 8.2857 8 0 
8.6429 8 0 8.8214 8 0 8.0981 8.89573 0 
9 8 0 9 8 0 9.06402 8.81778 0 
13.1237 8.93922 0 13.6 8.57593 0 15 8.2 0 
15 8.4 0 15 8 0 15 8.6 0 
15 8.8 0 -15 9.4 0 -15 9.2 0 
-15 9.6 0 -15 9 0 -15 9.8 0 
-9.04474 9.29127 0 -8.43309 9.10602 0 13.4406 9.3851 0 
13.6719 9.90172 0 15 9.4 0 15 9 0 
15 9.8 0 15 9.2 0 15 9.6 0 
-14.8333 10 0 -15 10.8 0 -14.5 10 0 
-15 10.2 0 -15 10.4 0 -14.6667 10 0 
-14.1667 10 0 -15 10.6 0 -14.3333 10 0 
-15 10 0 -14 10 0 -12.8 10 0 
-12.6 10 0 -12.2 10 0 -12.4 10 0 
-13 10 0 -11.8 10 0 -11.4 10 0 
-11.2 10 0 -12 10 0 -11.6 10 0 
-10.4 10 0 -10.8 10 0 -11 10 0 
-10.2 10 0 -10.6 10 0 -10 10 0 
-9.8 10 0 -9.6 10 0 -9.2 10 0 
-9.4 10 0 -8.8214 10 0 -8.1071 10 0 
-9 10 0 -9 10.8 0 -9 10.6 0 
-9 10.2 0 -9 10.4 0 -8.2857 10 0 
-8.6429 10 0 -8.4643 10 0 -7.5714 10 0 
-7.0357 10 0 -7.3929 10 0 -7.75 10 0 
-7.9286 10 0 -7.2143 10 0 -6.5 10 0 
-6.6786 10 0 -6.8571 10 0 -5.1429 10 0 
-5.5 10 0 -5.3214 10 0 -4.25 10 0 
-4.4286 10 0 -4.7857 10 0 -4.9643 10 0 
-4.0714 10 0 -4.6071 10 0 -3.3571 10 0 
-3.1786 10 0 -3.7143 10 0 -3.8929 10 0 
-3.5357 10 0 -3 10.6 0 -2.4 10 0 
-2.2 10 0 -3 10.8 0 -2.6 10 0 
-3 10 0 -2.8 10 0 -3 10.2 0 
-3 10.4 0 -1.2 10 0 -1.8 10 0 
-1.4 10 0 -1.6 10 0 -2 10 0 
-0.4 10 0 -0.8 10 0 -0.2 10 0 
-1 10 0 -0.6 10 0 -0 10 0 
0.2 10 0 0.6 10 0 0.8 10 0 
0.4 10 0 1 10 0 1.2 10 0 
1.6 10 0 1.4 10 0 1.8 10 0 
2.8 10 0 2.2 10 0 2.6 10 0 
2.4 10 0 2 10 0 3.6 10 0 
3 10 0 3.4 10 0 3.2 10 0 
3.8 10 0 4.8 10 0 4.6 10 0 
4 10 0 4.4 10 0 4.2 10 0 
5.4 10 0 5.2 10 0 5 10 0 
5.6 10 0 5.8 10 0 6.6 10 0 
6.8 10 0 6.4 10 0 6 10 0 
6.2 10 0 7.8 10 0 7.4 10 0 
7.6 10 0 7.2 10 0 7 10 0 
8.6 10 0 8.4 10 0 8.2 10 0 
8 10 0 8.8 10 0 9.2 10 0 
9 10.6 0 9 10 0 9 10.4 0 
9.8 10 0 9.4 10 0 9 10.8 0 
9.6 10 0 9 10.2 0 10.4 10 0 
10.2 10 0 10 10 0 10.8 10 0 
10.6 10 0 11.8 10 0 11 10 0 
11.4 10 0 11.6 10 0 11.2 10 0 
12.6 10 0 12.4 10 0 12.7238 10.5216 0 
12.2 10 0 12.8 10 0 12 10 0 
13.2602 10.2224 0 13.6826 10.4969 0 13 10 0 
14.8333 10 0 14.6667 10 0 14.1667 10 0 
14 10 0 14.5 10 0 14.3333 10 0 
15 10.4 0 15 10 0 15 10.2 0 
15 10.8 0 15 10.6 0 -15 11.4 0 
-15 11.2 0 -15 11 0 -15 11.8 0 
-15 11.6 0 -9 11 0 -9 11.4 0 
-9 11.6 0 -9 11.8 0 -9 11.2 0 
-3 11.8 0 -3 11.4 0 -3 11 0 
-3 11.2 0 -3 11.6 0 9 11 0 
9 11.8 0 9 11.4 0 9 11.2 0 
9 11.6 0 11.8585 11.3746 0 12.1749 11.8699 0 
12.4965 11.0859 0 12.7104 11.6381 0 15 11.2 0 
15 11.8 0 15 11.4 0 15 11.6 0 
15 11 0 -15 12.4 0 -15 12.6 0 
-15 12 0 -15 12.2 0 -15 12.8 0 
-9 12.8 0 -9 12.4 0 -9 12.2 0 
-9 12 0 -9 12.6 0 -3 12.2 0 
-3 12.6 0 -3 12.8 0 -3 12.4 0 
-3 12 0 9 12.8 0 9 12.2 0 
9 12.4 0 9 12 0 9 12.6 0 
10.786 12.6945 0 11.4048 12.4787 0 15 12 0 
15 12.6 0 15 12.2 0 15 12.4 0 
15 12.8 0 -15 13.8 0 -15 13.6 0 
-15 13.4 0 -15 13 0 -15 13.2 0 
-9 13.6 0 -9 13.8 0 -9 13.2 0 
-9 13 0 -9 13.4 0 -3 13 0 
-3 13.6 0 -3 13.4 0 -3 13.8 0 
-3 13.2 0 6.04195 13.4751 0 6.90241 13.6163 0 
9.91041 13.9237 0 9 13.2 0 9 13.8 0 
9 13 0 9 13.4 0 9 13.6 0 
10.2909 13.3854 0 15 13.4 0 15 13.2 0 
15 13.8 0 15 13 0 15 13.6 0 
-15 14.4 0 -15 14 0 -15 14.8 0 
-15 14.6 0 -15 14.2 0 -9 14.2 0 
-9 14.4 0 -9 14.8 0 -9 14 0 
-9 14.6 0 -3 14.2 0 -3 14.8 0 
-3 14 0 -3 14.6 0 -3 14.4 0 
8.5698 14.329 0 9.2306 14.339 0 9 14 0 
15 14.4 0 15 14.8 0 15 14.2 0 
15 14.6 0 15 14 0 -15 15.8 0 
-15 15.6 0 -15 15.4 0 -15 15.2 0 
-15 15 0 -9 15 0 -9 15.4 0 
-9 15.2 0 -9 15.8 0 -9 15.6 0 
-3 15.4 0 -3 15 0 -3 15.2 0 
-3 15.8 0 -3 15.6 0 9 15.8333 0 
9 15 0 9 15.1667 0 9 15.5 0 
9 15.3333 0 9 15.6667 0 15 15.8 0 
15 15 0 15 15.6 0 15 15.4 0 
15 15.2 0 -14.8 16 0 -15 16 0 
-14.4 16 0 -14.6 16 0 -14.2 16 0 
-13.2 16 0 -14 16 0 -13.6 16 0 
-13.8 16 0 -13.4 16 0 -12.6 16 0 
-12.8 16 0 -13 16 0 -12.2 16 0 
-12.4 16 0 -11.8 16 0 -11.6 16 0 
-11.4 16 0 -12 16 0 -11.2 16 0 
-10.6 16 0 -11 16 0 -10.2 16 0 
-10.8 16 0 -10.4 16 0 -9.8 16 0 
-9.6 16 0 -9.4 16 0 -9.2 16 0 
-10 16 0 -8.6 16 0 -8.2 16 0 
-9 16 0 -8.8 16 0 -8.4 16 0 
-8 16 0 -7.8 16 0 -7.6 16 0 
-7.2 16 0 -7.4 16 0 -6.4 16 0 
-7 16 0 -6.6 16 0 -6.2 16 0 
-6.8 16 0 -5.6 16 0 -5.4 16 0 
-5.8 16 0 -5.2 16 0 -6 16 0 
-4.8 16 0 -5 16 0 -4.6 16 0 
-4.2 16 0 -4.4 16 0 -3.6 16 0 
-4 16 0 -3.2 16 0 -3.8 16 0 
-3.4 16 0 -2.2 16 0 -2.8 16 0 
-3 16 0 -2.6 16 0 -2.4 16 0 
-2 16 0 -1.2 16 0 -1.4 16 0 
-1.8 16 0 -1.6 16 0 -0.2 16 0 
-0.6 16 0 -1 16 0 -0.4 16 0 
-0.8 16 0 0.8 16 0 0.2 16 0 
0.6 16 0 -0 16 0 0.4 16 0 
1.2 16 0 1.4 16 0 1.8 16 0 
1 16 0 1.6 16 0 2.8 16 0 
2 16 0 2.2 16 0 2.6 16 0 
2.4 16 0 3.2 16 0 3.4 16 0 
3 16 0 3.6 16 0 3.8 16 0 
4 16 0 4.8 16 0 4.6 16 0 
4.4 16 0 4.2 16 0 5.2 16 0 
5 16 0 5.6 16 0 5.8 16 0 
5.4 16 0 6.4 16 0 6.8 16 0 
6.6 16 0 6.2 16 0 6 16 0 
7.8 16 0 7.6 16 0 7.2 16 0 
7 16 0 7.4 16 0 8.2 16 0 
8.6 16 0 8.4 16 0 8.8 16 0 
8 16 0 9.6 16 0 9.4 16 0 
9 16 0 9.8 16 0 9.2 16 0 
10 16 0 10.2 16 0 10.4 16 0 
10.6 16 0 10.8 16 0 11.8 16 0 
11 16 0 11.4 16 0 11.6 16 0 
11.2 16 0 12.4 16 0 12.8 16 0 
12.6 16 0 12.2 16 0 12 16 0 
13.4 16 0 13.8 16 0 13 16 0 
13.6 16 0 13.2 16 0 14.8 16 0 
14 16 0 14.2 16 0 14.4 16 0 
14.6 16 0 15 16 0 
gid 1 1049 double
1 1 1 1 1 1 1 1 1 
1 1 1 1 1 1 1 1 1 
1 1 1 1 1 1 1 1 1 
1 1 1 1 1 1 2 2 2 
2 2 2 2 2 2 2 2 2 
2 2 2 2 1 1 2 2 2 
1 1 2 2 2 1 2 2 2 
2 2 2 2 2 2 2 2 2 
2 2 2 2 2 2 2 2 2 
2 2 2 2 2 2 2 2 2 
2 2 2 2 2 2 2 2 2 
2 2 2 2 2 2 2 2 2 
2 2 2 2 2 2 2 2 2 
2 2 2 2 2 2 2 2 2 
2 2 2 2 2 2 2 2 2 
2 2 2 2 2 2 2 2 2 
2 2 2 2 2 2 2 2 2 
2 2 2 2 2 2 2 2 2 
2 2 2 2 2 2 2 2 2 
2 2 2 2 2 2 2 2 2 
2 2 2 2 2 2 2 2 2 
2 1 1 2 2 2 2 2 1 
2 2 2 2 2 2 2 2 2 
2 2 2 2 2 2 2 2 2 
2 2 2 1 1 1 2 2 2 
2 2 2 2 2 2 2 2 2 
2 2 2 2 2 2 2 2 1 
1 1 1 2 2 2 2 2 2 
2 2 2 2 2 2 2 2 2 
2 2 2 2 2 2 2 2 2 
2 2 2 2 2 2 1 1 2 
2 2 2 2 2 2 2 2 2 
1 1 1 2 2 2 2 2 2 
2 2 2 2 2 2 2 2 2 
2 2 2 2 2 1 1 1 1 
2 2 2 2 2 2 2 2 2 
2 1 1 1 1 2 2 2 2 
2 2 2 2 2 2 2 2 2 
2 2 2 2 2 2 2 1 1 
1 1 2 2 2 2 2 2 2 
2 2 2 1 1 1 2 2 2 
2 2 2 2 2 2 2 2 2 
2 2 2 2 2 2 2 2 1 
1 1 1 1 2 2 2 2 2 
2 2 2 2 2 1 1 1 2 
2 2 2 2 2 2 2 2 2 
2 2 2 2 2 2 1 1 2 
2 2 2 1 1 2 2 2 2 
2 2 2 2 2 2 1 1 2 
2 2 2 2 2 2 2 2 2 
2 2 2 2 2 2 2 1 2 
2 2 1 1 2 2 2 2 2 
2 2 2 2 2 1 1 2 2 
2 2 2 1 2 2 1 2 2 
2 2 2 2 2 1 2 2 2 
2 2 2 2 2 2 2 2 2 
2 2 2 2 1 2 1 2 2 
2 2 2 2 2 2 2 2 2 
1 2 2 2 2 2 2 2 2 
2 2 2 2 2 1 2 2 2 
2 2 2 2 2 2 2 2 2 
2 2 1 2 2 2 2 1 1 
2 2 2 2 2 2 2 2 2 
2 2 2 2 2 1 2 2 1 
1 1 2 2 2 2 2 2 2 
2 2 2 1 1 1 1 2 2 
2 2 2 2 2 2 2 2 2 
2 2 2 2 2 2 2 2 2 
2 2 2 2 2 2 2 2 2 
2 2 2 2 2 2 2 2 2 
2 2 2 2 2 2 2 2 2 
2 2 2 2 2 2 2 2 2 
2 2 2 2 2 2 2 2 2 
2 2 2 2 2 2 2 2 2 
2 2 2 2 2 2 2 2 2 
2 2 2 2 2 2 2 2 2 
2 2 2 2 2 2 2 2 2 
2 2 2 2 2 2 2 2 2 
2 2 2 2 2 2 2 2 2 
2 2 2 2 2 2 2 2 2 
2 2 2 2 2 2 2 2 2 
2 2 2 2 2 2 2 2 2 
2 2 2 2 2 2 2 2 1 
2 2 2 1 1 2 2 2 2 
2 2 2 2 2 2 2 2 2 
2 2 2 2 2 2 2 2 2 
2 2 2 2 2 2 2 2 2 
2 1 1 1 1 2 2 2 2 
2 2 2 2 2 2 2 2 2 
2 2 2 2 2 2 2 2 2 
2 2 2 1 1 2 2 2 2 
2 2 2 2 2 2 2 2 2 
2 2 2 2 2 2 2 1 1 
1 2 2 2 2 2 1 2 2 
2 2 2 2 2 2 2 2 2 
2 2 2 2 2 2 2 2 2 
1 1 2 2 2 2 2 2 2 
2 2 2 2 2 2 2 2 2 
2 2 2 2 2 2 2 2 2 
2 2 2 2 2 2 2 2 2 
2 2 2 2 2 2 2 2 2 
2 2 2 2 2 2 2 2 2 
2 2 2 2 2 2 2 2 2 
2 2 2 2 2 2 2 2 2 
2 2 2 2 2 2 2 2 2 
2 2 2 2 2 2 2 2 2 
2 2 2 2 2 2 2 2 2 
2 2 2 2 2 2 2 2 2 
2 2 2 2 2 2 2 2 2 
2 2 2 2 2 2 2 2 2 
2 2 2 2 2 2 2 2 2 
2 2 2 2 2 2 2 2 2 
2 2 2 2 2 2 2 2 2 
2 2 2 2 2 2 2 2 2 
2 2 2 2 2 2 2 2 2 
2 2 2 2 2 2 2 2 2 
2 2 2 2 2 
A 1 1049 double
10 10 10 10 10 10 10 10 10 
10 10 10 10 10 10 10 10 10 
10 10 10 10 10 10 10 10 10 
10 10 10 10 10 10 10 10 10 
10 10 10 10 10 10 10 10 10 
10 10 10 10 10 10 10 10 10 
10 10 10 10 10 10 10 10 10 
10 10 10 10 10 10 10 10 10 
10 10 10 10 10 10 10 10 10 
10 10 10 10 10 10 10 10 10 
10 10 10 10 10 10 10 10 10 
10 10 10 10 10 10 10 10 10 
10 10 10 10 10 10 10 10 10 
10 10 10 10 10 10 10 10 10 
10 10 10 10 10 10 10 10 10 
10 10 10 10 10 10 10 10 10 
10 10 10 10 10 10 10 10 10 
10 10 10 10 10 10 10 10 10 
10 10 10 10 10 10 10 10 10 
10 10 10 10 10 10 10 10 10 
10 10 10 10 10 10 10 10 10 
10 10 10 10 10 10 10 10 10 
10 10 10 10 10 10 10 10 10 
10 10 10 10 10 10 10 10 10 
10 10 10 10 10 10 10 10 10 
10 10 10 10 10 10 10 10 10 
10 10 10 10 10 10 10 10 10 
10 10 10 10 10 10 10 10 10 
10 10 10 10 10 10 10 10 10 
10 10 10 10 10 10 10 10 10 
10 10 10 10 10 10 10 10 10 
10 10 10 10 10 10 10 10 10 
10 10 10 10 10 10 10 10 10 
10 10 10 10 10 10 10 10 10 
10 10 10 10 10 10 10 10 10 
10 10 10 10 10 10 10 10 10 
10 10 10 10 10 10 10 10 10 
10 10 10 10 10 10 10 10 10 
10 10 10 10 10 10 10 10 10 
10 10 10 10 10 10 10 10 10 
10 10 10 10 10 10 10 10 10 
10 10 10 10 10 10 10 10 10 
10 10 10 10 10 10 10 10 10 
10 10 10 10 10 10 10 10 10 
10 10 10 10 10 10 10 10 10 
10 10 10 10 10 10 10 10 10 
10 10 10 10 10 10 10 10 10 
10 10 10 10 10 10 10 10 10 
10 10 10 10 10 10 10 10 10 
10 10 10 10 10 10 10 10 10 
10 10 10 10 10 10 10 10 10 
10 10 10 10 10 10 10 10 10 
10 10 10 10 10 10 10 10 10 
10 10 10 10 10 10 10 10 10 
10 10 10 10 10 10 10 10 10 
10 10 10 10 10 10 10 10 10 
10 10 10 10 10 10 10 10 10 
10 10 10 10 10 10 10 10 10 
10 10 10 10 10 10 10 10 10 
10 10 10 10 10 10 10 10 10 
10 10 10 10 10 10 10 10 10 
10 10 10 10 10 10 10 10 10 
10 10 10 10 10 10 10 10 10 
10 10 10 10 10 10 10 10 10 
10 10 10 10 10 10 10 10 10 
10 10 10 10 10 10 10 10 10 
10 10 10 10 10 10 10 10 10 
10 10 10 10 10 10 10 10 10 
10 10 10 10 10 10 10 10 10 
10 10 10 10 10 10 10 10 10 
10 10 10 10 10 10 10 10 10 
10 10 10 10 10 10 10 10 10 
10 10 10 10 10 10 10 10 10 
10 10 10 10 10 10 10 10 10 
10 10 10 10 10 10 10 10 10 
10 10 10 10 10 10 10 10 10 
10 10 10 10 10 10 10 10 10 
10 10 10 10 10 10 10 10 10 
10 10 10 10 10 10 10 10 10 
10 10 10 10 10 10 10 10 10 
10 10 10 10 10 10 10 10 10 
10 10 10 10 10 10 10 10 10 
10 10 10 10 10 10 10 10 10 
10 10 10 10 10 10 10 10 10 
10 10 10 10 10 10 10 10 10 
10 10 10 10 10 10 10 10 10 
10 10 10 10 10 10 10 10 10 
10 10 10 10 10 10 10 10 10 
10 10 10 10 10 10 10 10 10 
10 10 10 10 10 10 10 10 10 
10 10 10 10 10 10 10 10 10 
10 10 10 10 10 10 10 10 10 
10 10 10 10 10 10 10 10 10 
10 10 10 10 10 10 10 10 10 
10 10 10 10 10 10 10 10 10 
10 10 10 10 10 10 10 10 10 
10 10 10 10 10 10 10 10 10 
10 10 10 10 10 10 10 10 10 
10 10 10 10 10 10 10 10 10 
10 10 10 10 10 10 10 10 10 
10 10 10 10 10 10 10 10 10 
10 10 10 10 10 10 10 10 10 
10 10 10 10 10 10 10 10 10 
10 10 10 10 10 10 10 10 10 
10 10 10 10 10 10 10 10 10 
10 10 10 10 10 10 10 10 10 
10 10 10 10 10 10 10 10 10 
10 10 10 10 10 10 10 10 10 
10 10 10 10 10 10 10 10 10 
10 10 10 10 10 10 10 10 10 
10 10 10 10 10 10 10 10 10 
10 10 10 10 10 10 10 10 10 
10 10 10 10 10 10 10 10 10 
10 10 10 10 10 10 10 10 10 
10 10 10 10 10 10 10 10 10 
10 10 10 10 10 10 10 10 10 
10 10 10 10 10 
B 1 1049 double
0.2 0.2 0.2 0.2 0.2 0.2 0.2 0.2 0.2 
0.2 0.2 0.2 0.2 0.2 0.2 0.2 0.2 0.2 
0.2 0.2 0.2 0.2 0.2 0.2 0.2 0.2 0.2 
0.2 0.2 0.2 0.2 0.2 0.2 0.2 0.2 0.2 
0.2 0.2 0.2 0.2 0.2 0.2 0.2 0.2 0.2 
0.2 0.2 0.2 0.2 0.2 0.2 0.2 0.2 0.2 
0.2 0.2 0.2 0.2 0.2 0.2 0.2 0.2 0.2 
0.2 0.2 0.2 0.2 0.2 0.2 0.2 0.2 0.2 
0.2 0.2 0.2 0.2 0.2 0.2 0.2 0.2 0.2 
0.2 0.2 0.2 0.2 0.2 0.2 0.2 0.2 0.2 
0.2 0.2 0.2 0.2 0.2 0.2 0.2 0.2 0.2 
0.2 0.2 0.2 0.2 0.2 0.2 0.2 0.2 0.2 
0.2 0.2 0.2 0.2 0.2 0.2 0.2 0.2 0.2 
0.2 0.2 0.2 0.2 0.2 0.2 0.2 0.2 0.2 
0.2 0.2 0.2 0.2 0.2 0.2 0.2 0.2 0.2 
0.2 0.2 0.2 0.2 0.2 0.2 0.2 0.2 0.2 
0.2 0.2 0.2 0.2 0.2 0.2 0.2 0.2 0.2 
0.2 0.2 0.2 0.2 0.2 0.2 0.2 0.2 0.2 
0.2 0.2 0.2 0.2 0.2 0.2 0.2 0.2 0.2 
0.2 0.2 0.2 0.2 0.2 0.2 0.2 0.2 0.2 
0.2 0.2 0.2 0.2 0.2 0.2 0.2 0.2 0.2 
0.2 0.2 0.2 0.2 0.2 0.2 0.2 0.2 0.2 
0.2 0.2 0.2 0.2 0.2 0.2 0.2 0.2 0.2 
0.2 0.2 0.2 0.2 0.2 0.2 0.2 0.2 0.2 
0.2 0.2 0.2 0.2 0.2 0.2 0.2 0.2 0.2 
0.2 0.2 0.2 0.2 0.2 0.2 0.2 0.2 0.2 
0.2 0.2 0.2 0.2 0.2 0.2 0.2 0.2 0.2 
0.2 0.2 0.2 0.2 0.2 0.2 0.2 0.2 0.2 
0.2 0.2 0.2 0.2 0.2 0.2 0.2 0.2 0.2 
0.2 0.2 0.2 0.2 0.2 0.2 0.2 0.2 0.2 
0.2 0.2 0.2 0.2 0.2 0.2 0.2 0.2 0.2 
0.2 0.2 0.2 0.2 0.2 0.2 0.2 0.2 0.2 
0.2 0.2 0.2 0.2 0.2 0.2 0.2 0.2 0.2 
0.2 0.2 0.2 0.2 0.2 0.2 0.2 0.2 0.2 
0.2 0.2 0.2 0.2 0.2 0.2 0.2 0.2 0.2 
0.2 0.2 0.2 0.2 0.2 0.2 0.2 0.2 0.2 
0.2 0.2 0.2 0.2 0.2 0.2 0.2 0.2 0.2 
0.2 0.2 0.2 0.2 0.2 0.2 0.2 0.2 0.2 
0.2 0.2 0.2 0.2 0.2 0.2 0.2 0.2 0.2 
0.2 0.2 0.2 0.2 0.2 0.2 0.2 0.2 0.2 
0.2 0.2 0.2 0.2 0.2 0.2 0.2 0.2 0.2 
0.2 0.2 0.2 0.2 0.2 0.2 0.2 0.2 0.2 
0.2 0.2 0.2 0.2 0.2 0.2 0.2 0.2 0.2 
0.2 0.2 0.2 0.2 0.2 0.2 0.2 0.2 0.2 
0.2 0.2 0.2 0.2 0.2 0.2 0.2 0.2 0.2 
0.2 0.2 0.2 0.2 0.2 0.2 0.2 0.2 0.2 
0.2 0.2 0.2 0.2 0.2 0.2 0.2 0.2 0.2 
0.2 0.2 0.2 0.2 0.2 0.2 0.2 0.2 0.2 
0.2 0.2 0.2 0.2 0.2 0.2 0.2 0.2 0.2 
0.2 0.2 0.2 0.2 0.2 0.2 0.2 0.2 0.2 
0.2 0.2 0.2 0.2 0.2 0.2 0.2 0.2 0.2 
0.2 0.2 0.2 0.2 0.2 0.2 0.2 0.2 0.2 
0.2 0.2 0.2 0.2 0.2 0.2 0.2 0.2 0.2 
0.2 0.2 0.2 0.2 0.2 0.2 0.2 0.2 0.2 
0.2 0.2 0.2 0.2 0.2 0.2 0.2 0.2 0.2 
0.2 0.2 0.2 0.2 0.2 0.2 0.2 0.2 0.2 
0.2 0.2 0.2 0.2 0.2 0.2 0.2 0.2 0.2 
0.2 0.2 0.2 0.2 0.2 0.2 0.2 0.2 0.2 
0.2 0.2 0.2 0.2 0.2 0.2 0.2 0.2 0.2 
0.2 0.2 0.2 0.2 0.2 0.2 0.2 0.2 0.2 
0.2 0.2 0.2 0.2 0.2 0.2 0.2 0.2 0.2 
0.2 0.2 0.2 0.2 0.2 0.2 0.2 0.2 0.2 
0.2 0.2 0.2 0.2 0.2 0.2 0.2 0.2 0.2 
0.2 0.2 0.2 0.2 0.2 0.2 0.2 0.2 0.2 
0.2 0.2 0.2 0.2 0.2 0.2 0.2 0.2 0.2 
0.2 0.2 0.2 0.2 0.2 0.2 0.2 0.2 0.2 
0.2 0.2 0.2 0.2 0.2 0.2 0.2 0.2 0.2 
0.2 0.2 0.2 0.2 0.2 0.2 0.2 0.2 0.2 
0.2 0.2 0.2 0.2 0.2 0.2 0.2 0.2 0.2 
0.2 0.2 0.2 0.2 0.2 0.2 0.2 0.2 0.2 
0.2 0.2 0.2 0.2 0.2 0.2 0.2 0.2 0.2 
0.2 0.2 0.2 0.2 0.2 0.2 0.2 0.2 0.2 
0.2 0.2 0.2 0.2 0.2 0.2 0.2 0.2 0.2 
0.2 0.2 0.2 0.2 0.2 0.2 0.2 0.2 0.2 
0.2 0.2 0.2 0.2 0.2 0.2 0.2 0.2 0.2 
0.2 0.2 0.2 0.2 0.2 0.2 0.2 0.2 0.2 
0.2 0.2 0.2 0.2 0.2 0.2 0.2 0.2 0.2 
0.2 0.2 0.2 0.2 0.2 0.2 0.2 0.2 0.2 
0.2 0.2 0.2 0.2 0.2 0.2 0.2 0.2 0.2 
0.2 0.2 0.2 0.2 0.2 0.2 0.2 0.2 0.2 
0.2 0.2 0.2 0.2 0.2 0.2 0.2 0.2 0.2 
0.2 0.2 0.2 0.2 0.2 0.2 0.2 0.2 0.2 
0.2 0.2 0.2 0.2 0.2 0.2 0.2 0.2 0.2 
0.2 0.2 0.2 0.2 0.2 0.2 0.2 0.2 0.2 
0.2 0.2 0.2 0.2 0.2 0.2 0.2 0.2 0.2 
0.2 0.2 0.2 0.2 0.2 0.2 0.2 0.2 0.2 
0.2 0.2 0.2 0.2 0.2 0.2 0.2 0.2 0.2 
0.2 0.2 0.2 0.2 0.2 0.2 0.2 0.2 0.2 
0.2 0.2 0.2 0.2 0.2 0.2 0.2 0.2 0.2 
0.2 0.2 0.2 0.2 0.2 0.2 0.2 0.2 0.2 
0.2 0.2 0.2 0.2 0.2 0.2 0.2 0.2 0.2 
0.2 0.2 0.2 0.2 0.2 0.2 0.2 0.2 0.2 
0.2 0.2 0.2 0.2 0.2 0.2 0.2 0.2 0.2 
0.2 0.2 0.2 0.2 0.2 0.2 0.2 0.2 0.2 
0.2 0.2 0.2 0.2 0.2 0.2 0.2 0.2 0.2 
0.2 0.2 0.2 0.2 0.2 0.2 0.2 0.2 0.2 
0.2 0.2 0.2 0.2 0.2 0.2 0.2 0.2 0.2 
0.2 0.2 0.2 0.2 0.2 0.2 0.2 0.2 0.2 
0.2 0.2 0.2 0.2 0.2 0.2 0.2 0.2 0.2 
0.2 0.2 0.2 0.2 0.2 0.2 0.2 0.2 0.2 
0.2 0.2 0.2 0.2 0.2 0.2 0.2 0.2 0.2 
0.2 0.2 0.2 0.2 0.2 0.2 0.2 0.2 0.2 
0.2 0.2 0.2 0.2 0.2 0.2 0.2 0.2 0.2 
0.2 0.2 0.2 0.2 0.2 0.2 0.2 0.2 0.2 
0.2 0.2 0.2 0.2 0.2 0.2 0.2 0.2 0.2 
0.2 0.2 0.2 0.2 0.2 0.2 0.2 0.2 0.2 
0.2 0.2 0.2 0.2 0.2 0.2 0.2 0.2 0.2 
0.2 0.2 0.2 0.2 0.2 0.2 0.2 0.2 0.2 
0.2 0.2 0.2 0.2 0.2 0.2 0.2 0.2 0.2 
0.2 0.2 0.2 0.2 0.2 0.2 0.2 0.2 0.2 
0.2 0.2 0.2 0.2 0.2 0.2 0.2 0.2 0.2 
0.2 0.2 0.2 0.2 0.2 0.2 0.2 0.2 0.2 
0.2 0.2 0.2 0.2 0.2 0.2 0.2 0.2 0.2 
0.2 0.2 0.2 0.2 0.2 0.2 0.2 0.2 0.2 
0.2 0.2 0.2 0.2 0.2 0.2 0.2 0.2 0.2 
0.2 0.2 0.2 0.2 0.2 0.2 0.2 0.2 0.2 
0.2 0.2 0.2 0.2 0.2 
c 1 1049 double
0.1 0.1 0.1 0.1 0.1 0.1 0.1 0.1 0.1 
0.1 0.1 0.1 0.1 0.1 0.1 0.1 0.1 0.1 
0.1 0.1 0.1 0.1 0.1 0.1 0.1 0.1 0.1 
0.1 0.1 0.1 0.1 0.1 0.1 0.1 0.1 0.1 
0.1 0.1 0.1 0.1 0.1 0.1 0.1 0.1 0.1 
0.1 0.1 0.1 0.1 0.1 0.1 0.1 0.1 0.1 
0.1 0.1 0.1 0.1 0.1 0.1 0.1 0.1 0.1 
0.1 0.1 0.1 0.1 0.1 0.1 0.1 0.1 0.1 
0.1 0.1 0.1 0.1 0.1 0.1 0.1 0.1 0.1 
0.1 0.1 0.1 0.1 0.1 0.1 0.1 0.1 0.1 
0.1 0.1 0.1 0.1 0.1 0.1 0.1 0.1 0.1 
0.1 0.1 0.1 0.1 0.1 0.1 0.1 0.1 0.1 
0.1 0.1 0.1 0.1 0.1 0.1 0.1 0.1 0.1 
0.1 0.1 0.1 0.1 0.1 0.1 0.1 0.1 0.1 
0.1 0.1 0.1 0.1 0.1 0.1 0.1 0.1 0.1 
0.1 0.1 0.1 0.1 0.1 0.1 0.1 0.1 0.1 
0.1 0.1 0.1 0.1 0.1 0.1 0.1 0.1 0.1 
0.1 0.1 0.1 0.1 0.1 0.1 0.1 0.1 0.1 
0.1 0.1 0.1 0.1 0.1 0.1 0.1 0.1 0.1 
0.1 0.1 0.1 0.1 0.1 0.1 0.1 0.1 0.1 
0.1 0.1 0.1 0.1 0.1 0.1 0.1 0.1 0.1 
0.1 0.1 0.1 0.1 0.1 0.1 0.1 0.1 0.1 
0.1 0.1 0.1 0.1 0.1 0.1 0.1 0.1 0.1 
0.1 0.1 0.1 0.1 0.1 0.1 0.1 0.1 0.1 
0.1 0.1 0.1 0.1 0.1 0.1 0.1 0.1 0.1 
0.1 0.1 0.1 0.1 0.1 0.1 0.1 0.1 0.1 
0.1 0.1 0.1 0.1 0.1 0.1 0.1 0.1 0.1 
0.1 0.1 0.1 0.1 0.1 0.1 0.1 0.1 0.1 
0.1 0.1 0.1 0.1 0.1 0.1 0.1 0.1 0.1 
0.1 0.1 0.1 0.1 0.1 0.1 0.1 0.1 0.1 
0.1 0.1 0.1 0.1 0.1 0.1 0.1 0.1 0.1 
0.1 0.1 0.1 0.1 0.1 0.1 0.1 0.1 0.1 
0.1 0.1 0.1 0.1 0.1 0.1 0.1 0.1 0.1 
0.1 0.1 0.1 0.1 0.1 0.1 0.1 0.1 0.1 
0.1 0.1 0.1 0.1 0.1 0.1 0.1 0.1 0.1 
0.1 0.1 0.1 0.1 0.1 0.1 0.1 0.1 0.1 
0.1 0.1 0.1 0.1 0.1 0.1 0.1 0.1 0.1 
0.1 0.1 0.1 0.1 0.1 0.1 0.1 0.1 0.1 
0.1 0.1 0.1 0.1 0.1 0.1 0.1 0.1 0.1 
0.1 0.1 0.1 0.1 0.1 0.1 0.1 0.1 0.1 
0.1 0.1 0.1 0.1 0.1 0.1 0.1 0.1 0.1 
0.1 0.1 0.1 0.1 0.1 0.1 0.1 0.1 0.1 
0.1 0.1 0.1 0.1 0.1 0.1 0.1 0.1 0.1 
0.1 0.1 0.1 0.1 0.1 0.1 0.1 0.1 0.1 
0.1 0.1 0.1 0.1 0.1 0.1 0.1 0.1 0.1 
0.1 0.1 0.1 0.1 0.1 0.1 0.1 0.1 0.1 
0.1 0.1 0.1 0.1 0.1 0.1 0.1 0.1 0.1 
0.1 0.1 0.1 0.1 0.1 0.1 0.1 0.1 0.1 
0.1 0.1 0.1 0.1 0.1 0.1 0.1 0.1 0.1 
0.1 0.1 0.1 0.1 0.1 0.1 0.1 0.1 0.1 
0.1 0.1 0.1 0.1 0.1 0.1 0.1 0.1 0.1 
0.1 0.1 0.1 0.1 0.1 0.1 0.1 0.1 0.1 
0.1 0.1 0.1 0.1 0.1 0.1 0.1 0.1 0.1 
0.1 0.1 0.1 0.1 0.1 0.1 0.1 0.1 0.1 
0.1 0.1 0.1 0.1 0.1 0.1 0.1 0.1 0.1 
0.1 0.1 0.1 0.1 0.1 0.1 0.1 0.1 0.1 
0.1 0.1 0.1 0.1 0.1 0.1 0.1 0.1 0.1 
0.1 0.1 0.1 0.1 0.1 0.1 0.1 0.1 0.1 
0.1 0.1 0.1 0.1 0.1 0.1 0.1 0.1 0.1 
0.1 0.1 0.1 0.1 0.1 0.1 0.1 0.1 0.1 
0.1 0.1 0.1 0.1 0.1 0.1 0.1 0.1 0.1 
0.1 0.1 0.1 0.1 0.1 0.1 0.1 0.1 0.1 
0.1 0.1 0.1 0.1 0.1 0.1 0.1 0.1 0.1 
0.1 0.1 0.1 0.1 0.1 0.1 0.1 0.1 0.1 
0.1 0.1 0.1 0.1 0.1 0.1 0.1 0.1 0.1 
0.1 0.1 0.1 0.1 0.1 0.1 0.1 0.1 0.1 
0.1 0.1 0.1 0.1 0.1 0.1 0.1 0.1 0.1 
0.1 0.1 0.1 0.1 0.1 0.1 0.1 0.1 0.1 
0.1 0.1 0.1 0.1 0.1 0.1 0.1 0.1 0.1 
0.1 0.1 0.1 0.1 0.1 0.1 0.1 0.1 0.1 
0.1 0.1 0.1 0.1 0.1 0.1 0.1 0.1 0.1 
0.1 0.1 0.1 0.1 0.1 0.1 0.1 0.1 0.1 
0.1 0.1 0.1 0.1 0.1 0.1 0.1 0.1 0.1 
0.1 0.1 0.1 0.1 0.1 0.1 0.1 0.1 0.1 
0.1 0.1 0.1 0.1 0.1 0.1 0.1 0.1 0.1 
0.1 0.1 0.1 0.1 0.1 0.1 0.1 0.1 0.1 
0.1 0.1 0.1 0.1 0.1 0.1 0.1 0.1 0.1 
0.1 0.1 0.1 0.1 0.1 0.1 0.1 0.1 0.1 
0.1 0.1 0.1 0.1 0.1 0.1 0.1 0.1 0.1 
0.1 0.1 0.1 0.1 0.1 0.1 0.1 0.1 0.1 
0.1 0.1 0.1 0.1 0.1 0.1 0.1 0.1 0.1 
0.1 0.1 0.1 0.1 0.1 0.1 0.1 0.1 0.1 
0.1 0.1 0.1 0.1 0.1 0.1 0.1 0.1 0.1 
0.1 0.1 0.1 0.1 0.1 0.1 0.1 0.1 0.1 
0.1 0.1 0.1 0.1 0.1 0.1 0.1 0.1 0.1 
0.1 0.1 0.1 0.1 0.1 0.1 0.1 0.1 0.1 
0.1 0.1 0.1 0.1 0.1 0.1 0.1 0.1 0.1 
0.1 0.1 0.1 0.1 0.1 0.1 0.1 0.1 0.1 
0.1 0.1 0.1 0.1 0.1 0.1 0.1 0.1 0.1 
0.1 0.1 0.1 0.1 0.1 0.1 0.1 0.1 0.1 
0.1 0.1 0.1 0.1 0.1 0.1 0.1 0.1 0.1 
0.1 0.1 0.1 0.1 0.1 0.1 0.1 0.1 0.1 
0.1 0.1 0.1 0.1 0.1 0.1 0.1 0.1 0.1 
0.1 0.1 0.1 0.1 0.1 0.1 0.1 0.1 0.1 
0.1 0.1 0.1 0.1 0.1 0.1 0.1 0.1 0.1 
0.1 0.1 0.1 0.1 0.1 0.1 0.1 0.1 0.1 
0.1 0.1 0.1 0.1 0.1 0.1 0.1 0.1 0.1 
0.1 0.1 0.1 0.1 0.1 0.1 0.1 0.1 0.1 
0.1 0.1 0.1 0.1 0.1 0.1 0.1 0.1 0.1 
0.1 0.1 0.1 0.1 0.1 0.1 0.1 0.1 0.1 
0.1 0.1 0.1 0.1 0.1 0.1 0.1 0.1 0.1 
0.1 0.1 0.1 0.1 0.1 0.1 0.1 0.1 0.1 
0.1 0.1 0.1 0.1 0.1 0.1 0.1 0.1 0.1 
0.1 0.1 0.1 0.1 0.1 0.1 0.1 0.1 0.1 
0.1 0.1 0.1 0.1 0.1 0.1 0.1 0.1 0.1 
0.1 0.1 0.1 0.1 0.1 0.1 0.1 0.1 0.1 
0.1 0.1 0.1 0.1 0.1 0.1 0.1 0.1 0.1 
0.1 0.1 0.1 0.1 0.1 0.1 0.1 0.1 0.1 
0.1 0.1 0.1 0.1 0.1 0.1 0.1 0.1 0.1 
0.1 0.1 0.1 0.1 0.1 0.1 0.1 0.1 0.1 
0.1 0.1 0.1 0.1 0.1 0.1 0.1 0.1 0.1 
0.1 0.1 0.1 0.1 0.1 0.1 0.1 0.1 0.1 
0.1 0.1 0.1 0.1 0.1 0.1 0.1 0.1 0.1 
0.1 0.1 0.1 0.1 0.1 0.1 0.1 0.1 0.1 
0.1 0.1 0.1 0.1 0.1 0.1 0.1 0.1 0.1 
0.1 0.1 0.1 0.1 0.1 0.1 0.1 0.1 0.1 
0.1 0.1 0.1 0.1 0.1 
m 1 1049 double
76.33 56.755 91.315 65.975 84.655 75.77 61.625 94.14 62.64 
65.745 84.935 90.92 83.88 53.285 99.255 95.485 97.585 93.885 
94.295 56.49 92.105 53.87 91.99 63.205 91.415 69.85 89.775 
88.61 76.76 58.915 90.795 95.63 68.31 74.595 86.865 59.805 
90.21 72.105 63.77 71.295 56.63 81.145 96.915 71.62 91.575 
68.92 71.85 92.685 75.99 73.95 65.415 54.43 82.065 67.63 
53.195 92.83 80.455 63.885 94.9 51.995 99.78 84.98 59.365 
86.405 95.85 84.31 54.625 51.68 81.635 85.42 61.525 67.53 
56.565 54.23 94.72 58.645 84.575 82.525 66.01 91.01 97.91 
52.725 79.285 80.62 69.475 66.835 94.07 51.82 70.215 77.17 
55.435 84.04 68.75 85.89 86.38 63.77 67.92 63.255 77.015 
78.94 66.84 98.38 75.3 61.995 99.66 81.13 92.93 50.06 
58.41 88.965 91.95 64.145 88.695 76.7 87.695 53.975 90.47 
52.85 57.17 50.485 51.89 87.335 83.005 64.51 52.46 53.78 
66.585 86.505 83.26 71.43 51.4 97.205 69.325 98.445 73.645 
92.22 92.2 90.155 83.095 91.675 77.165 78.855 72.405 89.44 
94.935 90.485 90.585 91.69 72.835 53.545 53.375 89.28 94.635 
76.53 84.825 72.93 97.485 61.765 81.095 57.64 73.415 93.12 
64.355 78.66 91.35 94.145 50.095 97.515 81.7 98.54 90.745 
83.575 66.84 53.615 61.225 76.93 64.23 63.09 68.09 55.5 
88.98 78.645 67.295 67.775 88.82 64.605 87.44 67.255 61.895 
91.14 62.455 60.985 52.46 99.205 83.245 61.75 75.965 71.55 
74.57 85.17 84.935 50.62 57.5 88.82 82.455 91.825 61.135 
68.715 79.28 57.105 57.16 99.295 59.68 62.755 62.52 97.835 
88.105 53.065 66.025 84.075 56.77 54.265 64.21 54.34 97.64 
83.92 60.105 89.94 65.72 61.46 53.715 78.975 81.775 80.945 
61.37 83.1 88.205 90.125 97.19 56.94 56.165 65.37 69.45 
82.91 75.995 58.805 77.035 57.37 66.375 82.185 96.14 79.42 
59.3 90.71 59.965 77.895 52.49 99.54 99.79 94.36 75.945 
51.445 89.855 84.745 76.835 76.19 98.05 94.845 72.06 50.45 
97.395 51.35 51.79 67.465 68.405 90.785 86.39 79.28 94.29 
80.145 71.975 56.185 80.605 94.25 73.845 86.275 58.88 76.365 
88.325 59.26 97.965 94.04 88.765 90.18 66.515 81.24 82.145 
65.885 76.715 81.675 64.5 91.775 96.07 56.56 59.43 67.56 
53.495 59.195 77.845 91.815 67.085 63.675 95.075 64.86 50.185 
80.715 68.965 72.14 91.175 79.09 88.66 51.895 55.775 90.02 
79.97 50.495 80.435 98.36 91.91 60.665 66.665 98.77 58.24 
64.45 78.145 50.245 54.82 91.425 52.52 98.155 92.965 95.4 
54.285 93.135 99.235 65.865 63.11 93.97 82.155 77.555 65.86 
80.635 69.135 93.88 62.02 55.055 97.645 79.64 62.95 91.045 
92.905 94.095 96.68 54.55 82.95 51.54 51.84 97.645 58.73 
87.835 72.5 71.695 80.635 60.67 58.46 61.075 63.235 61.45 
84.85 95.255 94.73 71.46 87.31 83.41 96.95 78.955 62.775 
83.255 77.105 54.64 59.25 78.815 73.065 72.215 72.69 93.03 
80.95 61.49 52.62 69.49 53.565 75 64.785 52.64 98.985 
81.245 90.23 84.95 68.94 80.795 75.755 88.235 62.675 92.69 
74.97 67.645 82.76 77.89 74.58 75.575 81.085 81.82 57.605 
75.285 92.87 80.785 79.025 54.985 64.52 74.09 84.2 53.44 
75.64 83.2 56.11 76.925 96.495 80.21 57.705 77.41 76.815 
62.485 65.165 66.515 51.265 52.14 72.5 82.015 60.01 53.405 
63.63 86.93 81.56 71.73 75.5 57.455 96.155 72.85 75.105 
64.755 59.735 65.345 54.44 99.585 86.845 84.98 66.62 89.585 
96.46 69.25 88.36 88.125 59.86 71.125 73.465 88.43 55.76 
69.98 74.46 95.625 85.085 61.81 62.3 93.285 68.645 95.94 
77.18 95.785 79.875 69.605 50.135 86.67 67.07 81.52 52.3 
93.45 90.25 50.14 83.74 94.51 90.135 87.78 55.195 93.495 
73.97 55.215 88.485 71.16 74.925 69.13 54.355 67.705 52.845 
61.305 50.295 51.8 80.21 83.805 90.115 95.585 50.405 88.815 
72.76 81.545 65.95 69.63 94.98 77.125 72.62 58.13 71.17 
81.835 73.385 53.45 51.79 80.285 93.81 65.84 98.07 91.025 
84.28 52.7 72.83 86.42 88.85 52.085 79.245 86.025 53.03 
61.3 65.295 67.14 51.185 67.13 76.085 92.59 82.53 96.84 
74.725 53.915 95.86 54.365 84.365 52.415 92.29 71.445 88.185 
83.035 63.785 52.39 96.57 72.355 96.67 78.68 65.345 62.195 
61.75 88.58 97.35 60.915 88.715 92.45 77.495 70.405 78.15 
56.98 50.42 86.345 55.865 67.685 61.965 50.04 78.22 98.86 
87.525 83.625 77.95 50.635 83.29 76.18 62.11 96.12 69.75 
89.09 69.6 87.8 76.055 76.84 75.525 52.815 56.22 50.245 
62.835 59.025 66.455 86.875 93.555 99.67 68.84 68.07 94.775 
94.965 67.945 74.59 64.025 84.41 84.91 74.11 81.64 70.09 
82.145 57.87 65.465 83.585 70.15 83.55 54.625 96.455 84.815 
69.29 75.275 84.18 86.085 85.45 56.965 74.52 90.65 63.305 
92.28 92.855 63.02 65.365 98.425 98.165 84.255 73.945 82.515 
97.425 96.25 99.025 89.34 87.58 73.195 64.745 67.58 60.975 
78.91 95.03 76.625 55.405 88.385 54.835 83.815 51.13 55.6 
87.8 69.905 95.18 52.98 54.325 89.775 88.85 96.055 81.71 
67.59 62.66 75.98 86.605 61.895 91.35 60.2 70.86 71.17 
72.135 74.92 79.15 86.415 86.99 50.36 55.315 68.57 52.865 
51.735 60.15 84.75 70.235 87.61 80.295 84.62 75.41 64.77 
52.215 96.02 97.175 56.16 95.795 78.2 71.39 77.43 59.49 
55.205 98.415 96.31 51.31 99.24 58.615 64.03 90.835 83.64 
95.61 91.62 78.985 81.36 69.795 79.105 86.675 70.77 96.825 
87.285 76.09 63.735 58.88 51.345 55.855 99.665 73.265 86.4 
58.515 54.535 93.505 83.105 60.355 57.65 52.685 68.7 70.49 
64.31 75.27 70.15 64.77 75.615 90.695 88.345 98.93 55.635 
95.75 79.92 58.525 81.14 50.63 57.43 51.265 52.715 82.965 
77.02 80.695 65.01 61.155 58.98 93.6 63.49 56.54 85.42 
76.67 83.05 59.44 92.885 56.345 92.71 97.535 92.32 50.985 
90.41 99.055 79.695 78.335 69.7 99.52 91.885 73.565 89.07 
65.37 90.895 72.9 95.105 69.85 96.09 61.69 55.26 81.88 
94.49 54.955 63.575 86.805 94.88 96.775 93.055 94.02 81.74 
68.11 76.605 56.275 74.095 88.605 72.995 64.595 78.55 78.875 
73.81 85.44 99.31 74.885 76.895 63.425 74.06 92.06 54.76 
67.185 90.945 70.05 75.855 57.795 62.53 91.705 86.715 96.495 
77.84 89.14 78.73 96.505 86.86 87.935 91.03 88.565 51.47 
55.085 51.175 83.66 51.73 99.52 96.035 57.68 67.415 70.88 
94.77 82.225 65.675 66.555 88.025 77.11 69.05 71.7 58.295 
60.045 61.68 76.05 81.71 55.685 75.765 78.455 62.865 69.715 
98.72 98.795 74.285 99.555 67.495 51.685 70.335 55.68 98.09 
56.8 88.215 56.525 59.005 74.39 68.65 78.305 60.86 69.645 
97.06 66.74 84.435 95.535 92.09 98.78 95.895 87.225 66.88 
77.71 79.68 60.45 88.42 75.42 82.33 64.63 56.7 55.475 
64.065 85.95 64.795 98.34 68.865 94.495 89.905 85.995 50.815 
64.98 79.47 74.65 99.01 93.3 94.665 69.405 85.655 54.865 
87.34 50.355 67.26 77.75 59.495 60.18 96.895 60.31 88.185 
78.12 64.62 63 91.41 66.29 67.08 67.325 83.54 97.22 
92.61 96.6 93.13 93.68 82.695 95.08 70.11 91.12 65.545 
50 75.405 75.265 66.89 90.545 90.335 79.945 95.57 97.13 
56.69 82.66 76.115 61.155 75.735 83.935 56.405 69.375 50.895 
60.61 74.25 69.065 82.95 61.27 55.655 76.75 57.47 95.905 
89.285 80.405 73.015 78.6 87.435 50.905 89.91 62.165 96.48 
97.075 77.02 93.61 94.125 51.485 95.67 50.16 52.755 84.46 
98.54 85.285 92.53 65.905 52.075 99.995 61.485 59.81 87.415 
52.975 94.885 50.77 75.055 56.545 78.88 62.935 99.66 66.91 
75.105 71.33 88.425 67.815 68.41 96.055 94.3 54.65 72.915 
79.95 71.425 95.43 70.58 59.46 86.57 79.1 57.38 87.45 
87.625 77.64 94.195 87.625 65.29 
p0 3 1049 double
0 -10 0 0 -10 0 0 -10 0 
0 -10 0 0 -10 0 0 -10 0 
0 -10 0 0 -10 0 0 -10 0 
0 -10 0 0 -10 0 0 -10 0 
0 -10 0 0 -10 0 0 -10 0 
0 -10 0 0 -10 0 0 -10 0 
0 -10 0 0 -10 0 0 -10 0 
0 -10 0 0 -10 0 0 -10 0 
0 -10 0 0 -10 0 0 -10 0 
0 -10 0 0 -10 0 0 -10 0 
0 -10 0 0 -10 0 0 -10 0 
0 0 0 0 0 0 0 0 0 
0 0 0 0 0 0 0 0 0 
0 0 0 0 0 0 0 0 0 
0 0 0 0 0 0 0 0 0 
0 0 0 0 0 0 0 0 0 
0 0 0 -12 0 0 -12 0 0 
0 0 0 0 0 0 0 0 0 
-12 0 0 -12 0 0 0 0 0 
0 0 0 0 0 0 -12 0 0 
0 0 0 0 0 0 0 0 0 
0 0 0 0 0 0 0 0 0 
0 0 0 0 0 0 0 0 0 
0 0 0 0 0 0 0 0 0 
0 0 0 0 0 0 0 0 0 
0 0 0 0 0 0 0 0 0 
0 0 0 0 0 0 0 0 0 
0 0 0 0 0 0 0 0 0 
0 0 0 0 0 0 0 0 0 
0 0 0 0 0 0 0 0 0 
0 0 0 0 0 0 0 0 0 
0 0 0 0 0 0 0 0 0 
0 0 0 0 0 0 0 0 0 
0 0 0 0 0 0 0 0 0 
0 0 0 0 0 0 0 0 0 
0 0 0 0 0 0 0 0 0 
0 0 0 0 0 0 0 0 0 
0 0 0 0 0 0 0 0 0 
0 0 0 0 0 0 0 0 0 
0 0 0 0 0 0 0 0 0 
0 0 0 0 0 0 0 0 0 
0 0 0 0 0 0 0 0 0 
0 0 0 0 0 0 0 0 0 
0 0 0 0 0 0 0 0 0 
0 0 0 0 0 0 0 0 0 
0 0 0 0 0 0 0 0 0 
0 0 0 0 0 0 0 0 0 
0 0 0 0 0 0 0 0 0 
0 0 0 0 0 0 0 0 0 
0 0 0 0 0 0 0 0 0 
0 0 0 0 0 0 0 0 0 
0 0 0 0 0 0 0 0 0 
0 0 0 0 0 0 0 0 0 
0 0 0 0 0 0 0 0 0 
0 0 0 0 0 0 0 0 0 
0 0 0 0 0 0 0 0 0 
0 0 0 0 0 0 0 0 0 
0 0 0 0 0 0 0 0 0 
0 0 0 0 0 0 0 0 0 
0 0 0 0 0 0 0 0 0 
0 0 0 0 0 0 0 0 0 
0 0 0 0 0 0 0 0 0 
0 0 0 0 0 0 0 0 0 
0 0 0 12 0 0 12 0 0 
0 0 0 0 0 0 0 0 0 
0 0 0 0 0 0 12 0 0 
0 0 0 0 0 0 0 0 0 
0 0 0 0 0 0 0 0 0 
0 0 0 0 0 0 0 0 0 
0 0 0 0 0 0 0 0 0 
0 0 0 0 0 0 0 0 0 
0 0 0 0 0 0 0 0 0 
0 0 0 0 0 0 0 0 0 
-12 0 0 -12 0 0 -12 0 0 
0 0 0 0 0 0 0 0 0 
0 0 0 0 0 0 0 0 0 
0 0 0 0 0 0 0 0 0 
0 0 0 0 0 0 0 0 0 
0 0 0 0 0 0 0 0 0 
0 0 0 0 0 0 0 0 0 
0 0 0 0 0 0 12 0 0 
12 0 0 12 0 0 12 0 0 
0 0 0 0 0 0 0 0 0 
0 0 0 0 0 0 0 0 0 
0 0 0 0 0 0 0 0 0 
0 0 0 0 0 0 0 0 0 
0 0 0 0 0 0 0 0 0 
0 0 0 0 0 0 0 0 0 
0 0 0 0 0 0 0 0 0 
0 0 0 0 0 0 0 0 0 
0 0 0 0 0 0 0 0 0 
0 0 0 0 0 0 0 0 0 
12 0 0 12 0 0 0 0 0 
0 0 0 0 0 0 0 0 0 
0 0 0 0 0 0 0 0 0 
0 0 0 0 0 0 0 0 0 
-12 0 0 -12 0 0 -12 0 0 
0 0 0 0 0 0 0 0 0 
0 0 0 0 0 0 0 0 0 
0 0 0 0 0 0 0 0 0 
0 0 0 0 0 0 0 0 0 
0 0 0 0 0 0 0 0 0 
0 0 0 0 0 0 0 0 0 
0 0 0 0 0 0 12 0 0 
12 0 0 12 0 0 12 0 0 
0 0 0 0 0 0 0 0 0 
0 0 0 0 0 0 0 0 0 
0 0 0 0 0 0 0 0 0 
0 0 0 -12 0 0 -12 0 0 
-12 0 0 -12 0 0 0 0 0 
0 0 0 0 0 0 0 0 0 
0 0 0 0 0 0 0 0 0 
0 0 0 0 0 0 0 0 0 
0 0 0 0 0 0 0 0 0 
0 0 0 0 0 0 0 0 0 
0 0 0 0 0 0 0 0 0 
0 0 0 12 0 0 12 0 0 
12 0 0 12 0 0 0 0 0 
0 0 0 0 0 0 0 0 0 
0 0 0 0 0 0 0 0 0 
0 0 0 0 0 0 0 0 0 
-12 0 0 -12 0 0 -12 0 0 
0 0 0 0 0 0 0 0 0 
0 0 0 0 0 0 0 0 0 
0 0 0 0 0 0 0 0 0 
0 0 0 0 0 0 0 0 0 
0 0 0 0 0 0 0 0 0 
0 0 0 0 0 0 0 0 0 
0 0 0 0 0 0 12 0 0 
12 0 0 12 0 0 12 0 0 
12 0 0 0 0 0 0 0 0 
0 0 0 0 0 0 0 0 0 
0 0 0 0 0 0 0 0 0 
0 0 0 0 0 0 -12 0 0 
-12 0 0 -12 0 0 0 0 0 
0 0 0 0 0 0 0 0 0 
0 0 0 0 0 0 0 0 0 
0 0 0 0 0 0 0 0 0 
0 0 0 0 0 0 0 0 0 
0 0 0 0 0 0 0 0 0 
12 0 0 12 0 0 0 0 0 
0 0 0 0 0 0 0 0 0 
12 0 0 12 0 0 0 0 0 
0 0 0 0 0 0 0 0 0 
0 0 0 0 0 0 0 0 0 
0 0 0 0 0 0 0 0 0 
-12 0 0 -12 0 0 0 0 0 
0 0 0 0 0 0 0 0 0 
0 0 0 0 0 0 0 0 0 
0 0 0 0 0 0 0 0 0 
0 0 0 0 0 0 0 0 0 
0 0 0 0 0 0 0 0 0 
0 0 0 12 0 0 0 0 0 
0 0 0 0 0 0 12 0 0 
12 0 0 0 0 0 0 0 0 
0 0 0 0 0 0 0 0 0 
0 0 0 0 0 0 0 0 0 
0 0 0 0 0 0 -12 0 0 
-12 0 0 0 0 0 0 0 0 
0 0 0 0 0 0 0 0 0 
-9 9 0 0 0 0 0 0 0 
-9 9 0 0 0 0 0 0 0 
0 0 0 0 0 0 0 0 0 
0 0 0 0 0 0 -9 9 0 
0 0 0 0 0 0 0 0 0 
0 0 0 0 0 0 0 0 0 
0 0 0 0 0 0 0 0 0 
0 0 0 0 0 0 0 0 0 
0 0 0 0 0 0 0 0 0 
0 0 0 -9 9 0 0 0 0 
-9 9 0 0 0 0 0 0 0 
0 0 0 0 0 0 0 0 0 
0 0 0 0 0 0 0 0 0 
0 0 0 0 0 0 0 0 0 
-9 9 0 0 0 0 0 0 0 
0 0 0 0 0 0 0 0 0 
0 0 0 0 0 0 0 0 0 
0 0 0 0 0 0 0 0 0 
0 0 0 0 0 0 9 9 0 
0 0 0 0 0 0 0 0 0 
0 0 0 0 0 0 0 0 0 
0 0 0 0 0 0 0 0 0 
0 0 0 0 0 0 0 0 0 
0 0 0 0 0 0 9 9 0 
0 0 0 0 0 0 0 0 0 
0 0 0 9 9 0 9 9 0 
0 0 0 0 0 0 0 0 0 
0 0 0 0 0 0 0 0 0 
0 0 0 0 0 0 0 0 0 
0 0 0 0 0 0 0 0 0 
0 0 0 0 0 0 9 9 0 
0 0 0 0 0 0 12 0 0 
12 0 0 12 0 0 0 0 0 
0 0 0 0 0 0 0 0 0 
0 0 0 0 0 0 0 0 0 
0 0 0 0 0 0 0 0 0 
-12 0 0 -9 9 0 12 0 0 
12 0 0 0 0 0 0 0 0 
0 0 0 0 0 0 0 0 0 
0 0 0 0 0 0 0 0 0 
0 0 0 0 0 0 0 0 0 
0 0 0 0 0 0 0 0 0 
0 0 0 0 0 0 0 0 0 
0 0 0 0 0 0 0 0 0 
0 0 0 0 0 0 0 0 0 
0 0 0 0 0 0 0 0 0 
0 0 0 0 0 0 0 0 0 
0 0 0 0 0 0 0 0 0 
0 0 0 0 0 0 0 0 0 
0 0 0 0 0 0 0 0 0 
0 0 0 0 0 0 0 0 0 
0 0 0 0 0 0 0 0 0 
0 0 0 0 0 0 0 0 0 
0 0 0 0 0 0 0 0 0 
0 0 0 0 0 0 0 0 0 
0 0 0 0 0 0 0 0 0 
0 0 0 0 0 0 0 0 0 
0 0 0 0 0 0 0 0 0 
0 0 0 0 0 0 0 0 0 
0 0 0 0 0 0 0 0 0 
0 0 0 0 0 0 0 0 0 
0 0 0 0 0 0 0 0 0 
0 0 0 0 0 0 0 0 0 
0 0 0 0 0 0 0 0 0 
0 0 0 0 0 0 0 0 0 
0 0 0 0 0 0 0 0 0 
0 0 0 0 0 0 0 0 0 
0 0 0 0 0 0 0 0 0 
0 0 0 0 0 0 0 0 0 
0 0 0 0 0 0 0 0 0 
0 0 0 0 0 0 0 0 0 
0 0 0 0 0 0 0 0 0 
0 0 0 0 0 0 0 0 0 
0 0 0 0 0 0 0 0 0 
0 0 0 0 0 0 0 0 0 
0 0 0 0 0 0 0 0 0 
0 0 0 0 0 0 0 0 0 
0 0 0 0 0 0 0 0 0 
0 0 0 0 0 0 0 0 0 
0 0 0 0 0 0 0 0 0 
0 0 0 0 0 0 0 0 0 
0 0 0 0 0 0 0 0 0 
0 0 0 0 0 0 0 0 0 
0 0 0 0 0 0 0 0 0 
0 0 0 0 0 0 0 0 0 
0 0 0 0 0 0 0 0 0 
0 0 0 0 0 0 0 0 0 
0 0 0 0 0 0 0 0 0 
0 0 0 0 0 0 13.5 10 0 
0 0 0 0 0 0 0 0 0 
13.5 10 0 13.5 10 0 0 0 0 
0 0 0 0 0 0 0 0 0 
0 0 0 0 0 0 0 0 0 
0 0 0 0 0 0 0 0 0 
0 0 0 0 0 0 0 0 0 
0 0 0 0 0 0 0 0 0 
0 0 0 0 0 0 0 0 0 
0 0 0 0 0 0 0 0 0 
0 0 0 0 0 0 0 0 0 
0 0 0 0 0 0 0 0 0 
0 0 0 0 0 0 0 0 0 
0 0 0 13.5 10 0 13.5 10 0 
13.5 10 0 13.5 10 0 0 0 0 
0 0 0 0 0 0 0 0 0 
0 0 0 0 0 0 0 0 0 
0 0 0 0 0 0 0 0 0 
0 0 0 0 0 0 0 0 0 
0 0 0 0 0 0 0 0 0 
0 0 0 0 0 0 0 0 0 
0 0 0 0 0 0 0 0 0 
0 0 0 0 0 0 0 0 0 
13.5 10 0 13.5 10 0 0 0 0 
0 0 0 0 0 0 0 0 0 
0 0 0 0 0 0 0 0 0 
0 0 0 0 0 0 0 0 0 
0 0 0 0 0 0 0 0 0 
0 0 0 0 0 0 0 0 0 
0 0 0 0 0 0 0 0 0 
0 0 0 9 14.5 0 9 14.5 0 
13.5 10 0 0 0 0 0 0 0 
0 0 0 0 0 0 0 0 0 
13.5 10 0 0 0 0 0 0 0 
0 0 0 0 0 0 0 0 0 
0 0 0 0 0 0 0 0 0 
0 0 0 0 0 0 0 0 0 
0 0 0 0 0 0 0 0 0 
0 0 0 0 0 0 0 0 0 
0 0 0 0 0 0 0 0 0 
9 14.5 0 13.5 10 0 0 0 0 
0 0 0 0 0 0 0 0 0 
0 0 0 0 0 0 0 0 0 
0 0 0 0 0 0 0 0 0 
0 0 0 0 0 0 0 0 0 
0 0 0 0 0 0 0 0 0 
0 0 0 0 0 0 0 0 0 
0 0 0 0 0 0 0 0 0 
0 0 0 0 0 0 0 0 0 
0 0 0 0 0 0 0 0 0 
0 0 0 0 0 0 0 0 0 
0 0 0 0 0 0 0 0 0 
0 0 0 0 0 0 0 0 0 
0 0 0 0 0 0 0 0 0 
0 0 0 0 0 0 0 0 0 
0 0 0 0 0 0 0 0 0 
0 0 0 0 0 0 0 0 0 
0 0 0 0 0 0 0 0 0 
0 0 0 0 0 0 0 0 0 
0 0 0 0 0 0 0 0 0 
0 0 0 0 0 0 0 0 0 
0 0 0 0 0 0 0 0 0 
0 0 0 0 0 0 0 0 0 
0 0 0 0 0 0 0 0 0 
0 0 0 0 0 0 0 0 0 
0 0 0 0 0 0 0 0 0 
0 0 0 0 0 0 0 0 0 
0 0 0 0 0 0 0 0 0 
0 0 0 0 0 0 0 0 0 
0 0 0 0 0 0 0 0 0 
0 0 0 0 0 0 0 0 0 
0 0 0 0 0 0 0 0 0 
0 0 0 0 0 0 0 0 0 
0 0 0 0 0 0 0 0 0 
0 0 0 0 0 0 0 0 0 
0 0 0 0 0 0 0 0 0 
0 0 0 0 0 0 0 0 0 
0 0 0 0 0 0 0 0 0 
0 0 0 0 0 0 0 0 0 
0 0 0 0 0 0 0 0 0 
0 0 0 0 0 0 0 0 0 
0 0 0 0 0 0 0 0 0 
0 0 0 0 0 0 0 0 0 
0 0 0 0 0 0 0 0 0 
0 0 0 0 0 0 0 0 0 
0 0 0 0 0 0 0 0 0 
0 0 0 0 0 0 0 0 0 
0 0 0 0 0 0 0 0 0 
0 0 0 0 0 0 0 0 0 
0 0 0 0 0 0 0 0 0 
0 0 0 0 0 0 0 0 0 
0 0 0 0 0 0 0 0 0 
0 0 0 0 0 0 0 0 0 
0 0 0 0 0 0 0 0 0 
0 0 0 0 0 0 0 0 0 
0 0 0 0 0 0 0 0 0 
0 0 0 0 0 0 0 0 0 
0 0 0 0 0 0 0 0 0 
0 0 0 0 0 0 0 0 0 
0 0 0 0 0 0 0 0 0 
0 0 0 0 0 0 0 0 0 
0 0 0 0 0 0 
v0 1 1049 double
3.7348 3.4418 3.5598 3.908 3.1534 2.2246 3.5868 2.7598 3.7604 
2.9072 3.8026 2.7868 2.2234 2.087 3.447 3.7132 3.1552 3.3932 
3.5098 3.4192 3.3376 2.8894 3.5394 3.9438 2.959 2.798 2.5562 
2.9348 3.3968 3.7956 3.7722 3.5338 2.7364 0 0 0 
0 0 0 0 0 0 0 0 0 
0 0 0 0 2.9892 3.4142 0 0 0 
2.5998 3.7386 0 0 0 3.7004 0 0 0 
0 0 0 0 0 0 0 0 0 
0 0 0 0 0 0 0 0 0 
0 0 0 0 0 0 0 0 0 
0 0 0 0 0 0 0 0 0 
0 0 0 0 0 0 0 0 0 
0 0 0 0 0 0 0 0 0 
0 0 0 0 0 0 0 0 0 
0 0 0 0 0 0 0 0 0 
0 0 0 0 0 0 0 0 0 
0 0 0 0 0 0 0 0 0 
0 0 0 0 0 0 0 0 0 
0 0 0 0 0 0 0 0 0 
0 0 0 0 0 0 0 0 0 
0 0 0 0 0 0 0 0 0 
0 3.6894 2.105 0 0 0 0 0 2.2178 
0 0 0 0 0 0 0 0 0 
0 0 0 0 0 0 0 0 0 
0 0 0 3.6034 3.6802 3.9802 0 0 0 
0 0 0 0 0 0 0 0 0 
0 0 0 0 0 0 0 0 3.1134 
3.2294 2.6972 2.8228 0 0 0 0 0 0 
0 0 0 0 0 0 0 0 0 
0 0 0 0 0 0 0 0 0 
0 0 0 0 0 0 2.5702 3.9752 0 
0 0 0 0 0 0 0 0 0 
3.4388 3.7164 2.726 0 0 0 0 0 0 
0 0 0 0 0 0 0 0 0 
0 0 0 0 0 3.0734 3.358 2.6856 2.3004 
0 0 0 0 0 0 0 0 0 
0 2.0272 3.2554 3.938 2.9862 0 0 0 0 
0 0 0 0 0 0 0 0 0 
0 0 0 0 0 0 0 2.9518 3.2458 
2.227 2.5952 0 0 0 0 0 0 0 
0 0 0 2.0254 3.5126 3.4416 0 0 0 
0 0 0 0 0 0 0 0 0 
0 0 0 0 0 0 0 0 3.8484 
2.5666 3.4702 3.991 2.325 0 0 0 0 0 
0 0 0 0 0 2.5352 3.3948 3.3812 0 
0 0 0 0 0 0 0 0 0 
0 0 0 0 0 0 3.8554 2.192 0 
0 0 0 3.219 2.8338 0 0 0 0 
0 0 0 0 0 0 2.8832 2.2866 0 
0 0 0 0 0 0 0 0 0 
0 0 0 0 0 0 0 3.5612 0 
0 0 3.4072 3.2878 0 0 0 0 0 
0 0 0 0 0 2.7916 3.236 0 0 
0 0 0 2.9892 0 0 3.4754 0 0 
0 0 0 0 0 3.18 0 0 0 
0 0 0 0 0 0 0 0 0 
0 0 0 0 2.5992 0 2.1056 0 0 
0 0 0 0 0 0 0 0 0 
2.6016 0 0 0 0 0 0 0 0 
0 0 0 0 0 2.6138 0 0 0 
0 0 0 0 0 0 0 0 0 
0 0 2.79 0 0 0 0 2.0302 2.0424 
0 0 0 0 0 0 0 0 0 
0 0 0 0 0 2.264 0 0 2.4594 
3.053 2.0104 0 0 0 0 0 0 0 
0 0 0 2.5898 2.9256 3.3678 2.9022 0 0 
0 0 0 0 0 0 0 0 0 
0 0 0 0 0 0 0 0 0 
0 0 0 0 0 0 0 0 0 
0 0 0 0 0 0 0 0 0 
0 0 0 0 0 0 0 0 0 
0 0 0 0 0 0 0 0 0 
0 0 0 0 0 0 0 0 0 
0 0 0 0 0 0 0 0 0 
0 0 0 0 0 0 0 0 0 
0 0 0 0 0 0 0 0 0 
0 0 0 0 0 0 0 0 0 
0 0 0 0 0 0 0 0 0 
0 0 0 0 0 0 0 0 0 
0 0 0 0 0 0 0 0 0 
0 0 0 0 0 0 0 0 0 
0 0 0 0 0 0 0 0 0 
0 0 0 0 0 0 0 0 2.1178 
0 0 0 3.1832 3.8268 0 0 0 0 
0 0 0 0 0 0 0 0 0 
0 0 0 0 0 0 0 0 0 
0 0 0 0 0 0 0 0 0 
0 3.852 2.6632 3.514 2.4322 0 0 0 0 
0 0 0 0 0 0 0 0 0 
0 0 0 0 0 0 0 0 0 
0 0 0 3.2768 2.5972 0 0 0 0 
0 0 0 0 0 0 0 0 0 
0 0 0 0 0 0 0 2.1126 2.0074 
3.075 0 0 0 0 0 2.7532 0 0 
0 0 0 0 0 0 0 0 0 
0 0 0 0 0 0 0 0 0 
2.1262 2.2322 0 0 0 0 0 0 0 
0 0 0 0 0 0 0 0 0 
0 0 0 0 0 0 0 0 0 
0 0 0 0 0 0 0 0 0 
0 0 0 0 0 0 0 0 0 
0 0 0 0 0 0 0 0 0 
0 0 0 0 0 0 0 0 0 
0 0 0 0 0 0 0 0 0 
0 0 0 0 0 0 0 0 0 
0 0 0 0 0 0 0 0 0 
0 0 0 0 0 0 0 0 0 
0 0 0 0 0 0 0 0 0 
0 0 0 0 0 0 0 0 0 
0 0 0 0 0 0 0 0 0 
0 0 0 0 0 0 0 0 0 
0 0 0 0 0 0 0 0 0 
0 0 0 0 0 0 0 0 0 
0 0 0 0 0 0 0 0 0 
0 0 0 0 0 0 0 0 0 
0 0 0 0 0 0 0 0 0 
0 0 0 0 0 
tau 1 1049 double
2 2 2 2 2 2 2 2 2 
2 2 2 2 2 2 2 2 2 
2 2 2 2 2 2 2 2 2 
2 2 2 2 2 2 2 2 2 
2 2 2 2 2 2 2 2 2 
2 2 2 2 2 2 2 2 2 
2 2 2 2 2 2 2 2 2 
2 2 2 2 2 2 2 2 2 
2 2 2 2 2 2 2 2 2 
2 2 2 2 2 2 2 2 2 
2 2 2 2 2 2 2 2 2 
2 2 2 2 2 2 2 2 2 
2 2 2 2 2 2 2 2 2 
2 2 2 2 2 2 2 2 2 
2 2 2 2 2 2 2 2 2 
2 2 2 2 2 2 2 2 2 
2 2 2 2 2 2 2 2 2 
2 2 2 2 2 2 2 2 2 
2 2 2 2 2 2 2 2 2 
2 2 2 2 2 2 2 2 2 
2 2 2 2 2 2 2 2 2 
2 2 2 2 2 2 2 2 2 
2 2 2 2 2 2 2 2 2 
2 2 2 2 2 2 2 2 2 
2 2 2 2 2 2 2 2 2 
2 2 2 2 2 2 2 2 2 
2 2 2 2 2 2 2 2 2 
2 2 2 2 2 2 2 2 2 
2 2 2 2 2 2 2 2 2 
2 2 2 2 2 2 2 2 2 
2 2 2 2 2 2 2 2 2 
2 2 2 2 2 2 2 2 2 
2 2 2 2 2 2 2 2 2 
2 2 2 2 2 2 2 2 2 
2 2 2 2 2 2 2 2 2 
2 2 2 2 2 2 2 2 2 
2 2 2 2 2 2 2 2 2 
2 2 2 2 2 2 2 2 2 
2 2 2 2 2 2 2 2 2 
2 2 2 2 2 2 2 2 2 
2 2 2 2 2 2 2 2 2 
2 2 2 2 2 2 2 2 2 
2 2 2 2 2 2 2 2 2 
2 2 2 2 2 2 2 2 2 
2 2 2 2 2 2 2 2 2 
2 2 2 2 2 2 2 2 2 
2 2 2 2 2 2 2 2 2 
2 2 2 2 2 2 2 2 2 
2 2 2 2 2 2 2 2 2 
2 2 2 2 2 2 2 2 2 
2 2 2 2 2 2 2 2 2 
2 2 2 2 2 2 2 2 2 
2 2 2 2 2 2 2 2 2 
2 2 2 2 2 2 2 2 2 
2 2 2 2 2 2 2 2 2 
2 2 2 2 2 2 2 2 2 
2 2 2 2 2 2 2 2 2 
2 2 2 2 2 2 2 2 2 
2 2 2 2 2 2 2 2 2 
2 2 2 2 2 2 2 2 2 
2 2 2 2 2 2 2 2 2 
2 2 2 2 2 2 2 2 2 
2 2 2 2 2 2 2 2 2 
2 2 2 2 2 2 2 2 2 
2 2 2 2 2 2 2 2 2 
2 2 2 2 2 2 2 2 2 
2 2 2 2 2 2 2 2 2 
2 2 2 2 2 2 2 2 2 
2 2 2 2 2 2 2 2 2 
2 2 2 2 2 2 2 2 2 
2 2 2 2 2 2 2 2 2 
2 2 2 2 2 2 2 2 2 
2 2 2 2 2 2 2 2 2 
2 2 2 2 2 2 2 2 2 
2 2 2 2 2 2 2 2 2 
2 2 2 2 2 2 2 2 2 
2 2 2 2 2 2 2 2 2 
2 2 2 2 2 2 2 2 2 
2 2 2 2 2 2 2 2 2 
2 2 2 2 2 2 2 2 2 
2 2 2 2 2 2 2 2 2 
2 2 2 2 2 2 2 2 2 
2 2 2 2 2 2 2 2 2 
2 2 2 2 2 2 2 2 2 
2 2 2 2 2 2 2 2 2 
2 2 2 2 2 2 2 2 2 
2 2 2 2 2 2 2 2 2 
2 2 2 2 2 2 2 2 2 
2 2 2 2 2 2 2 2 2 
2 2 2 2 2 2 2 2 2 
2 2 2 2 2 2 2 2 2 
2 2 2 2 2 2 2 2 2 
2 2 2 2 2 2 2 2 2 
2 2 2 2 2 2 2 2 2 
2 2 2 2 2 2 2 2 2 
2 2 2 2 2 2 2 2 2 
2 2 2 2 2 2 2 2 2 
2 2 2 2 2 2 2 2 2 
2 2 2 2 2 2 2 2 2 
2 2 2 2 2 2 2 2 2 
2 2 2 2 2 2 2 2 2 
2 2 2 2 2 2 2 2 2 
2 2 2 2 2 2 2 2 2 
2 2 2 2 2 2 2 2 2 
2 2 2 2 2 2 2 2 2 
2 2 2 2 2 2 2 2 2 
2 2 2 2 2 2 2 2 2 
2 2 2 2 2 2 2 2 2 
2 2 2 2 2 2 2 2 2 
2 2 2 2 2 2 2 2 2 
2 2 2 2 2 2 2 2 2 
2 2 2 2 2 2 2 2 2 
2 2 2 2 2 2 2 2 2 
2 2 2 2 2 2 2 2 2 
2 2 2 2 2 2 2 2 2 
2 2 2 2 2 2 2 2 2 
2 2 2 2 2 
R 1 1049 double
0.30266 0.26351 0.33263 0.28195 0.31931 0.30154 0.27325 0.33828 0.27528 
0.28149 0.31987 0.33184 0.31776 0.25657 0.34851 0.34097 0.34517 0.33777 
0.33859 0.26298 0.33421 0.25774 0.33398 0.27641 0.33283 0.2897 0.32955 
0.32722 0.30352 0.26783 0.33159 0.34126 0.28662 0.1 0.1 0.1 
0.1 0.1 0.1 0.1 0.1 0.1 0.1 0.1 0.1 
0.1 0.1 0.1 0.1 0.2979 0.28083 0.1 0.1 0.1 
0.25639 0.33566 0.1 0.1 0.1 0.25399 0.1 0.1 0.1 
0.1 0.1 0.1 0.1 0.1 0.1 0.1 0.1 0.1 
0.1 0.1 0.1 0.1 0.1 0.1 0.1 0.1 0.1 
0.1 0.1 0.1 0.1 0.1 0.1 0.1 0.1 0.1 
0.1 0.1 0.1 0.1 0.1 0.1 0.1 0.1 0.1 
0.1 0.1 0.1 0.1 0.1 0.1 0.1 0.1 0.1 
0.1 0.1 0.1 0.1 0.1 0.1 0.1 0.1 0.1 
0.1 0.1 0.1 0.1 0.1 0.1 0.1 0.1 0.1 
0.1 0.1 0.1 0.1 0.1 0.1 0.1 0.1 0.1 
0.1 0.1 0.1 0.1 0.1 0.1 0.1 0.1 0.1 
0.1 0.1 0.1 0.1 0.1 0.1 0.1 0.1 0.1 
0.1 0.1 0.1 0.1 0.1 0.1 0.1 0.1 0.1 
0.1 0.1 0.1 0.1 0.1 0.1 0.1 0.1 0.1 
0.1 0.1 0.1 0.1 0.1 0.1 0.1 0.1 0.1 
0.1 0.1 0.1 0.1 0.1 0.1 0.1 0.1 0.1 
0.1 0.27491 0.27197 0.1 0.1 0.1 0.1 0.1 0.2931 
0.1 0.1 0.1 0.1 0.1 0.1 0.1 0.1 0.1 
0.1 0.1 0.1 0.1 0.1 0.1 0.1 0.1 0.1 
0.1 0.1 0.1 0.31815 0.26354 0.25853 0.1 0.1 0.1 
0.1 0.1 0.1 0.1 0.1 0.1 0.1 0.1 0.1 
0.1 0.1 0.1 0.1 0.1 0.1 0.1 0.1 0.2889 
0.31582 0.30199 0.26761 0.1 0.1 0.1 0.1 0.1 0.1 
0.1 0.1 0.1 0.1 0.1 0.1 0.1 0.1 0.1 
0.1 0.1 0.1 0.1 0.1 0.1 0.1 0.1 0.1 
0.1 0.1 0.1 0.1 0.1 0.1 0.32278 0.30856 0.1 
0.1 0.1 0.1 0.1 0.1 0.1 0.1 0.1 0.1 
0.32665 0.26852 0.34593 0.1 0.1 0.1 0.1 0.1 0.1 
0.1 0.1 0.1 0.1 0.1 0.1 0.1 0.1 0.1 
0.1 0.1 0.1 0.1 0.1 0.27735 0.34015 0.27972 0.25037 
0.1 0.1 0.1 0.1 0.1 0.1 0.1 0.1 0.1 
0.1 0.25099 0.31087 0.34672 0.33382 0.1 0.1 0.1 0.1 
0.1 0.1 0.1 0.1 0.1 0.1 0.1 0.1 0.1 
0.1 0.1 0.1 0.1 0.1 0.1 0.1 0.30511 0.28172 
0.31127 0.28827 0.1 0.1 0.1 0.1 0.1 0.1 0.1 
0.1 0.1 0.1 0.2591 0.3159 0.25308 0.1 0.1 0.1 
0.1 0.1 0.1 0.1 0.1 0.1 0.1 0.1 0.1 
0.1 0.1 0.1 0.1 0.1 0.1 0.1 0.1 0.27555 
0.31651 0.30421 0.25928 0.2685 0.1 0.1 0.1 0.1 0.1 
0.1 0.1 0.1 0.1 0.1 0.3 0.27957 0.25528 0.1 
0.1 0.1 0.1 0.1 0.1 0.1 0.1 0.1 0.1 
0.1 0.1 0.1 0.1 0.1 0.1 0.31217 0.31364 0.1 
0.1 0.1 0.1 0.30805 0.25997 0.1 0.1 0.1 0.1 
0.1 0.1 0.1 0.1 0.1 0.1 0.26541 0.30482 0.1 
0.1 0.1 0.1 0.1 0.1 0.1 0.1 0.1 0.1 
0.1 0.1 0.1 0.1 0.1 0.1 0.1 0.2957 0.1 
0.1 0.1 0.28069 0.25888 0.1 0.1 0.1 0.1 0.1 
0.1 0.1 0.1 0.1 0.1 0.29225 0.29693 0.1 0.1 
0.1 0.1 0.1 0.32017 0.1 0.1 0.33657 0.1 0.1 
0.1 0.1 0.1 0.1 0.1 0.32334 0.1 0.1 0.1 
0.1 0.1 0.1 0.1 0.1 0.1 0.1 0.1 0.1 
0.1 0.1 0.1 0.1 0.29985 0.1 0.25871 0.1 0.1 
0.1 0.1 0.1 0.1 0.1 0.1 0.1 0.1 0.1 
0.29552 0.1 0.1 0.1 0.1 0.1 0.1 0.1 0.1 
0.1 0.1 0.1 0.1 0.1 0.33762 0.1 0.1 0.1 
0.1 0.1 0.1 0.1 0.1 0.1 0.1 0.1 0.1 
0.1 0.1 0.28428 0.1 0.1 0.1 0.1 0.31506 0.34368 
0.1 0.1 0.1 0.1 0.1 0.1 0.1 0.1 0.1 
0.1 0.1 0.1 0.1 0.1 0.34334 0.1 0.1 0.27439 
0.2735 0.32716 0.1 0.1 0.1 0.1 0.1 0.1 0.1 
0.1 0.1 0.1 0.26173 0.28537 0.27393 0.25008 0.1 0.1 
0.1 0.1 0.1 0.1 0.1 0.1 0.1 0.1 0.1 
0.1 0.1 0.1 0.1 0.1 0.1 0.1 0.1 0.1 
0.1 0.1 0.1 0.1 0.1 0.1 0.1 0.1 0.1 
0.1 0.1 0.1 0.1 0.1 0.1 0.1 0.1 0.1 
0.1 0.1 0.1 0.1 0.1 0.1 0.1 0.1 0.1 
0.1 0.1 0.1 0.1 0.1 0.1 0.1 0.1 0.1 
0.1 0.1 0.1 0.1 0.1 0.1 0.1 0.1 0.1 
0.1 0.1 0.1 0.1 0.1 0.1 0.1 0.1 0.1 
0.1 0.1 0.1 0.1 0.1 0.1 0.1 0.1 0.1 
0.1 0.1 0.1 0.1 0.1 0.1 0.1 0.1 0.1 
0.1 0.1 0.1 0.1 0.1 0.1 0.1 0.1 0.1 
0.1 0.1 0.1 0.1 0.1 0.1 0.1 0.1 0.1 
0.1 0.1 0.1 0.1 0.1 0.1 0.1 0.1 0.1 
0.1 0.1 0.1 0.1 0.1 0.1 0.1 0.1 0.1 
0.1 0.1 0.1 0.1 0.1 0.1 0.1 0.1 0.1 
0.1 0.1 0.1 0.1 0.1 0.1 0.1 0.1 0.1 
0.1 0.1 0.1 0.1 0.1 0.1 0.1 0.1 0.3228 
0.1 0.1 0.1 0.31621 0.27071 0.1 0.1 0.1 0.1 
0.1 0.1 0.1 0.1 0.1 0.1 0.1 0.1 0.1 
0.1 0.1 0.1 0.1 0.1 0.1 0.1 0.1 0.1 
0.1 0.1 0.1 0.1 0.1 0.1 0.1 0.1 0.1 
0.1 0.3161 0.26888 0.33577 0.26269 0.1 0.1 0.1 0.1 
0.1 0.1 0.1 0.1 0.1 0.1 0.1 0.1 0.1 
0.1 0.1 0.1 0.1 0.1 0.1 0.1 0.1 0.1 
0.1 0.1 0.1 0.32361 0.33976 0.1 0.1 0.1 0.1 
0.1 0.1 0.1 0.1 0.1 0.1 0.1 0.1 0.1 
0.1 0.1 0.1 0.1 0.1 0.1 0.1 0.33412 0.25952 
0.28437 0.1 0.1 0.1 0.1 0.1 0.33341 0.1 0.1 
0.1 0.1 0.1 0.1 0.1 0.1 0.1 0.1 0.1 
0.1 0.1 0.1 0.1 0.1 0.1 0.1 0.1 0.1 
0.33954 0.31445 0.1 0.1 0.1 0.1 0.1 0.1 0.1 
0.1 0.1 0.1 0.1 0.1 0.1 0.1 0.1 0.1 
0.1 0.1 0.1 0.1 0.1 0.1 0.1 0.1 0.1 
0.1 0.1 0.1 0.1 0.1 0.1 0.1 0.1 0.1 
0.1 0.1 0.1 0.1 0.1 0.1 0.1 0.1 0.1 
0.1 0.1 0.1 0.1 0.1 0.1 0.1 0.1 0.1 
0.1 0.1 0.1 0.1 0.1 0.1 0.1 0.1 0.1 
0.1 0.1 0.1 0.1 0.1 0.1 0.1 0.1 0.1 
0.1 0.1 0.1 0.1 0.1 0.1 0.1 0.1 0.1 
0.1 0.1 0.1 0.1 0.1 0.1 0.1 0.1 0.1 
0.1 0.1 0.1 0.1 0.1 0.1 0.1 0.1 0.1 
0.1 0.1 0.1 0.1 0.1 0.1 0.1 0.1 0.1 
0.1 0.1 0.1 0.1 0.1 0.1 0.1 0.1 0.1 
0.1 0.1 0.1 0.1 0.1 0.1 0.1 0.1 0.1 
0.1 0.1 0.1 0.1 0.1 0.1 0.1 0.1 0.1 
0.1 0.1 0.1 0.1 0.1 0.1 0.1 0.1 0.1 
0.1 0.1 0.1 0.1 0.1 0.1 0.1 0.1 0.1 
0.1 0.1 0.1 0.1 0.1 0.1 0.1 0.1 0.1 
0.1 0.1 0.1 0.1 0.1 0.1 0.1 0.1 0.1 
0.1 0.1 0.1 0.1 0.1 0.1 0.1 0.1 0.1 
0.1 0.1 0.1 0.1 0.1 
a 3 1049 double
0 0 0 0 0 0 0 0 0 
0 0 0 0 0 0 0 0 0 
0 0 0 0 0 0 0 0 0 
0 0 0 0 0 0 0 0 0 
0 0 0 0 0 0 0 0 0 
0 0 0 0 0 0 0 0 0 
0 0 0 0 0 0 0 0 0 
0 0 0 0 0 0 0 0 0 
0 0 0 0 0 0 0 0 0 
0 0 0 0 0 0 0 0 0 
0 0 0 0 0 0 0 0 0 
0 0 0 0 0 0 0 0 0 
0 0 0 0 0 0 0 0 0 
0 0 0 0 0 0 0 0 0 
0 0 0 0 0 0 0 0 0 
0 0 0 0 0 0 0 0 0 
0 0 0 0 0 0 0 0 0 
0 0 0 0 0 0 0 0 0 
0 0 0 0 0 0 0 0 0 
0 0 0 0 0 0 0 0 0 
0 0 0 0 0 0 0 0 0 
0 0 0 0 0 0 0 0 0 
0 0 0 0 0 0 0 0 0 
0 0 0 0 0 0 0 0 0 
0 0 0 0 0 0 0 0 0 
0 0 0 0 0 0 0 0 0 
0 0 0 0 0 0 0 0 0 
0 0 0 0 0 0 0 0 0 
0 0 0 0 0 0 0 0 0 
0 0 0 0 0 0 0 0 0 
0 0 0 0 0 0 0 0 0 
0 0 0 0 0 0 0 0 0 
0 0 0 0 0 0 0 0 0 
0 0 0 0 0 0 0 0 0 
0 0 0 0 0 0 0 0 0 
0 0 0 0 0 0 0 0 0 
0 0 0 0 0 0 0 0 0 
0 0 0 0 0 0 0 0 0 
0 0 0 0 0 0 0 0 0 
0 0 0 0 0 0 0 0 0 
0 0 0 0 0 0 0 0 0 
0 0 0 0 0 0 0 0 0 
0 0 0 0 0 0 0 0 0 
0 0 0 0 0 0 0 0 0 
0 0 0 0 0 0 0 0 0 
0 0 0 0 0 0 0 0 0 
0 0 0 0 0 0 0 0 0 
0 0 0 0 0 0 0 0 0 
0 0 0 0 0 0 0 0 0 
0 0 0 0 0 0 0 0 0 
0 0 0 0 0 0 0 0 0 
0 0 0 0 0 0 0 0 0 
0 0 0 0 0 0 0 0 0 
0 0 0 0 0 0 0 0 0 
0 0 0 0 0 0 0 0 0 
0 0 0 0 0 0 0 0 0 
0 0 0 0 0 0 0 0 0 
0 0 0 0 0 0 0 0 0 
0 0 0 0 0 0 0 0 0 
0 0 0 0 0 0 0 0 0 
0 0 0 0 0 0 0 0 0 
0 0 0 0 0 0 0 0 0 
0 0 0 0 0 0 0 0 0 
0 0 0 0 0 0 0 0 0 
0 0 0 0 0 0 0 0 0 
0 0 0 0 0 0 0 0 0 
0 0 0 0 0 0 0 0 0 
0 0 0 0 0 0 0 0 0 
0 0 0 0 0 0 0 0 0 
0 0 0 0 0 0 0 0 0 
0 0 0 0 0 0 0 0 0 
0 0 0 0 0 0 0 0 0 
0 0 0 0 0 0 0 0 0 
0 0 0 0 0 0 0 0 0 
0 0 0 0 0 0 0 0 0 
0 0 0 0 0 0 0 0 0 
0 0 0 0 0 0 0 0 0 
0 0 0 0 0 0 0 0 0 
0 0 0 0 0 0 0 0 0 
0 0 0 0 0 0 0 0 0 
0 0 0 0 0 0 0 0 0 
0 0 0 0 0 0 0 0 0 
0 0 0 0 0 0 0 0 0 
0 0 0 0 0 0 0 0 0 
0 0 0 0 0 0 0 0 0 
0 0 0 0 0 0 0 0 0 
0 0 0 0 0 0 0 0 0 
0 0 0 0 0 0 0 0 0 
0 0 0 0 0 0 0 0 0 
0 0 0 0 0 0 0 0 0 
0 0 0 0 0 0 0 0 0 
0 0 0 0 0 0 0 0 0 
0 0 0 0 0 0 0 0 0 
0 0 0 0 0 0 0 0 0 
0 0 0 0 0 0 0 0 0 
0 0 0 0 0 0 0 0 0 
0 0 0 0 0 0 0 0 0 
0 0 0 0 0 0 0 0 0 
0 0 0 0 0 0 0 0 0 
0 0 0 0 0 0 0 0 0 
0 0 0 0 0 0 0 0 0 
0 0 0 0 0 0 0 0 0 
0 0 0 0 0 0 0 0 0 
0 0 0 0 0 0 0 0 0 
0 0 0 0 0 0 0 0 0 
0 0 0 0 0 0 0 0 0 
0 0 0 0 0 0 0 0 0 
0 0 0 0 0 0 0 0 0 
0 0 0 0 0 0 0 0 0 
0 0 0 0 0 0 0 0 0 
0 0 0 0 0 0 0 0 0 
0 0 0 0 0 0 0 0 0 
0 0 0 0 0 0 0 0 0 
0 0 0 0 0 0 0 0 0 
0 0 0 0 0 0 0 0 0 
0 0 0 0 0 0 0 0 0 
0 0 0 0 0 0 0 0 0 
0 0 0 0 0 0 0 0 0 
0 0 0 0 0 0 0 0 0 
0 0 0 0 0 0 0 0 0 
0 0 0 0 0 0 0 0 0 
0 0 0 0 0 0 0 0 0 
0 0 0 0 0 0 0 0 0 
0 0 0 0 0 0 0 0 0 
0 0 0 0 0 0 0 0 0 
0 0 0 0 0 0 0 0 0 
0 0 0 0 0 0 0 0 0 
0 0 0 0 0 0 0 0 0 
0 0 0 0 0 0 0 0 0 
0 0 0 0 0 0 0 0 0 
0 0 0 0 0 0 0 0 0 
0 0 0 0 0 0 0 0 0 
0 0 0 0 0 0 0 0 0 
0 0 0 0 0 0 0 0 0 
0 0 0 0 0 0 0 0 0 
0 0 0 0 0 0 0 0 0 
0 0 0 0 0 0 0 0 0 
0 0 0 0 0 0 0 0 0 
0 0 0 0 0 0 0 0 0 
0 0 0 0 0 0 0 0 0 
0 0 0 0 0 0 0 0 0 
0 0 0 0 0 0 0 0 0 
0 0 0 0 0 0 0 0 0 
0 0 0 0 0 0 0 0 0 
0 0 0 0 0 0 0 0 0 
0 0 0 0 0 0 0 0 0 
0 0 0 0 0 0 0 0 0 
0 0 0 0 0 0 0 0 0 
0 0 0 0 0 0 0 0 0 
0 0 0 0 0 0 0 0 0 
0 0 0 0 0 0 0 0 0 
0 0 0 0 0 0 0 0 0 
0 0 0 0 0 0 0 0 0 
0 0 0 0 0 0 0 0 0 
0 0 0 0 0 0 0 0 0 
0 0 0 0 0 0 0 0 0 
0 0 0 0 0 0 0 0 0 
0 0 0 0 0 0 0 0 0 
0 0 0 0 0 0 0 0 0 
0 0 0 0 0 0 0 0 0 
0 0 0 0 0 0 0 0 0 
0 0 0 0 0 0 0 0 0 
0 0 0 0 0 0 0 0 0 
0 0 0 0 0 0 0 0 0 
0 0 0 0 0 0 0 0 0 
0 0 0 0 0 0 0 0 0 
0 0 0 0 0 0 0 0 0 
0 0 0 0 0 0 0 0 0 
0 0 0 0 0 0 0 0 0 
0 0 0 0 0 0 0 0 0 
0 0 0 0 0 0 0 0 0 
0 0 0 0 0 0 0 0 0 
0 0 0 0 0 0 0 0 0 
0 0 0 0 0 0 0 0 0 
0 0 0 0 0 0 0 0 0 
0 0 0 0 0 0 0 0 0 
0 0 0 0 0 0 0 0 0 
0 0 0 0 0 0 0 0 0 
0 0 0 0 0 0 0 0 0 
0 0 0 0 0 0 0 0 0 
0 0 0 0 0 0 0 0 0 
0 0 0 0 0 0 0 0 0 
0 0 0 0 0 0 0 0 0 
0 0 0 0 0 0 0 0 0 
0 0 0 0 0 0 0 0 0 
0 0 0 0 0 0 0 0 0 
0 0 0 0 0 0 0 0 0 
0 0 0 0 0 0 0 0 0 
0 0 0 0 0 0 0 0 0 
0 0 0 0 0 0 0 0 0 
0 0 0 0 0 0 0 0 0 
0 0 0 0 0 0 0 0 0 
0 0 0 0 0 0 0 0 0 
0 0 0 0 0 0 0 0 0 
0 0 0 0 0 0 0 0 0 
0 0 0 0 0 0 0 0 0 
0 0 0 0 0 0 0 0 0 
0 0 0 0 0 0 0 0 0 
0 0 0 0 0 0 0 0 0 
0 0 0 0 0 0 0 0 0 
0 0 0 0 0 0 0 0 0 
0 0 0 0 0 0 0 0 0 
0 0 0 0 0 0 0 0 0 
0 0 0 0 0 0 0 0 0 
0 0 0 0 0 0 0 0 0 
0 0 0 0 0 0 0 0 0 
0 0 0 0 0 0 0 0 0 
0 0 0 0 0 0 0 0 0 
0 0 0 0 0 0 0 0 0 
0 0 0 0 0 0 0 0 0 
0 0 0 0 0 0 0 0 0 
0 0 0 0 0 0 0 0 0 
0 0 0 0 0 0 0 0 0 
0 0 0 0 0 0 0 0 0 
0 0 0 0 0 0 0 0 0 
0 0 0 0 0 0 0 0 0 
0 0 0 0 0 0 0 0 0 
0 0 0 0 0 0 0 0 0 
0 0 0 0 0 0 0 0 0 
0 0 0 0 0 0 0 0 0 
0 0 0 0 0 0 0 0 0 
0 0 0 0 0 0 0 0 0 
0 0 0 0 0 0 0 0 0 
0 0 0 0 0 0 0 0 0 
0 0 0 0 0 0 0 0 0 
0 0 0 0 0 0 0 0 0 
0 0 0 0 0 0 0 0 0 
0 0 0 0 0 0 0 0 0 
0 0 0 0 0 0 0 0 0 
0 0 0 0 0 0 0 0 0 
0 0 0 0 0 0 0 0 0 
0 0 0 0 0 0 0 0 0 
0 0 0 0 0 0 0 0 0 
0 0 0 0 0 0 0 0 0 
0 0 0 0 0 0 0 0 0 
0 0 0 0 0 0 0 0 0 
0 0 0 0 0 0 0 0 0 
0 0 0 0 0 0 0 0 0 
0 0 0 0 0 0 0 0 0 
0 0 0 0 0 0 0 0 0 
0 0 0 0 0 0 0 0 0 
0 0 0 0 0 0 0 0 0 
0 0 0 0 0 0 0 0 0 
0 0 0 0 0 0 0 0 0 
0 0 0 0 0 0 0 0 0 
0 0 0 0 0 0 0 0 0 
0 0 0 0 0 0 0 0 0 
0 0 0 0 0 0 0 0 0 
0 0 0 0 0 0 0 0 0 
0 0 0 0 0 0 0 0 0 
0 0 0 0 0 0 0 0 0 
0 0 0 0 0 0 0 0 0 
0 0 0 0 0 0 0 0 0 
0 0 0 0 0 0 0 0 0 
0 0 0 0 0 0 0 0 0 
0 0 0 0 0 0 0 0 0 
0 0 0 0 0 0 0 0 0 
0 0 0 0 0 0 0 0 0 
0 0 0 0 0 0 0 0 0 
0 0 0 0 0 0 0 0 0 
0 0 0 0 0 0 0 0 0 
0 0 0 0 0 0 0 0 0 
0 0 0 0 0 0 0 0 0 
0 0 0 0 0 0 0 0 0 
0 0 0 0 0 0 0 0 0 
0 0 0 0 0 0 0 0 0 
0 0 0 0 0 0 0 0 0 
0 0 0 0 0 0 0 0 0 
0 0 0 0 0 0 0 0 0 
0 0 0 0 0 0 0 0 0 
0 0 0 0 0 0 0 0 0 
0 0 0 0 0 0 0 0 0 
0 0 0 0 0 0 0 0 0 
0 0 0 0 0 0 0 0 0 
0 0 0 0 0 0 0 0 0 
0 0 0 0 0 0 0 0 0 
0 0 0 0 0 0 0 0 0 
0 0 0 0 0 0 0 0 0 
0 0 0 0 0 0 0 0 0 
0 0 0 0 0 0 0 0 0 
0 0 0 0 0 0 0 0 0 
0 0 0 0 0 0 0 0 0 
0 0 0 0 0 0 0 0 0 
0 0 0 0 0 0 0 0 0 
0 0 0 0 0 0 0 0 0 
0 0 0 0 0 0 0 0 0 
0 0 0 0 0 0 0 0 0 
0 0 0 0 0 0 0 0 0 
0 0 0 0 0 0 0 0 0 
0 0 0 0 0 0 0 0 0 
0 0 0 0 0 0 0 0 0 
0 0 0 0 0 0 0 0 0 
0 0 0 0 0 0 0 0 0 
0 0 0 0 0 0 0 0 0 
0 0 0 0 0 0 0 0 0 
0 0 0 0 0 0 0 0 0 
0 0 0 0 0 0 0 0 0 
0 0 0 0 0 0 0 0 0 
0 0 0 0 0 0 0 0 0 
0 0 0 0 0 0 0 0 0 
0 0 0 0 0 0 0 0 0 
0 0 0 0 0 0 0 0 0 
0 0 0 0 0 0 0 0 0 
0 0 0 0 0 0 0 0 0 
0 0 0 0 0 0 0 0 0 
0 0 0 0 0 0 0 0 0 
0 0 0 0 0 0 0 0 0 
0 0 0 0 0 0 0 0 0 
0 0 0 0 0 0 0 0 0 
0 0 0 0 0 0 0 0 0 
0 0 0 0 0 0 0 0 0 
0 0 0 0 0 0 0 0 0 
0 0 0 0 0 0 0 0 0 
0 0 0 0 0 0 0 0 0 
0 0 0 0 0 0 0 0 0 
0 0 0 0 0 0 0 0 0 
0 0 0 0 0 0 0 0 0 
0 0 0 0 0 0 0 0 0 
0 0 0 0 0 0 0 0 0 
0 0 0 0 0 0 0 0 0 
0 0 0 0 0 0 0 0 0 
0 0 0 0 0 0 0 0 0 
0 0 0 0 0 0 0 0 0 
0 0 0 0 0 0 0 0 0 
0 0 0 0 0 0 0 0 0 
0 0 0 0 0 0 0 0 0 
0 0 0 0 0 0 0 0 0 
0 0 0 0 0 0 0 0 0 
0 0 0 0 0 0 0 0 0 
0 0 0 0 0 0 0 0 0 
0 0 0 0 0 0 0 0 0 
0 0 0 0 0 0 0 0 0 
0 0 0 0 0 0 0 0 0 
0 0 0 0 0 0 0 0 0 
0 0 0 0 0 0 0 0 0 
0 0 0 0 0 0 0 0 0 
0 0 0 0 0 0 0 0 0 
0 0 0 0 0 0 0 0 0 
0 0 0 0 0 0 0 0 0 
0 0 0 0 0 0 0 0 0 
0 0 0 0 0 0 0 0 0 
0 0 0 0 0 0 0 0 0 
0 0 0 0 0 0 0 0 0 
0 0 0 0 0 0 0 0 0 
0 0 0 0 0 0 0 0 0 
0 0 0 0 0 0 0 0 0 
0 0 0 0 0 0 0 0 0 
0 0 0 0 0 0 0 0 0 
0 0 0 0 0 0 0 0 0 
0 0 0 0 0 0 
v 3 1049 double
0.972307 -0.766825 0 0.942006 -0.774507 0 -0.919311 -0.750258 0 
0.956371 -0.790305 0 -0.847311 -0.79142 0 -0.632775 -0.545181 0 
0.882181 -0.758113 0 0.758998 -0.556339 0 -0.939445 -0.738872 0 
-0.685195 -0.546954 0 -0.945035 -0.735277 0 -0.720645 -0.595492 0 
0.560213 -0.567477 0 0.81974 -0.621764 0 -0.922141 -0.749415 0 
-0.943533 -0.709921 0 0.816802 -0.668837 0 0.862237 -0.609113 0 
0.786855 -0.685191 0 -0.881608 -0.72233 0 0.808795 -0.665354 0 
0.820589 -0.648338 0 -0.961458 -0.77647 0 -0.95405 -0.781127 0 
0.738512 -0.668008 0 0.763158 -0.625682 0 0.817707 -0.745955 0 
-0.758388 -0.617943 0 0.295873 -1.2565 0 0.776183 -1.05695 0 
0.850543 -1.17198 0 1.06046 -0.572289 0 -0.52081 -0.799632 0 
0 0 0 0 0 0 0 0 0 
0 0 0 0 0 0 0 0 0 
0 0 0 0 0 0 0 0 0 
0 0 0 0 0 0 0 0 0 
0 0 0 0 0 0 0 0 0 
0 0 0 0.0351662 -0.844166 0 0.06525 -0.839751 0 
0 0 0 0 0 0 0 0 0 
0.151012 -0.934688 0 -0.0154194 -0.854631 0 0 0 0 
0 0 0 0 0 0 0.026295 -0.86858 0 
0 0 0 0 0 0 0 0 0 
0 0 0 0 0 0 0 0 0 
0 0 0 0 0 0 0 0 0 
0 0 0 0 0 0 0 0 0 
0 0 0 0 0 0 0 0 0 
0 0 0 0 0 0 0 0 0 
0 0 0 0 0 0 0 0 0 
0 0 0 0 0 0 0 0 0 
0 0 0 0 0 0 0 0 0 
0 0 0 0 0 0 0 0 0 
0 0 0 0 0 0 0 0 0 
0 0 0 0 0 0 0 0 0 
0 0 0 0 0 0 0 0 0 
0 0 0 0 0 0 0 0 0 
0 0 0 0 0 0 0 0 0 
0 0 0 0 0 0 0 0 0 
0 0 0 0 0 0 0 0 0 
0 0 0 0 0 0 0 0 0 
0 0 0 0 0 0 0 0 0 
0 0 0 0 0 0 0 0 0 
0 0 0 0 0 0 0 0 0 
0 0 0 0 0 0 0 0 0 
0 0 0 0 0 0 0 0 0 
0 0 0 0 0 0 0 0 0 
0 0 0 0 0 0 0 0 0 
0 0 0 0 0 0 0 0 0 
0 0 0 0 0 0 0 0 0 
0 0 0 0 0 0 0 0 0 
0 0 0 0 0 0 0 0 0 
0 0 0 0 0 0 0 0 0 
0 0 0 0 0 0 0 0 0 
0 0 0 0 0 0 0 0 0 
0 0 0 0 0 0 0 0 0 
0 0 0 0 0 0 0 0 0 
0 0 0 0 0 0 0 0 0 
0 0 0 0 0 0 0 0 0 
0 0 0 0 0 0 0 0 0 
0 0 0 0 0 0 0 0 0 
0 0 0 0 0 0 0 0 0 
0 0 0 0 0 0 0 0 0 
0 0 0 0 0 0 0 0 0 
0 0 0 0 0 0 0 0 0 
0 0 0 0 0 0 0 0 0 
0 0 0 0.0186681 -1.36953 0 0.149595 -0.713496 0 
0 0 0 0 0 0 0 0 0 
0 0 0 0 0 0 -0.100583 -0.348071 0 
0 0 0 0 0 0 0 0 0 
0 0 0 0 0 0 0 0 0 
0 0 0 0 0 0 0 0 0 
0 0 0 0 0 0 0 0 0 
0 0 0 0 0 0 0 0 0 
0 0 0 0 0 0 0 0 0 
0 0 0 0 0 0 0 0 0 
0.0187887 -0.923717 0 0.0362481 -0.857166 0 -0.035503 -1.07699 0 
0 0 0 0 0 0 0 0 0 
0 0 0 0 0 0 0 0 0 
0 0 0 0 0 0 0 0 0 
0 0 0 0 0 0 0 0 0 
0 0 0 0 0 0 0 0 0 
0 0 0 0 0 0 0 0 0 
0 0 0 0 0 0 0.222962 -0.884238 0 
0.236829 -0.737276 0 0.241092 -0.887487 0 -0.100601 -1.11838 0 
0 0 0 0 0 0 0 0 0 
0 0 0 0 0 0 0 0 0 
0 0 0 0 0 0 0 0 0 
0 0 0 0 0 0 0 0 0 
0 0 0 0 0 0 0 0 0 
0 0 0 0 0 0 0 0 0 
0 0 0 0 0 0 0 0 0 
0 0 0 0 0 0 0 0 0 
0 0 0 0 0 0 0 0 0 
0 0 0 0 0 0 0 0 0 
0.335093 -0.923357 0 -0.179971 -1.12295 0 0 0 0 
0 0 0 0 0 0 0 0 0 
0 0 0 0 0 0 0 0 0 
0 0 0 0 0 0 0 0 0 
0.209576 -1.12695 0 -0.304068 -1.22626 0 -0.274704 -1.02921 0 
0 0 0 0 0 0 0 0 0 
0 0 0 0 0 0 0 0 0 
0 0 0 0 0 0 0 0 0 
0 0 0 0 0 0 0 0 0 
0 0 0 0 0 0 0 0 0 
0 0 0 0 0 0 0 0 0 
0 0 0 0 0 0 0.229964 -1.01744 0 
0.291508 -0.977161 0 -0.204008 -0.8775 0 -0.0401739 -0.767147 0 
0 0 0 0 0 0 0 0 0 
0 0 0 0 0 0 0 0 0 
0 0 0 0 0 0 0 0 0 
0 0 0 0.0515126 -0.673767 0 -0.315648 -1.05539 0 
-0.267889 -1.08414 0 -0.37934 -1.01155 0 0 0 0 
0 0 0 0 0 0 0 0 0 
0 0 0 0 0 0 0 0 0 
0 0 0 0 0 0 0 0 0 
0 0 0 0 0 0 0 0 0 
0 0 0 0 0 0 0 0 0 
0 0 0 0 0 0 0 0 0 
0 0 0 0.317617 -0.933788 0 0.225635 -1.0966 0 
0.204323 -0.741787 0 -0.157935 -0.90523 0 0 0 0 
0 0 0 0 0 0 0 0 0 
0 0 0 0 0 0 0 0 0 
0 0 0 0 0 0 0 0 0 
-0.135621 -0.631204 0 -0.302455 -1.08183 0 -0.301054 -1.0841 0 
0 0 0 0 0 0 0 0 0 
0 0 0 0 0 0 0 0 0 
0 0 0 0 0 0 0 0 0 
0 0 0 0 0 0 0 0 0 
0 0 0 0 0 0 0 0 0 
0 0 0 0 0 0 0 0 0 
0 0 0 0 0 0 0.344482 -1.1131 0 
0.205795 -0.863729 0 -0.237022 -1.15523 0 -0.169325 -1.13927 0 
-0.0285487 -0.840679 0 0 0 0 0 0 0 
0 0 0 0 0 0 0 0 0 
0 0 0 0 0 0 0 0 0 
0 0 0 0 0 0 -0.314641 -0.913221 0 
-0.220286 -0.998181 0 -0.286147 -1.11654 0 0 0 0 
0 0 0 0 0 0 0 0 0 
0 0 0 0 0 0 0 0 0 
0 0 0 0 0 0 0 0 0 
0 0 0 0 0 0 0 0 0 
0 0 0 0 0 0 0 0 0 
0.268875 -1.01674 0 0.277459 -1.01017 0 0 0 0 
0 0 0 0 0 0 0 0 0 
0.312688 -0.950108 0 0.307286 -0.951038 0 0 0 0 
0 0 0 0 0 0 0 0 0 
0 0 0 0 0 0 0 0 0 
0 0 0 0 0 0 0 0 0 
-0.319947 -0.942788 0 -0.326491 -0.85992 0 0 0 0 
0 0 0 0 0 0 0 0 0 
0 0 0 0 0 0 0 0 0 
0 0 0 0 0 0 0 0 0 
0 0 0 0 0 0 0 0 0 
0 0 0 0 0 0 0 0 0 
0 0 0 0.456378 -1.02305 0 0 0 0 
0 0 0 0 0 0 0.429739 -1.07293 0 
-0.165275 -1.0834 0 0 0 0 0 0 0 
0 0 0 0 0 0 0 0 0 
0 0 0 0 0 0 0 0 0 
0 0 0 0 0 0 -0.371985 -0.821099 0 
-0.352328 -0.829071 0 0 0 0 0 0 0 
0 0 0 0 0 0 0 0 0 
-0.621677 0.0766169 0 0 0 0 0 0 0 
-0.874954 -0.0283114 0 0 0 0 0 0 0 
0 0 0 0 0 0 0 0 0 
0 0 0 0 0 0 -1.05887 0.0224424 0 
0 0 0 0 0 0 0 0 0 
0 0 0 0 0 0 0 0 0 
0 0 0 0 0 0 0 0 0 
0 0 0 0 0 0 0 0 0 
0 0 0 0 0 0 0 0 0 
0 0 0 -0.84547 0.0999718 0 0 0 0 
-0.73022 0.0574826 0 0 0 0 0 0 0 
0 0 0 0 0 0 0 0 0 
0 0 0 0 0 0 0 0 0 
0 0 0 0 0 0 0 0 0 
-0.852042 0.23304 0 0 0 0 0 0 0 
0 0 0 0 0 0 0 0 0 
0 0 0 0 0 0 0 0 0 
0 0 0 0 0 0 0 0 0 
0 0 0 0 0 0 0.870387 0.070694 0 
0 0 0 0 0 0 0 0 0 
0 0 0 0 0 0 0 0 0 
0 0 0 0 0 0 0 0 0 
0 0 0 0 0 0 0 0 0 
0 0 0 0 0 0 0.928979 0.0412274 0 
0 0 0 0 0 0 0 0 0 
0 0 0 0.677224 0.0174032 0 0.60719 0.281561 0 
0 0 0 0 0 0 0 0 0 
0 0 0 0 0 0 0 0 0 
0 0 0 0 0 0 0 0 0 
0 0 0 0 0 0 0 0 0 
0 0 0 0 0 0 0.738303 0.113987 0 
0 0 0 0 0 0 0.282865 -0.745508 0 
-0.292489 -1.02382 0 -0.0481481 -0.735899 0 0 0 0 
0 0 0 0 0 0 0 0 0 
0 0 0 0 0 0 0 0 0 
0 0 0 0 0 0 0 0 0 
-0.623799 0.0738409 0 -0.801103 0.188181 0 -0.137701 -1.11866 0 
0.0838014 -1.46847 0 0 0 0 0 0 0 
0 0 0 0 0 0 0 0 0 
0 0 0 0 0 0 0 0 0 
0 0 0 0 0 0 0 0 0 
0 0 0 0 0 0 0 0 0 
0 0 0 0 0 0 0 0 0 
0 0 0 0 0 0 0 0 0 
0 0 0 0 0 0 0 0 0 
0 0 0 0 0 0 0 0 0 
0 0 0 0 0 0 0 0 0 
0 0 0 0 0 0 0 0 0 
0 0 0 0 0 0 0 0 0 
0 0 0 0 0 0 0 0 0 
0 0 0 0 0 0 0 0 0 
0 0 0 0 0 0 0 0 0 
0 0 0 0 0 0 0 0 0 
0 0 0 0 0 0 0 0 0 
0 0 0 0 0 0 0 0 0 
0 0 0 0 0 0 0 0 0 
0 0 0 0 0 0 0 0 0 
0 0 0 0 0 0 0 0 0 
0 0 0 0 0 0 0 0 0 
0 0 0 0 0 0 0 0 0 
0 0 0 0 0 0 0 0 0 
0 0 0 0 0 0 0 0 0 
0 0 0 0 0 0 0 0 0 
0 0 0 0 0 0 0 0 0 
0 0 0 0 0 0 0 0 0 
0 0 0 0 0 0 0 0 0 
0 0 0 0 0 0 0 0 0 
0 0 0 0 0 0 0 0 0 
0 0 0 0 0 0 0 0 0 
0 0 0 0 0 0 0 0 0 
0 0 0 0 0 0 0 0 0 
0 0 0 0 0 0 0 0 0 
0 0 0 0 0 0 0 0 0 
0 0 0 0 0 0 0 0 0 
0 0 0 0 0 0 0 0 0 
0 0 0 0 0 0 0 0 0 
0 0 0 0 0 0 0 0 0 
0 0 0 0 0 0 0 0 0 
0 0 0 0 0 0 0 0 0 
0 0 0 0 0 0 0 0 0 
0 0 0 0 0 0 0 0 0 
0 0 0 0 0 0 0 0 0 
0 0 0 0 0 0 0 0 0 
0 0 0 0 0 0 0 0 0 
0 0 0 0 0 0 0 0 0 
0 0 0 0 0 0 0 0 0 
0 0 0 0 0 0 0 0 0 
0 0 0 0 0 0 0 0 0 
0 0 0 0 0 0 0.519027 -0.545048 0 
0 0 0 0 0 0 0 0 0 
0.634511 -0.491429 0 0.443379 -0.487553 0 0 0 0 
0 0 0 0 0 0 0 0 0 
0 0 0 0 0 0 0 0 0 
0 0 0 0 0 0 0 0 0 
0 0 0 0 0 0 0 0 0 
0 0 0 0 0 0 0 0 0 
0 0 0 0 0 0 0 0 0 
0 0 0 0 0 0 0 0 0 
0 0 0 0 0 0 0 0 0 
0 0 0 0 0 0 0 0 0 
0 0 0 0 0 0 0 0 0 
0 0 0 0.870316 -0.869832 0 0.494901 -0.578185 0 
0.643535 -0.596863 0 0.527529 -0.579502 0 0 0 0 
0 0 0 0 0 0 0 0 0 
0 0 0 0 0 0 0 0 0 
0 0 0 0 0 0 0 0 0 
0 0 0 0 0 0 0 0 0 
0 0 0 0 0 0 0 0 0 
0 0 0 0 0 0 0 0 0 
0 0 0 0 0 0 0 0 0 
0 0 0 0 0 0 0 0 0 
0.658851 -0.746449 0 0.67257 -0.697306 0 0 0 0 
0 0 0 0 0 0 0 0 0 
0 0 0 0 0 0 0 0 0 
0 0 0 0 0 0 0 0 0 
0 0 0 0 0 0 0 0 0 
0 0 0 0 0 0 0 0 0 
0 0 0 0 0 0 0 0 0 
0 0 0 0.648335 0.227749 0 0.64533 0.264462 0 
0.6932 -0.70816 0 0 0 0 0 0 0 
0 0 0 0 0 0 0 0 0 
0.649283 -0.691704 0 0 0 0 0 0 0 
0 0 0 0 0 0 0 0 0 
0 0 0 0 0 0 0 0 0 
0 0 0 0 0 0 0 0 0 
0 0 0 0 0 0 0 0 0 
0 0 0 0 0 0 0 0 0 
0 0 0 0 0 0 0 0 0 
0.532591 0.29524 0 0.666978 -0.390936 0 0 0 0 
0 0 0 0 0 0 0 0 0 
0 0 0 0 0 0 0 0 0 
0 0 0 0 0 0 0 0 0 
0 0 0 0 0 0 0 0 0 
0 0 0 0 0 0 0 0 0 
0 0 0 0 0 0 0 0 0 
0 0 0 0 0 0 0 0 0 
0 0 0 0 0 0 0 0 0 
0 0 0 0 0 0 0 0 0 
0 0 0 0 0 0 0 0 0 
0 0 0 0 0 0 0 0 0 
0 0 0 0 0 0 0 0 0 
0 0 0 0 0 0 0 0 0 
0 0 0 0 0 0 0 0 0 
0 0 0 0 0 0 0 0 0 
0 0 0 0 0 0 0 0 0 
0 0 0 0 0 0 0 0 0 
0 0 0 0 0 0 0 0 0 
0 0 0 0 0 0 0 0 0 
0 0 0 0 0 0 0 0 0 
0 0 0 0 0 0 0 0 0 
0 0 0 0 0 0 0 0 0 
0 0 0 0 0 0 0 0 0 
0 0 0 0 0 0 0 0 0 
0 0 0 0 0 0 0 0 0 
0 0 0 0 0 0 0 0 0 
0 0 0 0 0 0 0 0 0 
0 0 0 0 0 0 0 0 0 
0 0 0 0 0 0 0 0 0 
0 0 0 0 0 0 0 0 0 
0 0 0 0 0 0 0 0 0 
0 0 0 0 0 0 0 0 0 
0 0 0 0 0 0 0 0 0 
0 0 0 0 0 0 0 0 0 
0 0 0 0 0 0 0 0 0 
0 0 0 0 0 0 0 0 0 
0 0 0 0 0 0 0 0 0 
0 0 0 0 0 0 0 0 0 
0 0 0 0 0 0 0 0 0 
0 0 0 0 0 0 0 0 0 
0 0 0 0 0 0 0 0 0 
0 0 0 0 0 0 0 0 0 
0 0 0 0 0 0 0 0 0 
0 0 0 0 0 0 0 0 0 
0 0 0 0 0 0 0 0 0 
0 0 0 0 0 0 0 0 0 
0 0 0 0 0 0 0 0 0 
0 0 0 0 0 0 0 0 0 
0 0 0 0 0 0 0 0 0 
0 0 0 0 0 0 0 0 0 
0 0 0 0 0 0 0 0 0 
0 0 0 0 0 0 0 0 0 
0 0 0 0 0 0 0 0 0 
0 0 0 0 0 0 0 0 0 
0 0 0 0 0 0 0 0 0 
0 0 0 0 0 0 0 0 0 
0 0 0 0 0 0 0 0 0 
0 0 0 0 0 0 0 0 0 
0 0 0 0 0 0 0 0 0 
0 0 0 0 0 0 0 0 0 
0 0 0 0 0 0 
x 1 1049 double
-2.70377 -2.10144 1.78324 -2.8851 4.34824 5.44196 -5.98009 -5.47247 4.64039 
5.97228 5.2422 7.02207 -7.70765 -6.41081 6.06565 6.74557 -8.27524 -7.60454 
-6.92361 7.57027 -9.30431 -8.81106 8.86808 9.42495 -11.3483 -10.0448 -10.5035 
10.4513 -12.1346 -11.6664 -11.4729 -10.8595 11.8229 -14.1071 -14.4643 -15 
-14.8214 -14.2857 -15 -15 -15 -14.6429 -15 -13.3929 -13.2143 
-13.9286 -13.0357 -13.75 -13.5714 -12.0093 -12.5558 -12.5 -12.8571 -12.6786 
-12.3488 -11.7779 -11.3214 -11.5 -11.1429 -11.4808 -10.9643 -10.25 -10.7857 
-10.0714 -10.4286 -10.6071 -9.7143 -9.1786 -9.3571 -9.5357 -9.8929 -9 
-8.2 -8.6 -9 -8.4 -9 -8.8 -9 -9 -7.4 
-7.2 -8 -7.8 -7.6 -6.8 -7 -6.4 -6.2 -6.6 
-5.8 -5.6 -6 -5.2 -5.4 -4.2 -4.8 -4.4 -4.6 
-5 -3.2 -3.4 -3.6 -4 -3.8 -2.4 -2.2 -2.6 
-3 -3 -3 -3 -2.8 -3 -1.8 -1.6 -2 
-1.4 -1.2 -0.4 -1 -0.8 -0.6 -0.2 0.2 0.6 
-0 0.8 0.4 1.2 1 1.4 1.6 1.8 2.6 
2 2.4 2.8 2.2 3 3 3.6 3.8 3 
3 3.4 3.2 3 4.6 4.2 4 4.8 4.4 
5.8 5.6 5.4 5 5.2 6.2 6.6 6 6.4 
6.8 7 7.8 7.2 7.6 7.4 8.6 8.2 8.8 
8.4 8 9.3571 9.7143 9 9.8929 9.5357 9 9 
9.1786 9 9 10.4286 10.9643 10.25 10.7857 10.0714 10.6071 
11.1429 11.9678 11.4696 11.5 11.3214 12.5 12.6786 12.8571 12.4909 
13.75 13.2143 13.9286 13.5714 13.0357 13.3929 14.4643 14.8214 14.6429 
14.2857 14.1071 15 15 15 15 15 -15 -15 
-15 -15 -15 -12.4155 -11.9901 -11.4966 -9 -9 -9 
-9 -9 -3 -3 -3 -3 -3 3 3 
3 3 3 9 9 9 9 9 11.5316 
11.3968 11.9901 12.3241 15 15 15 15 15 -15 
-15 -15 -15 -15 -9 -9 -9 -9 -9 
-3 -3 -3 -3 -3 3 3 3 3 
3 9 9 9 9 9 11.3058 12.3311 15 
15 15 15 15 -15 -15 -15 -15 -15 
-12.6019 -11.4467 -10.8003 -9 -9 -9 -9 -9 -3 
-3 -3 -3 -3 3 3 3 3 3 
9 9 9 9 9 10.7207 10.81 12.9084 12.1763 
15 15 15 15 15 -15 -15 -15 -15 
-15 -12.3671 -11.0619 -10.3254 -10.6949 -9 -9 -9 -9 
-9 -3 -3 -3 -3 -3 3 3 3 
3 3 9 9 9 9 9 10.7916 10.2801 
11.3155 12.8709 15 15 15 15 15 -15 -15 
-15 -15 -15 -11.3799 -10.2136 -10.7835 -9 -9 -9 
-9 -9 -3 -3 -3 -3 -3 3 3 
3 3 3 9 9 9 9 9 10.3717 
10.8463 12.5044 13.0003 13.0851 15 15 15 15 15 
-15 -15 -15 -15 -15 -10.5719 -10.1857 -9.8994 -9 
-9 -9 -9 -9 -3 -3 -3 -3 -3 
3 3 3 3 3 9 9.71263 9.93864 9 
9 9 9 10.3415 10.7172 15 15 15 15 
15 -15 -15 -15 -15 -15 -10.0533 -9.52593 -9 
-9 -9 -9 -9 -3 -3 -3 -3 -3 
3 3 3 3 3 9 9 9.49947 9 
9 9 9.99821 13.1332 15 15 15 15 15 
-15 -15 -15 -15 -15 -9.92572 -9.34448 -8.6429 -8.2857 
-8.1071 -8.8214 -8.4643 -8.89422 -9 -7.0357 -7.84734 -7.3929 -7.75 
-7.2143 -7.5714 -7.9286 -6.6786 -6.5 -6.25873 -6.8571 -5.1429 -5.3214 
-5.5 -4.6071 -4.9643 -4.4286 -4.0714 -4.7857 -4.25 -3.1786 -3.5357 
-3.8929 -3.3571 -3.7143 -2.2857 -2.04805 -2.4643 -2.87616 -2.8214 -2.6429 
-2.1071 -3 -1.75 -1.9286 -1.2143 -1.3929 -1.5714 -1.0357 -0.5 
-0.878509 -0.8571 -0.6786 0.5 0.8571 0.6786 1.9286 1.75 1.3929 
1.0357 1.2143 1.5714 2.8214 2.1071 2.72055 2.4643 2.2857 2.6429 
3.7143 3 3.1786 3.5357 3.3571 3.8929 4.4286 4.7857 4.0714 
4.25 4.9643 4.15695 4.6071 5.5 5.1429 5.3214 5.369 6.47571 
6.6786 6.8571 6.5 7.3929 7.0357 7.9286 7.2143 7.75 7.5714 
8.1071 8.4643 8.2857 8.6429 8.8214 8.09071 9 9 9.06119 
13.1266 13.6005 15 15 15 15 15 -15 -15 
-15 -15 -15 -9.03851 -8.42508 13.442 13.671 15 15 
15 15 15 -14.8333 -15 -14.5 -15 -15 -14.6667 
-14.1667 -15 -14.3333 -15 -14 -12.8 -12.6 -12.2 -12.4 
-13 -11.8 -11.4 -11.2 -12 -11.6 -10.4 -10.8 -11 
-10.2 -10.6 -10 -9.8 -9.6 -9.2 -9.4 -8.8214 -8.1071 
-9 -9 -9 -9 -9 -8.2857 -8.6429 -8.4643 -7.5714 
-7.0357 -7.3929 -7.75 -7.9286 -7.2143 -6.5 -6.6786 -6.8571 -5.1429 
-5.5 -5.3214 -4.25 -4.4286 -4.7857 -4.9643 -4.0714 -4.6071 -3.3571 
-3.1786 -3.7143 -3.8929 -3.5357 -3 -2.4 -2.2 -3 -2.6 
-3 -2.8 -3 -3 -1.2 -1.8 -1.4 -1.6 -2 
-0.4 -0.8 -0.2 -1 -0.6 -0 0.2 0.6 0.8 
0.4 1 1.2 1.6 1.4 1.8 2.8 2.2 2.6 
2.4 2 3.6 3 3.4 3.2 3.8 4.8 4.6 
4 4.4 4.2 5.4 5.2 5 5.6 5.8 6.6 
6.8 6.4 6 6.2 7.8 7.4 7.6 7.2 7 
8.6 8.4 8.2 8 8.8 9.2 9 9 9 
9.8 9.4 9 9.6 9 10.4 10.2 10 10.8 
10.6 11.8 11 11.4 11.6 11.2 12.6 12.4 12.7186 
12.2 12.8 12 13.2538 13.6782 13 14.8333 14.6667 14.1667 
14 14.5 14.3333 15 15 15 15 15 -15 
-15 -15 -15 -15 -9 -9 -9 -9 -9 
-3 -3 -3 -3 -3 9 9 9 9 
9 11.8498 12.17 12.4901 12.7051 15 15 15 15 
15 -15 -15 -15 -15 -15 -9 -9 -9 
-9 -9 -3 -3 -3 -3 -3 9 9 
9 9 9 10.7795 11.3981 15 15 15 15 
15 -15 -15 -15 -15 -15 -9 -9 -9 
-9 -9 -3 -3 -3 -3 -3 6.03546 6.89595 
9.90348 9 9 9 9 9 10.2844 15 15 
15 15 15 -15 -15 -15 -15 -15 -9 
-9 -9 -9 -9 -3 -3 -3 -3 -3 
8.56448 9.22393 9 15 15 15 15 15 -15 
-15 -15 -15 -15 -9 -9 -9 -9 -9 
-3 -3 -3 -3 -3 9 9 9 9 
9 9 15 15 15 15 15 -14.8 -15 
-14.4 -14.6 -14.2 -13.2 -14 -13.6 -13.8 -13.4 -12.6 
-12.8 -13 -12.2 -12.4 -11.8 -11.6 -11.4 -12 -11.2 
-10.6 -11 -10.2 -10.8 -10.4 -9.8 -9.6 -9.4 -9.2 
-10 -8.6 -8.2 -9 -8.8 -8.4 -8 -7.8 -7.6 
-7.2 -7.4 -6.4 -7 -6.6 -6.2 -6.8 -5.6 -5.4 
-5.8 -5.2 -6 -4.8 -5 -4.6 -4.2 -4.4 -3.6 
-4 -3.2 -3.8 -3.4 -2.2 -2.8 -3 -2.6 -2.4 
-2 -1.2 -1.4 -1.8 -1.6 -0.2 -0.6 -1 -0.4 
-0.8 0.8 0.2 0.6 -0 0.4 1.2 1.4 1.8 
1 1.6 2.8 2 2.2 2.6 2.4 3.2 3.4 
3 3.6 3.8 4 4.8 4.6 4.4 4.2 5.2 
5 5.6 5.8 5.4 6.4 6.8 6.6 6.2 6 
7.8 7.6 7.2 7 7.4 8.2 8.6 8.4 8.8 
8 9.6 9.4 9 9.8 9.2 10 10.2 10.4 
10.6 10.8 11.8 11 11.4 11.6 11.2 12.4 12.8 
12.6 12.2 12 13.4 13.8 13 13.6 13.2 14.8 
14 14.2 14.4 14.6 15 
y 1 1049 double
-8.14366 -8.04247 -8.54468 -7.48587 -6.19376 -6.10332 -5.69603 -5.35334 -5.6809 
-5.80094 -5.47451 -5.08109 -4.42059 -4.25776 -4.84166 -4.44102 -3.27057 -3.77865 
-3.98951 -3.79743 -2.44074 -2.76484 -2.75517 -2.40508 -1.54521 -1.96582 -1.50202 
-1.48417 -0.0218656 -0.274358 -0.780323 -0.969059 -0.197437 0 0 0.8 
0 0 0.6 0.2 0.4 0 0 0 0 
0 0 0 0 0.913804 0.990353 0 0 0 
0.499683 0.365064 0 0 0 0.842912 0 0 0 
0 0 0 0 0 0 0 0 0.8 
0 0 0.2 0 0 0 0.6 0.4 0 
0 0 0 0 0 0 0 0 0 
0 0 0 0 0 0 0 0 0 
0 0 0 0 0 0 0 0 0 
0.4 0 0.6 0.8 0 0.2 0 0 0 
0 0 0 0 0 0 0 0 0 
0 0 0 0 0 0 0 0 0 
0 0 0 0 0 0.8 0 0 0.4 
0.6 0 0 0.2 0 0 0 0 0 
0 0 0 0 0 0 0 0 0 
0 0 0 0 0 0 0 0 0 
0 0 0 0 0 0 0 0.8 0.4 
0 0.2 0.6 0 0 0 0 0 0 
0 0.427637 0.579696 0 0 0 0 0 0.529734 
0 0 0 0 0 0 0 0 0 
0 0 0 0.6 0.2 0.4 0.8 1.2 1.4 
1.6 1 1.8 1.79095 1.4391 1.3501 1.4 1.6 1.8 
1 1.2 1.8 1 1.6 1.2 1.4 1.4 1.8 
1.6 1 1.2 1.2 1 1.4 1.8 1.6 1.73408 
1.13511 1.24357 1.82001 1.6 1.8 1.4 1 1.2 2.2 
2.8 2.6 2 2.4 2.8 2.4 2.6 2.2 2 
2.2 2.6 2.4 2 2.8 2.2 2 2.6 2.8 
2.4 2.8 2.6 2.4 2.2 2 2.68309 2.38413 2.2 
2.6 2.4 2.8 2 3.2 3.8 3 3.4 3.6 
3.23655 3.42952 3.37651 3.2 3.4 3 3.8 3.6 3.8 
3.2 3.6 3.4 3 3.2 3.4 3.8 3.6 3 
3 3.4 3.6 3.8 3.2 3.89962 3.107 3.55866 3.98317 
3.8 3.2 3.6 3 3.4 4.8 4 4.6 4.2 
4.4 4.80107 4.6279 4.57736 4.03345 4.2 4 4.8 4.4 
4.6 4.6 4.4 4.2 4 4.8 4.6 4.4 4.8 
4.2 4 4.6 4.4 4 4.2 4.8 4.59388 4.87636 
4.10925 4.64728 4.6 4.8 4 4.4 4.2 5.8 5.6 
5.4 5.2 5 5.52738 5.45103 5.2674 5.4 5.6 5.2 
5 5.8 5.6 5 5.8 5.4 5.2 5.4 5.6 
5.2 5 5.8 5.6 5 5.2 5.4 5.8 5.42228 
5.93847 5.47094 5.83651 5.311 5.2 5.4 5 5.6 5.8 
6.2 6.4 6 6.8 6.6 6.44206 6.86752 6.26092 6.4 
6.6 6 6.8 6.2 6.4 6.2 6.8 6 6.6 
6.8 6 6.4 6.2 6.6 6.2 6.99992 6.44166 6.4 
6 6.8 6.6 6.98372 6.56156 6.2 6.4 6 6.8 
6.6 7.2 7.6 7.8 7.4 7 7.48151 7.76507 7.4 
7.6 7.2 7 7.8 7.6 7.2 7.4 7.8 7 
7 7.6 7.8 7.2 7.4 7 7.6 7.90301 7.8 
7.4 7.2 7.62442 7.42832 7.4 7 7.6 7.8 7.2 
8.8 8.2 8.4 8 8.6 8.23588 8.33328 8 8 
8 8 8 8.8 8 8 8.97142 8 8 
8 8 8 8 8 8.95194 8 8 8 
8 8 8 8 8 8 8 8 8 
8 8 8 8 8.74261 8 8.86243 8 8 
8 8 8 8 8 8 8 8 8 
8.52584 8 8 8 8 8 8 8 8 
8 8 8 8 8 8.81114 8 8 8 
8 8 8 8 8 8 8 8 8 
8 8 8.8968 8 8 8 8 8.96947 8.46912 
8 8 8 8 8 8 8 8 8 
8 8 8 8 8 8.89459 8 8 8.82523 
8.94945 8.58329 8.2 8.4 8 8.6 8.8 9.4 9.2 
9.6 9 9.8 9.29053 9.10414 9.39628 9.91641 9.4 9 
9.8 9.2 9.6 10 10.8 10 10.2 10.4 10 
10 10.6 10 10 10 10 10 10 10 
10 10 10 10 10 10 10 10 10 
10 10 10 10 10 10 10 10 10 
10 10.8 10.6 10.2 10.4 10 10 10 10 
10 10 10 10 10 10 10 10 10 
10 10 10 10 10 10 10 10 10 
10 10 10 10 10.6 10 10 10.8 10 
10 10 10.2 10.4 10 10 10 10 10 
10 10 10 10 10 10 10 10 10 
10 10 10 10 10 10 10 10 10 
10 10 10 10 10 10 10 10 10 
10 10 10 10 10 10 10 10 10 
10 10 10 10 10 10 10 10 10 
10 10 10 10 10 10 10.6 10 10.4 
10 10 10.8 10 10.2 10 10 10 10 
10 10 10 10 10 10 10 10 10.527 
10 10 10 10.2273 10.5018 10 10 10 10 
10 10 10 10.4 10 10.2 10.8 10.6 11.4 
11.2 11 11.8 11.6 11 11.4 11.6 11.8 11.2 
11.8 11.4 11 11.2 11.6 11 11.8 11.4 11.2 
11.6 11.3833 11.8756 11.0918 11.6439 11.2 11.8 11.4 11.6 
11 12.4 12.6 12 12.2 12.8 12.8 12.4 12.2 
12 12.6 12.2 12.6 12.8 12.4 12 12.8 12.2 
12.4 12 12.6 12.7019 12.4857 12 12.6 12.2 12.4 
12.8 13.8 13.6 13.4 13 13.2 13.6 13.8 13.2 
13 13.4 13 13.6 13.4 13.8 13.2 13.4728 13.6137 
13.9308 13.2 13.8 13 13.4 13.6 13.3924 13.4 13.2 
13.8 13 13.6 14.4 14 14.8 14.6 14.2 14.2 
14.4 14.8 14 14.6 14.2 14.8 14 14.6 14.4 
14.326 14.3429 14 14.4 14.8 14.2 14.6 14 15.8 
15.6 15.4 15.2 15 15 15.4 15.2 15.8 15.6 
15.4 15 15.2 15.8 15.6 15.8333 15 15.1667 15.5 
15.3333 15.6667 15.8 15 15.6 15.4 15.2 16 16 
16 16 16 16 16 16 16 16 16 
16 16 16 16 16 16 16 16 16 
16 16 16 16 16 16 16 16 16 
16 16 16 16 16 16 16 16 16 
16 16 16 16 16 16 16 16 16 
16 16 16 16 16 16 16 16 16 
16 16 16 16 16 16 16 16 16 
16 16 16 16 16 16 16 16 16 
16 16 16 16 16 16 16 16 16 
16 16 16 16 16 16 16 16 16 
16 16 16 16 16 16 16 16 16 
16 16 16 16 16 16 16 16 16 
16 16 16 16 16 16 16 16 16 
16 16 16 16 16 16 16 16 16 
16 16 16 16 16 16 16 16 16 
16 16 16 16 16 16 16 16 16 
16 16 16 16 16 
