# vtk DataFile Version 4.0
vtk output
ASCII
DATASET POLYDATA
FIELD FieldData 4
domain 1 4 string
domain_min:-1|-1|-1
domain_max:1|1|1
cell_size:1000|1000|1000
boundary:0|0|0

variables 1 7 string
T:203079
dt:1
E:0.011895
P:-1.02317
write_case:1
all_steps:203496
substeps:366

constants 1 1 string
gamma:9.16324e-10

equations 1 6 string
eq0:T=(T+dt)#true
eq1:r=verlet_r(r,v,a,dt)#true
eq2:a=(nbody(mass,gamma)/mass)#neq(id,0)
eq3:v=verlet_v(v,a,dt)#true
eq4:E=(fsum(((magnitude(v)^2)*mass))/2)#true
eq5:P=fsum((-(((gamma*mass)*332965)/if(eq(0,magnitude(r)),((gamma*mass)*332965),magnitude(r)))))#true

POINTS 10 float
-1.53081 -0.539762 -0.208352 -0.368956 -0.205724 -0.0724979 6.85837 -6.75368 -3.09795 
4.48135 -2.11755 -1.0144 43.2437 3.63446 -11.9123 -0.729144 0.62433 0.269859 
-18.4472 0.704112 0.566761 -0.171036 0.630752 0.295658 3.96427 27.5868 11.1932 
0 0 0 
VERTICES 20 20
1 0 
1 1 
1 2 
1 3 
1 4 
1 5 
1 6 
1 7 
1 8 
1 9 

POINT_DATA 10
SCALARS id double
LOOKUP_TABLE default
4 1 6 5 9 3 7 2 8 
0 
FIELD FieldData 5
gid 1 10 double
0 0 0 0 0 0 0 0 0 
0 
a 3 10 double
0.000106574 3.75731e-05 1.45032e-05 0.00142967 0.000797155 0.000280919 -2.02787e-06 2.0007e-06 9.17661e-07 
-1.05576e-05 4.987e-06 2.38906e-06 -1.45005e-07 -1.22055e-08 3.99446e-08 0.000224403 -0.000192141 -8.30505e-05 
8.9402e-07 -3.41904e-08 -2.74975e-08 0.000141402 -0.00052145 -0.000244424 -4.46424e-08 -3.11009e-07 -1.26192e-07 
0 0 0 
v 3 10 double
0.00557219 -0.0108377 -0.00511624 0.0177298 -0.0155485 -0.0101359 0.00377678 0.00358767 0.00132046 
0.00344339 0.00657781 0.00273368 0.000476619 0.0023027 0.000575516 -0.0122767 -0.0115836 -0.00500287 
-0.000213301 -0.00380908 -0.00166477 -0.0201788 -0.00499976 -0.000991289 -0.00317436 0.000386401 0.000237164 
0 0 0 
mass 1 10 double
0.107448 0.0552605 95.162 317.832 0.00219382 1 14.536 0.814805 17.1471 
332965 
r 3 10 double
-1.53081 -0.539762 -0.208352 -0.368956 -0.205724 -0.0724979 6.85837 -6.75368 -3.09795 
4.48135 -2.11755 -1.0144 43.2437 3.63446 -11.9123 -0.729144 0.62433 0.269859 
-18.4472 0.704112 0.566761 -0.171036 0.630752 0.295658 3.96427 27.5868 11.1932 
0 0 0 
