# vtk DataFile Version 4.0
vtk output
ASCII
DATASET POLYDATA
FIELD FieldData 4
domain 1 4 string
domain_min:-1|-1|-1
domain_max:1|1|1
cell_size:1000|1000|1000
boundary:0|0|0

variables 1 7 string
T:298774
dt:1
E:0.0120311
P:-1.0233
write_case:1
all_steps:299388
substeps:366

constants 1 1 string
gamma:9.16324e-10

equations 1 6 string
eq0:T=(T+dt)#true
eq1:r=verlet_r(r,v,a,dt)#true
eq2:a=(nbody(mass,gamma)/mass)#neq(id,0)
eq3:v=verlet_v(v,a,dt)#true
eq4:E=(fsum(((magnitude(v)^2)*mass))/2)#true
eq5:P=fsum((-(((gamma*mass)*332965)/if(eq(0,magnitude(r)),((gamma*mass)*332965),magnitude(r)))))#true

POINTS 10 float
-13.5084 -12.0135 -5.07008 -2.40111 -9.24476 -3.72867 0.399146 -0.240199 -0.169201 
0.556639 -1.18338 -0.557045 11.9329 -25.9114 -10.9032 5.00651 -0.0804479 -0.15407 
43.532 17.3346 -7.72102 -0.620077 0.716461 0.309206 0.682698 0.230071 0.061427 
0 0 0 
VERTICES 20 20
1 0 
1 1 
1 2 
1 3 
1 4 
1 5 
1 6 
1 7 
1 8 
1 9 

POINT_DATA 10
SCALARS id double
LOOKUP_TABLE default
7 6 1 4 8 5 9 3 2 
0 
FIELD FieldData 5
gid 1 10 double
0 0 0 0 0 0 0 0 0 
0 
a 3 10 double
6.2385e-07 5.54271e-07 2.33926e-07 6.80668e-07 2.61795e-06 1.05587e-06 -0.00100028 0.000601959 0.000424032 
-5.91194e-05 0.000125714 5.91765e-05 -1.28019e-07 2.77991e-07 1.16975e-07 -1.21509e-05 1.94788e-07 3.73741e-07 
-1.24196e-07 -4.94713e-08 2.2027e-08 0.00019108 -0.000220772 -9.52799e-05 -0.00055104 -0.000185709 -4.95832e-05 
0 0 0 
v 3 10 double
0.00273813 -0.0027772 -0.00125396 0.00513142 -0.00111737 -0.000690171 0.0116376 0.0164989 0.00766672 
0.0135954 0.00630657 0.00255382 0.00288646 0.00119902 0.000418924 0.000102654 0.00734214 0.00313951 
-0.000353988 0.00210655 0.000765035 -0.0140072 -0.00980474 -0.00422587 -0.0069811 0.0175381 0.00837367 
0 0 0 
mass 1 10 double
14.536 95.162 0.0552605 0.107448 17.1471 317.832 0.00219382 1 0.814805 
332965 
r 3 10 double
-13.5084 -12.0135 -5.07008 -2.40111 -9.24476 -3.72867 0.399146 -0.240199 -0.169201 
0.556639 -1.18338 -0.557045 11.9329 -25.9114 -10.9032 5.00651 -0.0804479 -0.15407 
43.532 17.3346 -7.72102 -0.620077 0.716461 0.309206 0.682698 0.230071 0.061427 
0 0 0 
