# vtk DataFile Version 4.0
vtk output
ASCII
DATASET POLYDATA
FIELD FieldData 4
domain 1 4 string
domain_min:-1|-1|-1
domain_max:1|1|1
cell_size:1000|1000|1000
boundary:0|0|0

variables 1 7 string
T:316306
dt:1
E:0.0124166
P:-1.02369
write_case:1
all_steps:316956
substeps:366

constants 1 1 string
gamma:9.16324e-10

equations 1 6 string
eq0:T=(T+dt)#true
eq1:r=verlet_r(r,v,a,dt)#true
eq2:a=(nbody(mass,gamma)/mass)#neq(id,0)
eq3:v=verlet_v(v,a,dt)#true
eq4:E=(fsum(((magnitude(v)^2)*mass))/2)#true
eq5:P=fsum((-(((gamma*mass)*332965)/if(eq(0,magnitude(r)),((gamma*mass)*332965),magnitude(r)))))#true

POINTS 10 float
-1.06538 1.16286 0.56026 -0.599165 0.731764 0.31572 -4.68001 7.21444 3.19994 
0.288886 0.08887 0.0184379 0.675453 0.2454 0.0688884 4.80675 1.299 0.441099 
9.7423 15.7595 6.76222 23.2281 17.6847 6.66044 21.4705 42.8883 6.92168 
0 0 0 
VERTICES 20 20
1 0 
1 1 
1 2 
1 3 
1 4 
1 5 
1 6 
1 7 
1 8 
1 9 

POINT_DATA 10
SCALARS id double
LOOKUP_TABLE default
4 3 6 1 2 5 7 8 9 
0 
FIELD FieldData 5
gid 1 10 double
0 0 0 0 0 0 0 0 0 
0 
a 3 10 double
6.9343e-05 -7.56776e-05 -3.64615e-05 0.000184431 -0.000225234 -9.71775e-05 1.8503e-06 -2.85054e-06 -1.26438e-06 
-0.00317445 -0.000976556 -0.000202606 -0.000547672 -0.000198976 -5.58559e-05 -1.17424e-05 -3.17277e-06 -1.07733e-06 
-3.87905e-07 -6.27775e-07 -2.69382e-07 -2.6444e-07 -2.01295e-07 -7.58069e-08 -5.76484e-08 -1.15195e-07 -1.85825e-08 
0 0 0 
v 3 10 double
-0.0103093 -0.00714128 -0.00302054 -0.0142795 -0.00945869 -0.00407507 -0.00518437 -0.0027196 -0.000898945 
-0.0118626 0.0288279 0.0166571 -0.00745118 0.0173961 0.00834115 -0.00217585 0.00706049 0.00307325 
-0.00347454 0.00160721 0.000751996 -0.00203491 0.00228629 0.000986515 -0.00197066 0.000620012 0.000788518 
0 0 0 
mass 1 10 double
0.107448 1 95.162 0.0552605 0.814805 317.832 14.536 17.1471 0.00219382 
332965 
r 3 10 double
-1.06538 1.16286 0.56026 -0.599165 0.731764 0.31572 -4.68001 7.21444 3.19994 
0.288886 0.08887 0.0184379 0.675453 0.2454 0.0688884 4.80675 1.299 0.441099 
9.7423 15.7595 6.76222 23.2281 17.6847 6.66044 21.4705 42.8883 6.92168 
0 0 0 
