# vtk DataFile Version 4.0
vtk output
ASCII
DATASET POLYDATA
FIELD FieldData 4
domain 1 4 string
domain_min:-1|-1|-1
domain_max:1|1|1
cell_size:1000|1000|1000
boundary:0|0|0

variables 1 7 string
T:109210
dt:1
E:0.0114408
P:-1.02271
write_case:1
all_steps:109434
substeps:366

constants 1 1 string
gamma:9.16324e-10

equations 1 6 string
eq0:T=(T+dt)#true
eq1:r=verlet_r(r,v,a,dt)#true
eq2:a=(nbody(mass,gamma)/mass)#neq(id,0)
eq3:v=verlet_v(v,a,dt)#true
eq4:E=(fsum(((magnitude(v)^2)*mass))/2)#true
eq5:P=fsum((-(((gamma*mass)*332965)/if(eq(0,magnitude(r)),((gamma*mass)*332965),magnitude(r)))))#true

POINTS 10 float
-15.736 -24.5463 -9.65598 -0.429811 -0.551564 -0.221594 -0.30165 -0.0868241 -0.0154165 
1.39831 -0.00576288 -0.0394412 39.6516 -6.55095 -14.0051 -1.77095 4.54671 1.99052 
-0.826426 0.515969 0.223344 -16.6195 7.34969 3.45303 1.74711 8.31343 3.36316 
0 0 0 
VERTICES 20 20
1 0 
1 1 
1 2 
1 3 
1 4 
1 5 
1 6 
1 7 
1 8 
1 9 

POINT_DATA 10
SCALARS id double
LOOKUP_TABLE default
8 2 1 4 9 5 3 7 6 
0 
FIELD FieldData 5
gid 1 10 double
0 0 0 0 0 0 0 0 0 
0 
a 3 10 double
1.65822e-07 2.58735e-07 1.01783e-07 0.000332255 0.000426386 0.000171303 0.00296497 0.000853419 0.000151535 
-0.000155857 6.49727e-07 4.3993e-06 -1.57108e-07 2.59759e-08 5.5498e-08 3.69402e-06 -9.47679e-06 -4.14903e-06 
0.000252489 -0.000157627 -6.82309e-05 8.02701e-07 -3.54551e-07 -1.66594e-07 -7.05713e-07 -3.33296e-06 -1.34804e-06 
0 0 0 
v 3 10 double
0.00269608 -0.00145671 -0.000663328 0.0162441 -0.0107665 -0.00587827 0.00480373 -0.0297322 -0.0163973 
0.000823829 0.0140107 0.00640624 0.00114525 0.00227795 0.000365767 -0.0072761 -0.00208138 -0.000715704 
-0.0101887 -0.0131305 -0.00568132 -0.00177755 -0.00345037 -0.00148594 -0.00583841 0.00090398 0.000627771 
0 0 0 
mass 1 10 double
17.1471 0.814805 0.0552605 0.107448 0.00219382 317.832 1 14.536 95.162 
332965 
r 3 10 double
-15.736 -24.5463 -9.65598 -0.429811 -0.551564 -0.221594 -0.30165 -0.0868241 -0.0154165 
1.39831 -0.00576288 -0.0394412 39.6516 -6.55095 -14.0051 -1.77095 4.54671 1.99052 
-0.826426 0.515969 0.223344 -16.6195 7.34969 3.45303 1.74711 8.31343 3.36316 
0 0 0 
