# vtk DataFile Version 4.0
vtk output
ASCII
DATASET POLYDATA
FIELD FieldData 4
domain 1 4 string
domain_min:-1|-1|-1
domain_max:1|1|1
cell_size:1000|1000|1000
boundary:0|0|0

variables 1 7 string
T:233030
dt:1
E:0.0113684
P:-1.02264
write_case:1
all_steps:233508
substeps:366

constants 1 1 string
gamma:9.16324e-10

equations 1 6 string
eq0:T=(T+dt)#true
eq1:r=verlet_r(r,v,a,dt)#true
eq2:a=(nbody(mass,gamma)/mass)#neq(id,0)
eq3:v=verlet_v(v,a,dt)#true
eq4:E=(fsum(((magnitude(v)^2)*mass))/2)#true
eq5:P=fsum((-(((gamma*mass)*332965)/if(eq(0,magnitude(r)),((gamma*mass)*332965),magnitude(r)))))#true

POINTS 10 float
-5.3287 -28.0253 -11.3387 -5.70086 -7.86146 -3.0074 -0.130233 -0.320837 -0.158602 
-0.69723 -0.223194 -0.0571484 2.34207 -4.24317 -1.87265 -0.696885 0.654494 0.28276 
-18.0624 3.41816 1.74946 0.522379 1.31895 0.591948 8.26288 44.4019 11.3779 
0 0 0 
VERTICES 20 20
1 0 
1 1 
1 2 
1 3 
1 4 
1 5 
1 6 
1 7 
1 8 
1 9 

POINT_DATA 10
SCALARS id double
LOOKUP_TABLE default
8 6 1 2 5 3 7 4 9 
0 
FIELD FieldData 5
gid 1 10 double
0 0 0 0 0 0 0 0 0 
0 
a 3 10 double
5.631e-08 2.96112e-07 1.19803e-07 1.65886e-06 2.28451e-06 8.73835e-07 0.000719258 0.00177193 0.000875931 
0.000537267 0.000171978 4.40332e-05 -5.09534e-06 9.22898e-06 4.07311e-06 0.000214565 -0.000201518 -8.70614e-05 
8.75951e-07 -1.66026e-07 -8.49488e-08 -4.38787e-05 -0.000110799 -4.97268e-05 -2.4976e-08 -1.34227e-07 -3.43978e-08 
0 0 0 
v 3 10 double
0.00309248 -0.000456494 -0.000263819 0.00432428 -0.00282833 -0.00136207 0.0238311 -0.0133326 -0.00956873 
0.0059228 -0.0175836 -0.00831892 0.00670448 0.00355207 0.00135973 -0.0128517 -0.0110502 -0.00476953 
-0.000850783 -0.00373726 -0.00162435 -0.0127226 0.00539233 0.00279877 -0.00223324 -0.000158942 0.000624187 
0 0 0 
mass 1 10 double
17.1471 95.162 0.0552605 0.814805 317.832 1 14.536 0.107448 0.00219382 
332965 
r 3 10 double
-5.3287 -28.0253 -11.3387 -5.70086 -7.86146 -3.0074 -0.130233 -0.320837 -0.158602 
-0.69723 -0.223194 -0.0571484 2.34207 -4.24317 -1.87265 -0.696885 0.654494 0.28276 
-18.0624 3.41816 1.74946 0.522379 1.31895 0.591948 8.26288 44.4019 11.3779 
0 0 0 
