# vtk DataFile Version 4.0
vtk output
ASCII
DATASET POLYDATA
FIELD FieldData 4
domain 1 4 string
domain_min:-1|-1|-1
domain_max:1|1|1
cell_size:1000|1000|1000
boundary:0|0|0

variables 1 7 string
T:37255.5
dt:1
E:0.0106559
P:-1.02193
write_case:1
all_steps:37332
substeps:366

constants 1 1 string
gamma:9.16324e-10

equations 1 6 string
eq0:T=(T+dt)#true
eq1:r=verlet_r(r,v,a,dt)#true
eq2:a=(nbody(mass,gamma)/mass)#neq(id,0)
eq3:v=verlet_v(v,a,dt)#true
eq4:E=(fsum(((magnitude(v)^2)*mass))/2)#true
eq5:P=fsum((-(((gamma*mass)*332965)/if(eq(0,magnitude(r)),((gamma*mass)*332965),magnitude(r)))))#true

POINTS 10 float
-8.20464 -5.39421 -1.87505 -2.13283 -4.59169 -1.91592 0.211804 -0.261826 -0.161821 
38.3037 30.4276 -2.05441 -0.717257 -0.0522272 0.0218215 -0.89155 0.415278 0.179951 
-30.0477 4.77607 2.70207 -0.536815 1.39873 0.656002 17.7494 8.66914 3.54605 
0 0 0 
VERTICES 20 20
1 0 
1 1 
1 2 
1 3 
1 4 
1 5 
1 6 
1 7 
1 8 
1 9 

POINT_DATA 10
SCALARS id double
LOOKUP_TABLE default
6 5 1 9 2 3 8 4 7 
0 
FIELD FieldData 5
gid 1 10 double
0 0 0 0 0 0 0 0 0 
0 
a 3 10 double
2.51362e-06 1.64858e-06 5.72652e-07 4.10001e-06 8.83148e-06 3.68515e-06 -0.00123896 0.00153154 0.00094657 
-9.96787e-08 -7.91891e-08 5.34355e-09 0.000587558 4.27761e-05 -1.78791e-05 0.000272136 -0.000126771 -5.49329e-05 
3.22146e-07 -5.12974e-08 -2.90073e-08 3.74342e-05 -9.75523e-05 -4.57515e-05 -6.70442e-07 -3.27528e-07 -1.33972e-07 
0 0 0 
v 3 10 double
0.00288991 -0.00420929 -0.00186426 0.00690758 -0.0023671 -0.00118226 0.0274258 0.0104181 0.00273113 
-0.00112859 0.00165751 0.000857674 0.000909739 -0.0188818 -0.0085585 -0.00830889 -0.0141927 -0.00614913 
-0.000591536 -0.0028711 -0.00116051 -0.0127813 -0.00320359 -0.00112714 -0.00188865 0.0030446 0.00136014 
0 0 0 
mass 1 10 double
95.162 317.832 0.0552605 0.00219382 0.814805 1 17.1471 0.107448 14.536 
332965 
r 3 10 double
-8.20464 -5.39421 -1.87505 -2.13283 -4.59169 -1.91592 0.211804 -0.261826 -0.161821 
38.3037 30.4276 -2.05441 -0.717257 -0.0522272 0.0218215 -0.89155 0.415278 0.179951 
-30.0477 4.77607 2.70207 -0.536815 1.39873 0.656002 17.7494 8.66914 3.54605 
0 0 0 
