# vtk DataFile Version 4.0
vtk output
ASCII
DATASET POLYDATA
FIELD FieldData 4
domain 1 4 string
domain_min:-1|-1|-1
domain_max:1|1|1
cell_size:1000|1000|1000
boundary:0|0|0

variables 1 7 string
T:152674
dt:1
E:0.0112822
P:-1.02255
write_case:1
all_steps:152988
substeps:366

constants 1 1 string
gamma:9.16324e-10

equations 1 6 string
eq0:T=(T+dt)#true
eq1:r=verlet_r(r,v,a,dt)#true
eq2:a=(nbody(mass,gamma)/mass)#neq(id,0)
eq3:v=verlet_v(v,a,dt)#true
eq4:E=(fsum(((magnitude(v)^2)*mass))/2)#true
eq5:P=fsum((-(((gamma*mass)*332965)/if(eq(0,magnitude(r)),((gamma*mass)*332965),magnitude(r)))))#true

POINTS 10 float
12.6468 -14.1698 -6.3822 -0.783453 0.569148 0.246201 -23.676 17.4185 7.71887 
-2.44701 4.30561 1.90298 -12.3215 36.9343 15.2503 -0.121232 1.45219 0.669453 
-0.178128 0.384986 0.224289 0.725986 0.113429 0.00550073 1.08422 8.38889 3.42518 
0 0 0 
VERTICES 20 20
1 0 
1 1 
1 2 
1 3 
1 4 
1 5 
1 6 
1 7 
1 8 
1 9 

POINT_DATA 10
SCALARS id double
LOOKUP_TABLE default
7 3 8 5 9 4 1 2 6 
0 
FIELD FieldData 5
gid 1 10 double
0 0 0 0 0 0 0 0 0 
0 
a 3 10 double
-4.80028e-07 5.37905e-07 2.42274e-07 0.000239625 -0.000174068 -7.5298e-05 2.57866e-07 -1.89628e-07 -8.40335e-08 
5.00126e-06 -8.79485e-06 -3.88726e-06 5.14942e-08 -1.54408e-07 -6.37546e-08 8.95721e-06 -0.000107418 -4.95198e-05 
0.000491898 -0.00106314 -0.000619377 -0.000558273 -8.72165e-05 -4.22629e-06 -4.41101e-07 -3.37447e-06 -1.37756e-06 
0 0 0 
v 3 10 double
0.00305522 0.00214467 0.000896134 -0.0111942 -0.0124312 -0.00537429 -0.00201651 -0.00227972 -0.000882969 
-0.00685982 -0.00295582 -0.00110053 -0.00214967 -0.00149541 0.000181603 -0.0134998 4.40268e-05 0.000371515 
-0.0193512 -0.0108532 -0.00382516 -0.00325339 0.0182048 0.0084198 -0.00590608 0.000525314 0.000475243 
0 0 0 
mass 1 10 double
14.536 1 17.1471 317.832 0.00219382 0.107448 0.0552605 0.814805 95.162 
332965 
r 3 10 double
12.6468 -14.1698 -6.3822 -0.783453 0.569148 0.246201 -23.676 17.4185 7.71887 
-2.44701 4.30561 1.90298 -12.3215 36.9343 15.2503 -0.121232 1.45219 0.669453 
-0.178128 0.384986 0.224289 0.725986 0.113429 0.00550073 1.08422 8.38889 3.42518 
0 0 0 
