# vtk DataFile Version 4.0
vtk output
ASCII
DATASET POLYDATA
FIELD FieldData 4
domain 1 4 string
domain_min:-1|-1|-1
domain_max:1|1|1
cell_size:1000|1000|1000
boundary:0|0|0

variables 1 7 string
T:226455
dt:1
E:0.01108
P:-1.02235
write_case:1
all_steps:226920
substeps:366

constants 1 1 string
gamma:9.16324e-10

equations 1 6 string
eq0:T=(T+dt)#true
eq1:r=verlet_r(r,v,a,dt)#true
eq2:a=(nbody(mass,gamma)/mass)#neq(id,0)
eq3:v=verlet_v(v,a,dt)#true
eq4:E=(fsum(((magnitude(v)^2)*mass))/2)#true
eq5:P=fsum((-(((gamma*mass)*332965)/if(eq(0,magnitude(r)),((gamma*mass)*332965),magnitude(r)))))#true

POINTS 10 float
-22.9894 -19.109 -7.24956 -1.46696 -0.651485 -0.261512 -2.81707 4.1286 1.83516 
-0.704113 0.649733 0.280736 -0.196236 0.624971 0.294746 9.49639 1.22732 0.0915844 
0.306795 0.326985 0.143889 1.40653 17.6133 7.69196 22.1394 42.6886 6.65563 
0 0 0 
VERTICES 20 20
1 0 
1 1 
1 2 
1 3 
1 4 
1 5 
1 6 
1 7 
1 8 
1 9 

POINT_DATA 10
SCALARS id double
LOOKUP_TABLE default
8 4 5 3 2 6 1 7 9 
0 
FIELD FieldData 5
gid 1 10 double
0 0 0 0 0 0 0 0 0 
0 
a 3 10 double
2.41212e-07 2.00547e-07 7.60853e-08 0.000104058 4.62228e-05 1.85545e-05 5.69485e-06 -8.34548e-06 -3.70958e-06 
0.000215878 -0.000199197 -8.60686e-05 0.000161532 -0.000514468 -0.000242632 -3.3015e-06 -4.26033e-07 -3.15678e-08 
-0.000896427 -0.000955403 -0.000420422 -6.02202e-08 -7.52179e-07 -3.28489e-07 -5.91357e-08 -1.14007e-07 -1.77697e-08 
0 0 0 
v 3 10 double
0.00207587 -0.00215047 -0.000931898 0.00669872 -0.0103829 -0.00493566 -0.00656087 -0.00343424 -0.00131279 
-0.0127221 -0.0111451 -0.00481114 -0.0199792 -0.00558631 -0.00127115 -0.00103588 0.00514591 0.00217761 
-0.0197018 0.00958557 0.00714148 -0.00399101 7.60506e-05 8.91807e-05 -0.00195083 0.000657936 0.000794169 
0 0 0 
mass 1 10 double
17.1471 0.107448 317.832 1 0.814805 95.162 0.0552605 14.536 0.00219382 
332965 
r 3 10 double
-22.9894 -19.109 -7.24956 -1.46696 -0.651485 -0.261512 -2.81707 4.1286 1.83516 
-0.704113 0.649733 0.280736 -0.196236 0.624971 0.294746 9.49639 1.22732 0.0915844 
0.306795 0.326985 0.143889 1.40653 17.6133 7.69196 22.1394 42.6886 6.65563 
0 0 0 
