# vtk DataFile Version 4.0
vtk output
ASCII
DATASET POLYDATA
FIELD FieldData 4
domain 1 4 string
domain_min:-1|-1|-1
domain_max:1|1|1
cell_size:1000|1000|1000
boundary:0|0|0

variables 1 7 string
T:321785
dt:1
E:0.0110191
P:-1.02229
write_case:1
all_steps:322446
substeps:366

constants 1 1 string
gamma:9.16324e-10

equations 1 6 string
eq0:T=(T+dt)#true
eq1:r=verlet_r(r,v,a,dt)#true
eq2:a=(nbody(mass,gamma)/mass)#neq(id,0)
eq3:v=verlet_v(v,a,dt)#true
eq4:E=(fsum(((magnitude(v)^2)*mass))/2)#true
eq5:P=fsum((-(((gamma*mass)*332965)/if(eq(0,magnitude(r)),((gamma*mass)*332965),magnitude(r)))))#true

POINTS 10 float
4.40601 -8.40847 -3.68393 -0.683649 0.219753 0.142207 -10.9563 13.88 6.22837 
-2.31439 4.3534 1.91798 -0.862653 1.28314 0.610374 -0.594163 0.735929 0.31749 
-0.464667 0.113679 0.107935 8.84591 26.5738 10.6572 9.94023 44.4706 10.8963 
0 0 0 
VERTICES 20 20
1 0 
1 1 
1 2 
1 3 
1 4 
1 5 
1 6 
1 7 
1 8 
1 9 

POINT_DATA 10
SCALARS id double
LOOKUP_TABLE default
6 2 7 5 4 3 1 8 9 
0 
FIELD FieldData 5
gid 1 10 double
0 0 0 0 0 0 0 0 0 
0 
a 3 10 double
-1.27378e-06 2.43089e-06 1.06503e-06 0.000531698 -0.000170898 -0.000110594 5.0837e-07 -6.43828e-07 -2.8891e-07 
4.76936e-06 -8.97126e-06 -3.95249e-06 5.72947e-05 -8.52174e-05 -4.05379e-05 0.000182527 -0.000226075 -9.75316e-05 
0.00120211 -0.000294077 -0.000279228 -1.005e-07 -3.01718e-07 -1.20998e-07 -2.95444e-08 -1.32155e-07 -3.23667e-08 
0 0 0 
v 3 10 double
0.00473381 0.00234176 0.000762183 -0.00753714 -0.0174389 -0.00742491 -0.00324421 -0.00231697 -0.000968902 
-0.00695806 -0.00279786 -0.0010311 -0.0114907 -0.00562661 -0.00229639 -0.0143459 -0.00935757 -0.00403099 
-0.0087374 -0.0180507 -0.0087962 -0.0030645 0.000866263 0.000430903 -0.00221279 -5.79034e-05 0.000649826 
0 0 0 
mass 1 10 double
95.162 0.814805 14.536 317.832 0.107448 1 0.0552605 17.1471 0.00219382 
332965 
r 3 10 double
4.40601 -8.40847 -3.68393 -0.683649 0.219753 0.142207 -10.9563 13.88 6.22837 
-2.31439 4.3534 1.91798 -0.862653 1.28314 0.610374 -0.594163 0.735929 0.31749 
-0.464667 0.113679 0.107935 8.84591 26.5738 10.6572 9.94023 44.4706 10.8963 
0 0 0 
