# vtk DataFile Version 4.0
vtk output
ASCII
DATASET POLYDATA
FIELD FieldData 4
domain 1 4 string
domain_min:-1|-1|-1
domain_max:1|1|1
cell_size:1000|1000|1000
boundary:0|0|0

variables 1 7 string
T:6574.5
dt:1
E:0.0103153
P:-1.02159
write_case:1
all_steps:6588
substeps:366

constants 1 1 string
gamma:9.16324e-10

equations 1 6 string
eq0:T=(T+dt)#true
eq1:r=verlet_r(r,v,a,dt)#true
eq2:a=(nbody(mass,gamma)/mass)#neq(id,0)
eq3:v=verlet_v(v,a,dt)#true
eq4:E=(fsum(((magnitude(v)^2)*mass))/2)#true
eq5:P=fsum((-(((gamma*mass)*332965)/if(eq(0,magnitude(r)),((gamma*mass)*332965),magnitude(r)))))#true

POINTS 10 float
-0.148786 -0.396594 -0.196437 -4.08159 -3.40733 -1.36112 -1.2631 -0.901621 -0.37946 
0.0500094 -9.48851 -3.92145 28.9813 -7.56304 -3.81632 11.0269 -29.3843 -12.4959 
0.742184 0.00630678 -0.0441231 -0.915463 0.370381 0.160566 17.7496 8.68199 3.55144 
0 0 0 
VERTICES 20 20
1 0 
1 1 
1 2 
1 3 
1 4 
1 5 
1 6 
1 7 
1 8 
1 9 

POINT_DATA 10
SCALARS id double
LOOKUP_TABLE default
1 5 4 6 8 9 2 3 7 
0 
FIELD FieldData 5
gid 1 10 double
0 0 0 0 0 0 0 0 0 
0 
a 3 10 double
0.000445945 0.0011887 0.000588774 7.53357e-06 6.28728e-06 2.51155e-06 9.4497e-05 6.74503e-05 2.83878e-05 
-1.66175e-08 2.6787e-06 1.10709e-06 -3.21598e-07 8.38752e-08 4.23282e-08 -8.74597e-08 2.32931e-07 9.90568e-08 
-0.000550915 -4.6866e-06 3.27497e-05 0.000278871 -0.000112838 -4.8917e-05 -6.69749e-07 -3.27705e-07 -1.34051e-07 
0 0 0 
v 3 10 double
0.0229561 -0.00189447 -0.00339223 0.00500197 -0.00483015 -0.0021921 0.00923411 -0.00892716 -0.00434392 
0.00528494 9.7467e-05 -0.00018723 0.000861003 0.00284942 0.00114495 0.00305929 0.000719096 -0.000698198 
0.000209479 0.0183148 0.00822738 -0.00745316 -0.0145746 -0.00631809 -0.0018885 0.00304356 0.00135974 
0 0 0 
mass 1 10 double
0.0552605 317.832 0.107448 95.162 17.1471 0.00219382 0.814805 1 14.536 
332965 
r 3 10 double
-0.148786 -0.396595 -0.196437 -4.0816 -3.40733 -1.36112 -1.2631 -0.901621 -0.37946 
0.0500094 -9.48851 -3.92145 28.9813 -7.56304 -3.81632 11.0269 -29.3844 -12.4959 
0.742184 0.00630678 -0.0441231 -0.915463 0.370381 0.160566 17.7496 8.68199 3.55144 
0 0 0 
