# vtk DataFile Version 4.0
vtk output
ASCII
DATASET POLYDATA
FIELD FieldData 4
domain 1 4 string
domain_min:-1|-1|-1
domain_max:1|1|1
cell_size:1000|1000|1000
boundary:0|0|0

variables 1 7 string
T:155231
dt:1
E:0.0118909
P:-1.02316
write_case:1
all_steps:155550
substeps:366

constants 1 1 string
gamma:9.16324e-10

equations 1 6 string
eq0:T=(T+dt)#true
eq1:r=verlet_r(r,v,a,dt)#true
eq2:a=(nbody(mass,gamma)/mass)#neq(id,0)
eq3:v=verlet_v(v,a,dt)#true
eq4:E=(fsum(((magnitude(v)^2)*mass))/2)#true
eq5:P=fsum((-(((gamma*mass)*332965)/if(eq(0,magnitude(r)),((gamma*mass)*332965),magnitude(r)))))#true

POINTS 10 float
1.34564 -0.30669 -0.175712 3.87576 -3.00556 -1.38064 18.6286 -7.207 -3.4175 
-27.9361 11.0441 5.21568 -17.6166 32.6057 15.4962 -9.5739 0.544435 0.643169 
-0.780373 0.570685 0.246856 -0.597998 0.348372 0.194841 -0.349912 0.0932142 0.085736 
0 0 0 
VERTICES 20 20
1 0 
1 1 
1 2 
1 3 
1 4 
1 5 
1 6 
1 7 
1 8 
1 9 

POINT_DATA 10
SCALARS id double
LOOKUP_TABLE default
4 5 7 8 9 6 3 2 1 
0 
FIELD FieldData 5
gid 1 10 double
0 0 0 0 0 0 0 0 0 
0 
a 3 10 double
-0.000152438 3.47323e-05 1.99009e-05 -8.94008e-06 6.93261e-06 3.1846e-06 -6.84276e-07 2.64602e-07 1.25477e-07 
3.01097e-07 -1.19072e-07 -5.62291e-08 8.30006e-08 -1.53674e-07 -7.30341e-08 3.29177e-06 -1.87471e-07 -2.21252e-07 
0.000239685 -0.000175285 -7.58202e-05 0.00049091 -0.000285984 -0.00015995 0.00207174 -0.000551897 -0.000507621 
0 0 0 
v 3 10 double
0.00416118 0.0136178 0.00614006 0.0048541 0.00571953 0.00233254 0.00153686 0.00318508 0.00137304 
-0.00129753 -0.00267648 -0.00106326 -0.00197896 -0.00189029 6.76548e-06 -0.000772066 -0.0051948 -0.00211668 
-0.0112583 -0.0124091 -0.00536452 -0.0116248 -0.0159455 -0.00646446 -0.0027795 -0.026079 -0.0136724 
0 0 0 
mass 1 10 double
0.107448 317.832 14.536 17.1471 0.00219382 95.162 1 0.814805 0.0552605 
332965 
r 3 10 double
1.34564 -0.30669 -0.175712 3.87576 -3.00556 -1.38064 18.6286 -7.207 -3.4175 
-27.9361 11.0441 5.21568 -17.6166 32.6057 15.4962 -9.5739 0.544435 0.643169 
-0.780373 0.570685 0.246856 -0.597998 0.348372 0.194841 -0.349912 0.0932142 0.085736 
0 0 0 
