# vtk DataFile Version 4.0
vtk output
ASCII
DATASET POLYDATA
FIELD FieldData 4
domain 1 4 string
domain_min:-1|-1|-1
domain_max:1|1|1
cell_size:1000|1000|1000
boundary:0|0|0

variables 1 7 string
T:42369
dt:1
E:0.011763
P:-1.02303
write_case:1
all_steps:42456
substeps:366

constants 1 1 string
gamma:9.16324e-10

equations 1 6 string
eq0:T=(T+dt)#true
eq1:r=verlet_r(r,v,a,dt)#true
eq2:a=(nbody(mass,gamma)/mass)#neq(id,0)
eq3:v=verlet_v(v,a,dt)#true
eq4:E=(fsum(((magnitude(v)^2)*mass))/2)#true
eq5:P=fsum((-(((gamma*mass)*332965)/if(eq(0,magnitude(r)),((gamma*mass)*332965),magnitude(r)))))#true

POINTS 10 float
-28.8387 -9.8847 -3.32905 -0.559685 -1.28684 -0.575317 3.35738 -3.54356 -1.60015 
-0.885911 0.423548 0.18352 -0.00544888 0.659771 0.297419 0.433553 0.212121 0.068542 
9.25133 2.16753 0.496406 31.3108 37.7864 2.35123 1.35219 17.5863 7.68321 
0 0 0 
VERTICES 20 20
1 0 
1 1 
1 2 
1 3 
1 4 
1 5 
1 6 
1 7 
1 8 
1 9 

POINT_DATA 10
SCALARS id double
LOOKUP_TABLE default
8 4 5 3 2 1 6 9 7 
0 
FIELD FieldData 5
gid 1 10 double
0 0 0 0 0 0 0 0 0 
0 
a 3 10 double
3.05401e-07 1.04642e-07 3.52388e-08 4.89614e-05 0.000112539 5.03137e-05 -7.55547e-06 7.97616e-06 3.6017e-06 
0.000271151 -0.000129637 -5.61708e-05 4.39082e-06 -0.000531027 -0.000239382 -0.00114169 -0.000558598 -0.000180499 
-3.27968e-06 -7.7045e-07 -1.76818e-07 -8.06609e-08 -9.73661e-08 -6.05959e-09 -5.77898e-08 -7.54195e-07 -3.29503e-07 
0 0 0 
v 3 10 double
0.00105017 -0.00272959 -0.00114341 0.0137218 -0.00347285 -0.00196017 0.00566985 0.00496556 0.00199021 
-0.00846954 -0.0141285 -0.00612078 -0.0205901 -0.000936613 0.00087945 -0.0120765 0.0157393 0.00966028 
-0.00160462 0.00504334 0.00215347 -0.00159028 0.00120524 0.00085576 -0.00399828 7.02169e-05 8.72425e-05 
0 0 0 
mass 1 10 double
17.1471 0.107448 317.832 1 0.814805 0.0552605 95.162 0.00219382 14.536 
332965 
r 3 10 double
-28.8387 -9.8847 -3.32905 -0.559685 -1.28684 -0.575317 3.35738 -3.54356 -1.60015 
-0.885911 0.423548 0.18352 -0.00544888 0.659771 0.297419 0.433553 0.212121 0.068542 
9.25133 2.16753 0.496406 31.3108 37.7864 2.35123 1.35219 17.5863 7.68321 
0 0 0 
