# vtk DataFile Version 4.0
vtk output
ASCII
DATASET POLYDATA
FIELD FieldData 4
domain 1 4 string
domain_min:-1|-1|-1
domain_max:1|1|1
cell_size:1000|1000|1000
boundary:0|0|0

variables 1 7 string
T:5844
dt:1
E:0.0103281
P:-1.0216
write_case:1
all_steps:5856
substeps:366

constants 1 1 string
gamma:9.16324e-10

equations 1 6 string
eq0:T=(T+dt)#true
eq1:r=verlet_r(r,v,a,dt)#true
eq2:a=(nbody(mass,gamma)/mass)#neq(id,0)
eq3:v=verlet_v(v,a,dt)#true
eq4:E=(fsum(((magnitude(v)^2)*mass))/2)#true
eq5:P=fsum((-(((gamma*mass)*332965)/if(eq(0,magnitude(r)),((gamma*mass)*332965),magnitude(r)))))#true

POINTS 10 float
-3.71826 -8.85039 -3.49568 -0.235717 -0.384459 -0.180937 -1.56993 -0.460762 -0.168968 
0.0210022 -0.669696 -0.302651 28.2673 -9.62014 -4.6406 8.77003 -29.8463 -11.9595 
-0.91601 0.370229 0.160504 -5.34228 1.10482 0.603611 18.9469 6.37914 2.52589 
0 0 0 
VERTICES 20 20
1 0 
1 1 
1 2 
1 3 
1 4 
1 5 
1 6 
1 7 
1 8 
1 9 

POINT_DATA 10
SCALARS id double
LOOKUP_TABLE default
6 1 4 2 8 9 3 5 7 
0 
FIELD FieldData 5
gid 1 10 double
0 0 0 0 0 0 0 0 0 
0 
a 3 10 double
1.06356e-06 2.53459e-06 1.00113e-06 0.00062685 0.00102241 0.000481177 0.000107619 3.15956e-05 1.15874e-05 
-1.61335e-05 0.000514157 0.00023236 -3.12882e-07 1.06473e-07 5.13622e-08 -7.24167e-08 2.46307e-07 9.86963e-08 
0.000278667 -0.000112635 -4.88298e-05 9.85814e-06 -2.03938e-06 -1.11411e-06 -7.07019e-07 -2.38057e-07 -9.42601e-08 
0 0 0 
v 3 10 double
0.00490035 -0.00182703 -0.000965569 0.0204416 -0.00648028 -0.00558125 0.00479599 -0.0110768 -0.00521017 
0.0202737 0.000694506 -0.000970292 0.00109286 0.00277986 0.00111071 0.00311779 0.000544023 -0.000770469 
-0.00743778 -0.0145741 -0.00631797 -0.00183605 -0.00650019 -0.00274149 -0.00138484 0.00325039 0.0014432 
0 0 0 
mass 1 10 double
95.162 0.0552605 0.107448 0.814805 17.1471 0.00219382 1 317.832 14.536 
332965 
r 3 10 double
-3.71826 -8.85039 -3.49568 -0.235717 -0.384459 -0.180937 -1.56993 -0.460762 -0.168968 
0.0210022 -0.669696 -0.302651 28.2673 -9.62014 -4.6406 8.77003 -29.8463 -11.9595 
-0.91601 0.370229 0.160504 -5.34228 1.10482 0.603611 18.9469 6.37914 2.52589 
0 0 0 
