# vtk DataFile Version 4.0
vtk output
ASCII
DATASET POLYDATA
FIELD FieldData 4
domain 1 4 string
domain_min:-1|-1|-1
domain_max:1|1|1
cell_size:1000|1000|1000
boundary:0|0|0

variables 1 7 string
T:209654
dt:1
E:0.0105195
P:-1.02179
write_case:1
all_steps:210084
substeps:366

constants 1 1 string
gamma:9.16324e-10

equations 1 6 string
eq0:T=(T+dt)#true
eq1:r=verlet_r(r,v,a,dt)#true
eq2:a=(nbody(mass,gamma)/mass)#neq(id,0)
eq3:v=verlet_v(v,a,dt)#true
eq4:E=(fsum(((magnitude(v)^2)*mass))/2)#true
eq5:P=fsum((-(((gamma*mass)*332965)/if(eq(0,magnitude(r)),((gamma*mass)*332965),magnitude(r)))))#true

POINTS 10 float
-3.55962 -17.3954 -7.56646 -0.702205 -0.203707 -0.0479446 43.4005 18.1985 -7.40996 
-9.69074 -0.579682 0.184585 -16.1884 23.5117 10.0267 -5.28945 1.27182 0.67172 
-0.72402 0.631334 0.272857 0.237477 0.331614 0.15337 0.653668 1.25641 0.559783 
0 0 0 
VERTICES 20 20
1 0 
1 1 
1 2 
1 3 
1 4 
1 5 
1 6 
1 7 
1 8 
1 9 

POINT_DATA 10
SCALARS id double
LOOKUP_TABLE default
7 2 9 6 8 5 3 1 4 
0 
FIELD FieldData 5
gid 1 10 double
0 0 0 0 0 0 0 0 0 
0 
a 3 10 double
1.50919e-07 7.39007e-07 3.21455e-07 0.000544599 0.000157995 3.71868e-05 -1.22592e-07 -5.13947e-08 2.09294e-08 
3.24139e-06 1.98067e-07 -6.0242e-08 1.78538e-07 -2.59474e-07 -1.10651e-07 9.79504e-06 -2.35747e-06 -1.24473e-06 
0.000221805 -0.000193422 -8.3595e-05 -0.000875663 -0.00122276 -0.000565523 -5.64769e-05 -0.000108536 -4.83571e-05 
0 0 0 
v 3 10 double
0.00387921 -0.000823331 -0.000414834 0.00535547 -0.0177901 -0.00837331 -0.000404285 0.00208498 0.000773311 
-7.08562e-05 -0.00517395 -0.00214 -0.00270949 -0.00156877 -0.000574698 -0.00208825 -0.00645017 -0.00271154 
-0.0123803 -0.0114587 -0.00494822 -0.0172603 0.0154062 0.0100115 -0.0121802 0.00656442 0.00332462 
0 0 0 
mass 1 10 double
14.536 0.814805 0.00219382 95.162 17.1471 317.832 1 0.0552605 0.107448 
332965 
r 3 10 double
-3.55962 -17.3954 -7.56646 -0.702205 -0.203707 -0.0479446 43.4005 18.1984 -7.40996 
-9.69074 -0.579682 0.184585 -16.1884 23.5117 10.0267 -5.28945 1.27182 0.67172 
-0.72402 0.631334 0.272857 0.237477 0.331614 0.15337 0.653668 1.25641 0.559783 
0 0 0 
