# vtk DataFile Version 4.0
vtk output
ASCII
DATASET POLYDATA
FIELD FieldData 4
domain 1 4 string
domain_min:-1|-1|-1
domain_max:1|1|1
cell_size:1000|1000|1000
boundary:0|0|0

variables 1 7 string
T:130394
dt:1
E:0.0120369
P:-1.02331
write_case:1
all_steps:130662
substeps:366

constants 1 1 string
gamma:9.16324e-10

equations 1 6 string
eq0:T=(T+dt)#true
eq1:r=verlet_r(r,v,a,dt)#true
eq2:a=(nbody(mass,gamma)/mass)#neq(id,0)
eq3:v=verlet_v(v,a,dt)#true
eq4:E=(fsum(((magnitude(v)^2)*mass))/2)#true
eq5:P=fsum((-(((gamma*mass)*332965)/if(eq(0,magnitude(r)),((gamma*mass)*332965),magnitude(r)))))#true

POINTS 10 float
0.153967 -0.311431 -0.182419 0.350515 -1.26067 -0.587579 0.592576 -0.394026 -0.215055 
-0.805041 0.542718 0.234845 29.9252 2.90062 0.442757 2.00245 4.32096 1.80242 
33.4678 36.0042 1.1463 4.48586 7.47705 2.89872 15.3659 11.7801 4.94202 
0 0 0 
VERTICES 20 20
1 0 
1 1 
1 2 
1 3 
1 4 
1 5 
1 6 
1 7 
1 8 
1 9 

POINT_DATA 10
SCALARS id double
LOOKUP_TABLE default
1 4 2 3 8 5 9 6 7 
0 
FIELD FieldData 5
gid 1 10 double
0 0 0 0 0 0 0 0 0 
0 
a 3 10 double
-0.000777515 0.00157271 0.000921208 -3.62368e-05 0.000130347 6.07523e-05 -0.00044006 0.000292625 0.00015971 
0.000246447 -0.000166127 -7.18869e-05 -3.3638e-07 -3.24901e-08 -4.9278e-09 -4.62423e-06 -9.98113e-06 -4.16373e-06 
-8.60461e-08 -9.25713e-08 -2.9361e-09 -1.77407e-06 -2.95321e-06 -1.14439e-06 -5.89102e-07 -4.51264e-07 -1.89331e-07 
0 0 0 
v 3 10 double
0.0222075 0.01604 0.00630158 0.014315 0.00442262 0.0016544 0.0119843 0.0149587 0.00599252 
-0.0106987 -0.0127975 -0.00553503 -0.000329745 0.00294526 0.00121376 -0.00710632 0.00303081 0.00146981 
-0.00147239 0.00133878 0.000862134 -0.00522286 0.00246199 0.0012462 -0.00256841 0.00261277 0.00118026 
0 0 0 
mass 1 10 double
0.0552605 0.107448 0.814805 1 17.1471 317.832 0.00219382 95.162 14.536 
332965 
r 3 10 double
0.153967 -0.311431 -0.182419 0.350515 -1.26067 -0.587579 0.592576 -0.394026 -0.215055 
-0.805041 0.542718 0.234845 29.9252 2.90062 0.442757 2.00245 4.32096 1.80242 
33.4678 36.0042 1.1463 4.48586 7.47705 2.89872 15.3659 11.7801 4.94202 
0 0 0 
