# vtk DataFile Version 4.0
vtk output
ASCII
DATASET POLYDATA
FIELD FieldData 4
domain 1 4 string
domain_min:-1|-1|-1
domain_max:1|1|1
cell_size:1000|1000|1000
boundary:0|0|0

variables 1 7 string
T:104827
dt:1
E:0.0111768
P:-1.02245
write_case:1
all_steps:105042
substeps:366

constants 1 1 string
gamma:9.16324e-10

equations 1 6 string
eq0:T=(T+dt)#true
eq1:r=verlet_r(r,v,a,dt)#true
eq2:a=(nbody(mass,gamma)/mass)#neq(id,0)
eq3:v=verlet_v(v,a,dt)#true
eq4:E=(fsum(((magnitude(v)^2)*mass))/2)#true
eq5:P=fsum((-(((gamma*mass)*332965)/if(eq(0,magnitude(r)),((gamma*mass)*332965),magnitude(r)))))#true

POINTS 10 float
-25.5925 -15.9325 -5.885 -1.4152 -0.725488 -0.295565 33.101 -16.1313 -15.0204 
3.72909 -8.69064 -3.75674 -0.830529 0.510097 0.220817 -1.43324 4.62496 2.01598 
-2.9466 17.2236 7.58424 0.266804 0.324539 0.14613 0.470274 0.518252 0.203994 
0 0 0 
VERTICES 20 20
1 0 
1 1 
1 2 
1 3 
1 4 
1 5 
1 6 
1 7 
1 8 
1 9 

POINT_DATA 10
SCALARS id double
LOOKUP_TABLE default
8 4 9 6 3 5 7 1 2 
0 
FIELD FieldData 5
gid 1 10 double
0 0 0 0 0 0 0 0 0 
0 
a 3 10 double
2.69749e-07 1.67946e-07 6.20354e-08 0.000102021 5.23072e-05 2.13102e-05 -1.60781e-07 7.83496e-08 7.29569e-08 
-1.08025e-06 2.51758e-06 1.08829e-06 0.000253877 -0.000155916 -6.74945e-05 3.03097e-06 -9.78065e-06 -4.26331e-06 
1.30252e-07 -7.61755e-07 -3.35432e-07 -0.000924889 -0.00112502 -0.000506562 -0.000370447 -0.000408225 -0.000160685 
0 0 0 
v 3 10 double
0.00172536 -0.00240739 -0.00102832 0.0074429 -0.0100315 -0.00479832 0.00184664 0.00205547 8.47359e-05 
0.00491257 0.00199783 0.000613092 -0.0100835 -0.0132018 -0.0057127 -0.0074372 -0.00164915 -0.00052655 
-0.00395878 -0.000754584 -0.000274615 -0.0223731 0.00796246 0.00656043 -0.0158388 0.0114384 0.00615539 
0 0 0 
mass 1 10 double
17.1471 0.107448 0.00219382 95.162 1 317.832 14.536 0.0552605 0.814805 
332965 
r 3 10 double
-25.5925 -15.9325 -5.885 -1.4152 -0.725488 -0.295565 33.101 -16.1313 -15.0204 
3.72909 -8.69064 -3.75674 -0.830529 0.510097 0.220817 -1.43324 4.62496 2.01598 
-2.94661 17.2236 7.58424 0.266804 0.324539 0.14613 0.470274 0.518252 0.203994 
0 0 0 
