# vtk DataFile Version 4.0
vtk output
ASCII
DATASET POLYDATA
FIELD FieldData 4
domain 1 4 string
domain_min:-1|-1|-1
domain_max:1|1|1
cell_size:1000|1000|1000
boundary:0|0|0

variables 1 7 string
T:245083
dt:1
E:0.0103211
P:-1.02159
write_case:1
all_steps:245586
substeps:366

constants 1 1 string
gamma:9.16324e-10

equations 1 6 string
eq0:T=(T+dt)#true
eq1:r=verlet_r(r,v,a,dt)#true
eq2:a=(nbody(mass,gamma)/mass)#neq(id,0)
eq3:v=verlet_v(v,a,dt)#true
eq4:E=(fsum(((magnitude(v)^2)*mass))/2)#true
eq5:P=fsum((-(((gamma*mass)*332965)/if(eq(0,magnitude(r)),((gamma*mass)*332965),magnitude(r)))))#true

POINTS 10 float
-0.725765 -1.23604 -0.548783 -4.18254 -3.30616 -1.315 13.7757 -13.3299 -6.02895 
0.410315 -9.49457 -3.95307 26.5873 -13.1236 -6.03352 -0.684463 0.666159 0.287746 
-18.2846 32.0036 15.515 -0.365477 0.0245071 0.0503112 0.34927 0.580204 0.240408 
0 0 0 
VERTICES 20 20
1 0 
1 1 
1 2 
1 3 
1 4 
1 5 
1 6 
1 7 
1 8 
1 9 

POINT_DATA 10
SCALARS id double
LOOKUP_TABLE default
4 5 7 6 8 3 9 1 2 
0 
FIELD FieldData 5
gid 1 10 double
0 0 0 0 0 0 0 0 0 
0 
a 3 10 double
6.12304e-05 0.000104295 4.63064e-05 7.70773e-06 6.09106e-06 2.42265e-06 -5.18853e-07 5.01642e-07 2.26902e-07 
-1.17195e-07 2.6599e-06 1.10748e-06 -2.93298e-07 1.44643e-07 6.65033e-08 0.000210386 -0.000204773 -8.84508e-05 
8.73021e-08 -1.52852e-07 -7.40991e-08 0.00220612 -0.000147938 -0.000303697 -0.000287151 -0.000477009 -0.000197649 
0 0 0 
v 3 10 double
0.0130383 -0.00479899 -0.00253356 0.00484373 -0.00496121 -0.00223989 0.00286639 0.00233771 0.00098339 
0.0052675 0.000284588 -0.000113723 0.00148174 0.00261966 0.00103539 -0.0130609 -0.0108296 -0.00467309 
-0.00194909 -0.00193987 -1.79167e-05 -0.0105238 -0.0249643 -0.0123045 -0.0181982 0.00865339 0.00505292 
0 0 0 
mass 1 10 double
0.107448 317.832 14.536 95.162 17.1471 1 0.00219382 0.0552605 0.814805 
332965 
r 3 10 double
-0.725765 -1.23604 -0.548783 -4.18254 -3.30616 -1.315 13.7757 -13.3299 -6.02895 
0.410315 -9.49457 -3.95307 26.5873 -13.1236 -6.03352 -0.684463 0.666159 0.287746 
-18.2846 32.0036 15.515 -0.365477 0.0245071 0.0503112 0.34927 0.580205 0.240408 
0 0 0 
