# vtk DataFile Version 4.0
vtk output
ASCII
DATASET POLYDATA
FIELD FieldData 4
domain 1 4 string
domain_min:-1|-1|-1
domain_max:1|1|1
cell_size:1000|1000|1000
boundary:0|0|0

variables 1 7 string
T:237412
dt:1
E:0.0116116
P:-1.02288
write_case:1
all_steps:237900
substeps:366

constants 1 1 string
gamma:9.16324e-10

equations 1 6 string
eq0:T=(T+dt)#true
eq1:r=verlet_r(r,v,a,dt)#true
eq2:a=(nbody(mass,gamma)/mass)#neq(id,0)
eq3:v=verlet_v(v,a,dt)#true
eq4:E=(fsum(((magnitude(v)^2)*mass))/2)#true
eq5:P=fsum((-(((gamma*mass)*332965)/if(eq(0,magnitude(r)),((gamma*mass)*332965),magnitude(r)))))#true

POINTS 10 float
-13.5147 -12.0306 -5.07805 -1.64187 -0.2391 -0.0679162 0.378515 -0.265068 -0.180531 
8.30292 -27.1529 -11.3209 2.65518 -4.06411 -1.80352 -0.691368 0.659292 0.284815 
-1.6736 42.3759 13.7431 0.70448 0.178797 0.0366426 9.3222 1.89024 0.373776 
0 0 0 
VERTICES 20 20
1 0 
1 1 
1 2 
1 3 
1 4 
1 5 
1 6 
1 7 
1 8 
1 9 

POINT_DATA 10
SCALARS id double
LOOKUP_TABLE default
7 4 1 8 5 3 9 2 6 
0 
FIELD FieldData 5
gid 1 10 double
0 0 0 0 0 0 0 0 0 
0 
a 3 10 double
6.22154e-07 5.53476e-07 2.33613e-07 0.000109405 1.59267e-05 4.5231e-06 -0.000945781 0.000662312 0.000451088 
-8.88035e-08 2.90548e-07 1.21135e-07 -5.8319e-06 8.92825e-06 3.96202e-06 0.000212929 -0.000203051 -8.77185e-05 
5.78485e-09 -1.46091e-07 -4.73813e-08 -0.000557682 -0.00014155 -2.90116e-05 -3.29983e-06 -6.70839e-07 -1.3303e-07 
0 0 0 
v 3 10 double
0.00273498 -0.00277571 -0.00125356 0.00267108 -0.0115473 -0.00536702 0.0129327 0.0157292 0.00710995 
0.00302136 0.000850562 0.000272952 0.00644512 0.00398249 0.00155021 -0.0129398 -0.0109655 -0.00473257 
-0.00227844 -0.000774233 0.00044561 -0.00536961 0.0179162 0.00843512 -0.00143811 0.00508448 0.00217021 
0 0 0 
mass 1 10 double
14.536 0.107448 0.0552605 17.1471 317.832 1 0.00219382 0.814805 95.162 
332965 
r 3 10 double
-13.5147 -12.0306 -5.07805 -1.64187 -0.2391 -0.0679162 0.378515 -0.265068 -0.180531 
8.30292 -27.1529 -11.3209 2.65518 -4.06411 -1.80352 -0.691368 0.659292 0.284815 
-1.6736 42.3759 13.7431 0.70448 0.178797 0.0366426 9.3222 1.89024 0.373776 
0 0 0 
