# vtk DataFile Version 4.0
vtk output
ASCII
DATASET POLYDATA
FIELD FieldData 4
domain 1 4 string
domain_min:-1|-1|-1
domain_max:1|1|1
cell_size:1000|1000|1000
boundary:0|0|0

variables 1 7 string
T:247274
dt:1
E:0.012008
P:-1.02328
write_case:1
all_steps:247782
substeps:366

constants 1 1 string
gamma:9.16324e-10

equations 1 6 string
eq0:T=(T+dt)#true
eq1:r=verlet_r(r,v,a,dt)#true
eq2:a=(nbody(mass,gamma)/mass)#neq(id,0)
eq3:v=verlet_v(v,a,dt)#true
eq4:E=(fsum(((magnitude(v)^2)*mass))/2)#true
eq5:P=fsum((-(((gamma*mass)*332965)/if(eq(0,magnitude(r)),((gamma*mass)*332965),magnitude(r)))))#true

POINTS 10 float
-0.372699 -0.262857 -0.102935 18.658 -7.18309 -3.40605 1.04033 -0.832565 -0.408492 
9.1848 -3.19287 -1.72732 29.1023 -7.08644 -3.62501 0.638267 -0.319139 -0.184292 
-22.3215 27.3893 15.2915 -0.679493 0.670498 0.289609 3.38327 3.46135 1.4006 
0 0 0 
VERTICES 20 20
1 0 
1 1 
1 2 
1 3 
1 4 
1 5 
1 6 
1 7 
1 8 
1 9 

POINT_DATA 10
SCALARS id double
LOOKUP_TABLE default
1 7 4 6 8 2 9 3 5 
0 
FIELD FieldData 5
gid 1 10 double
0 0 0 0 0 0 0 0 0 
0 
a 3 10 double
0.00111263 0.000784718 0.000307298 -6.83624e-07 2.63464e-07 1.24898e-07 -0.000117252 9.38493e-05 4.60458e-05 
-2.91099e-06 1.01357e-06 5.48174e-07 -3.23954e-07 7.88978e-08 4.0357e-08 -0.000486415 0.000243224 0.000140452 
1.19513e-07 -1.46595e-07 -8.18472e-08 0.000208843 -0.000206063 -8.90051e-05 -8.06824e-06 -8.25586e-06 -3.34069e-06 
0 0 0 
v 3 10 double
0.0102899 -0.0179193 -0.010647 0.00152904 0.00318486 0.001373 0.0100021 0.0108336 0.00471755 
0.00170137 0.00486655 0.00194215 0.000802257 0.00286591 0.0011531 0.00978734 0.0163848 0.00679424 
-0.00172329 -0.00226902 -0.000188867 -0.0131234 -0.0107647 -0.00464486 -0.0057412 0.00499296 0.00227496 
0 0 0 
mass 1 10 double
0.0552605 14.536 0.107448 95.162 17.1471 0.814805 0.00219382 1 317.832 
332965 
r 3 10 double
-0.372699 -0.262857 -0.102935 18.658 -7.18309 -3.40605 1.04033 -0.832565 -0.408492 
9.1848 -3.19287 -1.72732 29.1023 -7.08644 -3.62501 0.638267 -0.319139 -0.184292 
-22.3215 27.3893 15.2915 -0.679493 0.670498 0.289609 3.38327 3.46135 1.4006 
0 0 0 
