# vtk DataFile Version 4.0
vtk output
ASCII
DATASET POLYDATA
FIELD FieldData 4
domain 1 4 string
domain_min:-1|-1|-1
domain_max:1|1|1
cell_size:1000|1000|1000
boundary:0|0|0

variables 1 7 string
T:328360
dt:1
E:0.0115094
P:-1.02278
write_case:1
all_steps:329034
substeps:366

constants 1 1 string
gamma:9.16324e-10

equations 1 6 string
eq0:T=(T+dt)#true
eq1:r=verlet_r(r,v,a,dt)#true
eq2:a=(nbody(mass,gamma)/mass)#neq(id,0)
eq3:v=verlet_v(v,a,dt)#true
eq4:E=(fsum(((magnitude(v)^2)*mass))/2)#true
eq5:P=fsum((-(((gamma*mass)*332965)/if(eq(0,magnitude(r)),((gamma*mass)*332965),magnitude(r)))))#true

POINTS 10 float
-16.1321 -8.61108 -3.54409 -0.283364 -0.63346 -0.269147 0.138426 -0.234657 -0.139834 
0.986761 -0.888031 -0.432086 1.81733 -4.47782 -1.95925 -9.13598 2.24167 1.33493 
-11.7794 25.5908 10.7684 -4.93903 41.0991 14.3342 -0.586308 0.739916 0.319177 
0 0 0 
VERTICES 20 20
1 0 
1 1 
1 2 
1 3 
1 4 
1 5 
1 6 
1 7 
1 8 
1 9 

POINT_DATA 10
SCALARS id double
LOOKUP_TABLE default
7 2 1 4 5 6 8 9 3 
0 
FIELD FieldData 5
gid 1 10 double
0 0 0 0 0 0 0 0 0 
0 
a 3 10 double
7.62665e-07 4.07094e-07 1.67557e-07 0.000209667 0.000468689 0.000199139 -0.00147063 0.00249298 0.00148559 
-0.000110646 9.95612e-05 4.84442e-05 -3.91082e-06 9.63522e-06 4.21586e-06 3.25121e-06 -7.98283e-07 -4.75294e-07 
1.3111e-07 -2.84945e-07 -1.19901e-07 1.79158e-08 -1.49379e-07 -5.2094e-08 0.000180752 -0.000228112 -9.84006e-05 
0 0 0 
v 3 10 double
0.00196624 -0.00331513 -0.00147852 0.018523 -0.00650866 -0.00410413 0.0296401 0.0175277 0.00640499 
0.0105817 0.0103389 0.00448227 0.0070543 0.00284692 0.00104989 -0.00187261 -0.00502855 -0.00200378 
-0.00295386 -0.00114681 -0.000395863 -0.00226182 -0.000986831 0.000374384 -0.0144556 -0.00924496 -0.00398188 
0 0 0 
mass 1 10 double
14.536 0.814805 0.0552605 0.107448 317.832 95.162 17.1471 0.00219382 1 
332965 
r 3 10 double
-16.1321 -8.61108 -3.54409 -0.283364 -0.63346 -0.269147 0.138426 -0.234657 -0.139834 
0.986761 -0.888031 -0.432086 1.81733 -4.47782 -1.95925 -9.13598 2.24167 1.33493 
-11.7794 25.5908 10.7684 -4.93903 41.0991 14.3342 -0.586308 0.739916 0.319177 
0 0 0 
