# vtk DataFile Version 4.0
vtk output
ASCII
DATASET POLYDATA
FIELD FieldData 4
domain 1 4 string
domain_min:-1|-1|-1
domain_max:1|1|1
cell_size:1000|1000|1000
boundary:0|0|0

variables 1 7 string
T:94234.5
dt:1
E:0.0113408
P:-1.02261
write_case:1
all_steps:94428
substeps:366

constants 1 1 string
gamma:9.16324e-10

equations 1 6 string
eq0:T=(T+dt)#true
eq1:r=verlet_r(r,v,a,dt)#true
eq2:a=(nbody(mass,gamma)/mass)#neq(id,0)
eq3:v=verlet_v(v,a,dt)#true
eq4:E=(fsum(((magnitude(v)^2)*mass))/2)#true
eq5:P=fsum((-(((gamma*mass)*332965)/if(eq(0,magnitude(r)),((gamma*mass)*332965),magnitude(r)))))#true

POINTS 10 float
5.46279 -30.2711 -11.0985 4.93247 -8.16712 -3.59163 19.1529 -6.05263 -2.92087 
2.23186 -4.29318 -1.89334 0.736323 0.0682235 -0.0156899 -0.840585 0.494291 0.21401 
-26.6679 13.3579 6.13105 -0.341696 0.0977647 0.0874609 0.254987 1.40625 0.638415 
0 0 0 
VERTICES 20 20
1 0 
1 1 
1 2 
1 3 
1 4 
1 5 
1 6 
1 7 
1 8 
1 9 

POINT_DATA 10
SCALARS id double
LOOKUP_TABLE default
9 6 7 5 2 3 8 1 4 
0 
FIELD FieldData 5
gid 1 10 double
0 0 0 0 0 0 0 0 0 
0 
a 3 10 double
-4.77056e-08 2.64637e-07 9.70171e-08 -1.42652e-06 2.36075e-06 1.03817e-06 -7.00194e-07 2.20869e-07 1.06607e-07 
-4.8525e-06 9.33519e-06 4.11692e-06 -0.000555195 -5.14525e-05 1.18257e-05 0.000257743 -0.000151565 -6.56221e-05 
2.88439e-07 -1.44509e-07 -6.63263e-08 0.00212623 -0.000608353 -0.000544234 -2.02831e-05 -0.00011188 -5.07917e-05 
0 0 0 
v 3 10 double
0.00318163 0.000276942 -0.000873225 0.00457532 0.00258528 0.00087057 0.0012838 0.00327018 0.00141404 
0.00679188 0.00340927 0.00129623 -0.00181574 0.0182854 0.00835637 -0.0098157 -0.0133886 -0.0057947 
-0.00155703 -0.00256123 -0.00100965 -0.00355906 -0.0264502 -0.0137788 -0.0133751 0.00309837 0.00177468 
0 0 0 
mass 1 10 double
0.00219382 95.162 14.536 317.832 0.814805 1 17.1471 0.0552605 0.107448 
332965 
r 3 10 double
5.46279 -30.2711 -11.0985 4.93247 -8.16712 -3.59163 19.1529 -6.05263 -2.92087 
2.23186 -4.29318 -1.89334 0.736323 0.0682235 -0.0156899 -0.840585 0.494291 0.21401 
-26.6679 13.3579 6.13105 -0.341696 0.0977647 0.0874609 0.254987 1.40625 0.638415 
0 0 0 
