# vtk DataFile Version 4.0
vtk output
ASCII
DATASET POLYDATA
FIELD FieldData 4
domain 1 4 string
domain_min:-1|-1|-1
domain_max:1|1|1
cell_size:1000|1000|1000
boundary:0|0|0

variables 1 7 string
T:2922
dt:1
E:0.0112575
P:-1.02253
write_case:1
all_steps:2928
substeps:366

constants 1 1 string
gamma:9.16324e-10

equations 1 6 string
eq0:T=(T+dt)#true
eq1:r=verlet_r(r,v,a,dt)#true
eq2:a=(nbody(mass,gamma)/mass)#neq(id,0)
eq3:v=verlet_v(v,a,dt)#true
eq4:E=(fsum(((magnitude(v)^2)*mass))/2)#true
eq5:P=fsum((-(((gamma*mass)*332965)/if(eq(0,magnitude(r)),((gamma*mass)*332965),magnitude(r)))))#true

POINTS 10 float
-0.548514 -30.3148 -9.29543 -0.435745 -0.176891 -0.0493006 0.0193636 -0.669936 -0.302636 
23.8028 -17.1664 -7.61851 19.8729 -3.60882 -1.86175 0.518892 -4.82711 -2.08168 
-8.52294 3.56046 1.8375 -0.861159 1.28002 0.610376 -0.917666 0.364817 0.158162 
0 0 0 
VERTICES 20 20
1 0 
1 1 
1 2 
1 3 
1 4 
1 5 
1 6 
1 7 
1 8 
1 9 

POINT_DATA 10
SCALARS id double
LOOKUP_TABLE default
9 1 2 8 7 5 6 4 3 
0 
FIELD FieldData 5
gid 1 10 double
0 0 0 0 0 0 0 0 0 
0 
a 3 10 double
5.27437e-09 2.90483e-07 8.90609e-08 0.00125744 0.000510449 0.000142264 -1.48557e-05 0.000513975 0.000232183 
-2.60958e-07 1.88172e-07 8.35116e-08 -7.27427e-07 1.31858e-07 6.80459e-08 -1.07439e-06 9.9922e-06 4.30912e-06 
3.11439e-06 -1.30166e-06 -6.71709e-07 5.75328e-05 -8.55224e-05 -4.07811e-05 0.000279893 -0.000111278 -4.82433e-05 
0 0 0 
v 3 10 double
0.00322252 -0.000245039 -0.00104832 0.00496912 -0.0195238 -0.0109446 0.0202702 0.000641333 -0.000994167 
0.00193766 0.00234541 0.000911871 0.000761006 0.00340531 0.0014807 0.00749583 0.00109766 0.000288022 
-0.0027078 -0.00475516 -0.00184762 -0.0115076 -0.00565353 -0.00228229 -0.00735257 -0.0146241 -0.00634 
0 0 0 
mass 1 10 double
0.00219382 0.0552605 0.814805 17.1471 14.536 317.832 95.162 0.107448 1 
332965 
r 3 10 double
-0.548514 -30.3148 -9.29543 -0.435745 -0.176891 -0.0493006 0.0193636 -0.669936 -0.302636 
23.8028 -17.1664 -7.61851 19.8729 -3.60882 -1.86175 0.518892 -4.82711 -2.08168 
-8.52294 3.56046 1.8375 -0.861159 1.28002 0.610376 -0.917666 0.364817 0.158162 
0 0 0 
