# vtk DataFile Version 4.0
vtk output
ASCII
DATASET POLYDATA
FIELD FieldData 4
domain 1 4 string
domain_min:-1|-1|-1
domain_max:1|1|1
cell_size:1000|1000|1000
boundary:0|0|0

variables 1 7 string
T:181529
dt:1
E:0.0120118
P:-1.02328
write_case:1
all_steps:181902
substeps:366

constants 1 1 string
gamma:9.16324e-10

equations 1 6 string
eq0:T=(T+dt)#true
eq1:r=verlet_r(r,v,a,dt)#true
eq2:a=(nbody(mass,gamma)/mass)#neq(id,0)
eq3:v=verlet_v(v,a,dt)#true
eq4:E=(fsum(((magnitude(v)^2)*mass))/2)#true
eq5:P=fsum((-(((gamma*mass)*332965)/if(eq(0,magnitude(r)),((gamma*mass)*332965),magnitude(r)))))#true

POINTS 10 float
-1.41758 -30.2377 -9.01735 6.38538 -17.1098 -7.58101 4.84497 -1.19731 -0.629338 
7.33461 -6.26905 -2.91669 19.9499 -21.0388 -9.10806 -0.613519 0.327807 0.186573 
-0.752176 0.601107 0.259908 -0.00906429 1.44644 0.663942 0.0364387 0.265927 0.138642 
0 0 0 
VERTICES 20 20
1 0 
1 1 
1 2 
1 3 
1 4 
1 5 
1 6 
1 7 
1 8 
1 9 

POINT_DATA 10
SCALARS id double
LOOKUP_TABLE default
9 7 5 6 8 2 3 4 1 
0 
FIELD FieldData 5
gid 1 10 double
0 0 0 0 0 0 0 0 0 
0 
a 3 10 double
1.38855e-08 2.93241e-07 8.74287e-08 -2.51954e-07 6.76646e-07 2.99797e-07 -1.16128e-05 2.86803e-06 1.50767e-06 
-2.18821e-06 1.874e-06 8.71792e-07 -2.17291e-07 2.29181e-07 9.92114e-08 0.00050112 -0.000267743 -0.00015239 
0.000231357 -0.000184891 -7.99428e-05 6.93589e-07 -0.00010947 -5.02485e-05 -0.000403214 -0.00294269 -0.00153418 
0 0 0 
v 3 10 double
0.00322032 -0.000323258 -0.00107272 0.00373193 0.00102651 0.000397133 0.0019512 0.00710665 0.00299627 
0.00350207 0.00384013 0.00143689 0.00236264 0.00197419 0.00074928 -0.0109959 -0.0162659 -0.00665321 
-0.0118347 -0.0119599 -0.00516762 -0.0135554 0.000928708 0.000776313 -0.0351656 0.000874475 0.00406316 
0 0 0 
mass 1 10 double
0.00219382 14.536 317.832 95.162 17.1471 0.814805 1 0.107448 0.0552605 
332965 
r 3 10 double
-1.41758 -30.2377 -9.01735 6.38538 -17.1098 -7.58101 4.84497 -1.19731 -0.629338 
7.33461 -6.26905 -2.91669 19.9499 -21.0388 -9.10806 -0.613519 0.327806 0.186573 
-0.752176 0.601107 0.259908 -0.00906429 1.44644 0.663942 0.0364387 0.265927 0.138642 
0 0 0 
