# vtk DataFile Version 4.0
vtk output
ASCII
DATASET POLYDATA
FIELD FieldData 4
domain 1 4 string
domain_min:-1|-1|-1
domain_max:1|1|1
cell_size:1000|1000|1000
boundary:0|0|0

variables 1 7 string
T:178972
dt:1
E:0.0106403
P:-1.02191
write_case:1
all_steps:179340
substeps:366

constants 1 1 string
gamma:9.16324e-10

equations 1 6 string
eq0:T=(T+dt)#true
eq1:r=verlet_r(r,v,a,dt)#true
eq2:a=(nbody(mass,gamma)/mass)#neq(id,0)
eq3:v=verlet_v(v,a,dt)#true
eq4:E=(fsum(((magnitude(v)^2)*mass))/2)#true
eq5:P=fsum((-(((gamma*mass)*332965)/if(eq(0,magnitude(r)),((gamma*mass)*332965),magnitude(r)))))#true

POINTS 10 float
-3.5617 -17.4051 -7.57083 -9.51308 -28.4322 -6.01055 -4.9798 -8.29441 -3.21674 
13.2764 -25.2851 -10.6801 0.408446 0.0209753 -0.0305445 -0.756672 0.598477 0.258783 
-4.12345 3.1679 1.45585 -1.67584 0.0857043 0.0826385 0.719964 0.133234 0.0148966 
0 0 0 
VERTICES 20 20
1 0 
1 1 
1 2 
1 3 
1 4 
1 5 
1 6 
1 7 
1 8 
1 9 

POINT_DATA 10
SCALARS id double
LOOKUP_TABLE default
7 9 6 8 1 3 5 4 2 
0 
FIELD FieldData 5
gid 1 10 double
0 0 0 0 0 0 0 0 0 
0 
a 3 10 double
1.50793e-07 7.38595e-07 3.21306e-07 1.01673e-07 3.03941e-07 6.42132e-08 1.4339e-06 2.38966e-06 9.26783e-07 
-1.43141e-07 2.72447e-07 1.15079e-07 -0.00180651 -9.27643e-05 0.000135098 0.000231652 -0.000183223 -7.92257e-05 
7.99053e-06 -6.13941e-06 -2.82141e-06 0.000107811 -5.50215e-06 -5.31151e-06 -0.000559277 -0.000103493 -1.15699e-05 
0 0 0 
v 3 10 double
0.00387692 -0.000822221 -0.000414418 0.00307484 -0.00109371 -0.00126942 0.00456115 -0.00247371 -0.00122373 
0.00282596 0.00132896 0.000473655 -0.00685416 0.0226241 0.0128127 -0.0117575 -0.0119929 -0.00518216 
-0.00501868 -0.00505879 -0.0020455 -0.0003519 -0.0116762 -0.00534856 -0.00390086 0.0181459 0.008438 
0 0 0 
mass 1 10 double
14.536 0.00219382 95.162 17.1471 0.0552605 1 317.832 0.107448 0.814805 
332965 
r 3 10 double
-3.5617 -17.4051 -7.57083 -9.51308 -28.4322 -6.01055 -4.9798 -8.29441 -3.21674 
13.2764 -25.2851 -10.6801 0.408446 0.0209753 -0.0305445 -0.756672 0.598477 0.258783 
-4.12345 3.1679 1.45585 -1.67584 0.0857043 0.0826385 0.719964 0.133234 0.0148966 
0 0 0 
