# vtk DataFile Version 4.0
vtk output
ASCII
DATASET POLYDATA
FIELD FieldData 4
domain 1 4 string
domain_min:-1|-1|-1
domain_max:1|1|1
cell_size:1000|1000|1000
boundary:0|0|0

variables 1 7 string
T:236682
dt:1
E:0.0106618
P:-1.02193
write_case:1
all_steps:237168
substeps:366

constants 1 1 string
gamma:9.16324e-10

equations 1 6 string
eq0:T=(T+dt)#true
eq1:r=verlet_r(r,v,a,dt)#true
eq2:a=(nbody(mass,gamma)/mass)#neq(id,0)
eq3:v=verlet_v(v,a,dt)#true
eq4:E=(fsum(((magnitude(v)^2)*mass))/2)#true
eq5:P=fsum((-(((gamma*mass)*332965)/if(eq(0,magnitude(r)),((gamma*mass)*332965),magnitude(r)))))#true

POINTS 10 float
-15.3377 -9.86309 -4.10354 -2.59482 -4.40798 -1.82475 0.200007 -0.64824 -0.305556 
0.323569 -0.318562 -0.203597 9.4948 -1.88422 -1.19796 6.07425 -27.6962 -11.4878 
-1.65681 0.264947 0.163781 -0.693518 0.658037 0.284275 -0.0081757 42.9026 13.4052 
0 0 0 
VERTICES 20 20
1 0 
1 1 
1 2 
1 3 
1 4 
1 5 
1 6 
1 7 
1 8 
1 9 

POINT_DATA 10
SCALARS id double
LOOKUP_TABLE default
7 5 2 1 6 8 4 3 9 
0 
FIELD FieldData 5
gid 1 10 double
0 0 0 0 0 0 0 0 0 
0 
a 3 10 double
7.18098e-07 4.61434e-07 1.91979e-07 4.94336e-06 8.39679e-06 3.47596e-06 -0.000148162 0.000480178 0.000226338 
-0.000801146 0.000788729 0.000504091 -3.12375e-06 6.19113e-07 3.93781e-07 -6.48555e-08 2.95587e-07 1.22602e-07 
0.000105505 -1.68816e-05 -1.04338e-05 0.000213257 -0.000202356 -8.74187e-05 2.7978e-11 -1.44298e-07 -4.50885e-08 
0 0 0 
v 3 10 double
0.00224453 -0.00314742 -0.00140944 0.00659648 -0.00296302 -0.00142672 0.019266 0.00546359 0.00126139 
0.0165456 0.0127071 0.00512278 0.000943707 0.00509194 0.00206867 0.00307751 0.000636366 0.000183881 
-0.00201471 -0.0115061 -0.00522883 -0.0129108 -0.0109828 -0.0047401 -0.00228055 -0.000668163 0.000479381 
0 0 0 
mass 1 10 double
14.536 317.832 0.814805 0.0552605 95.162 17.1471 0.107448 1 0.00219382 
332965 
r 3 10 double
-15.3377 -9.86309 -4.10354 -2.59482 -4.40798 -1.82475 0.200007 -0.64824 -0.305556 
0.323569 -0.318562 -0.203597 9.4948 -1.88422 -1.19796 6.07425 -27.6962 -11.4878 
-1.65681 0.264947 0.163781 -0.693518 0.658037 0.284275 -0.0081757 42.9026 13.4052 
0 0 0 
