# vtk DataFile Version 4.0
vtk output
ASCII
DATASET POLYDATA
FIELD FieldData 4
domain 1 4 string
domain_min:-1|-1|-1
domain_max:1|1|1
cell_size:1000|1000|1000
boundary:0|0|0

variables 1 7 string
T:36159.8
dt:1
E:0.0105418
P:-1.02181
write_case:1
all_steps:36234
substeps:366

constants 1 1 string
gamma:9.16324e-10

equations 1 6 string
eq0:T=(T+dt)#true
eq1:r=verlet_r(r,v,a,dt)#true
eq2:a=(nbody(mass,gamma)/mass)#neq(id,0)
eq3:v=verlet_v(v,a,dt)#true
eq4:E=(fsum(((magnitude(v)^2)*mass))/2)#true
eq5:P=fsum((-(((gamma*mass)*332965)/if(eq(0,magnitude(r)),((gamma*mass)*332965),magnitude(r)))))#true

POINTS 10 float
-0.883764 -1.16688 -0.511591 -0.478178 -0.5108 -0.199746 -0.00422744 -0.283331 -0.150972 
39.4797 28.5647 -2.9905 -9.66292 -0.0827956 0.382695 -5.25282 1.38343 0.720593 
-0.892586 0.415018 0.179842 -29.2074 7.88451 3.95355 19.4048 5.16324 1.98718 
0 0 0 
VERTICES 20 20
1 0 
1 1 
1 2 
1 3 
1 4 
1 5 
1 6 
1 7 
1 8 
1 9 

POINT_DATA 10
SCALARS id double
LOOKUP_TABLE default
4 2 1 9 6 5 3 8 7 
0 
FIELD FieldData 5
gid 1 10 double
0 0 0 0 0 0 0 0 0 
0 
a 3 10 double
7.23144e-05 9.54995e-05 4.18699e-05 0.000378673 0.000404522 0.000158187 3.89565e-05 0.00261179 0.00139168 
-1.03637e-07 -7.49736e-08 7.85237e-09 3.27229e-06 3.21655e-08 -1.28116e-07 9.73741e-06 -2.56679e-06 -1.33661e-06 
0.000271789 -0.000126376 -5.47628e-05 3.14393e-07 -8.48933e-08 -4.25641e-08 -7.2121e-07 -1.91838e-07 -7.38275e-08 
0 0 0 
v 3 10 double
0.0122113 -0.00605157 -0.00310311 0.0151869 -0.0121989 -0.00645207 0.0330779 -0.00354499 -0.00531541 
-0.0010172 0.00174198 0.000850448 -0.000369028 -0.00518938 -0.00212828 -0.00225799 -0.00640524 -0.00269021 
-0.00828308 -0.0141919 -0.0061489 -0.000940663 -0.00279641 -0.00112126 -0.00112351 0.00332969 0.00147418 
0 0 0 
mass 1 10 double
0.107448 0.814805 0.0552605 0.00219382 95.162 317.832 1 17.1471 14.536 
332965 
r 3 10 double
-0.883764 -1.16688 -0.511591 -0.478178 -0.5108 -0.199746 -0.00422744 -0.283331 -0.150972 
39.4797 28.5647 -2.9905 -9.66292 -0.0827956 0.382695 -5.25282 1.38343 0.720593 
-0.892586 0.415018 0.179842 -29.2074 7.88451 3.95355 19.4048 5.16324 1.98718 
0 0 0 
