# vtk DataFile Version 4.0
vtk output
ASCII
DATASET POLYDATA
FIELD FieldData 4
domain 1 4 string
domain_min:-1|-1|-1
domain_max:1|1|1
cell_size:1000|1000|1000
boundary:0|0|0

variables 1 7 string
T:252753
dt:1
E:0.0107631
P:-1.02203
write_case:1
all_steps:253272
substeps:366

constants 1 1 string
gamma:9.16324e-10

equations 1 6 string
eq0:T=(T+dt)#true
eq1:r=verlet_r(r,v,a,dt)#true
eq2:a=(nbody(mass,gamma)/mass)#neq(id,0)
eq3:v=verlet_v(v,a,dt)#true
eq4:E=(fsum(((magnitude(v)^2)*mass))/2)#true
eq5:P=fsum((-(((gamma*mass)*332965)/if(eq(0,magnitude(r)),((gamma*mass)*332965),magnitude(r)))))#true

POINTS 10 float
0.189552 -0.298785 -0.179361 0.825928 -1.0212 -0.489583 -4.39256 2.87479 1.33592 
-9.55662 0.791041 0.748234 -29.511 12.939 12.9465 -0.675461 0.67493 0.291502 
-0.223833 0.617205 0.293096 28.4995 8.90603 2.93601 16.2342 10.8289 4.51375 
0 0 0 
VERTICES 20 20
1 0 
1 1 
1 2 
1 3 
1 4 
1 5 
1 6 
1 7 
1 8 
1 9 

POINT_DATA 10
SCALARS id double
LOOKUP_TABLE default
1 4 5 6 9 3 2 8 7 
0 
FIELD FieldData 5
gid 1 10 double
0 0 0 0 0 0 0 0 0 
0 
a 3 10 double
-0.000926368 0.0014602 0.00087656 -9.15118e-05 0.000113144 5.42437e-05 8.42882e-06 -5.51908e-06 -2.56454e-06 
3.28531e-06 -2.67762e-07 -2.55572e-07 2.15399e-07 -9.44419e-08 -9.45163e-08 0.000207084 -0.000206924 -8.93701e-05 
0.000183723 -0.000506641 -0.000240592 -3.2236e-07 -1.00659e-07 -3.31737e-08 -6.16939e-07 -4.11426e-07 -1.71493e-07 
0 0 0 
v 3 10 double
0.0202455 0.0175837 0.00736336 0.0120239 0.0088559 0.00375929 -0.00455256 -0.00539183 -0.00219893 
-0.00093891 -0.00516528 -0.00209949 -0.000813164 -0.00295901 -0.000679032 -0.0131972 -0.0106701 -0.00460356 
-0.0197432 -0.00623618 -0.0015825 -0.00102116 0.00280713 0.00117444 -0.00235466 0.00276686 0.0012443 
0 0 0 
mass 1 10 double
0.0552605 0.107448 317.832 95.162 0.00219382 1 0.814805 17.1471 14.536 
332965 
r 3 10 double
0.189552 -0.298785 -0.179361 0.825928 -1.0212 -0.489583 -4.39256 2.87479 1.33592 
-9.55662 0.791041 0.748234 -29.511 12.939 12.9465 -0.675461 0.67493 0.291502 
-0.223833 0.617205 0.293096 28.4995 8.90603 2.93601 16.2342 10.8289 4.51375 
0 0 0 
