# vtk DataFile Version 4.0
vtk output
ASCII
DATASET POLYDATA
FIELD FieldData 4
domain 1 4 string
domain_min:-1|-1|-1
domain_max:1|1|1
cell_size:1000|1000|1000
boundary:0|0|0

variables 1 7 string
T:202714
dt:1
E:0.0114366
P:-1.02271
write_case:1
all_steps:203130
substeps:366

constants 1 1 string
gamma:9.16324e-10

equations 1 6 string
eq0:T=(T+dt)#true
eq1:r=verlet_r(r,v,a,dt)#true
eq2:a=(nbody(mass,gamma)/mass)#neq(id,0)
eq3:v=verlet_v(v,a,dt)#true
eq4:E=(fsum(((magnitude(v)^2)*mass))/2)#true
eq5:P=fsum((-(((gamma*mass)*332965)/if(eq(0,magnitude(r)),((gamma*mass)*332965),magnitude(r)))))#true

POINTS 10 float
-0.367531 -0.594702 -0.245551 -0.405748 -0.173822 -0.0516582 5.35403 -7.9236 -3.51658 
2.61397 -4.08229 -1.81076 43.0599 2.79265 -12.1198 -0.730261 0.62326 0.269397 
-18.3098 2.0916 1.17233 1.291 0.583834 0.234739 5.12044 27.4249 11.0982 
0 0 0 
VERTICES 20 20
1 0 
1 1 
1 2 
1 3 
1 4 
1 5 
1 6 
1 7 
1 8 
1 9 

POINT_DATA 10
SCALARS id double
LOOKUP_TABLE default
2 1 6 5 9 3 7 4 8 
0 
FIELD FieldData 5
gid 1 10 double
0 0 0 0 0 0 0 0 0 
0 
a 3 10 double
0.00027564 0.000445991 0.000184149 0.00141029 0.000604153 0.000179547 -1.55066e-06 2.29437e-06 1.01827e-06 
-5.75404e-06 8.98648e-06 3.98609e-06 -1.46131e-07 -9.50141e-09 4.11249e-08 0.000224726 -0.000191801 -8.29039e-05 
8.87864e-07 -1.01554e-07 -5.69041e-08 -0.000132962 -6.01412e-05 -2.4181e-05 -5.77409e-08 -3.09419e-07 -1.25216e-07 
0 0 0 
v 3 10 double
0.0173298 -0.00891654 -0.00511596 0.014562 -0.0168896 -0.0105308 0.00443147 0.00280057 0.000965731 
0.00648693 0.0039362 0.00152945 0.000529788 0.00230666 0.000560712 -0.0122614 -0.0115969 -0.00500862 
-0.000538918 -0.00378428 -0.00164934 -0.00560916 0.0126447 0.00594636 -0.00315566 0.000499721 0.000283083 
0 0 0 
mass 1 10 double
0.814805 0.0552605 95.162 317.832 0.00219382 1 14.536 0.107448 17.1471 
332965 
r 3 10 double
-0.367531 -0.594702 -0.245551 -0.405748 -0.173822 -0.0516582 5.35403 -7.9236 -3.51658 
2.61397 -4.08229 -1.81076 43.0599 2.79265 -12.1198 -0.730261 0.62326 0.269397 
-18.3098 2.0916 1.17233 1.291 0.583834 0.234739 5.12044 27.4249 11.0982 
0 0 0 
