# vtk DataFile Version 4.0
vtk output
ASCII
DATASET POLYDATA
FIELD FieldData 4
domain 1 4 string
domain_min:-1|-1|-1
domain_max:1|1|1
cell_size:1000|1000|1000
boundary:0|0|0

variables 1 7 string
T:30681
dt:1
E:0.0117814
P:-1.02305
write_case:1
all_steps:30744
substeps:366

constants 1 1 string
gamma:9.16324e-10

equations 1 6 string
eq0:T=(T+dt)#true
eq1:r=verlet_r(r,v,a,dt)#true
eq2:a=(nbody(mass,gamma)/mass)#neq(id,0)
eq3:v=verlet_v(v,a,dt)#true
eq4:E=(fsum(((magnitude(v)^2)*mass))/2)#true
eq5:P=fsum((-(((gamma*mass)*332965)/if(eq(0,magnitude(r)),((gamma*mass)*332965),magnitude(r)))))#true

POINTS 10 float
-0.635499 -1.26345 -0.562497 14.7238 -12.5034 -5.68419 9.44211 -2.29493 -1.35559 
43.3991 18.0081 -7.46728 -19.711 21.1403 9.14342 -0.895309 0.408392 0.176982 
-0.120357 0.400867 0.226669 0.00590467 0.661506 0.297413 1.72959 4.42946 1.85633 
0 0 0 
VERTICES 20 20
1 0 
1 1 
1 2 
1 3 
1 4 
1 5 
1 6 
1 7 
1 8 
1 9 

POINT_DATA 10
SCALARS id double
LOOKUP_TABLE default
4 7 6 9 8 3 1 2 5 
0 
FIELD FieldData 5
gid 1 10 double
0 0 0 0 0 0 0 0 0 
0 
a 3 10 double
5.49949e-05 0.000109336 4.86771e-05 -5.50863e-07 4.68208e-07 2.12834e-07 -3.05225e-06 7.42942e-07 4.38681e-07 
-1.23146e-07 -5.10965e-08 2.11957e-08 2.16181e-07 -2.31762e-07 -1.00241e-07 0.000273299 -0.000124652 -5.40197e-05 
0.000340531 -0.00113415 -0.000641304 -4.71598e-06 -0.000528927 -0.000237806 -3.96675e-06 -1.01606e-05 -4.25821e-06 
0 0 0 
v 3 10 double
0.0134497 -0.00409873 -0.00224099 0.00267489 0.00251013 0.00106159 0.00117146 0.00502707 0.00202659 
-0.000395794 0.00208992 0.000771632 -0.00243596 -0.00190752 -0.00072024 -0.00815749 -0.0142664 -0.00618182 
-0.020706 -0.00901672 -0.00267552 -0.0205513 -0.000650394 0.00100651 -0.00726481 0.00264698 0.001311 
0 0 0 
mass 1 10 double
0.107448 14.536 95.162 0.00219382 17.1471 1 0.0552605 0.814805 317.832 
332965 
r 3 10 double
-0.635499 -1.26345 -0.562497 14.7238 -12.5034 -5.68419 9.44211 -2.29493 -1.35559 
43.3991 18.0081 -7.46728 -19.711 21.1403 9.14342 -0.895309 0.408392 0.176982 
-0.120357 0.400867 0.226669 0.00590468 0.661506 0.297413 1.72959 4.42946 1.85633 
0 0 0 
