# vtk DataFile Version 4.0
vtk output
ASCII
DATASET POLYDATA
FIELD FieldData 4
domain 1 4 string
domain_min:-1|-1|-1
domain_max:1|1|1
cell_size:1000|1000|1000
boundary:0|0|0

variables 1 7 string
T:58440
dt:1
E:0.010377
P:-1.02165
write_case:1
all_steps:58560
substeps:366

constants 1 1 string
gamma:9.16324e-10

equations 1 6 string
eq0:T=(T+dt)#true
eq1:r=verlet_r(r,v,a,dt)#true
eq2:a=(nbody(mass,gamma)/mass)#neq(id,0)
eq3:v=verlet_v(v,a,dt)#true
eq4:E=(fsum(((magnitude(v)^2)*mass))/2)#true
eq5:P=fsum((-(((gamma*mass)*332965)/if(eq(0,magnitude(r)),((gamma*mass)*332965),magnitude(r)))))#true

POINTS 10 float
-9.29661 -3.17542 -0.91062 -4.84471 -2.45777 -0.935563 0.0648049 -0.670075 -0.305904 
5.01872 -17.4648 -7.71977 12.517 -25.6136 -10.7956 -0.874011 0.445883 0.193156 
-1.61033 42.3475 13.703 0.247492 0.195806 0.0791112 0.973027 1.02705 0.44522 
0 0 0 
VERTICES 20 20
1 0 
1 1 
1 2 
1 3 
1 4 
1 5 
1 6 
1 7 
1 8 
1 9 

POINT_DATA 10
SCALARS id double
LOOKUP_TABLE default
6 5 2 7 8 3 9 1 4 
0 
FIELD FieldData 5
gid 1 10 double
0 0 0 0 0 0 0 0 0 
0 
a 3 10 double
2.9677e-06 1.01108e-06 2.89211e-07 8.82018e-06 4.47598e-06 1.70409e-06 -4.89144e-05 0.000505653 0.000230842 
-1.99422e-07 6.93047e-07 3.06356e-07 -1.35109e-07 2.76232e-07 1.16425e-07 0.000266648 -0.000136045 -5.8934e-05 
5.54715e-09 -1.46406e-07 -4.73754e-08 -0.00219265 -0.00173473 -0.000700883 -9.09945e-05 -9.6044e-05 -4.16342e-05 
0 0 0 
v 3 10 double
0.00154749 -0.00486096 -0.00207623 0.00353589 -0.00579633 -0.00256957 0.0201031 0.00183681 -0.0004423 
0.00380941 0.000775532 0.000285866 0.00286527 0.00125428 0.000442159 -0.00888098 -0.0138964 -0.00601842 
-0.00228089 -0.000770447 0.000447387 -0.0253615 0.0178575 0.0121649 -0.0100887 0.00949046 0.0046225 
0 0 0 
mass 1 10 double
95.162 317.832 0.814805 14.536 17.1471 1 0.00219382 0.0552605 0.107448 
332965 
r 3 10 double
-9.29661 -3.17542 -0.91062 -4.84471 -2.45777 -0.935563 0.0648049 -0.670075 -0.305904 
5.01872 -17.4648 -7.71977 12.517 -25.6136 -10.7956 -0.874011 0.445883 0.193156 
-1.61033 42.3475 13.703 0.247492 0.195806 0.0791112 0.973027 1.02705 0.44522 
0 0 0 
