# vtk DataFile Version 4.0
vtk output
ASCII
DATASET POLYDATA
FIELD FieldData 4
domain 1 4 string
domain_min:-1|-1|-1
domain_max:1|1|1
cell_size:1000|1000|1000
boundary:0|0|0

variables 1 7 string
T:254579
dt:1
E:0.0111994
P:-1.02247
write_case:1
all_steps:255102
substeps:366

constants 1 1 string
gamma:9.16324e-10

equations 1 6 string
eq0:T=(T+dt)#true
eq1:r=verlet_r(r,v,a,dt)#true
eq2:a=(nbody(mass,gamma)/mass)#neq(id,0)
eq3:v=verlet_v(v,a,dt)#true
eq4:E=(fsum(((magnitude(v)^2)*mass))/2)#true
eq5:P=fsum((-(((gamma*mass)*332965)/if(eq(0,magnitude(r)),((gamma*mass)*332965),magnitude(r)))))#true

POINTS 10 float
-6.26103 -7.46523 -2.81904 0.309781 -0.00647154 -0.0349562 1.40918 -4.63262 -2.0167 
-1.66867 -0.0833156 0.00406202 -30.6186 7.39535 11.5489 -0.67268 0.675418 0.291701 
-0.653745 0.269684 0.162909 26.1098 13.8328 5.01212 10.995 15.086 6.45083 
0 0 0 
VERTICES 20 20
1 0 
1 1 
1 2 
1 3 
1 4 
1 5 
1 6 
1 7 
1 8 
1 9 

POINT_DATA 10
SCALARS id double
LOOKUP_TABLE default
6 1 5 4 9 3 2 8 7 
0 
FIELD FieldData 5
gid 1 10 double
0 0 0 0 0 0 0 0 0 
0 
a 3 10 double
1.83475e-06 2.18431e-06 8.24705e-07 -0.00311757 6.51184e-05 0.000351788 -2.98028e-06 9.79323e-06 4.26332e-06 
0.00010917 5.44364e-06 -2.68768e-07 2.47653e-07 -5.98603e-08 -9.34304e-08 0.00020717 -0.000208022 -8.98405e-05 
0.000521883 -0.000215291 -0.000130051 -2.96269e-07 -1.56981e-07 -5.68795e-08 -4.35615e-07 -5.97938e-07 -2.55685e-07 
0 0 0 
v 3 10 double
0.00409122 -0.00312602 -0.00147592 -0.00162312 0.0303199 0.0164109 0.00724377 0.00227886 0.000801857 
0.00120346 -0.0116842 -0.00539251 -0.000389961 -0.0031015 -0.000851276 -0.0132457 -0.0106538 -0.00459634 
-0.00917498 -0.0169889 -0.00710696 -0.00158788 0.00257118 0.00109197 -0.00332778 0.00183831 0.000851395 
0 0 0 
mass 1 10 double
95.162 0.0552605 317.832 0.107448 0.00219382 1 0.814805 17.1471 14.536 
332965 
r 3 10 double
-6.26103 -7.46523 -2.81904 0.309781 -0.00647154 -0.0349562 1.40918 -4.63262 -2.0167 
-1.66867 -0.0833156 0.00406202 -30.6186 7.39535 11.5489 -0.67268 0.675418 0.291701 
-0.653745 0.269684 0.162909 26.1098 13.8328 5.01212 10.995 15.086 6.45083 
0 0 0 
