# vtk DataFile Version 4.0
vtk output
ASCII
DATASET POLYDATA
FIELD FieldData 4
domain 1 4 string
domain_min:-1|-1|-1
domain_max:1|1|1
cell_size:1000|1000|1000
boundary:0|0|0

variables 1 7 string
T:204905
dt:1
E:0.0109634
P:-1.02224
write_case:1
all_steps:205326
substeps:366

constants 1 1 string
gamma:9.16324e-10

equations 1 6 string
eq0:T=(T+dt)#true
eq1:r=verlet_r(r,v,a,dt)#true
eq2:a=(nbody(mass,gamma)/mass)#neq(id,0)
eq3:v=verlet_v(v,a,dt)#true
eq4:E=(fsum(((magnitude(v)^2)*mass))/2)#true
eq5:P=fsum((-(((gamma*mass)*332965)/if(eq(0,magnitude(r)),((gamma*mass)*332965),magnitude(r)))))#true

POINTS 10 float
-17.3606 -6.1233 -2.43776 -0.0756617 -0.292647 -0.148992 43.8756 7.81223 -10.7978 
-1.87081 27.7717 11.4141 -3.6401 3.59743 1.62781 -0.728313 0.627108 0.271052 
-0.627572 0.309866 0.179381 -0.163858 1.45143 0.670228 9.32951 1.90482 0.380144 
0 0 0 
VERTICES 20 20
1 0 
1 1 
1 2 
1 3 
1 4 
1 5 
1 6 
1 7 
1 8 
1 9 

POINT_DATA 10
SCALARS id double
LOOKUP_TABLE default
7 1 9 8 5 3 2 4 6 
0 
FIELD FieldData 5
gid 1 10 double
0 0 0 0 0 0 0 0 0 
0 
a 3 10 double
8.28082e-07 2.92351e-07 1.16398e-07 0.000603182 0.00233304 0.0011878 -1.39022e-07 -2.47402e-08 3.42208e-08 
2.0967e-08 -3.11686e-07 -1.28101e-07 7.17074e-06 -7.08629e-06 -3.20651e-06 0.000223149 -0.000192142 -8.30478e-05 
0.000507629 -0.000250632 -0.000145094 1.20316e-05 -0.000106685 -4.9264e-05 -3.29088e-06 -6.71331e-07 -1.33858e-07 
0 0 0 
v 3 10 double
0.00138309 -0.00356814 -0.00158165 0.0321879 0.000494198 -0.0030206 0.000217199 0.00226873 0.000643193 
-0.0031959 -0.000184114 4.17589e-06 -0.00569601 -0.00446961 -0.00177685 -0.0122948 -0.0115365 -0.00498234 
-0.0104131 -0.0165033 -0.0068011 -0.0134695 -0.000289893 0.00021281 -0.00147176 0.00507395 0.00216617 
0 0 0 
mass 1 10 double
14.536 0.0552605 0.00219382 17.1471 317.832 1 0.814805 0.107448 95.162 
332965 
r 3 10 double
-17.3606 -6.1233 -2.43776 -0.0756617 -0.292647 -0.148992 43.8756 7.81223 -10.7978 
-1.87081 27.7717 11.4141 -3.6401 3.59743 1.62781 -0.728313 0.627108 0.271052 
-0.627572 0.309866 0.179381 -0.163858 1.45143 0.670228 9.32951 1.90482 0.380144 
0 0 0 
