# vtk DataFile Version 4.0
vtk output
ASCII
DATASET POLYDATA
FIELD FieldData 4
domain 1 4 string
domain_min:-1|-1|-1
domain_max:1|1|1
cell_size:1000|1000|1000
boundary:0|0|0

variables 1 7 string
T:104096
dt:1
E:0.0119693
P:-1.02324
write_case:1
all_steps:104310
substeps:366

constants 1 1 string
gamma:9.16324e-10

equations 1 6 string
eq0:T=(T+dt)#true
eq1:r=verlet_r(r,v,a,dt)#true
eq2:a=(nbody(mass,gamma)/mass)#neq(id,0)
eq3:v=verlet_v(v,a,dt)#true
eq4:E=(fsum(((magnitude(v)^2)*mass))/2)#true
eq5:P=fsum((-(((gamma*mass)*332965)/if(eq(0,magnitude(r)),((gamma*mass)*332965),magnitude(r)))))#true

POINTS 10 float
-26.7798 -14.1308 -5.11797 -0.0511781 -9.45486 -3.90871 -1.63673 -0.25496 -0.0738419 
31.7092 -17.611 -15.0625 0.580877 -0.409334 -0.221163 -0.830466 0.509198 0.220429 
-0.0314749 17.5713 7.69536 0.352605 0.288727 0.118149 3.73257 3.12069 1.24658 
0 0 0 
VERTICES 20 20
1 0 
1 1 
1 2 
1 3 
1 4 
1 5 
1 6 
1 7 
1 8 
1 9 

POINT_DATA 10
SCALARS id double
LOOKUP_TABLE default
8 6 4 9 2 3 7 1 5 
0 
FIELD FieldData 5
gid 1 10 double
0 0 0 0 0 0 0 0 0 
0 
a 3 10 double
2.82461e-07 1.49014e-07 5.39698e-08 1.49516e-08 2.69496e-06 1.11412e-06 0.000109548 1.7067e-05 4.94329e-06 
-1.59915e-07 8.88214e-08 7.59694e-08 -0.000429927 0.000302975 0.000163696 0.000254323 -0.000155928 -6.75005e-05 
1.60994e-09 -7.6059e-07 -3.33108e-07 -0.00103091 -0.000844155 -0.000345434 -8.98926e-06 -7.5159e-06 -3.00228e-06 
0 0 0 
v 3 10 double
0.00152358 -0.00252321 -0.00107071 0.00530372 7.29005e-05 -0.000200132 0.00283494 -0.0115319 -0.0053653 
0.00196381 0.00199444 3.0341e-05 0.012446 0.0146208 0.00580675 -0.0100751 -0.013218 -0.00571974 
-0.00400674 -0.000197379 -2.99213e-05 -0.0179072 0.0119513 0.00823456 -0.00520268 0.0054988 0.00248153 
0 0 0 
mass 1 10 double
17.1471 95.162 0.107448 0.00219382 0.814805 1 14.536 0.0552605 317.832 
332965 
r 3 10 double
-26.7798 -14.1308 -5.11797 -0.0511781 -9.45486 -3.90871 -1.63673 -0.25496 -0.0738419 
31.7092 -17.611 -15.0625 0.580877 -0.409334 -0.221163 -0.830466 0.509198 0.220429 
-0.0314749 17.5713 7.69536 0.352605 0.288727 0.118149 3.73257 3.12069 1.24658 
0 0 0 
