# vtk DataFile Version 4.0
vtk output
ASCII
DATASET POLYDATA
FIELD FieldData 4
domain 1 4 string
domain_min:-1|-1|-1
domain_max:1|1|1
cell_size:1000|1000|1000
boundary:0|0|0

variables 1 7 string
T:205636
dt:1
E:0.0105649
P:-1.02184
write_case:1
all_steps:206058
substeps:366

constants 1 1 string
gamma:9.16324e-10

equations 1 6 string
eq0:T=(T+dt)#true
eq1:r=verlet_r(r,v,a,dt)#true
eq2:a=(nbody(mass,gamma)/mass)#neq(id,0)
eq3:v=verlet_v(v,a,dt)#true
eq4:E=(fsum(((magnitude(v)^2)*mass))/2)#true
eq5:P=fsum((-(((gamma*mass)*332965)/if(eq(0,magnitude(r)),((gamma*mass)*332965),magnitude(r)))))#true

POINTS 10 float
-16.1349 -8.64128 -3.5574 -5.44607 -0.827166 -0.22327 -0.36686 -0.59513 -0.245807 
0.0764632 -0.261096 -0.147626 43.9973 9.46253 -10.319 -4.19751 27.5543 11.383 
-0.724656 1.34174 0.634299 -0.728298 0.626866 0.270945 7.40293 5.31095 1.87542 
0 0 0 
VERTICES 20 20
1 0 
1 1 
1 2 
1 3 
1 4 
1 5 
1 6 
1 7 
1 8 
1 9 

POINT_DATA 10
SCALARS id double
LOOKUP_TABLE default
7 5 2 1 9 8 4 3 6 
0 
FIELD FieldData 5
gid 1 10 double
0 0 0 0 0 0 0 0 0 
0 
a 3 10 double
7.60741e-07 4.07679e-07 1.67843e-07 9.9168e-06 1.5063e-06 4.06592e-07 0.000275012 0.000446149 0.000184274 
-0.00078665 0.00268611 0.00151875 -1.36551e-07 -2.93594e-08 3.20291e-08 4.69663e-08 -3.08455e-07 -1.27427e-07 
4.90687e-05 -9.08742e-05 -4.296e-05 0.00022327 -0.000192187 -8.30672e-05 -2.80754e-06 -2.01384e-06 -7.11124e-07 
0 0 0 
v 3 10 double
0.00196467 -0.00331166 -0.0014775 0.00108359 -0.00658527 -0.00284567 0.0173512 -0.0088781 -0.00510004 
0.0323962 0.0120858 0.00316605 0.000116544 0.00224896 0.000667387 -0.00317107 -0.000410734 -8.92026e-05 
-0.0121184 -0.00460359 -0.0018014 -0.0123019 -0.0115343 -0.00498125 -0.00374425 0.00408732 0.00185708 
0 0 0 
mass 1 10 double
14.536 317.832 0.814805 0.0552605 0.00219382 17.1471 0.107448 1 95.162 
332965 
r 3 10 double
-16.1349 -8.64128 -3.5574 -5.44607 -0.827166 -0.22327 -0.36686 -0.59513 -0.245807 
0.0764632 -0.261096 -0.147626 43.9973 9.46253 -10.319 -4.19751 27.5543 11.383 
-0.724656 1.34174 0.634298 -0.728298 0.626866 0.270945 7.40293 5.31095 1.87542 
0 0 0 
