# vtk DataFile Version 4.0
vtk output
ASCII
DATASET POLYDATA
FIELD FieldData 4
domain 1 4 string
domain_min:-1|-1|-1
domain_max:1|1|1
cell_size:1000|1000|1000
boundary:0|0|0

variables 1 7 string
T:100444
dt:1
E:0.011418
P:-1.02269
write_case:1
all_steps:100650
substeps:366

constants 1 1 string
gamma:9.16324e-10

equations 1 6 string
eq0:T=(T+dt)#true
eq1:r=verlet_r(r,v,a,dt)#true
eq2:a=(nbody(mass,gamma)/mass)#neq(id,0)
eq3:v=verlet_v(v,a,dt)#true
eq4:E=(fsum(((magnitude(v)^2)*mass))/2)#true
eq5:P=fsum((-(((gamma*mass)*332965)/if(eq(0,magnitude(r)),((gamma*mass)*332965),magnitude(r)))))#true

POINTS 10 float
-30.3486 -4.1458 -0.942109 -0.435602 -0.547038 -0.219136 0.46297 -0.035772 -0.0667761 
23.4922 -24.177 -14.634 -8.51684 3.6079 1.8617 -0.834896 0.504543 0.218427 
-1.10574 4.69549 2.03844 -0.0778859 1.45156 0.667995 13.3125 13.5523 5.74714 
0 0 0 
VERTICES 20 20
1 0 
1 1 
1 2 
1 3 
1 4 
1 5 
1 6 
1 7 
1 8 
1 9 

POINT_DATA 10
SCALARS id double
LOOKUP_TABLE default
8 2 1 9 6 3 5 4 7 
0 
FIELD FieldData 5
gid 1 10 double
0 0 0 0 0 0 0 0 0 
0 
a 3 10 double
3.22194e-07 4.40966e-08 1.0038e-08 0.000337714 0.00042412 0.000169897 -0.00136815 0.00010572 0.000197337 
-1.44547e-07 1.48772e-07 9.00461e-08 3.09899e-06 -1.30987e-06 -6.76168e-07 0.000254986 -0.000154081 -6.6705e-05 
2.34741e-06 -9.97489e-06 -4.3303e-06 5.79643e-06 -0.000108149 -4.97697e-05 -5.20467e-07 -5.29439e-07 -2.24515e-07 
0 0 0 
v 3 10 double
0.000406308 -0.00288032 -0.00118909 0.016128 -0.0109388 -0.00594813 0.00711755 0.0197212 0.00981481 
0.00252631 0.00156438 -0.000273577 -0.00274629 -0.0047233 -0.0018342 -0.00997262 -0.0132668 -0.00574123 
-0.00754425 -0.00121072 -0.000336103 -0.0135232 0.000385772 0.00053359 -0.00298043 0.00225474 0.00102944 
0 0 0 
mass 1 10 double
17.1471 0.814805 0.0552605 0.00219382 95.162 1 317.832 0.107448 14.536 
332965 
r 3 10 double
-30.3486 -4.1458 -0.942109 -0.435602 -0.547039 -0.219136 0.46297 -0.035772 -0.0667761 
23.4922 -24.177 -14.634 -8.51684 3.6079 1.8617 -0.834896 0.504543 0.218427 
-1.10574 4.69549 2.03844 -0.0778859 1.45156 0.667995 13.3125 13.5523 5.74714 
0 0 0 
