# vtk DataFile Version 4.0
vtk output
ASCII
DATASET POLYDATA
FIELD FieldData 4
domain 1 4 string
domain_min:-1|-1|-1
domain_max:1|1|1
cell_size:1000|1000|1000
boundary:0|0|0

variables 1 7 string
T:360867
dt:1
E:0.011127
P:-1.0224
write_case:1
all_steps:361608
substeps:366

constants 1 1 string
gamma:9.16324e-10

equations 1 6 string
eq0:T=(T+dt)#true
eq1:r=verlet_r(r,v,a,dt)#true
eq2:a=(nbody(mass,gamma)/mass)#neq(id,0)
eq3:v=verlet_v(v,a,dt)#true
eq4:E=(fsum(((magnitude(v)^2)*mass))/2)#true
eq5:P=fsum((-(((gamma*mass)*332965)/if(eq(0,magnitude(r)),((gamma*mass)*332965),magnitude(r)))))#true

POINTS 10 float
-0.499884 -30.3291 -9.32957 -11.3806 -13.8605 -5.9081 0.44498 -0.142693 -0.121399 
17.3051 -23.063 -9.87133 -9.08129 2.43056 1.4121 -2.69813 4.19035 1.85694 
-0.54802 0.765646 0.330102 -0.328108 0.581472 0.283931 0.291597 1.39858 0.634746 
0 0 0 
VERTICES 20 20
1 0 
1 1 
1 2 
1 3 
1 4 
1 5 
1 6 
1 7 
1 8 
1 9 

POINT_DATA 10
SCALARS id double
LOOKUP_TABLE default
9 7 1 8 6 5 3 2 4 
0 
FIELD FieldData 5
gid 1 10 double
0 0 0 0 0 0 0 0 0 
0 
a 3 10 double
4.76301e-09 2.89831e-07 8.9151e-08 5.16079e-07 6.28933e-07 2.68094e-07 -0.00120631 0.000386837 0.000329106 
-1.86705e-07 2.48802e-07 1.06492e-07 3.23152e-06 -8.61486e-07 -5.01075e-07 5.46989e-06 -8.49858e-06 -3.76601e-06 
0.000168334 -0.000235178 -0.000101394 0.000262112 -0.000464525 -0.000226828 -2.32987e-05 -0.000111675 -5.06838e-05 
0 0 0 
v 3 10 double
0.00322254 -0.000240469 -0.00104792 0.00315103 -0.00234996 -0.00107241 0.00559519 0.019288 0.0097844 
0.00257584 0.00171607 0.000638283 -0.00200239 -0.0049814 -0.00197895 -0.00666256 -0.00328111 -0.00124503 
-0.014897 -0.0086005 -0.00370134 -0.0184681 -0.00865052 -0.00276796 -0.0132948 0.00343579 0.00190436 
0 0 0 
mass 1 10 double
0.00219382 14.536 0.0552605 17.1471 95.162 317.832 1 0.814805 0.107448 
332965 
r 3 10 double
-0.499884 -30.3291 -9.32957 -11.3806 -13.8605 -5.9081 0.44498 -0.142693 -0.121399 
17.3051 -23.063 -9.87133 -9.08129 2.43056 1.4121 -2.69813 4.19035 1.85694 
-0.54802 0.765646 0.330102 -0.328108 0.581472 0.283931 0.291597 1.39858 0.634746 
0 0 0 
