# vtk DataFile Version 4.0
vtk output
ASCII
DATASET POLYDATA
FIELD FieldData 4
domain 1 4 string
domain_min:-1|-1|-1
domain_max:1|1|1
cell_size:1000|1000|1000
boundary:0|0|0

variables 1 7 string
T:287452
dt:1
E:0.0105579
P:-1.02183
write_case:1
all_steps:288042
substeps:366

constants 1 1 string
gamma:9.16324e-10

equations 1 6 string
eq0:T=(T+dt)#true
eq1:r=verlet_r(r,v,a,dt)#true
eq2:a=(nbody(mass,gamma)/mass)#neq(id,0)
eq3:v=verlet_v(v,a,dt)#true
eq4:E=(fsum(((magnitude(v)^2)*mass))/2)#true
eq5:P=fsum((-(((gamma*mass)*332965)/if(eq(0,magnitude(r)),((gamma*mass)*332965),magnitude(r)))))#true

POINTS 10 float
-21.1001 -20.9171 -8.03657 -4.68 -8.46368 -3.30342 -0.312479 -0.622157 -0.261951 
38.7603 -8.23775 -14.2713 -1.149 1.10246 0.534823 -4.41916 2.84322 1.32248 
-0.635376 0.706579 0.305 0.319225 0.327427 0.143146 2.88148 17.5508 7.64292 
0 0 0 
VERTICES 20 20
1 0 
1 1 
1 2 
1 3 
1 4 
1 5 
1 6 
1 7 
1 8 
1 9 

POINT_DATA 10
SCALARS id double
LOOKUP_TABLE default
8 6 2 9 4 5 3 1 7 
0 
FIELD FieldData 5
gid 1 10 double
0 0 0 0 0 0 0 0 0 
0 
a 3 10 double
2.21118e-07 2.19242e-07 8.42369e-08 1.33766e-06 2.4209e-06 9.44924e-07 0.000231615 0.000461173 0.000194171 
-1.58457e-07 3.36734e-08 5.8337e-08 7.39462e-05 -7.09591e-05 -3.44238e-05 8.47453e-06 -5.4529e-06 -2.53631e-06 
0.000195017 -0.00021688 -9.36175e-05 -0.000885281 -0.000908013 -0.000396969 -1.21608e-07 -7.39025e-07 -3.21821e-07 
0 0 0 
v 3 10 double
0.00227569 -0.00196688 -0.00086174 0.0046459 -0.00231137 -0.0011636 0.0181546 -0.00731089 -0.00444383 
0.0012633 0.00225576 0.00032358 -0.00972036 -0.0077293 -0.0033031 -0.00450671 -0.00541913 -0.00221148 
-0.0137976 -0.0100206 -0.00431999 -0.0187436 0.0101663 0.00734923 -0.00395468 0.000347895 0.000207603 
0 0 0 
mass 1 10 double
17.1471 95.162 0.814805 0.00219382 0.107448 317.832 1 0.0552605 14.536 
332965 
r 3 10 double
-21.1001 -20.9171 -8.03657 -4.68 -8.46368 -3.30342 -0.312479 -0.622157 -0.261951 
38.7603 -8.23775 -14.2713 -1.149 1.10246 0.534823 -4.41916 2.84322 1.32248 
-0.635376 0.706579 0.305 0.319225 0.327427 0.143146 2.88148 17.5508 7.64292 
0 0 0 
