# vtk DataFile Version 4.0
vtk output
ASCII
DATASET POLYDATA
FIELD FieldData 4
domain 1 4 string
domain_min:-1|-1|-1
domain_max:1|1|1
cell_size:1000|1000|1000
boundary:0|0|0

variables 1 7 string
T:208558
dt:1
E:0.0118633
P:-1.02314
write_case:1
all_steps:208986
substeps:366

constants 1 1 string
gamma:9.16324e-10

equations 1 6 string
eq0:T=(T+dt)#true
eq1:r=verlet_r(r,v,a,dt)#true
eq2:a=(nbody(mass,gamma)/mass)#neq(id,0)
eq3:v=verlet_v(v,a,dt)#true
eq4:E=(fsum(((magnitude(v)^2)*mass))/2)#true
eq5:P=fsum((-(((gamma*mass)*332965)/if(eq(0,magnitude(r)),((gamma*mass)*332965),magnitude(r)))))#true

POINTS 10 float
-7.68243 -16.0546 -6.92163 -0.364509 -0.595841 -0.246293 -1.61893 -0.323621 -0.106974 
43.7692 15.8841 -8.24417 -13.1188 25.071 10.5886 -7.6677 4.8154 2.33058 
-0.723581 0.631511 0.272938 0.318261 0.198876 0.0740296 1.24677 4.58109 1.93153 
0 0 0 
VERTICES 20 20
1 0 
1 1 
1 2 
1 3 
1 4 
1 5 
1 6 
1 7 
1 8 
1 9 

POINT_DATA 10
SCALARS id double
LOOKUP_TABLE default
7 2 4 9 8 6 3 1 5 
0 
FIELD FieldData 5
gid 1 10 double
0 0 0 0 0 0 0 0 0 
0 
a 3 10 double
3.36761e-07 7.03959e-07 3.035e-07 0.000273735 0.000447464 0.000184961 0.000109082 2.1812e-05 7.21073e-06 
-1.26472e-07 -4.58787e-08 2.38291e-08 1.45411e-07 -2.77861e-07 -1.17351e-07 2.86617e-06 -1.79779e-06 -8.70222e-07 
0.000221813 -0.000193573 -8.36621e-05 -0.00173487 -0.00108408 -0.000403538 -2.82603e-06 -1.03798e-05 -4.3764e-06 
0 0 0 
v 3 10 double
0.0036119 -0.00161763 -0.000758865 0.0173963 -0.00882676 -0.00507978 0.00349999 -0.0114043 -0.00532292 
-0.00026783 0.0021383 0.000748798 -0.00288721 -0.00127403 -0.000449634 -0.0035547 -0.00430572 -0.00162766 
-0.0123767 -0.0114659 -0.00495141 -0.00941878 0.0235943 0.0135966 -0.00748716 0.00197636 0.0010262 
0 0 0 
mass 1 10 double
14.536 0.814805 0.107448 0.00219382 17.1471 95.162 1 0.0552605 317.832 
332965 
r 3 10 double
-7.68243 -16.0546 -6.92163 -0.364509 -0.595841 -0.246293 -1.61893 -0.323621 -0.106974 
43.7692 15.8841 -8.24417 -13.1188 25.071 10.5886 -7.6677 4.8154 2.33058 
-0.723581 0.631511 0.272938 0.318261 0.198876 0.0740296 1.24677 4.58109 1.93153 
0 0 0 
