# vtk DataFile Version 4.0
vtk output
ASCII
DATASET POLYDATA
FIELD FieldData 4
domain 1 4 string
domain_min:-1|-1|-1
domain_max:1|1|1
cell_size:1000|1000|1000
boundary:0|0|0

variables 1 7 string
T:253484
dt:1
E:0.0103617
P:-1.02163
write_case:1
all_steps:254004
substeps:366

constants 1 1 string
gamma:9.16324e-10

equations 1 6 string
eq0:T=(T+dt)#true
eq1:r=verlet_r(r,v,a,dt)#true
eq2:a=(nbody(mass,gamma)/mass)#neq(id,0)
eq3:v=verlet_v(v,a,dt)#true
eq4:E=(fsum(((magnitude(v)^2)*mass))/2)#true
eq5:P=fsum((-(((gamma*mass)*332965)/if(eq(0,magnitude(r)),((gamma*mass)*332965),magnitude(r)))))#true

POINTS 10 float
-9.37992 -2.94075 -0.806266 -5.18887 -1.76595 -0.631507 -0.693957 -0.238099 -0.0641742 
0.264342 -0.201666 -0.13493 1.24173 -0.548312 -0.283108 -30.0464 10.7533 12.4253 
-0.675213 0.674557 0.291335 27.6683 10.9277 3.78422 14.3548 12.7331 5.37371 
0 0 0 
VERTICES 20 20
1 0 
1 1 
1 2 
1 3 
1 4 
1 5 
1 6 
1 7 
1 8 
1 9 

POINT_DATA 10
SCALARS id double
LOOKUP_TABLE default
6 5 2 1 4 9 3 8 7 
0 
FIELD FieldData 5
gid 1 10 double
0 0 0 0 0 0 0 0 0 
0 
a 3 10 double
2.99748e-06 9.39272e-07 2.57003e-07 9.42143e-06 3.20672e-06 1.14699e-06 0.000530038 0.000181859 4.90156e-05 
-0.00174576 0.00133183 0.0008911 -0.000142114 6.27488e-05 3.23992e-05 2.28588e-07 -8.18661e-08 -9.45728e-08 
0.0002073 -0.000207114 -8.94504e-05 -3.13375e-07 -1.23728e-07 -4.28412e-08 -5.53901e-07 -4.91339e-07 -2.0736e-07 
0 0 0 
v 3 10 double
0.00138733 -0.00490453 -0.00209395 0.00249033 -0.00624031 -0.00273087 0.00636974 -0.0173852 -0.00826017 
0.0148239 0.0241799 0.0114491 0.00687173 0.0127454 0.0056749 -0.000650979 -0.0030235 -0.000748136 
-0.0132076 -0.01067 -0.00460336 -0.00125348 0.00272514 0.00114666 -0.00278309 0.00243676 0.00110578 
0 0 0 
mass 1 10 double
95.162 317.832 0.814805 0.0552605 0.107448 0.00219382 1 17.1471 14.536 
332965 
r 3 10 double
-9.37991 -2.94075 -0.806266 -5.18887 -1.76595 -0.631507 -0.693957 -0.238099 -0.0641742 
0.264342 -0.201666 -0.13493 1.24173 -0.548312 -0.283108 -30.0464 10.7533 12.4253 
-0.675213 0.674557 0.291335 27.6683 10.9277 3.78422 14.3548 12.7331 5.37371 
0 0 0 
