# vtk DataFile Version 4.0
vtk output
ASCII
DATASET POLYDATA
FIELD FieldData 4
domain 1 4 string
domain_min:-1|-1|-1
domain_max:1|1|1
cell_size:1000|1000|1000
boundary:0|0|0

variables 1 7 string
T:349544
dt:1
E:0.0109161
P:-1.02219
write_case:1
all_steps:350262
substeps:366

constants 1 1 string
gamma:9.16324e-10

equations 1 6 string
eq0:T=(T+dt)#true
eq1:r=verlet_r(r,v,a,dt)#true
eq2:a=(nbody(mass,gamma)/mass)#neq(id,0)
eq3:v=verlet_v(v,a,dt)#true
eq4:E=(fsum(((magnitude(v)^2)*mass))/2)#true
eq5:P=fsum((-(((gamma*mass)*332965)/if(eq(0,magnitude(r)),((gamma*mass)*332965),magnitude(r)))))#true

POINTS 10 float
-16.2291 -24.3505 -9.56316 -1.85147 -4.67482 -1.95587 -0.643648 -1.26351 -0.564021 
0.669833 -0.241636 -0.151258 -28.6723 -9.73474 5.61151 -7.78102 4.64209 2.27231 
-0.561913 0.755976 0.325992 -0.064873 17.6341 7.71916 0.205938 0.365733 0.175411 
0 0 0 
VERTICES 20 20
1 0 
1 1 
1 2 
1 3 
1 4 
1 5 
1 6 
1 7 
1 8 
1 9 

POINT_DATA 10
SCALARS id double
LOOKUP_TABLE default
8 5 4 2 9 6 3 7 1 
0 
FIELD FieldData 5
gid 1 10 double
0 0 0 0 0 0 0 0 0 
0 
a 3 10 double
1.69975e-07 2.55045e-07 1.00163e-07 3.59686e-06 9.08313e-06 3.80024e-06 5.52498e-05 0.000108454 4.84139e-05 
-0.000529755 0.000191095 0.000119622 3.00013e-07 1.01829e-07 -5.8754e-08 2.91372e-06 -1.73928e-06 -8.51321e-07 
0.00017312 -0.000232919 -0.000100439 2.57431e-09 -7.55004e-07 -3.30488e-07 -0.000667451 -0.00118535 -0.000568512 
0 0 0 
v 3 10 double
0.00266015 -0.00149895 -0.000679814 0.00706966 -0.00200588 -0.00102651 0.0134025 -0.00413908 -0.00223083 
0.00760279 0.0175262 0.00746521 0.00115144 -0.00302168 -0.00129196 -0.0034493 -0.0043851 -0.00166721 
-0.0147505 -0.0088382 -0.0038047 -0.00399228 -0.000204063 -3.37438e-05 -0.023091 0.00454552 0.00476711 
0 0 0 
mass 1 10 double
17.1471 317.832 0.107448 0.814805 0.00219382 95.162 1 14.536 0.0552605 
332965 
r 3 10 double
-16.2291 -24.3505 -9.56316 -1.85147 -4.67482 -1.95587 -0.643648 -1.26351 -0.564021 
0.669833 -0.241636 -0.151258 -28.6723 -9.73474 5.61151 -7.78102 4.64209 2.27231 
-0.561913 0.755976 0.325992 -0.064873 17.6341 7.71916 0.205938 0.365733 0.175411 
0 0 0 
