# vtk DataFile Version 4.0
vtk output
ASCII
DATASET POLYDATA
FIELD FieldData 4
domain 1 4 string
domain_min:-1|-1|-1
domain_max:1|1|1
cell_size:1000|1000|1000
boundary:0|0|0

variables 1 7 string
T:115054
dt:1
E:0.0103579
P:-1.02163
write_case:1
all_steps:115290
substeps:366

constants 1 1 string
gamma:9.16324e-10

equations 1 6 string
eq0:T=(T+dt)#true
eq1:r=verlet_r(r,v,a,dt)#true
eq2:a=(nbody(mass,gamma)/mass)#neq(id,0)
eq3:v=verlet_v(v,a,dt)#true
eq4:E=(fsum(((magnitude(v)^2)*mass))/2)#true
eq5:P=fsum((-(((gamma*mass)*332965)/if(eq(0,magnitude(r)),((gamma*mass)*332965),magnitude(r)))))#true

POINTS 10 float
-12.4885 -13.0206 -5.52567 -3.79908 -3.66084 -1.47638 -0.425774 -0.555565 -0.223686 
0.335495 -0.306138 -0.198252 0.644475 -9.46667 -3.94429 1.84277 -28.2559 -11.6116 
43.7452 6.90148 -11.0399 -1.66841 0.182055 0.127368 -0.821969 0.520846 0.225436 
0 0 0 
VERTICES 20 20
1 0 
1 1 
1 2 
1 3 
1 4 
1 5 
1 6 
1 7 
1 8 
1 9 

POINT_DATA 10
SCALARS id double
LOOKUP_TABLE default
7 5 2 1 6 8 9 4 3 
0 
FIELD FieldData 5
gid 1 10 double
0 0 0 0 0 0 0 0 0 
0 
a 3 10 double
5.68712e-07 5.9259e-07 2.51496e-07 7.0499e-06 6.79144e-06 2.7389e-06 0.000327385 0.000427186 0.000171998 
-0.000841095 0.000767482 0.000497015 -1.84108e-07 2.66563e-06 1.11067e-06 -1.97271e-08 3.01327e-07 1.23829e-07 
-1.40536e-07 -2.21906e-08 3.54561e-08 0.000106751 -1.16605e-05 -8.15469e-06 0.000251635 -0.000159463 -6.90194e-05 
0 0 0 
v 3 10 double
0.00294845 -0.00256382 -0.00116424 0.00539718 -0.00447573 -0.00204777 0.0163093 -0.0106308 -0.00582157 
0.0149156 0.014362 0.00614901 0.00526906 0.000402135 -6.27035e-05 0.00313818 0.000228769 1.55834e-05 
0.000272027 0.00227918 0.000629526 -0.00125792 -0.0116096 -0.00529335 -0.0103111 -0.0130626 -0.00565132 
0 0 0 
mass 1 10 double
14.536 317.832 0.814805 0.0552605 95.162 17.1471 0.00219382 0.107448 1 
332965 
r 3 10 double
-12.4885 -13.0206 -5.52567 -3.79908 -3.66084 -1.47638 -0.425774 -0.555565 -0.223686 
0.335495 -0.306138 -0.198252 0.644475 -9.46667 -3.94429 1.84277 -28.2559 -11.6116 
43.7452 6.90148 -11.0399 -1.66841 0.182055 0.127368 -0.821969 0.520846 0.225436 
0 0 0 
