# vtk DataFile Version 4.0
vtk output
ASCII
DATASET POLYDATA
FIELD FieldData 4
domain 1 4 string
domain_min:-1|-1|-1
domain_max:1|1|1
cell_size:1000|1000|1000
boundary:0|0|0

variables 1 7 string
T:97521.8
dt:1
E:0.0106078
P:-1.02188
write_case:1
all_steps:97722
substeps:366

constants 1 1 string
gamma:9.16324e-10

equations 1 6 string
eq0:T=(T+dt)#true
eq1:r=verlet_r(r,v,a,dt)#true
eq2:a=(nbody(mass,gamma)/mass)#neq(id,0)
eq3:v=verlet_v(v,a,dt)#true
eq4:E=(fsum(((magnitude(v)^2)*mass))/2)#true
eq5:P=fsum((-(((gamma*mass)*332965)/if(eq(0,magnitude(r)),((gamma*mass)*332965),magnitude(r)))))#true

POINTS 10 float
-4.65994 -2.725 -1.05468 -0.437394 -0.546211 -0.218632 0.0922401 -0.279979 -0.159225 
1.39044 -0.088584 -0.077336 15.5305 -28.0356 -13.4373 -0.838499 0.498922 0.216004 
-30.1498 4.33053 2.52252 6.28435 6.35381 2.35504 19.442 5.15868 1.98488 
0 0 0 
VERTICES 20 20
1 0 
1 1 
1 2 
1 3 
1 4 
1 5 
1 6 
1 7 
1 8 
1 9 

POINT_DATA 10
SCALARS id double
LOOKUP_TABLE default
5 2 1 4 9 3 8 6 7 
0 
FIELD FieldData 5
gid 1 10 double
0 0 0 0 0 0 0 0 0 
0 
a 3 10 double
8.54464e-06 4.99676e-06 1.93394e-06 0.000338679 0.000422945 0.000169293 -0.000748345 0.00227143 0.00129177 
-0.00015614 9.94552e-06 8.68353e-06 -1.13051e-07 2.04034e-07 9.77926e-08 0.000256336 -0.000152536 -6.60389e-05 
3.22661e-07 -4.6383e-08 -2.70123e-08 -2.43006e-06 -2.4568e-06 -9.10619e-07 -7.19272e-07 -1.90697e-07 -7.33769e-08 
0 0 0 
v 3 10 double
0.00395908 -0.00557268 -0.0024833 0.0160824 -0.0109823 -0.00596471 0.0322369 0.00390536 -0.00122926 
0.00172716 0.0139837 0.00636982 0.00290791 0.00104975 -0.000549358 -0.00988581 -0.0133272 -0.00576771 
-0.000542613 -0.00287728 -0.00116425 -0.00445627 0.00347553 0.00163074 -0.00111838 0.00332453 0.00147168 
0 0 0 
mass 1 10 double
317.832 0.814805 0.0552605 0.107448 0.00219382 1 17.1471 95.162 14.536 
332965 
r 3 10 double
-4.65994 -2.725 -1.05468 -0.437394 -0.546211 -0.218632 0.0922401 -0.279979 -0.159225 
1.39044 -0.088584 -0.077336 15.5305 -28.0356 -13.4373 -0.838499 0.498922 0.216004 
-30.1498 4.33053 2.52252 6.28435 6.35381 2.35504 19.442 5.15868 1.98488 
0 0 0 
