# vtk DataFile Version 4.0
vtk output
ASCII
DATASET POLYDATA
FIELD FieldData 4
domain 1 4 string
domain_min:-1|-1|-1
domain_max:1|1|1
cell_size:1000|1000|1000
boundary:0|0|0

variables 1 7 string
T:184816
dt:1
E:0.0110643
P:-1.02234
write_case:1
all_steps:185196
substeps:366

constants 1 1 string
gamma:9.16324e-10

equations 1 6 string
eq0:T=(T+dt)#true
eq1:r=verlet_r(r,v,a,dt)#true
eq2:a=(nbody(mass,gamma)/mass)#neq(id,0)
eq3:v=verlet_v(v,a,dt)#true
eq4:E=(fsum(((magnitude(v)^2)*mass))/2)#true
eq5:P=fsum((-(((gamma*mass)*332965)/if(eq(0,magnitude(r)),((gamma*mass)*332965),magnitude(r)))))#true

POINTS 10 float
-1.37686 -4.78367 -2.01534 -0.408161 -0.0983927 -0.0109555 16.5444 -10.518 -4.83726 
26.397 -13.4456 -6.16044 9.06885 -29.7915 -12.0422 -0.750246 0.603872 0.261091 
0.718928 0.136848 0.0166101 1.395 0.18452 0.0486632 3.30197 7.91725 3.13396 
0 0 0 
VERTICES 20 20
1 0 
1 1 
1 2 
1 3 
1 4 
1 5 
1 6 
1 7 
1 8 
1 9 

POINT_DATA 10
SCALARS id double
LOOKUP_TABLE default
5 1 7 8 9 3 2 4 6 
0 
FIELD FieldData 5
gid 1 10 double
0 0 0 0 0 0 0 0 0 
0 
a 3 10 double
2.71242e-06 9.42357e-06 3.97011e-06 0.00168091 0.000405199 4.51142e-05 -6.13787e-07 3.90081e-07 1.79405e-07 
-2.91224e-07 1.48274e-07 6.79359e-08 -7.44432e-08 2.44594e-07 9.88663e-08 0.000230388 -0.000185446 -8.01795e-05 
-0.000559188 -0.000106447 -1.29221e-05 -0.000152487 -2.01747e-05 -5.32152e-06 -1.32299e-06 -3.1724e-06 -1.25577e-06 
0 0 0 
v 3 10 double
0.00728111 -0.00140097 -0.000775179 -0.000650882 -0.0231454 -0.012325 0.0022502 0.00282585 0.00120574 
0.00151928 0.00260122 0.00102692 0.00311128 0.000567784 -0.000761452 -0.0118845 -0.0119075 -0.00514467 
-0.00403075 0.0181273 0.00843863 -0.00130809 0.0138752 0.00640049 -0.00558246 0.00180158 0.000990163 
0 0 0 
mass 1 10 double
317.832 0.0552605 14.536 17.1471 0.00219382 1 0.814805 0.107448 95.162 
332965 
r 3 10 double
-1.37686 -4.78367 -2.01534 -0.408161 -0.0983927 -0.0109555 16.5444 -10.518 -4.83726 
26.397 -13.4456 -6.16044 9.06885 -29.7915 -12.0422 -0.750246 0.603872 0.261091 
0.718928 0.136848 0.0166101 1.395 0.18452 0.0486632 3.30197 7.91725 3.13396 
0 0 0 
