# vtk DataFile Version 4.0
vtk output
ASCII
DATASET POLYDATA
FIELD FieldData 4
domain 1 4 string
domain_min:-1|-1|-1
domain_max:1|1|1
cell_size:1000|1000|1000
boundary:0|0|0

variables 1 7 string
T:321420
dt:1
E:0.0114827
P:-1.02276
write_case:1
all_steps:322080
substeps:366

constants 1 1 string
gamma:9.16324e-10

equations 1 6 string
eq0:T=(T+dt)#true
eq1:r=verlet_r(r,v,a,dt)#true
eq2:a=(nbody(mass,gamma)/mass)#neq(id,0)
eq3:v=verlet_v(v,a,dt)#true
eq4:E=(fsum(((magnitude(v)^2)*mass))/2)#true
eq5:P=fsum((-(((gamma*mass)*332965)/if(eq(0,magnitude(r)),((gamma*mass)*332965),magnitude(r)))))#true

POINTS 10 float
0.0933071 -1.31826 -0.607349 0.26185 -0.623826 -0.298806 2.60375 -9.09757 -3.8901 
-0.594005 0.735926 0.317489 -9.7388 14.6826 6.56269 -0.443552 0.146964 0.12365 
0.426521 4.72761 2.01269 9.95823 26.2374 10.4918 10.7464 44.4829 10.6568 
0 0 0 
VERTICES 20 20
1 0 
1 1 
1 2 
1 3 
1 4 
1 5 
1 6 
1 7 
1 8 
1 9 

POINT_DATA 10
SCALARS id double
LOOKUP_TABLE default
4 2 6 3 7 1 5 8 9 
0 
FIELD FieldData 5
gid 1 10 double
0 0 0 0 0 0 0 0 0 
0 
a 3 10 double
-9.25204e-06 0.000130733 6.02313e-05 -0.000197473 0.000470463 0.000225347 -7.41949e-07 2.59291e-06 1.10872e-06 
0.000182542 -0.000226138 -9.75593e-05 4.48041e-07 -6.7498e-07 -3.01707e-07 0.00119843 -0.000397067 -0.000334081 
-9.49452e-07 -1.05243e-05 -4.48052e-06 -1.13183e-07 -2.98122e-07 -1.1921e-07 -3.16591e-08 -1.31069e-07 -3.13859e-08 
0 0 0 
v 3 10 double
0.0147142 0.00211445 0.000604134 0.0187504 0.00718346 0.00208098 0.00510246 0.00142167 0.000364092 
-0.0143459 -0.00936003 -0.00403207 -0.00341895 -0.00207597 -0.000860972 -0.0112857 -0.017411 -0.00819531 
-0.00770078 0.000844659 0.000545205 -0.00302547 0.000975824 0.000474777 -0.00220161 -9.83166e-06 0.000661468 
0 0 0 
mass 1 10 double
0.107448 0.814805 95.162 1 14.536 0.0552605 317.832 17.1471 0.00219382 
332965 
r 3 10 double
0.0933071 -1.31826 -0.607349 0.26185 -0.623826 -0.298806 2.60375 -9.09757 -3.8901 
-0.594005 0.735926 0.317489 -9.7388 14.6826 6.56269 -0.443552 0.146964 0.12365 
0.426521 4.72761 2.01269 9.95823 26.2374 10.4918 10.7464 44.4829 10.6568 
0 0 0 
