# vtk DataFile Version 4.0
vtk output
ASCII
DATASET POLYDATA
FIELD FieldData 4
domain 1 4 string
domain_min:-1|-1|-1
domain_max:1|1|1
cell_size:1000|1000|1000
boundary:0|0|0

variables 1 7 string
T:109575
dt:1
E:0.0110028
P:-1.02227
write_case:1
all_steps:109800
substeps:366

constants 1 1 string
gamma:9.16324e-10

equations 1 6 string
eq0:T=(T+dt)#true
eq1:r=verlet_r(r,v,a,dt)#true
eq2:a=(nbody(mass,gamma)/mass)#neq(id,0)
eq3:v=verlet_v(v,a,dt)#true
eq4:E=(fsum(((magnitude(v)^2)*mass))/2)#true
eq5:P=fsum((-(((gamma*mass)*332965)/if(eq(0,magnitude(r)),((gamma*mass)*332965),magnitude(r)))))#true

POINTS 10 float
-14.7404 -25.061 -9.89141 -0.284867 -0.153797 -0.0529647 40.0594 -5.71728 -13.8679 
-1.67331 -0.0333156 0.0287316 -4.0766 3.21729 1.47676 -0.826571 0.516011 0.223363 
-0.413277 8.41901 3.50075 -17.2145 6.06713 2.89975 -0.0750783 0.651132 0.298311 
0 0 0 
VERTICES 20 20
1 0 
1 1 
1 2 
1 3 
1 4 
1 5 
1 6 
1 7 
1 8 
1 9 

POINT_DATA 10
SCALARS id double
LOOKUP_TABLE default
8 1 9 4 5 3 6 7 2 
0 
FIELD FieldData 5
gid 1 10 double
0 0 0 0 0 0 0 0 0 
0 
a 3 10 double
1.55378e-07 2.6428e-07 1.04312e-07 0.00246219 0.00132933 0.000457796 -1.5632e-07 2.23226e-08 5.41171e-08 
0.000108847 2.18076e-06 -1.86318e-06 7.90381e-06 -6.23545e-06 -2.86222e-06 0.000252416 -0.000157573 -6.82076e-05 
1.622e-07 -3.38341e-06 -1.40674e-06 8.33898e-07 -2.93556e-07 -1.40319e-07 6.13242e-05 -0.000531941 -0.000243704 
0 0 0 
v 3 10 double
0.00275474 -0.00136119 -0.000625686 0.0108856 -0.0270721 -0.0155999 0.00108801 0.00228677 0.000385785 
0.000754007 -0.0116969 -0.00538628 -0.00509225 -0.00499951 -0.00201858 -0.0101911 -0.0131262 -0.00567947 
-0.00593831 -0.000328968 0.000122068 -0.00147849 -0.00356881 -0.00154203 -0.0205629 -0.00264332 0.000104344 
0 0 0 
mass 1 10 double
17.1471 0.0552605 0.00219382 0.107448 317.832 1 95.162 14.536 0.814805 
332965 
r 3 10 double
-14.7404 -25.061 -9.89141 -0.284867 -0.153797 -0.0529647 40.0594 -5.71728 -13.8679 
-1.67331 -0.0333156 0.0287316 -4.0766 3.21729 1.47676 -0.826571 0.516011 0.223363 
-0.413277 8.41901 3.50075 -17.2145 6.06713 2.89975 -0.0750783 0.651132 0.298311 
0 0 0 
