# vtk DataFile Version 4.0
vtk output
ASCII
DATASET POLYDATA
FIELD FieldData 4
domain 1 4 string
domain_min:-1|-1|-1
domain_max:1|1|1
cell_size:1000|1000|1000
boundary:0|0|0

variables 1 7 string
T:279051
dt:1
E:0.01044
P:-1.02171
write_case:1
all_steps:279624
substeps:366

constants 1 1 string
gamma:9.16324e-10

equations 1 6 string
eq0:T=(T+dt)#true
eq1:r=verlet_r(r,v,a,dt)#true
eq2:a=(nbody(mass,gamma)/mass)#neq(id,0)
eq3:v=verlet_v(v,a,dt)#true
eq4:E=(fsum(((magnitude(v)^2)*mass))/2)#true
eq5:P=fsum((-(((gamma*mass)*332965)/if(eq(0,magnitude(r)),((gamma*mass)*332965),magnitude(r)))))#true

POINTS 10 float
-0.2643 -0.157246 -0.0574743 19.9219 -3.52381 -1.82133 22.5278 -24.7597 -14.5348 
7.12245 -6.42824 -2.97962 -5.30503 1.19918 0.640181 -0.644943 0.699014 0.301777 
-30.5847 0.922516 1.13903 -0.250289 0.60893 0.291136 0.776083 1.18279 0.523284 
0 0 0 
VERTICES 20 20
1 0 
1 1 
1 2 
1 3 
1 4 
1 5 
1 6 
1 7 
1 8 
1 9 

POINT_DATA 10
SCALARS id double
LOOKUP_TABLE default
1 7 9 6 5 3 8 2 4 
0 
FIELD FieldData 5
gid 1 10 double
0 0 0 0 0 0 0 0 0 
0 
a 3 10 double
0.00263314 0.0015666 0.000572601 -7.26129e-07 1.28246e-07 6.62992e-08 -1.41614e-07 1.55645e-07 9.13728e-08 
-2.14414e-06 1.93493e-06 8.96885e-07 9.85512e-06 -2.22783e-06 -1.18931e-06 0.00019806 -0.000214674 -9.2678e-05 
3.25566e-07 -9.81086e-09 -1.21209e-08 0.000204696 -0.000498043 -0.000238121 -6.90084e-05 -0.00010516 -4.65245e-05 
0 0 0 
v 3 10 double
0.021595 -0.0226497 -0.0143302 0.000751255 0.00340121 0.00147849 0.00258045 0.00150693 -0.000307921 
0.00363201 0.00375981 0.00139892 -0.00198754 -0.006481 -0.00272623 -0.0136616 -0.01018 -0.00438956 
-0.000165699 -0.00290836 -0.00118633 -0.0194814 -0.00686168 -0.00188473 -0.0115346 0.00766848 0.00380974 
0 0 0 
mass 1 10 double
0.0552605 14.536 0.00219382 95.162 317.832 1 17.1471 0.814805 0.107448 
332965 
r 3 10 double
-0.2643 -0.157246 -0.0574743 19.9219 -3.52381 -1.82133 22.5278 -24.7597 -14.5348 
7.12245 -6.42824 -2.97962 -5.30503 1.19918 0.640181 -0.644943 0.699014 0.301777 
-30.5847 0.922516 1.13903 -0.250289 0.60893 0.291136 0.776083 1.18279 0.523284 
0 0 0 
