# vtk DataFile Version 4.0
vtk output
ASCII
DATASET POLYDATA
FIELD FieldData 4
domain 1 4 string
domain_min:-1|-1|-1
domain_max:1|1|1
cell_size:1000|1000|1000
boundary:0|0|0

variables 1 7 string
T:304253
dt:1
E:0.0115862
P:-1.02286
write_case:1
all_steps:304878
substeps:366

constants 1 1 string
gamma:9.16324e-10

equations 1 6 string
eq0:T=(T+dt)#true
eq1:r=verlet_r(r,v,a,dt)#true
eq2:a=(nbody(mass,gamma)/mass)#neq(id,0)
eq3:v=verlet_v(v,a,dt)#true
eq4:E=(fsum(((magnitude(v)^2)*mass))/2)#true
eq5:P=fsum((-(((gamma*mass)*332965)/if(eq(0,magnitude(r)),((gamma*mass)*332965),magnitude(r)))))#true

POINTS 10 float
0.288205 -1.27785 -0.593675 6.47471 -17.0581 -7.55748 25.019 -15.6031 -7.00961 
39.8258 28.0051 -3.26843 -0.950489 4.71765 2.04146 -0.676267 0.233228 0.147845 
-0.614548 0.721898 0.311525 -0.0357153 0.261891 0.144029 2.24784 8.19958 3.3021 
0 0 0 
VERTICES 20 20
1 0 
1 1 
1 2 
1 3 
1 4 
1 5 
1 6 
1 7 
1 8 
1 9 

POINT_DATA 10
SCALARS id double
LOOKUP_TABLE default
4 7 8 9 5 2 3 1 6 
0 
FIELD FieldData 5
gid 1 10 double
0 0 0 0 0 0 0 0 0 
0 
a 3 10 double
-2.95605e-05 0.000131067 6.08924e-05 -2.56588e-07 6.76221e-07 2.99593e-07 -2.74479e-07 1.71202e-07 7.69104e-08 
-1.04741e-07 -7.36378e-08 8.60386e-09 2.03243e-06 -1.00733e-05 -4.3592e-06 0.000529363 -0.000182549 -0.000115722 
0.000188672 -0.000221619 -9.5636e-05 0.000399536 -0.00292971 -0.00161122 -9.11822e-07 -3.30582e-06 -1.33095e-06 
0 0 0 
v 3 10 double
0.0144612 0.00386685 0.00141303 0.00373337 0.00104088 0.000403476 0.00175596 0.00246621 0.000965751 
-0.000981221 0.00176663 0.000848131 -0.00759298 -0.00100417 -0.000248366 -0.00796956 -0.0173311 -0.00734598 
-0.0140763 -0.00969039 -0.00417606 -0.035041 -0.00575587 0.00046094 -0.00578228 0.00119147 0.000749998 
0 0 0 
mass 1 10 double
0.107448 14.536 17.1471 0.00219382 317.832 0.814805 1 0.0552605 95.162 
332965 
r 3 10 double
0.288205 -1.27785 -0.593675 6.47471 -17.0581 -7.55748 25.019 -15.6031 -7.00961 
39.8258 28.0051 -3.26843 -0.950489 4.71765 2.04146 -0.676267 0.233228 0.147845 
-0.614548 0.721898 0.311525 -0.0357153 0.261891 0.144029 2.24784 8.19958 3.3021 
0 0 0 
