# vtk DataFile Version 4.0
vtk output
ASCII
DATASET POLYDATA
FIELD FieldData 4
domain 1 4 string
domain_min:-1|-1|-1
domain_max:1|1|1
cell_size:1000|1000|1000
boundary:0|0|0

variables 1 7 string
T:322881
dt:1
E:0.0103614
P:-1.02163
write_case:1
all_steps:323544
substeps:366

constants 1 1 string
gamma:9.16324e-10

equations 1 6 string
eq0:T=(T+dt)#true
eq1:r=verlet_r(r,v,a,dt)#true
eq2:a=(nbody(mass,gamma)/mass)#neq(id,0)
eq3:v=verlet_v(v,a,dt)#true
eq4:E=(fsum(((magnitude(v)^2)*mass))/2)#true
eq5:P=fsum((-(((gamma*mass)*332965)/if(eq(0,magnitude(r)),((gamma*mass)*332965),magnitude(r)))))#true

POINTS 10 float
-5.15071 -1.84893 -0.668199 1.16402 -0.67581 -0.339138 8.52973 -4.54594 -2.26373 
-14.1719 10.9772 5.00263 -0.593785 0.735643 0.317364 -0.494864 0.00908079 0.0548957 
-0.293031 0.594266 0.287374 5.43538 27.3401 11.0558 7.49914 44.3271 11.5883 
0 0 0 
VERTICES 20 20
1 0 
1 1 
1 2 
1 3 
1 4 
1 5 
1 6 
1 7 
1 8 
1 9 

POINT_DATA 10
SCALARS id double
LOOKUP_TABLE default
5 4 6 7 3 1 2 8 9 
0 
FIELD FieldData 5
gid 1 10 double
0 0 0 0 0 0 0 0 0 
0 
a 3 10 double
9.37857e-06 3.36641e-06 1.2166e-06 -0.000132805 7.70989e-05 3.86904e-05 -2.66172e-06 1.4181e-06 7.06195e-07 
6.71441e-07 -5.20412e-07 -2.37159e-07 0.000182677 -0.00022633 -9.76402e-05 0.00122261 -2.24368e-05 -0.000135627 
0.000237314 -0.000481304 -0.000232749 -6.15896e-08 -3.09644e-07 -1.25213e-07 -2.29053e-08 -1.35356e-07 -3.53741e-08 
0 0 0 
v 3 10 double
0.00261386 -0.00619994 -0.00271524 0.00828333 0.0120243 0.00531262 0.00253794 0.0045233 0.00176454 
-0.00259508 -0.0029588 -0.0012589 -0.0143602 -0.00935101 -0.00402807 -0.00114613 -0.0189343 -0.010038 
-0.018975 -0.00785544 -0.00237137 -0.0031534 0.000530927 0.000295855 -0.00224157 -0.000204471 0.000612722 
0 0 0 
mass 1 10 double
317.832 0.107448 95.162 14.536 1 0.0552605 0.814805 17.1471 0.00219382 
332965 
r 3 10 double
-5.15071 -1.84893 -0.668199 1.16402 -0.67581 -0.339138 8.52972 -4.54594 -2.26373 
-14.1719 10.9772 5.00263 -0.593785 0.735643 0.317364 -0.494864 0.00908079 0.0548956 
-0.293031 0.594266 0.287374 5.43538 27.3401 11.0558 7.49914 44.3271 11.5883 
0 0 0 
