# vtk DataFile Version 4.0
vtk output
ASCII
DATASET POLYDATA
FIELD FieldData 4
domain 1 4 string
domain_min:-1|-1|-1
domain_max:1|1|1
cell_size:1000|1000|1000
boundary:0|0|0

variables 1 7 string
T:348814
dt:1
E:0.0105578
P:-1.02183
write_case:1
all_steps:349530
substeps:366

constants 1 1 string
gamma:9.16324e-10

equations 1 6 string
eq0:T=(T+dt)#true
eq1:r=verlet_r(r,v,a,dt)#true
eq2:a=(nbody(mass,gamma)/mass)#neq(id,0)
eq3:v=verlet_v(v,a,dt)#true
eq4:E=(fsum(((magnitude(v)^2)*mass))/2)#true
eq5:P=fsum((-(((gamma*mass)*332965)/if(eq(0,magnitude(r)),((gamma*mass)*332965),magnitude(r)))))#true

POINTS 10 float
-18.1252 -23.1885 -9.04031 -5.35178 -1.283 -0.421431 -1.16196 -0.99039 -0.425864 
-0.270065 -0.63756 -0.271968 -29.4333 -7.5025 6.53889 -4.56675 7.27073 3.22082 
-0.563295 0.755853 0.325944 0.293476 0.343882 0.154859 2.84118 17.583 7.65632 
0 0 0 
VERTICES 20 20
1 0 
1 1 
1 2 
1 3 
1 4 
1 5 
1 6 
1 7 
1 8 
1 9 

POINT_DATA 10
SCALARS id double
LOOKUP_TABLE default
8 5 4 2 9 6 3 1 7 
0 
FIELD FieldData 5
gid 1 10 double
0 0 0 0 0 0 0 0 0 
0 
a 3 10 double
1.89697e-07 2.428e-07 9.46607e-08 9.7106e-06 2.32887e-06 7.6506e-07 8.90087e-05 7.588e-05 3.26286e-05 
0.000200148 0.000472528 0.00020157 2.99913e-07 7.64628e-08 -6.66597e-08 1.80661e-06 -2.87971e-06 -1.27562e-06 
0.000173189 -0.000232409 -0.000100221 -0.000820508 -0.000961425 -0.000432953 -1.19456e-07 -7.37119e-07 -3.20965e-07 
0 0 0 
v 3 10 double
0.00252872 -0.00168088 -0.000751008 0.00176567 -0.00644654 -0.00279998 0.0102053 -0.00816652 -0.00400042 
0.018698 -0.00613125 -0.00394419 0.00093214 -0.00308677 -0.00124609 -0.00521572 -0.00267199 -0.000877668 
-0.0147301 -0.00884821 -0.00380908 -0.0196592 0.00893116 0.00677349 -0.0039492 0.000341925 0.000204628 
0 0 0 
mass 1 10 double
17.1471 317.832 0.107448 0.814805 0.00219382 95.162 1 0.0552605 14.536 
332965 
r 3 10 double
-18.1252 -23.1885 -9.04031 -5.35178 -1.283 -0.421431 -1.16196 -0.99039 -0.425864 
-0.270065 -0.63756 -0.271968 -29.4333 -7.5025 6.53889 -4.56675 7.27073 3.22082 
-0.563295 0.755853 0.325944 0.293476 0.343882 0.154859 2.84118 17.583 7.65632 
0 0 0 
