# vtk DataFile Version 4.0
vtk output
ASCII
DATASET POLYDATA
FIELD FieldData 4
domain 1 4 string
domain_min:-1|-1|-1
domain_max:1|1|1
cell_size:1000|1000|1000
boundary:0|0|0

variables 1 7 string
T:341874
dt:1
E:0.0118419
P:-1.02311
write_case:1
all_steps:342576
substeps:366

constants 1 1 string
gamma:9.16324e-10

equations 1 6 string
eq0:T=(T+dt)#true
eq1:r=verlet_r(r,v,a,dt)#true
eq2:a=(nbody(mass,gamma)/mass)#neq(id,0)
eq3:v=verlet_v(v,a,dt)#true
eq4:E=(fsum(((magnitude(v)^2)*mass))/2)#true
eq5:P=fsum((-(((gamma*mass)*332965)/if(eq(0,magnitude(r)),((gamma*mass)*332965),magnitude(r)))))#true

POINTS 10 float
-3.80091 -8.83688 -3.49935 -29.8492 -6.87239 -2.0697 -1.62353 -0.30933 -0.101779 
0.0475158 -0.270051 -0.149646 4.56293 -1.96487 -0.949389 0.277063 -0.617304 -0.296898 
-29.1787 14.0612 13.2014 -0.569119 0.750961 0.323868 20.2114 1.57636 0.408384 
0 0 0 
VERTICES 20 20
1 0 
1 1 
1 2 
1 3 
1 4 
1 5 
1 6 
1 7 
1 8 
1 9 

POINT_DATA 10
SCALARS id double
LOOKUP_TABLE default
6 8 4 1 5 2 9 3 7 
0 
FIELD FieldData 5
gid 1 10 double
0 0 0 0 0 0 0 0 0 
0 
a 3 10 double
1.08296e-06 2.51517e-06 9.95955e-07 3.15123e-07 7.24933e-08 2.18256e-08 0.000109109 2.07847e-05 6.8384e-06 
-0.000475597 0.00270307 0.00149788 -1.07598e-05 4.63268e-06 2.23848e-06 -0.000209527 0.000466855 0.000224538 
2.08248e-07 -1.00389e-07 -9.42347e-08 0.000175558 -0.000231648 -9.9903e-05 -7.40885e-07 -5.79868e-08 -1.5059e-08 
0 0 0 
v 3 10 double
0.00488225 -0.00183376 -0.000977601 0.000703729 -0.0028231 -0.0011731 0.00334568 -0.011433 -0.00533023 
0.0343097 0.00243173 -0.00215804 0.00318495 0.00668667 0.00278485 0.018586 0.00759472 0.00227993 
-0.000894858 -0.00292211 -0.000643138 -0.0146609 -0.00897393 -0.00386384 -0.000332492 0.00345787 0.00151813 
0 0 0 
mass 1 10 double
95.162 17.1471 0.107448 0.0552605 317.832 0.814805 0.00219382 1 14.536 
332965 
r 3 10 double
-3.80091 -8.83688 -3.49935 -29.8492 -6.87239 -2.0697 -1.62353 -0.30933 -0.101779 
0.0475158 -0.270051 -0.149646 4.56293 -1.96487 -0.949389 0.277063 -0.617304 -0.296898 
-29.1787 14.0612 13.2014 -0.569119 0.750961 0.323868 20.2114 1.57636 0.408384 
0 0 0 
