# vtk DataFile Version 4.0
vtk output
ASCII
DATASET POLYDATA
FIELD FieldData 4
domain 1 4 string
domain_min:-1|-1|-1
domain_max:1|1|1
cell_size:1000|1000|1000
boundary:0|0|0

variables 1 7 string
T:221707
dt:1
E:0.0114758
P:-1.02275
write_case:1
all_steps:222162
substeps:366

constants 1 1 string
gamma:9.16324e-10

equations 1 6 string
eq0:T=(T+dt)#true
eq1:r=verlet_r(r,v,a,dt)#true
eq2:a=(nbody(mass,gamma)/mass)#neq(id,0)
eq3:v=verlet_v(v,a,dt)#true
eq4:E=(fsum(((magnitude(v)^2)*mass))/2)#true
eq5:P=fsum((-(((gamma*mass)*332965)/if(eq(0,magnitude(r)),((gamma*mass)*332965),magnitude(r)))))#true

POINTS 10 float
-29.7909 -7.07779 -2.15564 -7.49999 -6.30871 -2.28465 -0.86411 -1.17466 -0.516947 
0.405025 -0.0988134 -0.0942018 -0.709101 0.645028 0.278721 0.371182 0.571105 0.234778 
0.193904 4.75004 2.02897 17.035 9.78405 4.04521 30.6594 38.3368 2.72541 
0 0 0 
VERTICES 20 20
1 0 
1 1 
1 2 
1 3 
1 4 
1 5 
1 6 
1 7 
1 8 
1 9 

POINT_DATA 10
SCALARS id double
LOOKUP_TABLE default
8 6 4 1 3 2 5 7 9 
0 
FIELD FieldData 5
gid 1 10 double
0 0 0 0 0 0 0 0 0 
0 
a 3 10 double
3.14697e-07 7.47713e-08 2.27749e-08 2.24617e-06 1.88989e-06 6.84441e-07 7.11873e-05 9.67764e-05 4.25896e-05 
-0.00158264 0.000386123 0.000368098 0.00021747 -0.000197805 -8.54728e-05 -0.000302841 -0.000465938 -0.000191544 
-4.28617e-07 -1.04948e-05 -4.48282e-06 -6.45134e-07 -3.70294e-07 -1.53094e-07 -7.88353e-08 -9.85648e-08 -7.00124e-09 
0 0 0 
v 3 10 double
0.000730473 -0.00281739 -0.00117139 0.00340091 -0.00382581 -0.0017344 0.0123313 -0.00591354 -0.00302887 
0.0134858 0.0198749 0.00927086 -0.012635 -0.0112299 -0.00484822 -0.0178315 0.00915753 0.00525706 
-0.00771666 0.000537396 0.000415324 -0.00212566 0.00291212 0.00130479 -0.00162228 0.00116284 0.000852756 
0 0 0 
mass 1 10 double
17.1471 95.162 0.107448 0.0552605 1 0.814805 317.832 14.536 0.00219382 
332965 
r 3 10 double
-29.7909 -7.07779 -2.15564 -7.49999 -6.30871 -2.28465 -0.86411 -1.17466 -0.516947 
0.405025 -0.0988134 -0.0942018 -0.709101 0.645028 0.278721 0.371182 0.571105 0.234778 
0.193904 4.75004 2.02897 17.035 9.78405 4.04521 30.6594 38.3368 2.72541 
0 0 0 
