# vtk DataFile Version 4.0
vtk output
ASCII
DATASET POLYDATA
FIELD FieldData 4
domain 1 4 string
domain_min:-1|-1|-1
domain_max:1|1|1
cell_size:1000|1000|1000
boundary:0|0|0

variables 1 7 string
T:143178
dt:1
E:0.0122385
P:-1.02351
write_case:1
all_steps:143472
substeps:366

constants 1 1 string
gamma:9.16324e-10

equations 1 6 string
eq0:T=(T+dt)#true
eq1:r=verlet_r(r,v,a,dt)#true
eq2:a=(nbody(mass,gamma)/mass)#neq(id,0)
eq3:v=verlet_v(v,a,dt)#true
eq4:E=(fsum(((magnitude(v)^2)*mass))/2)#true
eq5:P=fsum((-(((gamma*mass)*332965)/if(eq(0,magnitude(r)),((gamma*mass)*332965),magnitude(r)))))#true

POINTS 10 float
-17.8073 -4.80874 -1.85501 -0.200079 -0.275602 -0.126951 0.132153 -0.663383 -0.307622 
-1.46558 0.750316 0.382492 -0.79236 0.557894 0.241366 -6.2788 6.18954 2.83491 
3.44601 3.40485 1.37521 9.03967 44.4045 11.1383 3.25588 27.6807 11.2493 
0 0 0 
VERTICES 20 20
1 0 
1 1 
1 2 
1 3 
1 4 
1 5 
1 6 
1 7 
1 8 
1 9 

POINT_DATA 10
SCALARS id double
LOOKUP_TABLE default
7 1 2 4 3 6 5 9 8 
0 
FIELD FieldData 5
gid 1 10 double
0 0 0 0 0 0 0 0 0 
0 
a 3 10 double
8.53532e-07 2.30707e-07 8.90072e-08 0.00127137 0.00175128 0.000806695 -9.8263e-05 0.000493295 0.000228749 
9.25948e-05 -4.73954e-05 -2.41617e-05 0.000242729 -0.000170891 -7.39343e-05 2.41431e-06 -2.37817e-06 -1.08929e-06 
-8.23391e-06 -8.13451e-06 -3.28548e-06 -2.72003e-08 -1.33582e-07 -3.34914e-08 -3.66408e-08 -3.11568e-07 -1.26618e-07 
0 0 0 
v 3 10 double
0.00107433 -0.00366404 -0.00161955 0.0282685 -0.00796358 -0.00716106 0.0197603 0.003609 0.000384332 
-0.00643926 -0.010075 -0.00445459 -0.01099 -0.0125928 -0.00544516 -0.0044682 -0.00358142 -0.00128742 
-0.0056495 0.00508549 0.0023146 -0.0022256 -0.000111925 0.000636506 -0.0031816 0.000315892 0.00020846 
0 0 0 
mass 1 10 double
14.536 0.0552605 0.814805 0.107448 1 95.162 317.832 0.00219382 17.1471 
332965 
r 3 10 double
-17.8073 -4.80874 -1.85501 -0.200079 -0.275602 -0.126951 0.132153 -0.663384 -0.307622 
-1.46558 0.750316 0.382492 -0.79236 0.557893 0.241366 -6.2788 6.18954 2.83491 
3.44601 3.40485 1.37521 9.03967 44.4045 11.1383 3.25588 27.6807 11.2493 
0 0 0 
