# vtk DataFile Version 4.0
vtk output
ASCII
DATASET POLYDATA
FIELD FieldData 4
domain 1 4 string
domain_min:-1|-1|-1
domain_max:1|1|1
cell_size:1000|1000|1000
boundary:0|0|0

variables 1 7 string
T:302427
dt:1
E:0.0115736
P:-1.02285
write_case:1
all_steps:303048
substeps:366

constants 1 1 string
gamma:9.16324e-10

equations 1 6 string
eq0:T=(T+dt)#true
eq1:r=verlet_r(r,v,a,dt)#true
eq2:a=(nbody(mass,gamma)/mass)#neq(id,0)
eq3:v=verlet_v(v,a,dt)#true
eq4:E=(fsum(((magnitude(v)^2)*mass))/2)#true
eq5:P=fsum((-(((gamma*mass)*332965)/if(eq(0,magnitude(r)),((gamma*mass)*332965),magnitude(r)))))#true

POINTS 10 float
-0.620359 -17.7826 -7.77552 2.43152 -4.19533 -1.85345 21.3764 -19.7957 -8.63504 
41.4394 24.66 -4.80061 -0.616434 0.718793 0.310196 -0.27222 0.601186 0.289113 
0.316532 0.170361 0.0592887 0.6507 1.25792 0.561038 9.38338 1.65822 0.273304 
0 0 0 
VERTICES 20 20
1 0 
1 1 
1 2 
1 3 
1 4 
1 5 
1 6 
1 7 
1 8 
1 9 

POINT_DATA 10
SCALARS id double
LOOKUP_TABLE default
7 5 8 9 3 2 1 4 6 
0 
FIELD FieldData 5
gid 1 10 double
0 0 0 0 0 0 0 0 0 
0 
a 3 10 double
2.62078e-08 7.42279e-07 3.24559e-07 -5.30234e-06 9.15048e-06 4.04252e-06 -2.3286e-07 2.15634e-07 9.40587e-08 
-1.11248e-07 -6.6227e-08 1.28842e-08 0.000190114 -0.000221679 -9.56656e-05 0.00022206 -0.000490418 -0.000235845 
-0.00199714 -0.0010749 -0.000374082 -5.61604e-05 -0.00010858 -4.84272e-05 -3.30742e-06 -5.86176e-07 -9.70383e-08 
0 0 0 
v 3 10 double
0.00395049 -0.000267636 -0.000172343 0.00663576 0.0036728 0.00141314 0.00222052 0.00211174 0.000809097 
-0.000783966 0.00189444 0.000828526 -0.0140625 -0.0097448 -0.00419972 -0.0192398 -0.00739142 -0.00214226 
-0.0204034 0.0186537 0.0120668 -0.012206 0.00652117 0.00329826 -0.00129274 0.00511197 0.00217754 
0 0 0 
mass 1 10 double
14.536 317.832 17.1471 0.00219382 1 0.814805 0.0552605 0.107448 95.162 
332965 
r 3 10 double
-0.620359 -17.7826 -7.77552 2.43152 -4.19533 -1.85345 21.3764 -19.7957 -8.63504 
41.4394 24.66 -4.80061 -0.616434 0.718793 0.310196 -0.27222 0.601185 0.289113 
0.316532 0.170361 0.0592887 0.6507 1.25792 0.561038 9.38338 1.65822 0.273304 
0 0 0 
