# vtk DataFile Version 4.0
vtk output
ASCII
DATASET POLYDATA
FIELD FieldData 4
domain 1 4 string
domain_min:-1|-1|-1
domain_max:1|1|1
cell_size:1000|1000|1000
boundary:0|0|0

variables 1 7 string
T:348448
dt:1
E:0.0106917
P:-1.02196
write_case:1
all_steps:349164
substeps:366

constants 1 1 string
gamma:9.16324e-10

equations 1 6 string
eq0:T=(T+dt)#true
eq1:r=verlet_r(r,v,a,dt)#true
eq2:a=(nbody(mass,gamma)/mass)#neq(id,0)
eq3:v=verlet_v(v,a,dt)#true
eq4:E=(fsum(((magnitude(v)^2)*mass))/2)#true
eq5:P=fsum((-(((gamma*mass)*332965)/if(eq(0,magnitude(r)),((gamma*mass)*332965),magnitude(r)))))#true

POINTS 10 float
-19.036 -22.5585 -8.75975 -29.7538 -6.37024 6.9895 -0.563336 0.756096 0.32605 
-5.33421 1.12993 0.610439 -2.55789 8.04561 3.45332 0.660565 0.272829 0.082374 
0.330985 0.326725 0.141872 0.889271 1.09933 0.482603 4.27435 17.4092 7.56033 
0 0 0 
VERTICES 20 20
1 0 
1 1 
1 2 
1 3 
1 4 
1 5 
1 6 
1 7 
1 8 
1 9 

POINT_DATA 10
SCALARS id double
LOOKUP_TABLE default
8 9 3 5 6 2 1 4 7 
0 
FIELD FieldData 5
gid 1 10 double
0 0 0 0 0 0 0 0 0 
0 
a 3 10 double
1.99182e-07 2.3615e-07 9.17029e-08 2.98799e-07 6.40184e-08 -7.02048e-08 0.000173073 -0.000232309 -0.000100178 
9.85426e-06 -2.08609e-06 -1.12716e-06 1.02682e-06 -3.23854e-06 -1.38996e-06 -0.000541278 -0.000223555 -6.74962e-05 
-0.000878435 -0.000867125 -0.000376528 -8.13608e-05 -0.000100569 -4.41492e-05 -1.77761e-07 -7.22322e-07 -3.13681e-07 
0 0 0 
v 3 10 double
0.0024577 -0.00176836 -0.000785047 0.000822779 -0.00311242 -0.00122109 -0.0147254 -0.0088482 -0.00380912 
-0.0018708 -0.00649657 -0.00273478 -0.00573666 -0.00154916 -0.000388432 -0.0083114 0.0171204 0.00827421 
-0.0177897 0.0107829 0.0075783 -0.0107683 0.00872091 0.0042688 -0.00389486 0.000608568 0.000320578 
0 0 0 
mass 1 10 double
17.1471 0.00219382 1 317.832 95.162 0.814805 0.0552605 0.107448 14.536 
332965 
r 3 10 double
-19.036 -22.5585 -8.75975 -29.7538 -6.37024 6.9895 -0.563336 0.756096 0.32605 
-5.33421 1.12993 0.610439 -2.55789 8.04561 3.45332 0.660565 0.272829 0.082374 
0.330984 0.326725 0.141872 0.889271 1.09933 0.482603 4.27435 17.4092 7.56033 
0 0 0 
