# vtk DataFile Version 4.0
vtk output
ASCII
DATASET POLYDATA
FIELD FieldData 4
domain 1 4 string
domain_min:-1|-1|-1
domain_max:1|1|1
cell_size:1000|1000|1000
boundary:0|0|0

variables 1 7 string
T:21184.5
dt:1
E:0.0122916
P:-1.02356
write_case:1
all_steps:21228
substeps:366

constants 1 1 string
gamma:9.16324e-10

equations 1 6 string
eq0:T=(T+dt)#true
eq1:r=verlet_r(r,v,a,dt)#true
eq2:a=(nbody(mass,gamma)/mass)#neq(id,0)
eq3:v=verlet_v(v,a,dt)#true
eq4:E=(fsum(((magnitude(v)^2)*mass))/2)#true
eq5:P=fsum((-(((gamma*mass)*332965)/if(eq(0,magnitude(r)),((gamma*mass)*332965),magnitude(r)))))#true

POINTS 10 float
-16.7971 -7.48604 -3.04122 -0.222504 -0.254549 -0.112961 1.05029 -0.823377 -0.405925 
41.1158 -3.3302 -13.4385 4.99674 -0.314072 -0.256193 0.742595 0.0171033 -0.0392627 
-0.9025 0.393751 0.170663 8.08809 4.49958 1.51048 8.79129 26.6635 10.6956 
0 0 0 
VERTICES 20 20
1 0 
1 1 
1 2 
1 3 
1 4 
1 5 
1 6 
1 7 
1 8 
1 9 

POINT_DATA 10
SCALARS id double
LOOKUP_TABLE default
7 1 4 9 5 2 3 6 8 
0 
FIELD FieldData 5
gid 1 10 double
0 0 0 0 0 0 0 0 0 
0 
a 3 10 double
7.91984e-07 3.52914e-07 1.43368e-07 0.00149885 0.0017147 0.000760929 -0.00011804 9.25567e-05 4.56298e-05 
-1.53873e-07 1.24752e-08 5.03078e-08 -1.20993e-05 7.62551e-07 6.2114e-07 -0.000550512 -1.26804e-05 2.91071e-05 
0.000275915 -0.000120376 -5.21742e-05 -2.99634e-06 -1.6711e-06 -5.61181e-07 -9.89622e-08 -3.00445e-07 -1.20522e-07 
0 0 0 
v 3 10 double
0.00168927 -0.00343957 -0.00153033 0.0275786 -0.0106399 -0.00854153 0.00988935 0.0109112 0.00473894 
0.000925849 0.00230434 0.000439984 0.000493502 0.00732697 0.00312828 -0.00013207 0.0182994 0.00824448 
-0.00789321 -0.0143991 -0.00624039 -0.00314729 0.00444639 0.00197256 -0.00305912 0.000856033 0.000426455 
0 0 0 
mass 1 10 double
14.536 0.0552605 0.107448 0.00219382 317.832 0.814805 1 95.162 17.1471 
332965 
r 3 10 double
-16.7971 -7.48604 -3.04122 -0.222504 -0.254549 -0.112961 1.05029 -0.823377 -0.405925 
41.1158 -3.3302 -13.4385 4.99674 -0.314072 -0.256193 0.742595 0.0171033 -0.0392627 
-0.9025 0.393751 0.170663 8.08809 4.49958 1.51048 8.79129 26.6635 10.6956 
0 0 0 
