# vtk DataFile Version 4.0
vtk output
ASCII
DATASET POLYDATA
FIELD FieldData 4
domain 1 4 string
domain_min:-1|-1|-1
domain_max:1|1|1
cell_size:1000|1000|1000
boundary:0|0|0

variables 1 7 string
T:77433
dt:1
E:0.0123048
P:-1.02358
write_case:1
all_steps:77592
substeps:366

constants 1 1 string
gamma:9.16324e-10

equations 1 6 string
eq0:T=(T+dt)#true
eq1:r=verlet_r(r,v,a,dt)#true
eq2:a=(nbody(mass,gamma)/mass)#neq(id,0)
eq3:v=verlet_v(v,a,dt)#true
eq4:E=(fsum(((magnitude(v)^2)*mass))/2)#true
eq5:P=fsum((-(((gamma*mass)*332965)/if(eq(0,magnitude(r)),((gamma*mass)*332965),magnitude(r)))))#true

POINTS 10 float
-0.327217 -1.32761 -0.600369 4.82654 -1.25344 -0.654049 -2.52869 8.07616 3.44851 
-14.2235 10.8749 4.96345 -30.8832 1.64088 9.82569 -0.855288 0.473148 0.204906 
-0.442464 0.175899 0.139671 -0.0406605 0.655818 0.298069 19.5451 21.2231 8.20102 
0 0 0 
VERTICES 20 20
1 0 
1 1 
1 2 
1 3 
1 4 
1 5 
1 6 
1 7 
1 8 
1 9 

POINT_DATA 10
SCALARS id double
LOOKUP_TABLE default
4 5 6 7 9 3 1 2 8 
0 
FIELD FieldData 5
gid 1 10 double
0 0 0 0 0 0 0 0 0 
0 
a 3 10 double
2.99891e-05 0.000121632 5.50038e-05 -1.15761e-05 3.00663e-06 1.56884e-06 1.01196e-06 -3.23014e-06 -1.37928e-06 
6.77632e-07 -5.17732e-07 -2.36313e-07 2.76084e-07 -1.46282e-08 -8.78221e-08 0.000261992 -0.000144931 -6.27655e-05 
0.00110493 -0.000439253 -0.000348787 3.30347e-05 -0.0005327 -0.000242112 -2.21287e-07 -2.40308e-07 -9.28602e-08 
0 0 0 
v 3 10 double
0.0143838 -0.00153937 -0.00108769 0.00204839 0.00708363 0.00298552 -0.00573557 -0.00151656 -0.000378609 
-0.00259047 -0.00296927 -0.00126387 8.8812e-05 -0.0031724 -0.00101695 -0.00940175 -0.0136296 -0.00590081 
-0.0104508 -0.0170595 -0.00804345 -0.0206076 -0.00181053 0.000484768 -0.00243275 0.00191683 0.000845112 
0 0 0 
mass 1 10 double
0.107448 317.832 95.162 14.536 0.00219382 1 0.0552605 0.814805 17.1471 
332965 
r 3 10 double
-0.327217 -1.32761 -0.600369 4.82654 -1.25344 -0.654049 -2.52869 8.07616 3.44851 
-14.2235 10.8749 4.96345 -30.8832 1.64088 9.82569 -0.855288 0.473148 0.204906 
-0.442464 0.175899 0.139671 -0.0406605 0.655818 0.298069 19.5451 21.2231 8.20102 
0 0 0 
