# vtk DataFile Version 4.0
vtk output
ASCII
DATASET POLYDATA
FIELD FieldData 4
domain 1 4 string
domain_min:-1|-1|-1
domain_max:1|1|1
cell_size:1000|1000|1000
boundary:0|0|0

variables 1 7 string
T:329090
dt:1
E:0.0122135
P:-1.02349
write_case:1
all_steps:329766
substeps:366

constants 1 1 string
gamma:9.16324e-10

equations 1 6 string
eq0:T=(T+dt)#true
eq1:r=verlet_r(r,v,a,dt)#true
eq2:a=(nbody(mass,gamma)/mass)#neq(id,0)
eq3:v=verlet_v(v,a,dt)#true
eq4:E=(fsum(((magnitude(v)^2)*mass))/2)#true
eq5:P=fsum((-(((gamma*mass)*332965)/if(eq(0,magnitude(r)),((gamma*mass)*332965),magnitude(r)))))#true

POINTS 10 float
-14.4996 -10.9148 -4.57522 -9.63011 -1.52527 -0.206365 0.255767 -0.128953 -0.0950017 
1.3273 -0.360725 -0.198534 4.98471 -0.363641 -0.274455 0.664604 -0.257645 -0.158174 
-13.9002 24.678 10.4476 -6.58592 40.3383 14.5936 -0.584176 0.741553 0.319879 
0 0 0 
VERTICES 20 20
1 0 
1 1 
1 2 
1 3 
1 4 
1 5 
1 6 
1 7 
1 8 
1 9 

POINT_DATA 10
SCALARS id double
LOOKUP_TABLE default
7 6 1 4 5 2 8 9 3 
0 
FIELD FieldData 5
gid 1 10 double
0 0 0 0 0 0 0 0 0 
0 
a 3 10 double
6.7552e-07 5.08744e-07 2.13276e-07 3.16909e-06 5.01771e-07 6.7845e-08 -0.00283936 0.00143156 0.00105465 
-0.000150869 4.10075e-05 2.2569e-05 -1.21274e-05 8.84644e-07 6.67704e-07 -0.00052094 0.000201956 0.000123985 
1.54311e-07 -2.7397e-07 -1.15986e-07 2.45949e-08 -1.50781e-07 -5.45455e-08 0.000179999 -0.000228482 -9.8559e-05 
0 0 0 
v 3 10 double
0.00249259 -0.00297967 -0.00133901 0.000509314 -0.005126 -0.00214973 0.0196735 0.0267608 0.0123638 
0.00476657 0.0134712 0.00606438 0.000579402 0.00733248 0.00312352 0.00805277 0.0173086 0.00733497 
-0.00284955 -0.00135105 -0.000482062 -0.00224631 -0.00109647 0.000335437 -0.0144737 -0.00921592 -0.00396925 
0 0 0 
mass 1 10 double
14.536 95.162 0.0552605 0.107448 317.832 0.814805 17.1471 0.00219382 1 
332965 
r 3 10 double
-14.4996 -10.9148 -4.57523 -9.63011 -1.52527 -0.206365 0.255767 -0.128953 -0.0950017 
1.3273 -0.360725 -0.198534 4.98471 -0.363641 -0.274455 0.664604 -0.257645 -0.158174 
-13.9002 24.678 10.4476 -6.58592 40.3383 14.5936 -0.584176 0.741553 0.319879 
0 0 0 
