# vtk DataFile Version 4.0
vtk output
ASCII
DATASET POLYDATA
FIELD FieldData 4
domain 1 4 string
domain_min:-1|-1|-1
domain_max:1|1|1
cell_size:1000|1000|1000
boundary:0|0|0

variables 1 7 string
T:243256
dt:1
E:0.0116788
P:-1.02295
write_case:1
all_steps:243756
substeps:366

constants 1 1 string
gamma:9.16324e-10

equations 1 6 string
eq0:T=(T+dt)#true
eq1:r=verlet_r(r,v,a,dt)#true
eq2:a=(nbody(mass,gamma)/mass)#neq(id,0)
eq3:v=verlet_v(v,a,dt)#true
eq4:E=(fsum(((magnitude(v)^2)*mass))/2)#true
eq5:P=fsum((-(((gamma*mass)*332965)/if(eq(0,magnitude(r)),((gamma*mass)*332965),magnitude(r)))))#true

POINTS 10 float
-7.92995 -5.79125 -2.05146 7.78572 -16.6712 -7.40798 23.4115 -17.6387 -7.80259 
-14.593 35.2902 15.4278 -0.684843 0.666456 0.287882 -0.0878262 0.250577 0.143184 
0.702136 0.184926 0.0395799 1.30173 0.558804 0.223339 1.21549 4.58397 1.93315 
0 0 0 
VERTICES 20 20
1 0 
1 1 
1 2 
1 3 
1 4 
1 5 
1 6 
1 7 
1 8 
1 9 

POINT_DATA 10
SCALARS id double
LOOKUP_TABLE default
6 7 8 9 3 1 2 4 5 
0 
FIELD FieldData 5
gid 1 10 double
0 0 0 0 0 0 0 0 0 
0 
a 3 10 double
2.39768e-06 1.75134e-06 6.2041e-07 -3.04658e-07 6.52376e-07 2.89893e-07 -2.56238e-07 1.93037e-07 8.53912e-08 
6.38253e-08 -1.54327e-07 -6.74672e-08 0.000210198 -0.000204539 -8.83525e-05 0.000976079 -0.00278483 -0.0015913 
-0.000557163 -0.000146733 -3.14028e-05 -0.00013466 -5.77928e-05 -2.30979e-05 -2.76129e-06 -1.0413e-05 -4.39136e-06 
0 0 0 
v 3 10 double
0.0030929 -0.00406495 -0.00182073 0.00362825 0.00127542 0.000507619 0.00198496 0.00231028 0.000896234 
-0.00208665 -0.00165892 0.000111368 -0.0130406 -0.0108388 -0.00467727 -0.0341086 -0.00952555 -0.00163371 
-0.0055458 0.0178827 0.00843191 -0.0053278 0.0127681 0.00599474 -0.00750444 0.0019407 0.00101067 
0 0 0 
mass 1 10 double
95.162 14.536 17.1471 0.00219382 1 0.0552605 0.814805 0.107448 317.832 
332965 
r 3 10 double
-7.92995 -5.79125 -2.05146 7.78572 -16.6712 -7.40798 23.4115 -17.6387 -7.80259 
-14.593 35.2902 15.4278 -0.684843 0.666456 0.287882 -0.0878262 0.250577 0.143184 
0.702136 0.184926 0.0395799 1.30173 0.558804 0.223339 1.21549 4.58397 1.93315 
0 0 0 
