# vtk DataFile Version 4.0
vtk output
ASCII
DATASET POLYDATA
FIELD FieldData 4
domain 1 4 string
domain_min:-1|-1|-1
domain_max:1|1|1
cell_size:1000|1000|1000
boundary:0|0|0

variables 1 7 string
T:122359
dt:1
E:0.0111133
P:-1.02238
write_case:1
all_steps:122610
substeps:366

constants 1 1 string
gamma:9.16324e-10

equations 1 6 string
eq0:T=(T+dt)#true
eq1:r=verlet_r(r,v,a,dt)#true
eq2:a=(nbody(mass,gamma)/mass)#neq(id,0)
eq3:v=verlet_v(v,a,dt)#true
eq4:E=(fsum(((magnitude(v)^2)*mass))/2)#true
eq5:P=fsum((-(((gamma*mass)*332965)/if(eq(0,magnitude(r)),((gamma*mass)*332965),magnitude(r)))))#true

POINTS 10 float
13.7496 -13.3582 -6.04323 22.1269 -19.0215 -8.33639 42.2038 22.5713 -5.6827 
-9.0865 2.43101 1.4008 -2.75014 4.16366 1.85008 -0.814094 0.532146 0.230302 
-0.324081 0.109926 0.0920986 0.456162 0.526649 0.208771 0.881609 1.10836 0.485391 
0 0 0 
VERTICES 20 20
1 0 
1 1 
1 2 
1 3 
1 4 
1 5 
1 6 
1 7 
1 8 
1 9 

POINT_DATA 10
SCALARS id double
LOOKUP_TABLE default
7 8 9 6 5 3 1 2 4 
0 
FIELD FieldData 5
gid 1 10 double
0 0 0 0 0 0 0 0 0 
0 
a 3 10 double
-5.1685e-07 5.02177e-07 2.27188e-07 -2.41878e-07 2.07917e-07 9.11206e-08 -1.15157e-07 -6.15783e-08 1.55081e-08 
3.23001e-06 -8.60671e-07 -4.96496e-07 5.56504e-06 -8.4288e-06 -3.74516e-06 0.000248761 -0.000162599 -7.03693e-05 
0.00222149 -0.000753502 -0.000631308 -0.000361709 -0.000417583 -0.000165535 -8.01738e-05 -0.000100775 -4.4133e-05 
0 0 0 
v 3 10 double
0.0028697 0.00233421 0.000981719 0.00214198 0.00218508 0.00084111 -0.000663036 0.00196329 0.000812955 
-0.0019825 -0.00498612 -0.00197651 -0.00661972 -0.00334632 -0.00127347 -0.0104968 -0.0129262 -0.00559158 
-0.0181783 -0.0227949 -0.0103273 -0.0161629 0.0111249 0.00603553 -0.0108264 0.00861752 0.00423763 
0 0 0 
mass 1 10 double
14.536 17.1471 0.00219382 95.162 317.832 1 0.0552605 0.814805 0.107448 
332965 
r 3 10 double
13.7496 -13.3582 -6.04323 22.1269 -19.0215 -8.33639 42.2038 22.5713 -5.6827 
-9.0865 2.43101 1.4008 -2.75014 4.16366 1.85008 -0.814094 0.532146 0.230302 
-0.324081 0.109926 0.0920986 0.456162 0.526649 0.208771 0.881609 1.10836 0.485391 
0 0 0 
