# vtk DataFile Version 4.0
vtk output
ASCII
DATASET POLYDATA
FIELD FieldData 4
domain 1 4 string
domain_min:-1|-1|-1
domain_max:1|1|1
cell_size:1000|1000|1000
boundary:0|0|0

variables 1 7 string
T:213306
dt:1
E:0.0110823
P:-1.02236
write_case:1
all_steps:213744
substeps:366

constants 1 1 string
gamma:9.16324e-10

equations 1 6 string
eq0:T=(T+dt)#true
eq1:r=verlet_r(r,v,a,dt)#true
eq2:a=(nbody(mass,gamma)/mass)#neq(id,0)
eq3:v=verlet_v(v,a,dt)#true
eq4:E=(fsum(((magnitude(v)^2)*mass))/2)#true
eq5:P=fsum((-(((gamma*mass)*332965)/if(eq(0,magnitude(r)),((gamma*mass)*332965),magnitude(r)))))#true

POINTS 10 float
0.183226 -0.652495 -0.306301 10.3011 -15.5856 -6.9682 4.16562 -8.51243 -3.7092 
41.1348 25.4329 -4.46636 -1.62742 0.395147 0.223012 -1.85749 4.5136 1.97709 
-24.6753 16.2197 7.25318 -0.718776 0.636101 0.274901 -0.150794 0.405572 0.23259 
0 0 0 
VERTICES 20 20
1 0 
1 1 
1 2 
1 3 
1 4 
1 5 
1 6 
1 7 
1 8 
1 9 

POINT_DATA 10
SCALARS id double
LOOKUP_TABLE default
2 7 6 9 4 5 8 3 1 
0 
FIELD FieldData 5
gid 1 10 double
0 0 0 0 0 0 0 0 0 
0 
a 3 10 double
-0.00013589 0.000483923 0.000227168 -3.97235e-07 6.00848e-07 2.68642e-07 -1.20618e-06 2.46494e-06 1.07407e-06 
-1.09693e-07 -6.78145e-08 1.19123e-08 0.000102964 -2.49871e-05 -1.4104e-05 3.88084e-06 -9.43023e-06 -4.13072e-06 
2.68216e-07 -1.7626e-07 -7.88215e-08 0.000220343 -0.00019499 -8.42676e-05 0.000388079 -0.00104377 -0.00059859 
0 0 0 
v 3 10 double
0.0194106 0.00500629 0.00104337 0.00337483 0.00172791 0.000709296 0.00480303 0.00222034 0.00070924 
-0.000828548 0.00186639 0.000833033 -0.00318707 -0.0112679 -0.00508897 -0.00723734 -0.00220558 -0.000770405 
-0.00188296 -0.00237332 -0.000924586 -0.012467 -0.0113841 -0.00491566 -0.0199831 -0.00847382 -0.00250028 
0 0 0 
mass 1 10 double
0.814805 14.536 95.162 0.00219382 0.107448 317.832 17.1471 1 0.0552605 
332965 
r 3 10 double
0.183226 -0.652495 -0.306301 10.3011 -15.5856 -6.9682 4.16562 -8.51243 -3.7092 
41.1348 25.4329 -4.46636 -1.62742 0.395147 0.223012 -1.85749 4.5136 1.97709 
-24.6753 16.2197 7.25318 -0.718776 0.636101 0.274901 -0.150794 0.405572 0.23259 
0 0 0 
