# vtk DataFile Version 4.0
vtk output
ASCII
DATASET POLYDATA
FIELD FieldData 4
domain 1 4 string
domain_min:-1|-1|-1
domain_max:1|1|1
cell_size:1000|1000|1000
boundary:0|0|0

variables 1 7 string
T:197966
dt:1
E:0.0111298
P:-1.0224
write_case:1
all_steps:198372
substeps:366

constants 1 1 string
gamma:9.16324e-10

equations 1 6 string
eq0:T=(T+dt)#true
eq1:r=verlet_r(r,v,a,dt)#true
eq2:a=(nbody(mass,gamma)/mass)#neq(id,0)
eq3:v=verlet_v(v,a,dt)#true
eq4:E=(fsum(((magnitude(v)^2)*mass))/2)#true
eq5:P=fsum((-(((gamma*mass)*332965)/if(eq(0,magnitude(r)),((gamma*mass)*332965),magnitude(r)))))#true

POINTS 10 float
-0.374219 -4.88803 -2.08394 -0.703549 -0.195242 -0.0439917 38.8461 -8.12066 -14.2575 
-8.46135 3.66398 1.88832 -7.14145 15.9869 7.09976 -0.736328 0.617957 0.267123 
-0.335595 0.25869 0.172789 0.723988 1.21577 0.539257 18.8347 21.7272 8.42469 
0 0 0 
VERTICES 20 20
1 0 
1 1 
1 2 
1 3 
1 4 
1 5 
1 6 
1 7 
1 8 
1 9 

POINT_DATA 10
SCALARS id double
LOOKUP_TABLE default
5 2 9 6 7 3 1 4 8 
0 
FIELD FieldData 5
gid 1 10 double
0 0 0 0 0 0 0 0 0 
0 
a 3 10 double
7.5499e-07 9.86695e-06 4.20665e-06 0.000548488 0.000152203 3.42923e-05 -1.58258e-07 3.30701e-08 5.8078e-08 
3.0976e-06 -1.34202e-06 -6.91587e-07 3.2316e-07 -7.24049e-07 -3.21538e-07 0.000226214 -0.000189856 -8.20686e-05 
0.00106855 -0.000823691 -0.000550174 -6.36172e-05 -0.000106832 -4.73855e-05 -2.1384e-07 -2.46663e-07 -9.56428e-08 
0 0 0 
v 3 10 double
0.00751356 -8.60101e-05 -0.000217449 0.00509676 -0.0178926 -0.00840167 0.00125482 0.00225648 0.000326277 
-0.00278678 -0.00472009 -0.00183296 -0.00370445 -0.00156622 -0.000633856 -0.012153 -0.0116806 -0.00504526 
-0.0192765 -0.0131008 -0.00504638 -0.011841 0.00718326 0.00360073 -0.00249679 0.00185043 0.000819558 
0 0 0 
mass 1 10 double
317.832 0.814805 0.00219382 95.162 14.536 1 0.0552605 0.107448 17.1471 
332965 
r 3 10 double
-0.374219 -4.88803 -2.08394 -0.703549 -0.195242 -0.0439917 38.8461 -8.12066 -14.2575 
-8.46135 3.66398 1.88832 -7.14145 15.9869 7.09976 -0.736328 0.617957 0.267123 
-0.335595 0.25869 0.172789 0.723988 1.21577 0.539257 18.8347 21.7272 8.42469 
0 0 0 
