# vtk DataFile Version 4.0
vtk output
ASCII
DATASET POLYDATA
FIELD FieldData 4
domain 1 4 string
domain_min:-1|-1|-1
domain_max:1|1|1
cell_size:1000|1000|1000
boundary:0|0|0

variables 1 7 string
T:353562
dt:1
E:0.0103721
P:-1.02164
write_case:1
all_steps:354288
substeps:366

constants 1 1 string
gamma:9.16324e-10

equations 1 6 string
eq0:T=(T+dt)#true
eq1:r=verlet_r(r,v,a,dt)#true
eq2:a=(nbody(mass,gamma)/mass)#neq(id,0)
eq3:v=verlet_v(v,a,dt)#true
eq4:E=(fsum(((magnitude(v)^2)*mass))/2)#true
eq5:P=fsum((-(((gamma*mass)*332965)/if(eq(0,magnitude(r)),((gamma*mass)*332965),magnitude(r)))))#true

POINTS 10 float
-4.48645 -28.1726 -11.4201 -3.84402 -3.62126 -1.45768 -1.60604 -0.371618 -0.130928 
0.284328 -0.613414 -0.295645 0.610125 -9.49607 -3.96898 -21.7064 -20.6776 0.0886028 
-0.299679 -0.0266929 0.0158992 -14.2001 10.9573 4.99357 -0.557471 0.758769 0.327173 
0 0 0 
VERTICES 20 20
1 0 
1 1 
1 2 
1 3 
1 4 
1 5 
1 6 
1 7 
1 8 
1 9 

POINT_DATA 10
SCALARS id double
LOOKUP_TABLE default
8 5 4 2 6 9 1 7 3 
0 
FIELD FieldData 5
gid 1 10 double
0 0 0 0 0 0 0 0 0 
0 
a 3 10 double
4.72349e-08 2.96818e-07 1.20318e-07 7.13316e-06 6.71796e-06 2.70418e-06 0.00010835 2.50593e-05 8.82808e-06 
-0.000215902 0.000465767 0.000224485 -1.72616e-07 2.64718e-06 1.10645e-06 2.46295e-07 2.34543e-07 -1.07002e-09 
0.00334326 0.000297784 -0.000177377 6.71814e-07 -5.1872e-07 -2.36386e-07 0.000171742 -0.00023377 -0.000100799 
0 0 0 
v 3 10 double
0.00310281 -0.000375617 -0.000231022 0.00533753 -0.00453678 -0.00206802 0.00393551 -0.0112918 -0.00527986 
0.0185089 0.00781854 0.00238755 0.00525271 0.000386999 -7.25088e-05 0.00228012 -0.00233577 -0.00141836 
0.000882992 -0.0312252 -0.0168393 -0.00258825 -0.00296187 -0.00126034 -0.0148036 -0.00876291 -0.00377191 
0 0 0 
mass 1 10 double
17.1471 317.832 0.107448 0.814805 95.162 0.00219382 0.0552605 14.536 1 
332965 
r 3 10 double
-4.48645 -28.1726 -11.4201 -3.84402 -3.62126 -1.45768 -1.60604 -0.371618 -0.130928 
0.284328 -0.613414 -0.295645 0.610125 -9.49607 -3.96898 -21.7064 -20.6776 0.0886028 
-0.299679 -0.0266929 0.0158992 -14.2001 10.9573 4.99357 -0.557471 0.758769 0.327173 
0 0 0 
