# vtk DataFile Version 4.0
vtk output
ASCII
DATASET POLYDATA
FIELD FieldData 4
domain 1 4 string
domain_min:-1|-1|-1
domain_max:1|1|1
cell_size:1000|1000|1000
boundary:0|0|0

variables 1 7 string
T:228281
dt:1
E:0.0111976
P:-1.02247
write_case:1
all_steps:228750
substeps:366

constants 1 1 string
gamma:9.16324e-10

equations 1 6 string
eq0:T=(T+dt)#true
eq1:r=verlet_r(r,v,a,dt)#true
eq2:a=(nbody(mass,gamma)/mass)#neq(id,0)
eq3:v=verlet_v(v,a,dt)#true
eq4:E=(fsum(((magnitude(v)^2)*mass))/2)#true
eq5:P=fsum((-(((gamma*mass)*332965)/if(eq(0,magnitude(r)),((gamma*mass)*332965),magnitude(r)))))#true

POINTS 10 float
-18.8193 -22.68 -8.815 -0.65868 -4.87446 -2.07105 -0.640353 0.290461 0.171442 
-5.80662 16.4882 7.30035 -0.702495 0.649947 0.280818 -0.309825 1.43966 0.668559 
0.0495088 0.34647 0.180537 2.71534 8.08312 3.22989 18.4827 43.6968 8.07395 
0 0 0 
VERTICES 20 20
1 0 
1 1 
1 2 
1 3 
1 4 
1 5 
1 6 
1 7 
1 8 
1 9 

POINT_DATA 10
SCALARS id double
LOOKUP_TABLE default
8 5 2 7 3 4 1 6 9 
0 
FIELD FieldData 5
gid 1 10 double
0 0 0 0 0 0 0 0 0 
0 
a 3 10 double
1.97585e-07 2.38063e-07 9.25253e-08 1.32208e-06 9.78371e-06 4.15688e-06 0.000515351 -0.000233762 -0.000137977 
2.6107e-07 -7.40796e-07 -3.2801e-07 0.000216021 -0.000199873 -8.63569e-05 2.23461e-05 -0.000103843 -4.8223e-05 
-0.000247329 -0.00173083 -0.000901893 -1.0932e-06 -3.25432e-06 -1.30038e-06 -5.06558e-08 -1.19755e-07 -2.21262e-08 
0 0 0 
v 3 10 double
0.00247768 -0.00174876 -0.000777471 0.00747838 -0.000466424 -0.000379194 -0.00982867 -0.016752 -0.00695425 
-0.00381035 -0.00130484 -0.000517956 -0.0127569 -0.0111328 -0.00480565 -0.0133012 -0.00144273 -0.000322607 
-0.027685 -0.00422045 0.000559497 -0.00571013 0.00146875 0.000859242 -0.00205117 0.00044448 0.000757765 
0 0 0 
mass 1 10 double
17.1471 317.832 0.814805 14.536 1 0.107448 0.0552605 95.162 0.00219382 
332965 
r 3 10 double
-18.8193 -22.68 -8.815 -0.65868 -4.87446 -2.07105 -0.640353 0.290461 0.171442 
-5.80662 16.4882 7.30035 -0.702495 0.649947 0.280818 -0.309825 1.43966 0.668559 
0.0495088 0.34647 0.180537 2.71534 8.08312 3.22989 18.4827 43.6968 8.07395 
0 0 0 
