# vtk DataFile Version 4.0
vtk output
ASCII
DATASET POLYDATA
FIELD FieldData 4
domain 1 4 string
domain_min:-1|-1|-1
domain_max:1|1|1
cell_size:1000|1000|1000
boundary:0|0|0

variables 1 7 string
T:121263
dt:1
E:0.0123836
P:-1.02366
write_case:1
all_steps:121512
substeps:366

constants 1 1 string
gamma:9.16324e-10

equations 1 6 string
eq0:T=(T+dt)#true
eq1:r=verlet_r(r,v,a,dt)#true
eq2:a=(nbody(mass,gamma)/mass)#neq(id,0)
eq3:v=verlet_v(v,a,dt)#true
eq4:E=(fsum(((magnitude(v)^2)*mass))/2)#true
eq5:P=fsum((-(((gamma*mass)*332965)/if(eq(0,magnitude(r)),((gamma*mass)*332965),magnitude(r)))))#true

POINTS 10 float
-1.6649 -0.09891 -0.00170019 10.3178 -15.5942 -6.97398 19.6401 -21.286 -9.20145 
42.8604 20.384 -6.56364 -5.13801 6.97785 3.11012 -0.813793 0.53102 0.229817 
-0.141264 0.236223 0.140883 -0.0858059 0.64909 0.298134 4.50291 2.04143 0.765666 
0 0 0 
VERTICES 20 20
1 0 
1 1 
1 2 
1 3 
1 4 
1 5 
1 6 
1 7 
1 8 
1 9 

POINT_DATA 10
SCALARS id double
LOOKUP_TABLE default
4 7 8 9 6 3 1 2 5 
0 
FIELD FieldData 5
gid 1 10 double
0 0 0 0 0 0 0 0 0 
0 
a 3 10 double
0.000109497 6.50841e-06 1.13237e-07 -3.96224e-07 5.99257e-07 2.67997e-07 -2.13817e-07 2.31774e-07 1.00187e-07 
-1.19072e-07 -5.66306e-08 1.824e-08 2.0109e-06 -2.72923e-06 -1.21648e-06 0.000249401 -0.000162731 -7.04274e-05 
0.00145802 -0.00243809 -0.00145407 7.03198e-05 -0.000531867 -0.000244292 -1.09718e-05 -4.97361e-06 -1.86539e-06 
0 0 0 
v 3 10 double
0.00136531 -0.0116898 -0.00539907 0.00337214 0.00172909 0.000709655 0.00239189 0.00194392 0.00073618 
-0.000534703 0.00202807 0.000794471 -0.00500136 -0.00296749 -0.00101018 -0.0104887 -0.0129495 -0.00560176 
-0.0322306 -0.0125435 -0.00339951 -0.0205459 -0.00292175 -2.31594e-05 -0.00341018 0.00661741 0.00291716 
0 0 0 
mass 1 10 double
0.107448 14.536 17.1471 0.00219382 95.162 1 0.0552605 0.814805 317.832 
332965 
r 3 10 double
-1.6649 -0.09891 -0.00170019 10.3178 -15.5942 -6.97398 19.6401 -21.286 -9.20145 
42.8604 20.384 -6.56364 -5.13801 6.97785 3.11012 -0.813793 0.53102 0.229817 
-0.141264 0.236223 0.140883 -0.0858059 0.64909 0.298134 4.50291 2.04143 0.765666 
0 0 0 
