# vtk DataFile Version 4.0
vtk output
ASCII
DATASET POLYDATA
FIELD FieldData 4
domain 1 4 string
domain_min:-1|-1|-1
domain_max:1|1|1
cell_size:1000|1000|1000
boundary:0|0|0

variables 1 7 string
T:346622
dt:1
E:0.0123383
P:-1.02361
write_case:1
all_steps:347334
substeps:366

constants 1 1 string
gamma:9.16324e-10

equations 1 6 string
eq0:T=(T+dt)#true
eq1:r=verlet_r(r,v,a,dt)#true
eq2:a=(nbody(mass,gamma)/mass)#neq(id,0)
eq3:v=verlet_v(v,a,dt)#true
eq4:E=(fsum(((magnitude(v)^2)*mass))/2)#true
eq5:P=fsum((-(((gamma*mass)*332965)/if(eq(0,magnitude(r)),((gamma*mass)*332965),magnitude(r)))))#true

POINTS 10 float
-23.1671 -18.9552 -7.18193 0.669975 -0.24298 -0.151873 -30.7643 -0.612912 9.09385 
-0.562731 0.755499 0.3258 -1.62055 0.413386 0.229804 0.451936 0.192801 0.0578277 
4.8908 0.998976 0.3108 7.26658 5.45723 1.94292 10.9402 15.1511 6.47914 
0 0 0 
VERTICES 20 20
1 0 
1 1 
1 2 
1 3 
1 4 
1 5 
1 6 
1 7 
1 8 
1 9 

POINT_DATA 10
SCALARS id double
LOOKUP_TABLE default
8 2 9 3 4 1 5 6 7 
0 
FIELD FieldData 5
gid 1 10 double
0 0 0 0 0 0 0 0 0 
0 
a 3 10 double
2.42552e-07 1.98434e-07 7.51844e-08 -0.000528308 0.000191612 0.000119765 2.84428e-07 5.6647e-09 -8.40718e-08 
0.000173366 -0.000232739 -0.000100366 0.000102779 -2.62145e-05 -1.45732e-05 -0.00113868 -0.000485778 -0.000145702 
-1.19259e-05 -2.43359e-06 -7.56988e-07 -2.76718e-06 -2.0833e-06 -7.41788e-07 -4.31973e-07 -5.98885e-07 -2.56136e-07 
0 0 0 
v 3 10 double
0.00205325 -0.00216627 -0.000937852 0.0076459 0.0174926 0.0074468 0.000288212 -0.00317488 -0.00107926 
-0.0147276 -0.00886931 -0.00381832 -0.00335646 -0.0112359 -0.00507402 -0.00725076 0.0176612 0.0102052 
-0.00168503 0.00717551 0.00311004 -0.0038301 0.00401628 0.00183688 -0.00332766 0.00182679 0.000845921 
0 0 0 
mass 1 10 double
17.1471 0.814805 0.00219382 1 0.107448 0.0552605 317.832 95.162 14.536 
332965 
r 3 10 double
-23.1671 -18.9552 -7.18193 0.669975 -0.24298 -0.151873 -30.7643 -0.612912 9.09385 
-0.562731 0.755499 0.3258 -1.62055 0.413386 0.229804 0.451936 0.192801 0.0578277 
4.8908 0.998976 0.3108 7.26658 5.45723 1.94292 10.9402 15.1511 6.47914 
0 0 0 
