# vtk DataFile Version 4.0
vtk output
ASCII
DATASET POLYDATA
FIELD FieldData 4
domain 1 4 string
domain_min:-1|-1|-1
domain_max:1|1|1
cell_size:1000|1000|1000
boundary:0|0|0

variables 1 7 string
T:216958
dt:1
E:0.0122076
P:-1.02348
write_case:1
all_steps:217404
substeps:366

constants 1 1 string
gamma:9.16324e-10

equations 1 6 string
eq0:T=(T+dt)#true
eq1:r=verlet_r(r,v,a,dt)#true
eq2:a=(nbody(mass,gamma)/mass)#neq(id,0)
eq3:v=verlet_v(v,a,dt)#true
eq4:E=(fsum(((magnitude(v)^2)*mass))/2)#true
eq5:P=fsum((-(((gamma*mass)*332965)/if(eq(0,magnitude(r)),((gamma*mass)*332965),magnitude(r)))))#true

POINTS 10 float
0.00439984 -1.3289 -0.609925 19.1432 -6.02478 -2.90592 37.4059 31.7649 -1.3632 
-0.344267 -0.0132858 0.0279863 -29.6304 6.60136 3.43953 -0.713378 0.640611 0.276833 
0.710519 0.163616 0.0293328 3.14306 3.65667 1.49001 5.24894 7.06577 2.69709 
0 0 0 
VERTICES 20 20
1 0 
1 1 
1 2 
1 3 
1 4 
1 5 
1 6 
1 7 
1 8 
1 9 

POINT_DATA 10
SCALARS id double
LOOKUP_TABLE default
4 7 9 1 8 3 2 5 6 
0 
FIELD FieldData 5
gid 1 10 double
0 0 0 0 0 0 0 0 0 
0 
a 3 10 double
-4.25218e-07 0.000129703 5.95293e-05 -7.0127e-07 2.20992e-07 1.06572e-07 -9.66213e-08 -8.20464e-08 3.52998e-09 
0.00254334 9.81607e-05 -0.00020675 3.17379e-07 -7.06568e-08 -3.68199e-08 0.000219 -0.000196645 -8.49785e-05 
-0.000557927 -0.000128467 -2.30285e-05 -7.45777e-06 -8.67532e-06 -3.53521e-06 -2.06097e-06 -2.77666e-06 -1.05951e-06 
0 0 0 
v 3 10 double
0.014742 0.001321 0.000228787 0.00128111 0.00327454 0.00141576 -0.00120534 0.00159218 0.000861068 
0.00650882 -0.0270004 -0.0151249 -0.000800376 -0.00282889 -0.00113801 -0.012554 -0.0113128 -0.0048845 
-0.00486325 0.0179971 0.00843694 -0.00606185 0.00464879 0.00213591 -0.00493822 0.00289455 0.00141589 
0 0 0 
mass 1 10 double
0.107448 14.536 0.00219382 0.0552605 17.1471 1 0.814805 317.832 95.162 
332965 
r 3 10 double
0.00439984 -1.3289 -0.609925 19.1432 -6.02478 -2.90592 37.4059 31.7649 -1.3632 
-0.344267 -0.0132858 0.0279863 -29.6304 6.60136 3.43953 -0.713378 0.640611 0.276833 
0.710519 0.163616 0.0293328 3.14306 3.65667 1.49001 5.24894 7.06577 2.69709 
0 0 0 
