# vtk DataFile Version 4.0
vtk output
ASCII
DATASET POLYDATA
FIELD FieldData 4
domain 1 4 string
domain_min:-1|-1|-1
domain_max:1|1|1
cell_size:1000|1000|1000
boundary:0|0|0

variables 1 7 string
T:295852
dt:1
E:0.011087
P:-1.02236
write_case:1
all_steps:296460
substeps:366

constants 1 1 string
gamma:9.16324e-10

equations 1 6 string
eq0:T=(T+dt)#true
eq1:r=verlet_r(r,v,a,dt)#true
eq2:a=(nbody(mass,gamma)/mass)#neq(id,0)
eq3:v=verlet_v(v,a,dt)#true
eq4:E=(fsum(((magnitude(v)^2)*mass))/2)#true
eq5:P=fsum((-(((gamma*mass)*332965)/if(eq(0,magnitude(r)),((gamma*mass)*332965),magnitude(r)))))#true

POINTS 10 float
-18.3516 -2.10203 -0.66357 -1.53136 -0.541865 -0.210309 0.109541 -0.381191 -0.215451 
3.0855 -28.1885 -11.615 44.0217 10.9898 -9.85129 -2.90933 4.08058 1.81591 
-9.18519 2.16599 1.30378 -0.62518 0.714344 0.308309 0.682886 0.228682 0.0607729 
0 0 0 
VERTICES 20 20
1 0 
1 1 
1 2 
1 3 
1 4 
1 5 
1 6 
1 7 
1 8 
1 9 

POINT_DATA 10
SCALARS id double
LOOKUP_TABLE default
7 4 1 8 9 5 6 3 2 
0 
FIELD FieldData 5
gid 1 10 double
0 0 0 0 0 0 0 0 0 
0 
a 3 10 double
8.88369e-07 1.02273e-07 3.23662e-08 0.000106317 3.76311e-05 1.46059e-05 -0.000363466 0.00126481 0.000714878 
-3.27864e-08 2.99169e-07 1.23274e-07 -1.34343e-07 -3.35261e-08 3.00649e-08 5.85904e-06 -8.22115e-06 -3.65842e-06 
3.24749e-06 -7.62421e-07 -4.59572e-07 0.00019183 -0.000219188 -9.46007e-05 -0.000551944 -0.000184823 -4.9116e-05 
0 0 0 
v 3 10 double
0.00044617 -0.00378515 -0.00166326 0.00561052 -0.0108103 -0.00510196 0.0241218 0.0017109 -0.00152667 
0.00312282 0.000349252 6.52119e-05 2.37482e-05 0.00222846 0.00068914 -0.00648062 -0.00354897 -0.0013639 
-0.00182483 -0.00502542 -0.00200356 -0.013936 -0.0098554 -0.00424801 -0.00692989 0.0175644 0.00838195 
0 0 0 
mass 1 10 double
14.536 0.107448 0.0552605 17.1471 0.00219382 317.832 95.162 1 0.814805 
332965 
r 3 10 double
-18.3516 -2.10203 -0.66357 -1.53136 -0.541865 -0.210309 0.109541 -0.381191 -0.215451 
3.0855 -28.1885 -11.615 44.0217 10.9898 -9.85129 -2.90933 4.08058 1.81591 
-9.18519 2.16599 1.30378 -0.62518 0.714344 0.308309 0.682886 0.228682 0.0607729 
0 0 0 
