# vtk DataFile Version 4.0
vtk output
ASCII
DATASET POLYDATA
FIELD FieldData 4
domain 1 4 string
domain_min:-1|-1|-1
domain_max:1|1|1
cell_size:1000|1000|1000
boundary:0|0|0

variables 1 7 string
T:316672
dt:1
E:0.0122166
P:-1.02349
write_case:1
all_steps:317322
substeps:366

constants 1 1 string
gamma:9.16324e-10

equations 1 6 string
eq0:T=(T+dt)#true
eq1:r=verlet_r(r,v,a,dt)#true
eq2:a=(nbody(mass,gamma)/mass)#neq(id,0)
eq3:v=verlet_v(v,a,dt)#true
eq4:E=(fsum(((magnitude(v)^2)*mass))/2)#true
eq5:P=fsum((-(((gamma*mass)*332965)/if(eq(0,magnitude(r)),((gamma*mass)*332965),magnitude(r)))))#true

POINTS 10 float
-0.291447 -0.629877 -0.266947 0.930312 -0.938841 -0.454081 -0.599141 0.732276 0.31594 
-6.43534 6.04195 2.79117 0.252873 0.152841 0.0563817 3.29546 3.53619 1.43451 
8.4484 16.304 7.01862 22.4674 18.5062 7.01562 20.7469 43.107 7.20842 
0 0 0 
VERTICES 20 20
1 0 
1 1 
1 2 
1 3 
1 4 
1 5 
1 6 
1 7 
1 8 
1 9 

POINT_DATA 10
SCALARS id double
LOOKUP_TABLE default
2 4 3 6 1 5 7 8 9 
0 
FIELD FieldData 5
gid 1 10 double
0 0 0 0 0 0 0 0 0 
0 
a 3 10 double
0.000216268 0.000467396 0.000198086 -0.000103987 0.000104952 5.07609e-05 0.000184184 -0.000225094 -9.71167e-05 
2.47722e-06 -2.32387e-06 -1.0736e-06 -0.0028346 -0.00171328 -0.000632011 -7.84477e-06 -8.41672e-06 -3.41435e-06 
-3.39873e-07 -6.56036e-07 -2.82423e-07 -2.55886e-07 -2.10681e-07 -7.98615e-08 -5.59896e-08 -1.16357e-07 -1.94466e-08 
0 0 0 
v 3 10 double
0.0184365 -0.00674384 -0.00420515 0.0111509 0.00981086 0.00422478 -0.0142782 -0.00944913 -0.0040709 
-0.00438906 -0.00366848 -0.00132776 -0.0186901 0.0258054 0.0157269 -0.00586005 0.00486829 0.00222313 
-0.00360754 0.00137267 0.000651185 -0.00212995 0.00221105 0.000958082 -0.00199142 0.000577725 0.000781574 
0 0 0 
mass 1 10 double
0.814805 0.107448 1 95.162 0.0552605 317.832 14.536 17.1471 0.00219382 
332965 
r 3 10 double
-0.291447 -0.629877 -0.266947 0.930312 -0.938841 -0.454081 -0.599141 0.732276 0.31594 
-6.43534 6.04196 2.79117 0.252873 0.152841 0.0563817 3.29546 3.53619 1.43451 
8.4484 16.304 7.01862 22.4674 18.5062 7.01562 20.7469 43.107 7.20842 
0 0 0 
