# vtk DataFile Version 4.0
vtk output
ASCII
DATASET POLYDATA
FIELD FieldData 4
domain 1 4 string
domain_min:-1|-1|-1
domain_max:1|1|1
cell_size:1000|1000|1000
boundary:0|0|0

variables 1 7 string
T:261884
dt:1
E:0.0106114
P:-1.02188
write_case:1
all_steps:262422
substeps:366

constants 1 1 string
gamma:9.16324e-10

equations 1 6 string
eq0:T=(T+dt)#true
eq1:r=verlet_r(r,v,a,dt)#true
eq2:a=(nbody(mass,gamma)/mass)#neq(id,0)
eq3:v=verlet_v(v,a,dt)#true
eq4:E=(fsum(((magnitude(v)^2)*mass))/2)#true
eq5:P=fsum((-(((gamma*mass)*332965)/if(eq(0,magnitude(r)),((gamma*mass)*332965),magnitude(r)))))#true

POINTS 10 float
0.642221 -0.309247 -0.180082 -26.0452 -15.0907 3.14405 -3.61619 7.71077 3.35603 
-15.0925 9.81647 4.50884 -5.50816 0.0340053 0.14643 -0.665235 0.683228 0.295042 
-0.493713 0.00405361 0.0523296 0.615018 1.27626 0.570154 8.12209 26.7859 10.7619 
0 0 0 
VERTICES 20 20
1 0 
1 1 
1 2 
1 3 
1 4 
1 5 
1 6 
1 7 
1 8 
1 9 

POINT_DATA 10
SCALARS id double
LOOKUP_TABLE default
2 9 6 7 5 3 1 4 8 
0 
FIELD FieldData 5
gid 1 10 double
0 0 0 0 0 0 0 0 0 
0 
a 3 10 double
-0.000493098 0.000237437 0.000138265 2.87078e-07 1.66431e-07 -3.46529e-08 1.4374e-06 -3.07057e-06 -1.33637e-06 
7.21807e-07 -4.69516e-07 -2.15653e-07 1.00453e-05 -6.08752e-08 -2.66563e-07 0.000204058 -0.000209591 -9.05084e-05 
0.00123076 -1.01027e-05 -0.000130451 -5.26943e-05 -0.000109333 -4.88429e-05 -9.21058e-08 -3.03431e-07 -1.21908e-07 
0 0 0 
v 3 10 double
0.00951308 0.0165652 0.00689552 0.00169578 -0.00277418 -0.00137835 -0.00549698 -0.00214164 -0.000645671 
-0.00233782 -0.00314389 -0.00134371 -0.000216353 -0.00667326 -0.00285113 -0.0133584 -0.0105042 -0.00453102 
-0.000208644 -0.0189996 -0.0101603 -0.0123528 0.00622507 0.00316927 -0.00308536 0.000794707 0.000402101 
0 0 0 
mass 1 10 double
0.814805 0.00219382 95.162 14.536 317.832 1 0.0552605 0.107448 17.1471 
332965 
r 3 10 double
0.642221 -0.309247 -0.180082 -26.0452 -15.0907 3.14405 -3.61619 7.71077 3.35603 
-15.0925 9.81647 4.50884 -5.50816 0.0340053 0.14643 -0.665235 0.683228 0.295042 
-0.493713 0.00405361 0.0523296 0.615018 1.27626 0.570154 8.12209 26.7859 10.7619 
0 0 0 
