# vtk DataFile Version 4.0
vtk output
ASCII
DATASET POLYDATA
FIELD FieldData 4
domain 1 4 string
domain_min:-1|-1|-1
domain_max:1|1|1
cell_size:1000|1000|1000
boundary:0|0|0

variables 1 7 string
T:84738
dt:1
E:0.0105418
P:-1.02181
write_case:1
all_steps:84912
substeps:366

constants 1 1 string
gamma:9.16324e-10

equations 1 6 string
eq0:T=(T+dt)#true
eq1:r=verlet_r(r,v,a,dt)#true
eq2:a=(nbody(mass,gamma)/mass)#neq(id,0)
eq3:v=verlet_v(v,a,dt)#true
eq4:E=(fsum(((magnitude(v)^2)*mass))/2)#true
eq5:P=fsum((-(((gamma*mass)*332965)/if(eq(0,magnitude(r)),((gamma*mass)*332965),magnitude(r)))))#true

POINTS 10 float
-11.372 -13.9219 -5.9365 -3.54999 -3.85371 -1.5651 0.0863366 -0.6691 -0.306978 
0.282855 -0.102815 -0.0841237 9.25352 -2.85388 -1.58113 -22.4561 -19.8608 0.57243 
-1.25785 1.00311 0.493497 -2.09822 27.7816 11.4239 -0.850385 0.481464 0.208487 
0 0 0 
VERTICES 20 20
1 0 
1 1 
1 2 
1 3 
1 4 
1 5 
1 6 
1 7 
1 8 
1 9 

POINT_DATA 10
SCALARS id double
LOOKUP_TABLE default
7 5 2 1 6 9 4 8 3 
0 
FIELD FieldData 5
gid 1 10 double
0 0 0 0 0 0 0 0 0 
0 
a 3 10 double
5.12468e-07 6.27351e-07 2.67518e-07 6.62424e-06 7.19046e-06 2.92023e-06 -6.46964e-05 0.000501323 0.000230003 
-0.00282795 0.00102792 0.000841053 -2.99064e-06 9.21658e-07 5.10703e-07 2.54631e-07 2.25152e-07 -6.55267e-09 
8.05265e-05 -6.42287e-05 -3.1598e-05 2.34579e-08 -3.10748e-07 -1.27782e-07 0.000260064 -0.000147252 -6.37638e-05 
0 0 0 
v 3 10 double
0.00314554 -0.00234076 -0.00106949 0.0056974 -0.00417038 -0.00192482 0.0199993 0.00239655 -0.000181841 
0.0179721 0.0266498 0.0123989 0.00154375 0.00494251 0.0019769 0.00219563 -0.00241436 -0.00141595 
-0.00881151 -0.00855318 -0.0036906 -0.00319142 -0.000207882 -5.71288e-06 -0.00956254 -0.0135259 -0.00585515 
0 0 0 
mass 1 10 double
14.536 317.832 0.814805 0.0552605 95.162 0.00219382 0.107448 17.1471 1 
332965 
r 3 10 double
-11.372 -13.9219 -5.9365 -3.54999 -3.85371 -1.5651 0.0863366 -0.6691 -0.306978 
0.282855 -0.102815 -0.0841237 9.25352 -2.85388 -1.58113 -22.4561 -19.8608 0.57243 
-1.25785 1.00311 0.493497 -2.09822 27.7816 11.4239 -0.850385 0.481464 0.208487 
0 0 0 
