# vtk DataFile Version 4.0
vtk output
ASCII
DATASET POLYDATA
FIELD FieldData 4
domain 1 4 string
domain_min:-1|-1|-1
domain_max:1|1|1
cell_size:1000|1000|1000
boundary:0|0|0

variables 1 7 string
T:135142
dt:1
E:0.0112458
P:-1.02252
write_case:1
all_steps:135420
substeps:366

constants 1 1 string
gamma:9.16324e-10

equations 1 6 string
eq0:T=(T+dt)#true
eq1:r=verlet_r(r,v,a,dt)#true
eq2:a=(nbody(mass,gamma)/mass)#neq(id,0)
eq3:v=verlet_v(v,a,dt)#true
eq4:E=(fsum(((magnitude(v)^2)*mass))/2)#true
eq5:P=fsum((-(((gamma*mass)*332965)/if(eq(0,magnitude(r)),((gamma*mass)*332965),magnitude(r)))))#true

POINTS 10 float
-6.96602 -6.84879 -2.53076 -0.554521 -1.28601 -0.575545 -0.801261 0.547883 0.237066 
-1.12568 4.68892 2.03558 -1.44285 17.4733 7.67161 -0.0715715 0.328687 0.183204 
0.72945 0.100025 -0.00081349 25.5757 41.2574 5.16715 24.7014 15.9391 5.90967 
0 0 0 
VERTICES 20 20
1 0 
1 1 
1 2 
1 3 
1 4 
1 5 
1 6 
1 7 
1 8 
1 9 

POINT_DATA 10
SCALARS id double
LOOKUP_TABLE default
6 4 3 5 7 1 2 9 8 
0 
FIELD FieldData 5
gid 1 10 double
0 0 0 0 0 0 0 0 0 
0 
a 3 10 double
2.06882e-06 2.03467e-06 7.51887e-07 4.87381e-05 0.00011304 5.059e-05 0.000245056 -0.000167552 -7.24989e-05 
2.39487e-06 -9.97677e-06 -4.33114e-06 6.28378e-08 -7.62072e-07 -3.34587e-07 0.000388547 -0.00178438 -0.000994582 
-0.000557602 -7.64513e-05 6.25603e-07 -6.71859e-08 -1.08376e-07 -1.35641e-08 -2.79922e-07 -1.80547e-07 -6.6936e-08 
0 0 0 
v 3 10 double
0.0037264 -0.00353632 -0.00162568 0.0137607 -0.00342457 -0.00193093 -0.010796 -0.012723 -0.00550231 
-0.00754309 -0.00123284 -0.000345973 -0.00399091 -0.00046814 -0.000148815 -0.0286101 0.000268581 0.00308008 
-0.00282339 0.0182381 0.00840506 -0.00183692 0.000861404 0.000823074 -0.00182587 0.00242885 0.00103961 
0 0 0 
mass 1 10 double
95.162 0.107448 1 317.832 14.536 0.0552605 0.814805 0.00219382 17.1471 
332965 
r 3 10 double
-6.96602 -6.84879 -2.53076 -0.554521 -1.28601 -0.575545 -0.801261 0.547883 0.237066 
-1.12568 4.68892 2.03558 -1.44285 17.4733 7.67161 -0.0715715 0.328687 0.183204 
0.72945 0.100025 -0.00081349 25.5757 41.2574 5.16715 24.7014 15.9391 5.90967 
0 0 0 
