# vtk DataFile Version 4.0
vtk output
ASCII
DATASET POLYDATA
FIELD FieldData 4
domain 1 4 string
domain_min:-1|-1|-1
domain_max:1|1|1
cell_size:1000|1000|1000
boundary:0|0|0

variables 1 7 string
T:134412
dt:1
E:0.0121224
P:-1.0234
write_case:1
all_steps:134688
substeps:366

constants 1 1 string
gamma:9.16324e-10

equations 1 6 string
eq0:T=(T+dt)#true
eq1:r=verlet_r(r,v,a,dt)#true
eq2:a=(nbody(mass,gamma)/mass)#neq(id,0)
eq3:v=verlet_v(v,a,dt)#true
eq4:E=(fsum(((magnitude(v)^2)*mass))/2)#true
eq5:P=fsum((-(((gamma*mass)*332965)/if(eq(0,magnitude(r)),((gamma*mass)*332965),magnitude(r)))))#true

POINTS 10 float
-9.05988 -3.78949 -1.17358 -1.08858 -1.04275 -0.449961 0.125665 -0.664484 -0.307661 
-0.801171 0.546989 0.236681 0.0605245 0.302349 0.155552 3.93472 2.88796 1.14202 
26.8994 40.5995 4.56242 25.9592 14.1185 5.13315 1.47799 17.6125 7.69144 
0 0 0 
VERTICES 20 20
1 0 
1 1 
1 2 
1 3 
1 4 
1 5 
1 6 
1 7 
1 8 
1 9 

POINT_DATA 10
SCALARS id double
LOOKUP_TABLE default
6 4 2 3 1 5 9 8 7 
0 
FIELD FieldData 5
gid 1 10 double
0 0 0 0 0 0 0 0 0 
0 
a 3 10 double
2.85837e-06 1.1957e-06 3.70326e-07 8.53137e-05 8.17217e-05 3.52639e-05 -9.34853e-05 0.000494362 0.000228893 
0.00024552 -0.000167616 -7.25272e-05 -0.00044828 -0.00223941 -0.00115213 -9.53192e-06 -6.99601e-06 -2.7665e-06 
-7.02252e-08 -1.06013e-07 -1.19061e-08 -2.94037e-07 -1.59889e-07 -5.81287e-08 -6.28319e-08 -7.51446e-07 -3.28166e-07 
0 0 0 
v 3 10 double
0.00190981 -0.0047374 -0.00204359 0.0108033 -0.00765414 -0.0037943 0.0197967 0.00343297 0.00030192 
-0.0107897 -0.0127399 -0.00550969 -0.0291777 0.00931102 0.00797633 -0.00481804 0.00580521 0.00260284 
-0.00178673 0.000939713 0.000832376 -0.00161612 0.00255325 0.00108531 -0.00399061 8.57834e-05 9.37377e-05 
0 0 0 
mass 1 10 double
95.162 0.107448 0.814805 1 0.0552605 317.832 0.00219382 17.1471 14.536 
332965 
r 3 10 double
-9.05988 -3.78949 -1.17358 -1.08858 -1.04275 -0.449961 0.125665 -0.664484 -0.307661 
-0.801171 0.546989 0.236681 0.0605245 0.302349 0.155552 3.93472 2.88796 1.14202 
26.8994 40.5995 4.56242 25.9592 14.1185 5.13315 1.47799 17.6125 7.69144 
0 0 0 
