# vtk DataFile Version 4.0
vtk output
ASCII
DATASET POLYDATA
FIELD FieldData 4
domain 1 4 string
domain_min:-1|-1|-1
domain_max:1|1|1
cell_size:1000|1000|1000
boundary:0|0|0

variables 1 7 string
T:66110.2
dt:1
E:0.0110594
P:-1.02233
write_case:1
all_steps:66246
substeps:366

constants 1 1 string
gamma:9.16324e-10

equations 1 6 string
eq0:T=(T+dt)#true
eq1:r=verlet_r(r,v,a,dt)#true
eq2:a=(nbody(mass,gamma)/mass)#neq(id,0)
eq3:v=verlet_v(v,a,dt)#true
eq4:E=(fsum(((magnitude(v)^2)*mass))/2)#true
eq5:P=fsum((-(((gamma*mass)*332965)/if(eq(0,magnitude(r)),((gamma*mass)*332965),magnitude(r)))))#true

POINTS 10 float
-0.276215 -0.374691 -0.171805 0.56211 -0.429938 -0.229173 28.4124 -9.21856 -4.48006 
-18.2441 31.9952 15.4882 -3.55776 3.66283 1.65569 -0.866444 0.458476 0.198586 
-0.43525 1.42371 0.664688 20.0578 2.66683 0.884897 0.295651 8.43855 3.47594 
0 0 0 
VERTICES 20 20
1 0 
1 1 
1 2 
1 3 
1 4 
1 5 
1 6 
1 7 
1 8 
1 9 

POINT_DATA 10
SCALARS id double
LOOKUP_TABLE default
1 2 8 9 5 3 4 7 6 
0 
FIELD FieldData 5
gid 1 10 double
0 0 0 0 0 0 0 0 0 
0 
a 3 10 double
0.000689837 0.000935792 0.000429084 -0.000416671 0.000318699 0.000169877 -3.14894e-07 1.02238e-07 4.9682e-08 
8.74232e-08 -1.53305e-07 -7.4214e-08 7.019e-06 -7.22335e-06 -3.26524e-06 0.000264203 -0.000139795 -6.05512e-05 
3.06267e-05 -0.000100217 -4.67887e-05 -7.37263e-07 -9.79064e-08 -3.24766e-08 -1.2272e-07 -3.38702e-06 -1.39499e-06 
0 0 0 
v 3 10 double
0.0183627 -0.00907229 -0.00674465 0.0131184 0.0141412 0.00554207 0.00104668 0.00279613 0.00111849 
-0.00195217 -0.0019386 -1.63312e-05 -0.00580279 -0.00435921 -0.00172716 -0.00909955 -0.0137743 -0.00596474 
-0.0130274 -0.00241714 -0.000762378 -0.000584333 0.00343282 0.00151168 -0.00593835 7.36273e-05 0.000287595 
0 0 0 
mass 1 10 double
0.0552605 0.814805 17.1471 0.00219382 317.832 1 0.107448 14.536 95.162 
332965 
r 3 10 double
-0.276215 -0.374691 -0.171805 0.56211 -0.429938 -0.229173 28.4124 -9.21856 -4.48006 
-18.2441 31.9952 15.4882 -3.55776 3.66283 1.65569 -0.866444 0.458476 0.198586 
-0.43525 1.42371 0.664688 20.0578 2.66683 0.884897 0.295651 8.43855 3.47594 
0 0 0 
