# vtk DataFile Version 4.0
vtk output
ASCII
DATASET POLYDATA
FIELD FieldData 4
domain 1 4 string
domain_min:-1|-1|-1
domain_max:1|1|1
cell_size:1000|1000|1000
boundary:0|0|0

variables 1 7 string
T:113228
dt:1
E:0.0115755
P:-1.02285
write_case:1
all_steps:113460
substeps:366

constants 1 1 string
gamma:9.16324e-10

equations 1 6 string
eq0:T=(T+dt)#true
eq1:r=verlet_r(r,v,a,dt)#true
eq2:a=(nbody(mass,gamma)/mass)#neq(id,0)
eq3:v=verlet_v(v,a,dt)#true
eq4:E=(fsum(((magnitude(v)^2)*mass))/2)#true
eq5:P=fsum((-(((gamma*mass)*332965)/if(eq(0,magnitude(r)),((gamma*mass)*332965),magnitude(r)))))#true

POINTS 10 float
-3.88726 -28.1711 -11.4344 -16.7857 -7.46886 -3.034 -7.79799 -5.94361 -2.11987 
-0.713698 -0.121461 -0.00978568 0.158941 -0.396016 -0.228177 0.536259 -1.19067 -0.560363 
43.0108 2.70911 -12.1273 -0.822367 0.520882 0.225455 0.641874 4.7003 1.998 
0 0 0 
VERTICES 20 20
1 0 
1 1 
1 2 
1 3 
1 4 
1 5 
1 6 
1 7 
1 8 
1 9 

POINT_DATA 10
SCALARS id double
LOOKUP_TABLE default
8 7 6 2 1 4 9 3 5 
0 
FIELD FieldData 5
gid 1 10 double
0 0 0 0 0 0 0 0 0 
0 
a 3 10 double
4.11832e-08 2.98848e-07 1.21303e-07 7.94694e-07 3.53422e-07 1.43603e-07 2.35765e-06 1.79749e-06 6.41124e-07 
0.000573721 9.76487e-05 7.87051e-06 -0.000427984 0.00106637 0.000614422 -5.70217e-05 0.00012661 5.95865e-05 
-1.46418e-07 -9.21333e-09 4.12868e-08 0.000251501 -0.000159288 -6.89452e-05 -1.43614e-06 -1.05148e-05 -4.46959e-06 
0 0 0 
v 3 10 double
0.00311846 -0.000320809 -0.000208882 0.00168849 -0.00344306 -0.00153155 0.00319506 -0.0039973 -0.00179251 
0.00295185 -0.0185353 -0.00854379 0.0217182 0.00493757 0.000408258 0.0136958 0.00613335 0.00245388 
0.000534093 0.0023081 0.000559516 -0.0102876 -0.0130715 -0.00565538 -0.00766277 0.00114974 0.000677759 
0 0 0 
mass 1 10 double
17.1471 14.536 95.162 0.814805 0.0552605 0.107448 0.00219382 1 317.832 
332965 
r 3 10 double
-3.88726 -28.1711 -11.4344 -16.7857 -7.46886 -3.034 -7.79799 -5.94361 -2.11987 
-0.713698 -0.121461 -0.00978568 0.158941 -0.396016 -0.228177 0.536259 -1.19067 -0.560363 
43.0108 2.70911 -12.1273 -0.822367 0.520882 0.225456 0.641874 4.7003 1.998 
0 0 0 
