# vtk DataFile Version 4.0
vtk output
ASCII
DATASET POLYDATA
FIELD FieldData 4
domain 1 4 string
domain_min:-1|-1|-1
domain_max:1|1|1
cell_size:1000|1000|1000
boundary:0|0|0

variables 1 7 string
T:166919
dt:1
E:0.0103943
P:-1.02166
write_case:1
all_steps:167262
substeps:366

constants 1 1 string
gamma:9.16324e-10

equations 1 6 string
eq0:T=(T+dt)#true
eq1:r=verlet_r(r,v,a,dt)#true
eq2:a=(nbody(mass,gamma)/mass)#neq(id,0)
eq3:v=verlet_v(v,a,dt)#true
eq4:E=(fsum(((magnitude(v)^2)*mass))/2)#true
eq5:P=fsum((-(((gamma*mass)*332965)/if(eq(0,magnitude(r)),((gamma*mass)*332965),magnitude(r)))))#true

POINTS 10 float
-21.7127 -20.3288 -7.78079 -9.12204 -3.69646 -1.13202 -4.63278 -2.77407 -1.07632 
1.3636 -0.232357 -0.141974 -5.77315 16.5008 7.30604 -30.874 1.4873 9.77833 
-0.76991 0.583714 0.252447 -0.606031 0.338828 0.191057 0.095383 0.346759 0.175831 
0 0 0 
VERTICES 20 20
1 0 
1 1 
1 2 
1 3 
1 4 
1 5 
1 6 
1 7 
1 8 
1 9 

POINT_DATA 10
SCALARS id double
LOOKUP_TABLE default
8 6 5 4 7 9 3 2 1 
0 
FIELD FieldData 5
gid 1 10 double
0 0 0 0 0 0 0 0 0 
0 
a 3 10 double
2.28365e-07 2.13882e-07 8.18649e-08 2.87551e-06 1.16252e-06 3.55328e-07 8.46376e-06 5.06965e-06 1.96726e-06 
-0.000154746 2.63649e-05 1.611e-05 2.58976e-07 -7.40961e-07 -3.28065e-07 2.76916e-07 -1.34047e-08 -8.77641e-08 
0.000235884 -0.000178854 -7.73501e-05 0.000495114 -0.000276821 -0.000156095 -0.000453635 -0.00164913 -0.000836222 
0 0 0 
v 3 10 double
0.00221572 -0.00202904 -0.000885656 0.0018543 -0.00474019 -0.00204343 0.00401982 -0.00553093 -0.00246551 
0.00333125 0.0138026 0.00624688 -0.00381216 -0.00130079 -0.000516025 0.0001024 -0.00317357 -0.00102196 
-0.0114941 -0.0122099 -0.00527717 -0.0113251 -0.0160846 -0.00654813 -0.0274446 -0.00138033 0.00207069 
0 0 0 
mass 1 10 double
17.1471 95.162 317.832 0.107448 14.536 0.00219382 1 0.814805 0.0552605 
332965 
r 3 10 double
-21.7127 -20.3288 -7.78079 -9.12204 -3.69646 -1.13202 -4.63278 -2.77407 -1.07632 
1.3636 -0.232357 -0.141974 -5.77315 16.5008 7.30604 -30.874 1.4873 9.77833 
-0.76991 0.583714 0.252447 -0.606031 0.338828 0.191057 0.095383 0.346759 0.175831 
0 0 0 
