# vtk DataFile Version 4.0
vtk output
ASCII
DATASET POLYDATA
FIELD FieldData 4
domain 1 4 string
domain_min:-1|-1|-1
domain_max:1|1|1
cell_size:1000|1000|1000
boundary:0|0|0

variables 1 7 string
T:315211
dt:1
E:0.0114612
P:-1.02273
write_case:1
all_steps:315858
substeps:366

constants 1 1 string
gamma:9.16324e-10

equations 1 6 string
eq0:T=(T+dt)#true
eq1:r=verlet_r(r,v,a,dt)#true
eq2:a=(nbody(mass,gamma)/mass)#neq(id,0)
eq3:v=verlet_v(v,a,dt)#true
eq4:E=(fsum(((magnitude(v)^2)*mass))/2)#true
eq5:P=fsum((-(((gamma*mass)*332965)/if(eq(0,magnitude(r)),((gamma*mass)*332965),magnitude(r)))))#true

POINTS 10 float
-0.26555 -1.33363 -0.60545 0.303327 -0.116974 -0.0934017 0.82924 -4.7724 -2.06198 
-0.601851 0.729386 0.314701 0.282341 0.607304 0.257288 1.63646 8.28904 3.36639 
13.2899 13.6404 5.78514 25.2943 15.0646 5.53649 23.5943 42.1404 6.04702 
0 0 0 
VERTICES 20 20
1 0 
1 1 
1 2 
1 3 
1 4 
1 5 
1 6 
1 7 
1 8 
1 9 

POINT_DATA 10
SCALARS id double
LOOKUP_TABLE default
4 1 5 3 2 6 7 8 9 
0 
FIELD FieldData 5
gid 1 10 double
0 0 0 0 0 0 0 0 0 
0 
a 3 10 double
2.45721e-05 0.00012336 5.60043e-05 -0.00239133 0.000922178 0.000736347 -1.73397e-06 9.97995e-06 4.31198e-06 
0.000185501 -0.000224811 -9.69972e-05 -0.000233265 -0.000501751 -0.00021257 -6.63657e-07 -3.36292e-06 -1.36578e-06 
-5.14886e-07 -5.28428e-07 -2.24129e-07 -2.87513e-07 -1.71195e-07 -6.2912e-08 -6.25071e-08 -1.11674e-07 -1.60203e-08 
0 0 0 
v 3 10 double
0.0144957 -0.00100711 -0.000823677 0.00798585 0.0278473 0.0141241 0.00744213 0.00150257 0.000465291 
-0.0142564 -0.00949966 -0.00409283 -0.019094 0.00702083 0.00437164 -0.00587989 0.00085353 0.00061414 
-0.0029775 0.00224246 0.00102313 -0.00173216 0.00249061 0.0010626 -0.00190482 0.00074431 0.000807472 
0 0 0 
mass 1 10 double
0.107448 0.0552605 317.832 1 0.814805 95.162 14.536 17.1471 0.00219382 
332965 
r 3 10 double
-0.26555 -1.33363 -0.60545 0.303327 -0.116974 -0.0934017 0.82924 -4.7724 -2.06198 
-0.601851 0.729386 0.314701 0.282341 0.607304 0.257288 1.63646 8.28904 3.36639 
13.2899 13.6404 5.78514 25.2943 15.0646 5.53649 23.5943 42.1404 6.04702 
0 0 0 
