# vtk DataFile Version 4.0
vtk output
ASCII
DATASET POLYDATA
FIELD FieldData 4
domain 1 4 string
domain_min:-1|-1|-1
domain_max:1|1|1
cell_size:1000|1000|1000
boundary:0|0|0

variables 1 7 string
T:331647
dt:1
E:0.0102547
P:-1.02153
write_case:1
all_steps:332328
substeps:366

constants 1 1 string
gamma:9.16324e-10

equations 1 6 string
eq0:T=(T+dt)#true
eq1:r=verlet_r(r,v,a,dt)#true
eq2:a=(nbody(mass,gamma)/mass)#neq(id,0)
eq3:v=verlet_v(v,a,dt)#true
eq4:E=(fsum(((magnitude(v)^2)*mass))/2)#true
eq5:P=fsum((-(((gamma*mass)*332965)/if(eq(0,magnitude(r)),((gamma*mass)*332965),magnitude(r)))))#true

POINTS 10 float
-6.32456 -16.5731 -7.16591 -0.564308 -9.51368 -3.92297 -4.87663 -2.40224 -0.911549 
-1.01637 -1.09407 -0.476913 -12.2215 37.0376 15.2633 -20.5987 20.378 8.85428 
-0.58354 0.742374 0.320221 -0.301508 0.591098 0.286508 0.251751 0.292855 0.131639 
0 0 0 
VERTICES 20 20
1 0 
1 1 
1 2 
1 3 
1 4 
1 5 
1 6 
1 7 
1 8 
1 9 

POINT_DATA 10
SCALARS id double
LOOKUP_TABLE default
7 6 5 4 9 8 3 2 1 
0 
FIELD FieldData 5
gid 1 10 double
0 0 0 0 0 0 0 0 0 
0 
a 3 10 double
2.7623e-07 7.23887e-07 3.13023e-07 1.55372e-07 2.65445e-06 1.09459e-06 8.88475e-06 4.37547e-06 1.66026e-06 
8.04796e-05 8.66436e-05 3.77691e-05 5.0773e-08 -1.54026e-07 -6.34734e-08 2.26185e-07 -2.23864e-07 -9.72677e-08 
0.000179605 -0.000228503 -9.85634e-05 0.000243627 -0.000477657 -0.000231523 -0.00113087 -0.0013155 -0.000591319 
0 0 0 
v 3 10 double
0.00373096 -0.00135473 -0.000644951 0.00525653 -0.000206002 -0.000318373 0.00345648 -0.00583654 -0.00257969 
0.0113461 -0.00706846 -0.00352585 -0.00215095 -0.00148682 0.000184648 -0.00235965 -0.00199128 -0.000756321 
-0.0144909 -0.00918364 -0.00395515 -0.0188643 -0.00804959 -0.00246728 -0.0163595 0.0182317 0.0114308 
0 0 0 
mass 1 10 double
14.536 95.162 317.832 0.107448 0.00219382 17.1471 1 0.814805 0.0552605 
332965 
r 3 10 double
-6.32456 -16.5731 -7.16591 -0.564308 -9.51368 -3.92297 -4.87663 -2.40224 -0.911549 
-1.01637 -1.09407 -0.476913 -12.2215 37.0376 15.2633 -20.5987 20.378 8.85428 
-0.58354 0.742374 0.320221 -0.301508 0.591098 0.286508 0.251751 0.292855 0.131639 
0 0 0 
