# vtk DataFile Version 4.0
vtk output
ASCII
DATASET POLYDATA
FIELD FieldData 4
domain 1 4 string
domain_min:-1|-1|-1
domain_max:1|1|1
cell_size:1000|1000|1000
boundary:0|0|0

variables 1 7 string
T:97887
dt:1
E:0.0108663
P:-1.02214
write_case:1
all_steps:98088
substeps:366

constants 1 1 string
gamma:9.16324e-10

equations 1 6 string
eq0:T=(T+dt)#true
eq1:r=verlet_r(r,v,a,dt)#true
eq2:a=(nbody(mass,gamma)/mass)#neq(id,0)
eq3:v=verlet_v(v,a,dt)#true
eq4:E=(fsum(((magnitude(v)^2)*mass))/2)#true
eq5:P=fsum((-(((gamma*mass)*332965)/if(eq(0,magnitude(r)),((gamma*mass)*332965),magnitude(r)))))#true

POINTS 10 float
-2.70889 -4.34715 -1.79687 0.164782 -0.267679 -0.160113 16.585 -27.6388 -13.6314 
-1.67517 0.0266307 0.0564289 -30.3265 3.27676 2.09558 -0.837916 0.499222 0.216132 
-0.0627776 0.652485 0.29808 4.5081 7.4477 2.88452 18.9858 6.35922 2.51707 
0 0 0 
VERTICES 20 20
1 0 
1 1 
1 2 
1 3 
1 4 
1 5 
1 6 
1 7 
1 8 
1 9 

POINT_DATA 10
SCALARS id double
LOOKUP_TABLE default
5 1 9 4 8 3 2 6 7 
0 
FIELD FieldData 5
gid 1 10 double
0 0 0 0 0 0 0 0 0 
0 
a 3 10 double
5.16783e-06 8.29323e-06 3.42796e-06 -0.00114528 0.00186043 0.00111282 -1.18236e-07 1.9699e-07 9.71572e-08 
0.000108498 -1.73474e-06 -3.65911e-06 3.24135e-07 -3.50615e-08 -2.24149e-08 0.000256404 -0.000152771 -6.61403e-05 
5.12926e-05 -0.000533166 -0.00024357 -1.78366e-06 -2.94681e-06 -1.14132e-06 -7.05715e-07 -2.36273e-07 -9.35233e-08 
0 0 0 
v 3 10 double
0.00651847 -0.00310829 -0.00148944 0.0298418 0.00848294 0.00146539 0.00286566 0.00112299 -0.000513752 
0.000179706 -0.0117023 -0.00537351 -0.000424478 -0.00289216 -0.00117328 -0.00989816 -0.0133252 -0.00576682 
-0.0205986 -0.00234589 0.000241581 -0.00523061 0.00248439 0.00125444 -0.00137871 0.00324654 0.0014412 
0 0 0 
mass 1 10 double
317.832 0.0552605 0.00219382 0.107448 17.1471 1 0.814805 95.162 14.536 
332965 
r 3 10 double
-2.70889 -4.34715 -1.79687 0.164782 -0.267679 -0.160113 16.585 -27.6388 -13.6314 
-1.67517 0.0266307 0.0564289 -30.3265 3.27676 2.09558 -0.837916 0.499222 0.216132 
-0.0627776 0.652485 0.29808 4.5081 7.4477 2.88452 18.9858 6.35922 2.51707 
0 0 0 
