# vtk DataFile Version 4.0
vtk output
ASCII
DATASET POLYDATA
FIELD FieldData 4
domain 1 4 string
domain_min:-1|-1|-1
domain_max:1|1|1
cell_size:1000|1000|1000
boundary:0|0|0

variables 1 7 string
T:86929.5
dt:1
E:0.0121424
P:-1.02341
write_case:1
all_steps:87108
substeps:366

constants 1 1 string
gamma:9.16324e-10

equations 1 6 string
eq0:T=(T+dt)#true
eq1:r=verlet_r(r,v,a,dt)#true
eq2:a=(nbody(mass,gamma)/mass)#neq(id,0)
eq3:v=verlet_v(v,a,dt)#true
eq4:E=(fsum(((magnitude(v)^2)*mass))/2)#true
eq5:P=fsum((-(((gamma*mass)*332965)/if(eq(0,magnitude(r)),((gamma*mass)*332965),magnitude(r)))))#true

POINTS 10 float
-3.53206 -17.4243 -7.58093 -17.0783 -24.5648 -2.51816 -1.58942 -0.405763 -0.144089 
-0.715216 -0.0973536 0.00124865 -8.97391 26.5888 11.1067 -0.846564 0.487031 0.210887 
0.31598 0.251875 0.102131 2.65504 3.98772 1.64414 5.07701 7.17687 2.74778 
0 0 0 
VERTICES 20 20
1 0 
1 1 
1 2 
1 3 
1 4 
1 5 
1 6 
1 7 
1 8 
1 9 

POINT_DATA 10
SCALARS id double
LOOKUP_TABLE default
7 9 4 2 8 3 1 5 6 
0 
FIELD FieldData 5
gid 1 10 double
0 0 0 0 0 0 0 0 0 
0 
a 3 10 double
1.49424e-07 7.36888e-07 3.206e-07 1.92737e-07 2.77192e-07 2.84091e-08 0.000108607 2.77308e-05 9.84766e-06 
0.000580251 7.89914e-05 -1.00921e-06 9.98453e-08 -2.95544e-07 -1.23456e-07 0.000258942 -0.000148959 -6.45e-05 
-0.00133153 -0.00106138 -0.000430372 -6.23125e-06 -9.3595e-06 -3.85919e-06 -1.99232e-06 -2.81536e-06 -1.07743e-06 
0 0 0 
v 3 10 double
0.00387606 -0.000815661 -0.000411896 0.00268961 -0.00185957 -0.00139176 0.00428658 -0.0112353 -0.00526778 
0.00225037 -0.0186923 -0.00856609 -0.00305552 -0.000875133 -0.000282217 -0.0096468 -0.0134762 -0.00583337 
-0.0116541 0.0204108 0.0121154 -0.00658938 0.00395364 0.00185347 -0.00500388 0.00279414 0.00137249 
0 0 0 
mass 1 10 double
14.536 0.00219382 0.107448 0.814805 17.1471 1 0.0552605 317.832 95.162 
332965 
r 3 10 double
-3.53206 -17.4243 -7.58093 -17.0783 -24.5648 -2.51816 -1.58942 -0.405763 -0.144089 
-0.715216 -0.0973536 0.00124865 -8.97391 26.5888 11.1067 -0.846564 0.487031 0.210887 
0.31598 0.251875 0.102131 2.65504 3.98772 1.64414 5.07701 7.17687 2.74778 
0 0 0 
