# vtk DataFile Version 4.0
vtk output
ASCII
DATASET POLYDATA
FIELD FieldData 4
domain 1 4 string
domain_min:-1|-1|-1
domain_max:1|1|1
cell_size:1000|1000|1000
boundary:0|0|0

variables 1 7 string
T:50769.8
dt:1
E:0.0112286
P:-1.0225
write_case:1
all_steps:50874
substeps:366

constants 1 1 string
gamma:9.16324e-10

equations 1 6 string
eq0:T=(T+dt)#true
eq1:r=verlet_r(r,v,a,dt)#true
eq2:a=(nbody(mass,gamma)/mass)#neq(id,0)
eq3:v=verlet_v(v,a,dt)#true
eq4:E=(fsum(((magnitude(v)^2)*mass))/2)#true
eq5:P=fsum((-(((gamma*mass)*332965)/if(eq(0,magnitude(r)),((gamma*mass)*332965),magnitude(r)))))#true

POINTS 10 float
-10.9727 -26.6087 -10.6189 -18.1496 -3.56185 -1.30358 -0.467177 -0.520713 -0.204987 
-0.0543461 -0.386175 -0.200793 1.56734 -4.57376 -1.99802 1.31652 -0.392633 -0.215255 
4.38061 -8.45548 -3.68406 -0.879467 0.434804 0.188373 15.5088 44.1506 9.10308 
0 0 0 
VERTICES 20 20
1 0 
1 1 
1 2 
1 3 
1 4 
1 5 
1 6 
1 7 
1 8 
1 9 

POINT_DATA 10
SCALARS id double
LOOKUP_TABLE default
8 7 2 1 5 4 6 3 9 
0 
FIELD FieldData 5
gid 1 10 double
0 0 0 0 0 0 0 0 0 
0 
a 3 10 double
1.16217e-07 2.81621e-07 1.12384e-07 8.69611e-07 1.70389e-07 6.23426e-08 0.000367945 0.000410094 0.000161439 
0.000196472 0.00139608 0.0007259 -3.33822e-06 9.74419e-06 4.25671e-06 -0.000149377 4.4536e-05 2.44178e-05 
-1.26181e-06 2.43202e-06 1.05963e-06 0.000269139 -0.000133067 -5.76496e-05 -4.3712e-08 -1.24466e-07 -2.56662e-08 
0 0 0 
v 3 10 double
0.00293533 -0.00100136 -0.000482866 0.000778611 -0.00372718 -0.00164336 0.0154305 -0.0118904 -0.00632962 
0.0233626 -0.0066834 -0.00598633 0.00718086 0.00250268 0.000898176 0.00511856 0.0133622 0.00599293 
0.00473578 0.0023012 0.000746344 -0.0086876 -0.0140162 -0.0060712 -0.00212028 0.000272011 0.000724316 
0 0 0 
mass 1 10 double
17.1471 14.536 0.814805 0.0552605 317.832 0.107448 95.162 1 0.00219382 
332965 
r 3 10 double
-10.9727 -26.6087 -10.6189 -18.1496 -3.56185 -1.30358 -0.467177 -0.520713 -0.204987 
-0.0543461 -0.386175 -0.200793 1.56734 -4.57376 -1.99802 1.31652 -0.392633 -0.215255 
4.38061 -8.45548 -3.68406 -0.879467 0.434804 0.188373 15.5088 44.1506 9.10308 
0 0 0 
