# vtk DataFile Version 4.0
vtk output
ASCII
DATASET POLYDATA
FIELD FieldData 4
domain 1 4 string
domain_min:-1|-1|-1
domain_max:1|1|1
cell_size:1000|1000|1000
boundary:0|0|0

variables 1 7 string
T:217689
dt:1
E:0.0113576
P:-1.02263
write_case:1
all_steps:218136
substeps:366

constants 1 1 string
gamma:9.16324e-10

equations 1 6 string
eq0:T=(T+dt)#true
eq1:r=verlet_r(r,v,a,dt)#true
eq2:a=(nbody(mass,gamma)/mass)#neq(id,0)
eq3:v=verlet_v(v,a,dt)#true
eq4:E=(fsum(((magnitude(v)^2)*mass))/2)#true
eq5:P=fsum((-(((gamma*mass)*332965)/if(eq(0,magnitude(r)),((gamma*mass)*332965),magnitude(r)))))#true

POINTS 10 float
-0.282424 -0.13289 -0.0423831 0.618693 -1.14999 -0.543546 19.8894 -3.58171 -1.84672 
36.4998 32.9059 -0.733393 -2.1862 4.41049 1.94072 -0.71382 0.641016 0.277008 
-30.1299 4.518 2.59919 -0.187222 0.627442 0.295253 1.22095 8.3701 3.41429 
0 0 0 
VERTICES 20 20
1 0 
1 1 
1 2 
1 3 
1 4 
1 5 
1 6 
1 7 
1 8 
1 9 

POINT_DATA 10
SCALARS id double
LOOKUP_TABLE default
1 4 7 9 5 3 8 2 6 
0 
FIELD FieldData 5
gid 1 10 double
0 0 0 0 0 0 0 0 0 
0 
a 3 10 double
0.00275712 0.00129733 0.000413764 -6.67065e-05 0.000123991 5.86047e-05 -7.26727e-07 1.3102e-07 6.75399e-08 
-9.39473e-08 -8.46754e-08 1.89616e-09 4.50424e-06 -9.08109e-06 -3.99604e-06 0.000218713 -0.000196394 -8.48693e-05 
3.22012e-07 -4.82077e-08 -2.77456e-08 0.000154141 -0.000516595 -0.000243092 -4.97008e-07 -3.37191e-06 -1.37519e-06 
0 0 0 
v 3 10 double
0.0187911 -0.0243782 -0.0149724 0.0133221 0.00690755 0.00282887 0.000758807 0.00340326 0.00147943 
-0.00127495 0.00153128 0.00086305 -0.00703812 -0.00262074 -0.000953021 -0.012553 -0.0113004 -0.00487907 
-0.000566732 -0.00287232 -0.0011616 -0.0200461 -0.00536977 -0.00116819 -0.00589843 0.000603633 0.000509059 
0 0 0 
mass 1 10 double
0.0552605 0.107448 14.536 0.00219382 317.832 1 17.1471 0.814805 95.162 
332965 
r 3 10 double
-0.282424 -0.13289 -0.0423831 0.618693 -1.14999 -0.543546 19.8894 -3.58171 -1.84672 
36.4998 32.9059 -0.733393 -2.1862 4.41049 1.94072 -0.71382 0.641016 0.277008 
-30.1299 4.518 2.59919 -0.187222 0.627442 0.295253 1.22095 8.3701 3.41429 
0 0 0 
