# vtk DataFile Version 4.0
vtk output
ASCII
DATASET POLYDATA
FIELD FieldData 4
domain 1 4 string
domain_min:-1|-1|-1
domain_max:1|1|1
cell_size:1000|1000|1000
boundary:0|0|0

variables 1 7 string
T:156692
dt:1
E:0.0114299
P:-1.0227
write_case:1
all_steps:157014
substeps:366

constants 1 1 string
gamma:9.16324e-10

equations 1 6 string
eq0:T=(T+dt)#true
eq1:r=verlet_r(r,v,a,dt)#true
eq2:a=(nbody(mass,gamma)/mass)#neq(id,0)
eq3:v=verlet_v(v,a,dt)#true
eq4:E=(fsum(((magnitude(v)^2)*mass))/2)#true
eq5:P=fsum((-(((gamma*mass)*332965)/if(eq(0,magnitude(r)),((gamma*mass)*332965),magnitude(r)))))#true

POINTS 10 float
-7.41899 -6.39071 -2.32164 -0.264255 -0.150247 -0.0533393 0.603226 -0.378739 -0.208879 
20.1213 -2.33395 -1.30474 -29.5044 7.02212 3.60841 -0.779087 0.573803 0.248197 
-20.4121 29.6808 15.4262 -0.0946027 4.76257 2.04199 1.13983 0.842936 0.357124 
0 0 0 
VERTICES 20 20
1 0 
1 1 
1 2 
1 3 
1 4 
1 5 
1 6 
1 7 
1 8 
1 9 

POINT_DATA 10
SCALARS id double
LOOKUP_TABLE default
6 1 2 7 8 3 9 5 4 
0 
FIELD FieldData 5
gid 1 10 double
0 0 0 0 0 0 0 0 0 
0 
a 3 10 double
2.22181e-06 1.91439e-06 6.95502e-07 0.00274268 0.00155941 0.000553609 -0.000450044 0.000282569 0.000155839 
-7.34757e-07 8.53341e-08 4.76914e-08 3.16396e-07 -7.52874e-08 -3.86875e-08 0.00023848 -0.00017563 -7.59682e-05 
1.0365e-07 -1.50728e-07 -7.8341e-08 2.07112e-07 -1.04383e-05 -4.4755e-06 -0.000111304 -8.22971e-05 -3.48664e-05 
0 0 0 
v 3 10 double
0.00345479 -0.00378427 -0.00171724 0.0206413 -0.0237729 -0.0148378 0.0115224 0.0152863 0.00617371 
0.000494294 0.00344207 0.00150021 -0.000845613 -0.00281867 -0.0011327 -0.0112876 -0.012365 -0.00534525 
-0.00184285 -0.00211293 -0.000103823 -0.00772078 0.000146152 0.000248711 -0.00825137 0.0110918 0.00530376 
0 0 0 
mass 1 10 double
95.162 0.0552605 0.814805 14.536 17.1471 1 0.00219382 317.832 0.107448 
332965 
r 3 10 double
-7.41899 -6.39071 -2.32164 -0.264255 -0.150247 -0.0533393 0.603226 -0.378739 -0.208879 
20.1213 -2.33395 -1.30474 -29.5044 7.02212 3.60841 -0.779087 0.573803 0.248197 
-20.4121 29.6808 15.4262 -0.0946027 4.76257 2.04199 1.13983 0.842936 0.357124 
0 0 0 
