# vtk DataFile Version 4.0
vtk output
ASCII
DATASET POLYDATA
FIELD FieldData 4
domain 1 4 string
domain_min:-1|-1|-1
domain_max:1|1|1
cell_size:1000|1000|1000
boundary:0|0|0

variables 1 7 string
T:33968.2
dt:1
E:0.0122139
P:-1.02349
write_case:1
all_steps:34038
substeps:366

constants 1 1 string
gamma:9.16324e-10

equations 1 6 string
eq0:T=(T+dt)#true
eq1:r=verlet_r(r,v,a,dt)#true
eq2:a=(nbody(mass,gamma)/mass)#neq(id,0)
eq3:v=verlet_v(v,a,dt)#true
eq4:E=(fsum(((magnitude(v)^2)*mass))/2)#true
eq5:P=fsum((-(((gamma*mass)*332965)/if(eq(0,magnitude(r)),((gamma*mass)*332965),magnitude(r)))))#true

POINTS 10 float
0.546306 -0.446976 -0.235759 20.1002 -2.3713 -1.32256 4.58172 -1.90769 -0.928948 
41.4537 24.5741 -4.83131 -0.327347 -0.0101479 0.0284417 -26.4104 13.7567 6.28768 
-1.82892 8.23795 3.48272 -0.892722 0.411958 0.17852 -1.67032 0.128182 0.103579 
0 0 0 
VERTICES 20 20
1 0 
1 1 
1 2 
1 3 
1 4 
1 5 
1 6 
1 7 
1 8 
1 9 

POINT_DATA 10
SCALARS id double
LOOKUP_TABLE default
2 7 5 9 1 8 6 3 4 
0 
FIELD FieldData 5
gid 1 10 double
0 0 0 0 0 0 0 0 0 
0 
a 3 10 double
-0.000404405 0.000330882 0.000174525 -7.36305e-07 8.68054e-08 4.84185e-08 -1.08598e-05 4.52201e-06 2.20197e-06 
-1.11493e-07 -6.61034e-08 1.29962e-08 0.00281133 8.71502e-05 -0.000244265 2.86166e-07 -1.49016e-07 -6.81116e-08 
7.34353e-07 -3.30514e-06 -1.39732e-06 0.000272981 -0.00012597 -5.45884e-05 0.000107787 -8.27161e-06 -6.68403e-06 
0 0 0 
v 3 10 double
0.0136538 0.0137061 0.00530727 0.000494389 0.00344447 0.00150159 0.00311184 0.00672657 0.00280723 
-0.00078143 0.0018967 0.00082763 0.00537176 -0.0285067 -0.0157895 -0.00160165 -0.00253924 -0.000999564 
-0.00583976 -0.00112219 -0.000211748 -0.0082418 -0.0142356 -0.00616814 -0.000758881 -0.0116753 -0.00533523 
0 0 0 
mass 1 10 double
0.814805 14.536 317.832 0.00219382 0.0552605 17.1471 95.162 1 0.107448 
332965 
r 3 10 double
0.546306 -0.446976 -0.235759 20.1002 -2.3713 -1.32256 4.58172 -1.90769 -0.928948 
41.4537 24.5741 -4.83131 -0.327347 -0.0101479 0.0284417 -26.4104 13.7567 6.28768 
-1.82892 8.23795 3.48272 -0.892722 0.411958 0.17852 -1.67032 0.128182 0.103579 
0 0 0 
