# vtk DataFile Version 4.0
vtk output
ASCII
DATASET POLYDATA
FIELD FieldData 4
domain 1 4 string
domain_min:-1|-1|-1
domain_max:1|1|1
cell_size:1000|1000|1000
boundary:0|0|0

variables 1 7 string
T:175685
dt:1
E:0.0106317
P:-1.0219
write_case:1
all_steps:176046
substeps:366

constants 1 1 string
gamma:9.16324e-10

equations 1 6 string
eq0:T=(T+dt)#true
eq1:r=verlet_r(r,v,a,dt)#true
eq2:a=(nbody(mass,gamma)/mass)#neq(id,0)
eq3:v=verlet_v(v,a,dt)#true
eq4:E=(fsum(((magnitude(v)^2)*mass))/2)#true
eq5:P=fsum((-(((gamma*mass)*332965)/if(eq(0,magnitude(r)),((gamma*mass)*332965),magnitude(r)))))#true

POINTS 10 float
-14.5013 -10.9578 -4.59426 -18.8611 -23.2382 -1.56776 -4.24093 -3.24548 -1.28771 
-0.588586 -1.27943 -0.57184 0.320875 -0.321096 -0.204717 3.40225 -28.1174 -11.5937 
-6.26401 6.19142 2.83758 -0.760634 0.593707 0.256733 -0.611211 0.33197 0.1883 
0 0 0 
VERTICES 20 20
1 0 
1 1 
1 2 
1 3 
1 4 
1 5 
1 6 
1 7 
1 8 
1 9 

POINT_DATA 10
SCALARS id double
LOOKUP_TABLE default
7 9 5 4 1 8 6 3 2 
0 
FIELD FieldData 5
gid 1 10 double
0 0 0 0 0 0 0 0 0 
0 
a 3 10 double
6.72857e-07 5.0852e-07 2.13218e-07 2.14131e-07 2.63904e-07 1.77587e-08 7.80528e-06 5.97401e-06 2.37034e-06 
5.11221e-05 0.000111151 4.96796e-05 -0.000792835 0.000793368 0.000505818 -3.63463e-08 2.99698e-07 1.23576e-07 
2.41271e-06 -2.38667e-06 -1.09378e-06 0.000233129 -0.000181983 -7.86925e-05 0.000498398 -0.000270703 -0.000153549 
0 0 0 
v 3 10 double
0.00248951 -0.00297428 -0.00133726 0.0025505 -0.00204443 -0.00140803 0.00475094 -0.00503211 -0.00226926 
0.0136203 -0.00369046 -0.00204574 0.0162703 0.012964 0.00527506 0.003123 0.000379274 7.75386e-05 
-0.00446526 -0.00359162 -0.00129193 -0.0116825 -0.0120612 -0.005212 -0.0111141 -0.0161893 -0.00661018 
0 0 0 
mass 1 10 double
14.536 0.00219382 317.832 0.107448 0.0552605 17.1471 95.162 1 0.814805 
332965 
r 3 10 double
-14.5013 -10.9578 -4.59426 -18.8611 -23.2382 -1.56776 -4.24094 -3.24548 -1.28771 
-0.588586 -1.27943 -0.57184 0.320875 -0.321096 -0.204717 3.40225 -28.1174 -11.5937 
-6.26401 6.19142 2.83758 -0.760634 0.593707 0.256733 -0.611211 0.33197 0.1883 
0 0 0 
