# vtk DataFile Version 4.0
vtk output
ASCII
DATASET POLYDATA
FIELD FieldData 4
domain 1 4 string
domain_min:-1|-1|-1
domain_max:1|1|1
cell_size:1000|1000|1000
boundary:0|0|0

variables 1 7 string
T:298044
dt:1
E:0.0113073
P:-1.02258
write_case:1
all_steps:298656
substeps:366

constants 1 1 string
gamma:9.16324e-10

equations 1 6 string
eq0:T=(T+dt)#true
eq1:r=verlet_r(r,v,a,dt)#true
eq2:a=(nbody(mass,gamma)/mass)#neq(id,0)
eq3:v=verlet_v(v,a,dt)#true
eq4:E=(fsum(((magnitude(v)^2)*mass))/2)#true
eq5:P=fsum((-(((gamma*mass)*332965)/if(eq(0,magnitude(r)),((gamma*mass)*332965),magnitude(r)))))#true

POINTS 10 float
-15.3333 -9.84476 -4.09522 -5.87444 -7.75513 -2.95733 -0.0691544 -1.33638 -0.611586 
0.244749 -0.632062 -0.301351 0.348812 -0.297209 -0.194668 9.79226 -26.7124 -11.1778 
2.10858 -4.36024 -1.91629 43.7572 15.7829 -8.27383 -0.622234 0.714711 0.308454 
0 0 0 
VERTICES 20 20
1 0 
1 1 
1 2 
1 3 
1 4 
1 5 
1 6 
1 7 
1 8 
1 9 

POINT_DATA 10
SCALARS id double
LOOKUP_TABLE default
7 6 4 2 1 8 5 9 3 
0 
FIELD FieldData 5
gid 1 10 double
0 0 0 0 0 0 0 0 0 
0 
a 3 10 double
7.19876e-07 4.61539e-07 1.92011e-07 1.70809e-06 2.25193e-06 8.58633e-07 6.63455e-06 0.000128004 5.85804e-05 
-0.000182959 0.000472492 0.000225273 -0.000862238 0.000734665 0.000481199 -1.0483e-07 2.85849e-07 1.19613e-07 
-4.55376e-06 9.41381e-06 4.13735e-06 -1.26737e-07 -4.57337e-08 2.39564e-08 0.000191822 -0.000220334 -9.50917e-05 
0 0 0 
v 3 10 double
0.00224642 -0.00314925 -0.00140997 0.00425276 -0.00291647 -0.00139763 0.0147018 0.000684585 -5.41173e-05 
0.0188906 0.0066975 0.00184954 0.0154817 0.0137023 0.00577755 0.00297154 0.000992972 0.000332467 
0.00687051 0.00323084 0.00121839 -0.000262333 0.00214133 0.000748243 -0.0139865 -0.00983326 -0.00423825 
0 0 0 
mass 1 10 double
14.536 95.162 0.107448 0.814805 0.0552605 17.1471 317.832 0.00219382 1 
332965 
r 3 10 double
-15.3333 -9.84476 -4.09522 -5.87444 -7.75513 -2.95733 -0.0691544 -1.33638 -0.611586 
0.244749 -0.632062 -0.301351 0.348812 -0.297209 -0.194667 9.79226 -26.7124 -11.1778 
2.10858 -4.36024 -1.91629 43.7572 15.7829 -8.27383 -0.622234 0.714711 0.308454 
0 0 0 
