# vtk DataFile Version 4.0
vtk output
ASCII
DATASET POLYDATA
FIELD FieldData 4
domain 1 4 string
domain_min:-1|-1|-1
domain_max:1|1|1
cell_size:1000|1000|1000
boundary:0|0|0

variables 1 7 string
T:242526
dt:1
E:0.0122259
P:-1.0235
write_case:1
all_steps:243024
substeps:366

constants 1 1 string
gamma:9.16324e-10

equations 1 6 string
eq0:T=(T+dt)#true
eq1:r=verlet_r(r,v,a,dt)#true
eq2:a=(nbody(mass,gamma)/mass)#neq(id,0)
eq3:v=verlet_v(v,a,dt)#true
eq4:E=(fsum(((magnitude(v)^2)*mass))/2)#true
eq5:P=fsum((-(((gamma*mass)*332965)/if(eq(0,magnitude(r)),((gamma*mass)*332965),magnitude(r)))))#true

POINTS 10 float
-9.48242 -2.43279 -0.591276 0.205294 -0.646323 -0.30505 5.06295 -17.4247 -7.69981 
1.39758 -0.0329202 -0.0506439 21.8946 -19.2733 -8.4339 -0.6852 0.665282 0.287378 
-13.0524 36.4609 15.3287 0.0751817 0.265024 0.134341 4.91259 0.855647 0.24851 
0 0 0 
VERTICES 20 20
1 0 
1 1 
1 2 
1 3 
1 4 
1 5 
1 6 
1 7 
1 8 
1 9 

POINT_DATA 10
SCALARS id double
LOOKUP_TABLE default
6 2 7 4 8 3 9 1 5 
0 
FIELD FieldData 5
gid 1 10 double
0 0 0 0 0 0 0 0 0 
0 
a 3 10 double
3.06832e-06 7.87134e-07 1.91306e-07 -0.000152329 0.000479612 0.000226366 -2.01765e-07 6.94948e-07 3.0709e-07 
-0.000155748 3.67421e-06 5.64626e-06 -2.3896e-07 2.10366e-07 9.20543e-08 0.000210743 -0.00020461 -8.8384e-05 
5.51924e-08 -1.54152e-07 -6.48079e-08 -0.000796698 -0.00280849 -0.00142363 -1.20436e-05 -2.09776e-06 -6.09267e-07 
0 0 0 
v 3 10 double
0.00107548 -0.00501252 -0.00212474 0.0192353 0.00559802 0.00132471 0.00381377 0.000782601 0.000289253 
0.00110604 0.0139986 0.00639586 0.0021659 0.00216286 0.000831389 -0.0130353 -0.0108595 -0.00468624 
-0.00213009 -0.00154622 0.000159679 -0.0344065 0.00351139 0.00538147 -0.00144649 0.00723065 0.00312994 
0 0 0 
mass 1 10 double
95.162 0.814805 14.536 0.107448 17.1471 1 0.00219382 0.0552605 317.832 
332965 
r 3 10 double
-9.48242 -2.43279 -0.591276 0.205294 -0.646323 -0.30505 5.06295 -17.4247 -7.69981 
1.39758 -0.0329202 -0.0506439 21.8946 -19.2733 -8.4339 -0.6852 0.665282 0.287378 
-13.0524 36.4609 15.3287 0.0751817 0.265024 0.134341 4.91259 0.855647 0.24851 
0 0 0 
