# vtk DataFile Version 4.0
vtk output
ASCII
DATASET POLYDATA
FIELD FieldData 4
domain 1 4 string
domain_min:-1|-1|-1
domain_max:1|1|1
cell_size:1000|1000|1000
boundary:0|0|0

variables 1 7 string
T:167284
dt:1
E:0.0105857
P:-1.02186
write_case:1
all_steps:167628
substeps:366

constants 1 1 string
gamma:9.16324e-10

equations 1 6 string
eq0:T=(T+dt)#true
eq1:r=verlet_r(r,v,a,dt)#true
eq2:a=(nbody(mass,gamma)/mass)#neq(id,0)
eq3:v=verlet_v(v,a,dt)#true
eq4:E=(fsum(((magnitude(v)^2)*mass))/2)#true
eq5:P=fsum((-(((gamma*mass)*332965)/if(eq(0,magnitude(r)),((gamma*mass)*332965),magnitude(r)))))#true

POINTS 10 float
-20.8884 -21.0555 -8.09874 -8.26033 -5.33951 -1.8499 -2.66565 -4.37712 -1.81023 
-30.8181 0.327483 9.39925 -7.14682 15.9766 7.09581 -1.67213 0.145779 0.110252 
-0.769267 0.583906 0.252528 0.722865 0.123056 0.0100837 0.0336602 0.3364 0.176606 
0 0 0 
VERTICES 20 20
1 0 
1 1 
1 2 
1 3 
1 4 
1 5 
1 6 
1 7 
1 8 
1 9 

POINT_DATA 10
SCALARS id double
LOOKUP_TABLE default
8 6 5 9 7 4 3 2 1 
0 
FIELD FieldData 5
gid 1 10 double
0 0 0 0 0 0 0 0 0 
0 
a 3 10 double
2.19738e-07 2.21499e-07 8.51966e-08 2.52291e-06 1.62661e-06 5.63078e-07 5.06253e-06 8.31688e-06 3.43975e-06 
2.81498e-07 -3.06724e-09 -8.59093e-08 3.23804e-07 -7.24299e-07 -3.21681e-07 0.000107191 -9.35603e-06 -7.07235e-06 
0.000235944 -0.000179103 -7.74584e-05 -0.000559248 -9.52084e-05 -7.80378e-06 -0.000185071 -0.00184955 -0.000970992 
0 0 0 
v 3 10 double
0.00229756 -0.00194951 -0.000855143 0.00284266 -0.00422842 -0.00187482 0.00654427 -0.00304847 -0.00146319 
0.000204392 -0.00317659 -0.00105369 -0.00370571 -0.00156854 -0.000634753 -0.000922177 -0.0116398 -0.00531693 
-0.011506 -0.012208 -0.00527631 -0.00359088 0.0181812 0.00843269 -0.028419 -0.00521324 0.000118885 
0 0 0 
mass 1 10 double
17.1471 95.162 317.832 0.00219382 14.536 0.107448 1 0.814805 0.0552605 
332965 
r 3 10 double
-20.8884 -21.0555 -8.09874 -8.26033 -5.33951 -1.8499 -2.66565 -4.37712 -1.81023 
-30.8181 0.327483 9.39925 -7.14682 15.9766 7.09581 -1.67213 0.145779 0.110252 
-0.769267 0.583906 0.252528 0.722865 0.123056 0.0100837 0.0336602 0.3364 0.176606 
0 0 0 
