# vtk DataFile Version 4.0
vtk output
ASCII
DATASET POLYDATA
FIELD FieldData 4
domain 1 4 string
domain_min:-1|-1|-1
domain_max:1|1|1
cell_size:1000|1000|1000
boundary:0|0|0

variables 1 7 string
T:323612
dt:1
E:0.0108915
P:-1.02216
write_case:1
all_steps:324276
substeps:366

constants 1 1 string
gamma:9.16324e-10

equations 1 6 string
eq0:T=(T+dt)#true
eq1:r=verlet_r(r,v,a,dt)#true
eq2:a=(nbody(mass,gamma)/mass)#neq(id,0)
eq3:v=verlet_v(v,a,dt)#true
eq4:E=(fsum(((magnitude(v)^2)*mass))/2)#true
eq5:P=fsum((-(((gamma*mass)*332965)/if(eq(0,magnitude(r)),((gamma*mass)*332965),magnitude(r)))))#true

POINTS 10 float
-1.2053 -4.82175 -2.03439 -0.676928 -0.288307 -0.088255 1.38877 -0.103551 -0.0820752 
9.61468 -0.954215 -0.821435 -0.487508 -0.0617585 0.0161623 -0.592263 0.735935 0.317483 
-15.8801 8.68582 4.02352 3.11772 27.645 11.2383 5.85597 44.1415 12.0263 
0 0 0 
VERTICES 20 20
1 0 
1 1 
1 2 
1 3 
1 4 
1 5 
1 6 
1 7 
1 8 
1 9 

POINT_DATA 10
SCALARS id double
LOOKUP_TABLE default
5 2 4 6 1 3 7 8 9 
0 
FIELD FieldData 5
gid 1 10 double
0 0 0 0 0 0 0 0 0 
0 
a 3 10 double
2.37487e-06 9.49853e-06 4.00758e-06 0.000507533 0.000216151 6.61658e-05 -0.000156073 1.16298e-05 9.22053e-06 
-3.21945e-06 3.18602e-07 2.74659e-07 0.00125143 0.00015852 -4.14949e-05 0.000182569 -0.000226865 -9.78694e-05 
7.60613e-07 -4.16164e-07 -1.92775e-07 -3.52378e-08 -3.1256e-07 -1.27063e-07 -1.82336e-08 -1.37458e-07 -3.74396e-08 
0 0 0 
v 3 10 double
0.0073304 -0.00118042 -0.000680037 0.00789147 -0.0166973 -0.00805325 0.0018795 0.0139709 0.00636532 
0.000364174 0.00517624 0.00213165 0.00400471 -0.0187358 -0.0104522 -0.0143819 -0.00934044 -0.00402341 
-0.0020709 -0.00330183 -0.00141636 -0.00318878 0.000303551 0.000203663 -0.00225661 -0.000304118 0.00058613 
0 0 0 
mass 1 10 double
317.832 0.814805 0.107448 95.162 0.0552605 1 14.536 17.1471 0.00219382 
332965 
r 3 10 double
-1.2053 -4.82175 -2.03439 -0.676928 -0.288307 -0.088255 1.38877 -0.103551 -0.0820752 
9.61468 -0.954215 -0.821435 -0.487508 -0.0617585 0.0161623 -0.592263 0.735935 0.317483 
-15.8801 8.68582 4.02352 3.11772 27.645 11.2383 5.85597 44.1415 12.0263 
0 0 0 
