# vtk DataFile Version 4.0
vtk output
ASCII
DATASET POLYDATA
FIELD FieldData 4
domain 1 4 string
domain_min:-1|-1|-1
domain_max:1|1|1
cell_size:1000|1000|1000
boundary:0|0|0

variables 1 7 string
T:241430
dt:1
E:0.0112396
P:-1.02251
write_case:1
all_steps:241926
substeps:366

constants 1 1 string
gamma:9.16324e-10

equations 1 6 string
eq0:T=(T+dt)#true
eq1:r=verlet_r(r,v,a,dt)#true
eq2:a=(nbody(mass,gamma)/mass)#neq(id,0)
eq3:v=verlet_v(v,a,dt)#true
eq4:E=(fsum(((magnitude(v)^2)*mass))/2)#true
eq5:P=fsum((-(((gamma*mass)*332965)/if(eq(0,magnitude(r)),((gamma*mass)*332965),magnitude(r)))))#true

POINTS 10 float
0.635371 -0.324546 -0.186548 0.360635 -4.84985 -2.08474 0.795943 -17.8555 -7.82869 
19.3834 -21.5121 -9.28778 -10.6877 38.0627 15.1156 -1.33706 0.920441 0.4564 
-8.73203 3.16504 1.69576 -0.687928 0.662794 0.28631 0.282885 0.189739 0.0728652 
0 0 0 
VERTICES 20 20
1 0 
1 1 
1 2 
1 3 
1 4 
1 5 
1 6 
1 7 
1 8 
1 9 

POINT_DATA 10
SCALARS id double
LOOKUP_TABLE default
2 5 7 8 9 4 6 3 1 
0 
FIELD FieldData 5
gid 1 10 double
0 0 0 0 0 0 0 0 0 
0 
a 3 10 double
-0.000483377 0.000246896 0.000141917 -7.43119e-07 9.98887e-06 4.2938e-06 -3.27427e-08 7.34717e-07 3.2214e-07 
-2.10685e-07 2.33709e-07 1.00903e-07 4.30401e-08 -1.53336e-07 -6.08929e-08 8.50922e-05 -5.8583e-05 -2.90481e-05 
3.16684e-06 -1.14855e-06 -6.15292e-07 0.000211629 -0.000203904 -8.80809e-05 -0.00204213 -0.00136972 -0.000526013 
0 0 0 
v 3 10 double
0.00992548 0.0163058 0.0067488 0.00751386 0.000884379 0.000198445 0.00394363 -3.57164e-06 -5.67718e-05 
0.00241252 0.00191925 0.000725538 -0.00218382 -0.0013777 0.000228539 -0.00803526 -0.00912475 -0.00398302 
-0.00246514 -0.00484899 -0.00190127 -0.0130016 -0.0108954 -0.00470187 -0.023167 0.0176258 0.0118005 
0 0 0 
mass 1 10 double
0.814805 317.832 14.536 17.1471 0.00219382 0.107448 95.162 1 0.0552605 
332965 
r 3 10 double
0.635371 -0.324546 -0.186548 0.360635 -4.84985 -2.08474 0.795943 -17.8555 -7.82869 
19.3834 -21.5121 -9.28778 -10.6877 38.0627 15.1156 -1.33706 0.920441 0.4564 
-8.73203 3.16504 1.69576 -0.687928 0.662794 0.286309 0.282885 0.189739 0.0728652 
0 0 0 
