# vtk DataFile Version 4.0
vtk output
ASCII
DATASET POLYDATA
FIELD FieldData 4
domain 1 4 string
domain_min:-1|-1|-1
domain_max:1|1|1
cell_size:1000|1000|1000
boundary:0|0|0

variables 1 7 string
T:349179
dt:1
E:0.010648
P:-1.02192
write_case:1
all_steps:349896
substeps:366

constants 1 1 string
gamma:9.16324e-10

equations 1 6 string
eq0:T=(T+dt)#true
eq1:r=verlet_r(r,v,a,dt)#true
eq2:a=(nbody(mass,gamma)/mass)#neq(id,0)
eq3:v=verlet_v(v,a,dt)#true
eq4:E=(fsum(((magnitude(v)^2)*mass))/2)#true
eq5:P=fsum((-(((gamma*mass)*332965)/if(eq(0,magnitude(r)),((gamma*mass)*332965),magnitude(r)))))#true

POINTS 10 float
-17.1892 -23.7861 -9.30823 -4.0961 -3.39058 -1.35299 -29.0728 -8.62457 6.07939 
-0.562725 0.755821 0.325928 -6.33615 6.11343 2.81895 -0.317831 0.584988 0.284835 
0.25175 0.357056 0.166135 0.365063 1.37565 0.62238 1.3921 17.6584 7.70952 
0 0 0 
VERTICES 20 20
1 0 
1 1 
1 2 
1 3 
1 4 
1 5 
1 6 
1 7 
1 8 
1 9 

POINT_DATA 10
SCALARS id double
LOOKUP_TABLE default
8 5 9 3 6 2 1 4 7 
0 
FIELD FieldData 5
gid 1 10 double
0 0 0 0 0 0 0 0 0 
0 
a 3 10 double
1.79965e-07 2.49107e-07 9.74839e-08 7.56589e-06 6.26357e-06 2.49947e-06 3.00324e-07 8.90767e-08 -6.28402e-08 
0.000173206 -0.000232651 -0.000100324 2.44725e-06 -2.36295e-06 -1.08952e-06 0.000255374 -0.000470058 -0.000228876 
-0.000752214 -0.00106685 -0.000496395 -2.97206e-05 -0.000111977 -5.06611e-05 -5.92495e-08 -7.48097e-07 -3.26606e-07 
0 0 0 
v 3 10 double
0.00259624 -0.00159104 -0.000715914 0.0049793 -0.00485378 -0.00219511 0.00104178 -0.00305654 -0.00126975 
-0.0147397 -0.00884419 -0.00380733 -0.00443396 -0.0036335 -0.00131151 -0.0186332 -0.00842197 -0.00265259 
-0.0214351 0.00686367 0.00584358 -0.0131649 0.00406371 0.00219042 -0.00398189 7.05678e-05 8.63132e-05 
0 0 0 
mass 1 10 double
17.1471 317.832 0.00219382 1 95.162 0.814805 0.0552605 0.107448 14.536 
332965 
r 3 10 double
-17.1892 -23.7861 -9.30823 -4.0961 -3.39058 -1.35299 -29.0728 -8.62457 6.07939 
-0.562725 0.755821 0.325928 -6.33615 6.11343 2.81895 -0.317831 0.584988 0.284835 
0.25175 0.357056 0.166135 0.365063 1.37565 0.62238 1.3921 17.6584 7.70952 
0 0 0 
