# vtk DataFile Version 4.0
vtk output
ASCII
DATASET POLYDATA
FIELD FieldData 4
domain 1 4 string
domain_min:-1|-1|-1
domain_max:1|1|1
cell_size:1000|1000|1000
boundary:0|0|0

variables 1 7 string
T:102270
dt:1
E:0.0106032
P:-1.02187
write_case:1
all_steps:102480
substeps:366

constants 1 1 string
gamma:9.16324e-10

equations 1 6 string
eq0:T=(T+dt)#true
eq1:r=verlet_r(r,v,a,dt)#true
eq2:a=(nbody(mass,gamma)/mass)#neq(id,0)
eq3:v=verlet_v(v,a,dt)#true
eq4:E=(fsum(((magnitude(v)^2)*mass))/2)#true
eq5:P=fsum((-(((gamma*mass)*332965)/if(eq(0,magnitude(r)),((gamma*mass)*332965),magnitude(r)))))#true

POINTS 10 float
-29.0758 -9.30183 -3.08426 -8.22253 -5.38259 -1.86944 -2.40755 -4.48929 -1.86492 
0.099948 -0.668076 -0.307476 0.996042 -0.878712 -0.429387 27.8582 -21.0899 -14.9871 
-0.834142 0.50449 0.2184 0.474725 0.147112 0.0298327 7.11817 16.6924 7.2096 
0 0 0 
VERTICES 20 20
1 0 
1 1 
1 2 
1 3 
1 4 
1 5 
1 6 
1 7 
1 8 
1 9 

POINT_DATA 10
SCALARS id double
LOOKUP_TABLE default
8 6 5 2 4 9 3 1 7 
0 
FIELD FieldData 5
gid 1 10 double
0 0 0 0 0 0 0 0 0 
0 
a 3 10 double
3.07694e-07 9.8359e-08 3.26074e-08 2.51414e-06 1.64165e-06 5.6973e-07 4.59885e-06 8.57965e-06 3.56428e-06 
-7.45944e-05 0.000498548 0.000229453 -0.000111731 9.8554e-05 4.81597e-05 -1.54889e-07 1.17207e-07 8.33006e-08 
0.000255262 -0.000154393 -6.68385e-05 -0.00117351 -0.000363664 -7.37489e-05 -2.91953e-07 -6.84555e-07 -2.95663e-07 
0 0 0 
v 3 10 double
0.000983221 -0.00274974 -0.00114999 0.00287623 -0.00421205 -0.00186714 0.00673216 -0.00271901 -0.00132772 
0.0199259 0.00275862 -1.27947e-05 0.0104816 0.0104294 0.00450853 0.00225198 0.00180679 -0.000115168 
-0.0100014 -0.0132606 -0.00573843 -0.00612761 0.0178725 0.0101888 -0.00373359 0.00113665 0.000550432 
0 0 0 
mass 1 10 double
17.1471 95.162 317.832 0.814805 0.107448 0.00219382 1 0.0552605 14.536 
332965 
r 3 10 double
-29.0758 -9.30183 -3.08426 -8.22253 -5.38259 -1.86944 -2.40755 -4.48929 -1.86492 
0.099948 -0.668076 -0.307476 0.996042 -0.878712 -0.429387 27.8582 -21.0899 -14.9871 
-0.834142 0.50449 0.2184 0.474725 0.147112 0.0298327 7.11817 16.6924 7.2096 
0 0 0 
