# vtk DataFile Version 4.0
vtk output
ASCII
DATASET POLYDATA
FIELD FieldData 4
domain 1 4 string
domain_min:-1|-1|-1
domain_max:1|1|1
cell_size:1000|1000|1000
boundary:0|0|0

variables 1 7 string
T:100809
dt:1
E:0.0109312
P:-1.0222
write_case:1
all_steps:101016
substeps:366

constants 1 1 string
gamma:9.16324e-10

equations 1 6 string
eq0:T=(T+dt)#true
eq1:r=verlet_r(r,v,a,dt)#true
eq2:a=(nbody(mass,gamma)/mass)#neq(id,0)
eq3:v=verlet_v(v,a,dt)#true
eq4:E=(fsum(((magnitude(v)^2)*mass))/2)#true
eq5:P=fsum((-(((gamma*mass)*332965)/if(eq(0,magnitude(r)),((gamma*mass)*332965),magnitude(r)))))#true

POINTS 10 float
-30.1788 -5.19464 -1.37565 -0.173732 -1.33551 -0.608133 24.4052 -23.5958 -14.728 
0.476865 0.00263709 -0.0476607 -9.30854 1.81043 1.15269 -3.58858 3.63925 1.64601 
-0.835044 0.504595 0.218451 -0.0661138 0.65256 0.29834 12.19 14.3397 6.1078 
0 0 0 
VERTICES 20 20
1 0 
1 1 
1 2 
1 3 
1 4 
1 5 
1 6 
1 7 
1 8 
1 9 

POINT_DATA 10
SCALARS id double
LOOKUP_TABLE default
8 4 9 1 6 5 3 2 7 
0 
FIELD FieldData 5
gid 1 10 double
0 0 0 0 0 0 0 0 0 
0 
a 3 10 double
3.20197e-07 5.51995e-08 1.46326e-08 1.64227e-05 0.000126286 5.7505e-05 -1.47102e-07 1.42218e-07 8.87668e-08 
-0.0013218 -7.30295e-06 0.000132111 3.26556e-06 -6.31208e-07 -4.0278e-07 7.07027e-06 -7.17311e-06 -3.24422e-06 
0.000254905 -0.000154027 -6.66815e-05 5.39049e-05 -0.000532162 -0.000243296 -4.80806e-07 -5.65219e-07 -2.40741e-07 
0 0 0 
v 3 10 double
0.000523638 -0.00286218 -0.00118458 0.0146446 -0.000211526 -0.000483137 0.00247304 0.00161752 -0.00024092 
0.00425902 0.0197051 0.0101003 -0.00157869 -0.00507777 -0.00203147 -0.00576288 -0.00440104 -0.00174602 
-0.00997512 -0.0132624 -0.00573932 -0.0205773 -0.00242182 0.000205762 -0.00316338 0.00205477 0.000944451 
0 0 0 
mass 1 10 double
17.1471 0.107448 0.00219382 0.0552605 95.162 317.832 1 0.814805 14.536 
332965 
r 3 10 double
-30.1788 -5.19464 -1.37565 -0.173732 -1.33551 -0.608133 24.4052 -23.5958 -14.728 
0.476865 0.00263709 -0.0476607 -9.30854 1.81043 1.15269 -3.58858 3.63925 1.64601 
-0.835044 0.504595 0.218451 -0.0661138 0.65256 0.29834 12.19 14.3397 6.1078 
0 0 0 
