# vtk DataFile Version 4.0
vtk output
ASCII
DATASET POLYDATA
FIELD FieldData 4
domain 1 4 string
domain_min:-1|-1|-1
domain_max:1|1|1
cell_size:1000|1000|1000
boundary:0|0|0

variables 1 7 string
T:91677.8
dt:1
E:0.0113622
P:-1.02264
write_case:1
all_steps:91866
substeps:366

constants 1 1 string
gamma:9.16324e-10

equations 1 6 string
eq0:T=(T+dt)#true
eq1:r=verlet_r(r,v,a,dt)#true
eq2:a=(nbody(mass,gamma)/mass)#neq(id,0)
eq3:v=verlet_v(v,a,dt)#true
eq4:E=(fsum(((magnitude(v)^2)*mass))/2)#true
eq5:P=fsum((-(((gamma*mass)*332965)/if(eq(0,magnitude(r)),((gamma*mass)*332965),magnitude(r)))))#true

POINTS 10 float
-2.75175 -30.0734 -8.55906 -7.38181 -6.42348 -2.33626 -0.441205 -0.542523 -0.216694 
13.744 -13.3689 -6.04865 -21.7936 19.3579 8.46574 -1.64666 0.314146 0.187634 
-0.843095 0.492777 0.213361 -0.398583 4.76015 2.04904 -0.15547 0.390707 0.224951 
0 0 0 
VERTICES 20 20
1 0 
1 1 
1 2 
1 3 
1 4 
1 5 
1 6 
1 7 
1 8 
1 9 

POINT_DATA 10
SCALARS id double
LOOKUP_TABLE default
9 6 2 7 8 4 3 5 1 
0 
FIELD FieldData 5
gid 1 10 double
0 0 0 0 0 0 0 0 0 
0 
a 3 10 double
2.71514e-08 2.97066e-07 8.4546e-08 2.21273e-06 1.92601e-06 7.00537e-07 0.000343085 0.00042188 0.000168507 
-5.16452e-07 5.02341e-07 2.27282e-07 2.38132e-07 -2.11486e-07 -9.24881e-08 0.000104678 -1.99597e-05 -1.19234e-05 
0.000257557 -0.000150527 -6.51745e-05 8.65774e-07 -1.03429e-05 -4.45218e-06 0.000437351 -0.00109909 -0.000632809 
0 0 0 
v 3 10 double
0.00321218 -0.000445517 -0.00110795 0.00347997 -0.00376697 -0.00170882 0.0160113 -0.0111092 -0.00601706 
0.00286897 0.00233261 0.000981065 -0.00223442 -0.00210358 -0.000805471 -0.00244999 -0.0114339 -0.00518075 
-0.00975413 -0.013404 -0.00580156 -0.00769936 -0.000263303 7.35718e-05 -0.0199264 -0.0102858 -0.00344849 
0 0 0 
mass 1 10 double
0.00219382 95.162 0.814805 14.536 17.1471 0.107448 1 317.832 0.0552605 
332965 
r 3 10 double
-2.75175 -30.0734 -8.55906 -7.38181 -6.42348 -2.33626 -0.441205 -0.542523 -0.216694 
13.744 -13.3689 -6.04865 -21.7936 19.3579 8.46574 -1.64666 0.314146 0.187634 
-0.843095 0.492777 0.213361 -0.398583 4.76015 2.04904 -0.15547 0.390707 0.224951 
0 0 0 
