# vtk DataFile Version 4.0
vtk output
ASCII
DATASET POLYDATA
FIELD FieldData 4
domain 1 4 string
domain_min:-1|-1|-1
domain_max:1|1|1
cell_size:1000|1000|1000
boundary:0|0|0

variables 1 7 string
T:25202.2
dt:1
E:0.0119827
P:-1.02326
write_case:1
all_steps:25254
substeps:366

constants 1 1 string
gamma:9.16324e-10

equations 1 6 string
eq0:T=(T+dt)#true
eq1:r=verlet_r(r,v,a,dt)#true
eq2:a=(nbody(mass,gamma)/mass)#neq(id,0)
eq3:v=verlet_v(v,a,dt)#true
eq4:E=(fsum(((magnitude(v)^2)*mass))/2)#true
eq5:P=fsum((-(((gamma*mass)*332965)/if(eq(0,magnitude(r)),((gamma*mass)*332965),magnitude(r)))))#true

POINTS 10 float
-4.96284 -17.085 -7.41264 -0.372592 -1.32283 -0.596768 4.2337 -2.5255 -1.1853 
0.541394 -0.451646 -0.237525 43.6241 5.93713 -11.3025 -9.57922 0.492365 0.616543 
-3.91734 27.6173 11.402 -0.900071 0.398625 0.172764 0.357902 0.127462 0.031057 
0 0 0 
VERTICES 20 20
1 0 
1 1 
1 2 
1 3 
1 4 
1 5 
1 6 
1 7 
1 8 
1 9 

POINT_DATA 10
SCALARS id double
LOOKUP_TABLE default
7 4 5 2 9 6 8 3 1 
0 
FIELD FieldData 5
gid 1 10 double
0 0 0 0 0 0 0 0 0 
0 
a 3 10 double
2.11874e-07 7.28961e-07 3.16273e-07 3.38106e-05 0.000119996 5.41338e-05 -9.91071e-06 5.91178e-06 2.77459e-06 
-0.000401107 0.000334617 0.000175979 -1.41927e-07 -1.93265e-08 3.67703e-08 3.29283e-06 -1.69494e-07 -2.12033e-07 
4.37217e-08 -3.08258e-07 -1.27266e-07 0.000275084 -0.000121831 -5.28016e-05 -0.00197147 -0.000702126 -0.000171079 
0 0 0 
v 3 10 double
0.00380619 -0.00108505 -0.00052903 0.0142775 -0.001917 -0.00126292 0.00409987 0.0062353 0.00257267 
0.0138063 0.0135862 0.00524231 0.000330826 0.00228758 0.000614194 -0.000731352 -0.00519972 -0.00211689 
-0.00317126 -0.000386367 -7.93057e-05 -0.00799212 -0.0143515 -0.00621934 -0.00268725 0.0252718 0.0137821 
0 0 0 
mass 1 10 double
14.536 0.107448 317.832 0.814805 0.00219382 95.162 17.1471 1 0.0552605 
332965 
r 3 10 double
-4.96284 -17.085 -7.41264 -0.372592 -1.32283 -0.596768 4.2337 -2.5255 -1.1853 
0.541394 -0.451646 -0.237525 43.6241 5.93713 -11.3025 -9.57922 0.492365 0.616543 
-3.91734 27.6173 11.402 -0.900071 0.398625 0.172764 0.357902 0.127462 0.031057 
0 0 0 
