# vtk DataFile Version 4.0
vtk output
ASCII
DATASET POLYDATA
FIELD FieldData 4
domain 1 4 string
domain_min:-1|-1|-1
domain_max:1|1|1
cell_size:1000|1000|1000
boundary:0|0|0

variables 1 7 string
T:1826.25
dt:1
E:0.0105481
P:-1.02182
write_case:1
all_steps:1830
substeps:366

constants 1 1 string
gamma:9.16324e-10

equations 1 6 string
eq0:T=(T+dt)#true
eq1:r=verlet_r(r,v,a,dt)#true
eq2:a=(nbody(mass,gamma)/mass)#neq(id,0)
eq3:v=verlet_v(v,a,dt)#true
eq4:E=(fsum(((magnitude(v)^2)*mass))/2)#true
eq5:P=fsum((-(((gamma*mass)*332965)/if(eq(0,magnitude(r)),((gamma*mass)*332965),magnitude(r)))))#true

POINTS 10 float
-4.06946 -29.8697 -8.0947 -0.533081 -1.29296 -0.578652 -5.42296 -0.993081 -0.293655 
0.52757 -0.463226 -0.241794 18.6098 -7.23395 -3.43162 21.528 -19.6181 -8.5655 
-0.429446 -0.0463619 0.0197761 -3.92203 7.60573 3.3104 -0.919016 0.364093 0.157851 
0 0 0 
VERTICES 20 20
1 0 
1 1 
1 2 
1 3 
1 4 
1 5 
1 6 
1 7 
1 8 
1 9 

POINT_DATA 10
SCALARS id double
LOOKUP_TABLE default
9 4 5 2 7 8 1 6 3 
0 
FIELD FieldData 5
gid 1 10 double
0 0 0 0 0 0 0 0 0 
0 
a 3 10 double
4.08415e-08 3.0006e-07 8.13149e-08 4.68984e-05 0.000113781 5.09219e-05 9.83224e-06 1.80138e-06 5.32776e-07 
-0.000393161 0.000345202 0.000180188 -6.83381e-07 2.65541e-07 1.25973e-07 -2.34989e-07 2.14153e-07 9.35015e-08 
0.00162074 0.000174972 -7.46361e-05 1.54862e-06 -3.00709e-06 -1.30879e-06 0.000279514 -0.000110745 -4.80127e-05 
0 0 0 
v 3 10 double
0.00319753 -0.000569051 -0.00114188 0.0138231 -0.00323714 -0.00185827 0.00132743 -0.0065347 -0.00283329 
0.0142207 0.0132769 0.00507334 0.0015364 0.00318698 0.0013741 0.00220965 0.00212474 0.00081478 
-0.00412636 -0.0223032 -0.011486 -0.00540224 -0.00231271 -0.000722748 -0.0073213 -0.0146219 -0.00633918 
0 0 0 
mass 1 10 double
0.00219382 0.107448 317.832 0.814805 14.536 17.1471 0.0552605 95.162 1 
332965 
r 3 10 double
-4.06946 -29.8697 -8.0947 -0.533081 -1.29296 -0.578652 -5.42296 -0.993081 -0.293655 
0.52757 -0.463226 -0.241794 18.6098 -7.23395 -3.43162 21.528 -19.6181 -8.5655 
-0.429446 -0.0463619 0.0197761 -3.92203 7.60573 3.3104 -0.919016 0.364093 0.157851 
0 0 0 
