# vtk DataFile Version 4.0
vtk output
ASCII
DATASET POLYDATA
FIELD FieldData 5
domain 1 4 string
domain_min:0|0
domain_max:2|2
cell_size:2.5|2.5
boundary:0|1

variables 1 5 string
T:1.2
dt:0.02
write_case:1
substeps:1
all_steps:60

constants 1 5 string
L:5
c_s:2.5
dx:0.1
omega:0.3
eps:0.0833333

equations 1 4 string
initial_noise:r=(r+noise)#eq(T,0)
time:T=(T+dt)#true
velocity:v=dvm(w,eps)#true
integrate:r=euler(r,v,dt)#true

asymmetric 1 1 string
w

POINTS 450 float
0.39614 2.25513 0 0.956132 2.37976 0 0.353108 2.1738 0 
0.933166 2.39515 0 0.882355 2.20425 0 0.174748 2.38527 0 
0.962859 2.38866 0 0.31439 2.41834 0 1.10175 2.02302 0 
0.0229548 2.32705 0 1.48853 2.25278 0 1.00215 2.35076 0 
1.68805 2.32139 0 2.13137 2.3773 0 0.489232 2.39665 0 
1.31704 1.96759 0 1.29985 2.28436 0 1.04925 2.35849 0 
1.05472 2.32388 0 2.03031 2.25001 0 1.7183 2.33113 0 
1.16926 2.27607 0 1.39222 2.03357 0 1.22414 2.2413 0 
1.92484 2.02426 0 2.47183 2.42009 0 2.46138 2.29227 0 
1.00691 2.10159 0 1.88137 2.42003 0 2.12781 2.37914 0 
1.8971 2.34626 0 2.07257 2.39819 0 2.15213 2.3771 0 
2.05277 2.40877 0 2.09006 2.38977 0 2.0738 2.39451 0 
2.16138 2.07665 0 1.80702 2.35057 0 1.01972 2.34128 0 
1.76303 2.33321 0 1.13341 2.29082 0 0.500629 2.13621 0 
1.84147 2.38683 0 1.97264 2.43573 0 1.67012 2.03043 0 
0.612742 2.21389 0 0.761595 2.27935 0 1.0672 2.24188 0 
1.8964 1.94212 0 0.429706 2.40221 0 0.81012 2.19602 0 
1.95979 2.47086 0 1.95285 2.27543 0 0.864603 2.3351 0 
0.611566 2.39302 0 1.95326 2.49274 0 1.25842 2.23142 0 
1.59916 2.14736 0 0.0246652 2.39762 0 1.10084 2.3044 0 
1.09549 2.37848 0 1.67358 1.93441 0 1.8464 2.09623 0 
1.2872 2.22572 0 2.45006 1.91909 0 1.52728 2.46867 0 
1.33474 2.09506 0 1.71215 2.14099 0 0.818817 2.41229 0 
1.73649 2.49159 0 1.27325 2.32238 0 2.31952 2.42202 0 
2.43976 2.15468 0 0.867329 2.42399 0 1.28548 2.23383 0 
0.914074 2.0828 0 0.958276 2.40279 0 0.232569 2.18057 0 
1.05637 2.13634 0 1.57245 2.39777 0 1.52191 2.12616 0 
1.64716 2.33885 0 1.9936 2.42923 0 2.16727 2.42365 0 
0.829741 2.13389 0 2.39939 2.3836 0 1.98339 2.45072 0 
2.14427 2.32672 0 1.92093 2.43899 0 0.785732 2.34069 0 
2.01048 2.42282 0 1.82154 2.19004 0 2.1369 2.17196 0 
2.67876 2.15154 0 4.8784 2.25451 0 4.70887 2.35896 0 
4.67212 2.41612 0 4.7325 2.32823 0 4.71232 2.359 0 
4.69948 2.35648 0 4.40345 2.30709 0 4.37302 2.36109 0 
2.89459 2.31248 0 4.48843 2.12543 0 4.61646 2.27451 0 
4.88146 2.458 0 3.62562 1.90382 0 4.67872 2.35 0 
4.7043 2.35408 0 3.32367 2.27809 0 2.88647 2.43094 0 
2.91923 2.48755 0 2.56708 2.3598 0 2.87781 2.48522 0 
2.8926 2.42997 0 2.65546 2.34186 0 4.466 2.14362 0 
3.70374 2.04841 0 3.66747 2.39004 0 3.82759 1.99043 0 
3.50587 2.19142 0 2.86668 2.45015 0 3.54374 2.18313 0 
3.15436 2.49719 0 3.79773 1.91846 0 3.47034 2.25422 0 
3.62063 2.18086 0 4.16709 2.34758 0 3.58425 2.16626 0 
4.22745 2.0218 0 4.9165 2.176 0 2.52905 2.09347 0 
3.50931 2.48499 0 4.46265 2.43685 0 4.41143 1.96585 0 
2.85477 2.44276 0 4.52708 2.48317 0 3.48007 2.21001 0 
2.83639 2.43991 0 4.65301 2.22872 0 3.78045 2.36897 0 
3.59139 2.18286 0 3.80222 2.42562 0 4.5839 2.27933 0 
4.01987 2.21186 0 4.39788 2.4003 0 4.77811 2.13407 0 
2.83444 2.48961 0 3.44681 2.32339 0 2.65146 2.03898 0 
3.95598 1.79387 0 4.12355 2.22232 0 3.97841 1.90947 0 
3.24196 2.37146 0 4.62591 2.32587 0 3.00276 2.25611 0 
3.56986 2.1632 0 3.60957 2.18395 0 4.16921 2.40302 0 
3.54809 2.15745 0 3.47536 2.2216 0 3.19423 2.41904 0 
3.08887 2.22154 0 4.10201 2.0614 0 2.99067 2.26938 0 
3.4428 2.16918 0 3.59232 2.1727 0 3.61417 2.24812 0 
3.9169 2.15695 0 3.71422 2.12493 0 3.20205 2.24449 0 
4.60474 2.31721 0 4.24676 1.93116 0 2.88081 2.43222 0 
4.58274 2.33015 0 4.21256 2.12995 0 4.50327 2.28158 0 
4.66129 2.34453 0 3.38297 2.2121 0 3.52018 1.93066 0 
2.89442 2.34324 0 3.49508 1.98389 0 4.49497 2.18925 0 
2.85534 2.45989 0 3.90955 2.34847 0 2.95325 2.30525 0 
3.4789 2.22949 0 4.32518 2.29749 0 3.63395 2.19 0 
4.50354 2.22423 0 4.44426 2.25239 0 4.07288 2.29212 0 
2.61389 2.47405 0 2.77156 2.44663 0 2.92142 2.33531 0 
3.50635 2.1554 0 2.55696 2.13662 0 3.16343 2.45735 0 
2.89249 2.3622 0 3.46214 2.40858 0 2.84718 2.49251 0 
3.62512 2.18573 0 4.67614 2.34039 0 2.8519 2.40402 0 
2.84077 2.47523 0 3.40049 2.04957 0 3.54448 2.10337 0 
0.254489 2.66293 0 1.06936 2.98528 0 1.38262 2.52528 0 
2.0551 2.61522 0 0.510489 2.57897 0 0.376463 2.74767 0 
0.0808917 2.63864 0 1.46185 2.87965 0 0.877146 2.6141 0 
0.31388 2.83843 0 1.62902 2.77465 0 1.15399 2.83369 0 
2.46371 2.58893 0 0.0309253 2.75384 0 0.922476 2.78128 0 
0.375716 2.54414 0 1.18906 2.62131 0 0.42979 2.68036 0 
0.438926 2.68251 0 0.484658 2.68941 0 0.692053 2.98143 0 
1.20866 2.52484 0 1.31683 2.81911 0 2.32805 3.01639 0 
0.212255 2.62315 0 0.716675 2.58263 0 0.338493 2.89843 0 
0.168096 2.62579 0 0.121265 2.63285 0 1.85183 2.5703 0 
2.06595 2.83179 0 1.06506 2.74797 0 2.0974 2.9975 0 
1.86289 2.60901 0 1.02854 2.50315 0 1.85624 2.59954 0 
1.85142 2.58839 0 1.84798 2.57896 0 0.180215 2.62368 0 
2.41951 2.90213 0 2.20374 2.60791 0 2.21712 2.57795 0 
0.591346 2.67237 0 2.2039 2.60422 0 2.24399 2.73273 0 
2.20036 2.58893 0 2.48508 2.58792 0 2.43148 2.70249 0 
1.82335 2.53858 0 2.4381 2.58671 0 1.86599 2.61075 0 
1.83561 2.57794 0 1.7413 2.77037 0 1.84554 2.55901 0 
2.0801 2.62976 0 2.11185 2.65223 0 2.02644 2.58921 0 
2.40958 2.58387 0 1.85384 2.58035 0 0.0298481 2.64025 0 
1.77376 2.52049 0 0.902932 2.92178 0 0.272938 2.68082 0 
2.19972 2.59876 0 2.24784 2.57389 0 2.35433 2.87463 0 
2.19101 2.61277 0 2.13648 2.6552 0 0.410387 2.67552 0 
0.662536 2.92022 0 1.84591 2.58024 0 0.51109 2.72813 0 
2.35567 3.05866 0 0.0566114 2.63899 0 0.240431 2.64705 0 
0.723427 2.53589 0 0.459343 2.70423 0 0.152849 2.63046 0 
0.352977 2.73566 0 0.191181 2.61622 0 0.995902 2.63004 0 
0.296379 2.69852 0 2.00193 2.56806 0 0.509775 2.73189 0 
1.61128 2.52143 0 0.392118 2.67668 0 0.507249 2.72008 0 
0.13734 2.63122 0 0.400453 2.67445 0 0.372105 2.73404 0 
0.228867 2.63363 0 0.220595 2.62651 0 0.36865 2.6909 0 
0.00188475 2.63903 0 0.482751 2.72001 0 0.371376 2.72258 0 
0.325722 2.72124 0 2.15815 2.63232 0 0.595299 2.51048 0 
0.542862 2.50925 0 1.35655 2.6204 0 0.102598 2.63791 0 
0.36645 2.70426 0 0.460486 2.91163 0 0.624304 2.80821 0 
1.53173 2.70857 0 1.7151 2.58318 0 1.42277 2.63161 0 
0.419339 2.67414 0 1.0089 2.88363 0 0.201937 2.62146 0 
1.95337 2.89705 0 0.0460706 2.79385 0 1.72678 2.53694 0 
2.39639 2.79352 0 0.381875 2.67444 0 2.33223 2.58028 0 
1.97375 2.53271 0 0.770484 2.80514 0 1.52101 2.53058 0 
0.564968 2.94552 0 2.42066 2.95281 0 1.19464 2.90789 0 
1.5707 2.60133 0 1.14295 2.57432 0 0.213178 2.96257 0 
2.12034 2.86879 0 2.37335 2.58099 0 0.37262 2.67945 0 
2.28791 2.57553 0 1.65682 2.68781 0 3.37014 2.72581 0 
3.66731 2.687 0 3.77539 2.77163 0 3.71732 2.75107 0 
3.66808 2.67646 0 3.40558 2.60957 0 3.70815 2.73666 0 
4.84735 2.61473 0 4.80194 2.60143 0 4.82418 2.60878 0 
3.56925 2.59099 0 4.87051 2.62166 0 4.89445 2.6276 0 
3.8309 2.67658 0 4.03607 3.03598 0 2.52667 2.57668 0 
4.87577 2.75697 0 4.50307 2.90518 0 4.11292 2.59721 0 
3.02925 2.52025 0 3.92873 2.84583 0 3.78864 2.77626 0 
3.22364 2.64408 0 3.72366 2.72235 0 3.75949 2.7654 0 
4.28829 2.69564 0 3.76339 2.76996 0 3.73963 2.83331 0 
2.81807 2.95336 0 2.60114 2.54647 0 2.53866 2.78938 0 
4.54233 2.70087 0 3.71511 2.87396 0 3.27748 2.68619 0 
4.40616 3.10693 0 3.97573 2.93762 0 4.17307 2.72719 0 
4.36088 2.54141 0 3.78856 2.59555 0 2.61133 2.8856 0 
2.95285 2.74369 0 4.57796 2.52231 0 3.34428 2.5545 0 
2.90565 2.81633 0 3.59807 2.6361 0 3.04035 2.8869 0 
3.55122 2.9226 0 3.25895 2.76473 0 4.31836 2.7889 0 
4.36465 2.6494 0 3.19272 2.89429 0 3.82395 2.78308 0 
4.61884 2.5426 0 4.66011 2.56123 0 3.31753 2.67234 0 
3.11972 2.5778 0 3.34148 2.69696 0 3.40943 2.67575 0 
3.22734 2.63224 0 3.1792 2.57059 0 3.72585 2.70112 0 
3.98331 2.66727 0 3.99479 3.07353 0 4.69521 2.70991 0 
4.39739 2.93261 0 3.36246 2.66611 0 3.33696 2.67023 0 
4.40065 2.75285 0 4.76021 2.67309 0 4.69765 2.57538 0 
2.96498 2.50031 0 4.75509 2.59092 0 3.8355 2.81173 0 
4.14535 2.91764 0 3.93904 2.77071 0 4.39483 2.95783 0 
2.69764 2.81601 0 3.28075 2.6657 0 3.26888 2.66868 0 
4.77778 2.59409 0 4.6641 3.0817 0 4.94762 2.64055 0 
4.97416 2.64157 0 4.92007 2.63295 0 3.40849 2.9233 0 
2.93456 2.95824 0 2.81353 2.68343 0 2.50359 2.586 0 
3.66175 2.67281 0 3.71511 2.61538 0 3.68264 2.72683 0 
3.21544 2.79456 0 4.6088 2.92837 0 3.16498 2.54055 0 
2.66892 2.52167 0 4.2553 3.09446 0 3.21263 2.66185 0 
4.72939 2.58564 0 4.07328 2.75227 0 3.68659 2.69336 0 
3.66373 2.71119 0 4.75627 2.99833 0 3.6324 2.68087 0 
3.01278 2.61447 0 4.02791 2.50831 0 3.49288 2.77867 0 
2.92404 2.65441 0 3.34087 2.67382 0 2.5513 2.56524 0 
4.59192 2.82656 0 3.21142 2.64128 0 3.93262 2.50369 0 

VERTICES 900 900
1 0 
1 1 
1 2 
1 3 
1 4 
1 5 
1 6 
1 7 
1 8 
1 9 
1 10 
1 11 
1 12 
1 13 
1 14 
1 15 
1 16 
1 17 
1 18 
1 19 
1 20 
1 21 
1 22 
1 23 
1 24 
1 25 
1 26 
1 27 
1 28 
1 29 
1 30 
1 31 
1 32 
1 33 
1 34 
1 35 
1 36 
1 37 
1 38 
1 39 
1 40 
1 41 
1 42 
1 43 
1 44 
1 45 
1 46 
1 47 
1 48 
1 49 
1 50 
1 51 
1 52 
1 53 
1 54 
1 55 
1 56 
1 57 
1 58 
1 59 
1 60 
1 61 
1 62 
1 63 
1 64 
1 65 
1 66 
1 67 
1 68 
1 69 
1 70 
1 71 
1 72 
1 73 
1 74 
1 75 
1 76 
1 77 
1 78 
1 79 
1 80 
1 81 
1 82 
1 83 
1 84 
1 85 
1 86 
1 87 
1 88 
1 89 
1 90 
1 91 
1 92 
1 93 
1 94 
1 95 
1 96 
1 97 
1 98 
1 99 
1 100 
1 101 
1 102 
1 103 
1 104 
1 105 
1 106 
1 107 
1 108 
1 109 
1 110 
1 111 
1 112 
1 113 
1 114 
1 115 
1 116 
1 117 
1 118 
1 119 
1 120 
1 121 
1 122 
1 123 
1 124 
1 125 
1 126 
1 127 
1 128 
1 129 
1 130 
1 131 
1 132 
1 133 
1 134 
1 135 
1 136 
1 137 
1 138 
1 139 
1 140 
1 141 
1 142 
1 143 
1 144 
1 145 
1 146 
1 147 
1 148 
1 149 
1 150 
1 151 
1 152 
1 153 
1 154 
1 155 
1 156 
1 157 
1 158 
1 159 
1 160 
1 161 
1 162 
1 163 
1 164 
1 165 
1 166 
1 167 
1 168 
1 169 
1 170 
1 171 
1 172 
1 173 
1 174 
1 175 
1 176 
1 177 
1 178 
1 179 
1 180 
1 181 
1 182 
1 183 
1 184 
1 185 
1 186 
1 187 
1 188 
1 189 
1 190 
1 191 
1 192 
1 193 
1 194 
1 195 
1 196 
1 197 
1 198 
1 199 
1 200 
1 201 
1 202 
1 203 
1 204 
1 205 
1 206 
1 207 
1 208 
1 209 
1 210 
1 211 
1 212 
1 213 
1 214 
1 215 
1 216 
1 217 
1 218 
1 219 
1 220 
1 221 
1 222 
1 223 
1 224 
1 225 
1 226 
1 227 
1 228 
1 229 
1 230 
1 231 
1 232 
1 233 
1 234 
1 235 
1 236 
1 237 
1 238 
1 239 
1 240 
1 241 
1 242 
1 243 
1 244 
1 245 
1 246 
1 247 
1 248 
1 249 
1 250 
1 251 
1 252 
1 253 
1 254 
1 255 
1 256 
1 257 
1 258 
1 259 
1 260 
1 261 
1 262 
1 263 
1 264 
1 265 
1 266 
1 267 
1 268 
1 269 
1 270 
1 271 
1 272 
1 273 
1 274 
1 275 
1 276 
1 277 
1 278 
1 279 
1 280 
1 281 
1 282 
1 283 
1 284 
1 285 
1 286 
1 287 
1 288 
1 289 
1 290 
1 291 
1 292 
1 293 
1 294 
1 295 
1 296 
1 297 
1 298 
1 299 
1 300 
1 301 
1 302 
1 303 
1 304 
1 305 
1 306 
1 307 
1 308 
1 309 
1 310 
1 311 
1 312 
1 313 
1 314 
1 315 
1 316 
1 317 
1 318 
1 319 
1 320 
1 321 
1 322 
1 323 
1 324 
1 325 
1 326 
1 327 
1 328 
1 329 
1 330 
1 331 
1 332 
1 333 
1 334 
1 335 
1 336 
1 337 
1 338 
1 339 
1 340 
1 341 
1 342 
1 343 
1 344 
1 345 
1 346 
1 347 
1 348 
1 349 
1 350 
1 351 
1 352 
1 353 
1 354 
1 355 
1 356 
1 357 
1 358 
1 359 
1 360 
1 361 
1 362 
1 363 
1 364 
1 365 
1 366 
1 367 
1 368 
1 369 
1 370 
1 371 
1 372 
1 373 
1 374 
1 375 
1 376 
1 377 
1 378 
1 379 
1 380 
1 381 
1 382 
1 383 
1 384 
1 385 
1 386 
1 387 
1 388 
1 389 
1 390 
1 391 
1 392 
1 393 
1 394 
1 395 
1 396 
1 397 
1 398 
1 399 
1 400 
1 401 
1 402 
1 403 
1 404 
1 405 
1 406 
1 407 
1 408 
1 409 
1 410 
1 411 
1 412 
1 413 
1 414 
1 415 
1 416 
1 417 
1 418 
1 419 
1 420 
1 421 
1 422 
1 423 
1 424 
1 425 
1 426 
1 427 
1 428 
1 429 
1 430 
1 431 
1 432 
1 433 
1 434 
1 435 
1 436 
1 437 
1 438 
1 439 
1 440 
1 441 
1 442 
1 443 
1 444 
1 445 
1 446 
1 447 
1 448 
1 449 

POINT_DATA 450
SCALARS id double
LOOKUP_TABLE default
45 210 50 209 2 79 221 72 55 
77 93 212 245 255 83 42 87 223 
211 11 246 220 80 216 82 6 23 
70 250 258 24 260 259 261 257 256 
92 248 213 247 215 53 249 252 0 
44 205 1 81 56 7 263 13 88 
204 264 219 94 73 214 25 69 9 
217 68 242 3 8 207 383 85 19 
84 208 218 99 222 76 54 243 86 
244 253 41 202 22 262 12 251 206 
254 91 89 95 37 134 75 43 133 
135 141 142 18 49 51 74 46 136 
132 334 303 311 4 310 304 96 33 
39 65 27 348 305 347 330 47 102 
342 26 340 16 31 97 105 144 15 
301 145 349 300 32 66 346 63 130 
67 143 30 308 103 90 17 60 14 
333 138 294 339 345 127 338 100 332 
48 10 295 336 341 62 61 20 35 
139 38 302 78 21 140 137 335 28 
293 29 36 306 57 296 101 128 344 
58 129 52 5 292 297 337 98 331 
298 104 309 343 131 299 307 40 34 
177 412 226 268 201 182 164 400 433 
413 449 405 285 422 431 71 414 193 
194 200 423 224 404 439 173 350 434 
169 166 237 365 410 428 231 354 230 
233 235 170 426 274 278 367 275 382 
277 286 370 239 284 232 229 429 238 
269 270 267 283 236 162 240 447 178 
276 279 359 273 271 191 416 234 198 
427 163 176 446 195 168 181 171 437 
179 266 197 241 189 199 167 190 183 
175 174 186 161 196 184 180 272 448 
203 225 165 185 441 445 355 356 360 
192 435 172 438 390 228 371 188 281 
265 436 227 424 440 411 364 432 395 
366 282 187 280 430 396 118 115 111 
120 407 117 155 153 154 106 156 157 
125 397 288 389 385 384 313 418 113 
320 122 116 391 112 393 352 290 369 
368 403 318 372 402 425 394 64 361 
377 146 408 381 107 443 442 380 399 
392 351 114 147 148 325 314 316 317 
327 328 123 415 398 388 387 323 324 
406 417 149 312 151 421 401 420 386 
357 326 321 152 378 159 160 158 363 
444 409 287 119 124 110 353 374 329 
291 375 315 150 419 121 109 373 108 
362 126 358 376 322 289 379 319 59 

FIELD FieldData 5
r 3 450 double
0.39614 2.25513 0 0.956132 2.37976 0 0.353108 2.1738 0 
0.933166 2.39515 0 0.882355 2.20425 0 0.174748 2.38527 0 
0.962859 2.38866 0 0.31439 2.41834 0 1.10175 2.02302 0 
0.0229548 2.32705 0 1.48853 2.25278 0 1.00215 2.35076 0 
1.68805 2.32139 0 2.13137 2.3773 0 0.489232 2.39665 0 
1.31704 1.96759 0 1.29985 2.28436 0 1.04925 2.35849 0 
1.05472 2.32388 0 2.03031 2.25001 0 1.7183 2.33113 0 
1.16926 2.27607 0 1.39222 2.03357 0 1.22414 2.2413 0 
1.92484 2.02426 0 2.47183 2.42009 0 2.46138 2.29227 0 
1.00691 2.10159 0 1.88137 2.42003 0 2.12781 2.37914 0 
1.8971 2.34626 0 2.07257 2.39819 0 2.15213 2.3771 0 
2.05277 2.40877 0 2.09006 2.38977 0 2.0738 2.39451 0 
2.16138 2.07665 0 1.80702 2.35057 0 1.01972 2.34128 0 
1.76303 2.33321 0 1.13341 2.29082 0 0.500629 2.13621 0 
1.84147 2.38683 0 1.97264 2.43573 0 1.67012 2.03043 0 
0.612742 2.21389 0 0.761595 2.27935 0 1.0672 2.24188 0 
1.8964 1.94212 0 0.429706 2.40221 0 0.81012 2.19602 0 
1.95979 2.47086 0 1.95285 2.27543 0 0.864603 2.3351 0 
0.611566 2.39302 0 1.95326 2.49274 0 1.25842 2.23142 0 
1.59916 2.14736 0 0.0246652 2.39762 0 1.10084 2.3044 0 
1.09549 2.37848 0 1.67358 1.93441 0 1.8464 2.09623 0 
1.2872 2.22572 0 2.45006 1.91909 0 1.52728 2.46867 0 
1.33474 2.09506 0 1.71215 2.14099 0 0.818817 2.41229 0 
1.73649 2.49159 0 1.27325 2.32238 0 2.31952 2.42202 0 
2.43976 2.15468 0 0.867329 2.42399 0 1.28548 2.23383 0 
0.914074 2.0828 0 0.958276 2.40279 0 0.232569 2.18057 0 
1.05637 2.13634 0 1.57245 2.39777 0 1.52191 2.12616 0 
1.64716 2.33885 0 1.9936 2.42923 0 2.16727 2.42365 0 
0.829741 2.13389 0 2.39939 2.3836 0 1.98339 2.45072 0 
2.14427 2.32672 0 1.92093 2.43899 0 0.785732 2.34069 0 
2.01048 2.42282 0 1.82154 2.19004 0 2.1369 2.17196 0 
2.67876 2.15154 0 4.8784 2.25451 0 4.70887 2.35896 0 
4.67212 2.41612 0 4.7325 2.32823 0 4.71232 2.359 0 
4.69948 2.35648 0 4.40345 2.30709 0 4.37302 2.36109 0 
2.89459 2.31248 0 4.48843 2.12543 0 4.61646 2.27451 0 
4.88146 2.458 0 3.62562 1.90382 0 4.67872 2.35 0 
4.7043 2.35408 0 3.32367 2.27809 0 2.88647 2.43094 0 
2.91923 2.48755 0 2.56708 2.3598 0 2.87781 2.48523 0 
2.8926 2.42997 0 2.65546 2.34186 0 4.466 2.14362 0 
3.70374 2.04841 0 3.66747 2.39004 0 3.82759 1.99043 0 
3.50587 2.19141 0 2.86668 2.45015 0 3.54374 2.18313 0 
3.15436 2.49719 0 3.79773 1.91846 0 3.47034 2.25422 0 
3.62063 2.18086 0 4.16709 2.34758 0 3.58425 2.16626 0 
4.22745 2.0218 0 4.9165 2.176 0 2.52905 2.09347 0 
3.50931 2.48499 0 4.46265 2.43685 0 4.41143 1.96585 0 
2.85477 2.44276 0 4.52708 2.48317 0 3.48007 2.21001 0 
2.83639 2.43991 0 4.65301 2.22872 0 3.78045 2.36897 0 
3.59139 2.18286 0 3.80222 2.42562 0 4.5839 2.27933 0 
4.01987 2.21186 0 4.39788 2.4003 0 4.77811 2.13407 0 
2.83444 2.48961 0 3.44681 2.32339 0 2.65146 2.03898 0 
3.95598 1.79387 0 4.12355 2.22232 0 3.97841 1.90947 0 
3.24196 2.37146 0 4.62591 2.32587 0 3.00276 2.25611 0 
3.56986 2.1632 0 3.60957 2.18395 0 4.16921 2.40302 0 
3.54809 2.15745 0 3.47536 2.2216 0 3.19423 2.41904 0 
3.08887 2.22154 0 4.10201 2.0614 0 2.99067 2.26938 0 
3.4428 2.16918 0 3.59232 2.1727 0 3.61417 2.24812 0 
3.9169 2.15695 0 3.71422 2.12493 0 3.20205 2.24449 0 
4.60474 2.31721 0 4.24676 1.93116 0 2.88081 2.43222 0 
4.58274 2.33015 0 4.21256 2.12995 0 4.50327 2.28158 0 
4.66129 2.34453 0 3.38297 2.2121 0 3.52019 1.93066 0 
2.89442 2.34324 0 3.49508 1.98389 0 4.49497 2.18925 0 
2.85534 2.45989 0 3.90955 2.34847 0 2.95325 2.30525 0 
3.4789 2.22949 0 4.32518 2.29749 0 3.63395 2.19 0 
4.50354 2.22423 0 4.44426 2.25239 0 4.07288 2.29212 0 
2.61389 2.47405 0 2.77156 2.44663 0 2.92142 2.33531 0 
3.50635 2.1554 0 2.55696 2.13662 0 3.16343 2.45735 0 
2.89249 2.3622 0 3.46214 2.40858 0 2.84718 2.49251 0 
3.62512 2.18573 0 4.67614 2.34039 0 2.8519 2.40402 0 
2.84077 2.47523 0 3.40049 2.04957 0 3.54448 2.10337 0 
0.254489 2.66293 0 1.06936 2.98528 0 1.38262 2.52528 0 
2.0551 2.61522 0 0.510489 2.57897 0 0.376463 2.74767 0 
0.0808917 2.63864 0 1.46185 2.87965 0 0.877146 2.6141 0 
0.31388 2.83843 0 1.62902 2.77465 0 1.15399 2.83369 0 
2.46371 2.58893 0 0.0309253 2.75384 0 0.922476 2.78128 0 
0.375716 2.54414 0 1.18906 2.62131 0 0.42979 2.68036 0 
0.438926 2.68251 0 0.484658 2.68941 0 0.692053 2.98143 0 
1.20866 2.52484 0 1.31683 2.81911 0 2.32805 3.01639 0 
0.212255 2.62315 0 0.716675 2.58263 0 0.338493 2.89843 0 
0.168096 2.62579 0 0.121265 2.63285 0 1.85183 2.5703 0 
2.06595 2.83179 0 1.06506 2.74797 0 2.0974 2.9975 0 
1.86289 2.60901 0 1.02854 2.50315 0 1.85624 2.59954 0 
1.85142 2.58839 0 1.84798 2.57896 0 0.180215 2.62368 0 
2.41951 2.90213 0 2.20374 2.60791 0 2.21712 2.57795 0 
0.591346 2.67237 0 2.2039 2.60422 0 2.24399 2.73273 0 
2.20036 2.58893 0 2.48508 2.58792 0 2.43148 2.70249 0 
1.82335 2.53858 0 2.4381 2.58671 0 1.86599 2.61075 0 
1.83561 2.57794 0 1.7413 2.77037 0 1.84554 2.55901 0 
2.0801 2.62976 0 2.11185 2.65223 0 2.02644 2.58921 0 
2.40958 2.58387 0 1.85384 2.58035 0 0.0298481 2.64025 0 
1.77376 2.52049 0 0.902932 2.92178 0 0.272938 2.68082 0 
2.19972 2.59876 0 2.24784 2.57389 0 2.35433 2.87463 0 
2.19101 2.61277 0 2.13648 2.6552 0 0.410387 2.67552 0 
0.662536 2.92022 0 1.84591 2.58024 0 0.51109 2.72813 0 
2.35567 3.05866 0 0.0566114 2.63899 0 0.240431 2.64705 0 
0.723427 2.53589 0 0.459343 2.70423 0 0.152849 2.63046 0 
0.352977 2.73566 0 0.191181 2.61622 0 0.995902 2.63004 0 
0.296379 2.69852 0 2.00193 2.56806 0 0.509775 2.73189 0 
1.61128 2.52143 0 0.392118 2.67668 0 0.507249 2.72008 0 
0.13734 2.63122 0 0.400453 2.67445 0 0.372105 2.73404 0 
0.228867 2.63363 0 0.220595 2.62651 0 0.36865 2.69089 0 
0.00188475 2.63903 0 0.482751 2.72001 0 0.371376 2.72258 0 
0.325722 2.72124 0 2.15815 2.63232 0 0.595299 2.51048 0 
0.542862 2.50925 0 1.35655 2.6204 0 0.102598 2.63791 0 
0.36645 2.70426 0 0.460486 2.91163 0 0.624304 2.80821 0 
1.53173 2.70857 0 1.7151 2.58318 0 1.42277 2.63161 0 
0.419339 2.67414 0 1.0089 2.88363 0 0.201937 2.62146 0 
1.95337 2.89705 0 0.0460706 2.79385 0 1.72678 2.53694 0 
2.39639 2.79352 0 0.381875 2.67444 0 2.33223 2.58028 0 
1.97375 2.53271 0 0.770484 2.80514 0 1.52101 2.53058 0 
0.564968 2.94552 0 2.42066 2.95281 0 1.19464 2.90789 0 
1.5707 2.60133 0 1.14295 2.57432 0 0.213178 2.96257 0 
2.12034 2.86879 0 2.37335 2.58099 0 0.37262 2.67945 0 
2.28791 2.57553 0 1.65682 2.68781 0 3.37014 2.72581 0 
3.66731 2.687 0 3.77539 2.77163 0 3.71732 2.75107 0 
3.66808 2.67646 0 3.40558 2.60957 0 3.70815 2.73666 0 
4.84735 2.61473 0 4.80194 2.60143 0 4.82418 2.60878 0 
3.56925 2.59099 0 4.87051 2.62166 0 4.89445 2.6276 0 
3.8309 2.67658 0 4.03607 3.03598 0 2.52667 2.57668 0 
4.87577 2.75697 0 4.50307 2.90518 0 4.11292 2.59721 0 
3.02925 2.52025 0 3.92873 2.84583 0 3.78864 2.77626 0 
3.22364 2.64408 0 3.72366 2.72235 0 3.75949 2.7654 0 
4.28829 2.69564 0 3.76339 2.76996 0 3.73963 2.83331 0 
2.81807 2.95336 0 2.60114 2.54647 0 2.53866 2.78938 0 
4.54233 2.70087 0 3.71511 2.87396 0 3.27748 2.68619 0 
4.40616 3.10693 0 3.97573 2.93762 0 4.17307 2.72719 0 
4.36088 2.54141 0 3.78856 2.59555 0 2.61133 2.8856 0 
2.95285 2.74369 0 4.57796 2.52231 0 3.34428 2.5545 0 
2.90565 2.81633 0 3.59807 2.6361 0 3.04035 2.8869 0 
3.55122 2.9226 0 3.25895 2.76473 0 4.31836 2.7889 0 
4.36465 2.6494 0 3.19272 2.8943 0 3.82395 2.78308 0 
4.61884 2.5426 0 4.66011 2.56123 0 3.31753 2.67234 0 
3.11972 2.5778 0 3.34148 2.69696 0 3.40943 2.67575 0 
3.22734 2.63224 0 3.1792 2.57059 0 3.72585 2.70112 0 
3.98331 2.66727 0 3.99479 3.07353 0 4.69521 2.70991 0 
4.39739 2.93261 0 3.36246 2.66611 0 3.33696 2.67023 0 
4.40065 2.75285 0 4.76021 2.67309 0 4.69765 2.57538 0 
2.96498 2.50031 0 4.75509 2.59092 0 3.8355 2.81173 0 
4.14535 2.91764 0 3.93904 2.77071 0 4.39483 2.95783 0 
2.69764 2.81601 0 3.28075 2.6657 0 3.26888 2.66868 0 
4.77778 2.59409 0 4.6641 3.0817 0 4.94761 2.64055 0 
4.97416 2.64156 0 4.92007 2.63295 0 3.40849 2.9233 0 
2.93456 2.95824 0 2.81353 2.68343 0 2.50359 2.586 0 
3.66175 2.67281 0 3.71511 2.61537 0 3.68264 2.72683 0 
3.21544 2.79456 0 4.6088 2.92837 0 3.16498 2.54055 0 
2.66892 2.52167 0 4.2553 3.09446 0 3.21263 2.66186 0 
4.72939 2.58564 0 4.07328 2.75227 0 3.68659 2.69336 0 
3.66373 2.71119 0 4.75627 2.99833 0 3.63239 2.68087 0 
3.01278 2.61447 0 4.02791 2.50831 0 3.49288 2.77867 0 
2.92404 2.65441 0 3.34087 2.67382 0 2.5513 2.56524 0 
4.59192 2.82656 0 3.21142 2.64128 0 3.93262 2.50369 0 

gid 1 450 double
-1 0 -1 0 -1 -1 0 -1 -1 
-1 -1 0 0 0 -1 -1 -1 0 
0 -1 0 0 -1 0 -1 -1 -1 
-1 0 0 -1 0 0 0 0 0 
-1 0 0 0 0 -1 0 0 -1 
-1 0 -1 -1 -1 -1 0 -1 -1 
0 0 0 -1 -1 0 -1 -1 -1 
0 -1 0 -1 -1 0 1 -1 -1 
-1 0 0 -1 0 -1 -1 0 -1 
0 0 -1 0 -1 0 -1 0 0 
0 -1 -1 -1 -1 0 -1 -1 0 
0 0 0 -1 -1 -1 -1 -1 0 
0 0 0 0 -1 0 0 -1 -1 
-1 -1 -1 0 0 0 0 -1 0 
0 -1 0 -1 -1 -1 0 0 -1 
0 0 0 0 -1 -1 0 -1 0 
-1 0 -1 0 0 -1 -1 -1 -1 
0 0 0 0 0 0 0 0 0 
-1 -1 0 0 0 -1 -1 -1 -1 
0 -1 0 -1 -1 0 0 0 -1 
0 -1 -1 0 -1 0 0 0 0 
-1 0 -1 -1 0 0 0 -1 0 
0 0 0 0 0 0 0 -1 -1 
0 1 0 0 0 0 0 1 1 
1 1 1 0 1 1 -1 1 0 
0 0 1 0 1 1 0 1 1 
0 0 0 1 1 1 0 1 0 
0 0 0 1 0 0 1 0 1 
0 0 1 0 0 0 0 1 0 
0 0 0 0 0 0 0 1 0 
0 0 1 0 0 0 1 0 0 
1 0 0 1 0 0 0 0 1 
0 0 0 0 0 0 0 0 0 
0 0 0 0 0 0 0 0 1 
0 0 0 0 1 1 1 1 1 
0 1 0 1 1 0 1 0 0 
0 1 0 1 1 1 1 1 1 
1 0 0 0 1 1 0 0 0 
0 1 0 0 0 0 0 0 0 
0 1 0 1 1 1 0 1 0 
0 0 0 1 0 1 1 0 1 
1 1 0 1 1 1 1 -1 1 
1 0 1 1 0 1 1 1 1 
1 1 0 0 0 0 0 0 0 
0 0 0 1 1 1 1 0 0 
1 1 0 0 0 1 1 1 1 
1 0 0 0 1 0 0 0 1 
1 1 0 0 0 0 1 1 0 
0 1 0 0 1 0 0 1 0 
1 0 1 1 0 0 1 0 -1 

w 1 450 double
-0.3 0 -0.3 0 -0.3 -0.3 0 -0.3 -0.3 
-0.3 -0.3 0 0 0 -0.3 -0.3 -0.3 0 
0 -0.3 0 0 -0.3 0 -0.3 -0.3 -0.3 
-0.3 0 0 -0.3 0 0 0 0 0 
-0.3 0 0 0 0 -0.3 0 0 -0.3 
-0.3 0 -0.3 -0.3 -0.3 -0.3 0 -0.3 -0.3 
0 0 0 -0.3 -0.3 0 -0.3 -0.3 -0.3 
0 -0.3 0 -0.3 -0.3 0 0.3 -0.3 -0.3 
-0.3 0 0 -0.3 0 -0.3 -0.3 0 -0.3 
0 0 -0.3 0 -0.3 0 -0.3 0 0 
0 -0.3 -0.3 -0.3 -0.3 0 -0.3 -0.3 0 
0 0 0 -0.3 -0.3 -0.3 -0.3 -0.3 0 
0 0 0 0 -0.3 0 0 -0.3 -0.3 
-0.3 -0.3 -0.3 0 0 0 0 -0.3 0 
0 -0.3 0 -0.3 -0.3 -0.3 0 0 -0.3 
0 0 0 0 -0.3 -0.3 0 -0.3 0 
-0.3 0 -0.3 0 0 -0.3 -0.3 -0.3 -0.3 
0 0 0 0 0 0 0 0 0 
-0.3 -0.3 0 0 0 -0.3 -0.3 -0.3 -0.3 
0 -0.3 0 -0.3 -0.3 0 0 0 -0.3 
0 -0.3 -0.3 0 -0.3 0 0 0 0 
-0.3 0 -0.3 -0.3 0 0 0 -0.3 0 
0 0 0 0 0 0 0 -0.3 -0.3 
0 0.3 0 0 0 0 0 0.3 0.3 
0.3 0.3 0.3 0 0.3 0.3 -0.3 0.3 0 
0 0 0.3 0 0.3 0.3 0 0.3 0.3 
0 0 0 0.3 0.3 0.3 0 0.3 0 
0 0 0 0.3 0 0 0.3 0 0.3 
0 0 0.3 0 0 0 0 0.3 0 
0 0 0 0 0 0 0 0.3 0 
0 0 0.3 0 0 0 0.3 0 0 
0.3 0 0 0.3 0 0 0 0 0.3 
0 0 0 0 0 0 0 0 0 
0 0 0 0 0 0 0 0 0.3 
0 0 0 0 0.3 0.3 0.3 0.3 0.3 
0 0.3 0 0.3 0.3 0 0.3 0 0 
0 0.3 0 0.3 0.3 0.3 0.3 0.3 0.3 
0.3 0 0 0 0.3 0.3 0 0 0 
0 0.3 0 0 0 0 0 0 0 
0 0.3 0 0.3 0.3 0.3 0 0.3 0 
0 0 0 0.3 0 0.3 0.3 0 0.3 
0.3 0.3 0 0.3 0.3 0.3 0.3 -0.3 0.3 
0.3 0 0.3 0.3 0 0.3 0.3 0.3 0.3 
0.3 0.3 0 0 0 0 0 0 0 
0 0 0 0.3 0.3 0.3 0.3 0 0 
0.3 0.3 0 0 0 0.3 0.3 0.3 0.3 
0.3 0 0 0 0.3 0 0 0 0.3 
0.3 0.3 0 0 0 0 0.3 0.3 0 
0 0.3 0 0 0.3 0 0 0.3 0 
0.3 0 0.3 0.3 0 0 0.3 0 -0.3 

v 3 450 double
-2.1366 0.50528 0 -5.3139 0.0121286 0 -1.04653 0.0976353 0 
-5.39477 0.119943 0 -3.22782 -0.275409 0 -3.44018 0.131564 0 
-5.3832 -0.0216702 0 -3.79903 0.282235 0 -0.326351 -0.0136255 0 
-2.57111 0.306285 0 -4.19172 -0.447314 0 -5.08644 -0.189006 0 
-4.75436 -0.787196 0 -4.13766 -0.238486 0 -3.70741 1.67415 0 
-0.153061 -0.49977 0 -3.89399 -0.299558 0 -5.11797 -0.340476 0 
-4.72972 -0.22907 0 -2.76783 -0.0348396 0 -4.79568 -0.934035 0 
-3.83811 -0.275076 0 -0.856118 -0.195137 0 -3.38104 -0.542639 0 
-0.39877 0.4327 0 -4.73399 0.602619 0 -2.74747 0.0913136 0 
-1.52882 -0.266221 0 -5.02948 -0.940516 0 -4.17669 -0.260607 0 
-4.63189 -0.812214 0 -4.54189 -0.390673 0 -4.03095 -0.13897 0 
-4.64976 -0.42879 0 -4.42715 -0.371481 0 -4.51055 -0.38077 0 
-0.477099 0.312346 0 -4.8209 -1.28738 0 -4.98721 -0.2516 0 
-4.75382 -1.11421 0 -4.08483 -0.161033 0 -0.811598 0.519066 0 
-4.99798 -1.26476 0 -4.87334 -0.547706 0 -0.780827 -0.441922 0 
-2.20891 0.692538 0 -4.21906 -0.395322 0 -3.72749 0.063179 0 
0.497718 0.0596403 0 -3.67623 1.12296 0 -3.01002 -0.692431 0 
-4.84734 -0.620549 0 -3.44498 -0.492536 0 -4.94547 -0.0648671 0 
-4.54736 1.18242 0 -4.77884 -0.659798 0 -3.23901 -0.594236 0 
-2.73331 -0.426449 0 -3.76927 0.25067 0 -4.35 -0.154793 0 
-5.26575 -0.430159 0 0.35296 -0.516561 0 -1.54254 -0.057189 0 
-3.15172 -0.50266 0 0.291087 -0.03651 0 -5.15775 -0.259458 0 
-2.0396 -0.486663 0 -2.66052 -0.474911 0 -5.43784 -0.152881 0 
-4.85996 -1.22047 0 -4.56233 -0.358041 0 -4.6661 -0.180444 0 
-1.64217 -0.449356 0 -5.51409 0.0415936 0 -3.22884 -0.502532 0 
-1.06245 -0.667804 0 -5.46712 -0.00222705 0 -1.22165 -0.202799 0 
-2.15002 0.211449 0 -5.05268 -0.313312 0 -2.23049 -0.765902 0 
-4.83458 -0.538844 0 -4.82841 -0.482198 0 -4.55024 -0.120841 0 
-1.85779 -0.814992 0 -4.155 -0.0612092 0 -4.85555 -0.532175 0 
-3.41706 0.0386718 0 -4.96536 -0.691463 0 -4.94103 -0.309665 0 
-4.78424 -0.464562 0 -3.1126 -0.373908 0 -1.64841 0.389721 0 
-1.3993 1.53987 0 -2.20927 0.670737 0 -4.25158 0.236974 0 
-5.25715 -0.260975 0 -3.60016 0.453972 0 -4.23088 0.255118 0 
-4.27332 0.19341 0 -5.07648 -0.693808 0 -5.41934 -0.448444 0 
-3.22634 0.580595 0 -1.13975 0.0650962 0 -3.42178 -0.109991 0 
-4.6601 -0.118381 0 0.244768 -0.731265 0 -4.31821 0.0904314 0 
-4.20241 0.230637 0 -3.83943 -0.606861 0 -4.4271 0.616952 0 
-4.70171 0.390592 0 -3.45677 1.03701 0 -4.6779 0.639389 0 
-4.4249 0.59586 0 -3.03367 1.61468 0 -1.80482 -0.230698 0 
-1.58101 -0.670427 0 -4.71003 -1.15461 0 -0.813902 0.0382699 0 
-3.65437 -1.40823 0 -4.50602 0.727145 0 -3.51414 -1.36415 0 
-4.43073 -0.165673 0 0.213651 -0.436243 0 -3.9929 -1.39218 0 
-3.27901 -1.02739 0 -5.04909 0.931529 0 -3.27079 -1.22339 0 
-0.58454 0.567032 0 -0.846335 0.832238 0 -0.670445 0.112137 0 
-4.79505 -1.33238 0 -5.83933 -1.03416 0 0.10303 0.849206 0 
-4.45865 0.771489 0 -5.78996 -1.05763 0 -3.7739 -1.4046 0 
-4.41584 0.863058 0 -2.09162 0.302884 0 -4.20072 -0.473081 0 
-3.36664 -1.21369 0 -5.0553 -0.0725359 0 -3.83347 -0.340825 0 
-3.04401 -0.115223 0 -5.72071 -0.675238 0 -0.5308 0.561183 0 
-4.66284 0.888064 0 -4.29537 -1.23831 0 0.0368107 0.954103 0 
1.03798 -0.0267621 0 -3.14595 0.61981 0 0.0338959 0.289518 0 
-4.30951 -0.252113 0 -4.37133 -0.217107 0 -2.8908 -0.0461563 0 
-3.28751 -1.2219 0 -3.32149 -1.12868 0 -5.74278 0.779593 0 
-3.31482 -1.32498 0 -3.83035 -1.39386 0 -4.40548 -0.229017 0 
-2.66706 -0.356149 0 -1.10076 -0.0850963 0 -3.00393 0.058031 0 
-3.51822 -1.34038 0 -3.29285 -1.18787 0 -3.763 -1.15441 0 
-2.33851 -0.352063 0 -2.59722 -0.407968 0 -3.19403 -0.322324 0 
-4.40495 -0.361277 0 0.532121 0.429282 0 -4.42918 0.655465 0 
-4.8143 -0.598551 0 -2.01191 0.848747 0 -4.58117 -0.779732 0 
-4.36519 0.0179139 0 -3.59609 -1.0387 0 -0.226784 -1.30211 0 
-3.67139 0.596024 0 -1.19858 -1.33125 0 -2.59881 -0.0817738 0 
-4.54441 0.774157 0 -4.26865 0.265674 0 -3.29927 0.35579 0 
-3.87153 -1.40519 0 -4.6487 -0.045515 0 -3.31341 -0.973311 0 
-3.38177 -0.247532 0 -4.44299 -0.730299 0 -4.43636 0.515053 0 
-4.85994 1.35564 0 -4.33062 1.25349 0 -3.61477 0.529004 0 
-3.40839 -1.35428 0 -1.33643 0.633302 0 -4.42586 -0.173421 0 
-3.89933 0.613117 0 -4.66515 -1.28826 0 -4.68677 0.812557 0 
-3.30083 -1.00565 0 -4.16824 0.140859 0 -4.21508 0.755053 0 
-4.60237 0.839239 0 -2.1774 -1.57396 0 -2.71676 -1.12111 0 
-4.38087 0.301732 0 0.504572 -0.0107914 0 -4.96941 -0.177784 0 
-4.61276 -0.0500253 0 -4.58145 2.19565 0 -3.99665 0.777374 0 
-4.51566 -0.211012 0 -0.681219 -0.662814 0 -4.18418 0.363843 0 
-3.02751 0.565449 0 -1.3768 -0.39533 0 -1.40013 -0.590624 0 
-5.60077 0.309995 0 -3.45439 -0.356761 0 -2.41479 0.450242 0 
-4.68775 1.10494 0 -3.65839 -0.868789 0 -4.31119 1.42811 0 
-4.27556 1.48069 0 -4.10204 1.72051 0 0.0663661 0.226037 0 
-5.07824 -0.877988 0 -1.51419 -0.692169 0 -0.441877 0.7603 0 
-4.44991 0.113015 0 -4.10428 0.73765 0 -1.75162 0.566928 0 
-4.42094 -0.0164459 0 -4.43928 -0.131125 0 -4.07361 -1.25139 0 
-3.01902 0.427137 0 -2.58262 -0.171386 0 -0.449523 0.581337 0 
-3.84789 -1.04768 0 -5.48092 -0.206618 0 -3.8738 -1.14812 0 
-3.93128 -1.21971 0 -3.9908 -1.25775 0 -4.43159 0.0210367 0 
-1.59419 -0.0927503 0 -5.26207 0.259404 0 -5.36077 0.16153 0 
-3.81745 1.57638 0 -5.2711 0.247537 0 -4.45945 0.644517 0 
-5.283 0.178022 0 -5.54065 0.345533 0 -4.92697 0.146853 0 
-4.26481 -1.41557 0 -5.66651 0.317264 0 -3.8506 -1.02401 0 
-3.953 -1.32365 0 -1.56615 -1.01919 0 -4.1425 -1.30228 0 
-4.65114 0.0561051 0 -4.69034 0.233374 0 -4.59444 -0.26737 0 
-5.70891 0.313958 0 -4.00316 -1.22201 0 -4.64474 -0.259384 0 
-4.4426 -1.51058 0 -0.465065 0.495514 0 -4.34951 0.400517 0 
-5.26247 0.208564 0 -5.46157 0.193741 0 -2.60302 0.654411 0 
-5.19391 0.247105 0 -4.78042 0.297098 0 -4.37185 1.22665 0 
-1.0838 0.380162 0 -3.97267 -1.26671 0 -3.75362 1.63316 0 
0.384353 0.450048 0 -4.58092 -0.232257 0 -4.4118 0.237998 0 
-4.75596 0.445621 0 -4.07464 1.50201 0 -4.41378 -0.0869691 0 
-4.10547 0.662533 0 -4.45502 0.0523637 0 -4.00441 0.059627 0 
-4.30851 0.486348 0 -4.59176 -0.417652 0 -3.73396 1.61316 0 
-5.02775 -0.498622 0 -4.39245 1.10954 0 -3.81991 1.66317 0 
-4.42155 -0.0987041 0 -4.39496 1.15786 0 -4.08658 0.805893 0 
-4.43704 0.188376 0 -4.44762 0.15779 0 -4.32989 0.893471 0 
-4.70406 -0.271452 0 -3.89826 1.56178 0 -4.15263 0.839601 0 
-4.21627 0.602815 0 -4.97954 0.281638 0 -4.80765 1.66623 0 
-4.74931 2.11184 0 -3.95989 -0.253569 0 -4.46534 -0.156962 0 
-4.25775 0.84691 0 -1.61918 0.700219 0 -2.74133 1.00301 0 
-2.69963 0.000206267 0 -3.96764 -1.19336 0 -3.93322 -0.000630177 0 
-4.36567 1.31821 0 -0.903204 0.14838 0 -4.44635 0.0830818 0 
-1.63322 0.493548 0 -2.62797 -0.297539 0 -4.45314 -1.20411 0 
-3.67677 0.270009 0 -4.41783 1.04327 0 -5.65702 0.307056 0 
-4.65137 -0.561216 0 -2.25686 0.609958 0 -5.07777 -0.216466 0 
-0.971965 0.882855 0 -0.669032 -0.124197 0 -0.153868 -0.70009 0 
-4.39338 -0.370796 0 -4.55478 -0.690744 0 -0.997205 0.262294 0 
-2.31456 0.330206 0 -5.71278 0.299549 0 -4.39654 0.966829 0 
-5.56878 0.244038 0 -2.81638 -0.918508 0 -2.94268 -0.394677 0 
-4.76898 -0.0429834 0 -4.52241 0.751764 0 -4.58015 0.453256 0 
-4.83419 -0.0785375 0 -4.08347 -0.954272 0 -4.70154 0.382526 0 
-5.01976 -0.618672 0 -5.20722 -0.71508 0 -5.1117 -0.674229 0 
-4.62216 -0.95979 0 -4.94654 -0.483177 0 -4.87202 -0.409709 0 
-5.84008 0.979428 0 -0.116265 0.369233 0 -5.45459 0.524026 0 
-3.00398 -0.62618 0 -1.37546 -0.689016 0 -5.93686 0.738233 0 
-4.66715 -0.22411 0 -2.84924 0.68663 0 -4.48077 0.815336 0 
-4.05705 0.0212841 0 -4.94191 0.380592 0 -4.5696 0.669744 0 
-4.6415 0.253358 0 -4.50404 0.69214 0 -3.02158 0.61263 0 
-0.582701 0.299492 0 -5.29229 1.01425 0 -3.29518 -0.0965966 0 
-4.2451 -1.04322 0 -2.06041 0.659615 0 -3.72336 0.0107375 0 
0.672965 -0.122645 0 -1.44172 0.678075 0 -4.07571 0.556625 0 
-5.91345 -0.519503 0 -5.7633 0.356868 0 -1.35526 -0.109269 0 
-2.76765 -0.0855915 0 -5.72836 -0.886459 0 -4.61184 -0.478777 0 
-2.08303 0.403855 0 -4.54046 -0.683996 0 -0.878727 -0.38469 0 
-0.862596 -0.169853 0 -2.64063 -0.179686 0 -2.94495 0.338119 0 
-4.99056 -0.624718 0 -0.725065 -0.108628 0 -4.42802 0.926 0 
-5.68833 -0.826214 0 -5.62769 -0.756856 0 -3.71118 -0.0805012 0 
-4.27726 -0.337608 0 -3.3811 -0.239281 0 -3.46746 -0.732451 0 
-4.10524 0.0306439 0 -4.29837 -0.131401 0 -5.1353 0.300806 0 
-5.68504 1.17524 0 0.243365 0.892956 0 -3.82106 -0.890717 0 
-1.20877 0.0996893 0 -3.62921 -0.374759 0 -3.66283 -0.181404 0 
-3.34409 -0.646338 0 -4.4259 -0.867997 0 -5.55039 -0.688758 0 
-4.73763 0.162005 0 -5.37835 -0.731602 0 -3.75747 0.93575 0 
-1.53758 0.217993 0 -4.29915 0.767587 0 -0.802701 0.184383 0 
-2.71203 0.182025 0 -3.87221 0.0571196 0 -3.87938 0.0634591 0 
-5.30852 -0.728817 0 0.428369 -0.705686 0 -4.75898 -0.281262 0 
-4.73697 -0.263615 0 -4.81333 -0.348428 0 -0.612389 -0.0639774 0 
-0.212654 -0.0795536 0 -4.16505 1.10152 0 -5.49566 0.416181 0 
-4.79869 -0.161396 0 -5.39569 -0.19121 0 -4.61726 0.249553 0 
-2.24247 0.00762854 0 -1.01272 -1.11426 0 -4.37474 -0.161987 0 
-4.9683 1.35665 0 0.302393 0.371942 0 -3.97085 -0.0313243 0 
-5.46565 -0.678383 0 -3.8274 0.537858 0 -4.8905 0.0974157 0 
-4.58076 0.0503047 0 -0.574335 -1.3694 0 -4.5195 -0.301904 0 
-4.18186 -0.460169 0 -6.15189 1.17088 0 -2.57662 -0.660256 0 
-4.14456 0.221703 0 -3.6182 -0.210312 0 -5.41684 0.664601 0 
-2.49122 -1.23589 0 -4.06372 -0.0351369 0 -5.89497 1.09167 0 

noise 3 450 double
-0 -0.000678472 0 -0 -0.000952984 0 0 0.000946997 0 
-0 -0.000988964 0 0 0.000838606 0 0 0.00021444 0 
0 0.000468657 0 -0 -0.000541735 0 -0 -9.14717e-05 0 
-0 -0.000547736 0 -0 -0.000476478 0 -0 -0.000810277 0 
-0 -0.000919142 0 -0 -0.000374769 0 0 0.000972077 0 
-0 -0.000932852 0 -0 -0.000254784 0 0 0.000721578 0 
-0 -0.000892915 0 -0 -0.000990673 0 -0 -0.000969956 0 
0 0.000322732 0 0 0.000576146 0 -0 -0.000303158 0 
0 0.000987065 0 0 0.000527219 0 0 7.43564e-05 0 
0 0.000221425 0 -0 -0.000924576 0 0 9.31819e-05 0 
-0 -0.000317851 0 0 0.000400101 0 0 0.000249799 0 
0 0.00054029 0 -0 -6.57901e-05 0 -0 -0.000223099 0 
-0 -0.000779916 0 -0 -0.000997368 0 -0 -0.000707157 0 
-0 -0.000996253 0 -0 -0.000450352 0 0 0.000647405 0 
-0 -0.000973273 0 -0 -0.000758894 0 0 0.000197634 0 
-0 -0.000910118 0 -0 -0.000883313 0 0 0.000562024 0 
0 0.000847837 0 -0 -0.000470173 0 0 0.000156788 0 
0 0.0007765 0 -0 -0.00079055 0 -0 -0.000609565 0 
-0 -0.000797855 0 0 0.00086655 0 0 0.00016865 0 
-0 -9.85961e-05 0 -0 -0.000825104 0 -0 -0.000586163 0 
-0 -0.000660399 0 0 0.000581981 0 -0 -0.000595861 0 
-0 -0.000148301 0 0 0.00085161 0 -0 -0.000635326 0 
0 0.000984166 0 -0 -0.00023814 0 -0 -0.000985652 0 
0 0.000690989 0 0 0.000512548 0 0 0.000995474 0 
0 0.000805215 0 -0 -0.000999945 0 0 1.03047e-05 0 
0 0.000949272 0 0 0.000602735 0 -0 -0.000829127 0 
0 0.000301521 0 -0 -0.000749685 0 0 0.000139803 0 
-0 -0.000845094 0 -0 -0.000646095 0 -0 -0.000720388 0 
-0 -0.000569106 0 0 0.000454947 0 0 0.000666823 0 
-0 -0.00096608 0 -0 -0.000852509 0 -0 -0.000946444 0 
-0 -0.000516966 0 -0 -0.000961502 0 -0 -0.00086911 0 
0 0.00029469 0 0 0.000708371 0 -0 -0.000711998 0 
-0 -0.000980977 0 -0 -0.00099957 0 -0 -0.000814284 0 
-0 -0.000591715 0 0 0.000316222 0 0 0.000462577 0 
0 0.000880886 0 0 0.000748547 0 0 0.000997491 0 
-0 -0.000979562 0 -0 -0.000340825 0 -0 -0.000456476 0 
-0 -0.000895987 0 -0 -0.000368391 0 0 0.000826073 0 
0 0.00078099 0 0 0.000975964 0 0 0.000870099 0 
0 0.000904949 0 0 0.000641934 0 0 0.000690989 0 
-0 -8.58726e-06 0 0 0.00080095 0 -0 -0.00099856 0 
0 0.000961029 0 0 0.00096095 0 0 0.000992696 0 
-0 -0.000848898 0 0 5.00726e-05 0 0 0.000387472 0 
0 0.00078081 0 -0 -0.000899768 0 0 0.000546058 0 
0 0.000278235 0 -0 -3.29129e-05 0 0 0.000888885 0 
0 0.000767769 0 0 0.000716805 0 -0 -0.000115672 0 
0 0.000608203 0 0 0.000818253 0 0 0.000905071 0 
0 0.000474714 0 0 0.00035692 0 0 0.000970373 0 
0 0.00099927 0 0 0.000132713 0 -0 -0.000989958 0 
0 0.000988187 0 0 0.000597239 0 -0 -0.000417603 0 
0 0.000980642 0 0 0.000528678 0 -0 -0.000992867 0 
0 0.000628671 0 -0 -0.000872627 0 -0 -0.000491506 0 
-0 -0.000511073 0 -0 -0.000155091 0 -0 -0.000444208 0 
0 0.000406388 0 0 0.000980586 0 -0 -0.000944204 0 
0 0.000256445 0 0 7.94935e-05 0 -0 -0.000640837 0 
0 0.000433147 0 -0 -0.000860487 0 -0 -0.000296604 0 
-0 -5.89336e-05 0 0 0.000671926 0 -0 -0.000261698 0 
-0 -0.000615223 0 0 0.000954532 0 0 0.000999926 0 
0 3.43494e-06 0 0 0.000379541 0 0 0.000726318 0 
-0 -0.00018077 0 0 0.000764458 0 0 0.000161874 0 
-0 -0.000309698 0 -0 -0.000216397 0 -0 -0.00094134 0 
-0 -0.000580583 0 -0 -0.000737049 0 0 0.000926527 0 
0 0.000992661 0 -0 -0.000775417 0 -0 -0.000141504 0 
0 0.000236471 0 -0 -0.000984469 0 0 0.000937115 0 
-0 -0.000959511 0 -0 -0.00099985 0 0 0.000892141 0 
0 0.00081528 0 -0 -0.000702283 0 0 1.71739e-05 0 
0 0.00010002 0 0 0.000996959 0 -0 -0.000754402 0 
0 0.000175417 0 0 0.000656521 0 0 0.000937216 0 
0 0.000869958 0 -0 -0.000955043 0 0 0.000329227 0 
0 0.000999281 0 -0 -0.000395374 0 0 0.0009171 0 
-0 -0.000229791 0 -0 -0.000261698 0 0 0.000959026 0 
0 0.000993501 0 -0 -0.000431598 0 0 0.000534497 0 
-0 -0.000745121 0 0 0.000946997 0 0 0.000972077 0 
0 0.000132713 0 0 0.000949272 0 -0 -9.14717e-05 0 
-0 -0.00094864 0 -0 -0.000541735 0 0 0.000847837 0 
-0 -0.000173726 0 0 0.00050639 0 0 0.000735887 0 
0 0.000619277 0 -0 -0.00028318 0 -0 -0.000825104 0 
0 0.000822182 0 0 0.000301521 0 -0 -0.00086911 0 
-0 -0.000763349 0 0 0.000197634 0 0 0.000805215 0 
-0 -0.000997843 0 -0 -0.000916414 0 0 0.000107138 0 
-0 -0.000115672 0 -0 -0.000872627 0 -0 -0.00018077 0 
0 0.000873465 0 0 0.000975964 0 0 0.000939589 0 
0 0.00067721 0 0 0.000412916 0 -0 -0.000974828 0 
-0 -0.000829127 0 0 0.000481001 0 -0 -0.000134415 0 
0 0.000628671 0 0 0.000335976 0 0 0.00035692 0 
0 2.43291e-05 0 -0 -0.000986788 0 0 0.000954532 0 
-0 -0.000209405 0 -0 -0.000886513 0 0 0.000785262 0 
0 0.000981964 0 0 0.00021444 0 -0 -5.17879e-05 0 
0 0.000962906 0 0 0.000907971 0 0 0.000998984 0 
-0 -0.000801977 0 0 0.000263355 0 -0 -0.000498967 0 
-0 -0.000361728 0 0 0.000888885 0 -0 -7.26435e-05 0 
0 0.000182459 0 -0 -0.000289762 0 -0 -0.000595861 0 
0 0.000613868 0 0 0.000830086 0 0 0.000910828 0 
0 0.000970373 0 0 0.00055204 0 0 3.11963e-05 0 
-0 -0.000547736 0 -0 -0.000630006 0 -0 -0.000381129 0 
0 0.000641934 0 0 0.000487013 0 -0 -0.000995636 0 
0 0.000393796 0 -0 -0.000927172 0 -0 -0.000254784 0 
0 8.63397e-05 0 0 0.000979215 0 0 0.000189209 0 
-0 -0.000504908 0 0 0.00099426 0 -0 -0.000127605 0 
-0 -0.000968262 0 0 0.000964737 0 0 0.000661687 0 
-0 -0.000522834 0 -0 -0.000651323 0 0 0.000932232 0 
-0 -0.000355315 0 0 0.000342439 0 0 0.000772153 0 
0 0.000243141 0 0 0.000731218 0 0 0.000996959 0 
-0 -0.000692229 0 0 0.000902004 0 -0 -0.000841401 0 
0 0.0008631 0 -0 -0.000961502 0 0 0.00029469 0 
0 0.00081528 0 0 0.000527219 0 -0 -0.000860487 0 
0 0.000833897 0 0 0.000512548 0 -0 -0.00085608 0 
-0 -0.000609565 0 -0 -0.000395374 0 0 0.000999518 0 
0 0.000764458 0 0 0.000998651 0 -0 -0.000574742 0 
0 0.000934696 0 0 0.000139803 0 0 0.000991807 0 
-0 -0.000979562 0 -0 -0.000992867 0 -0 -0.000615223 0 
-0 -0.000491506 0 0 0.000987065 0 -0 -0.000678472 0 
0 0.000278235 0 -0 -0.000697171 0 0 0.000977799 0 
-0 -0.000437785 0 0 0.000576146 0 -0 -0.000340825 0 
0 0.00019595 0 0 0.000624656 0 0 0.000966522 0 
-0 -0.000120788 0 -0 -0.000775417 0 0 0.000348885 0 
0 0.000557755 0 0 0.000789497 0 0 0.000682248 0 
0 0.000859611 0 0 0.000419163 0 0 0.000269977 0 
-0 -0.000793694 0 0 5.00726e-05 0 -0 -0.000987922 0 
-0 -8.58726e-06 0 0 0.000999926 0 0 0.0009171 0 
0 0.000546299 0 0 0.00085161 0 0 0.000837669 0 
-0 -0.000510826 0 -0 -0.000425391 0 0 0.000493001 0 
-0 -0.000720388 0 0 0.000913642 0 -0 -0.00099957 0 
0 0.000838606 0 -0 -0.000889801 0 0 0.000995474 0 
0 0.000880886 0 0 0.000647405 0 -0 -0.000216117 0 
0 0.000454947 0 0 0.000892141 0 -0 -0.000980977 0 
-0 -0.000910118 0 0 0.00050639 0 -0 -0.000990673 0 
-0 -0.00099856 0 0 0.000899017 0 -0 -0.000959511 0 
-0 -3.29129e-05 0 0 0.000929724 0 -0 -0.000476478 0 
-0 -0.000779916 0 -0 -0.000417603 0 0 0.000748547 0 
-0 -0.000932852 0 0 0.000562024 0 0 0.000740521 0 
0 0.000957057 0 0 0.000990906 0 -0 -0.000971605 0 
0 0.00040665 0 0 0.000100305 0 -0 -5.86473e-05 0 
-0 -0.000996847 0 -0 -0.000971672 0 -0 -0.000563444 0 
0 0.00080095 0 0 0.000433147 0 0 0.000379541 0 
0 0.000708371 0 -0 -0.000848747 0 -0 -0.000921826 0 
-0 -0.000470173 0 0 0.000988187 0 0 0.000999707 0 
0 0.000672139 0 0 0.000941919 0 -0 -0.000173726 0 
0 0.000997491 0 0 0.000221425 0 0 0.000926527 0 
0 0.000156788 0 -0 -0.000996824 0 -0 -0.000640616 0 
0 0.000876789 0 -0 -0.00094134 0 -0 -4.4926e-05 0 
-0 -0.000202682 0 0 0.000113966 0 -0 -0.00079055 0 
-0 -9.85961e-05 0 -0 -0.000993695 0 -0 -0.000999994 0 
0 3.80621e-05 0 -0 -0.000687255 0 0 0.000994971 0 
0 0.000984166 0 -0 -0.000317851 0 -0 -0.000921937 0 
-0 -0.000806232 0 -0 -0.000660399 0 0 0.000256722 0 
0 0.00098324 0 0 0.000581981 0 -0 -0.000276585 0 
0 0.00099827 0 0 7.43564e-05 0 0 0.000976336 0 
-0 -0.00096608 0 -0 -0.000880072 0 -0 -0.00023814 0 
-0 -0.000899768 0 -0 -0.000754214 0 -0 -0.00095088 0 
-0 -0.000737049 0 -0 -0.000368124 0 -0 -0.000993695 0 

