# vtk DataFile Version 4.0
vtk output
ASCII
DATASET POLYDATA
FIELD FieldData 5
domain 1 4 string
domain_min:0|0
domain_max:2|2
cell_size:2.5|2.5
boundary:0|1

variables 1 5 string
T:0.24
dt:0.02
write_case:1
substeps:1
all_steps:12

constants 1 5 string
L:5
c_s:2.5
dx:0.1
omega:0.3
eps:0.0833333

equations 1 4 string
initial_noise:r=(r+noise)#eq(T,0)
time:T=(T+dt)#true
velocity:v=dvm(w,eps)#true
integrate:r=euler(r,v,dt)#true

asymmetric 1 1 string
w

POINTS 450 float
2.02071 2.49893 0 0.960233 2.49788 0 1.35241 2.21591 0 
0.620329 2.49805 0 0.499922 2.2189 0 1.30118 2.21769 0 
0.160221 2.49746 0 2.06908 2.20033 0 1.18153 2.2313 0 
2.18028 2.18289 0 1.86435 2.22923 0 0.660489 2.49488 0 
0.680459 2.49438 0 0.751524 2.17129 0 0.00619144 2.16428 0 
1.9011 2.2465 0 0.780456 2.49188 0 0.8006 2.49196 0 
1.48033 2.49571 0 0.720441 2.49267 0 2.29722 2.16979 0 
2.26064 2.49488 0 2.24059 2.49433 0 2.20057 2.49449 0 
0.88032 2.49318 0 1.4404 2.4973 0 1.55215 2.17093 0 
1.45718 2.20488 0 2.12872 2.18653 0 1.83266 2.1959 0 
0.136006 2.17948 0 2.45458 2.20436 0 1.62014 2.4943 0 
1.66005 2.49497 0 0.100165 2.49403 0 2.40826 2.17684 0 
0.860453 2.49246 0 2.18054 2.49368 0 2.22046 2.49394 0 
0.0604619 2.49215 0 0.0803235 2.49283 0 2.04054 2.49838 0 
1.64808 2.16945 0 1.46042 2.49646 0 1.2441 2.22353 0 
2.14061 2.49553 0 0.60037 2.49991 0 1.42022 2.49861 0 
1.54039 2.49432 0 1.5005 2.49472 0 0.180412 2.49897 0 
1.70003 2.49797 0 1.73995 2.4993 0 2.00064 2.49979 0 
1.52034 2.49388 0 1.64007 2.49477 0 0.0488125 2.16848 0 
0.806619 2.16414 0 0.700638 2.49326 0 0.000620908 2.49177 0 
0.980387 2.49976 0 0.275504 2.2037 0 1.07686 2.21929 0 
0.277604 2.21845 0 0.640486 2.49623 0 0.656309 2.2059 0 
0.600277 2.21571 0 0.187046 2.1823 0 0.740668 2.49185 0 
2.23502 2.17825 0 2.16056 2.49415 0 0.321985 2.2307 0 
1.86725 2.21268 0 2.0807 2.49648 0 1.60676 2.16432 0 
1.40142 2.21448 0 1.73328 2.18214 0 0.551117 2.2172 0 
1.12182 2.23138 0 2.3805 2.49912 0 0.0902404 2.17497 0 
1.78393 2.18613 0 0.934428 2.1807 0 0.985159 2.18371 0 
1.0354 2.19039 0 1.07415 2.20463 0 0.889241 2.17578 0 
0.848539 2.16882 0 0.443052 2.22445 0 0.760649 2.49159 0 
1.9632 2.24393 0 2.36057 2.49975 0 1.68827 2.1768 0 
0.380843 2.23168 0 1.56046 2.49341 0 0.0204283 2.49161 0 
2.35977 2.16708 0 0.820412 2.49184 0 2.06054 2.49742 0 
2.12053 2.49513 0 2.3404 2.49816 0 2.10049 2.49558 0 
0.237209 2.18915 0 1.60029 2.49474 0 1.58035 2.49381 0 
0.0402764 2.49199 0 0.840264 2.49226 0 2.30057 2.49644 0 
2.32063 2.49706 0 0.140242 2.49599 0 1.68004 2.49642 0 
0.900165 2.49441 0 0.120372 2.49458 0 1.71996 2.49728 0 
0.940251 2.4964 0 2.28046 2.4952 0 2.41342 2.1913 0 
0.920376 2.49498 0 3.96142 2.1669 0 3.68048 2.49401 0 
4.56851 2.2249 0 2.80038 2.49893 0 3.86058 2.49479 0 
2.82045 2.49794 0 2.55549 2.21355 0 3.16069 2.1671 0 
4.8805 2.49447 0 4.47954 2.15516 0 3.84044 2.49404 0 
3.82034 2.49304 0 3.72592 2.18774 0 3.06058 2.49507 0 
4.95054 2.17201 0 2.90032 2.49542 0 2.72646 2.2317 0 
3.02032 2.49359 0 2.97602 2.18697 0 2.88038 2.49587 0 
2.50528 2.21035 0 3.20849 2.17727 0 3.64042 2.49717 0 
3.56056 2.49948 0 3.16052 2.49987 0 3.76035 2.49279 0 
4.00856 2.1776 0 3.03399 2.18034 0 2.92444 2.18913 0 
4.54851 2.1868 0 2.87569 2.19079 0 4.62692 2.23255 0 
2.82078 2.20004 0 3.52697 2.2316 0 2.63592 2.22878 0 
4.86054 2.49499 0 3.2129 2.19188 0 2.98037 2.49314 0 
2.67457 2.23574 0 3.83548 2.17904 0 3.89924 2.16915 0 
3.70041 2.49373 0 3.09801 2.17002 0 2.86032 2.49677 0 
4.74681 2.22149 0 3.43517 2.22964 0 4.84054 2.49636 0 
4.19336 2.22406 0 4.79803 2.21819 0 4.82039 2.49817 0 
3.04043 2.49444 0 3.5805 2.49999 0 3.72032 2.49317 0 
3.74046 2.49349 0 2.92025 2.49468 0 3.62164 2.19916 0 
4.34797 2.21521 0 2.9404 2.4948 0 4.5311 2.16337 0 
3.66042 2.49612 0 3.08037 2.49508 0 4.36046 2.49917 0 
4.30025 2.49947 0 4.69091 2.22631 0 3.80053 2.49409 0 
2.59842 2.21974 0 4.85492 2.20747 0 4.5358 2.20404 0 
3.62051 2.49709 0 3.00047 2.49443 0 3.18046 2.49928 0 
3.94029 2.49806 0 4.92048 2.49268 0 4.98048 2.49174 0 
4.96068 2.4915 0 4.90068 2.49331 0 3.96039 2.49924 0 
4.9407 2.49181 0 3.98035 2.4989 0 3.14034 2.49823 0 
2.84035 2.49811 0 3.7776 2.18552 0 4.15131 2.21721 0 
4.01243 2.19233 0 4.23202 2.23149 0 3.30397 2.21141 0 
3.78041 2.49223 0 3.25328 2.20537 0 4.27817 2.2341 0 
3.67691 2.18958 0 3.12057 2.49707 0 3.92053 2.49693 0 
4.32035 2.49967 0 3.88037 2.49489 0 3.4745 2.2362 0 
4.10241 2.2131 0 3.35377 2.215 0 3.90051 2.49587 0 
3.10049 2.4964 0 4.0523 2.20631 0 2.96031 2.4939 0 
4.34021 2.49918 0 3.39707 2.22095 0 3.60043 2.49817 0 
0.20037 2.50011 0 1.78002 2.50101 0 0.53512 2.82003 0 
1.92062 2.50509 0 0.32044 2.50749 0 2.27428 2.76366 0 
0.280458 2.50572 0 1.88046 2.50557 0 1.7601 2.50094 0 
1.64545 2.77748 0 1.14069 2.50863 0 0.360649 2.50863 0 
2.23418 2.76949 0 1.20061 2.50857 0 1.58266 2.76899 0 
0.406298 2.83592 0 1.22042 2.50873 0 1.4769 2.7806 0 
0.380455 2.50836 0 1.70285 2.78359 0 1.24837 2.83108 0 
2.32637 2.76811 0 1.12052 2.50817 0 0.448566 2.83148 0 
2.46034 2.50294 0 2.47523 2.80859 0 2.44038 2.50161 0 
1.80485 2.78783 0 2.14522 2.78281 0 2.42048 2.50179 0 
0.0423236 2.77527 0 1.30015 2.50637 0 1.28031 2.50753 0 
2.4804 2.50383 0 2.40048 2.50121 0 2.06522 2.81283 0 
1.47375 2.79521 0 2.03222 2.84595 0 1.43467 2.80925 0 
1.80014 2.50218 0 0.255606 2.79361 0 0.350948 2.8285 0 
0.199453 2.78373 0 0.15024 2.78225 0 0.0990804 2.78064 0 
1.06051 2.50557 0 1.16067 2.5089 0 0.440261 2.50805 0 
1.20677 2.836 0 0.951802 2.78362 0 2.19303 2.77679 0 
1.00036 2.5009 0 1.28874 2.8239 0 1.3843 2.81577 0 
1.00092 2.7851 0 1.33368 2.81882 0 0.300637 2.50687 0 
1.5224 2.76883 0 1.26045 2.5082 0 0.400599 2.50831 0 
0.42041 2.50846 0 1.86041 2.50496 0 0.489638 2.82475 0 
0.340668 2.50834 0 0.84357 2.77616 0 1.94058 2.50325 0 
0.220328 2.50199 0 0.240485 2.50382 0 1.0405 2.50421 0 
0.460449 2.50788 0 1.97043 2.84476 0 0.500157 2.50597 0 
0.480314 2.50718 0 1.84025 2.50455 0 1.32035 2.50588 0 
0.56022 2.50254 0 0.580372 2.50067 0 1.9608 2.50198 0 
1.40028 2.50036 0 1.38035 2.50176 0 1.98069 2.50209 0 
0.781174 2.76864 0 0.677188 2.78126 0 1.15192 2.82911 0 
0.72177 2.76891 0 0.260488 2.5052 0 0.636223 2.81035 0 
2.0981 2.79426 0 1.18051 2.50901 0 1.08048 2.50607 0 
1.02031 2.50277 0 0.674764 2.79596 0 1.10066 2.50719 0 
1.24027 2.50834 0 0.58601 2.81711 0 0.520367 2.50542 0 
1.86407 2.80141 0 1.05684 2.79482 0 1.82028 2.504 0 
1.75463 2.78581 0 0.900562 2.78187 0 2.06876 2.82856 0 
1.36019 2.50317 0 2.42051 2.79953 0 0.54024 2.50401 0 
1.34022 2.50455 0 1.90047 2.50448 0 4.52073 2.50586 0 
3.38038 2.50672 0 3.60848 2.8224 0 4.11983 2.50301 0 
4.62057 2.50747 0 4.44066 2.50178 0 3.20039 2.50103 0 
4.40043 2.50025 0 3.36032 2.50599 0 4.24232 2.82544 0 
3.32026 2.50526 0 4.83824 2.81253 0 2.58037 2.50659 0 
4.27994 2.50085 0 4.00023 2.50048 0 3.34041 2.50512 0 
4.23995 2.50169 0 4.12696 2.81331 0 4.68044 2.50676 0 
4.20005 2.50123 0 2.72056 2.50281 0 4.38045 2.50003 0 
4.30928 2.83092 0 4.70027 2.5057 0 4.7603 2.50257 0 
3.48039 2.50454 0 4.4807 2.50399 0 2.66058 2.50474 0 
3.61252 2.80773 0 4.36015 2.81852 0 2.54041 2.50491 0 
3.65257 2.79402 0 3.70308 2.78778 0 3.7529 2.78417 0 
3.12676 2.76824 0 3.83471 2.76976 0 3.8743 2.76337 0 
3.92698 2.76818 0 4.07729 2.81079 0 2.70049 2.50346 0 
4.04016 2.50047 0 3.22126 2.8003 0 4.60077 2.50713 0 
4.47905 2.7688 0 4.18049 2.81708 0 4.36323 2.78176 0 
4.02179 2.80092 0 4.8759 2.79729 0 2.57536 2.81224 0 
4.38052 2.79609 0 3.27635 2.80972 0 4.74168 2.82623 0 
4.87765 2.78244 0 4.65572 2.83631 0 4.9217 2.7698 0 
4.56084 2.50711 0 4.58068 2.50738 0 3.2804 2.50409 0 
4.15986 2.50272 0 2.52026 2.50503 0 2.64043 2.50535 0 
4.09995 2.50261 0 4.14 2.50216 0 4.72047 2.50527 0 
3.79636 2.77831 0 4.42049 2.50134 0 3.32523 2.81147 0 
4.08003 2.50174 0 4.06008 2.50153 0 2.90458 2.78884 0 
4.46067 2.50267 0 4.59461 2.82435 0 3.46059 2.50461 0 
3.30034 2.50453 0 4.74033 2.50397 0 3.49867 2.83032 0 
3.54037 2.50119 0 3.43478 2.82022 0 2.78045 2.50065 0 
3.44044 2.50529 0 2.80865 2.82286 0 3.24036 2.50186 0 
4.78962 2.82097 0 4.02026 2.50126 0 2.74034 2.50167 0 
4.78048 2.50113 0 4.80043 2.50003 0 2.76052 2.50005 0 
4.98029 2.76838 0 2.85413 2.79504 0 3.03561 2.77068 0 
2.99784 2.77954 0 2.76045 2.83273 0 2.60047 2.50532 0 
2.56037 2.5062 0 4.64041 2.50727 0 4.26018 2.5007 0 
4.40077 2.7589 0 2.95475 2.78561 0 3.07459 2.76392 0 
2.63337 2.81893 0 4.54086 2.50673 0 3.22046 2.50202 0 
4.69941 2.83243 0 3.52059 2.50242 0 4.50088 2.50494 0 
2.81341 2.80832 0 2.62033 2.50618 0 3.26034 2.50319 0 
4.21981 2.50264 0 2.52384 2.81013 0 2.50034 2.50428 0 
3.37685 2.81366 0 4.17981 2.50241 0 2.68037 2.50475 0 
2.69751 2.82946 0 4.66059 2.50729 0 3.50051 2.50316 0 
3.40052 2.50502 0 3.56107 2.83287 0 3.42033 2.50619 0 

VERTICES 900 900
1 0 
1 1 
1 2 
1 3 
1 4 
1 5 
1 6 
1 7 
1 8 
1 9 
1 10 
1 11 
1 12 
1 13 
1 14 
1 15 
1 16 
1 17 
1 18 
1 19 
1 20 
1 21 
1 22 
1 23 
1 24 
1 25 
1 26 
1 27 
1 28 
1 29 
1 30 
1 31 
1 32 
1 33 
1 34 
1 35 
1 36 
1 37 
1 38 
1 39 
1 40 
1 41 
1 42 
1 43 
1 44 
1 45 
1 46 
1 47 
1 48 
1 49 
1 50 
1 51 
1 52 
1 53 
1 54 
1 55 
1 56 
1 57 
1 58 
1 59 
1 60 
1 61 
1 62 
1 63 
1 64 
1 65 
1 66 
1 67 
1 68 
1 69 
1 70 
1 71 
1 72 
1 73 
1 74 
1 75 
1 76 
1 77 
1 78 
1 79 
1 80 
1 81 
1 82 
1 83 
1 84 
1 85 
1 86 
1 87 
1 88 
1 89 
1 90 
1 91 
1 92 
1 93 
1 94 
1 95 
1 96 
1 97 
1 98 
1 99 
1 100 
1 101 
1 102 
1 103 
1 104 
1 105 
1 106 
1 107 
1 108 
1 109 
1 110 
1 111 
1 112 
1 113 
1 114 
1 115 
1 116 
1 117 
1 118 
1 119 
1 120 
1 121 
1 122 
1 123 
1 124 
1 125 
1 126 
1 127 
1 128 
1 129 
1 130 
1 131 
1 132 
1 133 
1 134 
1 135 
1 136 
1 137 
1 138 
1 139 
1 140 
1 141 
1 142 
1 143 
1 144 
1 145 
1 146 
1 147 
1 148 
1 149 
1 150 
1 151 
1 152 
1 153 
1 154 
1 155 
1 156 
1 157 
1 158 
1 159 
1 160 
1 161 
1 162 
1 163 
1 164 
1 165 
1 166 
1 167 
1 168 
1 169 
1 170 
1 171 
1 172 
1 173 
1 174 
1 175 
1 176 
1 177 
1 178 
1 179 
1 180 
1 181 
1 182 
1 183 
1 184 
1 185 
1 186 
1 187 
1 188 
1 189 
1 190 
1 191 
1 192 
1 193 
1 194 
1 195 
1 196 
1 197 
1 198 
1 199 
1 200 
1 201 
1 202 
1 203 
1 204 
1 205 
1 206 
1 207 
1 208 
1 209 
1 210 
1 211 
1 212 
1 213 
1 214 
1 215 
1 216 
1 217 
1 218 
1 219 
1 220 
1 221 
1 222 
1 223 
1 224 
1 225 
1 226 
1 227 
1 228 
1 229 
1 230 
1 231 
1 232 
1 233 
1 234 
1 235 
1 236 
1 237 
1 238 
1 239 
1 240 
1 241 
1 242 
1 243 
1 244 
1 245 
1 246 
1 247 
1 248 
1 249 
1 250 
1 251 
1 252 
1 253 
1 254 
1 255 
1 256 
1 257 
1 258 
1 259 
1 260 
1 261 
1 262 
1 263 
1 264 
1 265 
1 266 
1 267 
1 268 
1 269 
1 270 
1 271 
1 272 
1 273 
1 274 
1 275 
1 276 
1 277 
1 278 
1 279 
1 280 
1 281 
1 282 
1 283 
1 284 
1 285 
1 286 
1 287 
1 288 
1 289 
1 290 
1 291 
1 292 
1 293 
1 294 
1 295 
1 296 
1 297 
1 298 
1 299 
1 300 
1 301 
1 302 
1 303 
1 304 
1 305 
1 306 
1 307 
1 308 
1 309 
1 310 
1 311 
1 312 
1 313 
1 314 
1 315 
1 316 
1 317 
1 318 
1 319 
1 320 
1 321 
1 322 
1 323 
1 324 
1 325 
1 326 
1 327 
1 328 
1 329 
1 330 
1 331 
1 332 
1 333 
1 334 
1 335 
1 336 
1 337 
1 338 
1 339 
1 340 
1 341 
1 342 
1 343 
1 344 
1 345 
1 346 
1 347 
1 348 
1 349 
1 350 
1 351 
1 352 
1 353 
1 354 
1 355 
1 356 
1 357 
1 358 
1 359 
1 360 
1 361 
1 362 
1 363 
1 364 
1 365 
1 366 
1 367 
1 368 
1 369 
1 370 
1 371 
1 372 
1 373 
1 374 
1 375 
1 376 
1 377 
1 378 
1 379 
1 380 
1 381 
1 382 
1 383 
1 384 
1 385 
1 386 
1 387 
1 388 
1 389 
1 390 
1 391 
1 392 
1 393 
1 394 
1 395 
1 396 
1 397 
1 398 
1 399 
1 400 
1 401 
1 402 
1 403 
1 404 
1 405 
1 406 
1 407 
1 408 
1 409 
1 410 
1 411 
1 412 
1 413 
1 414 
1 415 
1 416 
1 417 
1 418 
1 419 
1 420 
1 421 
1 422 
1 423 
1 424 
1 425 
1 426 
1 427 
1 428 
1 429 
1 430 
1 431 
1 432 
1 433 
1 434 
1 435 
1 436 
1 437 
1 438 
1 439 
1 440 
1 441 
1 442 
1 443 
1 444 
1 445 
1 446 
1 447 
1 448 
1 449 

POINT_DATA 450
SCALARS id double
LOOKUP_TABLE default
267 214 39 197 22 38 174 53 36 
55 50 199 200 26 11 51 205 206 
240 202 57 279 278 276 210 238 42 
41 54 48 14 61 247 249 171 59 
209 275 277 169 170 268 44 239 37 
273 196 237 243 241 175 251 253 266 
242 248 12 27 201 166 215 17 34 
18 198 25 24 15 203 56 274 19 
49 270 43 40 46 23 35 285 13 
47 30 31 32 33 29 28 21 204 
52 284 45 20 244 167 58 207 269 
272 283 271 16 246 245 168 208 281 
282 173 250 211 172 252 213 280 60 
212 90 100 4 306 109 307 63 74 
160 0 108 107 86 319 10 311 67 
317 71 310 62 75 348 344 324 104 
91 72 70 2 69 5 68 83 65 
159 76 315 66 88 89 101 73 309 
7 81 158 96 8 157 318 345 102 
103 312 84 99 313 1 349 320 134 
131 6 106 64 9 3 347 316 325 
113 162 165 164 161 114 163 115 323 
308 87 95 92 97 78 105 77 98 
85 322 112 132 110 82 94 79 111 
321 93 314 133 80 346 176 255 372 
262 182 408 180 260 254 395 223 184 
407 226 394 369 227 392 185 396 386 
409 222 370 289 411 288 398 405 287 
363 231 230 290 286 403 391 401 390 
256 367 368 366 365 364 219 224 188 
385 381 406 216 387 389 382 388 181 
393 229 186 187 259 371 183 379 263 
177 178 218 189 400 191 190 258 232 
194 195 264 236 235 265 378 376 384 
377 179 374 404 225 220 217 375 221 
228 373 192 399 383 257 397 380 402 
234 410 193 233 261 142 335 433 122 
147 138 326 136 334 446 332 358 295 
130 116 333 128 444 150 126 302 135 
447 151 154 340 140 299 434 448 293 
435 436 437 425 439 440 441 443 301 
118 426 146 352 445 350 442 359 413 
449 427 356 360 354 361 144 145 330 
124 292 298 121 123 152 438 137 428 
120 119 420 139 353 339 331 153 431 
343 430 305 338 417 328 357 117 303 
155 156 304 362 419 423 422 416 296 
294 148 129 351 421 424 414 143 327 
355 342 141 418 297 329 127 412 291 
429 125 300 415 149 341 336 432 337 

FIELD FieldData 5
r 3 450 double
2.02071 2.49893 0 0.960233 2.49788 0 1.35241 2.21591 0 
0.620329 2.49805 0 0.499922 2.2189 0 1.30118 2.21769 0 
0.160221 2.49746 0 2.06908 2.20033 0 1.18153 2.2313 0 
2.18028 2.18289 0 1.86435 2.22923 0 0.660489 2.49488 0 
0.680459 2.49438 0 0.751524 2.17129 0 0.00619144 2.16429 0 
1.9011 2.2465 0 0.780456 2.49188 0 0.8006 2.49196 0 
1.48033 2.49571 0 0.720441 2.49267 0 2.29722 2.16979 0 
2.26064 2.49488 0 2.24059 2.49433 0 2.20057 2.49449 0 
0.88032 2.49318 0 1.4404 2.4973 0 1.55215 2.17093 0 
1.45718 2.20488 0 2.12872 2.18653 0 1.83266 2.1959 0 
0.136006 2.17948 0 2.45458 2.20436 0 1.62014 2.4943 0 
1.66005 2.49497 0 0.100165 2.49403 0 2.40826 2.17684 0 
0.860453 2.49246 0 2.18054 2.49368 0 2.22046 2.49394 0 
0.0604619 2.49215 0 0.0803235 2.49283 0 2.04054 2.49838 0 
1.64808 2.16945 0 1.46042 2.49646 0 1.2441 2.22353 0 
2.14061 2.49553 0 0.60037 2.49991 0 1.42022 2.49861 0 
1.54039 2.49432 0 1.5005 2.49472 0 0.180412 2.49897 0 
1.70003 2.49797 0 1.73995 2.4993 0 2.00064 2.49979 0 
1.52034 2.49388 0 1.64007 2.49477 0 0.0488125 2.16848 0 
0.806619 2.16414 0 0.700638 2.49326 0 0.000620908 2.49177 0 
0.980387 2.49976 0 0.275504 2.2037 0 1.07686 2.21929 0 
0.277604 2.21845 0 0.640486 2.49623 0 0.656309 2.2059 0 
0.600277 2.21571 0 0.187046 2.1823 0 0.740668 2.49185 0 
2.23502 2.17825 0 2.16056 2.49415 0 0.321985 2.2307 0 
1.86725 2.21268 0 2.0807 2.49648 0 1.60676 2.16432 0 
1.40142 2.21448 0 1.73328 2.18214 0 0.551117 2.2172 0 
1.12182 2.23138 0 2.3805 2.49912 0 0.0902404 2.17497 0 
1.78393 2.18613 0 0.934428 2.1807 0 0.985159 2.18371 0 
1.0354 2.19039 0 1.07415 2.20463 0 0.889241 2.17578 0 
0.848539 2.16882 0 0.443052 2.22445 0 0.760649 2.49159 0 
1.9632 2.24393 0 2.36057 2.49975 0 1.68827 2.1768 0 
0.380843 2.23168 0 1.56046 2.49341 0 0.0204283 2.49161 0 
2.35977 2.16708 0 0.820412 2.49184 0 2.06054 2.49742 0 
2.12053 2.49513 0 2.3404 2.49816 0 2.10049 2.49558 0 
0.237209 2.18915 0 1.60029 2.49474 0 1.58035 2.49381 0 
0.0402764 2.49199 0 0.840264 2.49226 0 2.30057 2.49644 0 
2.32063 2.49706 0 0.140242 2.49599 0 1.68004 2.49642 0 
0.900165 2.49441 0 0.120372 2.49458 0 1.71996 2.49728 0 
0.940251 2.4964 0 2.28046 2.4952 0 2.41342 2.1913 0 
0.920376 2.49498 0 3.96142 2.1669 0 3.68048 2.49401 0 
4.56851 2.22489 0 2.80038 2.49893 0 3.86058 2.49479 0 
2.82045 2.49794 0 2.55549 2.21355 0 3.16069 2.1671 0 
4.8805 2.49447 0 4.47954 2.15516 0 3.84044 2.49404 0 
3.82034 2.49304 0 3.72592 2.18774 0 3.06058 2.49507 0 
4.95054 2.17201 0 2.90032 2.49542 0 2.72646 2.2317 0 
3.02032 2.49359 0 2.97602 2.18697 0 2.88038 2.49587 0 
2.50528 2.21035 0 3.20849 2.17727 0 3.64042 2.49717 0 
3.56056 2.49948 0 3.16052 2.49987 0 3.76035 2.49279 0 
4.00856 2.1776 0 3.03399 2.18034 0 2.92444 2.18913 0 
4.54851 2.1868 0 2.87569 2.19079 0 4.62692 2.23255 0 
2.82078 2.20004 0 3.52697 2.2316 0 2.63592 2.22878 0 
4.86054 2.49499 0 3.2129 2.19188 0 2.98037 2.49314 0 
2.67457 2.23574 0 3.83548 2.17904 0 3.89924 2.16915 0 
3.70041 2.49373 0 3.09801 2.17002 0 2.86032 2.49677 0 
4.74681 2.22149 0 3.43517 2.22964 0 4.84054 2.49636 0 
4.19336 2.22406 0 4.79803 2.21819 0 4.82039 2.49817 0 
3.04043 2.49444 0 3.5805 2.49999 0 3.72032 2.49317 0 
3.74046 2.49349 0 2.92025 2.49468 0 3.62164 2.19916 0 
4.34797 2.21521 0 2.9404 2.4948 0 4.5311 2.16337 0 
3.66042 2.49612 0 3.08037 2.49508 0 4.36046 2.49917 0 
4.30025 2.49947 0 4.69091 2.22631 0 3.80053 2.49409 0 
2.59842 2.21974 0 4.85492 2.20747 0 4.5358 2.20404 0 
3.62051 2.49709 0 3.00047 2.49443 0 3.18046 2.49928 0 
3.94029 2.49806 0 4.92048 2.49268 0 4.98048 2.49174 0 
4.96068 2.4915 0 4.90068 2.49331 0 3.96039 2.49924 0 
4.9407 2.49181 0 3.98035 2.4989 0 3.14034 2.49823 0 
2.84035 2.49811 0 3.7776 2.18552 0 4.15131 2.21721 0 
4.01243 2.19233 0 4.23202 2.23149 0 3.30397 2.21141 0 
3.78041 2.49223 0 3.25328 2.20537 0 4.27817 2.2341 0 
3.67691 2.18958 0 3.12057 2.49707 0 3.92053 2.49693 0 
4.32035 2.49967 0 3.88037 2.49489 0 3.4745 2.2362 0 
4.10241 2.2131 0 3.35377 2.215 0 3.90051 2.49587 0 
3.10049 2.4964 0 4.0523 2.20631 0 2.96031 2.4939 0 
4.34021 2.49918 0 3.39707 2.22095 0 3.60043 2.49817 0 
0.20037 2.50011 0 1.78002 2.50101 0 0.53512 2.82003 0 
1.92062 2.50509 0 0.32044 2.50749 0 2.27428 2.76366 0 
0.280458 2.50572 0 1.88046 2.50557 0 1.7601 2.50094 0 
1.64545 2.77748 0 1.14069 2.50863 0 0.360649 2.50863 0 
2.23418 2.76949 0 1.20061 2.50857 0 1.58266 2.76899 0 
0.406298 2.83592 0 1.22042 2.50873 0 1.4769 2.7806 0 
0.380455 2.50836 0 1.70285 2.78359 0 1.24837 2.83108 0 
2.32637 2.76811 0 1.12052 2.50817 0 0.448566 2.83148 0 
2.46034 2.50294 0 2.47523 2.80859 0 2.44038 2.50161 0 
1.80485 2.78783 0 2.14522 2.78281 0 2.42048 2.50179 0 
0.0423236 2.77527 0 1.30015 2.50637 0 1.28031 2.50753 0 
2.4804 2.50383 0 2.40048 2.50121 0 2.06522 2.81283 0 
1.47375 2.79521 0 2.03222 2.84595 0 1.43467 2.80925 0 
1.80014 2.50218 0 0.255606 2.79361 0 0.350948 2.8285 0 
0.199453 2.78373 0 0.15024 2.78225 0 0.0990804 2.78064 0 
1.06051 2.50557 0 1.16067 2.5089 0 0.440261 2.50806 0 
1.20677 2.836 0 0.951802 2.78362 0 2.19303 2.77679 0 
1.00036 2.5009 0 1.28874 2.8239 0 1.3843 2.81577 0 
1.00092 2.7851 0 1.33368 2.81882 0 0.300637 2.50687 0 
1.5224 2.76883 0 1.26045 2.5082 0 0.400599 2.50831 0 
0.42041 2.50846 0 1.86041 2.50496 0 0.489638 2.82475 0 
0.340668 2.50834 0 0.84357 2.77616 0 1.94058 2.50325 0 
0.220328 2.50199 0 0.240485 2.50382 0 1.0405 2.50421 0 
0.460449 2.50788 0 1.97043 2.84476 0 0.500157 2.50597 0 
0.480314 2.50718 0 1.84024 2.50455 0 1.32035 2.50588 0 
0.56022 2.50254 0 0.580372 2.50067 0 1.9608 2.50198 0 
1.40028 2.50036 0 1.38035 2.50176 0 1.98069 2.50209 0 
0.781174 2.76864 0 0.677188 2.78126 0 1.15192 2.82911 0 
0.721769 2.76891 0 0.260488 2.5052 0 0.636223 2.81035 0 
2.0981 2.79426 0 1.18051 2.50901 0 1.08048 2.50607 0 
1.02031 2.50277 0 0.674764 2.79596 0 1.10066 2.50719 0 
1.24027 2.50834 0 0.58601 2.81711 0 0.520367 2.50542 0 
1.86407 2.80141 0 1.05684 2.79482 0 1.82028 2.504 0 
1.75463 2.78581 0 0.900562 2.78187 0 2.06876 2.82856 0 
1.36019 2.50317 0 2.42051 2.79953 0 0.54024 2.50401 0 
1.34022 2.50455 0 1.90047 2.50448 0 4.52073 2.50586 0 
3.38038 2.50672 0 3.60848 2.8224 0 4.11983 2.50301 0 
4.62057 2.50747 0 4.44066 2.50178 0 3.20039 2.50103 0 
4.40043 2.50025 0 3.36032 2.50599 0 4.24232 2.82544 0 
3.32026 2.50526 0 4.83824 2.81253 0 2.58037 2.50659 0 
4.27994 2.50085 0 4.00023 2.50048 0 3.34041 2.50512 0 
4.23995 2.50169 0 4.12696 2.81331 0 4.68044 2.50676 0 
4.20005 2.50123 0 2.72056 2.50281 0 4.38045 2.50003 0 
4.30928 2.83092 0 4.70027 2.5057 0 4.7603 2.50257 0 
3.48039 2.50454 0 4.4807 2.50399 0 2.66058 2.50474 0 
3.61252 2.80773 0 4.36015 2.81852 0 2.54041 2.50492 0 
3.65257 2.79402 0 3.70308 2.78778 0 3.7529 2.78417 0 
3.12676 2.76824 0 3.83471 2.76976 0 3.8743 2.76337 0 
3.92698 2.76818 0 4.07729 2.81079 0 2.70049 2.50346 0 
4.04016 2.50047 0 3.22126 2.8003 0 4.60077 2.50713 0 
4.47905 2.7688 0 4.18049 2.81708 0 4.36323 2.78176 0 
4.02179 2.80092 0 4.8759 2.79729 0 2.57536 2.81224 0 
4.38052 2.79609 0 3.27635 2.80972 0 4.74168 2.82623 0 
4.87764 2.78244 0 4.65572 2.83631 0 4.9217 2.7698 0 
4.56084 2.50711 0 4.58068 2.50738 0 3.2804 2.50409 0 
4.15986 2.50272 0 2.52026 2.50503 0 2.64043 2.50535 0 
4.09995 2.50261 0 4.14 2.50216 0 4.72047 2.50527 0 
3.79636 2.77831 0 4.42049 2.50134 0 3.32523 2.81147 0 
4.08003 2.50174 0 4.06008 2.50153 0 2.90458 2.78884 0 
4.46067 2.50267 0 4.59461 2.82435 0 3.46059 2.50461 0 
3.30034 2.50453 0 4.74033 2.50397 0 3.49867 2.83032 0 
3.54037 2.50119 0 3.43478 2.82022 0 2.78045 2.50065 0 
3.44044 2.50529 0 2.80865 2.82286 0 3.24036 2.50186 0 
4.78962 2.82097 0 4.02026 2.50126 0 2.74034 2.50167 0 
4.78048 2.50113 0 4.80043 2.50003 0 2.76052 2.50005 0 
4.98029 2.76838 0 2.85413 2.79504 0 3.03561 2.77068 0 
2.99784 2.77954 0 2.76045 2.83273 0 2.60047 2.50532 0 
2.56037 2.5062 0 4.64041 2.50727 0 4.26018 2.5007 0 
4.40078 2.7589 0 2.95475 2.78561 0 3.07459 2.76392 0 
2.63337 2.81893 0 4.54086 2.50673 0 3.22046 2.50202 0 
4.69941 2.83243 0 3.52059 2.50242 0 4.50088 2.50494 0 
2.81341 2.80832 0 2.62033 2.50618 0 3.26034 2.50319 0 
4.21981 2.50264 0 2.52384 2.81013 0 2.50034 2.50428 0 
3.37685 2.81366 0 4.17981 2.50241 0 2.68037 2.50475 0 
2.69751 2.82946 0 4.66059 2.50729 0 3.50051 2.50316 0 
3.40052 2.50502 0 3.56107 2.83287 0 3.42033 2.50619 0 

gid 1 450 double
0 0 -1 0 -1 -1 0 -1 -1 
-1 -1 0 0 -1 -1 -1 0 0 
0 0 -1 0 0 0 0 0 -1 
-1 -1 -1 -1 -1 0 0 0 -1 
0 0 0 0 0 0 -1 0 -1 
0 0 0 0 0 0 0 0 0 
0 0 -1 -1 0 0 0 -1 -1 
-1 0 -1 -1 -1 0 -1 0 -1 
-1 0 -1 -1 -1 -1 -1 0 -1 
-1 -1 -1 -1 -1 -1 -1 -1 0 
-1 0 -1 -1 0 0 -1 0 0 
0 0 0 -1 0 0 0 0 0 
0 0 0 0 0 0 0 0 -1 
0 -1 0 -1 0 0 0 -1 -1 
0 -1 0 0 -1 0 -1 0 -1 
0 -1 0 -1 -1 0 0 0 0 
-1 -1 -1 -1 -1 -1 -1 -1 -1 
0 -1 0 -1 -1 -1 0 -1 0 
-1 -1 0 -1 -1 0 0 0 0 
0 0 -1 -1 0 -1 0 0 0 
0 -1 0 -1 -1 -1 0 0 0 
0 0 0 0 0 0 0 0 0 
0 -1 -1 -1 -1 -1 0 -1 -1 
-1 0 0 0 0 -1 -1 -1 0 
0 -1 0 0 -1 0 0 0 1 
0 0 1 0 0 0 1 0 0 
1 0 1 1 0 1 0 1 1 
1 0 1 0 1 0 1 1 0 
1 0 0 0 0 1 1 1 1 
0 1 1 1 1 1 0 0 0 
1 1 1 0 1 1 1 1 0 
1 0 0 0 0 1 0 1 0 
0 0 0 0 1 0 0 0 0 
0 0 0 0 0 0 1 1 1 
1 0 1 1 0 0 0 1 0 
0 1 0 1 1 0 1 1 1 
0 1 0 0 0 0 0 1 0 
0 0 0 0 0 1 0 1 0 
0 0 0 0 1 0 0 0 0 
1 0 0 0 0 0 1 1 0 
1 1 1 1 1 1 1 1 0 
0 1 0 1 1 1 1 1 1 
1 1 1 1 1 1 0 0 0 
0 0 0 0 0 0 1 0 1 
0 0 1 0 1 0 0 0 1 
0 1 0 0 1 0 1 0 0 
0 0 0 1 1 1 1 1 0 
0 0 0 1 1 1 1 0 0 
1 0 0 1 0 0 0 1 0 
1 0 0 1 0 0 0 1 0 

w 1 450 double
0 0 -0.3 0 -0.3 -0.3 0 -0.3 -0.3 
-0.3 -0.3 0 0 -0.3 -0.3 -0.3 0 0 
0 0 -0.3 0 0 0 0 0 -0.3 
-0.3 -0.3 -0.3 -0.3 -0.3 0 0 0 -0.3 
0 0 0 0 0 0 -0.3 0 -0.3 
0 0 0 0 0 0 0 0 0 
0 0 -0.3 -0.3 0 0 0 -0.3 -0.3 
-0.3 0 -0.3 -0.3 -0.3 0 -0.3 0 -0.3 
-0.3 0 -0.3 -0.3 -0.3 -0.3 -0.3 0 -0.3 
-0.3 -0.3 -0.3 -0.3 -0.3 -0.3 -0.3 -0.3 0 
-0.3 0 -0.3 -0.3 0 0 -0.3 0 0 
0 0 0 -0.3 0 0 0 0 0 
0 0 0 0 0 0 0 0 -0.3 
0 -0.3 0 -0.3 0 0 0 -0.3 -0.3 
0 -0.3 0 0 -0.3 0 -0.3 0 -0.3 
0 -0.3 0 -0.3 -0.3 0 0 0 0 
-0.3 -0.3 -0.3 -0.3 -0.3 -0.3 -0.3 -0.3 -0.3 
0 -0.3 0 -0.3 -0.3 -0.3 0 -0.3 0 
-0.3 -0.3 0 -0.3 -0.3 0 0 0 0 
0 0 -0.3 -0.3 0 -0.3 0 0 0 
0 -0.3 0 -0.3 -0.3 -0.3 0 0 0 
0 0 0 0 0 0 0 0 0 
0 -0.3 -0.3 -0.3 -0.3 -0.3 0 -0.3 -0.3 
-0.3 0 0 0 0 -0.3 -0.3 -0.3 0 
0 -0.3 0 0 -0.3 0 0 0 0.3 
0 0 0.3 0 0 0 0.3 0 0 
0.3 0 0.3 0.3 0 0.3 0 0.3 0.3 
0.3 0 0.3 0 0.3 0 0.3 0.3 0 
0.3 0 0 0 0 0.3 0.3 0.3 0.3 
0 0.3 0.3 0.3 0.3 0.3 0 0 0 
0.3 0.3 0.3 0 0.3 0.3 0.3 0.3 0 
0.3 0 0 0 0 0.3 0 0.3 0 
0 0 0 0 0.3 0 0 0 0 
0 0 0 0 0 0 0.3 0.3 0.3 
0.3 0 0.3 0.3 0 0 0 0.3 0 
0 0.3 0 0.3 0.3 0 0.3 0.3 0.3 
0 0.3 0 0 0 0 0 0.3 0 
0 0 0 0 0 0.3 0 0.3 0 
0 0 0 0 0.3 0 0 0 0 
0.3 0 0 0 0 0 0.3 0.3 0 
0.3 0.3 0.3 0.3 0.3 0.3 0.3 0.3 0 
0 0.3 0 0.3 0.3 0.3 0.3 0.3 0.3 
0.3 0.3 0.3 0.3 0.3 0.3 0 0 0 
0 0 0 0 0 0 0.3 0 0.3 
0 0 0.3 0 0.3 0 0 0 0.3 
0 0.3 0 0 0.3 0 0.3 0 0 
0 0 0 0.3 0.3 0.3 0.3 0.3 0 
0 0 0 0.3 0.3 0.3 0.3 0 0 
0.3 0 0 0.3 0 0 0 0.3 0 
0.3 0 0 0.3 0 0 0 0.3 0 

v 3 450 double
-5.5284 0.0679225 0 -5.5469 -0.148829 0 -2.71805 0.203256 0 
-5.54163 0.0779735 0 -2.72085 0.214474 0 -2.70343 0.199273 0 
-5.54693 -0.15486 0 -2.52014 -0.00599452 0 -3.03217 0.390694 0 
-2.34865 -0.221783 0 -3.21167 0.306133 0 -5.53498 0.0133245 0 
-5.53825 -0.0105374 0 -2.11407 -0.376908 0 -1.99213 -0.460965 0 
-3.52217 0.610781 0 -5.53283 -0.12965 0 -5.53136 -0.123724 0 
-5.53836 -0.0294393 0 -5.5332 -0.0748028 0 -2.09838 -0.396666 0 
-5.53568 -0.147851 0 -5.5341 -0.155035 0 -5.53712 -0.102555 0 
-5.5383 -0.182123 0 -5.53831 0.0342692 0 -2.10017 -0.381798 0 
-2.65797 0.117409 0 -2.34855 -0.202075 0 -2.23626 0.0117413 0 
-2.27855 -0.253991 0 -2.74894 0.0484948 0 -5.54064 -0.134623 0 
-5.54542 -0.136587 0 -5.54419 -0.182809 0 -2.01188 -0.225038 0 
-5.53846 -0.163005 0 -5.53395 -0.100885 0 -5.53619 -0.120707 0 
-5.53794 -0.165183 0 -5.53789 -0.185267 0 -5.53126 0.0344159 0 
-2.10099 -0.388616 0 -5.53693 0.0119705 0 -2.80603 0.278567 0 
-5.53417 -0.0550269 0 -5.54295 0.136647 0 -5.54198 0.0749177 0 
-5.53634 -0.0897202 0 -5.53408 -0.0321372 0 -5.54185 -0.138905 0 
-5.55182 -0.142375 0 -5.55026 -0.115085 0 -5.53325 0.0786107 0 
-5.53564 -0.0713132 0 -5.54321 -0.137446 0 -2.10795 -0.398867 0 
-1.98177 -0.461118 0 -5.5317 -0.03378 0 -5.53055 -0.12288 0 
-5.54139 -0.132534 0 -2.44881 0.103208 0 -3.02155 0.148457 0 
-3.01441 0.135965 0 -5.5372 0.0366 0 -2.67088 0.131041 0 
-2.77628 0.23525 0 -2.20806 -0.22737 0 -5.53237 -0.0955538 0 
-2.2976 -0.270852 0 -5.53543 -0.0595517 0 -3.17015 0.353882 0 
-2.56306 0.261907 0 -5.53011 0.0146549 0 -1.97073 -0.459246 0 
-2.76119 0.220123 0 -2.28815 -0.225245 0 -2.73498 0.218811 0 
-3.17967 0.359715 0 -5.53308 -0.0812195 0 -2.24121 -0.306 0 
-2.21575 -0.173885 0 -2.29847 -0.238162 0 -2.23326 -0.209241 0 
-2.21309 -0.097557 0 -2.46394 0.113295 0 -2.25168 -0.295766 0 
-2.10733 -0.393995 0 -2.82269 0.290852 0 -5.52958 -0.0948578 0 
-3.29211 0.676314 0 -5.53442 -0.0729346 0 -2.24727 -0.287939 0 
-3.04659 0.395066 0 -5.53348 -0.0865797 0 -5.53422 -0.152797 0 
-1.91115 -0.408747 0 -5.53493 -0.152656 0 -5.53393 0.0353064 0 
-5.53381 -0.0122531 0 -5.53422 -0.118433 0 -5.53342 -0.0265102 0 
-2.18968 -0.111892 0 -5.53666 -0.109221 0 -5.53523 -0.13748 0 
-5.53628 -0.160603 0 -5.5369 -0.159447 0 -5.53241 -0.140938 0 
-5.53208 -0.141017 0 -5.54218 -0.16757 0 -5.54553 -0.150848 0 
-5.54448 -0.178785 0 -5.5413 -0.176953 0 -5.54991 -0.130636 0 
-5.54226 -0.162067 0 -5.53506 -0.155896 0 -2.53629 -0.162943 0 
-5.5415 -0.17212 0 -1.88434 -0.406893 0 -5.53583 -0.0145608 0 
-3.28855 0.175744 0 -5.53699 0.047672 0 -5.53656 -0.143286 0 
-5.53523 0.0498593 0 -2.6661 0.177512 0 -1.89407 -0.408574 0 
-5.53669 -0.0062415 0 -1.5479 -0.730546 0 -5.53982 -0.152753 0 
-5.53987 -0.139612 0 -2.40521 -0.165022 0 -5.53695 -0.137653 0 
-2.1308 -0.37003 0 -5.53939 -0.031727 0 -3.02456 0.4349 0 
-5.54069 -0.133228 0 -2.43262 -0.149388 0 -5.53837 -0.00999472 0 
-2.7293 0.139406 0 -2.0061 -0.219272 0 -5.53577 0.0287598 0 
-5.53552 0.0750578 0 -5.53597 -0.0741028 0 -5.54042 -0.0848597 0 
-2.00627 -0.210954 0 -2.32515 -0.224995 0 -2.42116 -0.149201 0 
-2.08068 -0.128068 0 -2.37826 -0.147709 0 -3.18427 0.431938 0 
-2.47629 -0.0314529 0 -3.01711 0.434858 0 -2.94641 0.365687 0 
-5.53325 0.0173669 0 -2.54055 -0.158829 0 -5.53957 -0.117638 0 
-3.12032 0.460322 0 -2.30736 -0.240643 0 -2.07122 -0.400248 0 
-5.53701 -0.0369724 0 -2.0874 -0.390964 0 -5.53929 0.0301952 0 
-2.81913 0.293511 0 -2.95548 0.376682 0 -5.53527 0.0400537 0 
-2.84701 0.313258 0 -2.81297 0.271376 0 -5.53946 0.0804223 0 
-5.54042 -0.146691 0 -5.53386 0.0814956 0 -5.53937 -0.0408012 0 
-5.53891 -0.0823116 0 -5.54157 -0.0350065 0 -2.46704 -0.0427384 0 
-2.7003 0.214746 0 -5.54084 -0.0761008 0 -1.48045 -0.449917 0 
-5.53815 0.0265181 0 -5.53809 -0.16299 0 -5.54467 -0.0547234 0 
-5.54846 0.0397615 0 -2.91609 0.357123 0 -5.53889 -0.104816 0 
-2.74975 0.241321 0 -2.69135 0.150086 0 -2.85278 -0.16166 0 
-5.53402 0.0481648 0 -5.53966 -0.0982019 0 -5.5344 -0.0810728 0 
-5.5367 -0.124207 0 -5.53195 -0.0709016 0 -5.53193 -0.12785 0 
-5.52854 -0.0922288 0 -5.53029 -0.0295664 0 -5.53718 -0.0768092 0 
-5.53122 -0.0922038 0 -5.53596 -0.0833873 0 -5.53611 -0.120993 0 
-5.53711 0.0314795 0 -2.41483 -0.166303 0 -2.74178 0.224878 0 
-2.54786 -0.152651 0 -3.02185 0.403277 0 -2.73974 0.157574 0 
-5.5382 -0.124234 0 -2.76742 0.0580635 0 -3.06891 0.463723 0 
-2.36555 -0.161932 0 -5.53432 -0.145007 0 -5.5346 -0.148841 0 
-5.54456 0.00869203 0 -5.53791 -0.168086 0 -3.11972 0.467263 0 
-2.76996 0.186464 0 -2.69203 0.195479 0 -5.53502 -0.150914 0 
-5.535 -0.146445 0 -2.78416 0.0713394 0 -5.54209 -0.0783876 0 
-5.54889 -0.0231255 0 -2.76877 0.256117 0 -5.53599 0.0470683 0 
-5.5428 -0.139342 0 -5.55033 -0.0754923 0 -2.28893 0.246159 0 
-5.53497 0.185687 0 -5.53313 0.0730712 0 -3.13257 -0.472023 0 
-5.53816 0.00818054 0 -5.54191 0.13471 0 -5.55451 -0.0964049 0 
-2.79274 -0.268815 0 -5.53178 0.0980434 0 -5.52951 0.0939955 0 
-2.99776 -0.402998 0 -5.53078 0.124954 0 -3.01585 -0.403714 0 
-1.98688 0.460837 0 -5.53436 0.153483 0 -3.02338 -0.153222 0 
-5.53278 0.129275 0 -2.68874 -0.187035 0 -2.10937 0.39161 0 
-3.02782 -0.434088 0 -5.5322 0.0777125 0 -2.10789 0.396386 0 
-5.53855 -0.0327532 0 -2.38474 0.142149 0 -5.53617 -0.0335514 0 
-2.72354 -0.206607 0 -2.90308 -0.229132 0 -5.53413 -0.0513704 0 
-2.83235 -0.296158 0 -5.54416 0.178445 0 -5.53789 0.18197 0 
-5.53776 0.00700513 0 -5.53539 -0.0484993 0 -2.4717 0.281572 0 
-2.47124 -0.11598 0 -1.53561 0.608043 0 -2.22574 0.0924239 0 
-5.54878 -0.0523088 0 -2.67878 -0.138737 0 -2.12168 0.373047 0 
-2.78533 -0.24332 0 -2.74485 -0.226763 0 -2.73084 -0.221829 0 
-5.53447 -0.00960825 0 -5.52899 0.0969351 0 -5.53689 0.160658 0 
-1.97918 0.461324 0 -2.72658 -0.209889 0 -2.88709 -0.309081 0 
-5.5422 -0.132761 0 -2.25905 0.290718 0 -2.24759 0.201127 0 
-2.76878 -0.226402 0 -2.31041 0.230513 0 -5.53162 0.0317108 0 
-3.17332 -0.361088 0 -5.53798 0.163125 0 -5.53132 0.123877 0 
-5.5349 0.153336 0 -5.54562 0.113808 0 -2.2468 0.300921 0 
-5.5323 0.0942336 0 -2.81423 -0.283944 0 -5.53295 0.156922 0 
-5.5415 -0.0807044 0 -5.53709 -0.0392831 0 -5.53674 -0.0327324 0 
-5.53847 0.164742 0 -1.75831 0.679644 0 -5.54458 0.181456 0 
-5.53835 0.184351 0 -5.54986 0.0716041 0 -5.54131 0.171674 0 
-5.54716 0.152488 0 -5.5417 0.136371 0 -5.53075 0.161155 0 
-5.54302 0.133048 0 -5.54221 0.132416 0 -5.52967 0.122339 0 
-3.03877 -0.392132 0 -3.01756 -0.141691 0 -2.10867 0.380691 0 
-3.18176 -0.355557 0 -5.53488 -0.0158795 0 -2.2017 0.104926 0 
-2.85246 0.00828651 0 -5.53006 0.150284 0 -5.5377 0.0140373 0 
-5.5408 -0.0740912 0 -2.45629 -0.107801 0 -5.53113 0.0369871 0 
-5.53638 0.1599 0 -2.22112 0.218411 0 -5.54164 0.175194 0 
-2.55013 -0.017284 0 -2.66472 -0.122875 0 -5.5468 0.00956665 0 
-2.69672 -0.185199 0 -2.71224 -0.205941 0 -1.83606 0.29811 0 
-5.54711 0.148499 0 -2.48101 0.029107 0 -5.54245 0.16547 0 
-5.54225 0.161617 0 -5.54011 0.152847 0 -5.52427 0.0166446 0 
-5.53923 0.121316 0 -2.00475 0.215126 0 -5.55073 0.0240918 0 
-5.52915 0.118812 0 -5.53452 -0.0787293 0 -5.53668 -0.0471797 0 
-5.53956 -0.0739002 0 -5.54171 0.081988 0 -2.13232 0.344995 0 
-5.54113 0.0382158 0 -2.17497 0.133153 0 -5.53944 0.113709 0 
-5.55309 0.0688559 0 -5.53891 -0.0493641 0 -5.54043 0.0795513 0 
-5.55602 0.0794706 0 -2.37537 0.190114 0 -5.53366 0.164908 0 
-5.55446 0.0557177 0 -5.53444 0.143234 0 -5.5421 -0.0656837 0 
-1.81458 0.373862 0 -5.54036 0.166753 0 -5.54409 0.148935 0 
-5.53789 0.165798 0 -5.52986 -0.0287052 0 -5.53695 0.134527 0 
-2.54377 0.156276 0 -1.89009 0.081282 0 -5.54056 0.072287 0 
-2.77588 -0.0630344 0 -2.75082 -0.165786 0 -2.70203 -0.20409 0 
-3.01985 -0.435325 0 -2.95783 -0.381914 0 -3.11788 -0.470701 0 
-3.01211 -0.435652 0 -2.35295 0.171527 0 -5.53508 0.144165 0 
-5.54112 -0.0330466 0 -2.47048 0.0369831 0 -5.52533 0.0851384 0 
-3.1492 -0.587581 0 -2.33802 0.227434 0 -3.20597 -0.120952 0 
-2.45986 0.0465283 0 -2.44677 -0.092845 0 -2.44151 0.140815 0 
-2.49369 -0.211737 0 -2.37058 0.154864 0 -2.16234 0.357438 0 
-3.01734 -0.123617 0 -1.9805 0.503145 0 -3.17678 -0.347224 0 
-5.52321 0.0510128 0 -5.5245 0.106478 0 -5.53792 0.0125162 0 
-5.55219 0.0359955 0 -5.54121 0.0313945 0 -5.5404 0.143247 0 
-5.54688 0.0248173 0 -5.55156 0.0596563 0 -5.53773 0.164808 0 
-2.77546 -0.263133 0 -5.53755 -0.0784845 0 -2.41173 0.157292 0 
-5.54519 0.00576784 0 -5.5445 -0.0326049 0 -2.73962 -0.148293 0 
-5.532 -0.0747603 0 -2.21667 0.346046 0 -5.53674 0.140787 0 
-5.53895 0.0346282 0 -5.53899 0.15878 0 -2.07683 0.396342 0 
-5.53575 0.122474 0 -2.31429 0.23343 0 -5.53464 0.08099 0 
-5.54019 0.150078 0 -2.00393 0.222796 0 -5.53672 -0.029892 0 
-2.15878 0.281401 0 -5.53793 -0.0511963 0 -5.53628 0.119762 0 
-5.53933 0.135335 0 -5.54054 0.137632 0 -5.5362 0.0734461 0 
-3.05565 -0.395465 0 -2.75432 -0.053347 0 -2.94973 -0.371779 0 
-2.75757 -0.249352 0 -1.89846 0.408656 0 -5.53956 0.0943452 0 
-5.54149 0.0745304 0 -5.53148 0.130994 0 -5.55248 0.0568625 0 
-3.62313 -0.556085 0 -2.67671 -0.187183 0 -3.11903 -0.464343 0 
-2.33403 0.216526 0 -5.526 0.0524269 0 -5.53485 -0.0488039 0 
-2.0605 0.438869 0 -5.53404 0.146974 0 -5.52318 -0.0169201 0 
-2.53358 0.161155 0 -5.54063 0.129539 0 -5.53886 -0.0281172 0 
-5.55639 0.0790136 0 -2.42919 0.141839 0 -5.53892 0.0283842 0 
-2.4221 0.158203 0 -5.55587 0.0665424 0 -5.53813 0.160259 0 
-2.09547 0.385352 0 -5.5333 0.140287 0 -5.53476 0.148861 0 
-5.53968 0.101922 0 -1.88674 0.407993 0 -5.54044 0.136795 0 

noise 3 450 double
0 0.000998984 0 -0 -0.000586163 0 -0 -8.58726e-06 0 
0 0.000189209 0 0 0.000454947 0 0 0.000379541 0 
-0 -0.000651323 0 0 0.000647405 0 0 0.000926527 0 
-0 -9.14717e-05 0 0 0.000946997 0 -0 -0.000127605 0 
-0 -0.00028318 0 -0 -0.000899768 0 -0 -0.000990673 0 
0 0.000997491 0 -0 -0.000883313 0 -0 -0.000946444 0 
-0 -0.000361728 0 -0 -0.000569106 0 -0 -0.000775417 0 
-0 -0.000289762 0 -0 -0.000134415 0 0 0.000182459 0 
-0 -0.000952984 0 -0 -5.17879e-05 0 -0 -0.000932852 0 
-0 -0.000720388 0 0 0.000301521 0 0 0.000433147 0 
-0 -0.000491506 0 -0 -0.000615223 0 -0 -0.000996253 0 
-0 -0.000973273 0 -0 -0.000927172 0 -0 -0.000993695 0 
-0 -0.000988964 0 0 0.000335976 0 0 2.43291e-05 0 
-0 -0.000997843 0 -0 -0.000974828 0 0 0.000993501 0 
-0 -0.000910118 0 -0 -0.000209405 0 0 0.000708371 0 
0 0.000613868 0 0 0.000342439 0 0 0.000107138 0 
-0 -0.000749685 0 -0 -0.000504908 0 -0 -0.000522834 0 
-0 -0.000852509 0 -0 -0.000646095 0 0 0.000979215 0 
-0 -0.000635326 0 -0 -0.000997368 0 -0 -0.00096608 0 
-0 -0.00099856 0 -0 -0.000431598 0 -0 -0.000916414 0 
-0 -0.000450352 0 0 0.000628671 0 0 0.0009171 0 
0 0.000880886 0 0 3.11963e-05 0 -0 -0.000660399 0 
-0 -0.000317851 0 -0 -0.000115672 0 -0 -0.000692229 0 
-0 -0.000470173 0 0 0.000481001 0 0 0.000995474 0 
0 0.000748547 0 0 0.000907971 0 -0 -0.00099957 0 
-0 -0.000395374 0 -0 -0.000340825 0 0 7.43564e-05 0 
0 0.000999926 0 -0 -0.00094864 0 -0 -0.00079055 0 
0 5.00726e-05 0 -0 -0.000417603 0 -0 -3.29129e-05 0 
0 0.00035692 0 0 0.000690989 0 -0 -0.000737049 0 
-0 -0.00094134 0 0 0.000764458 0 -0 -0.000797855 0 
0 0.000892141 0 -0 -0.000886513 0 -0 -0.000678472 0 
0 0.000954532 0 -0 -0.000845094 0 -0 -0.000968262 0 
-0 -0.000959511 0 -0 -0.000985652 0 0 0.000962906 0 
0 0.000731218 0 -0 -0.000801977 0 0 0.000830086 0 
0 0.000278235 0 -0 -0.000969956 0 -0 -0.000919142 0 
-0 -0.000995636 0 -0 -0.000999945 0 -0 -0.000574742 0 
-0 -0.000697171 0 -0 -0.000763349 0 -0 -0.000924576 0 
-0 -0.000892915 0 -0 -0.00085608 0 -0 -0.000758894 0 
-0 -0.000707157 0 -0 -0.000437785 0 -0 -0.000872627 0 
-0 -0.000810277 0 -0 -0.000992867 0 0 7.94935e-05 0 
0 0.000975964 0 0 0.000992661 0 0 0.00099827 0 
0 0.000999281 0 0 0.000132713 0 -0 -0.000979562 0 
-0 -0.000202682 0 0 0.000197634 0 0 0.000976336 0 
0 0.000929724 0 0 0.000139803 0 -0 -0.000368124 0 
-0 -0.000860487 0 0 0.00078099 0 0 0.000988187 0 
-0 -5.86473e-05 0 -0 -0.000173726 0 0 0.000870099 0 
-0 -0.000261698 0 -0 -0.000980977 0 0 0.000961029 0 
0 0.000937115 0 -0 -0.000921826 0 0 0.000656521 0 
-0 -0.000961502 0 -0 -0.000541735 0 0 0.000221425 0 
0 0.000838606 0 0 0.000581981 0 0 0.00081528 0 
0 0.00085161 0 0 0.000972077 0 0 0.00080095 0 
-0 -4.4926e-05 0 -0 -0.000829127 0 0 0.000256722 0 
0 0.000970373 0 -0 -0.000609565 0 -0 -0.00086911 0 
0 0.000236471 0 -0 -0.000825104 0 0 0.000937216 0 
0 0.000156788 0 0 0.000847837 0 0 0.000113966 0 
0 0.000641934 0 -0 -0.00023814 0 0 0.000269977 0 
-0 -0.000216117 0 0 0.000980586 0 0 0.000387472 0 
0 0.000528678 0 0 0.000672139 0 0 0.000805215 0 
0 0.000949272 0 0 0.000546299 0 0 0.000562024 0 
0 0.000905071 0 -0 -0.000510826 0 -0 -0.000711998 0 
-0 -0.000955043 0 0 0.000527219 0 0 0.000859611 0 
0 0.00050639 0 -0 -0.000595861 0 0 0.000984166 0 
0 0.000992696 0 0 0.000100305 0 -0 -0.000971605 0 
0 0.000837669 0 -0 -0.000498967 0 -0 -0.000841401 0 
-0 -0.000745121 0 -0 -0.000355315 0 0 0.000740521 0 
-0 -0.000630006 0 0 0.000624656 0 -0 -0.000848747 0 
0 0.000980642 0 -0 -0.000254784 0 0 0.00029469 0 
-0 -0.000779916 0 0 0.000888885 0 -0 -0.00018077 0 
0 0.000767769 0 -0 -0.000547736 0 0 0.000996959 0 
0 0.000512548 0 -0 -0.000754214 0 0 0.000913642 0 
-0 -0.000895987 0 0 0.000994971 0 0 0.000987065 0 
-0 -9.85961e-05 0 0 0.00021444 0 0 0.000966522 0 
-0 -0.000640616 0 -0 -0.000476478 0 0 0.00040665 0 
-0 -0.000814284 0 0 0.000576146 0 0 0.00099927 0 
-0 -0.000381129 0 -0 -0.000374769 0 0 0.000454947 0 
0 0.000666823 0 0 0.000534497 0 -0 -0.000959511 0 
0 0.000243141 0 0 0.000400101 0 -0 -0.000516966 0 
-0 -0.000678472 0 0 0.000721578 0 0 0.000772153 0 
-0 -0.000775417 0 0 0.000959026 0 -0 -0.000910118 0 
0 0.000995474 0 0 0.000991807 0 -0 -0.000932852 0 
0 0.0008631 0 -0 -0.000340825 0 0 0.000926527 0 
-0 -0.000993695 0 0 0.000602735 0 0 0.000954532 0 
-0 -0.00095088 0 -0 -0.000615223 0 -0 -0.000987922 0 
0 0.000433147 0 -0 -9.14717e-05 0 -0 -0.000999994 0 
-0 -0.00079055 0 0 0.000873465 0 0 0.000939589 0 
-0 -0.000889801 0 -0 -0.000986788 0 0 0.000647405 0 
-0 -0.000720388 0 0 0.000997491 0 -0 -0.000395374 0 
-0 -0.000223099 0 0 0.000628671 0 0 0.000880886 0 
0 0.000278235 0 -0 -0.000115672 0 -0 -0.000491506 0 
0 0.00016865 0 0 0.000822182 0 0 0.000998651 0 
0 0.000999926 0 -0 -3.29129e-05 0 -0 -0.000470173 0 
-0 -0.000303158 0 0 0.000708371 0 -0 -8.58726e-06 0 
0 0.00035692 0 0 0.000379541 0 0 0.000393796 0 
-0 -0.00099957 0 0 0.000981964 0 0 0.000932232 0 
0 0.000977799 0 0 0.000249799 0 0 0.000764458 0 
0 0.000661687 0 -0 -0.000737049 0 0 0.0007765 0 
-0 -0.000229791 0 -0 -7.26435e-05 0 0 1.03047e-05 0 
0 0.00099426 0 0 0.000946997 0 0 0.000910828 0 
0 0.000964737 0 0 9.31819e-05 0 0 0.000785262 0 
0 0.000619277 0 0 0.000487013 0 0 0.00086655 0 
0 0.000263355 0 0 0.000412916 0 0 0.000934696 0 
-0 -0.00094134 0 -0 -0.000899768 0 0 0.0009171 0 
-0 -0.00099856 0 0 8.63397e-05 0 -0 -0.000317851 0 
0 0.000301521 0 0 0.000902004 0 0 0.000322732 0 
-0 -0.000148301 0 -0 -0.000660399 0 0 0.000468657 0 
0 0.000999518 0 0 7.43564e-05 0 0 0.000833897 0 
0 0.000748547 0 0 0.000690989 0 -0 -6.57901e-05 0 
0 5.00726e-05 0 -0 -0.000417603 0 0 0.000892141 0 
0 0.00055204 0 -0 -0.000872627 0 0 0.000735887 0 
0 0.00067721 0 0 0.00054029 0 0 0.000462577 0 
-0 -0.000216397 0 0 0.000972077 0 -0 -0.000425391 0 
0 0.000957057 0 -0 -0.000155091 0 -0 -0.000996824 0 
-0 -0.000456476 0 -0 -0.000368391 0 0 0.000641934 0 
-0 -0.000640837 0 -0 -0.00023814 0 -0 -0.000296604 0 
-0 -0.000989958 0 0 0.000493001 0 -0 -0.000511073 0 
-0 -0.000984469 0 -0 -9.85961e-05 0 0 0.00098324 0 
-0 -0.000880072 0 0 0.000726318 0 -0 -0.000591715 0 
0 0.000888885 0 0 0.000941919 0 0 0.000682248 0 
0 0.000546058 0 0 0.000161874 0 0 0.000329227 0 
0 0.000805215 0 0 0.000996959 0 -0 -0.000580583 0 
0 0.000512548 0 0 0.000139803 0 -0 -0.000254784 0 
-0 -0.000980977 0 -0 -0.00086911 0 -0 -0.000992867 0 
-0 -0.000961502 0 -0 -0.000476478 0 0 0.000608203 0 
0 0.00019595 0 -0 -0.000829127 0 0 0.000899017 0 
0 0.000838606 0 0 0.00029469 0 0 0.000197634 0 
-0 -0.000779916 0 -0 -0.000595861 0 0 0.000132713 0 
0 0.000949272 0 -0 -0.000547736 0 0 0.000527219 0 
-0 -0.000860487 0 0 0.000975964 0 -0 -0.000990673 0 
0 0.000716805 0 0 0.000818253 0 -0 -0.000848898 0 
-0 -0.000687255 0 -0 -0.000702283 0 0 0.000175417 0 
-0 -0.000276585 0 -0 -0.000563444 0 0 0.000876789 0 
-0 -0.000609565 0 -0 -0.000309698 0 -0 -0.00018077 0 
-0 -0.000120788 0 0 3.80621e-05 0 0 0.000221425 0 
0 3.43494e-06 0 0 0.000984166 0 0 0.000406388 0 
-0 -0.000754402 0 0 0.000789497 0 0 0.000847837 0 
0 0.000869958 0 0 0.000576146 0 0 0.00096095 0 
0 0.000256445 0 0 0.000988187 0 -0 -0.000971672 0 
0 0.000156788 0 0 0.000348885 0 0 0.000826073 0 
0 0.000557755 0 0 0.000419163 0 0 0.000904949 0 
-0 -0.00096608 0 0 0.000581981 0 -0 -0.000825104 0 
-0 -0.000541735 0 0 0.000970373 0 -0 -0.000141504 0 
-0 -0.000444208 0 0 0.000990906 0 -0 -0.00099985 0 
0 0.000562024 0 -0 -0.000173726 0 -0 -0.000979562 0 
0 0.00050639 0 0 0.000597239 0 -0 -0.000996847 0 
0 0.00081528 0 0 0.00078081 0 0 0.000316222 0 
0 0.00085161 0 0 1.71739e-05 0 -0 -0.000921937 0 
-0 -0.000944204 0 -0 -0.000261698 0 -0 -0.000806232 0 
0 0.00021444 0 -0 -0.000793694 0 0 0.000474714 0 
0 0.00080095 0 0 0.000999707 0 0 0.000671926 0 
-0 -5.89336e-05 0 0 0.000987065 0 0 0.00010002 0 

