# vtk DataFile Version 4.0
vtk output
ASCII
DATASET POLYDATA
FIELD FieldData 5
domain 1 4 string
domain_min:0|0
domain_max:2|2
cell_size:2.5|2.5
boundary:0|1

variables 1 5 string
T:1.64
dt:0.02
write_case:1
substeps:1
all_steps:82

constants 1 5 string
L:5
c_s:2.5
dx:0.1
omega:0.3
eps:0.0833333

equations 1 4 string
initial_noise:r=(r+noise)#eq(T,0)
time:T=(T+dt)#true
velocity:v=dvm(w,eps)#true
integrate:r=euler(r,v,dt)#true

asymmetric 1 1 string
w

POINTS 450 float
0.0995969 2.31953 0 0.638793 1.73871 0 2.06045 2.3138 0 
0.944875 1.78241 0 1.62653 2.20922 0 0.261753 2.10992 0 
1.30383 2.33985 0 1.35796 2.25121 0 2.11627 2.45952 0 
1.77564 2.33436 0 0.480534 2.0194 0 0.938987 1.96907 0 
0.20671 2.2422 0 1.52568 2.31974 0 0.773726 1.71397 0 
0.344515 1.95162 0 0.509343 2.49719 0 0.609262 2.12859 0 
0.952038 2.10408 0 1.54591 2.48908 0 0.67821 1.94813 0 
1.77844 2.3567 0 0.788961 2.27681 0 1.12789 1.99138 0 
1.94279 2.41012 0 2.08468 2.49468 0 0.72665 1.94317 0 
0.868246 1.90121 0 0.890368 2.31385 0 0.817107 1.79425 0 
1.23785 1.89245 0 2.45644 2.42413 0 1.76724 2.37114 0 
0.279895 2.13774 0 1.93949 2.23213 0 1.94951 2.21986 0 
0.70367 1.94125 0 1.99433 2.21341 0 2.06352 2.22269 0 
0.956901 2.46694 0 0.50085 2.39699 0 0.409808 2.28501 0 
0.932688 1.7799 0 0.770611 1.74808 0 0.541019 1.97666 0 
2.22475 2.28415 0 1.13528 1.83599 0 1.4122 2.06822 0 
1.03903 1.84256 0 1.24065 2.15746 0 1.12343 2.05832 0 
0.378414 1.93418 0 0.424878 1.86326 0 0.51321 1.97883 0 
0.308344 2.03947 0 2.26882 2.45567 0 0.961121 1.84606 0 
0.565881 1.9799 0 0.528982 1.8444 0 0.197144 2.47962 0 
0.741376 2.2362 0 0.487034 2.01436 0 0.757619 2.46797 0 
2.11615 2.18125 0 1.86104 2.28004 0 0.718109 1.98448 0 
1.17244 1.76919 0 0.522627 1.87368 0 2.25451 1.95025 0 
0.119844 2.49639 0 0.36293 2.07073 0 2.00615 2.15205 0 
0.297884 2.49896 0 0.974184 1.67065 0 0.485473 1.98829 0 
0.584285 1.98219 0 0.479848 2.00513 0 0.642479 1.96262 0 
1.67395 2.44413 0 0.965896 1.85025 0 0.38055 1.95967 0 
1.35881 1.99145 0 0.472867 2.00125 0 1.0871 2.28251 0 
0.218388 2.22527 0 1.59029 2.11819 0 0.389428 1.94772 0 
0.337608 1.98198 0 0.948453 1.80356 0 2.01626 2.41685 0 
0.602661 1.97966 0 0.224708 2.18699 0 0.452617 2.05984 0 
1.71389 2.39005 0 0.236143 2.28071 0 0.622566 1.9713 0 
0.639975 2.23633 0 2.34309 2.47275 0 1.82913 2.29715 0 
0.848547 2.11574 0 0.468858 2.04261 0 1.66573 2.48545 0 
1.43735 2.46646 0 0.465048 2.07753 0 1.88846 2.26261 0 
0.224345 2.06433 0 2.12005 2.22861 0 2.35562 2.29656 0 
2.32452 2.31958 0 2.36892 2.33879 0 2.38628 2.16264 0 
2.44765 2.05556 0 1.9717 2.31896 0 0.485921 2.01062 0 
0.449116 1.91838 0 0.952106 1.85053 0 0.66117 1.95432 0 
0.714239 2.0266 0 1.83209 2.37305 0 3.46318 1.73873 0 
2.88118 2.11533 0 4.72228 2.41553 0 3.35495 2.28437 0 
2.63562 2.29436 0 2.50537 2.16951 0 3.63915 2.25617 0 
2.70927 1.96893 0 3.24342 1.84854 0 2.64942 2.19083 0 
2.89128 1.89713 0 2.94572 2.2435 0 2.96877 2.10137 0 
3.39843 1.76773 0 4.22826 2.37947 0 3.34094 1.73278 0 
3.85356 2.31244 0 3.5018 1.72917 0 3.42125 1.70718 0 
2.52428 2.24971 0 3.01341 2.23441 0 3.33392 1.81643 0 
2.58491 2.4831 0 2.8112 1.83775 0 3.34971 1.80547 0 
4.86615 2.47474 0 3.49474 2.2614 0 3.75643 2.17785 0 
4.12348 2.10219 0 3.54098 2.17976 0 2.76813 2.40069 0 
3.28359 2.44056 0 3.09855 2.20858 0 3.47405 2.3883 0 
3.47493 2.40907 0 3.0908 2.19738 0 2.69844 2.39341 0 
3.21485 2.3211 0 2.75057 2.38986 0 3.30406 1.73389 0 
2.65969 2.40791 0 3.06146 1.95546 0 3.04173 1.72384 0 
2.89291 2.08056 0 3.46388 1.71779 0 3.43313 1.75113 0 
3.05531 2.3241 0 3.50072 2.08655 0 3.97825 2.28857 0 
4.07804 2.26054 0 2.57037 2.07547 0 3.21476 2.22261 0 
3.715 1.94449 0 3.92382 2.43428 0 4.85888 2.29899 0 
3.22213 1.75689 0 3.22866 2.2601 0 3.36367 1.70584 0 
2.91498 2.07833 0 3.58244 2.03894 0 4.35774 2.4408 0 
3.50817 1.70468 0 3.65966 2.02253 0 2.84061 2.3736 0 
4.71757 2.29513 0 2.61345 2.4378 0 3.58957 2.40794 0 
4.38894 2.49036 0 3.41034 1.7631 0 2.88248 2.48692 0 
2.91903 2.49342 0 2.8201 2.45432 0 2.79635 2.4266 0 
3.27249 1.81072 0 2.89112 2.08034 0 4.21211 2.49542 0 
2.72794 2.38675 0 3.49144 2.49594 0 3.48219 2.47403 0 
3.05682 2.4327 0 4.871 2.44429 0 2.91778 2.31184 0 
3.02769 2.4212 0 3.54839 2.44933 0 3.10614 2.16763 0 
2.96613 2.16944 0 3.32506 1.93859 0 3.48527 1.77841 0 
3.3066 1.81937 0 4.60391 2.43557 0 2.96395 2.10576 0 
2.78223 2.4143 0 2.94067 2.08004 0 3.15877 2.23637 0 
2.61564 2.20828 0 3.3117 2.02745 0 3.57338 1.8298 0 
3.17593 1.69202 0 3.03595 2.07256 0 3.29095 1.73114 0 
3.2695 2.14573 0 3.71764 2.35031 0 2.97012 2.48112 0 
2.90334 2.07726 0 2.85025 2.47507 0 0.940983 2.76744 0 
0.908727 2.8209 0 0.924782 2.74237 0 1.47961 3.02589 0 
1.78594 2.98831 0 1.85021 2.82274 0 0.897815 2.71245 0 
1.3372 2.88993 0 1.34614 2.53549 0 2.06928 2.51389 0 
2.16985 2.51562 0 2.3867 2.55932 0 1.26084 2.99342 0 
0.959754 2.57506 0 0.9022 2.68083 0 1.22597 2.83406 0 
1.17835 2.6326 0 1.22541 2.86496 0 1.51767 2.89656 0 
2.20692 2.89167 0 2.49737 2.89222 0 0.981891 2.61931 0 
0.918864 2.56196 0 0.0922948 3.18336 0 1.44763 2.75829 0 
1.27248 2.89386 0 0.0753694 2.86092 0 0.925211 2.75611 0 
0.313309 2.79096 0 1.64846 2.72118 0 1.41214 2.94286 0 
2.47439 2.7833 0 2.2715 2.63148 0 1.27416 2.53641 0 
2.30986 2.56843 0 2.33598 2.65234 0 1.09394 2.89416 0 
1.61541 2.6699 0 1.6165 2.94947 0 1.06075 2.93386 0 
1.45125 2.71301 0 1.13382 2.51962 0 1.20565 2.89119 0 
1.27426 2.74309 0 1.85492 2.72642 0 2.44643 2.76797 0 
1.93825 2.82207 0 0.287352 3.12799 0 1.72565 2.66224 0 
0.252987 2.66065 0 1.50569 3.1844 0 1.91045 2.72397 0 
1.61362 2.6368 0 0.951837 2.77531 0 0.124307 2.94194 0 
1.70826 2.64377 0 0.545493 2.72324 0 2.19218 2.55827 0 
2.07169 2.94154 0 1.94664 2.82428 0 1.22067 2.6178 0 
2.01438 2.83154 0 1.09277 2.77155 0 1.84953 2.78267 0 
1.81305 2.79452 0 1.96336 2.78198 0 1.79882 2.7938 0 
0.938583 2.74083 0 1.91999 2.99539 0 0.440236 2.73201 0 
0.968187 2.80487 0 1.71258 2.64198 0 1.04446 2.87536 0 
1.24923 2.79425 0 0.393312 2.61213 0 0.180557 3.04186 0 
0.478281 2.85474 0 0.93755 2.74251 0 1.71245 3.13219 0 
1.14759 2.96013 0 0.935816 2.74264 0 0.926958 2.7627 0 
2.17291 3.01373 0 1.83217 2.80883 0 2.13534 2.51001 0 
2.40109 2.63274 0 0.0174698 2.65671 0 1.79536 3.04229 0 
1.81946 2.58497 0 1.8317 2.62751 0 1.68554 3.20299 0 
1.23269 3.00957 0 2.05433 2.69955 0 1.77082 2.57208 0 
2.22073 2.59093 0 1.00151 2.65879 0 2.28549 2.73091 0 
1.27548 3.07051 0 2.06212 3.08955 0 0.0224899 2.76645 0 
0.461339 2.96235 0 2.40322 2.64965 0 2.37238 2.60759 0 
2.38009 2.65499 0 2.1018 2.72848 0 0.260187 3.01586 0 
2.45637 2.85401 0 2.60633 2.75124 0 4.38332 2.52235 0 
3.35666 3.09953 0 2.79598 2.64834 0 4.91154 3.14854 0 
4.44277 2.64943 0 4.21693 3.00042 0 4.06908 2.64749 0 
4.31375 2.66524 0 4.16061 2.52431 0 3.94916 2.75738 0 
4.2696 3.04273 0 4.9093 3.14868 0 3.7814 2.88837 0 
3.04703 2.53182 0 4.5029 3.13459 0 4.94255 3.24328 0 
3.71088 2.62897 0 3.92122 2.66402 0 4.18931 2.59 0 
4.13646 2.83467 0 3.1954 2.68072 0 4.63939 2.95468 0 
3.98568 2.56165 0 3.38955 3.03414 0 3.78977 2.82153 0 
3.94216 2.59406 0 4.46184 2.84745 0 4.53612 2.70767 0 
3.73023 2.64147 0 4.99115 2.55478 0 2.65196 2.5225 0 
4.55286 2.54387 0 3.34258 2.95477 0 3.29415 3.12229 0 
2.54786 2.51987 0 2.73924 2.98122 0 3.77301 2.96303 0 
2.92507 2.82202 0 4.12589 2.68411 0 4.49108 3.1328 0 
4.67778 2.68278 0 3.42297 2.86443 0 2.79893 2.8653 0 
3.23169 2.85037 0 4.53571 2.52115 0 3.04765 2.808 0 
4.55325 3.12321 0 3.80031 2.6723 0 4.87308 3.20802 0 
3.8942 2.63489 0 4.62687 2.83817 0 2.5174 2.50039 0 
4.69632 2.76128 0 4.80076 2.91715 0 4.70003 2.813 0 
4.38487 2.89019 0 4.90733 2.58611 0 4.62641 2.52858 0 
4.57061 3.05337 0 4.64369 3.11699 0 4.99595 2.54783 0 
4.71141 2.85729 0 4.58118 2.68067 0 4.59473 2.67037 0 
4.0989 2.6381 0 2.57048 2.51476 0 4.76384 2.64667 0 
4.81876 2.78886 0 4.86082 2.80765 0 3.63798 2.68254 0 
2.55178 2.64659 0 4.64305 2.63894 0 4.25142 2.81376 0 
4.90328 3.16256 0 3.24544 2.90768 0 4.01386 2.54391 0 
3.31123 3.00576 0 4.27446 3.04516 0 4.91349 2.99227 0 
4.90547 2.52696 0 4.98118 2.90317 0 4.97548 2.5651 0 
4.98021 2.56525 0 4.97932 2.56288 0 4.98363 2.57266 0 
4.94724 2.57969 0 4.98118 2.56908 0 4.98941 2.56986 0 
2.89098 2.57259 0 3.34795 2.80811 0 4.48205 3.07877 0 
3.94085 2.60771 0 4.3707 3.00954 0 3.23264 3.09906 0 
3.09109 3.05792 0 4.23553 2.5983 0 4.16182 2.88247 0 
4.77797 2.76452 0 4.97399 2.54305 0 4.76331 2.92561 0 
3.30332 2.60333 0 2.92764 2.72006 0 4.09875 2.68439 0 
4.64255 3.07673 0 4.81852 3.20492 0 3.71882 2.5249 0 
4.78205 3.1933 0 3.55672 2.58509 0 3.14298 2.96832 0 
3.35236 2.5426 0 2.72881 2.65418 0 4.98779 2.55071 0 
3.83793 2.75044 0 4.80993 3.11131 0 4.68018 3.1271 0 
2.81943 2.81784 0 3.42029 2.72058 0 4.6331 3.1281 0 

VERTICES 900 900
1 0 
1 1 
1 2 
1 3 
1 4 
1 5 
1 6 
1 7 
1 8 
1 9 
1 10 
1 11 
1 12 
1 13 
1 14 
1 15 
1 16 
1 17 
1 18 
1 19 
1 20 
1 21 
1 22 
1 23 
1 24 
1 25 
1 26 
1 27 
1 28 
1 29 
1 30 
1 31 
1 32 
1 33 
1 34 
1 35 
1 36 
1 37 
1 38 
1 39 
1 40 
1 41 
1 42 
1 43 
1 44 
1 45 
1 46 
1 47 
1 48 
1 49 
1 50 
1 51 
1 52 
1 53 
1 54 
1 55 
1 56 
1 57 
1 58 
1 59 
1 60 
1 61 
1 62 
1 63 
1 64 
1 65 
1 66 
1 67 
1 68 
1 69 
1 70 
1 71 
1 72 
1 73 
1 74 
1 75 
1 76 
1 77 
1 78 
1 79 
1 80 
1 81 
1 82 
1 83 
1 84 
1 85 
1 86 
1 87 
1 88 
1 89 
1 90 
1 91 
1 92 
1 93 
1 94 
1 95 
1 96 
1 97 
1 98 
1 99 
1 100 
1 101 
1 102 
1 103 
1 104 
1 105 
1 106 
1 107 
1 108 
1 109 
1 110 
1 111 
1 112 
1 113 
1 114 
1 115 
1 116 
1 117 
1 118 
1 119 
1 120 
1 121 
1 122 
1 123 
1 124 
1 125 
1 126 
1 127 
1 128 
1 129 
1 130 
1 131 
1 132 
1 133 
1 134 
1 135 
1 136 
1 137 
1 138 
1 139 
1 140 
1 141 
1 142 
1 143 
1 144 
1 145 
1 146 
1 147 
1 148 
1 149 
1 150 
1 151 
1 152 
1 153 
1 154 
1 155 
1 156 
1 157 
1 158 
1 159 
1 160 
1 161 
1 162 
1 163 
1 164 
1 165 
1 166 
1 167 
1 168 
1 169 
1 170 
1 171 
1 172 
1 173 
1 174 
1 175 
1 176 
1 177 
1 178 
1 179 
1 180 
1 181 
1 182 
1 183 
1 184 
1 185 
1 186 
1 187 
1 188 
1 189 
1 190 
1 191 
1 192 
1 193 
1 194 
1 195 
1 196 
1 197 
1 198 
1 199 
1 200 
1 201 
1 202 
1 203 
1 204 
1 205 
1 206 
1 207 
1 208 
1 209 
1 210 
1 211 
1 212 
1 213 
1 214 
1 215 
1 216 
1 217 
1 218 
1 219 
1 220 
1 221 
1 222 
1 223 
1 224 
1 225 
1 226 
1 227 
1 228 
1 229 
1 230 
1 231 
1 232 
1 233 
1 234 
1 235 
1 236 
1 237 
1 238 
1 239 
1 240 
1 241 
1 242 
1 243 
1 244 
1 245 
1 246 
1 247 
1 248 
1 249 
1 250 
1 251 
1 252 
1 253 
1 254 
1 255 
1 256 
1 257 
1 258 
1 259 
1 260 
1 261 
1 262 
1 263 
1 264 
1 265 
1 266 
1 267 
1 268 
1 269 
1 270 
1 271 
1 272 
1 273 
1 274 
1 275 
1 276 
1 277 
1 278 
1 279 
1 280 
1 281 
1 282 
1 283 
1 284 
1 285 
1 286 
1 287 
1 288 
1 289 
1 290 
1 291 
1 292 
1 293 
1 294 
1 295 
1 296 
1 297 
1 298 
1 299 
1 300 
1 301 
1 302 
1 303 
1 304 
1 305 
1 306 
1 307 
1 308 
1 309 
1 310 
1 311 
1 312 
1 313 
1 314 
1 315 
1 316 
1 317 
1 318 
1 319 
1 320 
1 321 
1 322 
1 323 
1 324 
1 325 
1 326 
1 327 
1 328 
1 329 
1 330 
1 331 
1 332 
1 333 
1 334 
1 335 
1 336 
1 337 
1 338 
1 339 
1 340 
1 341 
1 342 
1 343 
1 344 
1 345 
1 346 
1 347 
1 348 
1 349 
1 350 
1 351 
1 352 
1 353 
1 354 
1 355 
1 356 
1 357 
1 358 
1 359 
1 360 
1 361 
1 362 
1 363 
1 364 
1 365 
1 366 
1 367 
1 368 
1 369 
1 370 
1 371 
1 372 
1 373 
1 374 
1 375 
1 376 
1 377 
1 378 
1 379 
1 380 
1 381 
1 382 
1 383 
1 384 
1 385 
1 386 
1 387 
1 388 
1 389 
1 390 
1 391 
1 392 
1 393 
1 394 
1 395 
1 396 
1 397 
1 398 
1 399 
1 400 
1 401 
1 402 
1 403 
1 404 
1 405 
1 406 
1 407 
1 408 
1 409 
1 410 
1 411 
1 412 
1 413 
1 414 
1 415 
1 416 
1 417 
1 418 
1 419 
1 420 
1 421 
1 422 
1 423 
1 424 
1 425 
1 426 
1 427 
1 428 
1 429 
1 430 
1 431 
1 432 
1 433 
1 434 
1 435 
1 436 
1 437 
1 438 
1 439 
1 440 
1 441 
1 442 
1 443 
1 444 
1 445 
1 446 
1 447 
1 448 
1 449 

POINT_DATA 450
SCALARS id double
LOOKUP_TABLE default
70 248 124 256 69 264 92 82 128 
118 273 12 266 81 24 247 447 291 
11 84 287 123 4 91 127 142 289 
19 22 41 3 159 110 268 107 106 
288 105 334 23 412 400 260 261 280 
60 86 42 13 9 8 250 99 279 
263 155 258 281 249 355 96 274 292 
48 120 290 94 254 68 429 269 35 
411 55 278 282 276 285 109 255 262 
80 277 89 267 0 252 251 257 26 
283 265 270 121 449 284 370 388 108 
6 272 358 98 271 119 202 104 157 
156 158 52 57 64 275 253 259 286 
5 59 339 43 53 179 32 67 77 
63 20 141 65 49 137 346 30 349 
37 338 348 74 130 342 163 103 345 
7 71 14 17 16 169 373 78 180 
187 139 166 178 168 100 165 61 335 
133 347 340 36 47 15 38 66 140 
29 31 76 62 58 336 132 46 45 
337 28 73 50 164 83 44 341 174 
175 172 171 344 134 206 167 186 188 
390 2 33 177 56 138 51 39 34 
343 215 131 170 136 129 75 27 40 
102 21 101 10 79 176 135 173 306 
382 301 376 440 315 300 328 97 143 
145 417 362 293 299 331 295 330 361 
439 443 297 298 434 407 329 360 307 
405 408 377 111 148 90 154 149 313 
323 357 369 317 95 314 333 353 384 
326 395 324 404 366 380 396 305 431 
322 424 146 427 321 294 381 296 325 
327 318 319 304 359 423 309 316 310 
332 435 436 416 303 438 311 302 308 
428 320 144 152 430 409 126 117 365 
312 125 122 147 18 394 371 426 364 
441 151 153 150 351 445 444 368 214 
115 399 197 87 181 25 226 88 190 
184 198 397 422 183 413 185 208 205 
224 385 433 221 363 398 209 437 216 
189 236 389 220 113 112 161 352 402 
425 213 192 93 114 392 393 85 403 
203 204 196 207 242 160 240 227 244 
432 239 1 448 193 237 243 219 218 
212 162 245 228 383 372 406 217 414 
199 421 210 420 191 410 54 241 234 
233 235 231 229 230 232 374 442 446 
222 350 116 415 211 354 356 246 225 
386 418 223 201 200 72 195 378 419 
387 379 238 375 367 194 391 401 182 

FIELD FieldData 5
r 3 450 double
0.099597 2.31953 0 0.638793 1.73871 0 2.06045 2.3138 0 
0.944875 1.78241 0 1.62653 2.20922 0 0.261753 2.10992 0 
1.30383 2.33985 0 1.35796 2.25121 0 2.11627 2.45952 0 
1.77564 2.33436 0 0.480534 2.0194 0 0.938987 1.96907 0 
0.20671 2.2422 0 1.52568 2.31974 0 0.773726 1.71397 0 
0.344515 1.95162 0 0.509343 2.49719 0 0.609262 2.12859 0 
0.952038 2.10408 0 1.54591 2.48908 0 0.67821 1.94813 0 
1.77844 2.3567 0 0.788961 2.27681 0 1.12789 1.99138 0 
1.94279 2.41012 0 2.08468 2.49468 0 0.72665 1.94317 0 
0.868246 1.90121 0 0.890368 2.31385 0 0.817107 1.79425 0 
1.23785 1.89245 0 2.45644 2.42413 0 1.76724 2.37114 0 
0.279895 2.13774 0 1.93949 2.23213 0 1.94951 2.21986 0 
0.70367 1.94125 0 1.99433 2.21341 0 2.06352 2.22269 0 
0.956901 2.46694 0 0.50085 2.39699 0 0.409808 2.28501 0 
0.932688 1.7799 0 0.770611 1.74808 0 0.541019 1.97666 0 
2.22475 2.28415 0 1.13528 1.83599 0 1.4122 2.06822 0 
1.03903 1.84256 0 1.24065 2.15746 0 1.12343 2.05831 0 
0.378414 1.93418 0 0.424878 1.86326 0 0.51321 1.97883 0 
0.308344 2.03947 0 2.26882 2.45567 0 0.961121 1.84606 0 
0.565881 1.9799 0 0.528982 1.8444 0 0.197144 2.47962 0 
0.741376 2.2362 0 0.487034 2.01436 0 0.757619 2.46797 0 
2.11615 2.18125 0 1.86104 2.28004 0 0.718109 1.98448 0 
1.17244 1.76919 0 0.522627 1.87368 0 2.25451 1.95025 0 
0.119844 2.49639 0 0.36293 2.07073 0 2.00615 2.15205 0 
0.297884 2.49896 0 0.974184 1.67065 0 0.485473 1.98829 0 
0.584285 1.98219 0 0.479848 2.00513 0 0.642479 1.96262 0 
1.67395 2.44413 0 0.965896 1.85025 0 0.38055 1.95967 0 
1.35881 1.99145 0 0.472867 2.00125 0 1.0871 2.28251 0 
0.218388 2.22527 0 1.59029 2.11819 0 0.389428 1.94772 0 
0.337608 1.98198 0 0.948453 1.80356 0 2.01626 2.41685 0 
0.602661 1.97966 0 0.224708 2.18699 0 0.452617 2.05984 0 
1.71389 2.39005 0 0.236143 2.28071 0 0.622566 1.9713 0 
0.639975 2.23633 0 2.34309 2.47275 0 1.82913 2.29715 0 
0.848547 2.11574 0 0.468858 2.04261 0 1.66573 2.48545 0 
1.43735 2.46646 0 0.465048 2.07753 0 1.88846 2.26261 0 
0.224345 2.06433 0 2.12005 2.22861 0 2.35562 2.29656 0 
2.32452 2.31958 0 2.36892 2.33879 0 2.38628 2.16264 0 
2.44765 2.05556 0 1.9717 2.31897 0 0.485921 2.01062 0 
0.449116 1.91838 0 0.952106 1.85053 0 0.66117 1.95432 0 
0.714239 2.0266 0 1.83209 2.37305 0 3.46318 1.73873 0 
2.88118 2.11533 0 4.72228 2.41553 0 3.35495 2.28437 0 
2.63562 2.29436 0 2.50537 2.16951 0 3.63915 2.25617 0 
2.70927 1.96893 0 3.24342 1.84854 0 2.64942 2.19084 0 
2.89128 1.89713 0 2.94572 2.2435 0 2.96877 2.10137 0 
3.39843 1.76773 0 4.22826 2.37947 0 3.34094 1.73278 0 
3.85356 2.31244 0 3.5018 1.72917 0 3.42125 1.70718 0 
2.52428 2.24971 0 3.01341 2.23441 0 3.33392 1.81643 0 
2.58491 2.4831 0 2.8112 1.83775 0 3.34971 1.80547 0 
4.86615 2.47474 0 3.49474 2.2614 0 3.75643 2.17785 0 
4.12348 2.10219 0 3.54098 2.17976 0 2.76813 2.40069 0 
3.28359 2.44056 0 3.09855 2.20858 0 3.47405 2.3883 0 
3.47493 2.40907 0 3.0908 2.19738 0 2.69844 2.39341 0 
3.21485 2.3211 0 2.75057 2.38986 0 3.30406 1.73389 0 
2.65969 2.40791 0 3.06146 1.95546 0 3.04173 1.72384 0 
2.89291 2.08056 0 3.46388 1.71779 0 3.43313 1.75113 0 
3.05531 2.3241 0 3.50072 2.08655 0 3.97825 2.28857 0 
4.07804 2.26054 0 2.57037 2.07547 0 3.21476 2.22261 0 
3.715 1.94449 0 3.92382 2.43429 0 4.85888 2.29899 0 
3.22213 1.75689 0 3.22866 2.2601 0 3.36367 1.70584 0 
2.91498 2.07833 0 3.58244 2.03894 0 4.35774 2.4408 0 
3.50817 1.70468 0 3.65966 2.02253 0 2.84061 2.3736 0 
4.71756 2.29513 0 2.61345 2.4378 0 3.58957 2.40794 0 
4.38894 2.49036 0 3.41034 1.7631 0 2.88248 2.48692 0 
2.91903 2.49342 0 2.8201 2.45432 0 2.79635 2.4266 0 
3.27249 1.81072 0 2.89112 2.08034 0 4.21211 2.49542 0 
2.72794 2.38675 0 3.49144 2.49594 0 3.48219 2.47403 0 
3.05682 2.4327 0 4.871 2.44429 0 2.91778 2.31184 0 
3.02769 2.4212 0 3.54839 2.44933 0 3.10614 2.16763 0 
2.96613 2.16944 0 3.32506 1.93859 0 3.48527 1.77841 0 
3.3066 1.81937 0 4.60391 2.43557 0 2.96395 2.10576 0 
2.78223 2.4143 0 2.94067 2.08004 0 3.15877 2.23637 0 
2.61564 2.20828 0 3.3117 2.02745 0 3.57338 1.8298 0 
3.17593 1.69202 0 3.03595 2.07256 0 3.29095 1.73114 0 
3.2695 2.14573 0 3.71764 2.35031 0 2.97012 2.48112 0 
2.90334 2.07726 0 2.85025 2.47507 0 0.940983 2.76744 0 
0.908727 2.8209 0 0.924782 2.74237 0 1.47961 3.02589 0 
1.78594 2.98831 0 1.85021 2.82274 0 0.897815 2.71245 0 
1.3372 2.88993 0 1.34614 2.53549 0 2.06928 2.51389 0 
2.16985 2.51562 0 2.3867 2.55932 0 1.26084 2.99342 0 
0.959754 2.57506 0 0.9022 2.68083 0 1.22597 2.83406 0 
1.17835 2.6326 0 1.22541 2.86496 0 1.51767 2.89656 0 
2.20692 2.89167 0 2.49737 2.89222 0 0.981891 2.61931 0 
0.918864 2.56196 0 0.0922948 3.18336 0 1.44763 2.75829 0 
1.27248 2.89386 0 0.0753694 2.86092 0 0.925211 2.75611 0 
0.313309 2.79096 0 1.64846 2.72118 0 1.41214 2.94286 0 
2.47439 2.7833 0 2.2715 2.63148 0 1.27416 2.53641 0 
2.30986 2.56843 0 2.33598 2.65234 0 1.09394 2.89416 0 
1.61541 2.6699 0 1.6165 2.94947 0 1.06075 2.93386 0 
1.45125 2.71301 0 1.13382 2.51962 0 1.20565 2.89119 0 
1.27426 2.74309 0 1.85492 2.72642 0 2.44643 2.76797 0 
1.93825 2.82207 0 0.287352 3.12799 0 1.72565 2.66224 0 
0.252987 2.66065 0 1.50569 3.1844 0 1.91045 2.72397 0 
1.61362 2.6368 0 0.951837 2.77531 0 0.124307 2.94194 0 
1.70826 2.64377 0 0.545493 2.72324 0 2.19218 2.55827 0 
2.07169 2.94154 0 1.94664 2.82428 0 1.22067 2.6178 0 
2.01438 2.83154 0 1.09277 2.77155 0 1.84953 2.78267 0 
1.81305 2.79452 0 1.96336 2.78198 0 1.79882 2.7938 0 
0.938583 2.74083 0 1.91999 2.99539 0 0.440236 2.73201 0 
0.968187 2.80487 0 1.71258 2.64198 0 1.04446 2.87536 0 
1.24923 2.79425 0 0.393312 2.61213 0 0.180557 3.04186 0 
0.478281 2.85474 0 0.93755 2.74251 0 1.71245 3.13219 0 
1.14759 2.96013 0 0.935816 2.74264 0 0.926958 2.7627 0 
2.17291 3.01373 0 1.83217 2.80883 0 2.13534 2.51001 0 
2.40109 2.63274 0 0.0174698 2.65671 0 1.79536 3.04229 0 
1.81946 2.58497 0 1.8317 2.62751 0 1.68554 3.20299 0 
1.23269 3.00957 0 2.05433 2.69955 0 1.77082 2.57208 0 
2.22073 2.59093 0 1.00151 2.65879 0 2.28549 2.73091 0 
1.27548 3.07051 0 2.06212 3.08955 0 0.0224899 2.76645 0 
0.461339 2.96235 0 2.40322 2.64965 0 2.37238 2.60759 0 
2.38009 2.65499 0 2.1018 2.72848 0 0.260187 3.01586 0 
2.45637 2.85401 0 2.60633 2.75124 0 4.38332 2.52235 0 
3.35666 3.09953 0 2.79598 2.64834 0 4.91154 3.14854 0 
4.44277 2.64943 0 4.21693 3.00042 0 4.06908 2.64749 0 
4.31375 2.66524 0 4.16061 2.52431 0 3.94916 2.75738 0 
4.2696 3.04273 0 4.9093 3.14868 0 3.7814 2.88837 0 
3.04703 2.53182 0 4.5029 3.13459 0 4.94255 3.24328 0 
3.71088 2.62897 0 3.92122 2.66402 0 4.18931 2.59 0 
4.13646 2.83467 0 3.1954 2.68072 0 4.63939 2.95468 0 
3.98568 2.56165 0 3.38955 3.03414 0 3.78977 2.82153 0 
3.94216 2.59406 0 4.46184 2.84745 0 4.53612 2.70767 0 
3.73023 2.64147 0 4.99115 2.55478 0 2.65196 2.5225 0 
4.55286 2.54387 0 3.34258 2.95477 0 3.29415 3.12229 0 
2.54786 2.51987 0 2.73924 2.98122 0 3.77301 2.96303 0 
2.92507 2.82202 0 4.12589 2.68411 0 4.49108 3.1328 0 
4.67778 2.68278 0 3.42297 2.86443 0 2.79893 2.8653 0 
3.23169 2.85037 0 4.53571 2.52115 0 3.04765 2.808 0 
4.55325 3.12321 0 3.80031 2.6723 0 4.87308 3.20802 0 
3.8942 2.63489 0 4.62687 2.83817 0 2.5174 2.50039 0 
4.69632 2.76128 0 4.80076 2.91715 0 4.70003 2.813 0 
4.38487 2.89019 0 4.90733 2.58611 0 4.62641 2.52858 0 
4.57061 3.05337 0 4.64369 3.11699 0 4.99595 2.54783 0 
4.71141 2.85729 0 4.58118 2.68067 0 4.59473 2.67037 0 
4.0989 2.6381 0 2.57048 2.51476 0 4.76384 2.64667 0 
4.81876 2.78886 0 4.86082 2.80765 0 3.63798 2.68254 0 
2.55178 2.64659 0 4.64305 2.63894 0 4.25142 2.81376 0 
4.90328 3.16256 0 3.24544 2.90768 0 4.01386 2.54391 0 
3.31123 3.00576 0 4.27446 3.04516 0 4.91349 2.99227 0 
4.90547 2.52696 0 4.98118 2.90317 0 4.97548 2.5651 0 
4.98021 2.56525 0 4.97932 2.56288 0 4.98363 2.57266 0 
4.94724 2.57969 0 4.98118 2.56908 0 4.98941 2.56986 0 
2.89098 2.57259 0 3.34795 2.80811 0 4.48205 3.07877 0 
3.94085 2.60771 0 4.3707 3.00954 0 3.23264 3.09906 0 
3.09109 3.05792 0 4.23553 2.5983 0 4.16182 2.88247 0 
4.77797 2.76452 0 4.97399 2.54305 0 4.76331 2.92561 0 
3.30332 2.60333 0 2.92764 2.72006 0 4.09875 2.68439 0 
4.64255 3.07673 0 4.81852 3.20492 0 3.71882 2.5249 0 
4.78205 3.1933 0 3.55672 2.58509 0 3.14298 2.96832 0 
3.35236 2.5426 0 2.72881 2.65418 0 4.98779 2.55071 0 
3.83793 2.75044 0 4.80993 3.11131 0 4.68018 3.1271 0 
2.81943 2.81784 0 3.42029 2.72058 0 4.6331 3.1281 0 

gid 1 450 double
-1 0 0 0 -1 0 -1 -1 0 
0 0 -1 0 -1 -1 0 1 0 
-1 -1 0 0 -1 -1 0 0 0 
-1 -1 -1 -1 0 0 0 0 0 
0 0 0 -1 1 1 0 0 0 
-1 -1 -1 -1 -1 -1 0 -1 0 
0 0 0 0 0 1 -1 0 0 
-1 0 0 -1 0 -1 1 0 -1 
1 -1 0 0 0 0 0 0 0 
-1 0 -1 0 -1 0 0 0 -1 
0 0 0 0 1 0 1 1 0 
-1 0 1 -1 0 0 0 0 0 
0 0 -1 -1 -1 0 0 0 0 
-1 -1 0 -1 -1 0 -1 -1 -1 
-1 -1 0 -1 -1 0 0 -1 0 
-1 0 0 -1 0 0 0 0 0 
-1 -1 -1 -1 -1 0 1 -1 0 
0 0 0 0 0 0 0 -1 0 
0 0 0 -1 -1 -1 -1 -1 0 
-1 -1 -1 -1 -1 0 0 -1 -1 
0 -1 -1 -1 0 -1 -1 0 0 
0 0 0 0 0 0 0 0 0 
1 -1 -1 0 -1 0 -1 -1 -1 
0 0 0 0 0 0 -1 -1 -1 
0 -1 0 -1 -1 0 0 0 0 
1 0 1 1 0 0 0 -1 0 
0 1 1 0 0 0 0 0 1 
1 1 0 0 1 1 0 1 0 
1 1 1 0 0 -1 0 0 0 
0 1 1 0 -1 0 0 1 1 
0 1 0 1 1 1 1 0 1 
0 1 0 1 0 0 1 0 0 
0 0 0 0 1 1 0 0 0 
0 1 1 1 0 1 0 0 0 
1 0 0 0 1 1 0 0 1 
0 0 0 0 -1 1 1 1 1 
1 0 0 0 1 1 1 1 0 
0 1 0 -1 0 -1 0 -1 0 
0 0 1 1 0 1 0 0 0 
0 1 1 0 1 1 0 1 0 
0 0 1 0 0 0 0 1 1 
1 0 0 -1 0 1 1 -1 1 
0 0 0 0 0 0 0 0 0 
1 0 -1 1 0 0 0 0 0 
0 0 0 0 1 1 1 0 1 
0 1 0 1 0 1 -1 0 0 
0 0 0 0 0 0 1 1 1 
0 1 0 1 0 1 1 0 0 
1 1 0 0 0 -1 0 1 1 
1 1 0 1 1 0 1 1 0 

w 1 450 double
-0.3 0 0 0 -0.3 0 -0.3 -0.3 0 
0 0 -0.3 0 -0.3 -0.3 0 0.3 0 
-0.3 -0.3 0 0 -0.3 -0.3 0 0 0 
-0.3 -0.3 -0.3 -0.3 0 0 0 0 0 
0 0 0 -0.3 0.3 0.3 0 0 0 
-0.3 -0.3 -0.3 -0.3 -0.3 -0.3 0 -0.3 0 
0 0 0 0 0 0.3 -0.3 0 0 
-0.3 0 0 -0.3 0 -0.3 0.3 0 -0.3 
0.3 -0.3 0 0 0 0 0 0 0 
-0.3 0 -0.3 0 -0.3 0 0 0 -0.3 
0 0 0 0 0.3 0 0.3 0.3 0 
-0.3 0 0.3 -0.3 0 0 0 0 0 
0 0 -0.3 -0.3 -0.3 0 0 0 0 
-0.3 -0.3 0 -0.3 -0.3 0 -0.3 -0.3 -0.3 
-0.3 -0.3 0 -0.3 -0.3 0 0 -0.3 0 
-0.3 0 0 -0.3 0 0 0 0 0 
-0.3 -0.3 -0.3 -0.3 -0.3 0 0.3 -0.3 0 
0 0 0 0 0 0 0 -0.3 0 
0 0 0 -0.3 -0.3 -0.3 -0.3 -0.3 0 
-0.3 -0.3 -0.3 -0.3 -0.3 0 0 -0.3 -0.3 
0 -0.3 -0.3 -0.3 0 -0.3 -0.3 0 0 
0 0 0 0 0 0 0 0 0 
0.3 -0.3 -0.3 0 -0.3 0 -0.3 -0.3 -0.3 
0 0 0 0 0 0 -0.3 -0.3 -0.3 
0 -0.3 0 -0.3 -0.3 0 0 0 0 
0.3 0 0.3 0.3 0 0 0 -0.3 0 
0 0.3 0.3 0 0 0 0 0 0.3 
0.3 0.3 0 0 0.3 0.3 0 0.3 0 
0.3 0.3 0.3 0 0 -0.3 0 0 0 
0 0.3 0.3 0 -0.3 0 0 0.3 0.3 
0 0.3 0 0.3 0.3 0.3 0.3 0 0.3 
0 0.3 0 0.3 0 0 0.3 0 0 
0 0 0 0 0.3 0.3 0 0 0 
0 0.3 0.3 0.3 0 0.3 0 0 0 
0.3 0 0 0 0.3 0.3 0 0 0.3 
0 0 0 0 -0.3 0.3 0.3 0.3 0.3 
0.3 0 0 0 0.3 0.3 0.3 0.3 0 
0 0.3 0 -0.3 0 -0.3 0 -0.3 0 
0 0 0.3 0.3 0 0.3 0 0 0 
0 0.3 0.3 0 0.3 0.3 0 0.3 0 
0 0 0.3 0 0 0 0 0.3 0.3 
0.3 0 0 -0.3 0 0.3 0.3 -0.3 0.3 
0 0 0 0 0 0 0 0 0 
0.3 0 -0.3 0.3 0 0 0 0 0 
0 0 0 0 0.3 0.3 0.3 0 0.3 
0 0.3 0 0.3 0 0.3 -0.3 0 0 
0 0 0 0 0 0 0.3 0.3 0.3 
0 0.3 0 0.3 0 0.3 0.3 0 0 
0.3 0.3 0 0 0 -0.3 0 0.3 0.3 
0.3 0.3 0 0.3 0.3 0 0.3 0.3 0 

v 3 450 double
-2.73286 1.6122 0 -0.267588 -1.67295 0 -3.44049 0.366657 0 
0.445496 -0.968967 0 -2.08214 1.30906 0 -2.54162 -0.135771 0 
-3.18803 0.255822 0 -2.31927 0.690801 0 -4.65071 0.594761 0 
-3.42212 0.142844 0 -2.37064 -1.38448 0 -1.23884 -1.08671 0 
-2.92825 0.78641 0 -2.95798 1.26325 0 0.41402 -1.64278 0 
-1.91966 -0.845137 0 -2.79983 -1.94686 0 -3.11961 -2.51377 0 
-2.28743 -0.781719 0 -4.47064 1.87971 0 -1.51298 -2.25105 0 
-3.70658 0.038003 0 -3.42141 -2.3083 0 -1.01569 0.0488512 0 
-4.46172 0.0612917 0 -4.77622 0.581822 0 -1.40775 -2.26557 0 
-0.847109 -1.68676 0 -3.35456 -1.0962 0 -0.190018 -1.52639 0 
0.200001 0.944866 0 -5.4695 -0.668213 0 -3.8945 0.0564669 0 
-2.79861 -0.195038 0 -2.46225 -0.293684 0 -2.38953 -0.328054 0 
-1.42865 -2.26391 0 -2.41701 -0.189654 0 -2.66519 0.0386627 0 
-3.71895 -0.928895 0 -3.33775 -1.90931 0 -3.44369 -1.04418 0 
0.430971 -0.997271 0 0.015007 -1.74444 0 -2.03735 -1.74659 0 
-3.79543 -0.0939776 0 0.409412 0.0924332 0 -0.944365 1.07654 0 
0.115496 -0.675944 0 -2.04951 0.252147 0 -1.7878 0.00978519 0 
-1.90447 -0.976075 0 -1.21197 -0.989275 0 -2.08649 -1.51912 0 
-2.28421 -0.531585 0 -4.93994 0.501359 0 0.0257397 -1.05418 0 
-1.99821 -1.82331 0 -1.01149 -1.09961 0 -3.35576 0.88865 0 
-3.17289 -2.92004 0 -2.33635 -1.42999 0 -3.54265 -2.15529 0 
-2.19915 0.0612679 0 -2.76357 -0.0878013 0 -1.69879 -2.3374 0 
1.34127 0.376459 0 -1.28329 -1.13992 0 -0.645452 -0.519127 0 
-3.43026 1.93671 0 -2.5961 -0.758617 0 -1.73178 -0.297806 0 
-3.14185 -0.154944 0 1.2055 -0.634519 0 -2.18558 -1.33267 0 
-1.98221 -1.95326 0 -2.28894 -1.34707 0 -1.69256 -2.17571 0 
-4.42266 0.927525 0 -0.0105063 -1.04122 0 -2.06562 -0.946977 0 
-0.26291 0.935777 0 -2.2679 -1.26035 0 -3.01554 -0.378522 0 
-2.95164 0.595872 0 -1.02673 1.04657 0 -2.01207 -0.993652 0 
-2.07218 -0.771355 0 0.323573 -1.00623 0 -4.43903 0.387928 0 
-1.92011 -2.03892 0 -2.81398 0.386819 0 -2.6093 -1.23404 0 
-4.082 0.468626 0 -3.14158 0.586041 0 -1.80462 -2.09745 0 
-3.30493 -2.93912 0 -5.08477 0.0362106 0 -2.92432 0.051422 0 
-2.44965 -1.85356 0 -2.50775 -1.32334 0 -4.56254 1.00962 0 
-4.0146 1.35162 0 -2.72443 -1.35715 0 -2.63986 -0.197038 0 
-2.08726 -0.0566339 0 -2.84691 0.115297 0 -4.79352 -0.570685 0 
-4.79598 -0.257206 0 -5.16565 -0.531624 0 -3.0989 -1.11218 0 
-1.24204 -1.12415 0 -3.35168 0.0378466 0 -2.3154 -1.41441 0 
-1.76877 -0.989387 0 -0.0251486 -1.08083 0 -1.59083 -2.25039 0 
-2.1188 -2.40268 0 -3.91399 -0.0612887 0 1.17938 0.257044 0 
-2.34996 -0.997641 0 -2.24744 1.01287 0 -4.66662 -0.800206 0 
-4.82448 -0.143599 0 -3.08521 -0.80186 0 -2.83902 -0.179708 0 
-0.625443 -0.619165 0 0.114305 0.0192099 0 -2.8735 0.00507611 0 
-0.125851 -0.638155 0 -4.2118 -0.28753 0 -1.9478 -0.560087 0 
0.931527 0.251198 0 -1.78423 0.498546 0 1.14349 0.425213 0 
-2.39447 0.0999511 0 1.30797 0.413977 0 1.22274 0.242372 0 
-4.54061 -0.706156 0 -3.9097 0.31012 0 0.671177 0.456086 0 
-5.64392 -0.122354 0 0.335164 -0.785919 0 0.735962 0.407178 0 
-3.12015 1.91373 0 -3.95451 -1.09156 0 -1.32619 0.683228 0 
-0.202403 0.771356 0 -2.63609 -0.317904 0 -5.8823 -0.669509 0 
-5.43533 -0.827379 0 -3.45873 0.401526 0 -4.87034 -1.9608 0 
-4.97798 -2.04031 0 -3.2491 0.39321 0 -5.76273 -0.491774 0 
-5.40867 -0.00435345 0 -5.75949 -0.675731 0 1.18433 0.378905 0 
-5.87045 -0.405041 0 -0.459861 -0.294844 0 0.764855 -0.53276 0 
-1.79964 -0.926848 0 1.28171 0.289351 0 1.03838 0.197448 0 
-5.5868 0.45456 0 -1.81651 -0.400639 0 -1.78756 0.383615 0 
-1.29493 0.832981 0 -1.28469 -0.51215 0 -3.96084 0.140332 0 
0.39426 1.15781 0 -3.50218 -0.0642672 0 -1.06984 1.37562 0 
0.939989 -0.146023 0 -4.58237 0.0984414 0 1.19605 0.360767 0 
-1.73213 -0.876429 0 -0.868314 0.250053 0 -2.04021 0.590128 0 
1.37786 0.465513 0 -0.530998 0.833723 0 -5.85976 -0.494053 0 
-0.951191 0.599208 0 -5.87231 -0.282892 0 -4.47569 -1.2014 0 
-2.73008 0.658501 0 0.952472 0.219799 0 -6.18516 0.0440361 0 
-6.06143 0.161924 0 -6.23864 -0.346824 0 -6.11036 -0.55444 0 
0.621928 0.294406 0 -1.80053 -0.927522 0 -3.02529 0.336695 0 
-5.71453 -0.624907 0 -5.30206 -1.88419 0 -5.26565 -1.98718 0 
-6.05891 0.150541 0 -2.56039 1.83527 0 -5.32445 -0.168424 0 
-6.23843 0.381388 0 -5.14135 -1.61647 0 -2.76992 0.36908 0 
-2.94529 -0.389687 0 -0.454945 0.242294 0 0.877449 0.294494 0 
0.627156 0.425971 0 -1.83952 0.652615 0 -2.01094 -0.580608 0 
-6.00229 -0.630436 0 -1.71423 -0.80786 0 -4.08935 0.307174 0 
-3.25795 -0.121822 0 -1.50239 0.129423 0 0.623641 0.756944 0 
1.15129 -0.360673 0 -1.60386 -0.113412 0 1.2128 0.295876 0 
-2.86645 0.0917897 0 -3.40185 -0.24222 0 -5.99838 0.421601 0 
-1.73499 -0.91117 0 -6.25412 -0.105288 0 -3.52858 -0.552708 0 
-2.70195 -0.29694 0 -3.62412 -0.69367 0 -1.26283 0.97573 0 
-1.69292 0.18788 0 -2.7587 0.637537 0 -3.60346 -0.885782 0 
-3.57493 1.48472 0 -4.55887 1.15183 0 -4.82806 0.513317 0 
-4.66537 0.551971 0 -4.39065 0.00196903 0 -2.2258 1.10612 0 
-3.83133 -0.940898 0 -3.68944 -1.0257 0 -3.82025 0.984001 0 
-4.59452 0.42541 0 -3.6379 1.00242 0 -3.02842 0.857413 0 
-1.5269 -0.604721 0 -0.597931 -0.249842 0 -3.84753 -0.733407 0 
-3.81298 -1.23514 0 0.581946 0.370676 0 -4.40997 1.45744 0 
-3.49548 1.1762 0 -1.89496 0.810242 0 -3.53103 -0.63336 0 
-1.52026 0.0145008 0 -3.7795 0.766054 0 -2.77273 1.39545 0 
-2.4303 -0.205528 0 -4.18086 0.430256 0 -4.43262 0.489208 0 
-4.35568 0.569185 0 -3.89588 0.285909 0 -2.91368 0.377547 0 
-4.41389 1.09797 0 -2.10865 0.463749 0 -2.1943 0.450633 0 
-4.80567 1.52228 0 -3.93536 -0.171084 0 -3.40527 0.937234 0 
-4.4614 1.16485 0 -3.85797 0.601502 0 -2.77028 -0.0219686 0 
-2.66878 0.446952 0 0.826711 -0.514783 0 -4.2581 0.385661 0 
-2.46105 0.462068 0 0.142831 0.960463 0 -3.87507 0.211807 0 
-4.68824 1.15461 0 -3.5114 -0.504921 0 -1.1647 0.531608 0 
-4.37794 0.372558 0 -1.81462 -2.03185 0 -4.56428 0.476822 0 
-1.35249 -0.0884945 0 -2.65993 0.420583 0 -4.78116 0.50586 0 
-2.64802 0.113467 0 -3.94262 0.308726 0 -3.07131 0.725975 0 
-3.02959 0.664644 0 -3.14098 0.186298 0 -3.068 0.657715 0 
-3.71022 -0.662079 0 -1.07608 -0.0705888 0 -1.81708 -1.02543 0 
-3.29453 -0.345613 0 -4.39 0.366724 0 -2.95678 0.218401 0 
-4.09429 1.063 0 -2.5917 -0.811065 0 -0.184343 0.344794 0 
-0.78766 -1.21333 0 -3.69477 -0.659265 0 -0.0288259 0.216112 0 
-2.29297 0.822121 0 -3.68451 -0.664433 0 -3.48743 -0.601841 0 
-0.109339 -0.757031 0 -2.88354 0.640472 0 -4.70448 0.548963 0 
-3.89888 0.0981986 0 -3.57534 1.85206 0 -0.648916 0.0806537 0 
-4.82552 0.244592 0 -4.81593 0.355868 0 0.687195 0.358498 0 
-1.95707 1.23135 0 -4.16855 0.104868 0 -4.6833 0.285795 0 
-4.43425 0.468495 0 -3.97202 -0.430921 0 -3.25358 0.194664 0 
-0.88596 1.14485 0 0.373067 -0.243144 0 -2.80206 1.30379 0 
-0.0503593 -1.03751 0 -3.82363 0.110475 0 -4.02379 0.211107 0 
-3.80492 0.176529 0 -3.69501 0.0111373 0 -0.331618 -0.578456 0 
-1.38026 0.0445891 0 -2.49095 -0.078793 0 -3.23315 0.54076 0 
0.867363 -0.61874 0 -4.25745 -0.209181 0 -0.139575 0.704681 0 
-4.13878 0.605018 0 -1.27146 0.703852 0 -3.90134 -0.239768 0 
-4.22926 0.271708 0 -3.29153 0.108027 0 -3.31723 -1.12601 0 
-1.00358 0.8978 0 -0.1378 0.70786 0 -1.6778 -0.794497 0 
-5.0847 -0.0246936 0 0.0988333 0.750086 0 0.594988 0.611874 0 
-4.67167 -1.29575 0 -4.00461 -1.05706 0 -3.82699 0.456987 0 
-3.24589 0.513152 0 -3.68751 -0.243591 0 -2.16606 0.652878 0 
-3.76832 -0.531238 0 0.227531 -1.17093 0 -2.64301 -1.0133 0 
-3.9855 -0.7976 0 -3.49923 0.413911 0 -4.26247 0.984649 0 
-4.60011 -1.21031 0 -3.7586 2.8117 0 -5.51009 -0.218215 0 
-3.18812 0.880675 0 -0.550128 -1.26601 0 0.953214 -0.251546 0 
-5.30434 -0.141213 0 0.00775787 0.0756457 0 -0.711129 -0.621799 0 
-1.55536 -0.2488 0 -4.09788 0.336315 0 0.0676834 0.799429 0 
-4.1203 1.87279 0 -1.24753 -1.63553 0 -1.06199 0.257902 0 
-2.10621 -0.459252 0 -2.81868 0.7913 0 -2.26894 -0.230685 0 
0.0550981 0.548554 0 -4.37586 -1.13944 0 0.284469 0.88084 0 
-4.15586 -1.01745 0 -3.46526 1.03511 0 -5.32647 -0.280664 0 
-3.9671 1.98464 0 -2.16343 1.39184 0 -3.44213 1.71706 0 
-2.8986 0.718366 0 -4.28764 2.57616 0 -3.06462 1.23229 0 
-0.842754 0.481827 0 -0.128802 0.543148 0 -3.69894 2.8272 0 
-2.98847 1.42992 0 -4.15686 1.15209 0 -4.1154 1.20489 0 
-3.88942 0.00358125 0 -5.39957 -0.115511 0 -4.19636 2.08462 0 
-3.28405 1.85411 0 -2.85684 1.59307 0 -3.73277 -1.22515 0 
-4.08215 -0.00553357 0 -3.9464 1.52653 0 -3.60594 0.654234 0 
-0.0538569 0.733601 0 -1.17147 -0.471895 0 -3.61103 -0.430811 0 
0.0913614 -0.661037 0 -0.983626 0.916049 0 -1.2395 1.03778 0 
-3.76024 2.62657 0 -1.73419 1.41826 0 -3.88615 2.82482 0 
-3.86702 2.81086 0 -3.85608 2.82747 0 -3.89084 2.73067 0 
-4.09733 2.76593 0 -3.88474 2.78395 0 -3.84996 2.72633 0 
-5.2455 -0.230655 0 -2.05278 -1.30251 0 -0.553741 0.833072 0 
-3.99689 -0.859616 0 -1.37093 1.05061 0 0.868634 -0.113016 0 
0.408069 0.347352 0 -3.91439 0.472058 0 -2.52108 0.53428 0 
-3.78977 2.12932 0 -3.72086 2.95092 0 -2.2398 1.21451 0 
-4.12256 -0.841079 0 -3.33481 -0.416068 0 -4.06063 0.151203 0 
-0.525014 0.516251 0 0.302232 0.974868 0 -4.71182 -0.900189 0 
0.237158 0.965645 0 -4.83939 -1.45795 0 -0.514688 0.211127 0 
-4.65929 -1.51594 0 -4.09136 0.109814 0 -3.74339 2.84467 0 
-3.50571 -1.4057 0 -0.445846 0.907944 0 -0.150896 0.704265 0 
-1.84703 0.135316 0 -2.83545 -1.51067 0 -0.0213621 0.542671 0 

noise 3 450 double
0 0.000221425 0 -0 -0.000997368 0 -0 -0.000687255 0 
-0 -0.000223099 0 0 0.000581981 0 0 0.00086655 0 
-0 -0.000779916 0 0 0.000987065 0 -0 -0.000984469 0 
0 0.00019595 0 0 0.000613868 0 -0 -0.00096608 0 
0 0.000979215 0 0 0.000847837 0 -0 -0.000317851 0 
-0 -0.000996253 0 0 0.000888885 0 -0 -0.000806232 0 
-0 -0.000990673 0 0 0.000805215 0 -0 -0.000999994 0 
-0 -0.000563444 0 0 0.000975964 0 -0 -0.000961502 0 
-0 -0.000944204 0 0 0.000462577 0 -0 -0.00095088 0 
0 0.000995474 0 0 0.000454947 0 -0 -0.000720388 0 
0 0.000984166 0 -0 -4.4926e-05 0 0 0.000994971 0 
0 0.000993501 0 0 0.000929724 0 0 0.000859611 0 
-0 -0.000987922 0 0 0.000767769 0 -0 -0.000368391 0 
0 7.43564e-05 0 -0 -0.000261698 0 0 0.000946997 0 
0 0.000400101 0 0 0.00054029 0 -0 -0.000437785 0 
-0 -0.000872627 0 0 0.000139803 0 -0 -0.000932852 0 
-0 -0.00079055 0 -0 -0.000595861 0 -0 -0.00023814 0 
-0 -0.000924576 0 0 0.000949272 0 -0 -0.000289762 0 
0 0.0007765 0 0 0.000557755 0 0 9.31819e-05 0 
-0 -0.000574742 0 -0 -0.000973273 0 0 0.00081528 0 
0 0.000641934 0 0 0.000481001 0 -0 -0.000702283 0 
0 0.000433147 0 -0 -0.000120788 0 -0 -0.000889801 0 
-0 -9.85961e-05 0 -0 -0.000516966 0 0 0.00085161 0 
0 0.00021444 0 0 0.000962906 0 0 0.000999926 0 
-0 -0.000615223 0 -0 -9.14717e-05 0 -0 -0.000134415 0 
-0 -0.000697171 0 0 0.000182459 0 -0 -0.00094864 0 
0 0.00099827 0 -0 -0.000374769 0 0 0.000666823 0 
0 0.000576146 0 0 2.43291e-05 0 -0 -0.00086911 0 
0 0.000998984 0 0 0.000197634 0 -0 -0.000758894 0 
-0 -0.000852509 0 -0 -6.57901e-05 0 -0 -0.000899768 0 
-0 -0.000801977 0 0 0.000934696 0 0 0.000907971 0 
-0 -0.000276585 0 0 0.000949272 0 -0 -0.000886513 0 
0 0.000954532 0 0 0.000379541 0 0 0.000976336 0 
0 0.000527219 0 0 0.000731218 0 -0 -0.00023814 0 
0 0.000996959 0 0 0.000830086 0 0 3.80621e-05 0 
-0 -0.000569106 0 0 0.000656521 0 0 0.000269977 0 
0 0.000419163 0 0 0.000113966 0 0 0.000892141 0 
-0 -0.000775417 0 0 0.00050639 0 0 0.000335976 0 
-0 -0.000646095 0 0 0.000249799 0 -0 -0.000986788 0 
0 0.00081528 0 -0 -0.000993695 0 0 0.000406388 0 
-0 -0.00099957 0 0 0.000647405 0 0 8.63397e-05 0 
0 0.00035692 0 0 0.000988187 0 -0 -0.000547736 0 
0 0.000132713 0 0 0.000954532 0 0 0.000316222 0 
0 0.00080095 0 0 0.000748547 0 -0 -0.000309698 0 
0 0.00099927 0 -0 -0.000417603 0 0 0.000905071 0 
0 0.000708371 0 0 0.000256445 0 0 0.000961029 0 
-0 -0.000979562 0 -0 -0.000989958 0 0 0.00078081 0 
-0 -0.000630006 0 0 0.000528678 0 0 0.000980586 0 
0 0.000156788 0 -0 -0.000173726 0 -0 -0.000491506 0 
0 0.000628671 0 0 0.000278235 0 -0 -0.000997843 0 
0 7.43564e-05 0 -0 -0.00018077 0 0 0.000243141 0 
0 0.000977799 0 0 3.43494e-06 0 -0 -0.000916414 0 
-0 -7.26435e-05 0 -0 -0.000995636 0 0 7.94935e-05 0 
-0 -0.000841401 0 -0 -0.000615223 0 -0 -0.000216397 0 
-0 -0.000814284 0 0 0.000992696 0 0 0.000546058 0 
0 0.000926527 0 0 5.00726e-05 0 -0 -0.000115672 0 
0 0.000379541 0 0 0.000970373 0 0 0.000161874 0 
-0 -0.000737049 0 -0 -3.29129e-05 0 -0 -0.000829127 0 
-0 -0.000261698 0 -0 -0.000959511 0 -0 -5.89336e-05 0 
-0 -0.000895987 0 -0 -0.000340825 0 -0 -0.000678472 0 
0 0.00010002 0 -0 -0.00094134 0 -0 -0.000825104 0 
0 0.000946997 0 -0 -0.000745121 0 0 0.000972077 0 
-0 -0.000910118 0 0 0.000671926 0 -0 -0.000651323 0 
-0 -0.000522834 0 -0 -0.00085608 0 -0 -0.000927172 0 
0 0.000937115 0 -0 -0.000711998 0 -0 -0.000946444 0 
-0 -0.000968262 0 0 0.000932232 0 0 0.000998651 0 
-0 -0.000395374 0 0 0.000838606 0 0 0.000690989 0 
-0 -0.000229791 0 -0 -0.000470173 0 -0 -0.000155091 0 
0 0.000997491 0 -0 -8.58726e-06 0 0 0.0009171 0 
0 0.000869958 0 -0 -0.000450352 0 -0 -0.000955043 0 
-0 -0.000974828 0 -0 -0.000456476 0 -0 -0.00099985 0 
-0 -0.000980977 0 -0 -0.00099856 0 -0 -0.000395374 0 
0 0.000387472 0 0 0.000764458 0 0 0.000236471 0 
-0 -0.000860487 0 0 0.00021444 0 -0 -0.000381129 0 
-0 -0.000591715 0 -0 -0.000763349 0 0 0.000992661 0 
0 0.00035692 0 0 0.000608203 0 -0 -0.000899768 0 
-0 -0.000992867 0 0 0.000256722 0 0 0.000474714 0 
-0 -0.000971672 0 0 0.000888885 0 0 0.000597239 0 
0 0.000818253 0 0 0.000988187 0 -0 -0.00096608 0 
-0 -0.000580583 0 0 0.000329227 0 -0 -0.000754402 0 
-0 -0.000296604 0 -0 -0.000848898 0 -0 -0.000990673 0 
-0 -0.00086911 0 -0 -0.000476478 0 0 1.71739e-05 0 
0 0.000175417 0 0 0.000805215 0 -0 -0.000775417 0 
-0 -0.000921937 0 -0 -0.000860487 0 0 0.000999281 0 
-0 -9.14717e-05 0 -0 -0.000959511 0 -0 -0.00099856 0 
0 0.000966522 0 0 0.000990906 0 -0 -0.000992867 0 
0 0.000682248 0 0 0.000999707 0 0 0.000546299 0 
-0 -0.000848747 0 0 0.000156788 0 0 0.000995474 0 
-0 -5.86473e-05 0 0 0.00029469 0 0 0.00040665 0 
-0 -0.000511073 0 0 0.000984166 0 0 0.0009171 0 
-0 -0.000996824 0 -0 -0.000678472 0 -0 -0.000921826 0 
0 0.000301521 0 0 0.000278235 0 -0 -0.000417603 0 
-0 -0.000340825 0 0 0.00096095 0 0 0.000847837 0 
-0 -0.000754214 0 -0 -0.000979562 0 0 0.000899017 0 
-0 -0.000547736 0 -0 -0.000640616 0 -0 -0.000444208 0 
-0 -3.29129e-05 0 -0 -0.000141504 0 -0 -0.000971605 0 
-0 -0.000996847 0 -0 -0.000216117 0 -0 -0.000368124 0 
0 0.000904949 0 -0 -0.000595861 0 -0 -0.000825104 0 
0 0.000937216 0 0 0.000100305 0 0 0.000870099 0 
-0 -0.000640837 0 0 0.000512548 0 0 0.000139803 0 
0 0.000970373 0 0 0.000826073 0 -0 -0.000609565 0 
0 0.00078099 0 0 0.000726318 0 0 0.000980642 0 
-0 -0.00018077 0 -0 -0.000510826 0 0 0.000716805 0 
0 0.000876789 0 0 0.000576146 0 -0 -0.000993695 0 
-0 -0.000880072 0 0 0.000348885 0 -0 -0.000115672 0 
0 0.000672139 0 -0 -0.000793694 0 -0 -0.000425391 0 
0 0.000957057 0 0 0.000880886 0 -0 -0.000910118 0 
0 0.000764458 0 -0 -0.000829127 0 -0 -0.000491506 0 
-0 -0.000961502 0 0 0.000941919 0 0 0.000789497 0 
0 0.00098324 0 0 0.000562024 0 0 0.00029469 0 
-0 -9.85961e-05 0 0 0.000880886 0 -0 -0.000586163 0 
0 0.000624656 0 0 0.000748547 0 0 0.000189209 0 
-0 -0.000254784 0 0 0.000393796 0 -0 -0.000660399 0 
0 0.000959026 0 -0 -0.000609565 0 0 0.000964737 0 
0 0.000772153 0 0 3.11963e-05 0 0 5.00726e-05 0 
-0 -0.000541735 0 0 0.000661687 0 0 0.000132713 0 
0 0.0008631 0 -0 -0.000999945 0 -0 -0.000883313 0 
0 0.000822182 0 0 0.000999926 0 0 0.000972077 0 
0 0.000468657 0 -0 -0.00079055 0 0 0.000433147 0 
-0 -0.000988964 0 -0 -0.000254784 0 -0 -0.000303158 0 
0 0.00099426 0 0 0.000263355 0 -0 -8.58726e-06 0 
0 0.000322732 0 0 0.000837669 0 0 0.000913642 0 
-0 -0.000355315 0 0 0.000838606 0 0 0.000892141 0 
-0 -0.000980977 0 -0 -0.000707157 0 0 0.000833897 0 
-0 -0.000476478 0 0 0.000740521 0 -0 -0.000932852 0 
-0 -0.00099957 0 0 0.000512548 0 0 0.000647405 0 
-0 -0.000692229 0 -0 -0.000797855 0 0 0.000342439 0 
-0 -0.000985652 0 -0 -0.000635326 0 -0 -0.000202682 0 
-0 -0.000361728 0 0 0.000991807 0 -0 -0.000845094 0 
0 0.000987065 0 -0 -0.000209405 0 0 0.000562024 0 
0 0.000996959 0 0 0.000735887 0 0 0.000107138 0 
-0 -0.000749685 0 0 0.00016865 0 0 1.03047e-05 0 
-0 -0.000810277 0 -0 -0.000498967 0 -0 -0.000919142 0 
0 0.000999518 0 0 0.000690989 0 0 0.000454947 0 
-0 -0.000470173 0 -0 -0.000148301 0 0 0.00050639 0 
-0 -0.000127605 0 -0 -0.000173726 0 -0 -0.000952984 0 
0 0.000221425 0 0 0.000910828 0 -0 -0.000872627 0 
0 0.000301521 0 -0 -0.000504908 0 0 0.00055204 0 
0 0.00067721 0 0 0.000412916 0 0 0.000873465 0 
0 0.000981964 0 0 0.000939589 0 0 0.000785262 0 
-0 -0.000317851 0 -0 -0.000779916 0 0 0.000641934 0 
0 0.000602735 0 0 0.000197634 0 0 0.000493001 0 
0 0.00080095 0 -0 -0.000892915 0 0 0.000975964 0 
0 0.000527219 0 -0 -0.000969956 0 0 0.000902004 0 
0 0.000926527 0 0 0.00085161 0 0 0.000721578 0 
-0 -0.000431598 0 -0 -0.00028318 0 -0 -0.000541735 0 
0 0.000487013 0 -0 -0.00094134 0 0 0.000581981 0 
0 0.000708371 0 -0 -0.000737049 0 -0 -5.17879e-05 0 
-0 -0.000660399 0 0 0.000628671 0 0 0.000619277 0 
-0 -0.000720388 0 0 0.000997491 0 0 0.000534497 0 

