# vtk DataFile Version 4.0
vtk output
ASCII
DATASET POLYDATA
FIELD FieldData 5
domain 1 4 string
domain_min:0|0
domain_max:2|2
cell_size:2.5|2.5
boundary:0|1

variables 1 5 string
T:1.62
dt:0.02
write_case:1
substeps:1
all_steps:81

constants 1 5 string
L:5
c_s:2.5
dx:0.1
omega:0.3
eps:0.0833333

equations 1 4 string
initial_noise:r=(r+noise)#eq(T,0)
time:T=(T+dt)#true
velocity:v=dvm(w,eps)#true
integrate:r=euler(r,v,dt)#true

asymmetric 1 1 string
w

POINTS 450 float
0.312585 2.11264 0 2.30066 2.28603 0 2.10504 2.40909 0 
0.941981 1.82368 0 0.379052 1.99741 0 0.429669 1.96759 0 
1.61083 2.09726 0 0.277421 2.21336 0 1.14741 2.29008 0 
0.518225 2.02646 0 1.36407 1.97274 0 0.421862 1.97861 0 
0.966106 1.87108 0 1.7624 2.42558 0 0.676331 2.00613 0 
0.525627 2.03207 0 0.804833 2.2946 0 0.529184 2.01494 0 
0.950074 1.68334 0 0.0663244 2.49854 0 2.04079 2.158 0 
0.414852 2.0859 0 0.188449 2.45765 0 2.26742 1.96064 0 
0.548293 1.89648 0 1.14562 1.76166 0 0.752085 2.03123 0 
1.91631 2.2818 0 2.16013 2.18002 0 2.22943 2.49903 0 
0.533761 2.04296 0 0.532229 2.03891 0 0.641063 2.02044 0 
2.45149 2.30797 0 2.42044 2.32473 0 2.47223 2.34942 0 
2.44825 2.18488 0 2.4725 2.07804 0 2.03874 2.31821 0 
1.91037 2.37427 0 0.484491 1.93816 0 0.952609 1.87215 0 
0.692986 1.99933 0 0.756615 2.07465 0 0.266091 2.06546 0 
2.17699 2.22631 0 1.94126 2.26655 0 0.519536 2.10467 0 
1.51764 2.43942 0 1.75698 2.46525 0 0.519013 2.06907 0 
0.89754 2.15281 0 1.88761 2.29612 0 2.44479 2.47203 0 
0.706074 2.29511 0 0.658659 2.01325 0 0.298975 2.26898 0 
1.79553 2.38068 0 0.504803 2.08452 0 0.623929 2.02125 0 
0.280987 2.17926 0 0.820908 1.82478 0 0.957459 2.33578 0 
0.885188 1.93495 0 0.754804 1.98848 0 2.1802 2.48304 0 
2.03202 2.40889 0 1.1482 1.9904 0 0.857389 2.32297 0 
1.85257 2.35594 0 0.708469 1.99315 0 1.63532 2.45149 0 
0.997787 2.11971 0 0.671654 2.17887 0 0.0484051 2.48403 0 
0.154254 2.28729 0 0.765446 1.74682 0 1.58484 2.29447 0 
0.265275 2.22647 0 0.963764 1.99081 0 0.527947 2.04709 0 
1.84408 2.3315 0 2.20928 2.44762 0 1.40435 2.23739 0 
1.36759 2.33473 0 0.0626603 2.49381 0 1.66817 2.18304 0 
0.935966 1.80179 0 2.12926 2.30646 0 0.644144 1.77217 0 
0.382908 1.96853 0 0.264259 2.46185 0 0.549212 1.86639 0 
0.605845 2.01637 0 0.960606 1.86714 0 2.36762 2.44565 0 
0.354029 2.0501 0 0.554939 2.00922 0 0.449118 1.88304 0 
0.0699254 2.49128 0 0.416503 1.95371 0 1.15918 2.05812 0 
1.28164 2.15242 0 1.03672 1.85608 0 1.43109 2.04669 0 
1.12709 1.83414 0 1.23385 1.87355 0 0.581766 2.01159 0 
0.770311 1.78297 0 0.924068 1.79985 0 0.478682 2.30589 0 
0.567605 2.43517 0 1.03128 2.48551 0 2.11682 2.22192 0 
2.04267 2.2172 0 0.732243 1.98653 0 1.9973 2.22642 0 
1.98873 2.238 0 0.335867 2.14164 0 1.84513 2.37001 0 
2.84223 2.39925 0 4.27262 2.48869 0 2.92713 2.09889 0 
3.26005 1.80483 0 2.91856 2.43768 0 2.94487 2.46125 0 
3.04025 2.49018 0 3.00618 2.48604 0 3.39129 1.7587 0 
4.44354 2.47719 0 3.70712 1.92133 0 2.73089 2.44346 0 
4.73659 2.28314 0 2.95781 2.38348 0 3.67028 2.00585 0 
3.48062 1.69537 0 4.39854 2.429 0 3.59981 2.03394 0 
2.94962 2.09586 0 3.33975 1.69862 0 3.07065 1.96136 0 
3.32031 2.25813 0 3.20333 1.75981 0 4.88027 2.27147 0 
3.99386 2.43557 0 2.68079 2.21072 0 3.17799 2.42969 0 
3.34175 2.02486 0 3.5609 1.81466 0 3.06803 2.07483 0 
3.2667 1.72522 0 2.97533 2.47717 0 3.32683 2.1439 0 
3.78568 2.35515 0 3.09008 2.47268 0 2.93804 2.09548 0 
3.24056 2.23023 0 3.1529 1.69923 0 2.97496 2.0962 0 
2.90228 2.4269 0 3.00416 2.11737 0 4.6407 2.42251 0 
3.29405 1.81085 0 3.46772 1.77252 0 3.33416 1.93374 0 
3.02504 2.17723 0 3.16154 2.16025 0 3.65122 2.48166 0 
3.15245 2.41357 0 3.02427 2.31521 0 3.67909 2.43196 0 
4.92221 2.40759 0 4.92856 2.43647 0 3.33499 1.79733 0 
2.8045 1.85347 0 2.69779 2.48555 0 3.32049 1.80731 0 
3.09161 2.22821 0 2.6151 2.26383 0 3.3968 1.70233 0 
3.47564 1.72089 0 3.90145 2.31044 0 3.31807 1.72428 0 
4.26394 2.3695 0 3.3798 1.7627 0 3.4396 1.73359 0 
2.92818 2.13528 0 4.76723 2.39527 0 3.44828 2.30038 0 
2.73211 2.29723 0 2.56707 2.18555 0 3.69593 2.25976 0 
2.72178 1.98131 0 3.24114 1.84815 0 2.70689 2.19073 0 
2.8938 1.9099 0 3.02996 2.24925 0 3.00773 2.11258 0 
3.28038 1.72631 0 3.29397 2.2198 0 4.98067 2.47443 0 
2.59606 2.08571 0 4.10394 2.24388 0 4.014 2.2809 0 
3.53705 2.09456 0 3.16705 2.315 0 3.41236 1.74718 0 
3.43825 1.71201 0 2.9289 2.0991 0 3.02643 1.73449 0 
2.56583 2.4375 0 2.7771 2.41601 0 3.57383 2.28323 0 
2.86576 2.40338 0 3.32302 2.32118 0 2.81369 2.40325 0 
3.15578 2.18951 0 3.57449 2.44987 0 3.57146 2.42751 0 
3.16773 2.20055 0 3.3923 2.45711 0 2.88578 2.41408 0 
3.5937 2.18612 0 4.12753 2.08676 0 3.78295 2.16419 0 
1.46759 2.91495 0 1.88984 2.79602 0 2.1751 3.02887 0 
0.996707 2.77474 0 1.00951 2.75593 0 1.19345 2.94369 0 
1.71303 3.12787 0 1.01145 2.7557 0 0.494034 2.879 0 
0.184244 3.03496 0 0.445146 2.62835 0 1.33112 2.77299 0 
1.10359 2.87099 0 0.581785 2.76388 0 0.56534 2.53612 0 
1.03408 2.81178 0 0.476577 2.75252 0 0.828472 2.51108 0 
1.94151 2.9968 0 1.01279 2.75407 0 1.86018 2.78064 0 
2.02618 2.77825 0 1.87365 2.78123 0 1.91096 2.76815 0 
1.17162 2.76538 0 2.06734 2.82927 0 1.31629 2.60769 0 
1.99984 2.81587 0 2.09874 2.94331 0 2.28346 2.54873 0 
2.47906 2.63077 0 2.48397 2.85312 0 0.0588796 2.5134 0 
2.45619 2.65146 0 2.45286 2.60337 0 2.4797 2.64744 0 
0.462346 2.9831 0 2.1757 2.72826 0 0.0785312 2.74037 0 
2.05465 3.09441 0 1.2932 3.04761 0 2.35057 2.72701 0 
1.08095 2.6674 0 2.30941 2.58156 0 1.86449 2.56636 0 
2.1377 2.69746 0 0.360721 2.50205 0 1.27184 2.98495 0 
1.6718 3.19582 0 1.92802 2.62039 0 1.91597 2.58007 0 
1.80834 3.04067 0 0.0889766 2.61967 0 1.80038 2.63464 0 
0.26682 3.02743 0 1.8198 2.98456 0 0.995832 2.76878 0 
0.113268 2.84472 0 1.34239 2.87034 0 1.53583 2.72914 0 
0.0806559 3.17595 0 0.995124 2.58666 0 1.05884 2.63398 0 
2.23746 2.90376 0 1.57824 2.87942 0 1.29817 2.84491 0 
1.27024 2.6241 0 1.30237 2.81438 0 0.975989 2.70134 0 
1.01155 2.77849 0 0.962766 2.82684 0 0.997264 2.75625 0 
1.50487 3.00638 0 1.90538 2.80999 0 0.969884 2.73016 0 
1.40869 2.86024 0 0.0664068 2.51533 0 1.43731 2.51246 0 
2.16584 2.50363 0 0.0291855 2.52437 0 0.0614424 2.51805 0 
0.0564415 2.50633 0 0.0575463 2.50903 0 2.26316 2.50458 0 
0.0532038 2.50861 0 2.47451 2.55928 0 1.03638 2.59387 0 
1.30536 2.97129 0 1.27375 2.87244 0 1.79582 2.63632 0 
0.147601 2.93131 0 1.02207 2.78541 0 1.70739 2.6137 0 
0.0158627 2.87481 0 1.98795 2.71974 0 1.50284 3.16519 0 
0.302208 2.65141 0 1.81081 2.65453 0 0.270818 3.13829 0 
1.99163 2.81313 0 1.93208 2.71439 0 1.36348 2.71979 0 
0.343714 2.79067 0 1.21253 2.52304 0 1.54737 2.68257 0 
1.10464 2.92485 0 1.65867 2.9402 0 1.70369 2.64794 0 
1.15222 2.8866 0 2.4139 2.64662 0 2.39697 2.55704 0 
1.36281 2.52663 0 2.35512 2.62288 0 1.72405 2.70586 0 
4.93828 2.97152 0 4.29413 3.02684 0 3.30941 3.01898 0 
4.08608 2.55253 0 3.26887 2.91711 0 4.58747 3.04374 0 
4.32353 2.80067 0 4.72198 2.60841 0 2.63342 2.6467 0 
3.71264 2.70704 0 4.91796 2.77579 0 4.88444 2.75177 0 
4.84777 2.60497 0 2.67848 2.51707 0 4.17669 2.63803 0 
4.67703 2.64628 0 4.66432 2.65763 0 4.77118 2.8287 0 
2.523 2.78741 0 4.64627 3.10612 0 4.90436 3.14789 0 
4.63353 3.11725 0 3.477 2.75079 0 2.85637 2.81514 0 
4.6832 3.11301 0 4.81885 3.09315 0 3.90805 2.77856 0 
3.59748 2.53362 0 2.81063 2.65198 0 3.44554 2.57292 0 
3.15327 2.9641 0 3.65351 2.61425 0 4.77731 3.17398 0 
3.81306 2.54291 0 4.81247 3.18542 0 2.99589 2.5772 0 
4.17997 2.68137 0 2.99433 2.72838 0 3.38577 2.62015 0 
4.8081 2.90132 0 2.50184 2.76841 0 4.85376 2.72194 0 
4.21224 2.87178 0 4.31382 2.58886 0 3.08293 3.05097 0 
3.21527 3.10132 0 4.39812 2.98853 0 4.02079 2.6249 0 
4.49312 3.0621 0 3.38901 2.83416 0 4.65305 3.0664 0 
4.06105 2.57228 0 3.84263 2.8418 0 4.02187 2.61001 0 
4.53183 2.83917 0 4.62137 2.68797 0 3.82223 2.66568 0 
4.68271 2.94162 0 3.26915 2.68559 0 4.20138 2.82441 0 
4.26585 2.58086 0 4.00131 2.68516 0 3.80431 2.65488 0 
4.93065 3.23104 0 4.50092 3.11959 0 2.65615 2.75282 0 
3.33931 3.1119 0 2.88113 2.65253 0 4.91433 3.13444 0 
4.52554 2.63733 0 4.24236 2.98634 0 4.14711 2.65229 0 
4.39833 2.6598 0 4.22644 2.52215 0 4.0155 2.7799 0 
4.28967 3.02478 0 4.91206 3.13452 0 3.81496 2.90426 0 
3.5875 2.51377 0 4.44798 2.51154 0 4.59208 2.50533 0 
4.6877 2.50393 0 4.99308 2.53459 0 4.44284 2.87582 0 
4.76888 2.77866 0 4.84402 2.88931 0 4.77567 2.72159 0 
2.62393 2.50601 0 4.69618 2.81746 0 3.97732 2.65524 0 
4.86739 3.1904 0 3.88783 2.69509 0 4.55215 3.11224 0 
3.09303 2.81261 0 2.50932 2.89722 0 3.27382 2.85955 0 
2.82017 2.86014 0 3.44792 2.89714 0 4.76019 2.64533 0 
4.48972 3.11681 0 4.20784 2.67738 0 2.95617 2.827 0 
3.78723 2.97547 0 2.73909 2.97971 0 3.385 3.05756 0 
2.76216 2.52686 0 4.61662 2.52625 0 3.35359 2.98009 0 
3.27509 3.12732 0 2.65394 2.5227 0 3.14872 2.53231 0 

VERTICES 900 900
1 0 
1 1 
1 2 
1 3 
1 4 
1 5 
1 6 
1 7 
1 8 
1 9 
1 10 
1 11 
1 12 
1 13 
1 14 
1 15 
1 16 
1 17 
1 18 
1 19 
1 20 
1 21 
1 22 
1 23 
1 24 
1 25 
1 26 
1 27 
1 28 
1 29 
1 30 
1 31 
1 32 
1 33 
1 34 
1 35 
1 36 
1 37 
1 38 
1 39 
1 40 
1 41 
1 42 
1 43 
1 44 
1 45 
1 46 
1 47 
1 48 
1 49 
1 50 
1 51 
1 52 
1 53 
1 54 
1 55 
1 56 
1 57 
1 58 
1 59 
1 60 
1 61 
1 62 
1 63 
1 64 
1 65 
1 66 
1 67 
1 68 
1 69 
1 70 
1 71 
1 72 
1 73 
1 74 
1 75 
1 76 
1 77 
1 78 
1 79 
1 80 
1 81 
1 82 
1 83 
1 84 
1 85 
1 86 
1 87 
1 88 
1 89 
1 90 
1 91 
1 92 
1 93 
1 94 
1 95 
1 96 
1 97 
1 98 
1 99 
1 100 
1 101 
1 102 
1 103 
1 104 
1 105 
1 106 
1 107 
1 108 
1 109 
1 110 
1 111 
1 112 
1 113 
1 114 
1 115 
1 116 
1 117 
1 118 
1 119 
1 120 
1 121 
1 122 
1 123 
1 124 
1 125 
1 126 
1 127 
1 128 
1 129 
1 130 
1 131 
1 132 
1 133 
1 134 
1 135 
1 136 
1 137 
1 138 
1 139 
1 140 
1 141 
1 142 
1 143 
1 144 
1 145 
1 146 
1 147 
1 148 
1 149 
1 150 
1 151 
1 152 
1 153 
1 154 
1 155 
1 156 
1 157 
1 158 
1 159 
1 160 
1 161 
1 162 
1 163 
1 164 
1 165 
1 166 
1 167 
1 168 
1 169 
1 170 
1 171 
1 172 
1 173 
1 174 
1 175 
1 176 
1 177 
1 178 
1 179 
1 180 
1 181 
1 182 
1 183 
1 184 
1 185 
1 186 
1 187 
1 188 
1 189 
1 190 
1 191 
1 192 
1 193 
1 194 
1 195 
1 196 
1 197 
1 198 
1 199 
1 200 
1 201 
1 202 
1 203 
1 204 
1 205 
1 206 
1 207 
1 208 
1 209 
1 210 
1 211 
1 212 
1 213 
1 214 
1 215 
1 216 
1 217 
1 218 
1 219 
1 220 
1 221 
1 222 
1 223 
1 224 
1 225 
1 226 
1 227 
1 228 
1 229 
1 230 
1 231 
1 232 
1 233 
1 234 
1 235 
1 236 
1 237 
1 238 
1 239 
1 240 
1 241 
1 242 
1 243 
1 244 
1 245 
1 246 
1 247 
1 248 
1 249 
1 250 
1 251 
1 252 
1 253 
1 254 
1 255 
1 256 
1 257 
1 258 
1 259 
1 260 
1 261 
1 262 
1 263 
1 264 
1 265 
1 266 
1 267 
1 268 
1 269 
1 270 
1 271 
1 272 
1 273 
1 274 
1 275 
1 276 
1 277 
1 278 
1 279 
1 280 
1 281 
1 282 
1 283 
1 284 
1 285 
1 286 
1 287 
1 288 
1 289 
1 290 
1 291 
1 292 
1 293 
1 294 
1 295 
1 296 
1 297 
1 298 
1 299 
1 300 
1 301 
1 302 
1 303 
1 304 
1 305 
1 306 
1 307 
1 308 
1 309 
1 310 
1 311 
1 312 
1 313 
1 314 
1 315 
1 316 
1 317 
1 318 
1 319 
1 320 
1 321 
1 322 
1 323 
1 324 
1 325 
1 326 
1 327 
1 328 
1 329 
1 330 
1 331 
1 332 
1 333 
1 334 
1 335 
1 336 
1 337 
1 338 
1 339 
1 340 
1 341 
1 342 
1 343 
1 344 
1 345 
1 346 
1 347 
1 348 
1 349 
1 350 
1 351 
1 352 
1 353 
1 354 
1 355 
1 356 
1 357 
1 358 
1 359 
1 360 
1 361 
1 362 
1 363 
1 364 
1 365 
1 366 
1 367 
1 368 
1 369 
1 370 
1 371 
1 372 
1 373 
1 374 
1 375 
1 376 
1 377 
1 378 
1 379 
1 380 
1 381 
1 382 
1 383 
1 384 
1 385 
1 386 
1 387 
1 388 
1 389 
1 390 
1 391 
1 392 
1 393 
1 394 
1 395 
1 396 
1 397 
1 398 
1 399 
1 400 
1 401 
1 402 
1 403 
1 404 
1 405 
1 406 
1 407 
1 408 
1 409 
1 410 
1 411 
1 412 
1 413 
1 414 
1 415 
1 416 
1 417 
1 418 
1 419 
1 420 
1 421 
1 422 
1 423 
1 424 
1 425 
1 426 
1 427 
1 428 
1 429 
1 430 
1 431 
1 432 
1 433 
1 434 
1 435 
1 436 
1 437 
1 438 
1 439 
1 440 
1 441 
1 442 
1 443 
1 444 
1 445 
1 446 
1 447 
1 448 
1 449 

POINT_DATA 450
SCALARS id double
LOOKUP_TABLE default
264 60 26 257 251 252 0 267 89 
277 80 262 255 109 285 276 96 278 
55 236 35 269 429 68 254 94 290 
120 48 144 274 275 283 157 156 158 
52 57 64 59 253 259 286 5 202 
104 119 271 98 358 272 6 108 388 
370 284 449 121 270 282 265 41 22 
19 289 142 127 91 4 123 287 84 
11 291 246 70 24 81 266 12 273 
118 128 82 92 238 69 256 124 248 
247 355 249 281 258 155 263 279 99 
237 250 8 9 13 42 86 3 280 
261 260 400 412 23 334 105 288 106 
107 268 110 167 206 134 344 171 172 
175 174 341 44 29 164 50 73 28 
337 45 46 132 336 61 58 62 76 
31 75 390 27 40 21 101 173 10 
79 176 135 129 102 136 170 131 215 
343 34 39 51 138 56 177 33 83 
2 7 345 103 163 342 130 74 348 
338 37 349 30 346 339 43 53 179 
32 67 77 63 20 141 65 49 137 
100 140 54 66 38 15 47 36 340 
347 133 335 159 165 71 168 178 166 
139 187 180 78 373 169 16 17 14 
377 320 428 308 302 311 438 303 416 
436 435 332 310 424 447 309 423 292 
359 304 319 318 327 325 296 381 294 
321 427 146 152 444 230 150 153 151 
441 351 364 426 371 394 18 147 122 
125 411 312 365 117 126 409 430 316 
445 440 307 360 329 407 434 298 297 
439 361 330 295 331 299 306 382 301 
376 315 300 328 232 97 143 229 231 
235 233 145 234 417 293 362 314 322 
431 305 396 241 380 366 404 324 395 
326 353 333 405 95 317 369 357 323 
313 149 154 90 148 408 410 191 420 
210 421 448 414 217 406 372 383 228 
245 162 212 218 219 243 111 193 199 
182 401 391 194 367 375 186 379 387 
419 378 195 72 200 374 223 418 386 
225 384 356 354 211 415 116 350 222 
446 442 201 221 398 209 437 216 189 
433 385 224 205 208 185 413 183 368 
115 399 197 87 181 25 226 88 190 
184 198 397 188 214 85 1 239 432 
244 227 240 160 242 207 196 204 203 
403 443 393 392 114 93 192 213 425 
402 352 363 389 220 113 112 161 422 

FIELD FieldData 5
r 3 450 double
0.312585 2.11264 0 2.30066 2.28603 0 2.10504 2.40909 0 
0.941981 1.82368 0 0.379052 1.99741 0 0.429669 1.96759 0 
1.61083 2.09726 0 0.277421 2.21336 0 1.14741 2.29008 0 
0.518225 2.02646 0 1.36407 1.97274 0 0.421862 1.97861 0 
0.966106 1.87108 0 1.7624 2.42558 0 0.676331 2.00613 0 
0.525627 2.03207 0 0.804833 2.2946 0 0.529184 2.01494 0 
0.950074 1.68334 0 0.0663244 2.49854 0 2.04079 2.158 0 
0.414852 2.0859 0 0.188449 2.45765 0 2.26742 1.96064 0 
0.548293 1.89648 0 1.14562 1.76166 0 0.752085 2.03123 0 
1.91631 2.2818 0 2.16013 2.18002 0 2.22943 2.49903 0 
0.533761 2.04296 0 0.532229 2.03891 0 0.641063 2.02044 0 
2.45149 2.30797 0 2.42044 2.32473 0 2.47223 2.34942 0 
2.44825 2.18488 0 2.4725 2.07804 0 2.03874 2.31821 0 
1.91037 2.37427 0 0.484491 1.93816 0 0.952609 1.87215 0 
0.692986 1.99933 0 0.756615 2.07465 0 0.266091 2.06546 0 
2.17699 2.22631 0 1.94126 2.26655 0 0.519536 2.10467 0 
1.51764 2.43942 0 1.75698 2.46525 0 0.519013 2.06907 0 
0.89754 2.15281 0 1.88761 2.29612 0 2.44479 2.47203 0 
0.706074 2.29511 0 0.658659 2.01325 0 0.298975 2.26898 0 
1.79553 2.38068 0 0.504803 2.08452 0 0.623929 2.02125 0 
0.280987 2.17926 0 0.820908 1.82478 0 0.957459 2.33578 0 
0.885188 1.93495 0 0.754804 1.98848 0 2.1802 2.48304 0 
2.03202 2.40889 0 1.1482 1.9904 0 0.857389 2.32297 0 
1.85257 2.35594 0 0.708469 1.99315 0 1.63532 2.45149 0 
0.997787 2.11971 0 0.671654 2.17887 0 0.0484051 2.48403 0 
0.154254 2.28729 0 0.765446 1.74682 0 1.58484 2.29447 0 
0.265275 2.22647 0 0.963764 1.99081 0 0.527947 2.04709 0 
1.84408 2.3315 0 2.20928 2.44762 0 1.40435 2.23739 0 
1.36759 2.33473 0 0.0626603 2.49381 0 1.66817 2.18304 0 
0.935966 1.80179 0 2.12926 2.30646 0 0.644144 1.77217 0 
0.382908 1.96853 0 0.264259 2.46185 0 0.549212 1.86639 0 
0.605845 2.01637 0 0.960606 1.86714 0 2.36762 2.44565 0 
0.354029 2.0501 0 0.554939 2.00922 0 0.449118 1.88304 0 
0.0699254 2.49128 0 0.416503 1.95371 0 1.15918 2.05812 0 
1.28164 2.15242 0 1.03672 1.85608 0 1.43109 2.04669 0 
1.12709 1.83414 0 1.23385 1.87355 0 0.581766 2.01159 0 
0.770311 1.78297 0 0.924068 1.79985 0 0.478682 2.30589 0 
0.567605 2.43517 0 1.03128 2.48551 0 2.11682 2.22192 0 
2.04267 2.2172 0 0.732243 1.98653 0 1.9973 2.22642 0 
1.98873 2.238 0 0.335867 2.14164 0 1.84513 2.37001 0 
2.84223 2.39925 0 4.27262 2.48869 0 2.92713 2.09889 0 
3.26005 1.80483 0 2.91856 2.43768 0 2.94487 2.46125 0 
3.04025 2.49018 0 3.00618 2.48604 0 3.39129 1.7587 0 
4.44354 2.47719 0 3.70712 1.92133 0 2.73089 2.44346 0 
4.73659 2.28314 0 2.95781 2.38348 0 3.67028 2.00585 0 
3.48062 1.69537 0 4.39854 2.429 0 3.59981 2.03394 0 
2.94962 2.09586 0 3.33975 1.69862 0 3.07065 1.96136 0 
3.32031 2.25813 0 3.20333 1.75981 0 4.88027 2.27147 0 
3.99386 2.43557 0 2.68079 2.21072 0 3.17799 2.42969 0 
3.34175 2.02486 0 3.5609 1.81466 0 3.06803 2.07483 0 
3.2667 1.72522 0 2.97533 2.47717 0 3.32683 2.1439 0 
3.78568 2.35515 0 3.09008 2.47268 0 2.93804 2.09548 0 
3.24056 2.23023 0 3.1529 1.69923 0 2.97496 2.0962 0 
2.90228 2.4269 0 3.00416 2.11737 0 4.6407 2.42251 0 
3.29405 1.81085 0 3.46772 1.77252 0 3.33416 1.93374 0 
3.02504 2.17723 0 3.16154 2.16025 0 3.65122 2.48166 0 
3.15245 2.41357 0 3.02427 2.31521 0 3.67909 2.43196 0 
4.92221 2.40759 0 4.92856 2.43647 0 3.33499 1.79733 0 
2.8045 1.85347 0 2.69779 2.48555 0 3.32049 1.80731 0 
3.09161 2.22821 0 2.6151 2.26383 0 3.3968 1.70233 0 
3.47564 1.72089 0 3.90145 2.31044 0 3.31807 1.72428 0 
4.26394 2.3695 0 3.3798 1.7627 0 3.4396 1.73359 0 
2.92818 2.13528 0 4.76723 2.39527 0 3.44828 2.30038 0 
2.73211 2.29723 0 2.56707 2.18555 0 3.69593 2.25976 0 
2.72178 1.98131 0 3.24114 1.84815 0 2.70689 2.19073 0 
2.8938 1.9099 0 3.02996 2.24925 0 3.00773 2.11258 0 
3.28038 1.72631 0 3.29397 2.2198 0 4.98067 2.47443 0 
2.59606 2.08571 0 4.10394 2.24388 0 4.014 2.2809 0 
3.53705 2.09456 0 3.16705 2.315 0 3.41236 1.74718 0 
3.43825 1.71201 0 2.9289 2.0991 0 3.02643 1.73449 0 
2.56583 2.4375 0 2.7771 2.41601 0 3.57383 2.28323 0 
2.86576 2.40338 0 3.32302 2.32118 0 2.81369 2.40325 0 
3.15578 2.18951 0 3.57449 2.44987 0 3.57146 2.42751 0 
3.16773 2.20055 0 3.3923 2.45711 0 2.88578 2.41408 0 
3.5937 2.18612 0 4.12753 2.08676 0 3.78295 2.16419 0 
1.46759 2.91495 0 1.88984 2.79602 0 2.1751 3.02887 0 
0.996707 2.77474 0 1.00951 2.75593 0 1.19345 2.94369 0 
1.71303 3.12787 0 1.01145 2.7557 0 0.494034 2.879 0 
0.184244 3.03496 0 0.445146 2.62835 0 1.33112 2.77299 0 
1.10359 2.87099 0 0.581785 2.76388 0 0.56534 2.53612 0 
1.03408 2.81178 0 0.476577 2.75252 0 0.828472 2.51108 0 
1.94151 2.9968 0 1.01279 2.75407 0 1.86018 2.78064 0 
2.02618 2.77825 0 1.87365 2.78123 0 1.91096 2.76815 0 
1.17162 2.76538 0 2.06734 2.82927 0 1.31629 2.60769 0 
1.99984 2.81587 0 2.09874 2.94331 0 2.28346 2.54873 0 
2.47906 2.63077 0 2.48397 2.85312 0 0.0588796 2.5134 0 
2.45619 2.65146 0 2.45286 2.60337 0 2.4797 2.64744 0 
0.462346 2.9831 0 2.1757 2.72826 0 0.0785312 2.74037 0 
2.05465 3.09441 0 1.2932 3.04761 0 2.35057 2.72701 0 
1.08095 2.6674 0 2.30941 2.58156 0 1.86449 2.56636 0 
2.1377 2.69746 0 0.360721 2.50205 0 1.27184 2.98495 0 
1.6718 3.19582 0 1.92802 2.62039 0 1.91597 2.58007 0 
1.80834 3.04067 0 0.0889766 2.61967 0 1.80038 2.63464 0 
0.26682 3.02743 0 1.8198 2.98456 0 0.995832 2.76878 0 
0.113268 2.84472 0 1.34239 2.87034 0 1.53583 2.72914 0 
0.0806559 3.17595 0 0.995124 2.58666 0 1.05884 2.63398 0 
2.23746 2.90376 0 1.57824 2.87942 0 1.29817 2.84491 0 
1.27024 2.6241 0 1.30237 2.81438 0 0.975989 2.70134 0 
1.01155 2.77849 0 0.962766 2.82684 0 0.997264 2.75625 0 
1.50487 3.00638 0 1.90538 2.80999 0 0.969884 2.73016 0 
1.40869 2.86024 0 0.0664068 2.51533 0 1.43731 2.51246 0 
2.16584 2.50363 0 0.0291855 2.52437 0 0.0614424 2.51805 0 
0.0564415 2.50633 0 0.0575463 2.50903 0 2.26316 2.50458 0 
0.0532038 2.50861 0 2.47451 2.55928 0 1.03638 2.59387 0 
1.30536 2.97129 0 1.27375 2.87244 0 1.79582 2.63632 0 
0.147601 2.93131 0 1.02207 2.78541 0 1.70739 2.6137 0 
0.0158627 2.87481 0 1.98795 2.71974 0 1.50284 3.16519 0 
0.302208 2.65141 0 1.81081 2.65453 0 0.270818 3.13829 0 
1.99163 2.81313 0 1.93208 2.71439 0 1.36348 2.71979 0 
0.343714 2.79067 0 1.21253 2.52304 0 1.54737 2.68257 0 
1.10464 2.92485 0 1.65867 2.9402 0 1.70369 2.64794 0 
1.15222 2.8866 0 2.4139 2.64662 0 2.39697 2.55704 0 
1.36281 2.52663 0 2.35512 2.62288 0 1.72405 2.70586 0 
4.93828 2.97152 0 4.29413 3.02684 0 3.30941 3.01898 0 
4.08608 2.55253 0 3.26887 2.91711 0 4.58747 3.04374 0 
4.32354 2.80067 0 4.72198 2.60841 0 2.63342 2.6467 0 
3.71264 2.70704 0 4.91796 2.77579 0 4.88444 2.75177 0 
4.84777 2.60497 0 2.67848 2.51707 0 4.17669 2.63803 0 
4.67703 2.64628 0 4.66432 2.65763 0 4.77118 2.8287 0 
2.523 2.78741 0 4.64627 3.10612 0 4.90436 3.14789 0 
4.63353 3.11725 0 3.477 2.75079 0 2.85637 2.81514 0 
4.6832 3.11301 0 4.81885 3.09315 0 3.90805 2.77856 0 
3.59748 2.53362 0 2.81063 2.65198 0 3.44554 2.57292 0 
3.15327 2.9641 0 3.65351 2.61425 0 4.77731 3.17398 0 
3.81306 2.54291 0 4.81247 3.18542 0 2.99589 2.5772 0 
4.17997 2.68137 0 2.99433 2.72838 0 3.38577 2.62015 0 
4.8081 2.90132 0 2.50184 2.76841 0 4.85376 2.72194 0 
4.21224 2.87178 0 4.31382 2.58886 0 3.08293 3.05097 0 
3.21527 3.10132 0 4.39812 2.98853 0 4.02079 2.6249 0 
4.49312 3.0621 0 3.38901 2.83416 0 4.65305 3.0664 0 
4.06105 2.57228 0 3.84263 2.8418 0 4.02187 2.61001 0 
4.53183 2.83917 0 4.62137 2.68797 0 3.82223 2.66568 0 
4.68271 2.94162 0 3.26915 2.68559 0 4.20138 2.82441 0 
4.26585 2.58086 0 4.00131 2.68516 0 3.80431 2.65488 0 
4.93065 3.23104 0 4.50092 3.11959 0 2.65615 2.75282 0 
3.33931 3.1119 0 2.88113 2.65253 0 4.91433 3.13445 0 
4.52554 2.63733 0 4.24236 2.98634 0 4.14711 2.65229 0 
4.39833 2.6598 0 4.22644 2.52215 0 4.0155 2.7799 0 
4.28967 3.02478 0 4.91206 3.13452 0 3.81496 2.90426 0 
3.5875 2.51377 0 4.44798 2.51154 0 4.59208 2.50533 0 
4.6877 2.50393 0 4.99308 2.53459 0 4.44284 2.87582 0 
4.76888 2.77866 0 4.84402 2.88931 0 4.77567 2.72159 0 
2.62393 2.50601 0 4.69618 2.81746 0 3.97732 2.65524 0 
4.86739 3.1904 0 3.88783 2.69509 0 4.55215 3.11224 0 
3.09303 2.81261 0 2.50932 2.89722 0 3.27382 2.85955 0 
2.82017 2.86014 0 3.44792 2.89714 0 4.76019 2.64533 0 
4.48972 3.11681 0 4.20784 2.67738 0 2.95617 2.827 0 
3.78723 2.97547 0 2.73909 2.97971 0 3.385 3.05756 0 
2.76216 2.52686 0 4.61662 2.52625 0 3.35359 2.98009 0 
3.27509 3.12732 0 2.65394 2.5227 0 3.14872 2.53231 0 

gid 1 450 double
0 -1 -1 0 0 0 -1 0 -1 
0 -1 0 0 0 0 0 -1 0 
-1 0 -1 0 1 -1 0 -1 0 
0 -1 0 0 0 0 0 0 0 
-1 -1 -1 -1 0 0 0 -1 0 
0 0 0 -1 1 0 -1 0 1 
1 0 1 0 0 0 0 -1 -1 
-1 0 0 0 -1 -1 0 0 -1 
-1 0 0 -1 -1 -1 0 -1 0 
0 0 -1 -1 0 -1 0 0 0 
0 1 0 0 0 0 0 0 -1 
0 0 -1 -1 -1 -1 -1 -1 0 
0 0 1 1 -1 0 0 0 0 
0 0 0 0 0 0 0 0 0 
0 0 0 -1 -1 0 -1 -1 -1 
0 -1 -1 0 0 -1 -1 -1 -1 
-1 -1 1 -1 -1 -1 0 0 -1 
-1 0 0 0 0 0 0 0 0 
0 -1 -1 -1 0 -1 0 -1 -1 
-1 -1 0 0 0 0 0 -1 0 
0 -1 0 -1 0 0 -1 -1 0 
-1 -1 -1 -1 -1 0 -1 -1 0 
0 0 -1 -1 -1 -1 -1 -1 0 
0 0 0 0 0 -1 0 0 0 
0 0 0 -1 1 0 -1 -1 -1 
1 0 1 0 0 0 1 0 1 
1 1 0 0 1 1 0 1 0 
1 0 0 0 0 0 0 1 0 
0 1 0 0 1 0 0 0 0 
1 1 1 1 1 1 -1 0 0 
0 1 0 1 0 0 1 1 0 
1 1 0 1 0 1 1 0 0 
1 1 0 0 0 0 0 1 0 
1 0 0 0 0 -1 0 0 0 
0 0 0 0 1 0 1 0 0 
1 0 1 0 1 1 1 0 1 
0 1 0 1 -1 0 1 1 0 
0 0 0 -1 0 1 1 0 1 
0 1 1 1 0 1 1 1 0 
0 0 0 0 0 0 0 0 0 
0 1 1 0 1 1 0 1 1 
1 1 0 -1 0 1 0 1 1 
0 1 1 1 0 1 0 1 0 
1 1 0 0 1 0 1 0 0 
1 1 0 0 0 0 1 0 1 
0 1 0 -1 0 -1 0 -1 0 
0 0 1 0 0 -1 -1 0 1 
0 0 0 0 0 0 0 0 0 
1 1 1 1 0 -1 0 0 1 
1 1 1 1 0 0 0 0 1 

w 1 450 double
0 -0.3 -0.3 0 0 0 -0.3 0 -0.3 
0 -0.3 0 0 0 0 0 -0.3 0 
-0.3 0 -0.3 0 0.3 -0.3 0 -0.3 0 
0 -0.3 0 0 0 0 0 0 0 
-0.3 -0.3 -0.3 -0.3 0 0 0 -0.3 0 
0 0 0 -0.3 0.3 0 -0.3 0 0.3 
0.3 0 0.3 0 0 0 0 -0.3 -0.3 
-0.3 0 0 0 -0.3 -0.3 0 0 -0.3 
-0.3 0 0 -0.3 -0.3 -0.3 0 -0.3 0 
0 0 -0.3 -0.3 0 -0.3 0 0 0 
0 0.3 0 0 0 0 0 0 -0.3 
0 0 -0.3 -0.3 -0.3 -0.3 -0.3 -0.3 0 
0 0 0.3 0.3 -0.3 0 0 0 0 
0 0 0 0 0 0 0 0 0 
0 0 0 -0.3 -0.3 0 -0.3 -0.3 -0.3 
0 -0.3 -0.3 0 0 -0.3 -0.3 -0.3 -0.3 
-0.3 -0.3 0.3 -0.3 -0.3 -0.3 0 0 -0.3 
-0.3 0 0 0 0 0 0 0 0 
0 -0.3 -0.3 -0.3 0 -0.3 0 -0.3 -0.3 
-0.3 -0.3 0 0 0 0 0 -0.3 0 
0 -0.3 0 -0.3 0 0 -0.3 -0.3 0 
-0.3 -0.3 -0.3 -0.3 -0.3 0 -0.3 -0.3 0 
0 0 -0.3 -0.3 -0.3 -0.3 -0.3 -0.3 0 
0 0 0 0 0 -0.3 0 0 0 
0 0 0 -0.3 0.3 0 -0.3 -0.3 -0.3 
0.3 0 0.3 0 0 0 0.3 0 0.3 
0.3 0.3 0 0 0.3 0.3 0 0.3 0 
0.3 0 0 0 0 0 0 0.3 0 
0 0.3 0 0 0.3 0 0 0 0 
0.3 0.3 0.3 0.3 0.3 0.3 -0.3 0 0 
0 0.3 0 0.3 0 0 0.3 0.3 0 
0.3 0.3 0 0.3 0 0.3 0.3 0 0 
0.3 0.3 0 0 0 0 0 0.3 0 
0.3 0 0 0 0 -0.3 0 0 0 
0 0 0 0 0.3 0 0.3 0 0 
0.3 0 0.3 0 0.3 0.3 0.3 0 0.3 
0 0.3 0 0.3 -0.3 0 0.3 0.3 0 
0 0 0 -0.3 0 0.3 0.3 0 0.3 
0 0.3 0.3 0.3 0 0.3 0.3 0.3 0 
0 0 0 0 0 0 0 0 0 
0 0.3 0.3 0 0.3 0.3 0 0.3 0.3 
0.3 0.3 0 -0.3 0 0.3 0 0.3 0.3 
0 0.3 0.3 0.3 0 0.3 0 0.3 0 
0.3 0.3 0 0 0.3 0 0.3 0 0 
0.3 0.3 0 0 0 0 0.3 0 0.3 
0 0.3 0 -0.3 0 -0.3 0 -0.3 0 
0 0 0.3 0 0 -0.3 -0.3 0 0.3 
0 0 0 0 0 0 0 0 0 
0.3 0.3 0.3 0.3 0 -0.3 0 0 0.3 
0.3 0.3 0.3 0.3 0 0 0 0 0.3 

v 3 450 double
-2.62074 -0.176282 0 -3.80243 -0.24576 0 -4.39286 0.320625 0 
0.0996145 -1.2131 0 -2.18468 -0.796992 0 -2.11274 -0.895284 0 
-0.827058 0.993992 0 -3.06543 0.443497 0 -3.02209 -0.265856 0 
-2.4035 -1.25192 0 -0.0886737 0.841895 0 -2.18106 -0.893632 0 
-0.245269 -1.30339 0 -4.35141 0.714734 0 -2.05925 -2.23666 0 
-2.43009 -1.30768 0 -3.43804 -2.84858 0 -2.32468 -1.2863 0 
1.06497 -0.837668 0 -3.71959 2.66059 0 -1.79384 -0.365673 0 
-2.74217 -0.807698 0 -3.58828 1.66127 0 -0.675545 -0.442763 0 
-1.43605 -1.07838 0 1.39525 0.0501248 0 -2.1007 -2.40587 0 
-2.91332 -0.248232 0 -2.11751 0.0523697 0 -4.71184 0.417056 0 
-2.49424 -1.42166 0 -2.46754 -1.38289 0 -2.22099 -2.10305 0 
-5.05931 -0.609742 0 -5.013 -0.386545 0 -5.40459 -0.634807 0 
-3.36582 -0.987256 0 -1.47922 -1.14208 0 -3.42538 -0.0609974 0 
-4.03296 -0.25359 0 -1.86242 -0.906861 0 -0.273876 -1.35349 0 
-1.98604 -2.31877 0 -2.50482 -2.4283 0 -2.07958 -0.0397808 0 
-2.71402 0.150872 0 -2.78947 -0.325328 0 -2.88931 -1.43545 0 
-3.85959 1.36917 0 -4.52489 0.738774 0 -2.65938 -1.34657 0 
-2.71487 -1.78916 0 -3.05544 -0.139068 0 -5.20341 -0.0446172 0 
-3.49224 -2.95543 0 -2.14193 -2.17636 0 -3.3191 0.310577 0 
-4.02442 0.363369 0 -2.75472 -1.26594 0 -2.26021 -2.02139 0 
-2.89351 0.275677 0 -0.490212 -1.68275 0 -3.36889 -0.931044 0 
-1.17645 -1.84958 0 -1.81083 -2.35869 0 -4.75498 0.43118 0 
-4.51443 -0.00657395 0 -0.946197 0.0941795 0 -3.59331 -2.18046 0 
-3.78214 -0.123182 0 -1.92174 -2.38464 0 -4.24619 1.77992 0 
-2.36291 -0.730313 0 -3.4071 -2.54211 0 -3.61208 2.76117 0 
-2.71311 1.43772 0 0.101586 -1.70723 0 -2.69481 1.16603 0 
-3.03826 0.673377 0 -1.43779 -1.15988 0 -2.519 -1.35574 0 
-3.47467 0.0395391 0 -4.63981 0.463983 0 -2.17681 0.694516 0 
-3.14999 0.391077 0 -3.6922 2.686 0 -1.73002 1.32772 0 
0.236795 -1.15993 0 -3.34157 0.26452 0 -0.478275 -1.64384 0 
-2.03162 -0.874389 0 -3.40685 0.61283 0 -1.13991 -1.03719 0 
-2.25669 -1.92918 0 -0.216878 -1.32366 0 -5.04994 0.414156 0 
-2.37741 -0.54876 0 -2.2729 -1.52458 0 -1.29322 -0.940032 0 
-3.67 2.6614 0 -2.01259 -0.910099 0 -1.68146 0.125148 0 
-1.96758 0.247053 0 -0.0722651 -0.879162 0 -0.708235 1.06714 0 
0.452647 -0.00676568 0 0.428616 0.878938 0 -2.26263 -1.76129 0 
-0.309387 -1.82265 0 0.212671 -1.16209 0 -3.55709 -1.21974 0 
-3.32297 -2.04283 0 -3.81412 -0.699297 0 -2.59031 0.00280229 0 
-2.46283 -0.26473 0 -1.83645 -2.36899 0 -2.51711 -0.387101 0 
-2.60477 -0.383009 0 -2.92736 -0.29627 0 -3.95527 -0.115809 0 
-5.85744 -0.653321 0 -3.02078 0.392919 0 -2.11971 -0.987271 0 
0.669781 0.142746 0 -6.24121 -0.49013 0 -6.32607 -0.224885 0 
-6.10545 0.351457 0 -6.22141 0.160015 0 0.987156 0.200972 0 
-2.74349 0.675106 0 0.507819 1.09072 0 -5.94972 -0.24479 0 
-0.991589 0.446373 0 -6.05684 -0.354121 0 -0.413602 0.93937 0 
1.39385 0.428413 0 -2.07461 0.586093 0 -0.944172 0.236381 0 
-2.07014 -0.991062 0 1.24335 0.231744 0 -0.53999 -0.479462 0 
-4.45353 0.12253 0 0.888677 -0.351435 0 -0.959503 1.1632 0 
-3.38182 0.0994603 0 -3.24906 -0.24212 0 -5.97391 0.124502 0 
-1.39858 0.232066 0 0.648928 0.717659 0 -1.62566 -0.257554 0 
1.24587 0.150665 0 -6.30505 -0.0219718 0 -2.74523 0.207589 0 
-3.30156 -0.334149 0 -6.04494 0.47665 0 -2.0671 -0.973919 0 
-3.94919 0.280648 0 1.09005 -0.533259 0 -2.03782 -0.926746 0 
-6.14607 -0.593642 0 -2.27739 -0.733663 0 -1.95656 0.600914 0 
0.685806 0.302037 0 0.889373 0.311948 0 -0.430703 0.213081 0 
-3.10366 -0.482565 0 -2.54609 0.315497 0 -5.10394 -1.58598 0 
-6.15935 0.350157 0 -5.32379 0.0378081 0 -4.4207 -1.25325 0 
-2.51849 1.68148 0 -3.05363 1.8617 0 0.805954 0.324025 0 
0.243941 -0.858272 0 -5.73751 -0.11137 0 0.745411 0.348054 0 
-3.67464 0.27523 0 -4.63385 -0.585176 0 1.24827 0.241717 0 
1.32013 0.38014 0 -2.3409 0.0846234 0 1.20511 0.245799 0 
-1.7799 0.428501 0 0.956924 0.194455 0 1.18271 0.252619 0 
-2.71565 -0.995486 0 -2.26274 1.04441 0 -4.73847 -0.994941 0 
-4.79566 -0.149042 0 -3.27388 -0.715446 0 -2.80786 -0.151855 0 
-0.6721 -0.702445 0 0.118623 -0.0243308 0 -2.81766 -0.153345 0 
-0.2524 -0.652693 0 -4.26072 -0.239524 0 -2.20049 -0.716782 0 
1.23568 0.224007 0 -3.86033 0.185141 0 -3.54965 2.54808 0 
-1.42129 -0.629972 0 -1.16959 0.896673 0 -1.76447 0.402362 0 
-1.99822 -0.226341 0 -5.38037 0.466431 0 1.06804 0.210755 0 
1.28429 0.274643 0 -2.1218 -0.989427 0 0.702411 -0.668259 0 
-5.53015 -0.570146 0 -5.92868 -0.366216 0 -4.034 -1.05966 0 
-5.92578 -0.737943 0 -5.30242 -0.138386 0 -5.86452 -0.52163 0 
-3.0031 0.360649 0 -4.94999 -2.11358 0 -4.85177 -2.05403 0 
-3.22262 0.368649 0 -5.31675 -1.08387 0 -6.03163 -0.681214 0 
-2.66863 -0.297107 0 -0.115297 0.752196 0 -1.19611 0.745136 0 
-3.07378 1.35869 0 -2.93712 0.646723 0 -0.00509563 -0.670661 0 
-3.49602 -0.477434 0 -3.70361 -0.53252 0 -2.51415 0.798191 0 
-0.0512195 0.257372 0 -3.71567 -0.525853 0 -0.587403 -1.05934 0 
-0.300502 0.415205 0 -2.49629 -0.866077 0 -4.28961 1.18065 0 
-3.07179 0.25759 0 -1.4384 -1.9029 0 -2.65885 -1.95079 0 
-3.35795 -0.219748 0 -1.66028 -0.996253 0 -3.5968 -1.95714 0 
-1.11022 -0.0848346 0 -3.73307 -0.526288 0 -3.08026 0.560553 0 
-3.07776 0.127358 0 -3.06406 0.621747 0 -3.15295 0.696561 0 
-4.09219 0.493764 0 -2.57585 0.0547797 0 -4.86312 0.786136 0 
-2.66875 0.449942 0 -1.33338 -0.081247 0 -4.61699 0.420738 0 
-3.94466 0.136555 0 -1.49108 0.105594 0 -3.82706 2.63836 0 
-3.88956 0.219301 0 -4.11514 0.282421 0 -3.87032 0.135157 0 
0.0940755 -0.91495 0 -3.57046 -0.0921481 0 -2.90166 1.19371 0 
0.369665 -0.192956 0 -1.13247 1.17517 0 -3.38299 0.258834 0 
-4.06406 -0.244883 0 -4.51065 0.434248 0 -4.70357 0.110732 0 
-4.07378 0.00415743 0 -3.16579 -0.326634 0 -2.21928 1.15609 0 
0.578802 0.521889 0 -4.84102 0.175559 0 -4.86307 0.0966013 0 
-0.619089 0.179869 0 -3.60171 1.72695 0 -4.2964 0.255545 0 
-0.174492 -0.475529 0 -1.62889 0.100095 0 -3.54102 -0.504306 0 
-1.99798 0.800978 0 -3.71896 1.27541 0 -4.47983 1.40827 0 
0.478787 0.41227 0 -3.92116 -1.00346 0 -3.96178 -0.555008 0 
-1.33686 -0.653989 0 -3.16383 0.824186 0 -3.86589 1.1191 0 
-4.67795 0.661531 0 -4.03802 1.13041 0 -3.76531 -0.785508 0 
-3.54395 -0.439707 0 -2.67989 -0.275666 0 -3.64142 -0.552249 0 
-1.52146 1.06736 0 -2.81617 0.632831 0 -3.64878 -0.673137 0 
-3.86684 1.54873 0 -3.81481 2.59826 0 -4.51206 1.27179 0 
-4.80137 0.358282 0 -3.99106 2.6862 0 -3.84483 2.60693 0 
-3.78861 2.67453 0 -3.80381 2.66091 0 -4.70007 0.405432 0 
-3.81154 2.67734 0 -4.43743 -0.0065281 0 -3.93333 -0.761672 0 
-2.44236 1.06548 0 -3.65312 1.02331 0 -4.27896 0.261646 0 
-1.2587 0.527008 0 -3.54632 -0.373335 0 -4.62935 0.943377 0 
-1.95545 1.4066 0 -3.83621 0.118231 0 -0.0373662 1.0538 0 
-2.55394 0.344455 0 -4.16852 0.294865 0 0.903046 -0.319982 0 
-2.68706 0.488167 0 -3.91208 0.516201 0 -4.62458 1.2917 0 
-1.55872 0.0139103 0 -4.01182 0.0427837 0 -4.84248 1.50391 0 
-2.25778 0.443821 0 -2.15584 0.505529 0 -4.39537 0.954534 0 
-3.07621 0.444893 0 -4.01849 0.329097 0 -4.50031 0.539228 0 
-4.51659 0.654956 0 -4.28915 0.414378 0 -3.75858 0.686232 0 
-1.44381 1.08125 0 -1.10013 0.863954 0 0.199668 -0.430808 0 
-3.61574 -0.303603 0 -1.16617 -0.398253 0 -0.813479 0.450901 0 
-3.78249 0.819356 0 -4.00164 1.6685 0 -4.15012 0.0131727 0 
-3.64157 -1.17377 0 -2.98944 1.68098 0 -3.4637 1.93276 0 
-4.28632 2.13051 0 -5.49421 -0.0281921 0 -3.95193 0.214215 0 
-4.17127 1.42043 0 -4.19541 1.35672 0 -3.12379 1.48519 0 
-2.3607 -0.242841 0 -0.128244 0.543342 0 -0.168638 0.687778 0 
-0.0152512 0.536983 0 -2.49663 -1.44295 0 -1.93519 0.182761 0 
-0.174372 0.68967 0 -0.593153 0.877075 0 -3.22115 -1.3476 0 
-5.21087 -1.78067 0 -4.24268 0.147404 0 -4.36843 -1.58962 0 
-0.555122 0.218721 0 -4.79384 -1.35884 0 0.125284 0.991057 0 
-4.615 -0.727321 0 0.181881 1.02561 0 -5.22266 -0.308195 0 
-4.14132 0.379722 0 -3.29295 -0.396664 0 -4.00575 -0.918611 0 
-2.46648 1.23367 0 -2.75252 -0.102902 0 -3.97822 2.16955 0 
-2.68943 0.579603 0 -3.96742 0.616108 0 0.343151 0.454336 0 
0.844249 0.133661 0 -1.5739 1.10061 0 -3.95943 -0.627937 0 
-0.598102 0.840769 0 -1.75661 -1.29809 0 -0.539897 0.507634 0 
-3.75395 -0.395519 0 -2.41554 -1.0968 0 -3.9462 -0.579147 0 
-3.48618 0.477746 0 -4.26006 1.20533 0 -4.50005 -1.21415 0 
-2.16288 0.635107 0 -3.67612 -0.296486 0 -3.40674 0.574949 0 
-3.84491 0.587405 0 -3.92671 -0.833502 0 -4.58755 -1.25815 0 
0.537703 0.638834 0 0.0142918 0.841411 0 -2.59031 0.0765129 0 
0.979908 -0.356342 0 -4.28175 -0.287462 0 -0.260904 0.659257 0 
-4.18881 0.726638 0 -1.3633 0.636174 0 -3.96851 0.0294214 0 
-4.31337 0.370568 0 -3.32678 0.196072 0 -3.18612 -0.940777 0 
-1.11684 0.844842 0 -0.25969 0.661798 0 -1.55879 -0.761709 0 
-5.18274 -1.90225 0 -3.25258 0.604843 0 -2.90549 0.770676 0 
-3.12788 1.21076 0 -4.18781 2.63084 0 -2.97222 0.674225 0 
-3.55629 1.83128 0 -2.42745 1.42355 0 -4.09142 2.14902 0 
-5.40067 -0.240322 0 -3.48588 1.09552 0 -4.06867 -0.781951 0 
0.165468 0.900894 0 -4.21554 -1.11108 0 0.0319203 0.668969 0 
-2.32571 -0.242252 0 -0.646535 -0.072239 0 -2.06289 -0.546247 0 
-1.18321 0.304289 0 -0.873359 -1.53931 0 -4.18719 2.0155 0 
-0.0271789 0.889903 0 -4.16976 0.543674 0 -1.56844 -0.117765 0 
-0.681302 -0.513338 0 -0.0810884 0.0558797 0 0.484594 -1.00993 0 
-5.63744 -0.132451 0 -3.25019 0.954134 0 -0.24412 -1.14879 0 
0.986664 0.0158498 0 -5.39622 -0.0862421 0 -5.15409 -0.00661216 0 

noise 3 450 double
0 0.00086655 0 -0 -0.000872627 0 -0 -0.000899768 0 
-0 -6.57901e-05 0 -0 -0.000852509 0 -0 -0.000758894 0 
0 0.000197634 0 0 0.000998984 0 -0 -0.00086911 0 
0 2.43291e-05 0 0 0.000576146 0 0 0.000666823 0 
-0 -0.000374769 0 0 0.00099827 0 -0 -0.00094864 0 
0 0.000182459 0 0 0.000641934 0 -0 -0.000134415 0 
-0 -9.14717e-05 0 0 0.000263355 0 0 0.000999926 0 
0 0.000962906 0 0 0.00021444 0 0 0.00085161 0 
-0 -0.000516966 0 -0 -9.85961e-05 0 -0 -0.000889801 0 
-0 -0.000120788 0 0 0.000433147 0 0 0.000716805 0 
0 0.000481001 0 0 0.000335976 0 -0 -0.000801977 0 
0 0.000269977 0 0 0.000419163 0 0 0.000113966 0 
0 0.000892141 0 -0 -0.000775417 0 0 0.00050639 0 
-0 -0.000993695 0 -0 -0.000646095 0 0 0.000249799 0 
-0 -0.000986788 0 0 0.00081528 0 -0 -0.000569106 0 
0 0.000656521 0 0 3.80621e-05 0 0 0.000830086 0 
0 0.000996959 0 -0 -0.00023814 0 0 0.000731218 0 
0 0.000527219 0 0 0.000976336 0 0 0.000379541 0 
0 0.000954532 0 -0 -0.000886513 0 0 0.000949272 0 
-0 -0.000276585 0 0 0.000907971 0 -0 -0.000697171 0 
0 0.000934696 0 -0 -0.000720388 0 0 0.000454947 0 
0 0.000995474 0 -0 -0.00095088 0 0 0.000462577 0 
-0 -0.000944204 0 -0 -0.000961502 0 0 0.000975964 0 
-0 -0.000563444 0 -0 -0.000999994 0 0 0.000805215 0 
-0 -0.000990673 0 -0 -0.000806232 0 -0 -0.000969956 0 
0 0.000221425 0 -0 -0.000317851 0 0 0.000847837 0 
0 0.000979215 0 -0 -0.00096608 0 0 0.000613868 0 
0 0.00019595 0 -0 -0.000984469 0 0 0.000987065 0 
-0 -0.000779916 0 -0 -5.17879e-05 0 0 0.000581981 0 
-0 -0.000223099 0 -0 -0.000687255 0 -0 -0.000997368 0 
-0 -0.000996253 0 0 0.00081528 0 -0 -0.000973273 0 
-0 -0.000574742 0 0 9.31819e-05 0 0 0.000557755 0 
0 0.0007765 0 -0 -0.000289762 0 0 0.000949272 0 
0 0.000107138 0 -0 -0.000924576 0 -0 -0.00023814 0 
-0 -0.000595861 0 -0 -0.00079055 0 -0 -0.000932852 0 
0 0.000139803 0 0 0.000984166 0 -0 -0.000437785 0 
0 0.00054029 0 0 0.000400101 0 0 0.000946997 0 
-0 -0.000261698 0 0 7.43564e-05 0 -0 -0.000368391 0 
0 0.000767769 0 -0 -0.000987922 0 0 0.000859611 0 
0 0.000929724 0 0 0.000993501 0 0 0.000994971 0 
-0 -0.000968262 0 -0 -0.000946444 0 -0 -0.000711998 0 
0 0.000937115 0 -0 -0.000927172 0 -0 -0.00085608 0 
-0 -0.000522834 0 -0 -0.000651323 0 0 0.000671926 0 
-0 -0.000910118 0 -0 -0.000737049 0 -0 -0.000745121 0 
0 0.000946997 0 -0 -0.000825104 0 -0 -0.00094134 0 
0 0.00010002 0 -0 -0.000678472 0 -0 -0.000340825 0 
-0 -0.000895987 0 -0 -5.89336e-05 0 -0 -0.000615223 0 
-0 -0.000959511 0 -0 -0.000261698 0 -0 -0.000829127 0 
-0 -3.29129e-05 0 -0 -0.000980977 0 -0 -0.000395374 0 
-0 -0.00099856 0 -0 -0.000395374 0 0 0.000764458 0 
0 0.000236471 0 -0 -0.000763349 0 -0 -0.000860487 0 
0 0.00021444 0 -0 -0.000381129 0 -0 -0.000591715 0 
-0 -0.00099985 0 0 0.000387472 0 -0 -0.000456476 0 
-0 -0.000974828 0 -0 -0.000955043 0 -0 -0.000450352 0 
0 0.000869958 0 0 0.0009171 0 -0 -8.58726e-06 0 
0 0.000997491 0 -0 -0.000155091 0 -0 -0.000470173 0 
-0 -0.000229791 0 0 0.000690989 0 0 0.000972077 0 
0 0.000838606 0 0 0.000156788 0 0 0.000980586 0 
0 0.000528678 0 -0 -0.000630006 0 0 0.00078081 0 
-0 -0.000989958 0 -0 -0.000979562 0 0 0.000961029 0 
0 0.000256445 0 0 0.000708371 0 0 0.000905071 0 
-0 -0.000417603 0 0 0.00099927 0 0 0.000406388 0 
-0 -0.00099957 0 0 0.000647405 0 0 8.63397e-05 0 
0 0.00035692 0 0 0.000988187 0 -0 -0.000547736 0 
0 0.000132713 0 0 0.000954532 0 0 0.000316222 0 
0 0.00080095 0 0 0.000748547 0 -0 -0.000309698 0 
0 7.94935e-05 0 0 0.000161874 0 0 0.000301521 0 
0 0.000970373 0 0 0.000379541 0 -0 -0.000115672 0 
0 5.00726e-05 0 0 0.000926527 0 0 0.000546058 0 
0 0.000992696 0 -0 -0.000814284 0 -0 -0.000216397 0 
-0 -4.4926e-05 0 -0 -0.000841401 0 -0 -0.000173726 0 
-0 -0.000995636 0 -0 -7.26435e-05 0 -0 -0.000916414 0 
0 3.43494e-06 0 0 0.000977799 0 0 0.000243141 0 
-0 -0.00018077 0 0 7.43564e-05 0 -0 -0.000997843 0 
0 0.000278235 0 0 0.000628671 0 -0 -0.000491506 0 
-0 -0.00099856 0 -0 -0.000510826 0 -0 -0.00018077 0 
0 0.000980642 0 0 0.000726318 0 0 0.00078099 0 
-0 -0.000609565 0 0 0.000826073 0 0 0.000970373 0 
0 0.000139803 0 0 0.000512548 0 -0 -0.000640837 0 
0 0.000870099 0 -0 -0.000979562 0 0 0.000888885 0 
0 0.000937216 0 -0 -0.000825104 0 -0 -0.000702283 0 
-0 -0.000595861 0 0 0.000904949 0 -0 -0.000368124 0 
-0 -0.000216117 0 -0 -0.000996847 0 -0 -0.000971605 0 
-0 -0.000141504 0 -0 -3.29129e-05 0 -0 -0.000444208 0 
-0 -0.000640616 0 -0 -0.000547736 0 0 0.000899017 0 
0 0.000876789 0 -0 -9.85961e-05 0 0 0.000939589 0 
0 0.00098324 0 0 0.000789497 0 0 0.000941919 0 
-0 -0.000961502 0 0 0.000562024 0 -0 -0.000491506 0 
-0 -0.000829127 0 0 0.000764458 0 -0 -0.000910118 0 
0 0.000880886 0 0 0.000957057 0 -0 -0.000425391 0 
-0 -0.000793694 0 -0 -0.000615223 0 0 0.000672139 0 
-0 -0.000115672 0 0 0.000348885 0 -0 -0.000880072 0 
-0 -0.000993695 0 0 0.000576146 0 0 0.000100305 0 
0 0.00029469 0 -0 -0.000992867 0 0 0.000999281 0 
-0 -0.000860487 0 -0 -0.000921937 0 -0 -0.000775417 0 
0 0.000805215 0 0 0.000175417 0 0 1.71739e-05 0 
-0 -0.00086911 0 -0 -0.000990673 0 -0 -0.000848898 0 
-0 -0.000296604 0 -0 -0.000754402 0 0 0.000329227 0 
0 0.000992661 0 0 0.00035692 0 0 0.000608203 0 
-0 -0.000899768 0 0 0.000256722 0 0 0.000474714 0 
-0 -0.000971672 0 0 0.000785262 0 0 0.000888885 0 
0 0.000597239 0 0 0.000981964 0 0 0.000873465 0 
0 0.000412916 0 0 0.00067721 0 0 0.000818253 0 
0 0.00055204 0 0 0.000988187 0 -0 -0.000580583 0 
-0 -0.00096608 0 0 0.00040665 0 -0 -0.000754214 0 
0 0.000847837 0 0 0.00096095 0 -0 -0.000340825 0 
-0 -0.000504908 0 -0 -0.000417603 0 0 0.000278235 0 
0 0.000301521 0 -0 -0.000921826 0 -0 -0.000678472 0 
-0 -0.000996824 0 0 0.000984166 0 -0 -0.000511073 0 
-0 -9.14717e-05 0 0 0.00029469 0 -0 -5.86473e-05 0 
0 0.000995474 0 0 0.000156788 0 -0 -0.000848747 0 
0 0.000546299 0 0 0.000999707 0 0 0.000682248 0 
-0 -0.000992867 0 0 0.000990906 0 -0 -0.000959511 0 
-0 -0.000872627 0 0 0.000910828 0 0 0.000221425 0 
-0 -0.000952984 0 -0 -0.000173726 0 0 0.000996959 0 
0 0.00050639 0 -0 -0.000148301 0 -0 -0.000470173 0 
0 0.000454947 0 0 0.000690989 0 0 0.000999518 0 
-0 -0.000919142 0 -0 -0.000498967 0 -0 -0.000810277 0 
0 1.03047e-05 0 0 0.00016865 0 -0 -0.000749685 0 
0 0.000966522 0 0 0.000735887 0 -0 -0.000127605 0 
0 0.000534497 0 0 0.000997491 0 -0 -0.000720388 0 
0 0.000619277 0 0 0.000628671 0 -0 -0.000660399 0 
0 0.000932232 0 -0 -0.000737049 0 0 0.000708371 0 
0 0.000581981 0 -0 -0.00094134 0 0 0.000487013 0 
-0 -0.000541735 0 -0 -0.00028318 0 -0 -0.000317851 0 
0 0.000721578 0 0 0.00085161 0 0 0.000926527 0 
0 0.000902004 0 0 0.0009171 0 0 0.000527219 0 
0 0.000975964 0 -0 -0.000892915 0 0 0.00080095 0 
0 0.000493001 0 0 0.000197634 0 0 0.000602735 0 
0 0.000641934 0 -0 -0.000779916 0 -0 -0.000431598 0 
0 0.000468657 0 0 0.000433147 0 -0 -0.000988964 0 
-0 -0.000254784 0 -0 -0.000303158 0 0 0.00099426 0 
0 0.000972077 0 0 0.000999926 0 0 0.000822182 0 
-0 -0.000883313 0 -0 -0.000999945 0 0 0.0008631 0 
0 0.000132713 0 0 0.000661687 0 0 0.000880886 0 
0 0.000624656 0 0 0.000748547 0 0 0.000189209 0 
-0 -0.000254784 0 0 0.000393796 0 -0 -0.000660399 0 
0 0.000959026 0 -0 -0.000609565 0 0 0.000964737 0 
0 0.000772153 0 0 3.11963e-05 0 0 5.00726e-05 0 
0 0.000998651 0 -0 -0.000586163 0 0 0.000512548 0 
0 0.000562024 0 -0 -0.000209405 0 0 0.000987065 0 
-0 -0.000845094 0 0 0.000991807 0 -0 -0.000361728 0 
-0 -0.000202682 0 -0 -0.000635326 0 -0 -0.000985652 0 
0 0.000342439 0 -0 -0.000797855 0 -0 -0.000692229 0 
0 0.000647405 0 -0 -0.000476478 0 -0 -0.00099957 0 
-0 -0.000932852 0 0 0.000740521 0 -0 -0.000476478 0 
0 0.000833897 0 -0 -0.000707157 0 -0 -0.000980977 0 
0 0.000892141 0 0 0.000838606 0 -0 -0.00079055 0 
-0 -8.58726e-06 0 0 0.000322732 0 0 0.000837669 0 
0 0.000913642 0 -0 -0.000355315 0 -0 -0.000541735 0 

