# vtk DataFile Version 4.0
vtk output
ASCII
DATASET POLYDATA
FIELD FieldData 5
domain 1 4 string
domain_min:0|0
domain_max:2|2
cell_size:2.5|2.5
boundary:0|1

variables 1 5 string
T:1.26
dt:0.02
write_case:1
substeps:1
all_steps:63

constants 1 5 string
L:5
c_s:2.5
dx:0.1
omega:0.3
eps:0.0833333

equations 1 4 string
initial_noise:r=(r+noise)#eq(T,0)
time:T=(T+dt)#true
velocity:v=dvm(w,eps)#true
integrate:r=euler(r,v,dt)#true

asymmetric 1 1 string
w

POINTS 450 float
1.76358 2.09169 0 0.550026 2.44357 0 2.36125 2.14041 0 
2.3402 2.415 0 1.40487 2.2772 0 2.03304 2.18942 0 
1.22585 2.46335 0 1.33751 2.01369 0 1.22284 2.0524 0 
1.56657 2.10307 0 0.51131 2.42534 0 1.43588 2.42456 0 
2.46631 1.92934 0 1.10607 2.21145 0 1.09981 2.22118 0 
1.70464 1.91635 0 0.779516 2.37478 0 1.03298 2.23203 0 
0.252861 2.28873 0 1.43948 2.11505 0 1.07678 2.21899 0 
1.67062 2.43213 0 0.336499 2.49029 0 0.588261 2.34202 0 
1.74906 2.24726 0 1.67341 2.4124 0 0.672328 2.16711 0 
1.93973 2.32132 0 1.5879 2.48568 0 1.59585 2.48844 0 
1.57669 2.48017 0 1.59641 2.49612 0 1.58947 2.48525 0 
1.69989 2.47753 0 1.58997 2.47702 0 2.4849 2.11943 0 
2.42917 2.43546 0 1.89302 2.39682 0 0.752325 2.10144 0 
2.17688 2.37988 0 1.69679 2.3972 0 0.455228 2.24922 0 
1.62642 2.37032 0 0.520556 2.34231 0 1.72728 2.3741 0 
1.64851 2.15377 0 1.35692 2.31148 0 0.64188 2.39749 0 
1.39548 2.08893 0 1.27258 2.38576 0 0.921035 2.14834 0 
0.165583 2.16975 0 0.63487 2.42299 0 0.867085 2.04955 0 
0.703351 2.35107 0 0.885066 2.49568 0 1.44637 2.46661 0 
0.924427 2.09699 0 0.933157 2.27309 0 1.43383 2.27605 0 
1.86603 2.2402 0 0.774656 2.31779 0 0.746412 2.35177 0 
1.06747 2.27996 0 1.32256 1.93348 0 1.88663 2.34754 0 
0.545714 2.27521 0 1.92396 1.96237 0 1.63493 1.99798 0 
1.48659 2.42364 0 1.06638 2.02427 0 0.102151 2.43032 0 
0.644333 2.40598 0 0.712427 2.19666 0 0.614533 2.41667 0 
0.28548 2.19069 0 0.84067 2.24576 0 2.19172 2.43786 0 
1.88782 2.04988 0 1.24853 2.23026 0 1.57926 2.46336 0 
0.833279 2.30859 0 1.70784 2.37924 0 0.200931 2.46766 0 
2.05823 2.40941 0 1.68401 2.38242 0 1.55089 2.2975 0 
0.431387 2.16526 0 0.877864 2.29662 0 1.48335 2.26175 0 
0.727475 2.33716 0 1.52798 2.2647 0 2.12521 2.102 0 
1.83001 2.34593 0 2.30504 2.30872 0 1.80797 2.34969 0 
1.58408 2.33944 0 1.88112 2.34762 0 1.62904 2.27964 0 
1.80499 2.35267 0 1.77857 2.36068 0 2.45719 2.17434 0 
1.54734 2.43601 0 1.9106 2.35603 0 1.00433 2.31074 0 
4.0521 2.16623 0 2.9882 2.36504 0 4.29693 2.28463 0 
2.60676 2.48839 0 4.26427 1.96349 0 4.33573 2.29342 0 
3.01946 2.23588 0 3.56905 2.09052 0 3.77786 2.14135 0 
3.42128 2.16592 0 2.80785 2.28281 0 3.4305 2.0936 0 
4.24854 2.21784 0 3.53366 1.86907 0 4.02629 2.06861 0 
2.93601 2.20248 0 2.93629 2.41453 0 3.28815 2.12965 0 
3.38792 2.0695 0 3.8102 2.44945 0 3.44405 2.10964 0 
3.40991 2.0787 0 2.82778 2.25902 0 4.35181 2.31086 0 
4.17604 2.42681 0 3.20622 2.14636 0 3.20541 2.33447 0 
3.34432 2.05978 0 2.69341 2.38319 0 2.90361 2.45694 0 
2.64624 2.41137 0 3.45869 2.11711 0 4.40087 2.34299 0 
2.58807 2.46549 0 4.22035 2.46808 0 3.31723 1.94815 0 
3.41499 2.0248 0 3.80185 2.30626 0 3.2761 2.07831 0 
4.21333 2.1937 0 4.30967 2.18863 0 3.46511 2.12498 0 
4.04331 2.31599 0 3.28883 2.13731 0 2.7488 2.34314 0 
3.64935 2.36313 0 4.40263 2.28615 0 4.34749 2.17567 0 
2.66073 2.39153 0 3.46163 1.90329 0 3.22164 2.24916 0 
4.97792 2.39586 0 4.25901 2.49334 0 2.61238 2.48597 0 
3.77398 1.99134 0 3.41619 2.30223 0 3.62327 2.01699 0 
4.3836 2.14004 0 2.61866 2.48341 0 3.11588 2.25152 0 
4.42181 2.36155 0 4.3943 2.34965 0 3.65143 1.8755 0 
4.59105 2.44367 0 3.90871 2.26822 0 4.7322 2.27534 0 
4.42289 2.366 0 4.33528 2.38909 0 4.48534 2.35391 0 
4.42721 2.36712 0 4.85605 2.35377 0 2.54538 2.23789 0 
4.42608 2.16144 0 2.68532 2.36059 0 4.05868 2.35847 0 
4.12338 2.27954 0 3.32913 2.0933 0 4.4135 2.36124 0 
4.35249 2.26692 0 3.37213 2.09001 0 4.37731 2.34037 0 
2.61671 2.11385 0 4.73278 2.16621 0 4.01528 1.81061 0 
4.06612 2.38645 0 3.84185 2.21317 0 3.51144 2.40045 0 
3.42515 2.10138 0 3.54343 2.33948 0 4.51167 2.27402 0 
3.97335 1.93007 0 4.78526 2.40515 0 4.84978 2.22631 0 
4.16907 2.0498 0 4.12191 2.39354 0 3.42442 2.08553 0 
3.83777 2.39929 0 3.45641 2.11106 0 3.29676 2.11602 0 
4.42308 2.01244 0 3.23447 2.40079 0 2.89365 2.49688 0 
3.81502 1.91193 0 3.27153 2.16623 0 1.11502 2.61001 0 
0.237665 2.78171 0 1.87297 2.94066 0 0.264207 2.64017 0 
1.8761 2.63451 0 0.0839004 2.75278 0 0.131916 2.76605 0 
0.276616 2.80414 0 0.11776 2.73479 0 1.09434 2.96453 0 
0.136877 2.77688 0 1.89711 2.61371 0 0.161551 2.73706 0 
0.613397 2.9433 0 1.86526 2.66156 0 2.38433 3.05854 0 
0.439899 2.58783 0 1.31565 2.50596 0 0.116515 2.77472 0 
2.49137 2.53104 0 0.76414 2.6466 0 0.0482116 2.71581 0 
1.73399 2.5237 0 0.318884 2.82116 0 0.316633 2.63028 0 
1.09018 2.51437 0 0.201202 2.75598 0 1.46885 2.62684 0 
2.27009 2.58171 0 1.97089 2.58104 0 1.22766 2.52706 0 
2.04276 2.59322 0 1.99394 2.88843 0 0.160484 2.99706 0 
0.11812 2.72507 0 0.855209 2.55974 0 1.31828 2.58583 0 
1.1587 2.85835 0 2.35748 2.93153 0 2.18929 2.58876 0 
2.21507 2.58254 0 2.16538 2.59606 0 0.14875 2.73103 0 
2.31182 2.78372 0 0.120002 2.7471 0 0.389335 2.9637 0 
0.485519 2.86788 0 1.3831 2.69301 0 1.45886 2.50841 0 
1.19469 2.62398 0 0.172433 2.73977 0 0.959408 2.88381 0 
2.18046 2.8259 0 0.545111 2.99745 0 2.30159 2.53048 0 
0.310252 2.81136 0 0.139529 2.73003 0 1.42011 2.84162 0 
2.00806 2.59016 0 0.126873 2.72441 0 0.64164 2.83386 0 
0.188388 2.75082 0 1.61581 2.52404 0 2.07817 3.03463 0 
0.903878 2.73995 0 1.90519 2.86875 0 0.239046 2.92759 0 
0.476787 2.6318 0 2.32893 3.05316 0 1.20845 2.77403 0 
0.700688 2.98392 0 0.255116 2.69644 0 1.60562 2.51025 0 
0.639211 2.65129 0 0.14485 2.87924 0 1.5327 2.72572 0 
1.0447 2.80101 0 0.794593 2.80853 0 0.319078 2.8188 0 
0.100685 2.58864 0 0.940827 2.58042 0 1.93728 2.57426 0 
0.265835 2.77987 0 0.147191 2.7894 0 2.12454 2.59816 0 
0.240126 2.50058 0 1.90032 2.58518 0 1.90142 2.59736 0 
0.020775 2.68764 0 0.89106 2.94303 0 2.23116 2.92825 0 
2.07392 2.59517 0 1.76032 2.5533 0 1.84514 2.65191 0 
1.81442 2.61677 0 1.60564 2.69092 0 1.79085 2.59272 0 
2.09988 2.59711 0 2.13426 2.7194 0 0.704449 2.5166 0 
2.30234 2.90058 0 1.90608 2.60947 0 1.91227 2.57488 0 
1.90558 2.60483 0 1.61959 2.52775 0 0.389129 2.76259 0 
1.99694 2.76258 0 2.35406 2.59201 0 2.14605 2.59744 0 
3.7209 2.81532 0 4.40493 2.54676 0 4.34526 2.94707 0 
2.54245 2.82759 0 3.59868 2.83712 0 2.92917 2.5704 0 
3.04409 2.67971 0 4.43216 2.54601 0 4.68457 2.61519 0 
4.0588 2.92383 0 3.66011 2.85909 0 4.1763 2.72012 0 
2.67615 2.53726 0 4.34089 2.53656 0 2.57509 2.52507 0 
4.86607 2.61032 0 4.88397 2.61059 0 4.66253 3.03051 0 
2.86499 2.56587 0 4.65496 2.61057 0 4.46341 2.6106 0 
3.66707 2.73132 0 3.119 2.65631 0 3.14207 2.63568 0 
4.32063 2.92827 0 4.43047 2.65449 0 4.02823 3.10848 0 
3.05612 2.67452 0 4.74419 2.61862 0 3.09891 2.66694 0 
2.5787 2.50707 0 3.4415 2.70266 0 3.47052 2.58926 0 
3.12443 2.65677 0 3.40122 2.68783 0 2.58604 2.7401 0 
3.36525 2.62952 0 2.74933 2.60667 0 3.6668 2.58082 0 
3.31376 2.73533 0 2.68046 2.68844 0 2.97917 2.64991 0 
3.41002 2.67048 0 2.63198 2.53836 0 4.40377 2.76661 0 
2.98545 2.67274 0 3.13583 2.67348 0 3.18584 2.61709 0 
2.99331 2.64572 0 4.99814 2.66067 0 4.9006 2.60762 0 
3.85803 2.77998 0 4.37565 2.54452 0 4.62075 2.59409 0 
4.28108 3.10414 0 2.90858 2.53846 0 4.51209 2.85136 0 
3.08355 2.79684 0 3.58977 2.55462 0 3.42327 2.71962 0 
3.41655 2.57229 0 3.38523 2.63094 0 2.59195 2.54673 0 
4.68353 2.92171 0 4.82602 2.61666 0 4.8471 2.6112 0 
3.29526 2.51069 0 3.46448 2.77599 0 3.53038 2.82146 0 
3.39364 2.65303 0 3.18261 2.68544 0 4.80101 2.6179 0 
4.81848 2.73041 0 4.87889 2.76467 0 2.92087 2.94435 0 
3.39085 2.63821 0 4.55738 2.56934 0 4.58872 2.58172 0 
3.51569 2.72319 0 4.03143 3.05061 0 4.6658 2.71259 0 
4.39006 2.85776 0 3.76869 2.64488 0 2.74598 2.529 0 
3.15173 2.55169 0 3.44807 2.74882 0 4.49432 2.55272 0 
4.52574 2.5591 0 4.71358 2.61568 0 3.50943 2.8101 0 
2.58849 2.51277 0 2.56136 2.50899 0 4.93704 2.60685 0 
4.94808 2.61046 0 4.96657 2.6236 0 4.95718 2.61519 0 
4.91386 2.60622 0 4.98067 2.64025 0 4.92474 2.60114 0 
3.07643 2.54241 0 4.43896 3.07405 0 3.91583 2.97667 0 
3.9437 2.75294 0 4.00236 2.54773 0 4.3009 2.51956 0 
2.51679 2.8821 0 4.77332 2.61832 0 2.55733 2.54471 0 
3.05911 2.69292 0 2.79302 2.82878 0 3.32773 2.5667 0 
2.96689 2.86589 0 3.48464 2.93755 0 3.09619 2.75506 0 
4.15801 2.79457 0 4.05505 2.63936 0 3.15285 2.87822 0 
3.6215 2.9163 0 4.25444 2.65269 0 4.03462 2.72041 0 
2.54838 2.56053 0 2.56054 2.56124 0 3.51728 2.81627 0 
3.58015 2.8814 0 2.7968 2.97214 0 2.7781 2.73544 0 
3.35682 2.92504 0 4.46383 2.54902 0 3.451 2.73452 0 
2.99209 2.65704 0 3.54888 2.82871 0 3.80565 2.87934 0 

VERTICES 900 900
1 0 
1 1 
1 2 
1 3 
1 4 
1 5 
1 6 
1 7 
1 8 
1 9 
1 10 
1 11 
1 12 
1 13 
1 14 
1 15 
1 16 
1 17 
1 18 
1 19 
1 20 
1 21 
1 22 
1 23 
1 24 
1 25 
1 26 
1 27 
1 28 
1 29 
1 30 
1 31 
1 32 
1 33 
1 34 
1 35 
1 36 
1 37 
1 38 
1 39 
1 40 
1 41 
1 42 
1 43 
1 44 
1 45 
1 46 
1 47 
1 48 
1 49 
1 50 
1 51 
1 52 
1 53 
1 54 
1 55 
1 56 
1 57 
1 58 
1 59 
1 60 
1 61 
1 62 
1 63 
1 64 
1 65 
1 66 
1 67 
1 68 
1 69 
1 70 
1 71 
1 72 
1 73 
1 74 
1 75 
1 76 
1 77 
1 78 
1 79 
1 80 
1 81 
1 82 
1 83 
1 84 
1 85 
1 86 
1 87 
1 88 
1 89 
1 90 
1 91 
1 92 
1 93 
1 94 
1 95 
1 96 
1 97 
1 98 
1 99 
1 100 
1 101 
1 102 
1 103 
1 104 
1 105 
1 106 
1 107 
1 108 
1 109 
1 110 
1 111 
1 112 
1 113 
1 114 
1 115 
1 116 
1 117 
1 118 
1 119 
1 120 
1 121 
1 122 
1 123 
1 124 
1 125 
1 126 
1 127 
1 128 
1 129 
1 130 
1 131 
1 132 
1 133 
1 134 
1 135 
1 136 
1 137 
1 138 
1 139 
1 140 
1 141 
1 142 
1 143 
1 144 
1 145 
1 146 
1 147 
1 148 
1 149 
1 150 
1 151 
1 152 
1 153 
1 154 
1 155 
1 156 
1 157 
1 158 
1 159 
1 160 
1 161 
1 162 
1 163 
1 164 
1 165 
1 166 
1 167 
1 168 
1 169 
1 170 
1 171 
1 172 
1 173 
1 174 
1 175 
1 176 
1 177 
1 178 
1 179 
1 180 
1 181 
1 182 
1 183 
1 184 
1 185 
1 186 
1 187 
1 188 
1 189 
1 190 
1 191 
1 192 
1 193 
1 194 
1 195 
1 196 
1 197 
1 198 
1 199 
1 200 
1 201 
1 202 
1 203 
1 204 
1 205 
1 206 
1 207 
1 208 
1 209 
1 210 
1 211 
1 212 
1 213 
1 214 
1 215 
1 216 
1 217 
1 218 
1 219 
1 220 
1 221 
1 222 
1 223 
1 224 
1 225 
1 226 
1 227 
1 228 
1 229 
1 230 
1 231 
1 232 
1 233 
1 234 
1 235 
1 236 
1 237 
1 238 
1 239 
1 240 
1 241 
1 242 
1 243 
1 244 
1 245 
1 246 
1 247 
1 248 
1 249 
1 250 
1 251 
1 252 
1 253 
1 254 
1 255 
1 256 
1 257 
1 258 
1 259 
1 260 
1 261 
1 262 
1 263 
1 264 
1 265 
1 266 
1 267 
1 268 
1 269 
1 270 
1 271 
1 272 
1 273 
1 274 
1 275 
1 276 
1 277 
1 278 
1 279 
1 280 
1 281 
1 282 
1 283 
1 284 
1 285 
1 286 
1 287 
1 288 
1 289 
1 290 
1 291 
1 292 
1 293 
1 294 
1 295 
1 296 
1 297 
1 298 
1 299 
1 300 
1 301 
1 302 
1 303 
1 304 
1 305 
1 306 
1 307 
1 308 
1 309 
1 310 
1 311 
1 312 
1 313 
1 314 
1 315 
1 316 
1 317 
1 318 
1 319 
1 320 
1 321 
1 322 
1 323 
1 324 
1 325 
1 326 
1 327 
1 328 
1 329 
1 330 
1 331 
1 332 
1 333 
1 334 
1 335 
1 336 
1 337 
1 338 
1 339 
1 340 
1 341 
1 342 
1 343 
1 344 
1 345 
1 346 
1 347 
1 348 
1 349 
1 350 
1 351 
1 352 
1 353 
1 354 
1 355 
1 356 
1 357 
1 358 
1 359 
1 360 
1 361 
1 362 
1 363 
1 364 
1 365 
1 366 
1 367 
1 368 
1 369 
1 370 
1 371 
1 372 
1 373 
1 374 
1 375 
1 376 
1 377 
1 378 
1 379 
1 380 
1 381 
1 382 
1 383 
1 384 
1 385 
1 386 
1 387 
1 388 
1 389 
1 390 
1 391 
1 392 
1 393 
1 394 
1 395 
1 396 
1 397 
1 398 
1 399 
1 400 
1 401 
1 402 
1 403 
1 404 
1 405 
1 406 
1 407 
1 408 
1 409 
1 410 
1 411 
1 412 
1 413 
1 414 
1 415 
1 416 
1 417 
1 418 
1 419 
1 420 
1 421 
1 422 
1 423 
1 424 
1 425 
1 426 
1 427 
1 428 
1 429 
1 430 
1 431 
1 432 
1 433 
1 434 
1 435 
1 436 
1 437 
1 438 
1 439 
1 440 
1 441 
1 442 
1 443 
1 444 
1 445 
1 446 
1 447 
1 448 
1 449 

POINT_DATA 450
SCALARS id double
LOOKUP_TABLE default
9 208 84 4 245 89 242 80 3 
8 207 383 68 217 218 69 25 216 
45 94 219 264 204 88 13 263 7 
12 234 236 229 233 235 265 237 97 
96 41 202 22 262 44 251 206 254 
91 244 210 86 243 54 76 222 99 
212 224 228 70 220 246 11 211 223 
87 42 255 205 81 0 240 55 72 
221 2 209 50 1 6 82 93 238 
214 253 56 19 252 249 53 215 247 
213 248 92 257 23 256 250 258 24 
260 261 98 239 259 85 21 333 78 
302 38 139 35 20 61 62 295 341 
140 28 10 48 332 100 338 127 345 
339 294 138 145 335 104 337 297 331 
298 343 131 299 146 40 34 52 336 
129 58 344 128 101 296 57 51 36 
293 29 103 79 147 303 27 65 39 
33 304 334 132 136 46 74 60 37 
134 75 43 133 77 95 49 18 142 
141 348 135 130 347 137 90 30 17 
143 67 63 346 66 32 14 73 31 
16 144 340 26 342 349 15 105 330 
47 102 225 195 438 203 272 180 184 
196 186 412 183 273 191 416 271 427 
446 241 181 292 437 179 266 197 448 
226 194 430 290 280 227 282 366 395 
187 432 364 411 440 288 289 287 190 
369 185 441 445 355 356 360 192 435 
371 424 5 199 189 400 281 188 436 
193 231 428 410 365 434 350 439 404 
423 201 230 433 413 449 405 431 198 
71 414 279 200 182 285 83 277 276 
178 447 359 283 267 270 269 429 268 
284 370 354 426 274 278 275 232 367 
382 291 286 420 151 386 357 114 328 
321 152 160 401 421 406 312 149 306 
167 168 378 314 159 417 415 324 323 
387 388 398 326 162 325 301 123 64 
322 109 409 108 362 126 358 376 319 
121 311 379 315 316 317 327 177 169 
419 150 158 375 329 374 353 59 110 
124 119 310 373 165 166 106 111 115 
118 396 164 422 390 444 120 156 157 
125 397 389 385 384 313 407 117 154 
155 161 116 305 300 172 173 175 174 
170 176 171 408 372 402 425 394 148 
361 163 307 318 381 107 443 442 380 
399 392 351 403 368 391 308 309 112 
393 352 377 363 153 122 320 113 418 

FIELD FieldData 5
r 3 450 double
1.76358 2.09169 0 0.550026 2.44357 0 2.36125 2.14041 0 
2.3402 2.415 0 1.40487 2.2772 0 2.03304 2.18942 0 
1.22585 2.46335 0 1.33751 2.01369 0 1.22284 2.0524 0 
1.56657 2.10307 0 0.51131 2.42534 0 1.43588 2.42456 0 
2.46631 1.92934 0 1.10607 2.21145 0 1.09981 2.22118 0 
1.70464 1.91635 0 0.779516 2.37478 0 1.03298 2.23203 0 
0.252861 2.28873 0 1.43948 2.11505 0 1.07678 2.21899 0 
1.67062 2.43213 0 0.336499 2.49029 0 0.588261 2.34202 0 
1.74906 2.24726 0 1.67341 2.4124 0 0.672328 2.16711 0 
1.93973 2.32132 0 1.5879 2.48568 0 1.59585 2.48844 0 
1.57669 2.48017 0 1.59641 2.49612 0 1.58947 2.48525 0 
1.69989 2.47753 0 1.58997 2.47702 0 2.4849 2.11943 0 
2.42917 2.43546 0 1.89302 2.39682 0 0.752325 2.10144 0 
2.17688 2.37988 0 1.69679 2.3972 0 0.455228 2.24922 0 
1.62642 2.37032 0 0.520556 2.34231 0 1.72728 2.3741 0 
1.64851 2.15377 0 1.35692 2.31148 0 0.64188 2.39749 0 
1.39548 2.08893 0 1.27258 2.38576 0 0.921035 2.14834 0 
0.165583 2.16975 0 0.63487 2.42299 0 0.867085 2.04955 0 
0.703351 2.35107 0 0.885066 2.49568 0 1.44637 2.46661 0 
0.924427 2.09699 0 0.933157 2.27309 0 1.43383 2.27605 0 
1.86603 2.2402 0 0.774656 2.31779 0 0.746412 2.35177 0 
1.06747 2.27996 0 1.32256 1.93348 0 1.88663 2.34754 0 
0.545714 2.27521 0 1.92396 1.96237 0 1.63493 1.99798 0 
1.48659 2.42364 0 1.06638 2.02427 0 0.102151 2.43032 0 
0.644333 2.40598 0 0.712427 2.19666 0 0.614533 2.41667 0 
0.28548 2.19069 0 0.84067 2.24576 0 2.19172 2.43786 0 
1.88782 2.04988 0 1.24853 2.23026 0 1.57926 2.46336 0 
0.833279 2.30859 0 1.70784 2.37924 0 0.200931 2.46766 0 
2.05823 2.40941 0 1.68401 2.38242 0 1.55089 2.2975 0 
0.431387 2.16526 0 0.877864 2.29662 0 1.48335 2.26175 0 
0.727475 2.33716 0 1.52798 2.2647 0 2.12521 2.102 0 
1.83001 2.34593 0 2.30504 2.30872 0 1.80797 2.34969 0 
1.58408 2.33944 0 1.88112 2.34762 0 1.62904 2.27964 0 
1.80499 2.35267 0 1.77857 2.36068 0 2.45719 2.17434 0 
1.54734 2.43601 0 1.9106 2.35603 0 1.00433 2.31074 0 
4.0521 2.16623 0 2.9882 2.36504 0 4.29693 2.28463 0 
2.60676 2.48839 0 4.26427 1.96349 0 4.33573 2.29342 0 
3.01946 2.23588 0 3.56905 2.09052 0 3.77786 2.14135 0 
3.42128 2.16592 0 2.80785 2.28281 0 3.4305 2.0936 0 
4.24854 2.21784 0 3.53366 1.86907 0 4.02629 2.06861 0 
2.93601 2.20248 0 2.93629 2.41453 0 3.28815 2.12965 0 
3.38792 2.0695 0 3.8102 2.44945 0 3.44405 2.10964 0 
3.40991 2.0787 0 2.82778 2.25902 0 4.35181 2.31086 0 
4.17604 2.42681 0 3.20622 2.14636 0 3.20541 2.33447 0 
3.34432 2.05978 0 2.69341 2.38319 0 2.90361 2.45694 0 
2.64624 2.41137 0 3.45869 2.11711 0 4.40087 2.34299 0 
2.58807 2.46549 0 4.22035 2.46808 0 3.31723 1.94815 0 
3.41499 2.0248 0 3.80185 2.30626 0 3.2761 2.07831 0 
4.21333 2.1937 0 4.30967 2.18863 0 3.46511 2.12498 0 
4.04331 2.31599 0 3.28883 2.13731 0 2.7488 2.34314 0 
3.64935 2.36313 0 4.40263 2.28615 0 4.34749 2.17567 0 
2.66073 2.39153 0 3.46163 1.90329 0 3.22164 2.24916 0 
4.97792 2.39586 0 4.25901 2.49334 0 2.61238 2.48597 0 
3.77398 1.99134 0 3.41619 2.30223 0 3.62327 2.01699 0 
4.3836 2.14004 0 2.61866 2.48341 0 3.11588 2.25152 0 
4.42181 2.36155 0 4.3943 2.34965 0 3.65143 1.8755 0 
4.59105 2.44367 0 3.90871 2.26822 0 4.7322 2.27534 0 
4.42289 2.366 0 4.33528 2.38909 0 4.48534 2.35391 0 
4.42721 2.36712 0 4.85605 2.35377 0 2.54538 2.23789 0 
4.42608 2.16144 0 2.68532 2.36059 0 4.05868 2.35847 0 
4.12338 2.27954 0 3.32913 2.0933 0 4.4135 2.36124 0 
4.35249 2.26692 0 3.37213 2.09001 0 4.37731 2.34037 0 
2.61671 2.11385 0 4.73278 2.16621 0 4.01528 1.81061 0 
4.06612 2.38645 0 3.84185 2.21317 0 3.51144 2.40045 0 
3.42515 2.10138 0 3.54343 2.33948 0 4.51167 2.27402 0 
3.97335 1.93007 0 4.78526 2.40515 0 4.84978 2.22631 0 
4.16907 2.0498 0 4.12191 2.39354 0 3.42442 2.08553 0 
3.83777 2.39929 0 3.45641 2.11106 0 3.29676 2.11602 0 
4.42308 2.01244 0 3.23447 2.40079 0 2.89365 2.49688 0 
3.81502 1.91193 0 3.27153 2.16623 0 1.11502 2.61001 0 
0.237665 2.78171 0 1.87297 2.94066 0 0.264207 2.64017 0 
1.8761 2.63451 0 0.0839004 2.75278 0 0.131916 2.76605 0 
0.276616 2.80414 0 0.11776 2.73479 0 1.09434 2.96453 0 
0.136877 2.77688 0 1.89711 2.61371 0 0.161551 2.73706 0 
0.613397 2.9433 0 1.86526 2.66156 0 2.38433 3.05854 0 
0.439899 2.58783 0 1.31565 2.50596 0 0.116515 2.77472 0 
2.49137 2.53104 0 0.76414 2.6466 0 0.0482116 2.71581 0 
1.73399 2.5237 0 0.318884 2.82116 0 0.316633 2.63028 0 
1.09018 2.51437 0 0.201202 2.75598 0 1.46885 2.62684 0 
2.27009 2.58171 0 1.97089 2.58104 0 1.22766 2.52706 0 
2.04276 2.59322 0 1.99394 2.88843 0 0.160484 2.99706 0 
0.11812 2.72507 0 0.855209 2.55974 0 1.31828 2.58583 0 
1.1587 2.85835 0 2.35748 2.93153 0 2.18929 2.58876 0 
2.21507 2.58254 0 2.16538 2.59606 0 0.14875 2.73103 0 
2.31182 2.78372 0 0.120002 2.7471 0 0.389335 2.9637 0 
0.485519 2.86788 0 1.3831 2.69301 0 1.45886 2.50841 0 
1.19469 2.62398 0 0.172433 2.73977 0 0.959408 2.8838 0 
2.18046 2.8259 0 0.545111 2.99745 0 2.30159 2.53048 0 
0.310252 2.81136 0 0.139529 2.73003 0 1.42011 2.84162 0 
2.00806 2.59016 0 0.126873 2.72441 0 0.64164 2.83386 0 
0.188388 2.75082 0 1.61581 2.52404 0 2.07817 3.03463 0 
0.903878 2.73995 0 1.90519 2.86875 0 0.239046 2.92759 0 
0.476787 2.6318 0 2.32893 3.05316 0 1.20845 2.77403 0 
0.700688 2.98392 0 0.255116 2.69644 0 1.60562 2.51025 0 
0.639211 2.65129 0 0.14485 2.87924 0 1.5327 2.72572 0 
1.0447 2.80101 0 0.794593 2.80853 0 0.319078 2.8188 0 
0.100685 2.58864 0 0.940827 2.58042 0 1.93728 2.57426 0 
0.265835 2.77987 0 0.147191 2.7894 0 2.12454 2.59816 0 
0.240126 2.50058 0 1.90032 2.58518 0 1.90142 2.59736 0 
0.020775 2.68764 0 0.89106 2.94303 0 2.23116 2.92825 0 
2.07392 2.59517 0 1.76032 2.5533 0 1.84514 2.65191 0 
1.81442 2.61677 0 1.60564 2.69092 0 1.79085 2.59272 0 
2.09988 2.59711 0 2.13426 2.7194 0 0.704449 2.5166 0 
2.30234 2.90058 0 1.90608 2.60947 0 1.91227 2.57488 0 
1.90558 2.60483 0 1.61959 2.52775 0 0.389129 2.76259 0 
1.99694 2.76258 0 2.35406 2.59201 0 2.14605 2.59744 0 
3.7209 2.81532 0 4.40493 2.54676 0 4.34526 2.94707 0 
2.54245 2.8276 0 3.59868 2.83712 0 2.92917 2.5704 0 
3.04409 2.67971 0 4.43216 2.54601 0 4.68457 2.61519 0 
4.0588 2.92383 0 3.66011 2.85909 0 4.1763 2.72012 0 
2.67615 2.53726 0 4.34089 2.53656 0 2.57509 2.52507 0 
4.86607 2.61032 0 4.88397 2.61059 0 4.66253 3.03051 0 
2.86499 2.56587 0 4.65496 2.61057 0 4.46341 2.6106 0 
3.66707 2.73132 0 3.119 2.65631 0 3.14207 2.63568 0 
4.32063 2.92827 0 4.43047 2.65449 0 4.02823 3.10848 0 
3.05612 2.67452 0 4.74419 2.61862 0 3.09891 2.66694 0 
2.5787 2.50707 0 3.4415 2.70266 0 3.47052 2.58926 0 
3.12443 2.65677 0 3.40122 2.68783 0 2.58604 2.7401 0 
3.36525 2.62952 0 2.74933 2.60667 0 3.6668 2.58082 0 
3.31376 2.73533 0 2.68046 2.68844 0 2.97917 2.64991 0 
3.41002 2.67048 0 2.63198 2.53836 0 4.40377 2.76661 0 
2.98545 2.67274 0 3.13583 2.67348 0 3.18584 2.61709 0 
2.99331 2.64572 0 4.99814 2.66067 0 4.9006 2.60762 0 
3.85803 2.77998 0 4.37565 2.54452 0 4.62075 2.59409 0 
4.28108 3.10414 0 2.90858 2.53846 0 4.51209 2.85136 0 
3.08355 2.79684 0 3.58977 2.55462 0 3.42327 2.71962 0 
3.41655 2.57229 0 3.38523 2.63094 0 2.59195 2.54673 0 
4.68353 2.92171 0 4.82602 2.61666 0 4.8471 2.6112 0 
3.29526 2.51069 0 3.46448 2.77599 0 3.53038 2.82146 0 
3.39364 2.65303 0 3.18261 2.68544 0 4.80101 2.6179 0 
4.81848 2.73041 0 4.87889 2.76467 0 2.92087 2.94435 0 
3.39085 2.63821 0 4.55738 2.56934 0 4.58872 2.58172 0 
3.51569 2.72319 0 4.03143 3.05061 0 4.6658 2.71259 0 
4.39006 2.85776 0 3.76869 2.64488 0 2.74598 2.529 0 
3.15173 2.55169 0 3.44807 2.74882 0 4.49432 2.55272 0 
4.52574 2.5591 0 4.71358 2.61568 0 3.50943 2.8101 0 
2.58849 2.51277 0 2.56136 2.50899 0 4.93704 2.60685 0 
4.94808 2.61046 0 4.96657 2.6236 0 4.95718 2.61519 0 
4.91386 2.60622 0 4.98067 2.64025 0 4.92474 2.60114 0 
3.07643 2.54241 0 4.43897 3.07405 0 3.91583 2.97667 0 
3.9437 2.75294 0 4.00236 2.54773 0 4.3009 2.51956 0 
2.51679 2.8821 0 4.77332 2.61832 0 2.55733 2.54471 0 
3.05911 2.69292 0 2.79302 2.82878 0 3.32773 2.5667 0 
2.96689 2.86589 0 3.48464 2.93755 0 3.09619 2.75506 0 
4.15801 2.79457 0 4.05505 2.63936 0 3.15285 2.87822 0 
3.6215 2.9163 0 4.25443 2.65269 0 4.03462 2.72041 0 
2.54838 2.56053 0 2.56054 2.56124 0 3.51728 2.81627 0 
3.58015 2.8814 0 2.7968 2.97214 0 2.7781 2.73544 0 
3.35682 2.92504 0 4.46383 2.54902 0 3.451 2.73452 0 
2.99209 2.65704 0 3.54888 2.82871 0 3.80565 2.87934 0 

gid 1 450 double
-1 0 -1 -1 0 -1 0 -1 -1 
-1 0 1 -1 0 0 -1 -1 0 
-1 -1 0 0 0 -1 -1 0 -1 
-1 0 0 0 0 0 0 0 -1 
-1 -1 0 -1 0 -1 0 0 0 
-1 0 0 -1 0 -1 -1 0 -1 
0 0 0 -1 0 0 -1 0 0 
-1 -1 0 0 -1 -1 0 -1 -1 
0 -1 0 -1 -1 -1 -1 -1 0 
0 0 -1 -1 0 0 -1 0 0 
0 0 -1 0 -1 0 0 0 -1 
0 0 -1 0 0 -1 -1 0 -1 
0 -1 0 -1 -1 -1 -1 0 0 
0 -1 -1 -1 0 0 0 0 0 
0 0 0 0 0 0 0 0 0 
0 0 0 0 0 -1 -1 -1 0 
0 -1 0 0 0 0 -1 -1 -1 
0 -1 0 -1 0 0 -1 -1 -1 
-1 0 0 0 0 -1 -1 -1 -1 
0 -1 -1 0 -1 -1 -1 -1 0 
0 0 0 0 0 0 -1 -1 -1 
0 -1 -1 0 -1 -1 -1 -1 -1 
-1 0 0 -1 0 0 -1 0 0 
-1 0 0 0 1 0 0 0 0 
0 0 1 0 0 0 1 0 1 
1 0 0 0 1 0 0 0 1 
0 0 1 0 0 0 0 1 1 
0 1 1 1 1 0 0 0 0 
1 0 1 1 1 1 1 0 1 
1 1 -1 0 0 1 0 0 1 
0 0 1 1 1 1 1 1 1 
1 0 0 1 1 1 1 1 0 
-1 1 0 0 0 0 -1 0 0 
0 1 1 0 0 0 0 1 0 
0 1 1 1 0 0 0 0 1 
1 0 0 1 0 1 1 0 0 
0 0 0 1 1 1 0 0 0 
0 0 1 0 0 1 1 0 0 
1 1 1 0 0 0 0 0 -1 
0 0 1 0 1 0 1 1 0 
0 0 1 0 0 0 0 0 0 
1 0 0 1 0 1 1 -1 0 
0 0 0 1 0 0 0 0 0 
0 1 0 1 1 1 0 0 0 
0 1 1 1 1 0 1 0 0 
0 0 0 0 0 0 0 0 0 
0 0 0 1 1 1 1 1 0 
1 0 0 0 1 0 1 1 1 
1 1 1 1 1 1 0 0 0 
1 1 1 1 0 0 0 0 1 

w 1 450 double
-0.3 0 -0.3 -0.3 0 -0.3 0 -0.3 -0.3 
-0.3 0 0.3 -0.3 0 0 -0.3 -0.3 0 
-0.3 -0.3 0 0 0 -0.3 -0.3 0 -0.3 
-0.3 0 0 0 0 0 0 0 -0.3 
-0.3 -0.3 0 -0.3 0 -0.3 0 0 0 
-0.3 0 0 -0.3 0 -0.3 -0.3 0 -0.3 
0 0 0 -0.3 0 0 -0.3 0 0 
-0.3 -0.3 0 0 -0.3 -0.3 0 -0.3 -0.3 
0 -0.3 0 -0.3 -0.3 -0.3 -0.3 -0.3 0 
0 0 -0.3 -0.3 0 0 -0.3 0 0 
0 0 -0.3 0 -0.3 0 0 0 -0.3 
0 0 -0.3 0 0 -0.3 -0.3 0 -0.3 
0 -0.3 0 -0.3 -0.3 -0.3 -0.3 0 0 
0 -0.3 -0.3 -0.3 0 0 0 0 0 
0 0 0 0 0 0 0 0 0 
0 0 0 0 0 -0.3 -0.3 -0.3 0 
0 -0.3 0 0 0 0 -0.3 -0.3 -0.3 
0 -0.3 0 -0.3 0 0 -0.3 -0.3 -0.3 
-0.3 0 0 0 0 -0.3 -0.3 -0.3 -0.3 
0 -0.3 -0.3 0 -0.3 -0.3 -0.3 -0.3 0 
0 0 0 0 0 0 -0.3 -0.3 -0.3 
0 -0.3 -0.3 0 -0.3 -0.3 -0.3 -0.3 -0.3 
-0.3 0 0 -0.3 0 0 -0.3 0 0 
-0.3 0 0 0 0.3 0 0 0 0 
0 0 0.3 0 0 0 0.3 0 0.3 
0.3 0 0 0 0.3 0 0 0 0.3 
0 0 0.3 0 0 0 0 0.3 0.3 
0 0.3 0.3 0.3 0.3 0 0 0 0 
0.3 0 0.3 0.3 0.3 0.3 0.3 0 0.3 
0.3 0.3 -0.3 0 0 0.3 0 0 0.3 
0 0 0.3 0.3 0.3 0.3 0.3 0.3 0.3 
0.3 0 0 0.3 0.3 0.3 0.3 0.3 0 
-0.3 0.3 0 0 0 0 -0.3 0 0 
0 0.3 0.3 0 0 0 0 0.3 0 
0 0.3 0.3 0.3 0 0 0 0 0.3 
0.3 0 0 0.3 0 0.3 0.3 0 0 
0 0 0 0.3 0.3 0.3 0 0 0 
0 0 0.3 0 0 0.3 0.3 0 0 
0.3 0.3 0.3 0 0 0 0 0 -0.3 
0 0 0.3 0 0.3 0 0.3 0.3 0 
0 0 0.3 0 0 0 0 0 0 
0.3 0 0 0.3 0 0.3 0.3 -0.3 0 
0 0 0 0.3 0 0 0 0 0 
0 0.3 0 0.3 0.3 0.3 0 0 0 
0 0.3 0.3 0.3 0.3 0 0.3 0 0 
0 0 0 0 0 0 0 0 0 
0 0 0 0.3 0.3 0.3 0.3 0.3 0 
0.3 0 0 0 0.3 0 0.3 0.3 0.3 
0.3 0.3 0.3 0.3 0.3 0.3 0 0 0 
0.3 0.3 0.3 0.3 0 0 0 0 0.3 

v 3 450 double
-1.30372 -0.0468355 0 -5.16246 0.464352 0 -1.20669 -0.137051 0 
-3.8967 0.871014 0 -4.68817 -0.706379 0 -1.75369 0.270322 0 
-4.9644 0.00729046 0 -0.924218 -0.409918 0 -1.73422 -0.798113 0 
-2.23189 -0.75532 0 -4.97429 0.416846 0 -5.04391 -1.03049 0 
0.223285 0.278828 0 -3.00537 -0.0736303 0 -3.07993 -0.0214904 0 
0.582847 -0.171269 0 -5.23114 0.0854412 0 -3.15157 0.072983 0 
-2.5493 0.573969 0 -2.62989 -0.594179 0 -2.99166 0.0035527 0 
-4.70109 -1.24542 0 -4.60364 1.80505 0 -4.41426 0.223285 0 
-3.41238 -0.511787 0 -4.75417 -1.21063 0 -2.0291 -0.366092 0 
-3.39581 -0.162352 0 -4.47642 -1.67197 0 -4.46447 -1.64171 0 
-4.50393 -1.70909 0 -4.424 -1.64262 0 -4.47925 -1.66569 0 
-4.55677 -1.14449 0 -4.5236 -1.65887 0 -0.818838 0.601295 0 
-4.07836 1.51893 0 -4.56153 -0.655005 0 -1.11349 -0.422159 0 
-3.50161 -0.0204247 0 -4.75219 -1.09876 0 -2.78167 0.548193 0 
-4.89222 -1.36692 0 -4.23578 0.219088 0 -4.68469 -0.980619 0 
-2.71516 -0.681171 0 -4.82611 -0.430084 0 -5.16844 0.435803 0 
-2.11659 -0.542819 0 -4.96663 -0.07973 0 -2.32393 0.231711 0 
-1.06953 -0.157944 0 -5.32145 0.492021 0 -0.650687 -0.515429 0 
-4.87537 0.113373 0 -5.49661 -0.210306 0 -4.74428 -1.12747 0 
-1.34764 0.0327833 0 -4.01913 0.0257466 0 -4.69557 -0.877012 0 
-2.70083 -0.231285 0 -4.57025 -0.0110716 0 -4.94131 0.0182506 0 
-3.87895 0.0817784 0 0.204853 -0.570795 0 -4.0332 -0.665651 0 
-3.36058 0.144684 0 0.403415 0.400252 0 -0.439055 -0.55829 0 
-4.9278 -1.61962 0 -0.723765 -0.0489302 0 -3.39319 0.194408 0 
-5.24331 0.44174 0 -2.67898 -0.0805394 0 -5.23341 0.484239 0 
-1.22758 0.370391 0 -3.73834 0.0617549 0 -4.58389 0.194626 0 
-0.694532 0.381674 0 -3.93361 -0.325082 0 -4.59701 -1.68813 0 
-4.49588 0.176688 0 -4.7331 -1.01931 0 -3.8299 1.06844 0 
-4.25548 -0.216066 0 -4.78748 -1.10188 0 -4.74777 -1.53056 0 
-1.27801 0.427563 0 -4.36108 0.210742 0 -4.5819 -1.21943 0 
-4.75277 0.020509 0 -4.53312 -1.47697 0 -0.678428 0.503455 0 
-4.25675 -0.881785 0 -2.55562 0.409363 0 -4.36069 -0.911415 0 
-4.91263 -1.47724 0 -4.06236 -0.70796 0 -4.39395 -1.23676 0 
-4.39033 -0.924682 0 -4.50782 -0.914915 0 -1.82104 0.620649 0 
-4.76693 -1.75225 0 -4.01884 -0.498152 0 -4.46169 -0.047501 0 
-2.94246 0.523888 0 -4.20595 -0.0571676 0 -4.70487 -0.862558 0 
-4.64982 1.05286 0 0.204805 0.509343 0 -4.55856 -0.495884 0 
-3.0004 -0.0700234 0 -2.32282 -0.655702 0 -2.31373 -0.227457 0 
-2.91574 -1.41667 0 -3.08666 0.307251 0 -2.39424 -1.38453 0 
-3.88581 -1.22892 0 0.404521 -0.875254 0 -1.40034 0.202644 0 
-2.48877 -0.313611 0 -4.25631 0.0184951 0 -2.73958 -1.5659 0 
-2.31176 -1.57212 0 -6.03274 0.693441 0 -2.47072 -1.24322 0 
-2.33221 -1.46896 0 -2.9426 0.123127 0 -4.70097 -0.377806 0 
-5.79955 -0.794208 0 -2.62627 -1.11913 0 -4.06501 -1.17377 0 
-2.31785 -1.7106 0 -3.9276 0.943289 0 -4.29524 0.107081 0 
-4.23241 0.899534 0 -2.51039 -1.15008 0 -4.83792 -0.00792316 0 
-4.51069 1.1372 0 -6.01158 -0.858593 0 -1.00591 -1.68703 0 
-1.8349 -1.38066 0 -4.48975 0.0992337 0 -2.38686 -1.59 0 
-3.432 -0.93724 0 -2.98737 -0.760025 0 -2.56594 -1.10357 0 
-4.80299 0.437227 0 -2.78931 -1.56594 0 -3.48901 0.757519 0 
-4.37956 0.225465 0 -3.78894 0.246555 0 -2.30159 -0.223756 0 
-4.03558 0.889224 0 -0.242855 -1.31695 0 -3.46412 -1.20773 0 
-3.22818 0.17955 0 -6.10462 -0.801091 0 -4.65163 1.01476 0 
-0.916931 0.0199393 0 -3.90104 -1.56544 0 -1.27862 -0.465797 0 
-1.16673 0.212275 0 -4.64995 0.993967 0 -3.30497 -0.374945 0 
-5.00559 0.043941 0 -4.98573 -0.0735725 0 0.496544 -0.340197 0 
-4.95191 -0.28808 0 -3.83788 0.818607 0 -2.49056 0.200323 0 
-5.06653 0.0323948 0 -5.76579 -0.594203 0 -4.43358 0.366802 0 
-5.05659 0.0500909 0 -2.93473 0.45453 0 -2.60743 1.36061 0 
-1.15649 0.952478 0 -3.64401 0.923918 0 -5.20615 0.173954 0 
-4.51499 -0.275035 0 -2.55471 -1.72101 0 -5.05244 -0.00231001 0 
-3.97838 -0.219333 0 -2.495 -1.67988 0 -4.95362 -0.163327 0 
-0.909345 1.35048 0 -0.82489 0.494775 0 0.940717 0.433607 0 
-5.45728 0.0194582 0 -2.97295 0.12478 0 -4.71933 -0.660765 0 
-2.45963 -1.42203 0 -3.84101 -0.542617 0 -2.64916 0.919643 0 
-0.14123 0.363276 0 -4.09286 0.0268629 0 -1.23048 0.852018 0 
-1.11737 0.380835 0 -5.54884 -0.484178 0 -2.35055 -1.4196 0 
-5.63757 0.777306 0 -2.46743 -1.169 0 -2.66886 -1.61107 0 
0.286779 0.80795 0 -4.43279 -1.35932 0 -4.31785 0.0966553 0 
0.292449 0.054691 0 -2.94758 -1.47696 0 -4.06609 -0.0939721 0 
-3.50647 1.15823 0 -1.15677 0.813536 0 -4.52389 2.11822 0 
-4.54386 -0.122809 0 -3.90537 0.497108 0 -3.88781 0.738933 0 
-3.19662 1.32907 0 -4.08528 0.699972 0 0.341804 -0.526516 0 
-3.81581 0.744489 0 -4.74087 -0.0798171 0 -4.03322 0.931385 0 
-0.712828 0.3655 0 -4.36034 -0.0208585 0 0.415773 -0.21759 0 
-4.69268 1.10733 0 -4.84153 -0.174918 0 -3.82206 0.672566 0 
-4.83549 1.43746 0 -3.78228 0.37366 0 -4.0426 0.185475 0 
-4.43598 -0.961503 0 -2.88113 1.39732 0 -4.50942 2.04893 0 
-4.84785 -0.133594 0 -3.81119 1.11774 0 -3.28208 -1.09193 0 
-5.59751 0.382988 0 -5.13955 -0.00412275 0 -4.80753 0.0212397 0 
-5.37501 0.0963016 0 -1.98415 0.343628 0 -0.753822 0.692191 0 
-4.14811 0.714477 0 -4.85573 -0.0262628 0 -4.09515 -0.237336 0 
-0.812632 -0.841473 0 -1.34123 -0.378471 0 -5.65478 0.0824683 0 
-5.65075 0.148202 0 -5.64087 0.0955048 0 -4.09237 0.870361 0 
-4.05229 -0.0156936 0 -4.00721 0.700711 0 -0.914032 0.87707 0 
-2.06725 0.974597 0 -2.41759 -0.403818 0 -4.38343 -1.22748 0 
-3.79247 -0.0971282 0 -3.99239 0.987656 0 -0.819752 -0.0985808 0 
-3.43018 0.657707 0 -0.0424595 0.783008 0 -5.31002 0.728368 0 
-2.99431 1.43463 0 -4.11399 0.832534 0 -0.710493 -0.651462 0 
-5.26013 0.0377094 0 -4.15365 0.777204 0 -2.13416 0.483382 0 
-3.88448 1.07201 0 -4.28499 -1.56586 0 -0.276973 0.629967 0 
-2.74249 -0.100742 0 -2.48705 0.684626 0 -1.63035 0.505434 0 
-3.96434 0.857048 0 0.195644 0.450309 0 -1.93326 -0.76465 0 
0.137025 -0.0413147 0 -4.04633 1.80715 0 -4.34877 -1.62693 0 
-3.84821 0.740415 0 -2.69277 0.779893 0 -1.81315 -1.03226 0 
-2.00385 -0.51988 0 -1.99675 0.403757 0 -2.89848 1.41253 0 
-4.52941 0.545526 0 -4.33624 -0.543639 0 -5.0339 -0.106001 0 
-3.41106 1.38055 0 -3.71768 0.737236 0 -5.59931 0.0707708 0 
-4.31017 1.70818 0 -4.85536 -0.206643 0 -4.822 -0.160812 0 
-4.14444 -0.0480613 0 -0.0945455 0.246002 0 -1.72861 0.930864 0 
-5.47822 0.110775 0 -4.38661 -0.798893 0 -4.29175 -0.113531 0 
-4.29934 -0.353106 0 -2.60969 -1.41688 0 -4.30485 -0.577318 0 
-5.54838 0.0870876 0 -4.86444 0.335645 0 -5.33536 0.429988 0 
-2.12267 0.0932267 0 -4.80711 -0.120108 0 -4.937 -0.222014 0 
-4.81936 -0.138741 0 -4.26887 -1.54948 0 -3.11321 1.43257 0 
-4.00404 0.440787 0 -5.36361 1.0076 0 -5.63075 0.113799 0 
-3.28518 0.652431 0 -6.06856 -0.674822 0 -0.878363 -0.333013 0 
-2.53236 0.228228 0 -3.45871 0.944033 0 -4.1125 0.0685186 0 
-3.67026 0.254559 0 -6.00364 -0.779678 0 -4.91109 -0.584937 0 
-1.42335 0.0576879 0 -2.55412 0.716359 0 -3.9083 -0.447892 0 
-4.86252 0.874933 0 -6.12253 -0.581771 0 -4.74746 1.20869 0 
-4.60199 -0.460043 0 -4.55057 -0.446756 0 -0.242927 -0.897138 0 
-4.24695 -0.103528 0 -4.97146 -0.654721 0 -5.23954 -1.08019 0 
-5.03546 1.04495 0 -3.64057 -0.253486 0 -3.72549 -0.505213 0 
-1.31533 -0.120073 0 -4.70234 -0.937671 0 0.649974 0.439277 0 
-3.67837 0.197281 0 -4.81577 -0.467319 0 -3.62815 -0.12561 0 
-4.68716 1.19364 0 -4.54575 -0.197182 0 -5.08468 -0.371262 0 
-3.62931 -0.307694 0 -4.33174 -0.618645 0 -3.64081 0.812242 0 
-4.47344 -1.11659 0 -4.47966 0.0616497 0 -5.91345 1.21496 0 
-3.15396 -0.798152 0 -3.95618 0.686057 0 -3.76572 0.211104 0 
-4.52549 -0.632321 0 -4.83962 1.03132 0 -3.40817 -0.871773 0 
-3.67766 0.267663 0 -3.49953 -0.435042 0 -3.87352 -1.03939 0 
-3.7858 0.277737 0 -4.24297 -0.251377 0 -4.51175 -0.417363 0 
-3.47095 0.405451 0 -6.10366 -0.613766 0 -5.11217 -0.794916 0 
0.484193 0.0241725 0 -4.23924 0.0398761 0 -1.95288 -1.36636 0 
-2.14533 0.000883232 0 -5.57157 0.69744 0 -4.20519 -0.31971 0 
-4.79845 -1.02614 0 -4.57271 -0.965807 0 -4.81125 1.16996 0 
-1.51152 -1.19835 0 -4.70299 -0.403118 0 -4.66232 -0.429166 0 
-4.52931 -1.45771 0 -3.97711 0.323703 0 -3.82147 0.956161 0 
-4.52162 -0.827251 0 -3.28562 -0.775557 0 -4.74781 -0.398256 0 
-3.59763 -0.430306 0 -2.90585 -0.621585 0 -0.286519 -0.270939 0 
-4.57661 -0.904702 0 -5.39256 -0.986299 0 -5.24022 -0.904618 0 
-4.94512 0.685766 0 -0.0699145 0.205279 0 -3.75968 -0.772901 0 
-2.13623 -0.811881 0 -5.61518 0.777748 0 -4.76814 0.326374 0 
-4.29196 -0.905287 0 -4.13125 0.0583856 0 -5.73126 -0.999788 0 
-5.56897 -0.999617 0 -4.8712 -0.518507 0 -3.89704 0.825148 0 
-4.71539 1.16423 0 -4.68699 1.29062 0 -4.43495 -0.391949 0 
-4.41351 -0.373373 0 -4.36703 -0.335987 0 -4.39384 -0.356443 0 
-4.48032 -0.413557 0 -4.31562 -0.307274 0 -4.46678 -0.383155 0 
-4.37397 -0.0709498 0 0.404365 -0.785819 0 -0.796226 0.632619 0 
-3.72715 0.43657 0 -5.96918 0.389751 0 -6.13096 -0.690982 0 
-1.63265 0.0042677 0 -4.7866 -0.400739 0 -4.79843 1.29232 0 
-3.59329 0.173811 0 -1.81728 0.110893 0 -4.4979 -1.37106 0 
-1.38207 -0.248897 0 -1.15903 0.535983 0 -2.75279 -0.179944 0 
-2.61604 -0.0451756 0 -5.17845 0.0325803 0 -0.691313 -0.415115 0 
-1.26725 0.704245 0 -4.98355 -0.70434 0 -4.00806 0.382157 0 
-4.83331 1.30486 0 -4.83215 1.28131 0 -3.84464 0.884673 0 
-2.42781 0.93872 0 -0.246955 0.257561 0 -2.98727 -0.124088 0 
-1.00858 0.0944647 0 -5.88235 -0.883416 0 -4.31952 0.0381486 0 
-3.74502 0.275135 0 -3.74153 1.0169 0 -1.71413 0.416692 0 

noise 3 450 double
-0 -0.000595861 0 -0 -0.000999945 0 0 0.000805215 0 
0 0.000975964 0 -0 -0.000919142 0 -0 -0.00086911 0 
-0 -0.000635326 0 0 0.000576146 0 0 0.000984166 0 
-0 -0.00023814 0 -0 -0.000985652 0 0 0.000690989 0 
0 0.00085161 0 -0 -0.000148301 0 0 1.03047e-05 0 
0 0.000581981 0 -0 -0.000660399 0 -0 -0.000303158 0 
-0 -0.000678472 0 -0 -9.85961e-05 0 0 0.00016865 0 
0 0.00086655 0 -0 -0.000797855 0 -0 -0.000609565 0 
-0 -0.00079055 0 0 0.0007765 0 0 0.000156788 0 
-0 -0.00096608 0 0 0.00055204 0 0 0.000263355 0 
0 0.000981964 0 0 0.00067721 0 0 0.000412916 0 
0 0.000934696 0 0 0.000107138 0 0 0.000888885 0 
0 0.000641934 0 -0 -0.000720388 0 -0 -0.000569106 0 
0 0.000454947 0 0 0.000666823 0 -0 -0.000910118 0 
-0 -0.000852509 0 -0 -0.000946444 0 -0 -0.000516966 0 
-0 -0.000961502 0 -0 -0.000845094 0 -0 -0.000952984 0 
0 0.000139803 0 -0 -0.000749685 0 0 0.000301521 0 
-0 -0.000829127 0 0 0.000602735 0 0 0.000949272 0 
-0 -0.000810277 0 0 0.000822182 0 0 0.000999518 0 
0 0.000221425 0 0 0.000322732 0 -0 -0.000969956 0 
-0 -0.000990673 0 -0 -0.000892915 0 0 0.000721578 0 
-0 -0.000254784 0 -0 -0.000932852 0 -0 -0.000374769 0 
-0 -0.000883313 0 0 0.000847837 0 0 0.000197634 0 
-0 -0.000361728 0 -0 -9.14717e-05 0 -0 -0.000541735 0 
0 0.000468657 0 0 0.000838606 0 -0 -0.000988964 0 
0 0.000946997 0 0 0.000562024 0 0 0.000527219 0 
0 0.000987065 0 -0 -0.000476478 0 -0 -5.17879e-05 0 
-0 -0.000586163 0 -0 -0.000646095 0 -0 -0.000470173 0 
0 0.000995474 0 -0 -0.000758894 0 -0 -0.000973273 0 
0 0.000647405 0 -0 -0.000450352 0 -0 -0.000996253 0 
-0 -0.000707157 0 -0 -0.000997368 0 -0 -0.000779916 0 
-0 -6.57901e-05 0 0 7.43564e-05 0 -0 -0.000223099 0 
-0 -0.000924576 0 0 9.31819e-05 0 -0 -0.000317851 0 
0 0.000400101 0 0 0.00054029 0 0 0.000996959 0 
-0 -0.000209405 0 0 0.000249799 0 0 0.000512548 0 
0 0.000764458 0 -0 -0.000511073 0 -0 -0.00018077 0 
0 0.000726318 0 0 0.000379541 0 0 3.43494e-06 0 
0 0.000999926 0 0 0.000954532 0 -0 -0.000615223 0 
-0 -0.000261698 0 -0 -0.000296604 0 0 0.000671926 0 
0 0.000161874 0 -0 -0.00094134 0 -0 -0.000860487 0 
0 0.000433147 0 -0 -0.000640837 0 0 7.94935e-05 0 
0 0.000256445 0 -0 -0.000944204 0 0 0.000980586 0 
0 0.000406388 0 -0 -0.000444208 0 -0 -0.000155091 0 
0 0.000818253 0 -0 -0.000216397 0 0 0.000656521 0 
0 0.00010002 0 0 1.71739e-05 0 -0 -0.000754402 0 
0 0.000175417 0 0 0.000869958 0 -0 -0.000955043 0 
0 0.000329227 0 0 0.000899017 0 -0 -0.000395374 0 
0 0.0009171 0 0 0.000892141 0 -0 -5.89336e-05 0 
-0 -0.00099985 0 -0 -0.000959511 0 0 0.000937115 0 
-0 -0.000984469 0 0 0.000236471 0 -0 -0.000141504 0 
-0 -0.000775417 0 0 0.000997491 0 0 0.000926527 0 
-0 -0.000580583 0 -0 -0.000737049 0 0 0.000528678 0 
0 0.00021444 0 0 0.000957057 0 0 0.000826073 0 
-0 -0.00099856 0 0 0.00080095 0 -0 -8.58726e-06 0 
0 0.000690989 0 0 0.000904949 0 -0 -0.000368391 0 
-0 -0.000895987 0 -0 -0.000456476 0 -0 -0.000340825 0 
-0 -0.000979562 0 -0 -0.000872627 0 0 0.000708371 0 
-0 -0.000711998 0 -0 -0.000980977 0 -0 -0.00099957 0 
-0 -0.000814284 0 -0 -0.000547736 0 0 0.00029469 0 
0 0.000748547 0 0 0.000880886 0 0 0.000462577 0 
0 0.000316222 0 0 0.000961029 0 -0 -0.000591715 0 
-0 -0.000989958 0 0 0.000992696 0 -0 -0.000309698 0 
-0 -0.000992867 0 -0 -0.000417603 0 0 0.000628671 0 
0 0.000597239 0 0 0.000988187 0 0 0.000132713 0 
0 0.00099927 0 0 0.000970373 0 0 0.00035692 0 
-0 -0.000491506 0 -0 -0.000825104 0 -0 -3.29129e-05 0 
0 0.000278235 0 0 0.000716805 0 0 0.000546058 0 
-0 -0.000899768 0 0 0.00078081 0 0 0.000905071 0 
-0 -0.000115672 0 0 0.000767769 0 -0 -0.000848898 0 
0 5.00726e-05 0 0 0.000387472 0 0 0.000902004 0 
0 0.000487013 0 -0 -0.000609565 0 -0 -0.000692229 0 
0 0.000731218 0 0 0.000243141 0 0 0.000772153 0 
0 0.000342439 0 0 0.000932232 0 -0 -0.000261698 0 
0 0.000661687 0 0 0.000613868 0 0 0.000910828 0 
0 0.000970373 0 0 0.000830086 0 -0 -0.000547736 0 
0 0.000641934 0 -0 -0.000504908 0 0 0.000393796 0 
-0 -0.000702283 0 -0 -0.000254784 0 0 8.63397e-05 0 
0 0.000979215 0 0 0.000189209 0 0 0.000996959 0 
0 0.000959026 0 0 0.000619277 0 0 0.000576146 0 
-0 -0.000889801 0 -0 -0.000437785 0 0 0.000991807 0 
-0 -0.000697171 0 0 0.000278235 0 -0 -0.000678472 0 
0 0.000977799 0 0 0.000987065 0 -0 -0.000491506 0 
-0 -0.000615223 0 -0 -0.000992867 0 -0 -0.000987922 0 
-0 -0.00095088 0 -0 -0.000999994 0 0 0.000964737 0 
0 0.000995474 0 0 0.0008631 0 -0 -0.000961502 0 
0 0.00029469 0 0 0.00081528 0 0 0.000527219 0 
-0 -0.000860487 0 0 0.000833897 0 0 0.000512548 0 
0 0.000764458 0 -0 -0.000979562 0 0 0.00081528 0 
-0 -0.000127605 0 0 0.00099426 0 0 0.000946997 0 
-0 -0.000574742 0 0 0.000998651 0 0 0.000139803 0 
0 0.000735887 0 0 0.000873465 0 -0 -0.00018077 0 
-0 -0.000872627 0 -0 -0.000115672 0 0 0.000805215 0 
0 0.000197634 0 -0 -0.00086911 0 0 0.000301521 0 
-0 -0.000825104 0 -0 -0.000431598 0 0 0.000939589 0 
0 0.000972077 0 0 0.000132713 0 0 0.000949272 0 
-0 -9.14717e-05 0 0 0.000847837 0 0 3.11963e-05 0 
-0 -0.000173726 0 0 0.00050639 0 -0 -0.000289762 0 
-0 -0.00028318 0 0 0.000534497 0 -0 -0.00094864 0 
0 0.000972077 0 0 2.43291e-05 0 0 0.000182459 0 
-0 -7.26435e-05 0 0 0.000888885 0 -0 -0.000595861 0 
-0 -0.000801977 0 0 0.000998984 0 0 0.000907971 0 
0 0.000962906 0 0 0.00021444 0 0 0.000993501 0 
-0 -0.000886513 0 0 0.000954532 0 0 0.000975964 0 
-0 -0.000829127 0 0 0.000481001 0 -0 -0.000134415 0 
0 0.000335976 0 0 0.000785262 0 0 0.000628671 0 
0 0.00035692 0 -0 -0.000806232 0 -0 -0.000986788 0 
0 0.000221425 0 0 0.000941919 0 0 0.000926527 0 
0 0.000156788 0 0 0.000740521 0 -0 -0.000971672 0 
-0 -0.000640616 0 0 0.000876789 0 -0 -0.000202682 0 
0 0.000997491 0 -0 -0.000173726 0 -0 -0.000470173 0 
0 0.000672139 0 0 0.000999707 0 0 0.000992661 0 
-0 -0.000968262 0 -0 -0.000995636 0 -0 -0.00094134 0 
0 0.00040665 0 -0 -4.4926e-05 0 0 0.000988187 0 
0 0.00080095 0 -0 -0.000921826 0 -0 -0.000848747 0 
0 0.000708371 0 0 0.000379541 0 0 0.000433147 0 
-0 -0.000996824 0 -0 -0.000498967 0 -0 -0.000971605 0 
0 0.000608203 0 -0 -0.000563444 0 0 0.00050639 0 
-0 -0.000754214 0 0 0.00099827 0 -0 -0.000993695 0 
0 0.000976336 0 -0 -0.00096608 0 -0 -0.000880072 0 
-0 -0.00023814 0 -0 -0.000899768 0 -0 -0.000368124 0 
-0 -0.000276585 0 0 0.00078099 0 -0 -0.000737049 0 
0 0.000256722 0 0 0.000100305 0 -0 -5.86473e-05 0 
-0 -0.000996847 0 -0 -0.000229791 0 -0 -0.000997843 0 
0 0.000581981 0 0 0.00098324 0 0 0.000113966 0 
-0 -0.000660399 0 -0 -0.000921937 0 -0 -0.000317851 0 
0 0.000984166 0 -0 -0.000993695 0 0 0.000994971 0 
-0 -0.000687255 0 0 3.80621e-05 0 0 0.000870099 0 
0 7.43564e-05 0 -0 -0.000841401 0 -0 -0.000916414 0 
0 0.000859611 0 0 0.000966522 0 0 0.000624656 0 
0 0.00019595 0 -0 -0.000340825 0 -0 -0.000745121 0 
-0 -0.000541735 0 -0 -0.000395374 0 -0 -9.85961e-05 0 
-0 -0.000120788 0 0 0.000419163 0 0 0.000269977 0 
-0 -0.000793694 0 0 5.00726e-05 0 -0 -8.58726e-06 0 
0 0.000999926 0 0 0.0009171 0 0 0.000546299 0 
-0 -0.000775417 0 0 0.000348885 0 0 0.000682248 0 
0 0.000557755 0 -0 -0.000355315 0 0 0.000493001 0 
0 0.00096095 0 0 0.000474714 0 -0 -0.00085608 0 
-0 -0.000763349 0 -0 -0.000522834 0 -0 -0.000651323 0 
-0 -0.000974828 0 -0 -0.000381129 0 -0 -0.000927172 0 
-0 -0.000959511 0 0 0.000454947 0 0 0.000892141 0 
-0 -0.000980977 0 -0 -0.000910118 0 0 0.000990906 0 
-0 -0.000990673 0 -0 -0.000630006 0 0 0.000999281 0 
-0 -0.000216117 0 -0 -3.29129e-05 0 0 0.000929724 0 
-0 -0.000476478 0 -0 -0.000779916 0 -0 -0.000417603 0 
0 0.000748547 0 -0 -0.000932852 0 0 0.000562024 0 
0 0.000647405 0 0 0.000880886 0 -0 -0.000720388 0 
0 0.000980642 0 0 0.000937216 0 0 0.000913642 0 
-0 -0.00099957 0 0 0.000838606 0 -0 -0.00099856 0 
-0 -0.00079055 0 0 0.000789497 0 -0 -0.000425391 0 
-0 -0.000510826 0 0 0.000837669 0 0 0.00085161 0 

