# vtk DataFile Version 4.0
vtk output
ASCII
DATASET POLYDATA
FIELD FieldData 5
domain 1 4 string
domain_min:0|0
domain_max:2|2
cell_size:2.5|2.5
boundary:0|1

variables 1 5 string
T:0
dt:0.02
write_case:0
substeps:0
all_steps:0

constants 1 5 string
L:5
c_s:2.5
dx:0.1
omega:0.3
eps:0.0833333

equations 1 4 string
initial_noise:r=(r+noise)#eq(T,0)
time:T=(T+dt)#true
velocity:v=dvm(w,eps)#true
integrate:r=euler(r,v,dt)#true

asymmetric 1 1 string
w

POINTS 450 float
0.025 2.2 0 0.075 2.2 0 0.125 2.2 0 
0.175 2.2 0 0.225 2.2 0 0.275 2.2 0 
0.325 2.2 0 0.375 2.2 0 0.425 2.2 0 
0.475 2.2 0 0.525 2.2 0 0.575 2.2 0 
0.625 2.2 0 0.675 2.2 0 0.725 2.2 0 
0.775 2.2 0 0.825 2.2 0 0.875 2.2 0 
0.925 2.2 0 0.975 2.2 0 1.025 2.2 0 
1.075 2.2 0 1.125 2.2 0 1.175 2.2 0 
1.225 2.2 0 1.275 2.2 0 1.325 2.2 0 
1.375 2.2 0 1.425 2.2 0 1.475 2.2 0 
1.525 2.2 0 1.575 2.2 0 1.625 2.2 0 
1.675 2.2 0 1.725 2.2 0 1.775 2.2 0 
1.825 2.2 0 1.875 2.2 0 1.925 2.2 0 
1.975 2.2 0 2.025 2.2 0 2.075 2.2 0 
2.125 2.2 0 2.175 2.2 0 2.225 2.2 0 
2.275 2.2 0 2.325 2.2 0 2.375 2.2 0 
2.425 2.2 0 2.475 2.2 0 2.525 2.2 0 
2.575 2.2 0 2.625 2.2 0 2.675 2.2 0 
2.725 2.2 0 2.775 2.2 0 2.825 2.2 0 
2.875 2.2 0 2.925 2.2 0 2.975 2.2 0 
3.025 2.2 0 3.075 2.2 0 3.125 2.2 0 
3.175 2.2 0 3.225 2.2 0 3.275 2.2 0 
3.325 2.2 0 3.375 2.2 0 3.425 2.2 0 
3.475 2.2 0 3.525 2.2 0 3.575 2.2 0 
3.625 2.2 0 3.675 2.2 0 3.725 2.2 0 
3.775 2.2 0 3.825 2.2 0 3.875 2.2 0 
3.925 2.2 0 3.975 2.2 0 4.025 2.2 0 
4.075 2.2 0 4.125 2.2 0 4.175 2.2 0 
4.225 2.2 0 4.275 2.2 0 4.325 2.2 0 
4.375 2.2 0 4.425 2.2 0 4.475 2.2 0 
4.525 2.2 0 4.575 2.2 0 4.625 2.2 0 
4.675 2.2 0 4.725 2.2 0 4.775 2.2 0 
4.825 2.2 0 4.875 2.2 0 4.925 2.2 0 
4.975 2.2 0 0.01 2.5 0 0.03 2.5 0 
0.05 2.5 0 0.07 2.5 0 0.09 2.5 0 
0.11 2.5 0 0.13 2.5 0 0.15 2.5 0 
0.17 2.5 0 0.19 2.5 0 0.21 2.5 0 
0.23 2.5 0 0.25 2.5 0 0.27 2.5 0 
0.29 2.5 0 0.31 2.5 0 0.33 2.5 0 
0.35 2.5 0 0.37 2.5 0 0.39 2.5 0 
0.41 2.5 0 0.43 2.5 0 0.45 2.5 0 
0.47 2.5 0 0.49 2.5 0 0.51 2.5 0 
0.53 2.5 0 0.55 2.5 0 0.57 2.5 0 
0.59 2.5 0 0.61 2.5 0 0.63 2.5 0 
0.65 2.5 0 0.67 2.5 0 0.69 2.5 0 
0.71 2.5 0 0.73 2.5 0 0.75 2.5 0 
0.77 2.5 0 0.79 2.5 0 0.81 2.5 0 
0.83 2.5 0 0.85 2.5 0 0.87 2.5 0 
0.89 2.5 0 0.91 2.5 0 0.93 2.5 0 
0.95 2.5 0 0.97 2.5 0 0.99 2.5 0 
1.01 2.5 0 1.03 2.5 0 1.05 2.5 0 
1.07 2.5 0 1.09 2.5 0 1.11 2.5 0 
1.13 2.5 0 1.15 2.5 0 1.17 2.5 0 
1.19 2.5 0 1.21 2.5 0 1.23 2.5 0 
1.25 2.5 0 1.27 2.5 0 1.29 2.5 0 
1.31 2.5 0 1.33 2.5 0 1.35 2.5 0 
1.37 2.5 0 1.39 2.5 0 1.41 2.5 0 
1.43 2.5 0 1.45 2.5 0 1.47 2.5 0 
1.49 2.5 0 1.51 2.5 0 1.53 2.5 0 
1.55 2.5 0 1.57 2.5 0 1.59 2.5 0 
1.61 2.5 0 1.63 2.5 0 1.65 2.5 0 
1.67 2.5 0 1.69 2.5 0 1.71 2.5 0 
1.73 2.5 0 1.75 2.5 0 1.77 2.5 0 
1.79 2.5 0 1.81 2.5 0 1.83 2.5 0 
1.85 2.5 0 1.87 2.5 0 1.89 2.5 0 
1.91 2.5 0 1.93 2.5 0 1.95 2.5 0 
1.97 2.5 0 1.99 2.5 0 2.01 2.5 0 
2.03 2.5 0 2.05 2.5 0 2.07 2.5 0 
2.09 2.5 0 2.11 2.5 0 2.13 2.5 0 
2.15 2.5 0 2.17 2.5 0 2.19 2.5 0 
2.21 2.5 0 2.23 2.5 0 2.25 2.5 0 
2.27 2.5 0 2.29 2.5 0 2.31 2.5 0 
2.33 2.5 0 2.35 2.5 0 2.37 2.5 0 
2.39 2.5 0 2.41 2.5 0 2.43 2.5 0 
2.45 2.5 0 2.47 2.5 0 2.49 2.5 0 
2.51 2.5 0 2.53 2.5 0 2.55 2.5 0 
2.57 2.5 0 2.59 2.5 0 2.61 2.5 0 
2.63 2.5 0 2.65 2.5 0 2.67 2.5 0 
2.69 2.5 0 2.71 2.5 0 2.73 2.5 0 
2.75 2.5 0 2.77 2.5 0 2.79 2.5 0 
2.81 2.5 0 2.83 2.5 0 2.85 2.5 0 
2.87 2.5 0 2.89 2.5 0 2.91 2.5 0 
2.93 2.5 0 2.95 2.5 0 2.97 2.5 0 
2.99 2.5 0 3.01 2.5 0 3.03 2.5 0 
3.05 2.5 0 3.07 2.5 0 3.09 2.5 0 
3.11 2.5 0 3.13 2.5 0 3.15 2.5 0 
3.17 2.5 0 3.19 2.5 0 3.21 2.5 0 
3.23 2.5 0 3.25 2.5 0 3.27 2.5 0 
3.29 2.5 0 3.31 2.5 0 3.33 2.5 0 
3.35 2.5 0 3.37 2.5 0 3.39 2.5 0 
3.41 2.5 0 3.43 2.5 0 3.45 2.5 0 
3.47 2.5 0 3.49 2.5 0 3.51 2.5 0 
3.53 2.5 0 3.55 2.5 0 3.57 2.5 0 
3.59 2.5 0 3.61 2.5 0 3.63 2.5 0 
3.65 2.5 0 3.67 2.5 0 3.69 2.5 0 
3.71 2.5 0 3.73 2.5 0 3.75 2.5 0 
3.77 2.5 0 3.79 2.5 0 3.81 2.5 0 
3.83 2.5 0 3.85 2.5 0 3.87 2.5 0 
3.89 2.5 0 3.91 2.5 0 3.93 2.5 0 
3.95 2.5 0 3.97 2.5 0 3.99 2.5 0 
4.01 2.5 0 4.03 2.5 0 4.05 2.5 0 
4.07 2.5 0 4.09 2.5 0 4.11 2.5 0 
4.13 2.5 0 4.15 2.5 0 4.17 2.5 0 
4.19 2.5 0 4.21 2.5 0 4.23 2.5 0 
4.25 2.5 0 4.27 2.5 0 4.29 2.5 0 
4.31 2.5 0 4.33 2.5 0 4.35 2.5 0 
4.37 2.5 0 4.39 2.5 0 4.41 2.5 0 
4.43 2.5 0 4.45 2.5 0 4.47 2.5 0 
4.49 2.5 0 4.51 2.5 0 4.53 2.5 0 
4.55 2.5 0 4.57 2.5 0 4.59 2.5 0 
4.61 2.5 0 4.63 2.5 0 4.65 2.5 0 
4.67 2.5 0 4.69 2.5 0 4.71 2.5 0 
4.73 2.5 0 4.75 2.5 0 4.77 2.5 0 
4.79 2.5 0 4.81 2.5 0 4.83 2.5 0 
4.85 2.5 0 4.87 2.5 0 4.89 2.5 0 
4.91 2.5 0 4.93 2.5 0 4.95 2.5 0 
4.97 2.5 0 4.99 2.5 0 0.025 2.8 0 
0.075 2.8 0 0.125 2.8 0 0.175 2.8 0 
0.225 2.8 0 0.275 2.8 0 0.325 2.8 0 
0.375 2.8 0 0.425 2.8 0 0.475 2.8 0 
0.525 2.8 0 0.575 2.8 0 0.625 2.8 0 
0.675 2.8 0 0.725 2.8 0 0.775 2.8 0 
0.825 2.8 0 0.875 2.8 0 0.925 2.8 0 
0.975 2.8 0 1.025 2.8 0 1.075 2.8 0 
1.125 2.8 0 1.175 2.8 0 1.225 2.8 0 
1.275 2.8 0 1.325 2.8 0 1.375 2.8 0 
1.425 2.8 0 1.475 2.8 0 1.525 2.8 0 
1.575 2.8 0 1.625 2.8 0 1.675 2.8 0 
1.725 2.8 0 1.775 2.8 0 1.825 2.8 0 
1.875 2.8 0 1.925 2.8 0 1.975 2.8 0 
2.025 2.8 0 2.075 2.8 0 2.125 2.8 0 
2.175 2.8 0 2.225 2.8 0 2.275 2.8 0 
2.325 2.8 0 2.375 2.8 0 2.425 2.8 0 
2.475 2.8 0 2.525 2.8 0 2.575 2.8 0 
2.625 2.8 0 2.675 2.8 0 2.725 2.8 0 
2.775 2.8 0 2.825 2.8 0 2.875 2.8 0 
2.925 2.8 0 2.975 2.8 0 3.025 2.8 0 
3.075 2.8 0 3.125 2.8 0 3.175 2.8 0 
3.225 2.8 0 3.275 2.8 0 3.325 2.8 0 
3.375 2.8 0 3.425 2.8 0 3.475 2.8 0 
3.525 2.8 0 3.575 2.8 0 3.625 2.8 0 
3.675 2.8 0 3.725 2.8 0 3.775 2.8 0 
3.825 2.8 0 3.875 2.8 0 3.925 2.8 0 
3.975 2.8 0 4.025 2.8 0 4.075 2.8 0 
4.125 2.8 0 4.175 2.8 0 4.225 2.8 0 
4.275 2.8 0 4.325 2.8 0 4.375 2.8 0 
4.425 2.8 0 4.475 2.8 0 4.525 2.8 0 
4.575 2.8 0 4.625 2.8 0 4.675 2.8 0 
4.725 2.8 0 4.775 2.8 0 4.825 2.8 0 
4.875 2.8 0 4.925 2.8 0 4.975 2.8 0 

VERTICES 900 900
1 0 
1 1 
1 2 
1 3 
1 4 
1 5 
1 6 
1 7 
1 8 
1 9 
1 10 
1 11 
1 12 
1 13 
1 14 
1 15 
1 16 
1 17 
1 18 
1 19 
1 20 
1 21 
1 22 
1 23 
1 24 
1 25 
1 26 
1 27 
1 28 
1 29 
1 30 
1 31 
1 32 
1 33 
1 34 
1 35 
1 36 
1 37 
1 38 
1 39 
1 40 
1 41 
1 42 
1 43 
1 44 
1 45 
1 46 
1 47 
1 48 
1 49 
1 50 
1 51 
1 52 
1 53 
1 54 
1 55 
1 56 
1 57 
1 58 
1 59 
1 60 
1 61 
1 62 
1 63 
1 64 
1 65 
1 66 
1 67 
1 68 
1 69 
1 70 
1 71 
1 72 
1 73 
1 74 
1 75 
1 76 
1 77 
1 78 
1 79 
1 80 
1 81 
1 82 
1 83 
1 84 
1 85 
1 86 
1 87 
1 88 
1 89 
1 90 
1 91 
1 92 
1 93 
1 94 
1 95 
1 96 
1 97 
1 98 
1 99 
1 100 
1 101 
1 102 
1 103 
1 104 
1 105 
1 106 
1 107 
1 108 
1 109 
1 110 
1 111 
1 112 
1 113 
1 114 
1 115 
1 116 
1 117 
1 118 
1 119 
1 120 
1 121 
1 122 
1 123 
1 124 
1 125 
1 126 
1 127 
1 128 
1 129 
1 130 
1 131 
1 132 
1 133 
1 134 
1 135 
1 136 
1 137 
1 138 
1 139 
1 140 
1 141 
1 142 
1 143 
1 144 
1 145 
1 146 
1 147 
1 148 
1 149 
1 150 
1 151 
1 152 
1 153 
1 154 
1 155 
1 156 
1 157 
1 158 
1 159 
1 160 
1 161 
1 162 
1 163 
1 164 
1 165 
1 166 
1 167 
1 168 
1 169 
1 170 
1 171 
1 172 
1 173 
1 174 
1 175 
1 176 
1 177 
1 178 
1 179 
1 180 
1 181 
1 182 
1 183 
1 184 
1 185 
1 186 
1 187 
1 188 
1 189 
1 190 
1 191 
1 192 
1 193 
1 194 
1 195 
1 196 
1 197 
1 198 
1 199 
1 200 
1 201 
1 202 
1 203 
1 204 
1 205 
1 206 
1 207 
1 208 
1 209 
1 210 
1 211 
1 212 
1 213 
1 214 
1 215 
1 216 
1 217 
1 218 
1 219 
1 220 
1 221 
1 222 
1 223 
1 224 
1 225 
1 226 
1 227 
1 228 
1 229 
1 230 
1 231 
1 232 
1 233 
1 234 
1 235 
1 236 
1 237 
1 238 
1 239 
1 240 
1 241 
1 242 
1 243 
1 244 
1 245 
1 246 
1 247 
1 248 
1 249 
1 250 
1 251 
1 252 
1 253 
1 254 
1 255 
1 256 
1 257 
1 258 
1 259 
1 260 
1 261 
1 262 
1 263 
1 264 
1 265 
1 266 
1 267 
1 268 
1 269 
1 270 
1 271 
1 272 
1 273 
1 274 
1 275 
1 276 
1 277 
1 278 
1 279 
1 280 
1 281 
1 282 
1 283 
1 284 
1 285 
1 286 
1 287 
1 288 
1 289 
1 290 
1 291 
1 292 
1 293 
1 294 
1 295 
1 296 
1 297 
1 298 
1 299 
1 300 
1 301 
1 302 
1 303 
1 304 
1 305 
1 306 
1 307 
1 308 
1 309 
1 310 
1 311 
1 312 
1 313 
1 314 
1 315 
1 316 
1 317 
1 318 
1 319 
1 320 
1 321 
1 322 
1 323 
1 324 
1 325 
1 326 
1 327 
1 328 
1 329 
1 330 
1 331 
1 332 
1 333 
1 334 
1 335 
1 336 
1 337 
1 338 
1 339 
1 340 
1 341 
1 342 
1 343 
1 344 
1 345 
1 346 
1 347 
1 348 
1 349 
1 350 
1 351 
1 352 
1 353 
1 354 
1 355 
1 356 
1 357 
1 358 
1 359 
1 360 
1 361 
1 362 
1 363 
1 364 
1 365 
1 366 
1 367 
1 368 
1 369 
1 370 
1 371 
1 372 
1 373 
1 374 
1 375 
1 376 
1 377 
1 378 
1 379 
1 380 
1 381 
1 382 
1 383 
1 384 
1 385 
1 386 
1 387 
1 388 
1 389 
1 390 
1 391 
1 392 
1 393 
1 394 
1 395 
1 396 
1 397 
1 398 
1 399 
1 400 
1 401 
1 402 
1 403 
1 404 
1 405 
1 406 
1 407 
1 408 
1 409 
1 410 
1 411 
1 412 
1 413 
1 414 
1 415 
1 416 
1 417 
1 418 
1 419 
1 420 
1 421 
1 422 
1 423 
1 424 
1 425 
1 426 
1 427 
1 428 
1 429 
1 430 
1 431 
1 432 
1 433 
1 434 
1 435 
1 436 
1 437 
1 438 
1 439 
1 440 
1 441 
1 442 
1 443 
1 444 
1 445 
1 446 
1 447 
1 448 
1 449 

POINT_DATA 450
SCALARS id double
LOOKUP_TABLE default
0 1 2 3 4 5 6 7 8 
9 10 11 12 13 14 15 16 17 
18 19 20 21 22 23 24 25 26 
27 28 29 30 31 32 33 34 35 
36 37 38 39 40 41 42 43 44 
45 46 47 48 49 50 51 52 53 
54 55 56 57 58 59 60 61 62 
63 64 65 66 67 68 69 70 71 
72 73 74 75 76 77 78 79 80 
81 82 83 84 85 86 87 88 89 
90 91 92 93 94 95 96 97 98 
99 100 101 102 103 104 105 106 107 
108 109 110 111 112 113 114 115 116 
117 118 119 120 121 122 123 124 125 
126 127 128 129 130 131 132 133 134 
135 136 137 138 139 140 141 142 143 
144 145 146 147 148 149 150 151 152 
153 154 155 156 157 158 159 160 161 
162 163 164 165 166 167 168 169 170 
171 172 173 174 175 176 177 178 179 
180 181 182 183 184 185 186 187 188 
189 190 191 192 193 194 195 196 197 
198 199 200 201 202 203 204 205 206 
207 208 209 210 211 212 213 214 215 
216 217 218 219 220 221 222 223 224 
225 226 227 228 229 230 231 232 233 
234 235 236 237 238 239 240 241 242 
243 244 245 246 247 248 249 250 251 
252 253 254 255 256 257 258 259 260 
261 262 263 264 265 266 267 268 269 
270 271 272 273 274 275 276 277 278 
279 280 281 282 283 284 285 286 287 
288 289 290 291 292 293 294 295 296 
297 298 299 300 301 302 303 304 305 
306 307 308 309 310 311 312 313 314 
315 316 317 318 319 320 321 322 323 
324 325 326 327 328 329 330 331 332 
333 334 335 336 337 338 339 340 341 
342 343 344 345 346 347 348 349 350 
351 352 353 354 355 356 357 358 359 
360 361 362 363 364 365 366 367 368 
369 370 371 372 373 374 375 376 377 
378 379 380 381 382 383 384 385 386 
387 388 389 390 391 392 393 394 395 
396 397 398 399 400 401 402 403 404 
405 406 407 408 409 410 411 412 413 
414 415 416 417 418 419 420 421 422 
423 424 425 426 427 428 429 430 431 
432 433 434 435 436 437 438 439 440 
441 442 443 444 445 446 447 448 449 

FIELD FieldData 5
r 3 450 double
0.025 2.2 0 0.075 2.2 0 0.125 2.2 0 
0.175 2.2 0 0.225 2.2 0 0.275 2.2 0 
0.325 2.2 0 0.375 2.2 0 0.425 2.2 0 
0.475 2.2 0 0.525 2.2 0 0.575 2.2 0 
0.625 2.2 0 0.675 2.2 0 0.725 2.2 0 
0.775 2.2 0 0.825 2.2 0 0.875 2.2 0 
0.925 2.2 0 0.975 2.2 0 1.025 2.2 0 
1.075 2.2 0 1.125 2.2 0 1.175 2.2 0 
1.225 2.2 0 1.275 2.2 0 1.325 2.2 0 
1.375 2.2 0 1.425 2.2 0 1.475 2.2 0 
1.525 2.2 0 1.575 2.2 0 1.625 2.2 0 
1.675 2.2 0 1.725 2.2 0 1.775 2.2 0 
1.825 2.2 0 1.875 2.2 0 1.925 2.2 0 
1.975 2.2 0 2.025 2.2 0 2.075 2.2 0 
2.125 2.2 0 2.175 2.2 0 2.225 2.2 0 
2.275 2.2 0 2.325 2.2 0 2.375 2.2 0 
2.425 2.2 0 2.475 2.2 0 2.525 2.2 0 
2.575 2.2 0 2.625 2.2 0 2.675 2.2 0 
2.725 2.2 0 2.775 2.2 0 2.825 2.2 0 
2.875 2.2 0 2.925 2.2 0 2.975 2.2 0 
3.025 2.2 0 3.075 2.2 0 3.125 2.2 0 
3.175 2.2 0 3.225 2.2 0 3.275 2.2 0 
3.325 2.2 0 3.375 2.2 0 3.425 2.2 0 
3.475 2.2 0 3.525 2.2 0 3.575 2.2 0 
3.625 2.2 0 3.675 2.2 0 3.725 2.2 0 
3.775 2.2 0 3.825 2.2 0 3.875 2.2 0 
3.925 2.2 0 3.975 2.2 0 4.025 2.2 0 
4.075 2.2 0 4.125 2.2 0 4.175 2.2 0 
4.225 2.2 0 4.275 2.2 0 4.325 2.2 0 
4.375 2.2 0 4.425 2.2 0 4.475 2.2 0 
4.525 2.2 0 4.575 2.2 0 4.625 2.2 0 
4.675 2.2 0 4.725 2.2 0 4.775 2.2 0 
4.825 2.2 0 4.875 2.2 0 4.925 2.2 0 
4.975 2.2 0 0.01 2.5 0 0.03 2.5 0 
0.05 2.5 0 0.07 2.5 0 0.09 2.5 0 
0.11 2.5 0 0.13 2.5 0 0.15 2.5 0 
0.17 2.5 0 0.19 2.5 0 0.21 2.5 0 
0.23 2.5 0 0.25 2.5 0 0.27 2.5 0 
0.29 2.5 0 0.31 2.5 0 0.33 2.5 0 
0.35 2.5 0 0.37 2.5 0 0.39 2.5 0 
0.41 2.5 0 0.43 2.5 0 0.45 2.5 0 
0.47 2.5 0 0.49 2.5 0 0.51 2.5 0 
0.53 2.5 0 0.55 2.5 0 0.57 2.5 0 
0.59 2.5 0 0.61 2.5 0 0.63 2.5 0 
0.65 2.5 0 0.67 2.5 0 0.69 2.5 0 
0.71 2.5 0 0.73 2.5 0 0.75 2.5 0 
0.77 2.5 0 0.79 2.5 0 0.81 2.5 0 
0.83 2.5 0 0.85 2.5 0 0.87 2.5 0 
0.89 2.5 0 0.91 2.5 0 0.93 2.5 0 
0.95 2.5 0 0.97 2.5 0 0.99 2.5 0 
1.01 2.5 0 1.03 2.5 0 1.05 2.5 0 
1.07 2.5 0 1.09 2.5 0 1.11 2.5 0 
1.13 2.5 0 1.15 2.5 0 1.17 2.5 0 
1.19 2.5 0 1.21 2.5 0 1.23 2.5 0 
1.25 2.5 0 1.27 2.5 0 1.29 2.5 0 
1.31 2.5 0 1.33 2.5 0 1.35 2.5 0 
1.37 2.5 0 1.39 2.5 0 1.41 2.5 0 
1.43 2.5 0 1.45 2.5 0 1.47 2.5 0 
1.49 2.5 0 1.51 2.5 0 1.53 2.5 0 
1.55 2.5 0 1.57 2.5 0 1.59 2.5 0 
1.61 2.5 0 1.63 2.5 0 1.65 2.5 0 
1.67 2.5 0 1.69 2.5 0 1.71 2.5 0 
1.73 2.5 0 1.75 2.5 0 1.77 2.5 0 
1.79 2.5 0 1.81 2.5 0 1.83 2.5 0 
1.85 2.5 0 1.87 2.5 0 1.89 2.5 0 
1.91 2.5 0 1.93 2.5 0 1.95 2.5 0 
1.97 2.5 0 1.99 2.5 0 2.01 2.5 0 
2.03 2.5 0 2.05 2.5 0 2.07 2.5 0 
2.09 2.5 0 2.11 2.5 0 2.13 2.5 0 
2.15 2.5 0 2.17 2.5 0 2.19 2.5 0 
2.21 2.5 0 2.23 2.5 0 2.25 2.5 0 
2.27 2.5 0 2.29 2.5 0 2.31 2.5 0 
2.33 2.5 0 2.35 2.5 0 2.37 2.5 0 
2.39 2.5 0 2.41 2.5 0 2.43 2.5 0 
2.45 2.5 0 2.47 2.5 0 2.49 2.5 0 
2.51 2.5 0 2.53 2.5 0 2.55 2.5 0 
2.57 2.5 0 2.59 2.5 0 2.61 2.5 0 
2.63 2.5 0 2.65 2.5 0 2.67 2.5 0 
2.69 2.5 0 2.71 2.5 0 2.73 2.5 0 
2.75 2.5 0 2.77 2.5 0 2.79 2.5 0 
2.81 2.5 0 2.83 2.5 0 2.85 2.5 0 
2.87 2.5 0 2.89 2.5 0 2.91 2.5 0 
2.93 2.5 0 2.95 2.5 0 2.97 2.5 0 
2.99 2.5 0 3.01 2.5 0 3.03 2.5 0 
3.05 2.5 0 3.07 2.5 0 3.09 2.5 0 
3.11 2.5 0 3.13 2.5 0 3.15 2.5 0 
3.17 2.5 0 3.19 2.5 0 3.21 2.5 0 
3.23 2.5 0 3.25 2.5 0 3.27 2.5 0 
3.29 2.5 0 3.31 2.5 0 3.33 2.5 0 
3.35 2.5 0 3.37 2.5 0 3.39 2.5 0 
3.41 2.5 0 3.43 2.5 0 3.45 2.5 0 
3.47 2.5 0 3.49 2.5 0 3.51 2.5 0 
3.53 2.5 0 3.55 2.5 0 3.57 2.5 0 
3.59 2.5 0 3.61 2.5 0 3.63 2.5 0 
3.65 2.5 0 3.67 2.5 0 3.69 2.5 0 
3.71 2.5 0 3.73 2.5 0 3.75 2.5 0 
3.77 2.5 0 3.79 2.5 0 3.81 2.5 0 
3.83 2.5 0 3.85 2.5 0 3.87 2.5 0 
3.89 2.5 0 3.91 2.5 0 3.93 2.5 0 
3.95 2.5 0 3.97 2.5 0 3.99 2.5 0 
4.01 2.5 0 4.03 2.5 0 4.05 2.5 0 
4.07 2.5 0 4.09 2.5 0 4.11 2.5 0 
4.13 2.5 0 4.15 2.5 0 4.17 2.5 0 
4.19 2.5 0 4.21 2.5 0 4.23 2.5 0 
4.25 2.5 0 4.27 2.5 0 4.29 2.5 0 
4.31 2.5 0 4.33 2.5 0 4.35 2.5 0 
4.37 2.5 0 4.39 2.5 0 4.41 2.5 0 
4.43 2.5 0 4.45 2.5 0 4.47 2.5 0 
4.49 2.5 0 4.51 2.5 0 4.53 2.5 0 
4.55 2.5 0 4.57 2.5 0 4.59 2.5 0 
4.61 2.5 0 4.63 2.5 0 4.65 2.5 0 
4.67 2.5 0 4.69 2.5 0 4.71 2.5 0 
4.73 2.5 0 4.75 2.5 0 4.77 2.5 0 
4.79 2.5 0 4.81 2.5 0 4.83 2.5 0 
4.85 2.5 0 4.87 2.5 0 4.89 2.5 0 
4.91 2.5 0 4.93 2.5 0 4.95 2.5 0 
4.97 2.5 0 4.99 2.5 0 0.025 2.8 0 
0.075 2.8 0 0.125 2.8 0 0.175 2.8 0 
0.225 2.8 0 0.275 2.8 0 0.325 2.8 0 
0.375 2.8 0 0.425 2.8 0 0.475 2.8 0 
0.525 2.8 0 0.575 2.8 0 0.625 2.8 0 
0.675 2.8 0 0.725 2.8 0 0.775 2.8 0 
0.825 2.8 0 0.875 2.8 0 0.925 2.8 0 
0.975 2.8 0 1.025 2.8 0 1.075 2.8 0 
1.125 2.8 0 1.175 2.8 0 1.225 2.8 0 
1.275 2.8 0 1.325 2.8 0 1.375 2.8 0 
1.425 2.8 0 1.475 2.8 0 1.525 2.8 0 
1.575 2.8 0 1.625 2.8 0 1.675 2.8 0 
1.725 2.8 0 1.775 2.8 0 1.825 2.8 0 
1.875 2.8 0 1.925 2.8 0 1.975 2.8 0 
2.025 2.8 0 2.075 2.8 0 2.125 2.8 0 
2.175 2.8 0 2.225 2.8 0 2.275 2.8 0 
2.325 2.8 0 2.375 2.8 0 2.425 2.8 0 
2.475 2.8 0 2.525 2.8 0 2.575 2.8 0 
2.625 2.8 0 2.675 2.8 0 2.725 2.8 0 
2.775 2.8 0 2.825 2.8 0 2.875 2.8 0 
2.925 2.8 0 2.975 2.8 0 3.025 2.8 0 
3.075 2.8 0 3.125 2.8 0 3.175 2.8 0 
3.225 2.8 0 3.275 2.8 0 3.325 2.8 0 
3.375 2.8 0 3.425 2.8 0 3.475 2.8 0 
3.525 2.8 0 3.575 2.8 0 3.625 2.8 0 
3.675 2.8 0 3.725 2.8 0 3.775 2.8 0 
3.825 2.8 0 3.875 2.8 0 3.925 2.8 0 
3.975 2.8 0 4.025 2.8 0 4.075 2.8 0 
4.125 2.8 0 4.175 2.8 0 4.225 2.8 0 
4.275 2.8 0 4.325 2.8 0 4.375 2.8 0 
4.425 2.8 0 4.475 2.8 0 4.525 2.8 0 
4.575 2.8 0 4.625 2.8 0 4.675 2.8 0 
4.725 2.8 0 4.775 2.8 0 4.825 2.8 0 
4.875 2.8 0 4.925 2.8 0 4.975 2.8 0 

gid 1 450 double
-1 -1 -1 -1 -1 -1 -1 -1 -1 
-1 -1 -1 -1 -1 -1 -1 -1 -1 
-1 -1 -1 -1 -1 -1 -1 -1 -1 
-1 -1 -1 -1 -1 -1 -1 -1 -1 
-1 -1 -1 -1 -1 -1 -1 -1 -1 
-1 -1 -1 -1 -1 -1 -1 -1 -1 
-1 -1 -1 -1 -1 -1 -1 -1 -1 
-1 -1 -1 -1 -1 -1 -1 -1 -1 
-1 -1 -1 -1 -1 -1 -1 -1 -1 
-1 -1 -1 -1 -1 -1 -1 -1 -1 
-1 -1 -1 -1 -1 -1 -1 -1 -1 
-1 0 0 0 0 0 0 0 0 
0 0 0 0 0 0 0 0 0 
0 0 0 0 0 0 0 0 0 
0 0 0 0 0 0 0 0 0 
0 0 0 0 0 0 0 0 0 
0 0 0 0 0 0 0 0 0 
0 0 0 0 0 0 0 0 0 
0 0 0 0 0 0 0 0 0 
0 0 0 0 0 0 0 0 0 
0 0 0 0 0 0 0 0 0 
0 0 0 0 0 0 0 0 0 
0 0 0 0 0 0 0 0 0 
0 0 0 0 0 0 0 0 0 
0 0 0 0 0 0 0 0 0 
0 0 0 0 0 0 0 0 0 
0 0 0 0 0 0 0 0 0 
0 0 0 0 0 0 0 0 0 
0 0 0 0 0 0 0 0 0 
0 0 0 0 0 0 0 0 0 
0 0 0 0 0 0 0 0 0 
0 0 0 0 0 0 0 0 0 
0 0 0 0 0 0 0 0 0 
0 0 0 0 0 0 0 0 0 
0 0 0 0 0 0 0 0 0 
0 0 0 0 0 0 0 0 0 
0 0 0 0 0 0 0 0 0 
0 0 0 0 0 0 0 0 0 
0 0 0 0 0 0 0 0 1 
1 1 1 1 1 1 1 1 1 
1 1 1 1 1 1 1 1 1 
1 1 1 1 1 1 1 1 1 
1 1 1 1 1 1 1 1 1 
1 1 1 1 1 1 1 1 1 
1 1 1 1 1 1 1 1 1 
1 1 1 1 1 1 1 1 1 
1 1 1 1 1 1 1 1 1 
1 1 1 1 1 1 1 1 1 
1 1 1 1 1 1 1 1 1 
1 1 1 1 1 1 1 1 1 

w 1 450 double
-0.3 -0.3 -0.3 -0.3 -0.3 -0.3 -0.3 -0.3 -0.3 
-0.3 -0.3 -0.3 -0.3 -0.3 -0.3 -0.3 -0.3 -0.3 
-0.3 -0.3 -0.3 -0.3 -0.3 -0.3 -0.3 -0.3 -0.3 
-0.3 -0.3 -0.3 -0.3 -0.3 -0.3 -0.3 -0.3 -0.3 
-0.3 -0.3 -0.3 -0.3 -0.3 -0.3 -0.3 -0.3 -0.3 
-0.3 -0.3 -0.3 -0.3 -0.3 -0.3 -0.3 -0.3 -0.3 
-0.3 -0.3 -0.3 -0.3 -0.3 -0.3 -0.3 -0.3 -0.3 
-0.3 -0.3 -0.3 -0.3 -0.3 -0.3 -0.3 -0.3 -0.3 
-0.3 -0.3 -0.3 -0.3 -0.3 -0.3 -0.3 -0.3 -0.3 
-0.3 -0.3 -0.3 -0.3 -0.3 -0.3 -0.3 -0.3 -0.3 
-0.3 -0.3 -0.3 -0.3 -0.3 -0.3 -0.3 -0.3 -0.3 
-0.3 0 0 0 0 0 0 0 0 
0 0 0 0 0 0 0 0 0 
0 0 0 0 0 0 0 0 0 
0 0 0 0 0 0 0 0 0 
0 0 0 0 0 0 0 0 0 
0 0 0 0 0 0 0 0 0 
0 0 0 0 0 0 0 0 0 
0 0 0 0 0 0 0 0 0 
0 0 0 0 0 0 0 0 0 
0 0 0 0 0 0 0 0 0 
0 0 0 0 0 0 0 0 0 
0 0 0 0 0 0 0 0 0 
0 0 0 0 0 0 0 0 0 
0 0 0 0 0 0 0 0 0 
0 0 0 0 0 0 0 0 0 
0 0 0 0 0 0 0 0 0 
0 0 0 0 0 0 0 0 0 
0 0 0 0 0 0 0 0 0 
0 0 0 0 0 0 0 0 0 
0 0 0 0 0 0 0 0 0 
0 0 0 0 0 0 0 0 0 
0 0 0 0 0 0 0 0 0 
0 0 0 0 0 0 0 0 0 
0 0 0 0 0 0 0 0 0 
0 0 0 0 0 0 0 0 0 
0 0 0 0 0 0 0 0 0 
0 0 0 0 0 0 0 0 0 
0 0 0 0 0 0 0 0 0.3 
0.3 0.3 0.3 0.3 0.3 0.3 0.3 0.3 0.3 
0.3 0.3 0.3 0.3 0.3 0.3 0.3 0.3 0.3 
0.3 0.3 0.3 0.3 0.3 0.3 0.3 0.3 0.3 
0.3 0.3 0.3 0.3 0.3 0.3 0.3 0.3 0.3 
0.3 0.3 0.3 0.3 0.3 0.3 0.3 0.3 0.3 
0.3 0.3 0.3 0.3 0.3 0.3 0.3 0.3 0.3 
0.3 0.3 0.3 0.3 0.3 0.3 0.3 0.3 0.3 
0.3 0.3 0.3 0.3 0.3 0.3 0.3 0.3 0.3 
0.3 0.3 0.3 0.3 0.3 0.3 0.3 0.3 0.3 
0.3 0.3 0.3 0.3 0.3 0.3 0.3 0.3 0.3 
0.3 0.3 0.3 0.3 0.3 0.3 0.3 0.3 0.3 

v 3 450 double
0 0 0 0 0 0 0 0 0 
0 0 0 0 0 0 0 0 0 
0 0 0 0 0 0 0 0 0 
0 0 0 0 0 0 0 0 0 
0 0 0 0 0 0 0 0 0 
0 0 0 0 0 0 0 0 0 
0 0 0 0 0 0 0 0 0 
0 0 0 0 0 0 0 0 0 
0 0 0 0 0 0 0 0 0 
0 0 0 0 0 0 0 0 0 
0 0 0 0 0 0 0 0 0 
0 0 0 0 0 0 0 0 0 
0 0 0 0 0 0 0 0 0 
0 0 0 0 0 0 0 0 0 
0 0 0 0 0 0 0 0 0 
0 0 0 0 0 0 0 0 0 
0 0 0 0 0 0 0 0 0 
0 0 0 0 0 0 0 0 0 
0 0 0 0 0 0 0 0 0 
0 0 0 0 0 0 0 0 0 
0 0 0 0 0 0 0 0 0 
0 0 0 0 0 0 0 0 0 
0 0 0 0 0 0 0 0 0 
0 0 0 0 0 0 0 0 0 
0 0 0 0 0 0 0 0 0 
0 0 0 0 0 0 0 0 0 
0 0 0 0 0 0 0 0 0 
0 0 0 0 0 0 0 0 0 
0 0 0 0 0 0 0 0 0 
0 0 0 0 0 0 0 0 0 
0 0 0 0 0 0 0 0 0 
0 0 0 0 0 0 0 0 0 
0 0 0 0 0 0 0 0 0 
0 0 0 0 0 0 0 0 0 
0 0 0 0 0 0 0 0 0 
0 0 0 0 0 0 0 0 0 
0 0 0 0 0 0 0 0 0 
0 0 0 0 0 0 0 0 0 
0 0 0 0 0 0 0 0 0 
0 0 0 0 0 0 0 0 0 
0 0 0 0 0 0 0 0 0 
0 0 0 0 0 0 0 0 0 
0 0 0 0 0 0 0 0 0 
0 0 0 0 0 0 0 0 0 
0 0 0 0 0 0 0 0 0 
0 0 0 0 0 0 0 0 0 
0 0 0 0 0 0 0 0 0 
0 0 0 0 0 0 0 0 0 
0 0 0 0 0 0 0 0 0 
0 0 0 0 0 0 0 0 0 
0 0 0 0 0 0 0 0 0 
0 0 0 0 0 0 0 0 0 
0 0 0 0 0 0 0 0 0 
0 0 0 0 0 0 0 0 0 
0 0 0 0 0 0 0 0 0 
0 0 0 0 0 0 0 0 0 
0 0 0 0 0 0 0 0 0 
0 0 0 0 0 0 0 0 0 
0 0 0 0 0 0 0 0 0 
0 0 0 0 0 0 0 0 0 
0 0 0 0 0 0 0 0 0 
0 0 0 0 0 0 0 0 0 
0 0 0 0 0 0 0 0 0 
0 0 0 0 0 0 0 0 0 
0 0 0 0 0 0 0 0 0 
0 0 0 0 0 0 0 0 0 
0 0 0 0 0 0 0 0 0 
0 0 0 0 0 0 0 0 0 
0 0 0 0 0 0 0 0 0 
0 0 0 0 0 0 0 0 0 
0 0 0 0 0 0 0 0 0 
0 0 0 0 0 0 0 0 0 
0 0 0 0 0 0 0 0 0 
0 0 0 0 0 0 0 0 0 
0 0 0 0 0 0 0 0 0 
0 0 0 0 0 0 0 0 0 
0 0 0 0 0 0 0 0 0 
0 0 0 0 0 0 0 0 0 
0 0 0 0 0 0 0 0 0 
0 0 0 0 0 0 0 0 0 
0 0 0 0 0 0 0 0 0 
0 0 0 0 0 0 0 0 0 
0 0 0 0 0 0 0 0 0 
0 0 0 0 0 0 0 0 0 
0 0 0 0 0 0 0 0 0 
0 0 0 0 0 0 0 0 0 
0 0 0 0 0 0 0 0 0 
0 0 0 0 0 0 0 0 0 
0 0 0 0 0 0 0 0 0 
0 0 0 0 0 0 0 0 0 
0 0 0 0 0 0 0 0 0 
0 0 0 0 0 0 0 0 0 
0 0 0 0 0 0 0 0 0 
0 0 0 0 0 0 0 0 0 
0 0 0 0 0 0 0 0 0 
0 0 0 0 0 0 0 0 0 
0 0 0 0 0 0 0 0 0 
0 0 0 0 0 0 0 0 0 
0 0 0 0 0 0 0 0 0 
0 0 0 0 0 0 0 0 0 
0 0 0 0 0 0 0 0 0 
0 0 0 0 0 0 0 0 0 
0 0 0 0 0 0 0 0 0 
0 0 0 0 0 0 0 0 0 
0 0 0 0 0 0 0 0 0 
0 0 0 0 0 0 0 0 0 
0 0 0 0 0 0 0 0 0 
0 0 0 0 0 0 0 0 0 
0 0 0 0 0 0 0 0 0 
0 0 0 0 0 0 0 0 0 
0 0 0 0 0 0 0 0 0 
0 0 0 0 0 0 0 0 0 
0 0 0 0 0 0 0 0 0 
0 0 0 0 0 0 0 0 0 
0 0 0 0 0 0 0 0 0 
0 0 0 0 0 0 0 0 0 
0 0 0 0 0 0 0 0 0 
0 0 0 0 0 0 0 0 0 
0 0 0 0 0 0 0 0 0 
0 0 0 0 0 0 0 0 0 
0 0 0 0 0 0 0 0 0 
0 0 0 0 0 0 0 0 0 
0 0 0 0 0 0 0 0 0 
0 0 0 0 0 0 0 0 0 
0 0 0 0 0 0 0 0 0 
0 0 0 0 0 0 0 0 0 
0 0 0 0 0 0 0 0 0 
0 0 0 0 0 0 0 0 0 
0 0 0 0 0 0 0 0 0 
0 0 0 0 0 0 0 0 0 
0 0 0 0 0 0 0 0 0 
0 0 0 0 0 0 0 0 0 
0 0 0 0 0 0 0 0 0 
0 0 0 0 0 0 0 0 0 
0 0 0 0 0 0 0 0 0 
0 0 0 0 0 0 0 0 0 
0 0 0 0 0 0 0 0 0 
0 0 0 0 0 0 0 0 0 
0 0 0 0 0 0 0 0 0 
0 0 0 0 0 0 0 0 0 
0 0 0 0 0 0 0 0 0 
0 0 0 0 0 0 0 0 0 
0 0 0 0 0 0 0 0 0 
0 0 0 0 0 0 0 0 0 
0 0 0 0 0 0 0 0 0 
0 0 0 0 0 0 0 0 0 
0 0 0 0 0 0 0 0 0 
0 0 0 0 0 0 0 0 0 
0 0 0 0 0 0 0 0 0 
0 0 0 0 0 0 0 0 0 

noise 3 450 double
0 0.000197634 0 0 0.000562024 0 0 0.000838606 0 
0 0.000984166 0 0 0.000975964 0 0 0.00081528 0 
0 0.000527219 0 0 0.000156788 0 -0 -0.00023814 0 
-0 -0.000595861 0 -0 -0.000860487 0 -0 -0.000990673 0 
-0 -0.00096608 0 -0 -0.00079055 0 -0 -0.000491506 0 
-0 -0.000115672 0 0 0.000278235 0 0 0.000628671 0 
0 0.000880886 0 0 0.000995474 0 0 0.000954532 0 
0 0.000764458 0 0 0.000454947 0 0 7.43564e-05 0 
-0 -0.000317851 0 -0 -0.000660399 0 -0 -0.000899768 0 
-0 -0.00099856 0 -0 -0.00094134 0 -0 -0.000737049 0 
-0 -0.000417603 0 -0 -3.29129e-05 0 0 0.00035692 0 
0 0.000690989 0 0 0.0009171 0 0 0.000999926 0 
0 0.000926527 0 0 0.000708371 0 0 0.000379541 0 
-0 -8.58726e-06 0 -0 -0.000395374 0 -0 -0.000720388 0 
-0 -0.000932852 0 -0 -0.00099957 0 -0 -0.000910118 0 
-0 -0.000678472 0 -0 -0.000340825 0 0 5.00726e-05 0 
0 0.000433147 0 0 0.000748547 0 0 0.000946997 0 
0 0.000997491 0 0 0.000892141 0 0 0.000647405 0 
0 0.000301521 0 -0 -9.14717e-05 0 -0 -0.000470173 0 
-0 -0.000775417 0 -0 -0.000959511 0 -0 -0.000993695 0 
-0 -0.000872627 0 -0 -0.000615223 0 -0 -0.000261698 0 
0 0.000132713 0 0 0.00050639 0 0 0.00080095 0 
0 0.000970373 0 0 0.000988187 0 0 0.00085161 0 
0 0.000581981 0 0 0.000221425 0 -0 -0.000173726 0 
-0 -0.000541735 0 -0 -0.000825104 0 -0 -0.000979562 0 
-0 -0.000980977 0 -0 -0.000829127 0 -0 -0.000547736 0 
-0 -0.00018077 0 0 0.00021444 0 0 0.000576146 0 
0 0.000847837 0 0 0.000987065 0 0 0.000972077 0 
0 0.000805215 0 0 0.000512548 0 0 0.000139803 0 
-0 -0.000254784 0 -0 -0.000609565 0 -0 -0.00086911 0 
-0 -0.000992867 0 -0 -0.000961502 0 -0 -0.000779916 0 
-0 -0.000476478 0 -0 -9.85961e-05 0 0 0.00029469 0 
0 0.000641934 0 0 0.000888885 0 0 0.000996959 0 
0 0.000949272 0 0 7.94935e-05 0 0 0.000236471 0 
0 0.000387472 0 0 0.000528678 0 0 0.000656521 0 
0 0.000767769 0 0 0.000859611 0 0 0.000929724 0 
0 0.000976336 0 0 0.00099827 0 0 0.000994971 0 
0 0.000966522 0 0 0.000913642 0 0 0.000837669 0 
0 0.000740521 0 0 0.000624656 0 0 0.000493001 0 
0 0.000348885 0 0 0.00019595 0 0 3.80621e-05 0 
-0 -0.000120788 0 -0 -0.000276585 0 -0 -0.000425391 0 
-0 -0.000563444 0 -0 -0.000687255 0 -0 -0.000793694 0 
-0 -0.000880072 0 -0 -0.000944204 0 -0 -0.000984469 0 
-0 -0.00099985 0 -0 -0.000989958 0 -0 -0.000955043 0 
-0 -0.000895987 0 -0 -0.000814284 0 -0 -0.000711998 0 
-0 -0.000591715 0 -0 -0.000456476 0 -0 -0.000309698 0 
-0 -0.000155091 0 0 3.43494e-06 0 0 0.000161874 0 
0 0.000316222 0 0 0.000462577 0 0 0.000597239 0 
0 0.000716805 0 0 0.000818253 0 0 0.000899017 0 
0 0.000957057 0 0 0.000990906 0 0 0.000999707 0 
0 0.00098324 0 0 0.000941919 0 0 0.000876789 0 
0 0.000789497 0 0 0.000682248 0 0 0.000557755 0 
0 0.000419163 0 0 0.000269977 0 0 0.000113966 0 
-0 -4.4926e-05 0 -0 -0.000202682 0 -0 -0.000355315 0 
-0 -0.000498967 0 -0 -0.000630006 0 -0 -0.000745121 0 
-0 -0.000841401 0 -0 -0.000916414 0 -0 -0.000968262 0 
-0 -0.000995636 0 -0 -0.000997843 0 -0 -0.000974828 0 
-0 -0.000927172 0 -0 -0.00085608 0 -0 -0.000763349 0 
-0 -0.000651323 0 -0 -0.000522834 0 -0 -0.000381129 0 
-0 -0.000229791 0 -0 -7.26435e-05 0 0 8.63397e-05 0 
0 0.000243141 0 0 0.000393796 0 0 0.000534497 0 
0 0.000661687 0 0 0.000772153 0 0 0.0008631 0 
0 0.000932232 0 0 0.000977799 0 0 0.000998651 0 
0 0.00099426 0 0 0.000964737 0 0 0.000910828 0 
0 0.000833897 0 0 0.000735887 0 0 0.000619277 0 
0 0.000487013 0 0 0.000342439 0 0 0.000189209 0 
0 3.11963e-05 0 -0 -0.000127605 0 -0 -0.00028318 0 
-0 -0.000431598 0 -0 -0.000569106 0 -0 -0.000692229 0 
-0 -0.000797855 0 -0 -0.000883313 0 -0 -0.000946444 0 
-0 -0.000985652 0 -0 -0.000999945 0 -0 -0.000988964 0 
-0 -0.000952984 0 -0 -0.000892915 0 -0 -0.000810277 0 
-0 -0.000707157 0 -0 -0.000586163 0 -0 -0.000450352 0 
-0 -0.000303158 0 -0 -0.000148301 0 0 1.03047e-05 0 
0 0.00016865 0 0 0.000322732 0 0 0.000468657 0 
0 0.000602735 0 0 0.000721578 0 0 0.000822182 0 
0 0.000902004 0 0 0.000959026 0 0 0.000991807 0 
0 0.000999518 0 0 0.000981964 0 0 0.000939589 0 
0 0.000873465 0 0 0.000785262 0 0 0.00067721 0 
0 0.00055204 0 0 0.000412916 0 0 0.000263355 0 
0 0.000107138 0 -0 -5.17879e-05 0 -0 -0.000209405 0 
-0 -0.000361728 0 -0 -0.000504908 0 -0 -0.000635326 0 
-0 -0.000749685 0 -0 -0.000845094 0 -0 -0.000919142 0 
-0 -0.000969956 0 -0 -0.000996253 0 -0 -0.000997368 0 
-0 -0.000973273 0 -0 -0.000924576 0 -0 -0.000852509 0 
-0 -0.000758894 0 -0 -0.000646095 0 -0 -0.000516966 0 
-0 -0.000374769 0 -0 -0.000223099 0 -0 -6.57901e-05 0 
0 9.31819e-05 0 0 0.000249799 0 0 0.000400101 0 
0 0.00054029 0 0 0.000666823 0 0 0.0007765 0 
0 0.00086655 0 0 0.000934696 0 0 0.000979215 0 
0 0.000998984 0 0 0.000993501 0 0 0.000962906 0 
0 0.000907971 0 0 0.000830086 0 0 0.000731218 0 
0 0.000613868 0 0 0.000481001 0 0 0.000335976 0 
0 0.000182459 0 0 2.43291e-05 0 -0 -0.000134415 0 
-0 -0.000289762 0 -0 -0.000437785 0 -0 -0.000574742 0 
-0 -0.000697171 0 -0 -0.000801977 0 -0 -0.000886513 0 
-0 -0.00094864 0 -0 -0.000986788 0 -0 -0.000999994 0 
-0 -0.000987922 0 -0 -0.00095088 0 -0 -0.000889801 0 
-0 -0.000806232 0 -0 -0.000702283 0 -0 -0.000580583 0 
-0 -0.000444208 0 -0 -0.000296604 0 -0 -0.000141504 0 
0 1.71739e-05 0 0 0.000175417 0 0 0.000329227 0 
0 0.000474714 0 0 0.000608203 0 0 0.000726318 0 
0 0.000826073 0 0 0.000904949 0 0 0.00096095 0 
0 0.000992661 0 0 0.000999281 0 0 0.000980642 0 
0 0.000937216 0 0 0.000870099 0 0 0.00078099 0 
0 0.000672139 0 0 0.000546299 0 0 0.00040665 0 
0 0.000256722 0 0 0.000100305 0 -0 -5.86473e-05 0 
-0 -0.000216117 0 -0 -0.000368124 0 -0 -0.000510826 0 
-0 -0.000640616 0 -0 -0.000754214 0 -0 -0.000848747 0 
-0 -0.000921826 0 -0 -0.000971605 0 -0 -0.000996824 0 
-0 -0.000996847 0 -0 -0.000971672 0 -0 -0.000921937 0 
-0 -0.000848898 0 -0 -0.000754402 0 -0 -0.000640837 0 
-0 -0.000511073 0 -0 -0.000368391 0 -0 -0.000216397 0 
-0 -5.89336e-05 0 0 0.00010002 0 0 0.000256445 0 
0 0.000406388 0 0 0.000546058 0 0 0.000671926 0 
0 0.00078081 0 0 0.000869958 0 0 0.000937115 0 
0 0.000980586 0 0 0.00099927 0 0 0.000992696 0 
0 0.000961029 0 0 0.000905071 0 0 0.000197634 0 
0 0.000562024 0 0 0.000838606 0 0 0.000984166 0 
0 0.000975964 0 0 0.00081528 0 0 0.000527219 0 
0 0.000156788 0 -0 -0.00023814 0 -0 -0.000595861 0 
-0 -0.000860487 0 -0 -0.000990673 0 -0 -0.00096608 0 
-0 -0.00079055 0 -0 -0.000491506 0 -0 -0.000115672 0 
0 0.000278235 0 0 0.000628671 0 0 0.000880886 0 
0 0.000995474 0 0 0.000954532 0 0 0.000764458 0 
0 0.000454947 0 0 7.43564e-05 0 -0 -0.000317851 0 
-0 -0.000660399 0 -0 -0.000899768 0 -0 -0.00099856 0 
-0 -0.00094134 0 -0 -0.000737049 0 -0 -0.000417603 0 
-0 -3.29129e-05 0 0 0.00035692 0 0 0.000690989 0 
0 0.0009171 0 0 0.000999926 0 0 0.000926527 0 
0 0.000708371 0 0 0.000379541 0 -0 -8.58726e-06 0 
-0 -0.000395374 0 -0 -0.000720388 0 -0 -0.000932852 0 
-0 -0.00099957 0 -0 -0.000910118 0 -0 -0.000678472 0 
-0 -0.000340825 0 0 5.00726e-05 0 0 0.000433147 0 
0 0.000748547 0 0 0.000946997 0 0 0.000997491 0 
0 0.000892141 0 0 0.000647405 0 0 0.000301521 0 
-0 -9.14717e-05 0 -0 -0.000470173 0 -0 -0.000775417 0 
-0 -0.000959511 0 -0 -0.000993695 0 -0 -0.000872627 0 
-0 -0.000615223 0 -0 -0.000261698 0 0 0.000132713 0 
0 0.00050639 0 0 0.00080095 0 0 0.000970373 0 
0 0.000988187 0 0 0.00085161 0 0 0.000581981 0 
0 0.000221425 0 -0 -0.000173726 0 -0 -0.000541735 0 
-0 -0.000825104 0 -0 -0.000979562 0 -0 -0.000980977 0 
-0 -0.000829127 0 -0 -0.000547736 0 -0 -0.00018077 0 
0 0.00021444 0 0 0.000576146 0 0 0.000847837 0 
0 0.000987065 0 0 0.000972077 0 0 0.000805215 0 
0 0.000512548 0 0 0.000139803 0 -0 -0.000254784 0 
-0 -0.000609565 0 -0 -0.00086911 0 -0 -0.000992867 0 
-0 -0.000961502 0 -0 -0.000779916 0 -0 -0.000476478 0 
-0 -9.85961e-05 0 0 0.00029469 0 0 0.000641934 0 
0 0.000888885 0 0 0.000996959 0 0 0.000949272 0 

