# vtk DataFile Version 4.0
vtk output
ASCII
DATASET POLYDATA
FIELD FieldData 5
domain 1 4 string
domain_min:0|0
domain_max:2|2
cell_size:2.5|2.5
boundary:0|1

variables 1 5 string
T:1.12
dt:0.02
write_case:1
substeps:1
all_steps:56

constants 1 5 string
L:5
c_s:2.5
dx:0.1
omega:0.3
eps:0.0833333

equations 1 4 string
initial_noise:r=(r+noise)#eq(T,0)
time:T=(T+dt)#true
velocity:v=dvm(w,eps)#true
integrate:r=euler(r,v,dt)#true

asymmetric 1 1 string
w

POINTS 450 float
0.560881 2.22 0 1.72404 2.19037 0 0.0201372 2.32796 0 
1.0363 2.20566 0 0.443841 2.17305 0 1.35949 2.40562 0 
1.16589 2.22385 0 0.458435 2.36574 0 1.38665 2.40966 0 
0.631089 2.39033 0 1.12374 2.0454 0 0.00720527 2.33533 0 
0.232014 2.32085 0 1.48671 2.32176 0 0.0256451 2.18776 0 
1.40209 2.37679 0 0.0266477 2.33079 0 0.705415 2.31901 0 
1.44994 2.33994 0 0.747997 2.27851 0 1.33991 1.99823 0 
1.61613 2.32226 0 1.45475 2.40926 0 1.42844 2.35614 0 
2.25265 2.25432 0 2.10092 2.39828 0 2.46625 2.39282 0 
2.46662 2.38946 0 2.47997 2.38589 0 2.43649 2.41184 0 
2.44654 2.40638 0 2.42676 2.42739 0 2.43797 2.41633 0 
2.27331 2.39082 0 2.28689 2.47183 0 2.20235 2.43718 0 
1.51258 2.29752 0 1.41195 2.37053 0 2.14872 2.41573 0 
1.46592 2.32928 0 2.24741 2.46108 0 2.36511 2.45583 0 
1.74136 2.07286 0 0.75114 2.15424 0 1.14218 2.31825 0 
2.06619 2.37742 0 1.83267 2.27662 0 1.37466 2.39546 0 
2.20064 2.06292 0 0.879744 2.41527 0 1.10504 2.25084 0 
2.35351 2.49734 0 2.24154 2.31419 0 1.26509 2.34699 0 
0.981023 2.33324 0 0.915254 2.36964 0 0.254323 2.46799 0 
1.53601 2.29255 0 1.81382 2.17546 0 0.98755 2.41451 0 
0.546649 2.10107 0 1.51702 2.43572 0 1.66092 1.98225 0 
1.96415 2.08784 0 1.55436 2.28304 0 2.43253 1.92483 0 
0.751216 2.43557 0 0.0700509 2.42731 0 1.93981 2.4985 0 
1.50255 2.12681 0 1.92579 2.16045 0 1.94157 1.99878 0 
0.316558 2.37599 0 1.46382 2.05563 0 1.26137 2.43677 0 
1.14041 2.12817 0 1.3555 2.23963 0 1.3089 2.43703 0 
1.55893 2.29177 0 1.04264 2.1525 0 0.00216981 2.29061 0 
1.38903 2.42472 0 0.334292 2.19455 0 0.0280344 2.32939 0 
1.21039 2.11526 0 1.97429 2.42932 0 1.64025 2.35262 0 
2.03083 2.38233 0 1.86022 1.95719 0 2.38166 2.44716 0 
2.37587 2.47195 0 2.41843 2.31974 0 2.32155 2.47118 0 
1.20489 2.37828 0 2.39457 2.43951 0 2.0652 2.20562 0 
2.26068 2.1441 0 0.0211881 2.33283 0 4.81884 2.36375 0 
4.81293 2.41201 0 3.14111 2.27656 0 4.58604 2.11574 0 
4.89939 2.28433 0 3.29598 2.48135 0 2.71849 2.42573 0 
3.24485 2.40342 0 2.8431 2.21946 0 4.61368 2.14303 0 
3.85399 2.10004 0 4.07103 2.46271 0 3.88734 1.99405 0 
3.8282 2.28772 0 3.22453 2.41328 0 2.74363 2.03783 0 
3.81758 2.3269 0 3.88426 2.25076 0 3.81169 2.30612 0 
2.96643 2.49815 0 3.61851 1.97485 0 3.59756 2.39963 0 
3.18549 2.39125 0 4.70141 2.18868 0 3.20829 2.40215 0 
4.39818 2.41319 0 3.85456 2.27299 0 3.80233 1.97356 0 
3.81799 2.3525 0 3.90693 2.24901 0 4.54387 2.28901 0 
3.87592 2.24701 0 4.25452 1.98886 0 4.96689 2.11493 0 
2.60042 2.10598 0 3.88839 2.26311 0 3.75637 2.26081 0 
4.21379 2.4132 0 3.8448 2.24343 0 4.26439 2.21551 0 
4.85529 2.4658 0 4.81262 2.0981 0 3.20517 2.44384 0 
3.81469 2.41496 0 2.62944 1.99113 0 3.87489 1.81388 0 
3.65576 2.32965 0 4.13923 2.4049 0 3.70341 2.28804 0 
4.83728 2.21569 0 3.23846 2.40153 0 3.25143 2.45958 0 
4.90225 2.30701 0 4.87929 2.33904 0 3.86333 2.24409 0 
3.90101 2.25803 0 4.61285 2.35821 0 2.53556 2.43267 0 
3.81126 2.31782 0 3.55528 2.44386 0 3.31421 2.25544 0 
4.20027 2.08276 0 2.69314 2.29176 0 3.23136 2.26909 0 
2.60182 2.18921 0 4.34448 2.1678 0 3.18027 2.3071 0 
3.57884 2.04599 0 3.2163 2.41998 0 3.47589 2.28194 0 
4.11819 2.19631 0 3.9374 2.32659 0 3.92617 2.1428 0 
3.79336 2.18777 0 4.2508 2.32532 0 4.19982 1.91731 0 
3.23273 2.40053 0 4.32838 2.06214 0 4.99565 2.33722 0 
4.96802 2.33764 0 4.95351 2.3397 0 4.96329 2.36562 0 
4.9946 2.32538 0 4.51616 2.42476 0 4.70994 2.31128 0 
3.91957 2.25253 0 4.77934 2.24538 0 4.80555 2.3003 0 
2.82635 2.34369 0 4.39236 2.231 0 2.96619 2.36438 0 
2.80803 2.27285 0 3.10615 2.36936 0 3.04697 2.42293 0 
4.38628 1.89576 0 3.81029 2.24724 0 3.61829 2.15362 0 
3.23441 2.26131 0 3.20648 2.43124 0 3.96633 1.88883 0 
3.20626 2.30662 0 3.61973 2.07539 0 2.64767 2.09303 0 
2.74569 2.37043 0 3.5249 2.47956 0 3.19827 2.32649 0 
3.91193 2.25239 0 3.21658 2.28864 0 3.00479 2.4611 0 
3.18371 2.35996 0 3.22045 2.45217 0 0.203557 2.64369 0 
0.185611 2.63825 0 0.704293 2.68083 0 0.440647 2.63734 0 
1.50667 2.93549 0 1.21762 2.60648 0 0.572658 2.79256 0 
1.23978 2.88049 0 1.74999 2.77895 0 1.41826 2.87069 0 
0.917188 2.54721 0 0.796699 2.5544 0 0.789445 2.55556 0 
0.833015 2.54714 0 0.782136 2.55402 0 1.03557 2.96857 0 
0.831604 2.60262 0 2.37929 2.96766 0 0.575728 2.59518 0 
1.45276 2.68796 0 0.496675 2.84153 0 0.52838 2.60655 0 
0.479774 2.6234 0 0.0915602 2.80137 0 0.0895947 2.61268 0 
0.348609 2.65495 0 2.32304 2.79869 0 1.59419 2.59164 0 
0.302378 2.78023 0 2.08919 2.87418 0 0.710958 2.64851 0 
1.09064 2.86745 0 0.541484 2.6022 0 2.43487 2.6095 0 
2.46276 2.61722 0 2.49813 2.62776 0 2.40487 2.59462 0 
2.11286 2.57412 0 2.16847 2.67334 0 2.11461 2.61405 0 
2.16416 2.67388 0 1.46128 2.5473 0 2.15844 2.67075 0 
2.15774 2.66357 0 2.15879 2.65646 0 2.16939 2.63918 0 
2.16716 2.65482 0 1.83622 2.83035 0 2.14087 2.65992 0 
0.395953 2.64821 0 1.26018 2.77318 0 2.1709 2.6469 0 
2.15489 2.65795 0 2.15448 2.62653 0 0.965333 2.868 0 
1.12892 2.75282 0 1.86224 2.75439 0 2.1443 2.95857 0 
1.05713 2.53373 0 0.220686 2.64849 0 0.613117 2.62376 0 
0.697227 2.95738 0 1.79354 2.54072 0 0.607383 2.85914 0 
0.647595 2.65034 0 0.0528771 2.5996 0 0.147415 2.63127 0 
1.31295 2.64622 0 0.834395 2.59725 0 0.688228 2.67471 0 
0.511772 2.61501 0 0.760754 2.90409 0 0.121695 2.62239 0 
1.10431 2.52313 0 0.302032 2.65364 0 0.601451 2.6114 0 
0.41924 2.64272 0 2.34099 3.01283 0 0.554434 2.59251 0 
0.628486 2.63714 0 0.815643 2.59109 0 0.743775 2.58021 0 
0.772109 2.56343 0 0.803689 2.57681 0 0.7534 2.57575 0 
0.835336 2.58593 0 0.496003 2.61859 0 0.762889 2.56762 0 
0.706571 2.66364 0 0.325319 2.65665 0 0.591627 2.60105 0 
0.584102 2.59651 0 0.722321 2.60906 0 0.0964318 2.72877 0 
0.372573 2.65036 0 1.47879 2.64381 0 1.76962 2.70478 0 
0.714161 2.62713 0 0.864661 2.71803 0 0.460899 2.63122 0 
2.01476 2.66649 0 1.76207 2.62853 0 0.564914 2.59577 0 
0.167364 2.63702 0 0.279482 2.6538 0 0.257255 2.80992 0 
2.06855 2.61968 0 1.91598 2.64383 0 1.6883 2.62058 0 
2.31921 2.83645 0 1.19024 2.94534 0 2.37967 2.58261 0 
0.731813 2.59204 0 0.239856 2.65004 0 2.47769 2.95152 0 
2.34285 2.52253 0 2.35522 2.55727 0 1.9284 2.56161 0 
0.972967 2.748 0 0.670401 2.89146 0 0.0154973 2.58701 0 
0.25905 2.65212 0 2.00781 2.56875 0 0.284194 2.9572 0 
0.669051 2.66518 0 4.3199 2.5844 0 2.94544 2.51782 0 
4.10642 2.69577 0 4.41034 2.69021 0 4.07033 2.67308 0 
3.60955 2.74586 0 4.16886 2.71317 0 4.10616 2.70583 0 
4.07729 2.66463 0 3.71942 2.67326 0 3.34439 2.51238 0 
2.62241 2.59002 0 2.63787 2.57113 0 2.74218 2.54874 0 
2.82451 2.5435 0 2.85428 2.54355 0 4.59349 2.56502 0 
3.4017 2.55318 0 2.64046 2.58319 0 4.18439 2.80187 0 
4.18001 2.71633 0 3.55518 2.64827 0 4.14464 2.68101 0 
4.15463 2.7091 0 4.15412 2.71241 0 4.10115 2.66932 0 
4.59519 2.94064 0 2.89511 2.54719 0 3.97503 2.663 0 
4.0595 2.9926 0 4.66052 2.70542 0 2.86941 2.93419 0 
2.63584 2.5787 0 2.69681 2.55424 0 2.78383 2.79523 0 
4.8211 2.79996 0 3.89863 2.82855 0 3.58194 2.68817 0 
4.36196 3.09938 0 4.11714 2.88544 0 4.525 2.68004 0 
4.2092 2.7234 0 4.27224 2.542 0 2.7089 2.88866 0 
3.94785 2.64079 0 4.00569 2.78571 0 3.71719 2.59789 0 
2.61807 2.68568 0 3.09316 2.78007 0 2.5679 2.83839 0 
3.1042 2.90271 0 3.60366 2.93891 0 3.46641 2.78629 0 
4.57625 2.76242 0 4.72927 2.72183 0 3.24905 2.90905 0 
4.81102 2.61276 0 4.64247 2.80066 0 3.54284 2.64972 0 
3.89834 2.57137 0 3.63809 2.68062 0 3.17302 2.74176 0 
3.46621 2.61251 0 3.61912 2.71007 0 2.91137 2.54216 0 
3.67688 2.72258 0 3.56409 2.63412 0 3.5301 2.58674 0 
2.57242 2.60413 0 3.5151 2.51781 0 4.45853 2.5717 0 
4.00863 2.99063 0 4.1772 2.74773 0 4.28147 2.89516 0 
4.30499 2.71106 0 4.47769 2.91957 0 2.91691 2.81016 0 
3.59999 2.66337 0 3.58712 2.66759 0 4.6097 3.11552 0 
3.8499 2.50043 0 3.62408 2.67585 0 3.65615 2.68859 0 
4.50611 2.9063 0 4.96925 2.77246 0 4.91969 2.51976 0 
4.97227 2.56192 0 3.16325 2.61381 0 2.78697 2.54599 0 
2.92585 2.53583 0 4.06766 2.665 0 4.17808 2.60644 0 
2.63965 2.58617 0 4.07119 2.69796 0 3.3918 2.79782 0 
4.65852 3.00185 0 3.52126 2.55954 0 2.81449 2.69143 0 
4.24266 3.05904 0 3.53461 2.67111 0 4.73926 2.93633 0 
3.45041 2.92942 0 2.95472 2.96783 0 4.04958 2.69275 0 
4.76146 3.10306 0 4.01236 2.68148 0 2.65962 2.56102 0 
3.33618 2.65747 0 2.87628 2.54526 0 3.66971 2.82422 0 
3.24738 2.65358 0 3.63787 2.68584 0 2.53216 2.62383 0 
2.54011 2.90285 0 2.68201 2.77077 0 4.16374 2.66488 0 

VERTICES 900 900
1 0 
1 1 
1 2 
1 3 
1 4 
1 5 
1 6 
1 7 
1 8 
1 9 
1 10 
1 11 
1 12 
1 13 
1 14 
1 15 
1 16 
1 17 
1 18 
1 19 
1 20 
1 21 
1 22 
1 23 
1 24 
1 25 
1 26 
1 27 
1 28 
1 29 
1 30 
1 31 
1 32 
1 33 
1 34 
1 35 
1 36 
1 37 
1 38 
1 39 
1 40 
1 41 
1 42 
1 43 
1 44 
1 45 
1 46 
1 47 
1 48 
1 49 
1 50 
1 51 
1 52 
1 53 
1 54 
1 55 
1 56 
1 57 
1 58 
1 59 
1 60 
1 61 
1 62 
1 63 
1 64 
1 65 
1 66 
1 67 
1 68 
1 69 
1 70 
1 71 
1 72 
1 73 
1 74 
1 75 
1 76 
1 77 
1 78 
1 79 
1 80 
1 81 
1 82 
1 83 
1 84 
1 85 
1 86 
1 87 
1 88 
1 89 
1 90 
1 91 
1 92 
1 93 
1 94 
1 95 
1 96 
1 97 
1 98 
1 99 
1 100 
1 101 
1 102 
1 103 
1 104 
1 105 
1 106 
1 107 
1 108 
1 109 
1 110 
1 111 
1 112 
1 113 
1 114 
1 115 
1 116 
1 117 
1 118 
1 119 
1 120 
1 121 
1 122 
1 123 
1 124 
1 125 
1 126 
1 127 
1 128 
1 129 
1 130 
1 131 
1 132 
1 133 
1 134 
1 135 
1 136 
1 137 
1 138 
1 139 
1 140 
1 141 
1 142 
1 143 
1 144 
1 145 
1 146 
1 147 
1 148 
1 149 
1 150 
1 151 
1 152 
1 153 
1 154 
1 155 
1 156 
1 157 
1 158 
1 159 
1 160 
1 161 
1 162 
1 163 
1 164 
1 165 
1 166 
1 167 
1 168 
1 169 
1 170 
1 171 
1 172 
1 173 
1 174 
1 175 
1 176 
1 177 
1 178 
1 179 
1 180 
1 181 
1 182 
1 183 
1 184 
1 185 
1 186 
1 187 
1 188 
1 189 
1 190 
1 191 
1 192 
1 193 
1 194 
1 195 
1 196 
1 197 
1 198 
1 199 
1 200 
1 201 
1 202 
1 203 
1 204 
1 205 
1 206 
1 207 
1 208 
1 209 
1 210 
1 211 
1 212 
1 213 
1 214 
1 215 
1 216 
1 217 
1 218 
1 219 
1 220 
1 221 
1 222 
1 223 
1 224 
1 225 
1 226 
1 227 
1 228 
1 229 
1 230 
1 231 
1 232 
1 233 
1 234 
1 235 
1 236 
1 237 
1 238 
1 239 
1 240 
1 241 
1 242 
1 243 
1 244 
1 245 
1 246 
1 247 
1 248 
1 249 
1 250 
1 251 
1 252 
1 253 
1 254 
1 255 
1 256 
1 257 
1 258 
1 259 
1 260 
1 261 
1 262 
1 263 
1 264 
1 265 
1 266 
1 267 
1 268 
1 269 
1 270 
1 271 
1 272 
1 273 
1 274 
1 275 
1 276 
1 277 
1 278 
1 279 
1 280 
1 281 
1 282 
1 283 
1 284 
1 285 
1 286 
1 287 
1 288 
1 289 
1 290 
1 291 
1 292 
1 293 
1 294 
1 295 
1 296 
1 297 
1 298 
1 299 
1 300 
1 301 
1 302 
1 303 
1 304 
1 305 
1 306 
1 307 
1 308 
1 309 
1 310 
1 311 
1 312 
1 313 
1 314 
1 315 
1 316 
1 317 
1 318 
1 319 
1 320 
1 321 
1 322 
1 323 
1 324 
1 325 
1 326 
1 327 
1 328 
1 329 
1 330 
1 331 
1 332 
1 333 
1 334 
1 335 
1 336 
1 337 
1 338 
1 339 
1 340 
1 341 
1 342 
1 343 
1 344 
1 345 
1 346 
1 347 
1 348 
1 349 
1 350 
1 351 
1 352 
1 353 
1 354 
1 355 
1 356 
1 357 
1 358 
1 359 
1 360 
1 361 
1 362 
1 363 
1 364 
1 365 
1 366 
1 367 
1 368 
1 369 
1 370 
1 371 
1 372 
1 373 
1 374 
1 375 
1 376 
1 377 
1 378 
1 379 
1 380 
1 381 
1 382 
1 383 
1 384 
1 385 
1 386 
1 387 
1 388 
1 389 
1 390 
1 391 
1 392 
1 393 
1 394 
1 395 
1 396 
1 397 
1 398 
1 399 
1 400 
1 401 
1 402 
1 403 
1 404 
1 405 
1 406 
1 407 
1 408 
1 409 
1 410 
1 411 
1 412 
1 413 
1 414 
1 415 
1 416 
1 417 
1 418 
1 419 
1 420 
1 421 
1 422 
1 423 
1 424 
1 425 
1 426 
1 427 
1 428 
1 429 
1 430 
1 431 
1 432 
1 433 
1 434 
1 435 
1 436 
1 437 
1 438 
1 439 
1 440 
1 441 
1 442 
1 443 
1 444 
1 445 
1 446 
1 447 
1 448 
1 449 

POINT_DATA 450
SCALARS id double
LOOKUP_TABLE default
45 86 132 202 50 209 2 79 221 
72 55 136 77 220 37 212 134 56 
214 83 42 87 223 211 11 246 258 
255 259 256 257 261 260 24 250 248 
216 213 247 215 249 252 0 44 205 
245 93 210 92 201 7 263 13 88 
204 203 74 219 94 448 53 25 69 
9 217 68 71 75 242 3 8 82 
73 80 207 70 1 208 218 99 43 
222 76 133 54 243 85 244 81 253 
262 12 251 206 254 91 89 135 141 
142 18 49 51 311 19 304 96 33 
39 65 27 348 305 95 101 341 349 
289 46 333 300 36 301 59 347 47 
102 342 26 340 16 31 97 346 336 
63 338 67 143 30 308 103 90 17 
334 66 335 32 303 310 130 140 339 
345 127 41 100 332 48 10 23 295 
84 60 293 28 306 35 61 62 20 
34 57 38 302 21 137 138 139 78 
131 126 128 344 58 129 6 52 5 
4 292 291 15 337 40 294 307 14 
297 29 98 22 331 298 343 296 290 
299 309 153 152 182 164 400 433 413 
405 449 404 367 194 193 200 192 412 
197 439 173 414 434 169 166 389 148 
160 365 224 422 438 184 435 170 268 
269 270 267 383 232 240 231 354 230 
233 235 238 236 429 229 162 410 237 
234 239 447 431 430 428 350 154 177 
423 226 441 179 147 150 437 198 181 
168 416 149 446 158 176 163 427 171 
178 196 188 191 195 189 199 167 190 
183 159 175 174 186 417 161 432 355 
185 445 165 356 360 172 151 157 390 
228 364 225 366 411 266 187 155 440 
264 265 227 436 424 146 156 241 395 
180 125 288 117 419 118 396 115 111 
120 407 312 273 277 280 282 283 384 
313 275 418 113 320 122 116 112 121 
385 285 107 397 391 352 276 279 369 
368 403 318 372 402 425 114 64 361 
106 393 408 382 381 359 443 442 380 
399 392 351 394 406 319 105 324 377 
314 316 286 317 327 328 272 330 415 
398 421 401 420 386 357 326 321 378 
104 325 323 387 388 144 145 409 281 
287 119 124 274 110 353 374 329 370 
375 315 379 363 444 109 373 108 278 
362 284 358 376 322 271 426 371 123 

FIELD FieldData 5
r 3 450 double
0.560881 2.22 0 1.72404 2.19037 0 0.0201372 2.32796 0 
1.0363 2.20566 0 0.443841 2.17305 0 1.35949 2.40562 0 
1.16589 2.22385 0 0.458435 2.36574 0 1.38665 2.40966 0 
0.631089 2.39033 0 1.12374 2.0454 0 0.00720527 2.33533 0 
0.232014 2.32085 0 1.48671 2.32176 0 0.0256451 2.18776 0 
1.40209 2.37679 0 0.0266477 2.33079 0 0.705415 2.31901 0 
1.44994 2.33994 0 0.747997 2.27851 0 1.33991 1.99823 0 
1.61613 2.32226 0 1.45475 2.40926 0 1.42844 2.35614 0 
2.25265 2.25432 0 2.10092 2.39828 0 2.46625 2.39282 0 
2.46662 2.38946 0 2.47997 2.38589 0 2.43649 2.41184 0 
2.44654 2.40638 0 2.42676 2.42739 0 2.43797 2.41633 0 
2.27331 2.39082 0 2.28689 2.47183 0 2.20235 2.43718 0 
1.51258 2.29752 0 1.41195 2.37053 0 2.14872 2.41573 0 
1.46592 2.32928 0 2.24741 2.46108 0 2.36511 2.45583 0 
1.74136 2.07286 0 0.75114 2.15424 0 1.14218 2.31825 0 
2.06619 2.37742 0 1.83267 2.27662 0 1.37466 2.39546 0 
2.20064 2.06292 0 0.879744 2.41527 0 1.10504 2.25084 0 
2.35351 2.49734 0 2.24154 2.31419 0 1.26509 2.34699 0 
0.981023 2.33324 0 0.915254 2.36963 0 0.254323 2.46799 0 
1.53601 2.29255 0 1.81382 2.17546 0 0.98755 2.41451 0 
0.546649 2.10107 0 1.51702 2.43572 0 1.66092 1.98225 0 
1.96415 2.08784 0 1.55436 2.28304 0 2.43253 1.92483 0 
0.751216 2.43557 0 0.0700509 2.42731 0 1.93981 2.4985 0 
1.50255 2.12681 0 1.92579 2.16045 0 1.94157 1.99878 0 
0.316558 2.37599 0 1.46382 2.05563 0 1.26137 2.43677 0 
1.14041 2.12817 0 1.3555 2.23963 0 1.3089 2.43703 0 
1.55893 2.29177 0 1.04264 2.1525 0 0.00216981 2.29061 0 
1.38903 2.42472 0 0.334292 2.19455 0 0.0280344 2.32939 0 
1.21039 2.11526 0 1.97429 2.42932 0 1.64025 2.35262 0 
2.03083 2.38233 0 1.86022 1.95719 0 2.38166 2.44716 0 
2.37587 2.47195 0 2.41843 2.31974 0 2.32155 2.47118 0 
1.20489 2.37828 0 2.39457 2.43951 0 2.0652 2.20562 0 
2.26068 2.1441 0 0.0211881 2.33283 0 4.81884 2.36375 0 
4.81293 2.41201 0 3.14111 2.27656 0 4.58604 2.11574 0 
4.89939 2.28433 0 3.29598 2.48135 0 2.71849 2.42573 0 
3.24485 2.40342 0 2.8431 2.21946 0 4.61368 2.14303 0 
3.85399 2.10004 0 4.07103 2.46271 0 3.88734 1.99405 0 
3.8282 2.28772 0 3.22453 2.41328 0 2.74363 2.03783 0 
3.81758 2.3269 0 3.88426 2.25076 0 3.81169 2.30612 0 
2.96643 2.49815 0 3.61851 1.97485 0 3.59756 2.39963 0 
3.18549 2.39125 0 4.70141 2.18868 0 3.20829 2.40215 0 
4.39818 2.41319 0 3.85456 2.27299 0 3.80233 1.97356 0 
3.81799 2.3525 0 3.90693 2.24901 0 4.54387 2.28901 0 
3.87592 2.24701 0 4.25452 1.98886 0 4.96689 2.11493 0 
2.60042 2.10598 0 3.88839 2.26311 0 3.75637 2.26081 0 
4.21379 2.4132 0 3.8448 2.24343 0 4.26439 2.21551 0 
4.85529 2.4658 0 4.81262 2.0981 0 3.20517 2.44384 0 
3.81469 2.41496 0 2.62944 1.99113 0 3.87489 1.81388 0 
3.65576 2.32965 0 4.13923 2.4049 0 3.70341 2.28804 0 
4.83728 2.21569 0 3.23846 2.40153 0 3.25143 2.45958 0 
4.90225 2.30701 0 4.87929 2.33904 0 3.86333 2.24409 0 
3.90101 2.25803 0 4.61285 2.35821 0 2.53556 2.43267 0 
3.81126 2.31782 0 3.55528 2.44386 0 3.31421 2.25544 0 
4.20027 2.08276 0 2.69314 2.29176 0 3.23136 2.26909 0 
2.60182 2.18921 0 4.34448 2.1678 0 3.18027 2.3071 0 
3.57884 2.04599 0 3.2163 2.41998 0 3.47589 2.28194 0 
4.11819 2.19631 0 3.9374 2.32659 0 3.92617 2.1428 0 
3.79336 2.18777 0 4.2508 2.32532 0 4.19982 1.91731 0 
3.23273 2.40053 0 4.32838 2.06214 0 4.99565 2.33722 0 
4.96802 2.33764 0 4.95351 2.3397 0 4.96329 2.36562 0 
4.9946 2.32538 0 4.51616 2.42476 0 4.70994 2.31128 0 
3.91957 2.25253 0 4.77933 2.24538 0 4.80555 2.3003 0 
2.82635 2.34369 0 4.39236 2.231 0 2.96619 2.36438 0 
2.80803 2.27285 0 3.10615 2.36936 0 3.04697 2.42293 0 
4.38628 1.89576 0 3.81029 2.24724 0 3.61829 2.15362 0 
3.23441 2.26131 0 3.20648 2.43124 0 3.96633 1.88883 0 
3.20626 2.30662 0 3.61973 2.07539 0 2.64767 2.09303 0 
2.74569 2.37043 0 3.52491 2.47956 0 3.19827 2.32649 0 
3.91193 2.25239 0 3.21658 2.28864 0 3.00479 2.4611 0 
3.18371 2.35996 0 3.22045 2.45217 0 0.203557 2.64369 0 
0.185611 2.63825 0 0.704293 2.68083 0 0.440647 2.63734 0 
1.50667 2.93549 0 1.21762 2.60648 0 0.572658 2.79256 0 
1.23978 2.88049 0 1.74999 2.77895 0 1.41826 2.87069 0 
0.917188 2.54721 0 0.796699 2.5544 0 0.789445 2.55556 0 
0.833015 2.54714 0 0.782136 2.55402 0 1.03557 2.96857 0 
0.831604 2.60262 0 2.37929 2.96766 0 0.575728 2.59518 0 
1.45276 2.68796 0 0.496675 2.84153 0 0.52838 2.60655 0 
0.479774 2.6234 0 0.0915602 2.80137 0 0.0895947 2.61268 0 
0.348609 2.65495 0 2.32304 2.79869 0 1.59419 2.59164 0 
0.302378 2.78023 0 2.08919 2.87418 0 0.710958 2.64851 0 
1.09064 2.86745 0 0.541484 2.6022 0 2.43487 2.6095 0 
2.46276 2.61722 0 2.49813 2.62776 0 2.40487 2.59462 0 
2.11286 2.57412 0 2.16847 2.67334 0 2.11461 2.61405 0 
2.16416 2.67388 0 1.46128 2.5473 0 2.15844 2.67075 0 
2.15774 2.66357 0 2.15879 2.65646 0 2.16939 2.63918 0 
2.16716 2.65482 0 1.83622 2.83035 0 2.14087 2.65992 0 
0.395953 2.64821 0 1.26018 2.77318 0 2.1709 2.6469 0 
2.15489 2.65795 0 2.15448 2.62653 0 0.965333 2.868 0 
1.12892 2.75282 0 1.86224 2.75439 0 2.1443 2.95857 0 
1.05713 2.53373 0 0.220686 2.64849 0 0.613117 2.62376 0 
0.697227 2.95738 0 1.79354 2.54072 0 0.607383 2.85914 0 
0.647595 2.65034 0 0.0528771 2.5996 0 0.147415 2.63127 0 
1.31295 2.64622 0 0.834395 2.59725 0 0.688228 2.67471 0 
0.511772 2.61501 0 0.760754 2.90409 0 0.121695 2.62239 0 
1.10431 2.52313 0 0.302032 2.65364 0 0.601451 2.6114 0 
0.41924 2.64272 0 2.34099 3.01283 0 0.554434 2.59251 0 
0.628486 2.63714 0 0.815643 2.59109 0 0.743775 2.58021 0 
0.772109 2.56343 0 0.803689 2.57681 0 0.7534 2.57575 0 
0.835336 2.58593 0 0.496003 2.61859 0 0.762889 2.56762 0 
0.706571 2.66364 0 0.325319 2.65665 0 0.591627 2.60105 0 
0.584102 2.59651 0 0.722321 2.60906 0 0.0964318 2.72877 0 
0.372573 2.65036 0 1.47879 2.64381 0 1.76962 2.70478 0 
0.714161 2.62713 0 0.864661 2.71803 0 0.460899 2.63122 0 
2.01476 2.66649 0 1.76207 2.62853 0 0.564914 2.59577 0 
0.167364 2.63702 0 0.279482 2.65379 0 0.257255 2.80992 0 
2.06855 2.61968 0 1.91598 2.64383 0 1.6883 2.62058 0 
2.31921 2.83645 0 1.19024 2.94534 0 2.37967 2.58261 0 
0.731813 2.59204 0 0.239856 2.65004 0 2.47769 2.95152 0 
2.34285 2.52253 0 2.35522 2.55727 0 1.9284 2.56161 0 
0.972967 2.748 0 0.670401 2.89146 0 0.0154973 2.58701 0 
0.25905 2.65212 0 2.00781 2.56875 0 0.284194 2.9572 0 
0.669051 2.66518 0 4.3199 2.5844 0 2.94544 2.51782 0 
4.10642 2.69577 0 4.41034 2.69021 0 4.07033 2.67308 0 
3.60955 2.74586 0 4.16886 2.71317 0 4.10617 2.70583 0 
4.07729 2.66463 0 3.71942 2.67326 0 3.34439 2.51238 0 
2.62241 2.59002 0 2.63787 2.57113 0 2.74218 2.54874 0 
2.82451 2.5435 0 2.85428 2.54355 0 4.59349 2.56502 0 
3.4017 2.55318 0 2.64046 2.58319 0 4.18439 2.80187 0 
4.18001 2.71633 0 3.55518 2.64827 0 4.14464 2.68101 0 
4.15463 2.7091 0 4.15412 2.71241 0 4.10115 2.66932 0 
4.59519 2.94064 0 2.89511 2.54719 0 3.97503 2.663 0 
4.0595 2.9926 0 4.66052 2.70542 0 2.86941 2.93419 0 
2.63584 2.5787 0 2.69681 2.55424 0 2.78383 2.79523 0 
4.8211 2.79996 0 3.89863 2.82855 0 3.58194 2.68817 0 
4.36196 3.09938 0 4.11714 2.88544 0 4.525 2.68004 0 
4.2092 2.7234 0 4.27224 2.542 0 2.7089 2.88866 0 
3.94785 2.6408 0 4.00569 2.78571 0 3.71719 2.59789 0 
2.61807 2.68568 0 3.09316 2.78007 0 2.5679 2.83839 0 
3.1042 2.90271 0 3.60366 2.93891 0 3.46641 2.78629 0 
4.57625 2.76242 0 4.72927 2.72183 0 3.24905 2.90905 0 
4.81102 2.61276 0 4.64247 2.80066 0 3.54284 2.64972 0 
3.89834 2.57137 0 3.63809 2.68062 0 3.17302 2.74176 0 
3.46621 2.61251 0 3.61912 2.71007 0 2.91137 2.54216 0 
3.67688 2.72258 0 3.56409 2.63412 0 3.5301 2.58674 0 
2.57242 2.60413 0 3.5151 2.51781 0 4.45853 2.5717 0 
4.00863 2.99063 0 4.1772 2.74773 0 4.28147 2.89516 0 
4.30499 2.71106 0 4.47769 2.91957 0 2.91691 2.81016 0 
3.59999 2.66337 0 3.58712 2.66759 0 4.6097 3.11552 0 
3.8499 2.50043 0 3.62408 2.67585 0 3.65615 2.68859 0 
4.50611 2.9063 0 4.96925 2.77246 0 4.91969 2.51976 0 
4.97227 2.56192 0 3.16325 2.61381 0 2.78697 2.54599 0 
2.92585 2.53583 0 4.06766 2.665 0 4.17808 2.60644 0 
2.63965 2.58617 0 4.07119 2.69796 0 3.3918 2.79782 0 
4.65852 3.00185 0 3.52126 2.55954 0 2.81449 2.69143 0 
4.24266 3.05904 0 3.53461 2.67111 0 4.73926 2.93633 0 
3.45041 2.92942 0 2.95472 2.96783 0 4.04958 2.69275 0 
4.76146 3.10306 0 4.01236 2.68148 0 2.65962 2.56102 0 
3.33618 2.65747 0 2.87628 2.54526 0 3.66971 2.82422 0 
3.24738 2.65358 0 3.63787 2.68584 0 2.53216 2.62383 0 
2.54011 2.90285 0 2.68201 2.77077 0 4.16374 2.66488 0 

gid 1 450 double
-1 -1 0 0 -1 0 -1 -1 0 
-1 -1 0 -1 0 -1 0 0 -1 
0 -1 -1 -1 0 0 -1 0 0 
0 0 0 0 0 0 -1 0 0 
0 0 0 0 0 0 -1 -1 0 
0 -1 0 -1 0 -1 0 -1 -1 
0 0 -1 0 -1 1 -1 -1 -1 
-1 0 -1 -1 -1 0 -1 -1 -1 
-1 -1 0 -1 -1 0 0 -1 -1 
0 -1 0 -1 0 -1 0 -1 0 
0 -1 0 0 0 -1 -1 0 0 
0 -1 -1 -1 0 -1 0 -1 -1 
-1 -1 -1 0 0 -1 0 0 0 
0 -1 0 0 -1 0 -1 0 -1 
0 0 -1 0 -1 -1 -1 0 0 
-1 0 -1 0 -1 0 0 -1 -1 
0 -1 0 -1 0 0 0 0 0 
0 0 -1 0 0 -1 -1 -1 0 
-1 -1 0 -1 0 -1 -1 -1 -1 
-1 -1 -1 0 -1 0 0 0 -1 
0 0 0 0 -1 0 -1 -1 -1 
-1 0 0 -1 0 -1 0 0 -1 
0 -1 -1 -1 0 0 0 0 0 
0 0 0 0 0 0 1 1 1 
1 1 1 1 0 0 0 0 1 
0 1 0 1 1 0 0 1 0 
0 1 0 1 1 0 1 0 0 
0 0 0 1 0 0 0 1 0 
0 0 0 0 1 0 0 1 0 
0 0 1 1 1 1 1 0 0 
1 0 1 0 0 0 1 0 0 
0 1 0 1 0 0 0 1 0 
0 0 0 0 0 0 0 0 0 
0 0 0 0 0 1 0 1 1 
0 1 0 1 1 0 0 0 1 
0 1 0 1 1 0 0 0 1 
0 0 0 1 1 0 0 0 1 
0 0 0 0 1 0 1 0 0 
0 1 0 0 0 0 0 0 1 
0 0 1 0 0 0 0 0 0 
1 0 0 1 1 1 0 0 1 
1 1 0 1 1 1 0 -1 1 
0 1 1 1 1 1 1 1 1 
1 1 1 1 1 0 0 0 1 
0 0 0 0 0 0 0 0 1 
1 1 1 1 1 1 0 0 1 
0 0 0 1 1 0 0 1 0 
0 0 0 0 0 1 1 0 1 
1 0 1 1 1 0 1 0 0 
1 0 1 1 0 0 1 1 0 

w 1 450 double
-0.3 -0.3 0 0 -0.3 0 -0.3 -0.3 0 
-0.3 -0.3 0 -0.3 0 -0.3 0 0 -0.3 
0 -0.3 -0.3 -0.3 0 0 -0.3 0 0 
0 0 0 0 0 0 -0.3 0 0 
0 0 0 0 0 0 -0.3 -0.3 0 
0 -0.3 0 -0.3 0 -0.3 0 -0.3 -0.3 
0 0 -0.3 0 -0.3 0.3 -0.3 -0.3 -0.3 
-0.3 0 -0.3 -0.3 -0.3 0 -0.3 -0.3 -0.3 
-0.3 -0.3 0 -0.3 -0.3 0 0 -0.3 -0.3 
0 -0.3 0 -0.3 0 -0.3 0 -0.3 0 
0 -0.3 0 0 0 -0.3 -0.3 0 0 
0 -0.3 -0.3 -0.3 0 -0.3 0 -0.3 -0.3 
-0.3 -0.3 -0.3 0 0 -0.3 0 0 0 
0 -0.3 0 0 -0.3 0 -0.3 0 -0.3 
0 0 -0.3 0 -0.3 -0.3 -0.3 0 0 
-0.3 0 -0.3 0 -0.3 0 0 -0.3 -0.3 
0 -0.3 0 -0.3 0 0 0 0 0 
0 0 -0.3 0 0 -0.3 -0.3 -0.3 0 
-0.3 -0.3 0 -0.3 0 -0.3 -0.3 -0.3 -0.3 
-0.3 -0.3 -0.3 0 -0.3 0 0 0 -0.3 
0 0 0 0 -0.3 0 -0.3 -0.3 -0.3 
-0.3 0 0 -0.3 0 -0.3 0 0 -0.3 
0 -0.3 -0.3 -0.3 0 0 0 0 0 
0 0 0 0 0 0 0.3 0.3 0.3 
0.3 0.3 0.3 0.3 0 0 0 0 0.3 
0 0.3 0 0.3 0.3 0 0 0.3 0 
0 0.3 0 0.3 0.3 0 0.3 0 0 
0 0 0 0.3 0 0 0 0.3 0 
0 0 0 0 0.3 0 0 0.3 0 
0 0 0.3 0.3 0.3 0.3 0.3 0 0 
0.3 0 0.3 0 0 0 0.3 0 0 
0 0.3 0 0.3 0 0 0 0.3 0 
0 0 0 0 0 0 0 0 0 
0 0 0 0 0 0.3 0 0.3 0.3 
0 0.3 0 0.3 0.3 0 0 0 0.3 
0 0.3 0 0.3 0.3 0 0 0 0.3 
0 0 0 0.3 0.3 0 0 0 0.3 
0 0 0 0 0.3 0 0.3 0 0 
0 0.3 0 0 0 0 0 0 0.3 
0 0 0.3 0 0 0 0 0 0 
0.3 0 0 0.3 0.3 0.3 0 0 0.3 
0.3 0.3 0 0.3 0.3 0.3 0 -0.3 0.3 
0 0.3 0.3 0.3 0.3 0.3 0.3 0.3 0.3 
0.3 0.3 0.3 0.3 0.3 0 0 0 0.3 
0 0 0 0 0 0 0 0 0.3 
0.3 0.3 0.3 0.3 0.3 0.3 0 0 0.3 
0 0 0 0.3 0.3 0 0 0.3 0 
0 0 0 0 0 0.3 0.3 0 0.3 
0.3 0 0.3 0.3 0.3 0 0.3 0 0 
0.3 0 0.3 0.3 0 0 0.3 0.3 0 

v 3 450 double
-1.91815 0.451234 0 -2.93808 -0.737358 0 -3.43586 0.519105 0 
-3.87447 -0.822639 0 -1.26996 -0.0229825 0 -5.17418 -0.593598 0 
-3.78 -0.0334545 0 -3.63309 0.457992 0 -5.1347 -0.671649 0 
-4.19792 0.479115 0 -0.567124 -0.742552 0 -3.66226 0.398748 0 
-2.86636 -0.20678 0 -4.24099 -0.91815 0 -1.22677 0.941291 0 
-4.88289 -0.64797 0 -3.43187 0.525757 0 -3.10668 0.81224 0 
-4.48139 -0.803404 0 -2.4281 1.102 0 -0.300381 -0.142753 0 
-4.18822 -0.707113 0 -5.09105 -1.05042 0 -4.65876 -0.707058 0 
-2.86692 -0.119394 0 -4.83605 -0.700248 0 -4.39446 -0.108788 0 
-4.35295 -0.0613831 0 -4.31821 -0.158285 0 -4.60262 -0.0305703 0 
-4.5418 -0.0404919 0 -4.73325 -0.0388563 0 -4.63767 -0.0432363 0 
-4.71795 -0.163316 0 -5.13373 -0.183503 0 -5.13379 -0.671345 0 
-3.97034 -0.952165 0 -4.80515 -0.655061 0 -4.99836 -0.761906 0 
-4.34922 -0.830073 0 -5.1732 -0.384003 0 -4.94878 0.0481382 0 
-1.25382 -0.748144 0 -0.975533 0.585355 0 -5.29514 -0.538075 0 
-4.69201 -0.611281 0 -4.30681 -0.0170671 0 -5.07193 -0.59035 0 
-0.612051 0.00594642 0 -4.59908 1.50041 0 -4.63657 -0.585752 0 
-5.02824 -0.0173979 0 -3.84144 -0.365586 0 -5.00113 -0.433031 0 
-5.08454 0.0296957 0 -4.60069 0.981901 0 -4.71859 0.0126519 0 
-3.86778 -0.990358 0 -2.67337 -0.353034 0 -5.25711 0.328813 0 
-0.321878 0.225214 0 -5.3409 -0.890324 0 -0.182347 -0.514383 0 
-1.06916 0.344266 0 -3.73384 -0.984432 0 0.137244 -0.0756552 0 
-4.50805 1.62059 0 -4.59575 -0.192044 0 -5.07399 -0.419374 0 
-2.19768 -0.354466 0 -2.41415 0.211267 0 0.0766595 0.103389 0 
-3.53221 0.261838 0 -1.05252 -0.420727 0 -5.50805 -0.642663 0 
-2.04391 -0.475807 0 -3.50686 -0.220893 0 -5.40102 -0.585258 0 
-3.80701 -0.993282 0 -2.80954 -0.945969 0 -2.94851 0.592255 0 
-5.2182 -0.719412 0 -1.35424 -0.206093 0 -3.3992 0.540891 0 
-1.51092 0.0965368 0 -4.92072 -0.359283 0 -4.64528 -0.279481 0 
-4.71595 -0.432532 0 0.321752 -0.465218 0 -4.8936 0.0121824 0 
-4.97858 0.00202789 0 -3.48806 0.108654 0 -5.07003 -0.0197552 0 
-5.44342 -0.707865 0 -4.84077 0.00630342 0 -2.91718 -0.0269887 0 
-1.51416 0.217521 0 -3.50674 0.488852 0 -5.25694 -0.698547 0 
-5.47972 -0.76605 0 -2.85779 0.349919 0 -1.12387 0.280063 0 
-3.71011 -0.0946353 0 -4.79262 -0.443119 0 -5.27971 0.517246 0 
-4.49769 -0.158168 0 -1.25399 1.18089 0 -1.65067 0.352993 0 
-2.24889 -0.446255 0 -5.61879 -0.50268 0 -0.750508 -0.210698 0 
-4.47596 -0.780851 0 -4.52654 -0.0832031 0 0.0381268 1.11471 0 
-4.67465 -0.870635 0 -4.02472 -0.576162 0 -4.59658 -0.843968 0 
-4.81043 0.851549 0 -0.298053 -1.29659 0 -4.70528 -0.398869 0 
-4.34415 0.176334 0 -2.54997 0.145128 0 -4.44517 0.0170627 0 
-5.45292 1.0012 0 -4.29857 -0.732032 0 -0.63887 -0.914434 0 
-4.78216 -0.894091 0 -3.89182 -0.539258 0 -4.33033 0.432319 0 
-4.04415 -0.56426 0 -0.17349 0.0949953 0 -0.375251 0.587783 0 
-1.40547 -0.318643 0 -4.07939 -0.646179 0 -4.46119 -0.79867 0 
-5.22364 0.42191 0 -4.16763 -0.598617 0 -2.98669 0.0241636 0 
-5.52409 -0.837745 0 -0.456134 0.356886 0 -4.66446 0.0248075 0 
-4.98191 -0.856077 0 0.304215 -0.114121 0 0.877679 -0.672187 0 
-4.59868 -0.619741 0 -5.02926 -0.365479 0 -4.52709 -0.74095 0 
-2.5902 0.0796598 0 -4.47955 -0.148455 0 -4.75239 -0.249232 0 
-4.1248 -0.214407 0 -4.79283 -0.509587 0 -4.08798 -0.566733 0 
-3.97928 -0.600862 0 -5.36149 0.190528 0 -4.81045 -0.076384 0 
-4.64428 -0.866089 0 -4.72207 -0.306835 0 -3.14142 -0.514149 0 
-1.582 -0.445949 0 -3.24516 -0.133251 0 -3.07622 -0.124288 0 
-2.52956 -0.130062 0 -1.95547 0.641266 0 -3.46151 0.249493 0 
-1.66385 -1.54667 0 -4.55394 -0.043788 0 -3.92645 -0.698443 0 
-3.03012 -0.663633 0 -4.42164 -0.75783 0 -2.58446 0.0475336 0 
-3.74529 -0.752959 0 -4.19058 0.349677 0 0.426493 -0.237021 0 
-4.46797 -0.122349 0 -0.690314 0.725181 0 -3.80386 0.290405 0 
-4.06862 0.053519 0 -4.2363 -0.0787234 0 -4.53387 -0.172643 0 
-3.61887 0.340077 0 -5.94121 0.638709 0 -4.98779 -0.357207 0 
-3.85489 -0.567977 0 -3.66534 -0.219464 0 -4.64216 -0.443658 0 
-3.4624 1.44522 0 -2.99161 0.920997 0 -3.65312 1.1812 0 
-2.2252 0.982544 0 -4.04258 0.586043 0 -4.40481 0.814081 0 
0.717949 0.71879 0 -4.31538 -0.692186 0 -3.32645 -0.69956 0 
-2.96378 -0.142628 0 -4.60105 0.0224663 0 0.405413 0.115497 0 
-3.556 0.0333059 0 -1.99513 -0.921118 0 -0.93653 0.32023 0 
-4.36136 0.635697 0 -4.6892 -0.339974 0 -3.78665 0.096905 0 
-3.88802 -0.554229 0 -3.32667 -0.0292864 0 -4.6517 0.870782 0 
-4.09665 0.211764 0 -4.71551 -0.077524 0 -4.84331 -0.264906 0 
-4.8751 -0.32016 0 -4.18973 0.986525 0 -4.60808 0.46869 0 
-0.214284 -0.76572 0 -4.19163 -0.36193 0 -3.69843 0.485274 0 
-0.588455 -0.486859 0 -2.09592 0.487323 0 -0.904759 -0.584241 0 
-4.48695 1.45029 0 -4.73802 1.6614 0 -4.74619 1.65503 0 
-4.69307 1.80566 0 -4.76418 1.63158 0 0.109207 0.642741 0 
-4.45739 1.60463 0 -0.763325 0.405889 0 -4.67605 0.675562 0 
-2.79812 -0.74394 0 -2.5897 0.92006 0 -4.66349 0.562318 0 
-4.64225 0.504713 0 -2.33666 -0.437845 0 -5.03878 -0.552706 0 
-4.59928 0.12753 0 -3.48324 0.235024 0 -4.63656 -0.491723 0 
-3.1735 -0.372578 0 -1.70677 0.0740154 0 -4.36716 1.1225 0 
-1.25371 0.370977 0 -4.66732 0.574094 0 -4.91591 0.206647 0 
-4.95649 0.289758 0 -5.03995 0.406627 0 -4.90176 0.0886925 0 
-4.55584 -0.610494 0 -3.75017 -0.389071 0 -4.11343 -0.63958 0 
-3.72185 -0.400247 0 -5.1499 -0.955168 0 -3.71278 -0.446179 0 
-3.76075 -0.4732 0 -3.81836 -0.495097 0 -4.00704 -0.482704 0 
-3.87428 -0.447642 0 -0.841094 -0.0988764 0 -3.71951 -0.520273 0 
-4.586 0.368298 0 -2.06551 -0.540641 0 -3.95535 -0.451741 0 
-3.78946 -0.498329 0 -4.04819 -0.573423 0 -1.51042 0.995684 0 
-2.75136 0.176598 0 -2.07816 -0.721419 0 -0.61863 0.248617 0 
-4.50245 0.271963 0 -4.8068 -0.251555 0 -4.5911 0.704191 0 
-0.167252 0.403027 0 -5.32023 -0.317363 0 -2.32694 0.642861 0 
-4.45908 0.761739 0 -5.08927 -0.549758 0 -4.9225 -0.467376 0 
-3.65863 -0.576 0 -4.4705 1.63942 0 -4.25929 0.906312 0 
-4.65516 0.549777 0 -1.14848 -0.197982 0 -4.98387 -0.473628 0 
-4.73725 -0.296202 0 -4.67788 -0.0809039 0 -4.63062 0.69391 0 
-4.59664 0.438752 0 -0.149065 0.656123 0 -4.67954 0.626895 0 
-4.53385 0.717711 0 -4.544 1.59854 0 -4.69918 1.42747 0 
-4.74174 1.56885 0 -4.63181 1.62051 0 -4.71258 1.48029 0 
-4.5151 1.67525 0 -4.65128 0.518926 0 -4.73901 1.53918 0 
-4.28737 1.05937 0 -4.63005 0.0346337 0 -4.65773 0.682135 0 
-4.67197 0.689444 0 -4.56647 1.24669 0 -3.87492 -0.541086 0 
-4.58876 0.246387 0 -3.5679 -0.969389 0 -3.46075 0.0583547 0 
-4.47891 1.1806 0 -3.58343 1.36174 0 -4.62454 0.50214 0 
-3.51379 -0.744724 0 -4.71034 -0.112221 0 -4.67668 0.659203 0 
-4.88933 -0.358861 0 -4.71549 -0.134815 0 -2.61028 -0.214267 0 
-4.11738 -0.582915 0 -4.01343 -0.687386 0 -4.77505 0.299482 0 
-2.85048 0.458802 0 0.239024 -0.0843354 0 -4.89741 0.0260122 0 
-4.64698 1.33391 0 -4.78104 -0.249476 0 -0.705794 -0.0513243 0 
-5.01145 -0.0572544 0 -4.94105 -0.0314697 0 -5.00192 -0.539056 0 
-3.04531 0.782566 0 -1.54346 0.262634 0 -5.11696 -0.607838 0 
-4.75651 -0.193576 0 -4.78912 -0.505017 0 -0.680299 -0.164127 0 
-4.35328 0.854742 0 -6.45153 1.38417 0 -4.87282 0.800139 0 
-5.51921 0.586628 0 -5.08085 1.08727 0 -5.55809 0.432513 0 
-3.10418 -0.198088 0 -5.34771 0.498347 0 -5.40817 0.61178 0 
-5.65635 0.432131 0 -3.67094 -0.436395 0 -4.7743 -0.592279 0 
-5.6273 0.386749 0 -5.67523 0.357482 0 -5.64426 0.584376 0 
-5.3377 0.723494 0 -5.2001 0.7196 0 -5.91325 -0.317524 0 
-4.6337 -0.664998 0 -5.65504 0.363077 0 -3.61841 0.466131 0 
-5.27447 0.478041 0 -4.25599 -0.105961 0 -5.75339 0.505098 0 
-5.42314 0.53908 0 -5.37642 0.540826 0 -5.73085 0.496381 0 
-1.05085 -0.095822 0 -5.0296 0.704781 0 -5.11333 0.106001 0 
-0.692863 0.711936 0 -4.1902 -0.766535 0 -0.691677 0.222542 0 
-5.66169 0.363366 0 -5.70212 0.433524 0 -2.88506 0.109096 0 
-2.02288 -1.45811 0 -2.70211 0.492338 0 -3.94386 -0.0532572 0 
0.321383 0.217429 0 -2.25517 0.563915 0 -4.9503 0.429744 0 
-5.06523 0.459996 0 -6.31452 1.11556 0 -1.25578 0.217704 0 
-5.04745 -0.104094 0 -3.91096 0.590092 0 -4.65523 -0.492886 0 
-4.92593 0.588104 0 -2.74845 0.416225 0 -2.74042 0.364691 0 
-0.878417 -0.0286818 0 -0.435284 -0.322449 0 -2.37913 -0.509966 0 
-3.53822 0.25634 0 -3.53912 -1.29332 0 -0.64521 -0.138541 0 
-4.91793 -1.13511 0 -2.51265 -0.399651 0 -4.23911 -0.121921 0 
-5.0221 -0.56799 0 -3.90059 -0.0382271 0 -2.87888 0.246144 0 
-4.36123 -0.475648 0 -3.60415 -0.110571 0 -4.97391 0.738967 0 
-3.18152 -0.322683 0 -4.35428 -0.0696286 0 -4.50244 -0.227136 0 
-5.47547 0.493312 0 -4.64158 -0.319395 0 -6.29088 0.908496 0 
-0.832165 1.04705 0 -4.72628 0.468019 0 -1.90025 0.249246 0 
-5.03593 0.916388 0 -1.77451 0.903225 0 -2.53356 -0.208203 0 
-4.14925 -0.0161874 0 -4.12663 -0.0499834 0 0.817502 0.178912 0 
-5.06372 -0.845569 0 -3.99623 0.0150905 0 -3.73283 -0.109302 0 
-1.93261 0.608675 0 -2.83501 -0.627081 0 -5.37087 -0.889682 0 
-5.193 -0.759045 0 -4.59512 0.480868 0 -5.50036 0.664944 0 
-4.92695 0.753265 0 -5.60096 0.392857 0 -6.31822 0.539666 0 
-5.64799 0.364876 0 -5.35094 0.513302 0 -2.08802 -0.152882 0 
-0.122885 -0.440315 0 -4.56816 -0.274077 0 -4.54391 0.114276 0 
-0.110061 0.541514 0 -4.07306 -0.160462 0 -0.754309 -1.36782 0 
-0.392155 -0.0919922 0 -0.136936 -0.201199 0 -5.29737 0.419106 0 
0.714901 -1.01253 0 -5.2025 0.251652 0 -5.69755 0.379055 0 
-3.86802 -0.661091 0 -5.10426 0.722103 0 -1.72861 -0.397254 0 
-3.89339 -0.118069 0 -3.84064 -0.0345281 0 -5.2116 0.520559 0 
-1.47783 0.0661373 0 -3.53517 0.425802 0 -5.92653 0.517554 0 

noise 3 450 double
-0 -0.000678472 0 0 0.000139803 0 -0 -0.000895987 0 
-0 -0.000569106 0 0 0.000946997 0 -0 -0.000988964 0 
0 0.000838606 0 0 0.00021444 0 0 0.000468657 0 
-0 -0.000541735 0 -0 -9.14717e-05 0 -0 -0.000456476 0 
-0 -0.000547736 0 0 0.000322732 0 0 0.000708371 0 
-0 -0.000810277 0 -0 -0.000711998 0 -0 -0.000470173 0 
-0 -0.000586163 0 0 0.000972077 0 -0 -0.000932852 0 
-0 -0.000254784 0 0 0.000721578 0 -0 -0.000892915 0 
-0 -0.000990673 0 -0 -0.000969956 0 0 9.31819e-05 0 
-0 -0.000374769 0 0 0.000249799 0 -0 -0.000223099 0 
-0 -6.57901e-05 0 0 0.00054029 0 0 0.000400101 0 
-0 -0.000317851 0 -0 -0.000924576 0 -0 -0.000997368 0 
-0 -0.000303158 0 -0 -0.000707157 0 -0 -0.000996253 0 
-0 -0.000450352 0 -0 -0.000973273 0 -0 -0.000758894 0 
0 0.000197634 0 -0 -0.000910118 0 -0 -0.000883313 0 
-0 -0.000919142 0 -0 -0.000476478 0 -0 -0.000952984 0 
-0 -0.000779916 0 -0 -0.000431598 0 0 0.000156788 0 
0 0.0007765 0 -0 -0.00079055 0 -0 -0.000609565 0 
-0 -0.000797855 0 -0 -0.000692229 0 -0 -0.000979562 0 
0 0.00016865 0 -0 -9.85961e-05 0 0 0.000996959 0 
0 0.000647405 0 -0 -0.000660399 0 0 0.000581981 0 
-0 -0.000595861 0 -0 -0.000148301 0 0 0.00085161 0 
-0 -0.000173726 0 -0 -0.000980977 0 -0 -0.000635326 0 
0 0.000984166 0 -0 -0.00023814 0 0 0.000987065 0 
-0 -0.000825104 0 0 0.000576146 0 -0 -0.000985652 0 
0 0.000221425 0 0 0.000562024 0 -0 -0.000999945 0 
0 1.03047e-05 0 0 0.000949272 0 -0 -0.00099957 0 
0 0.000602735 0 -0 -0.000829127 0 -0 -0.000814284 0 
0 0.000301521 0 -0 -0.000749685 0 0 0.000512548 0 
-0 -0.000845094 0 0 0.000847837 0 -0 -0.000646095 0 
0 0.000666823 0 -0 -0.00096608 0 -0 -0.000852509 0 
-0 -0.000946444 0 -0 -0.000516966 0 -0 -0.000961502 0 
-0 -0.00086911 0 -0 -0.000591715 0 0 0.000316222 0 
0 0.000462577 0 0 0.000880886 0 0 0.000748547 0 
0 0.000997491 0 0 0.00078099 0 0 0.000995474 0 
0 0.000904949 0 0 0.000641934 0 0 0.000690989 0 
-0 -8.58726e-06 0 0 0.00080095 0 -0 -0.00099856 0 
0 0.000961029 0 0 0.00096095 0 0 0.00029469 0 
0 0.000236471 0 0 0.000671926 0 0 0.000905071 0 
-0 -0.00095088 0 -0 -0.000340825 0 -0 -0.000511073 0 
0 0.000474714 0 0 0.000926527 0 0 0.000608203 0 
-0 -0.000993695 0 0 0.000992696 0 0 5.00726e-05 0 
0 0.000387472 0 0 0.00078081 0 -0 -0.000899768 0 
0 0.000546058 0 0 0.000278235 0 -0 -3.29129e-05 0 
0 0.000888885 0 0 0.00099927 0 -0 -5.89336e-05 0 
0 0.000132713 0 0 0.000256445 0 0 0.000988187 0 
0 0.000597239 0 -0 -0.000417603 0 0 0.000980642 0 
0 0.000528678 0 -0 -0.000992867 0 0 0.000628671 0 
-0 -0.000368391 0 0 0.000970373 0 -0 -0.000216397 0 
0 0.00035692 0 0 0.000826073 0 0 0.000870099 0 
-0 -0.000989958 0 0 0.000161874 0 0 0.000406388 0 
0 0.000980586 0 -0 -0.000944204 0 -0 -0.000720388 0 
0 7.94935e-05 0 -0 -0.000640837 0 0 0.000433147 0 
-0 -0.000860487 0 0 7.43564e-05 0 -0 -0.000296604 0 
0 0.000805215 0 -0 -0.000872627 0 -0 -0.000580583 0 
-0 -0.00094134 0 0 0.000992661 0 0 0.000999926 0 
-0 -0.000615223 0 -0 -0.000261698 0 0 0.000954532 0 
0 0.0009171 0 -0 -0.000775417 0 0 0.000379541 0 
0 0.000726318 0 0 0.000764458 0 -0 -0.000309698 0 
-0 -0.000155091 0 0 3.43494e-06 0 -0 -0.00018077 0 
-0 -0.000955043 0 -0 -0.000880072 0 -0 -0.000984469 0 
0 0.000937115 0 -0 -0.000959511 0 -0 -0.00099985 0 
0 0.000527219 0 0 0.000892141 0 0 0.00081528 0 
0 0.000975964 0 -0 -0.000702283 0 -0 -0.000806232 0 
-0 -0.000115672 0 0 0.00010002 0 -0 -0.000395374 0 
-0 -0.000444208 0 0 0.000999281 0 -0 -0.000491506 0 
0 1.71739e-05 0 -0 -0.000737049 0 0 0.000996959 0 
0 0.000454947 0 -0 -0.000754402 0 0 0.000175417 0 
0 0.000869958 0 -0 -0.000141504 0 -0 -0.000889801 0 
0 0.000329227 0 0 0.000937216 0 0 0.000789497 0 
0 0.000876789 0 0 0.000534497 0 -0 -0.000745121 0 
0 0.000946997 0 0 0.000972077 0 0 0.000132713 0 
-0 -9.14717e-05 0 0 0.000949272 0 0 0.000301521 0 
0 0.000628671 0 0 0.000619277 0 0 0.000735887 0 
-0 -0.00028318 0 0 0.000833897 0 -0 -0.000261698 0 
0 0.000189209 0 -0 -0.00086911 0 -0 -0.000763349 0 
0 0.00050639 0 0 0.000805215 0 -0 -0.000997843 0 
-0 -0.000916414 0 -0 -8.58726e-06 0 0 0.000990906 0 
-0 -0.000202682 0 -0 -0.000115672 0 0 0.000822182 0 
-0 -0.000541735 0 -0 -0.000609565 0 0 0.000772153 0 
0 0.000512548 0 -0 -0.000974828 0 0 0.000993501 0 
0 0.000962906 0 0 0.000907971 0 0 0.000998984 0 
0 0.000690989 0 0 0.000785262 0 -0 -0.000361728 0 
0 0.000873465 0 0 0.000975964 0 0 0.000939589 0 
0 0.00067721 0 0 0.000412916 0 -0 -5.17879e-05 0 
0 0.000263355 0 0 0.00021444 0 0 0.000981964 0 
-0 -0.000498967 0 -0 -0.000872627 0 0 0.000107138 0 
0 0.00055204 0 -0 -0.000209405 0 0 0.000888885 0 
0 0.000847837 0 0 0.000576146 0 -0 -0.00018077 0 
0 0.000197634 0 0 0.000682248 0 -0 -0.000229791 0 
-0 -0.000825104 0 0 0.000959026 0 -0 -0.000961502 0 
0 8.63397e-05 0 0 0.000957057 0 0 0.00098324 0 
-0 -0.000254784 0 0 3.11963e-05 0 0 0.000393796 0 
-0 -0.000995636 0 0 0.000970373 0 0 0.000999707 0 
0 0.000641934 0 0 0.000113966 0 -0 -0.000381129 0 
-0 -0.000630006 0 -0 -0.000547736 0 -0 -0.000927172 0 
-0 -7.26435e-05 0 0 0.000342439 0 0 0.000998651 0 
0 0.000910828 0 0 0.000487013 0 0 0.00099426 0 
-0 -0.000127605 0 -0 -0.000968262 0 0 0.000964737 0 
0 0.000661687 0 -0 -4.4926e-05 0 -0 -0.000522834 0 
-0 -0.000651323 0 0 0.000932232 0 0 0.000988187 0 
-0 -0.000355315 0 0 0.000987065 0 0 0.00081528 0 
0 0.0008631 0 0 0.00029469 0 -0 -0.000841401 0 
0 0.000527219 0 -0 -0.000860487 0 -0 -0.00085608 0 
0 0.000941919 0 0 0.000269977 0 -0 -0.000395374 0 
0 0.000999518 0 -0 -0.000491506 0 0 0.000902004 0 
0 0.000278235 0 -0 -0.000615223 0 0 0.000979215 0 
0 0.000977799 0 0 0.000557755 0 -0 -0.000992867 0 
0 0.00086655 0 0 0.000934696 0 0 0.000991807 0 
0 0.000139803 0 -0 -0.000979562 0 0 0.000899017 0 
0 0.000419163 0 -0 -0.000504908 0 -0 -0.000678472 0 
0 0.000243141 0 -0 -0.000793694 0 -0 -0.000987922 0 
0 0.000348885 0 0 0.000581981 0 0 0.00019595 0 
-0 -0.000340825 0 0 0.000624656 0 0 0.000966522 0 
-0 -0.000120788 0 -0 -0.000775417 0 0 0.000672139 0 
0 0.000613868 0 0 2.43291e-05 0 -0 -0.000437785 0 
-0 -0.000697171 0 -0 -0.000801977 0 0 0.0009171 0 
0 0.000546299 0 0 0.000335976 0 0 0.00085161 0 
0 0.000837669 0 -0 -0.000510826 0 -0 -0.000425391 0 
0 0.000493001 0 0 0.000913642 0 -0 -0.000276585 0 
0 0.000999926 0 -0 -0.00094864 0 0 0.000929724 0 
0 5.00726e-05 0 -0 -0.000720388 0 0 0.000838606 0 
0 0.000182459 0 -0 -0.000289762 0 0 0.000995474 0 
0 0.000880886 0 0 0.000647405 0 -0 -0.000216117 0 
0 0.000454947 0 0 0.000892141 0 -0 -0.000980977 0 
0 0.000740521 0 0 0.00050639 0 -0 -0.000990673 0 
0 0.000859611 0 -0 -0.00099957 0 -0 -0.000959511 0 
0 0.00035692 0 -0 -3.29129e-05 0 -0 -0.000595861 0 
-0 -0.000476478 0 -0 -0.000779916 0 -0 -0.000417603 0 
0 0.000748547 0 -0 -0.000932852 0 0 0.000562024 0 
-0 -0.000910118 0 -0 -0.000470173 0 -0 -0.000368124 0 
0 0.000767769 0 -0 -0.000921826 0 -0 -0.00099856 0 
0 0.00040665 0 0 0.000100305 0 -0 -0.000986788 0 
-0 -5.86473e-05 0 -0 -0.000996847 0 -0 -0.000971672 0 
0 0.000731218 0 -0 -0.000848898 0 0 0.00080095 0 
0 0.000433147 0 -0 -0.000173726 0 0 0.000997491 0 
0 0.000221425 0 0 0.000926527 0 0 0.000156788 0 
-0 -0.000996824 0 -0 -0.000640616 0 -0 -0.00094134 0 
0 0.000656521 0 -0 -0.000971605 0 -0 -0.000848747 0 
0 0.000708371 0 0 0.000379541 0 0 0.000716805 0 
0 0.000818253 0 -0 -0.000993695 0 -0 -0.000574742 0 
-0 -0.000999994 0 0 3.80621e-05 0 -0 -0.000687255 0 
0 0.000481001 0 0 0.000994971 0 0 0.000984166 0 
-0 -0.000317851 0 -0 -0.000921937 0 0 0.000954532 0 
-0 -0.000660399 0 0 0.000256722 0 -0 -0.000737049 0 
-0 -0.00079055 0 -0 -9.85961e-05 0 0 0.00099827 0 
0 7.43564e-05 0 0 0.000976336 0 -0 -0.000134415 0 
-0 -0.00096608 0 -0 -0.000886513 0 -0 -0.00023814 0 
-0 -0.000899768 0 -0 -0.000754214 0 0 0.000830086 0 
-0 -0.000829127 0 0 0.000764458 0 -0 -0.000563444 0 

